8.492820e-01,1.063216e+00,7.700920e-01,2,0,0.000000e+00,0.000000e+00
1.260259e+00,2.015890e-01,1.888275e-01,3,0,7.550078e-02,7.550094e-02
1.260973e+00,1.908820e-01,1.821518e-01,3,0,1.392706e-01,1.392709e-01
1.264324e+00,2.073260e-01,1.969337e-01,3,0,2.945231e-01,2.945235e-01
1.264427e+00,1.908010e-01,1.819134e-01,3,0,2.713983e-01,2.713985e-01
1.270073e+00,1.953670e-01,1.862049e-01,3,0,1.273066e+00,1.273068e+00
1.263506e+00,1.912150e-01,1.821518e-01,3,0,1.776988e+00,1.776988e+00
1.266469e+00,1.963400e-01,1.871586e-01,3,0,2.333710e+00,2.333711e+00
1.273471e+00,1.906620e-01,1.809597e-01,3,0,1.147661e+00,1.147660e+00
1.264499e+00,1.962980e-01,1.869202e-01,3,0,1.017220e+00,1.017220e+00
1.264540e+00,1.909380e-01,1.821518e-01,3,0,8.426457e-01,8.426460e-01
1.263502e+00,1.962840e-01,1.869202e-01,3,0,9.749332e-01,9.749339e-01
1.263531e+00,1.907290e-01,1.809597e-01,3,0,1.615443e+00,1.615444e+00
1.264991e+00,1.954670e-01,1.859665e-01,3,0,2.204132e+00,2.204133e+00
1.266462e+00,1.910000e-01,1.809597e-01,3,0,2.021057e+00,2.021057e+00
1.265058e+00,1.952140e-01,1.859665e-01,3,0,2.821884e+00,2.821886e+00
1.263813e+00,1.908020e-01,1.819134e-01,3,0,2.204836e+00,2.204836e+00
1.264100e+00,1.960360e-01,1.871586e-01,3,0,1.929722e+00,1.929722e+00
1.262851e+00,1.910220e-01,1.821518e-01,3,0,1.843490e+00,1.843490e+00
1.263008e+00,1.957170e-01,1.859665e-01,3,0,1.756232e+00,1.756233e+00
1.302534e+00,2.030130e-01,1.940727e-01,3,0,1.837166e+00,1.837167e+00
1.264490e+00,1.964770e-01,1.881123e-01,3,0,1.531560e+00,1.531560e+00
1.262196e+00,1.904580e-01,1.809597e-01,3,0,1.379545e+00,1.379545e+00
1.263675e+00,1.955610e-01,1.869202e-01,3,0,1.203360e+00,1.203360e+00
1.264234e+00,1.909550e-01,1.819134e-01,3,0,1.186874e+00,1.186874e+00
1.261940e+00,1.961730e-01,1.871586e-01,3,0,1.147252e+00,1.147252e+00
1.264269e+00,1.908650e-01,1.819134e-01,3,0,9.502009e-01,9.502012e-01
1.267008e+00,1.963200e-01,1.869202e-01,3,0,6.786570e-01,6.786572e-01
1.262603e+00,1.906160e-01,1.809597e-01,3,0,3.417595e-01,3.417598e-01
1.262080e+00,1.963910e-01,1.869202e-01,3,0,2.947097e-01,2.947098e-01
1.262651e+00,1.910590e-01,1.821518e-01,3,0,5.879488e-01,5.879496e-01
1.263866e+00,1.958700e-01,1.869202e-01,3,0,6.923793e-01,6.923798e-01
1.265156e+00,1.908230e-01,1.809597e-01,3,0,5.973160e-01,5.973161e-01
1.261269e+00,1.954670e-01,1.859665e-01,3,0,9.191548e-01,9.191555e-01
1.264735e+00,1.912550e-01,1.819134e-01,3,0,7.523447e-01,7.523448e-01
1.270418e+00,1.907090e-01,1.819134e-01,3,0,5.554150e-01,5.554150e-01
1.263354e+00,1.908150e-01,1.819134e-01,3,0,4.065824e-01,4.065826e-01
1.261002e+00,1.905200e-01,1.811981e-01,3,0,3.366953e-01,3.366954e-01
1.262036e+00,1.904170e-01,1.809597e-01,3,0,8.576678e-01,8.576687e-01
1.265593e+00,1.908980e-01,1.809597e-01,3,0,9.477144e-01,9.477146e-01
1.261989e+00,1.907550e-01,1.819134e-01,3,0,2.135459e+00,2.135460e+00
1.268988e+00,1.903120e-01,1.811981e-01,3,0,2.923777e+00,2.923779e+00
1.264020e+00,1.902300e-01,1.809597e-01,3,0,1.852391e+00,1.852391e+00
1.270729e+00,1.906700e-01,1.809597e-01,3,0,2.799191e+00,2.799193e+00
1.264016e+00,1.905230e-01,1.809597e-01,3,0,2.238454e+00,2.238454e+00
1.268270e+00,1.902930e-01,1.809597e-01,3,0,1.810533e+00,1.810533e+00
1.262097e+00,1.904380e-01,1.809597e-01,3,0,1.622085e+00,1.622085e+00
1.271063e+00,1.901310e-01,1.811981e-01,3,0,1.346987e+00,1.346988e+00
1.264426e+00,1.909080e-01,1.819134e-01,3,0,1.082154e+00,1.082154e+00
1.270862e+00,1.912060e-01,1.821518e-01,3,0,6.894114e-01,6.894113e-01
1.265455e+00,1.906730e-01,1.809597e-01,3,0,6.183574e-01,6.183577e-01
1.265739e+00,1.909440e-01,1.819134e-01,3,0,9.842941e-01,9.842949e-01
1.264167e+00,1.909630e-01,1.819134e-01,3,0,7.187417e-01,7.187418e-01
1.294961e+00,1.915070e-01,1.819134e-01,3,0,6.126999e-01,6.126999e-01
1.261404e+00,1.908800e-01,1.819134e-01,3,0,8.099082e-01,8.099087e-01
1.268808e+00,1.904850e-01,1.819134e-01,3,0,1.111553e+00,1.111554e+00
1.261498e+00,1.903440e-01,1.819134e-01,3,0,6.013858e-01,6.013857e-01
1.269672e+00,1.909220e-01,1.809597e-01,3,0,9.270743e-01,9.270750e-01
1.264676e+00,1.909200e-01,1.819134e-01,3,0,1.309008e+00,1.309009e+00
1.268014e+00,1.909680e-01,1.819134e-01,3,0,1.972319e+00,1.972320e+00
1.262939e+00,1.899510e-01,1.811981e-01,3,0,8.945292e-01,8.945298e-01
1.269489e+00,1.904710e-01,1.809597e-01,3,0,1.934340e+00,1.934342e+00
1.266077e+00,1.904030e-01,1.821518e-01,3,0,3.643563e+00,3.643566e+00
1.271652e+00,1.904270e-01,1.809597e-01,3,0,1.981067e+00,1.981066e+00
1.264761e+00,1.908030e-01,1.819134e-01,3,0,2.723415e+00,2.723417e+00
1.270733e+00,1.903220e-01,1.809597e-01,3,0,1.180076e+00,1.180075e+00
1.263288e+00,1.908130e-01,1.809597e-01,3,0,1.263674e+00,1.263675e+00
1.268410e+00,1.910000e-01,1.821518e-01,3,0,9.874007e-01,9.874010e-01
1.266377e+00,1.905270e-01,1.819134e-01,3,0,7.762666e-01,7.762669e-01
1.268565e+00,1.907430e-01,1.809597e-01,3,0,5.934270e-01,5.934273e-01
1.263198e+00,1.904620e-01,1.819134e-01,3,0,8.843576e-01,8.843583e-01
1.267838e+00,1.908990e-01,1.811981e-01,3,0,9.026865e-01,9.026867e-01
1.263321e+00,1.911640e-01,1.819134e-01,3,0,9.150988e-01,9.150991e-01
1.272634e+00,1.905260e-01,1.809597e-01,3,0,1.030915e+00,1.030915e+00
1.263981e+00,1.903860e-01,1.819134e-01,3,0,1.502469e+00,1.502470e+00
1.271192e+00,1.904590e-01,1.819134e-01,3,0,2.017975e+00,2.017976e+00
1.267866e+00,1.906620e-01,1.819134e-01,3,0,1.216816e+00,1.216816e+00
1.267502e+00,1.909320e-01,1.811981e-01,3,0,1.212940e+00,1.212941e+00
1.265456e+00,1.909710e-01,1.809597e-01,3,0,8.961043e-01,8.961043e-01
1.270121e+00,1.908170e-01,1.809597e-01,3,0,4.427208e-01,4.427208e-01
1.263028e+00,1.901370e-01,1.809597e-01,3,0,1.517221e+00,1.517223e+00
1.270333e+00,1.907370e-01,1.821518e-01,3,0,1.123792e+00,1.123792e+00
1.266916e+00,1.908110e-01,1.821518e-01,3,0,1.006887e+00,1.006887e+00
1.269109e+00,1.902260e-01,1.809597e-01,3,0,9.700708e-01,9.700714e-01
1.259190e+00,1.899950e-01,1.811981e-01,3,0,1.391503e+00,1.391504e+00
1.268359e+00,1.907560e-01,1.809597e-01,3,0,2.499394e+00,2.499395e+00
1.261071e+00,1.951830e-01,1.859665e-01,3,0,3.745386e+00,3.745388e+00
1.285802e+00,5.567020e-01,5.469322e-01,3,1,5.467228e+00,5.467413e+00
1.269663e+00,4.866950e-01,4.770756e-01,3,1,4.448808e+00,4.448807e+00
1.265601e+00,1.992860e-01,1.890659e-01,3,0,3.175237e+00,3.175236e+00
1.270165e+00,1.905180e-01,1.821518e-01,3,0,2.447584e+00,2.447584e+00
1.263915e+00,1.909080e-01,1.821518e-01,3,0,1.717504e+00,1.717504e+00
1.269624e+00,1.903130e-01,1.809597e-01,3,0,2.426209e+00,2.426211e+00
1.266100e+00,1.906780e-01,1.809597e-01,3,0,1.804372e+00,1.804372e+00
1.269640e+00,1.904230e-01,1.809597e-01,3,0,2.324896e+00,2.324897e+00
1.265584e+00,1.906570e-01,1.819134e-01,3,0,2.510537e+00,2.510538e+00
1.271081e+00,1.902430e-01,1.809597e-01,3,0,1.086454e+00,1.086454e+00
1.263958e+00,1.909280e-01,1.819134e-01,3,0,9.410226e-01,9.410229e-01
1.269728e+00,1.910450e-01,1.819134e-01,3,0,1.324946e+00,1.324946e+00
1.262843e+00,1.907030e-01,1.809597e-01,3,0,1.421946e+00,1.421946e+00
1.268976e+00,1.905590e-01,1.809597e-01,3,0,1.071994e+00,1.071994e+00
1.261102e+00,1.907150e-01,1.819134e-01,3,0,1.242755e+00,1.242755e+00
1.269145e+00,1.906370e-01,1.819134e-01,3,0,7.251480e-01,7.251481e-01
1.263938e+00,1.911310e-01,1.819134e-01,3,0,6.598995e-01,6.598996e-01
1.268646e+00,1.905530e-01,1.819134e-01,3,0,5.463697e-01,5.463698e-01
1.263565e+00,1.908870e-01,1.821518e-01,3,0,5.799359e-01,5.799364e-01
1.266989e+00,1.910470e-01,1.821518e-01,3,0,8.098027e-01,8.098033e-01
1.263414e+00,1.907890e-01,1.809597e-01,3,0,8.837597e-01,8.837600e-01
1.266255e+00,1.914230e-01,1.831055e-01,3,0,5.686046e-01,5.686046e-01
1.264139e+00,1.907280e-01,1.809597e-01,3,0,5.739388e-01,5.739391e-01
1.267463e+00,1.910140e-01,1.821518e-01,3,0,5.300203e-01,5.300205e-01
1.262631e+00,1.901240e-01,1.809597e-01,3,0,4.514162e-01,4.514166e-01
1.271114e+00,1.913420e-01,1.831055e-01,3,0,3.144383e-01,3.144384e-01
1.260684e+00,1.908670e-01,1.809597e-01,3,0,5.546371e-01,5.546377e-01
1.268804e+00,1.912170e-01,1.819134e-01,3,0,2.939834e-01,2.939835e-01
1.262683e+00,1.911800e-01,1.821518e-01,3,0,3.394433e-01,3.394435e-01
1.261929e+00,1.908690e-01,1.809597e-01,3,0,8.794453e-01,8.794463e-01
1.263627e+00,1.914890e-01,1.821518e-01,3,0,6.413848e-01,6.413848e-01
1.262845e+00,1.903040e-01,1.811981e-01,3,0,2.066182e+00,2.066184e+00
1.264462e+00,1.947190e-01,1.809597e-01,3,0,1.433950e+00,1.433950e+00
1.294698e+00,1.909860e-01,1.821518e-01,3,0,1.389161e+00,1.389162e+00
1.262354e+00,1.913360e-01,1.821518e-01,3,0,1.730335e+00,1.730336e+00
1.291541e+00,1.912450e-01,1.819134e-01,3,0,1.562355e+00,1.562355e+00
1.263796e+00,1.913070e-01,1.821518e-01,3,0,1.720593e+00,1.720593e+00
1.268020e+00,1.907110e-01,1.809597e-01,3,0,3.036876e+00,3.036879e+00
1.264516e+00,1.906410e-01,1.819134e-01,3,0,1.973471e+00,1.973470e+00
1.263022e+00,1.908100e-01,1.821518e-01,3,0,1.500746e+00,1.500746e+00
1.261723e+00,1.951220e-01,1.809597e-01,3,0,1.308689e+00,1.308690e+00
1.262677e+00,1.904100e-01,1.809597e-01,3,0,7.826753e-01,7.826757e-01
1.263825e+00,1.957400e-01,1.859665e-01,3,0,8.587389e-01,8.587399e-01
1.262021e+00,1.907020e-01,1.811981e-01,3,0,5.384690e-01,5.384692e-01
1.262674e+00,1.962810e-01,1.869202e-01,3,0,7.085613e-01,7.085619e-01
1.263450e+00,1.902230e-01,1.811981e-01,3,0,3.165290e-01,3.165291e-01
1.259063e+00,1.960480e-01,1.869202e-01,3,0,2.574300e-01,2.574301e-01
1.260461e+00,1.906550e-01,1.809597e-01,3,0,2.646273e-01,2.646275e-01
1.261359e+00,1.958170e-01,1.859665e-01,3,0,5.743972e-01,5.743979e-01
1.294183e+00,2.045710e-01,1.950264e-01,3,0,5.926450e-01,5.926453e-01
1.294751e+00,2.089710e-01,1.990795e-01,3,0,5.020436e-01,5.020437e-01
1.299598e+00,1.976420e-01,1.878738e-01,3,0,5.469793e-01,5.469796e-01
1.294671e+00,1.972080e-01,1.871586e-01,3,0,4.634504e-01,4.634506e-01
1.299741e+00,1.976800e-01,1.890659e-01,3,0,8.639298e-01,8.639306e-01
1.294893e+00,1.972330e-01,1.878738e-01,3,0,1.472558e+00,1.472559e+00
1.303367e+00,1.972020e-01,1.881123e-01,3,0,1.663320e+00,1.663321e+00
1.297971e+00,1.962790e-01,1.859665e-01,3,0,1.301928e+00,1.301928e+00
1.303557e+00,1.975580e-01,1.878738e-01,3,0,1.158772e+00,1.158772e+00
1.296538e+00,1.977430e-01,1.878738e-01,3,0,1.071729e+00,1.071729e+00
1.295286e+00,1.969060e-01,1.871586e-01,3,0,7.688698e-01,7.688698e-01
1.302822e+00,1.994260e-01,1.900196e-01,3,0,6.760058e-01,6.760067e-01
1.297560e+00,2.029840e-01,1.940727e-01,3,0,1.190080e+00,1.190082e+00
1.300352e+00,1.962600e-01,1.871586e-01,3,0,1.702830e+00,1.702831e+00
1.302197e+00,2.013490e-01,1.921654e-01,3,0,1.040863e+00,1.040863e+00
1.305713e+00,1.965760e-01,1.869202e-01,3,0,9.853935e-01,9.853937e-01
1.299728e+00,1.964010e-01,1.871586e-01,3,0,8.851255e-01,8.851257e-01
1.303762e+00,1.959530e-01,1.869202e-01,3,0,8.116157e-01,8.116159e-01
1.300259e+00,1.966470e-01,1.878738e-01,3,0,6.690446e-01,6.690448e-01
1.306007e+00,1.969240e-01,1.869202e-01,3,0,7.522641e-01,7.522646e-01
1.300730e+00,1.961680e-01,1.862049e-01,3,0,1.229020e+00,1.229021e+00
1.307313e+00,1.968690e-01,1.869202e-01,3,0,1.181290e+00,1.181290e+00
1.302128e+00,1.966480e-01,1.881123e-01,3,0,1.251217e+00,1.251217e+00
1.300648e+00,1.961080e-01,1.869202e-01,3,0,1.419613e+00,1.419614e+00
1.300245e+00,1.961250e-01,1.871586e-01,3,0,6.497962e-01,6.497963e-01
1.299903e+00,2.023650e-01,1.921654e-01,3,0,5.195459e-01,5.195461e-01
1.299512e+00,1.961340e-01,1.859665e-01,3,0,5.445820e-01,5.445824e-01
1.301943e+00,2.011250e-01,1.919270e-01,3,0,2.469490e-01,2.469493e-01
1.298728e+00,1.963690e-01,1.869202e-01,3,0,2.486740e-01,2.486741e-01
1.299597e+00,2.023000e-01,1.919270e-01,3,0,4.252994e-01,4.252998e-01
1.302971e+00,1.959970e-01,1.869202e-01,3,0,3.624122e-01,3.624122e-01
1.298634e+00,1.957860e-01,1.862049e-01,3,0,9.756999e-01,9.757014e-01
1.304899e+00,1.966110e-01,1.871586e-01,3,0,7.256290e-01,7.256296e-01
1.298433e+00,1.960740e-01,1.871586e-01,3,0,5.132352e-01,5.132354e-01
1.305839e+00,1.970980e-01,1.881123e-01,3,0,4.574957e-01,4.574959e-01
1.296940e+00,1.965610e-01,1.871586e-01,3,0,4.658428e-01,4.658431e-01
1.304495e+00,1.966660e-01,1.869202e-01,3,0,4.788151e-01,4.788154e-01
1.297269e+00,1.963810e-01,1.869202e-01,3,0,3.025519e-01,3.025520e-01
1.296834e+00,2.012500e-01,1.921654e-01,3,0,3.391366e-01,3.391369e-01
1.298838e+00,1.958520e-01,1.859665e-01,3,0,2.776732e-01,2.776734e-01
1.302815e+00,2.014180e-01,1.909733e-01,3,0,2.396825e-01,2.396826e-01
1.298758e+00,1.960150e-01,1.862049e-01,3,0,6.453740e-01,6.453748e-01
1.298764e+00,2.009210e-01,1.909733e-01,3,0,4.078096e-01,4.078099e-01
1.301893e+00,1.962660e-01,1.859665e-01,3,0,6.451532e-01,6.451537e-01
1.298572e+00,1.963540e-01,1.871586e-01,3,0,1.041233e+00,1.041234e+00
1.304978e+00,1.963920e-01,1.869202e-01,3,0,8.921139e-01,8.921145e-01
1.299172e+00,1.962520e-01,1.869202e-01,3,0,1.011426e+00,1.011427e+00
1.303439e+00,1.962560e-01,1.869202e-01,3,0,7.101068e-01,7.101069e-01
1.299505e+00,1.961570e-01,1.869202e-01,3,0,7.095861e-01,7.095864e-01
1.301935e+00,1.965100e-01,1.869202e-01,3,0,8.113130e-01,8.113135e-01
1.298107e+00,1.957650e-01,1.859665e-01,3,0,1.780394e+00,1.780396e+00
1.302117e+00,1.964950e-01,1.869202e-01,3,0,2.358464e+00,2.358465e+00
1.302697e+00,1.967590e-01,1.871586e-01,3,0,2.090871e+00,2.090871e+00
1.299325e+00,2.009380e-01,1.909733e-01,3,0,1.699954e+00,1.699955e+00
1.297644e+00,1.961800e-01,1.869202e-01,3,0,1.570483e+00,1.570484e+00
1.300014e+00,2.012880e-01,1.909733e-01,3,0,1.068078e+00,1.068078e+00
1.297519e+00,1.966040e-01,1.869202e-01,3,0,1.056222e+00,1.056223e+00
1.301820e+00,2.014440e-01,1.871586e-01,3,0,1.037597e+00,1.037597e+00
1.302751e+00,1.963630e-01,1.869202e-01,3,0,7.960545e-01,7.960546e-01
1.299729e+00,1.962330e-01,1.871586e-01,3,0,7.037016e-01,7.037018e-01
1.301988e+00,1.962440e-01,1.862049e-01,3,0,1.429994e+00,1.429996e+00
1.299805e+00,1.960900e-01,1.869202e-01,3,0,2.977884e+00,2.977887e+00
1.306388e+00,1.960930e-01,1.869202e-01,3,0,3.030434e+00,3.030435e+00
1.299844e+00,1.955370e-01,1.859665e-01,3,0,3.057134e+00,3.057135e+00
1.309614e+00,1.963660e-01,1.869202e-01,3,0,3.564808e+00,3.564810e+00
1.299922e+00,1.959040e-01,1.869202e-01,3,0,5.101268e+00,5.101270e+00
1.299849e+00,2.018140e-01,1.919270e-01,3,0,3.274938e+00,3.274937e+00
1.300753e+00,1.966140e-01,1.869202e-01,3,0,3.996123e+00,3.996125e+00
1.298199e+00,2.010220e-01,1.909733e-01,3,0,3.084262e+00,3.084262e+00
1.299206e+00,1.959560e-01,1.869202e-01,3,0,2.879089e+00,2.879089e+00
1.302489e+00,2.015040e-01,1.919270e-01,3,0,1.979207e+00,1.979207e+00
1.307536e+00,1.958920e-01,1.871586e-01,3,0,2.492069e+00,2.492070e+00
1.300379e+00,1.961230e-01,1.859665e-01,3,0,1.675417e+00,1.675417e+00
1.306980e+00,1.962830e-01,1.871586e-01,3,0,2.167981e+00,2.167982e+00
1.302836e+00,1.956160e-01,1.859665e-01,3,0,7.076937e-01,7.076936e-01
1.305371e+00,1.963240e-01,1.869202e-01,3,0,9.244447e-01,9.244455e-01
1.298107e+00,1.959460e-01,1.859665e-01,3,0,1.789691e+00,1.789693e+00
1.305571e+00,1.963910e-01,1.869202e-01,3,0,1.379265e+00,1.379265e+00
1.301880e+00,1.959780e-01,1.869202e-01,3,0,2.179142e+00,2.179144e+00
1.300319e+00,2.015440e-01,1.921654e-01,3,0,1.933634e+00,1.933634e+00
1.299090e+00,1.965810e-01,1.881123e-01,3,0,3.261526e+00,3.261529e+00
1.302416e+00,2.011550e-01,1.909733e-01,3,0,1.684841e+00,1.684841e+00
1.286867e+00,1.960120e-01,1.869202e-01,3,0,1.407010e+00,1.407010e+00
1.263536e+00,2.234180e-01,2.140999e-01,3,0,1.099238e+00,1.099238e+00
1.264119e+00,1.907360e-01,1.809597e-01,3,0,1.105764e+00,1.105764e+00
1.264159e+00,1.961980e-01,1.871586e-01,3,0,1.176464e+00,1.176464e+00
1.261226e+00,1.904410e-01,1.809597e-01,3,0,1.765584e+00,1.765585e+00
1.263193e+00,1.956480e-01,1.871586e-01,3,0,7.981748e-01,7.981743e-01
1.264545e+00,1.907260e-01,1.809597e-01,3,0,5.276609e-01,5.276610e-01
1.262812e+00,1.955320e-01,1.859665e-01,3,0,5.993494e-01,5.993497e-01
1.261601e+00,1.907130e-01,1.811981e-01,3,0,5.737398e-01,5.737400e-01
1.262408e+00,1.967180e-01,1.869202e-01,3,0,4.466774e-01,4.466774e-01
1.261611e+00,1.909290e-01,1.811981e-01,3,0,7.208877e-01,7.208886e-01
1.262466e+00,1.958530e-01,1.869202e-01,3,0,1.053741e+00,1.053742e+00
1.262165e+00,1.905990e-01,1.809597e-01,3,0,1.601705e+00,1.601706e+00
1.262336e+00,1.956780e-01,1.859665e-01,3,0,3.475975e+00,3.475978e+00
1.261509e+00,1.907960e-01,1.809597e-01,3,0,4.511358e+00,4.511360e+00
1.264295e+00,1.952310e-01,1.859665e-01,3,0,3.067479e+00,3.067478e+00
1.263948e+00,1.907070e-01,1.809597e-01,3,0,3.786192e+00,3.786194e+00
1.263046e+00,1.958830e-01,1.859665e-01,3,0,2.733514e+00,2.733513e+00
1.265444e+00,1.908770e-01,1.819134e-01,3,0,2.170624e+00,2.170624e+00
1.262908e+00,1.953910e-01,1.859665e-01,3,0,2.416048e+00,2.416049e+00
1.262720e+00,1.902580e-01,1.809597e-01,3,0,1.308537e+00,1.308537e+00
1.262234e+00,1.956550e-01,1.859665e-01,3,0,9.979647e-01,9.979658e-01
1.261129e+00,1.910370e-01,1.809597e-01,3,0,7.687011e-01,7.687012e-01
1.263366e+00,1.951630e-01,1.859665e-01,3,0,7.203361e-01,7.203363e-01
1.261782e+00,1.905100e-01,1.809597e-01,3,0,6.842866e-01,6.842868e-01
1.263750e+00,1.904010e-01,1.809597e-01,3,0,1.062648e+00,1.062648e+00
1.263237e+00,1.906640e-01,1.809597e-01,3,0,3.637674e-01,3.637673e-01
1.261641e+00,1.902190e-01,1.811981e-01,3,0,1.457888e+00,1.457890e+00
1.263616e+00,1.902460e-01,1.809597e-01,3,0,3.220380e+00,3.220382e+00
1.269365e+00,1.904890e-01,1.811981e-01,3,0,1.883266e+00,1.883265e+00
1.265731e+00,1.903760e-01,1.811981e-01,3,0,1.345904e+00,1.345904e+00
1.269412e+00,1.908600e-01,1.821518e-01,3,0,1.103810e+00,1.103810e+00
1.261107e+00,1.908070e-01,1.819134e-01,3,0,9.378064e-01,9.378065e-01
1.292529e+00,1.908720e-01,1.821518e-01,3,0,8.789548e-01,8.789550e-01
1.261656e+00,1.909860e-01,1.819134e-01,3,0,1.483283e+00,1.483284e+00
1.266406e+00,1.907660e-01,1.809597e-01,3,0,1.147227e+00,1.147227e+00
1.269578e+00,1.906230e-01,1.821518e-01,3,0,8.251891e-01,8.251891e-01
1.266152e+00,1.910530e-01,1.821518e-01,3,0,9.187775e-01,9.187779e-01
1.261616e+00,1.907110e-01,1.809597e-01,3,0,1.574782e+00,1.574783e+00
1.267669e+00,1.902370e-01,1.809597e-01,3,0,2.551205e+00,2.551207e+00
1.264235e+00,1.909190e-01,1.821518e-01,3,0,4.641632e+00,4.641636e+00
1.295934e+00,1.907640e-01,1.809597e-01,3,0,5.666045e+00,5.666047e+00
1.264604e+00,1.913990e-01,1.809597e-01,3,0,5.120493e+00,5.120494e+00
1.269486e+00,1.912660e-01,1.821518e-01,3,0,5.371596e+00,5.371598e+00
1.266048e+00,1.904400e-01,1.809597e-01,3,0,4.529396e+00,4.529396e+00
1.269739e+00,1.914190e-01,1.821518e-01,3,0,4.762754e+00,4.762756e+00
1.262770e+00,1.910870e-01,1.821518e-01,3,0,4.756523e+00,4.756524e+00
1.268917e+00,1.900690e-01,1.809597e-01,3,0,3.921165e+00,3.921166e+00
1.264386e+00,1.907900e-01,1.811981e-01,3,0,3.380775e+00,3.380775e+00
1.269696e+00,1.912570e-01,1.821518e-01,3,0,2.601331e+00,2.601331e+00
1.265087e+00,1.909130e-01,1.821518e-01,3,0,2.369196e+00,2.369197e+00
1.273815e+00,1.908100e-01,1.821518e-01,3,0,2.382191e+00,2.382191e+00
1.268741e+00,5.410020e-01,5.319118e-01,3,1,3.050269e+00,3.050893e+00
1.268151e+00,2.488151e+00,2.479076e+00,3,7,5.477040e+00,5.499848e+00
2.518774e+00,1.443439e+00,1.433849e+00,6,4,5.722753e+00,5.747845e+00
2.105350e+00,1.127045e+00,1.118183e+00,5,3,6.271918e+00,6.287140e+00
1.681157e+00,1.068878e+00,1.060009e+00,4,3,5.319746e+00,5.319746e+00
1.267578e+00,1.964910e-01,1.869202e-01,3,0,5.356166e+00,5.356167e+00
1.264631e+00,1.914120e-01,1.819134e-01,3,0,6.532999e+00,6.533002e+00
1.264265e+00,1.961940e-01,1.871586e-01,3,0,6.052419e+00,6.052420e+00
1.265322e+00,1.909410e-01,1.809597e-01,3,0,5.042841e+00,5.042841e+00
1.289613e+00,1.955130e-01,1.859665e-01,3,0,4.255239e+00,4.255240e+00
1.295072e+00,1.922340e-01,1.831055e-01,3,0,3.770938e+00,3.770939e+00
1.262589e+00,1.964540e-01,1.871586e-01,3,0,3.229171e+00,3.229171e+00
1.264674e+00,1.910680e-01,1.821518e-01,3,0,2.964221e+00,2.964221e+00
1.261770e+00,1.956200e-01,1.869202e-01,3,0,3.077434e+00,3.077435e+00
1.261944e+00,1.912000e-01,1.819134e-01,3,0,1.693697e+00,1.693696e+00
1.260819e+00,1.958000e-01,1.869202e-01,3,0,1.470553e+00,1.470554e+00
1.259508e+00,1.905420e-01,1.809597e-01,3,0,1.627839e+00,1.627840e+00
1.264823e+00,2.248260e-01,2.150536e-01,3,0,1.125980e+00,1.125980e+00
1.259263e+00,2.046650e-01,1.950264e-01,3,0,9.507674e-01,9.507675e-01
1.262071e+00,1.969470e-01,1.881123e-01,3,0,7.733032e-01,7.733035e-01
1.261791e+00,1.913100e-01,1.819134e-01,3,0,4.924485e-01,4.924485e-01
1.264902e+00,1.971160e-01,1.881123e-01,3,0,3.696617e-01,3.696624e-01
1.264175e+00,1.909020e-01,1.821518e-01,3,0,2.802130e-01,2.802134e-01
1.262547e+00,1.962800e-01,1.871586e-01,3,0,3.976739e-01,3.976742e-01
1.263882e+00,1.913420e-01,1.819134e-01,3,0,5.342369e-01,5.342373e-01
1.264010e+00,1.965640e-01,1.869202e-01,3,0,3.596130e-01,3.596131e-01
1.263177e+00,1.909130e-01,1.809597e-01,3,0,4.029730e-01,4.029735e-01
1.261621e+00,1.963940e-01,1.881123e-01,3,0,1.111065e+00,1.111066e+00
1.264515e+00,1.905460e-01,1.819134e-01,3,0,2.508753e+00,2.508755e+00
1.264051e+00,1.953870e-01,1.859665e-01,3,0,3.416436e+00,3.416438e+00
1.266849e+00,1.906220e-01,1.821518e-01,3,0,2.873442e+00,2.873442e+00
1.283123e+00,1.958560e-01,1.869202e-01,3,0,3.103727e+00,3.103728e+00
1.267081e+00,1.912950e-01,1.819134e-01,3,0,3.020686e+00,3.020687e+00
1.265195e+00,1.964420e-01,1.869202e-01,3,0,2.668741e+00,2.668741e+00
1.264818e+00,1.906110e-01,1.809597e-01,3,0,2.107371e+00,2.107371e+00
1.264517e+00,1.957760e-01,1.869202e-01,3,0,2.065761e+00,2.065762e+00
1.263623e+00,1.903660e-01,1.809597e-01,3,0,3.668475e+00,3.668478e+00
1.265010e+00,1.973110e-01,1.881123e-01,3,0,4.741019e+00,4.741021e+00
1.263321e+00,1.242955e+00,1.233816e+00,3,3,5.599301e+00,5.613620e+00
1.269239e+00,8.336010e-01,8.249283e-01,3,2,4.565831e+00,4.570773e+00
1.266534e+00,4.828040e-01,4.739761e-01,3,1,3.484034e+00,3.484033e+00
1.290383e+00,1.949340e-01,1.850128e-01,3,0,2.549248e+00,2.549248e+00
1.264696e+00,1.910480e-01,1.819134e-01,3,0,2.078089e+00,2.078090e+00
1.262357e+00,1.955210e-01,1.859665e-01,3,0,2.751482e+00,2.751483e+00
1.267415e+00,1.905270e-01,1.811981e-01,3,0,2.744215e+00,2.744216e+00
1.263976e+00,1.956120e-01,1.859665e-01,3,0,2.066328e+00,2.066328e+00
1.263464e+00,1.906950e-01,1.821518e-01,3,0,2.023031e+00,2.023031e+00
1.263624e+00,1.909290e-01,1.819134e-01,3,0,2.328000e+00,2.328001e+00
1.263234e+00,1.910770e-01,1.819134e-01,3,0,2.420089e+00,2.420090e+00
1.261690e+00,1.910470e-01,1.819134e-01,3,0,2.965939e+00,2.965940e+00
1.263496e+00,1.905890e-01,1.809597e-01,3,0,2.358325e+00,2.358325e+00
1.264330e+00,1.908830e-01,1.819134e-01,3,0,3.078846e+00,3.078848e+00
1.262731e+00,1.905930e-01,1.819134e-01,3,0,3.035389e+00,3.035390e+00
1.270803e+00,1.903930e-01,1.809597e-01,3,0,2.537495e+00,2.537495e+00
1.265288e+00,1.905570e-01,1.809597e-01,3,0,2.097296e+00,2.097296e+00
1.268344e+00,1.908960e-01,1.819134e-01,3,0,2.204030e+00,2.204030e+00
1.263303e+00,1.903830e-01,1.819134e-01,3,0,2.213155e+00,2.213156e+00
1.269052e+00,1.906510e-01,1.811981e-01,3,0,1.633975e+00,1.633975e+00
1.263569e+00,1.908060e-01,1.819134e-01,3,0,1.634336e+00,1.634336e+00
1.267566e+00,1.902600e-01,1.809597e-01,3,0,1.069710e+00,1.069710e+00
1.265113e+00,1.908540e-01,1.819134e-01,3,0,8.811089e-01,8.811090e-01
1.267475e+00,1.906510e-01,1.809597e-01,3,0,5.653318e-01,5.653320e-01
1.262091e+00,1.909710e-01,1.809597e-01,3,0,3.817907e-01,3.817909e-01
1.269560e+00,1.910360e-01,1.819134e-01,3,0,2.167704e-01,2.167705e-01
1.261757e+00,1.912920e-01,1.819134e-01,3,0,4.084118e-01,4.084124e-01
1.268824e+00,1.910190e-01,1.821518e-01,3,0,2.304339e-01,2.304339e-01
1.260785e+00,1.909310e-01,1.819134e-01,3,0,2.223581e-01,2.223584e-01
1.265804e+00,1.908370e-01,1.811981e-01,3,0,1.345786e-01,1.345787e-01
1.263768e+00,1.906290e-01,1.811981e-01,3,0,1.478643e-01,1.478645e-01
1.265893e+00,1.907640e-01,1.809597e-01,3,0,1.320517e-01,1.320518e-01
1.261181e+00,1.908260e-01,1.821518e-01,3,0,3.256077e-01,3.256082e-01
1.267986e+00,1.902440e-01,1.809597e-01,3,0,2.501675e-01,2.501677e-01
1.261943e+00,1.902600e-01,1.809597e-01,3,0,2.692769e-01,2.692776e-01
1.267324e+00,1.908390e-01,1.821518e-01,3,0,5.432110e-01,5.432116e-01
1.263108e+00,1.906740e-01,1.809597e-01,3,0,2.974375e-01,2.974375e-01
1.292042e+00,1.908050e-01,1.821518e-01,3,0,4.238974e-01,4.238977e-01
1.264097e+00,2.048980e-01,1.950264e-01,3,0,4.287167e-01,4.287169e-01
1.266276e+00,1.905870e-01,1.809597e-01,3,0,7.229803e-01,7.229809e-01
1.262794e+00,1.908590e-01,1.819134e-01,3,0,5.510776e-01,5.510777e-01
1.267789e+00,1.910870e-01,1.821518e-01,3,0,3.622927e-01,3.622927e-01
1.261722e+00,1.910640e-01,1.809597e-01,3,0,2.656213e-01,2.656215e-01
1.264991e+00,1.909050e-01,1.821518e-01,3,0,3.561040e-01,3.561044e-01
1.262576e+00,1.906690e-01,1.821518e-01,3,0,3.279824e-01,3.279825e-01
1.265703e+00,1.906470e-01,1.819134e-01,3,0,2.648477e-01,2.648478e-01
1.260701e+00,1.904440e-01,1.819134e-01,3,0,4.634970e-01,4.634974e-01
1.267109e+00,1.909100e-01,1.819134e-01,3,0,3.514571e-01,3.514573e-01
1.262426e+00,1.907020e-01,1.811981e-01,3,0,5.222573e-01,5.222577e-01
1.265677e+00,1.909520e-01,1.809597e-01,3,0,9.238566e-01,9.238573e-01
1.263162e+00,1.909030e-01,1.809597e-01,3,0,8.099784e-01,8.099787e-01
1.265786e+00,1.909820e-01,1.821518e-01,3,0,7.169344e-01,7.169346e-01
1.266035e+00,1.907900e-01,1.809597e-01,3,0,1.639446e+00,1.639447e+00
1.268814e+00,1.906770e-01,1.819134e-01,3,0,1.991770e+00,1.991771e+00
1.263148e+00,1.905990e-01,1.809597e-01,3,0,1.134497e+00,1.134497e+00
1.268549e+00,1.904240e-01,1.809597e-01,3,0,8.490539e-01,8.490539e-01
1.264952e+00,1.906310e-01,1.809597e-01,3,0,6.528362e-01,6.528364e-01
1.262743e+00,1.903930e-01,1.809597e-01,3,0,4.365836e-01,4.365837e-01
1.261540e+00,1.956340e-01,1.821518e-01,3,0,3.856166e-01,3.856168e-01
1.261905e+00,1.906840e-01,1.819134e-01,3,0,5.535294e-01,5.535297e-01
1.268401e+00,1.957270e-01,1.869202e-01,3,0,5.301530e-01,5.301532e-01
1.264229e+00,1.906780e-01,1.819134e-01,3,0,2.629657e-01,2.629660e-01
1.259497e+00,1.958960e-01,1.869202e-01,3,0,7.146291e-01,7.146300e-01
1.264038e+00,1.906060e-01,1.821518e-01,3,0,3.975615e-01,3.975614e-01
1.263932e+00,1.961780e-01,1.869202e-01,3,0,3.522738e-01,3.522740e-01
1.262906e+00,1.907620e-01,1.819134e-01,3,0,4.913079e-01,4.913084e-01
1.261768e+00,1.956550e-01,1.859665e-01,3,0,4.026741e-01,4.026742e-01
1.264430e+00,1.911510e-01,1.819134e-01,3,0,4.729994e-01,4.729997e-01
1.263826e+00,1.954370e-01,1.859665e-01,3,0,6.022197e-01,6.022201e-01
1.261745e+00,1.904300e-01,1.819134e-01,3,0,4.750531e-01,4.750534e-01
1.261034e+00,1.949600e-01,1.859665e-01,3,0,4.940496e-01,4.940501e-01
1.263345e+00,1.909400e-01,1.819134e-01,3,0,6.162175e-01,6.162179e-01
1.263773e+00,1.954720e-01,1.859665e-01,3,0,7.563857e-01,7.563862e-01
1.263826e+00,1.907990e-01,1.821518e-01,3,0,1.134037e+00,1.134038e+00
1.264188e+00,1.955780e-01,1.869202e-01,3,0,7.859842e-01,7.859842e-01
1.262743e+00,1.907430e-01,1.819134e-01,3,0,7.528195e-01,7.528203e-01
1.262582e+00,1.956010e-01,1.871586e-01,3,0,7.290524e-01,7.290526e-01
1.263585e+00,1.914190e-01,1.831055e-01,3,0,7.901867e-01,7.901869e-01
1.264048e+00,2.141810e-01,2.038479e-01,3,0,6.541683e-01,6.541685e-01
1.265567e+00,1.913920e-01,1.819134e-01,3,0,1.113056e+00,1.113058e+00
1.262077e+00,1.961080e-01,1.859665e-01,3,0,8.276499e-01,8.276500e-01
1.260520e+00,1.907250e-01,1.811981e-01,3,0,7.750368e-01,7.750371e-01
1.262222e+00,1.961560e-01,1.871586e-01,3,0,7.599414e-01,7.599417e-01
1.287034e+00,1.906850e-01,1.809597e-01,3,0,6.882507e-01,6.882510e-01
1.263941e+00,1.964330e-01,1.869202e-01,3,0,4.927906e-01,4.927907e-01
1.260427e+00,1.910270e-01,1.819134e-01,3,0,6.018291e-01,6.018295e-01
1.263682e+00,1.965890e-01,1.871586e-01,3,0,6.785708e-01,6.785712e-01
1.260550e+00,1.907300e-01,1.809597e-01,3,0,4.669021e-01,4.669023e-01
1.260762e+00,1.958190e-01,1.869202e-01,3,0,8.774901e-01,8.774911e-01
1.263101e+00,1.906080e-01,1.811981e-01,3,0,6.180020e-01,6.180021e-01
1.262793e+00,1.962980e-01,1.869202e-01,3,0,5.639593e-01,5.639596e-01
1.262872e+00,1.907750e-01,1.809597e-01,3,0,5.055512e-01,5.055513e-01
1.264255e+00,1.955970e-01,1.809597e-01,3,0,3.969552e-01,3.969556e-01
1.260742e+00,1.911830e-01,1.819134e-01,3,0,2.922041e-01,2.922042e-01
1.260450e+00,1.907950e-01,1.819134e-01,3,0,5.790766e-01,5.790771e-01
1.264610e+00,1.907340e-01,1.811981e-01,3,0,4.992791e-01,4.992793e-01
1.264075e+00,1.905230e-01,1.809597e-01,3,0,5.070441e-01,5.070445e-01
1.263557e+00,1.913060e-01,1.819134e-01,3,0,4.744146e-01,4.744147e-01
1.267872e+00,1.913760e-01,1.819134e-01,3,0,3.693220e-01,3.693222e-01
1.263258e+00,1.912120e-01,1.819134e-01,3,0,4.435144e-01,4.435146e-01
1.268346e+00,1.908650e-01,1.809597e-01,3,0,3.438318e-01,3.438318e-01
1.260523e+00,1.906870e-01,1.819134e-01,3,0,1.450781e+00,1.450784e+00
1.270100e+00,1.908420e-01,1.819134e-01,3,0,3.212625e+00,3.212628e+00
1.265790e+00,1.906380e-01,1.809597e-01,3,0,2.417518e+00,2.417518e+00
1.273088e+00,1.910600e-01,1.819134e-01,3,0,1.725542e+00,1.725542e+00
1.263821e+00,1.902000e-01,1.811981e-01,3,0,1.265116e+00,1.265117e+00
1.269139e+00,1.909490e-01,1.809597e-01,3,0,1.369624e+00,1.369625e+00
1.264536e+00,1.909730e-01,1.809597e-01,3,0,1.081819e+00,1.081819e+00
1.267497e+00,1.909430e-01,1.809597e-01,3,0,1.045649e+00,1.045650e+00
1.262774e+00,1.910420e-01,1.819134e-01,3,0,1.257681e+00,1.257681e+00
1.270201e+00,1.914500e-01,1.821518e-01,3,0,1.433584e+00,1.433585e+00
1.260363e+00,1.911250e-01,1.821518e-01,3,0,1.311727e+00,1.311727e+00
1.266471e+00,1.912080e-01,1.819134e-01,3,0,1.396585e+00,1.396586e+00
1.264632e+00,1.907220e-01,1.819134e-01,3,0,1.860545e+00,1.860546e+00
1.269772e+00,1.903720e-01,1.809597e-01,3,0,1.373918e+00,1.373917e+00
1.263849e+00,1.913310e-01,1.819134e-01,3,0,9.316925e-01,9.316924e-01
1.272632e+00,1.911620e-01,1.809597e-01,3,0,5.521379e-01,5.521378e-01
1.263932e+00,1.905730e-01,1.809597e-01,3,0,3.686997e-01,3.686997e-01
1.269098e+00,1.911040e-01,1.819134e-01,3,0,2.890579e-01,2.890580e-01
1.261208e+00,1.911410e-01,1.819134e-01,3,0,3.974289e-01,3.974293e-01
1.269288e+00,1.909790e-01,1.819134e-01,3,0,2.810356e-01,2.810356e-01
1.261647e+00,1.907820e-01,1.819134e-01,3,0,4.696349e-01,4.696354e-01
1.268169e+00,1.909400e-01,1.819134e-01,3,0,4.989981e-01,4.989983e-01
1.262069e+00,1.908070e-01,1.809597e-01,3,0,4.636613e-01,4.636614e-01
1.268490e+00,1.910690e-01,1.819134e-01,3,0,5.965577e-01,5.965583e-01
1.262717e+00,1.906880e-01,1.819134e-01,3,0,3.326713e-01,3.326713e-01
1.267448e+00,1.906150e-01,1.821518e-01,3,0,2.696447e-01,2.696449e-01
1.265606e+00,1.901760e-01,1.809597e-01,3,0,1.432083e+00,1.432085e+00
1.272913e+00,1.904390e-01,1.819134e-01,3,0,1.492267e+00,1.492268e+00
1.264830e+00,1.903490e-01,1.809597e-01,3,0,7.257015e-01,7.257011e-01
1.265312e+00,1.906060e-01,1.819134e-01,3,0,7.163307e-01,7.163309e-01
1.262832e+00,1.908500e-01,1.819134e-01,3,0,6.274545e-01,6.274547e-01
1.275738e+00,1.907030e-01,1.819134e-01,3,0,6.725526e-01,6.725528e-01
1.263495e+00,1.909560e-01,1.819134e-01,3,0,3.432229e-01,3.432229e-01
1.268261e+00,1.908860e-01,1.821518e-01,3,0,2.873769e-01,2.873771e-01
1.263110e+00,1.903850e-01,1.809597e-01,3,0,5.472064e-01,5.472070e-01
1.265762e+00,1.909510e-01,1.819134e-01,3,0,6.830382e-01,6.830386e-01
1.263723e+00,1.911550e-01,1.809597e-01,3,0,8.421267e-01,8.421272e-01
1.266361e+00,1.908590e-01,1.819134e-01,3,0,5.481679e-01,5.481680e-01
1.265066e+00,1.905030e-01,1.809597e-01,3,0,5.259511e-01,5.259514e-01
1.260081e+00,1.913800e-01,1.819134e-01,3,0,7.885554e-01,7.885561e-01
1.263193e+00,1.959170e-01,1.819134e-01,3,0,1.171393e+00,1.171394e+00
1.262849e+00,1.918680e-01,1.828671e-01,3,0,1.300049e+00,1.300050e+00
1.263059e+00,1.955000e-01,1.862049e-01,3,0,1.813813e+00,1.813814e+00
1.264613e+00,1.910590e-01,1.819134e-01,3,0,1.714228e+00,1.714228e+00
1.263053e+00,1.962880e-01,1.869202e-01,3,0,2.666198e+00,2.666200e+00
1.263237e+00,1.901920e-01,1.809597e-01,3,0,1.116318e+00,1.116318e+00
1.263052e+00,1.959000e-01,1.869202e-01,3,0,9.496082e-01,9.496083e-01
1.263285e+00,1.904210e-01,1.809597e-01,3,0,1.495809e+00,1.495811e+00
1.265736e+00,1.953450e-01,1.859665e-01,3,0,7.337589e-01,7.337586e-01
1.263931e+00,1.911610e-01,1.821518e-01,3,0,6.039239e-01,6.039240e-01
1.261366e+00,1.956550e-01,1.859665e-01,3,0,4.908800e-01,4.908801e-01
1.265531e+00,1.904050e-01,1.821518e-01,3,0,3.296281e-01,3.296281e-01
1.259861e+00,1.960600e-01,1.871586e-01,3,0,6.731908e-01,6.731914e-01
1.260977e+00,1.904490e-01,1.811981e-01,3,0,4.999328e-01,4.999328e-01
1.262046e+00,1.955800e-01,1.859665e-01,3,0,2.850430e-01,2.850430e-01
1.260054e+00,1.903890e-01,1.809597e-01,3,0,6.846788e-01,6.846798e-01
1.261240e+00,1.960890e-01,1.869202e-01,3,0,4.751934e-01,4.751934e-01
1.259228e+00,1.907140e-01,1.809597e-01,3,0,2.501682e-01,2.501683e-01
1.259166e+00,1.959750e-01,1.869202e-01,3,0,2.730759e-01,2.730761e-01
1.260474e+00,1.905560e-01,1.809597e-01,3,0,3.417809e-01,3.417812e-01
1.259380e+00,1.958610e-01,1.859665e-01,3,0,5.170271e-01,5.170275e-01
1.260988e+00,1.907310e-01,1.809597e-01,3,0,1.084212e+00,1.084213e+00
1.262544e+00,1.953570e-01,1.859665e-01,3,0,7.852629e-01,7.852643e-01
1.262397e+00,1.904550e-01,1.809597e-01,3,0,1.422441e+00,1.422442e+00
1.267740e+00,1.905900e-01,1.819134e-01,3,0,6.216157e-01,6.216154e-01
1.262853e+00,1.904550e-01,1.819134e-01,3,0,4.951791e-01,4.951793e-01
1.258691e+00,1.910090e-01,1.819134e-01,3,0,3.307847e-01,3.307847e-01
1.259963e+00,1.910580e-01,1.819134e-01,3,0,3.046022e-01,3.046025e-01
1.272466e+00,1.903340e-01,1.809597e-01,3,0,8.550010e-01,8.550023e-01
1.262959e+00,1.906980e-01,1.821518e-01,3,0,8.542213e-01,8.542216e-01
1.267315e+00,1.909850e-01,1.809597e-01,3,0,1.312673e+00,1.312674e+00
1.268372e+00,1.908440e-01,1.821518e-01,3,0,1.348761e+00,1.348761e+00
1.268595e+00,1.908150e-01,1.819134e-01,3,0,1.549339e+00,1.549340e+00
1.263280e+00,1.910240e-01,1.819134e-01,3,0,2.538201e+00,2.538203e+00
1.268711e+00,1.907780e-01,1.821518e-01,3,0,2.843699e+00,2.843700e+00
1.263929e+00,1.901920e-01,1.809597e-01,3,0,2.125498e+00,2.125498e+00
1.267075e+00,1.906880e-01,1.809597e-01,3,0,1.909762e+00,1.909762e+00
1.263832e+00,1.903160e-01,1.809597e-01,3,0,2.681876e+00,2.681878e+00
1.269421e+00,1.906360e-01,1.809597e-01,3,0,1.822912e+00,1.822912e+00
1.266237e+00,1.909330e-01,1.819134e-01,3,0,1.511419e+00,1.511419e+00
1.267073e+00,1.906410e-01,1.819134e-01,3,0,1.527632e+00,1.527633e+00
1.264065e+00,1.907580e-01,1.811981e-01,3,0,1.649759e+00,1.649759e+00
1.269070e+00,1.908340e-01,1.821518e-01,3,0,1.805455e+00,1.805455e+00
1.261533e+00,1.905790e-01,1.809597e-01,3,0,1.330819e+00,1.330819e+00
1.269921e+00,1.907680e-01,1.809597e-01,3,0,1.277745e+00,1.277745e+00
1.263436e+00,1.909760e-01,1.819134e-01,3,0,1.639318e+00,1.639319e+00
1.267583e+00,1.909880e-01,1.809597e-01,3,0,1.800038e+00,1.800039e+00
1.260820e+00,1.906480e-01,1.811981e-01,3,0,1.141315e+00,1.141315e+00
1.263297e+00,1.913480e-01,1.819134e-01,3,0,1.097961e+00,1.097961e+00
1.265010e+00,1.917370e-01,1.831055e-01,3,0,6.453178e-01,6.453178e-01
1.269085e+00,1.929630e-01,1.838207e-01,3,0,6.261352e-01,6.261355e-01

