8.673230e-01,1.073163e+00,7.989407e-01,2,0,0.000000e+00,0.000000e+00
1.257787e+00,1.954220e-01,1.821518e-01,3,0,7.550078e-02,7.550094e-02
1.258790e+00,1.960550e-01,1.859665e-01,3,0,1.392706e-01,1.392709e-01
1.270499e+00,1.908700e-01,1.809597e-01,3,0,2.945231e-01,2.945235e-01
1.260674e+00,1.965890e-01,1.869202e-01,3,0,2.713983e-01,2.713985e-01
1.260443e+00,1.905320e-01,1.809597e-01,3,0,1.273066e+00,1.273068e+00
1.262138e+00,2.030380e-01,1.940727e-01,3,0,1.776988e+00,1.776988e+00
1.262692e+00,1.909220e-01,1.819134e-01,3,0,2.333710e+00,2.333711e+00
1.263147e+00,1.958050e-01,1.859665e-01,3,0,1.147661e+00,1.147660e+00
1.261968e+00,1.901290e-01,1.809597e-01,3,0,1.017220e+00,1.017220e+00
1.260964e+00,1.966640e-01,1.869202e-01,3,0,8.426457e-01,8.426460e-01
1.261211e+00,1.905830e-01,1.819134e-01,3,0,9.749332e-01,9.749339e-01
1.264978e+00,1.956800e-01,1.859665e-01,3,0,1.615443e+00,1.615444e+00
1.267092e+00,1.902930e-01,1.809597e-01,3,0,2.204132e+00,2.204133e+00
1.269057e+00,1.964560e-01,1.871586e-01,3,0,2.021057e+00,2.021057e+00
1.269282e+00,1.900920e-01,1.809597e-01,3,0,2.821884e+00,2.821886e+00
1.267857e+00,1.952680e-01,1.859665e-01,3,0,2.204836e+00,2.204836e+00
1.265010e+00,1.905290e-01,1.811981e-01,3,0,1.929722e+00,1.929722e+00
1.268215e+00,1.957060e-01,1.859665e-01,3,0,1.843490e+00,1.843490e+00
1.266569e+00,1.904110e-01,1.819134e-01,3,0,1.756232e+00,1.756233e+00
1.266750e+00,1.958010e-01,1.859665e-01,3,0,1.837166e+00,1.837167e+00
1.267768e+00,1.906070e-01,1.821518e-01,3,0,1.531560e+00,1.531560e+00
1.265582e+00,1.963190e-01,1.869202e-01,3,0,1.379545e+00,1.379545e+00
1.266929e+00,1.901040e-01,1.809597e-01,3,0,1.203360e+00,1.203360e+00
1.266404e+00,1.961090e-01,1.871586e-01,3,0,1.186874e+00,1.186874e+00
1.266325e+00,1.905650e-01,1.809597e-01,3,0,1.147252e+00,1.147252e+00
1.264447e+00,1.963030e-01,1.869202e-01,3,0,9.502009e-01,9.502012e-01
1.263997e+00,1.905350e-01,1.819134e-01,3,0,6.786570e-01,6.786572e-01
1.266236e+00,1.950580e-01,1.850128e-01,3,0,3.417595e-01,3.417598e-01
1.265075e+00,1.903580e-01,1.809597e-01,3,0,2.947097e-01,2.947098e-01
1.261680e+00,1.910130e-01,1.821518e-01,3,0,5.879488e-01,5.879496e-01
1.266040e+00,1.903980e-01,1.809597e-01,3,0,6.923793e-01,6.923798e-01
1.270640e+00,1.906670e-01,1.809597e-01,3,0,5.973160e-01,5.973161e-01
1.266531e+00,1.904390e-01,1.821518e-01,3,0,9.191548e-01,9.191555e-01
1.266975e+00,1.911280e-01,1.819134e-01,3,0,7.523447e-01,7.523448e-01
1.266542e+00,1.910570e-01,1.821518e-01,3,0,5.554150e-01,5.554150e-01
1.263401e+00,1.905420e-01,1.809597e-01,3,0,4.065824e-01,4.065826e-01
1.265920e+00,1.905530e-01,1.819134e-01,3,0,3.366953e-01,3.366954e-01
1.271680e+00,1.905440e-01,1.809597e-01,3,0,8.576678e-01,8.576687e-01
1.267280e+00,1.909210e-01,1.819134e-01,3,0,9.477144e-01,9.477146e-01
1.279657e+00,1.905940e-01,1.821518e-01,3,0,2.135459e+00,2.135460e+00
1.265762e+00,1.902240e-01,1.809597e-01,3,0,2.923777e+00,2.923779e+00
1.272900e+00,1.898200e-01,1.800060e-01,3,0,1.852391e+00,1.852391e+00
1.267812e+00,1.904850e-01,1.811981e-01,3,0,2.799191e+00,2.799193e+00
1.272368e+00,1.904940e-01,1.809597e-01,3,0,2.238454e+00,2.238454e+00
1.268838e+00,1.902060e-01,1.809597e-01,3,0,1.810533e+00,1.810533e+00
1.271468e+00,1.905260e-01,1.809597e-01,3,0,1.622085e+00,1.622085e+00
1.266766e+00,1.897520e-01,1.809597e-01,3,0,1.346987e+00,1.346988e+00
1.272335e+00,1.906700e-01,1.809597e-01,3,0,1.082154e+00,1.082154e+00
1.265484e+00,1.907240e-01,1.821518e-01,3,0,6.894114e-01,6.894113e-01
1.272254e+00,1.900600e-01,1.809597e-01,3,0,6.183574e-01,6.183577e-01
1.263901e+00,1.906490e-01,1.819134e-01,3,0,9.842941e-01,9.842949e-01
1.271096e+00,1.905820e-01,1.821518e-01,3,0,7.187417e-01,7.187418e-01
1.265683e+00,1.908210e-01,1.809597e-01,3,0,6.126999e-01,6.126999e-01
1.270976e+00,1.905700e-01,1.809597e-01,3,0,8.099082e-01,8.099087e-01
1.264132e+00,1.902340e-01,1.809597e-01,3,0,1.111553e+00,1.111554e+00
1.271518e+00,1.905520e-01,1.809597e-01,3,0,6.013858e-01,6.013857e-01
1.265893e+00,1.907290e-01,1.819134e-01,3,0,9.270743e-01,9.270750e-01
1.274562e+00,1.905830e-01,1.809597e-01,3,0,1.309008e+00,1.309009e+00
1.264215e+00,1.906520e-01,1.819134e-01,3,0,1.972319e+00,1.972320e+00
1.273406e+00,1.897800e-01,1.811981e-01,3,0,8.945292e-01,8.945298e-01
1.265029e+00,1.901130e-01,1.809597e-01,3,0,1.934340e+00,1.934342e+00
1.270319e+00,1.904520e-01,1.819134e-01,3,0,3.643563e+00,3.643566e+00
1.267296e+00,1.901850e-01,1.809597e-01,3,0,1.981067e+00,1.981066e+00
1.271038e+00,1.902890e-01,1.809597e-01,3,0,2.723415e+00,2.723417e+00
1.268340e+00,1.898040e-01,1.800060e-01,3,0,1.180076e+00,1.180075e+00
1.274183e+00,1.906410e-01,1.821518e-01,3,0,1.263674e+00,1.263675e+00
1.267218e+00,1.905010e-01,1.809597e-01,3,0,9.874007e-01,9.874010e-01
1.270833e+00,1.905000e-01,1.809597e-01,3,0,7.762666e-01,7.762669e-01
1.266582e+00,1.905960e-01,1.809597e-01,3,0,5.934270e-01,5.934273e-01
1.273513e+00,1.904270e-01,1.809597e-01,3,0,8.843576e-01,8.843583e-01
1.264551e+00,1.905450e-01,1.809597e-01,3,0,9.026865e-01,9.026867e-01
1.271866e+00,1.906710e-01,1.819134e-01,3,0,9.150988e-01,9.150991e-01
1.263736e+00,1.901260e-01,1.809597e-01,3,0,1.030915e+00,1.030915e+00
1.273201e+00,1.901660e-01,1.809597e-01,3,0,1.502469e+00,1.502470e+00
1.266690e+00,1.898890e-01,1.809597e-01,3,0,2.017975e+00,2.017976e+00
1.276856e+00,1.906140e-01,1.809597e-01,3,0,1.216816e+00,1.216816e+00
1.265136e+00,1.906050e-01,1.809597e-01,3,0,1.212940e+00,1.212941e+00
1.272523e+00,1.906760e-01,1.809597e-01,3,0,8.961043e-01,8.961043e-01
1.264546e+00,1.903790e-01,1.809597e-01,3,0,4.427208e-01,4.427208e-01
1.267155e+00,1.897370e-01,1.809597e-01,3,0,1.517221e+00,1.517223e+00
1.265292e+00,1.902130e-01,1.809597e-01,3,0,1.123792e+00,1.123792e+00
1.272178e+00,1.904810e-01,1.809597e-01,3,0,1.006887e+00,1.006887e+00
1.264648e+00,1.903260e-01,1.809597e-01,3,0,9.700708e-01,9.700714e-01
1.271243e+00,1.897860e-01,1.809597e-01,3,0,1.391503e+00,1.391504e+00
1.267947e+00,1.903500e-01,1.809597e-01,3,0,2.499394e+00,2.499395e+00
1.272808e+00,1.902410e-01,1.809597e-01,3,0,3.745386e+00,3.745388e+00
1.268964e+00,5.233800e-01,5.140305e-01,3,1,5.467228e+00,5.467413e+00
1.269065e+00,4.898230e-01,4.799366e-01,3,1,4.448808e+00,4.448807e+00
1.270014e+00,1.904650e-01,1.809597e-01,3,0,3.175237e+00,3.175236e+00
1.268662e+00,1.904230e-01,1.809597e-01,3,0,2.447584e+00,2.447584e+00
1.272020e+00,1.911040e-01,1.819134e-01,3,0,1.717504e+00,1.717504e+00
1.266225e+00,1.902850e-01,1.809597e-01,3,0,2.426209e+00,2.426211e+00
1.269610e+00,1.903450e-01,1.809597e-01,3,0,1.804372e+00,1.804372e+00
1.266906e+00,1.901510e-01,1.809597e-01,3,0,2.324896e+00,2.324897e+00
1.277027e+00,1.907640e-01,1.809597e-01,3,0,2.510537e+00,2.510538e+00
1.266850e+00,1.903810e-01,1.811981e-01,3,0,1.086454e+00,1.086454e+00
1.276232e+00,1.908120e-01,1.819134e-01,3,0,9.410226e-01,9.410229e-01
1.267568e+00,1.905890e-01,1.819134e-01,3,0,1.324946e+00,1.324946e+00
1.268539e+00,1.908480e-01,1.821518e-01,3,0,1.421946e+00,1.421946e+00
1.265548e+00,1.902290e-01,1.809597e-01,3,0,1.071994e+00,1.071994e+00
1.270130e+00,1.903530e-01,1.809597e-01,3,0,1.242755e+00,1.242755e+00
1.263141e+00,1.902610e-01,1.809597e-01,3,0,7.251480e-01,7.251481e-01
1.269829e+00,1.908750e-01,1.821518e-01,3,0,6.598995e-01,6.598996e-01
1.264349e+00,1.905560e-01,1.809597e-01,3,0,5.463697e-01,5.463698e-01
1.269264e+00,1.904730e-01,1.809597e-01,3,0,5.799359e-01,5.799364e-01
1.264138e+00,1.909180e-01,1.819134e-01,3,0,8.098027e-01,8.098033e-01
1.270548e+00,1.908390e-01,1.809597e-01,3,0,8.837597e-01,8.837600e-01
1.267631e+00,1.907760e-01,1.809597e-01,3,0,5.686046e-01,5.686046e-01
1.270968e+00,1.907050e-01,1.821518e-01,3,0,5.739388e-01,5.739391e-01
1.266362e+00,1.905000e-01,1.811981e-01,3,0,5.300203e-01,5.300205e-01
1.270851e+00,1.902750e-01,1.811981e-01,3,0,4.514162e-01,4.514166e-01
1.265812e+00,1.906720e-01,1.809597e-01,3,0,3.144383e-01,3.144384e-01
1.273691e+00,1.907060e-01,1.809597e-01,3,0,5.546371e-01,5.546377e-01
1.238792e+00,1.865040e-01,1.780987e-01,3,0,2.939834e-01,2.939835e-01
1.291966e+00,1.854800e-01,1.769066e-01,3,0,3.394433e-01,3.394435e-01
1.252447e+00,1.857110e-01,1.769066e-01,3,0,8.794453e-01,8.794463e-01
1.236688e+00,1.857340e-01,1.771450e-01,3,0,6.413848e-01,6.413848e-01
1.253586e+00,1.849270e-01,1.759529e-01,3,0,2.066182e+00,2.066184e+00
1.261658e+00,1.855570e-01,1.769066e-01,3,0,1.433950e+00,1.433950e+00
1.230421e+00,1.905900e-01,1.821518e-01,3,0,1.389161e+00,1.389162e+00
1.256269e+00,1.852470e-01,1.761913e-01,3,0,1.730335e+00,1.730336e+00
1.229648e+00,2.165330e-01,2.071857e-01,3,0,1.562355e+00,1.562355e+00
1.254369e+00,1.851880e-01,1.759529e-01,3,0,1.720593e+00,1.720593e+00
1.256268e+00,2.154180e-01,2.069473e-01,3,0,3.036876e+00,3.036879e+00
1.231728e+00,1.856950e-01,1.769066e-01,3,0,1.973471e+00,1.973470e+00
1.257400e+00,2.027900e-01,1.940727e-01,3,0,1.500746e+00,1.500746e+00
1.256102e+00,1.859720e-01,1.761913e-01,3,0,1.308689e+00,1.308690e+00
1.231979e+00,2.031760e-01,1.940727e-01,3,0,7.826753e-01,7.826757e-01
1.257334e+00,1.860260e-01,1.759529e-01,3,0,8.587389e-01,8.587399e-01
1.258688e+00,1.854940e-01,1.769066e-01,3,0,5.384690e-01,5.384692e-01
1.228410e+00,1.854040e-01,1.769066e-01,3,0,7.085613e-01,7.085619e-01
1.289819e+00,1.981480e-01,1.888275e-01,3,0,3.165290e-01,3.165291e-01
1.230333e+00,2.096870e-01,2.012253e-01,3,0,2.574300e-01,2.574301e-01
1.280391e+00,1.854730e-01,1.759529e-01,3,0,2.646273e-01,2.646275e-01
1.257371e+00,1.857580e-01,1.769066e-01,3,0,5.743972e-01,5.743979e-01
1.257757e+00,1.864120e-01,1.771450e-01,3,0,5.926450e-01,5.926453e-01
1.255191e+00,1.854030e-01,1.759529e-01,3,0,5.020436e-01,5.020437e-01
1.302811e+00,1.854020e-01,1.769066e-01,3,0,5.469793e-01,5.469796e-01
1.233133e+00,1.861410e-01,1.778603e-01,3,0,4.634504e-01,4.634506e-01
1.285123e+00,1.856620e-01,1.769066e-01,3,0,8.639298e-01,8.639306e-01
1.229774e+00,1.856370e-01,1.761913e-01,3,0,1.472558e+00,1.472559e+00
1.283927e+00,1.855480e-01,1.759529e-01,3,0,1.663320e+00,1.663321e+00
1.258811e+00,1.856960e-01,1.769066e-01,3,0,1.301928e+00,1.301928e+00
1.250523e+00,1.861350e-01,1.780987e-01,3,0,1.158772e+00,1.158772e+00
1.255946e+00,1.983970e-01,1.890659e-01,3,0,1.071729e+00,1.071729e+00
1.276881e+00,1.861380e-01,1.780987e-01,3,0,7.688698e-01,7.688698e-01
1.262411e+00,1.903680e-01,1.811981e-01,3,0,6.760058e-01,6.760067e-01
1.267360e+00,1.907300e-01,1.809597e-01,3,0,1.190080e+00,1.190082e+00
1.263145e+00,1.957110e-01,1.859665e-01,3,0,1.702830e+00,1.702831e+00
1.267714e+00,1.909940e-01,1.819134e-01,3,0,1.040863e+00,1.040863e+00
1.262979e+00,1.906580e-01,1.809597e-01,3,0,9.853935e-01,9.853937e-01
1.270364e+00,1.938650e-01,1.850128e-01,3,0,8.851255e-01,8.851257e-01
1.266372e+00,1.899980e-01,1.800060e-01,3,0,8.116157e-01,8.116159e-01
1.265222e+00,1.907740e-01,1.819134e-01,3,0,6.690446e-01,6.690448e-01
1.269544e+00,1.948840e-01,1.819134e-01,3,0,7.522641e-01,7.522646e-01
1.263639e+00,1.902630e-01,1.809597e-01,3,0,1.229020e+00,1.229021e+00
1.265243e+00,1.963490e-01,1.869202e-01,3,0,1.181290e+00,1.181290e+00
1.269208e+00,1.911810e-01,1.819134e-01,3,0,1.251217e+00,1.251217e+00
1.267759e+00,1.952460e-01,1.862049e-01,3,0,1.419613e+00,1.419614e+00
1.266141e+00,1.903060e-01,1.809597e-01,3,0,6.497962e-01,6.497963e-01
1.268545e+00,1.954360e-01,1.859665e-01,3,0,5.195459e-01,5.195461e-01
1.261788e+00,1.903010e-01,1.809597e-01,3,0,5.445820e-01,5.445824e-01
1.264797e+00,1.947710e-01,1.859665e-01,3,0,2.469490e-01,2.469493e-01
1.263433e+00,1.906230e-01,1.809597e-01,3,0,2.486740e-01,2.486741e-01
1.262138e+00,1.958780e-01,1.869202e-01,3,0,4.252994e-01,4.252998e-01
1.267645e+00,1.902630e-01,1.809597e-01,3,0,3.624122e-01,3.624122e-01
1.263721e+00,1.954560e-01,1.859665e-01,3,0,9.756999e-01,9.757014e-01
1.267427e+00,1.905520e-01,1.809597e-01,3,0,7.256290e-01,7.256296e-01
1.262279e+00,1.954140e-01,1.869202e-01,3,0,5.132352e-01,5.132354e-01
1.263045e+00,1.910580e-01,1.821518e-01,3,0,4.574957e-01,4.574959e-01
1.262633e+00,1.957280e-01,1.869202e-01,3,0,4.658428e-01,4.658431e-01
1.261310e+00,1.909140e-01,1.809597e-01,3,0,4.788151e-01,4.788154e-01
1.263995e+00,1.957560e-01,1.869202e-01,3,0,3.025519e-01,3.025520e-01
1.263037e+00,1.904890e-01,1.819134e-01,3,0,3.391366e-01,3.391369e-01
1.265147e+00,1.956600e-01,1.869202e-01,3,0,2.776732e-01,2.776734e-01
1.266026e+00,1.905720e-01,1.809597e-01,3,0,2.396825e-01,2.396826e-01
1.263893e+00,1.951190e-01,1.859665e-01,3,0,6.453740e-01,6.453748e-01
1.265834e+00,1.900140e-01,1.809597e-01,3,0,4.078096e-01,4.078099e-01
1.258841e+00,1.955100e-01,1.869202e-01,3,0,6.451532e-01,6.451537e-01
1.263381e+00,1.915210e-01,1.828671e-01,3,0,1.041233e+00,1.041234e+00
1.263158e+00,1.993660e-01,1.900196e-01,3,0,8.921139e-01,8.921145e-01
1.261563e+00,1.902620e-01,1.809597e-01,3,0,1.011426e+00,1.011427e+00
1.261922e+00,1.958840e-01,1.871586e-01,3,0,7.101068e-01,7.101069e-01
1.263347e+00,1.974130e-01,1.878738e-01,3,0,7.095861e-01,7.095864e-01
1.264052e+00,1.999160e-01,1.909733e-01,3,0,8.113130e-01,8.113135e-01
1.262581e+00,1.903290e-01,1.809597e-01,3,0,1.780394e+00,1.780396e+00
1.265263e+00,1.954500e-01,1.859665e-01,3,0,2.358464e+00,2.358465e+00
1.265465e+00,1.909760e-01,1.809597e-01,3,0,2.090871e+00,2.090871e+00
1.268032e+00,1.948920e-01,1.850128e-01,3,0,1.699954e+00,1.699955e+00
1.266744e+00,1.901840e-01,1.809597e-01,3,0,1.570483e+00,1.570484e+00
1.267669e+00,1.960620e-01,1.819134e-01,3,0,1.068078e+00,1.068078e+00
1.265606e+00,1.907860e-01,1.811981e-01,3,0,1.056222e+00,1.056223e+00
1.262519e+00,1.904140e-01,1.809597e-01,3,0,1.037597e+00,1.037597e+00
1.265441e+00,1.905890e-01,1.819134e-01,3,0,7.960545e-01,7.960546e-01
1.263462e+00,1.910610e-01,1.809597e-01,3,0,7.037016e-01,7.037018e-01
1.266191e+00,1.904880e-01,1.819134e-01,3,0,1.429994e+00,1.429996e+00
1.263569e+00,1.901290e-01,1.809597e-01,3,0,2.977884e+00,2.977887e+00
1.267900e+00,1.904000e-01,1.809597e-01,3,0,3.030434e+00,3.030435e+00
1.265445e+00,2.145610e-01,2.050400e-01,3,0,3.057134e+00,3.057135e+00
1.266353e+00,2.163250e-01,2.069473e-01,3,0,3.564808e+00,3.564810e+00
1.268347e+00,1.959770e-01,1.859665e-01,3,0,5.101268e+00,5.101270e+00
1.267561e+00,1.902270e-01,1.809597e-01,3,0,3.274938e+00,3.274937e+00
1.263762e+00,1.952550e-01,1.819134e-01,3,0,3.996123e+00,3.996125e+00
1.266045e+00,1.897600e-01,1.809597e-01,3,0,3.084262e+00,3.084262e+00
1.266389e+00,1.901210e-01,1.809597e-01,3,0,2.879089e+00,2.879089e+00
1.269996e+00,1.909110e-01,1.821518e-01,3,0,1.979207e+00,1.979207e+00
1.264525e+00,1.901990e-01,1.811981e-01,3,0,2.492069e+00,2.492070e+00
1.265152e+00,1.901880e-01,1.809597e-01,3,0,1.675417e+00,1.675417e+00
1.265098e+00,1.905550e-01,1.811981e-01,3,0,2.167981e+00,2.167982e+00
1.266037e+00,1.898820e-01,1.800060e-01,3,0,7.076937e-01,7.076936e-01
1.268040e+00,1.908640e-01,1.819134e-01,3,0,9.244447e-01,9.244455e-01
1.263136e+00,1.899320e-01,1.809597e-01,3,0,1.789691e+00,1.789693e+00
1.279984e+00,1.906420e-01,1.819134e-01,3,0,1.379265e+00,1.379265e+00
1.264625e+00,1.903940e-01,1.821518e-01,3,0,2.179142e+00,2.179144e+00
1.270535e+00,1.902440e-01,1.809597e-01,3,0,1.933634e+00,1.933634e+00
1.266984e+00,1.905390e-01,1.821518e-01,3,0,3.261526e+00,3.261529e+00
1.269438e+00,1.900470e-01,1.811981e-01,3,0,1.684841e+00,1.684841e+00
1.267235e+00,1.901180e-01,1.809597e-01,3,0,1.407010e+00,1.407010e+00
1.294798e+00,1.907330e-01,1.821518e-01,3,0,1.099238e+00,1.099238e+00
1.265587e+00,1.910150e-01,1.819134e-01,3,0,1.105764e+00,1.105764e+00
1.269292e+00,1.906920e-01,1.811981e-01,3,0,1.176464e+00,1.176464e+00
1.268550e+00,1.907210e-01,1.819134e-01,3,0,1.765584e+00,1.765585e+00
1.277549e+00,1.904430e-01,1.809597e-01,3,0,7.981748e-01,7.981743e-01
1.265583e+00,1.904230e-01,1.809597e-01,3,0,5.276609e-01,5.276610e-01
1.269025e+00,1.910110e-01,1.821518e-01,3,0,5.993494e-01,5.993497e-01
1.264997e+00,1.907620e-01,1.819134e-01,3,0,5.737398e-01,5.737400e-01
1.269110e+00,1.904260e-01,1.819134e-01,3,0,4.466774e-01,4.466774e-01
1.261935e+00,1.900650e-01,1.809597e-01,3,0,7.208877e-01,7.208886e-01
1.277128e+00,1.906270e-01,1.809597e-01,3,0,1.053741e+00,1.053742e+00
1.264855e+00,1.902890e-01,1.809597e-01,3,0,1.601705e+00,1.601706e+00
1.269664e+00,1.905590e-01,1.809597e-01,3,0,3.475975e+00,3.475978e+00
1.291706e+00,1.905340e-01,1.809597e-01,3,0,4.511358e+00,4.511360e+00
1.270202e+00,1.907780e-01,1.809597e-01,3,0,3.067479e+00,3.067478e+00
1.267044e+00,1.902270e-01,1.809597e-01,3,0,3.786192e+00,3.786194e+00
1.272941e+00,1.903780e-01,1.811981e-01,3,0,2.733514e+00,2.733513e+00
1.266313e+00,1.906280e-01,1.819134e-01,3,0,2.170624e+00,2.170624e+00
1.268349e+00,1.898910e-01,1.800060e-01,3,0,2.416048e+00,2.416049e+00
1.263540e+00,1.899700e-01,1.809597e-01,3,0,1.308537e+00,1.308537e+00
1.271294e+00,1.903430e-01,1.811981e-01,3,0,9.979647e-01,9.979658e-01
1.265244e+00,1.906540e-01,1.809597e-01,3,0,7.687011e-01,7.687012e-01
1.268513e+00,1.905400e-01,1.819134e-01,3,0,7.203361e-01,7.203363e-01
1.263708e+00,1.903570e-01,1.809597e-01,3,0,6.842866e-01,6.842868e-01
1.268289e+00,1.905300e-01,1.809597e-01,3,0,1.062648e+00,1.062648e+00
1.265874e+00,1.901160e-01,1.809597e-01,3,0,3.637674e-01,3.637673e-01
1.274782e+00,1.902590e-01,1.811981e-01,3,0,1.457888e+00,1.457890e+00
1.267028e+00,1.900080e-01,1.809597e-01,3,0,3.220380e+00,3.220382e+00
1.272062e+00,1.899210e-01,1.811981e-01,3,0,1.883266e+00,1.883265e+00
1.265795e+00,1.902110e-01,1.809597e-01,3,0,1.345904e+00,1.345904e+00
1.271071e+00,1.905580e-01,1.819134e-01,3,0,1.103810e+00,1.103810e+00
1.265700e+00,1.904200e-01,1.809597e-01,3,0,9.378064e-01,9.378065e-01
1.272543e+00,1.906400e-01,1.819134e-01,3,0,8.789548e-01,8.789550e-01
1.261408e+00,1.900970e-01,1.809597e-01,3,0,1.483283e+00,1.483284e+00
1.272159e+00,1.902420e-01,1.809597e-01,3,0,1.147227e+00,1.147227e+00
1.266762e+00,1.905130e-01,1.809597e-01,3,0,8.251891e-01,8.251891e-01
1.269679e+00,1.908600e-01,1.819134e-01,3,0,9.187775e-01,9.187779e-01
1.266707e+00,1.906490e-01,1.819134e-01,3,0,1.574782e+00,1.574783e+00
1.270302e+00,1.902120e-01,1.809597e-01,3,0,2.551205e+00,2.551207e+00
1.266688e+00,1.902700e-01,1.809597e-01,3,0,4.641632e+00,4.641636e+00
1.271397e+00,1.906980e-01,1.809597e-01,3,0,5.666045e+00,5.666047e+00
1.267982e+00,1.903990e-01,1.821518e-01,3,0,5.120493e+00,5.120494e+00
1.273016e+00,1.907960e-01,1.819134e-01,3,0,5.371596e+00,5.371598e+00
1.268008e+00,1.900960e-01,1.809597e-01,3,0,4.529396e+00,4.529396e+00
1.271517e+00,1.905060e-01,1.809597e-01,3,0,4.762754e+00,4.762756e+00
1.266438e+00,1.908140e-01,1.819134e-01,3,0,4.756523e+00,4.756524e+00
1.298047e+00,1.897000e-01,1.811981e-01,3,0,3.921165e+00,3.921166e+00
1.292626e+00,1.909930e-01,1.809597e-01,3,0,3.380775e+00,3.380775e+00
1.270322e+00,1.913740e-01,1.819134e-01,3,0,2.601331e+00,2.601331e+00
1.267490e+00,1.905090e-01,1.809597e-01,3,0,2.369196e+00,2.369197e+00
1.272616e+00,1.908220e-01,1.819134e-01,3,0,2.382191e+00,2.382191e+00
1.266515e+00,5.396510e-01,5.300045e-01,3,1,3.050269e+00,3.050893e+00
1.266553e+00,2.487395e+00,2.477884e+00,3,7,5.477040e+00,5.499848e+00
2.522703e+00,1.441487e+00,1.431942e+00,6,4,5.722753e+00,5.747845e+00
2.113080e+00,1.126923e+00,1.117945e+00,5,3,6.271918e+00,6.287140e+00
1.687322e+00,1.068617e+00,1.060009e+00,4,3,5.319746e+00,5.319746e+00
1.270480e+00,1.963140e-01,1.869202e-01,3,0,5.356166e+00,5.356167e+00
1.292687e+00,1.909870e-01,1.819134e-01,3,0,6.532999e+00,6.533002e+00
1.269764e+00,2.056610e-01,1.962185e-01,3,0,6.052419e+00,6.052420e+00
1.270228e+00,1.910220e-01,1.811981e-01,3,0,5.042841e+00,5.042841e+00
1.267651e+00,1.955760e-01,1.871586e-01,3,0,4.255239e+00,4.255240e+00
1.267350e+00,1.908690e-01,1.819134e-01,3,0,3.770938e+00,3.770939e+00
1.266517e+00,1.967110e-01,1.871586e-01,3,0,3.229171e+00,3.229171e+00
1.266210e+00,1.908640e-01,1.819134e-01,3,0,2.964221e+00,2.964221e+00
1.265002e+00,1.952170e-01,1.859665e-01,3,0,3.077434e+00,3.077435e+00
1.266719e+00,1.909340e-01,1.809597e-01,3,0,1.693697e+00,1.693696e+00
1.264250e+00,1.954540e-01,1.859665e-01,3,0,1.470553e+00,1.470554e+00
1.268054e+00,1.901090e-01,1.809597e-01,3,0,1.627839e+00,1.627840e+00
1.265805e+00,1.956940e-01,1.871586e-01,3,0,1.125980e+00,1.125980e+00
1.267155e+00,1.914460e-01,1.821518e-01,3,0,9.507674e-01,9.507675e-01
1.264443e+00,1.959920e-01,1.869202e-01,3,0,7.733032e-01,7.733035e-01
1.264346e+00,1.908890e-01,1.809597e-01,3,0,4.924485e-01,4.924485e-01
1.264193e+00,1.954020e-01,1.859665e-01,3,0,3.696617e-01,3.696624e-01
1.264897e+00,1.906270e-01,1.809597e-01,3,0,2.802130e-01,2.802134e-01
1.291917e+00,1.963490e-01,1.871586e-01,3,0,3.976739e-01,3.976742e-01
1.263294e+00,1.916510e-01,1.819134e-01,3,0,5.342369e-01,5.342373e-01
1.267718e+00,1.957460e-01,1.869202e-01,3,0,3.596130e-01,3.596131e-01
1.263195e+00,1.906880e-01,1.819134e-01,3,0,4.029730e-01,4.029735e-01
1.265637e+00,1.959750e-01,1.869202e-01,3,0,1.111065e+00,1.111066e+00
1.263965e+00,1.902730e-01,1.809597e-01,3,0,2.508753e+00,2.508755e+00
1.268123e+00,1.951800e-01,1.859665e-01,3,0,3.416436e+00,3.416438e+00
1.266602e+00,1.902460e-01,1.809597e-01,3,0,2.873442e+00,2.873442e+00
1.268076e+00,1.960850e-01,1.869202e-01,3,0,3.103727e+00,3.103728e+00
1.264877e+00,1.908360e-01,1.819134e-01,3,0,3.020686e+00,3.020687e+00
1.267534e+00,1.958890e-01,1.869202e-01,3,0,2.668741e+00,2.668741e+00
1.267431e+00,1.902550e-01,1.800060e-01,3,0,2.107371e+00,2.107371e+00
1.265505e+00,1.955550e-01,1.809597e-01,3,0,2.065761e+00,2.065762e+00
1.266215e+00,1.904370e-01,1.809597e-01,3,0,3.668475e+00,3.668478e+00
1.265365e+00,1.904560e-01,1.809597e-01,3,0,4.741019e+00,4.741021e+00
1.273015e+00,1.223957e+00,1.214981e+00,3,3,5.599301e+00,5.613620e+00
1.267144e+00,8.351870e-01,8.258820e-01,3,2,4.565831e+00,4.570773e+00
1.268165e+00,4.867780e-01,4.770756e-01,3,1,3.484034e+00,3.484033e+00
1.271414e+00,1.904280e-01,1.811981e-01,3,0,2.549248e+00,2.549248e+00
1.264797e+00,1.903850e-01,1.811981e-01,3,0,2.078089e+00,2.078090e+00
1.273439e+00,1.899320e-01,1.809597e-01,3,0,2.751482e+00,2.751483e+00
1.266696e+00,1.906920e-01,1.809597e-01,3,0,2.744215e+00,2.744216e+00
1.273430e+00,1.904310e-01,1.809597e-01,3,0,2.066328e+00,2.066328e+00
1.266387e+00,1.906430e-01,1.819134e-01,3,0,2.023031e+00,2.023031e+00
1.271691e+00,1.906780e-01,1.819134e-01,3,0,2.328000e+00,2.328001e+00
1.263496e+00,1.907420e-01,1.809597e-01,3,0,2.420089e+00,2.420090e+00
1.271404e+00,1.908660e-01,1.819134e-01,3,0,2.965939e+00,2.965940e+00
1.266792e+00,1.901720e-01,1.809597e-01,3,0,2.358325e+00,2.358325e+00
1.267647e+00,1.899240e-01,1.811981e-01,3,0,3.078846e+00,3.078848e+00
1.269214e+00,1.904940e-01,1.819134e-01,3,0,3.035389e+00,3.035390e+00
1.271096e+00,1.904290e-01,1.809597e-01,3,0,2.537495e+00,2.537495e+00
1.263755e+00,1.903520e-01,1.809597e-01,3,0,2.097296e+00,2.097296e+00
1.296347e+00,1.901380e-01,1.800060e-01,3,0,2.204030e+00,2.204030e+00
1.293998e+00,1.912300e-01,1.821518e-01,3,0,2.213155e+00,2.213156e+00
1.271956e+00,1.912800e-01,1.819134e-01,3,0,1.633975e+00,1.633975e+00
1.263253e+00,1.906340e-01,1.811981e-01,3,0,1.634336e+00,1.634336e+00
1.272146e+00,1.900220e-01,1.809597e-01,3,0,1.069710e+00,1.069710e+00
1.263929e+00,1.905850e-01,1.809597e-01,3,0,8.811089e-01,8.811090e-01
1.271301e+00,1.904690e-01,1.809597e-01,3,0,5.653318e-01,5.653320e-01
1.261849e+00,1.908240e-01,1.819134e-01,3,0,3.817907e-01,3.817909e-01
1.271651e+00,1.913120e-01,1.831055e-01,3,0,2.167704e-01,2.167705e-01
1.261805e+00,1.909840e-01,1.819134e-01,3,0,4.084118e-01,4.084124e-01
1.268072e+00,1.907900e-01,1.819134e-01,3,0,2.304339e-01,2.304339e-01
1.266840e+00,1.908510e-01,1.809597e-01,3,0,2.223581e-01,2.223584e-01
1.270674e+00,1.907670e-01,1.819134e-01,3,0,1.345786e-01,1.345787e-01
1.262852e+00,1.907580e-01,1.819134e-01,3,0,1.478643e-01,1.478645e-01
1.267905e+00,1.907570e-01,1.819134e-01,3,0,1.320517e-01,1.320518e-01
1.263105e+00,1.907210e-01,1.819134e-01,3,0,3.256077e-01,3.256082e-01
1.271231e+00,1.903260e-01,1.809597e-01,3,0,2.501675e-01,2.501677e-01
1.263768e+00,1.903150e-01,1.809597e-01,3,0,2.692769e-01,2.692776e-01
1.270441e+00,1.907610e-01,1.819134e-01,3,0,5.432110e-01,5.432116e-01
1.264443e+00,1.907840e-01,1.809597e-01,3,0,2.974375e-01,2.974375e-01
1.269964e+00,1.904920e-01,1.809597e-01,3,0,4.238974e-01,4.238977e-01
1.266709e+00,1.906650e-01,1.811981e-01,3,0,4.287167e-01,4.287169e-01
1.268604e+00,1.906170e-01,1.809597e-01,3,0,7.229803e-01,7.229809e-01
1.266915e+00,1.903810e-01,1.811981e-01,3,0,5.510776e-01,5.510777e-01
1.270363e+00,1.908680e-01,1.809597e-01,3,0,3.622927e-01,3.622927e-01
1.263150e+00,1.908910e-01,1.809597e-01,3,0,2.656213e-01,2.656215e-01
1.294730e+00,1.907800e-01,1.819134e-01,3,0,3.561040e-01,3.561044e-01
1.265886e+00,1.912750e-01,1.819134e-01,3,0,3.279824e-01,3.279825e-01
1.268805e+00,1.907550e-01,1.819134e-01,3,0,2.648477e-01,2.648478e-01
1.263940e+00,1.905320e-01,1.809597e-01,3,0,4.634970e-01,4.634974e-01
1.269396e+00,1.904600e-01,1.809597e-01,3,0,3.514571e-01,3.514573e-01
1.264849e+00,1.905140e-01,1.809597e-01,3,0,5.222573e-01,5.222577e-01
1.269145e+00,1.909900e-01,1.819134e-01,3,0,9.238566e-01,9.238573e-01
1.265319e+00,1.909690e-01,1.819134e-01,3,0,8.099784e-01,8.099787e-01
1.294507e+00,1.908180e-01,1.819134e-01,3,0,7.169344e-01,7.169346e-01
1.264325e+00,1.912290e-01,1.819134e-01,3,0,1.639446e+00,1.639447e+00
1.272470e+00,1.907600e-01,1.821518e-01,3,0,1.991770e+00,1.991771e+00
1.268128e+00,1.904730e-01,1.809597e-01,3,0,1.134497e+00,1.134497e+00
1.270909e+00,1.904420e-01,1.811981e-01,3,0,8.490539e-01,8.490539e-01
1.265522e+00,1.903540e-01,1.811981e-01,3,0,6.528362e-01,6.528364e-01
1.269583e+00,1.903790e-01,1.819134e-01,3,0,4.365836e-01,4.365837e-01
1.264793e+00,1.901060e-01,1.811981e-01,3,0,3.856166e-01,3.856168e-01
1.269434e+00,1.903240e-01,1.819134e-01,3,0,5.535294e-01,5.535297e-01
1.264447e+00,1.911780e-01,1.819134e-01,3,0,5.301530e-01,5.301532e-01
1.273013e+00,1.902830e-01,1.809597e-01,3,0,2.629657e-01,2.629660e-01
1.263402e+00,1.906280e-01,1.821518e-01,3,0,7.146291e-01,7.146300e-01
1.271408e+00,1.908030e-01,1.809597e-01,3,0,3.975615e-01,3.975614e-01
1.264730e+00,1.906520e-01,1.809597e-01,3,0,3.522738e-01,3.522740e-01
1.272230e+00,1.905440e-01,1.809597e-01,3,0,4.913079e-01,4.913084e-01
1.266331e+00,1.908250e-01,1.821518e-01,3,0,4.026741e-01,4.026742e-01
1.267525e+00,1.911370e-01,1.819134e-01,3,0,4.729994e-01,4.729997e-01
1.266078e+00,1.905600e-01,1.809597e-01,3,0,6.022197e-01,6.022201e-01
1.270016e+00,1.902490e-01,1.809597e-01,3,0,4.750531e-01,4.750534e-01
1.263534e+00,1.902140e-01,1.809597e-01,3,0,4.940496e-01,4.940501e-01
1.268406e+00,1.905910e-01,1.821518e-01,3,0,6.162175e-01,6.162179e-01
1.264782e+00,1.905600e-01,1.809597e-01,3,0,7.563857e-01,7.563862e-01
1.269416e+00,1.907740e-01,1.819134e-01,3,0,1.134037e+00,1.134038e+00
1.268489e+00,1.905490e-01,1.809597e-01,3,0,7.859842e-01,7.859842e-01
1.271736e+00,1.905230e-01,1.811981e-01,3,0,7.528195e-01,7.528203e-01
1.266727e+00,1.901760e-01,1.809597e-01,3,0,7.290524e-01,7.290526e-01
1.271773e+00,1.906810e-01,1.819134e-01,3,0,7.901867e-01,7.901869e-01
1.267516e+00,1.909290e-01,1.819134e-01,3,0,6.541683e-01,6.541685e-01
1.269143e+00,1.908120e-01,1.809597e-01,3,0,1.113056e+00,1.113058e+00
1.268287e+00,1.904280e-01,1.811981e-01,3,0,8.276499e-01,8.276500e-01
1.265551e+00,1.898850e-01,1.809597e-01,3,0,7.750368e-01,7.750371e-01
1.265953e+00,1.904900e-01,1.809597e-01,3,0,7.599414e-01,7.599417e-01
1.265246e+00,1.903660e-01,1.809597e-01,3,0,6.882507e-01,6.882510e-01
1.290491e+00,1.955010e-01,1.859665e-01,3,0,4.927906e-01,4.927907e-01
1.295779e+00,1.912850e-01,1.819134e-01,3,0,6.018291e-01,6.018295e-01
1.264642e+00,1.916260e-01,1.821518e-01,3,0,6.785708e-01,6.785712e-01
1.272716e+00,1.907910e-01,1.821518e-01,3,0,4.669021e-01,4.669023e-01
1.265983e+00,1.902680e-01,1.809597e-01,3,0,8.774901e-01,8.774911e-01
1.270471e+00,1.900550e-01,1.809597e-01,3,0,6.180020e-01,6.180021e-01
1.265281e+00,1.908820e-01,1.819134e-01,3,0,5.639593e-01,5.639596e-01
1.267926e+00,1.905130e-01,1.809597e-01,3,0,5.055512e-01,5.055513e-01
1.264566e+00,1.904940e-01,1.809597e-01,3,0,3.969552e-01,3.969556e-01
1.264760e+00,1.911120e-01,1.821518e-01,3,0,2.922041e-01,2.922042e-01
1.264921e+00,1.904640e-01,1.809597e-01,3,0,5.790766e-01,5.790771e-01
1.263760e+00,1.903630e-01,1.809597e-01,3,0,4.992791e-01,4.992793e-01
1.264047e+00,1.947670e-01,1.850128e-01,3,0,5.070441e-01,5.070445e-01
1.265376e+00,1.908680e-01,1.819134e-01,3,0,4.744146e-01,4.744147e-01
1.265023e+00,1.957620e-01,1.859665e-01,3,0,3.693220e-01,3.693222e-01
1.261269e+00,1.911200e-01,1.809597e-01,3,0,4.435144e-01,4.435146e-01
1.262751e+00,1.958260e-01,1.871586e-01,3,0,3.438318e-01,3.438318e-01
1.264496e+00,1.903890e-01,1.809597e-01,3,0,1.450781e+00,1.450784e+00
1.264641e+00,1.955450e-01,1.859665e-01,3,0,3.212625e+00,3.212628e+00
1.266957e+00,1.905370e-01,1.809597e-01,3,0,2.417518e+00,2.417518e+00
1.269458e+00,1.957120e-01,1.859665e-01,3,0,1.725542e+00,1.725542e+00
1.265932e+00,1.903630e-01,1.809597e-01,3,0,1.265116e+00,1.265117e+00
1.269259e+00,1.953640e-01,1.869202e-01,3,0,1.369624e+00,1.369625e+00
1.263190e+00,1.907480e-01,1.821518e-01,3,0,1.081819e+00,1.081819e+00
1.264917e+00,1.953580e-01,1.859665e-01,3,0,1.045649e+00,1.045650e+00
1.264277e+00,1.905910e-01,1.819134e-01,3,0,1.257681e+00,1.257681e+00
1.265486e+00,1.954120e-01,1.859665e-01,3,0,1.433584e+00,1.433585e+00
1.264623e+00,1.909940e-01,1.819134e-01,3,0,1.311727e+00,1.311727e+00
1.265775e+00,1.954940e-01,1.869202e-01,3,0,1.396585e+00,1.396586e+00
1.296498e+00,1.905250e-01,1.809597e-01,3,0,1.860545e+00,1.860546e+00
1.267237e+00,1.964840e-01,1.881123e-01,3,0,1.373918e+00,1.373917e+00
1.267514e+00,1.905390e-01,1.809597e-01,3,0,9.316925e-01,9.316924e-01
1.264947e+00,1.956760e-01,1.859665e-01,3,0,5.521379e-01,5.521378e-01
1.266842e+00,1.896350e-01,1.800060e-01,3,0,3.686997e-01,3.686997e-01
1.291121e+00,1.957430e-01,1.859665e-01,3,0,2.890579e-01,2.890580e-01
1.264394e+00,1.912020e-01,1.809597e-01,3,0,3.974289e-01,3.974293e-01
1.263613e+00,1.964950e-01,1.869202e-01,3,0,2.810356e-01,2.810356e-01
1.263290e+00,1.908980e-01,1.819134e-01,3,0,4.696349e-01,4.696354e-01
1.264117e+00,1.958990e-01,1.869202e-01,3,0,4.989981e-01,4.989983e-01
1.261297e+00,1.905380e-01,1.821518e-01,3,0,4.636613e-01,4.636614e-01
1.265679e+00,1.959860e-01,1.859665e-01,3,0,5.965577e-01,5.965583e-01
1.267318e+00,1.908530e-01,1.819134e-01,3,0,3.326713e-01,3.326713e-01
1.265487e+00,1.956610e-01,1.859665e-01,3,0,2.696447e-01,2.696449e-01
1.265504e+00,1.904760e-01,1.809597e-01,3,0,1.432083e+00,1.432085e+00
1.265958e+00,1.961480e-01,1.869202e-01,3,0,1.492267e+00,1.492268e+00
1.268626e+00,1.903740e-01,1.809597e-01,3,0,7.257015e-01,7.257011e-01
1.264803e+00,1.956850e-01,1.859665e-01,3,0,7.163307e-01,7.163309e-01
1.270206e+00,1.907460e-01,1.809597e-01,3,0,6.274545e-01,6.274547e-01
1.263837e+00,1.969310e-01,1.878738e-01,3,0,6.725526e-01,6.725528e-01
1.265389e+00,1.909250e-01,1.819134e-01,3,0,3.432229e-01,3.432229e-01
1.264415e+00,1.963840e-01,1.869202e-01,3,0,2.873769e-01,2.873771e-01
1.264693e+00,1.900080e-01,1.800060e-01,3,0,5.472064e-01,5.472070e-01
1.263786e+00,1.958700e-01,1.859665e-01,3,0,6.830382e-01,6.830386e-01
1.265061e+00,1.908360e-01,1.821518e-01,3,0,8.421267e-01,8.421272e-01
1.267705e+00,1.969940e-01,1.871586e-01,3,0,5.481679e-01,5.481680e-01
1.263313e+00,1.901070e-01,1.809597e-01,3,0,5.259511e-01,5.259514e-01
1.264130e+00,1.963570e-01,1.869202e-01,3,0,7.885554e-01,7.885561e-01
1.267671e+00,1.910660e-01,1.821518e-01,3,0,1.171393e+00,1.171394e+00
1.265766e+00,1.960110e-01,1.869202e-01,3,0,1.300049e+00,1.300050e+00
1.264231e+00,1.905690e-01,1.811981e-01,3,0,1.813813e+00,1.813814e+00
1.265142e+00,1.953720e-01,1.859665e-01,3,0,1.714228e+00,1.714228e+00
1.267239e+00,1.900440e-01,1.809597e-01,3,0,2.666198e+00,2.666200e+00
1.266961e+00,1.899380e-01,1.809597e-01,3,0,1.116318e+00,1.116318e+00
1.261692e+00,1.900250e-01,1.809597e-01,3,0,9.496082e-01,9.496083e-01
1.264059e+00,1.902010e-01,1.809597e-01,3,0,1.495809e+00,1.495811e+00
1.268232e+00,1.907380e-01,1.819134e-01,3,0,7.337589e-01,7.337586e-01
1.263870e+00,1.907580e-01,1.809597e-01,3,0,6.039239e-01,6.039240e-01
1.290816e+00,1.907040e-01,1.811981e-01,3,0,4.908800e-01,4.908801e-01
1.290295e+00,1.963300e-01,1.821518e-01,3,0,3.296281e-01,3.296281e-01
1.265905e+00,1.913560e-01,1.819134e-01,3,0,6.731908e-01,6.731914e-01
1.265950e+00,1.947520e-01,1.850128e-01,3,0,4.999328e-01,4.999328e-01
1.267724e+00,1.895960e-01,1.809597e-01,3,0,2.850430e-01,2.850430e-01
1.263656e+00,1.952530e-01,1.859665e-01,3,0,6.846788e-01,6.846798e-01
1.264550e+00,1.905610e-01,1.819134e-01,3,0,4.751934e-01,4.751934e-01
1.264271e+00,1.903410e-01,1.809597e-01,3,0,2.501682e-01,2.501683e-01
1.263998e+00,1.905640e-01,1.809597e-01,3,0,2.730759e-01,2.730761e-01
1.259542e+00,1.904150e-01,1.819134e-01,3,0,3.417809e-01,3.417812e-01
1.259230e+00,1.907600e-01,1.819134e-01,3,0,5.170271e-01,5.170275e-01
1.294263e+00,1.911770e-01,1.819134e-01,3,0,1.084212e+00,1.084213e+00
1.261656e+00,2.016190e-01,1.919270e-01,3,0,7.852629e-01,7.852643e-01
1.262133e+00,1.907930e-01,1.811981e-01,3,0,1.422441e+00,1.422442e+00
1.266914e+00,1.905740e-01,1.819134e-01,3,0,6.216157e-01,6.216154e-01
1.265125e+00,1.909560e-01,1.819134e-01,3,0,4.951791e-01,4.951793e-01
1.263635e+00,1.907200e-01,1.821518e-01,3,0,3.307847e-01,3.307847e-01
1.270100e+00,1.908400e-01,1.819134e-01,3,0,3.046022e-01,3.046025e-01
1.264630e+00,1.901870e-01,1.809597e-01,3,0,8.550010e-01,8.550023e-01
1.272867e+00,1.907970e-01,1.809597e-01,3,0,8.542213e-01,8.542216e-01
1.268578e+00,1.906010e-01,1.821518e-01,3,0,1.312673e+00,1.312674e+00
1.277959e+00,1.904190e-01,1.809597e-01,3,0,1.348761e+00,1.348761e+00
1.266597e+00,1.904650e-01,1.811981e-01,3,0,1.549339e+00,1.549340e+00
1.271961e+00,1.909270e-01,1.819134e-01,3,0,2.538201e+00,2.538203e+00
1.265314e+00,1.905420e-01,1.809597e-01,3,0,2.843699e+00,2.843700e+00
1.271818e+00,1.901580e-01,1.809597e-01,3,0,2.125498e+00,2.125498e+00
1.265723e+00,1.902330e-01,1.809597e-01,3,0,1.909762e+00,1.909762e+00
1.271413e+00,1.903690e-01,1.809597e-01,3,0,2.681876e+00,2.681878e+00
1.266815e+00,1.899710e-01,1.809597e-01,3,0,1.822912e+00,1.822912e+00
1.270604e+00,1.909360e-01,1.809597e-01,3,0,1.511419e+00,1.511419e+00
1.266716e+00,1.898950e-01,1.809597e-01,3,0,1.527632e+00,1.527633e+00
1.298172e+00,1.911310e-01,1.809597e-01,3,0,1.649759e+00,1.649759e+00
1.265767e+00,1.909380e-01,1.821518e-01,3,0,1.805455e+00,1.805455e+00
1.271822e+00,1.905820e-01,1.809597e-01,3,0,1.330819e+00,1.330819e+00
1.278440e+00,1.903000e-01,1.809597e-01,3,0,1.277745e+00,1.277745e+00
1.270201e+00,1.912810e-01,1.819134e-01,3,0,1.639318e+00,1.639319e+00
1.267005e+00,1.904740e-01,1.809597e-01,3,0,1.800038e+00,1.800039e+00
1.272643e+00,1.903490e-01,1.809597e-01,3,0,1.141315e+00,1.141315e+00
1.264781e+00,1.906390e-01,1.809597e-01,3,0,1.097961e+00,1.097961e+00
1.271933e+00,1.906760e-01,1.811981e-01,3,0,6.453178e-01,6.453178e-01
1.263430e+00,1.907310e-01,1.819134e-01,3,0,6.261352e-01,6.261355e-01

