6.052040e-01,5.379970e-01,2,2,0.000000e+00,0.000000e+00
8.688740e-01,7.991300e-01,3,3,6.164157e-02,6.164144e-02
8.686380e-01,8.204250e-01,3,3,1.175661e-01,1.175656e-01
8.655110e-01,7.999270e-01,3,3,2.547797e-01,2.547751e-01
1.157139e+00,8.072480e-01,4,3,2.418972e-01,2.421629e-01
1.158686e+00,1.061138e+00,4,4,9.723448e-01,9.720277e-01
2.012988e+00,1.849485e+00,7,7,1.354185e+00,1.355416e+00
2.018488e+00,1.852881e+00,7,7,1.770390e+00,1.772585e+00
1.449302e+00,2.639012e+00,5,10,8.544000e-01,8.542417e-01
2.322314e+00,7.932080e-01,8,3,7.584941e-01,7.626088e-01
1.161563e+00,1.060812e+00,4,4,6.363435e-01,6.362800e-01
1.726960e+00,1.590931e+00,6,6,6.716109e-01,6.713383e-01
1.732760e+00,1.849484e+00,6,7,1.067540e+00,1.062457e+00
1.727636e+00,1.849916e+00,6,7,1.502571e+00,1.498138e+00
1.732261e+00,1.851030e+00,6,7,1.283402e+00,1.272636e+00
1.725558e+00,1.849276e+00,6,7,1.856843e+00,1.845161e+00
1.153706e+00,1.588796e+00,4,6,1.432634e+00,1.432488e+00
2.012334e+00,1.850777e+00,7,7,1.227756e+00,1.227713e+00
1.732407e+00,1.844789e+00,6,7,1.197334e+00,1.195160e+00
1.158368e+00,2.114653e+00,4,8,1.216198e+00,1.215389e+00
1.440363e+00,1.059737e+00,5,4,1.271898e+00,1.272439e+00
1.730343e+00,1.587925e+00,6,6,1.108786e+00,1.107557e+00
2.307753e+00,1.060236e+00,8,4,9.781218e-01,9.802704e-01
1.153692e+00,1.323546e+00,4,5,9.218875e-01,9.223340e-01
2.012526e+00,1.850540e+00,7,7,9.015302e-01,9.015461e-01
1.731178e+00,1.852938e+00,6,7,8.357939e-01,8.329020e-01
1.732544e+00,1.321151e+00,6,5,7.411634e-01,7.348132e-01
2.012625e+00,1.852587e+00,7,7,5.422575e-01,5.408891e-01
1.153756e+00,2.115172e+00,4,8,2.715741e-01,2.714140e-01
3.179315e+00,3.172328e+00,11,12,2.039446e-01,2.038924e-01
1.447581e+00,7.978780e-01,5,3,3.544988e-01,3.538992e-01
2.887751e+00,2.377528e+00,10,9,4.521972e-01,4.520745e-01
2.014273e+00,1.851834e+00,7,7,3.742828e-01,3.746104e-01
2.015216e+00,1.848987e+00,7,7,6.469609e-01,6.470053e-01
2.012841e+00,1.848923e+00,7,7,5.098450e-01,5.102071e-01
1.725854e+00,1.849641e+00,6,7,3.733824e-01,3.684297e-01
2.011254e+00,1.848958e+00,7,7,3.097518e-01,3.095601e-01
2.021437e+00,1.589394e+00,7,6,3.034116e-01,3.027565e-01
1.158367e+00,1.061336e+00,4,4,7.275160e-01,7.274395e-01
2.020402e+00,1.851326e+00,7,7,7.129858e-01,7.136040e-01
2.013622e+00,1.852357e+00,7,7,1.630868e+00,1.631836e+00
2.012825e+00,1.851794e+00,7,7,2.382988e+00,2.380687e+00
2.014194e+00,1.844262e+00,7,7,1.512320e+00,1.508885e+00
1.732999e+00,1.850553e+00,6,7,2.244301e+00,2.238392e+00
1.732405e+00,1.584901e+00,6,6,1.836110e+00,1.835991e+00
2.014076e+00,1.852497e+00,7,7,1.421469e+00,1.419029e+00
2.013664e+00,1.851598e+00,7,7,1.247099e+00,1.247238e+00
1.731656e+00,1.850812e+00,6,7,1.026006e+00,1.016424e+00
1.726781e+00,1.850239e+00,6,7,7.889678e-01,7.792378e-01
2.015180e+00,1.851287e+00,7,7,4.387201e-01,4.361554e-01
2.883025e+00,2.113562e+00,10,8,4.136178e-01,4.169777e-01
1.156775e+00,1.328804e+00,4,5,6.507179e-01,6.501058e-01
1.725960e+00,1.851194e+00,6,7,4.697902e-01,4.695154e-01
2.305848e+00,2.114054e+00,8,8,3.866530e-01,3.865204e-01
2.890654e+00,3.171715e+00,10,12,5.637331e-01,5.407078e-01
2.891891e+00,7.924150e-01,10,3,8.276102e-01,8.168170e-01
2.020690e+00,2.649872e+00,7,10,4.762548e-01,4.819252e-01
1.157452e+00,1.059887e+00,4,4,6.952238e-01,6.949049e-01
2.014719e+00,1.849392e+00,7,7,9.458101e-01,9.469482e-01
2.019077e+00,1.850508e+00,7,7,1.432860e+00,1.434732e+00
1.153049e+00,1.060271e+00,4,4,5.074225e-01,5.082983e-01
2.012052e+00,1.850370e+00,7,7,1.322009e+00,1.322821e+00
2.012319e+00,1.851822e+00,7,7,2.714869e+00,2.717030e+00
2.014026e+00,1.850679e+00,7,7,1.346557e+00,1.346823e+00
2.019532e+00,1.849547e+00,7,7,1.945834e+00,1.947528e+00
1.155662e+00,2.645182e+00,4,10,7.269912e-01,7.274843e-01
2.876550e+00,2.119472e+00,10,8,8.675926e-01,8.633210e-01
1.446368e+00,1.060878e+00,5,4,7.005019e-01,7.005750e-01
1.155862e+00,2.648164e+00,4,10,5.279936e-01,5.440446e-01
1.154552e+00,2.645949e+00,4,10,4.340470e-01,4.340537e-01
1.445130e+00,1.062600e+00,5,4,6.742649e-01,6.741443e-01
1.158104e+00,3.182769e+00,4,12,6.914530e-01,6.951487e-01
1.160062e+00,3.171529e+00,4,12,7.261367e-01,7.286128e-01
1.158365e+00,1.062001e+00,4,4,8.212223e-01,8.218306e-01
1.729836e+00,1.848959e+00,6,7,1.166709e+00,1.163009e+00
2.019587e+00,1.850533e+00,7,7,1.553792e+00,1.554883e+00
2.011173e+00,1.844970e+00,7,7,9.712731e-01,9.712853e-01
2.011758e+00,1.848898e+00,7,7,9.283136e-01,9.283318e-01
2.897366e+00,2.648127e+00,10,10,7.145120e-01,7.144424e-01
8.697130e-01,1.062058e+00,3,4,3.021277e-01,3.018126e-01
1.158058e+00,1.062618e+00,4,4,1.148930e+00,1.148603e+00
1.728936e+00,1.849969e+00,6,7,8.369185e-01,8.329983e-01
2.014689e+00,1.846140e+00,7,7,6.929508e-01,6.935361e-01
1.730075e+00,1.851366e+00,6,7,6.028119e-01,5.973195e-01
1.153361e+00,1.058444e+00,4,4,9.925119e-01,9.891269e-01
2.011056e+00,1.850126e+00,7,7,1.939845e+00,1.941754e+00
2.012391e+00,1.851180e+00,7,7,3.012217e+00,3.015057e+00
2.011756e+00,1.851207e+00,7,7,4.487898e+00,4.489856e+00
2.012356e+00,1.324020e+00,7,5,3.564968e+00,3.570007e+00
2.306233e+00,1.323177e+00,8,5,2.436304e+00,2.432713e+00
2.015183e+00,1.850408e+00,7,7,1.777455e+00,1.778151e+00
2.013743e+00,1.851887e+00,7,7,1.238429e+00,1.239464e+00
2.012393e+00,1.846888e+00,7,7,1.782806e+00,1.782202e+00
2.013468e+00,1.845784e+00,7,7,1.296280e+00,1.295697e+00
2.011961e+00,1.848502e+00,7,7,1.744338e+00,1.744323e+00
2.011863e+00,1.850563e+00,7,7,1.978896e+00,1.980104e+00
2.013231e+00,1.851141e+00,7,7,7.796133e-01,7.796716e-01
1.732235e+00,1.851209e+00,6,7,6.556723e-01,6.501891e-01
1.725482e+00,1.851017e+00,6,7,9.749222e-01,9.708201e-01
1.731897e+00,1.850438e+00,6,7,1.018271e+00,1.012775e+00
1.153480e+00,1.061354e+00,4,4,7.324892e-01,7.349556e-01
2.884012e+00,2.637391e+00,10,10,8.838537e-01,8.838541e-01
1.161144e+00,7.920160e-01,4,3,4.447646e-01,4.454870e-01
1.730988e+00,1.850165e+00,6,7,4.116139e-01,4.093381e-01
1.727175e+00,1.586554e+00,6,6,3.359075e-01,3.322818e-01
2.605813e+00,1.850046e+00,9,7,4.531715e-01,4.413753e-01
1.156837e+00,1.061187e+00,4,4,5.794957e-01,5.786319e-01
1.733146e+00,1.850364e+00,6,7,6.041371e-01,5.982485e-01
1.152009e+00,2.378152e+00,4,9,3.929195e-01,3.941245e-01
3.184573e+00,2.646353e+00,11,10,3.988317e-01,4.040819e-01
1.157999e+00,1.061329e+00,4,4,3.820769e-01,3.828145e-01
8.697330e-01,1.060412e+00,3,4,3.339527e-01,3.309962e-01
2.011065e+00,1.849970e+00,7,7,2.468204e-01,2.469733e-01
2.600866e+00,2.376524e+00,9,9,4.110596e-01,4.104569e-01
2.306931e+00,2.382489e+00,8,9,2.055815e-01,2.064245e-01
1.156552e+00,1.060942e+00,4,4,2.118653e-01,2.119649e-01
2.019534e+00,1.849650e+00,7,7,5.701722e-01,5.717773e-01
1.731674e+00,1.845822e+00,6,7,3.927132e-01,3.910162e-01
2.018874e+00,1.849295e+00,7,7,1.409453e+00,1.411746e+00
2.601967e+00,1.060464e+00,9,4,1.044208e+00,1.041699e+00
1.156114e+00,1.061883e+00,4,4,1.011139e+00,1.010544e+00
1.731530e+00,1.850157e+00,6,7,1.338912e+00,1.336088e+00
1.729137e+00,1.845998e+00,6,7,1.189594e+00,1.188363e+00
1.731206e+00,1.849218e+00,6,7,1.269929e+00,1.261931e+00
2.021407e+00,1.850731e+00,7,7,2.248196e+00,2.248879e+00
1.731774e+00,1.583928e+00,6,6,1.494440e+00,1.494435e+00
1.157361e+00,1.059792e+00,4,4,1.088643e+00,1.088639e+00
8.679910e-01,7.985610e-01,3,3,9.004992e-01,9.004716e-01
1.156571e+00,1.061320e+00,4,4,5.022775e-01,5.020911e-01
1.154146e+00,2.908134e+00,4,11,5.629391e-01,5.634846e-01
2.897900e+00,2.648172e+00,10,10,3.925188e-01,3.924560e-01
8.702940e-01,7.979520e-01,3,3,5.078902e-01,5.069319e-01
1.155036e+00,1.320404e+00,4,5,2.329841e-01,2.323624e-01
3.178918e+00,1.061074e+00,11,4,2.022789e-01,1.985011e-01
3.177163e+00,7.969280e-01,11,3,2.142190e-01,2.141146e-01
8.701030e-01,1.061323e+00,3,4,4.785177e-01,4.747870e-01
2.024900e+00,1.851466e+00,7,7,5.396057e-01,5.406399e-01
1.733296e+00,2.126103e+00,6,8,4.485091e-01,4.463788e-01
1.159981e+00,1.061026e+00,4,4,4.989322e-01,4.982782e-01
1.737959e+00,7.983130e-01,6,3,3.892890e-01,3.894442e-01
1.726768e+00,1.847809e+00,6,7,6.252311e-01,6.230543e-01
1.729520e+00,1.847975e+00,6,7,1.037601e+00,1.032260e+00
1.730957e+00,1.844099e+00,6,7,1.224498e+00,1.222534e+00
1.156516e+00,2.115042e+00,4,8,9.982555e-01,9.965402e-01
2.012048e+00,1.849076e+00,7,7,8.730931e-01,8.726119e-01
2.010655e+00,1.844856e+00,7,7,7.896563e-01,7.897281e-01
2.010362e+00,1.843949e+00,7,7,5.872135e-01,5.872378e-01
1.156223e+00,2.114547e+00,4,8,5.467502e-01,5.465610e-01
1.156815e+00,1.059885e+00,4,4,8.349577e-01,8.344870e-01
2.014654e+00,1.850696e+00,7,7,1.127888e+00,1.128746e+00
2.011830e+00,1.849099e+00,7,7,6.303236e-01,6.309973e-01
1.725682e+00,1.848450e+00,6,7,6.455921e-01,6.424759e-01
2.301521e+00,2.114741e+00,8,8,5.091143e-01,5.091749e-01
2.013123e+00,1.844928e+00,7,7,4.467085e-01,4.469593e-01
2.013306e+00,1.849260e+00,7,7,3.715930e-01,3.729742e-01
2.893044e+00,2.382596e+00,10,9,5.064010e-01,4.944280e-01
1.727944e+00,7.977200e-01,6,3,9.207885e-01,9.225063e-01
1.730456e+00,1.848953e+00,6,7,8.067565e-01,8.043086e-01
1.723384e+00,1.588258e+00,6,6,8.904361e-01,8.903917e-01
1.725700e+00,1.848361e+00,6,7,1.033213e+00,1.030776e+00
3.165481e+00,1.582707e+00,11,6,4.534650e-01,4.435354e-01
1.157987e+00,1.847788e+00,4,7,3.617161e-01,3.633738e-01
1.450166e+00,1.322884e+00,5,5,3.472033e-01,3.471859e-01
1.156758e+00,1.061071e+00,4,4,1.640788e-01,1.661942e-01
8.676500e-01,3.168257e+00,3,12,1.749680e-01,1.750011e-01
8.677870e-01,7.968040e-01,3,3,2.938930e-01,2.939192e-01
2.300283e+00,2.116671e+00,8,8,2.283313e-01,2.282072e-01
1.155032e+00,1.060191e+00,4,4,7.635782e-01,7.628680e-01
2.011498e+00,1.849951e+00,7,7,6.136033e-01,6.136077e-01
3.177182e+00,2.908301e+00,11,11,4.276206e-01,4.276377e-01
2.026522e+00,1.322358e+00,7,5,3.758147e-01,3.752931e-01
1.155506e+00,7.976390e-01,4,3,3.650570e-01,3.652839e-01
2.299193e+00,2.110265e+00,8,8,3.642276e-01,3.636664e-01
3.474991e+00,3.173043e+00,12,12,2.692945e-01,2.686072e-01
1.156277e+00,1.059303e+00,4,4,2.969558e-01,2.965869e-01
1.730930e+00,7.986600e-01,6,3,2.496269e-01,2.490477e-01
1.154947e+00,1.060340e+00,4,4,2.068837e-01,2.062501e-01
1.156631e+00,1.060245e+00,4,4,5.043803e-01,5.025851e-01
2.879281e+00,2.110555e+00,10,8,4.089408e-01,4.099223e-01
1.156592e+00,2.640250e+00,4,10,5.864388e-01,5.875117e-01
1.731511e+00,1.848797e+00,6,7,8.560314e-01,8.527721e-01
1.725633e+00,1.063817e+00,6,4,7.525435e-01,7.582583e-01
2.013757e+00,1.845764e+00,7,7,8.514318e-01,8.521299e-01
1.726340e+00,1.851628e+00,6,7,5.938745e-01,5.889501e-01
2.013304e+00,1.848363e+00,7,7,5.323202e-01,5.308848e-01
2.012673e+00,1.848444e+00,7,7,6.371502e-01,6.369451e-01
2.017738e+00,1.848287e+00,7,7,1.337434e+00,1.337670e+00
2.018105e+00,1.843621e+00,7,7,1.794439e+00,1.798239e+00
1.731814e+00,1.848428e+00,6,7,1.553098e+00,1.547118e+00
2.880957e+00,2.641574e+00,10,10,1.167262e+00,1.167281e+00
2.296722e+00,1.849260e+00,8,7,1.088464e+00,1.090321e+00
2.009939e+00,1.849685e+00,7,7,6.813037e-01,6.814323e-01
2.010030e+00,1.844081e+00,7,7,7.645020e-01,7.644560e-01
1.728939e+00,1.324529e+00,6,5,7.407215e-01,7.407825e-01
2.011499e+00,1.843110e+00,7,7,5.500875e-01,5.501205e-01
1.161865e+00,1.060819e+00,4,4,4.706827e-01,4.706872e-01
1.157543e+00,1.060616e+00,4,4,1.026417e+00,1.026151e+00
1.436952e+00,1.324967e+00,5,5,2.182027e+00,2.180908e+00
2.010679e+00,1.844467e+00,7,7,2.173898e+00,2.174399e+00
2.009851e+00,1.849256e+00,7,7,2.191926e+00,2.193781e+00
2.010145e+00,1.849223e+00,7,7,2.642800e+00,2.645713e+00
2.011464e+00,1.849052e+00,7,7,3.959437e+00,3.963367e+00
2.011611e+00,1.849207e+00,7,7,2.431053e+00,2.430567e+00
2.020109e+00,1.849498e+00,7,7,2.941346e+00,2.947699e+00
1.437902e+00,2.645186e+00,5,10,2.239500e+00,2.241644e+00
2.012922e+00,1.849781e+00,7,7,2.072330e+00,2.072593e+00
2.016739e+00,1.849499e+00,7,7,1.305564e+00,1.306395e+00
2.016777e+00,1.848234e+00,7,7,1.761628e+00,1.762940e+00
2.012780e+00,1.844908e+00,7,7,1.151649e+00,1.151884e+00
1.730804e+00,1.851518e+00,6,7,1.486147e+00,1.479057e+00
2.010032e+00,1.585725e+00,7,6,4.297491e-01,4.299804e-01
8.631180e-01,3.169172e+00,3,12,6.906759e-01,7.018786e-01
1.157102e+00,1.059631e+00,4,4,1.463331e+00,1.462838e+00
2.018067e+00,1.849146e+00,7,7,9.918385e-01,9.927477e-01
2.018920e+00,1.848138e+00,7,7,1.676644e+00,1.678396e+00
1.726242e+00,1.848508e+00,6,7,1.540965e+00,1.534223e+00
2.020417e+00,1.848103e+00,7,7,2.389363e+00,2.394103e+00
2.012760e+00,1.847572e+00,7,7,1.228752e+00,1.228895e+00
2.011491e+00,1.850884e+00,7,7,9.814445e-01,9.815856e-01
2.301057e+00,2.111841e+00,8,8,7.239516e-01,7.281505e-01
2.010949e+00,1.848500e+00,7,7,7.153482e-01,7.154600e-01
2.011451e+00,1.847666e+00,7,7,7.545985e-01,7.546495e-01
2.019541e+00,1.846855e+00,7,7,1.248839e+00,1.249836e+00
2.011735e+00,1.848040e+00,7,7,5.378983e-01,5.379125e-01
3.459297e+00,3.165762e+00,12,12,3.957774e-01,3.939447e-01
1.156783e+00,2.117879e+00,4,8,5.292417e-01,5.291847e-01
2.888937e+00,1.063662e+00,10,4,5.540897e-01,5.515122e-01
1.154727e+00,1.059780e+00,4,4,3.951550e-01,3.945400e-01
1.155614e+00,1.060251e+00,4,4,5.834756e-01,5.830919e-01
1.730060e+00,1.848202e+00,6,7,7.926484e-01,7.887771e-01
1.726819e+00,1.848881e+00,6,7,1.131811e+00,1.125696e+00
2.020121e+00,1.849194e+00,7,7,2.418798e+00,2.424935e+00
2.019041e+00,1.847830e+00,7,7,3.259286e+00,3.266306e+00
2.012574e+00,1.850313e+00,7,7,2.179931e+00,2.180705e+00
2.018701e+00,1.849151e+00,7,7,2.681667e+00,2.684122e+00
1.438391e+00,2.114373e+00,5,8,1.906631e+00,1.906865e+00
1.732628e+00,1.853006e+00,6,7,1.436635e+00,1.428486e+00
2.016606e+00,1.852121e+00,7,7,1.653971e+00,1.653557e+00
2.011442e+00,1.850459e+00,7,7,8.113305e-01,8.112832e-01
1.726295e+00,2.114170e+00,6,8,6.580847e-01,6.562267e-01
1.729676e+00,2.641891e+00,6,10,4.862565e-01,4.912589e-01
1.730117e+00,1.843295e+00,6,7,4.699040e-01,4.633144e-01
2.881012e+00,1.848129e+00,10,7,4.642873e-01,4.638313e-01
2.019671e+00,1.847207e+00,7,7,7.463366e-01,7.465852e-01
1.151182e+00,1.587836e+00,4,6,2.471596e-01,2.473008e-01
1.155937e+00,7.973500e-01,4,3,1.012681e+00,1.014918e+00
2.019083e+00,1.849346e+00,7,7,2.352724e+00,2.355832e+00
2.015657e+00,1.844013e+00,7,7,1.344710e+00,1.344795e+00
2.889274e+00,3.170500e+00,10,12,9.516717e-01,9.336027e-01
2.306022e+00,7.987460e-01,8,3,7.054603e-01,7.035977e-01
1.726800e+00,1.326265e+00,6,5,5.897396e-01,5.865976e-01
2.012056e+00,1.849396e+00,7,7,5.786501e-01,5.787508e-01
1.157109e+00,1.060023e+00,4,4,1.091952e+00,1.090673e+00
2.014672e+00,1.849038e+00,7,7,8.703076e-01,8.705548e-01
3.463107e+00,3.167371e+00,12,12,6.743888e-01,6.701327e-01
1.156768e+00,3.174769e+00,4,12,7.538769e-01,7.544137e-01
1.156293e+00,1.060449e+00,4,4,1.251232e+00,1.248736e+00
2.010983e+00,1.849298e+00,7,7,2.034022e+00,2.034927e+00
2.011397e+00,1.850116e+00,7,7,3.755911e+00,3.763097e+00
2.012254e+00,1.843183e+00,7,7,4.606218e+00,4.618371e+00
2.012741e+00,1.858698e+00,7,7,4.054491e+00,4.061730e+00
1.730728e+00,1.848962e+00,6,7,4.301408e+00,4.285592e+00
2.011969e+00,1.848677e+00,7,7,3.512480e+00,3.513544e+00
2.012415e+00,1.850457e+00,7,7,3.508248e+00,3.508921e+00
2.020128e+00,1.848831e+00,7,7,3.389837e+00,3.392016e+00
2.020296e+00,1.845737e+00,7,7,2.740532e+00,2.741567e+00
2.014460e+00,1.849156e+00,7,7,2.276704e+00,2.277060e+00
2.011820e+00,1.848669e+00,7,7,1.667469e+00,1.667729e+00
2.012583e+00,1.850285e+00,7,7,1.542841e+00,1.543477e+00
2.012076e+00,1.589395e+00,7,6,1.608427e+00,1.607659e+00
2.012281e+00,1.844075e+00,7,7,2.178728e+00,2.179179e+00
2.011813e+00,1.846861e+00,7,7,4.213791e+00,4.214908e+00
2.011633e+00,1.848399e+00,7,7,4.450217e+00,4.451311e+00
2.012161e+00,1.848739e+00,7,7,4.873262e+00,4.877034e+00
2.012124e+00,1.849725e+00,7,7,4.228612e+00,4.232561e+00
2.018692e+00,1.849239e+00,7,7,4.166427e+00,4.171297e+00
2.020606e+00,1.849302e+00,7,7,4.961680e+00,4.967844e+00
2.020678e+00,1.849629e+00,7,7,4.495221e+00,4.500325e+00
1.728047e+00,1.849441e+00,6,7,3.728720e+00,3.707224e+00
2.300676e+00,1.326879e+00,8,5,2.966035e+00,2.965343e+00
2.012419e+00,1.849533e+00,7,7,2.513959e+00,2.515518e+00
2.017976e+00,1.849493e+00,7,7,2.078592e+00,2.079732e+00
2.017672e+00,1.847854e+00,7,7,1.924668e+00,1.925371e+00
2.014742e+00,1.850502e+00,7,7,2.069719e+00,2.069772e+00
2.011109e+00,1.848189e+00,7,7,1.050854e+00,1.051111e+00
1.731036e+00,1.848001e+00,6,7,9.108597e-01,9.057636e-01
1.726719e+00,1.848803e+00,6,7,1.052298e+00,1.047839e+00
1.726518e+00,1.847723e+00,6,7,6.866805e-01,6.836168e-01
2.880930e+00,2.637784e+00,10,10,6.171541e-01,6.171725e-01
8.680630e-01,7.972600e-01,3,3,4.949891e-01,4.950311e-01
2.010326e+00,1.848472e+00,7,7,3.783052e-01,3.782869e-01
1.154422e+00,1.059532e+00,4,4,3.317497e-01,3.308634e-01
2.894461e+00,3.168925e+00,10,12,3.028922e-01,2.959262e-01
3.476785e+00,3.173586e+00,12,12,3.706765e-01,3.713226e-01
1.731800e+00,1.843489e+00,6,7,4.089148e-01,4.087518e-01
1.156801e+00,1.320736e+00,4,5,2.872122e-01,2.865434e-01
3.175855e+00,3.170579e+00,11,12,3.261563e-01,3.271622e-01
1.449255e+00,2.642225e+00,5,10,9.673400e-01,9.676748e-01
1.442298e+00,1.849514e+00,5,7,2.214477e+00,2.204880e+00
2.013170e+00,1.851805e+00,7,7,2.902846e+00,2.899261e+00
2.012928e+00,1.844756e+00,7,7,2.334187e+00,2.335574e+00
2.013564e+00,1.849792e+00,7,7,2.544211e+00,2.550699e+00
2.019034e+00,1.847993e+00,7,7,2.394102e+00,2.399478e+00
1.731924e+00,1.849326e+00,6,7,2.077009e+00,2.069414e+00
1.153618e+00,1.058689e+00,4,4,1.542497e+00,1.541297e+00
2.011912e+00,1.849485e+00,7,7,1.497187e+00,1.498038e+00
2.012850e+00,1.849056e+00,7,7,2.863711e+00,2.866050e+00
2.011774e+00,1.849438e+00,7,7,3.819331e+00,3.822699e+00
2.011673e+00,1.844044e+00,7,7,4.500973e+00,4.505478e+00
2.012442e+00,1.845547e+00,7,7,3.589191e+00,3.591813e+00
2.020497e+00,1.848690e+00,7,7,2.693850e+00,2.697103e+00
1.152238e+00,1.588955e+00,4,6,1.899290e+00,1.886037e+00
2.014227e+00,1.850306e+00,7,7,1.474170e+00,1.474872e+00
2.011866e+00,1.849217e+00,7,7,2.042342e+00,2.042797e+00
2.013929e+00,1.849683e+00,7,7,2.060542e+00,2.061442e+00
2.019223e+00,1.843860e+00,7,7,1.528894e+00,1.529660e+00
1.730203e+00,1.849508e+00,6,7,1.553197e+00,1.550984e+00
1.731871e+00,1.848318e+00,6,7,1.813012e+00,1.808031e+00
1.725353e+00,1.847631e+00,6,7,1.891769e+00,1.887206e+00
1.731655e+00,1.847978e+00,6,7,2.308600e+00,2.302707e+00
1.151925e+00,1.059110e+00,4,4,1.824877e+00,1.827194e+00
2.300680e+00,2.112593e+00,8,8,2.355919e+00,2.355818e+00
2.011520e+00,1.848152e+00,7,7,2.256388e+00,2.256895e+00
1.444041e+00,1.059936e+00,5,4,1.871961e+00,1.874367e+00
2.018454e+00,1.848797e+00,7,7,1.504373e+00,1.507841e+00
1.722996e+00,1.847649e+00,6,7,1.593501e+00,1.594480e+00
2.015923e+00,1.849667e+00,7,7,1.578466e+00,1.579680e+00
1.730000e+00,1.847203e+00,6,7,1.087694e+00,1.083194e+00
1.725581e+00,1.848551e+00,6,7,1.087404e+00,1.085901e+00
1.727836e+00,1.851078e+00,6,7,6.757374e-01,6.749285e-01
1.152525e+00,2.114116e+00,4,8,5.804591e-01,5.799482e-01
1.446404e+00,1.059333e+00,5,4,3.743252e-01,3.740881e-01
2.011859e+00,1.848627e+00,7,7,2.804212e-01,2.804257e-01
2.883830e+00,3.170656e+00,10,12,2.381472e-01,2.359859e-01
1.156758e+00,1.585020e+00,4,6,3.240449e-01,3.248324e-01
8.673190e-01,1.060871e+00,3,4,1.640986e-01,1.635531e-01
1.448408e+00,1.322857e+00,5,5,1.480443e-01,1.480674e-01
3.181183e+00,2.644353e+00,11,10,1.328014e-01,1.245309e-01
3.167229e+00,1.061100e+00,11,4,1.292298e-01,1.282371e-01
3.171177e+00,7.975040e-01,11,3,1.528240e-01,1.334264e-01
3.465789e+00,7.922220e-01,12,3,2.759935e-01,2.756927e-01
1.160892e+00,1.060151e+00,4,4,1.762641e-01,1.756644e-01
3.456298e+00,2.642066e+00,12,10,2.653656e-01,2.589597e-01
8.701960e-01,1.321413e+00,3,5,4.604766e-01,4.584955e-01
1.438424e+00,1.586906e+00,5,6,2.692358e-01,2.693869e-01
8.690420e-01,1.060858e+00,3,4,3.534884e-01,3.534249e-01
1.159973e+00,7.976590e-01,4,3,3.647120e-01,3.647310e-01
8.674100e-01,7.970130e-01,3,3,5.211700e-01,5.195486e-01
2.013296e+00,1.844696e+00,7,7,3.980993e-01,3.981000e-01
1.160186e+00,1.060556e+00,4,4,2.568238e-01,2.566536e-01
3.468621e+00,3.168087e+00,12,12,1.843619e-01,1.843617e-01
1.155582e+00,1.060910e+00,4,4,2.686720e-01,2.686265e-01
3.463233e+00,3.165964e+00,12,12,2.313367e-01,2.313633e-01
8.694560e-01,7.976820e-01,3,3,1.846664e-01,1.846708e-01
8.688620e-01,7.921720e-01,3,3,3.613244e-01,3.614124e-01
1.730351e+00,1.587819e+00,6,6,2.495810e-01,2.510620e-01
1.157617e+00,2.906879e+00,4,11,4.097264e-01,4.097793e-01
8.683010e-01,1.853586e+00,3,7,8.049299e-01,8.052603e-01
1.156822e+00,7.969110e-01,4,3,6.403979e-01,6.431223e-01
1.725372e+00,1.847523e+00,6,7,5.494269e-01,5.480932e-01
1.731071e+00,1.848086e+00,6,7,1.211299e+00,1.206404e+00
1.725608e+00,1.848991e+00,6,7,1.511761e+00,1.502149e+00
1.730422e+00,1.848572e+00,6,7,7.399330e-01,7.350452e-01
2.012943e+00,1.848625e+00,7,7,5.185661e-01,5.185836e-01
1.444616e+00,1.325486e+00,5,5,4.434297e-01,4.462540e-01
2.011626e+00,1.843930e+00,7,7,2.469253e-01,2.468322e-01
2.303261e+00,1.321096e+00,8,5,1.993073e-01,2.005810e-01
2.013094e+00,1.848324e+00,7,7,3.468088e-01,3.470017e-01
1.726858e+00,1.844432e+00,6,7,3.251976e-01,3.215758e-01
1.155884e+00,1.583807e+00,4,6,2.495844e-01,2.530548e-01
1.152612e+00,1.323688e+00,4,5,5.807304e-01,5.802841e-01
2.878885e+00,2.635077e+00,10,10,3.780786e-01,3.780858e-01
3.184659e+00,2.646956e+00,11,10,3.478033e-01,3.386909e-01
1.727167e+00,1.060758e+00,6,4,3.408814e-01,3.404216e-01
1.731876e+00,2.639367e+00,6,10,2.550495e-01,2.695776e-01
1.155791e+00,2.644015e+00,4,10,2.885876e-01,2.881800e-01
2.300798e+00,2.110221e+00,8,8,4.253362e-01,4.243728e-01
1.157551e+00,1.320468e+00,4,5,3.052934e-01,3.043001e-01
1.152316e+00,2.641227e+00,4,10,3.769147e-01,3.829481e-01
8.701720e-01,1.059655e+00,3,4,4.833059e-01,4.832333e-01
1.157920e+00,7.979940e-01,4,3,5.821197e-01,5.821283e-01
8.679770e-01,7.924640e-01,3,3,8.330171e-01,8.323365e-01
1.729960e+00,1.847718e+00,6,7,4.870891e-01,4.829662e-01
1.438133e+00,1.326048e+00,5,5,4.220377e-01,4.223153e-01
1.722232e+00,1.850480e+00,6,7,4.395155e-01,4.336548e-01
1.731886e+00,1.849391e+00,6,7,4.811076e-01,4.749482e-01
1.726368e+00,1.844478e+00,6,7,3.300730e-01,3.273731e-01
2.887202e+00,1.850162e+00,10,7,7.737498e-01,7.726865e-01
1.729881e+00,1.058930e+00,6,4,5.255148e-01,5.318463e-01
1.727057e+00,1.848370e+00,6,7,5.061151e-01,5.026893e-01
1.724134e+00,1.587754e+00,6,6,5.132103e-01,5.137418e-01
2.011922e+00,1.848791e+00,7,7,4.561524e-01,4.561725e-01
1.726625e+00,1.851198e+00,6,7,3.311651e-01,3.286952e-01
2.013807e+00,1.849290e+00,7,7,4.633469e-01,4.633812e-01
2.013577e+00,1.850239e+00,7,7,5.251602e-01,5.253013e-01
1.730478e+00,1.584172e+00,6,6,4.343383e-01,4.344570e-01
8.686670e-01,7.969150e-01,3,3,5.707255e-01,5.712399e-01
2.011914e+00,1.589430e+00,7,6,3.822923e-01,3.845869e-01
1.149637e+00,1.060005e+00,4,4,3.804821e-01,3.798598e-01
2.015882e+00,1.850201e+00,7,7,3.102441e-01,3.104959e-01
1.153161e+00,1.582530e+00,4,6,2.283862e-01,2.282682e-01
1.163008e+00,1.059909e+00,4,4,1.815436e-01,1.799762e-01
1.154451e+00,7.963790e-01,4,3,3.627676e-01,3.649391e-01
1.150707e+00,1.849214e+00,4,7,2.475535e-01,2.444113e-01
2.890451e+00,2.638368e+00,10,10,2.878731e-01,2.874032e-01
1.729649e+00,1.848427e+00,6,7,2.770540e-01,2.723182e-01
2.300381e+00,2.111470e+00,8,8,2.829634e-01,2.823952e-01
3.174895e+00,2.904915e+00,11,11,3.549139e-01,3.549552e-01
1.446476e+00,1.322276e+00,5,5,2.830852e-01,2.831193e-01
1.156757e+00,1.060378e+00,4,4,9.844931e-01,9.848533e-01
1.730759e+00,1.848923e+00,6,7,2.369740e+00,2.370957e+00
2.018429e+00,1.849068e+00,7,7,1.755251e+00,1.757732e+00
2.014684e+00,1.849904e+00,7,7,1.286991e+00,1.286957e+00
1.155179e+00,2.640009e+00,4,10,9.840525e-01,9.896968e-01
1.450068e+00,1.059923e+00,5,4,1.083221e+00,1.084909e+00
1.156593e+00,1.060426e+00,4,4,8.417989e-01,8.432639e-01
1.734320e+00,1.060133e+00,6,4,7.580620e-01,7.611154e-01
1.730343e+00,1.849099e+00,6,7,8.008680e-01,7.970046e-01
1.725224e+00,1.850732e+00,6,7,8.501524e-01,8.375366e-01
1.730618e+00,1.848777e+00,6,7,7.241299e-01,7.129165e-01
1.152532e+00,1.320322e+00,4,5,8.586513e-01,8.517006e-01
2.010045e+00,1.848822e+00,7,7,1.307288e+00,1.307477e+00
2.020078e+00,1.848980e+00,7,7,9.438161e-01,9.448783e-01
2.015874e+00,1.847615e+00,7,7,5.538689e-01,5.543626e-01
2.010647e+00,1.847794e+00,7,7,2.988799e-01,2.986667e-01
1.726014e+00,1.586685e+00,6,6,2.409960e-01,2.409618e-01
8.671170e-01,7.965680e-01,3,3,2.244104e-01,2.243107e-01
1.443716e+00,1.323180e+00,5,5,3.643800e-01,3.633000e-01
3.468187e+00,1.061635e+00,12,4,2.572086e-01,2.569146e-01
8.701470e-01,7.975400e-01,3,3,3.536970e-01,3.534139e-01
1.156270e+00,1.059900e+00,4,4,3.795622e-01,3.794016e-01
1.740203e+00,1.059311e+00,6,4,3.773670e-01,3.768482e-01
1.446270e+00,7.975460e-01,5,3,5.678320e-01,5.676570e-01
3.470292e+00,7.966450e-01,12,3,3.118310e-01,3.108159e-01
2.896191e+00,1.059759e+00,10,4,2.669899e-01,2.592187e-01
1.157146e+00,1.059205e+00,4,4,1.024719e+00,1.023911e+00
2.011499e+00,1.849972e+00,7,7,1.177501e+00,1.177568e+00
3.479512e+00,1.061057e+00,12,4,5.400385e-01,5.260425e-01
1.156485e+00,7.986980e-01,4,3,5.759532e-01,5.757992e-01
1.729776e+00,1.582610e+00,6,6,5.064950e-01,5.064330e-01
1.155703e+00,7.976350e-01,4,3,5.425094e-01,5.427286e-01
1.156342e+00,3.173144e+00,4,12,2.432906e-01,2.437636e-01
8.681350e-01,2.646516e+00,3,10,1.908953e-01,1.991687e-01
8.683450e-01,1.061691e+00,3,4,3.600458e-01,3.580274e-01
1.730821e+00,1.844219e+00,6,7,4.628539e-01,4.618710e-01
1.728407e+00,1.847795e+00,6,7,5.677825e-01,5.642595e-01
3.469309e+00,3.170330e+00,12,12,3.583118e-01,3.576035e-01
1.156101e+00,1.060604e+00,4,4,2.901159e-01,2.895221e-01
2.011436e+00,1.849280e+00,7,7,4.523299e-01,4.524362e-01
2.013448e+00,1.849888e+00,7,7,6.879849e-01,6.882673e-01
2.021004e+00,1.849591e+00,7,7,7.835669e-01,7.839419e-01
1.726192e+00,1.848907e+00,6,7,1.189210e+00,1.187687e+00
1.731483e+00,1.848683e+00,6,7,1.134055e+00,1.128873e+00
2.014359e+00,1.848056e+00,7,7,1.842889e+00,1.843245e+00
1.153819e+00,1.852031e+00,4,7,7.307555e-01,7.329717e-01
2.018160e+00,1.583527e+00,7,6,6.295365e-01,6.284626e-01
2.019172e+00,1.847936e+00,7,7,1.026797e+00,1.027790e+00
2.013200e+00,1.852383e+00,7,7,4.818499e-01,4.819199e-01
1.731826e+00,1.583242e+00,6,6,4.450851e-01,4.451069e-01
2.018200e+00,1.852891e+00,7,7,3.422499e-01,3.405525e-01
2.300803e+00,1.847890e+00,8,7,2.004918e-01,2.004265e-01
2.013643e+00,1.848212e+00,7,7,4.630624e-01,4.632684e-01
2.594263e+00,1.322301e+00,9,5,3.893428e-01,3.881008e-01
3.178232e+00,7.981640e-01,11,3,2.323042e-01,2.305568e-01
1.154723e+00,7.971310e-01,4,3,5.849866e-01,5.849624e-01
2.012304e+00,1.848482e+00,7,7,3.509447e-01,3.509118e-01
3.454707e+00,3.167898e+00,12,12,1.917027e-01,1.916262e-01
1.445836e+00,2.909131e+00,5,11,2.137655e-01,2.138404e-01
8.694110e-01,1.322708e+00,3,5,2.729368e-01,2.730907e-01
8.693360e-01,1.060787e+00,3,4,4.270454e-01,4.271111e-01
1.156943e+00,1.059978e+00,4,4,8.150939e-01,8.152535e-01
1.153978e+00,1.058861e+00,4,4,6.847310e-01,6.842798e-01
2.010973e+00,1.848738e+00,7,7,1.176315e+00,1.176830e+00
2.010527e+00,1.849410e+00,7,7,4.894080e-01,4.894046e-01
1.729667e+00,1.587082e+00,6,6,3.617424e-01,3.617742e-01
1.156975e+00,1.060365e+00,4,4,2.049545e-01,2.048970e-01
2.012754e+00,1.849763e+00,7,7,2.141257e-01,2.141450e-01
2.013124e+00,1.843473e+00,7,7,5.705308e-01,5.709160e-01
1.730026e+00,1.850204e+00,6,7,6.409047e-01,6.339281e-01
2.019676e+00,1.849186e+00,7,7,8.956348e-01,8.967593e-01
1.730900e+00,1.848391e+00,6,7,8.980427e-01,8.920050e-01
1.724241e+00,1.848828e+00,6,7,1.052535e+00,1.048728e+00
2.018341e+00,1.849672e+00,7,7,1.722532e+00,1.726594e+00
2.019641e+00,1.849050e+00,7,7,1.955112e+00,1.960399e+00
2.014392e+00,1.849028e+00,7,7,1.385258e+00,1.386404e+00
2.012425e+00,1.583584e+00,7,6,1.192199e+00,1.192213e+00
1.732627e+00,1.850481e+00,6,7,1.755807e+00,1.751358e+00
1.730229e+00,1.320164e+00,6,5,1.086991e+00,1.075074e+00
1.729554e+00,1.852259e+00,6,7,8.631190e-01,8.510253e-01
1.725864e+00,1.849680e+00,6,7,9.026575e-01,8.975449e-01
1.730510e+00,1.851656e+00,6,7,1.038199e+00,1.035747e+00
2.301642e+00,1.850783e+00,8,7,1.258442e+00,1.263819e+00
1.155061e+00,1.323078e+00,4,5,7.566939e-01,7.536088e-01
2.011362e+00,1.851181e+00,7,7,7.448531e-01,7.449957e-01
2.017852e+00,1.849263e+00,7,7,1.017237e+00,1.018156e+00
1.729848e+00,1.848515e+00,6,7,1.178478e+00,1.174810e+00
1.721457e+00,1.847976e+00,6,7,7.221069e-01,7.214365e-01
2.882775e+00,1.325993e+00,10,5,7.010087e-01,7.016622e-01
1.155409e+00,1.059788e+00,4,4,3.800462e-01,3.803342e-01
2.300950e+00,2.111073e+00,8,8,3.707722e-01,3.701117e-01

