5.579810e-01,2.458579e+02,2.456100e+02,2,1000,0.000000e+00,-1.843144e-18,0
7.900250e-01,8.663601e+00,8.651018e+00,3,43,1.477751e-01,1.477754e-01,1
7.834930e-01,2.153700e-01,2.079010e-01,3,0,2.697547e-01,2.697553e-01,1
7.843060e-01,2.151450e-01,2.071857e-01,3,0,5.751734e-01,5.751744e-01,1
7.836850e-01,2.141700e-01,2.069473e-01,3,0,5.282505e-01,5.282509e-01,1
7.841010e-01,2.140210e-01,2.059937e-01,3,0,2.459757e+00,2.459761e+00,1
7.838990e-01,2.144060e-01,2.059937e-01,3,0,3.443760e+00,3.443762e+00,1
7.843690e-01,2.157320e-01,2.079010e-01,3,0,4.529692e+00,4.529694e+00,1
7.835220e-01,2.141750e-01,2.062321e-01,3,0,2.216738e+00,2.216737e+00,1
7.841920e-01,2.143070e-01,2.059937e-01,3,0,1.963306e+00,1.963307e+00,1
7.844050e-01,2.144690e-01,2.059937e-01,3,0,1.634474e+00,1.634475e+00,1
7.835680e-01,2.146410e-01,2.059937e-01,3,0,1.888457e+00,1.888459e+00,1
7.846780e-01,2.143340e-01,2.057552e-01,3,0,3.113620e+00,3.113623e+00,1
7.839360e-01,2.143050e-01,2.059937e-01,3,0,4.240895e+00,4.240898e+00,1
7.849040e-01,4.077910e-01,3.988743e-01,3,1,3.884715e+00,3.887958e+00,1
7.781980e-01,4.367000e-01,4.279613e-01,3,1,5.420458e+00,5.428553e+00,1
7.848910e-01,4.162570e-01,4.081726e-01,3,1,4.235205e+00,4.235399e+00,1
7.854730e-01,3.723070e-01,3.650188e-01,3,1,3.702471e+00,3.702472e+00,1
7.851040e-01,6.068300e-01,5.989075e-01,3,2,3.546971e+00,3.557237e+00,1
7.784900e-01,2.536100e-01,2.448559e-01,3,0,3.362838e+00,3.374992e+00,1
7.837660e-01,6.035950e-01,5.960464e-01,3,2,3.502663e+00,3.524048e+00,1
7.845940e-01,4.103360e-01,4.019737e-01,3,1,2.920580e+00,2.921994e+00,1
7.842230e-01,2.551480e-01,2.470016e-01,3,0,2.647642e+00,2.654071e+00,1
7.800840e-01,6.034610e-01,5.950928e-01,3,2,2.317108e+00,2.433269e+00,1
7.844460e-01,4.750520e-01,4.670620e-01,3,1,2.280358e+00,2.322225e+00,1
7.849010e-01,2.526580e-01,2.450943e-01,3,0,2.200572e+00,2.200711e+00,1
7.899710e-01,3.702790e-01,3.628731e-01,3,1,1.829212e+00,1.829152e+00,1
7.844340e-01,2.144420e-01,2.069473e-01,3,0,1.319248e+00,1.318786e+00,1
7.842440e-01,2.140830e-01,2.059937e-01,3,0,6.534984e-01,6.535009e-01,1
7.841460e-01,2.133010e-01,2.059937e-01,3,0,5.567998e-01,5.568000e-01,1
7.837450e-01,2.143470e-01,2.069473e-01,3,0,1.120268e+00,1.120270e+00,1
7.844990e-01,2.135120e-01,2.059937e-01,3,0,1.325162e+00,1.325163e+00,1
7.840210e-01,2.141310e-01,2.071857e-01,3,0,1.150528e+00,1.150528e+00,1
7.838610e-01,2.141860e-01,2.071857e-01,3,0,1.774555e+00,1.774557e+00,1
7.834370e-01,2.143650e-01,2.059937e-01,3,0,1.456476e+00,1.456476e+00,1
7.830760e-01,2.141940e-01,2.050400e-01,3,0,1.080970e+00,1.080970e+00,1
7.839770e-01,2.141130e-01,2.059937e-01,3,0,7.962757e-01,7.962763e-01,1
7.839100e-01,2.146610e-01,2.069473e-01,3,0,6.548356e-01,6.548361e-01,1
7.777350e-01,4.184120e-01,4.110336e-01,3,1,1.660106e+00,1.660411e+00,1
7.840750e-01,3.753290e-01,3.678799e-01,3,1,1.837470e+00,1.837471e+00,1
7.836520e-01,7.675870e-01,7.598400e-01,3,3,4.150749e+00,4.239557e+00,1
7.843770e-01,7.478160e-01,7.398129e-01,3,3,5.688163e+00,5.694845e+00,1
7.839210e-01,5.270430e-01,5.199909e-01,3,2,3.619173e+00,3.619169e+00,1
7.782980e-01,4.201640e-01,4.129410e-01,3,1,5.472907e+00,5.473067e+00,1
7.838650e-01,3.772390e-01,3.700256e-01,3,1,4.375941e+00,4.375941e+00,1
7.854690e-01,2.139950e-01,2.059937e-01,3,0,3.528658e+00,3.528658e+00,1
7.844910e-01,2.138450e-01,2.059937e-01,3,0,3.170248e+00,3.170249e+00,1
7.837250e-01,2.141220e-01,2.071857e-01,3,0,2.643302e+00,2.643303e+00,1
7.842580e-01,2.147770e-01,2.071857e-01,3,0,2.127032e+00,2.127032e+00,1
7.838110e-01,2.147910e-01,2.069473e-01,3,0,1.353564e+00,1.353564e+00,1
7.833830e-01,2.135510e-01,2.059937e-01,3,0,1.201780e+00,1.201781e+00,1
7.836800e-01,4.050940e-01,3.969669e-01,3,1,1.935873e+00,1.938873e+00,1
7.836060e-01,3.710810e-01,3.640652e-01,3,1,1.424564e+00,1.424564e+00,1
7.787210e-01,4.139680e-01,4.060268e-01,3,1,1.217132e+00,1.217591e+00,1
7.859930e-01,9.755420e-01,9.679794e-01,3,4,1.612301e+00,1.637165e+00,1
7.779440e-01,4.152720e-01,4.069805e-01,3,1,2.205653e+00,2.234093e+00,1
1.040931e+00,3.767010e-01,3.690720e-01,4,1,1.214929e+00,1.214929e+00,1
7.843320e-01,2.147710e-01,2.071857e-01,3,0,1.850409e+00,1.850411e+00,1
7.843510e-01,2.143540e-01,2.069473e-01,3,0,2.592462e+00,2.592461e+00,1
7.842620e-01,4.057920e-01,3.979206e-01,3,1,3.880669e+00,3.882258e+00,1
7.839060e-01,3.712320e-01,3.638268e-01,3,1,1.751065e+00,1.751069e+00,1
7.785620e-01,4.194230e-01,4.119873e-01,3,1,3.743403e+00,3.798252e+00,1
7.857980e-01,2.006974e+00,1.996994e+00,3,7,7.061598e+00,7.328098e+00,0
7.814910e-01,1.322383e+00,1.312971e+00,3,7,3.868531e+00,3.868520e+00,1
7.856310e-01,1.064210e+00,1.053095e+00,3,2,5.336208e+00,5.750018e+00,0
1.042471e+00,8.737080e-01,8.659363e-01,4,4,2.285561e+00,2.285560e+00,1
7.833080e-01,2.145120e-01,2.059937e-01,3,0,2.476828e+00,2.476827e+00,1
7.836810e-01,2.146740e-01,2.069473e-01,3,0,1.966015e+00,1.966016e+00,1
7.783980e-01,2.134950e-01,2.059937e-01,3,0,1.518141e+00,1.518141e+00,1
7.786190e-01,2.198770e-01,2.107620e-01,3,0,1.185555e+00,1.185556e+00,1
7.778680e-01,2.201380e-01,2.129078e-01,3,0,1.750564e+00,1.750565e+00,1
7.781460e-01,2.211360e-01,2.140999e-01,3,0,1.779765e+00,1.779766e+00,1
7.785430e-01,2.193070e-01,2.121925e-01,3,0,1.799250e+00,1.799251e+00,1
7.846880e-01,4.167560e-01,4.081726e-01,3,1,2.027236e+00,2.028424e+00,1
7.858910e-01,6.145450e-01,6.070137e-01,3,2,2.953748e+00,2.982704e+00,1
7.780730e-01,4.306270e-01,4.229546e-01,3,1,3.972893e+00,4.030506e+00,1
7.853670e-01,9.146980e-01,9.069443e-01,3,4,2.419968e+00,2.463277e+00,1
7.791720e-01,6.298320e-01,6.210804e-01,3,2,2.421935e+00,2.437840e+00,1
7.849960e-01,2.582410e-01,2.501011e-01,3,0,1.788399e+00,1.804446e+00,1
7.841410e-01,3.697240e-01,3.628731e-01,3,1,8.657456e-01,8.657455e-01,1
7.847210e-01,2.141720e-01,2.059937e-01,3,0,2.874666e+00,2.874671e+00,1
7.839140e-01,2.140920e-01,2.069473e-01,3,0,2.140292e+00,2.140292e+00,1
7.841600e-01,2.135120e-01,2.059937e-01,3,0,1.924900e+00,1.924901e+00,1
7.841150e-01,4.140650e-01,4.069805e-01,3,1,1.857077e+00,1.884809e+00,1
7.838690e-01,3.709060e-01,3.631115e-01,3,1,2.627106e+00,2.627111e+00,1
7.788350e-01,4.116740e-01,4.022121e-01,3,1,4.756818e+00,4.760565e+00,1
7.842220e-01,6.281250e-01,6.201267e-01,3,2,7.169829e+00,7.245884e+00,1
7.852020e-01,2.288437e+00,2.276897e+00,3,9,1.051339e+01,1.376895e+01,0
7.824160e-01,1.740603e+00,1.730919e+00,3,9,8.572963e+00,8.894003e+00,1
7.795500e-01,1.067955e+00,1.059771e+00,3,5,6.102340e+00,6.115956e+00,1
7.846640e-01,5.328310e-01,5.249977e-01,3,2,4.694680e+00,4.694680e+00,1
7.840460e-01,2.142820e-01,2.069473e-01,3,0,3.311402e+00,3.311402e+00,1
7.841810e-01,5.959080e-01,5.888939e-01,3,2,4.676176e+00,4.680937e+00,1
7.846690e-01,6.023210e-01,5.950928e-01,3,2,3.504615e+00,3.516836e+00,1
7.836510e-01,7.855860e-01,7.791519e-01,3,3,4.557084e+00,4.644140e+00,1
1.043393e+00,2.089366e+00,2.080917e+00,4,11,5.036996e+00,5.142376e+00,1
1.043208e+00,1.725577e+00,1.717091e+00,4,9,2.185318e+00,2.256323e+00,1
7.789580e-01,3.767550e-01,3.688335e-01,3,1,1.915967e+00,1.915968e+00,1
7.784720e-01,2.188660e-01,2.100468e-01,3,0,2.722432e+00,2.722435e+00,1
7.836890e-01,4.180760e-01,4.107952e-01,3,1,2.949001e+00,2.954722e+00,1
7.845540e-01,3.727080e-01,3.640652e-01,3,1,2.228318e+00,2.228318e+00,1
7.858910e-01,2.142410e-01,2.059937e-01,3,0,2.545234e+00,2.545236e+00,1
7.839860e-01,2.139140e-01,2.050400e-01,3,0,1.502043e+00,1.502044e+00,1
7.842040e-01,2.142210e-01,2.059937e-01,3,0,1.371448e+00,1.371448e+00,1
7.836460e-01,2.142580e-01,2.059937e-01,3,0,1.136427e+00,1.136427e+00,1
7.847450e-01,2.138880e-01,2.059937e-01,3,0,1.174077e+00,1.174078e+00,1
7.850750e-01,4.139700e-01,4.060268e-01,3,1,1.642144e+00,1.642347e+00,1
7.780660e-01,5.766060e-01,5.679131e-01,3,2,1.794969e+00,1.799210e+00,1
7.839810e-01,4.737170e-01,4.591942e-01,3,1,1.165205e+00,1.168311e+00,1
7.781410e-01,8.153760e-01,8.080006e-01,3,3,1.172119e+00,1.225554e+00,1
7.781660e-01,2.584530e-01,2.510548e-01,3,0,1.083212e+00,1.105672e+00,1
7.826680e-01,2.580290e-01,2.501011e-01,3,0,8.886640e-01,8.886668e-01,1
7.844040e-01,3.720940e-01,3.640652e-01,3,1,6.353263e-01,6.353264e-01,1
7.838740e-01,2.143810e-01,2.059937e-01,3,0,1.101719e+00,1.101720e+00,1
7.830550e-01,2.144680e-01,2.069473e-01,3,0,5.897289e-01,5.897290e-01,1
7.839200e-01,2.140200e-01,2.059937e-01,3,0,6.727555e-01,6.727560e-01,1
7.835280e-01,2.147560e-01,2.059937e-01,3,0,1.712291e+00,1.712294e+00,1
7.839970e-01,2.148290e-01,2.069473e-01,3,0,1.244475e+00,1.244475e+00,1
7.856220e-01,4.122820e-01,4.050732e-01,3,1,3.965856e+00,3.971743e+00,1
7.783680e-01,5.759730e-01,5.679131e-01,3,2,2.759459e+00,2.801875e+00,1
7.834900e-01,2.594370e-01,2.510548e-01,3,0,2.685961e+00,2.877987e+00,1
7.859810e-01,4.681210e-01,4.611015e-01,3,1,3.361085e+00,3.472358e+00,1
7.843230e-01,3.707450e-01,3.640652e-01,3,1,3.043491e+00,3.043491e+00,1
7.843090e-01,2.140810e-01,2.059937e-01,3,0,3.359707e+00,3.359709e+00,1
7.849680e-01,1.068433e+00,1.057148e+00,3,2,5.926757e+00,6.852260e+00,0
7.849590e-01,9.175160e-01,9.090900e-01,3,4,3.879667e+00,3.879931e+00,1
7.852100e-01,4.112290e-01,4.041195e-01,3,1,2.958350e+00,2.958369e+00,1
7.842300e-01,5.695170e-01,5.609989e-01,3,2,2.584689e+00,2.590235e+00,1
1.040951e+00,3.760210e-01,3.678799e-01,4,1,1.524175e+00,1.524177e+00,1
7.843840e-01,2.149170e-01,2.069473e-01,3,0,1.693966e+00,1.693958e+00,1
7.838840e-01,2.142240e-01,2.059937e-01,3,0,1.059656e+00,1.059657e+00,1
7.837590e-01,2.137010e-01,2.059937e-01,3,0,1.377541e+00,1.377543e+00,1
7.845890e-01,2.133710e-01,2.059937e-01,3,0,6.229854e-01,6.229856e-01,1
7.837270e-01,2.142140e-01,2.048016e-01,3,0,5.073364e-01,5.073367e-01,1
7.847080e-01,2.136490e-01,2.059937e-01,3,0,5.285171e-01,5.285175e-01,1
7.834080e-01,4.154850e-01,4.069805e-01,3,1,1.134791e+00,1.144313e+00,1
7.785820e-01,5.922290e-01,5.838871e-01,3,2,1.174135e+00,1.174136e+00,1
7.792180e-01,2.192510e-01,2.110004e-01,3,0,9.917023e-01,9.917025e-01,1
7.790980e-01,2.203760e-01,2.119541e-01,3,0,1.082230e+00,1.082231e+00,1
7.838310e-01,2.142190e-01,2.069473e-01,3,0,9.188136e-01,9.188141e-01,1
7.848730e-01,2.140140e-01,2.069473e-01,3,0,1.703315e+00,1.703317e+00,1
7.845260e-01,4.130000e-01,4.050732e-01,3,1,2.887266e+00,2.888965e+00,1
7.845910e-01,6.049080e-01,5.970001e-01,3,2,3.270435e+00,3.317183e+00,1
1.041319e+00,6.295270e-01,6.220341e-01,4,2,2.575823e+00,2.650428e+00,1
7.836740e-01,4.393910e-01,4.320145e-01,3,1,2.284671e+00,2.377443e+00,1
7.834170e-01,6.300920e-01,6.210804e-01,3,2,2.114043e+00,2.262669e+00,1
7.847000e-01,4.096400e-01,4.010201e-01,3,1,1.525459e+00,1.651589e+00,1
7.836410e-01,2.532430e-01,2.450943e-01,3,0,1.312818e+00,1.323701e+00,1
7.851220e-01,3.721800e-01,3.640652e-01,3,1,2.265458e+00,2.265462e+00,1
7.835900e-01,2.141900e-01,2.062321e-01,3,0,3.244754e+00,3.244757e+00,1
7.836450e-01,2.140850e-01,2.062321e-01,3,0,1.985182e+00,1.985181e+00,1
7.838000e-01,2.146820e-01,2.059937e-01,3,0,1.886946e+00,1.886947e+00,1
7.834820e-01,2.138710e-01,2.059937e-01,3,0,1.696303e+00,1.696304e+00,1
7.834610e-01,2.139080e-01,2.059937e-01,3,0,1.557803e+00,1.557803e+00,1
7.834080e-01,2.140290e-01,2.069473e-01,3,0,1.282779e+00,1.282780e+00,1
7.782070e-01,4.217830e-01,4.129410e-01,3,1,1.440062e+00,1.440373e+00,1
7.841860e-01,3.756870e-01,3.681183e-01,3,1,2.354947e+00,2.354950e+00,1
7.836560e-01,2.140570e-01,2.062321e-01,3,0,2.261473e+00,2.261473e+00,1
7.847810e-01,2.143020e-01,2.071857e-01,3,0,2.397506e+00,2.397507e+00,1
7.844600e-01,2.141620e-01,2.069473e-01,3,0,2.726403e+00,2.726406e+00,1
7.837590e-01,2.135630e-01,2.059937e-01,3,0,1.245363e+00,1.245363e+00,1
7.839280e-01,2.141710e-01,2.048016e-01,3,0,9.887013e-01,9.887019e-01,1
7.837760e-01,2.138270e-01,2.069473e-01,3,0,1.044758e+00,1.044759e+00,1
7.841290e-01,2.132940e-01,2.040863e-01,3,0,4.640929e-01,4.640938e-01,1
7.831470e-01,2.140200e-01,2.069473e-01,3,0,4.688404e-01,4.688407e-01,1
7.843440e-01,2.144640e-01,2.069473e-01,3,0,8.076118e-01,8.076128e-01,1
7.838460e-01,2.137010e-01,2.059937e-01,3,0,6.890079e-01,6.890080e-01,1
7.840660e-01,2.147170e-01,2.059937e-01,3,0,1.878360e+00,1.878364e+00,1
7.842430e-01,2.151420e-01,2.081394e-01,3,0,1.407735e+00,1.407737e+00,1
7.847610e-01,2.137380e-01,2.069473e-01,3,0,9.991587e-01,9.991590e-01,1
7.838490e-01,4.134720e-01,4.060268e-01,3,1,8.932517e-01,8.941772e-01,1
7.780470e-01,3.760330e-01,3.681183e-01,3,1,9.106466e-01,9.106471e-01,1
7.775850e-01,2.194480e-01,2.121925e-01,3,0,9.353766e-01,9.353773e-01,1
7.777980e-01,2.186470e-01,2.110004e-01,3,0,5.963682e-01,5.963684e-01,1
7.778860e-01,2.194890e-01,2.119541e-01,3,0,6.619421e-01,6.619430e-01,1
7.784590e-01,2.186660e-01,2.098083e-01,3,0,5.469526e-01,5.469532e-01,1
7.782460e-01,2.188110e-01,2.100468e-01,3,0,4.720932e-01,4.720936e-01,1
7.781800e-01,2.190560e-01,2.110004e-01,3,0,1.262910e+00,1.262913e+00,1
7.829400e-01,2.192290e-01,2.069473e-01,3,0,8.033939e-01,8.033948e-01,1
7.837070e-01,4.151070e-01,4.079342e-01,3,1,1.262700e+00,1.263467e+00,1
7.840700e-01,4.394770e-01,4.310608e-01,3,1,2.039534e+00,2.050020e+00,1
7.827160e-01,4.658950e-01,4.570484e-01,3,1,1.740741e+00,1.780507e+00,1
7.841810e-01,4.710530e-01,4.639626e-01,3,1,1.973091e+00,1.989840e+00,1
7.844720e-01,5.966750e-01,5.879402e-01,3,2,1.397186e+00,1.441107e+00,1
7.839520e-01,4.102780e-01,4.019737e-01,3,1,1.389499e+00,1.410118e+00,1
7.782370e-01,4.738810e-01,4.649162e-01,3,1,1.588936e+00,1.621988e+00,1
7.832160e-01,2.585140e-01,2.510548e-01,3,0,3.464564e+00,3.476235e+00,1
7.837010e-01,3.710790e-01,3.628731e-01,3,1,4.592461e+00,4.592464e+00,1
7.835320e-01,2.150540e-01,2.071857e-01,3,0,4.075414e+00,4.075414e+00,1
7.960860e-01,2.138620e-01,2.059937e-01,3,0,3.306959e+00,3.306960e+00,1
7.857540e-01,2.158280e-01,2.071857e-01,3,0,3.037190e+00,3.037191e+00,1
7.843920e-01,2.155270e-01,2.079010e-01,3,0,2.082030e+00,2.082030e+00,1
7.841780e-01,2.140850e-01,2.050400e-01,3,0,2.064062e+00,2.064063e+00,1
7.839930e-01,5.797330e-01,5.719662e-01,3,2,2.031354e+00,2.031201e+00,1
1.042371e+00,5.349680e-01,5.280972e-01,4,2,1.582963e+00,1.582963e+00,1
7.784670e-01,6.289560e-01,6.210804e-01,3,2,1.397065e+00,1.404070e+00,1
7.853910e-01,8.138910e-01,8.070469e-01,3,3,2.794303e+00,2.939548e+00,1
1.299856e+00,8.052380e-01,7.979870e-01,5,3,5.814700e+00,5.853380e+00,1
1.562652e+00,8.915640e-01,8.840561e-01,6,4,6.067264e+00,6.046262e+00,1
1.297930e+00,4.129400e-01,4.041195e-01,5,1,6.359437e+00,6.358846e+00,1
1.043024e+00,4.234110e-01,4.150867e-01,4,1,7.386813e+00,7.395420e+00,1
1.299911e+00,9.619580e-01,9.529591e-01,5,4,1.049895e+01,1.058962e+01,1
7.848100e-01,8.467470e-01,8.380413e-01,3,4,6.789607e+00,6.789584e+00,1
7.854390e-01,4.151230e-01,4.081726e-01,3,1,8.302639e+00,8.305092e+00,1
7.846680e-01,3.709000e-01,3.640652e-01,3,1,6.378506e+00,6.378505e+00,1
7.848390e-01,2.144620e-01,2.069473e-01,3,0,5.885419e+00,5.885400e+00,1
7.787600e-01,4.176310e-01,4.100800e-01,3,1,4.120540e+00,4.123720e+00,1
7.792680e-01,1.251617e+00,1.242161e+00,3,3,5.102275e+00,5.337154e+00,0
7.854430e-01,4.180920e-01,4.091263e-01,3,1,3.483355e+00,3.504124e+00,1
7.856320e-01,1.456466e+00,1.448154e+00,3,7,4.505625e+00,4.629853e+00,1
1.042882e+00,1.664537e+00,1.657009e+00,4,9,1.476639e+00,1.476892e+00,1
7.849710e-01,2.546780e-01,2.470016e-01,3,0,1.749115e+00,1.788277e+00,1
7.846890e-01,3.722370e-01,3.640652e-01,3,1,3.253409e+00,3.253414e+00,1
7.844640e-01,2.152470e-01,2.079010e-01,3,0,2.445909e+00,2.445909e+00,1
7.852150e-01,4.149700e-01,4.079342e-01,3,1,3.937491e+00,3.959709e+00,1
7.841080e-01,2.548180e-01,2.470016e-01,3,0,3.508867e+00,3.508906e+00,1
7.852920e-01,1.063460e+00,1.051903e+00,3,2,6.102961e+00,6.200395e+00,0
1.041229e+00,6.649830e-01,6.580353e-01,4,3,3.111345e+00,3.111343e+00,1
7.848050e-01,2.144870e-01,2.059937e-01,3,0,2.559139e+00,2.559139e+00,1
7.851870e-01,2.149300e-01,2.069473e-01,3,0,2.030544e+00,2.030545e+00,1
7.852190e-01,2.142620e-01,2.059937e-01,3,0,2.029548e+00,2.029549e+00,1
7.841630e-01,2.146730e-01,2.069473e-01,3,0,2.181584e+00,2.181585e+00,1
7.842040e-01,4.153880e-01,4.079342e-01,3,1,3.319721e+00,3.321892e+00,1
7.780120e-01,3.799010e-01,3.721714e-01,3,1,1.511241e+00,1.511238e+00,1
7.784080e-01,2.212770e-01,2.129078e-01,3,0,1.011055e+00,1.011055e+00,1
7.778780e-01,2.201300e-01,2.129078e-01,3,0,1.167476e+00,1.167477e+00,1
7.788380e-01,2.197090e-01,2.119541e-01,3,0,1.131952e+00,1.131953e+00,1
7.786980e-01,2.200580e-01,2.121925e-01,3,0,8.765723e-01,8.765724e-01,1
7.845640e-01,2.141970e-01,2.059937e-01,3,0,1.412698e+00,1.412701e+00,1
7.839120e-01,2.144210e-01,2.069473e-01,3,0,2.056964e+00,2.056966e+00,1
7.840730e-01,2.152580e-01,2.069473e-01,3,0,3.116109e+00,3.116112e+00,1
7.848120e-01,5.934170e-01,5.860329e-01,3,2,6.740493e+00,6.745076e+00,1
7.847750e-01,9.908120e-01,9.818077e-01,3,4,8.750713e+00,8.803520e+00,1
7.869020e-01,1.569121e+00,1.560926e+00,3,8,5.960113e+00,5.968440e+00,1
7.838050e-01,2.540940e-01,2.458096e-01,3,0,7.358279e+00,7.385679e+00,1
7.859490e-01,6.024890e-01,5.950928e-01,3,2,5.301867e+00,5.308961e+00,1
7.852240e-01,4.128230e-01,4.060268e-01,3,1,4.201623e+00,4.203380e+00,1
7.802260e-01,5.972840e-01,5.888939e-01,3,2,4.668147e+00,4.696684e+00,1
7.788950e-01,3.774060e-01,3.678799e-01,3,1,2.559425e+00,2.559422e+00,1
7.835970e-01,2.207830e-01,2.117157e-01,3,0,1.912133e+00,1.912137e+00,1
7.841880e-01,2.143280e-01,2.059937e-01,3,0,1.470410e+00,1.470411e+00,1
7.843310e-01,2.142060e-01,2.059937e-01,3,0,1.392732e+00,1.392733e+00,1
7.843920e-01,2.144930e-01,2.069473e-01,3,0,1.343528e+00,1.343529e+00,1
7.839960e-01,2.145450e-01,2.069473e-01,3,0,2.104442e+00,2.104444e+00,1
7.841610e-01,2.143610e-01,2.069473e-01,3,0,7.177930e-01,7.177924e-01,1
7.841170e-01,2.143490e-01,2.069473e-01,3,0,2.874755e+00,2.874762e+00,1
7.844090e-01,7.849980e-01,7.781982e-01,3,3,6.304743e+00,6.404735e+00,1
7.841810e-01,6.903700e-01,6.830692e-01,3,3,3.721556e+00,3.721512e+00,1
7.842320e-01,2.147450e-01,2.079010e-01,3,0,2.658603e+00,2.658603e+00,1
7.840400e-01,2.145030e-01,2.069473e-01,3,0,2.180672e+00,2.180673e+00,1
7.850980e-01,2.140430e-01,2.059937e-01,3,0,1.855125e+00,1.855126e+00,1
7.842510e-01,2.152790e-01,2.079010e-01,3,0,1.736404e+00,1.736405e+00,1
7.840670e-01,2.144690e-01,2.057552e-01,3,0,2.910387e+00,2.910391e+00,1
7.848660e-01,4.119660e-01,4.050732e-01,3,1,2.265315e+00,2.265337e+00,1
7.841300e-01,2.535060e-01,2.460480e-01,3,0,1.629329e+00,1.629336e+00,1
7.786030e-01,3.762050e-01,3.681183e-01,3,1,1.821676e+00,1.821677e+00,1
7.861690e-01,6.048240e-01,5.970001e-01,3,2,3.123181e+00,3.154689e+00,1
7.834700e-01,2.538910e-01,2.460480e-01,3,0,5.047766e+00,5.104388e+00,1
7.847510e-01,1.318268e+00,1.308918e+00,3,6,9.141304e+00,9.303219e+00,1
1.043053e+00,1.619801e+00,1.610994e+00,4,8,1.117011e+01,1.160567e+01,1
7.856480e-01,1.755973e+00,1.744270e+00,3,6,1.009095e+01,1.105260e+01,0
7.808660e-01,2.440380e+00,2.430916e+00,3,10,1.058302e+01,1.129736e+01,0
7.883150e-01,1.761035e+00,1.753807e+00,3,9,8.923972e+00,8.999852e+00,1
7.859610e-01,9.077180e-01,8.988380e-01,3,4,9.367430e+00,9.444522e+00,1
7.860460e-01,2.546530e-01,2.470016e-01,3,0,9.324215e+00,9.379099e+00,1
7.856360e-01,1.289755e+00,1.281023e+00,3,6,7.680179e+00,7.708571e+00,1
7.846140e-01,7.629040e-01,7.541180e-01,3,3,6.624371e+00,6.672389e+00,1
7.865370e-01,5.994940e-01,5.910397e-01,3,2,5.080024e+00,5.080126e+00,1
7.807720e-01,6.009730e-01,5.929470e-01,3,2,4.652110e+00,4.659974e+00,1
7.800440e-01,1.153025e+00,1.146078e+00,3,5,4.714276e+00,4.748794e+00,1
1.563595e+00,1.976597e+00,1.968145e+00,6,10,6.101089e+00,6.448312e+00,1
1.561576e+00,1.057709e+00,1.047134e+00,6,2,1.135291e+01,1.823608e+01,0
1.561960e+00,7.021560e-01,6.916523e-01,6,0,1.286436e+01,1.868269e+01,0
1.558066e+00,7.062030e-01,6.964207e-01,6,0,1.464135e+01,1.634294e+01,0
1.300459e+00,7.073360e-01,6.952286e-01,5,0,1.295802e+01,1.036279e+01,0
1.042681e+00,7.074190e-01,6.973743e-01,4,0,1.319905e+01,1.017760e+01,0
1.298594e+00,7.078180e-01,6.971359e-01,5,0,1.619020e+01,1.556068e+01,0
1.044324e+00,4.769277e+00,4.759073e+00,4,24,1.507478e+01,1.794082e+01,0
1.042556e+00,1.542320e+00,1.532078e+00,4,5,1.252192e+01,1.474802e+01,0
7.860300e-01,2.747314e+00,2.735615e+00,3,12,1.068193e+01,1.109767e+01,0
7.862990e-01,1.755442e+00,1.747847e+00,3,9,9.375000e+00,9.425519e+00,1
7.859290e-01,1.222859e+00,1.212835e+00,3,3,7.960185e+00,8.355074e+00,0
7.855240e-01,7.131640e-01,7.026196e-01,3,0,7.132835e+00,8.591097e+00,0
7.849180e-01,1.888878e+00,1.876116e+00,3,7,7.279126e+00,1.166721e+01,0
1.042715e+00,7.497240e-01,7.379055e-01,4,1,4.157511e+00,4.165330e+00,0
7.855910e-01,2.153920e-01,2.067089e-01,3,0,3.598931e+00,3.598909e+00,1
7.840710e-01,5.871710e-01,5.760193e-01,3,0,3.904977e+00,6.038164e+00,0
1.299050e+00,4.130450e-01,4.050732e-01,5,1,2.784785e+00,2.786234e+00,1
7.846290e-01,9.274800e-01,9.198189e-01,3,4,2.346019e+00,2.352452e+00,1
1.042092e+00,6.877730e-01,6.799698e-01,4,3,1.932852e+00,1.932678e+00,1
7.791920e-01,2.203600e-01,2.131462e-01,3,0,1.237885e+00,1.237847e+00,1
7.782750e-01,2.197850e-01,2.119541e-01,3,0,7.578909e-01,7.578935e-01,1
7.782450e-01,2.206850e-01,2.129078e-01,3,0,5.986300e-01,5.986311e-01,1
7.778570e-01,2.209330e-01,2.129078e-01,3,0,8.249606e-01,8.249615e-01,1
7.781500e-01,2.204320e-01,2.131462e-01,3,0,1.063487e+00,1.063489e+00,1
7.782270e-01,2.195670e-01,2.121925e-01,3,0,7.600052e-01,7.600053e-01,1
7.782050e-01,2.201800e-01,2.121925e-01,3,0,7.740733e-01,7.740748e-01,1
7.841450e-01,4.212630e-01,4.079342e-01,3,1,2.118585e+00,2.123219e+00,1
7.846170e-01,6.259630e-01,6.189346e-01,3,2,4.703750e+00,4.743935e+00,1
7.852840e-01,1.027673e+00,1.019001e+00,3,4,6.371638e+00,6.414147e+00,1
7.792750e-01,6.042000e-01,5.970001e-01,3,2,5.376119e+00,5.500410e+00,1
7.843470e-01,8.120930e-01,8.049011e-01,3,3,5.760829e+00,5.831103e+00,1
7.804510e-01,6.019140e-01,5.941391e-01,3,2,5.636319e+00,5.700103e+00,1
7.842830e-01,4.167610e-01,4.079342e-01,3,1,4.992246e+00,5.028665e+00,1
7.845690e-01,7.526870e-01,7.450581e-01,3,3,3.945144e+00,3.993454e+00,1
7.780630e-01,2.604290e-01,2.532005e-01,3,0,3.906544e+00,3.912073e+00,1
7.850820e-01,1.677963e+00,1.670122e+00,3,8,7.055665e+00,7.208118e+00,1
1.042814e+00,2.099497e+00,2.089024e+00,4,8,9.262721e+00,9.954340e+00,0
1.557611e+00,7.186460e-01,7.090569e-01,6,0,1.101488e+01,1.636484e+01,0
1.298543e+00,7.176060e-01,7.071495e-01,5,0,9.082830e+00,1.280962e+01,0
1.302096e+00,3.316861e+00,3.308773e+00,5,18,6.961363e+00,7.117433e+00,1
1.042736e+00,1.413002e+00,1.405001e+00,4,7,5.172029e+00,5.250534e+00,1
7.847340e-01,7.567520e-01,7.491112e-01,3,3,4.140247e+00,4.293844e+00,1
7.849590e-01,1.368552e+00,1.360893e+00,3,6,5.307000e+00,5.575239e+00,1
7.845470e-01,1.087331e+00,1.078844e+00,3,5,5.291941e+00,5.472298e+00,1
7.801130e-01,1.571503e+00,1.564026e+00,3,8,4.015618e+00,4.077974e+00,1
1.042851e+00,1.272687e+00,1.264095e+00,4,6,3.969793e+00,3.970956e+00,1
1.557007e+00,8.242910e-01,8.156300e-01,6,4,4.787301e+00,4.762144e+00,1
1.557465e+00,5.493060e-01,5.409718e-01,6,2,5.275127e+00,5.261678e+00,1
1.041512e+00,5.371930e-01,5.300045e-01,4,2,6.418349e+00,6.418354e+00,1
7.850580e-01,2.153030e-01,2.081394e-01,3,0,5.004629e+00,5.004628e+00,1
7.831850e-01,4.141130e-01,4.062653e-01,3,1,6.693354e+00,6.737448e+00,1
7.848540e-01,6.283570e-01,6.208420e-01,3,2,6.643806e+00,6.706269e+00,1
7.840250e-01,7.548200e-01,7.469654e-01,3,3,5.565141e+00,5.565425e+00,1
7.844700e-01,5.338900e-01,5.261898e-01,3,2,4.571018e+00,4.571018e+00,1
7.861960e-01,1.643909e+00,1.636028e+00,3,8,4.690842e+00,4.705233e+00,1
7.796410e-01,1.473641e+00,1.466036e+00,3,7,4.670039e+00,4.740641e+00,1
1.302033e+00,1.235056e+00,1.225948e+00,5,6,3.520077e+00,3.538576e+00,1
1.563027e+00,4.137490e-01,4.050732e-01,6,1,3.492198e+00,3.511306e+00,1
1.041443e+00,4.123840e-01,4.041195e-01,4,1,2.318386e+00,2.322394e+00,1
7.866850e-01,5.762560e-01,5.688667e-01,3,2,1.877163e+00,1.890549e+00,1
7.840110e-01,2.538000e-01,2.460480e-01,3,0,1.134988e+00,1.137731e+00,1
7.847260e-01,3.714290e-01,3.631115e-01,3,1,7.149030e-01,7.149034e-01,1
7.831480e-01,2.138850e-01,2.071857e-01,3,0,4.305170e-01,4.305171e-01,1
7.840980e-01,2.150450e-01,2.071857e-01,3,0,8.423595e-01,8.423612e-01,1
7.844250e-01,2.145820e-01,2.069473e-01,3,0,4.883783e-01,4.883785e-01,1
7.830900e-01,2.143210e-01,2.048016e-01,3,0,4.539481e-01,4.539488e-01,1
7.838790e-01,2.143860e-01,2.048016e-01,3,0,2.837925e-01,2.837929e-01,1
7.835840e-01,2.141430e-01,2.057552e-01,3,0,3.137920e-01,3.137924e-01,1
7.829770e-01,2.140140e-01,2.069473e-01,3,0,2.700686e-01,2.700689e-01,1
7.825820e-01,2.141350e-01,2.057552e-01,3,0,6.614335e-01,6.614346e-01,1
7.834150e-01,2.142320e-01,2.057552e-01,3,0,5.131234e-01,5.131241e-01,1
7.827930e-01,2.138820e-01,2.059937e-01,3,0,4.811902e-01,4.811919e-01,1
7.780270e-01,2.141800e-01,2.059937e-01,3,0,9.972128e-01,9.972144e-01,1
7.776140e-01,2.197980e-01,2.129078e-01,3,0,5.504026e-01,5.504024e-01,1
7.778320e-01,2.190900e-01,2.119541e-01,3,0,7.856635e-01,7.856643e-01,1
7.775670e-01,2.200560e-01,2.119541e-01,3,0,8.021382e-01,8.021387e-01,1
7.781240e-01,2.196890e-01,2.119541e-01,3,0,1.366197e+00,1.366199e+00,1
7.782740e-01,2.197820e-01,2.129078e-01,3,0,1.043040e+00,1.043040e+00,1
7.782460e-01,2.192000e-01,2.110004e-01,3,0,6.769789e-01,6.769789e-01,1
7.781780e-01,2.193930e-01,2.119541e-01,3,0,4.991544e-01,4.991550e-01,1
7.786260e-01,2.193040e-01,2.110004e-01,3,0,6.798405e-01,6.798413e-01,1
7.834280e-01,2.185180e-01,2.100468e-01,3,0,6.270691e-01,6.270693e-01,1
7.841560e-01,2.137250e-01,2.059937e-01,3,0,5.073503e-01,5.073505e-01,1
7.831330e-01,2.149170e-01,2.057552e-01,3,0,8.943777e-01,8.943789e-01,1
7.835010e-01,2.144430e-01,2.057552e-01,3,0,6.805199e-01,6.805204e-01,1
7.838240e-01,4.157710e-01,4.069805e-01,3,1,1.012277e+00,1.012335e+00,1
7.840790e-01,4.701960e-01,4.630089e-01,3,1,1.796149e+00,1.874364e+00,1
7.840630e-01,2.536170e-01,2.458096e-01,3,0,1.574355e+00,1.594197e+00,1
7.790940e-01,3.761870e-01,3.678799e-01,3,1,1.390542e+00,1.390543e+00,1
7.785730e-01,2.210680e-01,2.138615e-01,3,0,3.171552e+00,3.171556e+00,1
7.781210e-01,2.199250e-01,2.131462e-01,3,0,3.876013e+00,3.876010e+00,1
7.781200e-01,2.203050e-01,2.121925e-01,3,0,2.218522e+00,2.218520e+00,1
7.776260e-01,2.192120e-01,2.110004e-01,3,0,1.662187e+00,1.662186e+00,1
7.778960e-01,2.213360e-01,2.140999e-01,3,0,1.263089e+00,1.263089e+00,1
7.825700e-01,2.203540e-01,2.117157e-01,3,0,8.519731e-01,8.519732e-01,1
7.833290e-01,2.142870e-01,2.059937e-01,3,0,7.455627e-01,7.455631e-01,1
7.842260e-01,2.145640e-01,2.057552e-01,3,0,1.072886e+00,1.072887e+00,1
7.839690e-01,2.150770e-01,2.059937e-01,3,0,1.035071e+00,1.035072e+00,1
7.835820e-01,2.134030e-01,2.059937e-01,3,0,5.051728e-01,5.051738e-01,1
7.841700e-01,2.142100e-01,2.062321e-01,3,0,1.366075e+00,1.366078e+00,1
7.835020e-01,2.142240e-01,2.071857e-01,3,0,7.684837e-01,7.684836e-01,1
7.849440e-01,2.134780e-01,2.050400e-01,3,0,6.926982e-01,6.926988e-01,1
7.847420e-01,2.137830e-01,2.069473e-01,3,0,9.510765e-01,9.510777e-01,1
7.839580e-01,2.149520e-01,2.079010e-01,3,0,7.843147e-01,7.843150e-01,1
7.823950e-01,2.141360e-01,2.069473e-01,3,0,9.241724e-01,9.241731e-01,1
7.851900e-01,2.140610e-01,2.069473e-01,3,0,1.174144e+00,1.174145e+00,1
7.853330e-01,2.145130e-01,2.059937e-01,3,0,9.244205e-01,9.244212e-01,1
7.847070e-01,2.148130e-01,2.059937e-01,3,0,9.614435e-01,9.614449e-01,1
7.844410e-01,2.143910e-01,2.069473e-01,3,0,1.197063e+00,1.197060e+00,1
7.844470e-01,2.152830e-01,2.081394e-01,3,0,1.465391e+00,1.465387e+00,1
7.837300e-01,2.151550e-01,2.069473e-01,3,0,2.193731e+00,2.193734e+00,1
7.836620e-01,2.148670e-01,2.067089e-01,3,0,1.517709e+00,1.517709e+00,1
7.842230e-01,2.141400e-01,2.059937e-01,3,0,1.427008e+00,1.427010e+00,1
7.837510e-01,2.149980e-01,2.081394e-01,3,0,1.394852e+00,1.394853e+00,1
7.838630e-01,2.138460e-01,2.059937e-01,3,0,1.524729e+00,1.524730e+00,1
7.838100e-01,2.152000e-01,2.081394e-01,3,0,1.267355e+00,1.267355e+00,1
7.845330e-01,7.663760e-01,7.588863e-01,3,3,2.152223e+00,2.170430e+00,1
1.041992e+00,9.778790e-01,9.689331e-01,4,4,1.631715e+00,1.656249e+00,1
7.841630e-01,2.531240e-01,2.439022e-01,3,0,1.541825e+00,1.565690e+00,1
7.785150e-01,8.158210e-01,8.080006e-01,3,3,1.512230e+00,1.546144e+00,1
7.854500e-01,4.741700e-01,4.670620e-01,3,1,1.368450e+00,1.542714e+00,1
7.839500e-01,6.240940e-01,6.170273e-01,3,2,9.764712e-01,1.031068e+00,1
7.785830e-01,4.730310e-01,4.642010e-01,3,1,1.184139e+00,1.217280e+00,1
7.838370e-01,5.917800e-01,5.831718e-01,3,2,1.333735e+00,1.333736e+00,1
7.848470e-01,2.143050e-01,2.069473e-01,3,0,9.206006e-01,9.206008e-01,1
7.839110e-01,2.143720e-01,2.069473e-01,3,0,1.716627e+00,1.716629e+00,1
7.842320e-01,2.144130e-01,2.069473e-01,3,0,1.214090e+00,1.214090e+00,1
7.842510e-01,2.148450e-01,2.071857e-01,3,0,1.096866e+00,1.096867e+00,1
7.844920e-01,2.143780e-01,2.069473e-01,3,0,9.923311e-01,9.923314e-01,1
7.857610e-01,2.140460e-01,2.057552e-01,3,0,7.774961e-01,7.774974e-01,1
7.853320e-01,2.192490e-01,2.100468e-01,3,0,5.710486e-01,5.710491e-01,1
7.840190e-01,2.146770e-01,2.059937e-01,3,0,1.121347e+00,1.121349e+00,1
7.833390e-01,2.138470e-01,2.071857e-01,3,0,9.649002e-01,9.649008e-01,1
7.847110e-01,2.145660e-01,2.069473e-01,3,0,9.757279e-01,9.757291e-01,1
7.851710e-01,2.147110e-01,2.069473e-01,3,0,9.184279e-01,9.184282e-01,1
7.842880e-01,2.147900e-01,2.059937e-01,3,0,7.198569e-01,7.198575e-01,1
7.844380e-01,2.139950e-01,2.059937e-01,3,0,8.669969e-01,8.669975e-01,1
7.844120e-01,2.136060e-01,2.059937e-01,3,0,6.692728e-01,6.692730e-01,1
7.839330e-01,2.140880e-01,2.069473e-01,3,0,2.812092e+00,2.812025e+00,1
7.845200e-01,6.032650e-01,5.960464e-01,3,2,6.252122e+00,6.250521e+00,1
1.046186e+00,8.722600e-01,8.640289e-01,4,4,4.778860e+00,4.778860e+00,1
7.848180e-01,2.148400e-01,2.069473e-01,3,0,3.421406e+00,3.421405e+00,1
7.845380e-01,2.141560e-01,2.059937e-01,3,0,2.483568e+00,2.483568e+00,1
7.852500e-01,2.147460e-01,2.069473e-01,3,0,2.719384e+00,2.719386e+00,1
7.851950e-01,2.148020e-01,2.071857e-01,3,0,2.138911e+00,2.138911e+00,1
7.849200e-01,2.149800e-01,2.059937e-01,3,0,2.075938e+00,2.075939e+00,1
7.844290e-01,2.149780e-01,2.081394e-01,3,0,2.464893e+00,2.464896e+00,1
7.849490e-01,2.146270e-01,2.057552e-01,3,0,2.778302e+00,2.778304e+00,1
7.839190e-01,2.139110e-01,2.050400e-01,3,0,2.534843e+00,2.534843e+00,1
7.843590e-01,4.134920e-01,4.050732e-01,3,1,2.713012e+00,2.713670e+00,1
7.836160e-01,3.720210e-01,3.638268e-01,3,1,3.638477e+00,3.638480e+00,1
7.835940e-01,2.147130e-01,2.069473e-01,3,0,2.717860e+00,2.717857e+00,1
7.840900e-01,2.145640e-01,2.069473e-01,3,0,1.865109e+00,1.865108e+00,1
7.830650e-01,2.149490e-01,2.079010e-01,3,0,1.118547e+00,1.118547e+00,1
7.829720e-01,2.141170e-01,2.069473e-01,3,0,7.524168e-01,7.524169e-01,1
7.833310e-01,2.139660e-01,2.050400e-01,3,0,5.861015e-01,5.861019e-01,1
7.823850e-01,2.145290e-01,2.069473e-01,3,0,8.102396e-01,8.102407e-01,1
7.781890e-01,2.144830e-01,2.059937e-01,3,0,5.755474e-01,5.755475e-01,1
7.780840e-01,2.193290e-01,2.119541e-01,3,0,9.391565e-01,9.391577e-01,1
7.784830e-01,2.208230e-01,2.129078e-01,3,0,9.928145e-01,9.928150e-01,1
7.861860e-01,4.189590e-01,4.119873e-01,3,1,9.225296e-01,9.228622e-01,1
7.866970e-01,4.679590e-01,4.611015e-01,3,1,1.185544e+00,1.189099e+00,1
7.866680e-01,3.708880e-01,3.619194e-01,3,1,6.645029e-01,6.645028e-01,1
7.833440e-01,2.150630e-01,2.069473e-01,3,0,5.330671e-01,5.330675e-01,1
7.838760e-01,2.142540e-01,2.059937e-01,3,0,2.707671e+00,2.707678e+00,1
7.850390e-01,2.144780e-01,2.069473e-01,3,0,2.841113e+00,2.841114e+00,1
7.836380e-01,2.147010e-01,2.069473e-01,3,0,1.376632e+00,1.376631e+00,1
7.842020e-01,2.144790e-01,2.069473e-01,3,0,1.368063e+00,1.368064e+00,1
7.834330e-01,2.146380e-01,2.069473e-01,3,0,1.202553e+00,1.202554e+00,1
7.796220e-01,4.202540e-01,4.129410e-01,3,1,1.297007e+00,1.297244e+00,1
7.847980e-01,3.763920e-01,3.678799e-01,3,1,6.570838e-01,6.570836e-01,1
7.830350e-01,2.138260e-01,2.048016e-01,3,0,5.401839e-01,5.401844e-01,1
7.844250e-01,2.142720e-01,2.059937e-01,3,0,1.034198e+00,1.034199e+00,1
7.842440e-01,2.146950e-01,2.057552e-01,3,0,1.306494e+00,1.306495e+00,1
7.835260e-01,2.142520e-01,2.069473e-01,3,0,1.625038e+00,1.625039e+00,1
7.835400e-01,2.146270e-01,2.071857e-01,3,0,1.053127e+00,1.053127e+00,1
7.841620e-01,2.139520e-01,2.050400e-01,3,0,1.004465e+00,1.004466e+00,1
7.842690e-01,2.144370e-01,2.069473e-01,3,0,1.505983e+00,1.505986e+00,1
7.844580e-01,2.147450e-01,2.079010e-01,3,0,2.257561e+00,2.257563e+00,1
7.831460e-01,2.142620e-01,2.069473e-01,3,0,2.515954e+00,2.515955e+00,1
7.841620e-01,4.160700e-01,4.091263e-01,3,1,3.514011e+00,3.521366e+00,1
7.839770e-01,2.539370e-01,2.460480e-01,3,0,3.331659e+00,3.343823e+00,1
7.829200e-01,6.992270e-01,6.909370e-01,3,3,5.239641e+00,5.238739e+00,1
1.040473e+00,4.758650e-01,4.680157e-01,4,2,2.319730e+00,2.319728e+00,1
7.836140e-01,2.145950e-01,2.069473e-01,3,0,1.922216e+00,1.922217e+00,1
7.786990e-01,4.182930e-01,4.110336e-01,3,1,2.797239e+00,2.797275e+00,1
7.832970e-01,3.769750e-01,3.690720e-01,3,1,1.389003e+00,1.389001e+00,1
7.841200e-01,2.148830e-01,2.069473e-01,3,0,1.155720e+00,1.155720e+00,1
7.834650e-01,2.141720e-01,2.048016e-01,3,0,9.296065e-01,9.296068e-01,1
7.841690e-01,2.136720e-01,2.048016e-01,3,0,6.205235e-01,6.205233e-01,1
7.824150e-01,2.148500e-01,2.069473e-01,3,0,1.320994e+00,1.320996e+00,1
7.845590e-01,2.143860e-01,2.069473e-01,3,0,9.903784e-01,9.903785e-01,1
7.851460e-01,2.145980e-01,2.062321e-01,3,0,5.586414e-01,5.586414e-01,1
7.844800e-01,2.150210e-01,2.079010e-01,3,0,1.249720e+00,1.249722e+00,1
7.846290e-01,2.147610e-01,2.069473e-01,3,0,8.726678e-01,8.726678e-01,1
7.841900e-01,2.140220e-01,2.071857e-01,3,0,4.713378e-01,4.713381e-01,1
7.835310e-01,2.141410e-01,2.050400e-01,3,0,5.132423e-01,5.132427e-01,1
7.838870e-01,2.147820e-01,2.079010e-01,3,0,6.622897e-01,6.622906e-01,1
7.835300e-01,4.131770e-01,4.050732e-01,3,1,1.001999e+00,1.002496e+00,1
7.781460e-01,4.452800e-01,4.370213e-01,3,1,2.086643e+00,2.087102e+00,1
7.840850e-01,4.154780e-01,4.079342e-01,3,1,1.512769e+00,1.528143e+00,1
7.863840e-01,6.261720e-01,6.179810e-01,3,2,2.737894e+00,2.831896e+00,1
7.780180e-01,5.751190e-01,5.669594e-01,3,2,1.205496e+00,1.205635e+00,1
7.843510e-01,3.776260e-01,3.700256e-01,3,1,9.613929e-01,9.613935e-01,1
7.843070e-01,2.146110e-01,2.069473e-01,3,0,6.414082e-01,6.414081e-01,1
7.836520e-01,2.145800e-01,2.059937e-01,3,0,5.920689e-01,5.920696e-01,1
7.842190e-01,2.148540e-01,2.069473e-01,3,0,1.661641e+00,1.661645e+00,1
7.849420e-01,2.151700e-01,2.071857e-01,3,0,1.672177e+00,1.672178e+00,1
7.837660e-01,2.146030e-01,2.069473e-01,3,0,2.572674e+00,2.572648e+00,1
7.843370e-01,2.148450e-01,2.079010e-01,3,0,2.653660e+00,2.653656e+00,1
7.845060e-01,2.152390e-01,2.071857e-01,3,0,3.049365e+00,3.049366e+00,1
7.849680e-01,4.154340e-01,4.069805e-01,3,1,4.979113e+00,4.985933e+00,1
7.834190e-01,2.544300e-01,2.460480e-01,3,0,5.577266e+00,5.580801e+00,1
7.796240e-01,5.764390e-01,5.681515e-01,3,2,4.167758e+00,4.177750e+00,1
7.850760e-01,4.462100e-01,4.389286e-01,3,1,3.740126e+00,3.751028e+00,1
7.843340e-01,5.947460e-01,5.860329e-01,3,2,5.220948e+00,5.232045e+00,1
7.841890e-01,7.360090e-01,7.278919e-01,3,3,3.549991e+00,3.552225e+00,1
7.845220e-01,3.731650e-01,3.647804e-01,3,1,2.943434e+00,2.943435e+00,1
7.836580e-01,2.144120e-01,2.069473e-01,3,0,2.946009e+00,2.946013e+00,1
7.849140e-01,2.146380e-01,2.079010e-01,3,0,3.158371e+00,3.158373e+00,1
7.853250e-01,4.149240e-01,4.069805e-01,3,1,3.444558e+00,3.458881e+00,1
7.780080e-01,3.761950e-01,3.690720e-01,3,1,2.542775e+00,2.542776e+00,1
7.785850e-01,2.199940e-01,2.119541e-01,3,0,2.465111e+00,2.465112e+00,1
7.784900e-01,2.214570e-01,2.126694e-01,3,0,3.193802e+00,3.193804e+00,1
7.834780e-01,4.167260e-01,4.081726e-01,3,1,3.530768e+00,3.530821e+00,1
7.846300e-01,3.716850e-01,3.640652e-01,3,1,2.250885e+00,2.250861e+00,1
7.838920e-01,2.147990e-01,2.069473e-01,3,0,2.172056e+00,2.171848e+00,1
7.840210e-01,2.145020e-01,2.069473e-01,3,0,1.285225e+00,1.285204e+00,1
7.853750e-01,2.149500e-01,2.071857e-01,3,0,1.246174e+00,1.246134e+00,1

