5.592610e-01,2.458187e+02,2.455630e+02,2,1000,0.000000e+00,-1.843144e-18,0
7.890300e-01,8.654806e+00,8.641005e+00,3,43,1.477751e-01,1.477754e-01,1
7.852540e-01,2.161690e-01,2.081394e-01,3,0,2.697547e-01,2.697553e-01,1
7.854100e-01,2.160020e-01,2.069473e-01,3,0,5.751734e-01,5.751744e-01,1
7.846010e-01,2.150560e-01,2.067089e-01,3,0,5.282505e-01,5.282509e-01,1
7.850850e-01,2.151380e-01,2.071857e-01,3,0,2.459757e+00,2.459761e+00,1
7.842750e-01,2.149290e-01,2.069473e-01,3,0,3.443760e+00,3.443762e+00,1
7.843260e-01,2.167920e-01,2.081394e-01,3,0,4.529692e+00,4.529694e+00,1
7.849140e-01,2.154040e-01,2.057552e-01,3,0,2.216738e+00,2.216737e+00,1
7.840670e-01,2.151150e-01,2.059937e-01,3,0,1.963306e+00,1.963307e+00,1
7.837350e-01,2.153840e-01,2.069473e-01,3,0,1.634474e+00,1.634475e+00,1
7.844860e-01,2.153260e-01,2.079010e-01,3,0,1.888457e+00,1.888459e+00,1
7.842900e-01,2.153860e-01,2.069473e-01,3,0,3.113620e+00,3.113623e+00,1
7.845500e-01,2.150460e-01,2.079010e-01,3,0,4.240895e+00,4.240898e+00,1
7.801630e-01,4.144140e-01,4.069805e-01,3,1,3.884715e+00,3.887958e+00,1
7.865550e-01,4.376190e-01,4.301071e-01,3,1,5.420458e+00,5.428553e+00,1
7.864070e-01,4.119000e-01,4.041195e-01,3,1,4.235205e+00,4.235399e+00,1
7.844210e-01,3.732070e-01,3.650188e-01,3,1,3.702471e+00,3.702472e+00,1
7.860290e-01,6.074510e-01,5.991459e-01,3,2,3.546971e+00,3.557237e+00,1
7.847170e-01,2.540490e-01,2.460480e-01,3,0,3.362838e+00,3.374992e+00,1
7.852080e-01,5.979640e-01,5.900860e-01,3,2,3.502663e+00,3.524048e+00,1
7.859390e-01,4.102660e-01,4.029274e-01,3,1,2.920580e+00,2.921994e+00,1
7.790840e-01,2.595670e-01,2.510548e-01,3,0,2.647642e+00,2.654071e+00,1
7.867700e-01,6.106400e-01,6.029606e-01,3,2,2.317108e+00,2.433269e+00,1
7.860680e-01,4.704130e-01,4.630089e-01,3,1,2.280358e+00,2.322225e+00,1
7.841110e-01,2.539850e-01,2.460480e-01,3,0,2.200572e+00,2.200711e+00,1
7.821250e-01,3.706360e-01,3.628731e-01,3,1,1.829212e+00,1.829152e+00,1
7.785770e-01,2.204740e-01,2.110004e-01,3,0,1.319248e+00,1.318786e+00,1
7.782190e-01,2.199560e-01,2.119541e-01,3,0,6.534984e-01,6.535009e-01,1
7.792390e-01,2.194170e-01,2.119541e-01,3,0,5.567998e-01,5.568000e-01,1
7.791630e-01,2.210770e-01,2.131462e-01,3,0,1.120268e+00,1.120270e+00,1
7.794140e-01,2.200550e-01,2.119541e-01,3,0,1.325162e+00,1.325163e+00,1
7.788100e-01,2.204310e-01,2.129078e-01,3,0,1.150528e+00,1.150528e+00,1
7.793170e-01,2.204630e-01,2.131462e-01,3,0,1.774555e+00,1.774557e+00,1
7.838080e-01,2.216960e-01,2.126694e-01,3,0,1.456476e+00,1.456476e+00,1
7.840940e-01,2.146160e-01,2.071857e-01,3,0,1.080970e+00,1.080970e+00,1
7.836290e-01,2.153450e-01,2.069473e-01,3,0,7.962757e-01,7.962763e-01,1
7.846400e-01,2.159710e-01,2.079010e-01,3,0,6.548356e-01,6.548361e-01,1
7.857850e-01,4.142550e-01,4.072189e-01,3,1,1.660106e+00,1.660411e+00,1
7.857890e-01,3.712730e-01,3.640652e-01,3,1,1.837470e+00,1.837471e+00,1
7.865230e-01,7.733920e-01,7.650852e-01,3,3,4.150749e+00,4.239557e+00,1
7.841470e-01,7.419470e-01,7.331371e-01,3,3,5.688163e+00,5.694845e+00,1
7.844370e-01,5.345730e-01,5.261898e-01,3,2,3.619173e+00,3.619169e+00,1
7.868320e-01,4.154670e-01,4.069805e-01,3,1,5.472907e+00,5.473067e+00,1
7.874320e-01,3.721740e-01,3.640652e-01,3,1,4.375941e+00,4.375941e+00,1
7.853880e-01,2.153670e-01,2.081394e-01,3,0,3.528658e+00,3.528658e+00,1
7.856880e-01,2.160710e-01,2.069473e-01,3,0,3.170248e+00,3.170249e+00,1
7.854580e-01,2.157600e-01,2.079010e-01,3,0,2.643302e+00,2.643303e+00,1
7.841760e-01,2.159100e-01,2.069473e-01,3,0,2.127032e+00,2.127032e+00,1
7.846070e-01,2.152070e-01,2.069473e-01,3,0,1.353564e+00,1.353564e+00,1
7.845670e-01,2.146380e-01,2.059937e-01,3,0,1.201780e+00,1.201781e+00,1
7.788350e-01,4.057470e-01,3.979206e-01,3,1,1.935873e+00,1.938873e+00,1
7.787730e-01,3.779040e-01,3.690720e-01,3,1,1.424564e+00,1.424564e+00,1
7.869990e-01,4.201180e-01,4.110336e-01,3,1,1.217132e+00,1.217591e+00,1
7.840690e-01,9.771770e-01,9.689331e-01,3,4,1.612301e+00,1.637165e+00,1
7.844960e-01,4.106920e-01,4.029274e-01,3,1,2.205653e+00,2.234093e+00,1
1.044188e+00,3.713660e-01,3.640652e-01,4,1,1.214929e+00,1.214929e+00,1
7.847540e-01,2.164960e-01,2.081394e-01,3,0,1.850409e+00,1.850411e+00,1
7.830960e-01,2.153190e-01,2.079010e-01,3,0,2.592462e+00,2.592461e+00,1
7.809300e-01,4.136240e-01,4.060268e-01,3,1,3.880669e+00,3.882258e+00,1
7.854090e-01,3.773270e-01,3.688335e-01,3,1,1.751065e+00,1.751069e+00,1
7.863030e-01,4.151510e-01,4.069805e-01,3,1,3.743403e+00,3.798252e+00,1
7.866020e-01,2.009714e+00,1.998186e+00,3,7,7.061598e+00,7.328098e+00,0
7.881190e-01,1.314208e+00,1.306057e+00,3,7,3.868531e+00,3.868520e+00,1
7.870130e-01,1.067114e+00,1.053095e+00,3,2,5.336208e+00,5.750018e+00,0
1.042768e+00,8.739500e-01,8.649826e-01,4,4,2.285561e+00,2.285560e+00,1
7.855710e-01,2.152820e-01,2.069473e-01,3,0,2.476828e+00,2.476827e+00,1
7.851840e-01,2.157970e-01,2.079010e-01,3,0,1.966015e+00,1.966016e+00,1
7.848930e-01,2.148850e-01,2.069473e-01,3,0,1.518141e+00,1.518141e+00,1
7.848860e-01,2.157770e-01,2.079010e-01,3,0,1.185555e+00,1.185556e+00,1
7.843800e-01,2.152200e-01,2.071857e-01,3,0,1.750564e+00,1.750565e+00,1
7.848600e-01,2.153810e-01,2.057552e-01,3,0,1.779765e+00,1.779766e+00,1
7.851170e-01,2.150540e-01,2.059937e-01,3,0,1.799250e+00,1.799251e+00,1
7.857380e-01,4.132500e-01,4.041195e-01,3,1,2.027236e+00,2.028424e+00,1
7.858810e-01,6.209180e-01,6.141663e-01,3,2,2.953748e+00,2.982704e+00,1
7.849970e-01,4.314030e-01,4.229546e-01,3,1,3.972893e+00,4.030506e+00,1
7.794760e-01,9.134620e-01,9.050369e-01,3,4,2.419968e+00,2.463277e+00,1
7.863380e-01,6.300380e-01,6.220341e-01,3,2,2.421935e+00,2.437840e+00,1
7.852340e-01,2.553600e-01,2.470016e-01,3,0,1.788399e+00,1.804446e+00,1
7.843370e-01,3.714570e-01,3.631115e-01,3,1,8.657456e-01,8.657455e-01,1
7.846230e-01,2.154280e-01,2.069473e-01,3,0,2.874666e+00,2.874671e+00,1
7.851310e-01,2.153510e-01,2.069473e-01,3,0,2.140292e+00,2.140292e+00,1
7.843860e-01,2.147760e-01,2.069473e-01,3,0,1.924900e+00,1.924901e+00,1
7.792920e-01,4.219980e-01,4.138947e-01,3,1,1.857077e+00,1.884809e+00,1
7.851480e-01,3.759380e-01,3.678799e-01,3,1,2.627106e+00,2.627111e+00,1
7.861520e-01,4.068990e-01,3.991127e-01,3,1,4.756818e+00,4.760565e+00,1
7.794710e-01,6.289890e-01,6.198883e-01,3,2,7.169829e+00,7.245884e+00,1
7.801840e-01,2.294790e+00,2.282143e+00,3,9,1.051339e+01,1.376895e+01,0
7.886180e-01,1.742850e+00,1.734972e+00,3,9,8.572963e+00,8.894003e+00,1
7.882730e-01,1.068382e+00,1.059055e+00,3,5,6.102340e+00,6.115956e+00,1
7.850790e-01,5.280230e-01,5.199909e-01,3,2,4.694680e+00,4.694680e+00,1
7.852560e-01,2.162050e-01,2.079010e-01,3,0,3.311402e+00,3.311402e+00,1
7.876060e-01,6.027890e-01,5.950928e-01,3,2,4.676176e+00,4.680937e+00,1
7.850300e-01,5.975290e-01,5.900860e-01,3,2,3.504615e+00,3.516836e+00,1
7.867490e-01,7.952160e-01,7.860661e-01,3,3,4.557084e+00,4.644140e+00,1
1.044116e+00,2.091809e+00,2.084017e+00,4,11,5.036996e+00,5.142376e+00,1
1.043633e+00,1.723489e+00,1.714945e+00,4,9,2.185318e+00,2.256323e+00,1
7.863960e-01,3.725860e-01,3.640652e-01,3,1,1.915967e+00,1.915968e+00,1
7.863760e-01,2.153700e-01,2.079010e-01,3,0,2.722432e+00,2.722435e+00,1
7.853620e-01,4.125050e-01,4.048347e-01,3,1,2.949001e+00,2.954722e+00,1
7.842870e-01,3.726040e-01,3.640652e-01,3,1,2.228318e+00,2.228318e+00,1
7.791290e-01,2.192680e-01,2.110004e-01,3,0,2.545234e+00,2.545236e+00,1
7.785430e-01,2.211580e-01,2.131462e-01,3,0,1.502043e+00,1.502044e+00,1
7.795090e-01,2.206500e-01,2.129078e-01,3,0,1.371448e+00,1.371448e+00,1
7.792480e-01,2.212770e-01,2.119541e-01,3,0,1.136427e+00,1.136427e+00,1
7.789800e-01,2.200770e-01,2.121925e-01,3,0,1.174077e+00,1.174078e+00,1
7.853710e-01,4.199600e-01,4.119873e-01,3,1,1.642144e+00,1.642347e+00,1
7.861150e-01,5.703690e-01,5.621910e-01,3,2,1.794969e+00,1.799210e+00,1
7.793670e-01,4.738140e-01,4.642010e-01,3,1,1.165205e+00,1.168311e+00,1
7.847540e-01,8.157640e-01,8.080006e-01,3,3,1.172119e+00,1.225554e+00,1
7.851470e-01,2.547860e-01,2.458096e-01,3,0,1.083212e+00,1.105672e+00,1
7.836540e-01,2.543320e-01,2.450943e-01,3,0,8.886640e-01,8.886668e-01,1
7.843350e-01,3.725880e-01,3.650188e-01,3,1,6.353263e-01,6.353264e-01,1
7.784840e-01,2.149070e-01,2.071857e-01,3,0,1.101719e+00,1.101720e+00,1
7.792740e-01,2.210040e-01,2.121925e-01,3,0,5.897289e-01,5.897290e-01,1
7.789820e-01,2.201000e-01,2.110004e-01,3,0,6.727555e-01,6.727560e-01,1
7.789990e-01,2.206970e-01,2.131462e-01,3,0,1.712291e+00,1.712294e+00,1
7.785480e-01,2.215570e-01,2.131462e-01,3,0,1.244475e+00,1.244475e+00,1
7.847260e-01,4.188130e-01,4.110336e-01,3,1,3.965856e+00,3.971743e+00,1
7.856040e-01,5.708600e-01,5.629063e-01,3,2,2.759459e+00,2.801875e+00,1
7.842310e-01,2.546170e-01,2.458096e-01,3,0,2.685961e+00,2.877987e+00,1
7.791410e-01,4.745560e-01,4.646778e-01,3,1,3.361085e+00,3.472358e+00,1
7.855650e-01,3.777390e-01,3.700256e-01,3,1,3.043491e+00,3.043491e+00,1
7.854270e-01,2.150930e-01,2.059937e-01,3,0,3.359707e+00,3.359709e+00,1
7.791550e-01,1.069262e+00,1.058102e+00,3,2,5.926757e+00,6.852260e+00,0
7.849060e-01,9.169020e-01,9.078979e-01,3,4,3.879667e+00,3.879931e+00,1
7.794050e-01,4.170140e-01,4.088879e-01,3,1,2.958350e+00,2.958369e+00,1
7.849650e-01,5.751860e-01,5.669594e-01,3,2,2.584689e+00,2.590235e+00,1
1.041917e+00,3.718870e-01,3.638268e-01,4,1,1.524175e+00,1.524177e+00,1
7.841880e-01,2.155320e-01,2.079010e-01,3,0,1.693966e+00,1.693958e+00,1
7.787780e-01,2.150180e-01,2.069473e-01,3,0,1.059656e+00,1.059657e+00,1
7.788100e-01,2.192370e-01,2.119541e-01,3,0,1.377541e+00,1.377543e+00,1
7.787130e-01,2.198630e-01,2.121925e-01,3,0,6.229854e-01,6.229856e-01,1
7.788080e-01,2.197690e-01,2.119541e-01,3,0,5.073364e-01,5.073367e-01,1
7.794650e-01,2.202240e-01,2.119541e-01,3,0,5.285171e-01,5.285175e-01,1
7.848300e-01,4.214390e-01,4.129410e-01,3,1,1.134791e+00,1.144313e+00,1
7.841100e-01,5.873530e-01,5.800724e-01,3,2,1.174135e+00,1.174136e+00,1
7.846030e-01,2.146580e-01,2.059937e-01,3,0,9.917023e-01,9.917025e-01,1
7.836370e-01,2.162810e-01,2.069473e-01,3,0,1.082230e+00,1.082231e+00,1
7.842920e-01,2.149770e-01,2.069473e-01,3,0,9.188136e-01,9.188141e-01,1
7.828080e-01,2.149280e-01,2.071857e-01,3,0,1.703315e+00,1.703317e+00,1
7.790840e-01,4.191550e-01,4.098415e-01,3,1,2.887266e+00,2.888965e+00,1
7.857530e-01,6.108150e-01,6.020069e-01,3,2,3.270435e+00,3.317183e+00,1
1.041960e+00,6.253970e-01,6.179810e-01,4,2,2.575823e+00,2.650428e+00,1
7.846770e-01,4.453860e-01,4.370213e-01,3,1,2.284671e+00,2.377443e+00,1
7.845420e-01,6.254040e-01,6.170273e-01,3,2,2.114043e+00,2.262669e+00,1
7.792850e-01,4.159080e-01,4.079342e-01,3,1,1.525459e+00,1.651589e+00,1
7.786860e-01,2.593990e-01,2.498627e-01,3,0,1.312818e+00,1.323701e+00,1
7.847920e-01,3.789790e-01,3.709793e-01,3,1,2.265458e+00,2.265462e+00,1
7.843500e-01,2.156670e-01,2.069473e-01,3,0,3.244754e+00,3.244757e+00,1
7.849560e-01,2.149210e-01,2.069473e-01,3,0,1.985182e+00,1.985181e+00,1
7.843360e-01,2.154550e-01,2.071857e-01,3,0,1.886946e+00,1.886947e+00,1
7.848210e-01,2.151540e-01,2.069473e-01,3,0,1.696303e+00,1.696304e+00,1
7.844290e-01,2.152660e-01,2.059937e-01,3,0,1.557803e+00,1.557803e+00,1
7.851230e-01,2.153990e-01,2.069473e-01,3,0,1.282779e+00,1.282780e+00,1
7.841590e-01,4.169060e-01,4.081726e-01,3,1,1.440062e+00,1.440373e+00,1
7.854630e-01,3.713740e-01,3.631115e-01,3,1,2.354947e+00,2.354950e+00,1
7.841700e-01,2.149730e-01,2.069473e-01,3,0,2.261473e+00,2.261473e+00,1
7.841320e-01,2.161390e-01,2.079010e-01,3,0,2.397506e+00,2.397507e+00,1
7.795250e-01,2.151050e-01,2.062321e-01,3,0,2.726403e+00,2.726406e+00,1
7.789140e-01,2.200290e-01,2.110004e-01,3,0,1.245363e+00,1.245363e+00,1
7.788010e-01,2.203560e-01,2.129078e-01,3,0,9.887013e-01,9.887019e-01,1
7.791350e-01,2.200650e-01,2.121925e-01,3,0,1.044758e+00,1.044759e+00,1
7.787060e-01,2.277530e-01,2.198219e-01,3,0,4.640929e-01,4.640938e-01,1
7.781700e-01,2.198250e-01,2.119541e-01,3,0,4.688404e-01,4.688407e-01,1
7.785420e-01,2.206750e-01,2.119541e-01,3,0,8.076118e-01,8.076128e-01,1
7.791660e-01,2.198150e-01,2.110004e-01,3,0,6.890079e-01,6.890080e-01,1
7.838640e-01,2.207860e-01,2.071857e-01,3,0,1.878360e+00,1.878364e+00,1
7.847780e-01,2.158110e-01,2.079010e-01,3,0,1.407735e+00,1.407737e+00,1
7.844950e-01,2.144680e-01,2.071857e-01,3,0,9.991587e-01,9.991590e-01,1
7.842950e-01,4.143020e-01,4.069805e-01,3,1,8.932517e-01,8.941772e-01,1
7.847100e-01,3.714090e-01,3.631115e-01,3,1,9.106466e-01,9.106471e-01,1
7.843380e-01,2.145370e-01,2.071857e-01,3,0,9.353766e-01,9.353773e-01,1
7.840680e-01,2.145450e-01,2.059937e-01,3,0,5.963682e-01,5.963684e-01,1
7.846910e-01,2.151330e-01,2.069473e-01,3,0,6.619421e-01,6.619430e-01,1
7.850530e-01,2.151800e-01,2.062321e-01,3,0,5.469526e-01,5.469532e-01,1
7.848670e-01,2.149340e-01,2.079010e-01,3,0,4.720932e-01,4.720936e-01,1
7.841160e-01,2.155040e-01,2.081394e-01,3,0,1.262910e+00,1.262913e+00,1
7.844760e-01,2.156820e-01,2.067089e-01,3,0,8.033939e-01,8.033948e-01,1
7.794400e-01,4.214570e-01,4.119873e-01,3,1,1.262700e+00,1.263467e+00,1
7.838750e-01,4.457050e-01,4.370213e-01,3,1,2.039534e+00,2.050020e+00,1
7.851160e-01,4.679040e-01,4.599094e-01,3,1,1.740741e+00,1.780507e+00,1
7.842510e-01,4.677060e-01,4.599094e-01,3,1,1.973091e+00,1.989840e+00,1
7.850540e-01,6.023010e-01,5.941391e-01,3,2,1.397186e+00,1.441107e+00,1
7.867700e-01,4.110050e-01,4.029274e-01,3,1,1.389499e+00,1.410118e+00,1
7.840100e-01,4.710200e-01,4.630089e-01,3,1,1.588936e+00,1.621988e+00,1
7.850810e-01,2.541090e-01,2.470016e-01,3,0,3.464564e+00,3.476235e+00,1
7.787410e-01,3.771850e-01,3.690720e-01,3,1,4.592461e+00,4.592464e+00,1
7.788070e-01,2.222910e-01,2.140999e-01,3,0,4.075414e+00,4.075414e+00,1
7.794750e-01,2.195910e-01,2.107620e-01,3,0,3.306959e+00,3.306960e+00,1
7.796150e-01,2.202450e-01,2.112389e-01,3,0,3.037190e+00,3.037191e+00,1
7.835950e-01,2.203240e-01,2.129078e-01,3,0,2.082030e+00,2.082030e+00,1
7.836710e-01,2.150150e-01,2.069473e-01,3,0,2.064062e+00,2.064063e+00,1
7.852210e-01,5.802680e-01,5.719662e-01,3,2,2.031354e+00,2.031201e+00,1
1.044792e+00,5.277140e-01,5.199909e-01,4,2,1.582963e+00,1.582963e+00,1
7.850560e-01,6.303260e-01,6.220341e-01,3,2,1.397065e+00,1.404070e+00,1
7.850960e-01,8.143380e-01,8.070469e-01,3,3,2.794303e+00,2.939548e+00,1
1.305691e+00,8.003740e-01,7.920265e-01,5,3,5.814700e+00,5.853380e+00,1
1.557876e+00,8.917950e-01,8.840561e-01,6,4,6.067264e+00,6.046262e+00,1
1.299093e+00,4.178000e-01,4.100800e-01,5,1,6.359437e+00,6.358846e+00,1
1.052331e+00,4.177360e-01,4.091263e-01,4,1,7.386813e+00,7.395420e+00,1
1.310327e+00,9.599490e-01,9.520054e-01,5,4,1.049895e+01,1.058962e+01,1
7.791940e-01,8.442300e-01,8.351803e-01,3,4,6.789607e+00,6.789584e+00,1
7.855620e-01,4.218320e-01,4.141331e-01,3,1,8.302639e+00,8.305092e+00,1
7.971490e-01,3.717100e-01,3.638268e-01,3,1,6.378506e+00,6.378505e+00,1
7.865750e-01,2.169860e-01,2.090931e-01,3,0,5.885419e+00,5.885400e+00,1
7.841670e-01,4.129590e-01,4.060268e-01,3,1,4.120540e+00,4.123720e+00,1
7.851620e-01,1.243850e+00,1.234055e+00,3,3,5.102275e+00,5.337154e+00,0
7.793200e-01,4.177370e-01,4.100800e-01,3,1,3.483355e+00,3.504124e+00,1
7.843840e-01,1.459613e+00,1.451015e+00,3,7,4.505625e+00,4.629853e+00,1
1.041942e+00,1.659866e+00,1.651049e+00,4,9,1.476639e+00,1.476892e+00,1
7.794750e-01,2.607860e-01,2.517700e-01,3,0,1.749115e+00,1.788277e+00,1
7.845870e-01,3.782230e-01,3.690720e-01,3,1,3.253409e+00,3.253414e+00,1
7.856070e-01,2.162490e-01,2.090931e-01,3,0,2.445909e+00,2.445909e+00,1
7.844940e-01,4.162940e-01,4.091263e-01,3,1,3.937491e+00,3.959709e+00,1
7.850160e-01,2.552950e-01,2.460480e-01,3,0,3.508867e+00,3.508906e+00,1
7.857250e-01,1.064436e+00,1.052856e+00,3,2,6.102961e+00,6.200395e+00,0
1.042288e+00,6.650650e-01,6.570816e-01,4,3,3.111345e+00,3.111343e+00,1
7.845110e-01,2.158370e-01,2.079010e-01,3,0,2.559139e+00,2.559139e+00,1
7.849040e-01,2.155700e-01,2.079010e-01,3,0,2.030544e+00,2.030545e+00,1
7.847050e-01,2.155960e-01,2.069473e-01,3,0,2.029548e+00,2.029549e+00,1
7.849510e-01,2.157940e-01,2.081394e-01,3,0,2.181584e+00,2.181585e+00,1
7.857450e-01,4.168710e-01,4.079342e-01,3,1,3.319721e+00,3.321892e+00,1
7.853770e-01,3.733490e-01,3.650188e-01,3,1,1.511241e+00,1.511238e+00,1
7.837210e-01,2.160700e-01,2.071857e-01,3,0,1.011055e+00,1.011055e+00,1
7.838980e-01,2.157750e-01,2.079010e-01,3,0,1.167476e+00,1.167477e+00,1
7.837980e-01,2.156120e-01,2.062321e-01,3,0,1.131952e+00,1.131953e+00,1
7.842960e-01,2.148720e-01,2.069473e-01,3,0,8.765723e-01,8.765724e-01,1
7.841310e-01,2.149730e-01,2.069473e-01,3,0,1.412698e+00,1.412701e+00,1
7.847100e-01,2.151130e-01,2.062321e-01,3,0,2.056964e+00,2.056966e+00,1
7.791530e-01,2.156940e-01,2.069473e-01,3,0,3.116109e+00,3.116112e+00,1
7.849140e-01,6.005520e-01,5.919933e-01,3,2,6.740493e+00,6.745076e+00,1
7.835120e-01,9.931190e-01,9.839535e-01,3,4,8.750713e+00,8.803520e+00,1
7.866800e-01,1.565054e+00,1.556158e+00,3,8,5.960113e+00,5.968440e+00,1
7.857770e-01,2.552380e-01,2.479553e-01,3,0,7.358279e+00,7.385679e+00,1
7.799270e-01,6.025740e-01,5.950928e-01,3,2,5.301867e+00,5.308961e+00,1
7.843760e-01,4.186900e-01,4.098415e-01,3,1,4.201623e+00,4.203380e+00,1
7.852990e-01,5.982170e-01,5.898476e-01,3,2,4.668147e+00,4.696684e+00,1
7.851310e-01,3.726940e-01,3.650188e-01,3,1,2.559425e+00,2.559422e+00,1
7.847220e-01,2.155140e-01,2.071857e-01,3,0,1.912133e+00,1.912137e+00,1
7.838400e-01,2.156770e-01,2.069473e-01,3,0,1.470410e+00,1.470411e+00,1
7.838600e-01,2.158510e-01,2.071857e-01,3,0,1.392732e+00,1.392733e+00,1
7.784690e-01,2.159160e-01,2.088547e-01,3,0,1.343528e+00,1.343529e+00,1
7.787310e-01,2.222600e-01,2.140999e-01,3,0,2.104442e+00,2.104444e+00,1
7.785810e-01,2.200190e-01,2.119541e-01,3,0,7.177930e-01,7.177924e-01,1
7.784970e-01,2.214780e-01,2.131462e-01,3,0,2.874755e+00,2.874762e+00,1
7.856430e-01,7.921410e-01,7.841587e-01,3,3,6.304743e+00,6.404735e+00,1
7.782330e-01,6.903980e-01,6.828308e-01,3,3,3.721556e+00,3.721512e+00,1
7.837580e-01,2.212870e-01,2.129078e-01,3,0,2.658603e+00,2.658603e+00,1
7.847190e-01,2.151050e-01,2.069473e-01,3,0,2.180672e+00,2.180673e+00,1
7.852110e-01,2.152360e-01,2.081394e-01,3,0,1.855125e+00,1.855126e+00,1
7.841300e-01,2.167050e-01,2.081394e-01,3,0,1.736404e+00,1.736405e+00,1
7.848900e-01,2.157320e-01,2.069473e-01,3,0,2.910387e+00,2.910391e+00,1
7.860380e-01,4.127740e-01,4.050732e-01,3,1,2.265315e+00,2.265337e+00,1
7.851370e-01,2.547750e-01,2.470016e-01,3,0,1.629329e+00,1.629336e+00,1
7.856810e-01,3.724550e-01,3.640652e-01,3,1,1.821676e+00,1.821677e+00,1
7.847490e-01,6.060320e-01,5.979538e-01,3,2,3.123181e+00,3.154689e+00,1
7.838870e-01,2.548890e-01,2.470016e-01,3,0,5.047766e+00,5.104388e+00,1
7.852480e-01,1.318558e+00,1.310110e+00,3,6,9.141304e+00,9.303219e+00,1
1.043264e+00,1.612076e+00,1.605034e+00,4,8,1.117011e+01,1.160567e+01,1
7.877900e-01,1.758137e+00,1.745701e+00,3,6,1.009095e+01,1.105260e+01,0
7.865670e-01,2.432408e+00,2.420902e+00,3,10,1.058302e+01,1.129736e+01,0
7.870030e-01,1.758181e+00,1.749992e+00,3,9,8.923972e+00,8.999852e+00,1
7.852050e-01,9.075840e-01,8.981228e-01,3,4,9.367430e+00,9.444522e+00,1
7.851750e-01,2.554250e-01,2.470016e-01,3,0,9.324215e+00,9.379099e+00,1
7.862330e-01,1.287361e+00,1.279116e+00,3,6,7.680179e+00,7.708571e+00,1
7.848700e-01,7.571850e-01,7.488728e-01,3,3,6.624371e+00,6.672389e+00,1
7.848600e-01,6.056780e-01,5.979538e-01,3,2,5.080024e+00,5.080126e+00,1
7.849100e-01,5.970130e-01,5.888939e-01,3,2,4.652110e+00,4.659974e+00,1
7.848030e-01,1.149257e+00,1.140833e+00,3,5,4.714276e+00,4.748794e+00,1
1.566367e+00,1.975121e+00,1.966953e+00,6,10,6.101089e+00,6.448312e+00,1
1.557409e+00,1.057517e+00,1.045942e+00,6,2,1.135291e+01,1.823608e+01,0
1.560065e+00,7.083840e-01,6.983280e-01,6,0,1.286436e+01,1.868269e+01,0
1.560235e+00,7.016270e-01,6.902218e-01,6,0,1.464135e+01,1.634294e+01,0
1.300047e+00,7.081360e-01,6.978512e-01,5,0,1.295802e+01,1.036279e+01,0
1.042326e+00,7.065510e-01,6.952286e-01,4,0,1.319905e+01,1.017760e+01,0
1.302106e+00,7.029460e-01,6.921291e-01,5,0,1.619020e+01,1.556068e+01,0
1.049744e+00,4.755936e+00,4.743814e+00,4,24,1.507478e+01,1.794082e+01,0
1.043584e+00,1.539741e+00,1.528978e+00,4,5,1.252192e+01,1.474802e+01,0
7.871020e-01,2.751596e+00,2.740145e+00,3,12,1.068193e+01,1.109767e+01,0
7.855170e-01,1.748910e+00,1.740932e+00,3,9,9.375000e+00,9.425519e+00,1
7.805480e-01,1.222430e+00,1.211882e+00,3,3,7.960185e+00,8.355074e+00,0
7.849280e-01,7.204600e-01,7.081032e-01,3,0,7.132835e+00,8.591097e+00,0
7.859840e-01,1.887953e+00,1.877069e+00,3,7,7.279126e+00,1.166721e+01,0
1.042161e+00,7.448470e-01,7.338524e-01,4,1,4.157511e+00,4.165330e+00,0
7.795240e-01,2.217380e-01,2.129078e-01,3,0,3.598931e+00,3.598909e+00,1
7.850800e-01,5.933710e-01,5.831718e-01,3,0,3.904977e+00,6.038164e+00,0
1.303625e+00,4.132220e-01,4.050732e-01,5,1,2.784785e+00,2.786234e+00,1
7.838420e-01,9.191890e-01,9.109974e-01,3,4,2.346019e+00,2.352452e+00,1
1.042640e+00,6.947200e-01,6.849766e-01,4,3,1.932852e+00,1.932678e+00,1
7.848560e-01,2.160310e-01,2.067089e-01,3,0,1.237885e+00,1.237847e+00,1
7.842340e-01,2.150400e-01,2.059937e-01,3,0,7.578909e-01,7.578935e-01,1
7.850020e-01,2.163630e-01,2.088547e-01,3,0,5.986300e-01,5.986311e-01,1
7.845620e-01,2.157860e-01,2.079010e-01,3,0,8.249606e-01,8.249615e-01,1
7.846510e-01,2.158530e-01,2.071857e-01,3,0,1.063487e+00,1.063489e+00,1
7.844650e-01,2.151930e-01,2.069473e-01,3,0,7.600052e-01,7.600053e-01,1
7.841020e-01,2.162650e-01,2.090931e-01,3,0,7.740733e-01,7.740748e-01,1
7.787340e-01,4.216850e-01,4.138947e-01,3,1,2.118585e+00,2.123219e+00,1
7.837500e-01,6.316930e-01,6.239414e-01,3,2,4.703750e+00,4.743935e+00,1
7.847540e-01,1.028011e+00,1.019955e+00,3,4,6.371638e+00,6.414147e+00,1
7.839010e-01,5.981850e-01,5.908012e-01,3,2,5.376119e+00,5.500410e+00,1
7.853170e-01,8.138650e-01,8.060932e-01,3,3,5.760829e+00,5.831103e+00,1
7.834990e-01,5.967160e-01,5.888939e-01,3,2,5.636319e+00,5.700103e+00,1
7.789030e-01,4.169840e-01,4.088879e-01,3,1,4.992246e+00,5.028665e+00,1
7.864710e-01,7.576570e-01,7.500648e-01,3,3,3.945144e+00,3.993454e+00,1
7.846580e-01,2.554640e-01,2.467632e-01,3,0,3.906544e+00,3.912073e+00,1
7.859640e-01,1.675845e+00,1.667976e+00,3,8,7.055665e+00,7.208118e+00,1
1.043295e+00,2.094283e+00,2.082109e+00,4,8,9.262721e+00,9.954340e+00,0
1.560849e+00,7.128860e-01,7.023811e-01,6,0,1.101488e+01,1.636484e+01,0
1.298926e+00,7.165820e-01,7.059574e-01,5,0,9.082830e+00,1.280962e+01,0
1.305782e+00,3.304461e+00,3.295183e+00,5,18,6.961363e+00,7.117433e+00,1
1.044287e+00,1.410399e+00,1.400948e+00,4,7,5.172029e+00,5.250534e+00,1
7.859230e-01,7.567120e-01,7.472038e-01,3,3,4.140247e+00,4.293844e+00,1
7.885750e-01,1.366809e+00,1.358986e+00,3,6,5.307000e+00,5.575239e+00,1
7.873310e-01,1.086267e+00,1.077175e+00,3,5,5.291941e+00,5.472298e+00,1
7.863670e-01,1.562857e+00,1.554966e+00,3,8,4.015618e+00,4.077974e+00,1
1.044800e+00,1.267567e+00,1.259089e+00,4,6,3.969793e+00,3.970956e+00,1
1.562348e+00,8.180840e-01,8.087158e-01,6,4,4.787301e+00,4.762144e+00,1
1.557121e+00,5.503240e-01,5.419254e-01,6,2,5.275127e+00,5.261678e+00,1
1.042509e+00,5.371710e-01,5.290508e-01,4,2,6.418349e+00,6.418354e+00,1
7.857310e-01,2.162790e-01,2.090931e-01,3,0,5.004629e+00,5.004628e+00,1
7.862110e-01,4.149950e-01,4.069805e-01,3,1,6.693354e+00,6.737448e+00,1
7.800940e-01,6.288430e-01,6.201267e-01,3,2,6.643806e+00,6.706269e+00,1
7.866840e-01,7.574820e-01,7.488728e-01,3,3,5.565141e+00,5.565425e+00,1
7.809170e-01,5.338400e-01,5.259514e-01,3,2,4.571018e+00,4.571018e+00,1
7.858640e-01,1.649110e+00,1.641989e+00,3,8,4.690842e+00,4.705233e+00,1
7.859000e-01,1.468455e+00,1.459837e+00,3,7,4.670039e+00,4.740641e+00,1
1.305000e+00,1.227874e+00,1.219988e+00,5,6,3.520077e+00,3.538576e+00,1
1.562306e+00,4.145910e-01,4.060268e-01,6,1,3.492198e+00,3.511306e+00,1
1.041631e+00,4.123940e-01,4.048347e-01,4,1,2.318386e+00,2.322394e+00,1
7.837550e-01,5.771230e-01,5.688667e-01,3,2,1.877163e+00,1.890549e+00,1
7.844620e-01,2.552090e-01,2.481937e-01,3,0,1.134988e+00,1.137731e+00,1
7.838160e-01,3.719900e-01,3.647804e-01,3,1,7.149030e-01,7.149034e-01,1
7.844800e-01,2.148960e-01,2.057552e-01,3,0,4.305170e-01,4.305171e-01,1
7.850900e-01,2.163800e-01,2.081394e-01,3,0,8.423595e-01,8.423612e-01,1
7.843200e-01,2.154610e-01,2.069473e-01,3,0,4.883783e-01,4.883785e-01,1
7.843120e-01,2.154830e-01,2.069473e-01,3,0,4.539481e-01,4.539488e-01,1
7.843510e-01,2.152070e-01,2.069473e-01,3,0,2.837925e-01,2.837929e-01,1
7.837560e-01,2.157110e-01,2.079010e-01,3,0,3.137920e-01,3.137924e-01,1
7.846640e-01,2.151980e-01,2.057552e-01,3,0,2.700686e-01,2.700689e-01,1
7.840910e-01,2.150800e-01,2.081394e-01,3,0,6.614335e-01,6.614346e-01,1
7.840280e-01,2.153950e-01,2.079010e-01,3,0,5.131234e-01,5.131241e-01,1
7.837230e-01,2.147410e-01,2.069473e-01,3,0,4.811902e-01,4.811919e-01,1
7.839550e-01,2.147190e-01,2.071857e-01,3,0,9.972128e-01,9.972144e-01,1
7.835210e-01,2.156140e-01,2.071857e-01,3,0,5.504026e-01,5.504024e-01,1
7.839720e-01,2.156040e-01,2.067089e-01,3,0,7.856635e-01,7.856643e-01,1
7.832880e-01,2.157830e-01,2.081394e-01,3,0,8.021382e-01,8.021387e-01,1
7.836090e-01,2.153750e-01,2.069473e-01,3,0,1.366197e+00,1.366199e+00,1
7.834560e-01,2.158690e-01,2.079010e-01,3,0,1.043040e+00,1.043040e+00,1
7.846950e-01,2.150800e-01,2.069473e-01,3,0,6.769789e-01,6.769789e-01,1
7.835600e-01,2.153750e-01,2.069473e-01,3,0,4.991544e-01,4.991550e-01,1
7.844290e-01,2.156730e-01,2.069473e-01,3,0,6.798405e-01,6.798413e-01,1
7.789870e-01,2.146210e-01,2.069473e-01,3,0,6.270691e-01,6.270693e-01,1
7.784500e-01,2.203870e-01,2.131462e-01,3,0,5.073503e-01,5.073505e-01,1
7.784040e-01,2.209090e-01,2.129078e-01,3,0,8.943777e-01,8.943789e-01,1
7.789540e-01,2.208470e-01,2.140999e-01,3,0,6.805199e-01,6.805204e-01,1
7.857200e-01,4.219180e-01,4.138947e-01,3,1,1.012277e+00,1.012335e+00,1
7.843160e-01,4.713050e-01,4.630089e-01,3,1,1.796149e+00,1.874364e+00,1
7.849570e-01,2.553540e-01,2.479553e-01,3,0,1.574355e+00,1.594197e+00,1
7.846080e-01,3.721760e-01,3.650188e-01,3,1,1.390542e+00,1.390543e+00,1
7.843870e-01,2.158540e-01,2.081394e-01,3,0,3.171552e+00,3.171556e+00,1
7.849410e-01,2.164990e-01,2.088547e-01,3,0,3.876013e+00,3.876010e+00,1
7.842970e-01,2.158340e-01,2.079010e-01,3,0,2.218522e+00,2.218520e+00,1
7.915930e-01,2.149320e-01,2.069473e-01,3,0,1.662187e+00,1.662186e+00,1
7.840720e-01,2.151690e-01,2.079010e-01,3,0,1.263089e+00,1.263089e+00,1
7.785560e-01,2.156970e-01,2.081394e-01,3,0,8.519731e-01,8.519732e-01,1
7.784240e-01,2.207890e-01,2.119541e-01,3,0,7.455627e-01,7.455631e-01,1
7.786390e-01,2.220880e-01,2.131462e-01,3,0,1.072886e+00,1.072887e+00,1
7.786850e-01,2.217100e-01,2.138615e-01,3,0,1.035071e+00,1.035072e+00,1
7.783460e-01,2.198170e-01,2.119541e-01,3,0,5.051728e-01,5.051738e-01,1
7.782880e-01,2.210780e-01,2.131462e-01,3,0,1.366075e+00,1.366078e+00,1
7.792450e-01,2.208150e-01,2.140999e-01,3,0,7.684837e-01,7.684836e-01,1
7.791630e-01,2.201400e-01,2.119541e-01,3,0,6.926982e-01,6.926988e-01,1
7.836320e-01,2.194860e-01,2.119541e-01,3,0,9.510765e-01,9.510777e-01,1
7.842300e-01,2.159540e-01,2.081394e-01,3,0,7.843147e-01,7.843150e-01,1
7.845940e-01,2.146740e-01,2.069473e-01,3,0,9.241724e-01,9.241731e-01,1
7.840780e-01,2.153140e-01,2.071857e-01,3,0,1.174144e+00,1.174145e+00,1
7.850850e-01,2.157090e-01,2.069473e-01,3,0,9.244205e-01,9.244212e-01,1
7.839780e-01,2.151020e-01,2.062321e-01,3,0,9.614435e-01,9.614449e-01,1
7.846400e-01,2.154250e-01,2.079010e-01,3,0,1.197063e+00,1.197060e+00,1
7.839220e-01,2.157110e-01,2.071857e-01,3,0,1.465391e+00,1.465387e+00,1
7.839680e-01,2.158690e-01,2.079010e-01,3,0,2.193731e+00,2.193734e+00,1
7.844060e-01,2.152650e-01,2.069473e-01,3,0,1.517709e+00,1.517709e+00,1
7.848900e-01,2.149260e-01,2.071857e-01,3,0,1.427008e+00,1.427010e+00,1
7.844260e-01,2.158920e-01,2.088547e-01,3,0,1.394852e+00,1.394853e+00,1
7.842940e-01,2.157580e-01,2.071857e-01,3,0,1.524729e+00,1.524730e+00,1
7.844330e-01,2.153670e-01,2.079010e-01,3,0,1.267355e+00,1.267355e+00,1
7.785240e-01,7.676680e-01,7.610321e-01,3,3,2.152223e+00,2.170430e+00,1
1.041391e+00,9.778540e-01,9.691715e-01,4,4,1.631715e+00,1.656249e+00,1
7.843290e-01,2.583650e-01,2.510548e-01,3,0,1.541825e+00,1.565690e+00,1
7.848780e-01,8.117850e-01,8.039474e-01,3,3,1.512230e+00,1.546144e+00,1
7.798130e-01,4.757090e-01,4.670620e-01,3,1,1.368450e+00,1.542714e+00,1
7.856370e-01,6.297440e-01,6.220341e-01,3,2,9.764712e-01,1.031068e+00,1
7.840670e-01,4.689360e-01,4.618168e-01,3,1,1.184139e+00,1.217280e+00,1
7.845920e-01,5.924170e-01,5.848408e-01,3,2,1.333735e+00,1.333736e+00,1
7.845600e-01,2.154060e-01,2.069473e-01,3,0,9.206006e-01,9.206008e-01,1
7.846080e-01,2.151090e-01,2.081394e-01,3,0,1.716627e+00,1.716629e+00,1
7.850400e-01,2.155930e-01,2.069473e-01,3,0,1.214090e+00,1.214090e+00,1
7.839270e-01,2.157910e-01,2.071857e-01,3,0,1.096866e+00,1.096867e+00,1
7.843080e-01,2.149260e-01,2.069473e-01,3,0,9.923311e-01,9.923314e-01,1
7.847770e-01,2.150040e-01,2.081394e-01,3,0,7.774961e-01,7.774974e-01,1
7.849970e-01,2.154620e-01,2.079010e-01,3,0,5.710486e-01,5.710491e-01,1
7.837680e-01,2.152570e-01,2.081394e-01,3,0,1.121347e+00,1.121349e+00,1
7.850090e-01,2.148430e-01,2.069473e-01,3,0,9.649002e-01,9.649008e-01,1
7.837110e-01,2.155600e-01,2.069473e-01,3,0,9.757279e-01,9.757291e-01,1
7.847230e-01,2.154250e-01,2.059937e-01,3,0,9.184279e-01,9.184282e-01,1
7.849510e-01,2.153620e-01,2.069473e-01,3,0,7.198569e-01,7.198575e-01,1
7.848790e-01,2.150340e-01,2.069473e-01,3,0,8.669969e-01,8.669975e-01,1
7.843440e-01,2.157260e-01,2.079010e-01,3,0,6.692728e-01,6.692730e-01,1
7.843960e-01,2.152450e-01,2.079010e-01,3,0,2.812092e+00,2.812025e+00,1
7.790580e-01,6.043320e-01,5.960464e-01,3,2,6.252122e+00,6.250521e+00,1
1.041963e+00,8.782430e-01,8.702278e-01,4,4,4.778860e+00,4.778860e+00,1
7.791520e-01,2.212750e-01,2.131462e-01,3,0,3.421406e+00,3.421405e+00,1
7.791530e-01,2.205020e-01,2.129078e-01,3,0,2.483568e+00,2.483568e+00,1
7.790350e-01,2.216180e-01,2.131462e-01,3,0,2.719384e+00,2.719386e+00,1
7.786610e-01,2.213210e-01,2.117157e-01,3,0,2.138911e+00,2.138911e+00,1
7.786760e-01,2.212220e-01,2.140999e-01,3,0,2.075938e+00,2.075939e+00,1
7.844020e-01,2.200300e-01,2.110004e-01,3,0,2.464893e+00,2.464896e+00,1
7.844590e-01,2.161440e-01,2.081394e-01,3,0,2.778302e+00,2.778304e+00,1
7.858030e-01,2.153240e-01,2.079010e-01,3,0,2.534843e+00,2.534843e+00,1
7.844360e-01,4.147730e-01,4.069805e-01,3,1,2.713012e+00,2.713670e+00,1
7.854680e-01,3.728820e-01,3.640652e-01,3,1,3.638477e+00,3.638480e+00,1
7.857600e-01,2.157170e-01,2.079010e-01,3,0,2.717860e+00,2.717857e+00,1
7.838190e-01,2.155040e-01,2.071857e-01,3,0,1.865109e+00,1.865108e+00,1
7.843560e-01,2.153730e-01,2.079010e-01,3,0,1.118547e+00,1.118547e+00,1
7.843970e-01,2.151060e-01,2.071857e-01,3,0,7.524168e-01,7.524169e-01,1
7.832590e-01,2.152160e-01,2.069473e-01,3,0,5.861015e-01,5.861019e-01,1
7.841680e-01,2.154280e-01,2.069473e-01,3,0,8.102396e-01,8.102407e-01,1
7.840200e-01,2.154660e-01,2.081394e-01,3,0,5.755474e-01,5.755475e-01,1
7.844140e-01,2.148880e-01,2.069473e-01,3,0,9.391565e-01,9.391577e-01,1
7.838840e-01,2.153410e-01,2.069473e-01,3,0,9.928145e-01,9.928150e-01,1
7.782660e-01,4.212620e-01,4.131794e-01,3,1,9.225296e-01,9.228622e-01,1
7.846140e-01,4.747710e-01,4.656315e-01,3,1,1.185544e+00,1.189099e+00,1
7.841290e-01,3.709820e-01,3.640652e-01,3,1,6.645029e-01,6.645028e-01,1
7.855700e-01,2.159420e-01,2.071857e-01,3,0,5.330671e-01,5.330675e-01,1
7.838010e-01,2.151750e-01,2.079010e-01,3,0,2.707671e+00,2.707678e+00,1
7.846470e-01,2.152540e-01,2.071857e-01,3,0,2.841113e+00,2.841114e+00,1
7.841590e-01,2.156370e-01,2.067089e-01,3,0,1.376632e+00,1.376631e+00,1
7.841430e-01,2.161170e-01,2.081394e-01,3,0,1.368063e+00,1.368064e+00,1
7.833450e-01,2.158150e-01,2.079010e-01,3,0,1.202553e+00,1.202554e+00,1
7.790160e-01,4.199000e-01,4.119873e-01,3,1,1.297007e+00,1.297244e+00,1
7.790980e-01,3.775170e-01,3.700256e-01,3,1,6.570838e-01,6.570836e-01,1
7.837110e-01,2.147440e-01,2.069473e-01,3,0,5.401839e-01,5.401844e-01,1
7.838990e-01,2.152300e-01,2.067089e-01,3,0,1.034198e+00,1.034199e+00,1
7.849960e-01,2.155290e-01,2.081394e-01,3,0,1.306494e+00,1.306495e+00,1
7.850460e-01,2.157440e-01,2.079010e-01,3,0,1.625038e+00,1.625039e+00,1
7.848440e-01,2.151230e-01,2.071857e-01,3,0,1.053127e+00,1.053127e+00,1
7.847320e-01,2.143850e-01,2.069473e-01,3,0,1.004465e+00,1.004466e+00,1
7.837820e-01,2.158260e-01,2.071857e-01,3,0,1.505983e+00,1.505986e+00,1
7.842910e-01,2.157590e-01,2.069473e-01,3,0,2.257561e+00,2.257563e+00,1
7.842220e-01,2.154060e-01,2.069473e-01,3,0,2.515954e+00,2.515955e+00,1
7.855160e-01,4.173480e-01,4.088879e-01,3,1,3.514011e+00,3.521366e+00,1
7.840110e-01,2.543360e-01,2.460480e-01,3,0,3.331659e+00,3.343823e+00,1
7.841200e-01,6.997380e-01,6.918907e-01,3,3,5.239641e+00,5.238739e+00,1
1.042215e+00,4.767460e-01,4.689693e-01,4,2,2.319730e+00,2.319728e+00,1
7.852800e-01,2.151840e-01,2.081394e-01,3,0,1.922216e+00,1.922217e+00,1
7.790730e-01,4.177370e-01,4.100800e-01,3,1,2.797239e+00,2.797275e+00,1
7.851560e-01,3.777700e-01,3.700256e-01,3,1,1.389003e+00,1.389001e+00,1
7.840230e-01,2.162880e-01,2.069473e-01,3,0,1.155720e+00,1.155720e+00,1
7.846510e-01,2.147680e-01,2.069473e-01,3,0,9.296065e-01,9.296068e-01,1
7.836700e-01,2.145600e-01,2.069473e-01,3,0,6.205235e-01,6.205233e-01,1
7.845570e-01,2.154010e-01,2.069473e-01,3,0,1.320994e+00,1.320996e+00,1
7.839670e-01,2.152260e-01,2.071857e-01,3,0,9.903784e-01,9.903785e-01,1
7.849520e-01,2.150140e-01,2.069473e-01,3,0,5.586414e-01,5.586414e-01,1
7.834680e-01,2.156710e-01,2.069473e-01,3,0,1.249720e+00,1.249722e+00,1
7.842600e-01,2.156260e-01,2.071857e-01,3,0,8.726678e-01,8.726678e-01,1
7.840960e-01,2.148540e-01,2.069473e-01,3,0,4.713378e-01,4.713381e-01,1
7.853170e-01,2.147270e-01,2.069473e-01,3,0,5.132423e-01,5.132427e-01,1
7.848250e-01,2.160380e-01,2.076626e-01,3,0,6.622897e-01,6.622906e-01,1
7.848660e-01,4.139700e-01,4.048347e-01,3,1,1.001999e+00,1.002496e+00,1
7.799330e-01,4.457470e-01,4.379749e-01,3,1,2.086643e+00,2.087102e+00,1
7.839110e-01,4.175340e-01,4.098415e-01,3,1,1.512769e+00,1.528143e+00,1
7.857050e-01,6.255040e-01,6.179810e-01,3,2,2.737894e+00,2.831896e+00,1
7.787690e-01,5.738950e-01,5.650520e-01,3,2,1.205496e+00,1.205635e+00,1
7.845180e-01,3.786720e-01,3.700256e-01,3,1,9.613929e-01,9.613935e-01,1
7.856170e-01,2.158160e-01,2.079010e-01,3,0,6.414082e-01,6.414081e-01,1
7.842700e-01,2.151270e-01,2.067089e-01,3,0,5.920689e-01,5.920696e-01,1
7.843070e-01,2.158290e-01,2.069473e-01,3,0,1.661641e+00,1.661645e+00,1
7.841460e-01,2.161830e-01,2.079010e-01,3,0,1.672177e+00,1.672178e+00,1
7.839250e-01,2.154700e-01,2.071857e-01,3,0,2.572674e+00,2.572648e+00,1
7.835860e-01,2.153930e-01,2.069473e-01,3,0,2.653660e+00,2.653656e+00,1
7.844620e-01,2.157550e-01,2.067089e-01,3,0,3.049365e+00,3.049366e+00,1
7.868860e-01,4.166360e-01,4.069805e-01,3,1,4.979113e+00,4.985933e+00,1
7.848680e-01,2.550060e-01,2.458096e-01,3,0,5.577266e+00,5.580801e+00,1
7.792070e-01,5.763020e-01,5.691051e-01,3,2,4.167758e+00,4.177750e+00,1
7.851320e-01,4.467760e-01,4.389286e-01,3,1,3.740126e+00,3.751028e+00,1
7.849090e-01,5.942320e-01,5.860329e-01,3,2,5.220948e+00,5.232045e+00,1
7.850030e-01,7.338540e-01,7.259846e-01,3,3,3.549991e+00,3.552225e+00,1
7.851600e-01,3.744110e-01,3.669262e-01,3,1,2.943434e+00,2.943435e+00,1
7.844480e-01,2.156840e-01,2.079010e-01,3,0,2.946009e+00,2.946013e+00,1
7.846250e-01,2.156640e-01,2.081394e-01,3,0,3.158371e+00,3.158373e+00,1
7.849530e-01,4.159660e-01,4.088879e-01,3,1,3.444558e+00,3.458881e+00,1
7.785200e-01,3.718770e-01,3.638268e-01,3,1,2.542775e+00,2.542776e+00,1
7.788410e-01,2.208900e-01,2.121925e-01,3,0,2.465111e+00,2.465112e+00,1
7.788080e-01,2.219940e-01,2.140999e-01,3,0,3.193802e+00,3.193804e+00,1
7.856950e-01,4.185250e-01,4.098415e-01,3,1,3.530768e+00,3.530821e+00,1
7.852380e-01,3.722750e-01,3.650188e-01,3,1,2.250885e+00,2.250861e+00,1
7.846930e-01,2.157160e-01,2.071857e-01,3,0,2.172056e+00,2.171848e+00,1
7.843520e-01,2.158800e-01,2.081394e-01,3,0,1.285225e+00,1.285204e+00,1
7.843540e-01,2.154090e-01,2.081394e-01,3,0,1.246174e+00,1.246134e+00,1

