5.643730e-01,2.452100e+02,2.449751e+02,2,1000,0.000000e+00,-1.843144e-18,0
7.812490e-01,8.663978e+00,8.651972e+00,3,43,1.477751e-01,1.477754e-01,1
7.833280e-01,2.220770e-01,2.088547e-01,3,0,2.697547e-01,2.697553e-01,1
7.830570e-01,2.157510e-01,2.081394e-01,3,0,5.751734e-01,5.751744e-01,1
7.831180e-01,2.146850e-01,2.071857e-01,3,0,5.282505e-01,5.282509e-01,1
7.821300e-01,2.146150e-01,2.059937e-01,3,0,2.459757e+00,2.459761e+00,1
7.832110e-01,2.144000e-01,2.071857e-01,3,0,3.443760e+00,3.443762e+00,1
7.827640e-01,2.161410e-01,2.090931e-01,3,0,4.529692e+00,4.529694e+00,1
7.831540e-01,2.144490e-01,2.069473e-01,3,0,2.216738e+00,2.216737e+00,1
7.833080e-01,2.146500e-01,2.079010e-01,3,0,1.963306e+00,1.963307e+00,1
7.841360e-01,2.146040e-01,2.069473e-01,3,0,1.634474e+00,1.634475e+00,1
7.837510e-01,2.143850e-01,2.059937e-01,3,0,1.888457e+00,1.888459e+00,1
7.837940e-01,2.146370e-01,2.059937e-01,3,0,3.113620e+00,3.113623e+00,1
7.841560e-01,2.146830e-01,2.069473e-01,3,0,4.240895e+00,4.240898e+00,1
7.848410e-01,4.077710e-01,3.998280e-01,3,1,3.884715e+00,3.887958e+00,1
7.836360e-01,4.317930e-01,4.239082e-01,3,1,5.420458e+00,5.428553e+00,1
7.774420e-01,4.184310e-01,4.098415e-01,3,1,4.235205e+00,4.235399e+00,1
7.840390e-01,3.771470e-01,3.690720e-01,3,1,3.702471e+00,3.702472e+00,1
7.833540e-01,5.992930e-01,5.898476e-01,3,2,3.546971e+00,3.557237e+00,1
7.841180e-01,2.532630e-01,2.448559e-01,3,0,3.362838e+00,3.374992e+00,1
7.837380e-01,6.074740e-01,5.991459e-01,3,2,3.502663e+00,3.524048e+00,1
7.850480e-01,4.099050e-01,4.010201e-01,3,1,2.920580e+00,2.921994e+00,1
7.836620e-01,2.539400e-01,2.460480e-01,3,0,2.647642e+00,2.654071e+00,1
7.831440e-01,5.968400e-01,5.888939e-01,3,2,2.317108e+00,2.433269e+00,1
7.847610e-01,4.772400e-01,4.677773e-01,3,1,2.280358e+00,2.322225e+00,1
7.835860e-01,2.531170e-01,2.450943e-01,3,0,2.200572e+00,2.200711e+00,1
7.847660e-01,3.701960e-01,3.619194e-01,3,1,1.829212e+00,1.829152e+00,1
7.843180e-01,2.144230e-01,2.048016e-01,3,0,1.319248e+00,1.318786e+00,1
7.839850e-01,2.145450e-01,2.069473e-01,3,0,6.534984e-01,6.535009e-01,1
7.837740e-01,2.136580e-01,2.050400e-01,3,0,5.567998e-01,5.568000e-01,1
7.832100e-01,2.146850e-01,2.069473e-01,3,0,1.120268e+00,1.120270e+00,1
7.847310e-01,2.139630e-01,2.069473e-01,3,0,1.325162e+00,1.325163e+00,1
7.840790e-01,2.148180e-01,2.069473e-01,3,0,1.150528e+00,1.150528e+00,1
7.844450e-01,2.149670e-01,2.079010e-01,3,0,1.774555e+00,1.774557e+00,1
7.841880e-01,2.144230e-01,2.069473e-01,3,0,1.456476e+00,1.456476e+00,1
7.827790e-01,2.140640e-01,2.059937e-01,3,0,1.080970e+00,1.080970e+00,1
7.832390e-01,2.144940e-01,2.069473e-01,3,0,7.962757e-01,7.962763e-01,1
7.822220e-01,2.147520e-01,2.071857e-01,3,0,6.548356e-01,6.548361e-01,1
7.773540e-01,4.136580e-01,4.060268e-01,3,1,1.660106e+00,1.660411e+00,1
7.773620e-01,3.768380e-01,3.681183e-01,3,1,1.837470e+00,1.837471e+00,1
7.848560e-01,7.727980e-01,7.650852e-01,3,3,4.150749e+00,4.239557e+00,1
7.837720e-01,7.466170e-01,7.390976e-01,3,3,5.688163e+00,5.694845e+00,1
7.847250e-01,5.260420e-01,5.190372e-01,3,2,3.619173e+00,3.619169e+00,1
7.834190e-01,4.149320e-01,4.081726e-01,3,1,5.472907e+00,5.473067e+00,1
7.778330e-01,3.775390e-01,3.690720e-01,3,1,4.375941e+00,4.375941e+00,1
7.768260e-01,2.206280e-01,2.129078e-01,3,0,3.528658e+00,3.528658e+00,1
7.776300e-01,2.204310e-01,2.129078e-01,3,0,3.170248e+00,3.170249e+00,1
7.774170e-01,2.206720e-01,2.117157e-01,3,0,2.643302e+00,2.643303e+00,1
7.774040e-01,2.210850e-01,2.129078e-01,3,0,2.127032e+00,2.127032e+00,1
7.825090e-01,2.202990e-01,2.119541e-01,3,0,1.353564e+00,1.353564e+00,1
7.817910e-01,2.139140e-01,2.059937e-01,3,0,1.201780e+00,1.201781e+00,1
7.827940e-01,4.054860e-01,3.969669e-01,3,1,1.935873e+00,1.938873e+00,1
7.841830e-01,3.714240e-01,3.640652e-01,3,1,1.424564e+00,1.424564e+00,1
7.834070e-01,4.139270e-01,4.069805e-01,3,1,1.217132e+00,1.217591e+00,1
7.836220e-01,9.763670e-01,9.691715e-01,3,4,1.612301e+00,1.637165e+00,1
7.843430e-01,4.099950e-01,4.010201e-01,3,1,2.205653e+00,2.234093e+00,1
1.038502e+00,3.769140e-01,3.690720e-01,4,1,1.214929e+00,1.214929e+00,1
7.831980e-01,2.150080e-01,2.059937e-01,3,0,1.850409e+00,1.850411e+00,1
7.828760e-01,2.144190e-01,2.059937e-01,3,0,2.592462e+00,2.592461e+00,1
7.844040e-01,4.064090e-01,3.979206e-01,3,1,3.880669e+00,3.882258e+00,1
7.827310e-01,3.711570e-01,3.631115e-01,3,1,1.751065e+00,1.751069e+00,1
7.774810e-01,4.137970e-01,4.060268e-01,3,1,3.743403e+00,3.798252e+00,1
7.852340e-01,2.007310e+00,1.996994e+00,3,7,7.061598e+00,7.328098e+00,0
7.849630e-01,1.315143e+00,1.306057e+00,3,7,3.868531e+00,3.868520e+00,1
7.843930e-01,1.066193e+00,1.056194e+00,3,2,5.336208e+00,5.750018e+00,0
1.040851e+00,8.726610e-01,8.640289e-01,4,4,2.285561e+00,2.285560e+00,1
7.828980e-01,2.145990e-01,2.069473e-01,3,0,2.476828e+00,2.476827e+00,1
7.831890e-01,2.152140e-01,2.069473e-01,3,0,1.966015e+00,1.966016e+00,1
7.827040e-01,2.139790e-01,2.069473e-01,3,0,1.518141e+00,1.518141e+00,1
7.822380e-01,2.151920e-01,2.079010e-01,3,0,1.185555e+00,1.185556e+00,1
7.828520e-01,2.152350e-01,2.067089e-01,3,0,1.750564e+00,1.750565e+00,1
7.813310e-01,2.149230e-01,2.059937e-01,3,0,1.779765e+00,1.779766e+00,1
7.824180e-01,2.143970e-01,2.059937e-01,3,0,1.799250e+00,1.799251e+00,1
7.771330e-01,4.172420e-01,4.079342e-01,3,1,2.027236e+00,2.028424e+00,1
7.846310e-01,6.204320e-01,6.120205e-01,3,2,2.953748e+00,2.982704e+00,1
7.830400e-01,4.308300e-01,4.229546e-01,3,1,3.972893e+00,4.030506e+00,1
7.851720e-01,9.146090e-01,9.069443e-01,3,4,2.419968e+00,2.463277e+00,1
7.769240e-01,6.250060e-01,6.179810e-01,3,2,2.421935e+00,2.437840e+00,1
7.770070e-01,2.585430e-01,2.508163e-01,3,0,1.788399e+00,1.804446e+00,1
7.828690e-01,3.767580e-01,3.681183e-01,3,1,8.657456e-01,8.657455e-01,1
7.831770e-01,2.147730e-01,2.069473e-01,3,0,2.874666e+00,2.874671e+00,1
7.823480e-01,2.147010e-01,2.057552e-01,3,0,2.140292e+00,2.140292e+00,1
7.828400e-01,2.139600e-01,2.059937e-01,3,0,1.924900e+00,1.924901e+00,1
7.839910e-01,4.143960e-01,4.060268e-01,3,1,1.857077e+00,1.884809e+00,1
7.834090e-01,3.707690e-01,3.631115e-01,3,1,2.627106e+00,2.627111e+00,1
7.834870e-01,4.065160e-01,3.979206e-01,3,1,4.756818e+00,4.760565e+00,1
7.841270e-01,6.290220e-01,6.208420e-01,3,2,7.169829e+00,7.245884e+00,1
7.843590e-01,2.288699e+00,2.275944e+00,3,9,1.051339e+01,1.376895e+01,0
7.785280e-01,1.737777e+00,1.730204e+00,3,9,8.572963e+00,8.894003e+00,1
7.840680e-01,1.067892e+00,1.060009e+00,3,5,6.102340e+00,6.115956e+00,1
7.831420e-01,5.328980e-01,5.249977e-01,3,2,4.694680e+00,4.694680e+00,1
7.836650e-01,2.152710e-01,2.059937e-01,3,0,3.311402e+00,3.311402e+00,1
7.853960e-01,5.955960e-01,5.869865e-01,3,2,4.676176e+00,4.680937e+00,1
7.770080e-01,6.032230e-01,5.948544e-01,3,2,3.504615e+00,3.516836e+00,1
7.842700e-01,7.915470e-01,7.829666e-01,3,3,4.557084e+00,4.644140e+00,1
1.043387e+00,2.087726e+00,2.079964e+00,4,11,5.036996e+00,5.142376e+00,1
1.041871e+00,1.722848e+00,1.714945e+00,4,9,2.185318e+00,2.256323e+00,1
7.842720e-01,3.716580e-01,3.640652e-01,3,1,1.915967e+00,1.915968e+00,1
7.826430e-01,2.147000e-01,2.069473e-01,3,0,2.722432e+00,2.722435e+00,1
7.771940e-01,4.181070e-01,4.110336e-01,3,1,2.949001e+00,2.954722e+00,1
7.836450e-01,3.785530e-01,3.700256e-01,3,1,2.228318e+00,2.228318e+00,1
7.828170e-01,2.149590e-01,2.069473e-01,3,0,2.545234e+00,2.545236e+00,1
7.826830e-01,2.141960e-01,2.059937e-01,3,0,1.502043e+00,1.502044e+00,1
7.829080e-01,2.146330e-01,2.079010e-01,3,0,1.371448e+00,1.371448e+00,1
7.829060e-01,2.148420e-01,2.059937e-01,3,0,1.136427e+00,1.136427e+00,1
7.826830e-01,2.148860e-01,2.062321e-01,3,0,1.174077e+00,1.174078e+00,1
7.836780e-01,4.141150e-01,4.069805e-01,3,1,1.642144e+00,1.642347e+00,1
7.772890e-01,5.699870e-01,5.609989e-01,3,2,1.794969e+00,1.799210e+00,1
7.844530e-01,4.748340e-01,4.658699e-01,3,1,1.165205e+00,1.168311e+00,1
7.831230e-01,8.087770e-01,8.010864e-01,3,3,1.172119e+00,1.225554e+00,1
7.815870e-01,2.539350e-01,2.448559e-01,3,0,1.083212e+00,1.105672e+00,1
7.778280e-01,2.581280e-01,2.491474e-01,3,0,8.886640e-01,8.886668e-01,1
7.839970e-01,3.778800e-01,3.690720e-01,3,1,6.353263e-01,6.353264e-01,1
7.835150e-01,2.143130e-01,2.069473e-01,3,0,1.101719e+00,1.101720e+00,1
7.837050e-01,2.146060e-01,2.069473e-01,3,0,5.897289e-01,5.897290e-01,1
7.829380e-01,2.145570e-01,2.062321e-01,3,0,6.727555e-01,6.727560e-01,1
7.832080e-01,2.148090e-01,2.059937e-01,3,0,1.712291e+00,1.712294e+00,1
7.838880e-01,2.152430e-01,2.079010e-01,3,0,1.244475e+00,1.244475e+00,1
7.873020e-01,4.125990e-01,4.038811e-01,3,1,3.965856e+00,3.971743e+00,1
7.834390e-01,5.702520e-01,5.619526e-01,3,2,2.759459e+00,2.801875e+00,1
7.775330e-01,2.601150e-01,2.510548e-01,3,0,2.685961e+00,2.877987e+00,1
7.852590e-01,4.762210e-01,4.680157e-01,3,1,3.361085e+00,3.472358e+00,1
7.843960e-01,3.712940e-01,3.621578e-01,3,1,3.043491e+00,3.043491e+00,1
7.834850e-01,2.150560e-01,2.079010e-01,3,0,3.359707e+00,3.359709e+00,1
7.840710e-01,1.069501e+00,1.058817e+00,3,2,5.926757e+00,6.852260e+00,0
7.779740e-01,9.176710e-01,9.100437e-01,3,4,3.879667e+00,3.879931e+00,1
7.839700e-01,4.175390e-01,4.100800e-01,3,1,2.958350e+00,2.958369e+00,1
7.866490e-01,5.694210e-01,5.619526e-01,3,2,2.584689e+00,2.590235e+00,1
1.039375e+00,3.703280e-01,3.628731e-01,4,1,1.524175e+00,1.524177e+00,1
7.822790e-01,2.207880e-01,2.129078e-01,3,0,1.693966e+00,1.693958e+00,1
7.825310e-01,2.141860e-01,2.069473e-01,3,0,1.059656e+00,1.059657e+00,1
7.832040e-01,2.145830e-01,2.071857e-01,3,0,1.377541e+00,1.377543e+00,1
7.825350e-01,2.141230e-01,2.071857e-01,3,0,6.229854e-01,6.229856e-01,1
7.831710e-01,2.148020e-01,2.062321e-01,3,0,5.073364e-01,5.073367e-01,1
7.834370e-01,2.139750e-01,2.050400e-01,3,0,5.285171e-01,5.285175e-01,1
7.842400e-01,4.151080e-01,4.057884e-01,3,1,1.134791e+00,1.144313e+00,1
7.839100e-01,5.871280e-01,5.781651e-01,3,2,1.174135e+00,1.174136e+00,1
7.774410e-01,2.140620e-01,2.069473e-01,3,0,9.917023e-01,9.917025e-01,1
7.769180e-01,2.195990e-01,2.110004e-01,3,0,1.082230e+00,1.082231e+00,1
7.768860e-01,2.201770e-01,2.129078e-01,3,0,9.188136e-01,9.188141e-01,1
7.770960e-01,2.197080e-01,2.119541e-01,3,0,1.703315e+00,1.703317e+00,1
7.838660e-01,4.195080e-01,4.110336e-01,3,1,2.887266e+00,2.888965e+00,1
7.831880e-01,6.044450e-01,5.970001e-01,3,2,3.270435e+00,3.317183e+00,1
1.041639e+00,6.303180e-01,6.208420e-01,4,2,2.575823e+00,2.650428e+00,1
7.856670e-01,4.396820e-01,4.301071e-01,3,1,2.284671e+00,2.377443e+00,1
7.776740e-01,6.307840e-01,6.229877e-01,3,2,2.114043e+00,2.262669e+00,1
7.830530e-01,4.157460e-01,4.079342e-01,3,1,1.525459e+00,1.651589e+00,1
7.820750e-01,2.535980e-01,2.460480e-01,3,0,1.312818e+00,1.323701e+00,1
7.850430e-01,3.721240e-01,3.628731e-01,3,1,2.265458e+00,2.265462e+00,1
7.827410e-01,2.151520e-01,2.069473e-01,3,0,3.244754e+00,3.244757e+00,1
7.832780e-01,2.144610e-01,2.059937e-01,3,0,1.985182e+00,1.985181e+00,1
7.833020e-01,2.148860e-01,2.081394e-01,3,0,1.886946e+00,1.886947e+00,1
7.835500e-01,2.140120e-01,2.062321e-01,3,0,1.696303e+00,1.696304e+00,1
7.836270e-01,2.146050e-01,2.071857e-01,3,0,1.557803e+00,1.557803e+00,1
7.838110e-01,2.147520e-01,2.069473e-01,3,0,1.282779e+00,1.282780e+00,1
7.841320e-01,4.158320e-01,4.069805e-01,3,1,1.440062e+00,1.440373e+00,1
7.779970e-01,3.754280e-01,3.678799e-01,3,1,2.354947e+00,2.354950e+00,1
7.772800e-01,2.202180e-01,2.121925e-01,3,0,2.261473e+00,2.261473e+00,1
7.767610e-01,2.203990e-01,2.119541e-01,3,0,2.397506e+00,2.397507e+00,1
7.828480e-01,2.200480e-01,2.131462e-01,3,0,2.726403e+00,2.726406e+00,1
7.830390e-01,2.140730e-01,2.050400e-01,3,0,1.245363e+00,1.245363e+00,1
7.840190e-01,2.151510e-01,2.071857e-01,3,0,9.887013e-01,9.887019e-01,1
7.828040e-01,2.139020e-01,2.069473e-01,3,0,1.044758e+00,1.044759e+00,1
7.827170e-01,2.140320e-01,2.069473e-01,3,0,4.640929e-01,4.640938e-01,1
7.836350e-01,2.145090e-01,2.059937e-01,3,0,4.688404e-01,4.688407e-01,1
7.825850e-01,2.144170e-01,2.069473e-01,3,0,8.076118e-01,8.076128e-01,1
7.825750e-01,2.139190e-01,2.069473e-01,3,0,6.890079e-01,6.890080e-01,1
7.824440e-01,2.145390e-01,2.059937e-01,3,0,1.878360e+00,1.878364e+00,1
7.823640e-01,2.153920e-01,2.069473e-01,3,0,1.407735e+00,1.407737e+00,1
7.827720e-01,2.141870e-01,2.069473e-01,3,0,9.991587e-01,9.991590e-01,1
7.849320e-01,4.134870e-01,4.057884e-01,3,1,8.932517e-01,8.941772e-01,1
7.821250e-01,3.710450e-01,3.640652e-01,3,1,9.106466e-01,9.106471e-01,1
7.825430e-01,2.145140e-01,2.059937e-01,3,0,9.353766e-01,9.353773e-01,1
7.822530e-01,2.137310e-01,2.059937e-01,3,0,5.963682e-01,5.963684e-01,1
7.824420e-01,2.146660e-01,2.062321e-01,3,0,6.619421e-01,6.619430e-01,1
7.826050e-01,2.142140e-01,2.059937e-01,3,0,5.469526e-01,5.469532e-01,1
7.816980e-01,2.139120e-01,2.069473e-01,3,0,4.720932e-01,4.720936e-01,1
7.768720e-01,2.197340e-01,2.059937e-01,3,0,1.262910e+00,1.262913e+00,1
7.764530e-01,2.199080e-01,2.119541e-01,3,0,8.033939e-01,8.033948e-01,1
7.828760e-01,4.214000e-01,4.141331e-01,3,1,1.262700e+00,1.263467e+00,1
7.837960e-01,4.394430e-01,4.301071e-01,3,1,2.039534e+00,2.050020e+00,1
7.840560e-01,4.664370e-01,4.589558e-01,3,1,1.740741e+00,1.780507e+00,1
7.771380e-01,4.721990e-01,4.639626e-01,3,1,1.973091e+00,1.989840e+00,1
7.849780e-01,6.017020e-01,5.939007e-01,3,2,1.397186e+00,1.441107e+00,1
7.833260e-01,4.100640e-01,4.019737e-01,3,1,1.389499e+00,1.410118e+00,1
7.767850e-01,4.691550e-01,4.608631e-01,3,1,1.588936e+00,1.621988e+00,1
7.766150e-01,2.583580e-01,2.510548e-01,3,0,3.464564e+00,3.476235e+00,1
7.839480e-01,3.771480e-01,3.700256e-01,3,1,4.592461e+00,4.592464e+00,1
7.834040e-01,2.156210e-01,2.079010e-01,3,0,4.075414e+00,4.075414e+00,1
7.830180e-01,2.142380e-01,2.050400e-01,3,0,3.306959e+00,3.306960e+00,1
7.831570e-01,2.147620e-01,2.069473e-01,3,0,3.037190e+00,3.037191e+00,1
7.831120e-01,2.152300e-01,2.062321e-01,3,0,2.082030e+00,2.082030e+00,1
7.818300e-01,2.140870e-01,2.071857e-01,3,0,2.064062e+00,2.064063e+00,1
7.846070e-01,5.792330e-01,5.719662e-01,3,2,2.031354e+00,2.031201e+00,1
1.040538e+00,5.344310e-01,5.259514e-01,4,2,1.582963e+00,1.582963e+00,1
7.841340e-01,6.287270e-01,6.210804e-01,3,2,1.397065e+00,1.404070e+00,1
7.842120e-01,8.152040e-01,8.060932e-01,3,3,2.794303e+00,2.939548e+00,1
1.299772e+00,8.041240e-01,7.951260e-01,5,3,5.814700e+00,5.853380e+00,1
1.554120e+00,8.906950e-01,8.819103e-01,6,4,6.067264e+00,6.046262e+00,1
1.296679e+00,4.181270e-01,4.100800e-01,5,1,6.359437e+00,6.358846e+00,1
1.040893e+00,4.170770e-01,4.091263e-01,4,1,7.386813e+00,7.395420e+00,1
1.298595e+00,9.592830e-01,9.520054e-01,5,4,1.049895e+01,1.058962e+01,1
7.850180e-01,8.463110e-01,8.378029e-01,3,4,6.789607e+00,6.789584e+00,1
7.848690e-01,4.153890e-01,4.060268e-01,3,1,8.302639e+00,8.305092e+00,1
7.864340e-01,3.712570e-01,3.640652e-01,3,1,6.378506e+00,6.378505e+00,1
7.841030e-01,2.150970e-01,2.059937e-01,3,0,5.885419e+00,5.885400e+00,1
7.838150e-01,4.119790e-01,4.041195e-01,3,1,4.120540e+00,4.123720e+00,1
7.856510e-01,1.241280e+00,1.229048e+00,3,3,5.102275e+00,5.337154e+00,0
7.790820e-01,4.172730e-01,4.098415e-01,3,1,3.483355e+00,3.504124e+00,1
7.855010e-01,1.461419e+00,1.454115e+00,3,7,4.505625e+00,4.629853e+00,1
1.043279e+00,1.656429e+00,1.646996e+00,4,9,1.476639e+00,1.476892e+00,1
7.834950e-01,2.609590e-01,2.529621e-01,3,0,1.749115e+00,1.788277e+00,1
7.841530e-01,3.725870e-01,3.650188e-01,3,1,3.253409e+00,3.253414e+00,1
7.831040e-01,2.154950e-01,2.069473e-01,3,0,2.445909e+00,2.445909e+00,1
7.849740e-01,4.146750e-01,4.069805e-01,3,1,3.937491e+00,3.959709e+00,1
7.836860e-01,2.546810e-01,2.470016e-01,3,0,3.508867e+00,3.508906e+00,1
7.847480e-01,1.065191e+00,1.055241e+00,3,2,6.102961e+00,6.200395e+00,0
1.040953e+00,6.642370e-01,6.561279e-01,4,3,3.111345e+00,3.111343e+00,1
7.829110e-01,2.151920e-01,2.069473e-01,3,0,2.559139e+00,2.559139e+00,1
7.836440e-01,2.156080e-01,2.069473e-01,3,0,2.030544e+00,2.030545e+00,1
7.848750e-01,2.152030e-01,2.069473e-01,3,0,2.029548e+00,2.029549e+00,1
7.833460e-01,2.155760e-01,2.069473e-01,3,0,2.181584e+00,2.181585e+00,1
7.841420e-01,4.156120e-01,4.079342e-01,3,1,3.319721e+00,3.321892e+00,1
7.831960e-01,3.731010e-01,3.640652e-01,3,1,1.511241e+00,1.511238e+00,1
7.817220e-01,2.147820e-01,2.069473e-01,3,0,1.011055e+00,1.011055e+00,1
7.829700e-01,2.152410e-01,2.069473e-01,3,0,1.167476e+00,1.167477e+00,1
7.832710e-01,2.149280e-01,2.059937e-01,3,0,1.131952e+00,1.131953e+00,1
7.819800e-01,2.143380e-01,2.069473e-01,3,0,8.765723e-01,8.765724e-01,1
7.772930e-01,2.142720e-01,2.069473e-01,3,0,1.412698e+00,1.412701e+00,1
7.769890e-01,2.194190e-01,2.100468e-01,3,0,2.056964e+00,2.056966e+00,1
7.773610e-01,2.209250e-01,2.131462e-01,3,0,3.116109e+00,3.116112e+00,1
7.850790e-01,5.993800e-01,5.919933e-01,3,2,6.740493e+00,6.745076e+00,1
7.844640e-01,9.894180e-01,9.820461e-01,3,4,8.750713e+00,8.803520e+00,1
7.872250e-01,1.565587e+00,1.558065e+00,3,8,5.960113e+00,5.968440e+00,1
7.828830e-01,2.545890e-01,2.470016e-01,3,0,7.358279e+00,7.385679e+00,1
7.780000e-01,6.025640e-01,5.939007e-01,3,2,5.301867e+00,5.308961e+00,1
7.848970e-01,4.171390e-01,4.088879e-01,3,1,4.201623e+00,4.203380e+00,1
7.844940e-01,5.973630e-01,5.898476e-01,3,2,4.668147e+00,4.696684e+00,1
7.832360e-01,3.716130e-01,3.640652e-01,3,1,2.559425e+00,2.559422e+00,1
7.818740e-01,2.150190e-01,2.059937e-01,3,0,1.912133e+00,1.912137e+00,1
7.821390e-01,2.148830e-01,2.071857e-01,3,0,1.470410e+00,1.470411e+00,1
7.767120e-01,2.147210e-01,2.071857e-01,3,0,1.392732e+00,1.392733e+00,1
7.769130e-01,2.202490e-01,2.129078e-01,3,0,1.343528e+00,1.343529e+00,1
7.762580e-01,2.205360e-01,2.119541e-01,3,0,2.104442e+00,2.104444e+00,1
7.766090e-01,2.205330e-01,2.119541e-01,3,0,7.177930e-01,7.177924e-01,1
7.764700e-01,2.213730e-01,2.129078e-01,3,0,2.874755e+00,2.874762e+00,1
7.839230e-01,7.902490e-01,7.820129e-01,3,3,6.304743e+00,6.404735e+00,1
7.774720e-01,6.903600e-01,6.821156e-01,3,3,3.721556e+00,3.721512e+00,1
7.830560e-01,2.206680e-01,2.079010e-01,3,0,2.658603e+00,2.658603e+00,1
7.826980e-01,2.146310e-01,2.069473e-01,3,0,2.180672e+00,2.180673e+00,1
7.833490e-01,2.145370e-01,2.069473e-01,3,0,1.855125e+00,1.855126e+00,1
7.829940e-01,2.155840e-01,2.079010e-01,3,0,1.736404e+00,1.736405e+00,1
7.830370e-01,2.144310e-01,2.069473e-01,3,0,2.910387e+00,2.910391e+00,1
7.859360e-01,4.117780e-01,4.041195e-01,3,1,2.265315e+00,2.265337e+00,1
7.839730e-01,2.538390e-01,2.448559e-01,3,0,1.629329e+00,1.629336e+00,1
7.852110e-01,3.715470e-01,3.638268e-01,3,1,1.821676e+00,1.821677e+00,1
7.829680e-01,6.042190e-01,5.970001e-01,3,2,3.123181e+00,3.154689e+00,1
7.826150e-01,2.541910e-01,2.470016e-01,3,0,5.047766e+00,5.104388e+00,1
7.857030e-01,1.316645e+00,1.308918e+00,3,6,9.141304e+00,9.303219e+00,1
1.041984e+00,1.610209e+00,1.602888e+00,4,8,1.117011e+01,1.160567e+01,1
7.864310e-01,1.760628e+00,1.748800e+00,3,6,1.009095e+01,1.105260e+01,0
7.851290e-01,2.431451e+00,2.418995e+00,3,10,1.058302e+01,1.129736e+01,0
7.882440e-01,1.757845e+00,1.749992e+00,3,9,8.923972e+00,8.999852e+00,1
7.836450e-01,9.065430e-01,8.990765e-01,3,4,9.367430e+00,9.444522e+00,1
7.836260e-01,2.546690e-01,2.470016e-01,3,0,9.324215e+00,9.379099e+00,1
7.873580e-01,1.284848e+00,1.276016e+00,3,6,7.680179e+00,7.708571e+00,1
7.829020e-01,7.560710e-01,7.491112e-01,3,3,6.624371e+00,6.672389e+00,1
7.856960e-01,6.047980e-01,5.958080e-01,3,2,5.080024e+00,5.080126e+00,1
7.849800e-01,5.953800e-01,5.869865e-01,3,2,4.652110e+00,4.659974e+00,1
7.851380e-01,1.146081e+00,1.137972e+00,3,5,4.714276e+00,4.748794e+00,1
1.561799e+00,1.975134e+00,1.966953e+00,6,10,6.101089e+00,6.448312e+00,1
1.557317e+00,1.057444e+00,1.044989e+00,6,2,1.135291e+01,1.823608e+01,0
1.558507e+00,7.091700e-01,6.992817e-01,6,0,1.286436e+01,1.868269e+01,0
1.557325e+00,7.009420e-01,6.911755e-01,6,0,1.464135e+01,1.634294e+01,0
1.297241e+00,7.082730e-01,6.966591e-01,5,0,1.295802e+01,1.036279e+01,0
1.041375e+00,7.065880e-01,6.954670e-01,4,0,1.319905e+01,1.017760e+01,0
1.299844e+00,7.016550e-01,6.895065e-01,5,0,1.619020e+01,1.556068e+01,0
1.043134e+00,4.756911e+00,4.746675e+00,4,24,1.507478e+01,1.794082e+01,0
1.042577e+00,1.545305e+00,1.535177e+00,4,5,1.252192e+01,1.474802e+01,0
7.848300e-01,2.747253e+00,2.737045e+00,3,12,1.068193e+01,1.109767e+01,0
7.857090e-01,1.748797e+00,1.739979e+00,3,9,9.375000e+00,9.425519e+00,1
7.868960e-01,1.221017e+00,1.208067e+00,3,3,7.960185e+00,8.355074e+00,0
7.871350e-01,7.197910e-01,7.097721e-01,3,0,7.132835e+00,8.591097e+00,0
7.803710e-01,1.886314e+00,1.875162e+00,3,7,7.279126e+00,1.166721e+01,0
1.039996e+00,7.459400e-01,7.359982e-01,4,1,4.157511e+00,4.165330e+00,0
7.769370e-01,2.212610e-01,2.129078e-01,3,0,3.598931e+00,3.598909e+00,1
7.840850e-01,5.940400e-01,5.822182e-01,3,0,3.904977e+00,6.038164e+00,0
1.296550e+00,4.126030e-01,4.050732e-01,5,1,2.784785e+00,2.786234e+00,1
7.834790e-01,9.253000e-01,9.169579e-01,3,4,2.346019e+00,2.352452e+00,1
1.040311e+00,6.931770e-01,6.859303e-01,4,3,1.932852e+00,1.932678e+00,1
7.827450e-01,2.151310e-01,2.079010e-01,3,0,1.237885e+00,1.237847e+00,1
7.827420e-01,2.144190e-01,2.059937e-01,3,0,7.578909e-01,7.578935e-01,1
7.825910e-01,2.153290e-01,2.059937e-01,3,0,5.986300e-01,5.986311e-01,1
7.827190e-01,2.150750e-01,2.069473e-01,3,0,8.249606e-01,8.249615e-01,1
7.825070e-01,2.149160e-01,2.069473e-01,3,0,1.063487e+00,1.063489e+00,1
7.828180e-01,2.144710e-01,2.069473e-01,3,0,7.600052e-01,7.600053e-01,1
7.829480e-01,2.154780e-01,2.081394e-01,3,0,7.740733e-01,7.740748e-01,1
7.774420e-01,4.213350e-01,4.131794e-01,3,1,2.118585e+00,2.123219e+00,1
7.837510e-01,6.303850e-01,6.220341e-01,3,2,4.703750e+00,4.743935e+00,1
7.850100e-01,1.026929e+00,1.019001e+00,3,4,6.371638e+00,6.414147e+00,1
7.847100e-01,5.968510e-01,5.898476e-01,3,2,5.376119e+00,5.500410e+00,1
7.858300e-01,8.151590e-01,8.058548e-01,3,3,5.760829e+00,5.831103e+00,1
7.837740e-01,5.959840e-01,5.891323e-01,3,2,5.636319e+00,5.700103e+00,1
7.788060e-01,4.171570e-01,4.091263e-01,3,1,4.992246e+00,5.028665e+00,1
7.859360e-01,7.593250e-01,7.510185e-01,3,3,3.945144e+00,3.993454e+00,1
7.836020e-01,2.552340e-01,2.467632e-01,3,0,3.906544e+00,3.912073e+00,1
7.798990e-01,1.676475e+00,1.667976e+00,3,8,7.055665e+00,7.208118e+00,1
1.043112e+00,2.100820e+00,2.086878e+00,4,8,9.262721e+00,9.954340e+00,0
1.557610e+00,7.135570e-01,7.011890e-01,6,0,1.101488e+01,1.636484e+01,0
1.297804e+00,7.194330e-01,7.081032e-01,5,0,9.082830e+00,1.280962e+01,0
1.303921e+00,3.305628e+00,3.298044e+00,5,18,6.961363e+00,7.117433e+00,1
1.042425e+00,1.410548e+00,1.402855e+00,4,7,5.172029e+00,5.250534e+00,1
7.846510e-01,7.573870e-01,7.491112e-01,3,3,4.140247e+00,4.293844e+00,1
7.855980e-01,1.367358e+00,1.359940e+00,3,6,5.307000e+00,5.575239e+00,1
7.867340e-01,1.087202e+00,1.077890e+00,3,5,5.291941e+00,5.472298e+00,1
7.843990e-01,1.561632e+00,1.552105e+00,3,8,4.015618e+00,4.077974e+00,1
1.041747e+00,1.267452e+00,1.258850e+00,4,6,3.969793e+00,3.970956e+00,1
1.560110e+00,8.225810e-01,8.139610e-01,6,4,4.787301e+00,4.762144e+00,1
1.559570e+00,5.441820e-01,5.359650e-01,6,2,5.275127e+00,5.261678e+00,1
1.042030e+00,5.361880e-01,5.280972e-01,4,2,6.418349e+00,6.418354e+00,1
7.828180e-01,2.157270e-01,2.081394e-01,3,0,5.004629e+00,5.004628e+00,1
7.851670e-01,4.142280e-01,4.060268e-01,3,1,6.693354e+00,6.737448e+00,1
7.783870e-01,6.271700e-01,6.189346e-01,3,2,6.643806e+00,6.706269e+00,1
7.856450e-01,7.597590e-01,7.519722e-01,3,3,5.565141e+00,5.565425e+00,1
7.834150e-01,5.289940e-01,5.209446e-01,3,2,4.571018e+00,4.571018e+00,1
7.844190e-01,1.648929e+00,1.640081e+00,3,8,4.690842e+00,4.705233e+00,1
7.842770e-01,1.466925e+00,1.458883e+00,3,7,4.670039e+00,4.740641e+00,1
1.307139e+00,1.226916e+00,1.219988e+00,5,6,3.520077e+00,3.538576e+00,1
1.558578e+00,4.135650e-01,4.050732e-01,6,1,3.492198e+00,3.511306e+00,1
1.040990e+00,4.122260e-01,4.041195e-01,4,1,2.318386e+00,2.322394e+00,1
7.769900e-01,5.770460e-01,5.681515e-01,3,2,1.877163e+00,1.890549e+00,1
7.775030e-01,2.601540e-01,2.529621e-01,3,0,1.134988e+00,1.137731e+00,1
7.851060e-01,3.775150e-01,3.690720e-01,3,1,7.149030e-01,7.149034e-01,1
7.825260e-01,2.141790e-01,2.048016e-01,3,0,4.305170e-01,4.305171e-01,1
7.828180e-01,2.154210e-01,2.069473e-01,3,0,8.423595e-01,8.423612e-01,1
7.829430e-01,2.148040e-01,2.069473e-01,3,0,4.883783e-01,4.883785e-01,1
7.820620e-01,2.142800e-01,2.059937e-01,3,0,4.539481e-01,4.539488e-01,1
7.824630e-01,2.145560e-01,2.069473e-01,3,0,2.837925e-01,2.837929e-01,1
7.829650e-01,2.146290e-01,2.069473e-01,3,0,3.137920e-01,3.137924e-01,1
7.828990e-01,2.146820e-01,2.059937e-01,3,0,2.700686e-01,2.700689e-01,1
7.835430e-01,2.147270e-01,2.059937e-01,3,0,6.614335e-01,6.614346e-01,1
7.823340e-01,2.145210e-01,2.081394e-01,3,0,5.131234e-01,5.131241e-01,1
7.829570e-01,2.143170e-01,2.069473e-01,3,0,4.811902e-01,4.811919e-01,1
7.827840e-01,2.148110e-01,2.071857e-01,3,0,9.972128e-01,9.972144e-01,1
7.837240e-01,2.148240e-01,2.069473e-01,3,0,5.504026e-01,5.504024e-01,1
7.818330e-01,2.146360e-01,2.062321e-01,3,0,7.856635e-01,7.856643e-01,1
7.822670e-01,2.151700e-01,2.071857e-01,3,0,8.021382e-01,8.021387e-01,1
7.830510e-01,2.146990e-01,2.069473e-01,3,0,1.366197e+00,1.366199e+00,1
7.826220e-01,2.148460e-01,2.081394e-01,3,0,1.043040e+00,1.043040e+00,1
7.826800e-01,2.146130e-01,2.071857e-01,3,0,6.769789e-01,6.769789e-01,1
7.825920e-01,2.148610e-01,2.069473e-01,3,0,4.991544e-01,4.991550e-01,1
7.831420e-01,2.149430e-01,2.071857e-01,3,0,6.798405e-01,6.798413e-01,1
7.823710e-01,2.139620e-01,2.050400e-01,3,0,6.270691e-01,6.270693e-01,1
7.833100e-01,2.145480e-01,2.069473e-01,3,0,5.073503e-01,5.073505e-01,1
7.830220e-01,2.154670e-01,2.071857e-01,3,0,8.943777e-01,8.943789e-01,1
7.825100e-01,2.153190e-01,2.071857e-01,3,0,6.805199e-01,6.805204e-01,1
7.767980e-01,4.219810e-01,4.141331e-01,3,1,1.012277e+00,1.012335e+00,1
7.838890e-01,4.764800e-01,4.689693e-01,3,1,1.796149e+00,1.874364e+00,1
7.827930e-01,2.542780e-01,2.460480e-01,3,0,1.574355e+00,1.594197e+00,1
7.839640e-01,3.717310e-01,3.640652e-01,3,1,1.390542e+00,1.390543e+00,1
7.834430e-01,2.151210e-01,2.069473e-01,3,0,3.171552e+00,3.171556e+00,1
7.839230e-01,2.156710e-01,2.071857e-01,3,0,3.876013e+00,3.876010e+00,1
7.829660e-01,2.158460e-01,2.079010e-01,3,0,2.218522e+00,2.218520e+00,1
7.828980e-01,2.148240e-01,2.067089e-01,3,0,1.662187e+00,1.662186e+00,1
7.823730e-01,2.149630e-01,2.057552e-01,3,0,1.263089e+00,1.263089e+00,1
7.817600e-01,2.144930e-01,2.069473e-01,3,0,8.519731e-01,8.519732e-01,1
7.818350e-01,2.145370e-01,2.069473e-01,3,0,7.455627e-01,7.455631e-01,1
7.823590e-01,2.150000e-01,2.069473e-01,3,0,1.072886e+00,1.072887e+00,1
7.827460e-01,2.154220e-01,2.069473e-01,3,0,1.035071e+00,1.035072e+00,1
7.810650e-01,2.143870e-01,2.069473e-01,3,0,5.051728e-01,5.051738e-01,1
7.820400e-01,2.151500e-01,2.081394e-01,3,0,1.366075e+00,1.366078e+00,1
7.818740e-01,2.153150e-01,2.071857e-01,3,0,7.684837e-01,7.684836e-01,1
7.765010e-01,2.145870e-01,2.069473e-01,3,0,6.926982e-01,6.926988e-01,1
7.770190e-01,2.190670e-01,2.110004e-01,3,0,9.510765e-01,9.510777e-01,1
7.757480e-01,2.210560e-01,2.138615e-01,3,0,7.843147e-01,7.843150e-01,1
7.763520e-01,2.201170e-01,2.129078e-01,3,0,9.241724e-01,9.241731e-01,1
7.769300e-01,2.211230e-01,2.140999e-01,3,0,1.174144e+00,1.174145e+00,1
7.760930e-01,2.205190e-01,2.119541e-01,3,0,9.244205e-01,9.244212e-01,1
7.768400e-01,2.197580e-01,2.121925e-01,3,0,9.614435e-01,9.614449e-01,1
7.766240e-01,2.205760e-01,2.121925e-01,3,0,1.197063e+00,1.197060e+00,1
7.767510e-01,2.211640e-01,2.131462e-01,3,0,1.465391e+00,1.465387e+00,1
7.815960e-01,2.210810e-01,2.140999e-01,3,0,2.193731e+00,2.193734e+00,1
7.830940e-01,2.148940e-01,2.071857e-01,3,0,1.517709e+00,1.517709e+00,1
7.816270e-01,2.148820e-01,2.071857e-01,3,0,1.427008e+00,1.427010e+00,1
7.831000e-01,2.154360e-01,2.071857e-01,3,0,1.394852e+00,1.394853e+00,1
7.836470e-01,2.146470e-01,2.071857e-01,3,0,1.524729e+00,1.524730e+00,1
7.837440e-01,2.153040e-01,2.081394e-01,3,0,1.267355e+00,1.267355e+00,1
7.838010e-01,7.616670e-01,7.526875e-01,3,3,2.152223e+00,2.170430e+00,1
1.039645e+00,9.780000e-01,9.689331e-01,4,4,1.631715e+00,1.656249e+00,1
7.770030e-01,2.596700e-01,2.520084e-01,3,0,1.541825e+00,1.565690e+00,1
7.856310e-01,8.176720e-01,8.099079e-01,3,3,1.512230e+00,1.546144e+00,1
7.831520e-01,4.688610e-01,4.611015e-01,3,1,1.368450e+00,1.542714e+00,1
7.840170e-01,6.308580e-01,6.229877e-01,3,2,9.764712e-01,1.031068e+00,1
7.868100e-01,4.681440e-01,4.601479e-01,3,1,1.184139e+00,1.217280e+00,1
7.768660e-01,5.922470e-01,5.850792e-01,3,2,1.333735e+00,1.333736e+00,1
7.770080e-01,2.216480e-01,2.131462e-01,3,0,9.206006e-01,9.206008e-01,1
7.767130e-01,2.211310e-01,2.121925e-01,3,0,1.716627e+00,1.716629e+00,1
7.771740e-01,2.211420e-01,2.140999e-01,3,0,1.214090e+00,1.214090e+00,1
7.770040e-01,2.202810e-01,2.131462e-01,3,0,1.096866e+00,1.096867e+00,1
7.764560e-01,2.210580e-01,2.131462e-01,3,0,9.923311e-01,9.923314e-01,1
7.824160e-01,2.197740e-01,2.121925e-01,3,0,7.774961e-01,7.774974e-01,1
7.828780e-01,2.149440e-01,2.059937e-01,3,0,5.710486e-01,5.710491e-01,1
7.816000e-01,2.151980e-01,2.071857e-01,3,0,1.121347e+00,1.121349e+00,1
7.828710e-01,2.144020e-01,2.062321e-01,3,0,9.649002e-01,9.649008e-01,1
7.835140e-01,2.149790e-01,2.062321e-01,3,0,9.757279e-01,9.757291e-01,1
7.832410e-01,2.145530e-01,2.059937e-01,3,0,9.184279e-01,9.184282e-01,1
7.831670e-01,2.149880e-01,2.069473e-01,3,0,7.198569e-01,7.198575e-01,1
7.827300e-01,2.150440e-01,2.067089e-01,3,0,8.669969e-01,8.669975e-01,1
7.828590e-01,2.146910e-01,2.069473e-01,3,0,6.692728e-01,6.692730e-01,1
7.829680e-01,2.147100e-01,2.069473e-01,3,0,2.812092e+00,2.812025e+00,1
7.831670e-01,5.979350e-01,5.900860e-01,3,2,6.252122e+00,6.250521e+00,1
1.041342e+00,8.774910e-01,8.690357e-01,4,4,4.778860e+00,4.778860e+00,1
7.833510e-01,2.149300e-01,2.081394e-01,3,0,3.421406e+00,3.421405e+00,1
7.828550e-01,2.150600e-01,2.071857e-01,3,0,2.483568e+00,2.483568e+00,1
7.830030e-01,2.161720e-01,2.090931e-01,3,0,2.719384e+00,2.719386e+00,1
7.835290e-01,2.150820e-01,2.079010e-01,3,0,2.138911e+00,2.138911e+00,1
7.827340e-01,2.151960e-01,2.079010e-01,3,0,2.075938e+00,2.075939e+00,1
7.817320e-01,2.156010e-01,2.081394e-01,3,0,2.464893e+00,2.464896e+00,1
7.812770e-01,2.148880e-01,2.069473e-01,3,0,2.778302e+00,2.778304e+00,1
7.763150e-01,2.145820e-01,2.069473e-01,3,0,2.534843e+00,2.534843e+00,1
7.841550e-01,4.205320e-01,4.119873e-01,3,1,2.713012e+00,2.713670e+00,1
7.826140e-01,3.718960e-01,3.638268e-01,3,1,3.638477e+00,3.638480e+00,1
7.826000e-01,2.152420e-01,2.071857e-01,3,0,2.717860e+00,2.717857e+00,1
7.827840e-01,2.148020e-01,2.071857e-01,3,0,1.865109e+00,1.865108e+00,1
7.829480e-01,2.151730e-01,2.059937e-01,3,0,1.118547e+00,1.118547e+00,1
7.826020e-01,2.145440e-01,2.059937e-01,3,0,7.524168e-01,7.524169e-01,1
7.834050e-01,2.149290e-01,2.069473e-01,3,0,5.861015e-01,5.861019e-01,1
7.834270e-01,2.157390e-01,2.079010e-01,3,0,8.102396e-01,8.102407e-01,1
7.858240e-01,2.174320e-01,2.090931e-01,3,0,5.755474e-01,5.755475e-01,1
7.832590e-01,2.173230e-01,2.088547e-01,3,0,9.391565e-01,9.391577e-01,1
7.830490e-01,2.149160e-01,2.071857e-01,3,0,9.928145e-01,9.928150e-01,1
7.836090e-01,4.147850e-01,4.072189e-01,3,1,9.225296e-01,9.228622e-01,1
7.773950e-01,4.748580e-01,4.661083e-01,3,1,1.185544e+00,1.189099e+00,1
7.826910e-01,3.768140e-01,3.678799e-01,3,1,6.645029e-01,6.645028e-01,1
7.834830e-01,2.153580e-01,2.079010e-01,3,0,5.330671e-01,5.330675e-01,1
7.828590e-01,2.144860e-01,2.057552e-01,3,0,2.707671e+00,2.707678e+00,1
7.831870e-01,2.151150e-01,2.079010e-01,3,0,2.841113e+00,2.841114e+00,1
7.828130e-01,2.149100e-01,2.069473e-01,3,0,1.376632e+00,1.376631e+00,1
7.833590e-01,2.152420e-01,2.069473e-01,3,0,1.368063e+00,1.368064e+00,1
7.829930e-01,2.153620e-01,2.081394e-01,3,0,1.202553e+00,1.202554e+00,1
7.839100e-01,4.144670e-01,4.060268e-01,3,1,1.297007e+00,1.297244e+00,1
7.832400e-01,3.715780e-01,3.650188e-01,3,1,6.570838e-01,6.570836e-01,1
7.823360e-01,2.143290e-01,2.059937e-01,3,0,5.401839e-01,5.401844e-01,1
7.826130e-01,2.144940e-01,2.069473e-01,3,0,1.034198e+00,1.034199e+00,1
7.821360e-01,2.154180e-01,2.079010e-01,3,0,1.306494e+00,1.306495e+00,1
7.766030e-01,2.150140e-01,2.079010e-01,3,0,1.625038e+00,1.625039e+00,1
7.768310e-01,2.203770e-01,2.119541e-01,3,0,1.053127e+00,1.053127e+00,1
7.765490e-01,2.201550e-01,2.131462e-01,3,0,1.004465e+00,1.004466e+00,1
7.766190e-01,2.210340e-01,2.121925e-01,3,0,1.505983e+00,1.505986e+00,1
7.767380e-01,2.214860e-01,2.131462e-01,3,0,2.257561e+00,2.257563e+00,1
7.767140e-01,2.216410e-01,2.129078e-01,3,0,2.515954e+00,2.515955e+00,1
7.839690e-01,4.227250e-01,4.148483e-01,3,1,3.514011e+00,3.521366e+00,1
7.823210e-01,2.542270e-01,2.460480e-01,3,0,3.331659e+00,3.343823e+00,1
7.819790e-01,6.933900e-01,6.861687e-01,3,3,5.239641e+00,5.238739e+00,1
1.039762e+00,4.817010e-01,4.732609e-01,4,2,2.319730e+00,2.319728e+00,1
7.831530e-01,2.151090e-01,2.071857e-01,3,0,1.922216e+00,1.922217e+00,1
7.845790e-01,4.116020e-01,4.029274e-01,3,1,2.797239e+00,2.797275e+00,1
7.834350e-01,3.720900e-01,3.640652e-01,3,1,1.389003e+00,1.389001e+00,1
7.824270e-01,2.157240e-01,2.079010e-01,3,0,1.155720e+00,1.155720e+00,1
7.824220e-01,2.145830e-01,2.069473e-01,3,0,9.296065e-01,9.296068e-01,1
7.816770e-01,2.143000e-01,2.069473e-01,3,0,6.205235e-01,6.205233e-01,1
7.763600e-01,2.152880e-01,2.071857e-01,3,0,1.320994e+00,1.320996e+00,1
7.764610e-01,2.201200e-01,2.131462e-01,3,0,9.903784e-01,9.903785e-01,1
7.766950e-01,2.199700e-01,2.121925e-01,3,0,5.586414e-01,5.586414e-01,1
7.771470e-01,2.217010e-01,2.140999e-01,3,0,1.249720e+00,1.249722e+00,1
7.767950e-01,2.213780e-01,2.140999e-01,3,0,8.726678e-01,8.726678e-01,1
7.771880e-01,2.206590e-01,2.131462e-01,3,0,4.713378e-01,4.713381e-01,1
7.763280e-01,2.199940e-01,2.131462e-01,3,0,5.132423e-01,5.132427e-01,1
7.767720e-01,2.209440e-01,2.131462e-01,3,0,6.622897e-01,6.622906e-01,1
7.839010e-01,4.183360e-01,4.098415e-01,3,1,1.001999e+00,1.002496e+00,1
7.830690e-01,4.400720e-01,4.329681e-01,3,1,2.086643e+00,2.087102e+00,1
7.831430e-01,4.106690e-01,4.029274e-01,3,1,1.512769e+00,1.528143e+00,1
7.834060e-01,6.307450e-01,6.239414e-01,3,2,2.737894e+00,2.831896e+00,1
7.838460e-01,5.683680e-01,5.609989e-01,3,2,1.205496e+00,1.205635e+00,1
7.832240e-01,3.727630e-01,3.650188e-01,3,1,9.613929e-01,9.613935e-01,1
7.820990e-01,2.152660e-01,2.079010e-01,3,0,6.414082e-01,6.414081e-01,1
7.824180e-01,2.148450e-01,2.069473e-01,3,0,5.920689e-01,5.920696e-01,1
7.823270e-01,2.148610e-01,2.079010e-01,3,0,1.661641e+00,1.661645e+00,1
7.811660e-01,2.151630e-01,2.079010e-01,3,0,1.672177e+00,1.672178e+00,1
7.770270e-01,2.146390e-01,2.069473e-01,3,0,2.572674e+00,2.572648e+00,1
7.764580e-01,2.212520e-01,2.138615e-01,3,0,2.653660e+00,2.653656e+00,1
7.765890e-01,2.216850e-01,2.138615e-01,3,0,3.049365e+00,3.049366e+00,1
7.835310e-01,4.219180e-01,4.138947e-01,3,1,4.979113e+00,4.985933e+00,1
7.825840e-01,2.547020e-01,2.470016e-01,3,0,5.577266e+00,5.580801e+00,1
7.851810e-01,5.705090e-01,5.619526e-01,3,2,4.167758e+00,4.177750e+00,1
7.829390e-01,4.401680e-01,4.332066e-01,3,1,3.740126e+00,3.751028e+00,1
7.839360e-01,5.985990e-01,5.898476e-01,3,2,5.220948e+00,5.232045e+00,1
7.824530e-01,7.277770e-01,7.200241e-01,3,3,3.549991e+00,3.552225e+00,1
7.767290e-01,3.796230e-01,3.728867e-01,3,1,2.943434e+00,2.943435e+00,1
7.770790e-01,2.199120e-01,2.129078e-01,3,0,2.946009e+00,2.946013e+00,1
7.771700e-01,2.216350e-01,2.140999e-01,3,0,3.158371e+00,3.158373e+00,1
7.834830e-01,4.215050e-01,4.141331e-01,3,1,3.444558e+00,3.458881e+00,1
7.836720e-01,3.706120e-01,3.628731e-01,3,1,2.542775e+00,2.542776e+00,1
7.825970e-01,2.147350e-01,2.071857e-01,3,0,2.465111e+00,2.465112e+00,1
7.834970e-01,2.159080e-01,2.071857e-01,3,0,3.193802e+00,3.193804e+00,1
7.818880e-01,4.118260e-01,4.050732e-01,3,1,3.530768e+00,3.530821e+00,1
7.762360e-01,3.774040e-01,3.688335e-01,3,1,2.250885e+00,2.250861e+00,1
7.763600e-01,2.209890e-01,2.129078e-01,3,0,2.172056e+00,2.171848e+00,1
7.765320e-01,2.208830e-01,2.129078e-01,3,0,1.285225e+00,1.285204e+00,1
7.765360e-01,2.207280e-01,2.119541e-01,3,0,1.246174e+00,1.246134e+00,1

