5.562760e-01,2.466977e+02,2.464581e+02,2,1000,0.000000e+00,-1.843144e-18,0
7.919620e-01,8.685443e+00,8.675098e+00,3,43,1.477751e-01,1.477754e-01,1
7.875420e-01,2.159430e-01,2.069473e-01,3,0,2.697547e-01,2.697553e-01,1
7.876770e-01,2.158630e-01,2.067089e-01,3,0,5.751734e-01,5.751744e-01,1
7.875770e-01,2.145230e-01,2.069473e-01,3,0,5.282505e-01,5.282509e-01,1
7.874610e-01,2.147050e-01,2.069473e-01,3,0,2.459757e+00,2.459761e+00,1
7.867240e-01,2.148780e-01,2.079010e-01,3,0,3.443760e+00,3.443762e+00,1
7.875680e-01,2.166850e-01,2.076626e-01,3,0,4.529692e+00,4.529694e+00,1
7.871130e-01,2.150840e-01,2.069473e-01,3,0,2.216738e+00,2.216737e+00,1
7.871460e-01,2.149420e-01,2.057552e-01,3,0,1.963306e+00,1.963307e+00,1
7.874780e-01,2.149020e-01,2.057552e-01,3,0,1.634474e+00,1.634475e+00,1
7.872010e-01,2.149020e-01,2.069473e-01,3,0,1.888457e+00,1.888459e+00,1
7.869130e-01,2.149270e-01,2.069473e-01,3,0,3.113620e+00,3.113623e+00,1
7.870360e-01,2.148120e-01,2.059937e-01,3,0,4.240895e+00,4.240898e+00,1
7.822230e-01,4.148140e-01,4.069805e-01,3,1,3.884715e+00,3.887958e+00,1
7.885120e-01,4.387840e-01,4.301071e-01,3,1,5.420458e+00,5.428553e+00,1
7.886170e-01,4.122630e-01,4.029274e-01,3,1,4.235205e+00,4.235399e+00,1
7.889550e-01,3.724160e-01,3.640652e-01,3,1,3.702471e+00,3.702472e+00,1
7.899820e-01,6.070480e-01,5.989075e-01,3,2,3.546971e+00,3.557237e+00,1
7.878120e-01,2.536940e-01,2.460480e-01,3,0,3.362838e+00,3.374992e+00,1
7.891530e-01,5.994410e-01,5.919933e-01,3,2,3.502663e+00,3.524048e+00,1
7.873440e-01,4.104700e-01,4.019737e-01,3,1,2.920580e+00,2.921994e+00,1
7.809060e-01,2.597260e-01,2.510548e-01,3,0,2.647642e+00,2.654071e+00,1
7.880100e-01,6.048860e-01,5.979538e-01,3,2,2.317108e+00,2.433269e+00,1
7.931110e-01,4.711900e-01,4.630089e-01,3,1,2.280358e+00,2.322225e+00,1
7.868580e-01,2.537270e-01,2.460480e-01,3,0,2.200572e+00,2.200711e+00,1
7.820740e-01,3.708680e-01,3.628731e-01,3,1,1.829212e+00,1.829152e+00,1
7.812800e-01,2.208580e-01,2.119541e-01,3,0,1.319248e+00,1.318786e+00,1
7.802980e-01,2.198630e-01,2.129078e-01,3,0,6.534984e-01,6.535009e-01,1
7.809920e-01,2.193180e-01,2.110004e-01,3,0,5.567998e-01,5.568000e-01,1
7.808010e-01,2.201800e-01,2.110004e-01,3,0,1.120268e+00,1.120270e+00,1
7.808760e-01,2.192180e-01,2.110004e-01,3,0,1.325162e+00,1.325163e+00,1
7.805080e-01,2.199690e-01,2.131462e-01,3,0,1.150528e+00,1.150528e+00,1
7.864200e-01,2.204770e-01,2.117157e-01,3,0,1.774555e+00,1.774557e+00,1
7.867650e-01,2.149970e-01,2.069473e-01,3,0,1.456476e+00,1.456476e+00,1
7.873090e-01,2.140600e-01,2.048016e-01,3,0,1.080970e+00,1.080970e+00,1
7.863040e-01,2.147690e-01,2.069473e-01,3,0,7.962757e-01,7.962763e-01,1
7.867060e-01,2.150120e-01,2.071857e-01,3,0,6.548356e-01,6.548361e-01,1
7.878630e-01,4.136380e-01,4.060268e-01,3,1,1.660106e+00,1.660411e+00,1
7.889870e-01,3.713490e-01,3.640652e-01,3,1,1.837470e+00,1.837471e+00,1
7.887910e-01,7.755660e-01,7.681847e-01,3,3,4.150749e+00,4.239557e+00,1
7.885840e-01,7.427360e-01,7.350445e-01,3,3,5.688163e+00,5.694845e+00,1
7.875410e-01,5.344550e-01,5.271435e-01,3,2,3.619173e+00,3.619169e+00,1
7.888560e-01,4.156930e-01,4.079342e-01,3,1,5.472907e+00,5.473067e+00,1
7.891760e-01,3.729890e-01,3.640652e-01,3,1,4.375941e+00,4.375941e+00,1
7.883920e-01,2.145020e-01,2.069473e-01,3,0,3.528658e+00,3.528658e+00,1
7.876760e-01,2.148130e-01,2.081394e-01,3,0,3.170248e+00,3.170249e+00,1
7.868960e-01,2.153070e-01,2.069473e-01,3,0,2.643302e+00,2.643303e+00,1
7.868960e-01,2.154910e-01,2.081394e-01,3,0,2.127032e+00,2.127032e+00,1
7.869940e-01,2.142850e-01,2.071857e-01,3,0,1.353564e+00,1.353564e+00,1
7.863710e-01,2.136910e-01,2.057552e-01,3,0,1.201780e+00,1.201781e+00,1
7.804570e-01,4.117770e-01,4.038811e-01,3,1,1.935873e+00,1.938873e+00,1
7.878390e-01,3.780770e-01,3.700256e-01,3,1,1.424564e+00,1.424564e+00,1
7.870880e-01,4.139270e-01,4.060268e-01,3,1,1.217132e+00,1.217591e+00,1
7.873560e-01,9.798500e-01,9.720325e-01,3,4,1.612301e+00,1.637165e+00,1
7.877860e-01,4.109940e-01,4.038811e-01,3,1,2.205653e+00,2.234093e+00,1
1.045985e+00,3.716650e-01,3.640652e-01,4,1,1.214929e+00,1.214929e+00,1
7.867820e-01,2.155570e-01,2.069473e-01,3,0,1.850409e+00,1.850411e+00,1
7.816550e-01,2.199590e-01,2.059937e-01,3,0,2.592462e+00,2.592461e+00,1
7.879580e-01,4.130350e-01,4.041195e-01,3,1,3.880669e+00,3.882258e+00,1
7.878400e-01,3.719010e-01,3.631115e-01,3,1,1.751065e+00,1.751069e+00,1
7.897520e-01,4.150890e-01,4.079342e-01,3,1,3.743403e+00,3.798252e+00,1
7.887290e-01,2.014819e+00,2.003908e+00,3,7,7.061598e+00,7.328098e+00,0
7.884700e-01,1.320155e+00,1.312971e+00,3,7,3.868531e+00,3.868520e+00,1
7.885570e-01,1.069229e+00,1.058102e+00,3,2,5.336208e+00,5.750018e+00,0
1.046835e+00,8.760980e-01,8.666515e-01,4,4,2.285561e+00,2.285560e+00,1
7.872340e-01,2.150310e-01,2.059937e-01,3,0,2.476828e+00,2.476827e+00,1
7.868710e-01,2.151940e-01,2.079010e-01,3,0,1.966015e+00,1.966016e+00,1
7.876750e-01,2.141700e-01,2.059937e-01,3,0,1.518141e+00,1.518141e+00,1
7.874990e-01,2.149890e-01,2.081394e-01,3,0,1.185555e+00,1.185556e+00,1
7.882120e-01,2.150430e-01,2.071857e-01,3,0,1.750564e+00,1.750565e+00,1
7.882340e-01,2.153870e-01,2.069473e-01,3,0,1.779765e+00,1.779766e+00,1
7.880220e-01,2.146230e-01,2.069473e-01,3,0,1.799250e+00,1.799251e+00,1
7.876150e-01,4.127270e-01,4.060268e-01,3,1,2.027236e+00,2.028424e+00,1
7.886750e-01,6.216260e-01,6.151199e-01,3,2,2.953748e+00,2.982704e+00,1
7.882400e-01,4.312490e-01,4.229546e-01,3,1,3.972893e+00,4.030506e+00,1
7.882140e-01,9.153830e-01,9.069443e-01,3,4,2.419968e+00,2.463277e+00,1
7.876640e-01,6.258950e-01,6.179810e-01,3,2,2.421935e+00,2.437840e+00,1
7.868470e-01,2.538900e-01,2.470016e-01,3,0,1.788399e+00,1.804446e+00,1
7.810380e-01,3.763960e-01,3.678799e-01,3,1,8.657456e-01,8.657455e-01,1
7.809720e-01,2.200090e-01,2.119541e-01,3,0,2.874666e+00,2.874671e+00,1
7.807750e-01,2.213370e-01,2.119541e-01,3,0,2.140292e+00,2.140292e+00,1
7.812710e-01,2.199190e-01,2.129078e-01,3,0,1.924900e+00,1.924901e+00,1
7.870850e-01,4.202640e-01,4.122257e-01,3,1,1.857077e+00,1.884809e+00,1
7.877670e-01,3.714450e-01,3.628731e-01,3,1,2.627106e+00,2.627111e+00,1
7.874290e-01,4.067640e-01,3.991127e-01,3,1,4.756818e+00,4.760565e+00,1
7.816070e-01,6.286400e-01,6.210804e-01,3,2,7.169829e+00,7.245884e+00,1
7.908010e-01,2.300971e+00,2.289772e+00,3,9,1.051339e+01,1.376895e+01,0
7.891220e-01,1.738087e+00,1.729965e+00,3,9,8.572963e+00,8.894003e+00,1
7.886450e-01,1.070967e+00,1.063108e+00,3,5,6.102340e+00,6.115956e+00,1
7.814950e-01,5.346120e-01,5.271435e-01,3,2,4.694680e+00,4.694680e+00,1
7.815790e-01,2.212930e-01,2.138615e-01,3,0,3.311402e+00,3.311402e+00,1
7.879300e-01,6.030110e-01,5.939007e-01,3,2,4.676176e+00,4.680937e+00,1
7.880730e-01,5.980080e-01,5.898476e-01,3,2,3.504615e+00,3.516836e+00,1
7.883540e-01,7.942250e-01,7.858276e-01,3,3,4.557084e+00,4.644140e+00,1
1.048328e+00,2.092983e+00,2.084970e+00,4,11,5.036996e+00,5.142376e+00,1
1.047430e+00,1.727631e+00,1.719952e+00,4,9,2.185318e+00,2.256323e+00,1
7.870070e-01,3.725490e-01,3.650188e-01,3,1,1.915967e+00,1.915968e+00,1
7.860940e-01,2.146300e-01,2.069473e-01,3,0,2.722432e+00,2.722435e+00,1
7.806110e-01,4.120990e-01,4.038811e-01,3,1,2.949001e+00,2.954722e+00,1
7.802800e-01,3.792910e-01,3.719330e-01,3,1,2.228318e+00,2.228318e+00,1
7.855800e-01,2.197330e-01,2.119541e-01,3,0,2.545234e+00,2.545236e+00,1
7.849430e-01,2.139590e-01,2.052784e-01,3,0,1.502043e+00,1.502044e+00,1
7.862830e-01,2.152040e-01,2.079010e-01,3,0,1.371448e+00,1.371448e+00,1
7.861850e-01,2.150940e-01,2.079010e-01,3,0,1.136427e+00,1.136427e+00,1
7.866510e-01,2.151560e-01,2.069473e-01,3,0,1.174077e+00,1.174078e+00,1
7.865520e-01,4.145590e-01,4.062653e-01,3,1,1.642144e+00,1.642347e+00,1
7.873610e-01,5.723610e-01,5.631447e-01,3,2,1.794969e+00,1.799210e+00,1
7.863620e-01,4.745290e-01,4.658699e-01,3,1,1.165205e+00,1.168311e+00,1
7.868100e-01,8.108850e-01,8.029938e-01,3,3,1.172119e+00,1.225554e+00,1
7.866170e-01,2.541360e-01,2.470016e-01,3,0,1.083212e+00,1.105672e+00,1
7.839810e-01,2.530210e-01,2.450943e-01,3,0,8.886640e-01,8.886668e-01,1
7.806440e-01,3.783600e-01,3.700256e-01,3,1,6.353263e-01,6.353264e-01,1
7.805670e-01,2.199520e-01,2.119541e-01,3,0,1.101719e+00,1.101720e+00,1
7.858570e-01,2.151170e-01,2.081394e-01,3,0,5.897289e-01,5.897290e-01,1
7.862740e-01,2.145020e-01,2.069473e-01,3,0,6.727555e-01,6.727560e-01,1
7.864990e-01,2.155870e-01,2.079010e-01,3,0,1.712291e+00,1.712294e+00,1
7.862250e-01,2.156400e-01,2.088547e-01,3,0,1.244475e+00,1.244475e+00,1
7.876360e-01,4.132110e-01,4.048347e-01,3,1,3.965856e+00,3.971743e+00,1
7.892320e-01,5.722560e-01,5.629063e-01,3,2,2.759459e+00,2.801875e+00,1
7.799570e-01,2.651540e-01,2.551079e-01,3,0,2.685961e+00,2.877987e+00,1
7.872070e-01,4.760490e-01,4.680157e-01,3,1,3.361085e+00,3.472358e+00,1
7.881270e-01,3.720290e-01,3.640652e-01,3,1,3.043491e+00,3.043491e+00,1
7.871910e-01,2.151280e-01,2.071857e-01,3,0,3.359707e+00,3.359709e+00,1
7.869750e-01,1.074398e+00,1.063108e+00,3,2,5.926757e+00,6.852260e+00,0
7.807060e-01,9.197730e-01,9.119511e-01,3,4,3.879667e+00,3.879931e+00,1
7.873800e-01,4.176390e-01,4.091263e-01,3,1,2.958350e+00,2.958369e+00,1
7.864060e-01,5.708570e-01,5.631447e-01,3,2,2.584689e+00,2.590235e+00,1
1.048871e+00,3.720640e-01,3.638268e-01,4,1,1.524175e+00,1.524177e+00,1
7.865500e-01,2.153920e-01,2.071857e-01,3,0,1.693966e+00,1.693958e+00,1
7.851870e-01,2.144110e-01,2.069473e-01,3,0,1.059656e+00,1.059657e+00,1
7.865270e-01,2.143540e-01,2.059937e-01,3,0,1.377541e+00,1.377543e+00,1
7.873560e-01,2.140300e-01,2.059937e-01,3,0,6.229854e-01,6.229856e-01,1
7.861550e-01,2.146090e-01,2.059937e-01,3,0,5.073364e-01,5.073367e-01,1
7.864330e-01,2.141710e-01,2.048016e-01,3,0,5.285171e-01,5.285175e-01,1
7.867450e-01,4.158770e-01,4.088879e-01,3,1,1.134791e+00,1.144313e+00,1
7.803280e-01,5.932310e-01,5.841255e-01,3,2,1.174135e+00,1.174136e+00,1
7.797000e-01,2.200580e-01,2.119541e-01,3,0,9.917023e-01,9.917025e-01,1
7.800570e-01,2.217270e-01,2.138615e-01,3,0,1.082230e+00,1.082231e+00,1
7.806560e-01,2.208120e-01,2.119541e-01,3,0,9.188136e-01,9.188141e-01,1
7.802920e-01,2.204860e-01,2.119541e-01,3,0,1.703315e+00,1.703317e+00,1
7.875820e-01,4.193310e-01,4.119873e-01,3,1,2.887266e+00,2.888965e+00,1
7.868580e-01,6.060060e-01,5.981922e-01,3,2,3.270435e+00,3.317183e+00,1
1.045280e+00,6.328760e-01,6.239414e-01,4,2,2.575823e+00,2.650428e+00,1
7.862900e-01,4.396690e-01,4.320145e-01,3,1,2.284671e+00,2.377443e+00,1
7.811360e-01,6.316920e-01,6.239414e-01,3,2,2.114043e+00,2.262669e+00,1
7.870340e-01,4.161410e-01,4.088879e-01,3,1,1.525459e+00,1.651589e+00,1
7.862000e-01,2.538100e-01,2.470016e-01,3,0,1.312818e+00,1.323701e+00,1
7.870350e-01,3.730200e-01,3.652573e-01,3,1,2.265458e+00,2.265462e+00,1
7.866750e-01,2.152180e-01,2.081394e-01,3,0,3.244754e+00,3.244757e+00,1
7.860850e-01,2.144620e-01,2.071857e-01,3,0,1.985182e+00,1.985181e+00,1
7.865340e-01,2.150670e-01,2.079010e-01,3,0,1.886946e+00,1.886947e+00,1
7.867470e-01,2.146030e-01,2.069473e-01,3,0,1.696303e+00,1.696304e+00,1
7.862440e-01,2.147770e-01,2.069473e-01,3,0,1.557803e+00,1.557803e+00,1
7.848050e-01,2.148790e-01,2.081394e-01,3,0,1.282779e+00,1.282780e+00,1
7.809480e-01,4.221400e-01,4.138947e-01,3,1,1.440062e+00,1.440373e+00,1
7.866810e-01,3.779730e-01,3.697872e-01,3,1,2.354947e+00,2.354950e+00,1
7.858810e-01,2.144040e-01,2.069473e-01,3,0,2.261473e+00,2.261473e+00,1
7.867930e-01,2.150920e-01,2.079010e-01,3,0,2.397506e+00,2.397507e+00,1
7.888530e-01,2.151590e-01,2.069473e-01,3,0,2.726403e+00,2.726406e+00,1
7.874080e-01,2.141200e-01,2.069473e-01,3,0,1.245363e+00,1.245363e+00,1
7.873160e-01,2.143870e-01,2.069473e-01,3,0,9.887013e-01,9.887019e-01,1
7.866840e-01,2.145010e-01,2.059937e-01,3,0,1.044758e+00,1.044759e+00,1
7.861370e-01,2.142370e-01,2.059937e-01,3,0,4.640929e-01,4.640938e-01,1
7.858660e-01,2.142430e-01,2.069473e-01,3,0,4.688404e-01,4.688407e-01,1
7.861100e-01,2.148710e-01,2.059937e-01,3,0,8.076118e-01,8.076128e-01,1
7.857280e-01,2.136840e-01,2.059937e-01,3,0,6.890079e-01,6.890080e-01,1
7.868990e-01,2.157040e-01,2.079010e-01,3,0,1.878360e+00,1.878364e+00,1
7.866670e-01,2.154210e-01,2.059937e-01,3,0,1.407735e+00,1.407737e+00,1
7.870120e-01,2.144690e-01,2.057552e-01,3,0,9.991587e-01,9.991590e-01,1
7.864360e-01,4.141390e-01,4.060268e-01,3,1,8.932517e-01,8.941772e-01,1
7.802780e-01,3.772460e-01,3.688335e-01,3,1,9.106466e-01,9.106471e-01,1
7.810300e-01,2.244680e-01,2.150536e-01,3,0,9.353766e-01,9.353773e-01,1
7.799680e-01,2.211300e-01,2.140999e-01,3,0,5.963682e-01,5.963684e-01,1
7.802390e-01,2.209690e-01,2.129078e-01,3,0,6.619421e-01,6.619430e-01,1
7.803290e-01,2.259200e-01,2.191067e-01,3,0,5.469526e-01,5.469532e-01,1
7.802990e-01,2.194730e-01,2.110004e-01,3,0,4.720932e-01,4.720936e-01,1
7.852490e-01,2.155650e-01,2.079010e-01,3,0,1.262910e+00,1.262913e+00,1
7.857990e-01,2.145790e-01,2.069473e-01,3,0,8.033939e-01,8.033948e-01,1
7.872050e-01,4.158760e-01,4.091263e-01,3,1,1.262700e+00,1.263467e+00,1
7.867520e-01,4.407520e-01,4.320145e-01,3,1,2.039534e+00,2.050020e+00,1
7.810410e-01,4.739970e-01,4.649162e-01,3,1,1.740741e+00,1.780507e+00,1
7.870070e-01,4.732580e-01,4.661083e-01,3,1,1.973091e+00,1.989840e+00,1
7.869530e-01,5.970260e-01,5.888939e-01,3,2,1.397186e+00,1.441107e+00,1
7.865940e-01,4.110760e-01,4.038811e-01,3,1,1.389499e+00,1.410118e+00,1
7.873580e-01,4.760040e-01,4.680157e-01,3,1,1.588936e+00,1.621988e+00,1
7.867110e-01,2.536030e-01,2.460480e-01,3,0,3.464564e+00,3.476235e+00,1
7.881830e-01,3.723310e-01,3.650188e-01,3,1,4.592461e+00,4.592464e+00,1
7.858590e-01,2.153750e-01,2.071857e-01,3,0,4.075414e+00,4.075414e+00,1
7.868720e-01,2.140300e-01,2.059937e-01,3,0,3.306959e+00,3.306960e+00,1
7.868280e-01,2.148420e-01,2.079010e-01,3,0,3.037190e+00,3.037191e+00,1
7.863410e-01,2.154470e-01,2.079010e-01,3,0,2.082030e+00,2.082030e+00,1
7.869540e-01,2.148310e-01,2.079010e-01,3,0,2.064062e+00,2.064063e+00,1
7.811830e-01,5.864450e-01,5.779266e-01,3,2,2.031354e+00,2.031201e+00,1
1.045500e+00,5.360900e-01,5.278587e-01,4,2,1.582963e+00,1.582963e+00,1
7.812410e-01,6.372330e-01,6.277561e-01,3,2,1.397065e+00,1.404070e+00,1
7.869360e-01,8.169860e-01,8.080006e-01,3,3,2.794303e+00,2.939548e+00,1
1.303655e+00,8.069550e-01,7.989407e-01,5,3,5.814700e+00,5.853380e+00,1
1.566843e+00,8.939520e-01,8.859634e-01,6,4,6.067264e+00,6.046262e+00,1
1.302471e+00,4.131840e-01,4.057884e-01,5,1,6.359437e+00,6.358846e+00,1
1.045931e+00,4.241610e-01,4.169941e-01,4,1,7.386813e+00,7.395420e+00,1
1.304222e+00,9.632090e-01,9.539127e-01,5,4,1.049895e+01,1.058962e+01,1
7.877560e-01,8.492340e-01,8.409023e-01,3,4,6.789607e+00,6.789584e+00,1
7.870750e-01,4.163040e-01,4.067421e-01,3,1,8.302639e+00,8.305092e+00,1
7.855870e-01,3.718940e-01,3.638268e-01,3,1,6.378506e+00,6.378505e+00,1
7.806390e-01,2.203020e-01,2.110004e-01,3,0,5.885419e+00,5.885400e+00,1
7.870340e-01,4.182460e-01,4.100800e-01,3,1,4.120540e+00,4.123720e+00,1
7.881360e-01,1.244641e+00,1.231909e+00,3,3,5.102275e+00,5.337154e+00,0
7.877440e-01,4.118240e-01,4.050732e-01,3,1,3.483355e+00,3.504124e+00,1
7.870740e-01,1.460362e+00,1.452923e+00,3,7,4.505625e+00,4.629853e+00,1
1.046302e+00,1.668313e+00,1.661062e+00,4,9,1.476639e+00,1.476892e+00,1
7.864190e-01,2.552090e-01,2.460480e-01,3,0,1.749115e+00,1.788277e+00,1
7.871360e-01,3.719890e-01,3.640652e-01,3,1,3.253409e+00,3.253414e+00,1
7.852950e-01,2.161540e-01,2.076626e-01,3,0,2.445909e+00,2.445909e+00,1
7.809600e-01,4.217590e-01,4.138947e-01,3,1,3.937491e+00,3.959709e+00,1
7.809640e-01,2.607600e-01,2.529621e-01,3,0,3.508867e+00,3.508906e+00,1
7.806690e-01,1.071493e+00,1.060009e+00,3,2,6.102961e+00,6.200395e+00,0
1.044034e+00,6.669270e-01,6.589890e-01,4,3,3.111345e+00,3.111343e+00,1
7.861920e-01,2.153520e-01,2.059937e-01,3,0,2.559139e+00,2.559139e+00,1
7.863320e-01,2.153490e-01,2.069473e-01,3,0,2.030544e+00,2.030545e+00,1
7.862240e-01,2.149590e-01,2.059937e-01,3,0,2.029548e+00,2.029549e+00,1
7.859900e-01,2.158560e-01,2.071857e-01,3,0,2.181584e+00,2.181585e+00,1
7.811260e-01,4.223060e-01,4.150867e-01,3,1,3.319721e+00,3.321892e+00,1
7.879750e-01,3.793850e-01,3.712177e-01,3,1,1.511241e+00,1.511238e+00,1
7.869750e-01,2.152470e-01,2.059937e-01,3,0,1.011055e+00,1.011055e+00,1
7.867430e-01,2.154020e-01,2.079010e-01,3,0,1.167476e+00,1.167477e+00,1
7.864910e-01,2.157590e-01,2.079010e-01,3,0,1.131952e+00,1.131953e+00,1
7.869060e-01,2.148830e-01,2.069473e-01,3,0,8.765723e-01,8.765724e-01,1
7.863390e-01,2.145010e-01,2.071857e-01,3,0,1.412698e+00,1.412701e+00,1
7.860640e-01,2.148720e-01,2.081394e-01,3,0,2.056964e+00,2.056966e+00,1
7.864890e-01,2.154900e-01,2.067089e-01,3,0,3.116109e+00,3.116112e+00,1
7.863420e-01,5.951640e-01,5.860329e-01,3,2,6.740493e+00,6.745076e+00,1
7.870130e-01,9.929680e-01,9.849072e-01,3,4,8.750713e+00,8.803520e+00,1
7.814210e-01,1.575861e+00,1.569033e+00,3,8,5.960113e+00,5.968440e+00,1
7.802460e-01,2.608090e-01,2.529621e-01,3,0,7.358279e+00,7.385679e+00,1
7.866530e-01,6.040350e-01,5.970001e-01,3,2,5.301867e+00,5.308961e+00,1
7.857380e-01,4.129760e-01,4.050732e-01,3,1,4.201623e+00,4.203380e+00,1
7.865440e-01,6.048440e-01,5.960464e-01,3,2,4.668147e+00,4.696684e+00,1
7.863350e-01,3.722770e-01,3.628731e-01,3,1,2.559425e+00,2.559422e+00,1
7.861410e-01,2.150100e-01,2.059937e-01,3,0,1.912133e+00,1.912137e+00,1
7.865350e-01,2.149400e-01,2.069473e-01,3,0,1.470410e+00,1.470411e+00,1
7.862240e-01,2.145250e-01,2.069473e-01,3,0,1.392732e+00,1.392733e+00,1
7.871590e-01,2.151400e-01,2.071857e-01,3,0,1.343528e+00,1.343529e+00,1
7.862140e-01,2.150260e-01,2.069473e-01,3,0,2.104442e+00,2.104444e+00,1
7.871560e-01,2.148460e-01,2.069473e-01,3,0,7.177930e-01,7.177924e-01,1
7.875190e-01,2.151120e-01,2.057552e-01,3,0,2.874755e+00,2.874762e+00,1
7.876340e-01,7.927420e-01,7.848740e-01,3,3,6.304743e+00,6.404735e+00,1
7.873390e-01,6.866610e-01,6.790161e-01,3,3,3.721556e+00,3.721512e+00,1
7.865240e-01,2.155440e-01,2.071857e-01,3,0,2.658603e+00,2.658603e+00,1
7.867420e-01,2.153990e-01,2.071857e-01,3,0,2.180672e+00,2.180673e+00,1
7.867270e-01,2.149310e-01,2.069473e-01,3,0,1.855125e+00,1.855126e+00,1
7.865240e-01,2.156870e-01,2.069473e-01,3,0,1.736404e+00,1.736405e+00,1
7.899210e-01,2.149150e-01,2.069473e-01,3,0,2.910387e+00,2.910391e+00,1
7.805230e-01,4.186560e-01,4.110336e-01,3,1,2.265315e+00,2.265337e+00,1
7.806580e-01,2.605300e-01,2.529621e-01,3,0,1.629329e+00,1.629336e+00,1
7.865930e-01,3.786810e-01,3.700256e-01,3,1,1.821676e+00,1.821677e+00,1
7.871700e-01,6.002350e-01,5.919933e-01,3,2,3.123181e+00,3.154689e+00,1
7.868370e-01,2.545720e-01,2.470016e-01,3,0,5.047766e+00,5.104388e+00,1
7.817090e-01,1.321375e+00,1.312971e+00,3,6,9.141304e+00,9.303219e+00,1
1.048878e+00,1.623777e+00,1.616001e+00,4,8,1.117011e+01,1.160567e+01,1
7.887810e-01,1.766823e+00,1.753807e+00,3,6,1.009095e+01,1.105260e+01,0
7.891920e-01,2.438776e+00,2.428055e+00,3,10,1.058302e+01,1.129736e+01,0
7.820750e-01,1.763774e+00,1.755238e+00,3,9,8.923972e+00,8.999852e+00,1
7.876540e-01,9.093620e-01,9.009838e-01,3,4,9.367430e+00,9.444522e+00,1
7.873170e-01,2.552360e-01,2.479553e-01,3,0,9.324215e+00,9.379099e+00,1
7.818040e-01,1.295075e+00,1.288176e+00,3,6,7.680179e+00,7.708571e+00,1
7.888170e-01,7.653070e-01,7.560253e-01,3,3,6.624371e+00,6.672389e+00,1
7.801900e-01,6.092580e-01,6.020069e-01,3,2,5.080024e+00,5.080126e+00,1
7.880460e-01,6.027450e-01,5.960464e-01,3,2,4.652110e+00,4.659974e+00,1
7.873140e-01,1.149988e+00,1.142025e+00,3,5,4.714276e+00,4.748794e+00,1
1.563120e+00,1.982355e+00,1.975060e+00,6,10,6.101089e+00,6.448312e+00,1
1.565653e+00,1.059305e+00,1.046181e+00,6,2,1.135291e+01,1.823608e+01,0
1.561151e+00,7.119670e-01,7.002354e-01,6,0,1.286436e+01,1.868269e+01,0
1.564478e+00,7.095200e-01,6.980896e-01,6,0,1.464135e+01,1.634294e+01,0
1.307632e+00,7.027460e-01,6.909370e-01,5,0,1.295802e+01,1.036279e+01,0
1.044765e+00,7.027010e-01,6.921291e-01,4,0,1.319905e+01,1.017760e+01,0
1.303794e+00,7.094970e-01,7.002354e-01,5,0,1.619020e+01,1.556068e+01,0
1.048600e+00,4.770848e+00,4.760027e+00,4,24,1.507478e+01,1.794082e+01,0
1.046816e+00,1.549711e+00,1.539230e+00,4,5,1.252192e+01,1.474802e+01,0
7.820010e-01,2.752740e+00,2.741814e+00,3,12,1.068193e+01,1.109767e+01,0
7.890440e-01,1.758269e+00,1.749992e+00,3,9,9.375000e+00,9.425519e+00,1
7.886490e-01,1.222757e+00,1.211166e+00,3,3,7.960185e+00,8.355074e+00,0
7.876460e-01,7.212210e-01,7.112026e-01,3,0,7.132835e+00,8.591097e+00,0
7.815280e-01,1.886815e+00,1.876116e+00,3,7,7.279126e+00,1.166721e+01,0
1.045684e+00,7.539980e-01,7.441044e-01,4,1,4.157511e+00,4.165330e+00,0
7.866880e-01,2.157780e-01,2.081394e-01,3,0,3.598931e+00,3.598909e+00,1
7.865500e-01,5.948680e-01,5.841255e-01,3,0,3.904977e+00,6.038164e+00,0
1.303279e+00,4.143370e-01,4.060268e-01,5,1,2.784785e+00,2.786234e+00,1
7.868500e-01,9.282100e-01,9.210110e-01,3,4,2.346019e+00,2.352452e+00,1
1.045094e+00,6.944030e-01,6.871223e-01,4,3,1.932852e+00,1.932678e+00,1
7.858480e-01,2.157620e-01,2.079010e-01,3,0,1.237885e+00,1.237847e+00,1
7.876010e-01,2.148010e-01,2.069473e-01,3,0,7.578909e-01,7.578935e-01,1
7.858240e-01,2.155980e-01,2.079010e-01,3,0,5.986300e-01,5.986311e-01,1
7.866090e-01,2.154960e-01,2.069473e-01,3,0,8.249606e-01,8.249615e-01,1
7.866720e-01,2.152150e-01,2.071857e-01,3,0,1.063487e+00,1.063489e+00,1
7.876510e-01,2.148900e-01,2.071857e-01,3,0,7.600052e-01,7.600053e-01,1
7.864930e-01,2.155350e-01,2.081394e-01,3,0,7.740733e-01,7.740748e-01,1
7.863720e-01,4.166350e-01,4.091263e-01,3,1,2.118585e+00,2.123219e+00,1
7.868510e-01,6.339330e-01,6.260872e-01,3,2,4.703750e+00,4.743935e+00,1
7.871740e-01,1.029863e+00,1.022100e+00,3,4,6.371638e+00,6.414147e+00,1
7.872610e-01,5.975920e-01,5.891323e-01,3,2,5.376119e+00,5.500410e+00,1
7.873630e-01,8.168970e-01,8.089542e-01,3,3,5.760829e+00,5.831103e+00,1
7.864400e-01,5.971430e-01,5.900860e-01,3,2,5.636319e+00,5.700103e+00,1
7.860220e-01,4.123200e-01,4.048347e-01,3,1,4.992246e+00,5.028665e+00,1
7.883990e-01,7.596960e-01,7.510185e-01,3,3,3.945144e+00,3.993454e+00,1
7.866500e-01,2.557570e-01,2.481937e-01,3,0,3.906544e+00,3.912073e+00,1
7.822650e-01,1.680534e+00,1.672983e+00,3,8,7.055665e+00,7.208118e+00,1
1.050075e+00,2.100805e+00,2.088308e+00,4,8,9.262721e+00,9.954340e+00,0
1.567176e+00,7.144720e-01,7.040501e-01,6,0,1.101488e+01,1.636484e+01,0
1.303251e+00,7.192210e-01,7.076263e-01,5,0,9.082830e+00,1.280962e+01,0
1.309909e+00,3.315761e+00,3.307104e+00,5,18,6.961363e+00,7.117433e+00,1
1.046226e+00,1.416182e+00,1.407862e+00,4,7,5.172029e+00,5.250534e+00,1
7.878170e-01,7.593920e-01,7.510185e-01,3,3,4.140247e+00,4.293844e+00,1
7.891970e-01,1.372910e+00,1.363993e+00,3,6,5.307000e+00,5.575239e+00,1
7.890360e-01,1.090340e+00,1.081944e+00,3,5,5.291941e+00,5.472298e+00,1
7.881660e-01,1.566690e+00,1.559019e+00,3,8,4.015618e+00,4.077974e+00,1
1.044909e+00,1.270103e+00,1.261950e+00,4,6,3.969793e+00,3.970956e+00,1
1.564718e+00,8.247100e-01,8.161068e-01,6,4,4.787301e+00,4.762144e+00,1
1.564933e+00,5.449410e-01,5.369186e-01,6,2,5.275127e+00,5.261678e+00,1
1.046195e+00,5.385630e-01,5.309582e-01,4,2,6.418349e+00,6.418354e+00,1
7.870180e-01,2.157800e-01,2.079010e-01,3,0,5.004629e+00,5.004628e+00,1
7.876030e-01,4.145260e-01,4.069805e-01,3,1,6.693354e+00,6.737448e+00,1
7.815200e-01,6.296710e-01,6.210804e-01,3,2,6.643806e+00,6.706269e+00,1
7.868500e-01,7.617800e-01,7.538795e-01,3,3,5.565141e+00,5.565425e+00,1
7.869500e-01,5.298810e-01,5.221367e-01,3,2,4.571018e+00,4.571018e+00,1
7.892480e-01,1.655887e+00,1.648188e+00,3,8,4.690842e+00,4.705233e+00,1
7.888610e-01,1.472000e+00,1.465082e+00,3,7,4.670039e+00,4.740641e+00,1
1.308309e+00,1.230601e+00,1.220942e+00,5,6,3.520077e+00,3.538576e+00,1
1.567320e+00,4.144650e-01,4.060268e-01,6,1,3.492198e+00,3.511306e+00,1
1.045924e+00,4.128920e-01,4.060268e-01,4,1,2.318386e+00,2.322394e+00,1
7.812920e-01,5.783770e-01,5.710125e-01,3,2,1.877163e+00,1.890549e+00,1
7.866200e-01,2.599480e-01,2.529621e-01,3,0,1.134988e+00,1.137731e+00,1
7.868720e-01,3.725580e-01,3.650188e-01,3,1,7.149030e-01,7.149034e-01,1
7.863840e-01,2.143200e-01,2.069473e-01,3,0,4.305170e-01,4.305171e-01,1
7.859200e-01,2.161730e-01,2.081394e-01,3,0,8.423595e-01,8.423612e-01,1
7.870550e-01,2.148710e-01,2.062321e-01,3,0,4.883783e-01,4.883785e-01,1
7.869130e-01,2.145990e-01,2.069473e-01,3,0,4.539481e-01,4.539488e-01,1
7.870950e-01,2.147140e-01,2.069473e-01,3,0,2.837925e-01,2.837929e-01,1
7.871070e-01,2.149190e-01,2.069473e-01,3,0,3.137920e-01,3.137924e-01,1
7.871490e-01,2.141870e-01,2.069473e-01,3,0,2.700686e-01,2.700689e-01,1
7.869230e-01,2.148930e-01,2.067089e-01,3,0,6.614335e-01,6.614346e-01,1
7.877240e-01,2.153340e-01,2.079010e-01,3,0,5.131234e-01,5.131241e-01,1
7.869090e-01,2.151070e-01,2.067089e-01,3,0,4.811902e-01,4.811919e-01,1
7.870290e-01,2.148780e-01,2.067089e-01,3,0,9.972128e-01,9.972144e-01,1
7.870260e-01,2.149690e-01,2.079010e-01,3,0,5.504026e-01,5.504024e-01,1
7.860720e-01,2.147010e-01,2.069473e-01,3,0,7.856635e-01,7.856643e-01,1
7.905190e-01,2.157080e-01,2.071857e-01,3,0,8.021382e-01,8.021387e-01,1
7.863740e-01,2.148410e-01,2.081394e-01,3,0,1.366197e+00,1.366199e+00,1
7.868420e-01,2.151420e-01,2.069473e-01,3,0,1.043040e+00,1.043040e+00,1
7.861520e-01,2.149780e-01,2.069473e-01,3,0,6.769789e-01,6.769789e-01,1
7.858820e-01,2.148620e-01,2.057552e-01,3,0,4.991544e-01,4.991550e-01,1
7.847200e-01,2.149970e-01,2.069473e-01,3,0,6.798405e-01,6.798413e-01,1
7.810940e-01,2.141640e-01,2.069473e-01,3,0,6.270691e-01,6.270693e-01,1
7.802570e-01,2.207370e-01,2.129078e-01,3,0,5.073503e-01,5.073505e-01,1
7.803180e-01,2.216550e-01,2.129078e-01,3,0,8.943777e-01,8.943789e-01,1
7.801590e-01,2.208980e-01,2.140999e-01,3,0,6.805199e-01,6.805204e-01,1
7.882890e-01,4.235430e-01,4.160404e-01,3,1,1.012277e+00,1.012335e+00,1
7.877880e-01,4.718870e-01,4.651546e-01,3,1,1.796149e+00,1.874364e+00,1
7.877670e-01,2.544280e-01,2.470016e-01,3,0,1.574355e+00,1.594197e+00,1
7.869000e-01,3.725890e-01,3.638268e-01,3,1,1.390542e+00,1.390543e+00,1
7.868170e-01,2.156120e-01,2.081394e-01,3,0,3.171552e+00,3.171556e+00,1
7.863530e-01,2.161070e-01,2.069473e-01,3,0,3.876013e+00,3.876010e+00,1
8.202030e-01,2.154690e-01,2.071857e-01,3,0,2.218522e+00,2.218520e+00,1
7.798590e-01,2.226620e-01,2.136230e-01,3,0,1.662187e+00,1.662186e+00,1
7.799280e-01,2.205120e-01,2.129078e-01,3,0,1.263089e+00,1.263089e+00,1
7.802060e-01,2.204390e-01,2.121925e-01,3,0,8.519731e-01,8.519732e-01,1
7.795230e-01,2.203470e-01,2.119541e-01,3,0,7.455627e-01,7.455631e-01,1
7.811910e-01,2.211520e-01,2.138615e-01,3,0,1.072886e+00,1.072887e+00,1
7.807530e-01,2.215580e-01,2.131462e-01,3,0,1.035071e+00,1.035072e+00,1
7.800780e-01,2.203550e-01,2.131462e-01,3,0,5.051728e-01,5.051738e-01,1
7.861350e-01,2.197960e-01,2.069473e-01,3,0,1.366075e+00,1.366078e+00,1
7.861250e-01,2.147330e-01,2.069473e-01,3,0,7.684837e-01,7.684836e-01,1
7.855080e-01,2.144110e-01,2.059937e-01,3,0,6.926982e-01,6.926988e-01,1
7.846800e-01,2.147240e-01,2.069473e-01,3,0,9.510765e-01,9.510777e-01,1
7.863810e-01,2.149660e-01,2.069473e-01,3,0,7.843147e-01,7.843150e-01,1
7.863480e-01,2.144010e-01,2.071857e-01,3,0,9.241724e-01,9.241731e-01,1
7.875480e-01,2.145460e-01,2.069473e-01,3,0,1.174144e+00,1.174145e+00,1
7.871370e-01,2.151630e-01,2.079010e-01,3,0,9.244205e-01,9.244212e-01,1
7.867690e-01,2.146580e-01,2.069473e-01,3,0,9.614435e-01,9.614449e-01,1
7.869300e-01,2.147920e-01,2.079010e-01,3,0,1.197063e+00,1.197060e+00,1
7.860700e-01,2.155230e-01,2.069473e-01,3,0,1.465391e+00,1.465387e+00,1
7.858990e-01,2.155880e-01,2.090931e-01,3,0,2.193731e+00,2.193734e+00,1
7.867160e-01,2.147610e-01,2.059937e-01,3,0,1.517709e+00,1.517709e+00,1
7.862950e-01,2.144400e-01,2.069473e-01,3,0,1.427008e+00,1.427010e+00,1
7.863140e-01,2.152840e-01,2.059937e-01,3,0,1.394852e+00,1.394853e+00,1
7.855410e-01,2.150130e-01,2.079010e-01,3,0,1.524729e+00,1.524730e+00,1
7.875360e-01,2.149590e-01,2.059937e-01,3,0,1.267355e+00,1.267355e+00,1
7.884480e-01,7.707290e-01,7.629395e-01,3,3,2.152223e+00,2.170430e+00,1
1.045385e+00,9.800010e-01,9.717941e-01,4,4,1.631715e+00,1.656249e+00,1
7.876430e-01,2.540320e-01,2.470016e-01,3,0,1.541825e+00,1.565690e+00,1
7.805940e-01,8.184560e-01,8.111000e-01,3,3,1.512230e+00,1.546144e+00,1
7.862020e-01,4.765200e-01,4.689693e-01,3,1,1.368450e+00,1.542714e+00,1
7.887100e-01,6.257860e-01,6.177425e-01,3,2,9.764712e-01,1.031068e+00,1
7.808650e-01,4.749420e-01,4.661083e-01,3,1,1.184139e+00,1.217280e+00,1
7.864460e-01,5.946910e-01,5.869865e-01,3,2,1.333735e+00,1.333736e+00,1
7.863890e-01,2.150260e-01,2.081394e-01,3,0,9.206006e-01,9.206008e-01,1
7.863670e-01,2.148420e-01,2.062321e-01,3,0,1.716627e+00,1.716629e+00,1
7.878220e-01,2.150330e-01,2.079010e-01,3,0,1.214090e+00,1.214090e+00,1
7.873490e-01,2.152620e-01,2.069473e-01,3,0,1.096866e+00,1.096867e+00,1
7.864930e-01,2.145780e-01,2.069473e-01,3,0,9.923311e-01,9.923314e-01,1
7.860050e-01,2.139990e-01,2.050400e-01,3,0,7.774961e-01,7.774974e-01,1
7.874150e-01,2.145980e-01,2.081394e-01,3,0,5.710486e-01,5.710491e-01,1
7.860530e-01,2.146580e-01,2.069473e-01,3,0,1.121347e+00,1.121349e+00,1
7.869260e-01,2.143360e-01,2.069473e-01,3,0,9.649002e-01,9.649008e-01,1
7.868240e-01,2.147280e-01,2.059937e-01,3,0,9.757279e-01,9.757291e-01,1
7.857720e-01,2.144140e-01,2.071857e-01,3,0,9.184279e-01,9.184282e-01,1
7.856600e-01,2.147440e-01,2.069473e-01,3,0,7.198569e-01,7.198575e-01,1
7.866750e-01,2.144230e-01,2.069473e-01,3,0,8.669969e-01,8.669975e-01,1
7.866060e-01,2.147300e-01,2.062321e-01,3,0,6.692728e-01,6.692730e-01,1
7.860230e-01,2.144800e-01,2.069473e-01,3,0,2.812092e+00,2.812025e+00,1
7.888690e-01,6.052960e-01,5.970001e-01,3,2,6.252122e+00,6.250521e+00,1
1.049433e+00,8.735810e-01,8.652210e-01,4,4,4.778860e+00,4.778860e+00,1
7.878260e-01,2.151950e-01,2.071857e-01,3,0,3.421406e+00,3.421405e+00,1
7.870020e-01,2.142590e-01,2.069473e-01,3,0,2.483568e+00,2.483568e+00,1
7.874950e-01,2.154830e-01,2.069473e-01,3,0,2.719384e+00,2.719386e+00,1
7.871960e-01,2.153560e-01,2.079010e-01,3,0,2.138911e+00,2.138911e+00,1
7.875990e-01,2.151710e-01,2.079010e-01,3,0,2.075938e+00,2.075939e+00,1
7.871360e-01,2.149050e-01,2.057552e-01,3,0,2.464893e+00,2.464896e+00,1
7.859940e-01,2.155860e-01,2.067089e-01,3,0,2.778302e+00,2.778304e+00,1
7.860740e-01,2.148560e-01,2.069473e-01,3,0,2.534843e+00,2.534843e+00,1
7.896720e-01,4.139870e-01,4.069805e-01,3,1,2.713012e+00,2.713670e+00,1
7.882120e-01,3.732000e-01,3.659725e-01,3,1,3.638477e+00,3.638480e+00,1
7.867450e-01,2.153860e-01,2.071857e-01,3,0,2.717860e+00,2.717857e+00,1
7.848530e-01,2.150460e-01,2.081394e-01,3,0,1.865109e+00,1.865108e+00,1
7.870240e-01,2.150320e-01,2.079010e-01,3,0,1.118547e+00,1.118547e+00,1
7.798570e-01,2.195570e-01,2.119541e-01,3,0,7.524168e-01,7.524169e-01,1
7.800770e-01,2.198520e-01,2.129078e-01,3,0,5.861015e-01,5.861019e-01,1
7.799930e-01,2.212050e-01,2.138615e-01,3,0,8.102396e-01,8.102407e-01,1
7.799280e-01,2.210770e-01,2.131462e-01,3,0,5.755474e-01,5.755475e-01,1
7.798700e-01,2.194820e-01,2.119541e-01,3,0,9.391565e-01,9.391577e-01,1
7.799840e-01,2.201580e-01,2.121925e-01,3,0,9.928145e-01,9.928150e-01,1
7.891230e-01,4.210740e-01,4.138947e-01,3,1,9.225296e-01,9.228622e-01,1
7.917780e-01,4.692940e-01,4.618168e-01,3,1,1.185544e+00,1.189099e+00,1
7.879680e-01,3.714720e-01,3.628731e-01,3,1,6.645029e-01,6.645028e-01,1
7.853570e-01,2.152230e-01,2.071857e-01,3,0,5.330671e-01,5.330675e-01,1
7.861400e-01,2.142840e-01,2.069473e-01,3,0,2.707671e+00,2.707678e+00,1
7.861220e-01,2.150080e-01,2.071857e-01,3,0,2.841113e+00,2.841114e+00,1
7.877350e-01,2.152420e-01,2.081394e-01,3,0,1.376632e+00,1.376631e+00,1
7.803390e-01,2.155000e-01,2.071857e-01,3,0,1.368063e+00,1.368064e+00,1
7.801520e-01,2.214800e-01,2.150536e-01,3,0,1.202553e+00,1.202554e+00,1
7.866040e-01,4.221070e-01,4.141331e-01,3,1,1.297007e+00,1.297244e+00,1
7.869330e-01,3.728340e-01,3.647804e-01,3,1,6.570838e-01,6.570836e-01,1
7.868580e-01,2.143040e-01,2.062321e-01,3,0,5.401839e-01,5.401844e-01,1
7.873980e-01,2.148660e-01,2.081394e-01,3,0,1.034198e+00,1.034199e+00,1
7.868060e-01,2.151390e-01,2.069473e-01,3,0,1.306494e+00,1.306495e+00,1
7.859550e-01,2.147270e-01,2.079010e-01,3,0,1.625038e+00,1.625039e+00,1
7.870870e-01,2.153870e-01,2.079010e-01,3,0,1.053127e+00,1.053127e+00,1
7.869140e-01,2.143430e-01,2.059937e-01,3,0,1.004465e+00,1.004466e+00,1
7.868700e-01,2.151210e-01,2.071857e-01,3,0,1.505983e+00,1.505986e+00,1
7.864490e-01,2.149010e-01,2.071857e-01,3,0,2.257561e+00,2.257563e+00,1
7.865390e-01,2.148490e-01,2.069473e-01,3,0,2.515954e+00,2.515955e+00,1
7.869670e-01,4.170810e-01,4.100800e-01,3,1,3.514011e+00,3.521366e+00,1
7.800500e-01,2.597460e-01,2.510548e-01,3,0,3.331659e+00,3.343823e+00,1
7.870960e-01,7.015640e-01,6.940365e-01,3,3,5.239641e+00,5.238739e+00,1
1.044723e+00,4.779610e-01,4.711151e-01,4,2,2.319730e+00,2.319728e+00,1
7.803690e-01,2.210460e-01,2.129078e-01,3,0,1.922216e+00,1.922217e+00,1
7.890920e-01,4.186090e-01,4.098415e-01,3,1,2.797239e+00,2.797275e+00,1
7.885230e-01,3.723550e-01,3.650188e-01,3,1,1.389003e+00,1.389001e+00,1
7.862800e-01,2.157210e-01,2.090931e-01,3,0,1.155720e+00,1.155720e+00,1
7.866090e-01,2.149790e-01,2.079010e-01,3,0,9.296065e-01,9.296068e-01,1
7.862700e-01,2.141660e-01,2.059937e-01,3,0,6.205235e-01,6.205233e-01,1
7.858860e-01,2.153400e-01,2.071857e-01,3,0,1.320994e+00,1.320996e+00,1
7.864750e-01,2.149820e-01,2.069473e-01,3,0,9.903784e-01,9.903785e-01,1
7.863250e-01,2.148340e-01,2.079010e-01,3,0,5.586414e-01,5.586414e-01,1
7.862720e-01,2.155570e-01,2.079010e-01,3,0,1.249720e+00,1.249722e+00,1
7.856820e-01,2.147280e-01,2.059937e-01,3,0,8.726678e-01,8.726678e-01,1
7.856510e-01,2.144400e-01,2.069473e-01,3,0,4.713378e-01,4.713381e-01,1
7.864290e-01,2.146570e-01,2.069473e-01,3,0,5.132423e-01,5.132427e-01,1
7.860180e-01,2.154700e-01,2.081394e-01,3,0,6.622897e-01,6.622906e-01,1
7.822640e-01,4.200090e-01,4.107952e-01,3,1,1.001999e+00,1.002496e+00,1
7.881650e-01,4.463590e-01,4.389286e-01,3,1,2.086643e+00,2.087102e+00,1
7.882090e-01,4.113380e-01,4.029274e-01,3,1,1.512769e+00,1.528143e+00,1
7.832680e-01,6.312790e-01,6.189346e-01,3,2,2.737894e+00,2.831896e+00,1
7.871070e-01,5.757760e-01,5.681515e-01,3,2,1.205496e+00,1.205635e+00,1
7.883110e-01,3.728250e-01,3.650188e-01,3,1,9.613929e-01,9.613935e-01,1
7.859190e-01,2.150660e-01,2.069473e-01,3,0,6.414082e-01,6.414081e-01,1
7.864120e-01,2.146560e-01,2.069473e-01,3,0,5.920689e-01,5.920696e-01,1
7.868270e-01,2.152840e-01,2.079010e-01,3,0,1.661641e+00,1.661645e+00,1
7.862480e-01,2.153420e-01,2.071857e-01,3,0,1.672177e+00,1.672178e+00,1
7.870960e-01,2.151620e-01,2.071857e-01,3,0,2.572674e+00,2.572648e+00,1
7.866940e-01,2.151880e-01,2.081394e-01,3,0,2.653660e+00,2.653656e+00,1
7.866240e-01,2.155690e-01,2.081394e-01,3,0,3.049365e+00,3.049366e+00,1
7.820260e-01,4.224900e-01,4.141331e-01,3,1,4.979113e+00,4.985933e+00,1
7.800510e-01,2.612870e-01,2.539158e-01,3,0,5.577266e+00,5.580801e+00,1
7.877990e-01,5.778710e-01,5.710125e-01,3,2,4.167758e+00,4.177750e+00,1
7.869650e-01,4.419140e-01,4.351139e-01,3,1,3.740126e+00,3.751028e+00,1
7.810950e-01,6.015320e-01,5.939007e-01,3,2,5.220948e+00,5.232045e+00,1
7.883740e-01,7.359360e-01,7.278919e-01,3,3,3.549991e+00,3.552225e+00,1
7.870560e-01,3.731600e-01,3.659725e-01,3,1,2.943434e+00,2.943435e+00,1
7.858410e-01,2.150050e-01,2.079010e-01,3,0,2.946009e+00,2.946013e+00,1
7.860110e-01,2.154380e-01,2.081394e-01,3,0,3.158371e+00,3.158373e+00,1
7.807860e-01,4.216520e-01,4.129410e-01,3,1,3.444558e+00,3.458881e+00,1
7.874830e-01,3.770560e-01,3.690720e-01,3,1,2.542775e+00,2.542776e+00,1
7.868490e-01,2.146690e-01,2.079010e-01,3,0,2.465111e+00,2.465112e+00,1
7.871270e-01,2.158970e-01,2.067089e-01,3,0,3.193802e+00,3.193804e+00,1
7.860850e-01,4.120630e-01,4.050732e-01,3,1,3.530768e+00,3.530821e+00,1
7.873040e-01,3.725640e-01,3.659725e-01,3,1,2.250885e+00,2.250861e+00,1
7.864440e-01,2.156620e-01,2.081394e-01,3,0,2.172056e+00,2.171848e+00,1
7.862230e-01,2.148880e-01,2.081394e-01,3,0,1.285225e+00,1.285204e+00,1
7.855860e-01,2.153050e-01,2.067089e-01,3,0,1.246174e+00,1.246134e+00,1

