5.627090e-01,2.461210e+02,2.458761e+02,2,1000,0.000000e+00,-1.843144e-18,0
7.890210e-01,8.664654e+00,8.650780e+00,3,43,1.477751e-01,1.477754e-01,1
7.860500e-01,2.149550e-01,2.069473e-01,3,0,2.697547e-01,2.697553e-01,1
7.856080e-01,2.148610e-01,2.071857e-01,3,0,5.751734e-01,5.751744e-01,1
7.846260e-01,2.143890e-01,2.069473e-01,3,0,5.282505e-01,5.282509e-01,1
7.840300e-01,2.142750e-01,2.059937e-01,3,0,2.459757e+00,2.459761e+00,1
7.845840e-01,2.148880e-01,2.081394e-01,3,0,3.443760e+00,3.443762e+00,1
7.844110e-01,2.156160e-01,2.069473e-01,3,0,4.529692e+00,4.529694e+00,1
7.794240e-01,2.140590e-01,2.059937e-01,3,0,2.216738e+00,2.216737e+00,1
7.791990e-01,2.193510e-01,2.107620e-01,3,0,1.963306e+00,1.963307e+00,1
7.785250e-01,2.201830e-01,2.112389e-01,3,0,1.634474e+00,1.634475e+00,1
7.788500e-01,2.197940e-01,2.119541e-01,3,0,1.888457e+00,1.888459e+00,1
7.810270e-01,2.200180e-01,2.119541e-01,3,0,3.113620e+00,3.113623e+00,1
7.793400e-01,2.192660e-01,2.119541e-01,3,0,4.240895e+00,4.240898e+00,1
7.863010e-01,4.130560e-01,4.060268e-01,3,1,3.884715e+00,3.887958e+00,1
7.853180e-01,4.318580e-01,4.239082e-01,3,1,5.420458e+00,5.428553e+00,1
7.848630e-01,4.112310e-01,4.038811e-01,3,1,4.235205e+00,4.235399e+00,1
7.819220e-01,3.715400e-01,3.638268e-01,3,1,3.702471e+00,3.702472e+00,1
7.868860e-01,6.062730e-01,5.979538e-01,3,2,3.546971e+00,3.557237e+00,1
7.849280e-01,2.533770e-01,2.450943e-01,3,0,3.362838e+00,3.374992e+00,1
7.866260e-01,5.972990e-01,5.900860e-01,3,2,3.502663e+00,3.524048e+00,1
7.794980e-01,4.154900e-01,4.060268e-01,3,1,2.920580e+00,2.921994e+00,1
7.798110e-01,2.581930e-01,2.498627e-01,3,0,2.647642e+00,2.654071e+00,1
7.856140e-01,6.027000e-01,5.900860e-01,3,2,2.317108e+00,2.433269e+00,1
7.842180e-01,4.695010e-01,4.618168e-01,3,1,2.280358e+00,2.322225e+00,1
7.848110e-01,2.528380e-01,2.458096e-01,3,0,2.200572e+00,2.200711e+00,1
7.795760e-01,3.744840e-01,3.671646e-01,3,1,1.829212e+00,1.829152e+00,1
7.793310e-01,2.198660e-01,2.119541e-01,3,0,1.319248e+00,1.318786e+00,1
7.787870e-01,2.202830e-01,2.131462e-01,3,0,6.534984e-01,6.535009e-01,1
7.848000e-01,2.199840e-01,2.129078e-01,3,0,5.567998e-01,5.568000e-01,1
7.845810e-01,2.143960e-01,2.059937e-01,3,0,1.120268e+00,1.120270e+00,1
7.847910e-01,2.137910e-01,2.050400e-01,3,0,1.325162e+00,1.325163e+00,1
7.857290e-01,2.140920e-01,2.059937e-01,3,0,1.150528e+00,1.150528e+00,1
7.848710e-01,2.143530e-01,2.057552e-01,3,0,1.774555e+00,1.774557e+00,1
7.852240e-01,2.143870e-01,2.062321e-01,3,0,1.456476e+00,1.456476e+00,1
7.848220e-01,2.138760e-01,2.050400e-01,3,0,1.080970e+00,1.080970e+00,1
7.920600e-01,2.142780e-01,2.069473e-01,3,0,7.962757e-01,7.962763e-01,1
7.842740e-01,2.145020e-01,2.069473e-01,3,0,6.548356e-01,6.548361e-01,1
7.851200e-01,4.141700e-01,4.060268e-01,3,1,1.660106e+00,1.660411e+00,1
7.852630e-01,3.704020e-01,3.621578e-01,3,1,1.837470e+00,1.837471e+00,1
7.858280e-01,7.747460e-01,7.679462e-01,3,3,4.150749e+00,4.239557e+00,1
7.800180e-01,7.418380e-01,7.340908e-01,3,3,5.688163e+00,5.694845e+00,1
7.861910e-01,5.319770e-01,5.228519e-01,3,2,3.619173e+00,3.619169e+00,1
7.863360e-01,4.146140e-01,4.069805e-01,3,1,5.472907e+00,5.473067e+00,1
7.868490e-01,3.711320e-01,3.628731e-01,3,1,4.375941e+00,4.375941e+00,1
7.849300e-01,2.138020e-01,2.050400e-01,3,0,3.528658e+00,3.528658e+00,1
7.854840e-01,2.140420e-01,2.062321e-01,3,0,3.170248e+00,3.170249e+00,1
7.856860e-01,2.146340e-01,2.069473e-01,3,0,2.643302e+00,2.643303e+00,1
7.841660e-01,2.144480e-01,2.069473e-01,3,0,2.127032e+00,2.127032e+00,1
7.852320e-01,2.142670e-01,2.069473e-01,3,0,1.353564e+00,1.353564e+00,1
7.849720e-01,2.134260e-01,2.059937e-01,3,0,1.201780e+00,1.201781e+00,1
7.804010e-01,4.109040e-01,4.029274e-01,3,1,1.935873e+00,1.938873e+00,1
7.856800e-01,3.759870e-01,3.678799e-01,3,1,1.424564e+00,1.424564e+00,1
7.854500e-01,4.138310e-01,4.060268e-01,3,1,1.217132e+00,1.217591e+00,1
7.854920e-01,9.758300e-01,9.679794e-01,3,4,1.612301e+00,1.637165e+00,1
7.853010e-01,4.098170e-01,4.031658e-01,3,1,2.205653e+00,2.234093e+00,1
1.042144e+00,3.701520e-01,3.621578e-01,4,1,1.214929e+00,1.214929e+00,1
7.788830e-01,2.191910e-01,2.110004e-01,3,0,1.850409e+00,1.850411e+00,1
7.791100e-01,2.190930e-01,2.110004e-01,3,0,2.592462e+00,2.592461e+00,1
7.871220e-01,4.115920e-01,4.041195e-01,3,1,3.880669e+00,3.882258e+00,1
7.850590e-01,3.712020e-01,3.628731e-01,3,1,1.751065e+00,1.751069e+00,1
7.844000e-01,4.140460e-01,4.057884e-01,3,1,3.743403e+00,3.798252e+00,1
7.863460e-01,2.011251e+00,2.001047e+00,3,7,7.061598e+00,7.328098e+00,0
7.860850e-01,1.314485e+00,1.305819e+00,3,7,3.868531e+00,3.868520e+00,1
7.857840e-01,1.066831e+00,1.054287e+00,3,2,5.336208e+00,5.750018e+00,0
1.042778e+00,8.725020e-01,8.640289e-01,4,4,2.285561e+00,2.285560e+00,1
7.852200e-01,2.141750e-01,2.059937e-01,3,0,2.476828e+00,2.476827e+00,1
7.843540e-01,2.151270e-01,2.079010e-01,3,0,1.966015e+00,1.966016e+00,1
7.849010e-01,2.135580e-01,2.059937e-01,3,0,1.518141e+00,1.518141e+00,1
7.854180e-01,2.145180e-01,2.069473e-01,3,0,1.185555e+00,1.185556e+00,1
7.855260e-01,2.148180e-01,2.069473e-01,3,0,1.750564e+00,1.750565e+00,1
7.846040e-01,2.147010e-01,2.071857e-01,3,0,1.779765e+00,1.779766e+00,1
7.848120e-01,2.139360e-01,2.059937e-01,3,0,1.799250e+00,1.799251e+00,1
7.845080e-01,4.125940e-01,4.050732e-01,3,1,2.027236e+00,2.028424e+00,1
7.862620e-01,6.213990e-01,6.139278e-01,3,2,2.953748e+00,2.982704e+00,1
7.845830e-01,4.308260e-01,4.220009e-01,3,1,3.972893e+00,4.030506e+00,1
7.856380e-01,9.135640e-01,9.050369e-01,3,4,2.419968e+00,2.463277e+00,1
7.855460e-01,6.241880e-01,6.170273e-01,3,2,2.421935e+00,2.437840e+00,1
7.844650e-01,2.530620e-01,2.450943e-01,3,0,1.788399e+00,1.804446e+00,1
7.856280e-01,3.705480e-01,3.631115e-01,3,1,8.657456e-01,8.657455e-01,1
7.840820e-01,2.141270e-01,2.059937e-01,3,0,2.874666e+00,2.874671e+00,1
7.795290e-01,2.141950e-01,2.069473e-01,3,0,2.140292e+00,2.140292e+00,1
7.796440e-01,2.188650e-01,2.110004e-01,3,0,1.924900e+00,1.924901e+00,1
7.850300e-01,4.205890e-01,4.117489e-01,3,1,1.857077e+00,1.884809e+00,1
7.869960e-01,3.709790e-01,3.631115e-01,3,1,2.627106e+00,2.627111e+00,1
7.861500e-01,4.061020e-01,3.988743e-01,3,1,4.756818e+00,4.760565e+00,1
7.801780e-01,6.282240e-01,6.210804e-01,3,2,7.169829e+00,7.245884e+00,1
7.870870e-01,2.295256e+00,2.283812e+00,3,9,1.051339e+01,1.376895e+01,0
7.863570e-01,1.732638e+00,1.724005e+00,3,9,8.572963e+00,8.894003e+00,1
7.880630e-01,1.066659e+00,1.059055e+00,3,5,6.102340e+00,6.115956e+00,1
7.809510e-01,5.268220e-01,5.187988e-01,3,2,4.694680e+00,4.694680e+00,1
7.794070e-01,2.201690e-01,2.107620e-01,3,0,3.311402e+00,3.311402e+00,1
7.858320e-01,6.031320e-01,5.941391e-01,3,2,4.676176e+00,4.680937e+00,1
7.858150e-01,5.964520e-01,5.879402e-01,3,2,3.504615e+00,3.516836e+00,1
7.856710e-01,7.915830e-01,7.839203e-01,3,3,4.557084e+00,4.644140e+00,1
1.046486e+00,2.089181e+00,2.082109e+00,4,11,5.036996e+00,5.142376e+00,1
1.044079e+00,1.723288e+00,1.713991e+00,4,9,2.185318e+00,2.256323e+00,1
7.857610e-01,3.712250e-01,3.631115e-01,3,1,1.915967e+00,1.915968e+00,1
7.854620e-01,2.142670e-01,2.069473e-01,3,0,2.722432e+00,2.722435e+00,1
7.845250e-01,4.122040e-01,4.048347e-01,3,1,2.949001e+00,2.954722e+00,1
7.809320e-01,3.777950e-01,3.700256e-01,3,1,2.228318e+00,2.228318e+00,1
7.797120e-01,2.191020e-01,2.110004e-01,3,0,2.545234e+00,2.545236e+00,1
7.798480e-01,2.192030e-01,2.112389e-01,3,0,1.502043e+00,1.502044e+00,1
7.802410e-01,2.192410e-01,2.119541e-01,3,0,1.371448e+00,1.371448e+00,1
7.793570e-01,2.194620e-01,2.119541e-01,3,0,1.136427e+00,1.136427e+00,1
7.787180e-01,2.189480e-01,2.100468e-01,3,0,1.174077e+00,1.174078e+00,1
7.856070e-01,4.297620e-01,4.220009e-01,3,1,1.642144e+00,1.642347e+00,1
7.852190e-01,5.707680e-01,5.619526e-01,3,2,1.794969e+00,1.799210e+00,1
7.794610e-01,4.727850e-01,4.649162e-01,3,1,1.165205e+00,1.168311e+00,1
7.856360e-01,8.146920e-01,8.070469e-01,3,3,1.172119e+00,1.225554e+00,1
7.845850e-01,2.541470e-01,2.448559e-01,3,0,1.083212e+00,1.105672e+00,1
7.850900e-01,2.524410e-01,2.450943e-01,3,0,8.886640e-01,8.886668e-01,1
7.803890e-01,3.758200e-01,3.671646e-01,3,1,6.353263e-01,6.353264e-01,1
7.789200e-01,2.192150e-01,2.110004e-01,3,0,1.101719e+00,1.101720e+00,1
7.797050e-01,2.194370e-01,2.112389e-01,3,0,5.897289e-01,5.897290e-01,1
7.799640e-01,2.192790e-01,2.110004e-01,3,0,6.727555e-01,6.727560e-01,1
7.795140e-01,2.196920e-01,2.107620e-01,3,0,1.712291e+00,1.712294e+00,1
7.788830e-01,2.203930e-01,2.121925e-01,3,0,1.244475e+00,1.244475e+00,1
7.866520e-01,4.179150e-01,4.098415e-01,3,1,3.965856e+00,3.971743e+00,1
7.854060e-01,5.701210e-01,5.631447e-01,3,2,2.759459e+00,2.801875e+00,1
7.851960e-01,2.537650e-01,2.470016e-01,3,0,2.685961e+00,2.877987e+00,1
7.805550e-01,4.742890e-01,4.670620e-01,3,1,3.361085e+00,3.472358e+00,1
7.867540e-01,3.754800e-01,3.666878e-01,3,1,3.043491e+00,3.043491e+00,1
7.855070e-01,2.139600e-01,2.057552e-01,3,0,3.359707e+00,3.359709e+00,1
7.804510e-01,1.068583e+00,1.058102e+00,3,2,5.926757e+00,6.852260e+00,0
7.871310e-01,9.110300e-01,9.021759e-01,3,4,3.879667e+00,3.879931e+00,1
7.804880e-01,4.167060e-01,4.079342e-01,3,1,2.958350e+00,2.958369e+00,1
7.861110e-01,5.755880e-01,5.669594e-01,3,2,2.584689e+00,2.590235e+00,1
1.042245e+00,3.707750e-01,3.621578e-01,4,1,1.524175e+00,1.524177e+00,1
7.789500e-01,2.193410e-01,2.119541e-01,3,0,1.693966e+00,1.693958e+00,1
7.786920e-01,2.194230e-01,2.119541e-01,3,0,1.059656e+00,1.059657e+00,1
7.793910e-01,2.185200e-01,2.110004e-01,3,0,1.377541e+00,1.377543e+00,1
7.794680e-01,2.189100e-01,2.110004e-01,3,0,6.229854e-01,6.229856e-01,1
7.789340e-01,2.194980e-01,2.110004e-01,3,0,5.073364e-01,5.073367e-01,1
7.794260e-01,2.188000e-01,2.110004e-01,3,0,5.285171e-01,5.285175e-01,1
7.863390e-01,4.196320e-01,4.119873e-01,3,1,1.134791e+00,1.144313e+00,1
7.848380e-01,5.865380e-01,5.788803e-01,3,2,1.174135e+00,1.174136e+00,1
7.852210e-01,2.136080e-01,2.059937e-01,3,0,9.917023e-01,9.917025e-01,1
7.844900e-01,2.148810e-01,2.059937e-01,3,0,1.082230e+00,1.082231e+00,1
7.847870e-01,2.140470e-01,2.059937e-01,3,0,9.188136e-01,9.188141e-01,1
7.840220e-01,2.142860e-01,2.059937e-01,3,0,1.703315e+00,1.703317e+00,1
7.797260e-01,4.183360e-01,4.091263e-01,3,1,2.887266e+00,2.888965e+00,1
7.872120e-01,6.092370e-01,6.005764e-01,3,2,3.270435e+00,3.317183e+00,1
1.047697e+00,6.240680e-01,6.160736e-01,4,2,2.575823e+00,2.650428e+00,1
7.859670e-01,4.387560e-01,4.310608e-01,3,1,2.284671e+00,2.377443e+00,1
7.849970e-01,6.245470e-01,6.170273e-01,3,2,2.114043e+00,2.262669e+00,1
7.812950e-01,4.157090e-01,4.069805e-01,3,1,1.525459e+00,1.651589e+00,1
7.844010e-01,2.587080e-01,2.498627e-01,3,0,1.312818e+00,1.323701e+00,1
7.862220e-01,3.717070e-01,3.638268e-01,3,1,2.265458e+00,2.265462e+00,1
7.851580e-01,2.146270e-01,2.069473e-01,3,0,3.244754e+00,3.244757e+00,1
7.849490e-01,2.142270e-01,2.062321e-01,3,0,1.985182e+00,1.985181e+00,1
7.846050e-01,2.144890e-01,2.069473e-01,3,0,1.886946e+00,1.886947e+00,1
7.856150e-01,2.138530e-01,2.059937e-01,3,0,1.696303e+00,1.696304e+00,1
7.851680e-01,2.142410e-01,2.059937e-01,3,0,1.557803e+00,1.557803e+00,1
7.856320e-01,2.138640e-01,2.059937e-01,3,0,1.282779e+00,1.282780e+00,1
7.857840e-01,4.153330e-01,4.069805e-01,3,1,1.440062e+00,1.440373e+00,1
7.844330e-01,3.702580e-01,3.609657e-01,3,1,2.354947e+00,2.354950e+00,1
7.792150e-01,2.138720e-01,2.050400e-01,3,0,2.261473e+00,2.261473e+00,1
7.792810e-01,2.198370e-01,2.119541e-01,3,0,2.397506e+00,2.397507e+00,1
7.793910e-01,2.196330e-01,2.107620e-01,3,0,2.726403e+00,2.726406e+00,1
7.793860e-01,2.193070e-01,2.112389e-01,3,0,1.245363e+00,1.245363e+00,1
7.791820e-01,2.201090e-01,2.110004e-01,3,0,9.887013e-01,9.887019e-01,1
7.783440e-01,2.192300e-01,2.110004e-01,3,0,1.044758e+00,1.044759e+00,1
7.787140e-01,2.194340e-01,2.107620e-01,3,0,4.640929e-01,4.640938e-01,1
7.787950e-01,2.182350e-01,2.110004e-01,3,0,4.688404e-01,4.688407e-01,1
7.794340e-01,2.194940e-01,2.107620e-01,3,0,8.076118e-01,8.076128e-01,1
7.836730e-01,2.176800e-01,2.100468e-01,3,0,6.890079e-01,6.890080e-01,1
7.843810e-01,2.144400e-01,2.057552e-01,3,0,1.878360e+00,1.878364e+00,1
7.854620e-01,2.149870e-01,2.081394e-01,3,0,1.407735e+00,1.407737e+00,1
7.856460e-01,2.131800e-01,2.040863e-01,3,0,9.991587e-01,9.991590e-01,1
7.861140e-01,4.141200e-01,4.060268e-01,3,1,8.932517e-01,8.941772e-01,1
7.847000e-01,3.710430e-01,3.628731e-01,3,1,9.106466e-01,9.106471e-01,1
7.851490e-01,2.139770e-01,2.050400e-01,3,0,9.353766e-01,9.353773e-01,1
7.850900e-01,2.138120e-01,2.048016e-01,3,0,5.963682e-01,5.963684e-01,1
7.846710e-01,2.142970e-01,2.059937e-01,3,0,6.619421e-01,6.619430e-01,1
7.843680e-01,2.143650e-01,2.071857e-01,3,0,5.469526e-01,5.469532e-01,1
7.850570e-01,2.135350e-01,2.050400e-01,3,0,4.720932e-01,4.720936e-01,1
7.842480e-01,2.139380e-01,2.059937e-01,3,0,1.262910e+00,1.262913e+00,1
7.854530e-01,2.137810e-01,2.069473e-01,3,0,8.033939e-01,8.033948e-01,1
7.797510e-01,4.211480e-01,4.129410e-01,3,1,1.262700e+00,1.263467e+00,1
7.879890e-01,4.447320e-01,4.370213e-01,3,1,2.039534e+00,2.050020e+00,1
7.850130e-01,4.668390e-01,4.589558e-01,3,1,1.740741e+00,1.780507e+00,1
7.848560e-01,4.674180e-01,4.599094e-01,3,1,1.973091e+00,1.989840e+00,1
7.844750e-01,6.023620e-01,5.929470e-01,3,2,1.397186e+00,1.441107e+00,1
7.852650e-01,4.103620e-01,4.029274e-01,3,1,1.389499e+00,1.410118e+00,1
7.848050e-01,4.699590e-01,4.620552e-01,3,1,1.588936e+00,1.621988e+00,1
7.846610e-01,2.534140e-01,2.450943e-01,3,0,3.464564e+00,3.476235e+00,1
7.811530e-01,3.769410e-01,3.700256e-01,3,1,4.592461e+00,4.592464e+00,1
7.790570e-01,2.199860e-01,2.112389e-01,3,0,4.075414e+00,4.075414e+00,1
7.790850e-01,2.184130e-01,2.110004e-01,3,0,3.306959e+00,3.306960e+00,1
7.795930e-01,2.191860e-01,2.119541e-01,3,0,3.037190e+00,3.037191e+00,1
7.843330e-01,2.199820e-01,2.129078e-01,3,0,2.082030e+00,2.082030e+00,1
7.843730e-01,2.140740e-01,2.057552e-01,3,0,2.064062e+00,2.064063e+00,1
7.857040e-01,5.791860e-01,5.710125e-01,3,2,2.031354e+00,2.031201e+00,1
1.045790e+00,5.269350e-01,5.180836e-01,4,2,1.582963e+00,1.582963e+00,1
7.861220e-01,6.292220e-01,6.210804e-01,3,2,1.397065e+00,1.404070e+00,1
7.856360e-01,8.151080e-01,8.070469e-01,3,3,2.794303e+00,2.939548e+00,1
1.305609e+00,7.995100e-01,7.910728e-01,5,3,5.814700e+00,5.853380e+00,1
1.557533e+00,8.909530e-01,8.828640e-01,6,4,6.067264e+00,6.046262e+00,1
1.301293e+00,4.183930e-01,4.110336e-01,5,1,6.359437e+00,6.358846e+00,1
1.043324e+00,4.174670e-01,4.100800e-01,4,1,7.386813e+00,7.395420e+00,1
1.306934e+00,9.603800e-01,9.529591e-01,5,4,1.049895e+01,1.058962e+01,1
7.804090e-01,8.461880e-01,8.378029e-01,3,4,6.789607e+00,6.789584e+00,1
7.855660e-01,4.213510e-01,4.138947e-01,3,1,8.302639e+00,8.305092e+00,1
7.873760e-01,3.709410e-01,3.616810e-01,3,1,6.378506e+00,6.378505e+00,1
7.867450e-01,2.146810e-01,2.071857e-01,3,0,5.885419e+00,5.885400e+00,1
7.859870e-01,4.114710e-01,4.041195e-01,3,1,4.120540e+00,4.123720e+00,1
7.861120e-01,1.243498e+00,1.231194e+00,3,3,5.102275e+00,5.337154e+00,0
7.792430e-01,4.175160e-01,4.088879e-01,3,1,3.483355e+00,3.504124e+00,1
7.857510e-01,1.461307e+00,1.451969e+00,3,7,4.505625e+00,4.629853e+00,1
1.043293e+00,1.658026e+00,1.650095e+00,4,9,1.476639e+00,1.476892e+00,1
7.789700e-01,2.589510e-01,2.501011e-01,3,0,1.749115e+00,1.788277e+00,1
7.866700e-01,3.769150e-01,3.690720e-01,3,1,3.253409e+00,3.253414e+00,1
7.857330e-01,2.153080e-01,2.079010e-01,3,0,2.445909e+00,2.445909e+00,1
7.850940e-01,4.151300e-01,4.060268e-01,3,1,3.937491e+00,3.959709e+00,1
7.858820e-01,2.542480e-01,2.460480e-01,3,0,3.508867e+00,3.508906e+00,1
7.859800e-01,1.065467e+00,1.055002e+00,3,2,6.102961e+00,6.200395e+00,0
1.042346e+00,6.588440e-01,6.518364e-01,4,3,3.111345e+00,3.111343e+00,1
7.852060e-01,2.146220e-01,2.059937e-01,3,0,2.559139e+00,2.559139e+00,1
7.861610e-01,2.146880e-01,2.069473e-01,3,0,2.030544e+00,2.030545e+00,1
7.847260e-01,2.144620e-01,2.059937e-01,3,0,2.029548e+00,2.029549e+00,1
7.866180e-01,2.149650e-01,2.079010e-01,3,0,2.181584e+00,2.181585e+00,1
7.857420e-01,4.160300e-01,4.079342e-01,3,1,3.319721e+00,3.321892e+00,1
7.854550e-01,3.732740e-01,3.650188e-01,3,1,1.511241e+00,1.511238e+00,1
7.848540e-01,2.144810e-01,2.069473e-01,3,0,1.011055e+00,1.011055e+00,1
7.844150e-01,2.149740e-01,2.071857e-01,3,0,1.167476e+00,1.167477e+00,1
7.853930e-01,2.144850e-01,2.069473e-01,3,0,1.131952e+00,1.131953e+00,1
7.846850e-01,2.142480e-01,2.059937e-01,3,0,8.765723e-01,8.765724e-01,1
7.837400e-01,2.140320e-01,2.062321e-01,3,0,1.412698e+00,1.412701e+00,1
7.843770e-01,2.142510e-01,2.062321e-01,3,0,2.056964e+00,2.056966e+00,1
7.840420e-01,2.152330e-01,2.081394e-01,3,0,3.116109e+00,3.116112e+00,1
7.854190e-01,6.010280e-01,5.939007e-01,3,2,6.740493e+00,6.745076e+00,1
7.797640e-01,9.905650e-01,9.829998e-01,3,4,8.750713e+00,8.803520e+00,1
7.862760e-01,1.570990e+00,1.563072e+00,3,8,5.960113e+00,5.968440e+00,1
7.847340e-01,2.545850e-01,2.470016e-01,3,0,7.358279e+00,7.385679e+00,1
7.810790e-01,6.020030e-01,5.948544e-01,3,2,5.301867e+00,5.308961e+00,1
7.860800e-01,4.183000e-01,4.110336e-01,3,1,4.201623e+00,4.203380e+00,1
7.857230e-01,5.968910e-01,5.888939e-01,3,2,4.668147e+00,4.696684e+00,1
7.854690e-01,3.712600e-01,3.640652e-01,3,1,2.559425e+00,2.559422e+00,1
7.849940e-01,2.142970e-01,2.069473e-01,3,0,1.912133e+00,1.912137e+00,1
7.839040e-01,2.143330e-01,2.071857e-01,3,0,1.470410e+00,1.470411e+00,1
7.836310e-01,2.144390e-01,2.059937e-01,3,0,1.392732e+00,1.392733e+00,1
7.847500e-01,2.149170e-01,2.069473e-01,3,0,1.343528e+00,1.343529e+00,1
7.795370e-01,2.147840e-01,2.059937e-01,3,0,2.104442e+00,2.104444e+00,1
7.800980e-01,2.197790e-01,2.119541e-01,3,0,7.177930e-01,7.177924e-01,1
7.794810e-01,2.198040e-01,2.119541e-01,3,0,2.874755e+00,2.874762e+00,1
7.855750e-01,7.911810e-01,7.820129e-01,3,3,6.304743e+00,6.404735e+00,1
7.790210e-01,6.892840e-01,6.809235e-01,3,3,3.721556e+00,3.721512e+00,1
7.791350e-01,2.202420e-01,2.131462e-01,3,0,2.658603e+00,2.658603e+00,1
7.794520e-01,2.201130e-01,2.119541e-01,3,0,2.180672e+00,2.180673e+00,1
7.849140e-01,2.141910e-01,2.057552e-01,3,0,1.855125e+00,1.855126e+00,1
7.851340e-01,2.150640e-01,2.062321e-01,3,0,1.736404e+00,1.736405e+00,1
7.847490e-01,2.145700e-01,2.059937e-01,3,0,2.910387e+00,2.910391e+00,1
7.851380e-01,4.118470e-01,4.041195e-01,3,1,2.265315e+00,2.265337e+00,1
7.849250e-01,2.538380e-01,2.460480e-01,3,0,1.629329e+00,1.629336e+00,1
7.847660e-01,3.720500e-01,3.640652e-01,3,1,1.821676e+00,1.821677e+00,1
7.807370e-01,6.043850e-01,5.970001e-01,3,2,3.123181e+00,3.154689e+00,1
7.843260e-01,2.590920e-01,2.510548e-01,3,0,5.047766e+00,5.104388e+00,1
7.878420e-01,1.317316e+00,1.308918e+00,3,6,9.141304e+00,9.303219e+00,1
1.046648e+00,1.613188e+00,1.603842e+00,4,8,1.117011e+01,1.160567e+01,1
7.885900e-01,1.760719e+00,1.748085e+00,3,6,1.009095e+01,1.105260e+01,0
7.888000e-01,2.434217e+00,2.422094e+00,3,10,1.058302e+01,1.129736e+01,0
7.891810e-01,1.758748e+00,1.751184e+00,3,9,8.923972e+00,8.999852e+00,1
7.810230e-01,9.049850e-01,8.969307e-01,3,4,9.367430e+00,9.444522e+00,1
7.867110e-01,2.598640e-01,2.520084e-01,3,0,9.324215e+00,9.379099e+00,1
7.878680e-01,1.286053e+00,1.276970e+00,3,6,7.680179e+00,7.708571e+00,1
7.884000e-01,7.563840e-01,7.491112e-01,3,3,6.624371e+00,6.672389e+00,1
7.870820e-01,6.046000e-01,5.960464e-01,3,2,5.080024e+00,5.080126e+00,1
7.866440e-01,5.958860e-01,5.879402e-01,3,2,4.652110e+00,4.659974e+00,1
7.891420e-01,1.148392e+00,1.139879e+00,3,5,4.714276e+00,4.748794e+00,1
1.569172e+00,1.977895e+00,1.970053e+00,6,10,6.101089e+00,6.448312e+00,1
1.560815e+00,1.057678e+00,1.044989e+00,6,2,1.135291e+01,1.823608e+01,0
1.564438e+00,7.087330e-01,6.966591e-01,6,0,1.286436e+01,1.868269e+01,0
1.565843e+00,7.017190e-01,6.902218e-01,6,0,1.464135e+01,1.634294e+01,0
1.300621e+00,7.075620e-01,6.971359e-01,5,0,1.295802e+01,1.036279e+01,0
1.044444e+00,7.078150e-01,6.957054e-01,4,0,1.319905e+01,1.017760e+01,0
1.304147e+00,7.033720e-01,6.928444e-01,5,0,1.619020e+01,1.556068e+01,0
1.049602e+00,4.762206e+00,4.749775e+00,4,24,1.507478e+01,1.794082e+01,0
1.043229e+00,1.542174e+00,1.529694e+00,4,5,1.252192e+01,1.474802e+01,0
7.886680e-01,2.750166e+00,2.738714e+00,3,12,1.068193e+01,1.109767e+01,0
7.868950e-01,1.748551e+00,1.740217e+00,3,9,9.375000e+00,9.425519e+00,1
7.812510e-01,1.225160e+00,1.213789e+00,3,3,7.960185e+00,8.355074e+00,0
7.868470e-01,7.188840e-01,7.081032e-01,3,0,7.132835e+00,8.591097e+00,0
7.860990e-01,1.889918e+00,1.877308e+00,3,7,7.279126e+00,1.166721e+01,0
1.045170e+00,7.457030e-01,7.348061e-01,4,1,4.157511e+00,4.165330e+00,0
7.793500e-01,2.203100e-01,2.110004e-01,3,0,3.598931e+00,3.598909e+00,1
7.874580e-01,5.927090e-01,5.807877e-01,3,0,3.904977e+00,6.038164e+00,0
1.306948e+00,4.129630e-01,4.050732e-01,5,1,2.784785e+00,2.786234e+00,1
7.824210e-01,9.208440e-01,9.138584e-01,3,4,2.346019e+00,2.352452e+00,1
1.044334e+00,6.927400e-01,6.840229e-01,4,3,1.932852e+00,1.932678e+00,1
7.840520e-01,2.149580e-01,2.059937e-01,3,0,1.237885e+00,1.237847e+00,1
7.844010e-01,2.144560e-01,2.050400e-01,3,0,7.578909e-01,7.578935e-01,1
7.837760e-01,2.145970e-01,2.069473e-01,3,0,5.986300e-01,5.986311e-01,1
7.849030e-01,2.147270e-01,2.069473e-01,3,0,8.249606e-01,8.249615e-01,1
7.832890e-01,2.146840e-01,2.059937e-01,3,0,1.063487e+00,1.063489e+00,1
7.850020e-01,2.139950e-01,2.050400e-01,3,0,7.600052e-01,7.600053e-01,1
7.838090e-01,2.148610e-01,2.059937e-01,3,0,7.740733e-01,7.740748e-01,1
7.795870e-01,4.207590e-01,4.119873e-01,3,1,2.118585e+00,2.123219e+00,1
7.854420e-01,6.303990e-01,6.229877e-01,3,2,4.703750e+00,4.743935e+00,1
7.870960e-01,1.028024e+00,1.019955e+00,3,4,6.371638e+00,6.414147e+00,1
7.871970e-01,5.967480e-01,5.879402e-01,3,2,5.376119e+00,5.500410e+00,1
7.858280e-01,8.146500e-01,8.058548e-01,3,3,5.760829e+00,5.831103e+00,1
7.852680e-01,5.963830e-01,5.891323e-01,3,2,5.636319e+00,5.700103e+00,1
7.799940e-01,4.170160e-01,4.081726e-01,3,1,4.992246e+00,5.028665e+00,1
7.868330e-01,7.567980e-01,7.491112e-01,3,3,3.945144e+00,3.993454e+00,1
7.849660e-01,2.554400e-01,2.479553e-01,3,0,3.906544e+00,3.912073e+00,1
7.882320e-01,1.677603e+00,1.670122e+00,3,8,7.055665e+00,7.208118e+00,1
1.050319e+00,2.099653e+00,2.086639e+00,4,8,9.262721e+00,9.954340e+00,0
1.562271e+00,7.142810e-01,7.023811e-01,6,0,1.101488e+01,1.636484e+01,0
1.301897e+00,7.190920e-01,7.078648e-01,5,0,9.082830e+00,1.280962e+01,0
1.308074e+00,3.317317e+00,3.309250e+00,5,18,6.961363e+00,7.117433e+00,1
1.043625e+00,1.413960e+00,1.405954e+00,4,7,5.172029e+00,5.250534e+00,1
7.864130e-01,7.580810e-01,7.500648e-01,3,3,4.140247e+00,4.293844e+00,1
7.866560e-01,1.370491e+00,1.362085e+00,3,6,5.307000e+00,5.575239e+00,1
7.874320e-01,1.087067e+00,1.078844e+00,3,5,5.291941e+00,5.472298e+00,1
7.866850e-01,1.565550e+00,1.558065e+00,3,8,4.015618e+00,4.077974e+00,1
1.045842e+00,1.274720e+00,1.266956e+00,4,6,3.969793e+00,3.970956e+00,1
1.563336e+00,8.186270e-01,8.101463e-01,6,4,4.787301e+00,4.762144e+00,1
1.560052e+00,5.506800e-01,5.419254e-01,6,2,5.275127e+00,5.261678e+00,1
1.043496e+00,5.379210e-01,5.309582e-01,4,2,6.418349e+00,6.418354e+00,1
7.860240e-01,2.151320e-01,2.079010e-01,3,0,5.004629e+00,5.004628e+00,1
7.856520e-01,4.142150e-01,4.060268e-01,3,1,6.693354e+00,6.737448e+00,1
7.796120e-01,6.289210e-01,6.210804e-01,3,2,6.643806e+00,6.706269e+00,1
7.861860e-01,7.589450e-01,7.510185e-01,3,3,5.565141e+00,5.565425e+00,1
7.798200e-01,5.350910e-01,5.271435e-01,3,2,4.571018e+00,4.571018e+00,1
7.876310e-01,1.650953e+00,1.642942e+00,3,8,4.690842e+00,4.705233e+00,1
7.868710e-01,1.469507e+00,1.461029e+00,3,7,4.670039e+00,4.740641e+00,1
1.306439e+00,1.228248e+00,1.219749e+00,5,6,3.520077e+00,3.538576e+00,1
1.565711e+00,4.138030e-01,4.069805e-01,6,1,3.492198e+00,3.511306e+00,1
1.043833e+00,4.116750e-01,4.038811e-01,4,1,2.318386e+00,2.322394e+00,1
7.850030e-01,5.782080e-01,5.700588e-01,3,2,1.877163e+00,1.890549e+00,1
7.855620e-01,2.545890e-01,2.470016e-01,3,0,1.134988e+00,1.137731e+00,1
7.866980e-01,3.713460e-01,3.640652e-01,3,1,7.149030e-01,7.149034e-01,1
7.847560e-01,2.139940e-01,2.069473e-01,3,0,4.305170e-01,4.305171e-01,1
7.852990e-01,2.153820e-01,2.079010e-01,3,0,8.423595e-01,8.423612e-01,1
7.853110e-01,2.140610e-01,2.069473e-01,3,0,4.883783e-01,4.883785e-01,1
7.848700e-01,2.144730e-01,2.059937e-01,3,0,4.539481e-01,4.539488e-01,1
7.855770e-01,2.143660e-01,2.071857e-01,3,0,2.837925e-01,2.837929e-01,1
7.847210e-01,2.142930e-01,2.050400e-01,3,0,3.137920e-01,3.137924e-01,1
7.847020e-01,2.137730e-01,2.059937e-01,3,0,2.700686e-01,2.700689e-01,1
7.849530e-01,2.139130e-01,2.059937e-01,3,0,6.614335e-01,6.614346e-01,1
7.851500e-01,2.146430e-01,2.071857e-01,3,0,5.131234e-01,5.131241e-01,1
7.839850e-01,2.139440e-01,2.048016e-01,3,0,4.811902e-01,4.811919e-01,1
7.842900e-01,2.140020e-01,2.059937e-01,3,0,9.972128e-01,9.972144e-01,1
7.843660e-01,2.143340e-01,2.069473e-01,3,0,5.504026e-01,5.504024e-01,1
7.838990e-01,2.139120e-01,2.059937e-01,3,0,7.856635e-01,7.856643e-01,1
7.849980e-01,2.148850e-01,2.069473e-01,3,0,8.021382e-01,8.021387e-01,1
7.838240e-01,2.143230e-01,2.059937e-01,3,0,1.366197e+00,1.366199e+00,1
7.835770e-01,2.144560e-01,2.059937e-01,3,0,1.043040e+00,1.043040e+00,1
7.845270e-01,2.137540e-01,2.050400e-01,3,0,6.769789e-01,6.769789e-01,1
7.791210e-01,2.141890e-01,2.059937e-01,3,0,4.991544e-01,4.991550e-01,1
7.789090e-01,2.199140e-01,2.119541e-01,3,0,6.798405e-01,6.798413e-01,1
7.784330e-01,2.184800e-01,2.098083e-01,3,0,6.270691e-01,6.270693e-01,1
7.791500e-01,2.259100e-01,2.176762e-01,3,0,5.073503e-01,5.073505e-01,1
7.790850e-01,2.203610e-01,2.121925e-01,3,0,8.943777e-01,8.943789e-01,1
7.801590e-01,2.199360e-01,2.119541e-01,3,0,6.805199e-01,6.805204e-01,1
7.860870e-01,4.212090e-01,4.129410e-01,3,1,1.012277e+00,1.012335e+00,1
7.857870e-01,4.710870e-01,4.630089e-01,3,1,1.796149e+00,1.874364e+00,1
7.844150e-01,2.539040e-01,2.460480e-01,3,0,1.574355e+00,1.594197e+00,1
7.848170e-01,3.704970e-01,3.628731e-01,3,1,1.390542e+00,1.390543e+00,1
7.844180e-01,2.150600e-01,2.079010e-01,3,0,3.171552e+00,3.171556e+00,1
7.848450e-01,2.151030e-01,2.079010e-01,3,0,3.876013e+00,3.876010e+00,1
7.842740e-01,2.148620e-01,2.081394e-01,3,0,2.218522e+00,2.218520e+00,1
7.793080e-01,2.144920e-01,2.069473e-01,3,0,1.662187e+00,1.662186e+00,1
7.788820e-01,2.201150e-01,2.119541e-01,3,0,1.263089e+00,1.263089e+00,1
7.793950e-01,2.191900e-01,2.119541e-01,3,0,8.519731e-01,8.519732e-01,1
7.790600e-01,2.194450e-01,2.121925e-01,3,0,7.455627e-01,7.455631e-01,1
7.789420e-01,2.200120e-01,2.119541e-01,3,0,1.072886e+00,1.072887e+00,1
7.788470e-01,2.199910e-01,2.119541e-01,3,0,1.035071e+00,1.035072e+00,1
7.791780e-01,2.187320e-01,2.110004e-01,3,0,5.051728e-01,5.051738e-01,1
7.787030e-01,2.198230e-01,2.107620e-01,3,0,1.366075e+00,1.366078e+00,1
7.858670e-01,2.201570e-01,2.129078e-01,3,0,7.684837e-01,7.684836e-01,1
7.848390e-01,2.135470e-01,2.059937e-01,3,0,6.926982e-01,6.926988e-01,1
7.848220e-01,2.140770e-01,2.050400e-01,3,0,9.510765e-01,9.510777e-01,1
7.849130e-01,2.147040e-01,2.069473e-01,3,0,7.843147e-01,7.843150e-01,1
7.847190e-01,2.143240e-01,2.062321e-01,3,0,9.241724e-01,9.241731e-01,1
7.846010e-01,2.138070e-01,2.069473e-01,3,0,1.174144e+00,1.174145e+00,1
7.857810e-01,2.146200e-01,2.069473e-01,3,0,9.244205e-01,9.244212e-01,1
7.856660e-01,2.142980e-01,2.059937e-01,3,0,9.614435e-01,9.614449e-01,1
7.840880e-01,2.143010e-01,2.059937e-01,3,0,1.197063e+00,1.197060e+00,1
7.841190e-01,2.146310e-01,2.069473e-01,3,0,1.465391e+00,1.465387e+00,1
7.849220e-01,2.149050e-01,2.069473e-01,3,0,2.193731e+00,2.193734e+00,1
7.845770e-01,2.146830e-01,2.059937e-01,3,0,1.517709e+00,1.517709e+00,1
7.843040e-01,2.142390e-01,2.071857e-01,3,0,1.427008e+00,1.427010e+00,1
7.840400e-01,2.145160e-01,2.059937e-01,3,0,1.394852e+00,1.394853e+00,1
7.850860e-01,2.140920e-01,2.059937e-01,3,0,1.524729e+00,1.524730e+00,1
7.852690e-01,2.145970e-01,2.069473e-01,3,0,1.267355e+00,1.267355e+00,1
7.802380e-01,7.683990e-01,7.600784e-01,3,3,2.152223e+00,2.170430e+00,1
1.046698e+00,9.761530e-01,9.679794e-01,4,4,1.631715e+00,1.656249e+00,1
7.850780e-01,2.531720e-01,2.460480e-01,3,0,1.541825e+00,1.565690e+00,1
7.852550e-01,8.117460e-01,8.041859e-01,3,3,1.512230e+00,1.546144e+00,1
7.794330e-01,4.751420e-01,4.661083e-01,3,1,1.368450e+00,1.542714e+00,1
7.861230e-01,6.245510e-01,6.167889e-01,3,2,9.764712e-01,1.031068e+00,1
7.843450e-01,4.678150e-01,4.589558e-01,3,1,1.184139e+00,1.217280e+00,1
7.852750e-01,5.911930e-01,5.838871e-01,3,2,1.333735e+00,1.333736e+00,1
7.858000e-01,2.139560e-01,2.069473e-01,3,0,9.206006e-01,9.206008e-01,1
7.849790e-01,2.140150e-01,2.069473e-01,3,0,1.716627e+00,1.716629e+00,1
7.846100e-01,2.142540e-01,2.059937e-01,3,0,1.214090e+00,1.214090e+00,1
7.850420e-01,2.144160e-01,2.057552e-01,3,0,1.096866e+00,1.096867e+00,1
7.845420e-01,2.140540e-01,2.069473e-01,3,0,9.923311e-01,9.923314e-01,1
7.847570e-01,2.138790e-01,2.069473e-01,3,0,7.774961e-01,7.774974e-01,1
7.842480e-01,2.142010e-01,2.071857e-01,3,0,5.710486e-01,5.710491e-01,1
7.845980e-01,2.144690e-01,2.069473e-01,3,0,1.121347e+00,1.121349e+00,1
7.870540e-01,2.141240e-01,2.069473e-01,3,0,9.649002e-01,9.649008e-01,1
7.856910e-01,2.144940e-01,2.062321e-01,3,0,9.757279e-01,9.757291e-01,1
7.852290e-01,2.137600e-01,2.059937e-01,3,0,9.184279e-01,9.184282e-01,1
7.853410e-01,2.143740e-01,2.069473e-01,3,0,7.198569e-01,7.198575e-01,1
7.855530e-01,2.138840e-01,2.059937e-01,3,0,8.669969e-01,8.669975e-01,1
7.852330e-01,2.143670e-01,2.057552e-01,3,0,6.692728e-01,6.692730e-01,1
7.849490e-01,2.140210e-01,2.059937e-01,3,0,2.812092e+00,2.812025e+00,1
7.793120e-01,6.036950e-01,5.960464e-01,3,2,6.252122e+00,6.250521e+00,1
1.042598e+00,8.772400e-01,8.699894e-01,4,4,4.778860e+00,4.778860e+00,1
7.794010e-01,2.196830e-01,2.119541e-01,3,0,3.421406e+00,3.421405e+00,1
7.794370e-01,2.192310e-01,2.119541e-01,3,0,2.483568e+00,2.483568e+00,1
7.796480e-01,2.197620e-01,2.121925e-01,3,0,2.719384e+00,2.719386e+00,1
7.789470e-01,2.192510e-01,2.110004e-01,3,0,2.138911e+00,2.138911e+00,1
7.791740e-01,2.201550e-01,2.119541e-01,3,0,2.075938e+00,2.075939e+00,1
7.843290e-01,2.148360e-01,2.069473e-01,3,0,2.464893e+00,2.464896e+00,1
7.843460e-01,2.149450e-01,2.069473e-01,3,0,2.778302e+00,2.778304e+00,1
7.853200e-01,2.143840e-01,2.069473e-01,3,0,2.534843e+00,2.534843e+00,1
7.851500e-01,4.140130e-01,4.050732e-01,3,1,2.713012e+00,2.713670e+00,1
7.881730e-01,3.716870e-01,3.626347e-01,3,1,3.638477e+00,3.638480e+00,1
7.841740e-01,2.149810e-01,2.071857e-01,3,0,2.717860e+00,2.717857e+00,1
7.851200e-01,2.146530e-01,2.059937e-01,3,0,1.865109e+00,1.865108e+00,1
7.851930e-01,2.144170e-01,2.069473e-01,3,0,1.118547e+00,1.118547e+00,1
7.846740e-01,2.139490e-01,2.059937e-01,3,0,7.524168e-01,7.524169e-01,1
7.839520e-01,2.142000e-01,2.059937e-01,3,0,5.861015e-01,5.861019e-01,1
7.854560e-01,2.149880e-01,2.069473e-01,3,0,8.102396e-01,8.102407e-01,1
7.843020e-01,2.142510e-01,2.059937e-01,3,0,5.755474e-01,5.755475e-01,1
7.845730e-01,2.142260e-01,2.069473e-01,3,0,9.391565e-01,9.391577e-01,1
7.831610e-01,2.143140e-01,2.062321e-01,3,0,9.928145e-01,9.928150e-01,1
7.794400e-01,4.202360e-01,4.119873e-01,3,1,9.225296e-01,9.228622e-01,1
7.850200e-01,4.743750e-01,4.670620e-01,3,1,1.185544e+00,1.189099e+00,1
7.858500e-01,3.700840e-01,3.621578e-01,3,1,6.645029e-01,6.645028e-01,1
7.856400e-01,2.146810e-01,2.059937e-01,3,0,5.330671e-01,5.330675e-01,1
7.847780e-01,2.139550e-01,2.069473e-01,3,0,2.707671e+00,2.707678e+00,1
7.845600e-01,2.144570e-01,2.069473e-01,3,0,2.841113e+00,2.841114e+00,1
7.836600e-01,2.144730e-01,2.069473e-01,3,0,1.376632e+00,1.376631e+00,1
7.840260e-01,2.148080e-01,2.069473e-01,3,0,1.368063e+00,1.368064e+00,1
7.848900e-01,2.147470e-01,2.071857e-01,3,0,1.202553e+00,1.202554e+00,1
7.813100e-01,4.143020e-01,4.069805e-01,3,1,1.297007e+00,1.297244e+00,1
7.793640e-01,3.772990e-01,3.700256e-01,3,1,6.570838e-01,6.570836e-01,1
7.836420e-01,2.190130e-01,2.100468e-01,3,0,5.401839e-01,5.401844e-01,1
7.839900e-01,2.142820e-01,2.059937e-01,3,0,1.034198e+00,1.034199e+00,1
7.853320e-01,2.147150e-01,2.079010e-01,3,0,1.306494e+00,1.306495e+00,1
7.854100e-01,2.141610e-01,2.059937e-01,3,0,1.625038e+00,1.625039e+00,1
7.849530e-01,2.148230e-01,2.069473e-01,3,0,1.053127e+00,1.053127e+00,1
7.854980e-01,2.137340e-01,2.050400e-01,3,0,1.004465e+00,1.004466e+00,1
7.842820e-01,2.143430e-01,2.069473e-01,3,0,1.505983e+00,1.505986e+00,1
7.845610e-01,2.145370e-01,2.071857e-01,3,0,2.257561e+00,2.257563e+00,1
7.852560e-01,2.144740e-01,2.069473e-01,3,0,2.515954e+00,2.515955e+00,1
7.848920e-01,4.160150e-01,4.091263e-01,3,1,3.514011e+00,3.521366e+00,1
7.854080e-01,2.537700e-01,2.458096e-01,3,0,3.331659e+00,3.343823e+00,1
7.855230e-01,6.992280e-01,6.918907e-01,3,3,5.239641e+00,5.238739e+00,1
1.043490e+00,4.773430e-01,4.699230e-01,4,2,2.319730e+00,2.319728e+00,1
7.842740e-01,2.146020e-01,2.067089e-01,3,0,1.922216e+00,1.922217e+00,1
7.788870e-01,4.170430e-01,4.091263e-01,3,1,2.797239e+00,2.797275e+00,1
7.845080e-01,3.772040e-01,3.690720e-01,3,1,1.389003e+00,1.389001e+00,1
7.839790e-01,2.150170e-01,2.079010e-01,3,0,1.155720e+00,1.155720e+00,1
7.851110e-01,2.143600e-01,2.062321e-01,3,0,9.296065e-01,9.296068e-01,1
7.840710e-01,2.137860e-01,2.069473e-01,3,0,6.205235e-01,6.205233e-01,1
7.852120e-01,2.144170e-01,2.069473e-01,3,0,1.320994e+00,1.320996e+00,1
7.848680e-01,2.145980e-01,2.069473e-01,3,0,9.903784e-01,9.903785e-01,1
7.855670e-01,2.142470e-01,2.071857e-01,3,0,5.586414e-01,5.586414e-01,1
7.840800e-01,2.145100e-01,2.059937e-01,3,0,1.249720e+00,1.249722e+00,1
7.848140e-01,2.141630e-01,2.069473e-01,3,0,8.726678e-01,8.726678e-01,1
7.852950e-01,2.143690e-01,2.050400e-01,3,0,4.713378e-01,4.713381e-01,1
7.838320e-01,2.141820e-01,2.050400e-01,3,0,5.132423e-01,5.132427e-01,1
7.846080e-01,2.144080e-01,2.059937e-01,3,0,6.622897e-01,6.622906e-01,1
7.846820e-01,4.132020e-01,4.050732e-01,3,1,1.001999e+00,1.002496e+00,1
7.840300e-01,4.407300e-01,4.329681e-01,3,1,2.086643e+00,2.087102e+00,1
7.836730e-01,4.151260e-01,4.069805e-01,3,1,1.512769e+00,1.528143e+00,1
7.852050e-01,6.247190e-01,6.170273e-01,3,2,2.737894e+00,2.831896e+00,1
7.795180e-01,5.723730e-01,5.636215e-01,3,2,1.205496e+00,1.205635e+00,1
7.849330e-01,3.778070e-01,3.700256e-01,3,1,9.613929e-01,9.613935e-01,1
7.845180e-01,2.143830e-01,2.069473e-01,3,0,6.414082e-01,6.414081e-01,1
7.855110e-01,2.144270e-01,2.071857e-01,3,0,5.920689e-01,5.920696e-01,1
7.853060e-01,2.143310e-01,2.069473e-01,3,0,1.661641e+00,1.661645e+00,1
7.843610e-01,2.151380e-01,2.071857e-01,3,0,1.672177e+00,1.672178e+00,1
7.841770e-01,2.144950e-01,2.071857e-01,3,0,2.572674e+00,2.572648e+00,1
7.845220e-01,2.143430e-01,2.069473e-01,3,0,2.653660e+00,2.653656e+00,1
7.846730e-01,2.147520e-01,2.079010e-01,3,0,3.049365e+00,3.049366e+00,1
7.854490e-01,4.162120e-01,4.081726e-01,3,1,4.979113e+00,4.985933e+00,1
7.849840e-01,2.544150e-01,2.460480e-01,3,0,5.577266e+00,5.580801e+00,1
7.802840e-01,5.758470e-01,5.681515e-01,3,2,4.167758e+00,4.177750e+00,1
7.861860e-01,4.456930e-01,4.370213e-01,3,1,3.740126e+00,3.751028e+00,1
7.873700e-01,5.940790e-01,5.860329e-01,3,2,5.220948e+00,5.232045e+00,1
7.855230e-01,7.336570e-01,7.259846e-01,3,3,3.549991e+00,3.552225e+00,1
7.854320e-01,3.729210e-01,3.647804e-01,3,1,2.943434e+00,2.943435e+00,1
7.848610e-01,2.147780e-01,2.057552e-01,3,0,2.946009e+00,2.946013e+00,1
7.853800e-01,2.150320e-01,2.071857e-01,3,0,3.158371e+00,3.158373e+00,1
7.847800e-01,4.147880e-01,4.069805e-01,3,1,3.444558e+00,3.458881e+00,1
7.844830e-01,3.702980e-01,3.631115e-01,3,1,2.542775e+00,2.542776e+00,1
7.842720e-01,2.141430e-01,2.059937e-01,3,0,2.465111e+00,2.465112e+00,1
7.801650e-01,2.156360e-01,2.090931e-01,3,0,3.193802e+00,3.193804e+00,1
7.840120e-01,4.172520e-01,4.079342e-01,3,1,3.530768e+00,3.530821e+00,1
7.848750e-01,3.714840e-01,3.628731e-01,3,1,2.250885e+00,2.250861e+00,1
7.853040e-01,2.148810e-01,2.079010e-01,3,0,2.172056e+00,2.171848e+00,1
7.846120e-01,2.147140e-01,2.071857e-01,3,0,1.285225e+00,1.285204e+00,1
7.845990e-01,2.147770e-01,2.071857e-01,3,0,1.246174e+00,1.246134e+00,1

