5.558910e-01,2.455674e+02,2.453141e+02,2,1000,0.000000e+00,-1.843144e-18,0
7.850180e-01,8.661879e+00,8.651018e+00,3,43,1.477751e-01,1.477754e-01,1
7.779540e-01,2.206960e-01,2.131462e-01,3,0,2.697547e-01,2.697553e-01,1
7.783530e-01,2.207430e-01,2.131462e-01,3,0,5.751734e-01,5.751744e-01,1
7.774420e-01,2.186160e-01,2.110004e-01,3,0,5.282505e-01,5.282509e-01,1
7.826920e-01,2.192780e-01,2.062321e-01,3,0,2.459757e+00,2.459761e+00,1
7.829370e-01,2.147820e-01,2.062321e-01,3,0,3.443760e+00,3.443762e+00,1
7.836070e-01,2.156930e-01,2.081394e-01,3,0,4.529692e+00,4.529694e+00,1
7.841110e-01,2.143490e-01,2.059937e-01,3,0,2.216738e+00,2.216737e+00,1
7.836030e-01,2.137920e-01,2.050400e-01,3,0,1.963306e+00,1.963307e+00,1
7.832090e-01,2.144170e-01,2.069473e-01,3,0,1.634474e+00,1.634475e+00,1
7.824360e-01,2.140550e-01,2.059937e-01,3,0,1.888457e+00,1.888459e+00,1
7.827240e-01,2.143230e-01,2.069473e-01,3,0,3.113620e+00,3.113623e+00,1
7.833110e-01,2.144690e-01,2.069473e-01,3,0,4.240895e+00,4.240898e+00,1
7.846580e-01,4.078830e-01,4.000664e-01,3,1,3.884715e+00,3.887958e+00,1
7.829530e-01,4.316860e-01,4.239082e-01,3,1,5.420458e+00,5.428553e+00,1
7.798700e-01,4.168480e-01,4.079342e-01,3,1,4.235205e+00,4.235399e+00,1
7.833720e-01,3.761730e-01,3.681183e-01,3,1,3.702471e+00,3.702472e+00,1
7.824770e-01,5.996530e-01,5.910397e-01,3,2,3.546971e+00,3.557237e+00,1
7.829830e-01,2.532060e-01,2.460480e-01,3,0,3.362838e+00,3.374992e+00,1
7.774360e-01,6.029640e-01,5.950928e-01,3,2,3.502663e+00,3.524048e+00,1
7.836260e-01,4.145240e-01,4.060268e-01,3,1,2.920580e+00,2.921994e+00,1
7.840710e-01,2.533590e-01,2.460480e-01,3,0,2.647642e+00,2.654071e+00,1
7.825110e-01,5.965900e-01,5.879402e-01,3,2,2.317108e+00,2.433269e+00,1
7.785910e-01,4.757060e-01,4.668236e-01,3,1,2.280358e+00,2.322225e+00,1
7.822830e-01,2.577890e-01,2.498627e-01,3,0,2.200572e+00,2.200711e+00,1
7.844790e-01,3.700620e-01,3.609657e-01,3,1,1.829212e+00,1.829152e+00,1
7.836660e-01,2.140580e-01,2.069473e-01,3,0,1.319248e+00,1.318786e+00,1
7.829150e-01,2.139070e-01,2.059937e-01,3,0,6.534984e-01,6.535009e-01,1
7.837090e-01,2.131330e-01,2.050400e-01,3,0,5.567998e-01,5.568000e-01,1
7.829420e-01,2.140670e-01,2.069473e-01,3,0,1.120268e+00,1.120270e+00,1
7.835850e-01,2.138140e-01,2.071857e-01,3,0,1.325162e+00,1.325163e+00,1
7.831670e-01,2.141600e-01,2.069473e-01,3,0,1.150528e+00,1.150528e+00,1
7.833380e-01,2.144710e-01,2.069473e-01,3,0,1.774555e+00,1.774557e+00,1
7.831030e-01,2.139420e-01,2.069473e-01,3,0,1.456476e+00,1.456476e+00,1
7.829010e-01,2.141870e-01,2.059937e-01,3,0,1.080970e+00,1.080970e+00,1
7.834170e-01,2.144030e-01,2.069473e-01,3,0,7.962757e-01,7.962763e-01,1
7.829670e-01,2.148950e-01,2.071857e-01,3,0,6.548356e-01,6.548361e-01,1
7.837410e-01,4.134080e-01,4.050732e-01,3,1,1.660106e+00,1.660411e+00,1
7.795140e-01,3.762790e-01,3.690720e-01,3,1,1.837470e+00,1.837471e+00,1
7.864900e-01,7.723430e-01,7.650852e-01,3,3,4.150749e+00,4.239557e+00,1
7.853420e-01,7.462060e-01,7.379055e-01,3,3,5.688163e+00,5.694845e+00,1
7.858710e-01,5.257660e-01,5.171299e-01,3,2,3.619173e+00,3.619169e+00,1
7.832310e-01,4.149350e-01,4.069805e-01,3,1,5.472907e+00,5.473067e+00,1
7.825250e-01,3.709330e-01,3.619194e-01,3,1,4.375941e+00,4.375941e+00,1
7.779910e-01,2.141630e-01,2.059937e-01,3,0,3.528658e+00,3.528658e+00,1
7.776760e-01,2.191250e-01,2.110004e-01,3,0,3.170248e+00,3.170249e+00,1
7.780490e-01,2.195430e-01,2.110004e-01,3,0,2.643302e+00,2.643303e+00,1
7.784320e-01,2.195350e-01,2.119541e-01,3,0,2.127032e+00,2.127032e+00,1
7.777620e-01,2.205940e-01,2.121925e-01,3,0,1.353564e+00,1.353564e+00,1
7.772050e-01,2.189360e-01,2.119541e-01,3,0,1.201780e+00,1.201781e+00,1
7.848290e-01,4.098130e-01,4.019737e-01,3,1,1.935873e+00,1.938873e+00,1
7.859530e-01,3.710700e-01,3.616810e-01,3,1,1.424564e+00,1.424564e+00,1
7.855560e-01,4.133070e-01,4.050732e-01,3,1,1.217132e+00,1.217591e+00,1
7.849650e-01,9.750110e-01,9.658337e-01,3,4,1.612301e+00,1.637165e+00,1
7.849430e-01,4.106160e-01,4.019737e-01,3,1,2.205653e+00,2.234093e+00,1
1.046334e+00,3.706500e-01,3.621578e-01,4,1,1.214929e+00,1.214929e+00,1
7.841460e-01,2.146610e-01,2.069473e-01,3,0,1.850409e+00,1.850411e+00,1
7.834440e-01,2.139830e-01,2.069473e-01,3,0,2.592462e+00,2.592461e+00,1
7.831730e-01,4.060640e-01,3.988743e-01,3,1,3.880669e+00,3.882258e+00,1
7.839650e-01,3.710660e-01,3.640652e-01,3,1,1.751065e+00,1.751069e+00,1
7.846720e-01,4.140320e-01,4.072189e-01,3,1,3.743403e+00,3.798252e+00,1
7.855670e-01,2.010513e+00,1.998901e+00,3,7,7.061598e+00,7.328098e+00,0
7.863550e-01,1.312696e+00,1.304865e+00,3,7,3.868531e+00,3.868520e+00,1
7.866080e-01,1.065878e+00,1.055956e+00,3,2,5.336208e+00,5.750018e+00,0
1.043091e+00,8.718850e-01,8.637905e-01,4,4,2.285561e+00,2.285560e+00,1
7.837480e-01,2.145550e-01,2.059937e-01,3,0,2.476828e+00,2.476827e+00,1
7.831540e-01,2.152410e-01,2.062321e-01,3,0,1.966015e+00,1.966016e+00,1
7.826850e-01,2.134200e-01,2.050400e-01,3,0,1.518141e+00,1.518141e+00,1
7.840900e-01,2.150340e-01,2.069473e-01,3,0,1.185555e+00,1.185556e+00,1
7.835470e-01,2.142050e-01,2.062321e-01,3,0,1.750564e+00,1.750565e+00,1
7.829430e-01,2.148070e-01,2.069473e-01,3,0,1.779765e+00,1.779766e+00,1
7.830160e-01,2.140620e-01,2.050400e-01,3,0,1.799250e+00,1.799251e+00,1
7.798610e-01,4.179660e-01,4.100800e-01,3,1,2.027236e+00,2.028424e+00,1
7.854490e-01,6.203600e-01,6.132126e-01,3,2,2.953748e+00,2.982704e+00,1
7.847190e-01,4.310730e-01,4.229546e-01,3,1,3.972893e+00,4.030506e+00,1
7.833870e-01,9.139660e-01,9.059906e-01,3,4,2.419968e+00,2.463277e+00,1
7.839310e-01,6.244410e-01,6.170273e-01,3,2,2.421935e+00,2.437840e+00,1
7.824210e-01,2.533330e-01,2.450943e-01,3,0,1.788399e+00,1.804446e+00,1
7.788590e-01,3.763850e-01,3.688335e-01,3,1,8.657456e-01,8.657455e-01,1
7.780930e-01,2.190870e-01,2.100468e-01,3,0,2.874666e+00,2.874671e+00,1
7.773350e-01,2.198260e-01,2.119541e-01,3,0,2.140292e+00,2.140292e+00,1
7.834770e-01,2.191570e-01,2.059937e-01,3,0,1.924900e+00,1.924901e+00,1
7.837120e-01,4.144800e-01,4.072189e-01,3,1,1.857077e+00,1.884809e+00,1
7.864570e-01,3.706000e-01,3.619194e-01,3,1,2.627106e+00,2.627111e+00,1
7.836390e-01,4.065920e-01,3.981590e-01,3,1,4.756818e+00,4.760565e+00,1
7.862610e-01,6.281500e-01,6.198883e-01,3,2,7.169829e+00,7.245884e+00,1
7.873750e-01,2.288111e+00,2.277136e+00,3,9,1.051339e+01,1.376895e+01,0
7.877810e-01,1.732046e+00,1.724005e+00,3,9,8.572963e+00,8.894003e+00,1
7.850590e-01,1.065786e+00,1.056910e+00,3,5,6.102340e+00,6.115956e+00,1
7.788840e-01,5.313860e-01,5.238056e-01,3,2,4.694680e+00,4.694680e+00,1
7.781620e-01,2.200590e-01,2.117157e-01,3,0,3.311402e+00,3.311402e+00,1
7.861630e-01,6.007920e-01,5.869865e-01,3,2,4.676176e+00,4.680937e+00,1
7.779720e-01,6.010330e-01,5.929470e-01,3,2,3.504615e+00,3.516836e+00,1
7.836520e-01,7.926350e-01,7.839203e-01,3,3,4.557084e+00,4.644140e+00,1
1.044989e+00,2.087740e+00,2.080202e+00,4,11,5.036996e+00,5.142376e+00,1
1.041867e+00,1.722598e+00,1.713991e+00,4,9,2.185318e+00,2.256323e+00,1
7.833930e-01,3.715540e-01,3.631115e-01,3,1,1.915967e+00,1.915968e+00,1
7.820850e-01,2.146390e-01,2.069473e-01,3,0,2.722432e+00,2.722435e+00,1
7.777940e-01,4.117120e-01,4.041195e-01,3,1,2.949001e+00,2.954722e+00,1
7.797430e-01,3.770670e-01,3.688335e-01,3,1,2.228318e+00,2.228318e+00,1
7.819770e-01,2.189310e-01,2.110004e-01,3,0,2.545234e+00,2.545236e+00,1
7.836680e-01,2.139190e-01,2.052784e-01,3,0,1.502043e+00,1.502044e+00,1
7.834090e-01,2.144620e-01,2.062321e-01,3,0,1.371448e+00,1.371448e+00,1
7.836000e-01,2.144580e-01,2.071857e-01,3,0,1.136427e+00,1.136427e+00,1
7.832810e-01,2.140350e-01,2.059937e-01,3,0,1.174077e+00,1.174078e+00,1
7.841940e-01,4.134910e-01,4.048347e-01,3,1,1.642144e+00,1.642347e+00,1
7.822900e-01,5.702780e-01,5.619526e-01,3,2,1.794969e+00,1.799210e+00,1
7.835290e-01,4.734440e-01,4.661083e-01,3,1,1.165205e+00,1.168311e+00,1
7.838640e-01,8.096640e-01,8.010864e-01,3,3,1.172119e+00,1.225554e+00,1
7.827210e-01,2.543480e-01,2.470016e-01,3,0,1.083212e+00,1.105672e+00,1
7.822960e-01,2.526980e-01,2.448559e-01,3,0,8.886640e-01,8.886668e-01,1
7.790020e-01,3.768380e-01,3.681183e-01,3,1,6.353263e-01,6.353264e-01,1
7.768000e-01,2.185060e-01,2.098083e-01,3,0,1.101719e+00,1.101720e+00,1
7.769440e-01,2.193420e-01,2.110004e-01,3,0,5.897289e-01,5.897290e-01,1
7.832680e-01,2.190010e-01,2.112389e-01,3,0,6.727555e-01,6.727560e-01,1
7.825190e-01,2.149590e-01,2.081394e-01,3,0,1.712291e+00,1.712294e+00,1
7.832450e-01,2.150090e-01,2.071857e-01,3,0,1.244475e+00,1.244475e+00,1
7.834720e-01,4.128760e-01,4.048347e-01,3,1,3.965856e+00,3.971743e+00,1
7.847540e-01,5.699960e-01,5.631447e-01,3,2,2.759459e+00,2.801875e+00,1
7.827360e-01,2.540550e-01,2.460480e-01,3,0,2.685961e+00,2.877987e+00,1
7.832100e-01,4.731890e-01,4.649162e-01,3,1,3.361085e+00,3.472358e+00,1
7.850570e-01,3.705910e-01,3.631115e-01,3,1,3.043491e+00,3.043491e+00,1
7.825400e-01,2.142100e-01,2.069473e-01,3,0,3.359707e+00,3.359709e+00,1
7.844690e-01,1.069010e+00,1.057863e+00,3,2,5.926757e+00,6.852260e+00,0
7.784970e-01,9.161180e-01,9.078979e-01,3,4,3.879667e+00,3.879931e+00,1
7.842990e-01,4.160620e-01,4.079342e-01,3,1,2.958350e+00,2.958369e+00,1
7.837030e-01,5.697230e-01,5.619526e-01,3,2,2.584689e+00,2.590235e+00,1
1.040812e+00,3.701350e-01,3.619194e-01,4,1,1.524175e+00,1.524177e+00,1
7.773550e-01,2.200600e-01,2.129078e-01,3,0,1.693966e+00,1.693958e+00,1
7.774010e-01,2.193130e-01,2.112389e-01,3,0,1.059656e+00,1.059657e+00,1
7.769470e-01,2.189340e-01,2.110004e-01,3,0,1.377541e+00,1.377543e+00,1
7.777660e-01,2.183160e-01,2.110004e-01,3,0,6.229854e-01,6.229856e-01,1
7.770670e-01,2.188430e-01,2.110004e-01,3,0,5.073364e-01,5.073367e-01,1
7.823500e-01,2.183940e-01,2.059937e-01,3,0,5.285171e-01,5.285175e-01,1
7.851210e-01,4.156920e-01,4.079342e-01,3,1,1.134791e+00,1.144313e+00,1
7.833970e-01,5.863290e-01,5.788803e-01,3,2,1.174135e+00,1.174136e+00,1
7.823860e-01,2.132610e-01,2.059937e-01,3,0,9.917023e-01,9.917025e-01,1
7.822840e-01,2.146840e-01,2.059937e-01,3,0,1.082230e+00,1.082231e+00,1
7.829280e-01,2.139980e-01,2.059937e-01,3,0,9.188136e-01,9.188141e-01,1
7.825450e-01,2.142180e-01,2.071857e-01,3,0,1.703315e+00,1.703317e+00,1
7.799140e-01,4.189570e-01,4.100800e-01,3,1,2.887266e+00,2.888965e+00,1
7.860170e-01,6.082430e-01,6.010532e-01,3,2,3.270435e+00,3.317183e+00,1
1.040225e+00,6.300900e-01,6.220341e-01,4,2,2.575823e+00,2.650428e+00,1
7.854960e-01,4.393480e-01,4.320145e-01,3,1,2.284671e+00,2.377443e+00,1
7.841120e-01,6.243320e-01,6.160736e-01,3,2,2.114043e+00,2.262669e+00,1
7.798450e-01,4.148500e-01,4.069805e-01,3,1,1.525459e+00,1.651589e+00,1
7.854720e-01,2.529810e-01,2.450943e-01,3,0,1.312818e+00,1.323701e+00,1
7.844400e-01,3.716250e-01,3.640652e-01,3,1,2.265458e+00,2.265462e+00,1
7.850610e-01,2.167800e-01,2.088547e-01,3,0,3.244754e+00,3.244757e+00,1
7.845810e-01,2.144230e-01,2.069473e-01,3,0,1.985182e+00,1.985181e+00,1
7.833420e-01,2.150520e-01,2.069473e-01,3,0,1.886946e+00,1.886947e+00,1
7.830050e-01,2.140200e-01,2.059937e-01,3,0,1.696303e+00,1.696304e+00,1
7.830390e-01,2.146270e-01,2.069473e-01,3,0,1.557803e+00,1.557803e+00,1
7.828570e-01,2.154700e-01,2.069473e-01,3,0,1.282779e+00,1.282780e+00,1
7.903640e-01,4.158220e-01,4.079342e-01,3,1,1.440062e+00,1.440373e+00,1
7.823630e-01,3.764130e-01,3.681183e-01,3,1,2.354947e+00,2.354950e+00,1
7.774100e-01,2.193350e-01,2.119541e-01,3,0,2.261473e+00,2.261473e+00,1
7.777430e-01,2.203010e-01,2.129078e-01,3,0,2.397506e+00,2.397507e+00,1
7.782130e-01,2.197130e-01,2.110004e-01,3,0,2.726403e+00,2.726406e+00,1
7.775650e-01,2.197510e-01,2.129078e-01,3,0,1.245363e+00,1.245363e+00,1
7.779160e-01,2.199670e-01,2.117157e-01,3,0,9.887013e-01,9.887019e-01,1
7.775700e-01,2.187970e-01,2.110004e-01,3,0,1.044758e+00,1.044759e+00,1
7.775670e-01,2.189580e-01,2.110004e-01,3,0,4.640929e-01,4.640938e-01,1
7.830150e-01,2.188530e-01,2.069473e-01,3,0,4.688404e-01,4.688407e-01,1
7.832410e-01,2.141820e-01,2.050400e-01,3,0,8.076118e-01,8.076128e-01,1
7.829430e-01,2.138540e-01,2.059937e-01,3,0,6.890079e-01,6.890080e-01,1
7.839020e-01,2.145580e-01,2.079010e-01,3,0,1.878360e+00,1.878364e+00,1
7.843700e-01,2.149550e-01,2.071857e-01,3,0,1.407735e+00,1.407737e+00,1
7.841460e-01,2.142800e-01,2.069473e-01,3,0,9.991587e-01,9.991590e-01,1
7.829140e-01,4.144550e-01,4.060268e-01,3,1,8.932517e-01,8.941772e-01,1
7.830040e-01,3.706840e-01,3.631115e-01,3,1,9.106466e-01,9.106471e-01,1
7.832920e-01,2.138890e-01,2.059937e-01,3,0,9.353766e-01,9.353773e-01,1
7.828260e-01,2.137040e-01,2.050400e-01,3,0,5.963682e-01,5.963684e-01,1
7.818830e-01,2.142900e-01,2.062321e-01,3,0,6.619421e-01,6.619430e-01,1
7.825210e-01,2.140540e-01,2.059937e-01,3,0,5.469526e-01,5.469532e-01,1
7.835690e-01,2.138670e-01,2.048016e-01,3,0,4.720932e-01,4.720936e-01,1
7.832790e-01,2.143270e-01,2.069473e-01,3,0,1.262910e+00,1.262913e+00,1
7.818900e-01,2.142480e-01,2.069473e-01,3,0,8.033939e-01,8.033948e-01,1
7.777550e-01,4.207900e-01,4.119873e-01,3,1,1.262700e+00,1.263467e+00,1
7.844130e-01,4.448180e-01,4.370213e-01,3,1,2.039534e+00,2.050020e+00,1
7.836880e-01,4.671770e-01,4.580021e-01,3,1,1.740741e+00,1.780507e+00,1
7.830970e-01,4.671850e-01,4.580021e-01,3,1,1.973091e+00,1.989840e+00,1
7.843550e-01,6.014890e-01,5.941391e-01,3,2,1.397186e+00,1.441107e+00,1
7.833700e-01,4.099760e-01,4.010201e-01,3,1,1.389499e+00,1.410118e+00,1
7.826600e-01,4.696660e-01,4.620552e-01,3,1,1.588936e+00,1.621988e+00,1
7.822660e-01,2.533020e-01,2.460480e-01,3,0,3.464564e+00,3.476235e+00,1
7.773960e-01,3.765490e-01,3.688335e-01,3,1,4.592461e+00,4.592464e+00,1
7.782260e-01,2.217790e-01,2.131462e-01,3,0,4.075414e+00,4.075414e+00,1
7.784210e-01,2.189640e-01,2.110004e-01,3,0,3.306959e+00,3.306960e+00,1
7.773330e-01,2.190610e-01,2.110004e-01,3,0,3.037190e+00,3.037191e+00,1
7.828240e-01,2.198840e-01,2.062321e-01,3,0,2.082030e+00,2.082030e+00,1
7.826090e-01,2.140570e-01,2.059937e-01,3,0,2.064062e+00,2.064063e+00,1
7.843710e-01,5.794380e-01,5.719662e-01,3,2,2.031354e+00,2.031201e+00,1
1.043177e+00,5.282940e-01,5.209446e-01,4,2,1.582963e+00,1.582963e+00,1
7.836570e-01,6.293450e-01,6.210804e-01,3,2,1.397065e+00,1.404070e+00,1
7.848100e-01,8.147600e-01,8.070469e-01,3,3,2.794303e+00,2.939548e+00,1
1.303241e+00,7.991500e-01,7.920265e-01,5,3,5.814700e+00,5.853380e+00,1
1.555931e+00,8.904000e-01,8.809566e-01,6,4,6.067264e+00,6.046262e+00,1
1.300134e+00,4.178960e-01,4.110336e-01,5,1,6.359437e+00,6.358846e+00,1
1.042013e+00,4.287580e-01,4.200935e-01,4,1,7.386813e+00,7.395420e+00,1
1.303695e+00,9.619030e-01,9.539127e-01,5,4,1.049895e+01,1.058962e+01,1
7.779340e-01,8.460860e-01,8.378029e-01,3,4,6.789607e+00,6.789584e+00,1
7.872660e-01,4.231920e-01,4.148483e-01,3,1,8.302639e+00,8.305092e+00,1
7.853320e-01,3.714910e-01,3.631115e-01,3,1,6.378506e+00,6.378505e+00,1
7.843430e-01,2.147520e-01,2.069473e-01,3,0,5.885419e+00,5.885400e+00,1
7.838270e-01,4.118950e-01,4.050732e-01,3,1,4.120540e+00,4.123720e+00,1
7.840890e-01,1.241538e+00,1.230717e+00,3,3,5.102275e+00,5.337154e+00,0
7.788740e-01,4.170680e-01,4.088879e-01,3,1,3.483355e+00,3.504124e+00,1
7.851100e-01,1.461578e+00,1.453876e+00,3,7,4.505625e+00,4.629853e+00,1
1.040814e+00,1.658971e+00,1.651049e+00,4,9,1.476639e+00,1.476892e+00,1
7.782170e-01,2.601630e-01,2.510548e-01,3,0,1.749115e+00,1.788277e+00,1
7.841770e-01,3.769480e-01,3.700256e-01,3,1,3.253409e+00,3.253414e+00,1
7.826660e-01,2.153040e-01,2.069473e-01,3,0,2.445909e+00,2.445909e+00,1
7.842740e-01,4.144170e-01,4.069805e-01,3,1,3.937491e+00,3.959709e+00,1
7.832170e-01,2.544400e-01,2.458096e-01,3,0,3.508867e+00,3.508906e+00,1
7.838900e-01,1.063761e+00,1.053095e+00,3,2,6.102961e+00,6.200395e+00,0
1.046033e+00,6.584860e-01,6.508827e-01,4,3,3.111345e+00,3.111343e+00,1
7.835570e-01,2.142230e-01,2.059937e-01,3,0,2.559139e+00,2.559139e+00,1
7.831150e-01,2.146520e-01,2.071857e-01,3,0,2.030544e+00,2.030545e+00,1
7.838780e-01,2.143500e-01,2.069473e-01,3,0,2.029548e+00,2.029549e+00,1
7.834680e-01,2.150400e-01,2.059937e-01,3,0,2.181584e+00,2.181585e+00,1
7.844680e-01,4.155830e-01,4.069805e-01,3,1,3.319721e+00,3.321892e+00,1
7.841970e-01,3.730060e-01,3.659725e-01,3,1,1.511241e+00,1.511238e+00,1
7.822310e-01,2.149570e-01,2.079010e-01,3,0,1.011055e+00,1.011055e+00,1
7.830740e-01,2.150130e-01,2.069473e-01,3,0,1.167476e+00,1.167477e+00,1
7.831300e-01,2.151380e-01,2.079010e-01,3,0,1.131952e+00,1.131953e+00,1
7.826260e-01,2.143110e-01,2.059937e-01,3,0,8.765723e-01,8.765724e-01,1
7.830610e-01,2.142040e-01,2.059937e-01,3,0,1.412698e+00,1.412701e+00,1
7.815480e-01,2.144350e-01,2.069473e-01,3,0,2.056964e+00,2.056966e+00,1
7.830150e-01,2.151110e-01,2.071857e-01,3,0,3.116109e+00,3.116112e+00,1
7.839850e-01,5.991280e-01,5.919933e-01,3,2,6.740493e+00,6.745076e+00,1
7.807170e-01,9.899450e-01,9.820461e-01,3,4,8.750713e+00,8.803520e+00,1
7.855870e-01,1.569890e+00,1.562119e+00,3,8,5.960113e+00,5.968440e+00,1
7.838390e-01,2.547730e-01,2.479553e-01,3,0,7.358279e+00,7.385679e+00,1
7.777820e-01,5.966760e-01,5.891323e-01,3,2,5.301867e+00,5.308961e+00,1
7.858490e-01,4.170410e-01,4.088879e-01,3,1,4.201623e+00,4.203380e+00,1
7.852560e-01,5.972920e-01,5.891323e-01,3,2,4.668147e+00,4.696684e+00,1
7.852410e-01,3.713660e-01,3.628731e-01,3,1,2.559425e+00,2.559422e+00,1
7.830020e-01,2.148120e-01,2.059937e-01,3,0,1.912133e+00,1.912137e+00,1
7.832340e-01,2.147820e-01,2.069473e-01,3,0,1.470410e+00,1.470411e+00,1
7.827960e-01,2.144650e-01,2.059937e-01,3,0,1.392732e+00,1.392733e+00,1
7.837720e-01,2.148680e-01,2.069473e-01,3,0,1.343528e+00,1.343529e+00,1
7.829410e-01,2.146880e-01,2.069473e-01,3,0,2.104442e+00,2.104444e+00,1
7.835230e-01,2.141920e-01,2.050400e-01,3,0,7.177930e-01,7.177924e-01,1
7.776670e-01,2.150450e-01,2.069473e-01,3,0,2.874755e+00,2.874762e+00,1
7.851020e-01,7.907310e-01,7.829666e-01,3,3,6.304743e+00,6.404735e+00,1
7.787550e-01,6.902250e-01,6.830692e-01,3,3,3.721556e+00,3.721512e+00,1
7.777040e-01,2.198510e-01,2.131462e-01,3,0,2.658603e+00,2.658603e+00,1
7.774550e-01,2.202790e-01,2.131462e-01,3,0,2.180672e+00,2.180673e+00,1
7.777190e-01,2.190910e-01,2.107620e-01,3,0,1.855125e+00,1.855126e+00,1
7.775240e-01,2.202320e-01,2.129078e-01,3,0,1.736404e+00,1.736405e+00,1
7.831630e-01,2.194720e-01,2.110004e-01,3,0,2.910387e+00,2.910391e+00,1
7.838950e-01,4.116900e-01,4.038811e-01,3,1,2.265315e+00,2.265337e+00,1
7.838390e-01,2.542960e-01,2.458096e-01,3,0,1.629329e+00,1.629336e+00,1
7.857580e-01,3.715220e-01,3.628731e-01,3,1,1.821676e+00,1.821677e+00,1
7.777750e-01,6.052450e-01,5.979538e-01,3,2,3.123181e+00,3.154689e+00,1
7.782570e-01,2.590530e-01,2.510548e-01,3,0,5.047766e+00,5.104388e+00,1
7.868540e-01,1.321650e+00,1.313925e+00,3,6,9.141304e+00,9.303219e+00,1
1.043624e+00,1.610919e+00,1.604080e+00,4,8,1.117011e+01,1.160567e+01,1
7.879140e-01,1.761613e+00,1.749754e+00,3,6,1.009095e+01,1.105260e+01,0
7.843240e-01,2.430260e+00,2.419949e+00,3,10,1.058302e+01,1.129736e+01,0
7.845440e-01,1.757312e+00,1.749039e+00,3,9,8.923972e+00,8.999852e+00,1
7.791740e-01,9.061070e-01,8.971691e-01,3,4,9.367430e+00,9.444522e+00,1
7.789150e-01,2.594920e-01,2.510548e-01,3,0,9.324215e+00,9.379099e+00,1
7.874530e-01,1.292020e+00,1.284122e+00,3,6,7.680179e+00,7.708571e+00,1
7.843980e-01,7.550710e-01,7.469654e-01,3,3,6.624371e+00,6.672389e+00,1
7.844370e-01,6.035940e-01,5.960464e-01,3,2,5.080024e+00,5.080126e+00,1
7.860290e-01,5.961440e-01,5.888939e-01,3,2,4.652110e+00,4.659974e+00,1
7.869500e-01,1.148369e+00,1.139879e+00,3,5,4.714276e+00,4.748794e+00,1
1.558978e+00,1.974243e+00,1.964808e+00,6,10,6.101089e+00,6.448312e+00,1
1.557450e+00,1.062472e+00,1.050711e+00,6,2,1.135291e+01,1.823608e+01,0
1.557158e+00,7.085820e-01,6.990433e-01,6,0,1.286436e+01,1.868269e+01,0
1.560114e+00,7.070710e-01,6.961823e-01,6,0,1.464135e+01,1.634294e+01,0
1.305534e+00,7.025410e-01,6.921291e-01,5,0,1.295802e+01,1.036279e+01,0
1.045100e+00,7.024480e-01,6.914139e-01,4,0,1.319905e+01,1.017760e+01,0
1.304286e+00,7.017750e-01,6.923676e-01,5,0,1.619020e+01,1.556068e+01,0
1.044699e+00,4.757026e+00,4.743099e+00,4,24,1.507478e+01,1.794082e+01,0
1.041935e+00,1.544494e+00,1.533747e+00,4,5,1.252192e+01,1.474802e+01,0
7.875010e-01,2.746118e+00,2.734661e+00,3,12,1.068193e+01,1.109767e+01,0
7.848580e-01,1.746415e+00,1.739025e+00,3,9,9.375000e+00,9.425519e+00,1
7.841900e-01,1.219576e+00,1.206160e+00,3,3,7.960185e+00,8.355074e+00,0
7.842840e-01,7.190380e-01,7.071495e-01,3,0,7.132835e+00,8.591097e+00,0
7.791090e-01,1.885770e+00,1.876354e+00,3,7,7.279126e+00,1.166721e+01,0
1.040805e+00,7.515660e-01,7.410049e-01,4,1,4.157511e+00,4.165330e+00,0
7.828320e-01,2.152060e-01,2.059937e-01,3,0,3.598931e+00,3.598909e+00,1
7.840250e-01,5.939670e-01,5.841255e-01,3,0,3.904977e+00,6.038164e+00,0
1.297653e+00,4.123880e-01,4.050732e-01,5,1,2.784785e+00,2.786234e+00,1
7.841670e-01,9.249780e-01,9.160042e-01,3,4,2.346019e+00,2.352452e+00,1
1.041252e+00,6.919430e-01,6.837845e-01,4,3,1.932852e+00,1.932678e+00,1
7.838870e-01,2.147170e-01,2.079010e-01,3,0,1.237885e+00,1.237847e+00,1
7.825760e-01,2.140200e-01,2.048016e-01,3,0,7.578909e-01,7.578935e-01,1
7.830340e-01,2.146940e-01,2.069473e-01,3,0,5.986300e-01,5.986311e-01,1
7.826180e-01,2.145910e-01,2.059937e-01,3,0,8.249606e-01,8.249615e-01,1
7.827610e-01,2.148190e-01,2.069473e-01,3,0,1.063487e+00,1.063489e+00,1
7.835290e-01,2.143510e-01,2.059937e-01,3,0,7.600052e-01,7.600053e-01,1
7.830120e-01,2.149440e-01,2.069473e-01,3,0,7.740733e-01,7.740748e-01,1
7.839800e-01,4.155110e-01,4.079342e-01,3,1,2.118585e+00,2.123219e+00,1
7.845560e-01,6.313100e-01,6.239414e-01,3,2,4.703750e+00,4.743935e+00,1
7.845940e-01,1.027551e+00,1.019001e+00,3,4,6.371638e+00,6.414147e+00,1
7.846760e-01,5.965400e-01,5.888939e-01,3,2,5.376119e+00,5.500410e+00,1
7.848830e-01,8.132000e-01,8.060932e-01,3,3,5.760829e+00,5.831103e+00,1
7.829870e-01,5.955930e-01,5.869865e-01,3,2,5.636319e+00,5.700103e+00,1
7.836530e-01,4.111210e-01,4.029274e-01,3,1,4.992246e+00,5.028665e+00,1
7.843730e-01,7.568470e-01,7.481575e-01,3,3,3.945144e+00,3.993454e+00,1
7.839790e-01,2.549040e-01,2.460480e-01,3,0,3.906544e+00,3.912073e+00,1
7.793790e-01,1.674348e+00,1.666069e+00,3,8,7.055665e+00,7.208118e+00,1
1.048750e+00,2.095300e+00,2.082825e+00,4,8,9.262721e+00,9.954340e+00,0
1.561427e+00,7.125140e-01,7.019043e-01,6,0,1.101488e+01,1.636484e+01,0
1.297266e+00,7.161740e-01,7.042885e-01,5,0,9.082830e+00,1.280962e+01,0
1.301842e+00,3.303777e+00,3.296137e+00,5,18,6.961363e+00,7.117433e+00,1
1.042337e+00,1.413888e+00,1.401186e+00,4,7,5.172029e+00,5.250534e+00,1
7.847530e-01,7.558030e-01,7.481575e-01,3,3,4.140247e+00,4.293844e+00,1
7.861870e-01,1.365968e+00,1.357794e+00,3,6,5.307000e+00,5.575239e+00,1
7.850760e-01,1.083977e+00,1.076937e+00,3,5,5.291941e+00,5.472298e+00,1
7.853830e-01,1.560678e+00,1.553059e+00,3,8,4.015618e+00,4.077974e+00,1
1.042357e+00,1.266900e+00,1.259089e+00,4,6,3.969793e+00,3.970956e+00,1
1.565885e+00,8.224840e-01,8.149147e-01,6,4,4.787301e+00,4.762144e+00,1
1.558314e+00,5.434210e-01,5.340576e-01,6,2,5.275127e+00,5.261678e+00,1
1.041097e+00,5.312860e-01,5.240440e-01,4,2,6.418349e+00,6.418354e+00,1
7.825590e-01,2.196070e-01,2.119541e-01,3,0,5.004629e+00,5.004628e+00,1
7.853700e-01,4.144370e-01,4.069805e-01,3,1,6.693354e+00,6.737448e+00,1
7.857060e-01,6.225050e-01,6.148815e-01,3,2,6.643806e+00,6.706269e+00,1
7.844270e-01,7.584820e-01,7.498264e-01,3,3,5.565141e+00,5.565425e+00,1
7.837440e-01,5.286810e-01,5.209446e-01,3,2,4.571018e+00,4.571018e+00,1
7.849380e-01,1.646688e+00,1.638889e+00,3,8,4.690842e+00,4.705233e+00,1
7.861410e-01,1.467108e+00,1.459122e+00,3,7,4.670039e+00,4.740641e+00,1
1.303522e+00,1.226392e+00,1.219034e+00,5,6,3.520077e+00,3.538576e+00,1
1.556196e+00,4.186960e-01,4.110336e-01,6,1,3.492198e+00,3.511306e+00,1
1.042796e+00,4.162740e-01,4.081726e-01,4,1,2.318386e+00,2.322394e+00,1
7.843520e-01,5.705830e-01,5.631447e-01,3,2,1.877163e+00,1.890549e+00,1
7.781400e-01,2.594540e-01,2.520084e-01,3,0,1.134988e+00,1.137731e+00,1
7.842400e-01,3.766860e-01,3.690720e-01,3,1,7.149030e-01,7.149034e-01,1
7.816980e-01,2.142370e-01,2.050400e-01,3,0,4.305170e-01,4.305171e-01,1
7.832680e-01,2.152370e-01,2.069473e-01,3,0,8.423595e-01,8.423612e-01,1
7.824750e-01,2.140460e-01,2.069473e-01,3,0,4.883783e-01,4.883785e-01,1
7.826920e-01,2.138220e-01,2.050400e-01,3,0,4.539481e-01,4.539488e-01,1
7.826690e-01,2.141540e-01,2.050400e-01,3,0,2.837925e-01,2.837929e-01,1
7.836710e-01,2.142420e-01,2.062321e-01,3,0,3.137920e-01,3.137924e-01,1
7.823310e-01,2.139800e-01,2.059937e-01,3,0,2.700686e-01,2.700689e-01,1
7.840130e-01,2.138810e-01,2.059937e-01,3,0,6.614335e-01,6.614346e-01,1
7.828380e-01,2.143020e-01,2.069473e-01,3,0,5.131234e-01,5.131241e-01,1
7.827720e-01,2.138290e-01,2.050400e-01,3,0,4.811902e-01,4.811919e-01,1
7.832470e-01,2.144410e-01,2.069473e-01,3,0,9.972128e-01,9.972144e-01,1
7.823030e-01,2.148360e-01,2.069473e-01,3,0,5.504026e-01,5.504024e-01,1
7.827280e-01,2.144730e-01,2.057552e-01,3,0,7.856635e-01,7.856643e-01,1
7.838820e-01,2.146820e-01,2.069473e-01,3,0,8.021382e-01,8.021387e-01,1
7.835190e-01,2.141710e-01,2.059937e-01,3,0,1.366197e+00,1.366199e+00,1
7.835090e-01,2.148250e-01,2.067089e-01,3,0,1.043040e+00,1.043040e+00,1
7.829110e-01,2.142670e-01,2.069473e-01,3,0,6.769789e-01,6.769789e-01,1
7.846840e-01,2.140810e-01,2.069473e-01,3,0,4.991544e-01,4.991550e-01,1
7.838850e-01,2.146650e-01,2.071857e-01,3,0,6.798405e-01,6.798413e-01,1
7.837470e-01,2.137160e-01,2.071857e-01,3,0,6.270691e-01,6.270693e-01,1
7.828580e-01,2.140300e-01,2.050400e-01,3,0,5.073503e-01,5.073505e-01,1
7.837480e-01,2.150570e-01,2.069473e-01,3,0,8.943777e-01,8.943789e-01,1
7.824420e-01,2.145910e-01,2.071857e-01,3,0,6.805199e-01,6.805204e-01,1
7.779300e-01,4.157090e-01,4.081726e-01,3,1,1.012277e+00,1.012335e+00,1
7.846390e-01,4.763640e-01,4.680157e-01,3,1,1.796149e+00,1.874364e+00,1
7.833010e-01,2.537440e-01,2.460480e-01,3,0,1.574355e+00,1.594197e+00,1
7.860580e-01,3.710460e-01,3.631115e-01,3,1,1.390542e+00,1.390543e+00,1
7.835020e-01,2.151540e-01,2.071857e-01,3,0,3.171552e+00,3.171556e+00,1
7.841090e-01,2.150630e-01,2.069473e-01,3,0,3.876013e+00,3.876010e+00,1
7.832400e-01,2.148330e-01,2.069473e-01,3,0,2.218522e+00,2.218520e+00,1
7.831710e-01,2.144920e-01,2.067089e-01,3,0,1.662187e+00,1.662186e+00,1
7.827360e-01,2.146970e-01,2.057552e-01,3,0,1.263089e+00,1.263089e+00,1
7.836760e-01,2.146120e-01,2.059937e-01,3,0,8.519731e-01,8.519732e-01,1
7.834560e-01,2.146560e-01,2.071857e-01,3,0,7.455627e-01,7.455631e-01,1
7.835190e-01,2.145610e-01,2.071857e-01,3,0,1.072886e+00,1.072887e+00,1
7.836290e-01,2.148230e-01,2.081394e-01,3,0,1.035071e+00,1.035072e+00,1
7.830460e-01,2.141760e-01,2.071857e-01,3,0,5.051728e-01,5.051738e-01,1
7.825680e-01,2.146720e-01,2.062321e-01,3,0,1.366075e+00,1.366078e+00,1
7.827870e-01,2.143210e-01,2.062321e-01,3,0,7.684837e-01,7.684836e-01,1
7.824280e-01,2.142250e-01,2.069473e-01,3,0,6.926982e-01,6.926988e-01,1
7.821770e-01,2.139620e-01,2.069473e-01,3,0,9.510765e-01,9.510777e-01,1
7.825380e-01,2.149460e-01,2.069473e-01,3,0,7.843147e-01,7.843150e-01,1
7.830250e-01,2.143420e-01,2.050400e-01,3,0,9.241724e-01,9.241731e-01,1
7.827690e-01,2.140110e-01,2.050400e-01,3,0,1.174144e+00,1.174145e+00,1
7.829560e-01,2.143940e-01,2.062321e-01,3,0,9.244205e-01,9.244212e-01,1
7.770050e-01,2.140820e-01,2.059937e-01,3,0,9.614435e-01,9.614449e-01,1
7.773520e-01,2.199030e-01,2.119541e-01,3,0,1.197063e+00,1.197060e+00,1
7.774250e-01,2.193200e-01,2.107620e-01,3,0,1.465391e+00,1.465387e+00,1
7.777720e-01,2.202280e-01,2.117157e-01,3,0,2.193731e+00,2.193734e+00,1
7.773490e-01,2.196310e-01,2.119541e-01,3,0,1.517709e+00,1.517709e+00,1
7.769080e-01,2.189400e-01,2.100468e-01,3,0,1.427008e+00,1.427010e+00,1
7.776060e-01,2.203430e-01,2.119541e-01,3,0,1.394852e+00,1.394853e+00,1
7.777400e-01,2.194600e-01,2.119541e-01,3,0,1.524729e+00,1.524730e+00,1
7.776160e-01,2.193790e-01,2.119541e-01,3,0,1.267355e+00,1.267355e+00,1
7.848680e-01,7.662490e-01,7.588863e-01,3,3,2.152223e+00,2.170430e+00,1
1.043429e+00,9.770290e-01,9.689331e-01,4,4,1.631715e+00,1.656249e+00,1
7.829860e-01,2.531310e-01,2.460480e-01,3,0,1.541825e+00,1.565690e+00,1
7.850890e-01,8.160750e-01,8.068085e-01,3,3,1.512230e+00,1.546144e+00,1
7.850930e-01,4.687820e-01,4.611015e-01,3,1,1.368450e+00,1.542714e+00,1
7.843080e-01,6.297110e-01,6.210804e-01,3,2,9.764712e-01,1.031068e+00,1
7.858240e-01,4.679390e-01,4.599094e-01,3,1,1.184139e+00,1.217280e+00,1
7.848310e-01,5.861440e-01,5.788803e-01,3,2,1.333735e+00,1.333736e+00,1
7.824260e-01,2.141900e-01,2.069473e-01,3,0,9.206006e-01,9.206008e-01,1
7.820260e-01,2.147290e-01,2.069473e-01,3,0,1.716627e+00,1.716629e+00,1
7.774360e-01,2.144960e-01,2.071857e-01,3,0,1.214090e+00,1.214090e+00,1
7.781400e-01,2.185620e-01,2.069473e-01,3,0,1.096866e+00,1.096867e+00,1
7.773030e-01,2.189720e-01,2.110004e-01,3,0,9.923311e-01,9.923314e-01,1
7.777560e-01,2.187540e-01,2.098083e-01,3,0,7.774961e-01,7.774974e-01,1
7.775400e-01,2.197330e-01,2.119541e-01,3,0,5.710486e-01,5.710491e-01,1
7.774200e-01,2.196690e-01,2.119541e-01,3,0,1.121347e+00,1.121349e+00,1
7.780060e-01,2.193240e-01,2.110004e-01,3,0,9.649002e-01,9.649008e-01,1
7.775030e-01,2.193310e-01,2.112389e-01,3,0,9.757279e-01,9.757291e-01,1
7.778260e-01,2.192910e-01,2.110004e-01,3,0,9.184279e-01,9.184282e-01,1
7.778050e-01,2.189950e-01,2.119541e-01,3,0,7.198569e-01,7.198575e-01,1
7.831080e-01,2.185640e-01,2.048016e-01,3,0,8.669969e-01,8.669975e-01,1
7.835670e-01,2.145240e-01,2.057552e-01,3,0,6.692728e-01,6.692730e-01,1
7.830460e-01,2.141970e-01,2.069473e-01,3,0,2.812092e+00,2.812025e+00,1
7.874040e-01,5.976400e-01,5.910397e-01,3,2,6.252122e+00,6.250521e+00,1
1.043743e+00,8.767150e-01,8.690357e-01,4,4,4.778860e+00,4.778860e+00,1
7.837510e-01,2.147770e-01,2.069473e-01,3,0,3.421406e+00,3.421405e+00,1
7.844240e-01,2.144280e-01,2.069473e-01,3,0,2.483568e+00,2.483568e+00,1
7.839800e-01,2.153300e-01,2.069473e-01,3,0,2.719384e+00,2.719386e+00,1
7.834820e-01,2.149080e-01,2.067089e-01,3,0,2.138911e+00,2.138911e+00,1
7.828140e-01,2.147690e-01,2.079010e-01,3,0,2.075938e+00,2.075939e+00,1
7.831370e-01,2.148830e-01,2.062321e-01,3,0,2.464893e+00,2.464896e+00,1
7.827840e-01,2.153780e-01,2.081394e-01,3,0,2.778302e+00,2.778304e+00,1
7.831280e-01,2.145460e-01,2.071857e-01,3,0,2.534843e+00,2.534843e+00,1
7.794800e-01,4.185870e-01,4.110336e-01,3,1,2.713012e+00,2.713670e+00,1
7.832720e-01,3.771710e-01,3.700256e-01,3,1,3.638477e+00,3.638480e+00,1
7.848800e-01,2.149880e-01,2.079010e-01,3,0,2.717860e+00,2.717857e+00,1
7.829850e-01,2.147140e-01,2.069473e-01,3,0,1.865109e+00,1.865108e+00,1
7.832250e-01,2.147410e-01,2.069473e-01,3,0,1.118547e+00,1.118547e+00,1
7.832640e-01,2.141480e-01,2.050400e-01,3,0,7.524168e-01,7.524169e-01,1
7.832360e-01,2.141060e-01,2.050400e-01,3,0,5.861015e-01,5.861019e-01,1
7.818210e-01,2.146560e-01,2.069473e-01,3,0,8.102396e-01,8.102407e-01,1
7.839860e-01,2.144080e-01,2.057552e-01,3,0,5.755474e-01,5.755475e-01,1
7.832940e-01,2.139950e-01,2.069473e-01,3,0,9.391565e-01,9.391577e-01,1
7.834940e-01,2.147330e-01,2.069473e-01,3,0,9.928145e-01,9.928150e-01,1
7.849830e-01,4.144270e-01,4.060268e-01,3,1,9.225296e-01,9.228622e-01,1
7.839480e-01,4.682770e-01,4.599094e-01,3,1,1.185544e+00,1.189099e+00,1
7.786900e-01,3.751990e-01,3.681183e-01,3,1,6.645029e-01,6.645028e-01,1
7.777280e-01,2.198180e-01,2.121925e-01,3,0,5.330671e-01,5.330675e-01,1
7.828210e-01,2.188330e-01,2.098083e-01,3,0,2.707671e+00,2.707678e+00,1
7.827830e-01,2.145840e-01,2.069473e-01,3,0,2.841113e+00,2.841114e+00,1
7.839180e-01,2.146930e-01,2.057552e-01,3,0,1.376632e+00,1.376631e+00,1
7.843080e-01,2.158760e-01,2.090931e-01,3,0,1.368063e+00,1.368064e+00,1
7.834820e-01,2.151450e-01,2.069473e-01,3,0,1.202553e+00,1.202554e+00,1
7.836320e-01,4.146470e-01,4.069805e-01,3,1,1.297007e+00,1.297244e+00,1
7.828630e-01,3.709340e-01,3.640652e-01,3,1,6.570838e-01,6.570836e-01,1
7.835240e-01,2.138980e-01,2.069473e-01,3,0,5.401839e-01,5.401844e-01,1
7.820430e-01,2.144660e-01,2.069473e-01,3,0,1.034198e+00,1.034199e+00,1
7.826880e-01,2.151290e-01,2.079010e-01,3,0,1.306494e+00,1.306495e+00,1
7.833490e-01,2.143510e-01,2.050400e-01,3,0,1.625038e+00,1.625039e+00,1
7.836320e-01,2.145690e-01,2.059937e-01,3,0,1.053127e+00,1.053127e+00,1
7.836080e-01,2.138580e-01,2.069473e-01,3,0,1.004465e+00,1.004466e+00,1
7.829380e-01,2.148960e-01,2.067089e-01,3,0,1.505983e+00,1.505986e+00,1
7.834800e-01,2.147200e-01,2.069473e-01,3,0,2.257561e+00,2.257563e+00,1
7.827860e-01,2.146280e-01,2.057552e-01,3,0,2.515954e+00,2.515955e+00,1
7.782710e-01,4.232610e-01,4.160404e-01,3,1,3.514011e+00,3.521366e+00,1
7.835140e-01,2.591860e-01,2.510548e-01,3,0,3.331659e+00,3.343823e+00,1
7.847320e-01,6.924920e-01,6.849766e-01,3,3,5.239641e+00,5.238739e+00,1
1.042066e+00,4.814410e-01,4.739761e-01,4,2,2.319730e+00,2.319728e+00,1
7.833830e-01,2.144120e-01,2.069473e-01,3,0,1.922216e+00,1.922217e+00,1
7.847540e-01,4.118810e-01,4.041195e-01,3,1,2.797239e+00,2.797275e+00,1
7.838530e-01,3.713050e-01,3.640652e-01,3,1,1.389003e+00,1.389001e+00,1
7.828730e-01,2.150230e-01,2.079010e-01,3,0,1.155720e+00,1.155720e+00,1
7.835250e-01,2.141260e-01,2.050400e-01,3,0,9.296065e-01,9.296068e-01,1
7.823110e-01,2.138410e-01,2.059937e-01,3,0,6.205235e-01,6.205233e-01,1
7.832320e-01,2.150920e-01,2.079010e-01,3,0,1.320994e+00,1.320996e+00,1
7.821070e-01,2.143830e-01,2.069473e-01,3,0,9.903784e-01,9.903785e-01,1
7.829230e-01,2.142370e-01,2.069473e-01,3,0,5.586414e-01,5.586414e-01,1
7.838510e-01,2.145660e-01,2.059937e-01,3,0,1.249720e+00,1.249722e+00,1
7.835320e-01,2.145960e-01,2.059937e-01,3,0,8.726678e-01,8.726678e-01,1
7.826700e-01,2.142200e-01,2.069473e-01,3,0,4.713378e-01,4.713381e-01,1
7.840350e-01,2.139960e-01,2.071857e-01,3,0,5.132423e-01,5.132427e-01,1
7.768280e-01,2.150510e-01,2.069473e-01,3,0,6.622897e-01,6.622906e-01,1
7.834770e-01,4.200440e-01,4.129410e-01,3,1,1.001999e+00,1.002496e+00,1
7.834410e-01,4.401180e-01,4.329681e-01,3,1,2.086643e+00,2.087102e+00,1
7.834620e-01,4.101350e-01,4.022121e-01,3,1,1.512769e+00,1.528143e+00,1
7.776700e-01,6.304850e-01,6.229877e-01,3,2,2.737894e+00,2.831896e+00,1
7.842530e-01,5.730510e-01,5.650520e-01,3,2,1.205496e+00,1.205635e+00,1
7.831000e-01,3.716010e-01,3.628731e-01,3,1,9.613929e-01,9.613935e-01,1
7.827000e-01,2.145170e-01,2.069473e-01,3,0,6.414082e-01,6.414081e-01,1
7.816560e-01,2.142970e-01,2.057552e-01,3,0,5.920689e-01,5.920696e-01,1
7.825450e-01,2.146550e-01,2.059937e-01,3,0,1.661641e+00,1.661645e+00,1
7.837580e-01,2.148110e-01,2.059937e-01,3,0,1.672177e+00,1.672178e+00,1
7.825020e-01,2.147120e-01,2.059937e-01,3,0,2.572674e+00,2.572648e+00,1
7.818920e-01,2.150740e-01,2.079010e-01,3,0,2.653660e+00,2.653656e+00,1
7.835110e-01,2.150630e-01,2.071857e-01,3,0,3.049365e+00,3.049366e+00,1
7.776630e-01,4.205520e-01,4.119873e-01,3,1,4.979113e+00,4.985933e+00,1
7.771790e-01,2.600400e-01,2.520084e-01,3,0,5.577266e+00,5.580801e+00,1
7.834960e-01,5.753560e-01,5.681515e-01,3,2,4.167758e+00,4.177750e+00,1
7.835490e-01,4.398700e-01,4.320145e-01,3,1,3.740126e+00,3.751028e+00,1
7.827090e-01,5.994650e-01,5.910397e-01,3,2,5.220948e+00,5.232045e+00,1
7.842320e-01,7.279470e-01,7.200241e-01,3,3,3.549991e+00,3.552225e+00,1
7.825800e-01,3.731310e-01,3.650188e-01,3,1,2.943434e+00,2.943435e+00,1
7.824240e-01,2.146180e-01,2.059937e-01,3,0,2.946009e+00,2.946013e+00,1
7.828430e-01,2.144440e-01,2.069473e-01,3,0,3.158371e+00,3.158373e+00,1
7.823520e-01,4.203800e-01,4.119873e-01,3,1,3.444558e+00,3.458881e+00,1
7.833860e-01,3.705070e-01,3.621578e-01,3,1,2.542775e+00,2.542776e+00,1
7.828920e-01,2.146320e-01,2.079010e-01,3,0,2.465111e+00,2.465112e+00,1
7.840530e-01,2.153260e-01,2.067089e-01,3,0,3.193802e+00,3.193804e+00,1
7.830160e-01,4.111480e-01,4.029274e-01,3,1,3.530768e+00,3.530821e+00,1
7.839480e-01,3.714740e-01,3.640652e-01,3,1,2.250885e+00,2.250861e+00,1
7.821610e-01,2.148310e-01,2.069473e-01,3,0,2.172056e+00,2.171848e+00,1
7.821910e-01,2.146490e-01,2.059937e-01,3,0,1.285225e+00,1.285204e+00,1
7.826470e-01,2.145270e-01,2.071857e-01,3,0,1.246174e+00,1.246134e+00,1

