9.422330e-01,8.628110e-01,2,2,0.000000e+00,0.000000e+00
1.395106e+00,1.284148e+00,3,3,8.193058e-02,8.193057e-02
1.385252e+00,1.308133e+00,3,3,3.339468e-01,3.339467e-01
1.388188e+00,1.282458e+00,3,3,3.143827e-01,3.143827e-01
1.392039e+00,1.284422e+00,3,3,1.234091e+00,1.234091e+00
1.396607e+00,1.288072e+00,3,3,1.820400e+00,1.820399e+00
1.388133e+00,1.281621e+00,3,3,7.904648e-01,7.904651e-01
1.397941e+00,1.283772e+00,3,3,5.548025e-01,5.548025e-01
1.385980e+00,1.287486e+00,3,3,9.098071e-01,9.098067e-01
1.386382e+00,1.282851e+00,3,3,2.643851e+00,2.643849e+00
1.390446e+00,1.282311e+00,3,3,3.521030e+00,3.521029e+00
1.391686e+00,1.282544e+00,3,3,5.401207e+00,5.401206e+00
1.388372e+00,1.286502e+00,3,3,3.906060e+00,3.906060e+00
1.386523e+00,1.281847e+00,3,3,3.821178e+00,3.821178e+00
1.392543e+00,1.282553e+00,3,3,4.130744e+00,4.130743e+00
1.388561e+00,1.294308e+00,3,3,4.555921e+00,4.555920e+00
1.388101e+00,1.285686e+00,3,3,3.081153e+00,3.081153e+00
1.391707e+00,1.283054e+00,3,3,3.042321e+00,3.042321e+00
1.394023e+00,1.288790e+00,3,3,2.053895e+00,2.053895e+00
1.386951e+00,1.282293e+00,3,3,1.648537e+00,1.648537e+00
1.392514e+00,1.283304e+00,3,3,1.779535e+00,1.779535e+00
1.386991e+00,1.287697e+00,3,3,1.995336e+00,1.995335e+00
1.388861e+00,1.282558e+00,3,3,1.562491e+00,1.562491e+00
1.393181e+00,1.281870e+00,3,3,1.361983e+00,1.361983e+00
1.386753e+00,1.287080e+00,3,3,1.246552e+00,1.246552e+00
1.387380e+00,1.281800e+00,3,3,9.682573e-01,9.682572e-01
1.392892e+00,1.282613e+00,3,3,5.351648e-01,5.351648e-01
1.387701e+00,1.287701e+00,3,3,4.425743e-01,4.425741e-01
1.386555e+00,1.282357e+00,3,3,7.187914e-01,7.187911e-01
1.391050e+00,1.282160e+00,3,3,1.231469e+00,1.231468e+00
1.392132e+00,1.283066e+00,3,3,2.266509e+00,2.266508e+00
1.388622e+00,1.284447e+00,3,3,3.080572e+00,3.080571e+00
1.392604e+00,1.282352e+00,3,3,2.726629e+00,2.726629e+00
1.392040e+00,1.282668e+00,3,3,2.680951e+00,2.680951e+00
1.387750e+00,1.285991e+00,3,3,2.526431e+00,2.526431e+00
1.387981e+00,1.283149e+00,3,3,2.456689e+00,2.456689e+00
1.391868e+00,1.282787e+00,3,3,1.966151e+00,1.966151e+00
1.388120e+00,1.287111e+00,3,3,1.697874e+00,1.697874e+00
1.387613e+00,1.282182e+00,3,3,1.579117e+00,1.579117e+00
1.391605e+00,1.280742e+00,3,3,1.330361e+00,1.330361e+00
1.387551e+00,1.286644e+00,3,3,1.225111e+00,1.225110e+00
1.387735e+00,1.281575e+00,3,3,1.379984e+00,1.379984e+00
1.392777e+00,1.282553e+00,3,3,1.043081e+00,1.043081e+00
1.386541e+00,1.287394e+00,3,3,1.137167e+00,1.137167e+00
1.385932e+00,1.282448e+00,3,3,2.400504e+00,2.400508e+00
1.392355e+00,1.281304e+00,3,3,3.588394e-01,3.588399e-01
1.386207e+00,1.287809e+00,3,3,1.063356e+00,1.063356e+00
1.387625e+00,1.281778e+00,3,3,1.252178e+00,1.252178e+00
1.392104e+00,1.281983e+00,3,3,1.927499e+00,1.927498e+00
1.386839e+00,1.285777e+00,3,3,7.858908e-01,7.858908e-01
1.386663e+00,1.281029e+00,3,3,7.365630e-01,7.365629e-01
1.390468e+00,1.281822e+00,3,3,1.026469e+00,1.026468e+00
1.385663e+00,1.294551e+00,3,3,1.191389e+00,1.191389e+00
1.387891e+00,1.280659e+00,3,3,1.770519e+00,1.770519e+00
1.391293e+00,1.281477e+00,3,3,1.910123e+00,1.910123e+00
1.390966e+00,1.281649e+00,3,3,1.242352e+00,1.242352e+00
1.386674e+00,1.281291e+00,3,3,1.233827e+00,1.233826e+00
1.390767e+00,1.282532e+00,3,3,1.059630e+00,1.059629e+00
1.391791e+00,1.281878e+00,3,3,1.094722e+00,1.094722e+00
1.387317e+00,1.287240e+00,3,3,5.186396e-01,5.186395e-01
1.385812e+00,1.281146e+00,3,3,1.721407e+00,1.721406e+00
1.392052e+00,1.281104e+00,3,3,8.180417e-01,8.180420e-01
1.386898e+00,1.286554e+00,3,3,8.089178e-01,8.089176e-01
1.387134e+00,1.281784e+00,3,3,2.286534e+00,2.286533e+00
1.392689e+00,1.281348e+00,3,3,4.104395e+00,4.104406e+00
1.387897e+00,1.286961e+00,3,3,5.186831e+00,5.186832e+00
1.388525e+00,1.281530e+00,3,3,4.646795e+00,4.646795e+00
1.391906e+00,1.282519e+00,3,3,3.276442e+00,3.276443e+00
1.387240e+00,1.287145e+00,3,3,2.759350e+00,2.759350e+00
1.386973e+00,1.282395e+00,3,3,2.116711e+00,2.116710e+00
1.391466e+00,1.282363e+00,3,3,1.593888e+00,1.593888e+00
1.386829e+00,1.286955e+00,3,3,1.984059e+00,1.984058e+00
1.388297e+00,1.282061e+00,3,3,1.746889e+00,1.746888e+00
1.392884e+00,1.281197e+00,3,3,1.560985e+00,1.560985e+00
1.386632e+00,1.285233e+00,3,3,1.489772e+00,1.489772e+00
1.387262e+00,1.281637e+00,3,3,1.267041e+00,1.267041e+00
1.392516e+00,1.281298e+00,3,3,1.290915e+00,1.290915e+00
1.385985e+00,1.281332e+00,3,3,2.093565e+00,2.093566e+00
1.387831e+00,1.281864e+00,3,3,9.930380e-01,9.930386e-01
1.393531e+00,1.281279e+00,3,3,1.440214e+00,1.440214e+00
1.392707e+00,1.280679e+00,3,3,6.168046e-01,6.168047e-01
1.387008e+00,1.285381e+00,3,3,6.486012e-01,6.486011e-01
1.386979e+00,1.282919e+00,3,3,6.458249e-01,6.458248e-01
1.391141e+00,1.281430e+00,3,3,7.233478e-01,7.233477e-01
1.386603e+00,1.286092e+00,3,3,7.478178e-01,7.478176e-01
1.386328e+00,1.281011e+00,3,3,1.064691e+00,1.064691e+00
1.392324e+00,1.281051e+00,3,3,1.177700e+00,1.177700e+00
1.387800e+00,1.286936e+00,3,3,1.874518e+00,1.874518e+00
1.387964e+00,1.281488e+00,3,3,1.928039e+00,1.928039e+00
1.391355e+00,1.281563e+00,3,3,4.589904e+00,4.589902e+00
1.386935e+00,1.286928e+00,3,3,2.356051e+00,2.356053e+00
1.387412e+00,1.281688e+00,3,3,1.821841e+00,1.821841e+00
1.392990e+00,1.282291e+00,3,3,1.550170e+00,1.550170e+00
1.387148e+00,1.287232e+00,3,3,2.494850e+00,2.494850e+00
1.388636e+00,1.281607e+00,3,3,1.447907e+00,1.447907e+00
1.392549e+00,1.282891e+00,3,3,1.382700e+00,1.382700e+00
1.388035e+00,1.286780e+00,3,3,1.329238e+00,1.329238e+00
1.387107e+00,1.281337e+00,3,3,2.078078e+00,2.078088e+00
1.392257e+00,1.283235e+00,3,3,1.100201e+00,1.100205e+00
1.387012e+00,1.286194e+00,3,3,7.328598e-01,7.328597e-01
1.387121e+00,1.280970e+00,3,3,5.909246e-01,5.909245e-01
1.390687e+00,1.280919e+00,3,3,5.329295e-01,5.329293e-01
1.390730e+00,1.281744e+00,3,3,4.186103e-01,4.186102e-01
1.386421e+00,1.280889e+00,3,3,5.654971e-01,5.654970e-01
1.391068e+00,1.280178e+00,3,3,6.360340e-01,6.360339e-01
1.393485e+00,1.287496e+00,3,3,9.161548e-01,9.161546e-01
1.388307e+00,1.286565e+00,3,3,9.592467e-01,9.592465e-01
1.386529e+00,1.282900e+00,3,3,1.151272e+00,1.151272e+00
1.391596e+00,1.280926e+00,3,3,1.214467e+00,1.214467e+00
1.386863e+00,1.286086e+00,3,3,8.427260e-01,8.427261e-01
1.386550e+00,1.281931e+00,3,3,9.681886e-01,9.681883e-01
1.390769e+00,1.280783e+00,3,3,2.104984e+00,2.104984e+00
1.387465e+00,1.285757e+00,3,3,2.405114e+00,2.405114e+00
1.387531e+00,1.280522e+00,3,3,2.321857e+00,2.321856e+00
1.390864e+00,1.281363e+00,3,3,2.050884e+00,2.050884e+00
1.385572e+00,1.286357e+00,3,3,2.237768e+00,2.237768e+00
1.386411e+00,1.280929e+00,3,3,2.562660e+00,2.562660e+00
1.391874e+00,1.282927e+00,3,3,3.365837e+00,3.365836e+00
1.386909e+00,1.285721e+00,3,3,3.916651e+00,3.916651e+00
1.389379e+00,1.281224e+00,3,3,2.482886e+00,2.482886e+00
1.391643e+00,1.282327e+00,3,3,2.297676e+00,2.297676e+00
1.387061e+00,1.286374e+00,3,3,2.507445e+00,2.507444e+00
1.389404e+00,1.280583e+00,3,3,2.183640e+00,2.183640e+00
1.391192e+00,1.281704e+00,3,3,1.852831e+00,1.852831e+00
1.385912e+00,1.286440e+00,3,3,1.642339e+00,1.642339e+00
1.386909e+00,1.281670e+00,3,3,1.893659e+00,1.893659e+00
1.392387e+00,1.281446e+00,3,3,1.000815e+00,1.000815e+00
1.391716e+00,1.281095e+00,3,3,9.230756e-01,9.230755e-01
1.386386e+00,1.280397e+00,3,3,1.134676e+00,1.134676e+00
1.390428e+00,1.281238e+00,3,3,1.568012e+00,1.568011e+00
1.391613e+00,1.280901e+00,3,3,7.417924e-01,7.417928e-01
1.387305e+00,1.284823e+00,3,3,7.612320e-01,7.612318e-01
1.386282e+00,1.280042e+00,3,3,5.615348e-01,5.615348e-01
1.391279e+00,1.281878e+00,3,3,8.570701e-01,8.570698e-01
1.385833e+00,1.286066e+00,3,3,1.368532e+00,1.368531e+00
1.387247e+00,1.281914e+00,3,3,7.834280e-01,7.834280e-01
1.391420e+00,1.280371e+00,3,3,1.324859e+00,1.324859e+00
1.387189e+00,1.287148e+00,3,3,7.983583e-01,7.983582e-01
1.387113e+00,1.280197e+00,3,3,5.720848e-01,5.720848e-01
1.389834e+00,1.281303e+00,3,3,5.424244e-01,5.424242e-01
1.384108e+00,1.285956e+00,3,3,1.136120e+00,1.136119e+00
1.387920e+00,1.282164e+00,3,3,1.483807e+00,1.483806e+00
1.391713e+00,1.280980e+00,3,3,1.145115e+00,1.145115e+00
1.388090e+00,1.285285e+00,3,3,9.960988e-01,9.960988e-01
1.386383e+00,1.281214e+00,3,3,1.536201e+00,1.536200e+00
1.391164e+00,1.282605e+00,3,3,1.339108e+00,1.339108e+00
1.386499e+00,1.286553e+00,3,3,8.963447e-01,8.963447e-01
1.386344e+00,1.280560e+00,3,3,1.530724e+00,1.530724e+00
1.391790e+00,1.282185e+00,3,3,3.120150e+00,3.120149e+00
1.387506e+00,1.287334e+00,3,3,4.061983e+00,4.061982e+00
1.389630e+00,1.282560e+00,3,3,4.688644e+00,4.688643e+00
1.392423e+00,1.282167e+00,3,3,5.882574e+00,5.882573e+00
1.391664e+00,1.283332e+00,3,3,5.767801e+00,5.767828e+00
1.387750e+00,1.281164e+00,3,3,5.693435e+00,5.693443e+00
1.391172e+00,1.281302e+00,3,3,4.718466e+00,4.718466e+00
1.392082e+00,1.281862e+00,3,3,3.273574e+00,3.273574e+00
1.386892e+00,1.287042e+00,3,3,2.651052e+00,2.651052e+00
1.386343e+00,1.280901e+00,3,3,2.531013e+00,2.531013e+00
1.392582e+00,1.282396e+00,3,3,1.523933e+00,1.523933e+00
1.385898e+00,1.286414e+00,3,3,1.709332e+00,1.709331e+00
1.386594e+00,1.281727e+00,3,3,2.275371e+00,2.275371e+00
1.392200e+00,1.281220e+00,3,3,2.183757e+00,2.183756e+00
1.385846e+00,1.286976e+00,3,3,3.177644e+00,3.177644e+00
1.386617e+00,1.281947e+00,3,3,2.200421e+00,2.200421e+00
1.391508e+00,1.281247e+00,3,3,2.128112e+00,2.128112e+00
1.386543e+00,1.286427e+00,3,3,1.654947e+00,1.654947e+00
1.385715e+00,1.280926e+00,3,3,1.361092e+00,1.361092e+00
1.390471e+00,1.280549e+00,3,3,1.290532e+00,1.290531e+00
1.387406e+00,1.285807e+00,3,3,8.311484e-01,8.311485e-01
1.386063e+00,1.281205e+00,3,3,1.269288e+00,1.269288e+00
1.390060e+00,1.281015e+00,3,3,1.211517e+00,1.211516e+00
1.387786e+00,1.288117e+00,3,3,2.390725e+00,2.390724e+00
1.387605e+00,1.280955e+00,3,3,2.705532e+00,2.705531e+00
1.390817e+00,1.282259e+00,3,3,4.124200e+00,4.124199e+00
1.389083e+00,1.289492e+00,3,3,7.090920e+00,7.090921e+00
1.388093e+00,1.282809e+00,3,3,5.152033e+00,5.152034e+00
1.392256e+00,1.282743e+00,3,3,5.249338e+00,5.249339e+00
1.391367e+00,1.280887e+00,3,3,3.411966e+00,3.411967e+00
1.386922e+00,1.281386e+00,3,3,2.851295e+00,2.851295e+00
1.392817e+00,1.282115e+00,3,3,2.997321e+00,2.997320e+00
1.393158e+00,1.282400e+00,3,3,2.532716e+00,2.532716e+00
1.387500e+00,1.285703e+00,3,3,2.023318e+00,2.023318e+00
1.387220e+00,1.281857e+00,3,3,1.649926e+00,1.649926e+00
1.391539e+00,1.280223e+00,3,3,1.317540e+00,1.317539e+00
1.386659e+00,1.286365e+00,3,3,3.917373e+00,3.917371e+00
1.386573e+00,1.281928e+00,3,3,4.539280e+00,4.539280e+00
1.392311e+00,1.280415e+00,3,3,3.118062e+00,3.118064e+00
1.387635e+00,1.286501e+00,3,3,3.063498e+00,3.063499e+00
1.387105e+00,1.280403e+00,3,3,2.505882e+00,2.505983e+00
1.390785e+00,1.280519e+00,3,3,1.081578e+00,1.081584e+00
1.385371e+00,1.286153e+00,3,3,9.461800e-01,9.461800e-01
1.386405e+00,1.281565e+00,3,3,9.267420e-01,9.267418e-01
1.391445e+00,1.281852e+00,3,3,8.546266e-01,8.546264e-01
1.385260e+00,1.285762e+00,3,3,1.786876e+00,1.786876e+00
1.386616e+00,1.280208e+00,3,3,4.375525e+00,4.375579e+00
1.391237e+00,1.281379e+00,3,3,3.852414e+00,3.852686e+00
1.385618e+00,1.285546e+00,3,3,4.967680e+00,4.967764e+00
1.387061e+00,1.281170e+00,3,3,4.752140e+00,4.752144e+00
1.392206e+00,1.281298e+00,3,3,7.301361e+00,7.301518e+00
1.387349e+00,1.285597e+00,3,3,6.164362e+00,6.165274e+00
1.386596e+00,1.280882e+00,3,3,5.613071e+00,5.613090e+00
1.392522e+00,1.281661e+00,3,3,4.507828e+00,4.507828e+00
1.390164e+00,1.282191e+00,3,3,3.561643e+00,3.561643e+00
1.387922e+00,1.281335e+00,3,3,4.183400e+00,4.183399e+00
1.391576e+00,1.282592e+00,3,3,4.457504e+00,4.457505e+00
1.391386e+00,1.282017e+00,3,3,5.971357e+00,5.971373e+00
1.387990e+00,1.286436e+00,3,3,5.125451e+00,5.125526e+00
1.386251e+00,1.281713e+00,3,3,7.679071e+00,7.677902e+00
3.229288e+00,2.134886e+00,7,5,6.231178e+00,6.254984e+00
2.766206e+00,2.561369e+00,6,6,5.614803e+00,5.608438e+00
2.774762e+00,2.557523e+00,6,6,9.423627e+00,9.392561e+00
2.771642e+00,1.707724e+00,6,4,9.696487e+00,9.672659e+00
1.850256e+00,1.704178e+00,4,4,7.977407e+00,7.977406e+00
1.395341e+00,1.281833e+00,3,3,7.652234e+00,7.652234e+00
1.387366e+00,1.286780e+00,3,3,5.970131e+00,5.970131e+00
1.388179e+00,1.283121e+00,3,3,5.148169e+00,5.148169e+00
1.391253e+00,1.281878e+00,3,3,4.307094e+00,4.307094e+00
1.386766e+00,1.286385e+00,3,3,3.647443e+00,3.647443e+00
1.386207e+00,1.282450e+00,3,3,2.862786e+00,2.862786e+00
1.391386e+00,1.281818e+00,3,3,2.617927e+00,2.617927e+00
1.385689e+00,1.284986e+00,3,3,3.287440e+00,3.287439e+00
1.387582e+00,1.281202e+00,3,3,2.645832e+00,2.645832e+00
1.392797e+00,1.281796e+00,3,3,2.698857e+00,2.698857e+00
1.387309e+00,1.285193e+00,3,3,3.205600e+00,3.205600e+00
1.386234e+00,1.280320e+00,3,3,4.098623e+00,4.098627e+00
1.392410e+00,1.281845e+00,3,3,4.298308e+00,4.298310e+00
1.391433e+00,1.280913e+00,3,3,5.786115e+00,5.786146e+00
1.387467e+00,1.280681e+00,3,3,4.825138e+00,4.825319e+00
1.391699e+00,1.281950e+00,3,3,3.861528e+00,3.861529e+00
1.393130e+00,1.279500e+00,3,3,2.853965e+00,2.853966e+00
1.386521e+00,1.284247e+00,3,3,3.012455e+00,3.012454e+00
1.387684e+00,1.280815e+00,3,3,3.491848e+00,3.491848e+00
1.393107e+00,1.280253e+00,3,3,2.126767e+00,2.126768e+00
1.386710e+00,1.283982e+00,3,3,1.614225e+00,1.614225e+00
1.387215e+00,1.279591e+00,3,3,1.203725e+00,1.203725e+00
1.392699e+00,1.279795e+00,3,3,1.313013e+00,1.313012e+00
1.386778e+00,1.283806e+00,3,3,1.043822e+00,1.043822e+00
1.386395e+00,1.279313e+00,3,3,8.750668e-01,8.750668e-01
1.391109e+00,1.279343e+00,3,3,1.230409e+00,1.230409e+00
1.386363e+00,1.283400e+00,3,3,2.064964e+00,2.064963e+00
1.386800e+00,1.279033e+00,3,3,2.105682e+00,2.105682e+00
1.391185e+00,1.279926e+00,3,3,4.169944e+00,4.169942e+00
1.387372e+00,1.284792e+00,3,3,4.855987e+00,4.855987e+00
1.387215e+00,1.279655e+00,3,3,3.188728e+00,3.188729e+00
1.391553e+00,1.280115e+00,3,3,2.400481e+00,2.400482e+00
1.386713e+00,1.284570e+00,3,3,1.928933e+00,1.928933e+00
1.386365e+00,1.280475e+00,3,3,1.782812e+00,1.782812e+00
1.391114e+00,1.279566e+00,3,3,1.222342e+00,1.222342e+00
1.385584e+00,1.284769e+00,3,3,9.575021e-01,9.575019e-01
1.386179e+00,1.278601e+00,3,3,8.569834e-01,8.569832e-01
1.391344e+00,1.279639e+00,3,3,9.137060e-01,9.137058e-01
1.386986e+00,1.284816e+00,3,3,6.362897e-01,6.362896e-01
1.385047e+00,1.278959e+00,3,3,5.140678e-01,5.140677e-01
1.389614e+00,1.279022e+00,3,3,6.127791e-01,6.127790e-01
1.389311e+00,1.280510e+00,3,3,6.496632e-01,6.496630e-01
1.387293e+00,1.292028e+00,3,3,2.191364e-01,2.191364e-01
1.391379e+00,1.279870e+00,3,3,4.652328e-01,4.652326e-01
1.389602e+00,1.279787e+00,3,3,9.324010e-01,9.324006e-01
1.387481e+00,1.284755e+00,3,3,1.166381e+00,1.166380e+00
1.386369e+00,1.280925e+00,3,3,1.537967e+00,1.537967e+00
1.391624e+00,1.281388e+00,3,3,1.236670e+00,1.236670e+00
1.386287e+00,1.286245e+00,3,3,1.013819e+00,1.013819e+00
1.386629e+00,1.279945e+00,3,3,1.009031e+00,1.009031e+00
1.391175e+00,1.279485e+00,3,3,9.552688e-01,9.552687e-01
1.385388e+00,1.285353e+00,3,3,6.556452e-01,6.556452e-01
1.387182e+00,1.279202e+00,3,3,7.550658e-01,7.550656e-01
1.393206e+00,1.279962e+00,3,3,6.056373e-01,6.056371e-01
1.385964e+00,1.284640e+00,3,3,8.640312e-01,8.640310e-01
1.385918e+00,1.279594e+00,3,3,1.099546e+00,1.099546e+00
1.391111e+00,1.279220e+00,3,3,7.859613e-01,7.859612e-01
1.386763e+00,1.285241e+00,3,3,1.500847e+00,1.500846e+00
1.387575e+00,1.280352e+00,3,3,9.907678e-01,9.907678e-01
1.391447e+00,1.279500e+00,3,3,6.487686e-01,6.487686e-01
1.385749e+00,1.285546e+00,3,3,4.171359e-01,4.171358e-01
1.392619e+00,1.279453e+00,3,3,5.311484e-01,5.311482e-01
1.390840e+00,1.281053e+00,3,3,6.231016e-01,6.231014e-01
1.385731e+00,1.286247e+00,3,3,4.719339e-01,4.719339e-01
1.387394e+00,1.280086e+00,3,3,7.192140e-01,7.192136e-01
1.389774e+00,1.280926e+00,3,3,1.117197e+00,1.117197e+00
1.387198e+00,1.284488e+00,3,3,4.565858e-01,4.565858e-01
1.385813e+00,1.279162e+00,3,3,6.631641e-01,6.631639e-01
1.390690e+00,1.280108e+00,3,3,5.918048e-01,5.918047e-01
1.390626e+00,1.279312e+00,3,3,1.272236e+00,1.272235e+00
1.386648e+00,1.278551e+00,3,3,1.049703e+00,1.049702e+00
1.390887e+00,1.279948e+00,3,3,1.560714e+00,1.560714e+00
1.414515e+00,1.280593e+00,3,3,1.822273e+00,1.822273e+00
1.386942e+00,1.285382e+00,3,3,1.809079e+00,1.809079e+00
1.386487e+00,1.279040e+00,3,3,1.719971e+00,1.719971e+00
1.392447e+00,1.281497e+00,3,3,1.105061e+00,1.105062e+00
1.386755e+00,1.284324e+00,3,3,8.229579e-01,8.229578e-01
1.386478e+00,1.279638e+00,3,3,1.278679e+00,1.278679e+00
1.392820e+00,1.279554e+00,3,3,1.222919e+00,1.222919e+00
1.387310e+00,1.285614e+00,3,3,1.040156e+00,1.040155e+00
1.387378e+00,1.280339e+00,3,3,1.622768e+00,1.622768e+00
1.391332e+00,1.280070e+00,3,3,6.134301e-01,6.134303e-01
1.386573e+00,1.284179e+00,3,3,7.538407e-01,7.538405e-01
1.386765e+00,1.279807e+00,3,3,9.963460e-01,9.963458e-01
1.392546e+00,1.281247e+00,3,3,4.041556e-01,4.041557e-01
1.385492e+00,1.284564e+00,3,3,4.361305e-01,4.361304e-01
1.385885e+00,1.278724e+00,3,3,3.864821e-01,3.864820e-01
1.390540e+00,1.280453e+00,3,3,7.715751e-01,7.715749e-01
1.386513e+00,1.286327e+00,3,3,1.218730e+00,1.218729e+00
1.387743e+00,1.280716e+00,3,3,9.607167e-01,9.607167e-01
1.391939e+00,1.282434e+00,3,3,8.557071e-01,8.557071e-01
1.385888e+00,1.284415e+00,3,3,8.167433e-01,8.167432e-01
1.386751e+00,1.279461e+00,3,3,1.188200e+00,1.188199e+00
1.391157e+00,1.280797e+00,3,3,1.239648e+00,1.239647e+00
1.386268e+00,1.283752e+00,3,3,1.409840e+00,1.409839e+00
1.387392e+00,1.280315e+00,3,3,1.931517e+00,1.931516e+00
1.391243e+00,1.280441e+00,3,3,1.394984e+00,1.394984e+00
1.392544e+00,1.279520e+00,3,3,1.050604e+00,1.050604e+00
1.386833e+00,1.278361e+00,3,3,1.106464e+00,1.106464e+00
1.390794e+00,1.280780e+00,3,3,1.399082e+00,1.399081e+00
1.391391e+00,1.281465e+00,3,3,2.325287e+00,2.325317e+00
1.388532e+00,1.284207e+00,3,3,2.051800e+00,2.051800e+00
1.386626e+00,1.279369e+00,3,3,1.501297e+00,1.501297e+00
1.391794e+00,1.280633e+00,3,3,1.105547e+00,1.105547e+00
1.386570e+00,1.285037e+00,3,3,1.374187e+00,1.374187e+00
1.386634e+00,1.279598e+00,3,3,1.192876e+00,1.192876e+00
1.391706e+00,1.279662e+00,3,3,1.076098e+00,1.076098e+00
1.385733e+00,1.283444e+00,3,3,6.866549e-01,6.866549e-01
1.385430e+00,1.279345e+00,3,3,6.316571e-01,6.316571e-01
1.390840e+00,1.279036e+00,3,3,7.236622e-01,7.236620e-01
1.385702e+00,1.283703e+00,3,3,5.884425e-01,5.884425e-01
1.386066e+00,1.279560e+00,3,3,3.525740e-01,3.525739e-01
1.388983e+00,1.280133e+00,3,3,2.784367e-01,2.784367e-01
1.385291e+00,1.286140e+00,3,3,1.721879e+00,1.721878e+00
1.386564e+00,1.279847e+00,3,3,2.467678e+00,2.467677e+00
1.392335e+00,1.282643e+00,3,3,1.502051e+00,1.502052e+00
1.386492e+00,1.284423e+00,3,3,7.734066e-01,7.734067e-01
1.386581e+00,1.279560e+00,3,3,6.911530e-01,6.911530e-01
1.391234e+00,1.279501e+00,3,3,7.695693e-01,7.695692e-01
1.386476e+00,1.284646e+00,3,3,1.093177e+00,1.093176e+00
1.386675e+00,1.278492e+00,3,3,1.392962e+00,1.392962e+00
1.391133e+00,1.280152e+00,3,3,1.493154e+00,1.493153e+00
1.386628e+00,1.284812e+00,3,3,1.138737e+00,1.138737e+00
1.387549e+00,1.279526e+00,3,3,1.393832e+00,1.393832e+00
1.391060e+00,1.280211e+00,3,3,1.754151e+00,1.754151e+00
1.390723e+00,1.280675e+00,3,3,3.178057e+00,3.178056e+00
1.387836e+00,1.278912e+00,3,3,3.522761e+00,3.522761e+00
1.391093e+00,1.279878e+00,3,3,4.234067e+00,4.234138e+00
1.391238e+00,1.279454e+00,3,3,2.355399e+00,2.355432e+00
1.386874e+00,1.278441e+00,3,3,1.225546e+00,1.225546e+00
1.386964e+00,1.280998e+00,3,3,1.188398e+00,1.188398e+00
1.390701e+00,1.280402e+00,3,3,1.271953e+00,1.271952e+00
1.386697e+00,1.285159e+00,3,3,1.032860e+00,1.032860e+00
1.385351e+00,1.279127e+00,3,3,9.463270e-01,9.463268e-01
1.390287e+00,1.279942e+00,3,3,7.797200e-01,7.797199e-01
1.385435e+00,1.285969e+00,3,3,1.290756e+00,1.290755e+00
1.388398e+00,1.280329e+00,3,3,1.122561e+00,1.122561e+00
1.391940e+00,1.280687e+00,3,3,7.305574e-01,7.305574e-01
1.386347e+00,1.286274e+00,3,3,8.839973e-01,8.839972e-01
1.388628e+00,1.279913e+00,3,3,6.189473e-01,6.189473e-01
1.391631e+00,1.280870e+00,3,3,1.294982e+00,1.294982e+00
1.387237e+00,1.285836e+00,3,3,2.521858e+00,2.521857e+00
1.386979e+00,1.279627e+00,3,3,1.288661e+00,1.288661e+00
1.392166e+00,1.279684e+00,3,3,1.170352e+00,1.170352e+00
1.387601e+00,1.284110e+00,3,3,1.262638e+00,1.262637e+00
1.387596e+00,1.280848e+00,3,3,6.376495e-01,6.376494e-01
1.391270e+00,1.280771e+00,3,3,8.868820e-01,8.868818e-01
1.385494e+00,1.285282e+00,3,3,7.493697e-01,7.493696e-01
1.387036e+00,1.279836e+00,3,3,5.648396e-01,5.648396e-01
1.391963e+00,1.281573e+00,3,3,1.895741e+00,1.895740e+00
1.387526e+00,1.284286e+00,3,3,1.293068e+00,1.293069e+00
1.386847e+00,1.280177e+00,3,3,1.885963e+00,1.885963e+00
1.393204e+00,1.280385e+00,3,3,2.430868e+00,2.430867e+00
1.391325e+00,1.280838e+00,3,3,1.867438e+00,1.867438e+00
1.387134e+00,1.279151e+00,3,3,5.467727e+00,5.467726e+00
1.392235e+00,1.280353e+00,3,3,6.218313e+00,6.218313e+00
1.394214e+00,1.280899e+00,3,3,3.933799e+00,3.933800e+00
1.388137e+00,1.284781e+00,3,3,3.426453e+00,3.426453e+00
1.387975e+00,1.281373e+00,3,3,3.126343e+00,3.126343e+00
1.392920e+00,1.280483e+00,3,3,2.314123e+00,2.314123e+00
1.386957e+00,1.285347e+00,3,3,2.262918e+00,2.262918e+00
1.386836e+00,1.280896e+00,3,3,2.001626e+00,2.001626e+00
1.391706e+00,1.280092e+00,3,3,1.482267e+00,1.482267e+00
1.386315e+00,1.284956e+00,3,3,1.181895e+00,1.181895e+00
1.386097e+00,1.280147e+00,3,3,9.729844e-01,9.729843e-01
1.391435e+00,1.279915e+00,3,3,1.012118e+00,1.012118e+00
1.387267e+00,1.285534e+00,3,3,7.815290e-01,7.815289e-01
1.386714e+00,1.278849e+00,3,3,7.117179e-01,7.117177e-01
1.391875e+00,1.279930e+00,3,3,2.308455e+00,2.308454e+00
1.387403e+00,1.285616e+00,3,3,4.698170e-01,4.698173e-01
1.387942e+00,1.279585e+00,3,3,4.057991e-01,4.057990e-01
1.391059e+00,1.280168e+00,3,3,6.685368e-01,6.685366e-01
1.386634e+00,1.285184e+00,3,3,4.014942e-01,4.014941e-01
1.385953e+00,1.280427e+00,3,3,6.127979e-01,6.127976e-01
1.392075e+00,1.280175e+00,3,3,3.929298e-01,3.929298e-01
1.384740e+00,1.285331e+00,3,3,5.881570e-01,5.881569e-01
1.387462e+00,1.279224e+00,3,3,7.699268e-01,7.699263e-01
1.391374e+00,1.279995e+00,3,3,3.470493e-01,3.470493e-01
1.385917e+00,1.285560e+00,3,3,2.500389e-01,2.500389e-01
1.385515e+00,1.279577e+00,3,3,2.803843e-01,2.803842e-01
1.391517e+00,1.280625e+00,3,3,3.988077e-01,3.988076e-01
1.389624e+00,1.279601e+00,3,3,4.718079e-01,4.718078e-01
1.387213e+00,1.278633e+00,3,3,4.443176e-01,4.443175e-01
1.391154e+00,1.280266e+00,3,3,2.363330e-01,2.363330e-01
1.389515e+00,1.278991e+00,3,3,6.573185e-01,6.573182e-01
1.387782e+00,1.285022e+00,3,3,3.454129e-01,3.454129e-01
1.385961e+00,1.279826e+00,3,3,5.493356e-01,5.493354e-01
1.390752e+00,1.280101e+00,3,3,4.623655e-01,4.623655e-01
1.385642e+00,1.285570e+00,3,3,1.886847e+00,1.886846e+00
1.386852e+00,1.279801e+00,3,3,1.972371e+00,1.972371e+00
1.391905e+00,1.281906e+00,3,3,2.867085e+00,2.867085e+00
1.388103e+00,1.285889e+00,3,3,2.191751e+00,2.191751e+00
1.386364e+00,1.279628e+00,3,3,1.795282e+00,1.795282e+00
1.391643e+00,1.280079e+00,3,3,1.553111e+00,1.553111e+00
1.387707e+00,1.286782e+00,3,3,1.789659e+00,1.789658e+00
1.387982e+00,1.279901e+00,3,3,2.589453e+00,2.589451e+00
1.392480e+00,1.281837e+00,3,3,3.192252e+00,3.192252e+00
1.387692e+00,1.285593e+00,3,3,1.627883e+00,1.627884e+00
1.387092e+00,1.280142e+00,3,3,2.363949e+00,2.363949e+00
1.392722e+00,1.280869e+00,3,3,1.257891e+00,1.257892e+00
1.387292e+00,1.285427e+00,3,3,1.706988e+00,1.706988e+00
1.388081e+00,1.280068e+00,3,3,2.079271e+00,2.079270e+00
1.392627e+00,1.281300e+00,3,3,1.310312e+00,1.310312e+00
1.387554e+00,1.285218e+00,3,3,1.209783e+00,1.209783e+00
1.387014e+00,1.278969e+00,3,3,1.237001e+00,1.237000e+00
1.391939e+00,1.280105e+00,3,3,8.829990e-01,8.829989e-01
1.384323e+00,1.285131e+00,3,3,1.146950e+00,1.146950e+00
1.385141e+00,1.280164e+00,3,3,1.607432e+00,1.607431e+00
1.391634e+00,1.279866e+00,3,3,1.285515e+00,1.285515e+00
1.390052e+00,1.280998e+00,3,3,1.363248e+00,1.363248e+00
1.387132e+00,1.280319e+00,3,3,1.352330e+00,1.352330e+00
1.390552e+00,1.279832e+00,3,3,1.074787e+00,1.074787e+00
1.391419e+00,1.279875e+00,3,3,8.070037e-01,8.070037e-01
1.386562e+00,1.283130e+00,3,3,9.129929e-01,9.129928e-01
1.386107e+00,1.279778e+00,3,3,9.631561e-01,9.631559e-01
1.391597e+00,1.280688e+00,3,3,8.499507e-01,8.499506e-01
1.385071e+00,1.284136e+00,3,3,8.217385e-01,8.217384e-01
1.385816e+00,1.279171e+00,3,3,5.434056e-01,5.434055e-01
1.390177e+00,1.279415e+00,3,3,9.735113e-01,9.735108e-01
1.385710e+00,1.284747e+00,3,3,8.362503e-01,8.362502e-01
1.385615e+00,1.279639e+00,3,3,7.677145e-01,7.677144e-01
1.391871e+00,1.280149e+00,3,3,6.435390e-01,6.435388e-01
1.386822e+00,1.284958e+00,3,3,3.702111e-01,3.702111e-01
1.385893e+00,1.279591e+00,3,3,5.555658e-01,5.555656e-01
1.389995e+00,1.280281e+00,3,3,5.796819e-01,5.796818e-01
1.386249e+00,1.285829e+00,3,3,8.328929e-01,8.328927e-01
1.387335e+00,1.279880e+00,3,3,1.108578e+00,1.108578e+00
1.391053e+00,1.280388e+00,3,3,1.200289e+00,1.200289e+00
1.386568e+00,1.285646e+00,3,3,1.503934e+00,1.503933e+00
1.385746e+00,1.279840e+00,3,3,1.244833e+00,1.244833e+00
1.390885e+00,1.279976e+00,3,3,1.143551e+00,1.143551e+00
1.387183e+00,1.285850e+00,3,3,1.696160e+00,1.696160e+00
1.386954e+00,1.280330e+00,3,3,1.332709e+00,1.332709e+00
1.391004e+00,1.280038e+00,3,3,1.429200e+00,1.429200e+00
1.386281e+00,1.284545e+00,3,3,1.277911e+00,1.277911e+00
1.387080e+00,1.279551e+00,3,3,1.028708e+00,1.028708e+00
1.392355e+00,1.279895e+00,3,3,1.665616e+00,1.665615e+00
1.387584e+00,1.284580e+00,3,3,2.118986e+00,2.118986e+00
1.388405e+00,1.279058e+00,3,3,1.484338e+00,1.484338e+00
1.393698e+00,1.279733e+00,3,3,9.790386e-01,9.790388e-01
1.390393e+00,1.280469e+00,3,3,5.021165e-01,5.021165e-01
1.386258e+00,1.278748e+00,3,3,4.537429e-01,4.537429e-01
1.392566e+00,1.280715e+00,3,3,4.085157e-01,4.085156e-01
1.392063e+00,1.281843e+00,3,3,4.124019e-01,4.124019e-01
1.386738e+00,1.287585e+00,3,3,3.364084e-01,3.364084e-01
1.386692e+00,1.281204e+00,3,3,1.115431e+00,1.115430e+00
1.392990e+00,1.279178e+00,3,3,7.087615e-01,7.087615e-01
1.387088e+00,1.283823e+00,3,3,6.960584e-01,6.960583e-01
1.386996e+00,1.280443e+00,3,3,6.777748e-01,6.777748e-01
1.391078e+00,1.280289e+00,3,3,6.473474e-01,6.473474e-01
1.386489e+00,1.284587e+00,3,3,5.170091e-01,5.170090e-01
1.385973e+00,1.279961e+00,3,3,4.919197e-01,4.919196e-01
1.390083e+00,1.279781e+00,3,3,7.238363e-01,7.238360e-01
1.385068e+00,1.284919e+00,3,3,8.296659e-01,8.296656e-01
1.386858e+00,1.278432e+00,3,3,9.120697e-01,9.120695e-01
1.392023e+00,1.280646e+00,3,3,1.228337e+00,1.228337e+00
1.385971e+00,1.284104e+00,3,3,9.737436e-01,9.737436e-01
1.386502e+00,1.278910e+00,3,3,2.484001e+00,2.484000e+00
1.391363e+00,1.280759e+00,3,3,1.926551e+00,1.926551e+00
1.387064e+00,1.284294e+00,3,3,3.349810e+00,3.349809e+00
1.387985e+00,1.279983e+00,3,3,2.988791e+00,2.988790e+00
1.391500e+00,1.280045e+00,3,3,3.300426e+00,3.300426e+00
1.386948e+00,1.285561e+00,3,3,2.717241e+00,2.717241e+00
1.387496e+00,1.279814e+00,3,3,2.751167e+00,2.751166e+00
1.391333e+00,1.280679e+00,3,3,2.152551e+00,2.152551e+00
1.386072e+00,1.283560e+00,3,3,2.047357e+00,2.047357e+00
1.386345e+00,1.279329e+00,3,3,1.948476e+00,1.948475e+00
1.391513e+00,1.280338e+00,3,3,1.544941e+00,1.544941e+00
1.390196e+00,1.279660e+00,3,3,1.552074e+00,1.552073e+00
1.386532e+00,1.279216e+00,3,3,1.305194e+00,1.305194e+00
1.390095e+00,1.280369e+00,3,3,1.106919e+00,1.106919e+00
1.390165e+00,1.278910e+00,3,3,1.360833e+00,1.360833e+00
1.386615e+00,1.285545e+00,3,3,2.189533e+00,2.189533e+00
1.391314e+00,1.280377e+00,3,3,2.876868e+00,2.876869e+00
1.391660e+00,1.279374e+00,3,3,1.603567e+00,1.603568e+00
1.386860e+00,1.284617e+00,3,3,2.702155e+00,2.702154e+00
1.387316e+00,1.280916e+00,3,3,1.602116e+00,1.602117e+00
1.392833e+00,1.279723e+00,3,3,1.138911e+00,1.138911e+00
1.386114e+00,1.285698e+00,3,3,2.004422e+00,2.004421e+00
1.387612e+00,1.280156e+00,3,3,1.385264e+00,1.385264e+00
1.391849e+00,1.281798e+00,3,3,1.751699e+00,1.751699e+00
1.387321e+00,1.284924e+00,3,3,1.232253e+00,1.232253e+00
1.386666e+00,1.280669e+00,3,3,1.633015e+00,1.633014e+00
1.391230e+00,1.281510e+00,3,3,9.412960e-01,9.412958e-01
1.386024e+00,1.284328e+00,3,3,8.751964e-01,8.751963e-01
1.386129e+00,1.281842e+00,3,3,1.171621e+00,1.171621e+00
1.390376e+00,1.280800e+00,3,3,8.953361e-01,8.953361e-01

