2.495655e+00,3.078938e+00,7,22
7.155080e-01,1.863003e+00,2,18
7.146200e-01,1.910925e+00,2,18
7.147330e-01,1.962185e+00,2,18
7.147510e-01,1.760006e+00,2,16
7.445910e-01,1.347065e+00,2,12
7.024380e-01,1.346111e+00,2,12
7.032300e-01,1.257896e+00,2,11
7.026370e-01,9.360313e-01,2,8
7.026080e-01,9.498596e-01,2,8
7.128160e-01,8.449554e-01,2,7
7.025560e-01,6.310940e-01,2,5
3.539810e-01,4.179478e-01,1,3
7.016230e-01,4.279613e-01,2,3
3.549630e-01,3.149509e-01,1,2

