2.486511e+00,2.878904e+00,7,22
7.135750e-01,1.863003e+00,2,18
7.126780e-01,1.910925e+00,2,18
7.119580e-01,1.955986e+00,2,18
7.129170e-01,1.764059e+00,2,16
7.184510e-01,1.347065e+00,2,12
6.996850e-01,1.346111e+00,2,12
7.002870e-01,1.260996e+00,2,11
7.000530e-01,9.379387e-01,2,8
7.016630e-01,9.500980e-01,2,8
7.083910e-01,8.461475e-01,2,7
7.006730e-01,6.320477e-01,2,5
3.535510e-01,4.189014e-01,1,3
7.002110e-01,4.279613e-01,2,3
3.535460e-01,3.159046e-01,1,2

