2.493594e+00,2.801180e+00,7,22
7.119940e-01,1.877069e+00,2,18
7.131980e-01,3.432989e+00,2,18
7.126880e-01,1.960993e+00,2,18
7.112920e-01,1.760006e+00,2,16
7.257450e-01,1.348019e+00,2,12
7.003950e-01,1.348972e+00,2,12
7.003270e-01,1.265049e+00,2,11
6.998250e-01,9.369850e-01,2,8
7.006330e-01,9.500980e-01,2,8
7.145900e-01,8.459091e-01,2,7
6.991280e-01,6.349087e-01,2,5
3.533960e-01,4.179478e-01,1,3
7.305780e-01,4.320145e-01,2,3
3.536110e-01,3.190041e-01,1,2

