2.517999e+00,2.782822e+00,7,22
7.170770e-01,1.880884e+00,2,18
7.158290e-01,1.907825e+00,2,18
7.160230e-01,1.962900e+00,2,18
7.202110e-01,1.752138e+00,2,16
7.149530e-01,1.348019e+00,2,12
7.037980e-01,1.358032e+00,2,12
7.011420e-01,1.256943e+00,2,11
7.027940e-01,9.379387e-01,2,8
7.053250e-01,2.199888e+00,2,8
7.041390e-01,8.578300e-01,2,7
7.042460e-01,6.320477e-01,2,5
3.628590e-01,4.169941e-01,1,3
7.026450e-01,4.220009e-01,2,3
3.560180e-01,3.161430e-01,1,2

