2.565705e+00,2.887964e+00,7,22
7.329370e-01,1.863003e+00,2,18
7.268780e-01,1.904011e+00,2,18
7.206210e-01,2.023220e+00,2,18
7.191920e-01,1.762867e+00,2,16
7.184940e-01,1.362085e+00,2,12
7.163780e-01,1.347780e+00,2,12
7.073810e-01,1.251221e+00,2,11
7.076290e-01,9.489059e-01,2,8
7.078260e-01,9.500980e-01,2,8
7.074610e-01,8.578300e-01,2,7
7.084240e-01,6.318092e-01,2,5
3.580590e-01,4.279613e-01,1,3
7.067160e-01,4.208088e-01,2,3
3.584060e-01,3.161430e-01,1,2

