2.497379e+00,2.758980e+00,7,22
7.147060e-01,1.873016e+00,2,18
7.146040e-01,1.909971e+00,2,18
7.222290e-01,1.941919e+00,2,18
7.129260e-01,1.749992e+00,2,16
7.125990e-01,1.344919e+00,2,12
7.026210e-01,1.352072e+00,2,12
7.110540e-01,1.245975e+00,2,11
7.019510e-01,9.381771e-01,2,8
7.128990e-01,9.469986e-01,2,8
7.010560e-01,8.461475e-01,2,7
7.140730e-01,6.301403e-01,2,5
3.544550e-01,4.191399e-01,1,3
7.016720e-01,4.189014e-01,2,3
3.630530e-01,3.149509e-01,1,2

