2.519658e+00,2.802134e+00,7,22
7.296650e-01,1.864910e+00,2,18
7.298450e-01,1.904011e+00,2,18
7.181780e-01,1.949072e+00,2,18
7.197120e-01,1.828909e+00,2,16
7.185710e-01,1.357079e+00,2,12
7.196060e-01,1.343966e+00,2,12
7.081030e-01,1.249075e+00,2,11
7.090390e-01,9.589195e-01,2,8
7.086950e-01,9.469986e-01,2,8
7.090530e-01,8.549690e-01,2,7
7.088150e-01,6.320477e-01,2,5
3.585170e-01,4.289150e-01,1,3
7.072620e-01,4.191399e-01,2,3
3.578990e-01,3.151894e-01,1,2

