3.473404e+00,4.091024e+00,7,22
7.392450e-01,1.926184e+00,2,18
7.316200e-01,1.965046e+00,2,18
7.314780e-01,2.023935e+00,2,18
7.309390e-01,1.820087e+00,2,16
7.115460e-01,1.392841e+00,2,12
6.999880e-01,1.343966e+00,2,12
7.002510e-01,1.250982e+00,2,11
7.129020e-01,9.360313e-01,2,8
7.015090e-01,9.498596e-01,2,8
7.011180e-01,8.599758e-01,2,7
7.006020e-01,6.330013e-01,2,5
3.681070e-01,4.179478e-01,1,3
7.004180e-01,4.210472e-01,2,3
3.542300e-01,3.149509e-01,1,2

