3.771468e+00,7.385015e+00,6,50
1.832844e+00,5.504131e+00,3,46
1.904714e+00,5.058050e+00,3,42
6.962952e+00,5.271912e+00,9,44
1.834380e+00,5.542994e+00,3,46
2.433539e+00,4.850864e+00,4,40
1.828778e+00,5.082130e+00,3,42
1.836143e+00,4.842043e+00,3,40
2.416559e+00,5.123138e+00,4,42
4.239154e+00,4.389048e+00,7,36
1.832484e+00,4.634857e+00,3,38
1.833198e+00,4.192829e+00,3,34
3.634096e+00,4.437923e+00,6,36
1.773485e+00,4.848957e+00,3,40
3.527359e+00,4.578114e+00,6,38

