3.791574e+00,7.382870e+00,6,50
1.842950e+00,5.506992e+00,3,46
1.830509e+00,5.057096e+00,3,42
5.461781e+00,5.282879e+00,9,44
1.839535e+00,5.542994e+00,3,46
2.432678e+00,4.935026e+00,4,40
1.830614e+00,5.079985e+00,3,42
1.842857e+00,4.837990e+00,3,40
2.425565e+00,5.125046e+00,4,42
4.244719e+00,4.393101e+00,7,36
1.838920e+00,4.638195e+00,3,38
1.831103e+00,4.199028e+00,3,34
3.667962e+00,4.426956e+00,6,36
1.786286e+00,4.895926e+00,3,40
3.536784e+00,4.579067e+00,6,38

