3.903505e+00,7.647991e+00,6,50
1.829551e+00,5.509853e+00,3,46
1.823461e+00,5.102873e+00,3,42
5.445907e+00,5.285025e+00,9,44
1.821435e+00,5.573988e+00,3,46
2.419009e+00,4.871845e+00,4,40
1.831478e+00,5.081892e+00,3,42
1.829064e+00,4.851103e+00,3,40
2.401308e+00,5.143881e+00,4,42
4.231115e+00,4.396915e+00,7,36
1.820244e+00,4.658937e+00,3,38
1.819903e+00,4.213810e+00,3,34
3.702499e+00,4.451036e+00,6,36
1.776936e+00,4.893064e+00,3,40
3.521318e+00,4.592896e+00,6,38

