3.781988e+00,7.393122e+00,6,50
1.849265e+00,5.594015e+00,3,46
1.831735e+00,5.068064e+00,3,42
5.446942e+00,5.292892e+00,9,44
1.837962e+00,5.539894e+00,3,46
2.421763e+00,4.883051e+00,4,40
1.834259e+00,5.088091e+00,3,42
1.828957e+00,4.848957e+00,3,40
2.603471e+00,5.136013e+00,4,42
4.245799e+00,4.436970e+00,7,36
1.822594e+00,4.653931e+00,3,38
1.822299e+00,4.218102e+00,3,34
3.632933e+00,4.501104e+00,6,36
1.779098e+00,4.889965e+00,3,40
3.525297e+00,4.583836e+00,6,38

