3.765828e+00,7.415056e+00,6,50
1.835029e+00,5.527020e+00,3,46
1.828489e+00,5.062103e+00,3,42
5.422081e+00,5.306005e+00,9,44
1.828075e+00,5.578041e+00,3,46
2.428579e+00,4.859924e+00,4,40
1.815656e+00,5.092144e+00,3,42
1.817684e+00,4.863024e+00,3,40
2.402035e+00,5.131960e+00,4,42
4.234450e+00,4.392147e+00,7,36
1.894935e+00,4.647017e+00,3,38
1.823656e+00,4.202127e+00,3,34
3.623938e+00,4.437923e+00,6,36
1.761429e+00,4.928112e+00,3,40
3.513819e+00,4.591942e+00,6,38

