2.153052e+00,4.343033e+00,6,38
7.208010e-01,2.799034e+00,2,30
7.175300e-01,2.825975e+00,2,30
7.158880e-01,2.832174e+00,2,30
7.168570e-01,2.851009e+00,2,30
7.167900e-01,2.479792e+00,2,26
7.046090e-01,2.509117e+00,2,26
7.051360e-01,2.320051e+00,2,24
7.017610e-01,2.641916e+00,2,22
7.014210e-01,2.171993e+00,2,22
7.043160e-01,2.002001e+00,2,20
6.999930e-01,2.202988e+00,2,22
7.003100e-01,2.233982e+00,2,22
7.000300e-01,2.280951e+00,2,22
7.100850e-01,1.481056e+00,2,14

