2.146622e+00,4.327774e+00,6,38
7.141940e-01,2.796173e+00,2,30
7.128060e-01,2.825022e+00,2,30
7.113950e-01,2.829075e+00,2,30
7.225180e-01,2.835035e+00,2,30
7.186190e-01,2.465010e+00,2,26
7.101140e-01,2.490044e+00,2,26
7.047460e-01,2.302885e+00,2,24
7.112130e-01,2.125978e+00,2,22
6.989970e-01,2.156019e+00,2,22
6.994690e-01,1.986980e+00,2,20
6.992150e-01,2.201080e+00,2,22
6.985530e-01,2.228975e+00,2,22
6.990510e-01,2.269983e+00,2,22
7.004930e-01,1.491070e+00,2,14

