2.139254e+00,4.330158e+00,6,38
7.313060e-01,2.789974e+00,2,30
7.153110e-01,2.840042e+00,2,30
7.166120e-01,2.840996e+00,2,30
7.113620e-01,2.863884e+00,2,30
7.104630e-01,2.482891e+00,2,26
7.015180e-01,2.511978e+00,2,26
7.002510e-01,2.327919e+00,2,24
6.997940e-01,2.146959e+00,2,22
6.998760e-01,2.171993e+00,2,22
6.999640e-01,2.002954e+00,2,20
6.992290e-01,2.211094e+00,2,22
7.093810e-01,2.227068e+00,2,22
7.120290e-01,2.271175e+00,2,22
6.974840e-01,1.472950e+00,2,14

