2.237175e+00,3.452063e+00,6,13
3.792160e-01,1.864910e+00,1,10
3.793510e-01,1.688004e+00,1,9
3.775780e-01,1.704931e+00,1,9
3.777450e-01,1.204014e+00,1,6
4.037240e-01,6.690025e-01,1,3
3.772850e-01,5.090237e-01,1,2
3.758410e-01,1.389980e-01,1,0
3.759570e-01,1.389980e-01,1,0
3.749710e-01,1.389980e-01,1,0
3.756760e-01,1.480579e-01,1,0
3.750740e-01,1.380444e-01,1,0
4.421260e-01,1.389980e-01,1,0
3.752870e-01,1.389980e-01,1,0
3.866820e-01,1.389980e-01,1,0

