2.240357e+00,3.000021e+00,6,13
3.801770e-01,1.878977e+00,1,10
3.772490e-01,1.680851e+00,1,9
3.765150e-01,1.712084e+00,1,9
4.421600e-01,3.111124e+00,1,6
3.761730e-01,6.799698e-01,1,3
3.750390e-01,4.971027e-01,1,2
3.746450e-01,1.389980e-01,1,0
3.743520e-01,1.399517e-01,1,0
3.740450e-01,1.420975e-01,1,0
3.729310e-01,1.399517e-01,1,0
3.732110e-01,1.409054e-01,1,0
3.734720e-01,1.399517e-01,1,0
3.852990e-01,1.399517e-01,1,0
3.735840e-01,1.409054e-01,1,0

