2.309722e+00,3.098011e+00,6,13
3.784950e-01,1.852989e+00,1,10
3.787770e-01,1.685858e+00,1,9
3.788890e-01,1.717091e+00,1,9
3.779900e-01,1.205921e+00,1,6
3.774460e-01,6.749630e-01,1,3
3.766320e-01,4.959106e-01,1,2
3.755150e-01,1.389980e-01,1,0
3.762040e-01,2.088547e-01,1,0
3.761790e-01,1.411438e-01,1,0
3.754590e-01,1.401901e-01,1,0
3.752470e-01,1.389980e-01,1,0
3.750710e-01,1.401901e-01,1,0
3.819780e-01,1.389980e-01,1,0
3.755740e-01,1.401901e-01,1,0

