2.239425e+00,3.036022e+00,6,13
3.784490e-01,1.866102e+00,1,10
3.762110e-01,1.681089e+00,1,9
3.767520e-01,1.718998e+00,1,9
3.868670e-01,1.204967e+00,1,6
3.749160e-01,6.680489e-01,1,3
3.752070e-01,4.961491e-01,1,2
3.851930e-01,1.380444e-01,1,0
3.747280e-01,1.399517e-01,1,0
3.731120e-01,1.378059e-01,1,0
3.735710e-01,1.378059e-01,1,0
3.736170e-01,1.378059e-01,1,0
3.742550e-01,1.389980e-01,1,0
3.732880e-01,1.378059e-01,1,0
3.734240e-01,1.380444e-01,1,0

