2.309138e+00,3.093004e+00,6,13
4.000900e-01,1.914024e+00,1,10
3.873550e-01,1.734018e+00,1,9
3.776220e-01,1.766920e+00,1,9
3.762330e-01,1.206160e+00,1,6
3.754990e-01,6.680489e-01,1,3
3.748030e-01,4.949570e-01,1,2
3.740630e-01,1.380444e-01,1,0
3.746530e-01,1.440048e-01,1,0
3.740860e-01,1.380444e-01,1,0
3.740960e-01,1.380444e-01,1,0
3.733470e-01,1.380444e-01,1,0
3.783930e-01,1.389980e-01,1,0
3.732190e-01,1.389980e-01,1,0
3.737520e-01,1.380444e-01,1,0

