2.297011e+00,3.094196e+00,6,13
3.780620e-01,1.857996e+00,1,10
3.788770e-01,1.681089e+00,1,9
3.782030e-01,1.720905e+00,1,9
3.774910e-01,1.208067e+00,1,6
3.761270e-01,6.740093e-01,1,3
3.754860e-01,4.980564e-01,1,2
3.756240e-01,1.392365e-01,1,0
3.816370e-01,1.401901e-01,1,0
3.745830e-01,1.399517e-01,1,0
3.746730e-01,1.399517e-01,1,0
3.748800e-01,1.399517e-01,1,0
3.750440e-01,1.401901e-01,1,0
3.749590e-01,1.399517e-01,1,0
3.749720e-01,1.399517e-01,1,0

