2.281732e+00,3.297806e+00,6,13
3.805670e-01,1.870871e+00,1,10
3.892390e-01,1.680851e+00,1,9
3.795680e-01,1.712084e+00,1,9
3.809570e-01,1.241922e+00,1,6
3.783190e-01,6.668568e-01,1,3
3.853190e-01,4.961491e-01,1,2
3.771510e-01,1.401901e-01,1,0
3.774590e-01,1.399517e-01,1,0
3.770700e-01,1.389980e-01,1,0
3.762100e-01,1.389980e-01,1,0
3.770020e-01,1.409054e-01,1,0
3.764550e-01,1.389980e-01,1,0
3.763290e-01,1.389980e-01,1,0
3.764960e-01,1.380444e-01,1,0

