8.997710e-01,2.961159e-01,6,10
4.415600e-01,2.129078e-01,3,12
5.951500e-01,1.409054e-01,4,8
4.398340e-01,1.749992e-01,3,10
4.397800e-01,1.461506e-01,3,8
4.403110e-01,1.139641e-01,3,6
4.354180e-01,1.158714e-01,3,6
4.421750e-01,8.392334e-02,3,4
5.668500e-01,4.982948e-02,4,2
1.136183e+00,8.416176e-02,8,4
4.353890e-01,8.797646e-02,3,4
1.452197e+00,1.199245e-01,10,6
8.690070e-01,1.571178e-01,6,8
4.394170e-01,1.549721e-01,3,8
8.742010e-01,8.416176e-02,6,4

