8.961160e-01,1.556873e+00,6,10
4.432570e-01,2.100468e-01,3,12
5.967880e-01,1.380444e-01,4,8
4.422040e-01,1.749992e-01,3,10
4.418310e-01,1.449585e-01,3,8
4.417150e-01,1.120567e-01,3,6
4.368180e-01,1.151562e-01,3,6
4.398530e-01,8.201599e-02,3,4
5.699490e-01,4.982948e-02,4,2
1.140176e+00,8.296967e-02,8,4
4.369230e-01,8.583069e-02,3,4
1.457782e+00,1.180172e-01,10,6
8.727720e-01,1.549721e-01,6,8
4.378610e-01,1.518726e-01,3,8
8.804450e-01,8.296967e-02,6,4

