1.376401e+00,1.255045e+00,2,2,0.000000e+00,0.000000e+00
2.055210e+00,1.878308e+00,3,3,2.976419e-01,2.976419e-01
2.028177e+00,1.879633e+00,3,3,4.687770e-01,4.687769e-01
2.029586e+00,1.881277e+00,3,3,1.363080e+00,1.363079e+00
2.024561e+00,1.947184e+00,3,3,2.061346e+00,2.061345e+00
2.025145e+00,1.878938e+00,3,3,6.421088e-01,6.421090e-01
2.020376e+00,1.873405e+00,3,3,7.945535e-01,7.945533e-01
2.021324e+00,1.894970e+00,3,3,2.132682e+00,2.132681e+00
2.023251e+00,1.913565e+00,3,3,3.644240e+00,3.644238e+00
2.026706e+00,1.886548e+00,3,3,6.124898e+00,6.124957e+00
2.026714e+00,1.882879e+00,3,3,4.699971e+00,4.700049e+00
2.081848e+00,1.913575e+00,3,3,4.603132e+00,4.603131e+00
2.019695e+00,1.877719e+00,3,3,6.586225e+00,6.586224e+00
2.017253e+00,1.877289e+00,3,3,4.988269e+00,4.988269e+00
2.020562e+00,1.876169e+00,3,3,4.351680e+00,4.351680e+00
2.019414e+00,1.876159e+00,3,3,3.925203e+00,3.925203e+00
2.021849e+00,1.877557e+00,3,3,3.085904e+00,3.085904e+00
2.021382e+00,1.877202e+00,3,3,3.172639e+00,3.172639e+00
2.019566e+00,1.876789e+00,3,3,2.763468e+00,2.763468e+00
2.021335e+00,1.870952e+00,3,3,2.667545e+00,2.667545e+00
2.018511e+00,1.875722e+00,3,3,2.743209e+00,2.743208e+00
2.021334e+00,1.885517e+00,3,3,2.301120e+00,2.301120e+00
2.019591e+00,1.877258e+00,3,3,1.299992e+00,1.299992e+00
2.017979e+00,1.878636e+00,3,3,1.097145e+00,1.097145e+00
2.018049e+00,1.879275e+00,3,3,1.159756e+00,1.159755e+00
2.018052e+00,1.877326e+00,3,3,1.849800e+00,1.849800e+00
2.022108e+00,1.877912e+00,3,3,2.683319e+00,2.683318e+00
2.019802e+00,1.876470e+00,3,3,1.906968e+00,1.906968e+00
2.018321e+00,1.881953e+00,3,3,2.111578e+00,2.111577e+00
2.019362e+00,1.872451e+00,3,3,2.306815e+00,2.306815e+00
2.022403e+00,1.873413e+00,3,3,2.456434e+00,2.456434e+00
2.016516e+00,1.876410e+00,3,3,1.730062e+00,1.730062e+00
2.018543e+00,1.878976e+00,3,3,1.589501e+00,1.589500e+00
2.033708e+00,1.882517e+00,3,3,1.593623e+00,1.593623e+00
2.028369e+00,1.877664e+00,3,3,1.510541e+00,1.510541e+00
2.018092e+00,1.876608e+00,3,3,2.568406e+00,2.568405e+00
2.020296e+00,1.879102e+00,3,3,1.087421e+00,1.087421e+00
2.017168e+00,1.878432e+00,3,3,2.068643e+00,2.068642e+00
2.018732e+00,1.878550e+00,3,3,1.414141e+00,1.414141e+00
2.021691e+00,1.876587e+00,3,3,1.298535e+00,1.298535e+00
2.016413e+00,1.873325e+00,3,3,1.512528e+00,1.512528e+00
2.016059e+00,1.873153e+00,3,3,1.946575e+00,1.946575e+00
2.023076e+00,1.885793e+00,3,3,3.034981e+00,3.034980e+00
2.018296e+00,1.876601e+00,3,3,3.044189e+00,3.044189e+00
2.025475e+00,1.875967e+00,3,3,2.330619e+00,2.330619e+00
2.021477e+00,1.879168e+00,3,3,2.158546e+00,2.158545e+00
2.018812e+00,1.876268e+00,3,3,1.675291e+00,1.675291e+00
2.016903e+00,1.876948e+00,3,3,2.030076e+00,2.030075e+00
2.017246e+00,1.875914e+00,3,3,3.498888e+00,3.498888e+00
2.016879e+00,1.878560e+00,3,3,2.007035e+00,2.007037e+00
2.024027e+00,1.878068e+00,3,3,2.361073e+00,2.361074e+00
2.022127e+00,1.876012e+00,3,3,2.904627e+00,2.904625e+00
2.081076e+00,1.882825e+00,3,3,4.534894e+00,4.534892e+00
2.020477e+00,1.878879e+00,3,3,3.757001e+00,3.757001e+00
2.020235e+00,1.879109e+00,3,3,2.693760e+00,2.693760e+00
2.029681e+00,1.883959e+00,3,3,2.774666e+00,2.774666e+00
2.031814e+00,1.880194e+00,3,3,2.226826e+00,2.226826e+00
2.023445e+00,1.878832e+00,3,3,1.731583e+00,1.731583e+00
2.021771e+00,1.877781e+00,3,3,1.137752e+00,1.137752e+00
2.032589e+00,1.878642e+00,3,3,1.209884e+00,1.209884e+00
2.020614e+00,1.885375e+00,3,3,1.514822e+00,1.514821e+00
2.028011e+00,1.875221e+00,3,3,1.719821e+00,1.719821e+00
2.018265e+00,1.876778e+00,3,3,2.906696e+00,2.906785e+00
2.018604e+00,1.872730e+00,3,3,2.200976e+00,2.200980e+00
2.017858e+00,1.875062e+00,3,3,1.599608e+00,1.599608e+00
2.018979e+00,1.876946e+00,3,3,1.152193e+00,1.152193e+00
2.016821e+00,1.876775e+00,3,3,1.157971e+00,1.157971e+00
2.016462e+00,1.877509e+00,3,3,1.084610e+00,1.084610e+00
2.017147e+00,1.876140e+00,3,3,8.785418e-01,8.785417e-01
2.019698e+00,1.878052e+00,3,3,7.509137e-01,7.509136e-01
2.018437e+00,1.883790e+00,3,3,1.886630e+00,1.886630e+00
2.029455e+00,1.884438e+00,3,3,5.307818e+00,5.307762e+00
2.690767e+00,2.508749e+00,4,4,2.134361e+00,2.134361e+00
2.023569e+00,1.883713e+00,3,3,1.770311e+00,1.770311e+00
2.022793e+00,1.878275e+00,3,3,1.021256e+00,1.021256e+00
2.030732e+00,1.886689e+00,3,3,1.081321e+00,1.081320e+00
2.027600e+00,1.915202e+00,3,3,9.723539e-01,9.723539e-01
2.052123e+00,1.915337e+00,3,3,1.255504e+00,1.255503e+00
2.029682e+00,1.881383e+00,3,3,1.968239e+00,1.968239e+00
2.023239e+00,1.877518e+00,3,3,1.532832e+00,1.532832e+00
2.067624e+00,1.966149e+00,3,3,1.726892e+00,1.726891e+00
2.036897e+00,1.882054e+00,3,3,1.333361e+00,1.333361e+00
2.026330e+00,1.876847e+00,3,3,1.267833e+00,1.267833e+00
2.019199e+00,1.875527e+00,3,3,1.135924e+00,1.135924e+00
2.030993e+00,1.874839e+00,3,3,1.240888e+00,1.240887e+00
2.016372e+00,1.878249e+00,3,3,1.399828e+00,1.399828e+00
2.014715e+00,1.876841e+00,3,3,9.640429e-01,9.640428e-01
2.019594e+00,1.879211e+00,3,3,8.918413e-01,8.918412e-01
2.019612e+00,1.874754e+00,3,3,6.109703e-01,6.109701e-01
2.017507e+00,1.878420e+00,3,3,1.323221e+00,1.323220e+00
2.018847e+00,1.875671e+00,3,3,1.312155e+00,1.312154e+00
2.018904e+00,1.871668e+00,3,3,1.395400e+00,1.395400e+00
2.015887e+00,1.870305e+00,3,3,1.492729e+00,1.492729e+00
2.019760e+00,1.873516e+00,3,3,2.162799e+00,2.162799e+00
2.016211e+00,1.875098e+00,3,3,3.279634e+00,3.279633e+00
2.021134e+00,1.874080e+00,3,3,3.456419e+00,3.456418e+00
2.017416e+00,1.874001e+00,3,3,3.167110e+00,3.167110e+00
2.018887e+00,1.875351e+00,3,3,3.382375e+00,3.382375e+00
2.016872e+00,1.877024e+00,3,3,3.932084e+00,3.932084e+00
2.022478e+00,1.876750e+00,3,3,3.649959e+00,3.649959e+00
2.017049e+00,1.876927e+00,3,3,2.214032e+00,2.214032e+00
2.019708e+00,1.873835e+00,3,3,2.419021e+00,2.419021e+00
2.017584e+00,1.872376e+00,3,3,2.369138e+00,2.369137e+00
2.016499e+00,1.875349e+00,3,3,2.038473e+00,2.038473e+00
2.016102e+00,1.875300e+00,3,3,1.518726e+00,1.518726e+00
2.017664e+00,1.873421e+00,3,3,1.618740e+00,1.618740e+00
2.016325e+00,1.876983e+00,3,3,1.874286e+00,1.874286e+00
2.015562e+00,1.874998e+00,3,3,3.028599e+00,3.028655e+00
2.019430e+00,1.875530e+00,3,3,1.195695e+00,1.195701e+00
2.017321e+00,1.895012e+00,3,3,2.465708e+00,2.465707e+00
2.022517e+00,1.876757e+00,3,3,1.220465e+00,1.220465e+00
2.022045e+00,1.875568e+00,3,3,1.366188e+00,1.366188e+00
2.019588e+00,1.871140e+00,3,3,2.960126e+00,2.960131e+00
2.014024e+00,1.875519e+00,3,3,3.095306e+00,3.095305e+00
2.020565e+00,1.876486e+00,3,3,2.200610e+00,2.200610e+00
2.017317e+00,1.878123e+00,3,3,4.019909e+00,4.019907e+00
2.026117e+00,1.886354e+00,3,3,3.524855e+00,3.524855e+00
2.034472e+00,1.884412e+00,3,3,2.929514e+00,2.929514e+00
2.030090e+00,1.882068e+00,3,3,2.124789e+00,2.124788e+00
2.019446e+00,1.878863e+00,3,3,2.064947e+00,2.064947e+00
2.019090e+00,1.876545e+00,3,3,2.780835e+00,2.780834e+00
2.023478e+00,1.875305e+00,3,3,3.518005e+00,3.518004e+00
2.016913e+00,1.876796e+00,3,3,5.396601e+00,5.396655e+00
2.016232e+00,1.871208e+00,3,3,1.913071e+00,1.913091e+00
2.018533e+00,1.876082e+00,3,3,1.699980e+00,1.699979e+00
2.017382e+00,1.875632e+00,3,3,1.520971e+00,1.520971e+00
2.021351e+00,1.875204e+00,3,3,1.925956e+00,1.925958e+00
2.016324e+00,1.874762e+00,3,3,3.154583e+00,3.154615e+00
2.016987e+00,1.875635e+00,3,3,3.993400e+00,3.993396e+00
2.018176e+00,1.876325e+00,3,3,3.838498e+00,3.838498e+00
2.017723e+00,1.878651e+00,3,3,5.312126e+00,5.312125e+00
2.018958e+00,1.875373e+00,3,3,4.406935e+00,4.406936e+00
2.018023e+00,1.876007e+00,3,3,3.038628e+00,3.038628e+00
2.021611e+00,1.874523e+00,3,3,2.348514e+00,2.348514e+00
2.018836e+00,1.872698e+00,3,3,2.181256e+00,2.181256e+00
2.017190e+00,1.889759e+00,3,3,2.003941e+00,2.003940e+00
2.017491e+00,1.876480e+00,3,3,1.870864e+00,1.870864e+00
2.015704e+00,1.875809e+00,3,3,2.673809e+00,2.673809e+00
2.016728e+00,1.877656e+00,3,3,3.196365e+00,3.196381e+00
2.015616e+00,1.876057e+00,3,3,7.570142e+00,7.569416e+00
2.686499e+00,2.495993e+00,4,4,5.107578e+00,5.107589e+00
2.016954e+00,1.878096e+00,3,3,4.397896e+00,4.398036e+00
2.019733e+00,1.874850e+00,3,3,3.044378e+00,3.044455e+00
2.018454e+00,1.876400e+00,3,3,3.833445e+00,3.833453e+00
2.024103e+00,1.899627e+00,3,3,6.766001e+00,6.766028e+00
2.029603e+00,1.890234e+00,3,3,5.033710e+00,5.033714e+00
2.019077e+00,1.876500e+00,3,3,3.321351e+00,3.321352e+00
2.018947e+00,1.875741e+00,3,3,3.640285e+00,3.640284e+00
2.019477e+00,1.871983e+00,3,3,3.382691e+00,3.382690e+00
2.017940e+00,1.875475e+00,3,3,2.353999e+00,2.354000e+00
2.017146e+00,1.875706e+00,3,3,2.294896e+00,2.294897e+00
2.019306e+00,1.877016e+00,3,3,1.763717e+00,1.763723e+00
2.017493e+00,1.876466e+00,3,3,7.602025e-01,7.602033e-01
2.014695e+00,1.875961e+00,3,3,9.905028e-01,9.905026e-01
2.016780e+00,1.877071e+00,3,3,6.893309e-01,6.893304e-01
2.018398e+00,1.876833e+00,3,3,3.160003e+00,3.160001e+00
2.018624e+00,1.877641e+00,3,3,3.181513e+00,3.181514e+00
2.021567e+00,1.875977e+00,3,3,3.643298e+00,3.643297e+00
2.023435e+00,1.873054e+00,3,3,7.041450e+00,7.041465e+00
2.019554e+00,1.882343e+00,3,3,5.314084e+00,5.314086e+00
2.019059e+00,1.891301e+00,3,3,6.775689e+00,6.775687e+00
2.022015e+00,1.876543e+00,3,3,5.355845e+00,5.355846e+00
2.019933e+00,1.875655e+00,3,3,4.391616e+00,4.391616e+00
2.018035e+00,1.878240e+00,3,3,5.788316e+00,5.788317e+00
2.018323e+00,1.878999e+00,3,3,6.284503e+00,6.284960e+00
3.349671e+00,2.502159e+00,5,4,6.116975e+00,6.111092e+00
4.022582e+00,3.119626e+00,6,5,6.596366e+00,6.618543e+00
4.693559e+00,3.120976e+00,7,5,6.829576e+00,6.838053e+00
4.029684e+00,3.743852e+00,6,6,1.121013e+01,1.119748e+01
4.027505e+00,3.739244e+00,6,6,1.215252e+01,1.215025e+01
3.369262e+00,2.499301e+00,5,4,9.400281e+00,9.400961e+00
4.027124e+00,3.742519e+00,6,6,1.108118e+01,1.105215e+01
2.684322e+00,2.496914e+00,4,4,9.815185e+00,9.823305e+00
2.015338e+00,2.502510e+00,3,4,9.237338e+00,9.237321e+00
2.018085e+00,1.874393e+00,3,3,8.451022e+00,8.451022e+00
2.030599e+00,1.916304e+00,3,3,9.326763e+00,9.326763e+00
2.058176e+00,1.885014e+00,3,3,6.444601e+00,6.444603e+00
2.059575e+00,1.918062e+00,3,3,5.258671e+00,5.258671e+00
2.061533e+00,1.888557e+00,3,3,5.106250e+00,5.106250e+00
2.020182e+00,1.877074e+00,3,3,5.968310e+00,5.968311e+00
2.034951e+00,1.878189e+00,3,3,6.543849e+00,6.543865e+00
2.019313e+00,1.880672e+00,3,3,7.843378e+00,7.843089e+00
4.697147e+00,3.747225e+00,7,6,8.475623e+00,8.480408e+00
4.697896e+00,3.743312e+00,7,6,4.380440e+00,4.385069e+00
2.013854e+00,1.876096e+00,3,3,2.160650e+00,2.160678e+00
2.016204e+00,1.875833e+00,3,3,1.488141e+00,1.488141e+00
2.015677e+00,1.874526e+00,3,3,1.266647e+00,1.266647e+00
2.019153e+00,1.880021e+00,3,3,9.226919e-01,9.226920e-01
2.016108e+00,1.874101e+00,3,3,1.997498e+00,1.997497e+00
2.015962e+00,1.869842e+00,3,3,1.073697e+00,1.073697e+00
2.021059e+00,1.871797e+00,3,3,1.603044e+00,1.603044e+00
2.016175e+00,1.875450e+00,3,3,3.425625e+00,3.425624e+00
2.017770e+00,1.875192e+00,3,3,2.908979e+00,2.908979e+00
2.017772e+00,1.876582e+00,3,3,5.267647e+00,5.267652e+00
2.019216e+00,1.872598e+00,3,3,5.190945e+00,5.190946e+00
2.018631e+00,1.875498e+00,3,3,3.355248e+00,3.355248e+00
2.018820e+00,1.874902e+00,3,3,2.598185e+00,2.598185e+00
2.019013e+00,1.875793e+00,3,3,2.012019e+00,2.012019e+00
2.017007e+00,1.873576e+00,3,3,1.684965e+00,1.684965e+00
2.019566e+00,1.875716e+00,3,3,1.309046e+00,1.309045e+00
2.019797e+00,1.872226e+00,3,3,1.847789e+00,1.847788e+00
2.015840e+00,1.877621e+00,3,3,1.461717e+00,1.461717e+00
2.020617e+00,1.874343e+00,3,3,1.575161e+00,1.575161e+00
2.032710e+00,1.878363e+00,3,3,1.423629e+00,1.423629e+00
2.019586e+00,1.876495e+00,3,3,1.304519e+00,1.304519e+00
2.020416e+00,1.877172e+00,3,3,1.422062e+00,1.422062e+00
2.017986e+00,1.876971e+00,3,3,1.639854e+00,1.639854e+00
2.015916e+00,1.876103e+00,3,3,1.427265e+00,1.427265e+00
2.020971e+00,1.873507e+00,3,3,1.021398e+00,1.021398e+00
2.018757e+00,1.873426e+00,3,3,8.620539e-01,8.620539e-01
2.020464e+00,1.871678e+00,3,3,1.051480e+00,1.051480e+00
2.016443e+00,1.874196e+00,3,3,1.298508e+00,1.298508e+00
2.017450e+00,1.874910e+00,3,3,1.009532e+00,1.009532e+00
2.015004e+00,1.877418e+00,3,3,1.435664e+00,1.435663e+00
2.016436e+00,1.877533e+00,3,3,2.073394e+00,2.073393e+00
2.021387e+00,1.875242e+00,3,3,7.190621e-01,7.190624e-01
2.016732e+00,1.875268e+00,3,3,8.893389e-01,8.893386e-01
2.015633e+00,1.877689e+00,3,3,6.329064e-01,6.329062e-01
2.020414e+00,1.876341e+00,3,3,7.738339e-01,7.738337e-01
2.017011e+00,1.873479e+00,3,3,7.931578e-01,7.931577e-01
2.018406e+00,1.869221e+00,3,3,7.752519e-01,7.752518e-01
2.023414e+00,1.868978e+00,3,3,1.042067e+00,1.042066e+00
2.018481e+00,1.873700e+00,3,3,1.490331e+00,1.490331e+00
2.018020e+00,1.876540e+00,3,3,1.056479e+00,1.056479e+00
2.014127e+00,1.876688e+00,3,3,1.030619e+00,1.030619e+00
2.016340e+00,1.877030e+00,3,3,1.108046e+00,1.108046e+00
2.018095e+00,1.876199e+00,3,3,1.011736e+00,1.011736e+00
2.017521e+00,1.875513e+00,3,3,2.222563e+00,2.222562e+00
2.018303e+00,1.879041e+00,3,3,3.361898e+00,3.361897e+00
2.035098e+00,1.876704e+00,3,3,3.278255e+00,3.278255e+00
2.020714e+00,1.877508e+00,3,3,2.653825e+00,2.653824e+00
2.017454e+00,1.872201e+00,3,3,2.407725e+00,2.407725e+00
2.019853e+00,1.873451e+00,3,3,2.550684e+00,2.550684e+00
2.018385e+00,1.876235e+00,3,3,2.010557e+00,2.010557e+00
2.017289e+00,1.874309e+00,3,3,2.082939e+00,2.082938e+00
2.016425e+00,1.883986e+00,3,3,1.796567e+00,1.796567e+00
2.020112e+00,1.878069e+00,3,3,2.144346e+00,2.144345e+00
2.017180e+00,1.880778e+00,3,3,1.647341e+00,1.647341e+00
2.020157e+00,1.877160e+00,3,3,1.009773e+00,1.009774e+00
2.018329e+00,1.877807e+00,3,3,8.605974e-01,8.605974e-01
2.020617e+00,1.875990e+00,3,3,6.337504e-01,6.337502e-01
2.014505e+00,1.871541e+00,3,3,8.269969e-01,8.269966e-01
2.018190e+00,1.874296e+00,3,3,6.718237e-01,6.718237e-01
2.021234e+00,1.874152e+00,3,3,5.047048e-01,5.047048e-01
2.016140e+00,1.875814e+00,3,3,5.692280e-01,5.692278e-01
2.017000e+00,1.876394e+00,3,3,6.922036e-01,6.922034e-01
2.017715e+00,1.875205e+00,3,3,1.137589e+00,1.137588e+00
2.016312e+00,1.878141e+00,3,3,1.107535e+00,1.107535e+00
2.016767e+00,1.877665e+00,3,3,8.907576e-01,8.907575e-01
2.017790e+00,1.878907e+00,3,3,8.831961e-01,8.831960e-01
2.014933e+00,1.876349e+00,3,3,1.080079e+00,1.080078e+00
2.017146e+00,1.871101e+00,3,3,1.671455e+00,1.671455e+00
2.022467e+00,1.870549e+00,3,3,9.933157e-01,9.933157e-01
2.018764e+00,1.876046e+00,3,3,7.337816e-01,7.337815e-01
2.022888e+00,1.895828e+00,3,3,7.026122e-01,7.026118e-01
2.024107e+00,1.879239e+00,3,3,9.479220e-01,9.479216e-01
2.019715e+00,1.878371e+00,3,3,9.063148e-01,9.063147e-01
2.022461e+00,1.876153e+00,3,3,9.373623e-01,9.373621e-01
2.018937e+00,1.877629e+00,3,3,8.818426e-01,8.818424e-01
2.019442e+00,1.876472e+00,3,3,8.529242e-01,8.529241e-01
2.020033e+00,1.876726e+00,3,3,7.154028e-01,7.154028e-01
2.019062e+00,1.875589e+00,3,3,2.807644e+00,2.807642e+00
2.021210e+00,1.869248e+00,3,3,1.587489e+00,1.587490e+00
2.016766e+00,1.871306e+00,3,3,9.428263e-01,9.428265e-01
2.028071e+00,1.876227e+00,3,3,9.017432e-01,9.017431e-01
2.015429e+00,1.876149e+00,3,3,1.271105e+00,1.271105e+00
2.016788e+00,1.876585e+00,3,3,1.640311e+00,1.640310e+00
2.022288e+00,1.877446e+00,3,3,1.606809e+00,1.606809e+00
2.018869e+00,1.877321e+00,3,3,1.735829e+00,1.735829e+00
2.018130e+00,1.876399e+00,3,3,1.645524e+00,1.645524e+00
2.017457e+00,1.877224e+00,3,3,2.136637e+00,2.136636e+00
2.018178e+00,1.877889e+00,3,3,3.608900e+00,3.608899e+00
2.015789e+00,1.874580e+00,3,3,4.965899e+00,4.965885e+00
3.363400e+00,2.495127e+00,5,4,2.656753e+00,2.656727e+00
2.017381e+00,1.884344e+00,3,3,1.434355e+00,1.434355e+00
2.016899e+00,1.876702e+00,3,3,1.612253e+00,1.612253e+00
2.021594e+00,1.875491e+00,3,3,1.453147e+00,1.453147e+00
2.020473e+00,1.875292e+00,3,3,1.294163e+00,1.294163e+00
2.020779e+00,1.877810e+00,3,3,8.763594e-01,8.763594e-01
2.020339e+00,1.891252e+00,3,3,6.079426e-01,6.079426e-01
2.016588e+00,1.874984e+00,3,3,8.339083e-01,8.339079e-01
2.017892e+00,1.878235e+00,3,3,1.172109e+00,1.172109e+00
2.018084e+00,1.875099e+00,3,3,6.170988e-01,6.170987e-01
2.017669e+00,1.869890e+00,3,3,2.294985e+00,2.294984e+00
2.016458e+00,1.875729e+00,3,3,1.835155e+00,1.835155e+00
2.020558e+00,1.873982e+00,3,3,1.241214e+00,1.241214e+00
2.019288e+00,1.875610e+00,3,3,1.798173e+00,1.798172e+00
2.016629e+00,1.876791e+00,3,3,1.233691e+00,1.233691e+00
2.053519e+00,1.878399e+00,3,3,1.225007e+00,1.225007e+00
2.017918e+00,1.877011e+00,3,3,1.384110e+00,1.384109e+00
2.018239e+00,1.874457e+00,3,3,2.223559e+00,2.223559e+00
2.017697e+00,1.876271e+00,3,3,1.898300e+00,1.898300e+00
2.018609e+00,1.876902e+00,3,3,4.457940e+00,4.457938e+00
2.019307e+00,1.874453e+00,3,3,3.420484e+00,3.420486e+00
2.688026e+00,1.873190e+00,4,3,7.969279e+00,7.971611e+00
4.027681e+00,3.744068e+00,6,6,6.586946e+00,6.573093e+00
2.683357e+00,2.496395e+00,4,4,6.260227e+00,6.260227e+00
2.021083e+00,1.875903e+00,3,3,4.192889e+00,4.192890e+00
2.019233e+00,1.876893e+00,3,3,3.940791e+00,3.940791e+00
2.022179e+00,1.877633e+00,3,3,3.721486e+00,3.721486e+00
2.021332e+00,1.875851e+00,3,3,3.508079e+00,3.508079e+00
2.021798e+00,1.876843e+00,3,3,3.222248e+00,3.222247e+00
2.017853e+00,1.871163e+00,3,3,3.881544e+00,3.881542e+00
2.025070e+00,1.886313e+00,3,3,2.921004e+00,2.921005e+00
2.020003e+00,1.875635e+00,3,3,1.871613e+00,1.871613e+00
2.019193e+00,1.875241e+00,3,3,2.888509e+00,2.888508e+00
2.018846e+00,1.873138e+00,3,3,1.317897e+00,1.317898e+00
2.021913e+00,1.875568e+00,3,3,1.317835e+00,1.317835e+00
2.017984e+00,1.875622e+00,3,3,7.002076e-01,7.002076e-01
2.015540e+00,1.875359e+00,3,3,8.921666e-01,8.921663e-01
2.017170e+00,1.875394e+00,3,3,9.253647e-01,9.253645e-01
2.017611e+00,1.875163e+00,3,3,2.008081e+00,2.008080e+00
2.017193e+00,1.877906e+00,3,3,1.068254e+00,1.068254e+00
2.016966e+00,1.870422e+00,3,3,8.302097e-01,8.302096e-01
2.018166e+00,1.876091e+00,3,3,5.844454e-01,5.844453e-01
2.017399e+00,1.875391e+00,3,3,4.433762e-01,4.433761e-01
2.016236e+00,1.875372e+00,3,3,7.483079e-01,7.483076e-01
2.020391e+00,1.874629e+00,3,3,6.034860e-01,6.034860e-01
2.015356e+00,1.875359e+00,3,3,9.362854e-01,9.362850e-01
2.016781e+00,1.879929e+00,3,3,3.875060e-01,3.875060e-01
2.018311e+00,1.875772e+00,3,3,4.595762e-01,4.595761e-01
2.017956e+00,1.875041e+00,3,3,1.111398e+00,1.111398e+00
2.020637e+00,1.875496e+00,3,3,9.509364e-01,9.509363e-01
2.019613e+00,1.871506e+00,3,3,1.456068e+00,1.456068e+00
2.017788e+00,1.876331e+00,3,3,9.167341e-01,9.167343e-01
2.017805e+00,1.873013e+00,3,3,7.823560e-01,7.823559e-01
2.016127e+00,1.876406e+00,3,3,5.863322e-01,5.863321e-01
2.020361e+00,1.877647e+00,3,3,1.187876e+00,1.187875e+00
2.016954e+00,1.874674e+00,3,3,8.895934e-01,8.895932e-01
2.017871e+00,1.888302e+00,3,3,1.299535e+00,1.299535e+00
2.016993e+00,1.876469e+00,3,3,1.031162e+00,1.031162e+00
2.017789e+00,1.874878e+00,3,3,1.128841e+00,1.128842e+00
2.017812e+00,1.877591e+00,3,3,8.440592e-01,8.440590e-01
2.014415e+00,1.872329e+00,3,3,1.251636e+00,1.251635e+00
2.019012e+00,1.870887e+00,3,3,1.055762e+00,1.055762e+00
2.018061e+00,1.875023e+00,3,3,2.428662e+00,2.428662e+00
2.016046e+00,1.875583e+00,3,3,3.663892e+00,3.663891e+00
2.019267e+00,1.875999e+00,3,3,2.850105e+00,2.850105e+00
2.018712e+00,1.876959e+00,3,3,1.890048e+00,1.890048e+00
2.016743e+00,1.876084e+00,3,3,1.690680e+00,1.690680e+00
2.017738e+00,1.875980e+00,3,3,1.692403e+00,1.692403e+00
2.019715e+00,1.876666e+00,3,3,1.480748e+00,1.480748e+00
2.018034e+00,1.874354e+00,3,3,1.177514e+00,1.177514e+00
2.017991e+00,1.872951e+00,3,3,1.130230e+00,1.130229e+00
2.018838e+00,1.870381e+00,3,3,1.383923e+00,1.383922e+00
2.018985e+00,1.877394e+00,3,3,1.644637e+00,1.644636e+00
2.017994e+00,1.878414e+00,3,3,1.050247e+00,1.050246e+00
2.012952e+00,1.877264e+00,3,3,1.064558e+00,1.064557e+00
2.020692e+00,1.875223e+00,3,3,9.150413e-01,9.150412e-01
2.017882e+00,1.877351e+00,3,3,9.302994e-01,9.302993e-01
2.018141e+00,1.875576e+00,3,3,1.495777e+00,1.495776e+00
2.019770e+00,1.876553e+00,3,3,2.283757e+00,2.283756e+00
2.017342e+00,1.876305e+00,3,3,1.386738e+00,1.386739e+00
2.019379e+00,1.879635e+00,3,3,1.506095e+00,1.506095e+00
2.017262e+00,1.872828e+00,3,3,2.460188e+00,2.460187e+00
2.027827e+00,1.877505e+00,3,3,2.925904e+00,2.925903e+00
2.018889e+00,1.877416e+00,3,3,2.258781e+00,2.258782e+00
2.018396e+00,1.876282e+00,3,3,2.463933e+00,2.463932e+00
2.016794e+00,1.875628e+00,3,3,2.158347e+00,2.158347e+00
2.018573e+00,1.876386e+00,3,3,1.615884e+00,1.615884e+00
2.017382e+00,1.876368e+00,3,3,2.035062e+00,2.035061e+00
2.016689e+00,1.874404e+00,3,3,1.518035e+00,1.518035e+00
2.017601e+00,1.878611e+00,3,3,1.403568e+00,1.403568e+00
2.018529e+00,1.876727e+00,3,3,1.063996e+00,1.063996e+00
2.018469e+00,1.874493e+00,3,3,8.467782e-01,8.467780e-01
2.014882e+00,1.871835e+00,3,3,9.583401e-01,9.583398e-01
2.017224e+00,1.875754e+00,3,3,9.196338e-01,9.196337e-01
2.018571e+00,1.876816e+00,3,3,2.013718e+00,2.013718e+00
2.014673e+00,1.875833e+00,3,3,1.286304e+00,1.286305e+00
2.017357e+00,1.876467e+00,3,3,1.081879e+00,1.081879e+00
2.016427e+00,1.875397e+00,3,3,1.092188e+00,1.092188e+00
2.027333e+00,1.875457e+00,3,3,8.162643e-01,8.162642e-01
2.020167e+00,1.876750e+00,3,3,1.257495e+00,1.257495e+00
2.016909e+00,1.878192e+00,3,3,1.511932e+00,1.511932e+00
2.023364e+00,1.878394e+00,3,3,2.057693e+00,2.057693e+00
2.018868e+00,1.901810e+00,3,3,1.899272e+00,1.899272e+00
2.062041e+00,1.948016e+00,3,3,3.587266e+00,3.587265e+00
2.029173e+00,1.886917e+00,3,3,2.678656e+00,2.678656e+00
2.066550e+00,1.898724e+00,3,3,3.133407e+00,3.133406e+00
2.032975e+00,1.894381e+00,3,3,3.664675e+00,3.664674e+00
2.083834e+00,1.957518e+00,3,3,3.246399e+00,3.246399e+00
2.036120e+00,1.881670e+00,3,3,3.286277e+00,3.286277e+00
2.019993e+00,1.880065e+00,3,3,2.535539e+00,2.535539e+00
2.021842e+00,1.882164e+00,3,3,2.420780e+00,2.420780e+00
2.020934e+00,1.892277e+00,3,3,1.821677e+00,1.821677e+00
2.038989e+00,1.887281e+00,3,3,1.592682e+00,1.592682e+00
2.017039e+00,1.876536e+00,3,3,1.396280e+00,1.396280e+00
2.014876e+00,1.875417e+00,3,3,1.740462e+00,1.740462e+00
2.018860e+00,1.877426e+00,3,3,2.288128e+00,2.288128e+00
2.027187e+00,1.877515e+00,3,3,2.262035e+00,2.262034e+00
2.018126e+00,1.877412e+00,3,3,2.873384e+00,2.873383e+00
2.017835e+00,1.871940e+00,3,3,1.955868e+00,1.955869e+00
2.018606e+00,1.874382e+00,3,3,1.488156e+00,1.488156e+00
2.018570e+00,1.875970e+00,3,3,3.365549e+00,3.365548e+00
2.016274e+00,1.874511e+00,3,3,2.705961e+00,2.705961e+00
2.020687e+00,1.878095e+00,3,3,1.710776e+00,1.710776e+00
2.020826e+00,1.876616e+00,3,3,1.991676e+00,1.991676e+00
2.019125e+00,1.878034e+00,3,3,2.740701e+00,2.740703e+00
2.017106e+00,1.875451e+00,3,3,2.673279e+00,2.673278e+00
2.018406e+00,1.875353e+00,3,3,2.416534e+00,2.416534e+00
2.022577e+00,1.874810e+00,3,3,2.155421e+00,2.155420e+00
2.018844e+00,1.871877e+00,3,3,4.953443e+00,4.953440e+00
2.021735e+00,1.871465e+00,3,3,3.594384e+00,3.594384e+00
2.016890e+00,1.877426e+00,3,3,2.833390e+00,2.833390e+00
2.020521e+00,1.876160e+00,3,3,3.101532e+00,3.101532e+00
2.017537e+00,1.876363e+00,3,3,2.633475e+00,2.633475e+00
2.035446e+00,1.880197e+00,3,3,3.727761e+00,3.727760e+00
2.020374e+00,1.875971e+00,3,3,2.314803e+00,2.314804e+00
2.019834e+00,1.877658e+00,3,3,2.107526e+00,2.107526e+00
2.018444e+00,1.876559e+00,3,3,3.724775e+00,3.724774e+00
2.018026e+00,1.878420e+00,3,3,2.799876e+00,2.799876e+00
2.019966e+00,1.877349e+00,3,3,2.745096e+00,2.745096e+00
2.016044e+00,1.873715e+00,3,3,2.261503e+00,2.261503e+00
2.019484e+00,1.877467e+00,3,3,2.393576e+00,2.393576e+00
2.018090e+00,1.882758e+00,3,3,2.110712e+00,2.110712e+00
2.026480e+00,1.892565e+00,3,3,2.170715e+00,2.170715e+00
2.018510e+00,1.885282e+00,3,3,1.465019e+00,1.465020e+00
2.019515e+00,1.879203e+00,3,3,8.833946e-01,8.833947e-01
2.018520e+00,1.876742e+00,3,3,1.824462e+00,1.824460e+00
2.015031e+00,1.875144e+00,3,3,1.291759e+00,1.291759e+00
2.017435e+00,1.877793e+00,3,3,1.087930e+00,1.087930e+00
2.019470e+00,1.877599e+00,3,3,5.924028e-01,5.924028e-01
2.019857e+00,1.876128e+00,3,3,9.973678e-01,9.973675e-01
2.020043e+00,1.870446e+00,3,3,1.617336e+00,1.617335e+00
2.016356e+00,1.875969e+00,3,3,1.642537e+00,1.642537e+00
2.021138e+00,1.876585e+00,3,3,1.383921e+00,1.383921e+00
2.014477e+00,1.877537e+00,3,3,2.544029e+00,2.544028e+00
2.017267e+00,1.879176e+00,3,3,3.332044e+00,3.332043e+00
2.021254e+00,1.877933e+00,3,3,4.703461e+00,4.703460e+00
2.018174e+00,1.878371e+00,3,3,4.027115e+00,4.027116e+00
2.019049e+00,1.885455e+00,3,3,7.669591e+00,7.669369e+00
2.684065e+00,2.514779e+00,4,4,6.986975e+00,6.987006e+00
2.018968e+00,1.875980e+00,3,3,5.394149e+00,5.394150e+00
2.018147e+00,1.878058e+00,3,3,4.016136e+00,4.016136e+00
2.020554e+00,1.878061e+00,3,3,3.374880e+00,3.374880e+00
2.016447e+00,1.877796e+00,3,3,3.026908e+00,3.026908e+00
2.016835e+00,1.873566e+00,3,3,3.695626e+00,3.695625e+00
2.018091e+00,1.872015e+00,3,3,6.888092e+00,6.888203e+00
4.023616e+00,3.751694e+00,6,6,9.735417e+00,9.719301e+00
4.023413e+00,3.741732e+00,6,6,9.629979e+00,9.610521e+00
4.025360e+00,3.747907e+00,6,6,1.019225e+01,1.018327e+01
2.684402e+00,3.126237e+00,4,5,6.804466e+00,6.821929e+00
2.017816e+00,2.494260e+00,3,4,4.521969e+00,4.521968e+00
2.019097e+00,1.875960e+00,3,3,4.605639e+00,4.605638e+00
2.019057e+00,1.873848e+00,3,3,3.056872e+00,3.056872e+00
2.018955e+00,1.875441e+00,3,3,2.560434e+00,2.560434e+00
2.021452e+00,1.876580e+00,3,3,2.170546e+00,2.170546e+00
2.017187e+00,1.875202e+00,3,3,1.967457e+00,1.967457e+00
2.019226e+00,1.876118e+00,3,3,1.707513e+00,1.707513e+00
2.017521e+00,1.871472e+00,3,3,1.648042e+00,1.648042e+00
2.017320e+00,1.876134e+00,3,3,3.601249e+00,3.601408e+00
2.016431e+00,2.500925e+00,3,4,5.286394e+00,5.285109e+00
3.362715e+00,2.516430e+00,5,4,5.341203e+00,5.336596e+00
2.689148e+00,1.876909e+00,4,3,5.438102e+00,5.438108e+00
2.018800e+00,1.878521e+00,3,3,2.503470e+00,2.503473e+00
2.015307e+00,1.873554e+00,3,3,1.805827e+00,1.805827e+00
2.019631e+00,1.874999e+00,3,3,2.248514e+00,2.248514e+00
2.020508e+00,1.878541e+00,3,3,2.891957e+00,2.891957e+00
2.021486e+00,1.877366e+00,3,3,3.560643e+00,3.560642e+00
2.022802e+00,1.877307e+00,3,3,2.756472e+00,2.756473e+00
2.018658e+00,1.875962e+00,3,3,7.064602e+00,7.064013e+00
4.028142e+00,3.739643e+00,6,6,1.164983e+01,1.164499e+01
2.687649e+00,3.742632e+00,4,6,1.231321e+01,1.232348e+01
2.683696e+00,2.496063e+00,4,4,7.804569e+00,7.804574e+00
2.019585e+00,1.876047e+00,3,3,1.019046e+01,1.019052e+01
2.691189e+00,2.495424e+00,4,4,8.068233e+00,8.068261e+00
2.018535e+00,1.874784e+00,3,3,7.406219e+00,7.406323e+00
2.018327e+00,1.875960e+00,3,3,5.848939e+00,5.848941e+00
2.015820e+00,1.875754e+00,3,3,5.777351e+00,5.777351e+00
2.016856e+00,1.875874e+00,3,3,4.750418e+00,4.750418e+00
2.018364e+00,1.875599e+00,3,3,4.808043e+00,4.808043e+00
2.014597e+00,1.875340e+00,3,3,5.244899e+00,5.244898e+00
2.016316e+00,1.870156e+00,3,3,4.343643e+00,4.343643e+00
2.020752e+00,1.875499e+00,3,3,3.377250e+00,3.377249e+00
2.018875e+00,1.875264e+00,3,3,2.789322e+00,2.789322e+00
2.017668e+00,1.874795e+00,3,3,2.605899e+00,2.605899e+00
2.034594e+00,1.877594e+00,3,3,2.174979e+00,2.174979e+00
2.017592e+00,1.878484e+00,3,3,1.758766e+00,1.758766e+00
2.016106e+00,1.876242e+00,3,3,2.943737e+00,2.943754e+00
2.016365e+00,1.876537e+00,3,3,2.058447e+00,2.058606e+00
2.019292e+00,1.875556e+00,3,3,1.116998e+00,1.116997e+00
2.016241e+00,1.878507e+00,3,3,1.534627e+00,1.534626e+00
2.015901e+00,1.877010e+00,3,3,2.031759e+00,2.031758e+00
2.020190e+00,1.869627e+00,3,3,2.339417e+00,2.339416e+00
2.024576e+00,1.875870e+00,3,3,1.520014e+00,1.520014e+00
2.016374e+00,1.875460e+00,3,3,1.440235e+00,1.440235e+00
2.015271e+00,1.876314e+00,3,3,1.136514e+00,1.136514e+00
2.015855e+00,1.877594e+00,3,3,8.975725e-01,8.975724e-01
2.020282e+00,1.876882e+00,3,3,1.414593e+00,1.414592e+00
2.018075e+00,1.875785e+00,3,3,1.645089e+00,1.645088e+00
2.020416e+00,1.875184e+00,3,3,8.400458e-01,8.400459e-01
2.020668e+00,1.876814e+00,3,3,7.632115e-01,7.632112e-01
2.017824e+00,1.873777e+00,3,3,1.568246e+00,1.568245e+00
2.018156e+00,1.872077e+00,3,3,1.500802e+00,1.500802e+00
2.017573e+00,1.906163e+00,3,3,8.956793e-01,8.956790e-01
2.015073e+00,1.874862e+00,3,3,2.810753e+00,2.810751e+00
2.018646e+00,1.875602e+00,3,3,1.311141e+00,1.311141e+00
2.015970e+00,1.878151e+00,3,3,1.128062e+00,1.128062e+00
2.017923e+00,1.877359e+00,3,3,2.356626e+00,2.356625e+00
2.017296e+00,1.876064e+00,3,3,2.529829e+00,2.529829e+00

