5.749680e-01,6.756900e-01,4.129410e-01,2,0,0.000000e+00,0.000000e+00
8.454720e-01,1.204460e-01,1.120567e-01,3,0,6.164157e-02,6.164125e-02
8.662800e-01,1.176190e-01,1.101494e-01,3,0,1.175661e-01,1.175656e-01
8.460590e-01,1.180630e-01,1.111031e-01,3,0,2.547797e-01,2.547671e-01
1.146456e+00,1.179870e-01,1.101494e-01,4,0,2.418972e-01,2.418953e-01
1.131014e+00,7.457560e-01,7.381439e-01,4,4,9.723448e-01,9.708141e-01
1.961497e+00,4.157920e-01,4.081726e-01,7,2,1.354185e+00,1.350585e+00
1.955093e+00,5.650990e-01,5.571842e-01,7,3,1.770390e+00,1.764467e+00
1.406388e+00,1.129505e+00,1.121998e+00,5,7,8.544000e-01,8.541892e-01
2.253478e+00,1.186740e-01,1.120567e-01,8,0,7.584941e-01,7.582710e-01
1.126045e+00,1.229610e-01,1.158714e-01,4,0,6.363435e-01,6.342011e-01
1.685403e+00,5.723080e-01,5.650520e-01,6,3,6.716109e-01,6.708158e-01
1.682759e+00,5.773110e-01,5.698204e-01,6,3,1.067540e+00,1.057748e+00
1.679575e+00,2.653640e-01,2.579689e-01,6,1,1.502571e+00,1.494772e+00
1.678779e+00,2.691000e-01,2.620220e-01,6,1,1.283402e+00,1.269346e+00
1.710795e+00,6.980000e-01,6.909370e-01,6,4,1.856843e+00,1.842442e+00
1.123213e+00,1.151722e+00,1.144886e+00,4,7,1.432634e+00,1.429585e+00
1.984950e+00,7.062730e-01,6.990433e-01,7,4,1.227756e+00,1.227064e+00
1.684333e+00,2.708110e-01,2.639294e-01,6,1,1.197334e+00,1.194374e+00
1.125108e+00,4.090540e-01,4.019737e-01,4,2,1.216198e+00,1.215217e+00
1.407414e+00,1.019836e+00,1.012802e+00,5,6,1.271898e+00,1.265509e+00
1.680347e+00,9.838010e-01,9.760857e-01,6,6,1.108786e+00,1.107019e+00
2.245752e+00,2.768250e-01,2.701283e-01,8,1,9.781218e-01,9.771925e-01
1.127180e+00,5.696530e-01,5.619526e-01,4,3,9.218875e-01,9.203637e-01
1.960188e+00,4.171550e-01,4.098415e-01,7,2,9.015302e-01,8.991441e-01
1.683346e+00,4.092580e-01,4.019737e-01,6,2,8.357939e-01,8.315882e-01
1.687136e+00,7.051830e-01,6.980896e-01,6,4,7.411634e-01,7.332687e-01
1.958633e+00,7.022220e-01,6.949902e-01,7,4,5.422575e-01,5.394474e-01
1.123214e+00,6.989100e-01,6.911755e-01,4,4,2.715741e-01,2.712877e-01
3.100124e+00,1.178910e-01,1.101494e-01,11,0,2.039446e-01,2.038774e-01
1.405087e+00,2.762290e-01,2.691746e-01,5,1,3.544988e-01,3.533566e-01
2.809715e+00,7.197500e-01,7.128716e-01,10,4,4.521972e-01,4.512575e-01
1.958700e+00,2.669080e-01,2.598763e-01,7,1,3.742828e-01,3.731890e-01
1.959678e+00,4.057550e-01,3.979206e-01,7,2,6.469609e-01,6.467031e-01
1.951924e+00,2.658280e-01,2.591610e-01,7,1,5.098450e-01,5.089016e-01
1.680684e+00,2.653400e-01,2.579689e-01,6,1,3.733824e-01,3.675451e-01
1.982675e+00,4.147610e-01,4.069805e-01,7,2,3.097518e-01,3.085078e-01
1.964922e+00,1.186770e-01,1.120567e-01,7,0,3.034116e-01,3.026781e-01
1.127768e+00,8.740640e-01,8.671284e-01,4,5,7.275160e-01,7.249645e-01
1.964751e+00,4.023580e-01,3.950596e-01,7,2,7.129858e-01,7.123761e-01
1.958903e+00,5.669000e-01,5.600452e-01,7,3,1.630868e+00,1.626580e+00
1.957759e+00,6.991260e-01,6.921291e-01,7,4,2.382988e+00,2.372965e+00
1.960095e+00,1.112561e+00,1.105785e+00,7,7,1.512320e+00,1.506979e+00
1.688718e+00,1.158986e+00,1.151800e+00,6,7,2.244301e+00,2.230945e+00
1.684618e+00,6.761370e-01,6.690025e-01,6,4,1.836110e+00,1.834811e+00
1.957908e+00,9.999800e-01,9.930134e-01,7,6,1.421469e+00,1.414615e+00
1.960730e+00,4.024410e-01,3.950596e-01,7,2,1.247099e+00,1.245117e+00
1.679013e+00,2.609150e-01,2.539158e-01,6,1,1.026006e+00,1.014692e+00
1.687430e+00,5.533680e-01,5.459785e-01,6,3,7.889678e-01,7.778726e-01
1.959723e+00,2.612530e-01,2.539158e-01,7,1,4.387201e-01,4.355722e-01
2.802956e+00,5.511400e-01,5.440712e-01,10,3,4.136178e-01,4.136130e-01
1.126803e+00,4.285240e-01,4.208088e-01,4,2,6.507179e-01,6.499955e-01
1.682494e+00,2.632050e-01,2.560616e-01,6,1,4.697902e-01,4.694803e-01
2.236679e+00,2.651580e-01,2.579689e-01,8,1,3.866530e-01,3.848755e-01
2.810563e+00,1.192510e-01,1.118183e-01,10,0,5.637331e-01,5.406287e-01
2.807658e+00,1.183390e-01,1.108646e-01,10,0,8.276102e-01,8.167587e-01
1.965175e+00,1.181130e-01,1.108646e-01,7,0,4.762548e-01,4.756132e-01
1.127292e+00,4.299910e-01,4.229546e-01,4,2,6.952238e-01,6.932806e-01
1.960559e+00,2.683950e-01,2.620220e-01,7,1,9.458101e-01,9.445676e-01
1.963668e+00,2.630050e-01,2.548695e-01,7,1,1.432860e+00,1.431490e+00
1.121743e+00,1.165781e+00,1.158953e+00,4,7,5.074225e-01,5.013669e-01
1.958111e+00,1.159990e-01,1.089573e-01,7,0,1.322009e+00,1.320785e+00
1.957096e+00,2.589660e-01,2.510548e-01,7,1,2.714869e+00,2.709290e+00
1.960792e+00,4.131160e-01,4.057884e-01,7,2,1.346557e+00,1.346015e+00
1.964664e+00,4.240160e-01,4.169941e-01,7,2,1.945834e+00,1.944330e+00
1.123655e+00,1.306515e+00,1.300097e+00,4,8,7.269912e-01,7.254318e-01
2.803422e+00,7.028280e-01,6.949902e-01,10,4,8.675926e-01,8.623198e-01
1.406441e+00,1.180580e-01,1.111031e-01,5,0,7.005019e-01,7.003718e-01
1.124676e+00,2.764190e-01,2.691746e-01,4,1,5.279936e-01,5.270703e-01
1.123453e+00,2.648740e-01,2.579689e-01,4,1,4.340470e-01,4.334499e-01
1.409904e+00,1.184850e-01,1.118183e-01,5,0,6.742649e-01,6.740629e-01
1.128018e+00,1.185500e-01,1.111031e-01,4,0,6.914530e-01,6.913625e-01
1.126232e+00,1.180730e-01,1.111031e-01,4,0,7.261367e-01,7.261211e-01
1.126112e+00,5.815890e-01,5.738735e-01,4,3,8.212223e-01,8.205701e-01
1.682927e+00,1.164380e-01,1.089573e-01,6,0,1.166709e+00,1.161566e+00
1.976073e+00,1.170560e-01,1.099110e-01,7,0,1.553792e+00,1.553270e+00
1.959126e+00,4.101420e-01,4.031658e-01,7,2,9.712731e-01,9.712224e-01
1.956095e+00,2.686780e-01,2.620220e-01,7,1,9.283136e-01,9.281111e-01
2.818515e+00,1.181410e-01,1.108646e-01,10,0,7.145120e-01,7.072037e-01
8.466520e-01,1.178620e-01,1.108646e-01,3,0,3.021277e-01,3.018102e-01
1.127434e+00,7.237790e-01,7.169247e-01,4,4,1.148930e+00,1.147761e+00
1.681976e+00,4.093300e-01,4.019737e-01,6,2,8.369185e-01,8.324539e-01
1.958166e+00,1.171060e-01,1.099110e-01,7,0,6.929508e-01,6.927733e-01
1.686301e+00,7.169130e-01,7.100105e-01,6,4,6.028119e-01,5.954958e-01
1.122093e+00,8.516790e-01,8.449554e-01,4,5,9.925119e-01,9.841393e-01
1.956104e+00,2.581180e-01,2.508163e-01,7,1,1.939845e+00,1.933793e+00
1.952167e+00,1.143982e+00,1.137018e+00,7,7,3.012217e+00,3.000761e+00
1.957218e+00,9.737430e-01,9.660721e-01,7,5,4.487898e+00,4.506800e+00
1.957880e+00,1.352830e+00,1.344919e+00,7,7,3.564968e+00,3.564501e+00
2.241689e+00,1.163542e+00,1.155853e+00,8,7,2.436304e+00,2.426657e+00
1.960272e+00,5.422480e-01,5.350113e-01,7,3,1.777455e+00,1.775483e+00
1.957923e+00,1.147220e-01,1.080036e-01,7,0,1.238429e+00,1.235229e+00
1.957716e+00,2.539270e-01,2.470016e-01,7,1,1.782806e+00,1.780152e+00
1.958011e+00,2.569710e-01,2.498627e-01,7,1,1.296280e+00,1.294443e+00
1.956076e+00,1.151040e-01,1.080036e-01,7,0,1.744338e+00,1.741174e+00
1.955440e+00,2.632570e-01,2.570152e-01,7,1,1.978896e+00,1.975137e+00
1.957602e+00,4.031220e-01,3.960133e-01,7,2,7.796133e-01,7.790849e-01
1.682070e+00,5.688350e-01,5.621910e-01,6,3,6.556723e-01,6.484602e-01
1.679363e+00,2.718790e-01,2.648830e-01,6,1,9.749222e-01,9.677717e-01
1.680520e+00,4.119160e-01,4.038811e-01,6,2,1.018271e+00,1.010180e+00
1.121944e+00,7.027260e-01,6.959438e-01,4,4,7.324892e-01,7.305849e-01
2.798723e+00,4.157720e-01,4.088879e-01,10,2,8.838537e-01,8.838367e-01
1.125658e+00,4.210090e-01,4.141331e-01,4,2,4.447646e-01,4.445964e-01
1.679478e+00,5.675750e-01,5.600452e-01,6,3,4.116139e-01,4.071432e-01
1.679609e+00,7.206920e-01,7.138252e-01,6,4,3.359075e-01,3.287689e-01
2.529580e+00,5.495990e-01,5.419254e-01,9,3,4.531715e-01,4.395265e-01
1.125515e+00,4.239010e-01,4.169941e-01,4,2,5.794957e-01,5.776958e-01
1.680672e+00,1.223880e-01,1.149178e-01,6,0,6.041371e-01,5.975577e-01
1.120695e+00,4.132830e-01,4.060268e-01,4,2,3.929195e-01,3.927163e-01
3.096561e+00,1.174490e-01,1.099110e-01,11,0,3.988317e-01,3.986277e-01
1.128523e+00,1.174240e-01,1.099110e-01,4,0,3.820769e-01,3.820722e-01
8.452380e-01,4.276960e-01,4.198551e-01,3,2,3.339527e-01,3.301012e-01
1.959328e+00,4.080950e-01,4.010201e-01,7,2,2.468204e-01,2.423147e-01
2.528818e+00,1.178140e-01,1.111031e-01,9,0,4.110596e-01,4.031873e-01
2.247394e+00,1.176190e-01,1.111031e-01,8,0,2.055815e-01,2.054323e-01
1.128169e+00,4.271640e-01,4.200935e-01,4,2,2.118653e-01,2.099245e-01
1.964806e+00,1.173190e-01,1.099110e-01,7,0,5.701722e-01,5.694361e-01
1.689627e+00,2.621700e-01,2.548695e-01,6,1,3.927132e-01,3.906653e-01
1.965976e+00,2.682980e-01,2.608299e-01,7,1,1.409453e+00,1.408339e+00
2.530580e+00,4.076310e-01,3.998280e-01,9,2,1.044208e+00,1.039502e+00
1.125898e+00,5.751560e-01,5.679131e-01,4,3,1.011139e+00,1.008661e+00
1.683817e+00,2.604520e-01,2.529621e-01,6,1,1.338912e+00,1.335197e+00
1.682842e+00,1.165110e-01,1.099110e-01,6,0,1.189594e+00,1.187679e+00
1.680578e+00,1.169940e-01,1.099110e-01,6,0,1.269929e+00,1.261205e+00
1.964355e+00,1.165840e-01,1.089573e-01,7,0,2.248196e+00,2.247994e+00
1.685722e+00,4.118540e-01,4.050732e-01,6,2,1.494440e+00,1.494340e+00
1.126341e+00,1.179120e-01,1.099110e-01,4,0,1.088643e+00,1.088633e+00
8.485180e-01,1.172680e-01,1.099110e-01,3,0,9.004992e-01,9.004508e-01
1.124315e+00,4.210030e-01,4.141331e-01,4,2,5.022775e-01,5.014222e-01
1.123773e+00,4.106030e-01,4.029274e-01,4,2,5.629391e-01,5.627690e-01
2.823936e+00,1.175900e-01,1.099110e-01,10,0,3.925188e-01,3.854445e-01
8.467730e-01,2.708580e-01,2.629757e-01,3,1,5.078902e-01,5.055648e-01
1.123373e+00,2.704990e-01,2.639294e-01,4,1,2.329841e-01,2.321651e-01
3.089461e+00,1.220050e-01,1.139641e-01,11,0,2.022789e-01,1.984849e-01
3.091251e+00,1.175550e-01,1.101494e-01,11,0,2.142190e-01,2.139689e-01
8.469250e-01,1.172010e-01,1.101494e-01,3,0,4.785177e-01,4.744729e-01
1.969545e+00,1.180450e-01,1.111031e-01,7,0,5.396057e-01,5.386196e-01
1.686192e+00,1.171700e-01,1.099110e-01,6,0,4.485091e-01,4.463237e-01
1.126994e+00,1.172340e-01,1.099110e-01,4,0,4.989322e-01,4.982781e-01
1.690482e+00,2.722820e-01,2.651215e-01,6,1,3.892890e-01,3.887939e-01
1.684718e+00,2.692450e-01,2.620220e-01,6,1,6.252311e-01,6.219762e-01
1.685837e+00,2.680710e-01,2.610683e-01,6,1,1.037601e+00,1.029944e+00
1.682780e+00,5.659230e-01,5.590916e-01,6,3,1.224498e+00,1.220001e+00
1.123973e+00,5.594250e-01,5.531311e-01,4,3,9.982555e-01,9.952104e-01
1.959129e+00,4.027010e-01,3.950596e-01,7,2,8.730931e-01,8.717556e-01
1.958121e+00,4.077350e-01,4.000664e-01,7,2,7.896563e-01,7.891392e-01
1.959774e+00,1.165280e-01,1.089573e-01,7,0,5.872135e-01,5.865891e-01
1.124783e+00,5.541140e-01,5.419254e-01,4,3,5.467502e-01,5.463474e-01
1.126185e+00,5.700940e-01,5.629063e-01,4,3,8.349577e-01,8.338082e-01
1.964693e+00,1.172680e-01,1.099110e-01,7,0,1.127888e+00,1.126478e+00
1.960400e+00,4.394820e-01,4.310608e-01,7,2,6.303236e-01,6.286573e-01
1.685545e+00,4.077910e-01,4.010201e-01,6,2,6.455921e-01,6.421943e-01
2.246391e+00,4.234150e-01,4.160404e-01,8,2,5.091143e-01,5.072299e-01
1.960221e+00,4.198230e-01,4.119873e-01,7,2,4.467085e-01,4.449491e-01
1.962343e+00,5.555790e-01,5.488396e-01,7,3,3.715930e-01,3.658461e-01
2.816149e+00,1.175010e-01,1.108646e-01,10,0,5.064010e-01,4.944041e-01
1.688695e+00,2.717300e-01,2.648830e-01,6,1,9.207885e-01,9.197088e-01
1.683162e+00,2.696260e-01,2.620220e-01,6,1,8.067565e-01,8.031892e-01
1.685000e+00,5.623750e-01,5.548000e-01,6,3,8.904361e-01,8.901094e-01
1.678687e+00,5.658150e-01,5.590916e-01,6,3,1.033213e+00,1.028221e+00
3.085829e+00,5.519860e-01,5.438328e-01,11,3,4.534650e-01,4.428227e-01
1.123916e+00,2.625410e-01,2.551079e-01,4,1,3.617161e-01,3.612093e-01
1.411390e+00,1.172740e-01,1.101494e-01,5,0,3.472033e-01,3.471638e-01
1.127864e+00,1.176380e-01,1.101494e-01,4,0,1.640788e-01,1.640780e-01
8.468840e-01,1.172880e-01,1.099110e-01,3,0,1.749680e-01,1.749626e-01
8.466090e-01,2.711920e-01,2.639294e-01,3,1,2.938930e-01,2.934294e-01
2.243016e+00,2.628160e-01,2.560616e-01,8,1,2.283313e-01,2.256616e-01
1.132066e+00,7.170460e-01,7.100105e-01,4,4,7.635782e-01,7.602412e-01
1.955417e+00,6.942060e-01,6.868839e-01,7,4,6.136033e-01,6.135558e-01
3.091001e+00,1.174040e-01,1.099110e-01,11,0,4.276206e-01,4.275345e-01
1.967456e+00,1.220560e-01,1.149178e-01,7,0,3.758147e-01,3.751971e-01
1.125867e+00,2.707940e-01,2.641678e-01,4,1,3.650570e-01,3.648270e-01
2.242491e+00,2.625980e-01,2.548695e-01,8,1,3.642276e-01,3.588432e-01
3.375134e+00,1.175730e-01,1.108646e-01,12,0,2.692945e-01,2.684800e-01
1.124314e+00,1.179860e-01,1.111031e-01,4,0,2.969558e-01,2.965869e-01
1.684954e+00,1.179550e-01,1.111031e-01,6,0,2.496269e-01,2.490283e-01
1.122881e+00,1.170620e-01,1.101494e-01,4,0,2.068837e-01,2.061877e-01
1.128153e+00,7.247300e-01,7.181168e-01,4,4,5.043803e-01,5.007010e-01
2.803670e+00,6.986310e-01,6.921291e-01,10,4,4.089408e-01,4.089190e-01
1.126150e+00,2.707970e-01,2.629757e-01,4,1,5.864388e-01,5.862235e-01
1.681196e+00,2.734280e-01,2.660751e-01,6,1,8.560314e-01,8.518587e-01
1.686983e+00,8.671130e-01,8.599758e-01,6,5,7.525435e-01,7.500929e-01
1.960403e+00,2.655030e-01,2.579689e-01,7,1,8.514318e-01,8.499953e-01
1.680629e+00,4.033020e-01,3.960133e-01,6,2,5.938745e-01,5.879528e-01
1.957818e+00,2.683220e-01,2.610683e-01,7,1,5.323202e-01,5.299359e-01
1.956995e+00,1.210720e-01,1.142025e-01,7,0,6.371502e-01,6.360096e-01
1.974553e+00,5.579110e-01,5.509853e-01,7,3,1.337434e+00,1.333795e+00
1.964161e+00,4.001200e-01,3.929138e-01,7,2,1.794439e+00,1.790452e+00
1.689696e+00,6.909710e-01,6.840229e-01,6,4,1.553098e+00,1.542241e+00
2.804391e+00,3.999450e-01,3.929138e-01,10,2,1.167262e+00,1.166836e+00
2.236870e+00,5.493770e-01,5.419254e-01,8,3,1.088464e+00,1.087994e+00
1.958754e+00,2.570680e-01,2.501011e-01,7,1,6.813037e-01,6.799844e-01
1.958633e+00,6.981370e-01,6.911755e-01,7,4,7.645020e-01,7.641972e-01
1.683050e+00,2.701200e-01,2.629757e-01,6,1,7.407215e-01,7.406829e-01
1.958965e+00,2.632200e-01,2.560616e-01,7,1,5.500875e-01,5.499568e-01
1.127451e+00,1.174480e-01,1.101494e-01,4,0,4.706827e-01,4.706706e-01
1.131542e+00,1.172310e-01,1.099110e-01,4,0,1.026417e+00,1.026064e+00
1.405636e+00,8.630600e-01,8.561611e-01,5,5,2.182027e+00,2.174906e+00
1.960191e+00,8.457370e-01,8.380413e-01,7,5,2.173898e+00,2.167216e+00
1.956524e+00,2.573070e-01,2.501011e-01,7,1,2.191926e+00,2.183790e+00
1.958140e+00,5.395510e-01,5.331039e-01,7,3,2.642800e+00,2.635062e+00
1.958230e+00,2.553800e-01,2.479553e-01,7,1,3.959437e+00,3.950068e+00
1.959847e+00,8.035920e-01,7.958412e-01,7,5,2.431053e+00,2.424489e+00
1.967054e+00,3.989760e-01,3.919601e-01,7,2,2.941346e+00,2.939108e+00
1.400147e+00,9.550380e-01,9.481907e-01,5,6,2.239500e+00,2.238609e+00
1.961109e+00,4.009380e-01,3.941059e-01,7,2,2.072330e+00,2.069466e+00
1.965353e+00,6.718830e-01,6.649494e-01,7,4,1.305564e+00,1.304580e+00
1.963194e+00,4.165240e-01,4.088879e-01,7,2,1.761628e+00,1.759337e+00
1.960568e+00,5.390690e-01,5.309582e-01,7,3,1.151649e+00,1.150350e+00
1.684960e+00,8.540210e-01,8.471012e-01,6,5,1.486147e+00,1.476501e+00
1.956376e+00,6.966650e-01,6.899834e-01,7,4,4.297491e-01,4.297074e-01
8.452450e-01,1.171610e-01,1.099110e-01,3,0,6.906759e-01,6.905769e-01
1.127355e+00,5.696130e-01,5.619526e-01,4,3,1.463331e+00,1.461531e+00
1.963207e+00,1.164390e-01,1.091957e-01,7,0,9.918385e-01,9.911107e-01
2.034671e+00,2.662120e-01,2.589226e-01,7,1,1.676644e+00,1.675935e+00
1.737052e+00,4.303660e-01,4.220009e-01,6,2,1.540965e+00,1.532792e+00
2.025133e+00,1.184854e+00,1.177073e+00,7,7,2.389363e+00,2.384124e+00
2.021880e+00,9.916880e-01,9.841919e-01,7,6,1.228752e+00,1.225387e+00
2.020009e+00,8.670600e-01,8.590221e-01,7,5,9.814445e-01,9.792203e-01
2.305545e+00,4.117840e-01,4.038811e-01,8,2,7.239516e-01,7.227151e-01
2.115931e+00,4.208730e-01,4.138947e-01,7,2,7.153482e-01,7.143749e-01
2.007134e+00,1.368540e-01,1.289845e-01,7,0,7.545985e-01,7.537970e-01
2.019607e+00,2.733460e-01,2.658367e-01,7,1,1.248839e+00,1.248183e+00
2.008157e+00,4.071760e-01,4.000664e-01,7,2,5.378983e-01,5.377815e-01
3.421278e+00,2.950350e-01,2.870560e-01,12,1,3.957774e-01,3.862670e-01
1.149912e+00,1.185830e-01,1.118183e-01,4,0,5.292417e-01,5.291669e-01
2.873789e+00,1.182250e-01,1.108646e-01,10,0,5.540897e-01,5.514702e-01
1.163945e+00,1.350770e-01,1.280308e-01,4,0,3.951550e-01,3.944537e-01
1.150659e+00,4.231820e-01,4.148483e-01,4,2,5.834756e-01,5.823936e-01
1.735686e+00,1.172670e-01,1.101494e-01,6,0,7.926484e-01,7.877040e-01
1.708314e+00,1.171150e-01,1.099110e-01,6,0,1.131811e+00,1.123623e+00
1.992039e+00,1.314646e+00,1.307011e+00,7,8,2.418798e+00,2.412248e+00
2.018569e+00,2.868670e-01,2.789497e-01,7,1,3.259286e+00,3.252363e+00
1.960906e+00,6.595610e-01,6.520748e-01,7,4,2.179931e+00,2.175509e+00
1.987632e+00,2.909720e-01,2.839565e-01,7,1,2.681667e+00,2.678723e+00
1.454577e+00,6.735040e-01,6.659031e-01,5,4,1.906631e+00,1.905596e+00
1.735456e+00,4.001960e-01,3.931522e-01,6,2,1.436635e+00,1.425997e+00
1.999194e+00,5.505720e-01,5.428791e-01,7,3,1.653971e+00,1.652653e+00
1.957336e+00,2.669110e-01,2.589226e-01,7,1,8.113305e-01,8.094552e-01
1.732906e+00,8.598920e-01,8.530617e-01,6,5,6.580847e-01,6.528105e-01
1.736533e+00,5.587980e-01,5.519390e-01,6,3,4.862565e-01,4.826263e-01
1.738271e+00,5.745480e-01,5.669594e-01,6,3,4.699040e-01,4.618166e-01
2.888709e+00,2.610860e-01,2.539158e-01,10,1,4.642873e-01,4.633788e-01
2.001277e+00,2.729190e-01,2.660751e-01,7,1,7.463366e-01,7.459121e-01
1.147772e+00,5.645290e-01,5.569458e-01,4,3,2.471596e-01,2.470756e-01
1.151969e+00,4.261520e-01,4.179478e-01,4,2,1.012681e+00,1.011696e+00
2.015652e+00,2.672320e-01,2.598763e-01,7,1,2.352724e+00,2.351412e+00
1.984969e+00,4.101410e-01,4.029274e-01,7,2,1.344710e+00,1.344556e+00
2.887816e+00,2.644500e-01,2.570152e-01,10,1,9.516717e-01,9.336021e-01
2.290580e+00,1.179080e-01,1.099110e-01,8,0,7.054603e-01,7.034751e-01
1.710036e+00,4.552410e-01,4.482269e-01,6,2,5.897396e-01,5.861733e-01
2.012098e+00,4.398670e-01,4.320145e-01,7,2,5.786501e-01,5.778918e-01
1.153265e+00,7.247030e-01,7.169247e-01,4,4,1.091952e+00,1.088959e+00
1.985871e+00,4.040380e-01,3.969669e-01,7,2,8.703076e-01,8.698649e-01
3.421929e+00,4.387790e-01,4.320145e-01,12,2,6.743888e-01,6.655101e-01
1.152276e+00,1.179620e-01,1.108646e-01,4,0,7.538769e-01,7.537780e-01
1.153777e+00,7.516770e-01,7.441044e-01,4,4,1.251232e+00,1.245990e+00
1.983790e+00,8.471960e-01,8.399487e-01,7,5,2.034022e+00,2.025187e+00
1.985456e+00,8.191430e-01,8.118153e-01,7,4,3.755911e+00,3.743368e+00
1.985082e+00,7.078980e-01,6.999969e-01,7,3,4.606218e+00,4.603573e+00
2.010638e+00,9.901870e-01,9.829998e-01,7,5,4.054491e+00,4.054070e+00
1.713264e+00,5.901620e-01,5.819798e-01,6,3,4.301408e+00,4.276902e+00
2.009718e+00,7.052250e-01,6.980896e-01,7,4,3.512480e+00,3.502076e+00
1.985972e+00,3.968430e-01,3.900528e-01,7,2,3.508248e+00,3.503659e+00
1.989870e+00,1.146530e-01,1.070499e-01,7,0,3.389837e+00,3.386307e+00
2.017451e+00,9.509340e-01,9.438992e-01,7,6,2.740532e+00,2.738282e+00
2.015289e+00,3.997940e-01,3.931522e-01,7,2,2.276704e+00,2.275412e+00
1.984299e+00,4.070830e-01,4.000664e-01,7,2,1.667469e+00,1.662987e+00
2.009211e+00,1.151510e-01,1.080036e-01,7,0,1.542841e+00,1.539586e+00
1.984296e+00,4.259810e-01,4.191399e-01,7,2,1.608427e+00,1.605178e+00
2.013530e+00,4.012200e-01,3.938675e-01,7,2,2.178728e+00,2.175649e+00
2.011162e+00,1.814687e+00,1.806974e+00,7,10,4.213791e+00,4.207768e+00
1.986018e+00,6.821480e-01,6.749630e-01,7,3,4.450217e+00,4.441709e+00
2.008430e+00,4.831430e-01,4.761219e-01,7,2,4.873262e+00,4.874163e+00
2.008684e+00,5.109320e-01,5.030632e-01,7,2,4.228612e+00,4.221620e+00
2.015619e+00,5.626730e-01,5.559921e-01,7,3,4.166427e+00,4.161945e+00
2.014667e+00,2.870250e-01,2.801418e-01,7,1,4.961680e+00,4.956868e+00
1.989646e+00,5.253280e-01,5.180836e-01,7,3,4.495221e+00,4.491713e+00
1.714051e+00,5.610770e-01,5.528927e-01,6,3,3.728720e+00,3.703704e+00
2.318541e+00,5.292750e-01,5.221367e-01,8,3,2.966035e+00,2.964250e+00
2.009221e+00,1.147510e-01,1.080036e-01,7,0,2.513959e+00,2.510543e+00
2.015165e+00,2.544190e-01,2.470016e-01,7,1,2.078592e+00,2.076425e+00
1.990470e+00,3.982660e-01,3.910065e-01,7,2,1.924668e+00,1.923440e+00
1.986056e+00,2.858260e-01,2.779961e-01,7,1,2.069719e+00,2.068992e+00
2.009725e+00,2.569600e-01,2.501011e-01,7,1,1.050854e+00,1.049016e+00
1.686365e+00,4.017070e-01,3.950596e-01,6,2,9.108597e-01,9.046980e-01
1.734416e+00,1.163530e-01,1.099110e-01,6,0,1.052298e+00,1.046417e+00
1.708973e+00,2.618750e-01,2.539158e-01,6,1,6.866805e-01,6.828949e-01
2.878467e+00,4.079310e-01,4.010201e-01,10,2,6.171541e-01,6.171395e-01
8.720580e-01,4.295570e-01,4.229546e-01,3,2,4.949891e-01,4.928881e-01
1.982127e+00,4.064910e-01,3.998280e-01,7,2,3.783052e-01,3.744418e-01
1.123484e+00,1.183280e-01,1.118183e-01,4,0,3.317497e-01,3.300895e-01
2.863732e+00,1.176070e-01,1.099110e-01,10,0,3.028922e-01,2.875362e-01
3.454069e+00,2.774840e-01,2.698898e-01,12,1,3.706765e-01,3.595566e-01
1.736705e+00,1.186530e-01,1.108646e-01,6,0,4.089148e-01,4.087143e-01
1.148625e+00,2.639290e-01,2.570152e-01,4,1,2.872122e-01,2.864941e-01
3.168645e+00,1.178070e-01,1.111031e-01,11,0,3.261563e-01,3.260408e-01
1.408423e+00,2.706160e-01,2.632141e-01,5,1,9.673400e-01,9.651790e-01
1.427763e+00,5.997640e-01,5.931854e-01,5,3,2.214477e+00,2.197490e+00
1.985419e+00,1.300274e+00,1.292944e+00,7,8,2.902846e+00,2.893994e+00
2.009222e+00,5.280540e-01,5.209446e-01,7,3,2.334187e+00,2.329150e+00
2.009420e+00,1.139520e-01,1.060963e-01,7,0,2.544211e+00,2.539914e+00
2.014727e+00,7.050440e-01,6.980896e-01,7,4,2.394102e+00,2.390232e+00
1.704769e+00,5.670290e-01,5.600452e-01,6,3,2.077009e+00,2.064599e+00
1.122521e+00,8.513160e-01,8.440018e-01,4,5,1.542497e+00,1.532669e+00
1.982936e+00,2.855450e-01,2.779961e-01,7,1,1.497187e+00,1.494733e+00
2.007121e+00,2.560180e-01,2.489090e-01,7,1,2.863711e+00,2.857160e+00
1.997709e+00,1.467542e+00,1.460075e+00,7,7,3.819331e+00,3.812421e+00
1.960957e+00,1.604377e+00,1.596928e+00,7,8,4.500973e+00,4.525564e+00
2.013141e+00,1.555954e+00,1.549006e+00,7,8,3.589191e+00,3.592092e+00
2.013592e+00,5.582350e-01,5.509853e-01,7,3,2.693850e+00,2.689950e+00
1.122642e+00,6.913810e-01,6.840229e-01,4,4,1.899290e+00,1.884986e+00
1.985919e+00,7.083330e-01,7.011890e-01,7,4,1.474170e+00,1.473336e+00
2.007439e+00,1.158420e-01,1.080036e-01,7,0,2.042342e+00,2.040760e+00
2.009454e+00,2.595180e-01,2.520084e-01,7,1,2.060542e+00,2.059162e+00
2.015902e+00,4.090620e-01,4.019737e-01,7,2,1.528894e+00,1.528373e+00
1.685352e+00,1.172430e-01,1.101494e-01,6,0,1.553197e+00,1.550110e+00
1.705878e+00,1.173000e-01,1.101494e-01,6,0,1.813012e+00,1.806336e+00
1.679618e+00,1.467310e-01,1.399517e-01,6,0,1.891769e+00,1.885034e+00
1.736020e+00,7.169180e-01,7.100105e-01,6,4,2.308600e+00,2.297484e+00
1.149205e+00,9.900990e-01,9.820461e-01,4,6,1.824877e+00,1.813594e+00
2.291246e+00,1.175848e+00,1.168966e+00,8,7,2.355919e+00,2.354309e+00
2.009568e+00,9.760560e-01,9.689331e-01,7,5,2.256388e+00,2.253438e+00
1.439608e+00,1.049974e+00,1.032114e+00,5,6,1.871961e+00,1.871629e+00
1.991499e+00,1.197512e+00,1.190186e+00,7,7,1.504373e+00,1.502891e+00
1.703647e+00,4.254950e-01,4.191399e-01,6,2,1.593501e+00,1.592011e+00
2.016564e+00,2.892850e-01,2.820492e-01,7,1,1.578466e+00,1.577602e+00
1.735949e+00,2.619380e-01,2.539158e-01,6,1,1.087694e+00,1.082072e+00
1.736693e+00,2.615180e-01,2.539158e-01,6,1,1.087404e+00,1.085151e+00
1.733673e+00,2.628410e-01,2.551079e-01,6,1,6.757374e-01,6.748937e-01
1.148412e+00,2.655470e-01,2.579689e-01,4,1,5.804591e-01,5.798471e-01
1.430220e+00,4.536510e-01,4.470348e-01,5,2,3.743252e-01,3.735670e-01
1.995461e+00,4.127970e-01,4.050732e-01,7,2,2.804212e-01,2.802991e-01
2.850450e+00,1.312120e-01,1.239777e-01,10,0,2.381472e-01,2.214577e-01
1.151477e+00,1.313980e-01,1.239777e-01,4,0,3.240449e-01,3.238790e-01
8.713930e-01,1.182050e-01,1.108646e-01,3,0,1.640986e-01,1.634438e-01
1.405944e+00,1.177440e-01,1.108646e-01,5,0,1.480443e-01,1.479770e-01
3.143849e+00,1.355820e-01,1.280308e-01,11,0,1.328014e-01,1.146162e-01
3.160151e+00,1.181330e-01,1.099110e-01,11,0,1.292298e-01,1.282347e-01
3.136453e+00,1.185440e-01,1.111031e-01,11,0,1.528240e-01,1.334241e-01
3.446304e+00,1.188390e-01,1.118183e-01,12,0,2.759935e-01,2.756524e-01
1.179402e+00,5.714410e-01,5.640984e-01,4,3,1.762641e-01,1.745950e-01
3.446023e+00,5.509890e-01,5.440712e-01,12,3,2.653656e-01,2.561683e-01
8.724930e-01,2.721180e-01,2.651215e-01,3,1,4.604766e-01,4.584763e-01
1.456311e+00,2.631420e-01,2.560616e-01,5,1,2.692358e-01,2.691925e-01
8.465700e-01,1.184670e-01,1.111031e-01,3,0,3.534884e-01,3.534183e-01
1.152133e+00,1.176260e-01,1.111031e-01,4,0,3.647120e-01,3.647120e-01
8.706150e-01,2.701320e-01,2.629757e-01,3,1,5.211700e-01,5.182674e-01
1.982809e+00,2.641520e-01,2.570152e-01,7,1,3.980993e-01,3.980046e-01
1.180582e+00,1.179890e-01,1.099110e-01,4,0,2.568238e-01,2.562319e-01
3.425108e+00,1.178360e-01,1.108646e-01,12,0,1.843619e-01,1.732711e-01
1.165377e+00,1.182270e-01,1.118183e-01,4,0,2.686720e-01,2.682523e-01
3.415116e+00,1.313280e-01,1.239777e-01,12,0,2.313367e-01,2.313342e-01
8.722850e-01,1.184520e-01,1.108646e-01,3,0,1.846664e-01,1.846620e-01
8.463230e-01,1.181880e-01,1.111031e-01,3,0,3.613244e-01,3.611704e-01
1.734952e+00,1.175230e-01,1.101494e-01,6,0,2.495810e-01,2.495598e-01
1.151323e+00,1.178220e-01,1.099110e-01,4,0,4.097264e-01,4.097257e-01
8.755490e-01,1.186490e-01,1.111031e-01,3,0,8.049299e-01,8.049286e-01
1.151229e+00,4.542980e-01,4.470348e-01,4,2,6.403979e-01,6.399298e-01
1.733144e+00,1.177900e-01,1.101494e-01,6,0,5.494269e-01,5.475719e-01
1.735964e+00,2.679070e-01,2.608299e-01,6,1,1.211299e+00,1.204674e+00
1.733524e+00,1.181290e-01,1.108646e-01,6,0,1.511761e+00,1.500327e+00
1.735038e+00,2.625530e-01,2.560616e-01,6,1,7.399330e-01,7.341919e-01
1.986108e+00,4.068050e-01,3.991127e-01,7,2,5.185661e-01,5.184654e-01
1.431296e+00,4.516060e-01,4.441738e-01,5,2,4.434297e-01,4.427418e-01
1.984115e+00,4.068110e-01,4.000664e-01,7,2,2.469253e-01,2.463546e-01
2.292111e+00,4.526170e-01,4.451275e-01,8,2,1.993073e-01,1.978757e-01
1.996156e+00,2.732630e-01,2.658367e-01,7,1,3.468088e-01,3.459184e-01
1.730893e+00,2.728230e-01,2.660751e-01,6,1,3.251976e-01,3.206249e-01
1.148069e+00,4.073100e-01,3.988743e-01,4,2,2.495844e-01,2.490671e-01
1.149303e+00,4.538800e-01,4.467964e-01,4,2,5.807304e-01,5.801977e-01
2.882362e+00,4.099080e-01,4.031658e-01,10,2,3.780786e-01,3.780058e-01
3.147131e+00,1.178080e-01,1.101494e-01,11,0,3.478033e-01,3.293417e-01
1.710974e+00,1.349430e-01,1.280308e-01,6,0,3.408814e-01,3.401990e-01
1.733132e+00,1.179240e-01,1.108646e-01,6,0,2.550495e-01,2.549263e-01
1.179854e+00,2.719470e-01,2.641678e-01,4,1,2.885876e-01,2.872855e-01
2.265835e+00,2.629290e-01,2.560616e-01,8,1,4.253362e-01,4.219244e-01
1.149461e+00,4.537480e-01,4.460812e-01,4,2,3.052934e-01,3.038694e-01
1.122484e+00,4.061170e-01,3.979206e-01,4,2,3.769147e-01,3.768488e-01
8.697660e-01,1.179550e-01,1.108646e-01,3,0,4.833059e-01,4.832333e-01
1.164828e+00,1.181620e-01,1.108646e-01,4,0,5.821197e-01,5.821192e-01
8.467520e-01,4.224050e-01,4.148483e-01,3,2,8.330171e-01,8.304300e-01
1.735749e+00,2.631170e-01,2.551079e-01,6,1,4.870891e-01,4.825405e-01
1.402067e+00,8.943880e-01,8.871555e-01,5,5,4.220377e-01,4.212696e-01
1.702275e+00,2.905310e-01,2.830029e-01,6,1,4.395155e-01,4.323750e-01
1.708126e+00,1.170800e-01,1.099110e-01,6,0,4.811076e-01,4.734160e-01
1.729257e+00,2.624840e-01,2.551079e-01,6,1,3.300730e-01,3.267065e-01
2.885537e+00,5.952240e-01,5.879402e-01,10,3,7.737498e-01,7.713729e-01
1.734781e+00,5.570650e-01,5.488396e-01,6,3,5.255148e-01,5.242190e-01
1.731815e+00,2.612970e-01,2.539158e-01,6,1,5.061151e-01,5.018254e-01
1.704796e+00,5.819240e-01,5.741119e-01,6,3,5.132103e-01,5.126433e-01
2.010460e+00,6.008760e-01,5.929470e-01,7,3,4.561524e-01,4.557112e-01
1.733042e+00,2.606650e-01,2.529621e-01,6,1,3.311651e-01,3.281609e-01
2.017307e+00,2.712890e-01,2.641678e-01,7,1,4.633469e-01,4.632328e-01
2.017733e+00,2.828510e-01,2.760887e-01,7,1,5.251602e-01,5.248687e-01
1.737624e+00,4.180990e-01,4.100800e-01,6,2,4.343383e-01,4.342269e-01
8.653440e-01,4.326280e-01,4.248619e-01,3,2,5.707255e-01,5.678396e-01
2.012079e+00,7.416020e-01,7.340908e-01,7,4,3.822923e-01,3.807844e-01
1.144221e+00,7.337140e-01,7.262230e-01,4,4,3.804821e-01,3.753470e-01
2.019779e+00,2.594130e-01,2.520084e-01,7,1,3.102441e-01,3.097308e-01
1.148920e+00,5.774180e-01,5.700588e-01,4,3,2.283862e-01,2.281253e-01
1.153049e+00,1.184870e-01,1.108646e-01,4,0,1.815436e-01,1.799236e-01
1.149879e+00,4.275680e-01,4.200935e-01,4,2,3.627676e-01,3.616338e-01
1.147958e+00,2.618800e-01,2.548695e-01,4,1,2.475535e-01,2.442111e-01
2.864896e+00,5.975020e-01,5.900860e-01,10,3,2.878731e-01,2.859431e-01
1.735163e+00,5.608410e-01,5.540848e-01,6,3,2.770540e-01,2.711186e-01
2.304948e+00,5.709280e-01,5.629063e-01,8,3,2.829634e-01,2.792068e-01
3.177741e+00,1.212320e-01,1.139641e-01,11,0,3.549139e-01,3.548700e-01
1.447917e+00,1.219460e-01,1.139641e-01,5,0,2.830852e-01,2.830125e-01
1.148540e+00,7.569520e-01,7.500648e-01,4,4,9.844931e-01,9.837759e-01
1.731349e+00,8.739810e-01,8.659363e-01,6,5,2.369740e+00,2.360315e+00
2.027173e+00,8.322390e-01,8.251667e-01,7,5,1.755251e+00,1.750812e+00
2.000912e+00,9.998310e-01,9.920597e-01,7,6,1.286991e+00,1.285439e+00
1.123471e+00,4.385600e-01,4.308224e-01,4,2,9.840525e-01,9.830448e-01
1.449078e+00,1.175830e-01,1.101494e-01,5,0,1.083221e+00,1.083127e+00
1.152133e+00,1.309050e-01,1.239777e-01,4,0,8.417989e-01,8.410515e-01
1.712235e+00,5.981480e-01,5.898476e-01,6,3,7.580620e-01,7.573207e-01
1.706259e+00,4.472460e-01,4.398823e-01,6,2,8.008680e-01,7.942422e-01
1.732742e+00,6.087620e-01,6.010532e-01,6,3,8.501524e-01,8.354494e-01
1.735939e+00,4.148330e-01,4.069805e-01,6,2,7.241299e-01,7.101304e-01
1.156373e+00,7.203560e-01,7.128716e-01,4,4,8.586513e-01,8.513132e-01
2.015956e+00,2.641120e-01,2.570152e-01,7,1,1.307288e+00,1.305029e+00
2.020988e+00,2.650210e-01,2.570152e-01,7,1,9.438161e-01,9.425912e-01
2.018785e+00,2.736670e-01,2.660751e-01,7,1,5.538689e-01,5.532033e-01
2.015759e+00,2.686510e-01,2.608299e-01,7,1,2.988799e-01,2.985845e-01
1.728857e+00,4.185780e-01,4.110336e-01,6,2,2.409960e-01,2.408949e-01
8.683430e-01,1.207660e-01,1.130104e-01,3,0,2.244104e-01,2.242184e-01
1.451415e+00,1.209170e-01,1.139641e-01,5,0,3.643800e-01,3.632433e-01
3.473550e+00,1.217970e-01,1.139641e-01,12,0,2.572086e-01,2.569125e-01
8.655930e-01,1.258910e-01,1.177788e-01,3,0,3.536970e-01,3.533910e-01
1.159505e+00,1.252290e-01,1.180172e-01,4,0,3.795622e-01,3.793872e-01
1.744211e+00,1.215700e-01,1.142025e-01,6,0,3.773670e-01,3.768473e-01
1.448509e+00,1.206940e-01,1.130104e-01,5,0,5.678320e-01,5.676398e-01
3.482547e+00,1.204460e-01,1.130104e-01,12,0,3.118310e-01,3.105711e-01
2.901087e+00,1.215980e-01,1.139641e-01,10,0,2.669899e-01,2.592176e-01
1.161453e+00,5.917900e-01,5.848408e-01,4,3,1.024719e+00,1.023070e+00
2.015233e+00,5.648510e-01,5.569458e-01,7,3,1.177501e+00,1.177378e+00
3.486302e+00,1.209020e-01,1.130104e-01,12,0,5.400385e-01,5.259972e-01
1.166880e+00,2.776380e-01,2.698898e-01,4,1,5.759532e-01,5.752608e-01
1.729788e+00,2.767630e-01,2.691746e-01,6,1,5.064950e-01,5.063847e-01
1.157283e+00,1.258730e-01,1.180172e-01,4,0,5.425094e-01,5.424948e-01
1.159885e+00,1.217130e-01,1.139641e-01,4,0,2.432906e-01,2.432903e-01
8.710220e-01,1.214210e-01,1.139641e-01,3,0,1.908953e-01,1.908943e-01
8.650770e-01,4.388020e-01,4.308224e-01,3,2,3.600458e-01,3.574556e-01
1.729608e+00,2.757120e-01,2.679825e-01,6,1,4.628539e-01,4.617529e-01
1.726141e+00,1.260180e-01,1.177788e-01,6,0,5.677825e-01,5.638911e-01
3.470091e+00,2.781830e-01,2.701283e-01,12,1,3.583118e-01,3.563161e-01
1.160391e+00,5.926020e-01,5.850792e-01,4,3,2.901159e-01,2.880475e-01
2.016190e+00,2.740360e-01,2.670288e-01,7,1,4.523299e-01,4.513247e-01
2.019150e+00,2.678080e-01,2.601147e-01,7,1,6.879849e-01,6.872864e-01
2.024328e+00,2.701110e-01,2.620220e-01,7,1,7.835669e-01,7.833208e-01
1.734807e+00,1.205620e-01,1.130104e-01,6,0,1.189210e+00,1.186684e+00
1.741232e+00,2.693780e-01,2.620220e-01,6,1,1.134055e+00,1.128516e+00
2.017304e+00,1.217660e-01,1.139641e-01,7,0,1.842889e+00,1.841961e+00
1.156270e+00,2.720730e-01,2.639294e-01,4,1,7.307555e-01,7.292998e-01
2.023159e+00,2.829260e-01,2.748966e-01,7,1,6.295365e-01,6.283960e-01
2.029114e+00,7.350750e-01,7.281303e-01,7,4,1.026797e+00,1.025105e+00
2.017305e+00,7.069930e-01,6.999969e-01,7,4,4.818499e-01,4.815502e-01
1.729057e+00,2.777340e-01,2.701283e-01,6,1,4.450851e-01,4.448833e-01
2.024094e+00,1.211930e-01,1.139641e-01,7,0,3.422499e-01,3.402716e-01
2.305686e+00,4.405020e-01,4.341602e-01,8,2,2.004918e-01,1.997049e-01
2.015015e+00,1.204840e-01,1.130104e-01,7,0,4.630624e-01,4.627529e-01
2.597015e+00,4.269880e-01,4.200935e-01,9,2,3.893428e-01,3.880980e-01
3.183752e+00,1.272410e-01,1.199245e-01,11,0,2.323042e-01,2.305556e-01
1.162620e+00,5.866280e-01,5.791187e-01,4,3,5.849866e-01,5.809771e-01
2.014103e+00,2.682390e-01,2.610683e-01,7,1,3.509447e-01,3.504253e-01
3.468494e+00,4.216750e-01,4.141331e-01,12,2,1.917027e-01,1.804278e-01
1.447578e+00,1.212600e-01,1.142025e-01,5,0,2.137655e-01,2.137647e-01
8.668370e-01,1.208480e-01,1.139641e-01,3,0,2.729368e-01,2.729343e-01
8.663620e-01,1.259500e-01,1.189709e-01,3,0,4.270454e-01,4.269615e-01
1.158633e+00,2.845030e-01,2.768040e-01,4,1,8.150939e-01,8.144073e-01
1.156216e+00,7.416900e-01,7.338524e-01,4,4,6.847310e-01,6.820741e-01
2.017862e+00,2.716290e-01,2.639294e-01,7,1,1.176315e+00,1.174243e+00
2.018294e+00,4.191810e-01,4.119873e-01,7,2,4.894080e-01,4.892985e-01
1.733937e+00,4.201080e-01,4.119873e-01,6,2,3.617424e-01,3.615828e-01
1.160038e+00,2.784340e-01,2.710819e-01,4,1,2.049545e-01,2.042367e-01
2.015045e+00,4.299880e-01,4.229546e-01,7,2,2.141257e-01,2.138382e-01
2.015061e+00,5.838590e-01,5.760193e-01,7,3,5.705308e-01,5.677316e-01
1.727543e+00,2.739510e-01,2.667904e-01,6,1,6.409047e-01,6.323845e-01
2.025980e+00,1.199510e-01,1.120567e-01,7,0,8.956348e-01,8.950385e-01
1.733853e+00,2.685770e-01,2.610683e-01,6,1,8.980427e-01,8.905851e-01
1.728979e+00,1.207050e-01,1.139641e-01,6,0,1.052535e+00,1.047219e+00
2.022343e+00,8.855760e-01,8.780956e-01,7,5,1.722532e+00,1.718999e+00
2.022952e+00,2.727860e-01,2.651215e-01,7,1,1.955112e+00,1.952806e+00
2.020935e+00,5.538900e-01,5.471706e-01,7,3,1.385258e+00,1.383153e+00
2.020506e+00,4.166310e-01,4.088879e-01,7,2,1.192199e+00,1.189676e+00
1.736087e+00,7.027430e-01,6.949902e-01,6,4,1.755807e+00,1.748890e+00
1.734463e+00,1.008434e+00,1.001120e+00,6,6,1.086991e+00,1.073899e+00
1.732717e+00,2.616710e-01,2.541542e-01,6,1,8.631190e-01,8.496176e-01
1.735921e+00,4.151380e-01,4.079342e-01,6,2,9.026575e-01,8.951529e-01
1.729999e+00,4.163560e-01,4.088879e-01,6,2,1.038199e+00,1.034269e+00
2.307164e+00,7.164450e-01,7.090569e-01,8,4,1.258442e+00,1.256289e+00
1.157220e+00,8.958880e-01,8.878708e-01,4,5,7.566939e-01,7.524677e-01
2.018612e+00,2.696570e-01,2.620220e-01,7,1,7.448531e-01,7.445462e-01
2.022107e+00,2.678660e-01,2.601147e-01,7,1,1.017237e+00,1.016688e+00
1.733256e+00,2.699170e-01,2.620220e-01,6,1,1.178478e+00,1.173758e+00
1.728763e+00,2.693750e-01,2.620220e-01,6,1,7.221069e-01,7.214043e-01
2.886363e+00,2.709040e-01,2.639294e-01,10,1,7.010087e-01,7.009420e-01
1.158680e+00,4.409120e-01,4.341602e-01,4,2,3.800462e-01,3.795195e-01
2.308850e+00,4.203350e-01,4.129410e-01,8,2,3.707722e-01,3.684149e-01

