6.473330e-01,5.769160e-01,2,2,0.000000e+00,0.000000e+00
9.349530e-01,8.621260e-01,3,3,5.737493e-02,5.737474e-02
9.352480e-01,8.606320e-01,3,3,7.713409e-02,7.713328e-02
1.244597e+00,8.610120e-01,4,3,1.672352e-01,1.682000e-01
2.504791e+00,1.433094e+00,8,5,1.297263e-01,1.294920e-01
9.487690e-01,8.623240e-01,3,3,3.471960e-01,3.457759e-01
2.164953e+00,2.003480e+00,7,7,4.431320e-01,4.435618e-01
2.167941e+00,1.996476e+00,7,7,5.547547e-01,5.551229e-01
3.431291e+00,2.574142e+00,11,9,2.799205e-01,2.799113e-01
2.183834e+00,1.145073e+00,7,4,3.088413e-01,3.085969e-01
1.558543e+00,1.429076e+00,5,5,2.200582e-01,2.192761e-01
1.557527e+00,1.144019e+00,5,4,2.163806e-01,2.166537e-01
2.167470e+00,1.996161e+00,7,7,3.471410e-01,3.475199e-01
2.161980e+00,2.284551e+00,7,8,5.298650e-01,5.333143e-01
2.473046e+00,2.279942e+00,8,8,4.158074e-01,4.156398e-01
1.245354e+00,1.142954e+00,4,4,6.266664e-01,6.263577e-01
1.870312e+00,1.999925e+00,6,7,5.419134e-01,5.404409e-01
1.238925e+00,1.426658e+00,4,5,4.534858e-01,4.502167e-01
1.863395e+00,1.430220e+00,6,5,4.742611e-01,4.748994e-01
1.240752e+00,2.281436e+00,4,8,5.567996e-01,5.554114e-01
2.163873e+00,1.994875e+00,7,7,5.713705e-01,5.706612e-01
1.861567e+00,1.430585e+00,6,5,5.003127e-01,5.021088e-01
1.246038e+00,1.145544e+00,4,4,4.085289e-01,4.091015e-01
1.555671e+00,1.145454e+00,5,4,5.117739e-01,5.141507e-01
2.163611e+00,1.997043e+00,7,7,5.308164e-01,5.309051e-01
1.863292e+00,1.997105e+00,6,7,5.102062e-01,5.081743e-01
3.412248e+00,2.852701e+00,11,10,4.066953e-01,4.172017e-01
2.166974e+00,2.849821e+00,7,10,3.058074e-01,3.072662e-01
3.096643e+00,2.852495e+00,10,10,2.410290e-01,2.409857e-01
2.481912e+00,1.143239e+00,8,4,1.792918e-01,1.788380e-01
9.339920e-01,8.554690e-01,3,3,3.064416e-01,3.075887e-01
3.099310e+00,2.846429e+00,10,10,3.365289e-01,3.365450e-01
3.745494e+00,3.146795e+00,12,11,2.707143e-01,2.667149e-01
1.860027e+00,1.716537e+00,6,6,3.165992e-01,3.173843e-01
2.163452e+00,1.994015e+00,7,7,1.681918e-01,1.681959e-01
2.161994e+00,1.996144e+00,7,7,1.141365e-01,1.141385e-01
2.478150e+00,2.279049e+00,8,8,2.185850e-01,2.176313e-01
2.165922e+00,1.996035e+00,7,7,2.388934e-01,2.388793e-01
1.241883e+00,1.147926e+00,4,4,3.840541e-01,3.835544e-01
2.164481e+00,1.996668e+00,7,7,3.232648e-01,3.234441e-01
2.164812e+00,1.997062e+00,7,7,5.459700e-01,5.464380e-01
2.166282e+00,1.996070e+00,7,7,6.442485e-01,6.460107e-01
1.862344e+00,1.996291e+00,6,7,4.335105e-01,4.322369e-01
2.165271e+00,1.994769e+00,7,7,5.756527e-01,5.757903e-01
1.860965e+00,1.425670e+00,6,5,4.938082e-01,4.942187e-01
1.247566e+00,1.144034e+00,4,4,4.307304e-01,4.304403e-01
2.163816e+00,1.996092e+00,7,7,3.841139e-01,3.841538e-01
1.554597e+00,1.428176e+00,5,5,3.330077e-01,3.330022e-01
1.243092e+00,1.143974e+00,4,4,2.229824e-01,2.229475e-01
1.247812e+00,8.553580e-01,4,3,6.849945e-02,6.871905e-02
9.324730e-01,2.857038e+00,3,10,1.600098e-01,1.776301e-01
1.244066e+00,2.847966e+00,4,10,2.997925e-01,2.977145e-01
2.166284e+00,1.993388e+00,7,7,2.612119e-01,2.611045e-01
2.173440e+00,1.428050e+00,7,5,2.128877e-01,2.131278e-01
3.098796e+00,1.144423e+00,10,4,1.979364e-01,2.007479e-01
2.173397e+00,1.995211e+00,7,7,2.653136e-01,2.666849e-01
1.853194e+00,1.996811e+00,6,7,1.324386e-01,1.321308e-01
2.168016e+00,1.995347e+00,7,7,1.497035e-01,1.497462e-01
1.545421e+00,1.429655e+00,5,5,2.271452e-01,2.268289e-01
2.162216e+00,1.996311e+00,7,7,3.159123e-01,3.160580e-01
1.241840e+00,1.146058e+00,4,4,2.182067e-01,2.197959e-01
2.165497e+00,1.997279e+00,7,7,6.235645e-01,6.239008e-01
2.164299e+00,1.996244e+00,7,7,1.268572e+00,1.267903e+00
2.172764e+00,1.998010e+00,7,7,6.277765e-01,6.281375e-01
2.164500e+00,1.996412e+00,7,7,7.146818e-01,7.148333e-01
1.547785e+00,1.434884e+00,5,5,3.563405e-01,3.571904e-01
1.862980e+00,1.996534e+00,6,7,3.283142e-01,3.251131e-01
3.410179e+00,2.851829e+00,11,10,1.942738e-01,2.091264e-01
1.556498e+00,1.430662e+00,5,5,2.068945e-01,2.066377e-01
3.097009e+00,2.851556e+00,10,10,1.097240e-01,1.097354e-01
9.337440e-01,1.143891e+00,3,4,2.469395e-01,2.474005e-01
9.333790e-01,2.567323e+00,3,9,3.097159e-01,3.219981e-01
1.253259e+00,1.146449e+00,4,4,3.587313e-01,3.590929e-01
9.342530e-01,1.145892e+00,3,4,4.158126e-01,4.145208e-01
2.165088e+00,1.996195e+00,7,7,5.429106e-01,5.438592e-01
2.164328e+00,2.001469e+00,7,7,5.833962e-01,5.841451e-01
1.241903e+00,1.426511e+00,4,5,4.433233e-01,4.415532e-01
2.173783e+00,1.145354e+00,7,4,3.704991e-01,3.694041e-01
1.554868e+00,2.853606e+00,5,10,3.610844e-01,3.663321e-01
1.856839e+00,1.995943e+00,6,7,1.542869e-01,1.533311e-01
2.162566e+00,8.606910e-01,7,3,5.925152e-01,5.934038e-01
1.860111e+00,2.848848e+00,6,10,4.515226e-01,4.490022e-01
2.171034e+00,1.994484e+00,7,7,3.026628e-01,3.028235e-01
1.553827e+00,1.434925e+00,5,5,4.542055e-01,4.531370e-01
1.242765e+00,1.145682e+00,4,4,6.291894e-01,6.276822e-01
2.163156e+00,1.997067e+00,7,7,1.023501e+00,1.021384e+00
2.164938e+00,1.996154e+00,7,7,1.551880e+00,1.552686e+00
2.163822e+00,1.996407e+00,7,7,2.173560e+00,2.174568e+00
2.169913e+00,1.997275e+00,7,7,1.713019e+00,1.713770e+00
2.165237e+00,1.997664e+00,7,7,1.136006e+00,1.135959e+00
2.166639e+00,1.998040e+00,7,7,7.133485e-01,7.128307e-01
2.167736e+00,1.995905e+00,7,7,3.996726e-01,4.004853e-01
1.862409e+00,1.997537e+00,6,7,6.741340e-01,6.723509e-01
2.163996e+00,1.996433e+00,7,7,4.482886e-01,4.512073e-01
2.163680e+00,1.997684e+00,7,7,5.649969e-01,5.656042e-01
2.162917e+00,1.997786e+00,7,7,6.490790e-01,6.509423e-01
3.425762e+00,3.139347e+00,11,11,3.617362e-01,3.604095e-01
1.862604e+00,1.996165e+00,6,7,2.221835e-01,2.216022e-01
1.858698e+00,1.997047e+00,6,7,3.695441e-01,3.641883e-01
3.095758e+00,2.852880e+00,10,10,3.299485e-01,3.297051e-01
1.860679e+00,1.709527e+00,6,6,2.421277e-01,2.420811e-01
1.859235e+00,1.997247e+00,6,7,2.696756e-01,2.664510e-01
3.107121e+00,2.567819e+00,10,9,1.426055e-01,1.497365e-01
1.867961e+00,1.144500e+00,6,4,1.023563e-01,1.022909e-01
1.242400e+00,2.859339e+00,4,10,9.681854e-02,1.170358e-01
1.240959e+00,2.281084e+00,4,8,2.545105e-01,2.577894e-01
1.240176e+00,3.420438e+00,4,12,3.310663e-01,3.435951e-01
1.863972e+00,1.997395e+00,6,7,2.875685e-01,2.852497e-01
3.417675e+00,2.849107e+00,11,10,1.901592e-01,1.939014e-01
1.558943e+00,2.565069e+00,5,9,1.689931e-01,1.855187e-01
3.414391e+00,1.996671e+00,11,7,1.804218e-01,1.804686e-01
1.546102e+00,1.148160e+00,5,4,2.442586e-01,2.440602e-01
3.094119e+00,1.143057e+00,10,4,1.756804e-01,1.731942e-01
1.548045e+00,8.591640e-01,5,3,2.539155e-01,2.543043e-01
3.407857e+00,3.419987e+00,11,12,1.128788e-01,1.087013e-01
1.859842e+00,1.144056e+00,6,4,9.569289e-02,9.556928e-02
2.168155e+00,1.994970e+00,7,7,2.485970e-01,2.503338e-01
1.856428e+00,1.996656e+00,6,7,1.400856e-01,1.388362e-01
2.163586e+00,1.143647e+00,7,4,4.466043e-01,4.455921e-01
1.243396e+00,1.426875e+00,4,5,3.946695e-01,3.947374e-01
3.099095e+00,2.852649e+00,10,10,5.794993e-01,5.794415e-01
2.172167e+00,1.995155e+00,7,7,8.423069e-01,8.436212e-01
1.858613e+00,1.996463e+00,6,7,7.328405e-01,7.231538e-01
2.477174e+00,1.428150e+00,8,5,6.540523e-01,6.510082e-01
2.164746e+00,1.996062e+00,7,7,9.159077e-01,9.159807e-01
2.166069e+00,1.995844e+00,7,7,6.940349e-01,6.945245e-01
2.167181e+00,1.995028e+00,7,7,4.626355e-01,4.622304e-01
1.550254e+00,1.432190e+00,5,5,3.215240e-01,3.255338e-01
1.554857e+00,1.434128e+00,5,5,2.337522e-01,2.329762e-01
3.105632e+00,2.850301e+00,10,10,2.076032e-01,2.074942e-01
1.553528e+00,1.429019e+00,5,5,2.269863e-01,2.262387e-01
1.243215e+00,8.613520e-01,4,3,2.681206e-01,2.685477e-01
1.239197e+00,1.995293e+00,4,7,1.714926e-01,1.708829e-01
3.720768e+00,1.144191e+00,12,4,1.590959e-01,1.521565e-01
1.244921e+00,2.286910e+00,4,8,1.175146e-01,1.177497e-01
9.323420e-01,1.143822e+00,3,4,3.009985e-01,3.011786e-01
1.550698e+00,1.426327e+00,5,5,3.626721e-01,3.625152e-01
1.246057e+00,8.549660e-01,4,3,2.834089e-01,2.841763e-01
3.429170e+00,2.855514e+00,11,10,3.298158e-01,3.422509e-01
2.477853e+00,2.283443e+00,8,8,2.696091e-01,2.523381e-01
1.858604e+00,1.431120e+00,6,5,3.580005e-01,3.517675e-01
2.163221e+00,1.996244e+00,7,7,5.145085e-01,5.144077e-01
1.862991e+00,1.994114e+00,6,7,7.476942e-01,7.470570e-01
3.100857e+00,2.284788e+00,10,8,7.477475e-01,7.410180e-01
2.164641e+00,1.993911e+00,7,7,6.306868e-01,6.304471e-01
2.167912e+00,1.996597e+00,7,7,5.554365e-01,5.555936e-01
1.855462e+00,1.995537e+00,6,7,4.596609e-01,4.560298e-01
1.243882e+00,1.427976e+00,4,5,5.188736e-01,5.175770e-01
2.163379e+00,1.995348e+00,7,7,5.296789e-01,5.302098e-01
2.163130e+00,1.996538e+00,7,7,5.593850e-01,5.601685e-01
3.104006e+00,2.846610e+00,10,10,3.645690e-01,3.638970e-01
1.553923e+00,1.427866e+00,5,5,3.466408e-01,3.467663e-01
1.552420e+00,2.852196e+00,5,10,2.758302e-01,2.817761e-01
1.859101e+00,1.997473e+00,6,7,2.413937e-01,2.429230e-01
2.787908e+00,1.715613e+00,9,6,1.852933e-01,1.691784e-01
1.244667e+00,1.148443e+00,4,4,2.557966e-01,2.550928e-01
2.163545e+00,1.995228e+00,7,7,5.348779e-01,5.346521e-01
2.168091e+00,1.995571e+00,7,7,4.404449e-01,4.405962e-01
1.243014e+00,1.143053e+00,4,4,4.771535e-01,4.763730e-01
1.867663e+00,1.715685e+00,6,6,5.125120e-01,5.131646e-01
2.161709e+00,1.996568e+00,7,7,2.359879e-01,2.354224e-01
1.558307e+00,1.429194e+00,5,5,1.762050e-01,1.757920e-01
1.557717e+00,1.431123e+00,5,5,1.229145e-01,1.213382e-01
3.725156e+00,2.850953e+00,12,10,8.449439e-02,8.884427e-02
1.865418e+00,1.428616e+00,6,5,8.636724e-02,8.637600e-02
9.332980e-01,8.600180e-01,3,3,1.648777e-01,1.648677e-01
1.241893e+00,1.143386e+00,4,4,1.235221e-01,1.234852e-01
1.245024e+00,8.605610e-01,4,3,4.499976e-01,4.554426e-01
3.111491e+00,2.854164e+00,10,10,5.216452e-01,5.254066e-01
1.557189e+00,1.143852e+00,5,4,3.107967e-01,3.107574e-01
1.860629e+00,1.425156e+00,6,5,3.002745e-01,3.008071e-01
1.242539e+00,2.286668e+00,4,8,2.656686e-01,2.654253e-01
1.858032e+00,1.426329e+00,6,5,2.133355e-01,2.163771e-01
1.557474e+00,1.426883e+00,5,5,2.015259e-01,2.024807e-01
1.241824e+00,1.143153e+00,4,4,2.473948e-01,2.481923e-01
1.858015e+00,1.997762e+00,6,7,2.097334e-01,2.088513e-01
3.094890e+00,8.597540e-01,10,3,1.663839e-01,1.666308e-01
9.335760e-01,1.145047e+00,3,4,3.119959e-01,3.096361e-01
3.096557e+00,1.431822e+00,10,5,4.368679e-01,4.256952e-01
1.861349e+00,1.143506e+00,6,4,5.699531e-01,5.710861e-01
1.549443e+00,2.851848e+00,5,10,7.210469e-01,7.205582e-01
1.244806e+00,2.566605e+00,4,9,6.676238e-01,6.656238e-01
2.171426e+00,1.995772e+00,7,7,6.749179e-01,6.756168e-01
3.099131e+00,2.849068e+00,10,10,5.065519e-01,5.075783e-01
2.162039e+00,1.994073e+00,7,7,3.588011e-01,3.611582e-01
2.167251e+00,1.995952e+00,7,7,4.235803e-01,4.235905e-01
2.166489e+00,1.995423e+00,7,7,5.233825e-01,5.245377e-01
2.172634e+00,1.996085e+00,7,7,6.248567e-01,6.257809e-01
2.165246e+00,1.994621e+00,7,7,4.371322e-01,4.365552e-01
2.163534e+00,1.996020e+00,7,7,4.201438e-01,4.198958e-01
2.163388e+00,1.996479e+00,7,7,4.075154e-01,4.076867e-01
2.475686e+00,2.279031e+00,8,8,2.373300e-01,2.372849e-01
3.096799e+00,2.850006e+00,10,10,4.190861e-01,4.177725e-01
1.860868e+00,1.996940e+00,6,7,3.636595e-01,3.599519e-01
1.857251e+00,1.997945e+00,6,7,2.608969e-01,2.572809e-01
1.238739e+00,3.136471e+00,4,11,2.344945e-01,2.355501e-01
1.246851e+00,1.143323e+00,4,4,4.746475e-01,4.762163e-01
2.162655e+00,1.997981e+00,7,7,9.213043e-01,9.236878e-01
2.163018e+00,1.996369e+00,7,7,8.076730e-01,8.090220e-01
2.165483e+00,1.996058e+00,7,7,7.781777e-01,7.803078e-01
2.173134e+00,1.996859e+00,7,7,9.613227e-01,9.634883e-01
2.175409e+00,1.995594e+00,7,7,1.520191e+00,1.523918e+00
1.239152e+00,1.427613e+00,4,5,7.989548e-01,7.916808e-01
2.164335e+00,1.997172e+00,7,7,8.798816e-01,8.796363e-01
1.549393e+00,1.428411e+00,5,5,7.186614e-01,7.187197e-01
2.167589e+00,1.998651e+00,7,7,7.120139e-01,7.125508e-01
2.472486e+00,2.280551e+00,8,8,2.970842e-01,2.965394e-01
1.551617e+00,1.144952e+00,5,4,6.012802e-01,6.079639e-01
1.861083e+00,1.999468e+00,6,7,3.919148e-01,3.888189e-01
2.164316e+00,1.996948e+00,7,7,3.862409e-01,3.866219e-01
1.239798e+00,1.143654e+00,4,4,2.623096e-01,2.633909e-01
2.170040e+00,1.997040e+00,7,7,6.411642e-01,6.417464e-01
2.166867e+00,1.995916e+00,7,7,1.278311e+00,1.280175e+00
2.166386e+00,1.994754e+00,7,7,7.126318e-01,7.138723e-01
2.167695e+00,1.995565e+00,7,7,9.867155e-01,9.887532e-01
1.862534e+00,1.997461e+00,6,7,8.652848e-01,8.566340e-01
2.165269e+00,1.996452e+00,7,7,1.027814e+00,1.028160e+00
1.861932e+00,1.143705e+00,6,4,5.318746e-01,5.342632e-01
1.861144e+00,1.715723e+00,6,6,4.333159e-01,4.343294e-01
2.164684e+00,1.994656e+00,7,7,2.242568e-01,2.249615e-01
9.345960e-01,1.145205e+00,3,4,2.020182e-01,1.983467e-01
2.162541e+00,1.995730e+00,7,7,1.965698e-01,1.958762e-01
2.162125e+00,1.996552e+00,7,7,3.190755e-01,3.190110e-01
2.476684e+00,1.993697e+00,8,7,1.625075e-01,1.670623e-01
1.553761e+00,1.441519e+00,5,5,2.122387e-01,2.110394e-01
3.112411e+00,2.861106e+00,10,10,2.549934e-01,2.642075e-01
3.110713e+00,2.565732e+00,10,9,3.340866e-01,3.322251e-01
2.497613e+00,8.622480e-01,8,3,2.124365e-01,1.996165e-01
1.244325e+00,1.145832e+00,4,4,2.310467e-01,2.280602e-01
2.163276e+00,1.996465e+00,7,7,2.406095e-01,2.406382e-01
2.176081e+00,1.998884e+00,7,7,3.274650e-01,3.280682e-01
2.165920e+00,1.999221e+00,7,7,6.869505e-01,6.882691e-01
2.165736e+00,1.998075e+00,7,7,9.411265e-01,9.431731e-01
2.165687e+00,1.995647e+00,7,7,6.247678e-01,6.249815e-01
2.166588e+00,1.995391e+00,7,7,7.372654e-01,7.376760e-01
1.549629e+00,1.426028e+00,5,5,5.056921e-01,5.038929e-01
1.869275e+00,1.433742e+00,6,5,2.871031e-01,2.878129e-01
1.244448e+00,1.144738e+00,4,4,4.365576e-01,4.359062e-01
2.163947e+00,1.995486e+00,7,7,1.885426e-01,1.887868e-01
1.238531e+00,1.149878e+00,4,4,2.919564e-01,2.945943e-01
3.407451e+00,3.419087e+00,11,12,1.829165e-01,1.787059e-01
2.170940e+00,1.142907e+00,7,4,1.887522e-01,1.821369e-01
1.861429e+00,2.283904e+00,6,8,2.112133e-01,2.101112e-01
2.169186e+00,1.995425e+00,7,7,2.906811e-01,2.912624e-01
3.104960e+00,2.282088e+00,10,8,1.749604e-01,1.669405e-01
1.556760e+00,1.145947e+00,5,4,2.841983e-01,2.839749e-01
2.165186e+00,2.006511e+00,7,7,7.015670e-01,7.018352e-01
1.858324e+00,1.997591e+00,6,7,4.329238e-01,4.308683e-01
3.415970e+00,8.554280e-01,11,3,3.472470e-01,3.389270e-01
3.097571e+00,1.143393e+00,10,4,2.533410e-01,2.465577e-01
1.245240e+00,2.576342e+00,4,9,2.510375e-01,2.679758e-01
9.286880e-01,1.149570e+00,3,4,2.899801e-01,2.900759e-01
1.245471e+00,1.144610e+00,4,4,5.397857e-01,5.405640e-01
1.860447e+00,1.996503e+00,6,7,4.665030e-01,4.628161e-01
3.096168e+00,1.995550e+00,10,7,4.229114e-01,4.225715e-01
2.162399e+00,1.994995e+00,7,7,4.099117e-01,4.097833e-01
2.163463e+00,1.995932e+00,7,7,4.503662e-01,4.507617e-01
2.163314e+00,1.995443e+00,7,7,6.019318e-01,6.023248e-01
1.857252e+00,1.995990e+00,6,7,1.074310e+00,1.055199e+00
2.163675e+00,1.996836e+00,7,7,1.368444e+00,1.370151e+00
2.175426e+00,1.997335e+00,7,7,1.152286e+00,1.152666e+00
1.860910e+00,1.994490e+00,6,7,1.130883e+00,1.123388e+00
1.544879e+00,1.997988e+00,5,7,8.594203e-01,8.593431e-01
2.480475e+00,2.280234e+00,8,8,8.074697e-01,8.075435e-01
2.473258e+00,2.284131e+00,8,8,8.084600e-01,8.077784e-01
1.240259e+00,1.144801e+00,4,4,6.256708e-01,6.287543e-01
2.167109e+00,1.995964e+00,7,7,5.937867e-01,5.941294e-01
2.474061e+00,1.426965e+00,8,5,4.870175e-01,4.894920e-01
3.422443e+00,3.139209e+00,11,11,4.568664e-01,4.569980e-01
2.162922e+00,1.996437e+00,7,7,6.089232e-01,6.089704e-01
3.112014e+00,2.860535e+00,10,10,7.633080e-01,7.628649e-01
2.163993e+00,1.998593e+00,7,7,1.457745e+00,1.458953e+00
2.162572e+00,1.997702e+00,7,7,1.682180e+00,1.686253e+00
2.164524e+00,1.998061e+00,7,7,1.818862e+00,1.823220e+00
2.172443e+00,1.996620e+00,7,7,1.633803e+00,1.638070e+00
1.858190e+00,1.995676e+00,6,7,1.448860e+00,1.432138e+00
2.170337e+00,1.996607e+00,7,7,1.488161e+00,1.488463e+00
2.175130e+00,1.998274e+00,7,7,1.334373e+00,1.336162e+00
1.860975e+00,2.002618e+00,6,7,1.149122e+00,1.143119e+00
2.165281e+00,2.854282e+00,7,10,7.495191e-01,7.546094e-01
1.239448e+00,1.427743e+00,4,5,4.766353e-01,4.747638e-01
1.559775e+00,1.716600e+00,5,6,3.768448e-01,3.816395e-01
1.856488e+00,1.996180e+00,6,7,4.622158e-01,4.638125e-01
2.168548e+00,1.997039e+00,7,7,5.629589e-01,5.617644e-01
2.781538e+00,2.850775e+00,9,10,3.479012e-01,3.478274e-01
1.558363e+00,8.603800e-01,5,3,3.279950e-01,3.280747e-01
1.244385e+00,1.143299e+00,4,4,3.749791e-01,3.750118e-01
1.243461e+00,1.143429e+00,4,4,2.011183e-01,2.011456e-01
9.332740e-01,8.596550e-01,3,3,1.923656e-01,1.926131e-01
2.176212e+00,2.861884e+00,7,10,1.700847e-01,1.885001e-01
3.108204e+00,2.856150e+00,10,10,2.142743e-01,2.111676e-01
1.247797e+00,1.145104e+00,4,4,2.903649e-01,2.894422e-01
2.162623e+00,1.428046e+00,7,5,3.123824e-01,3.124756e-01
1.872133e+00,1.144811e+00,6,4,3.338004e-01,3.340716e-01
2.483969e+00,1.143453e+00,8,4,3.120881e-01,3.125961e-01
9.329280e-01,3.141257e+00,3,11,2.558678e-01,2.586061e-01
2.475510e+00,1.990307e+00,8,7,2.356174e-01,2.362533e-01
2.171782e+00,1.996505e+00,7,7,7.214291e-01,7.230496e-01
2.166174e+00,1.996477e+00,7,7,1.502764e+00,1.507189e+00
2.165540e+00,1.997310e+00,7,7,1.729469e+00,1.732858e+00
2.480307e+00,2.280174e+00,8,8,1.337322e+00,1.337640e+00
2.164467e+00,1.995557e+00,7,7,1.196061e+00,1.196351e+00
1.861403e+00,1.995650e+00,6,7,1.043852e+00,1.032408e+00
1.864661e+00,1.999593e+00,6,7,8.926788e-01,8.914458e-01
1.240568e+00,1.142763e+00,4,4,5.594868e-01,5.627030e-01
2.165110e+00,1.995311e+00,7,7,4.817632e-01,4.820840e-01
2.164277e+00,1.996762e+00,7,7,1.038868e+00,1.035239e+00
2.168106e+00,1.996801e+00,7,7,1.479335e+00,1.476378e+00
2.165064e+00,1.998190e+00,7,7,1.637251e+00,1.634903e+00
2.165913e+00,1.998540e+00,7,7,1.284801e+00,1.285790e+00
2.172858e+00,1.995794e+00,7,7,9.638071e-01,9.664476e-01
3.419683e+00,2.849056e+00,11,10,6.995810e-01,7.050238e-01
2.167108e+00,1.997135e+00,7,7,5.564190e-01,5.559546e-01
2.163752e+00,1.996955e+00,7,7,8.917770e-01,8.825105e-01
2.163502e+00,1.996729e+00,7,7,8.652136e-01,8.594157e-01
2.166104e+00,1.995835e+00,7,7,6.530342e-01,6.528296e-01
2.169757e+00,1.995217e+00,7,7,6.014803e-01,6.031530e-01
2.164189e+00,1.994972e+00,7,7,5.803715e-01,5.811923e-01
2.173149e+00,1.995205e+00,7,7,5.658131e-01,5.661265e-01
1.855650e+00,1.996120e+00,6,7,7.936358e-01,7.899376e-01
3.418235e+00,3.137680e+00,11,11,7.659146e-01,7.646398e-01
1.240140e+00,1.431428e+00,4,5,8.162035e-01,8.147811e-01
2.163293e+00,1.996809e+00,7,7,7.943738e-01,7.939325e-01
1.860521e+00,1.428135e+00,6,5,6.545106e-01,6.545080e-01
1.860009e+00,1.999675e+00,6,7,5.467923e-01,5.392383e-01
2.164557e+00,1.996605e+00,7,7,5.810540e-01,5.808782e-01
2.164946e+00,1.995631e+00,7,7,4.494188e-01,4.500698e-01
1.858523e+00,1.996189e+00,6,7,2.145064e-01,2.117343e-01
1.863146e+00,1.996064e+00,6,7,1.771878e-01,1.750635e-01
1.553259e+00,2.847533e+00,5,10,1.770093e-01,1.768276e-01
2.492474e+00,8.610070e-01,8,3,2.456397e-01,2.447528e-01
2.163625e+00,1.995502e+00,7,7,2.746528e-01,2.748564e-01
3.096763e+00,2.851463e+00,10,10,2.403102e-01,2.403000e-01
1.862393e+00,1.998813e+00,6,7,2.019120e-01,2.020835e-01
3.103091e+00,1.143919e+00,10,4,2.993344e-01,2.869801e-01
1.560578e+00,1.427948e+00,5,5,8.262276e-02,8.265122e-02
1.240627e+00,1.143616e+00,4,4,8.959004e-02,9.097259e-02
9.314580e-01,2.856086e+00,3,10,9.527385e-02,1.082848e-01
9.326410e-01,1.999406e+00,3,7,8.589974e-02,8.589751e-02
9.345730e-01,8.606710e-01,3,3,1.090435e-01,1.090040e-01
1.243983e+00,8.597950e-01,4,3,1.653169e-01,1.660455e-01
3.094836e+00,2.850102e+00,10,10,1.103131e-01,1.098739e-01
1.244440e+00,8.606620e-01,4,3,1.812325e-01,1.831455e-01
2.162971e+00,1.996700e+00,7,7,2.715773e-01,2.717405e-01
1.861890e+00,1.714003e+00,6,6,1.904912e-01,1.904343e-01
1.244623e+00,8.610700e-01,4,3,1.968426e-01,1.969218e-01
9.326630e-01,2.856072e+00,3,10,2.016294e-01,2.120759e-01
1.553608e+00,1.150027e+00,5,4,2.557243e-01,2.557685e-01
3.104847e+00,3.135817e+00,10,11,2.611164e-01,2.481993e-01
1.553198e+00,1.715963e+00,5,6,1.351991e-01,1.354679e-01
3.732489e+00,1.714561e+00,12,6,9.301774e-02,8.257635e-02
1.243593e+00,8.599050e-01,4,3,1.477639e-01,1.477573e-01
9.334350e-01,8.550870e-01,3,3,1.140333e-01,1.139990e-01
1.245676e+00,8.605200e-01,4,3,1.040794e-01,1.041195e-01
9.344900e-01,8.551550e-01,3,3,2.753313e-01,2.753972e-01
9.329110e-01,2.860186e+00,3,10,1.864261e-01,1.866197e-01
1.245045e+00,1.149287e+00,4,4,3.250659e-01,3.250661e-01
9.342440e-01,8.557830e-01,3,3,6.512525e-01,6.512845e-01
2.479523e+00,2.280479e+00,8,8,4.808956e-01,4.803889e-01
3.096573e+00,2.850567e+00,10,10,3.662997e-01,3.677849e-01
2.164172e+00,1.995659e+00,7,7,5.567555e-01,5.564066e-01
2.170326e+00,1.997814e+00,7,7,7.321457e-01,7.327569e-01
3.107803e+00,2.849741e+00,10,10,3.310922e-01,3.310222e-01
3.735693e+00,3.140698e+00,12,11,2.124809e-01,2.123809e-01
9.336400e-01,1.433443e+00,3,5,2.771797e-01,2.751562e-01
2.163379e+00,1.996547e+00,7,7,9.515086e-02,9.523914e-02
3.731167e+00,3.139079e+00,12,11,6.946102e-02,6.993465e-02
1.553711e+00,2.850921e+00,5,10,1.412212e-01,1.445574e-01
1.243038e+00,1.433222e+00,4,5,1.659885e-01,1.658997e-01
1.244943e+00,8.607410e-01,4,3,2.056798e-01,2.069255e-01
2.165954e+00,1.996243e+00,7,7,4.147845e-01,4.161174e-01
1.859521e+00,1.996448e+00,6,7,2.826572e-01,2.804844e-01
3.415169e+00,3.424720e+00,11,12,2.838567e-01,2.986115e-01
1.244550e+00,2.854928e+00,4,10,2.588192e-01,2.691293e-01
1.243787e+00,2.859398e+00,4,10,2.221341e-01,2.223889e-01
1.241750e+00,1.144129e+00,4,4,2.583836e-01,2.581436e-01
1.861164e+00,2.287997e+00,6,8,3.398606e-01,3.400030e-01
3.431624e+00,1.717454e+00,11,6,2.488514e-01,2.453599e-01
1.861792e+00,3.138640e+00,6,11,2.648474e-01,2.598410e-01
2.165419e+00,1.995935e+00,7,7,2.896106e-01,2.901226e-01
2.168129e+00,1.994840e+00,7,7,3.123815e-01,3.116295e-01
1.860116e+00,1.995502e+00,6,7,4.041198e-01,3.987408e-01
1.859324e+00,1.428559e+00,6,5,2.166943e-01,2.166923e-01
1.238880e+00,1.714348e+00,4,6,1.930834e-01,1.905733e-01
2.163322e+00,1.995351e+00,7,7,2.130280e-01,2.130744e-01
2.169129e+00,1.995794e+00,7,7,2.126457e-01,2.127524e-01
1.238324e+00,1.709811e+00,4,6,1.877340e-01,1.858567e-01
1.245218e+00,1.425670e+00,4,5,6.521964e-01,6.508162e-01
2.172752e+00,1.994815e+00,7,7,4.260274e-01,4.262985e-01
1.553441e+00,1.427493e+00,5,5,4.032898e-01,4.024783e-01
2.168252e+00,1.996692e+00,7,7,3.449904e-01,3.450275e-01
2.472174e+00,2.279095e+00,8,8,3.327480e-01,3.326129e-01
1.859987e+00,1.996565e+00,6,7,2.490546e-01,2.442083e-01
2.788187e+00,2.561956e+00,9,9,3.666755e-01,3.667364e-01
1.858992e+00,1.994500e+00,6,7,4.060637e-01,4.035903e-01
3.410456e+00,3.135584e+00,11,11,3.560348e-01,3.543698e-01
1.239968e+00,1.715915e+00,4,6,3.534055e-01,3.562537e-01
1.859000e+00,1.996593e+00,6,7,2.789503e-01,2.765456e-01
2.482644e+00,2.285972e+00,8,8,2.305356e-01,2.295910e-01
3.106709e+00,2.848028e+00,10,10,2.016299e-01,2.016024e-01
1.861918e+00,1.432213e+00,6,5,1.773858e-01,1.771790e-01
3.718256e+00,3.422357e+00,12,12,1.560549e-01,1.560811e-01
1.545982e+00,1.430521e+00,5,5,1.683711e-01,1.683220e-01
1.239580e+00,3.429083e+00,4,12,1.477023e-01,1.617848e-01
1.552519e+00,1.144189e+00,5,4,2.180130e-01,2.178635e-01
1.242906e+00,1.144462e+00,4,4,1.892437e-01,1.891523e-01
3.412525e+00,3.424209e+00,11,12,2.373933e-01,2.372414e-01
3.421712e+00,1.144867e+00,11,4,3.033306e-01,2.975152e-01
9.337240e-01,8.607260e-01,3,3,2.374049e-01,2.369047e-01
1.243926e+00,1.145268e+00,4,4,4.765344e-01,4.738157e-01
2.162377e+00,1.995882e+00,7,7,1.006299e+00,1.009254e+00
2.171237e+00,1.999889e+00,7,7,7.540732e-01,7.551117e-01
1.860080e+00,1.991272e+00,6,7,5.334258e-01,5.291401e-01
3.099386e+00,2.849878e+00,10,10,4.636879e-01,4.636813e-01
1.556693e+00,2.856590e+00,5,10,4.459177e-01,4.469972e-01
2.163345e+00,1.996794e+00,7,7,3.581449e-01,3.583939e-01
2.161491e+00,2.854943e+00,7,10,3.063129e-01,3.059283e-01
1.239595e+00,1.996123e+00,4,7,2.640877e-01,2.632603e-01
2.164615e+00,1.995122e+00,7,7,2.762172e-01,2.734945e-01
2.167530e+00,1.995430e+00,7,7,2.343480e-01,2.344523e-01
1.243962e+00,1.146312e+00,4,4,2.921664e-01,2.917010e-01
2.163349e+00,1.996710e+00,7,7,3.858397e-01,3.861405e-01
2.163761e+00,1.995399e+00,7,7,2.862103e-01,2.862974e-01
1.552070e+00,1.143412e+00,5,4,1.112340e-01,1.144924e-01
3.099786e+00,1.143960e+00,10,4,8.087349e-02,6.233379e-02
1.555353e+00,8.607730e-01,5,3,1.102481e-01,1.093873e-01
1.547046e+00,1.143770e+00,5,4,1.596392e-01,1.597314e-01
1.244807e+00,1.145426e+00,4,4,2.195406e-01,2.195029e-01
9.331290e-01,8.613740e-01,3,3,1.190013e-01,1.188312e-01
1.244737e+00,8.608180e-01,4,3,1.564700e-01,1.571665e-01
1.854410e+00,1.994602e+00,6,7,2.016260e-01,2.006147e-01
3.092497e+00,1.145935e+00,10,4,2.254217e-01,2.205236e-01
1.243958e+00,8.614670e-01,4,3,3.813156e-01,3.814288e-01
1.242585e+00,3.142881e+00,4,11,2.250559e-01,2.282187e-01
9.335450e-01,1.998714e+00,3,7,2.012352e-01,2.021983e-01
1.250303e+00,1.145984e+00,4,4,5.907271e-01,5.905227e-01
2.172892e+00,1.996839e+00,7,7,6.957444e-01,6.966054e-01
3.098144e+00,2.851520e+00,10,10,2.855090e-01,2.852951e-01
1.244502e+00,8.606780e-01,4,3,3.346020e-01,3.347567e-01
9.325390e-01,1.717021e+00,3,6,3.081474e-01,3.072911e-01
1.856999e+00,1.998888e+00,6,7,2.942184e-01,2.957405e-01
3.720780e+00,3.425071e+00,12,12,1.521615e-01,1.521271e-01
1.244974e+00,1.145018e+00,4,4,1.017242e-01,1.010527e-01
3.418076e+00,1.147899e+00,11,4,1.923299e-01,1.919534e-01
3.098591e+00,2.279865e+00,10,8,2.204634e-01,2.228149e-01
2.472332e+00,2.283543e+00,8,8,3.501653e-01,3.498783e-01
1.240378e+00,2.282062e+00,4,8,1.992684e-01,1.988201e-01
1.248262e+00,8.558190e-01,4,3,1.605424e-01,1.617537e-01
1.548990e+00,1.997317e+00,5,7,2.188127e-01,2.133498e-01
2.162505e+00,1.996356e+00,7,7,3.193709e-01,3.195572e-01
2.167893e+00,1.997860e+00,7,7,3.479731e-01,3.481189e-01
2.161443e+00,1.994280e+00,7,7,3.654560e-01,3.653079e-01
3.102509e+00,2.848318e+00,10,10,3.232017e-01,3.230346e-01
1.864514e+00,1.995984e+00,6,7,4.656568e-01,4.656223e-01
3.726976e+00,2.284150e+00,12,8,2.498518e-01,2.373897e-01
2.796602e+00,2.854524e+00,9,10,2.402500e-01,2.423094e-01
1.245339e+00,1.143448e+00,4,4,3.895156e-01,3.905933e-01
2.171931e+00,1.995419e+00,7,7,2.199818e-01,2.200787e-01
1.855286e+00,1.995958e+00,6,7,2.624533e-01,2.593459e-01
1.242283e+00,2.851414e+00,4,10,2.095916e-01,2.222518e-01
3.115544e+00,1.713117e+00,10,6,1.062634e-01,9.675294e-02
9.325740e-01,1.143991e+00,3,4,1.046464e-01,1.041890e-01
2.488886e+00,8.604670e-01,8,3,1.419212e-01,1.384445e-01
3.109470e+00,8.611010e-01,10,3,1.333909e-01,1.239194e-01
2.164404e+00,1.995835e+00,7,7,4.159761e-01,4.154497e-01
2.167686e+00,1.996244e+00,7,7,2.212721e-01,2.214828e-01
1.240552e+00,2.288300e+00,4,8,1.437978e-01,1.434806e-01
3.115222e+00,8.613340e-01,10,3,1.514831e-01,1.493253e-01
1.545284e+00,8.608150e-01,5,3,2.457511e-01,2.458834e-01
3.105922e+00,2.853707e+00,10,10,4.031574e-01,3.956226e-01
1.243412e+00,1.145258e+00,4,4,5.186103e-01,5.183305e-01
1.242990e+00,1.144953e+00,4,4,6.269317e-01,6.265433e-01
2.165381e+00,1.996647e+00,7,7,7.533352e-01,7.533312e-01
2.168134e+00,1.996573e+00,7,7,3.499989e-01,3.501103e-01
1.241655e+00,1.434805e+00,4,5,2.953332e-01,2.952466e-01
3.108790e+00,2.855547e+00,10,10,1.670981e-01,1.658185e-01
1.243371e+00,2.283554e+00,4,8,1.500967e-01,1.498106e-01
1.859707e+00,1.145457e+00,6,4,2.909719e-01,2.800760e-01
2.169222e+00,1.995301e+00,7,7,3.549743e-01,3.562352e-01
2.167589e+00,1.995375e+00,7,7,3.791942e-01,3.802523e-01
2.168763e+00,1.995878e+00,7,7,3.066959e-01,3.069145e-01
2.165451e+00,1.995231e+00,7,7,3.095643e-01,3.096271e-01
2.165516e+00,1.996192e+00,7,7,3.951608e-01,3.954949e-01
1.860759e+00,1.995182e+00,6,7,4.399421e-01,4.350064e-01
1.860183e+00,1.425291e+00,6,5,3.642865e-01,3.657908e-01
2.175702e+00,1.999424e+00,7,7,3.285301e-01,3.292927e-01
1.556620e+00,3.140070e+00,5,11,3.895569e-01,3.920861e-01
1.239394e+00,2.290125e+00,4,8,2.183943e-01,2.178738e-01
1.552995e+00,1.144654e+00,5,4,1.848807e-01,1.849310e-01
1.559536e+00,1.143964e+00,5,4,3.233375e-01,3.243311e-01
1.239197e+00,1.715638e+00,4,6,4.299483e-01,4.241410e-01
2.164236e+00,1.996515e+00,7,7,5.790378e-01,5.791615e-01
3.414561e+00,2.853864e+00,11,10,2.417297e-01,2.333218e-01
1.858267e+00,1.146848e+00,6,4,2.296443e-01,2.301148e-01
2.164109e+00,1.996436e+00,7,7,2.694228e-01,2.694064e-01
2.163920e+00,1.994378e+00,7,7,3.096428e-01,3.077352e-01
1.860146e+00,1.427736e+00,6,5,2.989579e-01,2.988076e-01
1.547605e+00,1.424840e+00,5,5,3.259484e-01,3.254468e-01
2.162909e+00,1.995305e+00,7,7,2.486606e-01,2.487460e-01
1.857253e+00,1.994513e+00,6,7,1.794652e-01,1.785701e-01

