6.284710e-01,1.344525e+00,9.429455e-01,2,0,0.000000e+00,0.000000e+00
9.077560e-01,1.965440e-01,1.862049e-01,3,0,5.737493e-02,5.737445e-02
9.121470e-01,1.940660e-01,1.859665e-01,3,0,7.713409e-02,7.712919e-02
1.232605e+00,1.930800e-01,1.847744e-01,4,0,1.672352e-01,1.671555e-01
2.437089e+00,2.141390e-01,2.050400e-01,8,0,1.297263e-01,1.294919e-01
9.116540e-01,1.064271e+00,1.055956e+00,3,3,3.471960e-01,3.424269e-01
2.104396e+00,7.656510e-01,7.569790e-01,7,2,4.431320e-01,4.407909e-01
2.112427e+00,4.645660e-01,4.560947e-01,7,1,5.547547e-01,5.534083e-01
3.325465e+00,1.245618e+00,1.237869e+00,11,4,2.799205e-01,2.798419e-01
2.124163e+00,2.004240e-01,1.921654e-01,7,0,3.088413e-01,3.084835e-01
1.509997e+00,1.992390e-01,1.909733e-01,5,0,2.200582e-01,2.192518e-01
1.515010e+00,7.457790e-01,7.369518e-01,5,2,2.163806e-01,2.161326e-01
2.106323e+00,4.683740e-01,4.601479e-01,7,1,3.471410e-01,3.462646e-01
2.102810e+00,1.543363e+00,1.534939e+00,7,5,5.298650e-01,5.284501e-01
2.405511e+00,7.250620e-01,7.159710e-01,8,2,4.158074e-01,4.144090e-01
1.210744e+00,1.022842e+00,1.013994e+00,4,3,6.266664e-01,6.256841e-01
1.810050e+00,7.220170e-01,7.128716e-01,6,2,5.419134e-01,5.400492e-01
1.205240e+00,4.616450e-01,4.529953e-01,4,1,4.534858e-01,4.494978e-01
1.811169e+00,4.813120e-01,4.730225e-01,6,1,4.742611e-01,4.730599e-01
1.206929e+00,7.387230e-01,7.309914e-01,4,2,5.567996e-01,5.551616e-01
2.103636e+00,1.291092e+00,1.283169e+00,7,4,5.713705e-01,5.672842e-01
1.809389e+00,9.884320e-01,9.801388e-01,6,3,5.003127e-01,5.001861e-01
1.215382e+00,7.585940e-01,7.507801e-01,4,2,4.085289e-01,4.071806e-01
1.507857e+00,1.004729e+00,9.961128e-01,5,3,5.117739e-01,5.107529e-01
2.109676e+00,1.927040e-01,1.850128e-01,7,0,5.308164e-01,5.300868e-01
1.810746e+00,4.718290e-01,4.630089e-01,6,1,5.102062e-01,5.074546e-01
3.315355e+00,1.011368e+00,1.004219e+00,11,3,4.066953e-01,4.007063e-01
2.108940e+00,1.028678e+00,1.019955e+00,7,3,3.058074e-01,3.052451e-01
3.008565e+00,7.234820e-01,7.150173e-01,10,2,2.410290e-01,2.304230e-01
2.412502e+00,1.951110e-01,1.869202e-01,8,0,1.792918e-01,1.787038e-01
9.089940e-01,7.570040e-01,7.481575e-01,3,2,3.064416e-01,3.025880e-01
3.008656e+00,7.185540e-01,7.109642e-01,10,2,3.365289e-01,3.364940e-01
3.635296e+00,2.011130e-01,1.931190e-01,12,0,2.707143e-01,2.615042e-01
1.808483e+00,1.583886e+00,1.574993e+00,6,5,3.165992e-01,3.151958e-01
2.107481e+00,7.131150e-01,7.050037e-01,7,2,1.681918e-01,1.674452e-01
2.101891e+00,7.236480e-01,7.150173e-01,7,2,1.141365e-01,1.141133e-01
2.407230e+00,7.402160e-01,7.319450e-01,8,2,2.185850e-01,2.145634e-01
2.102808e+00,4.605440e-01,4.520416e-01,7,1,2.388934e-01,2.382808e-01
1.208495e+00,1.307934e+00,1.299143e+00,4,4,3.840541e-01,3.808072e-01
2.105441e+00,9.931470e-01,9.851456e-01,7,3,3.232648e-01,3.224898e-01
2.104100e+00,1.291037e+00,1.282930e+00,7,4,5.459700e-01,5.419527e-01
2.104517e+00,9.943560e-01,9.858608e-01,7,3,6.442485e-01,6.419667e-01
1.810611e+00,1.499558e+00,1.491070e+00,6,5,4.335105e-01,4.321034e-01
2.106177e+00,7.406650e-01,7.331371e-01,7,2,5.756527e-01,5.749676e-01
1.810189e+00,4.570950e-01,4.479885e-01,6,1,4.938082e-01,4.935191e-01
1.210447e+00,7.559720e-01,7.469654e-01,4,2,4.307304e-01,4.296515e-01
2.104119e+00,7.255330e-01,7.169247e-01,7,2,3.841139e-01,3.835805e-01
1.512257e+00,1.981240e-01,1.890659e-01,5,0,3.330077e-01,3.329618e-01
1.208449e+00,1.930540e-01,1.859665e-01,4,0,2.229824e-01,2.229347e-01
1.208079e+00,2.094630e-01,2.009869e-01,4,0,6.849945e-02,6.847762e-02
9.064450e-01,4.781260e-01,4.699230e-01,3,1,1.600098e-01,1.594665e-01
1.207982e+00,7.406140e-01,7.328987e-01,4,2,2.997925e-01,2.975927e-01
2.101434e+00,4.635560e-01,4.558563e-01,7,1,2.612119e-01,2.609442e-01
2.112785e+00,1.942760e-01,1.859665e-01,7,0,2.128877e-01,2.122338e-01
3.011895e+00,7.532380e-01,7.448196e-01,10,2,1.979364e-01,1.954148e-01
2.108281e+00,7.636940e-01,7.410049e-01,7,2,2.653136e-01,2.634740e-01
1.816995e+00,9.890350e-01,9.810925e-01,6,3,1.324386e-01,1.321002e-01
2.102775e+00,4.574510e-01,4.489422e-01,7,1,1.497035e-01,1.492207e-01
1.506741e+00,7.548360e-01,7.472038e-01,5,2,2.271452e-01,2.240296e-01
2.103735e+00,1.013276e+00,1.004934e+00,7,3,3.159123e-01,3.146218e-01
1.213022e+00,2.350562e+00,2.341986e+00,4,8,2.182067e-01,2.145053e-01
2.104787e+00,2.056266e+00,2.048016e+00,7,7,6.235645e-01,6.108426e-01
2.104374e+00,6.941350e-01,6.859303e-01,7,2,1.268572e+00,1.252604e+00
2.107909e+00,2.219787e+00,2.210855e+00,7,8,6.277765e-01,6.253820e-01
2.103102e+00,4.584040e-01,4.498959e-01,7,1,7.146818e-01,7.134268e-01
1.505127e+00,2.093435e+00,2.084970e+00,5,7,3.563405e-01,3.560672e-01
1.809424e+00,9.846280e-01,9.758472e-01,6,3,3.283142e-01,3.244346e-01
3.310974e+00,4.644880e-01,4.560947e-01,11,1,1.942738e-01,1.903317e-01
1.513104e+00,1.040432e+00,1.025200e+00,5,3,2.068945e-01,2.061222e-01
3.008540e+00,9.928760e-01,9.839535e-01,10,3,1.097240e-01,1.097209e-01
9.082040e-01,1.985210e-01,1.900196e-01,3,0,2.469395e-01,2.469350e-01
9.083100e-01,1.935010e-01,1.859665e-01,3,0,3.097159e-01,3.096517e-01
1.207725e+00,1.935750e-01,1.850128e-01,4,0,3.587313e-01,3.587115e-01
9.096150e-01,4.786830e-01,4.711151e-01,3,1,4.158126e-01,4.139113e-01
2.109707e+00,7.499890e-01,7.410049e-01,7,2,5.429106e-01,5.408831e-01
2.107060e+00,1.282417e+00,1.274109e+00,7,4,5.833962e-01,5.808474e-01
1.205937e+00,1.509240e+00,1.501083e+00,4,5,4.433233e-01,4.414781e-01
2.116758e+00,4.729580e-01,4.649162e-01,7,1,3.704991e-01,3.682730e-01
1.508292e+00,1.024430e+00,1.016140e+00,5,3,3.610844e-01,3.605810e-01
1.804024e+00,7.248000e-01,7.169247e-01,6,2,1.542869e-01,1.532949e-01
2.105927e+00,2.114694e+00,2.107143e+00,7,7,5.925152e-01,5.855062e-01
1.804162e+00,1.496237e+00,1.487970e+00,6,5,4.515226e-01,4.466588e-01
2.106247e+00,7.323060e-01,7.240772e-01,7,2,3.026628e-01,3.018818e-01
1.512500e+00,1.936990e-01,1.859665e-01,5,0,4.542055e-01,4.530288e-01
1.211332e+00,3.177237e+00,3.165007e+00,4,11,6.291894e-01,6.213259e-01
2.101935e+00,7.162990e-01,7.028580e-01,7,2,1.023501e+00,1.006860e+00
2.103384e+00,6.890700e-01,6.809235e-01,7,2,1.551880e+00,1.535245e+00
2.106131e+00,4.571170e-01,4.489422e-01,7,1,2.173560e+00,2.155616e+00
2.106767e+00,1.712430e+00,1.703978e+00,7,6,1.713019e+00,1.708448e+00
2.104474e+00,2.046894e+00,2.038956e+00,7,7,1.136006e+00,1.135107e+00
2.109397e+00,1.566509e+00,1.558065e+00,7,5,7.133485e-01,7.076841e-01
2.117416e+00,1.767354e+00,1.758099e+00,7,6,3.996726e-01,3.965662e-01
1.815235e+00,3.704491e+00,3.695011e+00,6,13,6.741340e-01,6.587456e-01
2.105547e+00,1.958294e+00,1.950026e+00,7,7,4.482886e-01,4.439604e-01
2.129558e+00,1.267320e+00,1.257896e+00,7,4,5.649969e-01,5.561155e-01
2.108557e+00,7.024250e-01,6.940365e-01,7,2,6.490790e-01,6.426599e-01
3.325340e+00,2.013536e+00,2.006054e+00,11,7,3.617362e-01,3.585183e-01
1.812304e+00,1.982740e-01,1.900196e-01,6,0,2.221835e-01,2.214593e-01
1.801707e+00,4.770690e-01,4.689693e-01,6,1,3.695441e-01,3.632934e-01
3.009785e+00,7.317600e-01,7.240772e-01,10,2,3.299485e-01,3.294713e-01
1.811242e+00,7.616100e-01,7.529259e-01,6,2,2.421277e-01,2.416285e-01
1.803276e+00,7.415820e-01,7.331371e-01,6,2,2.696756e-01,2.656385e-01
3.022301e+00,7.270960e-01,7.190704e-01,10,2,1.426055e-01,1.340473e-01
1.816707e+00,1.982750e-01,1.900196e-01,6,0,1.023563e-01,1.022581e-01
1.209635e+00,4.808590e-01,4.730225e-01,4,1,9.681854e-02,9.525643e-02
1.205970e+00,7.473960e-01,7.388592e-01,4,2,2.545105e-01,2.533411e-01
1.208117e+00,7.432270e-01,7.350445e-01,4,2,3.310663e-01,3.292589e-01
1.809158e+00,1.945790e-01,1.869202e-01,6,0,2.875685e-01,2.849658e-01
3.322542e+00,4.700570e-01,4.620552e-01,11,1,1.901592e-01,1.900526e-01
1.517469e+00,1.978150e-01,1.890659e-01,5,0,1.689931e-01,1.678764e-01
3.317026e+00,1.984420e-01,1.900196e-01,11,0,1.804218e-01,1.800845e-01
1.503923e+00,4.897440e-01,4.820824e-01,5,1,2.442586e-01,2.433881e-01
3.008485e+00,4.661930e-01,4.568100e-01,10,1,1.756804e-01,1.731179e-01
1.505201e+00,7.604000e-01,7.519722e-01,5,2,2.539155e-01,2.535611e-01
3.308876e+00,7.297890e-01,7.219315e-01,11,2,1.128788e-01,1.045928e-01
1.809250e+00,4.805990e-01,4.730225e-01,6,1,9.569289e-02,9.551291e-02
2.112795e+00,7.483380e-01,7.398129e-01,7,2,2.485970e-01,2.472344e-01
1.799522e+00,9.920530e-01,9.839535e-01,6,3,1.400856e-01,1.387628e-01
2.106674e+00,1.579686e+00,1.571894e+00,7,5,4.466043e-01,4.409251e-01
1.212084e+00,1.249787e+00,1.242161e+00,4,4,3.946695e-01,3.935313e-01
3.014391e+00,1.294128e+00,1.285076e+00,10,4,5.794993e-01,5.686846e-01
2.113340e+00,1.018396e+00,1.010180e+00,7,3,8.423069e-01,8.405519e-01
1.809381e+00,7.253360e-01,7.162094e-01,6,2,7.328405e-01,7.216242e-01
2.409614e+00,1.551948e+00,1.543999e+00,8,5,6.540523e-01,6.453947e-01
2.104873e+00,1.285070e+00,1.276016e+00,7,4,9.159077e-01,9.119409e-01
2.109114e+00,2.047441e+00,2.030849e+00,7,7,6.940349e-01,6.925694e-01
2.111074e+00,1.268185e+00,1.251936e+00,7,4,4.626355e-01,4.566343e-01
1.512706e+00,1.980330e-01,1.900196e-01,5,0,3.215240e-01,3.213650e-01
1.517613e+00,7.516290e-01,7.429123e-01,5,2,2.337522e-01,2.323671e-01
3.014637e+00,7.524050e-01,7.431507e-01,10,2,2.076032e-01,1.964243e-01
1.515086e+00,2.102520e-01,2.009869e-01,5,0,2.269863e-01,2.262318e-01
1.217187e+00,7.791860e-01,7.708073e-01,4,2,2.681206e-01,2.671226e-01
1.210552e+00,7.569620e-01,7.460117e-01,4,2,1.714926e-01,1.692821e-01
3.619569e+00,2.012430e-01,1.928806e-01,12,0,1.590959e-01,1.518628e-01
1.211035e+00,2.225570e-01,2.129078e-01,4,0,1.175146e-01,1.175135e-01
9.039390e-01,4.847820e-01,4.770756e-01,3,1,3.009985e-01,3.007595e-01
1.503410e+00,4.736780e-01,4.651546e-01,5,1,3.626721e-01,3.624845e-01
1.208288e+00,1.940920e-01,1.859665e-01,4,0,2.834089e-01,2.830601e-01
3.334984e+00,4.747690e-01,4.670620e-01,11,1,3.298158e-01,3.252203e-01
2.414481e+00,4.611730e-01,4.529953e-01,8,1,2.696091e-01,2.519416e-01
1.805793e+00,7.640220e-01,7.550716e-01,6,2,3.580005e-01,3.485929e-01
2.104426e+00,4.748850e-01,4.668236e-01,7,1,5.145085e-01,5.124470e-01
1.806407e+00,4.596610e-01,4.520416e-01,6,1,7.476942e-01,7.438330e-01
3.014851e+00,1.295014e+00,1.286030e+00,10,4,7.477475e-01,7.406820e-01
2.104592e+00,1.847678e+00,1.837969e+00,7,6,6.306868e-01,6.234574e-01
2.108287e+00,7.190780e-01,7.100105e-01,7,2,5.554365e-01,5.537716e-01
1.807956e+00,7.281520e-01,7.200241e-01,6,2,4.596609e-01,4.555275e-01
1.205902e+00,1.033146e+00,1.024961e+00,4,3,5.188736e-01,5.160525e-01
2.109313e+00,1.555859e+00,1.546860e+00,7,5,5.296789e-01,5.223947e-01
2.104530e+00,7.186460e-01,7.097721e-01,7,2,5.593850e-01,5.527412e-01
3.013202e+00,1.751273e+00,1.742840e+00,10,6,3.645690e-01,3.634562e-01
1.510103e+00,4.624730e-01,4.529953e-01,5,1,3.466408e-01,3.462264e-01
1.510251e+00,4.626190e-01,4.539490e-01,5,1,2.758302e-01,2.754026e-01
1.807941e+00,1.947700e-01,1.871586e-01,6,0,2.413937e-01,2.409290e-01
2.712491e+00,1.979210e-01,1.890659e-01,9,0,1.852933e-01,1.691288e-01
1.213046e+00,4.736470e-01,4.658699e-01,4,1,2.557966e-01,2.547923e-01
2.103802e+00,4.718960e-01,4.639626e-01,7,1,5.348779e-01,5.333197e-01
2.106915e+00,4.669560e-01,4.591942e-01,7,1,4.404449e-01,4.393613e-01
1.211276e+00,4.634440e-01,4.539490e-01,4,1,4.771535e-01,4.748858e-01
1.818314e+00,1.032967e+00,1.024961e+00,6,3,5.125120e-01,5.108805e-01
2.101874e+00,9.905750e-01,9.820461e-01,7,3,2.359879e-01,2.317573e-01
1.510206e+00,1.953960e-01,1.869202e-01,5,0,1.762050e-01,1.757451e-01
1.515489e+00,7.688920e-01,7.610321e-01,5,2,1.229145e-01,1.210135e-01
3.613249e+00,7.274990e-01,7.200241e-01,12,2,8.449439e-02,7.411789e-02
1.815777e+00,1.957040e-01,1.869202e-01,6,0,8.636724e-02,8.636268e-02
9.024680e-01,2.016000e-01,1.928806e-01,3,0,1.648777e-01,1.648339e-01
1.207876e+00,1.985660e-01,1.909733e-01,4,0,1.235221e-01,1.233913e-01
1.218664e+00,1.031771e+00,1.024008e+00,4,3,4.499976e-01,4.469743e-01
3.023974e+00,9.926490e-01,9.849072e-01,10,3,5.216452e-01,5.151001e-01
1.509598e+00,1.961120e-01,1.878738e-01,5,0,3.107967e-01,3.095675e-01
1.807357e+00,1.946840e-01,1.871586e-01,6,0,3.002745e-01,3.002389e-01
1.213205e+00,1.952490e-01,1.869202e-01,4,0,2.656686e-01,2.652948e-01
1.806994e+00,1.936750e-01,1.859665e-01,6,0,2.133355e-01,2.131557e-01
1.508428e+00,1.958820e-01,1.878738e-01,5,0,2.015259e-01,2.014555e-01
1.212528e+00,1.032821e+00,1.024961e+00,4,3,2.473948e-01,2.456024e-01
1.817688e+00,9.903260e-01,9.829998e-01,6,3,2.097334e-01,2.088060e-01
3.008196e+00,1.961290e-01,1.881123e-01,10,0,1.663839e-01,1.661761e-01
9.166440e-01,4.748410e-01,4.658699e-01,3,1,3.119959e-01,3.086443e-01
3.013687e+00,4.654800e-01,4.568100e-01,10,1,4.368679e-01,4.254960e-01
1.806322e+00,7.628860e-01,7.538795e-01,6,2,5.699531e-01,5.696691e-01
1.511611e+00,1.010525e+00,1.001835e+00,5,3,7.210469e-01,7.203739e-01
1.208440e+00,1.024356e+00,1.015902e+00,4,3,6.676238e-01,6.625823e-01
2.108603e+00,1.935290e-01,1.850128e-01,7,0,6.749179e-01,6.729495e-01
3.015635e+00,1.286763e+00,1.278162e+00,10,4,5.065519e-01,5.032454e-01
2.105465e+00,1.857786e+00,1.847982e+00,7,6,3.588011e-01,3.544386e-01
2.101226e+00,4.686710e-01,4.591942e-01,7,1,4.235803e-01,4.227530e-01
2.112074e+00,7.440670e-01,7.350445e-01,7,2,5.233825e-01,5.212561e-01
2.114380e+00,9.789210e-01,9.710789e-01,7,3,6.248567e-01,6.242015e-01
2.106704e+00,1.294074e+00,1.285076e+00,7,4,4.371322e-01,4.355932e-01
2.103831e+00,7.538380e-01,7.450581e-01,7,2,4.201438e-01,4.159652e-01
2.107991e+00,1.827562e+00,1.819134e+00,7,6,4.075154e-01,4.026595e-01
2.403208e+00,1.760109e+00,1.751900e+00,8,6,2.373300e-01,2.357903e-01
3.009503e+00,1.303106e+00,1.294136e+00,10,4,4.190861e-01,4.168869e-01
1.809865e+00,7.454280e-01,7.359982e-01,6,2,3.636595e-01,3.587906e-01
1.806102e+00,7.340840e-01,7.259846e-01,6,2,2.608969e-01,2.570246e-01
1.208804e+00,4.787230e-01,4.699230e-01,4,1,2.344945e-01,2.317312e-01
1.212120e+00,1.845659e+00,1.837015e+00,4,6,4.746475e-01,4.674496e-01
2.110080e+00,1.003829e+00,9.951591e-01,7,3,9.213043e-01,9.107130e-01
2.103263e+00,4.505360e-01,4.408360e-01,7,1,8.076730e-01,8.006125e-01
2.106508e+00,7.088750e-01,7.009506e-01,7,2,7.781777e-01,7.746060e-01
2.113369e+00,4.568170e-01,4.491806e-01,7,1,9.613227e-01,9.592900e-01
2.112988e+00,1.858330e+00,1.849890e+00,7,6,1.520191e+00,1.515878e+00
1.207335e+00,2.023952e+00,2.016068e+00,4,7,7.989548e-01,7.903846e-01
2.104444e+00,1.278582e+00,1.269817e+00,7,4,8.798816e-01,8.775203e-01
1.504793e+00,2.099972e+00,2.091885e+00,5,7,7.186614e-01,7.170470e-01
2.105220e+00,7.403670e-01,7.321835e-01,7,2,7.120139e-01,7.070854e-01
2.417123e+00,2.055662e+00,2.047777e+00,8,7,2.970842e-01,2.949304e-01
1.506532e+00,1.855028e+00,1.845837e+00,5,6,6.012802e-01,5.988640e-01
1.803763e+00,1.250804e+00,1.242161e+00,6,4,3.919148e-01,3.886870e-01
2.109820e+00,1.035295e+00,1.026869e+00,7,3,3.862409e-01,3.844558e-01
1.204733e+00,1.531181e+00,1.522064e+00,4,5,2.623096e-01,2.604247e-01
2.103434e+00,4.797960e-01,4.720688e-01,7,1,6.411642e-01,6.396743e-01
2.111232e+00,4.745090e-01,4.670620e-01,7,1,1.278311e+00,1.275909e+00
2.107147e+00,1.282935e+00,1.273870e+00,7,4,7.126318e-01,7.095673e-01
2.107570e+00,7.395800e-01,7.312298e-01,7,2,9.867155e-01,9.822354e-01
1.806079e+00,1.511457e+00,1.502991e+00,6,5,8.652848e-01,8.537768e-01
2.105377e+00,1.279957e+00,1.271009e+00,7,4,1.027814e+00,1.024282e+00
1.805400e+00,1.768120e+00,1.760006e+00,6,6,5.318746e-01,5.315886e-01
1.808670e+00,1.314740e+00,1.306057e+00,6,4,4.333159e-01,4.322309e-01
2.104269e+00,1.255194e+00,1.245975e+00,7,4,2.242568e-01,2.242229e-01
9.088930e-01,7.703710e-01,7.610321e-01,3,2,2.020182e-01,1.977361e-01
2.103826e+00,1.291073e+00,1.282930e+00,7,4,1.965698e-01,1.939769e-01
2.102619e+00,1.024657e+00,1.016855e+00,7,3,3.190755e-01,3.155882e-01
2.403420e+00,1.516086e+00,1.506805e+00,8,5,1.625075e-01,1.617347e-01
1.507995e+00,2.009310e-01,1.919270e-01,5,0,2.122387e-01,2.109780e-01
3.024730e+00,1.941020e-01,1.862049e-01,10,0,2.549934e-01,2.530154e-01
3.019484e+00,2.046020e-01,1.959801e-01,10,0,3.340866e-01,3.180497e-01
2.423624e+00,1.991320e-01,1.900196e-01,8,0,2.124365e-01,1.993482e-01
1.210652e+00,7.584450e-01,7.500648e-01,4,2,2.310467e-01,2.279253e-01
2.103213e+00,7.449100e-01,7.359982e-01,7,2,2.406095e-01,2.377657e-01
2.114064e+00,1.931380e-01,1.850128e-01,7,0,3.274650e-01,3.267548e-01
2.104688e+00,1.565108e+00,1.557827e+00,7,5,6.869505e-01,6.828877e-01
2.103537e+00,2.004080e-01,1.909733e-01,7,0,9.411265e-01,9.371784e-01
2.105512e+00,1.765072e+00,1.756907e+00,7,6,6.247678e-01,6.235335e-01
2.108888e+00,7.485760e-01,7.410049e-01,7,2,7.372654e-01,7.358957e-01
1.502527e+00,9.999250e-01,9.920597e-01,5,3,5.056921e-01,5.018126e-01
1.825609e+00,1.967760e-01,1.888275e-01,6,0,2.871031e-01,2.866366e-01
1.216044e+00,2.129032e+00,2.120972e+00,4,7,4.365576e-01,4.321554e-01
2.103852e+00,1.765550e+00,1.755953e+00,7,6,1.885426e-01,1.868349e-01
1.205037e+00,1.306231e+00,1.297951e+00,4,4,2.919564e-01,2.890836e-01
3.311609e+00,7.363530e-01,7.290840e-01,11,2,1.829165e-01,1.751864e-01
2.106410e+00,4.759730e-01,4.680157e-01,7,1,1.887522e-01,1.810900e-01
1.809255e+00,4.836980e-01,4.751682e-01,6,1,2.112133e-01,2.098236e-01
2.111554e+00,4.819330e-01,4.730225e-01,7,1,2.906811e-01,2.895627e-01
3.016347e+00,7.368390e-01,7.288456e-01,10,2,1.749604e-01,1.666035e-01
1.511173e+00,1.307055e+00,1.298904e+00,5,4,2.841983e-01,2.828535e-01
2.101774e+00,1.008856e+00,9.999275e-01,7,3,7.015670e-01,6.951898e-01
1.806820e+00,2.029167e+00,2.021074e+00,6,7,4.329238e-01,4.307998e-01
3.315854e+00,4.785930e-01,4.699230e-01,11,1,3.472470e-01,3.369496e-01
3.015690e+00,4.698540e-01,4.620552e-01,10,1,2.533410e-01,2.454182e-01
1.210643e+00,1.956320e-01,1.869202e-01,4,0,2.510375e-01,2.510347e-01
9.077700e-01,2.028250e-01,1.950264e-01,3,0,2.899801e-01,2.899326e-01
1.211152e+00,1.306283e+00,1.297951e+00,4,4,5.397857e-01,5.389215e-01
1.809365e+00,7.268880e-01,7.190704e-01,6,2,4.665030e-01,4.626003e-01
3.010398e+00,4.581380e-01,4.501343e-01,10,1,4.229114e-01,4.223731e-01
2.106359e+00,1.995570e-01,1.909733e-01,7,0,4.099117e-01,4.094647e-01
2.104144e+00,1.033368e+00,1.024008e+00,7,3,4.503662e-01,4.479715e-01
2.105621e+00,1.277985e+00,1.270056e+00,7,4,6.019318e-01,5.963108e-01
1.807400e+00,7.248090e-01,7.159710e-01,6,2,1.074310e+00,1.050149e+00
2.103359e+00,7.125370e-01,7.040501e-01,7,2,1.368444e+00,1.360777e+00
2.112860e+00,1.225488e+00,1.218081e+00,7,4,1.152286e+00,1.150426e+00
1.811978e+00,2.355172e+00,2.346992e+00,6,8,1.130883e+00,1.120980e+00
1.504678e+00,1.254314e+00,1.245975e+00,5,4,8.594203e-01,8.580525e-01
2.406791e+00,1.540560e+00,1.532078e+00,8,5,8.074697e-01,8.058677e-01
2.404818e+00,7.541910e-01,7.450581e-01,8,2,8.084600e-01,8.048952e-01
1.219656e+00,1.855144e+00,1.847029e+00,4,6,6.256708e-01,6.223015e-01
2.108348e+00,1.264822e+00,1.255989e+00,7,4,5.937867e-01,5.925000e-01
2.405057e+00,9.915500e-01,9.839535e-01,8,3,4.870175e-01,4.865958e-01
3.323883e+00,4.817160e-01,4.730225e-01,11,1,4.568664e-01,4.526668e-01
2.105314e+00,4.750450e-01,4.661083e-01,7,1,6.089232e-01,6.080374e-01
3.023520e+00,1.589235e+00,1.580000e+00,10,5,7.633080e-01,7.447311e-01
2.103333e+00,1.809661e+00,1.801014e+00,7,6,1.457745e+00,1.438458e+00
2.106197e+00,1.490255e+00,1.481056e+00,7,5,1.682180e+00,1.663335e+00
2.103521e+00,9.521480e-01,9.438992e-01,7,3,1.818862e+00,1.805076e+00
2.117958e+00,1.207175e+00,1.199961e+00,7,4,1.633803e+00,1.629898e+00
1.808281e+00,9.715170e-01,9.632111e-01,6,3,1.448860e+00,1.425890e+00
2.114011e+00,1.758060e+00,1.749039e+00,7,6,1.488161e+00,1.481969e+00
2.114211e+00,1.481786e+00,1.472950e+00,7,5,1.334373e+00,1.332149e+00
1.811580e+00,9.854090e-01,9.770393e-01,6,3,1.149122e+00,1.140690e+00
2.107194e+00,1.292135e+00,1.283884e+00,7,4,7.495191e-01,7.468644e-01
1.207085e+00,1.263722e+00,1.255035e+00,4,4,4.766353e-01,4.740073e-01
1.518658e+00,1.952000e-01,1.869202e-01,5,0,3.768448e-01,3.766378e-01
1.810828e+00,4.757210e-01,4.670620e-01,6,1,4.622158e-01,4.618557e-01
2.102861e+00,1.301945e+00,1.294136e+00,7,4,5.629589e-01,5.580542e-01
2.710844e+00,1.531776e+00,1.523018e+00,9,5,3.479012e-01,3.477383e-01
1.509430e+00,2.001750e-01,1.909733e-01,5,0,3.279950e-01,3.279607e-01
1.211176e+00,1.995770e-01,1.921654e-01,4,0,3.749791e-01,3.749720e-01
1.208104e+00,1.946030e-01,1.871586e-01,4,0,2.011183e-01,2.011132e-01
9.075470e-01,2.015970e-01,1.940727e-01,3,0,1.923656e-01,1.922617e-01
2.114397e+00,1.944100e-01,1.859665e-01,7,0,1.700847e-01,1.695474e-01
3.023181e+00,1.975980e-01,1.888275e-01,10,0,2.142743e-01,1.987123e-01
1.209329e+00,1.318837e+00,1.311064e+00,4,4,2.903649e-01,2.872464e-01
2.103811e+00,1.254697e+00,1.247168e+00,7,4,3.123824e-01,3.123189e-01
1.819348e+00,4.822850e-01,4.739761e-01,6,1,3.338004e-01,3.337074e-01
2.412885e+00,4.623770e-01,4.539490e-01,8,1,3.120881e-01,3.120538e-01
9.077230e-01,2.004930e-01,1.921654e-01,3,0,2.558678e-01,2.544500e-01
2.409985e+00,7.546890e-01,7.469654e-01,8,2,2.356174e-01,2.350582e-01
2.109963e+00,4.710460e-01,4.630089e-01,7,1,7.214291e-01,7.203987e-01
2.104197e+00,1.829055e+00,1.820087e+00,7,6,1.502764e+00,1.495514e+00
2.105069e+00,2.566068e+00,2.556801e+00,7,9,1.729469e+00,1.714451e+00
2.412231e+00,2.210609e+00,2.202034e+00,8,8,1.337322e+00,1.334937e+00
2.103213e+00,7.376150e-01,7.290840e-01,7,2,1.196061e+00,1.189189e+00
1.811896e+00,1.491726e+00,1.483202e+00,6,5,1.043852e+00,1.029926e+00
1.807193e+00,4.611790e-01,4.529953e-01,6,1,8.926788e-01,8.908036e-01
1.211183e+00,1.843307e+00,1.835108e+00,4,6,5.594868e-01,5.551563e-01
2.104997e+00,1.542378e+00,1.533985e+00,7,5,4.817632e-01,4.722343e-01
2.105683e+00,2.010916e+00,2.002001e+00,7,7,1.038868e+00,1.012644e+00
2.105300e+00,6.848440e-01,6.759167e-01,7,2,1.479335e+00,1.453464e+00
2.105208e+00,9.334900e-01,9.248257e-01,7,3,1.637251e+00,1.616095e+00
2.111341e+00,2.036373e+00,2.027988e+00,7,7,1.284801e+00,1.276395e+00
2.136620e+00,2.786804e+00,2.778053e+00,7,10,9.638071e-01,9.620962e-01
3.321758e+00,1.537369e+00,1.528025e+00,11,5,6.995810e-01,6.902320e-01
2.143607e+00,2.669158e+00,2.659798e+00,7,9,5.564190e-01,5.496697e-01
2.111997e+00,2.024267e+00,2.015829e+00,7,7,8.917770e-01,8.661649e-01
2.103484e+00,6.792450e-01,6.709099e-01,7,2,8.652136e-01,8.473407e-01
2.118719e+00,1.713592e+00,1.704931e+00,7,6,6.530342e-01,6.484634e-01
2.117840e+00,7.122180e-01,7.030964e-01,7,2,6.014803e-01,5.999630e-01
2.105717e+00,4.784750e-01,4.692078e-01,7,1,5.803715e-01,5.791076e-01
2.110234e+00,4.573240e-01,4.489422e-01,7,1,5.658131e-01,5.652001e-01
1.819111e+00,7.349840e-01,7.259846e-01,6,2,7.936358e-01,7.896896e-01
3.319900e+00,7.568410e-01,7.488728e-01,11,2,7.659146e-01,7.512273e-01
1.207937e+00,7.681710e-01,7.591248e-01,4,2,8.162035e-01,8.142604e-01
2.102919e+00,1.941680e-01,1.869202e-01,7,0,7.943738e-01,7.934142e-01
1.809870e+00,4.688640e-01,4.599094e-01,6,1,6.545106e-01,6.542052e-01
1.809466e+00,4.746220e-01,4.670620e-01,6,1,5.467923e-01,5.370859e-01
2.106036e+00,1.302268e+00,1.293898e+00,7,4,5.810540e-01,5.777620e-01
2.106486e+00,4.592280e-01,4.498959e-01,7,1,4.494188e-01,4.474272e-01
1.806622e+00,9.885630e-01,9.808540e-01,6,3,2.145064e-01,2.115445e-01
1.808050e+00,1.947730e-01,1.859665e-01,6,0,1.771878e-01,1.749879e-01
1.503214e+00,4.690800e-01,4.599094e-01,5,1,1.770093e-01,1.766940e-01
2.419475e+00,4.807840e-01,4.730225e-01,8,1,2.456397e-01,2.436801e-01
2.106808e+00,4.809490e-01,4.720688e-01,7,1,2.746528e-01,2.739580e-01
3.010751e+00,7.323290e-01,7.240772e-01,10,2,2.403102e-01,2.402578e-01
1.811001e+00,1.956600e-01,1.871586e-01,6,0,2.019120e-01,2.008182e-01
3.013327e+00,1.995090e-01,1.909733e-01,10,0,2.993344e-01,2.867133e-01
1.517102e+00,1.990690e-01,1.909733e-01,5,0,8.262276e-02,8.260164e-02
1.208841e+00,1.942650e-01,1.859665e-01,4,0,8.959004e-02,8.958915e-02
9.066960e-01,1.940630e-01,1.859665e-01,3,0,9.527385e-02,9.527095e-02
9.018100e-01,1.981810e-01,1.897812e-01,3,0,8.589974e-02,8.587990e-02
9.082920e-01,2.000450e-01,1.931190e-01,3,0,1.090435e-01,1.089984e-01
1.209227e+00,4.759150e-01,4.680157e-01,4,1,1.653169e-01,1.650956e-01
3.009159e+00,4.720540e-01,4.642010e-01,10,1,1.103131e-01,1.095354e-01
1.210265e+00,7.587010e-01,7.510185e-01,4,2,1.812325e-01,1.806349e-01
2.103672e+00,7.435550e-01,7.350445e-01,7,2,2.715773e-01,2.695564e-01
1.803036e+00,7.359810e-01,7.281303e-01,6,2,1.904912e-01,1.904257e-01
1.209869e+00,2.001570e-01,1.921654e-01,4,0,1.968426e-01,1.968355e-01
9.072980e-01,1.964180e-01,1.881123e-01,3,0,2.016294e-01,2.014107e-01
1.515286e+00,1.938010e-01,1.862049e-01,5,0,2.557243e-01,2.556222e-01
3.019211e+00,1.945460e-01,1.859665e-01,10,0,2.611164e-01,2.480521e-01
1.510723e+00,4.853080e-01,4.768372e-01,5,1,1.351991e-01,1.330035e-01
3.625750e+00,4.725490e-01,4.639626e-01,12,1,9.301774e-02,8.256823e-02
1.213261e+00,1.971530e-01,1.881123e-01,4,0,1.477639e-01,1.477515e-01
9.084770e-01,1.944920e-01,1.859665e-01,3,0,1.140333e-01,1.139856e-01
1.207521e+00,1.946730e-01,1.871586e-01,4,0,1.040794e-01,1.040790e-01
9.031790e-01,2.006570e-01,1.919270e-01,3,0,2.753313e-01,2.753264e-01
9.082780e-01,1.994410e-01,1.909733e-01,3,0,1.864261e-01,1.863736e-01
1.210182e+00,1.943430e-01,1.859665e-01,4,0,3.250659e-01,3.250658e-01
9.183860e-01,4.884580e-01,4.799366e-01,3,1,6.512525e-01,6.510757e-01
2.403901e+00,1.026150e+00,1.017094e+00,8,3,4.808956e-01,4.768917e-01
3.011671e+00,1.015215e+00,1.005888e+00,10,3,3.662997e-01,3.610584e-01
2.106652e+00,7.577910e-01,7.488728e-01,7,2,5.567555e-01,5.526908e-01
2.107218e+00,4.734440e-01,4.651546e-01,7,1,7.321457e-01,7.305597e-01
3.014322e+00,1.260956e+00,1.252890e+00,10,4,3.310922e-01,3.132383e-01
3.629542e+00,1.986220e-01,1.900196e-01,12,0,2.124809e-01,2.123167e-01
9.076870e-01,4.818340e-01,4.739761e-01,3,1,2.771797e-01,2.751486e-01
2.105686e+00,4.673670e-01,4.589558e-01,7,1,9.515086e-02,9.481583e-02
3.627026e+00,1.993380e-01,1.909733e-01,12,0,6.946102e-02,6.687725e-02
1.516433e+00,2.008250e-01,1.919270e-01,5,0,1.412212e-01,1.409541e-01
1.208660e+00,1.940040e-01,1.862049e-01,4,0,1.659885e-01,1.658721e-01
1.207841e+00,4.852100e-01,4.770756e-01,4,1,2.056798e-01,2.053001e-01
2.107946e+00,1.029488e+00,1.020908e+00,7,3,4.147845e-01,4.125048e-01
1.808872e+00,9.963790e-01,9.880066e-01,6,3,2.826572e-01,2.791826e-01
3.332458e+00,4.602530e-01,4.520416e-01,11,1,2.838567e-01,2.837030e-01
1.210009e+00,1.966940e-01,1.881123e-01,4,0,2.588192e-01,2.587125e-01
1.214283e+00,2.126370e-01,2.050400e-01,4,0,2.221341e-01,2.220913e-01
1.207914e+00,1.946450e-01,1.869202e-01,4,0,2.583836e-01,2.580315e-01
1.809518e+00,1.948250e-01,1.869202e-01,6,0,3.398606e-01,3.398269e-01
3.341134e+00,1.969680e-01,1.878738e-01,11,0,2.488514e-01,2.429992e-01
1.811632e+00,4.797740e-01,4.711151e-01,6,1,2.648474e-01,2.588277e-01
2.106003e+00,7.622430e-01,7.538795e-01,7,2,2.896106e-01,2.885607e-01
2.107372e+00,4.711010e-01,4.620552e-01,7,1,3.123815e-01,3.109779e-01
1.807618e+00,1.984240e-01,1.900196e-01,6,0,4.041198e-01,3.978657e-01
1.810393e+00,1.019197e+00,1.010895e+00,6,3,2.166943e-01,2.162705e-01
1.207067e+00,1.576403e+00,1.569033e+00,4,5,1.930834e-01,1.901271e-01
2.103730e+00,4.698960e-01,4.620552e-01,7,1,2.130280e-01,2.120154e-01
2.102196e+00,4.693900e-01,4.618168e-01,7,1,2.126457e-01,2.120758e-01
1.205615e+00,1.014763e+00,1.006126e+00,4,3,1.877340e-01,1.854607e-01
1.208788e+00,1.575361e+00,1.567125e+00,4,5,6.521964e-01,6.462198e-01
2.110952e+00,1.555431e+00,1.547098e+00,7,5,4.260274e-01,4.246392e-01
1.510596e+00,7.266460e-01,7.181168e-01,5,2,4.032898e-01,4.011373e-01
2.104960e+00,4.605540e-01,4.520416e-01,7,1,3.449904e-01,3.446025e-01
2.404096e+00,1.318966e+00,1.310110e+00,8,4,3.327480e-01,3.308273e-01
1.809867e+00,7.317310e-01,7.231236e-01,6,2,2.490546e-01,2.432559e-01
2.707366e+00,4.660570e-01,4.570484e-01,9,1,3.666755e-01,3.656160e-01
1.807201e+00,1.941920e-01,1.871586e-01,6,0,4.060637e-01,4.034981e-01
3.311879e+00,4.803890e-01,4.720688e-01,11,1,3.560348e-01,3.455373e-01
1.207451e+00,7.652700e-01,7.569790e-01,4,2,3.534055e-01,3.508985e-01
1.806722e+00,4.749480e-01,4.670620e-01,6,1,2.789503e-01,2.762723e-01
2.418001e+00,7.606220e-01,7.519722e-01,8,2,2.305356e-01,2.292912e-01
3.011841e+00,1.026994e+00,1.019001e+00,10,3,2.016299e-01,2.014021e-01
1.809622e+00,7.288230e-01,7.200241e-01,6,2,1.773858e-01,1.769485e-01
3.615499e+00,4.815600e-01,4.730225e-01,12,1,1.560549e-01,1.483150e-01
1.508495e+00,7.539060e-01,7.450581e-01,5,2,1.683711e-01,1.672875e-01
1.206034e+00,4.681910e-01,4.601479e-01,4,1,1.477023e-01,1.469476e-01
1.547007e+00,4.791170e-01,4.711151e-01,5,1,2.180130e-01,2.170084e-01
1.205978e+00,4.705280e-01,4.611015e-01,4,1,1.892437e-01,1.872420e-01
3.317809e+00,1.947930e-01,1.871586e-01,11,0,2.373933e-01,2.369613e-01
3.322165e+00,1.996420e-01,1.909733e-01,11,0,3.033306e-01,2.974964e-01
9.079070e-01,2.065910e-01,1.978874e-01,3,0,2.374049e-01,2.368398e-01
1.215154e+00,1.857714e+00,1.850128e+00,4,6,4.765344e-01,4.718489e-01
2.103136e+00,1.790681e+00,1.781940e+00,7,6,1.006299e+00,9.948666e-01
2.106786e+00,1.977506e+00,1.969099e+00,7,7,7.540732e-01,7.509155e-01
1.813362e+00,9.886840e-01,9.801388e-01,6,3,5.334258e-01,5.283176e-01
3.014611e+00,1.846026e+00,1.837969e+00,10,6,4.636879e-01,4.564260e-01
1.511655e+00,7.261930e-01,7.178783e-01,5,2,4.459177e-01,4.455223e-01
2.106618e+00,1.020793e+00,1.013041e+00,7,3,3.581449e-01,3.562094e-01
2.103504e+00,1.009249e+00,9.999275e-01,7,3,3.063129e-01,3.057208e-01
1.206184e+00,7.543840e-01,7.460117e-01,4,2,2.640877e-01,2.624960e-01
2.103284e+00,1.289077e+00,1.281023e+00,7,4,2.762172e-01,2.722548e-01
2.106676e+00,7.319090e-01,7.240772e-01,7,2,2.343480e-01,2.339316e-01
1.215095e+00,1.855949e+00,1.847029e+00,4,6,2.921664e-01,2.890180e-01
2.113297e+00,9.993740e-01,9.908676e-01,7,3,3.858397e-01,3.794178e-01
2.106025e+00,2.012878e+00,2.003908e+00,7,7,2.862103e-01,2.829058e-01
1.505849e+00,7.317940e-01,7.221699e-01,5,2,1.112340e-01,1.110252e-01
3.013170e+00,2.020260e-01,1.940727e-01,10,0,8.087349e-02,6.229725e-02
1.507968e+00,1.959010e-01,1.869202e-01,5,0,1.102481e-01,1.092790e-01
1.503900e+00,2.013140e-01,1.928806e-01,5,0,1.596392e-01,1.596241e-01
1.235997e+00,1.944420e-01,1.869202e-01,4,0,2.195406e-01,2.194729e-01
9.079850e-01,1.979650e-01,1.900196e-01,3,0,1.190013e-01,1.187470e-01
1.209862e+00,4.750740e-01,4.670620e-01,4,1,1.564700e-01,1.564117e-01
1.804710e+00,4.667870e-01,4.580021e-01,6,1,2.016260e-01,2.001411e-01
3.005859e+00,1.971330e-01,1.890659e-01,10,0,2.254217e-01,2.204976e-01
1.215240e+00,1.993560e-01,1.909733e-01,4,0,3.813156e-01,3.813081e-01
1.210174e+00,1.944890e-01,1.862049e-01,4,0,2.250559e-01,2.250555e-01
9.076460e-01,1.948530e-01,1.869202e-01,3,0,2.012352e-01,2.012332e-01
1.211173e+00,1.857476e+00,1.849174e+00,4,6,5.907271e-01,5.884163e-01
2.112167e+00,9.801060e-01,9.720325e-01,7,3,6.957444e-01,6.946241e-01
3.011736e+00,9.941940e-01,9.849072e-01,10,3,2.855090e-01,2.851924e-01
1.235603e+00,2.061260e-01,1.971722e-01,4,0,3.346020e-01,3.345970e-01
9.069770e-01,1.957240e-01,1.871586e-01,3,0,3.081474e-01,3.072256e-01
1.829829e+00,4.928340e-01,4.849434e-01,6,1,2.942184e-01,2.931211e-01
3.622298e+00,4.681260e-01,4.601479e-01,12,1,1.521615e-01,1.429645e-01
1.210108e+00,1.995310e-01,1.909733e-01,4,0,1.017242e-01,1.010139e-01
3.326309e+00,4.840560e-01,4.758835e-01,11,1,1.923299e-01,1.918960e-01
3.011806e+00,7.595650e-01,7.507801e-01,10,2,2.204634e-01,2.202758e-01
2.404345e+00,7.565740e-01,7.488728e-01,8,2,3.501653e-01,3.492747e-01
1.205759e+00,4.688720e-01,4.599094e-01,4,1,1.992684e-01,1.986061e-01
1.236558e+00,5.029470e-01,4.949570e-01,4,1,1.605424e-01,1.597532e-01
1.553774e+00,7.736900e-01,7.648468e-01,5,2,2.188127e-01,2.115771e-01
2.167399e+00,1.046674e+00,1.036882e+00,7,3,3.193709e-01,3.151738e-01
2.174708e+00,2.030280e-01,1.940727e-01,7,0,3.479731e-01,3.473924e-01
2.164349e+00,1.062050e+00,1.051903e+00,7,3,3.654560e-01,3.645885e-01
3.100040e+00,7.887020e-01,7.791519e-01,10,2,3.232017e-01,3.228694e-01
1.971938e+00,5.004340e-01,4.918575e-01,6,1,4.656568e-01,4.631446e-01
3.658403e+00,7.477860e-01,7.381439e-01,12,2,2.498518e-01,2.371630e-01
2.742710e+00,2.064740e-01,1.969337e-01,9,0,2.402500e-01,2.399638e-01
1.215122e+00,2.409412e+00,2.399921e+00,4,8,3.895156e-01,3.836434e-01
2.111252e+00,1.760721e+00,1.752138e+00,7,6,2.199818e-01,2.195946e-01
1.804223e+00,1.051464e+00,1.041889e+00,6,3,2.624533e-01,2.587346e-01
1.209959e+00,4.654930e-01,4.570484e-01,4,1,2.095916e-01,2.088436e-01
3.030694e+00,1.986460e-01,1.897812e-01,10,0,1.062634e-01,9.568690e-02
9.076230e-01,2.021110e-01,1.940727e-01,3,0,1.046464e-01,1.041743e-01
2.417344e+00,1.950920e-01,1.869202e-01,8,0,1.419212e-01,1.383686e-01
3.023252e+00,4.805940e-01,4.730225e-01,10,1,1.333909e-01,1.226770e-01
2.104545e+00,1.029732e+00,1.021147e+00,7,3,4.159761e-01,4.100876e-01
2.109285e+00,1.003804e+00,9.949207e-01,7,3,2.212721e-01,2.205185e-01
1.206002e+00,1.006276e+00,9.970665e-01,4,3,1.437978e-01,1.434779e-01
3.028402e+00,1.991460e-01,1.909733e-01,10,0,1.514831e-01,1.493171e-01
1.503184e+00,2.000130e-01,1.909733e-01,5,0,2.457511e-01,2.456126e-01
3.019344e+00,2.007160e-01,1.931190e-01,10,0,4.031574e-01,3.925419e-01
1.208314e+00,7.555190e-01,7.479191e-01,4,2,5.186103e-01,5.178008e-01
1.206704e+00,2.394187e+00,2.386093e+00,4,8,6.269317e-01,6.208352e-01
2.103161e+00,1.269274e+00,1.259804e+00,7,4,7.533352e-01,7.445265e-01
2.107752e+00,2.520572e+00,2.513170e+00,7,9,3.499989e-01,3.494264e-01
1.207733e+00,4.702270e-01,4.599094e-01,4,1,2.953332e-01,2.948481e-01
3.019833e+00,1.945360e-01,1.869202e-01,10,0,1.670981e-01,1.615883e-01
1.210494e+00,2.032600e-01,1.950264e-01,4,0,1.500967e-01,1.494771e-01
1.809349e+00,1.857130e+00,1.849174e+00,6,6,2.909719e-01,2.768476e-01
2.108011e+00,9.808140e-01,9.720325e-01,7,3,3.549743e-01,3.543325e-01
2.108792e+00,4.737480e-01,4.661083e-01,7,1,3.791942e-01,3.774079e-01
2.133566e+00,1.272922e+00,1.265049e+00,7,4,3.066959e-01,3.061251e-01
2.147916e+00,4.629910e-01,4.541874e-01,7,1,3.095643e-01,3.094024e-01
2.130751e+00,1.065570e+00,1.057148e+00,7,3,3.951608e-01,3.932679e-01
1.829779e+00,7.395080e-01,7.300377e-01,6,2,4.399421e-01,4.341568e-01
1.860918e+00,7.552470e-01,7.469654e-01,6,2,3.642865e-01,3.641117e-01
2.165356e+00,2.048580e-01,1.959801e-01,7,0,3.285301e-01,3.273283e-01
1.575413e+00,7.577260e-01,7.500648e-01,5,2,3.895569e-01,3.890673e-01
1.210264e+00,7.393720e-01,7.300377e-01,4,2,2.183943e-01,2.178000e-01
1.539668e+00,1.958020e-01,1.881123e-01,5,0,1.848807e-01,1.847966e-01
1.515994e+00,4.788820e-01,4.708767e-01,5,1,3.233375e-01,3.229864e-01
1.205888e+00,1.026353e+00,1.018047e+00,4,3,4.299483e-01,4.235857e-01
2.104159e+00,4.783620e-01,4.699230e-01,7,1,5.790378e-01,5.772584e-01
3.315795e+00,9.953760e-01,9.880066e-01,11,3,2.417297e-01,2.241573e-01
1.804318e+00,4.823900e-01,4.739761e-01,6,1,2.296443e-01,2.293244e-01
2.101428e+00,4.781070e-01,4.689693e-01,7,1,2.694228e-01,2.679816e-01
2.106930e+00,1.296702e+00,1.287937e+00,7,4,3.096428e-01,3.057942e-01
1.809348e+00,7.271790e-01,7.188320e-01,6,2,2.989579e-01,2.985830e-01
1.501420e+00,4.813570e-01,4.739761e-01,5,1,3.259484e-01,3.242729e-01
2.103872e+00,4.832470e-01,4.751682e-01,7,1,2.486606e-01,2.481724e-01
1.814265e+00,4.687460e-01,4.608631e-01,6,1,1.794652e-01,1.785346e-01

