6.303010e-01,1.373132e+00,9.250641e-01,2,0,0.000000e+00,0.000000e+00
9.047660e-01,2.179930e-01,2.038479e-01,3,0,5.737493e-02,5.737445e-02
9.308870e-01,1.937370e-01,1.850128e-01,3,0,7.713409e-02,7.712919e-02
1.208291e+00,1.938860e-01,1.850128e-01,4,0,1.672352e-01,1.671555e-01
2.430504e+00,2.130460e-01,2.050400e-01,8,0,1.297263e-01,1.294919e-01
9.097070e-01,1.085986e+00,1.076937e+00,3,3,3.471960e-01,3.424269e-01
2.121877e+00,7.568590e-01,7.488728e-01,7,2,4.431320e-01,4.407909e-01
2.099877e+00,4.542350e-01,4.458427e-01,7,1,5.547547e-01,5.534083e-01
3.312231e+00,1.251500e+00,1.242161e+00,11,4,2.799205e-01,2.798419e-01
2.118386e+00,2.012100e-01,1.931190e-01,7,0,3.088413e-01,3.084835e-01
1.503813e+00,1.969180e-01,1.881123e-01,5,0,2.200582e-01,2.192518e-01
1.508354e+00,7.536040e-01,7.448196e-01,5,2,2.163806e-01,2.161326e-01
2.097293e+00,4.719940e-01,4.639626e-01,7,1,3.471410e-01,3.462646e-01
2.093286e+00,1.542230e+00,1.533985e+00,7,5,5.298650e-01,5.284501e-01
2.395406e+00,7.260110e-01,7.181168e-01,8,2,4.158074e-01,4.144090e-01
1.201045e+00,1.030215e+00,1.022100e+00,4,3,6.266664e-01,6.256841e-01
1.803550e+00,7.216300e-01,7.140636e-01,6,2,5.419134e-01,5.400492e-01
1.199246e+00,4.572340e-01,4.489422e-01,4,1,4.534858e-01,4.494978e-01
1.804276e+00,4.736330e-01,4.649162e-01,6,1,4.742611e-01,4.730599e-01
1.201816e+00,7.399310e-01,7.319450e-01,4,2,5.567996e-01,5.551616e-01
2.095169e+00,1.289551e+00,1.281023e+00,7,4,5.713705e-01,5.672842e-01
1.796288e+00,9.830890e-01,9.708405e-01,6,3,5.003127e-01,5.001861e-01
1.206386e+00,7.655340e-01,7.569790e-01,4,2,4.085289e-01,4.071806e-01
1.505844e+00,1.004966e+00,9.970665e-01,5,3,5.117739e-01,5.107529e-01
2.092105e+00,1.930530e-01,1.850128e-01,7,0,5.308164e-01,5.300868e-01
1.803591e+00,4.778250e-01,4.699230e-01,6,1,5.102062e-01,5.074546e-01
3.304119e+00,1.003767e+00,9.949207e-01,11,3,4.066953e-01,4.007063e-01
2.099028e+00,1.028524e+00,1.019955e+00,7,3,3.058074e-01,3.052451e-01
2.996647e+00,7.269300e-01,7.190704e-01,10,2,2.410290e-01,2.304230e-01
2.403471e+00,1.992400e-01,1.909733e-01,8,0,1.792918e-01,1.787038e-01
9.047240e-01,7.554020e-01,7.469654e-01,3,2,3.064416e-01,3.025880e-01
2.998683e+00,7.262380e-01,7.178783e-01,10,2,3.365289e-01,3.364940e-01
3.633167e+00,2.009120e-01,1.919270e-01,12,0,2.707143e-01,2.615042e-01
1.795692e+00,1.588549e+00,1.580000e+00,6,5,3.165992e-01,3.151958e-01
2.094311e+00,7.251140e-01,7.159710e-01,7,2,1.681918e-01,1.674452e-01
2.094221e+00,7.244590e-01,7.159710e-01,7,2,1.141365e-01,1.141133e-01
2.394668e+00,7.408670e-01,7.328987e-01,8,2,2.185850e-01,2.145634e-01
2.094860e+00,4.716190e-01,4.630089e-01,7,1,2.388934e-01,2.382808e-01
1.202994e+00,1.301804e+00,1.293898e+00,4,4,3.840541e-01,3.808072e-01
2.095490e+00,9.972330e-01,9.891987e-01,7,3,3.232648e-01,3.224898e-01
2.094558e+00,1.295308e+00,1.278877e+00,7,4,5.459700e-01,5.419527e-01
2.100127e+00,9.860820e-01,9.748936e-01,7,3,6.442485e-01,6.419667e-01
1.801632e+00,1.497476e+00,1.488924e+00,6,5,4.335105e-01,4.321034e-01
2.096137e+00,7.335470e-01,7.250309e-01,7,2,5.756527e-01,5.749676e-01
1.801454e+00,4.729680e-01,4.558563e-01,6,1,4.938082e-01,4.935191e-01
1.203882e+00,7.550160e-01,7.472038e-01,4,2,4.307304e-01,4.296515e-01
2.093025e+00,7.342540e-01,7.259846e-01,7,2,3.841139e-01,3.835805e-01
1.500359e+00,1.969750e-01,1.888275e-01,5,0,3.330077e-01,3.329618e-01
1.204619e+00,1.982000e-01,1.897812e-01,4,0,2.229824e-01,2.229347e-01
1.203779e+00,1.941200e-01,1.859665e-01,4,0,6.849945e-02,6.847762e-02
9.040160e-01,4.766230e-01,4.680157e-01,3,1,1.600098e-01,1.594665e-01
1.200857e+00,7.371800e-01,7.288456e-01,4,2,2.997925e-01,2.975927e-01
2.091807e+00,4.645380e-01,4.560947e-01,7,1,2.612119e-01,2.609442e-01
2.102258e+00,1.984030e-01,1.909733e-01,7,0,2.128877e-01,2.122338e-01
2.997191e+00,7.524120e-01,7.441044e-01,10,2,1.979364e-01,1.954148e-01
2.098356e+00,7.458950e-01,7.379055e-01,7,2,2.653136e-01,2.634740e-01
1.799538e+00,9.823720e-01,9.748936e-01,6,3,1.324386e-01,1.321002e-01
2.093683e+00,4.635360e-01,4.549026e-01,7,1,1.497035e-01,1.492207e-01
1.496036e+00,7.681500e-01,7.519722e-01,5,2,2.271452e-01,2.240296e-01
2.093186e+00,1.020500e+00,1.012802e+00,7,3,3.159123e-01,3.146218e-01
1.202248e+00,2.363909e+00,2.356052e+00,4,8,2.182067e-01,2.145053e-01
2.097062e+00,2.059137e+00,2.051115e+00,7,7,6.235645e-01,6.108426e-01
2.094962e+00,7.064270e-01,6.968975e-01,7,2,1.268572e+00,1.252604e+00
2.097335e+00,2.218657e+00,2.210140e+00,7,8,6.277765e-01,6.253820e-01
2.094824e+00,4.633220e-01,4.549026e-01,7,1,7.146818e-01,7.134268e-01
1.504560e+00,2.117642e+00,2.110004e+00,5,7,3.563405e-01,3.560672e-01
1.800817e+00,9.829330e-01,9.741783e-01,6,3,3.283142e-01,3.244346e-01
3.299732e+00,4.590960e-01,4.510880e-01,11,1,1.942738e-01,1.903317e-01
1.506440e+00,1.037286e+00,1.028061e+00,5,3,2.068945e-01,2.061222e-01
2.997871e+00,9.904930e-01,9.829998e-01,10,3,1.097240e-01,1.097209e-01
9.051910e-01,1.945420e-01,1.869202e-01,3,0,2.469395e-01,2.469350e-01
9.037410e-01,1.941740e-01,1.859665e-01,3,0,3.097159e-01,3.096517e-01
1.202441e+00,1.938220e-01,1.859665e-01,4,0,3.587313e-01,3.587115e-01
9.054250e-01,4.733030e-01,4.658699e-01,3,1,4.158126e-01,4.139113e-01
2.095215e+00,7.519520e-01,7.438660e-01,7,2,5.429106e-01,5.408831e-01
2.096801e+00,1.289889e+00,1.281977e+00,7,4,5.833962e-01,5.808474e-01
1.199559e+00,1.508070e+00,1.499891e+00,4,5,4.433233e-01,4.414781e-01
2.105465e+00,4.794850e-01,4.720688e-01,7,1,3.704991e-01,3.682730e-01
1.501927e+00,1.022063e+00,1.013994e+00,5,3,3.610844e-01,3.605810e-01
1.798219e+00,7.247200e-01,7.169247e-01,6,2,1.542869e-01,1.532949e-01
2.095031e+00,2.115914e+00,2.107143e+00,7,7,5.925152e-01,5.855062e-01
1.801638e+00,1.499060e+00,1.491070e+00,6,5,4.515226e-01,4.466588e-01
2.102603e+00,7.267900e-01,7.188320e-01,7,2,3.026628e-01,3.018818e-01
1.505637e+00,1.934000e-01,1.859665e-01,5,0,4.542055e-01,4.530288e-01
1.205565e+00,3.173371e+00,3.165007e+00,4,11,6.291894e-01,6.213259e-01
2.100056e+00,7.126020e-01,7.040501e-01,7,2,1.023501e+00,1.006860e+00
2.094219e+00,6.826000e-01,6.740093e-01,7,2,1.551880e+00,1.535245e+00
2.094374e+00,4.573450e-01,4.498959e-01,7,1,2.173560e+00,2.155616e+00
2.097630e+00,1.716907e+00,1.708984e+00,7,6,1.713019e+00,1.708448e+00
2.096074e+00,2.050539e+00,2.043009e+00,7,7,1.136006e+00,1.135107e+00
2.095810e+00,1.578578e+00,1.569986e+00,7,5,7.133485e-01,7.076841e-01
2.097833e+00,1.774326e+00,1.765966e+00,7,6,3.996726e-01,3.965662e-01
1.804532e+00,3.702630e+00,3.693819e+00,6,13,6.741340e-01,6.587456e-01
2.095059e+00,1.957764e+00,1.949072e+00,7,7,4.482886e-01,4.439604e-01
2.096050e+00,1.268446e+00,1.260042e+00,7,4,5.649969e-01,5.561155e-01
2.092521e+00,7.029260e-01,6.949902e-01,7,2,6.490790e-01,6.426599e-01
3.310674e+00,2.010308e+00,2.002001e+00,11,7,3.617362e-01,3.585183e-01
1.800129e+00,1.976950e-01,1.900196e-01,6,0,2.221835e-01,2.214593e-01
1.793807e+00,4.783570e-01,4.708767e-01,6,1,3.695441e-01,3.632934e-01
2.996603e+00,7.328220e-01,7.247925e-01,10,2,3.299485e-01,3.294713e-01
1.802601e+00,7.648840e-01,7.560253e-01,6,2,2.421277e-01,2.416285e-01
1.795221e+00,7.419610e-01,7.338524e-01,6,2,2.696756e-01,2.656385e-01
3.007164e+00,7.316440e-01,7.228851e-01,10,2,1.426055e-01,1.340473e-01
1.808005e+00,1.972990e-01,1.897812e-01,6,0,1.023563e-01,1.022581e-01
1.204054e+00,4.809490e-01,4.730225e-01,4,1,9.681854e-02,9.525643e-02
1.201641e+00,7.471000e-01,7.390976e-01,4,2,2.545105e-01,2.533411e-01
1.202109e+00,7.458060e-01,7.369518e-01,4,2,3.310663e-01,3.292589e-01
1.801693e+00,1.964710e-01,1.878738e-01,6,0,2.875685e-01,2.849658e-01
3.306173e+00,4.744400e-01,4.661083e-01,11,1,1.901592e-01,1.900526e-01
1.510089e+00,2.003230e-01,1.919270e-01,5,0,1.689931e-01,1.678764e-01
3.301234e+00,1.968820e-01,1.890659e-01,11,0,1.804218e-01,1.800845e-01
1.497877e+00,4.809300e-01,4.730225e-01,5,1,2.442586e-01,2.433881e-01
2.994443e+00,4.666670e-01,4.589558e-01,10,1,1.756804e-01,1.731179e-01
1.497600e+00,7.576490e-01,7.500648e-01,5,2,2.539155e-01,2.535611e-01
3.296939e+00,7.284970e-01,7.200241e-01,11,2,1.128788e-01,1.045928e-01
1.795598e+00,4.807720e-01,4.730225e-01,6,1,9.569289e-02,9.551291e-02
2.098722e+00,7.544700e-01,7.469654e-01,7,2,2.485970e-01,2.472344e-01
1.797974e+00,9.930150e-01,9.839535e-01,6,3,1.400856e-01,1.387628e-01
2.095618e+00,1.580523e+00,1.572132e+00,7,5,4.466043e-01,4.409251e-01
1.200771e+00,1.242803e+00,1.235008e+00,4,4,3.946695e-01,3.935313e-01
3.000979e+00,1.304279e+00,1.296043e+00,10,4,5.794993e-01,5.686846e-01
2.102461e+00,1.025536e+00,1.008034e+00,7,3,8.423069e-01,8.405519e-01
1.800957e+00,7.270220e-01,7.178783e-01,6,2,7.328405e-01,7.216242e-01
2.397882e+00,1.552895e+00,1.544952e+00,8,5,6.540523e-01,6.453947e-01
2.095627e+00,1.283897e+00,1.276016e+00,7,4,9.159077e-01,9.119409e-01
2.105883e+00,2.041767e+00,2.032995e+00,7,7,6.940349e-01,6.925694e-01
2.096514e+00,1.254520e+00,1.245975e+00,7,4,4.626355e-01,4.566343e-01
1.500692e+00,1.998650e-01,1.919270e-01,5,0,3.215240e-01,3.213650e-01
1.511249e+00,7.582460e-01,7.510185e-01,5,2,2.337522e-01,2.323671e-01
2.994761e+00,7.292010e-01,7.188320e-01,10,2,2.076032e-01,1.964243e-01
1.503262e+00,2.040600e-01,1.959801e-01,5,0,2.269863e-01,2.262318e-01
1.204040e+00,7.595120e-01,7.519722e-01,4,2,2.681206e-01,2.671226e-01
1.199699e+00,7.319300e-01,7.240772e-01,4,2,1.714926e-01,1.692821e-01
3.600766e+00,1.939740e-01,1.859665e-01,12,0,1.590959e-01,1.518628e-01
1.204198e+00,1.991460e-01,1.909733e-01,4,0,1.175146e-01,1.175135e-01
9.053410e-01,4.793960e-01,4.711151e-01,3,1,3.009985e-01,3.007595e-01
1.501099e+00,4.637680e-01,4.558563e-01,5,1,3.626721e-01,3.624845e-01
1.202421e+00,1.943210e-01,1.862049e-01,4,0,2.834089e-01,2.830601e-01
3.314683e+00,4.824630e-01,4.739761e-01,11,1,3.298158e-01,3.252203e-01
2.399829e+00,4.704740e-01,4.627705e-01,8,1,2.696091e-01,2.519416e-01
1.807061e+00,7.668370e-01,7.588863e-01,6,2,3.580005e-01,3.485929e-01
2.093410e+00,4.797610e-01,4.642010e-01,7,1,5.145085e-01,5.124470e-01
1.803086e+00,4.634300e-01,4.551411e-01,6,1,7.476942e-01,7.438330e-01
3.000588e+00,1.287008e+00,1.278877e+00,10,4,7.477475e-01,7.406820e-01
2.094638e+00,1.855618e+00,1.847029e+00,7,6,6.306868e-01,6.234574e-01
2.092991e+00,7.241750e-01,7.159710e-01,7,2,5.554365e-01,5.537716e-01
1.800052e+00,7.409230e-01,7.259846e-01,6,2,4.596609e-01,4.555275e-01
1.201035e+00,1.032352e+00,1.024008e+00,4,3,5.188736e-01,5.160525e-01
2.097362e+00,1.553495e+00,1.544952e+00,7,5,5.296789e-01,5.223947e-01
2.092712e+00,7.141770e-01,7.061958e-01,7,2,5.593850e-01,5.527412e-01
3.000726e+00,1.747090e+00,1.739025e+00,10,6,3.645690e-01,3.634562e-01
1.499890e+00,4.705540e-01,4.618168e-01,5,1,3.466408e-01,3.462264e-01
1.499569e+00,4.895970e-01,4.808903e-01,5,1,2.758302e-01,2.754026e-01
1.797371e+00,1.970750e-01,1.900196e-01,6,0,2.413937e-01,2.409290e-01
2.695036e+00,1.937710e-01,1.859665e-01,9,0,1.852933e-01,1.691288e-01
1.205202e+00,4.833290e-01,4.749298e-01,4,1,2.557966e-01,2.547923e-01
2.094446e+00,4.729130e-01,4.649162e-01,7,1,5.348779e-01,5.333197e-01
2.097158e+00,4.704360e-01,4.541874e-01,7,1,4.404449e-01,4.393613e-01
1.209995e+00,4.723500e-01,4.630089e-01,4,1,4.771535e-01,4.748858e-01
1.808447e+00,1.034101e+00,1.025915e+00,6,3,5.125120e-01,5.108805e-01
2.093769e+00,9.973230e-01,9.889603e-01,7,3,2.359879e-01,2.317573e-01
1.509317e+00,1.948140e-01,1.869202e-01,5,0,1.762050e-01,1.757451e-01
1.503880e+00,7.597980e-01,7.519722e-01,5,2,1.229145e-01,1.210135e-01
3.599718e+00,7.300930e-01,7.221699e-01,12,2,8.449439e-02,7.411789e-02
1.807818e+00,2.006180e-01,1.928806e-01,6,0,8.636724e-02,8.636268e-02
9.053760e-01,1.946200e-01,1.859665e-01,3,0,1.648777e-01,1.648339e-01
1.203883e+00,1.935850e-01,1.859665e-01,4,0,1.235221e-01,1.233913e-01
1.204510e+00,1.037733e+00,1.029015e+00,4,3,4.499976e-01,4.469743e-01
3.009908e+00,9.888030e-01,9.810925e-01,10,3,5.216452e-01,5.151001e-01
1.502810e+00,2.023510e-01,1.940727e-01,5,0,3.107967e-01,3.095675e-01
1.800846e+00,1.956620e-01,1.881123e-01,6,0,3.002745e-01,3.002389e-01
1.202769e+00,1.944380e-01,1.859665e-01,4,0,2.656686e-01,2.652948e-01
1.797717e+00,1.942940e-01,1.871586e-01,6,0,2.133355e-01,2.131557e-01
1.506079e+00,1.948590e-01,1.871586e-01,5,0,2.015259e-01,2.014555e-01
1.202204e+00,1.034767e+00,1.026869e+00,4,3,2.473948e-01,2.456024e-01
1.799171e+00,9.906060e-01,9.829998e-01,6,3,2.097334e-01,2.088060e-01
2.997158e+00,1.953650e-01,1.869202e-01,10,0,1.663839e-01,1.661761e-01
9.047030e-01,4.740550e-01,4.658699e-01,3,1,3.119959e-01,3.086443e-01
2.997816e+00,4.671750e-01,4.589558e-01,10,1,4.368679e-01,4.254960e-01
1.797531e+00,7.600560e-01,7.519722e-01,6,2,5.699531e-01,5.696691e-01
1.504456e+00,1.008628e+00,1.000166e+00,5,3,7.210469e-01,7.203739e-01
1.201058e+00,1.022355e+00,1.012802e+00,4,3,6.676238e-01,6.625823e-01
2.098642e+00,1.930540e-01,1.850128e-01,7,0,6.749179e-01,6.729495e-01
3.000266e+00,1.289809e+00,1.282215e+00,10,4,5.065519e-01,5.032454e-01
2.094042e+00,1.849429e+00,1.841068e+00,7,6,3.588011e-01,3.544386e-01
2.096813e+00,4.599520e-01,4.520416e-01,7,1,4.235803e-01,4.227530e-01
2.097731e+00,7.411010e-01,7.331371e-01,7,2,5.233825e-01,5.212561e-01
2.105328e+00,9.779010e-01,9.701252e-01,7,3,6.248567e-01,6.242015e-01
2.097092e+00,1.296969e+00,1.288891e+00,7,4,4.371322e-01,4.355932e-01
2.096506e+00,7.570480e-01,7.488728e-01,7,2,4.201438e-01,4.159652e-01
2.095338e+00,1.820889e+00,1.813173e+00,7,6,4.075154e-01,4.026595e-01
2.394405e+00,1.752415e+00,1.743793e+00,8,6,2.373300e-01,2.357903e-01
3.001982e+00,1.288407e+00,1.279831e+00,10,4,4.190861e-01,4.168869e-01
1.801565e+00,7.458900e-01,7.381439e-01,6,2,3.636595e-01,3.587906e-01
1.798578e+00,7.284120e-01,7.197857e-01,6,2,2.608969e-01,2.570246e-01
1.199074e+00,4.803600e-01,4.720688e-01,4,1,2.344945e-01,2.317312e-01
1.202885e+00,1.851388e+00,1.842976e+00,4,6,4.746475e-01,4.674496e-01
2.092756e+00,1.002922e+00,9.939671e-01,7,3,9.213043e-01,9.107130e-01
2.094251e+00,4.536190e-01,4.451275e-01,7,1,8.076730e-01,8.006125e-01
2.097371e+00,7.106010e-01,7.021427e-01,7,2,7.781777e-01,7.746060e-01
2.103876e+00,4.670650e-01,4.510880e-01,7,1,9.613227e-01,9.592900e-01
2.103990e+00,1.846627e+00,1.837969e+00,7,6,1.520191e+00,1.515878e+00
1.201670e+00,2.029039e+00,2.018929e+00,4,7,7.989548e-01,7.903846e-01
2.095659e+00,1.275251e+00,1.267195e+00,7,4,8.798816e-01,8.775203e-01
1.497022e+00,2.104381e+00,2.096176e+00,5,7,7.186614e-01,7.170470e-01
2.096809e+00,7.419380e-01,7.338524e-01,7,2,7.120139e-01,7.070854e-01
2.396518e+00,2.065167e+00,2.048969e+00,8,7,2.970842e-01,2.949304e-01
1.503031e+00,1.858786e+00,1.849890e+00,5,6,6.012802e-01,5.988640e-01
1.802797e+00,1.250022e+00,1.241922e+00,6,4,3.919148e-01,3.886870e-01
2.121680e+00,1.032122e+00,1.024008e+00,7,3,3.862409e-01,3.844558e-01
1.199963e+00,1.535544e+00,1.527071e+00,4,5,2.623096e-01,2.604247e-01
2.093790e+00,4.734290e-01,4.649162e-01,7,1,6.411642e-01,6.396743e-01
2.096600e+00,4.735950e-01,4.661083e-01,7,1,1.278311e+00,1.275909e+00
2.097525e+00,1.288506e+00,1.280069e+00,7,4,7.126318e-01,7.095673e-01
2.102552e+00,7.342840e-01,7.259846e-01,7,2,9.867155e-01,9.822354e-01
1.803809e+00,1.518990e+00,1.507998e+00,6,5,8.652848e-01,8.537768e-01
2.096582e+00,1.277217e+00,1.269102e+00,7,4,1.027814e+00,1.024282e+00
1.801779e+00,1.768294e+00,1.760006e+00,6,6,5.318746e-01,5.315886e-01
1.801465e+00,1.309070e+00,1.301050e+00,6,4,4.333159e-01,4.322309e-01
2.100993e+00,1.253565e+00,1.245975e+00,7,4,2.242568e-01,2.242229e-01
9.042620e-01,7.575400e-01,7.491112e-01,3,2,2.020182e-01,1.977361e-01
2.093937e+00,1.297656e+00,1.289845e+00,7,4,1.965698e-01,1.939769e-01
2.094150e+00,1.023120e+00,1.014948e+00,7,3,3.190755e-01,3.155882e-01
2.397014e+00,1.513664e+00,1.505136e+00,8,5,1.625075e-01,1.617347e-01
1.508786e+00,2.004620e-01,1.921654e-01,5,0,2.122387e-01,2.109780e-01
3.012020e+00,1.944670e-01,1.869202e-01,10,0,2.549934e-01,2.530154e-01
3.008365e+00,1.997110e-01,1.909733e-01,10,0,3.340866e-01,3.180497e-01
2.416842e+00,2.013650e-01,1.931190e-01,8,0,2.124365e-01,1.993482e-01
1.204912e+00,7.594650e-01,7.510185e-01,4,2,2.310467e-01,2.279253e-01
2.094327e+00,7.404670e-01,7.319450e-01,7,2,2.406095e-01,2.377657e-01
2.103297e+00,1.967380e-01,1.890659e-01,7,0,3.274650e-01,3.267548e-01
2.095772e+00,1.563688e+00,1.556158e+00,7,5,6.869505e-01,6.828877e-01
2.096111e+00,1.916850e-01,1.840591e-01,7,0,9.411265e-01,9.371784e-01
2.096053e+00,1.762520e+00,1.754999e+00,7,6,6.247678e-01,6.235335e-01
2.096992e+00,7.576070e-01,7.488728e-01,7,2,7.372654e-01,7.358957e-01
1.496249e+00,1.001056e+00,9.930134e-01,5,3,5.056921e-01,5.018126e-01
1.808804e+00,1.991140e-01,1.909733e-01,6,0,2.871031e-01,2.866366e-01
1.206004e+00,2.123316e+00,2.115965e+00,4,7,4.365576e-01,4.321554e-01
2.096053e+00,1.763840e+00,1.754999e+00,7,6,1.885426e-01,1.868349e-01
1.199648e+00,1.298709e+00,1.290083e+00,4,4,2.919564e-01,2.890836e-01
3.297043e+00,7.283310e-01,7.200241e-01,11,2,1.829165e-01,1.751864e-01
2.097510e+00,4.711160e-01,4.618168e-01,7,1,1.887522e-01,1.810900e-01
1.797644e+00,4.806600e-01,4.720688e-01,6,1,2.112133e-01,2.098236e-01
2.101744e+00,4.795820e-01,4.720688e-01,7,1,2.906811e-01,2.895627e-01
3.005524e+00,7.316700e-01,7.231236e-01,10,2,1.749604e-01,1.666035e-01
1.509359e+00,1.307794e+00,1.300097e+00,5,4,2.841983e-01,2.828535e-01
2.095064e+00,1.010127e+00,1.002073e+00,7,3,7.015670e-01,6.951898e-01
1.799795e+00,2.028689e+00,2.020121e+00,6,7,4.329238e-01,4.307998e-01
3.308805e+00,4.766820e-01,4.677773e-01,11,1,3.472470e-01,3.369496e-01
2.995671e+00,4.652470e-01,4.570484e-01,10,1,2.533410e-01,2.454182e-01
1.209663e+00,1.980340e-01,1.900196e-01,4,0,2.510375e-01,2.510347e-01
9.045100e-01,1.942660e-01,1.859665e-01,3,0,2.899801e-01,2.899326e-01
1.206949e+00,1.310350e+00,1.302004e+00,4,4,5.397857e-01,5.389215e-01
1.801727e+00,7.252280e-01,7.169247e-01,6,2,4.665030e-01,4.626003e-01
2.995783e+00,4.619040e-01,4.539490e-01,10,1,4.229114e-01,4.223731e-01
2.094450e+00,1.994070e-01,1.909733e-01,7,0,4.099117e-01,4.094647e-01
2.096026e+00,1.032890e+00,1.024961e+00,7,3,4.503662e-01,4.479715e-01
2.094844e+00,1.284057e+00,1.275063e+00,7,4,6.019318e-01,5.963108e-01
1.799696e+00,7.248810e-01,7.169247e-01,6,2,1.074310e+00,1.050149e+00
2.094686e+00,7.014310e-01,6.930828e-01,7,2,1.368444e+00,1.360777e+00
2.102627e+00,1.227423e+00,1.219034e+00,7,4,1.152286e+00,1.150426e+00
1.798896e+00,2.360110e+00,2.351046e+00,6,8,1.130883e+00,1.120980e+00
1.496714e+00,1.257534e+00,1.248837e+00,5,4,8.594203e-01,8.580525e-01
2.396414e+00,1.541768e+00,1.533985e+00,8,5,8.074697e-01,8.058677e-01
2.392304e+00,7.475490e-01,7.390976e-01,8,2,8.084600e-01,8.048952e-01
1.203189e+00,1.852158e+00,1.843929e+00,4,6,6.256708e-01,6.223015e-01
2.126981e+00,1.264332e+00,1.255989e+00,7,4,5.937867e-01,5.925000e-01
2.392945e+00,1.012011e+00,1.002073e+00,8,3,4.870175e-01,4.865958e-01
3.343693e+00,4.932320e-01,4.851818e-01,11,1,4.568664e-01,4.526668e-01
2.098550e+00,5.432080e-01,5.290508e-01,7,1,6.089232e-01,6.080374e-01
3.041796e+00,1.662613e+00,1.650810e+00,10,5,7.633080e-01,7.447311e-01
2.104061e+00,1.839048e+00,1.827955e+00,7,6,1.457745e+00,1.438458e+00
2.095910e+00,1.524356e+00,1.513004e+00,7,5,1.682180e+00,1.663335e+00
2.098783e+00,9.754380e-01,9.651184e-01,7,3,1.818862e+00,1.805076e+00
2.105162e+00,1.214566e+00,1.205921e+00,7,4,1.633803e+00,1.629898e+00
1.806396e+00,9.781820e-01,9.701252e-01,6,3,1.448860e+00,1.425890e+00
2.128338e+00,1.754921e+00,1.747131e+00,7,6,1.488161e+00,1.481969e+00
2.106192e+00,1.472656e+00,1.464128e+00,7,5,1.334373e+00,1.332149e+00
1.802478e+00,9.829830e-01,9.748936e-01,6,3,1.149122e+00,1.140690e+00
2.094794e+00,1.297266e+00,1.289129e+00,7,4,7.495191e-01,7.468644e-01
1.201057e+00,1.257551e+00,1.249075e+00,4,4,4.766353e-01,4.740073e-01
1.510720e+00,1.948950e-01,1.869202e-01,5,0,3.768448e-01,3.766378e-01
1.802750e+00,4.790060e-01,4.711151e-01,6,1,4.622158e-01,4.618557e-01
2.094783e+00,1.306750e+00,1.299143e+00,7,4,5.629589e-01,5.580542e-01
2.696426e+00,1.513601e+00,1.504898e+00,9,5,3.479012e-01,3.477383e-01
1.507634e+00,1.960620e-01,1.878738e-01,5,0,3.279950e-01,3.279607e-01
1.205763e+00,1.950770e-01,1.869202e-01,4,0,3.749791e-01,3.749720e-01
1.208597e+00,1.945090e-01,1.862049e-01,4,0,2.011183e-01,2.011132e-01
9.043240e-01,1.948630e-01,1.869202e-01,3,0,1.923656e-01,1.922617e-01
2.105089e+00,1.949050e-01,1.871586e-01,7,0,1.700847e-01,1.695474e-01
3.006079e+00,1.953220e-01,1.869202e-01,10,0,2.142743e-01,1.987123e-01
1.205636e+00,1.316542e+00,1.307964e+00,4,4,2.903649e-01,2.872464e-01
2.094261e+00,1.253715e+00,1.245975e+00,7,4,3.123824e-01,3.123189e-01
1.811107e+00,4.809720e-01,4.730225e-01,6,1,3.338004e-01,3.337074e-01
2.405660e+00,4.640470e-01,4.560947e-01,8,1,3.120881e-01,3.120538e-01
9.037460e-01,1.969800e-01,1.888275e-01,3,0,2.558678e-01,2.544500e-01
2.394204e+00,7.591040e-01,7.507801e-01,8,2,2.356174e-01,2.350582e-01
2.106728e+00,4.726530e-01,4.649162e-01,7,1,7.214291e-01,7.203987e-01
2.098346e+00,1.821390e+00,1.814127e+00,7,6,1.502764e+00,1.495514e+00
2.096571e+00,2.555411e+00,2.547979e+00,7,9,1.729469e+00,1.714451e+00
2.398493e+00,2.205264e+00,2.197027e+00,8,8,1.337322e+00,1.334937e+00
2.095525e+00,7.353590e-01,7.269382e-01,7,2,1.196061e+00,1.189189e+00
1.805877e+00,1.486137e+00,1.477957e+00,6,5,1.043852e+00,1.029926e+00
1.798587e+00,4.625520e-01,4.549026e-01,6,1,8.926788e-01,8.908036e-01
1.207132e+00,1.844037e+00,1.836061e+00,4,6,5.594868e-01,5.551563e-01
2.095213e+00,1.543170e+00,1.534939e+00,7,5,4.817632e-01,4.722343e-01
2.096572e+00,2.008912e+00,1.999855e+00,7,7,1.038868e+00,1.012644e+00
2.095454e+00,6.781240e-01,6.699562e-01,7,2,1.479335e+00,1.453464e+00
2.094817e+00,9.362150e-01,9.279251e-01,7,3,1.637251e+00,1.616095e+00
2.094741e+00,2.024113e+00,2.016068e+00,7,7,1.284801e+00,1.276395e+00
2.103652e+00,2.775362e+00,2.766132e+00,7,10,9.638071e-01,9.620962e-01
3.312407e+00,1.542313e+00,1.533985e+00,11,5,6.995810e-01,6.902320e-01
2.096833e+00,2.671022e+00,2.662897e+00,7,9,5.564190e-01,5.496697e-01
2.123117e+00,2.022922e+00,2.014160e+00,7,7,8.917770e-01,8.661649e-01
2.155918e+00,7.037240e-01,6.949902e-01,7,2,8.652136e-01,8.473407e-01
2.160358e+00,1.769048e+00,1.759052e+00,7,6,6.530342e-01,6.484634e-01
2.160820e+00,7.516870e-01,7.410049e-01,7,2,6.014803e-01,5.999630e-01
2.159237e+00,4.748040e-01,4.670620e-01,7,1,5.803715e-01,5.791076e-01
2.169036e+00,4.760990e-01,4.670620e-01,7,1,5.658131e-01,5.652001e-01
1.979405e+00,7.597370e-01,7.500648e-01,6,2,7.936358e-01,7.896896e-01
3.414607e+00,7.535180e-01,7.450581e-01,11,2,7.659146e-01,7.512273e-01
1.258561e+00,7.505410e-01,7.419586e-01,4,2,8.162035e-01,8.142604e-01
2.125542e+00,1.969320e-01,1.890659e-01,7,0,7.943738e-01,7.934142e-01
1.838602e+00,4.818570e-01,4.742146e-01,6,1,6.545106e-01,6.542052e-01
1.854597e+00,5.119940e-01,5.040169e-01,6,1,5.467923e-01,5.370859e-01
2.120914e+00,1.331282e+00,1.322985e+00,7,4,5.810540e-01,5.777620e-01
2.122988e+00,4.844170e-01,4.758835e-01,7,1,4.494188e-01,4.474272e-01
1.850470e+00,1.021255e+00,1.013041e+00,6,3,2.145064e-01,2.115445e-01
1.800879e+00,1.963810e-01,1.881123e-01,6,0,1.771878e-01,1.749879e-01
1.535513e+00,4.623330e-01,4.539490e-01,5,1,1.770093e-01,1.766940e-01
2.457784e+00,4.847110e-01,4.761219e-01,8,1,2.456397e-01,2.436801e-01
2.096288e+00,5.049470e-01,4.971027e-01,7,1,2.746528e-01,2.739580e-01
3.084879e+00,7.289210e-01,7.209778e-01,10,2,2.403102e-01,2.402578e-01
1.854169e+00,2.000620e-01,1.919270e-01,6,0,2.019120e-01,2.008182e-01
3.052161e+00,1.953800e-01,1.881123e-01,10,0,2.993344e-01,2.867133e-01
1.560698e+00,1.986550e-01,1.900196e-01,5,0,8.262276e-02,8.260164e-02
1.228337e+00,1.952130e-01,1.881123e-01,4,0,8.959004e-02,8.958915e-02
9.025300e-01,2.132750e-01,2.050400e-01,3,0,9.527385e-02,9.527095e-02
9.307840e-01,2.086860e-01,2.000332e-01,3,0,8.589974e-02,8.587990e-02
9.116280e-01,1.952380e-01,1.871586e-01,3,0,1.090435e-01,1.089984e-01
1.259985e+00,5.043830e-01,4.961491e-01,4,1,1.653169e-01,1.650956e-01
3.075381e+00,4.598420e-01,4.520416e-01,10,1,1.103131e-01,1.095354e-01
1.230303e+00,7.913070e-01,7.829666e-01,4,2,1.812325e-01,1.806349e-01
2.144839e+00,7.435540e-01,7.359982e-01,7,2,2.715773e-01,2.695564e-01
1.853638e+00,7.568600e-01,7.481575e-01,6,2,1.904912e-01,1.904257e-01
1.229617e+00,1.981400e-01,1.900196e-01,4,0,1.968426e-01,1.968355e-01
9.044080e-01,2.372620e-01,2.291203e-01,3,0,2.016294e-01,2.014107e-01
1.529026e+00,1.942900e-01,1.869202e-01,5,0,2.557243e-01,2.556222e-01
3.087035e+00,2.274520e-01,2.188683e-01,10,0,2.611164e-01,2.480521e-01
1.564795e+00,4.784220e-01,4.708767e-01,5,1,1.351991e-01,1.330035e-01
3.689737e+00,4.617350e-01,4.529953e-01,12,1,9.301774e-02,8.256823e-02
1.247151e+00,2.007720e-01,1.921654e-01,4,0,1.477639e-01,1.477515e-01
9.298900e-01,2.070420e-01,1.871586e-01,3,0,1.140333e-01,1.139856e-01
1.227542e+00,1.974400e-01,1.900196e-01,4,0,1.040794e-01,1.040790e-01
9.040020e-01,1.951760e-01,1.878738e-01,3,0,2.753313e-01,2.753264e-01
9.238710e-01,2.237030e-01,2.160072e-01,3,0,1.864261e-01,1.863736e-01
1.229771e+00,1.978780e-01,1.900196e-01,4,0,3.250659e-01,3.250658e-01
9.181720e-01,4.966670e-01,4.880428e-01,3,1,6.512525e-01,6.510757e-01
2.427104e+00,1.062360e+00,1.054049e+00,8,3,4.808956e-01,4.768917e-01
3.075291e+00,1.038609e+00,1.029968e+00,10,3,3.662997e-01,3.610584e-01
2.146983e+00,7.877930e-01,7.791519e-01,7,2,5.567555e-01,5.526908e-01
2.156947e+00,4.819320e-01,4.730225e-01,7,1,7.321457e-01,7.305597e-01
3.091609e+00,1.300391e+00,1.291990e+00,10,4,3.310922e-01,3.132383e-01
3.717365e+00,2.127630e-01,2.040863e-01,12,0,2.124809e-01,2.123167e-01
9.311740e-01,5.098000e-01,5.009174e-01,3,1,2.771797e-01,2.751486e-01
2.159084e+00,4.798810e-01,4.711151e-01,7,1,9.515086e-02,9.481583e-02
3.681710e+00,2.014260e-01,1.931190e-01,12,0,6.946102e-02,6.687725e-02
1.504749e+00,2.146250e-01,2.048016e-01,5,0,1.412212e-01,1.409541e-01
1.216240e+00,2.136100e-01,2.009869e-01,4,0,1.659885e-01,1.658721e-01
1.207906e+00,4.843030e-01,4.758835e-01,4,1,2.056798e-01,2.053001e-01
2.113246e+00,1.045528e+00,1.036882e+00,7,3,4.147845e-01,4.125048e-01
1.805927e+00,9.918630e-01,9.839535e-01,6,3,2.826572e-01,2.791826e-01
3.307486e+00,4.632550e-01,4.551411e-01,11,1,2.838567e-01,2.837030e-01
1.204601e+00,2.038500e-01,1.959801e-01,4,0,2.588192e-01,2.587125e-01
1.204568e+00,1.948230e-01,1.869202e-01,4,0,2.221341e-01,2.220913e-01
1.201363e+00,1.994310e-01,1.909733e-01,4,0,2.583836e-01,2.580315e-01
1.803250e+00,1.947120e-01,1.859665e-01,6,0,3.398606e-01,3.398269e-01
3.323074e+00,1.948200e-01,1.869202e-01,11,0,2.488514e-01,2.429992e-01
1.802712e+00,4.836130e-01,4.749298e-01,6,1,2.648474e-01,2.588277e-01
2.095442e+00,7.558500e-01,7.479191e-01,7,2,2.896106e-01,2.885607e-01
2.105086e+00,4.579190e-01,4.498959e-01,7,1,3.123815e-01,3.109779e-01
1.825450e+00,1.940750e-01,1.859665e-01,6,0,4.041198e-01,3.978657e-01
1.801057e+00,1.016081e+00,1.007795e+00,6,3,2.166943e-01,2.162705e-01
1.201900e+00,1.578228e+00,1.569986e+00,4,5,1.930834e-01,1.901271e-01
2.095043e+00,4.560500e-01,4.479885e-01,7,1,2.130280e-01,2.120154e-01
2.095375e+00,4.606320e-01,4.518032e-01,7,1,2.126457e-01,2.120758e-01
1.209360e+00,1.010392e+00,1.002073e+00,4,3,1.877340e-01,1.854607e-01
1.203364e+00,1.572223e+00,1.563787e+00,4,5,6.521964e-01,6.462198e-01
2.098529e+00,1.547067e+00,1.538992e+00,7,5,4.260274e-01,4.246392e-01
1.499230e+00,7.275700e-01,7.200241e-01,5,2,4.032898e-01,4.011373e-01
2.097360e+00,4.666210e-01,4.580021e-01,7,1,3.449904e-01,3.446025e-01
2.395994e+00,1.309130e+00,1.300812e+00,8,4,3.327480e-01,3.308273e-01
1.800585e+00,7.186410e-01,7.109642e-01,6,2,2.490546e-01,2.432559e-01
2.692171e+00,4.647170e-01,4.570484e-01,9,1,3.666755e-01,3.656160e-01
1.800699e+00,2.036320e-01,1.959801e-01,6,0,4.060637e-01,4.034981e-01
3.297328e+00,4.610920e-01,4.529953e-01,11,1,3.560348e-01,3.455373e-01
1.202082e+00,7.633080e-01,7.557869e-01,4,2,3.534055e-01,3.508985e-01
1.800459e+00,4.649730e-01,4.568100e-01,6,1,2.789503e-01,2.762723e-01
2.412826e+00,7.416800e-01,7.338524e-01,8,2,2.305356e-01,2.292912e-01
3.027280e+00,1.052635e+00,1.044989e+00,10,3,2.016299e-01,2.014021e-01
1.800190e+00,7.337180e-01,7.250309e-01,6,2,1.773858e-01,1.769485e-01
3.605008e+00,4.778780e-01,4.699230e-01,12,1,1.560549e-01,1.483150e-01
1.497250e+00,7.485130e-01,7.400513e-01,5,2,1.683711e-01,1.672875e-01
1.200146e+00,4.643990e-01,4.520416e-01,4,1,1.477023e-01,1.469476e-01
1.509191e+00,4.784870e-01,4.699230e-01,5,1,2.180130e-01,2.170084e-01
1.203821e+00,4.617590e-01,4.532337e-01,4,1,1.892437e-01,1.872420e-01
3.300459e+00,1.975440e-01,1.890659e-01,11,0,2.373933e-01,2.369613e-01
3.320028e+00,1.949560e-01,1.869202e-01,11,0,3.033306e-01,2.974964e-01
9.043410e-01,2.023490e-01,1.938343e-01,3,0,2.374049e-01,2.368398e-01
1.205196e+00,1.856171e+00,1.847982e+00,4,6,4.765344e-01,4.718489e-01
2.095671e+00,1.794331e+00,1.785994e+00,7,6,1.006299e+00,9.948666e-01
2.098931e+00,1.975070e+00,1.966953e+00,7,7,7.540732e-01,7.509155e-01
1.806839e+00,9.883100e-01,9.799004e-01,6,3,5.334258e-01,5.283176e-01
3.007429e+00,1.845069e+00,1.837015e+00,10,6,4.636879e-01,4.564260e-01
1.505847e+00,7.222130e-01,7.140636e-01,5,2,4.459177e-01,4.455223e-01
2.100509e+00,1.020043e+00,1.012087e+00,7,3,3.581449e-01,3.562094e-01
2.094559e+00,1.033077e+00,1.025200e+00,7,3,3.063129e-01,3.057208e-01
1.200267e+00,7.452970e-01,7.369518e-01,4,2,2.640877e-01,2.624960e-01
2.093068e+00,1.295073e+00,1.286983e+00,7,4,2.762172e-01,2.722548e-01
2.092210e+00,7.310920e-01,7.228851e-01,7,2,2.343480e-01,2.339316e-01
1.205289e+00,1.864032e+00,1.856089e+00,4,6,2.921664e-01,2.890180e-01
2.095120e+00,1.001735e+00,9.942055e-01,7,3,3.858397e-01,3.794178e-01
2.095633e+00,2.008105e+00,1.999855e+00,7,7,2.862103e-01,2.829058e-01
1.499484e+00,7.312070e-01,7.231236e-01,5,2,1.112340e-01,1.110252e-01
3.007208e+00,1.994950e-01,1.909733e-01,10,0,8.087349e-02,6.229725e-02
1.500523e+00,1.983380e-01,1.900196e-01,5,0,1.102481e-01,1.092790e-01
1.498101e+00,2.000300e-01,1.919270e-01,5,0,1.596392e-01,1.596241e-01
1.232847e+00,1.964260e-01,1.878738e-01,4,0,2.195406e-01,2.194729e-01
9.042180e-01,1.952680e-01,1.881123e-01,3,0,1.190013e-01,1.187470e-01
1.208217e+00,4.759670e-01,4.689693e-01,4,1,1.564700e-01,1.564117e-01
1.801438e+00,4.631220e-01,4.551411e-01,6,1,2.016260e-01,2.001411e-01
2.994038e+00,1.948480e-01,1.871586e-01,10,0,2.254217e-01,2.204976e-01
1.208553e+00,1.967710e-01,1.878738e-01,4,0,3.813156e-01,3.813081e-01
1.203735e+00,1.944160e-01,1.859665e-01,4,0,2.250559e-01,2.250555e-01
9.049130e-01,1.974410e-01,1.900196e-01,3,0,2.012352e-01,2.012332e-01
1.204599e+00,1.855764e+00,1.847982e+00,4,6,5.907271e-01,5.884163e-01
2.130617e+00,1.005269e+00,9.970665e-01,7,3,6.957444e-01,6.946241e-01
3.003509e+00,9.931870e-01,9.851456e-01,10,3,2.855090e-01,2.851924e-01
1.204152e+00,1.994530e-01,1.909733e-01,4,0,3.346020e-01,3.345970e-01
9.032490e-01,1.948000e-01,1.869202e-01,3,0,3.081474e-01,3.072256e-01
1.797735e+00,4.805130e-01,4.730225e-01,6,1,2.942184e-01,2.931211e-01
3.606380e+00,4.678620e-01,4.601479e-01,12,1,1.521615e-01,1.429645e-01
1.204739e+00,1.989260e-01,1.909733e-01,4,0,1.017242e-01,1.010139e-01
3.308853e+00,4.751950e-01,4.670620e-01,11,1,1.923299e-01,1.918960e-01
2.999891e+00,7.524540e-01,7.441044e-01,10,2,2.204634e-01,2.202758e-01
2.404291e+00,7.418990e-01,7.340908e-01,8,2,3.501653e-01,3.492747e-01
1.204693e+00,4.640440e-01,4.549026e-01,4,1,1.992684e-01,1.986061e-01
1.205593e+00,4.748800e-01,4.670620e-01,4,1,1.605424e-01,1.597532e-01
1.501604e+00,7.561850e-01,7.479191e-01,5,2,2.188127e-01,2.115771e-01
2.095276e+00,1.002578e+00,9.939671e-01,7,3,3.193709e-01,3.151738e-01
2.097560e+00,1.957500e-01,1.878738e-01,7,0,3.479731e-01,3.473924e-01
2.092834e+00,1.007589e+00,1.000166e+00,7,3,3.654560e-01,3.645885e-01
2.996920e+00,7.460990e-01,7.379055e-01,10,2,3.232017e-01,3.228694e-01
1.798794e+00,4.822560e-01,4.739761e-01,6,1,4.656568e-01,4.631446e-01
3.639144e+00,7.313140e-01,7.228851e-01,12,2,2.498518e-01,2.371630e-01
2.704291e+00,1.988150e-01,1.909733e-01,9,0,2.402500e-01,2.399638e-01
1.207197e+00,2.392880e+00,2.385139e+00,4,8,3.895156e-01,3.836434e-01
2.104205e+00,1.757177e+00,1.749039e+00,7,6,2.199818e-01,2.195946e-01
1.799846e+00,1.008758e+00,1.000881e+00,6,3,2.624533e-01,2.587346e-01
1.200167e+00,4.718000e-01,4.630089e-01,4,1,2.095916e-01,2.088436e-01
3.016045e+00,1.949370e-01,1.869202e-01,10,0,1.062634e-01,9.568690e-02
9.029950e-01,1.984440e-01,1.900196e-01,3,0,1.046464e-01,1.041743e-01
2.411212e+00,1.995120e-01,1.909733e-01,8,0,1.419212e-01,1.383686e-01
3.012632e+00,4.790600e-01,4.708767e-01,10,1,1.333909e-01,1.226770e-01
2.094993e+00,1.033975e+00,1.025915e+00,7,3,4.159761e-01,4.100876e-01
2.100189e+00,1.010323e+00,1.002073e+00,7,3,2.212721e-01,2.205185e-01
1.201904e+00,9.932630e-01,9.849072e-01,4,3,1.437978e-01,1.434779e-01
3.013182e+00,1.949740e-01,1.869202e-01,10,0,1.514831e-01,1.493171e-01
1.496867e+00,2.037850e-01,1.950264e-01,5,0,2.457511e-01,2.456126e-01
3.005287e+00,1.945320e-01,1.869202e-01,10,0,4.031574e-01,3.925419e-01
1.203829e+00,7.615200e-01,7.531643e-01,4,2,5.186103e-01,5.178008e-01
1.227729e+00,2.387847e+00,2.378941e+00,4,8,6.269317e-01,6.208352e-01
2.099598e+00,1.290100e+00,1.281023e+00,7,4,7.533352e-01,7.445265e-01
2.100377e+00,2.624265e+00,2.614975e+00,7,9,3.499989e-01,3.494264e-01
1.226816e+00,4.655300e-01,4.570484e-01,4,1,2.953332e-01,2.948481e-01
3.009990e+00,1.974770e-01,1.890659e-01,10,0,1.670981e-01,1.615883e-01
1.204015e+00,1.988780e-01,1.859665e-01,4,0,1.500967e-01,1.494771e-01
1.798117e+00,1.859477e+00,1.852036e+00,6,6,2.909719e-01,2.768476e-01
2.101738e+00,9.792360e-01,9.708405e-01,7,3,3.549743e-01,3.543325e-01
2.100112e+00,4.701790e-01,4.620552e-01,7,1,3.791942e-01,3.774079e-01
2.098050e+00,1.265367e+00,1.257181e+00,7,4,3.066959e-01,3.061251e-01
2.092867e+00,4.624570e-01,4.549026e-01,7,1,3.095643e-01,3.094024e-01
2.094650e+00,1.031679e+00,1.024008e+00,7,3,3.951608e-01,3.932679e-01
1.801168e+00,7.230100e-01,7.150173e-01,6,2,4.399421e-01,4.341568e-01
1.801478e+00,7.314350e-01,7.228851e-01,6,2,3.642865e-01,3.641117e-01
2.100753e+00,1.945520e-01,1.869202e-01,7,0,3.285301e-01,3.273283e-01
1.507057e+00,7.596090e-01,7.510185e-01,5,2,3.895569e-01,3.890673e-01
1.201094e+00,7.350320e-01,7.262230e-01,4,2,2.183943e-01,2.178000e-01
1.507456e+00,1.948330e-01,1.869202e-01,5,0,1.848807e-01,1.847966e-01
1.503016e+00,4.767880e-01,4.689693e-01,5,1,3.233375e-01,3.229864e-01
1.226679e+00,1.024624e+00,1.016855e+00,4,3,4.299483e-01,4.235857e-01
2.096179e+00,4.783320e-01,4.701614e-01,7,1,5.790378e-01,5.772584e-01
3.302465e+00,9.935540e-01,9.858608e-01,11,3,2.417297e-01,2.241573e-01
1.801882e+00,4.835490e-01,4.749298e-01,6,1,2.296443e-01,2.293244e-01
2.095059e+00,4.757960e-01,4.680157e-01,7,1,2.694228e-01,2.679816e-01
2.094641e+00,1.294992e+00,1.286983e+00,7,4,3.096428e-01,3.057942e-01
1.800675e+00,7.248330e-01,7.159710e-01,6,2,2.989579e-01,2.985830e-01
1.495001e+00,4.832950e-01,4.749298e-01,5,1,3.259484e-01,3.242729e-01
2.100272e+00,4.795390e-01,4.711151e-01,7,1,2.486606e-01,2.481724e-01
1.800115e+00,4.603460e-01,4.529953e-01,6,1,1.794652e-01,1.785346e-01

