6.568120e-01,1.337185e+00,9.329319e-01,2,0,0.000000e+00,0.000000e+00
9.207480e-01,1.960740e-01,1.859665e-01,3,0,5.737493e-02,5.737445e-02
9.185910e-01,1.998100e-01,1.909733e-01,3,0,7.713409e-02,7.712919e-02
1.249118e+00,2.106230e-01,2.019405e-01,4,0,1.672352e-01,1.671555e-01
2.450096e+00,1.954490e-01,1.869202e-01,8,0,1.297263e-01,1.294919e-01
9.194570e-01,1.060639e+00,1.051903e+00,3,3,3.471960e-01,3.424269e-01
2.127553e+00,7.472090e-01,7.390976e-01,7,2,4.431320e-01,4.407909e-01
2.130460e+00,4.597490e-01,4.520416e-01,7,1,5.547547e-01,5.534083e-01
3.365130e+00,1.246398e+00,1.238108e+00,11,4,2.799205e-01,2.798419e-01
2.145025e+00,1.968400e-01,1.888275e-01,7,0,3.088413e-01,3.084835e-01
1.531105e+00,1.934760e-01,1.850128e-01,5,0,2.200582e-01,2.192518e-01
1.526118e+00,7.613960e-01,7.460117e-01,5,2,2.163806e-01,2.161326e-01
2.130532e+00,4.721170e-01,4.642010e-01,7,1,3.471410e-01,3.462646e-01
2.132813e+00,1.538821e+00,1.530886e+00,7,5,5.298650e-01,5.284501e-01
2.460332e+00,7.225270e-01,7.138252e-01,8,2,4.158074e-01,4.144090e-01
1.219874e+00,1.029055e+00,1.021147e+00,4,3,6.266664e-01,6.256841e-01
1.858797e+00,7.213090e-01,7.138252e-01,6,2,5.419134e-01,5.400492e-01
1.223761e+00,4.622800e-01,4.539490e-01,4,1,4.534858e-01,4.494978e-01
1.831615e+00,4.709120e-01,4.630089e-01,6,1,4.742611e-01,4.730599e-01
1.219455e+00,7.422640e-01,7.350445e-01,4,2,5.567996e-01,5.551616e-01
2.127761e+00,1.285048e+00,1.276970e+00,7,4,5.713705e-01,5.672842e-01
1.836096e+00,9.844030e-01,9.770393e-01,6,3,5.003127e-01,5.001861e-01
1.223527e+00,7.691480e-01,7.610321e-01,4,2,4.085289e-01,4.071806e-01
1.529347e+00,1.001275e+00,9.930134e-01,5,3,5.117739e-01,5.107529e-01
2.124516e+00,1.936440e-01,1.850128e-01,7,0,5.308164e-01,5.300868e-01
1.830352e+00,4.761320e-01,4.689693e-01,6,1,5.102062e-01,5.074546e-01
3.352670e+00,1.002350e+00,9.949207e-01,11,3,4.066953e-01,4.007063e-01
2.130570e+00,1.030414e+00,1.022100e+00,7,3,3.058074e-01,3.052451e-01
3.049923e+00,7.298090e-01,7.219315e-01,10,2,2.410290e-01,2.304230e-01
2.439393e+00,1.976230e-01,1.888275e-01,8,0,1.792918e-01,1.787038e-01
9.185940e-01,7.544110e-01,7.460117e-01,3,2,3.064416e-01,3.025880e-01
3.043993e+00,7.180160e-01,7.088184e-01,10,2,3.365289e-01,3.364940e-01
3.675854e+00,2.028280e-01,1.950264e-01,12,0,2.707143e-01,2.615042e-01
1.827353e+00,1.585827e+00,1.576900e+00,6,5,3.165992e-01,3.151958e-01
2.124905e+00,7.133580e-01,7.059574e-01,7,2,1.681918e-01,1.674452e-01
2.160424e+00,7.162580e-01,7.090569e-01,7,2,1.141365e-01,1.141133e-01
2.509940e+00,7.689730e-01,7.591248e-01,8,2,2.185850e-01,2.145634e-01
2.195229e+00,4.972310e-01,4.868507e-01,7,1,2.388934e-01,2.382808e-01
1.260596e+00,1.349621e+00,1.340151e+00,4,4,3.840541e-01,3.808072e-01
2.199221e+00,1.025361e+00,1.016140e+00,7,3,3.232648e-01,3.224898e-01
2.192144e+00,1.337264e+00,1.328945e+00,7,4,5.459700e-01,5.419527e-01
2.272287e+00,1.033016e+00,1.023054e+00,7,3,6.442485e-01,6.419667e-01
1.864251e+00,1.527256e+00,1.517057e+00,6,5,4.335105e-01,4.321034e-01
2.184221e+00,7.709530e-01,7.619858e-01,7,2,5.756527e-01,5.749676e-01
1.825031e+00,4.629240e-01,4.539490e-01,6,1,4.938082e-01,4.935191e-01
1.251666e+00,7.798070e-01,7.710457e-01,4,2,4.307304e-01,4.296515e-01
2.125838e+00,7.530580e-01,7.448196e-01,7,2,3.841139e-01,3.835805e-01
1.547367e+00,2.238090e-01,2.150536e-01,5,0,3.330077e-01,3.329618e-01
1.251428e+00,1.944470e-01,1.859665e-01,4,0,2.229824e-01,2.229347e-01
1.248055e+00,1.941570e-01,1.859665e-01,4,0,6.849945e-02,6.847762e-02
9.433910e-01,4.814400e-01,4.730225e-01,3,1,1.600098e-01,1.594665e-01
1.274453e+00,7.428740e-01,7.350445e-01,4,2,2.997925e-01,2.975927e-01
2.149836e+00,4.582330e-01,4.510880e-01,7,1,2.612119e-01,2.609442e-01
2.184972e+00,1.994590e-01,1.909733e-01,7,0,2.128877e-01,2.122338e-01
3.103443e+00,7.819500e-01,7.729530e-01,10,2,1.979364e-01,1.954148e-01
2.181297e+00,7.489270e-01,7.400513e-01,7,2,2.653136e-01,2.634740e-01
1.878686e+00,9.839530e-01,9.751320e-01,6,3,1.324386e-01,1.321002e-01
2.150809e+00,4.592990e-01,4.508495e-01,7,1,1.497035e-01,1.492207e-01
1.574400e+00,7.557090e-01,7.479191e-01,5,2,2.271452e-01,2.240296e-01
2.127168e+00,1.038564e+00,1.031160e+00,7,3,3.159123e-01,3.146218e-01
1.250780e+00,2.406302e+00,2.398014e+00,4,8,2.182067e-01,2.145053e-01
2.154141e+00,2.084618e+00,2.075911e+00,7,7,6.235645e-01,6.108426e-01
2.154090e+00,7.295660e-01,7.209778e-01,7,2,1.268572e+00,1.252604e+00
2.164820e+00,2.249241e+00,2.240896e+00,7,8,6.277765e-01,6.253820e-01
2.153099e+00,4.849880e-01,4.761219e-01,7,1,7.146818e-01,7.134268e-01
1.567309e+00,2.118174e+00,2.110004e+00,5,7,3.563405e-01,3.560672e-01
1.905079e+00,9.862810e-01,9.779930e-01,6,3,3.283142e-01,3.244346e-01
3.403908e+00,4.613670e-01,4.529953e-01,11,1,1.942738e-01,1.903317e-01
1.526088e+00,1.068248e+00,1.060009e+00,5,3,2.068945e-01,2.061222e-01
3.118557e+00,1.012437e+00,1.003981e+00,10,3,1.097240e-01,1.097209e-01
9.438420e-01,2.241150e-01,2.160072e-01,3,0,2.469395e-01,2.469350e-01
9.181920e-01,1.954940e-01,1.871586e-01,3,0,3.097159e-01,3.096517e-01
1.222950e+00,1.935620e-01,1.850128e-01,4,0,3.587313e-01,3.587115e-01
9.464980e-01,5.051490e-01,4.968643e-01,3,1,4.158126e-01,4.139113e-01
2.178557e+00,7.544760e-01,7.460117e-01,7,2,5.429106e-01,5.408831e-01
2.207139e+00,1.323372e+00,1.315117e+00,7,4,5.833962e-01,5.808474e-01
1.245213e+00,1.572340e+00,1.564026e+00,4,5,4.433233e-01,4.414781e-01
2.188142e+00,4.806960e-01,4.718304e-01,7,1,3.704991e-01,3.682730e-01
1.580545e+00,1.021412e+00,1.013041e+00,5,3,3.610844e-01,3.605810e-01
1.888989e+00,7.200540e-01,7.119179e-01,6,2,1.542869e-01,1.532949e-01
2.165565e+00,2.146593e+00,2.137899e+00,7,7,5.925152e-01,5.855062e-01
1.885260e+00,1.517041e+00,1.508951e+00,6,5,4.515226e-01,4.466588e-01
2.183374e+00,7.542230e-01,7.460117e-01,7,2,3.026628e-01,3.018818e-01
1.534539e+00,1.948860e-01,1.869202e-01,5,0,4.542055e-01,4.530288e-01
1.239155e+00,3.226204e+00,3.218174e+00,4,11,6.291894e-01,6.213259e-01
2.177458e+00,7.431660e-01,7.340908e-01,7,2,1.023501e+00,1.006860e+00
2.180507e+00,6.866650e-01,6.780624e-01,7,2,1.551880e+00,1.535245e+00
2.151843e+00,4.835430e-01,4.749298e-01,7,1,2.173560e+00,2.155616e+00
2.162227e+00,1.740576e+00,1.732111e+00,7,6,1.713019e+00,1.708448e+00
2.155163e+00,2.071853e+00,2.063036e+00,7,7,1.136006e+00,1.135107e+00
2.153448e+00,1.625676e+00,1.616955e+00,7,5,7.133485e-01,7.076841e-01
2.179445e+00,1.823338e+00,1.814842e+00,7,6,3.996726e-01,3.965662e-01
1.860246e+00,3.754956e+00,3.746033e+00,6,13,6.741340e-01,6.587456e-01
2.154786e+00,2.017441e+00,2.008915e+00,7,7,4.482886e-01,4.439604e-01
2.221241e+00,1.291255e+00,1.282930e+00,7,4,5.649969e-01,5.561155e-01
2.172521e+00,6.962360e-01,6.880760e-01,7,2,6.490790e-01,6.426599e-01
3.412904e+00,2.049367e+00,2.029181e+00,11,7,3.617362e-01,3.585183e-01
1.855353e+00,1.957610e-01,1.869202e-01,6,0,2.221835e-01,2.214593e-01
1.852188e+00,5.052050e-01,4.968643e-01,6,1,3.695441e-01,3.632934e-01
3.131954e+00,7.245080e-01,7.169247e-01,10,2,3.299485e-01,3.294713e-01
1.880511e+00,7.672410e-01,7.588863e-01,6,2,2.421277e-01,2.416285e-01
1.860778e+00,7.432080e-01,7.350445e-01,6,2,2.696756e-01,2.656385e-01
3.078165e+00,7.559930e-01,7.479191e-01,10,2,1.426055e-01,1.340473e-01
1.888446e+00,1.996810e-01,1.909733e-01,6,0,1.023563e-01,1.022581e-01
1.252581e+00,4.749330e-01,4.670620e-01,4,1,9.681854e-02,9.525643e-02
1.275464e+00,7.418810e-01,7.331371e-01,4,2,2.545105e-01,2.533411e-01
1.244930e+00,7.441820e-01,7.309914e-01,4,2,3.310663e-01,3.292589e-01
1.854652e+00,1.964290e-01,1.881123e-01,6,0,2.875685e-01,2.849658e-01
3.413717e+00,4.597700e-01,4.508495e-01,11,1,1.901592e-01,1.900526e-01
1.558262e+00,1.984850e-01,1.900196e-01,5,0,1.689931e-01,1.678764e-01
3.401231e+00,1.949210e-01,1.859665e-01,11,0,1.804218e-01,1.800845e-01
1.546568e+00,5.093070e-01,5.009174e-01,5,1,2.442586e-01,2.433881e-01
3.118166e+00,4.929290e-01,4.839897e-01,10,1,1.756804e-01,1.731179e-01
1.522135e+00,7.646200e-01,7.560253e-01,5,2,2.539155e-01,2.535611e-01
3.428545e+00,7.525150e-01,7.438660e-01,11,2,1.128788e-01,1.045928e-01
1.857772e+00,4.805910e-01,4.720688e-01,6,1,9.569289e-02,9.551291e-02
2.131517e+00,7.574410e-01,7.491112e-01,7,2,2.485970e-01,2.472344e-01
1.826479e+00,9.901850e-01,9.829998e-01,6,3,1.400856e-01,1.387628e-01
2.133974e+00,1.598454e+00,1.590014e+00,7,5,4.466043e-01,4.409251e-01
1.219654e+00,1.242460e+00,1.234055e+00,4,4,3.946695e-01,3.935313e-01
3.052806e+00,1.295474e+00,1.286983e+00,10,4,5.794993e-01,5.686846e-01
2.136116e+00,1.012734e+00,1.003981e+00,7,3,8.423069e-01,8.405519e-01
1.823780e+00,7.154930e-01,7.081032e-01,6,2,7.328405e-01,7.216242e-01
2.430807e+00,1.555893e+00,1.548052e+00,8,5,6.540523e-01,6.453947e-01
2.127737e+00,1.289357e+00,1.281023e+00,7,4,9.159077e-01,9.119409e-01
2.128866e+00,2.042786e+00,2.035141e+00,7,7,6.940349e-01,6.925694e-01
2.127655e+00,1.256197e+00,1.247883e+00,7,4,4.626355e-01,4.566343e-01
1.524013e+00,1.987890e-01,1.909733e-01,5,0,3.215240e-01,3.213650e-01
1.532703e+00,7.592900e-01,7.510185e-01,5,2,2.337522e-01,2.323671e-01
3.042572e+00,7.248010e-01,7.169247e-01,10,2,2.076032e-01,1.964243e-01
1.526939e+00,2.045090e-01,1.959801e-01,5,0,2.269863e-01,2.262318e-01
1.222611e+00,7.601530e-01,7.519722e-01,4,2,2.681206e-01,2.671226e-01
1.217686e+00,7.306690e-01,7.219315e-01,4,2,1.714926e-01,1.692821e-01
3.651825e+00,1.939470e-01,1.859665e-01,12,0,1.590959e-01,1.518628e-01
1.228095e+00,1.974910e-01,1.900196e-01,4,0,1.175146e-01,1.175135e-01
9.191810e-01,4.746780e-01,4.670620e-01,3,1,3.009985e-01,3.007595e-01
1.519006e+00,4.662200e-01,4.580021e-01,5,1,3.626721e-01,3.624845e-01
1.226019e+00,1.941830e-01,1.859665e-01,4,0,2.834089e-01,2.830601e-01
3.366747e+00,4.760310e-01,4.689693e-01,11,1,3.298158e-01,3.252203e-01
2.435678e+00,4.658640e-01,4.529953e-01,8,1,2.696091e-01,2.519416e-01
1.830699e+00,7.587390e-01,7.500648e-01,6,2,3.580005e-01,3.485929e-01
2.126464e+00,4.778770e-01,4.699230e-01,7,1,5.145085e-01,5.124470e-01
1.830748e+00,4.566080e-01,4.479885e-01,6,1,7.476942e-01,7.438330e-01
3.046257e+00,1.286226e+00,1.277924e+00,10,4,7.477475e-01,7.406820e-01
2.128450e+00,1.845345e+00,1.837969e+00,7,6,6.306868e-01,6.234574e-01
2.151415e+00,7.176300e-01,7.090569e-01,7,2,5.554365e-01,5.537716e-01
1.828165e+00,7.341600e-01,7.259846e-01,6,2,4.596609e-01,4.555275e-01
1.220770e+00,1.033890e+00,1.026154e+00,4,3,5.188736e-01,5.160525e-01
2.128547e+00,1.556265e+00,1.547813e+00,7,5,5.296789e-01,5.223947e-01
2.126426e+00,7.179310e-01,7.088184e-01,7,2,5.593850e-01,5.527412e-01
3.045375e+00,1.777894e+00,1.768827e+00,10,6,3.645690e-01,3.634562e-01
1.526516e+00,4.612910e-01,4.529953e-01,5,1,3.466408e-01,3.462264e-01
1.552869e+00,4.591210e-01,4.508495e-01,5,1,2.758302e-01,2.754026e-01
1.826951e+00,1.974790e-01,1.888275e-01,6,0,2.413937e-01,2.409290e-01
2.743861e+00,1.941740e-01,1.859665e-01,9,0,1.852933e-01,1.691288e-01
1.222314e+00,4.832100e-01,4.749298e-01,4,1,2.557966e-01,2.547923e-01
2.127752e+00,4.721190e-01,4.639626e-01,7,1,5.348779e-01,5.333197e-01
2.131770e+00,4.656950e-01,4.570484e-01,7,1,4.404449e-01,4.393613e-01
1.220142e+00,4.688600e-01,4.608631e-01,4,1,4.771535e-01,4.748858e-01
1.837493e+00,1.032804e+00,1.024961e+00,6,3,5.125120e-01,5.108805e-01
2.125251e+00,9.907790e-01,9.829998e-01,7,3,2.359879e-01,2.317573e-01
1.531864e+00,1.951310e-01,1.869202e-01,5,0,1.762050e-01,1.757451e-01
1.535452e+00,7.507270e-01,7.429123e-01,5,2,1.229145e-01,1.210135e-01
3.654149e+00,7.289050e-01,7.209778e-01,12,2,8.449439e-02,7.411789e-02
1.835515e+00,2.032020e-01,1.938343e-01,6,0,8.636724e-02,8.636268e-02
9.175460e-01,1.939960e-01,1.859665e-01,3,0,1.648777e-01,1.648339e-01
1.221431e+00,1.933640e-01,1.850128e-01,4,0,1.235221e-01,1.233913e-01
1.228429e+00,1.033793e+00,1.025915e+00,4,3,4.499976e-01,4.469743e-01
3.059529e+00,9.882280e-01,9.799004e-01,10,3,5.216452e-01,5.151001e-01
1.526275e+00,1.952930e-01,1.869202e-01,5,0,3.107967e-01,3.095675e-01
1.836535e+00,2.011230e-01,1.928806e-01,6,0,3.002745e-01,3.002389e-01
1.222694e+00,2.000710e-01,1.919270e-01,4,0,2.656686e-01,2.652948e-01
1.826440e+00,1.949080e-01,1.869202e-01,6,0,2.133355e-01,2.131557e-01
1.529818e+00,1.937810e-01,1.859665e-01,5,0,2.015259e-01,2.014555e-01
1.220724e+00,1.036873e+00,1.029015e+00,4,3,2.473948e-01,2.456024e-01
1.828722e+00,9.890310e-01,9.810925e-01,6,3,2.097334e-01,2.088060e-01
3.042185e+00,1.949480e-01,1.869202e-01,10,0,1.663839e-01,1.661761e-01
9.187160e-01,4.816540e-01,4.730225e-01,3,1,3.119959e-01,3.086443e-01
3.043454e+00,4.583040e-01,4.510880e-01,10,1,4.368679e-01,4.254960e-01
1.831485e+00,7.600130e-01,7.519722e-01,6,2,5.699531e-01,5.696691e-01
1.528637e+00,1.007756e+00,9.989738e-01,5,3,7.210469e-01,7.203739e-01
1.218158e+00,1.019339e+00,1.010895e+00,4,3,6.676238e-01,6.625823e-01
2.133250e+00,1.934740e-01,1.850128e-01,7,0,6.749179e-01,6.729495e-01
3.047031e+00,1.286418e+00,1.277924e+00,10,4,5.065519e-01,5.032454e-01
2.135257e+00,1.836697e+00,1.827955e+00,7,6,3.588011e-01,3.544386e-01
2.126329e+00,4.553050e-01,4.470348e-01,7,1,4.235803e-01,4.227530e-01
2.132591e+00,7.464660e-01,7.379055e-01,7,2,5.233825e-01,5.212561e-01
2.136213e+00,9.801720e-01,9.720325e-01,7,3,6.248567e-01,6.242015e-01
2.156923e+00,1.299782e+00,1.291990e+00,7,4,4.371322e-01,4.355932e-01
2.128068e+00,7.502870e-01,7.419586e-01,7,2,4.201438e-01,4.159652e-01
2.179752e+00,1.821136e+00,1.813173e+00,7,6,4.075154e-01,4.026595e-01
2.456940e+00,1.755520e+00,1.747131e+00,8,6,2.373300e-01,2.357903e-01
3.043888e+00,1.291031e+00,1.282930e+00,10,4,4.190861e-01,4.168869e-01
1.830692e+00,7.450800e-01,7.369518e-01,6,2,3.636595e-01,3.587906e-01
1.826309e+00,7.292480e-01,7.209778e-01,6,2,2.608969e-01,2.570246e-01
1.217193e+00,4.754690e-01,4.680157e-01,4,1,2.344945e-01,2.317312e-01
1.226501e+00,1.853130e+00,1.844168e+00,4,6,4.746475e-01,4.674496e-01
2.125131e+00,1.001877e+00,9.939671e-01,7,3,9.213043e-01,9.107130e-01
2.125075e+00,4.474240e-01,4.389286e-01,7,1,8.076730e-01,8.006125e-01
2.130121e+00,7.127960e-01,7.040501e-01,7,2,7.781777e-01,7.746060e-01
2.136106e+00,4.570760e-01,4.489422e-01,7,1,9.613227e-01,9.592900e-01
2.137142e+00,1.847722e+00,1.840115e+00,7,6,1.520191e+00,1.515878e+00
1.221428e+00,2.026776e+00,2.017975e+00,4,7,7.989548e-01,7.903846e-01
2.130668e+00,1.280447e+00,1.271963e+00,7,4,8.798816e-01,8.775203e-01
1.520340e+00,2.102999e+00,2.093792e+00,5,7,7.186614e-01,7.170470e-01
2.128027e+00,7.405890e-01,7.319450e-01,7,2,7.120139e-01,7.070854e-01
2.437205e+00,2.052214e+00,2.043962e+00,8,7,2.970842e-01,2.949304e-01
1.521984e+00,1.857874e+00,1.842022e+00,5,6,6.012802e-01,5.988640e-01
1.823547e+00,1.248229e+00,1.240015e+00,6,4,3.919148e-01,3.886870e-01
2.131919e+00,1.030810e+00,1.022816e+00,7,3,3.862409e-01,3.844558e-01
1.218770e+00,1.533326e+00,1.523018e+00,4,5,2.623096e-01,2.604247e-01
2.131252e+00,4.783740e-01,4.699230e-01,7,1,6.411642e-01,6.396743e-01
2.138133e+00,4.788770e-01,4.708767e-01,7,1,1.278311e+00,1.275909e+00
2.129865e+00,1.286620e+00,1.278162e+00,7,4,7.126318e-01,7.095673e-01
2.133556e+00,7.387870e-01,7.309914e-01,7,2,9.867155e-01,9.822354e-01
1.834057e+00,1.512624e+00,1.503944e+00,6,5,8.652848e-01,8.537768e-01
2.130419e+00,1.274458e+00,1.266003e+00,7,4,1.027814e+00,1.024282e+00
1.831122e+00,1.771197e+00,1.762867e+00,6,6,5.318746e-01,5.315886e-01
1.829470e+00,1.319424e+00,1.303196e+00,6,4,4.333159e-01,4.322309e-01
2.155720e+00,1.258699e+00,1.250982e+00,7,4,2.242568e-01,2.242229e-01
9.260670e-01,7.600780e-01,7.519722e-01,3,2,2.020182e-01,1.977361e-01
2.131487e+00,1.287016e+00,1.279116e+00,7,4,1.965698e-01,1.939769e-01
2.128794e+00,1.048040e+00,1.039982e+00,7,3,3.190755e-01,3.155882e-01
2.435972e+00,1.508124e+00,1.500130e+00,8,5,1.625075e-01,1.617347e-01
1.530465e+00,1.943230e-01,1.859665e-01,5,0,2.122387e-01,2.109780e-01
3.056339e+00,1.953340e-01,1.881123e-01,10,0,2.549934e-01,2.530154e-01
3.054612e+00,1.948140e-01,1.869202e-01,10,0,3.340866e-01,3.180497e-01
2.455830e+00,1.947350e-01,1.871586e-01,8,0,2.124365e-01,1.993482e-01
1.223659e+00,7.608980e-01,7.519722e-01,4,2,2.310467e-01,2.279253e-01
2.127353e+00,7.390910e-01,7.319450e-01,7,2,2.406095e-01,2.377657e-01
2.135245e+00,1.940870e-01,1.859665e-01,7,0,3.274650e-01,3.267548e-01
2.129148e+00,1.567060e+00,1.559019e+00,7,5,6.869505e-01,6.828877e-01
2.127542e+00,1.923220e-01,1.840591e-01,7,0,9.411265e-01,9.371784e-01
2.127835e+00,1.759924e+00,1.752138e+00,7,6,6.247678e-01,6.235335e-01
2.128577e+00,7.545600e-01,7.460117e-01,7,2,7.372654e-01,7.358957e-01
1.522518e+00,9.930610e-01,9.849072e-01,5,3,5.056921e-01,5.018126e-01
1.839533e+00,1.942410e-01,1.859665e-01,6,0,2.871031e-01,2.866366e-01
1.224350e+00,2.125448e+00,2.116919e+00,4,7,4.365576e-01,4.321554e-01
2.127845e+00,1.762938e+00,1.754999e+00,7,6,1.885426e-01,1.868349e-01
1.217305e+00,1.306875e+00,1.298904e+00,4,4,2.919564e-01,2.890836e-01
3.346389e+00,7.261870e-01,7.178783e-01,11,2,1.829165e-01,1.751864e-01
2.134049e+00,4.610910e-01,4.529953e-01,7,1,1.887522e-01,1.810900e-01
1.829885e+00,4.773710e-01,4.689693e-01,6,1,2.112133e-01,2.098236e-01
2.164737e+00,4.731240e-01,4.649162e-01,7,1,2.906811e-01,2.895627e-01
3.051880e+00,7.247410e-01,7.159710e-01,10,2,1.749604e-01,1.666035e-01
1.527324e+00,1.313706e+00,1.305103e+00,5,4,2.841983e-01,2.828535e-01
2.130797e+00,1.010498e+00,1.002073e+00,7,3,7.015670e-01,6.951898e-01
1.822822e+00,2.027581e+00,2.020121e+00,6,7,4.329238e-01,4.307998e-01
3.352473e+00,4.811690e-01,4.730225e-01,11,1,3.472470e-01,3.369496e-01
3.042335e+00,4.683730e-01,4.601479e-01,10,1,2.533410e-01,2.454182e-01
1.223902e+00,2.041940e-01,1.881123e-01,4,0,2.510375e-01,2.510347e-01
9.182830e-01,2.085500e-01,2.000332e-01,3,0,2.899801e-01,2.899326e-01
1.225409e+00,1.307921e+00,1.300097e+00,4,4,5.397857e-01,5.389215e-01
1.855297e+00,7.275080e-01,7.190704e-01,6,2,4.665030e-01,4.626003e-01
3.044918e+00,4.593340e-01,4.520416e-01,10,1,4.229114e-01,4.223731e-01
2.132458e+00,2.027650e-01,1.950264e-01,7,0,4.099117e-01,4.094647e-01
2.131686e+00,1.058399e+00,1.049995e+00,7,3,4.503662e-01,4.479715e-01
2.127541e+00,1.278854e+00,1.271009e+00,7,4,6.019318e-01,5.963108e-01
1.852648e+00,7.235550e-01,7.147789e-01,6,2,1.074310e+00,1.050149e+00
2.126613e+00,7.039290e-01,6.959438e-01,7,2,1.368444e+00,1.360777e+00
2.136337e+00,1.225113e+00,1.217127e+00,7,4,1.152286e+00,1.150426e+00
1.832643e+00,2.368831e+00,2.361059e+00,6,8,1.130883e+00,1.120980e+00
1.519774e+00,1.250699e+00,1.241922e+00,5,4,8.594203e-01,8.580525e-01
2.434267e+00,1.539640e+00,1.531124e+00,8,5,8.074697e-01,8.058677e-01
2.437471e+00,7.482680e-01,7.400513e-01,8,2,8.084600e-01,8.048952e-01
1.219893e+00,1.854382e+00,1.845837e+00,4,6,6.256708e-01,6.223015e-01
2.130896e+00,1.259676e+00,1.250982e+00,7,4,5.937867e-01,5.925000e-01
2.436481e+00,9.941710e-01,9.860992e-01,8,3,4.870175e-01,4.865958e-01
3.365885e+00,4.754780e-01,4.680157e-01,11,1,4.568664e-01,4.526668e-01
2.126976e+00,4.614340e-01,4.539490e-01,7,1,6.089232e-01,6.080374e-01
3.057714e+00,1.592374e+00,1.585007e+00,10,5,7.633080e-01,7.447311e-01
2.128530e+00,1.806350e+00,1.797915e+00,7,6,1.457745e+00,1.438458e+00
2.127611e+00,1.510866e+00,1.502991e+00,7,5,1.682180e+00,1.663335e+00
2.127620e+00,9.512150e-01,9.429455e-01,7,3,1.818862e+00,1.805076e+00
2.138046e+00,1.209595e+00,1.200914e+00,7,4,1.633803e+00,1.629898e+00
1.834862e+00,9.748950e-01,9.670258e-01,6,3,1.448860e+00,1.425890e+00
2.129978e+00,1.757763e+00,1.749992e+00,7,6,1.488161e+00,1.481969e+00
2.137024e+00,1.474207e+00,1.465797e+00,7,5,1.334373e+00,1.332149e+00
1.833814e+00,9.856380e-01,9.768009e-01,6,3,1.149122e+00,1.140690e+00
2.128782e+00,1.295491e+00,1.286983e+00,7,4,7.495191e-01,7.468644e-01
1.224746e+00,1.254926e+00,1.247168e+00,4,4,4.766353e-01,4.740073e-01
1.528836e+00,1.947040e-01,1.871586e-01,5,0,3.768448e-01,3.766378e-01
1.832527e+00,5.087270e-01,5.009174e-01,6,1,4.622158e-01,4.618557e-01
2.218689e+00,1.316609e+00,1.308918e+00,7,4,5.629589e-01,5.580542e-01
2.824794e+00,1.602453e+00,1.590967e+00,9,5,3.479012e-01,3.477383e-01
1.587149e+00,2.272840e-01,2.179146e-01,5,0,3.279950e-01,3.279607e-01
1.250270e+00,2.097640e-01,2.009869e-01,4,0,3.749791e-01,3.749720e-01
1.253243e+00,2.084790e-01,1.988411e-01,4,0,2.011183e-01,2.011132e-01
9.440620e-01,1.955490e-01,1.878738e-01,3,0,1.923656e-01,1.922617e-01
2.214046e+00,2.068440e-01,1.981258e-01,7,0,1.700847e-01,1.695474e-01
3.180985e+00,2.046270e-01,1.959801e-01,10,0,2.142743e-01,1.987123e-01
1.248948e+00,1.346454e+00,1.338005e+00,4,4,2.903649e-01,2.872464e-01
2.127043e+00,1.262308e+00,1.253128e+00,7,4,3.123824e-01,3.123189e-01
1.839391e+00,4.763400e-01,4.680157e-01,6,1,3.338004e-01,3.337074e-01
2.439689e+00,4.690430e-01,4.608631e-01,8,1,3.120881e-01,3.120538e-01
9.174810e-01,1.947740e-01,1.869202e-01,3,0,2.558678e-01,2.544500e-01
2.436169e+00,7.616070e-01,7.538795e-01,8,2,2.356174e-01,2.350582e-01
2.135465e+00,4.702720e-01,4.630089e-01,7,1,7.214291e-01,7.203987e-01
2.154383e+00,1.827648e+00,1.820087e+00,7,6,1.502764e+00,1.495514e+00
2.131040e+00,2.567971e+00,2.559185e+00,7,9,1.729469e+00,1.714451e+00
2.440051e+00,2.209433e+00,2.201080e+00,8,8,1.337322e+00,1.334937e+00
2.129088e+00,7.358430e-01,7.278919e-01,7,2,1.196061e+00,1.189189e+00
1.832189e+00,1.488942e+00,1.481056e+00,6,5,1.043852e+00,1.029926e+00
1.826251e+00,4.641570e-01,4.560947e-01,6,1,8.926788e-01,8.908036e-01
1.226911e+00,1.843236e+00,1.835108e+00,4,6,5.594868e-01,5.551563e-01
2.129951e+00,1.542468e+00,1.534939e+00,7,5,4.817632e-01,4.722343e-01
2.130589e+00,2.011316e+00,2.002954e+00,7,7,1.038868e+00,1.012644e+00
2.130635e+00,6.797270e-01,6.721020e-01,7,2,1.479335e+00,1.453464e+00
2.129284e+00,9.353390e-01,9.269714e-01,7,3,1.637251e+00,1.616095e+00
2.130347e+00,2.027132e+00,2.018929e+00,7,7,1.284801e+00,1.276395e+00
2.134440e+00,2.771175e+00,2.762794e+00,7,10,9.638071e-01,9.620962e-01
3.360116e+00,1.537238e+00,1.527786e+00,11,5,6.995810e-01,6.902320e-01
2.129713e+00,2.692554e+00,2.684116e+00,7,9,5.564190e-01,5.496697e-01
2.128104e+00,2.030358e+00,2.022028e+00,7,7,8.917770e-01,8.661649e-01
2.132346e+00,6.768360e-01,6.678104e-01,7,2,8.652136e-01,8.473407e-01
2.137466e+00,1.737902e+00,1.729965e+00,7,6,6.530342e-01,6.484634e-01
2.137816e+00,7.121990e-01,6.999969e-01,7,2,6.014803e-01,5.999630e-01
2.127820e+00,4.563260e-01,4.479885e-01,7,1,5.803715e-01,5.791076e-01
2.131780e+00,4.573170e-01,4.491806e-01,7,1,5.658131e-01,5.652001e-01
1.836477e+00,7.235290e-01,7.150173e-01,6,2,7.936358e-01,7.896896e-01
3.355583e+00,7.469850e-01,7.390976e-01,11,2,7.659146e-01,7.512273e-01
1.220587e+00,7.624890e-01,7.541180e-01,4,2,8.162035e-01,8.142604e-01
2.154059e+00,2.017760e-01,1.928806e-01,7,0,7.943738e-01,7.934142e-01
1.830481e+00,4.620010e-01,4.539490e-01,6,1,6.545106e-01,6.542052e-01
1.837828e+00,4.821740e-01,4.739761e-01,6,1,5.467923e-01,5.370859e-01
2.127895e+00,1.303359e+00,1.296043e+00,7,4,5.810540e-01,5.777620e-01
2.127687e+00,4.576930e-01,4.489422e-01,7,1,4.494188e-01,4.474272e-01
1.831484e+00,9.886100e-01,9.810925e-01,6,3,2.145064e-01,2.115445e-01
1.864005e+00,1.955340e-01,1.881123e-01,6,0,1.771878e-01,1.749879e-01
1.525882e+00,4.615690e-01,4.539490e-01,5,1,1.770093e-01,1.766940e-01
2.457288e+00,4.771030e-01,4.689693e-01,8,1,2.456397e-01,2.436801e-01
2.132045e+00,4.735740e-01,4.661083e-01,7,1,2.746528e-01,2.739580e-01
3.044007e+00,7.476740e-01,7.400513e-01,10,2,2.403102e-01,2.402578e-01
1.829896e+00,1.972490e-01,1.888275e-01,6,0,2.019120e-01,2.008182e-01
3.044958e+00,2.002760e-01,1.931190e-01,10,0,2.993344e-01,2.867133e-01
1.528368e+00,1.966010e-01,1.888275e-01,5,0,8.262276e-02,8.260164e-02
1.223136e+00,2.012280e-01,1.928806e-01,4,0,8.959004e-02,8.958915e-02
9.174720e-01,1.951150e-01,1.869202e-01,3,0,9.527385e-02,9.527095e-02
9.179540e-01,1.947490e-01,1.869202e-01,3,0,8.589974e-02,8.587990e-02
9.183110e-01,1.944730e-01,1.859665e-01,3,0,1.090435e-01,1.089984e-01
1.223305e+00,4.808180e-01,4.730225e-01,4,1,1.653169e-01,1.650956e-01
3.041485e+00,4.660480e-01,4.580021e-01,10,1,1.103131e-01,1.095354e-01
1.234413e+00,7.546450e-01,7.460117e-01,4,2,1.812325e-01,1.806349e-01
2.132226e+00,7.376970e-01,7.300377e-01,7,2,2.715773e-01,2.695564e-01
1.828888e+00,7.252680e-01,7.169247e-01,6,2,1.904912e-01,1.904257e-01
1.231000e+00,1.967410e-01,1.890659e-01,4,0,1.968426e-01,1.968355e-01
9.174670e-01,1.953150e-01,1.878738e-01,3,0,2.016294e-01,2.014107e-01
1.533163e+00,1.948720e-01,1.869202e-01,5,0,2.557243e-01,2.556222e-01
3.057402e+00,1.951040e-01,1.871586e-01,10,0,2.611164e-01,2.480521e-01
1.553666e+00,5.540940e-01,5.421638e-01,5,1,1.351991e-01,1.330035e-01
3.692598e+00,4.722920e-01,4.639626e-01,12,1,9.301774e-02,8.256823e-02
1.250424e+00,2.508510e-01,2.379417e-01,4,0,1.477639e-01,1.477515e-01
9.195500e-01,2.128810e-01,2.028942e-01,3,0,1.140333e-01,1.139856e-01
1.236482e+00,2.036860e-01,1.959801e-01,4,0,1.040794e-01,1.040790e-01
9.518240e-01,2.087050e-01,1.988411e-01,3,0,2.753313e-01,2.753264e-01
9.181430e-01,1.955530e-01,1.871586e-01,3,0,1.864261e-01,1.863736e-01
1.222479e+00,1.960210e-01,1.878738e-01,4,0,3.250659e-01,3.250658e-01
9.455000e-01,4.831420e-01,4.761219e-01,3,1,6.512525e-01,6.510757e-01
2.474494e+00,1.029210e+00,1.020908e+00,8,3,4.808956e-01,4.768917e-01
3.050124e+00,1.035673e+00,1.025915e+00,10,3,3.662997e-01,3.610584e-01
2.132803e+00,7.499340e-01,7.419586e-01,7,2,5.567555e-01,5.526908e-01
2.132917e+00,4.704770e-01,4.620552e-01,7,1,7.321457e-01,7.305597e-01
3.045540e+00,1.263334e+00,1.255035e+00,10,4,3.310922e-01,3.132383e-01
3.671444e+00,1.979190e-01,1.890659e-01,12,0,2.124809e-01,2.123167e-01
9.194720e-01,4.789270e-01,4.708767e-01,3,1,2.771797e-01,2.751486e-01
2.181083e+00,4.644060e-01,4.560947e-01,7,1,9.515086e-02,9.481583e-02
3.774413e+00,2.030930e-01,1.940727e-01,12,0,6.946102e-02,6.687725e-02
1.577786e+00,2.242350e-01,2.138615e-01,5,0,1.412212e-01,1.409541e-01
1.257438e+00,2.032730e-01,1.959801e-01,4,0,1.659885e-01,1.658721e-01
1.258381e+00,5.000820e-01,4.920959e-01,4,1,2.056798e-01,2.053001e-01
2.194942e+00,1.086644e+00,1.070023e+00,7,3,4.147845e-01,4.125048e-01
1.882174e+00,1.041583e+00,1.030922e+00,6,3,2.826572e-01,2.791826e-01
3.458495e+00,4.854110e-01,4.758835e-01,11,1,2.838567e-01,2.837030e-01
1.257339e+00,2.259220e-01,2.160072e-01,4,0,2.588192e-01,2.587125e-01
1.261467e+00,2.014420e-01,1.938343e-01,4,0,2.221341e-01,2.220913e-01
1.257498e+00,2.208890e-01,2.119541e-01,4,0,2.583836e-01,2.580315e-01
1.884216e+00,2.009280e-01,1.928806e-01,6,0,3.398606e-01,3.398269e-01
3.478831e+00,2.055390e-01,1.981258e-01,11,0,2.488514e-01,2.429992e-01
1.886138e+00,5.240140e-01,5.149841e-01,6,1,2.648474e-01,2.588277e-01
2.195957e+00,8.046340e-01,7.951260e-01,7,2,2.896106e-01,2.885607e-01
2.199296e+00,5.452620e-01,5.328655e-01,7,1,3.123815e-01,3.109779e-01
1.884588e+00,2.483160e-01,2.350807e-01,6,0,4.041198e-01,3.978657e-01
1.891000e+00,1.104588e+00,1.093864e+00,6,3,2.166943e-01,2.162705e-01
1.256305e+00,1.679485e+00,1.667976e+00,4,5,1.930834e-01,1.901271e-01
2.190839e+00,4.786600e-01,4.699230e-01,7,1,2.130280e-01,2.120154e-01
2.190073e+00,4.963280e-01,4.870892e-01,7,1,2.126457e-01,2.120758e-01
1.254630e+00,1.067034e+00,1.058102e+00,4,3,1.877340e-01,1.854607e-01
1.260339e+00,1.626490e+00,1.617908e+00,4,5,6.521964e-01,6.462198e-01
2.131368e+00,1.579395e+00,1.569986e+00,7,5,4.260274e-01,4.246392e-01
1.522649e+00,7.719610e-01,7.550716e-01,5,2,4.032898e-01,4.011373e-01
2.128464e+00,4.942800e-01,4.861355e-01,7,1,3.449904e-01,3.446025e-01
2.432790e+00,1.311481e+00,1.303911e+00,8,4,3.327480e-01,3.308273e-01
1.822364e+00,7.250540e-01,7.159710e-01,6,2,2.490546e-01,2.432559e-01
2.737235e+00,4.652620e-01,4.570484e-01,9,1,3.666755e-01,3.656160e-01
1.841308e+00,1.959280e-01,1.881123e-01,6,0,4.060637e-01,4.034981e-01
3.351687e+00,4.675230e-01,4.589558e-01,11,1,3.560348e-01,3.455373e-01
1.225147e+00,7.566120e-01,7.491112e-01,4,2,3.534055e-01,3.508985e-01
1.827169e+00,4.597510e-01,4.520416e-01,6,1,2.789503e-01,2.762723e-01
2.439250e+00,7.522400e-01,7.438660e-01,8,2,2.305356e-01,2.292912e-01
3.045342e+00,1.025320e+00,1.017094e+00,10,3,2.016299e-01,2.014021e-01
1.831050e+00,7.312560e-01,7.231236e-01,6,2,1.773858e-01,1.769485e-01
3.658717e+00,4.758720e-01,4.668236e-01,12,1,1.560549e-01,1.483150e-01
1.520651e+00,7.598280e-01,7.510185e-01,5,2,1.683711e-01,1.672875e-01
1.218676e+00,4.699320e-01,4.611015e-01,4,1,1.477023e-01,1.469476e-01
1.551801e+00,4.804250e-01,4.720688e-01,5,1,2.180130e-01,2.170084e-01
1.218802e+00,4.695130e-01,4.611015e-01,4,1,1.892437e-01,1.872420e-01
3.354575e+00,1.950560e-01,1.871586e-01,11,0,2.373933e-01,2.369613e-01
3.397790e+00,1.987260e-01,1.909733e-01,11,0,3.033306e-01,2.974964e-01
9.114960e-01,2.028970e-01,1.940727e-01,3,0,2.374049e-01,2.368398e-01
1.228027e+00,1.857485e+00,1.848936e+00,4,6,4.765344e-01,4.718489e-01
2.131632e+00,1.790475e+00,1.782179e+00,7,6,1.006299e+00,9.948666e-01
2.128978e+00,1.976860e+00,1.967907e+00,7,7,7.540732e-01,7.509155e-01
1.857355e+00,9.869600e-01,9.789467e-01,6,3,5.334258e-01,5.283176e-01
3.076292e+00,1.840439e+00,1.832008e+00,10,6,4.636879e-01,4.564260e-01
1.527940e+00,7.262230e-01,7.181168e-01,5,2,4.459177e-01,4.455223e-01
2.130906e+00,1.020868e+00,1.011848e+00,7,3,3.581449e-01,3.562094e-01
2.124836e+00,1.013387e+00,1.003981e+00,7,3,3.063129e-01,3.057208e-01
1.224998e+00,7.492280e-01,7.407665e-01,4,2,2.640877e-01,2.624960e-01
2.135157e+00,1.296948e+00,1.288891e+00,7,4,2.762172e-01,2.722548e-01
2.125880e+00,7.354960e-01,7.269382e-01,7,2,2.343480e-01,2.339316e-01
1.223980e+00,1.860765e+00,1.852036e+00,4,6,2.921664e-01,2.890180e-01
2.127405e+00,9.996150e-01,9.911060e-01,7,3,3.858397e-01,3.794178e-01
2.135612e+00,2.017548e+00,2.008915e+00,7,7,2.862103e-01,2.829058e-01
1.527257e+00,7.612280e-01,7.522106e-01,5,2,1.112340e-01,1.110252e-01
3.047302e+00,1.968040e-01,1.881123e-01,10,0,8.087349e-02,6.229725e-02
1.532676e+00,1.967950e-01,1.890659e-01,5,0,1.102481e-01,1.092790e-01
1.520805e+00,1.953180e-01,1.881123e-01,5,0,1.596392e-01,1.596241e-01
1.219447e+00,1.995570e-01,1.919270e-01,4,0,2.195406e-01,2.194729e-01
9.184130e-01,1.950420e-01,1.871586e-01,3,0,1.190013e-01,1.187470e-01
1.255429e+00,4.808270e-01,4.730225e-01,4,1,1.564700e-01,1.564117e-01
1.823730e+00,4.768910e-01,4.689693e-01,6,1,2.016260e-01,2.001411e-01
3.039478e+00,1.953930e-01,1.869202e-01,10,0,2.254217e-01,2.204976e-01
1.224646e+00,2.004380e-01,1.921654e-01,4,0,3.813156e-01,3.813081e-01
1.221247e+00,1.946780e-01,1.871586e-01,4,0,2.250559e-01,2.250555e-01
9.176490e-01,1.993910e-01,1.909733e-01,3,0,2.012352e-01,2.012332e-01
1.229334e+00,1.858747e+00,1.851082e+00,4,6,5.907271e-01,5.884163e-01
2.137404e+00,9.789690e-01,9.710789e-01,7,3,6.957444e-01,6.946241e-01
3.044297e+00,9.935440e-01,9.851456e-01,10,3,2.855090e-01,2.851924e-01
1.222797e+00,1.958550e-01,1.878738e-01,4,0,3.346020e-01,3.345970e-01
9.177370e-01,1.996590e-01,1.919270e-01,3,0,3.081474e-01,3.072256e-01
1.829327e+00,4.761480e-01,4.680157e-01,6,1,2.942184e-01,2.931211e-01
3.654028e+00,4.632300e-01,4.558563e-01,12,1,1.521615e-01,1.429645e-01
1.228609e+00,1.975130e-01,1.890659e-01,4,0,1.017242e-01,1.010139e-01
3.364884e+00,4.830340e-01,4.749298e-01,11,1,1.923299e-01,1.918960e-01
3.070161e+00,7.484180e-01,7.400513e-01,10,2,2.204634e-01,2.202758e-01
2.441854e+00,7.515950e-01,7.429123e-01,8,2,3.501653e-01,3.492747e-01
1.219134e+00,4.599490e-01,4.520416e-01,4,1,1.992684e-01,1.986061e-01
1.223391e+00,4.825540e-01,4.739761e-01,4,1,1.605424e-01,1.597532e-01
1.519564e+00,7.554260e-01,7.479191e-01,5,2,2.188127e-01,2.115771e-01
2.125751e+00,1.007100e+00,9.980202e-01,7,3,3.193709e-01,3.151738e-01
2.128704e+00,1.941620e-01,1.859665e-01,7,0,3.479731e-01,3.473924e-01
2.126523e+00,1.016565e+00,1.008987e+00,7,3,3.654560e-01,3.645885e-01
3.043123e+00,7.495380e-01,7.419586e-01,10,2,3.232017e-01,3.228694e-01
1.826334e+00,4.897190e-01,4.811287e-01,6,1,4.656568e-01,4.631446e-01
3.664919e+00,7.307620e-01,7.231236e-01,12,2,2.498518e-01,2.371630e-01
2.749118e+00,1.975830e-01,1.888275e-01,9,0,2.402500e-01,2.399638e-01
1.230562e+00,2.431610e+00,2.424002e+00,4,8,3.895156e-01,3.836434e-01
2.134585e+00,1.751237e+00,1.743078e+00,7,6,2.199818e-01,2.195946e-01
1.823024e+00,1.013028e+00,1.004934e+00,6,3,2.624533e-01,2.587346e-01
1.217740e+00,4.686080e-01,4.599094e-01,4,1,2.095916e-01,2.088436e-01
3.061484e+00,1.947190e-01,1.859665e-01,10,0,1.062634e-01,9.568690e-02
9.255330e-01,2.020020e-01,1.940727e-01,3,0,1.046464e-01,1.041743e-01
2.455744e+00,1.949410e-01,1.869202e-01,8,0,1.419212e-01,1.383686e-01
3.058854e+00,4.870420e-01,4.789829e-01,10,1,1.333909e-01,1.226770e-01
2.128454e+00,1.034694e+00,1.027107e+00,7,3,4.159761e-01,4.100876e-01
2.159559e+00,1.003015e+00,9.949207e-01,7,3,2.212721e-01,2.205185e-01
1.224953e+00,9.931950e-01,9.849072e-01,4,3,1.437978e-01,1.434779e-01
3.064405e+00,1.965020e-01,1.878738e-01,10,0,1.514831e-01,1.493171e-01
1.525145e+00,1.972400e-01,1.890659e-01,5,0,2.457511e-01,2.456126e-01
3.052771e+00,1.948400e-01,1.871586e-01,10,0,4.031574e-01,3.925419e-01
1.221604e+00,7.625340e-01,7.541180e-01,4,2,5.186103e-01,5.178008e-01
1.219195e+00,2.383209e+00,2.375126e+00,4,8,6.269317e-01,6.208352e-01
2.127329e+00,1.271051e+00,1.261950e+00,7,4,7.533352e-01,7.445265e-01
2.131334e+00,2.531028e+00,2.521992e+00,7,9,3.499989e-01,3.494264e-01
1.224545e+00,4.599350e-01,4.520416e-01,4,1,2.953332e-01,2.948481e-01
3.065785e+00,1.952150e-01,1.869202e-01,10,0,1.670981e-01,1.615883e-01
1.222759e+00,1.946530e-01,1.859665e-01,4,0,1.500967e-01,1.494771e-01
1.829769e+00,1.860214e+00,1.852036e+00,6,6,2.909719e-01,2.768476e-01
2.181477e+00,9.834400e-01,9.748936e-01,7,3,3.549743e-01,3.543325e-01
2.131290e+00,4.757560e-01,4.670620e-01,7,1,3.791942e-01,3.774079e-01
2.135860e+00,1.278265e+00,1.270056e+00,7,4,3.066959e-01,3.061251e-01
2.134417e+00,4.630710e-01,4.551411e-01,7,1,3.095643e-01,3.094024e-01
2.126891e+00,1.029219e+00,1.021147e+00,7,3,3.951608e-01,3.932679e-01
1.829243e+00,7.241250e-01,7.150173e-01,6,2,4.399421e-01,4.341568e-01
1.830121e+00,7.320580e-01,7.238388e-01,6,2,3.642865e-01,3.641117e-01
2.132118e+00,1.947060e-01,1.859665e-01,7,0,3.285301e-01,3.273283e-01
1.529819e+00,7.667740e-01,7.588863e-01,5,2,3.895569e-01,3.890673e-01
1.219715e+00,7.393000e-01,7.319450e-01,4,2,2.183943e-01,2.178000e-01
1.525269e+00,1.994330e-01,1.919270e-01,5,0,1.848807e-01,1.847966e-01
1.527079e+00,4.804720e-01,4.730225e-01,5,1,3.233375e-01,3.229864e-01
1.217848e+00,1.033041e+00,1.024961e+00,4,3,4.299483e-01,4.235857e-01
2.128853e+00,4.769600e-01,4.689693e-01,7,1,5.790378e-01,5.772584e-01
3.356081e+00,1.002436e+00,9.951591e-01,11,3,2.417297e-01,2.241573e-01
1.829286e+00,4.767090e-01,4.689693e-01,6,1,2.296443e-01,2.293244e-01
2.131071e+00,4.728220e-01,4.649162e-01,7,1,2.694228e-01,2.679816e-01
2.127893e+00,1.290066e+00,1.281977e+00,7,4,3.096428e-01,3.057942e-01
1.830321e+00,7.303640e-01,7.221699e-01,6,2,2.989579e-01,2.985830e-01
1.555705e+00,4.781710e-01,4.680157e-01,5,1,3.259484e-01,3.242729e-01
2.125501e+00,4.737660e-01,4.651546e-01,7,1,2.486606e-01,2.481724e-01
1.853777e+00,4.677730e-01,4.601479e-01,6,1,1.794652e-01,1.785346e-01

