2.242142e+01,6.433702e+01,6,36
3.819859e+00,4.493499e+01,1,29
3.930905e+00,4.299116e+01,1,27
3.890589e+00,4.528403e+01,1,27
3.929441e+00,3.114986e+01,1,18
3.918680e+00,1.614499e+01,1,9
3.900726e+00,4.722834e+00,1,2
3.899882e+00,1.366854e+00,1,0
3.919917e+00,1.365900e+00,1,0
3.959022e+00,1.364946e+00,1,0
3.906017e+00,1.365185e+00,1,0
3.871675e+00,1.367092e+00,1,0
4.064633e+00,1.406193e+00,1,0
4.081833e+00,1.426935e+00,1,0
3.906323e+00,1.379967e+00,1,0

