2.526185e+01,6.322598e+01,6,36
3.974503e+00,4.770708e+01,1,29
3.978111e+00,4.410291e+01,1,27
3.939436e+00,4.532814e+01,1,27
3.938889e+00,3.134704e+01,1,18
3.985550e+00,1.621103e+01,1,9
5.815811e+00,4.773855e+00,1,2
3.985081e+00,1.356840e+00,1,0
3.950486e+00,1.368999e+00,1,0
3.955454e+00,1.363993e+00,1,0
3.951609e+00,1.399040e+00,1,0
3.948290e+00,1.374006e+00,1,0
3.976112e+00,1.363993e+00,1,0
3.995774e+00,1.368046e+00,1,0
3.920303e+00,1.353979e+00,1,0

