2.264576e+01,6.348515e+01,6,36
3.794245e+00,4.559612e+01,1,29
3.908681e+00,4.369116e+01,1,27
3.941220e+00,4.545212e+01,1,27
3.894908e+00,3.104091e+01,1,18
3.890005e+00,1.773715e+01,1,9
3.924549e+00,4.768133e+00,1,2
3.894603e+00,1.366854e+00,1,0
3.937499e+00,1.441002e+00,1,0
3.884899e+00,1.370907e+00,1,0
3.900114e+00,1.379013e+00,1,0
3.905321e+00,1.374960e+00,1,0
3.928677e+00,1.351118e+00,1,0
4.066305e+00,1.385927e+00,1,0
4.082796e+00,1.389027e+00,1,0

