8.366000e-01,5.301310e+02,5.297940e+02,2,1000,0.000000e+00,3.903128e-18,0
1.198555e+00,2.673253e+01,2.670908e+01,3,63,1.479815e-01,1.479818e-01,1
1.191786e+00,4.432010e-01,4.310608e-01,3,0,2.729663e-01,2.729669e-01,1
1.199634e+00,4.474030e-01,4.370213e-01,3,0,5.772365e-01,5.772375e-01,1
1.194823e+00,4.421350e-01,4.298687e-01,3,0,5.319959e-01,5.319963e-01,1
1.196077e+00,4.410910e-01,4.298687e-01,3,0,2.495539e+00,2.495544e+00,1
1.192953e+00,4.468340e-01,4.351139e-01,3,0,3.483939e+00,3.483942e+00,1
1.199095e+00,8.521050e-01,8.409023e-01,3,1,4.575185e+00,4.575496e+00,1
1.200925e+00,7.831850e-01,7.719994e-01,3,1,2.249721e+00,2.249719e+00,1
1.192810e+00,4.475740e-01,4.360676e-01,3,0,1.993908e+00,1.993909e+00,1
1.200389e+00,4.424520e-01,4.308224e-01,3,0,1.652198e+00,1.652199e+00,1
1.188640e+00,4.415780e-01,4.301071e-01,3,0,1.912000e+00,1.912002e+00,1
1.197218e+00,4.480490e-01,4.360676e-01,3,0,3.167769e+00,3.167772e+00,1
1.192209e+00,4.460270e-01,4.351139e-01,3,0,4.321649e+00,4.321652e+00,1
1.195090e+00,4.423560e-01,4.308224e-01,3,0,3.962643e+00,3.962644e+00,1
1.197046e+00,1.227960e+00,1.216888e+00,3,2,5.532209e+00,5.533773e+00,1
1.200183e+00,1.116406e+00,1.106024e+00,3,2,4.322686e+00,4.322685e+00,1
1.197935e+00,8.700550e-01,8.578300e-01,3,1,3.783800e+00,3.783802e+00,1
1.195470e+00,9.291190e-01,9.179115e-01,3,1,3.615005e+00,3.625950e+00,1
1.194669e+00,5.299810e-01,5.180836e-01,3,0,3.443870e+00,3.456772e+00,1
1.197258e+00,1.269808e+00,1.259089e+00,3,2,3.602119e+00,3.624228e+00,1
1.194862e+00,8.706180e-01,8.590221e-01,3,1,3.003095e+00,3.004587e+00,1
1.198849e+00,5.371370e-01,5.259514e-01,3,0,2.704881e+00,2.711395e+00,1
1.193957e+00,1.277044e+00,1.264811e+00,3,2,2.359568e+00,2.476382e+00,1
1.200140e+00,9.929060e-01,9.810925e-01,3,1,2.327104e+00,2.369525e+00,1
1.188757e+00,5.315780e-01,5.199909e-01,3,0,2.249743e+00,2.249896e+00,1
1.193859e+00,7.826820e-01,7.719994e-01,3,1,1.863458e+00,1.863381e+00,1
1.192471e+00,4.469830e-01,4.351139e-01,3,0,1.337526e+00,1.337078e+00,1
1.188860e+00,4.477640e-01,4.360676e-01,3,0,6.728748e-01,6.728773e-01,1
1.199008e+00,4.415810e-01,4.308224e-01,3,0,5.761621e-01,5.761623e-01,1
1.197998e+00,4.424650e-01,4.310608e-01,3,0,1.145981e+00,1.145983e+00,1
1.191706e+00,4.476910e-01,4.370213e-01,3,0,1.352064e+00,1.352065e+00,1
1.199013e+00,4.436420e-01,4.320145e-01,3,0,1.167215e+00,1.167215e+00,1
1.196451e+00,4.419590e-01,4.298687e-01,3,0,1.802804e+00,1.802806e+00,1
1.187143e+00,4.487660e-01,4.379749e-01,3,0,1.475415e+00,1.475415e+00,1
1.194602e+00,4.419290e-01,4.308224e-01,3,0,1.089997e+00,1.089997e+00,1
1.192800e+00,4.425930e-01,4.308224e-01,3,0,7.990721e-01,7.990728e-01,1
1.189858e+00,4.472250e-01,4.370213e-01,3,0,6.637115e-01,6.637120e-01,1
1.190363e+00,8.737520e-01,8.621216e-01,3,1,1.686879e+00,1.687149e+00,1
1.188770e+00,7.820900e-01,7.719994e-01,3,1,1.863139e+00,1.863140e+00,1
1.195814e+00,1.644850e+00,1.632690e+00,3,3,4.194033e+00,4.283494e+00,1
1.192502e+00,1.637156e+00,1.626015e+00,3,3,5.743290e+00,5.795181e+00,1
1.197200e+00,1.547756e+00,1.537085e+00,3,3,3.643477e+00,3.643767e+00,1
1.198182e+00,1.246518e+00,1.235962e+00,3,2,5.503763e+00,5.504217e+00,1
1.189609e+00,7.831400e-01,7.710457e-01,3,1,4.401126e+00,4.401126e+00,1
1.193671e+00,4.470650e-01,4.360676e-01,3,0,3.559278e+00,3.559278e+00,1
1.190993e+00,4.433340e-01,4.320145e-01,3,0,3.189256e+00,3.189256e+00,1
1.196041e+00,4.418920e-01,4.310608e-01,3,0,2.648876e+00,2.648876e+00,1
1.194091e+00,4.483880e-01,4.379749e-01,3,0,2.128176e+00,2.128176e+00,1
1.188395e+00,4.483910e-01,4.370213e-01,3,0,1.356969e+00,1.356969e+00,1
1.201519e+00,4.420240e-01,4.298687e-01,3,0,1.216307e+00,1.216308e+00,1
1.190515e+00,4.425810e-01,4.310608e-01,3,0,1.933785e+00,1.933787e+00,1
1.198699e+00,4.500640e-01,4.391670e-01,3,0,1.412290e+00,1.412290e+00,1
1.194946e+00,8.727270e-01,8.618832e-01,3,1,1.203823e+00,1.204324e+00,1
1.198507e+00,2.061137e+00,2.048969e+00,3,4,1.591164e+00,1.615987e+00,1
1.192966e+00,8.714250e-01,8.590221e-01,3,1,2.183247e+00,2.211567e+00,1
1.593523e+00,7.822100e-01,7.710457e-01,4,1,1.189468e+00,1.189468e+00,1
1.204095e+00,4.424450e-01,4.320145e-01,3,0,1.830867e+00,1.830868e+00,1
1.198039e+00,4.430130e-01,4.320145e-01,3,0,2.580660e+00,2.580660e+00,1
1.191851e+00,4.484720e-01,4.379749e-01,3,0,3.886620e+00,3.886562e+00,1
1.192523e+00,4.423580e-01,4.310608e-01,3,0,1.759869e+00,1.759873e+00,1
1.203842e+00,1.636609e+00,1.626015e+00,3,3,3.789230e+00,3.854572e+00,1
1.200008e+00,3.113564e+00,3.097057e+00,3,4,7.133800e+00,7.578995e+00,0
1.200876e+00,2.214518e+00,2.202034e+00,3,5,3.878845e+00,3.909053e+00,1
1.192416e+00,3.791012e+00,3.773689e+00,3,6,5.334587e+00,5.895626e+00,0
1.585135e+00,1.458395e+00,1.446962e+00,4,3,2.306281e+00,2.306280e+00,1
1.196511e+00,4.433170e-01,4.317760e-01,3,0,2.477011e+00,2.477010e+00,1
1.196037e+00,4.485820e-01,4.370213e-01,3,0,1.943854e+00,1.943855e+00,1
1.205961e+00,4.424240e-01,4.320145e-01,3,0,1.521609e+00,1.521610e+00,1
1.192716e+00,4.422880e-01,4.320145e-01,3,0,1.170412e+00,1.170413e+00,1
1.191153e+00,4.473180e-01,4.360676e-01,3,0,1.744975e+00,1.744976e+00,1
1.194076e+00,4.469340e-01,4.310608e-01,3,0,1.780093e+00,1.780094e+00,1
1.194305e+00,4.429560e-01,4.322529e-01,3,0,1.803832e+00,1.803832e+00,1
1.198918e+00,8.674390e-01,8.559227e-01,3,1,2.028503e+00,2.029700e+00,1
1.189959e+00,9.247120e-01,9.129047e-01,3,1,2.951931e+00,2.981483e+00,1
1.199978e+00,5.312620e-01,5.197525e-01,3,0,3.962405e+00,4.012176e+00,1
1.196046e+00,1.264788e+00,1.254082e+00,3,2,2.390049e+00,2.434473e+00,1
1.202427e+00,1.326036e+00,1.313925e+00,3,2,2.382916e+00,2.398746e+00,1
1.190049e+00,5.315970e-01,5.209446e-01,3,0,1.759628e+00,1.775799e+00,1
1.189259e+00,7.807760e-01,7.698536e-01,3,1,8.680045e-01,8.680044e-01,1
1.198653e+00,4.469600e-01,4.351139e-01,3,0,2.969035e+00,2.969041e+00,1
1.195724e+00,4.476570e-01,4.370213e-01,3,0,2.199067e+00,2.199067e+00,1
1.197607e+00,4.426450e-01,4.308224e-01,3,0,1.970163e+00,1.970163e+00,1
1.194188e+00,8.663490e-01,8.547306e-01,3,1,1.899728e+00,1.928232e+00,1
1.197200e+00,1.238031e+00,1.228094e+00,3,2,2.727502e+00,2.727507e+00,1
1.196523e+00,4.478510e-01,4.360676e-01,3,0,4.899441e+00,4.899446e+00,1
1.191683e+00,1.979016e+00,1.966953e+00,3,4,7.341668e+00,7.345582e+00,1
1.191077e+00,3.730064e+00,3.714561e+00,3,6,1.071635e+01,1.552251e+01,0
1.192095e+00,5.539076e+00,5.523205e+00,3,11,8.720592e+00,9.214320e+00,0
1.194173e+00,4.302266e+00,4.283905e+00,3,8,6.225243e+00,6.396050e+00,0
1.199139e+00,2.674529e+00,2.662897e+00,3,6,4.799712e+00,4.811003e+00,1
1.191173e+00,1.612224e+00,1.600027e+00,3,3,3.368055e+00,3.372486e+00,1
1.200570e+00,3.167156e+00,3.156900e+00,3,7,4.757705e+00,4.805633e+00,1
1.198471e+00,8.700420e-01,8.590221e-01,3,1,3.538262e+00,3.572258e+00,1
1.192831e+00,2.716083e+00,2.706051e+00,3,6,4.572784e+00,4.706831e+00,1
2.391044e+00,2.620721e+00,2.609015e+00,6,6,5.025497e+00,5.177699e+00,1
1.585583e+00,2.930320e+00,2.918959e+00,4,7,2.155321e+00,2.227532e+00,1
1.195199e+00,7.822890e-01,7.710457e-01,3,1,1.874238e+00,1.874239e+00,1
1.198132e+00,4.491960e-01,4.377365e-01,3,0,2.672973e+00,2.672975e+00,1
1.198020e+00,4.490750e-01,4.379749e-01,3,0,2.904358e+00,2.904360e+00,1
1.194700e+00,4.430940e-01,4.310608e-01,3,0,2.191671e+00,2.191671e+00,1
1.192304e+00,4.467290e-01,4.320145e-01,3,0,2.522564e+00,2.522566e+00,1
1.192666e+00,4.480640e-01,4.360676e-01,3,0,1.488892e+00,1.488893e+00,1
1.193954e+00,4.420720e-01,4.320145e-01,3,0,1.358049e+00,1.358050e+00,1
1.189401e+00,4.426200e-01,4.320145e-01,3,0,1.123270e+00,1.123270e+00,1
1.195983e+00,4.480050e-01,4.358292e-01,3,0,1.171362e+00,1.171364e+00,1
1.187766e+00,8.733040e-01,8.628368e-01,3,1,1.628074e+00,1.628335e+00,1
1.199324e+00,1.206160e+00,1.196146e+00,3,2,1.773789e+00,1.778106e+00,1
1.192822e+00,9.935680e-01,9.820461e-01,3,1,1.144897e+00,1.147993e+00,1
1.191211e+00,1.725367e+00,1.713991e+00,3,3,1.149797e+00,1.203469e+00,1
1.196269e+00,5.319720e-01,5.209446e-01,3,0,1.059623e+00,1.081954e+00,1
1.193623e+00,5.309630e-01,5.199909e-01,3,0,8.885790e-01,8.885802e-01,1
1.190244e+00,7.830950e-01,7.719994e-01,3,1,6.242777e-01,6.242778e-01,1
1.193652e+00,4.478970e-01,4.358292e-01,3,0,1.096904e+00,1.096904e+00,1
1.194152e+00,4.427050e-01,4.320145e-01,3,0,5.838640e-01,5.838641e-01,1
1.194657e+00,4.422870e-01,4.320145e-01,3,0,6.718884e-01,6.718889e-01,1
1.190283e+00,4.477330e-01,4.360676e-01,3,0,1.728929e+00,1.728931e+00,1
1.189927e+00,4.478420e-01,4.370213e-01,3,0,1.261320e+00,1.261320e+00,1
1.193582e+00,4.425760e-01,4.317760e-01,3,0,4.046103e+00,4.046109e+00,1
1.193230e+00,8.667330e-01,8.561611e-01,3,1,2.808974e+00,2.852693e+00,1
1.191927e+00,5.322410e-01,5.199909e-01,3,0,2.725588e+00,2.920546e+00,1
1.195350e+00,9.925340e-01,9.810925e-01,3,1,3.395084e+00,3.508082e+00,1
1.191538e+00,7.785230e-01,7.669926e-01,3,1,3.067600e+00,3.067600e+00,1
1.198906e+00,8.713140e-01,8.609295e-01,3,1,3.380391e+00,3.380541e+00,1
1.197426e+00,3.047723e+00,3.031015e+00,3,4,5.964215e+00,7.509971e+00,0
1.199515e+00,1.276283e+00,1.266003e+00,3,2,3.876229e+00,3.893416e+00,1
1.192394e+00,1.208224e+00,1.197100e+00,3,2,2.948849e+00,2.948889e+00,1
1.192866e+00,1.551297e+00,1.539946e+00,3,3,2.571978e+00,2.574444e+00,1
1.597703e+00,1.117892e+00,1.105785e+00,4,2,1.533737e+00,1.533739e+00,1
1.197114e+00,4.428190e-01,4.320145e-01,3,0,1.691879e+00,1.691867e+00,1
1.196976e+00,4.484330e-01,4.358292e-01,3,0,1.059841e+00,1.059842e+00,1
1.196414e+00,4.489650e-01,4.379749e-01,3,0,1.388553e+00,1.388555e+00,1
1.196788e+00,4.422970e-01,4.320145e-01,3,0,6.228444e-01,6.228446e-01,1
1.194806e+00,4.464630e-01,4.358292e-01,3,0,5.065180e-01,5.065183e-01,1
1.193378e+00,4.477120e-01,4.360676e-01,3,0,5.197567e-01,5.197571e-01,1
1.188414e+00,8.721620e-01,8.618832e-01,3,1,1.127346e+00,1.136991e+00,1
1.198892e+00,1.240495e+00,1.230001e+00,3,2,1.163896e+00,1.163897e+00,1
1.197587e+00,4.471710e-01,4.310608e-01,3,0,9.850274e-01,9.850277e-01,1
1.197445e+00,4.490190e-01,4.379749e-01,3,0,1.074157e+00,1.074158e+00,1
1.201491e+00,4.433600e-01,4.329681e-01,3,0,9.100922e-01,9.100927e-01,1
1.189504e+00,4.433570e-01,4.317760e-01,3,0,1.696947e+00,1.696949e+00,1
1.193523e+00,8.702370e-01,8.599758e-01,3,1,2.892157e+00,2.893953e+00,1
1.193537e+00,1.285918e+00,1.274824e+00,3,2,3.268142e+00,3.316022e+00,1
1.588644e+00,1.326122e+00,1.313925e+00,4,2,2.576069e+00,2.651835e+00,1
1.193596e+00,9.335450e-01,9.219646e-01,3,1,2.288310e+00,2.381775e+00,1
1.194951e+00,1.329757e+00,1.319170e+00,3,2,2.112948e+00,2.261443e+00,1
1.192831e+00,8.723090e-01,8.618832e-01,3,1,1.517284e+00,1.642935e+00,1
1.195729e+00,5.307420e-01,5.199909e-01,3,0,1.340256e+00,1.350879e+00,1
1.197830e+00,7.769060e-01,7.650852e-01,3,1,2.339536e+00,2.339540e+00,1
1.195982e+00,4.425440e-01,4.320145e-01,3,0,3.337114e+00,3.337117e+00,1
1.189315e+00,4.495520e-01,4.382133e-01,3,0,2.039746e+00,2.039745e+00,1
1.193584e+00,4.430060e-01,4.310608e-01,3,0,1.932550e+00,1.932551e+00,1
1.189078e+00,4.423020e-01,4.320145e-01,3,0,1.734184e+00,1.734185e+00,1
1.194065e+00,4.484380e-01,4.370213e-01,3,0,1.589785e+00,1.589786e+00,1
1.191412e+00,4.486040e-01,4.379749e-01,3,0,1.308260e+00,1.308261e+00,1
1.190578e+00,8.720480e-01,8.609295e-01,3,1,1.469923e+00,1.470297e+00,1
1.188868e+00,7.839040e-01,7.722378e-01,3,1,2.404936e+00,2.404939e+00,1
1.201100e+00,4.430370e-01,4.310608e-01,3,0,2.312742e+00,2.312742e+00,1
1.197354e+00,4.434710e-01,4.320145e-01,3,0,2.449951e+00,2.449952e+00,1
1.191929e+00,4.481380e-01,4.379749e-01,3,0,2.780748e+00,2.780752e+00,1
1.188724e+00,4.423040e-01,4.320145e-01,3,0,1.271964e+00,1.271964e+00,1
1.194940e+00,4.418480e-01,4.301071e-01,3,0,1.016596e+00,1.016596e+00,1
1.190109e+00,4.477860e-01,4.370213e-01,3,0,1.065808e+00,1.065809e+00,1
1.194037e+00,4.463730e-01,4.348755e-01,3,0,4.835280e-01,4.835289e-01,1
1.193063e+00,4.426290e-01,4.320145e-01,3,0,4.871204e-01,4.871207e-01,1
1.199357e+00,4.468870e-01,4.358292e-01,3,0,8.336305e-01,8.336315e-01,1
1.188991e+00,4.476400e-01,4.370213e-01,3,0,7.103789e-01,7.103791e-01,1
1.199391e+00,4.422580e-01,4.308224e-01,3,0,1.911969e+00,1.911973e+00,1
1.190539e+00,4.431150e-01,4.329681e-01,3,0,1.422248e+00,1.422249e+00,1
1.191018e+00,4.488340e-01,4.320145e-01,3,0,1.005761e+00,1.005761e+00,1
1.197782e+00,8.734630e-01,8.621216e-01,3,1,8.964316e-01,8.974361e-01,1
1.195852e+00,7.822740e-01,7.719994e-01,3,1,9.129382e-01,9.129387e-01,1
1.189407e+00,4.491660e-01,4.379749e-01,3,0,9.389146e-01,9.389153e-01,1
1.195850e+00,4.421960e-01,4.310608e-01,3,0,5.933556e-01,5.933558e-01,1
1.193868e+00,4.426730e-01,4.320145e-01,3,0,6.646309e-01,6.646318e-01,1
1.194118e+00,4.480040e-01,4.370213e-01,3,0,5.446288e-01,5.446294e-01,1
1.202682e+00,4.421440e-01,4.320145e-01,3,0,4.700790e-01,4.700794e-01,1
1.194204e+00,4.421950e-01,4.320145e-01,3,0,1.265167e+00,1.265169e+00,1
1.191638e+00,4.482720e-01,4.370213e-01,3,0,7.999734e-01,7.999743e-01,1
1.191671e+00,8.723570e-01,8.611679e-01,3,1,1.265382e+00,1.266230e+00,1
1.188605e+00,9.311560e-01,9.200573e-01,3,1,2.042103e+00,2.053024e+00,1
1.196153e+00,9.915380e-01,9.801388e-01,3,1,1.749592e+00,1.790308e+00,1
1.190356e+00,9.923530e-01,9.808540e-01,3,1,1.983360e+00,2.000521e+00,1
1.189700e+00,1.265319e+00,1.254082e+00,3,2,1.392946e+00,1.436885e+00,1
1.189637e+00,1.332614e+00,1.321077e+00,3,2,1.391925e+00,1.412558e+00,1
1.197735e+00,5.318050e-01,5.209446e-01,3,0,1.591440e+00,1.624559e+00,1
1.189221e+00,5.312910e-01,5.202293e-01,3,0,3.491412e+00,3.503135e+00,1
1.189138e+00,7.821550e-01,7.710457e-01,3,1,4.624723e+00,4.624727e+00,1
1.189975e+00,4.480290e-01,4.370213e-01,3,0,4.100041e+00,4.100041e+00,1
1.198220e+00,4.490560e-01,4.389286e-01,3,0,3.333960e+00,3.333961e+00,1
1.190662e+00,4.430770e-01,4.308224e-01,3,0,3.079698e+00,3.079699e+00,1
1.193459e+00,4.431590e-01,4.329681e-01,3,0,2.094798e+00,2.094798e+00,1
1.189762e+00,4.487140e-01,4.391670e-01,3,0,2.071529e+00,2.071531e+00,1
1.190938e+00,1.222273e+00,1.210928e+00,3,2,2.036949e+00,2.036788e+00,1
1.579123e+00,1.123603e+00,1.111984e+00,4,2,1.589258e+00,1.589259e+00,1
1.187960e+00,1.332947e+00,1.317263e+00,3,2,1.399519e+00,1.406453e+00,1
1.188904e+00,1.720354e+00,1.708984e+00,3,3,2.807798e+00,2.953548e+00,1
2.369064e+00,2.056682e+00,2.044678e+00,6,4,5.867625e+00,5.952412e+00,1
2.378187e+00,1.198661e+00,1.187086e+00,6,2,6.173962e+00,6.160247e+00,1
1.983977e+00,1.590435e+00,1.580000e+00,5,3,6.471087e+00,6.461313e+00,1
1.584033e+00,1.275782e+00,1.264095e+00,4,2,7.574896e+00,7.602912e+00,1
1.984905e+00,3.832491e+00,3.820896e+00,5,9,1.075533e+01,1.094656e+01,1
1.598729e+00,4.052205e+00,4.040003e+00,4,10,6.987640e+00,7.028806e+00,1
1.199324e+00,1.646621e+00,1.635075e+00,3,3,8.569373e+00,8.619489e+00,1
1.200490e+00,1.989860e+00,1.979113e+00,3,4,6.582864e+00,6.608883e+00,1
1.202001e+00,4.231338e+00,4.220963e+00,3,10,6.038349e+00,6.090972e+00,1
1.195726e+00,1.544629e+00,1.533985e+00,3,3,4.242931e+00,4.260306e+00,1
1.205185e+00,4.867916e+00,4.851818e+00,3,9,5.184910e+00,5.666345e+00,0
1.200810e+00,2.543446e+00,2.533197e+00,3,6,3.528046e+00,3.605613e+00,1
1.593807e+00,2.722128e+00,2.712011e+00,4,6,4.526682e+00,4.699620e+00,1
1.591396e+00,3.534799e+00,3.522873e+00,4,9,1.487514e+00,1.487816e+00,1
1.200049e+00,5.324990e-01,5.221367e-01,3,0,1.782466e+00,1.822295e+00,1
1.195290e+00,1.206686e+00,1.197100e+00,3,2,3.336167e+00,3.336739e+00,1
1.197627e+00,7.844300e-01,7.727146e-01,3,1,2.517111e+00,2.517111e+00,1
1.197235e+00,8.720030e-01,8.611679e-01,3,1,4.017631e+00,4.032042e+00,1
1.196128e+00,5.380600e-01,5.271435e-01,3,0,3.567281e+00,3.584243e+00,1
1.196814e+00,2.005225e+00,1.992941e+00,3,4,6.163925e+00,6.183867e+00,1
1.594622e+00,1.454648e+00,1.444101e+00,4,3,3.160979e+00,3.160977e+00,1
1.197695e+00,4.481670e-01,4.370213e-01,3,0,2.623575e+00,2.623575e+00,1
1.199204e+00,4.481160e-01,4.370213e-01,3,0,2.058258e+00,2.058258e+00,1
1.199475e+00,4.430550e-01,4.329681e-01,3,0,2.067049e+00,2.067050e+00,1
1.194938e+00,8.677570e-01,8.571148e-01,3,1,2.212628e+00,2.217881e+00,1
1.196066e+00,9.316780e-01,9.198189e-01,3,1,3.355433e+00,3.397422e+00,1
1.193137e+00,1.118733e+00,1.106977e+00,3,2,1.506482e+00,1.506479e+00,1
1.193523e+00,4.489830e-01,4.367828e-01,3,0,1.005217e+00,1.005218e+00,1
1.201837e+00,4.431520e-01,4.320145e-01,3,0,1.147500e+00,1.147501e+00,1
1.190416e+00,4.430040e-01,4.308224e-01,3,0,1.103065e+00,1.103066e+00,1
1.192531e+00,4.483230e-01,4.370213e-01,3,0,8.578973e-01,8.578974e-01,1
1.191478e+00,4.422170e-01,4.310608e-01,3,0,1.393235e+00,1.393237e+00,1
1.193336e+00,4.423760e-01,4.320145e-01,3,0,2.047411e+00,2.047413e+00,1
1.192923e+00,4.479710e-01,4.360676e-01,3,0,3.124990e+00,3.124993e+00,1
1.192474e+00,2.059550e+00,2.048016e+00,3,4,6.807064e+00,6.837579e+00,1
1.192463e+00,1.656606e+00,1.645088e+00,3,3,8.845271e+00,9.045892e+00,1
1.196840e+00,4.108393e+00,4.097939e+00,3,10,6.016577e+00,6.037357e+00,1
1.202054e+00,3.504063e+00,3.493071e+00,3,8,7.443818e+00,7.471302e+00,1
1.199838e+00,4.478396e+00,4.468203e+00,3,11,5.369676e+00,5.373105e+00,1
1.197161e+00,1.605895e+00,1.595020e+00,3,3,4.262597e+00,4.263470e+00,1
1.196498e+00,1.660951e+00,1.648903e+00,3,3,4.729741e+00,4.763100e+00,1
1.196836e+00,1.119273e+00,1.108170e+00,3,2,2.571389e+00,2.571386e+00,1
1.198449e+00,4.481860e-01,4.367828e-01,3,0,1.972747e+00,1.972751e+00,1
1.193947e+00,4.432750e-01,4.329681e-01,3,0,1.519478e+00,1.519478e+00,1
1.192301e+00,4.430810e-01,4.320145e-01,3,0,1.423006e+00,1.423007e+00,1
1.200760e+00,4.488830e-01,4.377365e-01,3,0,1.351736e+00,1.351736e+00,1
1.201352e+00,4.485670e-01,4.370213e-01,3,0,2.093884e+00,2.093886e+00,1
1.200628e+00,4.424830e-01,4.310608e-01,3,0,7.181761e-01,7.181756e-01,1
1.191903e+00,4.424190e-01,4.320145e-01,3,0,2.870438e+00,2.870445e+00,1
1.187685e+00,1.643326e+00,1.631975e+00,3,3,6.329551e+00,6.386609e+00,1
1.196669e+00,1.457273e+00,1.446962e+00,3,3,3.707010e+00,3.706958e+00,1
1.197356e+00,4.432010e-01,4.329681e-01,3,0,2.646042e+00,2.646042e+00,1
1.190243e+00,4.429960e-01,4.317760e-01,3,0,2.171313e+00,2.171313e+00,1
1.190419e+00,4.495820e-01,4.382133e-01,3,0,1.845787e+00,1.845787e+00,1
1.199869e+00,4.432510e-01,4.317760e-01,3,0,1.730159e+00,1.730160e+00,1
1.190143e+00,8.669700e-01,8.559227e-01,3,1,2.906248e+00,2.918797e+00,1
1.196214e+00,1.594006e+00,1.582861e+00,3,3,2.248475e+00,2.248584e+00,1
1.190585e+00,8.674160e-01,8.559227e-01,3,1,1.617884e+00,1.617891e+00,1
1.188564e+00,7.778400e-01,7.669926e-01,3,1,1.801879e+00,1.801880e+00,1
1.191910e+00,1.263200e+00,1.250744e+00,3,2,3.090988e+00,3.101457e+00,1
1.191912e+00,5.384650e-01,5.266666e-01,3,0,5.012020e+00,5.037543e+00,1
1.190306e+00,2.479166e+00,2.468824e+00,3,5,9.128400e+00,9.301742e+00,1
1.198446e+00,4.522984e+00,4.511833e+00,3,11,1.116648e+01,1.166148e+01,1
1.189814e+00,5.093594e+00,5.077362e+00,3,10,1.008819e+01,1.141529e+01,0
1.192625e+00,3.741771e+00,3.726244e+00,3,6,1.059595e+01,1.118818e+01,0
1.195942e+00,4.436624e+00,4.425049e+00,3,11,8.944654e+00,9.003886e+00,1
1.191598e+00,2.368167e+00,2.356052e+00,3,5,9.414828e+00,9.521341e+00,1
1.189865e+00,2.302488e+00,2.290964e+00,3,5,9.402295e+00,9.459404e+00,1
1.192974e+00,4.448305e+00,4.433632e+00,3,8,7.748112e+00,8.801354e+00,0
1.201697e+00,3.782610e+00,3.769875e+00,3,9,6.681176e+00,6.699484e+00,1
1.207467e+00,1.620382e+00,1.608849e+00,3,3,5.143038e+00,5.145203e+00,1
1.197551e+00,3.124810e+00,3.112078e+00,3,7,4.682739e+00,4.707642e+00,1
1.206361e+00,3.859315e+00,3.845930e+00,3,9,4.706337e+00,4.784685e+00,1
2.391220e+00,4.844314e+00,4.827023e+00,6,9,6.056519e+00,8.107831e+00,0
2.383677e+00,1.522150e+00,1.506090e+00,6,0,1.131128e+01,2.508339e+01,0
2.373935e+00,1.521420e+00,1.505136e+00,6,0,1.278827e+01,2.353269e+01,0
2.367703e+00,1.518545e+00,1.503229e+00,6,0,1.453914e+01,1.848185e+01,0
1.978765e+00,5.205950e+00,5.189419e+00,5,10,1.283549e+01,1.853117e+01,0
1.585044e+00,1.932303e+00,1.914978e+00,4,1,1.313347e+01,1.988871e+01,0
1.981665e+00,1.539640e+00,1.523018e+00,5,0,1.621375e+01,2.741370e+01,0
1.589771e+00,7.069199e+00,7.053375e+00,4,15,1.513639e+01,2.075285e+01,0
1.985202e+00,6.606677e+00,6.588697e+00,5,14,1.257801e+01,1.731020e+01,0
1.584024e+00,8.753715e+00,8.736610e+00,4,20,1.082799e+01,1.178700e+01,0
1.194028e+00,8.700150e+00,8.688927e+00,3,23,9.550420e+00,9.929754e+00,1
1.200307e+00,3.274908e+00,3.257990e+00,3,5,8.132965e+00,9.383920e+00,0
1.190847e+00,1.524461e+00,1.508951e+00,3,0,7.281158e+00,1.031601e+01,0
1.199838e+00,6.935576e+00,6.919146e+00,3,15,7.369552e+00,1.459868e+01,0
1.593938e+00,4.416384e+00,4.405975e+00,4,11,4.210929e+00,4.251736e+00,1
1.190199e+00,5.406360e-01,5.290508e-01,3,0,3.619965e+00,3.649326e+00,1
1.200380e+00,1.887181e+00,1.864433e+00,3,1,3.885134e+00,6.762788e+00,0
1.587690e+00,1.267733e+00,1.258135e+00,4,2,2.751306e+00,2.768611e+00,1
1.190589e+00,1.964044e+00,1.953125e+00,3,4,2.301949e+00,2.301525e+00,1
1.581227e+00,1.057577e+00,1.046896e+00,4,2,1.885458e+00,1.884363e+00,1
1.189443e+00,4.487540e-01,4.379749e-01,3,0,1.203405e+00,1.203267e+00,1
1.189915e+00,4.480700e-01,4.358292e-01,3,0,7.326661e-01,7.326693e-01,1
1.193323e+00,4.433580e-01,4.329681e-01,3,0,5.741113e-01,5.741123e-01,1
1.189219e+00,4.436010e-01,4.317760e-01,3,0,8.156805e-01,8.156814e-01,1
1.193826e+00,4.498960e-01,4.382133e-01,3,0,1.089879e+00,1.089881e+00,1
1.200292e+00,4.433660e-01,4.320145e-01,3,0,7.607246e-01,7.607248e-01,1
1.188372e+00,4.440150e-01,4.329681e-01,3,0,8.005970e-01,8.005985e-01,1
1.187922e+00,8.719560e-01,8.599758e-01,3,1,2.160997e+00,2.166270e+00,1
1.191061e+00,1.331741e+00,1.321077e+00,3,2,4.809781e+00,4.852494e+00,1
1.198687e+00,2.578455e+00,2.568007e+00,3,5,6.523755e+00,6.572568e+00,1
1.193235e+00,2.341349e+00,2.331018e+00,3,5,5.497023e+00,5.626166e+00,1
1.197574e+00,2.122940e+00,2.111912e+00,3,4,5.894189e+00,5.967903e+00,1
1.194762e+00,1.213096e+00,1.201153e+00,3,2,5.757157e+00,5.795984e+00,1
1.196637e+00,1.272677e+00,1.260757e+00,3,2,5.098131e+00,5.109116e+00,1
1.193007e+00,1.264988e+00,1.253843e+00,3,2,4.055652e+00,4.055991e+00,1
1.202876e+00,2.000397e+00,1.990080e+00,3,4,3.994041e+00,4.002926e+00,1
1.192190e+00,2.302118e+00,2.286434e+00,3,2,7.163865e+00,9.406244e+00,0
2.776263e+00,2.266926e+00,2.251387e+00,7,2,9.350060e+00,1.549183e+01,0
2.368017e+00,1.539226e+00,1.523256e+00,6,0,1.106225e+01,2.337127e+01,0
1.982744e+00,6.416446e+00,6.399632e+00,5,13,9.074008e+00,1.243990e+01,0
1.979397e+00,3.458738e+00,3.448009e+00,5,8,6.937634e+00,7.016998e+00,1
1.588772e+00,3.009000e+00,2.996922e+00,4,7,5.143018e+00,5.221695e+00,1
1.192368e+00,2.440121e+00,2.429962e+00,3,5,4.150542e+00,4.309179e+00,1
1.197309e+00,3.904695e+00,3.894091e+00,3,9,5.393125e+00,5.769805e+00,1
1.195253e+00,3.125834e+00,3.113985e+00,3,7,5.356488e+00,5.625033e+00,1
1.201489e+00,3.265414e+00,3.254890e+00,3,8,4.036541e+00,4.174775e+00,1
1.582664e+00,3.047609e+00,3.037930e+00,4,7,3.971630e+00,4.064874e+00,1
2.373956e+00,2.687135e+00,2.676010e+00,6,6,4.774208e+00,4.835915e+00,1
2.376684e+00,1.213470e+00,1.203060e+00,6,2,5.231421e+00,5.255228e+00,1
1.588292e+00,1.455657e+00,1.445055e+00,4,3,6.336040e+00,6.336045e+00,1
1.189219e+00,8.741470e-01,8.630753e-01,3,1,4.959573e+00,4.960905e+00,1
1.190878e+00,5.396580e-01,5.290508e-01,3,0,6.614262e+00,6.630643e+00,1
1.190496e+00,9.332730e-01,9.219646e-01,3,1,6.576622e+00,6.583364e+00,1
1.192632e+00,1.671265e+00,1.659870e+00,3,3,5.514750e+00,5.522134e+00,1
1.195570e+00,1.614641e+00,1.603127e+00,3,3,4.546397e+00,4.606575e+00,1
1.195471e+00,1.327399e+00,1.316071e+00,3,2,4.676095e+00,4.799988e+00,1
1.194313e+00,4.236902e+00,4.226208e+00,3,10,4.645407e+00,4.838309e+00,1
1.992768e+00,1.558264e+00,1.546860e+00,5,3,3.480776e+00,3.495671e+00,1
2.378940e+00,2.351008e+00,2.338886e+00,6,5,3.425034e+00,3.445630e+00,1
1.198424e+00,1.122608e+00,1.111984e+00,3,2,2.260399e+00,2.260305e+00,1
1.197172e+00,8.720770e-01,8.609295e-01,3,1,1.839160e+00,1.853297e+00,1
1.193708e+00,5.323400e-01,5.209446e-01,3,0,1.131926e+00,1.134949e+00,1
1.193911e+00,7.831510e-01,7.681847e-01,3,1,7.273572e-01,7.273576e-01,1
1.193391e+00,4.429030e-01,4.310608e-01,3,0,4.269963e-01,4.269964e-01,1
1.195181e+00,4.487980e-01,4.382133e-01,3,0,8.387655e-01,8.387672e-01,1
1.190326e+00,4.489140e-01,4.367828e-01,3,0,4.835537e-01,4.835538e-01,1
1.198372e+00,4.432020e-01,4.310608e-01,3,0,4.474958e-01,4.474966e-01,1
1.189533e+00,4.426300e-01,4.320145e-01,3,0,2.812621e-01,2.812625e-01,1
1.195471e+00,4.493290e-01,4.389286e-01,3,0,3.051680e-01,3.051684e-01,1
1.194361e+00,4.425330e-01,4.320145e-01,3,0,2.676724e-01,2.676727e-01,1
1.190821e+00,4.435340e-01,4.332066e-01,3,0,6.540878e-01,6.540890e-01,1
1.198883e+00,4.484740e-01,4.370213e-01,3,0,5.037107e-01,5.037114e-01,1
1.199109e+00,4.430630e-01,4.320145e-01,3,0,5.084694e-01,5.084712e-01,1
1.195702e+00,4.429440e-01,4.310608e-01,3,0,1.037843e+00,1.037844e+00,1
1.188909e+00,4.478100e-01,4.358292e-01,3,0,5.707910e-01,5.707909e-01,1
1.188981e+00,4.489150e-01,4.379749e-01,3,0,8.102263e-01,8.102270e-01,1
1.196703e+00,4.435410e-01,4.341602e-01,3,0,8.247685e-01,8.247691e-01,1
1.196442e+00,4.429490e-01,4.320145e-01,3,0,1.393442e+00,1.393444e+00,1
1.196272e+00,4.492940e-01,4.370213e-01,3,0,1.064422e+00,1.064422e+00,1
1.198982e+00,4.432400e-01,4.329681e-01,3,0,6.996471e-01,6.996471e-01,1
1.198425e+00,4.434870e-01,4.317760e-01,3,0,5.109060e-01,5.109065e-01,1
1.194590e+00,4.489440e-01,4.379749e-01,3,0,6.902652e-01,6.902661e-01,1
1.194970e+00,4.434280e-01,4.329681e-01,3,0,6.367271e-01,6.367273e-01,1
1.197810e+00,4.433910e-01,4.329681e-01,3,0,5.139071e-01,5.139073e-01,1
1.197501e+00,4.488980e-01,4.372597e-01,3,0,9.025457e-01,9.025468e-01,1
1.189984e+00,4.489880e-01,4.370213e-01,3,0,6.883759e-01,6.883764e-01,1
1.199233e+00,8.756710e-01,8.649826e-01,3,1,1.024954e+00,1.025023e+00,1
1.195167e+00,9.978700e-01,9.880066e-01,3,1,1.814399e+00,1.893463e+00,1
1.192944e+00,5.385390e-01,5.271435e-01,3,0,1.587823e+00,1.607885e+00,1
1.192746e+00,7.844300e-01,7.729530e-01,3,1,1.404065e+00,1.404065e+00,1
1.188270e+00,4.478940e-01,4.358292e-01,3,0,3.208890e+00,3.208895e+00,1
1.197054e+00,8.738380e-01,8.618832e-01,3,1,3.899843e+00,3.899868e+00,1
1.190466e+00,7.849080e-01,7.729530e-01,3,1,2.221679e+00,2.221677e+00,1
1.195585e+00,4.436390e-01,4.320145e-01,3,0,1.662393e+00,1.662393e+00,1
1.197993e+00,4.435790e-01,4.327297e-01,3,0,1.277378e+00,1.277379e+00,1
1.192422e+00,4.500830e-01,4.391670e-01,3,0,8.542351e-01,8.542352e-01,1
1.200880e+00,4.436070e-01,4.332066e-01,3,0,7.535847e-01,7.535851e-01,1
1.193575e+00,4.439350e-01,4.327297e-01,3,0,1.082508e+00,1.082509e+00,1
1.194267e+00,4.497500e-01,4.398823e-01,3,0,1.037307e+00,1.037307e+00,1
1.191903e+00,4.428230e-01,4.310608e-01,3,0,5.150274e-01,5.150284e-01,1
1.191245e+00,4.440870e-01,4.339218e-01,3,0,1.401111e+00,1.401114e+00,1
1.188847e+00,4.485610e-01,4.379749e-01,3,0,7.794898e-01,7.794896e-01,1
1.189905e+00,4.494990e-01,4.379749e-01,3,0,6.904985e-01,6.904991e-01,1
1.197202e+00,4.436420e-01,4.320145e-01,3,0,9.633689e-01,9.633702e-01,1
1.187667e+00,4.438280e-01,4.329681e-01,3,0,7.896376e-01,7.896378e-01,1
1.197745e+00,4.494720e-01,4.382133e-01,3,0,9.274805e-01,9.274812e-01,1
1.201609e+00,4.435690e-01,4.329681e-01,3,0,1.180592e+00,1.180593e+00,1
1.197922e+00,4.436530e-01,4.329681e-01,3,0,9.315872e-01,9.315880e-01,1
1.191644e+00,4.489390e-01,4.379749e-01,3,0,9.682820e-01,9.682834e-01,1
1.190185e+00,4.433980e-01,4.320145e-01,3,0,1.207584e+00,1.207582e+00,1
1.187906e+00,4.436930e-01,4.332066e-01,3,0,1.483718e+00,1.483715e+00,1
1.192292e+00,4.577350e-01,4.460812e-01,3,0,2.225067e+00,2.225070e+00,1
1.194356e+00,4.499780e-01,4.379749e-01,3,0,1.541478e+00,1.541478e+00,1
1.191958e+00,4.430330e-01,4.317760e-01,3,0,1.475212e+00,1.475214e+00,1
1.190385e+00,4.507730e-01,4.320145e-01,3,0,1.428448e+00,1.428449e+00,1
1.196232e+00,4.484330e-01,4.379749e-01,3,0,1.548338e+00,1.548338e+00,1
1.200409e+00,4.446910e-01,4.332066e-01,3,0,1.281106e+00,1.281106e+00,1
1.197130e+00,1.611328e+00,1.600027e+00,3,3,2.181944e+00,2.201520e+00,1
1.580096e+00,2.074794e+00,2.065182e+00,4,4,1.651619e+00,1.676894e+00,1
1.194749e+00,5.391250e-01,5.278587e-01,3,0,1.545425e+00,1.570309e+00,1
1.194114e+00,1.735229e+00,1.724005e+00,3,3,1.511079e+00,1.545193e+00,1
1.193232e+00,9.948480e-01,9.839535e-01,3,1,1.366429e+00,1.541836e+00,1
1.189462e+00,1.337329e+00,1.326084e+00,3,2,9.767687e-01,1.031550e+00,1
1.203308e+00,9.957700e-01,9.841919e-01,3,1,1.185794e+00,1.219474e+00,1
1.197129e+00,1.243884e+00,1.232862e+00,3,2,1.335170e+00,1.335171e+00,1
1.186572e+00,4.440470e-01,4.329681e-01,3,0,9.194728e-01,9.194731e-01,1
1.196812e+00,4.495750e-01,4.386902e-01,3,0,1.722322e+00,1.722325e+00,1
1.200888e+00,4.435870e-01,4.329681e-01,3,0,1.214601e+00,1.214601e+00,1
1.192416e+00,4.432370e-01,4.320145e-01,3,0,1.109557e+00,1.109558e+00,1
1.193308e+00,4.490880e-01,4.389286e-01,3,0,9.943912e-01,9.943915e-01,1
1.186988e+00,4.433180e-01,4.329681e-01,3,0,7.779479e-01,7.779492e-01,1
1.191237e+00,4.439810e-01,4.317760e-01,3,0,5.712351e-01,5.712356e-01,1
1.188862e+00,4.491040e-01,4.379749e-01,3,0,1.133022e+00,1.133023e+00,1
1.193409e+00,4.488660e-01,4.389286e-01,3,0,9.776514e-01,9.776519e-01,1
1.195148e+00,4.437340e-01,4.327297e-01,3,0,9.931032e-01,9.931043e-01,1
1.190439e+00,4.480990e-01,4.370213e-01,3,0,9.292883e-01,9.292886e-01,1
1.187400e+00,4.522690e-01,4.408360e-01,3,0,7.235437e-01,7.235443e-01,1
1.194707e+00,4.443400e-01,4.322529e-01,3,0,8.692878e-01,8.692884e-01,1
1.194032e+00,4.445360e-01,4.339218e-01,3,0,6.739455e-01,6.739457e-01,1
1.198266e+00,4.521330e-01,4.401207e-01,3,0,2.843296e+00,2.843162e+00,1
1.593357e+00,1.608606e+00,1.597881e+00,4,3,6.317584e+00,6.325519e+00,1
1.189572e+00,7.854260e-01,7.741451e-01,3,1,4.753318e+00,4.753296e+00,1
1.191820e+00,4.516620e-01,4.401207e-01,3,0,3.395286e+00,3.395285e+00,1
1.199701e+00,4.452080e-01,4.339218e-01,3,0,2.487667e+00,2.487667e+00,1
1.192359e+00,4.442170e-01,4.329681e-01,3,0,2.696533e+00,2.696534e+00,1
1.190382e+00,4.497190e-01,4.382133e-01,3,0,2.129329e+00,2.129329e+00,1
1.194236e+00,4.488730e-01,4.379749e-01,3,0,2.058612e+00,2.058613e+00,1
1.190830e+00,4.431040e-01,4.317760e-01,3,0,2.473861e+00,2.473864e+00,1
1.191061e+00,4.489680e-01,4.382133e-01,3,0,2.816114e+00,2.816116e+00,1
1.191119e+00,4.497650e-01,4.398823e-01,3,0,2.575943e+00,2.575944e+00,1
1.192925e+00,8.759020e-01,8.659363e-01,3,1,2.743080e+00,2.743751e+00,1
1.188383e+00,1.207403e+00,1.195669e+00,3,2,3.653782e+00,3.654333e+00,1
1.193896e+00,7.850800e-01,7.741451e-01,3,1,2.698780e+00,2.698778e+00,1
1.193196e+00,4.488400e-01,4.370213e-01,3,0,1.831038e+00,1.831038e+00,1
1.189869e+00,4.497300e-01,4.377365e-01,3,0,1.085525e+00,1.085525e+00,1
1.194408e+00,4.428440e-01,4.308224e-01,3,0,7.251189e-01,7.251190e-01,1
1.191046e+00,4.435780e-01,4.332066e-01,3,0,5.679818e-01,5.679823e-01,1
1.189585e+00,4.494650e-01,4.377365e-01,3,0,7.810812e-01,7.810823e-01,1
1.191005e+00,4.438440e-01,4.341602e-01,3,0,5.524230e-01,5.524230e-01,1
1.197139e+00,4.433280e-01,4.320145e-01,3,0,9.223123e-01,9.223134e-01,1
1.187393e+00,4.504230e-01,4.391670e-01,3,0,9.794948e-01,9.794953e-01,1
1.190611e+00,8.739940e-01,8.621216e-01,3,1,9.100396e-01,9.104006e-01,1
1.189430e+00,9.972640e-01,9.870529e-01,3,1,1.170699e+00,1.174120e+00,1
1.191589e+00,7.815070e-01,7.710457e-01,3,1,6.530302e-01,6.530302e-01,1
1.191839e+00,4.481520e-01,4.360676e-01,3,0,5.291856e-01,5.291860e-01,1
1.188125e+00,4.488730e-01,4.370213e-01,3,0,2.805826e+00,2.805833e+00,1
1.200171e+00,4.442160e-01,4.327297e-01,3,0,2.923847e+00,2.923849e+00,1
1.188592e+00,4.480760e-01,4.332066e-01,3,0,1.421965e+00,1.421964e+00,1
1.194468e+00,4.492790e-01,4.382133e-01,3,0,1.403951e+00,1.403952e+00,1
1.195068e+00,4.437760e-01,4.329681e-01,3,0,1.229757e+00,1.229758e+00,1
1.189751e+00,8.695080e-01,8.580685e-01,3,1,1.318260e+00,1.318533e+00,1
1.186906e+00,7.765340e-01,7.660389e-01,3,1,6.726166e-01,6.726166e-01,1
1.187102e+00,4.437560e-01,4.317760e-01,3,0,5.630864e-01,5.630869e-01,1
1.186529e+00,4.488180e-01,4.370213e-01,3,0,1.072379e+00,1.072380e+00,1
1.197885e+00,4.493700e-01,4.389286e-01,3,0,1.338831e+00,1.338832e+00,1
1.197588e+00,4.438400e-01,4.320145e-01,3,0,1.650717e+00,1.650718e+00,1
1.195070e+00,4.435640e-01,4.329681e-01,3,0,1.074412e+00,1.074413e+00,1
1.193408e+00,4.492060e-01,4.379749e-01,3,0,1.030768e+00,1.030769e+00,1
1.197306e+00,4.439000e-01,4.339218e-01,3,0,1.545370e+00,1.545373e+00,1
1.190504e+00,4.446440e-01,4.327297e-01,3,0,2.295772e+00,2.295774e+00,1
1.191030e+00,4.499800e-01,4.391670e-01,3,0,2.548040e+00,2.548041e+00,1
1.192161e+00,8.722440e-01,8.611679e-01,3,1,3.554998e+00,3.566508e+00,1
1.192556e+00,5.392550e-01,5.290508e-01,3,0,3.359727e+00,3.359736e+00,1
1.195156e+00,1.901853e+00,1.890898e+00,3,4,5.292551e+00,5.307572e+00,1
1.583588e+00,1.394110e+00,1.383066e+00,4,3,2.343678e+00,2.343676e+00,1
1.189531e+00,4.499790e-01,4.379749e-01,3,0,1.946730e+00,1.946730e+00,1
1.191709e+00,1.265539e+00,1.253843e+00,3,2,2.849789e+00,2.851451e+00,1
1.195528e+00,1.117748e+00,1.106977e+00,3,2,1.396953e+00,1.396951e+00,1
1.187517e+00,4.436870e-01,4.317760e-01,3,0,1.151905e+00,1.151905e+00,1
1.196936e+00,4.491160e-01,4.370213e-01,3,0,9.168817e-01,9.168821e-01,1
1.191533e+00,4.484580e-01,4.329681e-01,3,0,6.066926e-01,6.066925e-01,1
1.192724e+00,4.436540e-01,4.320145e-01,3,0,1.297591e+00,1.297593e+00,1
1.191062e+00,4.490740e-01,4.391670e-01,3,0,9.659279e-01,9.659280e-01,1
1.192431e+00,4.485710e-01,4.370213e-01,3,0,5.434719e-01,5.434719e-01,1
1.195487e+00,4.436790e-01,4.317760e-01,3,0,1.279895e+00,1.279898e+00,1
1.190810e+00,4.432290e-01,4.320145e-01,3,0,8.866511e-01,8.866510e-01,1
1.195852e+00,4.493540e-01,4.377365e-01,3,0,4.791760e-01,4.791763e-01,1
1.196264e+00,4.433360e-01,4.322529e-01,3,0,5.183577e-01,5.183580e-01,1
1.193681e+00,4.441130e-01,4.327297e-01,3,0,6.717874e-01,6.717883e-01,1
1.195816e+00,8.718230e-01,8.599758e-01,3,1,1.008654e+00,1.009343e+00,1
1.193332e+00,9.319510e-01,9.200573e-01,3,1,2.098631e+00,2.099259e+00,1
1.186159e+00,8.652130e-01,8.549690e-01,3,1,1.553795e+00,1.569835e+00,1
1.189031e+00,9.319840e-01,9.210110e-01,3,1,2.806385e+00,2.899586e+00,1
1.189144e+00,8.723710e-01,8.609295e-01,3,1,1.234041e+00,1.234195e+00,1
1.196069e+00,7.838200e-01,7.722378e-01,3,1,9.837335e-01,9.837340e-01,1
1.186443e+00,4.496960e-01,4.391670e-01,3,0,6.599792e-01,6.599792e-01,1
1.188567e+00,4.436480e-01,4.332066e-01,3,0,6.044146e-01,6.044154e-01,1
1.193361e+00,4.482320e-01,4.370213e-01,3,0,1.693316e+00,1.693320e+00,1
1.196456e+00,4.488400e-01,4.379749e-01,3,0,1.689724e+00,1.689725e+00,1
1.191379e+00,4.433980e-01,4.329681e-01,3,0,2.591340e+00,2.591311e+00,1
1.193073e+00,4.434040e-01,4.320145e-01,3,0,2.664426e+00,2.664419e+00,1
1.193081e+00,4.495810e-01,4.379749e-01,3,0,3.058502e+00,3.058504e+00,1
1.192445e+00,4.438130e-01,4.341602e-01,3,0,5.003809e+00,5.003814e+00,1
1.190097e+00,8.643310e-01,8.530617e-01,3,1,5.603188e+00,5.603200e+00,1
1.188617e+00,1.209423e+00,1.198053e+00,3,2,4.187892e+00,4.198182e+00,1
1.192133e+00,9.332030e-01,9.222031e-01,3,1,3.762245e+00,3.773543e+00,1
1.189272e+00,8.739410e-01,8.630753e-01,3,1,5.277108e+00,5.279451e+00,1
1.193256e+00,1.206758e+00,1.194954e+00,3,2,3.589193e+00,3.591483e+00,1
1.192752e+00,7.866750e-01,7.760525e-01,3,1,2.975804e+00,2.975804e+00,1
1.191881e+00,4.439730e-01,4.320145e-01,3,0,3.002375e+00,3.002378e+00,1
1.192657e+00,4.440140e-01,4.320145e-01,3,0,3.238355e+00,3.238357e+00,1
1.191975e+00,8.738890e-01,8.628368e-01,3,1,3.540475e+00,3.555157e+00,1
1.197952e+00,7.794770e-01,7.677078e-01,3,1,2.613425e+00,2.613426e+00,1
1.187403e+00,4.439340e-01,4.339218e-01,3,0,2.509161e+00,2.509161e+00,1
1.197751e+00,1.672230e+00,1.662016e+00,3,3,3.218733e+00,3.230381e+00,1
1.189854e+00,1.612643e+00,1.603127e+00,3,3,3.533762e+00,3.631149e+00,1
1.193894e+00,8.759630e-01,8.659363e-01,3,1,2.240106e+00,2.254640e+00,1
1.200779e+00,1.207603e+00,1.195908e+00,3,2,2.154512e+00,2.165146e+00,1
1.193459e+00,7.797740e-01,7.679462e-01,3,1,1.268612e+00,1.268582e+00,1
1.194246e+00,4.436320e-01,4.322529e-01,3,0,1.230289e+00,1.230249e+00,1

