8.501880e-01,5.321368e+02,5.317490e+02,2,1000,0.000000e+00,3.903128e-18,0
1.204509e+00,2.674619e+01,2.671218e+01,3,63,1.479815e-01,1.479818e-01,1
1.194780e+00,4.434720e-01,4.320145e-01,3,0,2.729663e-01,2.729669e-01,1
1.195379e+00,4.494240e-01,4.379749e-01,3,0,5.772365e-01,5.772375e-01,1
1.197694e+00,4.427470e-01,4.308224e-01,3,0,5.319959e-01,5.319963e-01,1
1.198123e+00,4.418070e-01,4.310608e-01,3,0,2.495539e+00,2.495544e+00,1
1.194318e+00,4.493030e-01,4.370213e-01,3,0,3.483939e+00,3.483942e+00,1
1.198102e+00,8.556160e-01,8.437634e-01,3,1,4.575185e+00,4.575496e+00,1
1.194266e+00,7.853200e-01,7.739067e-01,3,1,2.249721e+00,2.249719e+00,1
1.194908e+00,4.513740e-01,4.398823e-01,3,0,1.993908e+00,1.993909e+00,1
1.201952e+00,4.445660e-01,4.320145e-01,3,0,1.652198e+00,1.652199e+00,1
1.193451e+00,4.427560e-01,4.320145e-01,3,0,1.912000e+00,1.912002e+00,1
1.193762e+00,4.500690e-01,4.382133e-01,3,0,3.167769e+00,3.167772e+00,1
1.200587e+00,4.431390e-01,4.320145e-01,3,0,4.321649e+00,4.321652e+00,1
1.188489e+00,4.433150e-01,4.320145e-01,3,0,3.962643e+00,3.962644e+00,1
1.193718e+00,1.229781e+00,1.218081e+00,3,2,5.532209e+00,5.533773e+00,1
1.194647e+00,1.119049e+00,1.107931e+00,3,2,4.322686e+00,4.322685e+00,1
1.189580e+00,8.740860e-01,8.618832e-01,3,1,3.783800e+00,3.783802e+00,1
1.193572e+00,9.315220e-01,9.198189e-01,3,1,3.615005e+00,3.625950e+00,1
1.191365e+00,5.310370e-01,5.199909e-01,3,0,3.443870e+00,3.456772e+00,1
1.190678e+00,1.272078e+00,1.260042e+00,3,2,3.602119e+00,3.624228e+00,1
1.184552e+00,8.716920e-01,8.599758e-01,3,1,3.003095e+00,3.004587e+00,1
1.186864e+00,5.328510e-01,5.211830e-01,3,0,2.704881e+00,2.711395e+00,1
1.189302e+00,1.266217e+00,1.255989e+00,3,2,2.359568e+00,2.476382e+00,1
1.184810e+00,9.967340e-01,9.851456e-01,3,1,2.327104e+00,2.369525e+00,1
1.186079e+00,5.386120e-01,5.269051e-01,3,0,2.249743e+00,2.249896e+00,1
1.187610e+00,7.852670e-01,7.741451e-01,3,1,1.863458e+00,1.863381e+00,1
1.192351e+00,4.502830e-01,4.398823e-01,3,0,1.337526e+00,1.337078e+00,1
1.196072e+00,4.435570e-01,4.317760e-01,3,0,6.728748e-01,6.728773e-01,1
1.185355e+00,4.430610e-01,4.310608e-01,3,0,5.761621e-01,5.761623e-01,1
1.187378e+00,4.501190e-01,4.379749e-01,3,0,1.145981e+00,1.145983e+00,1
1.186131e+00,4.495380e-01,4.379749e-01,3,0,1.352064e+00,1.352065e+00,1
1.189964e+00,4.441530e-01,4.341602e-01,3,0,1.167215e+00,1.167215e+00,1
1.185141e+00,4.491590e-01,4.379749e-01,3,0,1.802804e+00,1.802806e+00,1
1.188073e+00,4.506090e-01,4.391670e-01,3,0,1.475415e+00,1.475415e+00,1
1.196734e+00,4.435210e-01,4.329681e-01,3,0,1.089997e+00,1.089997e+00,1
1.186114e+00,4.439350e-01,4.332066e-01,3,0,7.990721e-01,7.990728e-01,1
1.185102e+00,4.494450e-01,4.367828e-01,3,0,6.637115e-01,6.637120e-01,1
1.186743e+00,8.758020e-01,8.652210e-01,3,1,1.686879e+00,1.687149e+00,1
1.187185e+00,7.842570e-01,7.731915e-01,3,1,1.863139e+00,1.863140e+00,1
1.189223e+00,1.647633e+00,1.636982e+00,3,3,4.194033e+00,4.283494e+00,1
1.188648e+00,1.640693e+00,1.628876e+00,3,3,5.743290e+00,5.795181e+00,1
1.191045e+00,1.542707e+00,1.530886e+00,3,3,3.643477e+00,3.643767e+00,1
1.184738e+00,1.247526e+00,1.236200e+00,3,2,5.503763e+00,5.504217e+00,1
1.186201e+00,7.854510e-01,7.748604e-01,3,1,4.401126e+00,4.401126e+00,1
1.189475e+00,4.501920e-01,4.398823e-01,3,0,3.559278e+00,3.559278e+00,1
1.197059e+00,4.439510e-01,4.329681e-01,3,0,3.189256e+00,3.189256e+00,1
1.189821e+00,4.434760e-01,4.320145e-01,3,0,2.648876e+00,2.648876e+00,1
1.188531e+00,4.567500e-01,4.448891e-01,3,0,2.128176e+00,2.128176e+00,1
1.220787e+00,4.314030e-01,4.200935e-01,3,0,1.356969e+00,1.356969e+00,1
1.196980e+00,4.309910e-01,4.198551e-01,3,0,1.216307e+00,1.216308e+00,1
1.187657e+00,4.562480e-01,4.441738e-01,3,0,1.933785e+00,1.933787e+00,1
1.186679e+00,4.449150e-01,4.341602e-01,3,0,1.412290e+00,1.412290e+00,1
1.182326e+00,8.856970e-01,8.749962e-01,3,1,1.203823e+00,1.204324e+00,1
1.218298e+00,2.064124e+00,2.052784e+00,3,4,1.591164e+00,1.615987e+00,1
1.156265e+00,8.830820e-01,8.728504e-01,3,1,2.183247e+00,2.211567e+00,1
1.542324e+00,7.620310e-01,7.510185e-01,4,1,1.189468e+00,1.189468e+00,1
1.156010e+00,4.306090e-01,4.191399e-01,3,0,1.830867e+00,1.830868e+00,1
1.156754e+00,4.381400e-01,4.270077e-01,3,0,2.580660e+00,2.580660e+00,1
1.160840e+00,4.561320e-01,4.448891e-01,3,0,3.886620e+00,3.886562e+00,1
1.154861e+00,4.305180e-01,4.198551e-01,3,0,1.759869e+00,1.759873e+00,1
1.157643e+00,1.598865e+00,1.588106e+00,3,3,3.789230e+00,3.854572e+00,1
1.153971e+00,3.029882e+00,3.015041e+00,3,4,7.133800e+00,7.578995e+00,0
1.153139e+00,2.177535e+00,2.166033e+00,3,5,3.878845e+00,3.909053e+00,1
1.161921e+00,3.678528e+00,3.663063e+00,3,6,5.334587e+00,5.895626e+00,0
1.538050e+00,1.413650e+00,1.402140e+00,4,3,2.306281e+00,2.306280e+00,1
1.153264e+00,4.318730e-01,4.210472e-01,3,0,2.477011e+00,2.477010e+00,1
1.153807e+00,4.369470e-01,4.251003e-01,3,0,1.943854e+00,1.943855e+00,1
1.156773e+00,4.313910e-01,4.200935e-01,3,0,1.521609e+00,1.521610e+00,1
1.153542e+00,4.305090e-01,4.189014e-01,3,0,1.170412e+00,1.170413e+00,1
1.154017e+00,4.371180e-01,4.258156e-01,3,0,1.744975e+00,1.744976e+00,1
1.151482e+00,4.305310e-01,4.198551e-01,3,0,1.780093e+00,1.780094e+00,1
1.155587e+00,4.369420e-01,4.270077e-01,3,0,1.803832e+00,1.803832e+00,1
1.154201e+00,8.465100e-01,8.349419e-01,3,1,2.028503e+00,2.029700e+00,1
1.153232e+00,9.058290e-01,8.940697e-01,3,1,2.951931e+00,2.981483e+00,1
1.155563e+00,5.223730e-01,5.109310e-01,3,0,3.962405e+00,4.012176e+00,1
1.151952e+00,1.230981e+00,1.218796e+00,3,2,2.390049e+00,2.434473e+00,1
1.152775e+00,1.295082e+00,1.283884e+00,3,2,2.382916e+00,2.398746e+00,1
1.157098e+00,5.170640e-01,5.056858e-01,3,0,1.759628e+00,1.775799e+00,1
1.197101e+00,7.541890e-01,7.431507e-01,3,1,8.680045e-01,8.680044e-01,1
1.193472e+00,4.440520e-01,4.329681e-01,3,0,2.969035e+00,2.969041e+00,1
1.192615e+00,4.501120e-01,4.401207e-01,3,0,2.199067e+00,2.199067e+00,1
1.193374e+00,4.489190e-01,4.320145e-01,3,0,1.970163e+00,1.970163e+00,1
1.191584e+00,8.742480e-01,8.640289e-01,3,1,1.899728e+00,1.928232e+00,1
1.193492e+00,1.239580e+00,1.229048e+00,3,2,2.727502e+00,2.727507e+00,1
1.194759e+00,4.506880e-01,4.389286e-01,3,0,4.899441e+00,4.899446e+00,1
1.197158e+00,1.983925e+00,1.971722e+00,3,4,7.341668e+00,7.345582e+00,1
1.195332e+00,3.740418e+00,3.724813e+00,3,6,1.071635e+01,1.552251e+01,0
1.198399e+00,5.540120e+00,5.522728e+00,3,11,8.720592e+00,9.214320e+00,0
1.203760e+00,4.306108e+00,4.288912e+00,3,8,6.225243e+00,6.396050e+00,0
1.203245e+00,2.670845e+00,2.660036e+00,3,6,4.799712e+00,4.811003e+00,1
1.194789e+00,1.609629e+00,1.599073e+00,3,3,3.368055e+00,3.372486e+00,1
1.193342e+00,3.176591e+00,3.165007e+00,3,7,4.757705e+00,4.805633e+00,1
1.195962e+00,8.777800e-01,8.659363e-01,3,1,3.538262e+00,3.572258e+00,1
1.212895e+00,2.747789e+00,2.726793e+00,3,6,4.572784e+00,4.706831e+00,1
2.396708e+00,2.644051e+00,2.631903e+00,6,6,5.025497e+00,5.177699e+00,1
1.595366e+00,2.936588e+00,2.923965e+00,4,7,2.155321e+00,2.227532e+00,1
1.193869e+00,7.849740e-01,7.739067e-01,3,1,1.874238e+00,1.874239e+00,1
1.195198e+00,4.446490e-01,4.329681e-01,3,0,2.672973e+00,2.672975e+00,1
1.195665e+00,4.498450e-01,4.379749e-01,3,0,2.904358e+00,2.904360e+00,1
1.192842e+00,4.503730e-01,4.389286e-01,3,0,2.191671e+00,2.191671e+00,1
1.199862e+00,4.432990e-01,4.320145e-01,3,0,2.522564e+00,2.522566e+00,1
1.193804e+00,4.434060e-01,4.332066e-01,3,0,1.488892e+00,1.488893e+00,1
1.193234e+00,4.500980e-01,4.389286e-01,3,0,1.358049e+00,1.358050e+00,1
1.199205e+00,4.440340e-01,4.339218e-01,3,0,1.123270e+00,1.123270e+00,1
1.197674e+00,4.442830e-01,4.329681e-01,3,0,1.171362e+00,1.171364e+00,1
1.204886e+00,8.953630e-01,8.800030e-01,3,1,1.628074e+00,1.628335e+00,1
1.191771e+00,1.208464e+00,1.198053e+00,3,2,1.773789e+00,1.778106e+00,1
1.189961e+00,1.000366e+00,9.870529e-01,3,1,1.144897e+00,1.147993e+00,1
1.194905e+00,1.732490e+00,1.721144e+00,3,3,1.149797e+00,1.203469e+00,1
1.195943e+00,5.407270e-01,5.288124e-01,3,0,1.059623e+00,1.081954e+00,1
1.194853e+00,5.383430e-01,5.271435e-01,3,0,8.885790e-01,8.885802e-01,1
1.196066e+00,7.853080e-01,7.741451e-01,3,1,6.242777e-01,6.242778e-01,1
1.198561e+00,4.438200e-01,4.329681e-01,3,0,1.096904e+00,1.096904e+00,1
1.193164e+00,4.440320e-01,4.317760e-01,3,0,5.838640e-01,5.838641e-01,1
1.196179e+00,4.510150e-01,4.391670e-01,3,0,6.718884e-01,6.718889e-01,1
1.192561e+00,4.468260e-01,4.339218e-01,3,0,1.728929e+00,1.728931e+00,1
1.186102e+00,4.440800e-01,4.317760e-01,3,0,1.261320e+00,1.261320e+00,1
1.187899e+00,4.500910e-01,4.377365e-01,3,0,4.046103e+00,4.046109e+00,1
1.190232e+00,8.757460e-01,8.649826e-01,3,1,2.808974e+00,2.852693e+00,1
1.185467e+00,5.397740e-01,5.278587e-01,3,0,2.725588e+00,2.920546e+00,1
1.191019e+00,9.963020e-01,9.849072e-01,3,1,3.395084e+00,3.508082e+00,1
1.186197e+00,7.860550e-01,7.739067e-01,3,1,3.067600e+00,3.067600e+00,1
1.191368e+00,8.743430e-01,8.640289e-01,3,1,3.380391e+00,3.380541e+00,1
1.196373e+00,3.055797e+00,3.039598e+00,3,4,5.964215e+00,7.509971e+00,0
1.188856e+00,1.280564e+00,1.269102e+00,3,2,3.876229e+00,3.893416e+00,1
1.195240e+00,1.210058e+00,1.199961e+00,3,2,2.948849e+00,2.948889e+00,1
1.188361e+00,1.548955e+00,1.537800e+00,3,3,2.571978e+00,2.574444e+00,1
1.578200e+00,1.125288e+00,1.112700e+00,4,2,1.533737e+00,1.533739e+00,1
1.194742e+00,4.500600e-01,4.398823e-01,3,0,1.691879e+00,1.691867e+00,1
1.193526e+00,4.441190e-01,4.317760e-01,3,0,1.059841e+00,1.059842e+00,1
1.193991e+00,4.434570e-01,4.317760e-01,3,0,1.388553e+00,1.388555e+00,1
1.187303e+00,4.497950e-01,4.391670e-01,3,0,6.228444e-01,6.228446e-01,1
1.191192e+00,4.431990e-01,4.317760e-01,3,0,5.065180e-01,5.065183e-01,1
1.187792e+00,4.433420e-01,4.310608e-01,3,0,5.197567e-01,5.197571e-01,1
1.191096e+00,8.739390e-01,8.630753e-01,3,1,1.127346e+00,1.136991e+00,1
1.184984e+00,1.247955e+00,1.238108e+00,3,2,1.163896e+00,1.163897e+00,1
1.191452e+00,4.438650e-01,4.317760e-01,3,0,9.850274e-01,9.850277e-01,1
1.192850e+00,4.438370e-01,4.320145e-01,3,0,1.074157e+00,1.074158e+00,1
1.188414e+00,4.505930e-01,4.386902e-01,3,0,9.100922e-01,9.100927e-01,1
1.188626e+00,4.442870e-01,4.339218e-01,3,0,1.696947e+00,1.696949e+00,1
1.185271e+00,8.733440e-01,8.618832e-01,3,1,2.892157e+00,2.893953e+00,1
1.190251e+00,1.283456e+00,1.271963e+00,3,2,3.268142e+00,3.316022e+00,1
1.577350e+00,1.335408e+00,1.324177e+00,4,2,2.576069e+00,2.651835e+00,1
1.192095e+00,9.354300e-01,9.241104e-01,3,1,2.288310e+00,2.381775e+00,1
1.186390e+00,1.332531e+00,1.322031e+00,3,2,2.112948e+00,2.261443e+00,1
1.184479e+00,8.751110e-01,8.628368e-01,3,1,1.517284e+00,1.642935e+00,1
1.189622e+00,5.387840e-01,5.280972e-01,3,0,1.340256e+00,1.350879e+00,1
1.185213e+00,7.851280e-01,7.748604e-01,3,1,2.339536e+00,2.339540e+00,1
1.188101e+00,4.438660e-01,4.332066e-01,3,0,3.337114e+00,3.337117e+00,1
1.187024e+00,4.441930e-01,4.320145e-01,3,0,2.039746e+00,2.039745e+00,1
1.188339e+00,4.504760e-01,4.389286e-01,3,0,1.932550e+00,1.932551e+00,1
1.183633e+00,4.504580e-01,4.398823e-01,3,0,1.734184e+00,1.734185e+00,1
1.185048e+00,4.439810e-01,4.329681e-01,3,0,1.589785e+00,1.589786e+00,1
1.191598e+00,4.501770e-01,4.398823e-01,3,0,1.308260e+00,1.308261e+00,1
1.186685e+00,8.755730e-01,8.637905e-01,3,1,1.469923e+00,1.470297e+00,1
1.184895e+00,7.836190e-01,7.731915e-01,3,1,2.404936e+00,2.404939e+00,1
1.186761e+00,4.501190e-01,4.389286e-01,3,0,2.312742e+00,2.312742e+00,1
1.190416e+00,4.440230e-01,4.317760e-01,3,0,2.449951e+00,2.449952e+00,1
1.184927e+00,4.436210e-01,4.329681e-01,3,0,2.780748e+00,2.780752e+00,1
1.185635e+00,4.497440e-01,4.379749e-01,3,0,1.271964e+00,1.271964e+00,1
1.186653e+00,4.491770e-01,4.382133e-01,3,0,1.016596e+00,1.016596e+00,1
1.187011e+00,4.437700e-01,4.329681e-01,3,0,1.065808e+00,1.065809e+00,1
1.193347e+00,4.484690e-01,4.379749e-01,3,0,4.835280e-01,4.835289e-01,1
1.189616e+00,4.497030e-01,4.379749e-01,3,0,4.871204e-01,4.871207e-01,1
1.194991e+00,4.437800e-01,4.322529e-01,3,0,8.336305e-01,8.336315e-01,1
1.186268e+00,4.443260e-01,4.329681e-01,3,0,7.103789e-01,7.103791e-01,1
1.187567e+00,4.504210e-01,4.401207e-01,3,0,1.911969e+00,1.911973e+00,1
1.193797e+00,4.441000e-01,4.317760e-01,3,0,1.422248e+00,1.422249e+00,1
1.186310e+00,4.433130e-01,4.320145e-01,3,0,1.005761e+00,1.005761e+00,1
1.186529e+00,8.753320e-01,8.640289e-01,3,1,8.964316e-01,8.974361e-01,1
1.183747e+00,7.839110e-01,7.731915e-01,3,1,9.129382e-01,9.129387e-01,1
1.186956e+00,4.504820e-01,4.377365e-01,3,0,9.389146e-01,9.389153e-01,1
1.184377e+00,4.499750e-01,4.389286e-01,3,0,5.933556e-01,5.933558e-01,1
1.191908e+00,4.440430e-01,4.339218e-01,3,0,6.646309e-01,6.646318e-01,1
1.189644e+00,4.431560e-01,4.329681e-01,3,0,5.446288e-01,5.446294e-01,1
1.185736e+00,4.501930e-01,4.398823e-01,3,0,4.700790e-01,4.700794e-01,1
1.199116e+00,4.433930e-01,4.329681e-01,3,0,1.265167e+00,1.265169e+00,1
1.187107e+00,4.432670e-01,4.317760e-01,3,0,7.999734e-01,7.999743e-01,1
1.187457e+00,8.755670e-01,8.649826e-01,3,1,1.265382e+00,1.266230e+00,1
1.192498e+00,9.336280e-01,9.219646e-01,3,1,2.042103e+00,2.053024e+00,1
1.183886e+00,9.934180e-01,9.829998e-01,3,1,1.749592e+00,1.790308e+00,1
1.191694e+00,9.947760e-01,9.841919e-01,3,1,1.983360e+00,2.000521e+00,1
1.195840e+00,1.268537e+00,1.256943e+00,3,2,1.392946e+00,1.436885e+00,1
1.192786e+00,1.330973e+00,1.318932e+00,3,2,1.391925e+00,1.412558e+00,1
1.190276e+00,5.399130e-01,5.288124e-01,3,0,1.591440e+00,1.624559e+00,1
1.192168e+00,5.326330e-01,5.209446e-01,3,0,3.491412e+00,3.503135e+00,1
1.195470e+00,7.848090e-01,7.739067e-01,3,1,4.624723e+00,4.624727e+00,1
1.192810e+00,4.441800e-01,4.329681e-01,3,0,4.100041e+00,4.100041e+00,1
1.190973e+00,4.499960e-01,4.382133e-01,3,0,3.333960e+00,3.333961e+00,1
1.191611e+00,4.507780e-01,4.401207e-01,3,0,3.079698e+00,3.079699e+00,1
1.192275e+00,4.440390e-01,4.320145e-01,3,0,2.094798e+00,2.094798e+00,1
1.193742e+00,4.440670e-01,4.329681e-01,3,0,2.071529e+00,2.071531e+00,1
1.194619e+00,1.226706e+00,1.214981e+00,3,2,2.036949e+00,2.036788e+00,1
1.579571e+00,1.119147e+00,1.107931e+00,4,2,1.589258e+00,1.589259e+00,1
1.196085e+00,1.331399e+00,1.320124e+00,3,2,1.399519e+00,1.406453e+00,1
1.194968e+00,1.728382e+00,1.716852e+00,3,3,2.807798e+00,2.953548e+00,1
2.379908e+00,2.062145e+00,2.052069e+00,6,4,5.867625e+00,5.952412e+00,1
2.367182e+00,1.200961e+00,1.189232e+00,6,2,6.173962e+00,6.160247e+00,1
1.983015e+00,1.599380e+00,1.587868e+00,5,3,6.471087e+00,6.461313e+00,1
1.589582e+00,1.272812e+00,1.260996e+00,4,2,7.574896e+00,7.602912e+00,1
1.976941e+00,3.846369e+00,3.834963e+00,5,9,1.075533e+01,1.094656e+01,1
1.588541e+00,4.050415e+00,4.037857e+00,4,10,6.987640e+00,7.028806e+00,1
1.195205e+00,1.648051e+00,1.636028e+00,3,3,8.569373e+00,8.619489e+00,1
1.199280e+00,1.992549e+00,1.980066e+00,3,4,6.582864e+00,6.608883e+00,1
1.197547e+00,4.239803e+00,4.227877e+00,3,10,6.038349e+00,6.090972e+00,1
1.194053e+00,1.551538e+00,1.540899e+00,3,3,4.242931e+00,4.260306e+00,1
1.192272e+00,4.888954e+00,4.873514e+00,3,9,5.184910e+00,5.666345e+00,0
1.187194e+00,2.543004e+00,2.531052e+00,3,6,3.528046e+00,3.605613e+00,1
1.590331e+00,2.724066e+00,2.712965e+00,4,6,4.526682e+00,4.699620e+00,1
1.586844e+00,3.542585e+00,3.530979e+00,4,9,1.487514e+00,1.487816e+00,1
1.192313e+00,5.396370e-01,5.290508e-01,3,0,1.782466e+00,1.822295e+00,1
1.192647e+00,1.208943e+00,1.199007e+00,3,2,3.336167e+00,3.336739e+00,1
1.198095e+00,7.788850e-01,7.669926e-01,3,1,2.517111e+00,2.517111e+00,1
1.197348e+00,8.674630e-01,8.571148e-01,3,1,4.017631e+00,4.032042e+00,1
1.186488e+00,5.339790e-01,5.228519e-01,3,0,3.567281e+00,3.584243e+00,1
1.190752e+00,2.008920e+00,1.996994e+00,3,4,6.163925e+00,6.183867e+00,1
1.591469e+00,1.452194e+00,1.441002e+00,4,3,3.160979e+00,3.160977e+00,1
1.185689e+00,4.442400e-01,4.332066e-01,3,0,2.623575e+00,2.623575e+00,1
1.187872e+00,4.444930e-01,4.327297e-01,3,0,2.058258e+00,2.058258e+00,1
1.186354e+00,4.505010e-01,4.398823e-01,3,0,2.067049e+00,2.067050e+00,1
1.188100e+00,8.762760e-01,8.649826e-01,3,1,2.212628e+00,2.217881e+00,1
1.196064e+00,9.346370e-01,9.231567e-01,3,1,3.355433e+00,3.397422e+00,1
1.195683e+00,1.119566e+00,1.107931e+00,3,2,1.506482e+00,1.506479e+00,1
1.188457e+00,4.436900e-01,4.317760e-01,3,0,1.005217e+00,1.005218e+00,1
1.196033e+00,4.501140e-01,4.401207e-01,3,0,1.147500e+00,1.147501e+00,1
1.197781e+00,4.445250e-01,4.320145e-01,3,0,1.103065e+00,1.103066e+00,1
1.192176e+00,4.434880e-01,4.317760e-01,3,0,8.578973e-01,8.578974e-01,1
1.196115e+00,4.498370e-01,4.389286e-01,3,0,1.393235e+00,1.393237e+00,1
1.192685e+00,4.442430e-01,4.339218e-01,3,0,2.047411e+00,2.047413e+00,1
1.186908e+00,4.442060e-01,4.329681e-01,3,0,3.124990e+00,3.124993e+00,1
1.188953e+00,2.067918e+00,2.057076e+00,3,4,6.807064e+00,6.837579e+00,1
1.198000e+00,1.655271e+00,1.642942e+00,3,3,8.845271e+00,9.045892e+00,1
1.200033e+00,4.118088e+00,4.106045e+00,3,10,6.016577e+00,6.037357e+00,1
1.193682e+00,3.515250e+00,3.504038e+00,3,8,7.443818e+00,7.471302e+00,1
1.194631e+00,4.478656e+00,4.466772e+00,3,11,5.369676e+00,5.373105e+00,1
1.189716e+00,1.601966e+00,1.590014e+00,3,3,4.262597e+00,4.263470e+00,1
1.191889e+00,1.664752e+00,1.652718e+00,3,3,4.729741e+00,4.763100e+00,1
1.199081e+00,1.118896e+00,1.107931e+00,3,2,2.571389e+00,2.571386e+00,1
1.187019e+00,4.439990e-01,4.320145e-01,3,0,1.972747e+00,1.972751e+00,1
1.192095e+00,4.497180e-01,4.389286e-01,3,0,1.519478e+00,1.519478e+00,1
1.190535e+00,4.505100e-01,4.389286e-01,3,0,1.423006e+00,1.423007e+00,1
1.185285e+00,4.446440e-01,4.329681e-01,3,0,1.351736e+00,1.351736e+00,1
1.189550e+00,4.507260e-01,4.391670e-01,3,0,2.093884e+00,2.093886e+00,1
1.192669e+00,4.504260e-01,4.391670e-01,3,0,7.181761e-01,7.181756e-01,1
1.194549e+00,4.436710e-01,4.329681e-01,3,0,2.870438e+00,2.870445e+00,1
1.193525e+00,1.638297e+00,1.626968e+00,3,3,6.329551e+00,6.386609e+00,1
1.195434e+00,1.458997e+00,1.447201e+00,3,3,3.707010e+00,3.706958e+00,1
1.194854e+00,4.506920e-01,4.391670e-01,3,0,2.646042e+00,2.646042e+00,1
1.194084e+00,4.441290e-01,4.339218e-01,3,0,2.171313e+00,2.171313e+00,1
1.185555e+00,4.448190e-01,4.329681e-01,3,0,1.845787e+00,1.845787e+00,1
1.195351e+00,4.504100e-01,4.386902e-01,3,0,1.730159e+00,1.730160e+00,1
1.190302e+00,8.754330e-01,8.630753e-01,3,1,2.906248e+00,2.918797e+00,1
1.191470e+00,1.601994e+00,1.590967e+00,3,3,2.248475e+00,2.248584e+00,1
1.191821e+00,8.767920e-01,8.659363e-01,3,1,1.617884e+00,1.617891e+00,1
1.188972e+00,7.852910e-01,7.729530e-01,3,1,1.801879e+00,1.801880e+00,1
1.195807e+00,1.265774e+00,1.254082e+00,3,2,3.090988e+00,3.101457e+00,1
1.192825e+00,5.337840e-01,5.221367e-01,3,0,5.012020e+00,5.037543e+00,1
1.188513e+00,2.485526e+00,2.474070e+00,3,5,9.128400e+00,9.301742e+00,1
1.187399e+00,4.539206e+00,4.526854e+00,3,11,1.116648e+01,1.166148e+01,1
1.188878e+00,5.097260e+00,5.079985e+00,3,10,1.008819e+01,1.141529e+01,0
1.187274e+00,3.746687e+00,3.730536e+00,3,6,1.059595e+01,1.118818e+01,0
1.184843e+00,4.446803e+00,4.435062e+00,3,11,8.944654e+00,9.003886e+00,1
1.195113e+00,2.371781e+00,2.361059e+00,3,5,9.414828e+00,9.521341e+00,1
1.195002e+00,2.304026e+00,2.292871e+00,3,5,9.402295e+00,9.459404e+00,1
1.193839e+00,4.458164e+00,4.443169e+00,3,8,7.748112e+00,8.801354e+00,0
1.193419e+00,3.790105e+00,3.777742e+00,3,9,6.681176e+00,6.699484e+00,1
1.198985e+00,1.616646e+00,1.605034e+00,3,3,5.143038e+00,5.145203e+00,1
1.193859e+00,3.116787e+00,3.105164e+00,3,7,4.682739e+00,4.707642e+00,1
1.195169e+00,3.857060e+00,3.845930e+00,3,9,4.706337e+00,4.784685e+00,1
2.374505e+00,4.842669e+00,4.825830e+00,6,9,6.056519e+00,8.107831e+00,0
2.368732e+00,1.519204e+00,1.502991e+00,6,0,1.131128e+01,2.508339e+01,0
2.373337e+00,1.525786e+00,1.509666e+00,6,0,1.278827e+01,2.353269e+01,0
2.367752e+00,1.521262e+00,1.506329e+00,6,0,1.453914e+01,1.848185e+01,0
1.976326e+00,5.205688e+00,5.189180e+00,5,10,1.283549e+01,1.853117e+01,0
1.580083e+00,1.930459e+00,1.915455e+00,4,1,1.313347e+01,1.988871e+01,0
1.976845e+00,1.538271e+00,1.520872e+00,5,0,1.621375e+01,2.741370e+01,0
1.581023e+00,7.067265e+00,7.051229e+00,4,15,1.513639e+01,2.075285e+01,0
1.982839e+00,6.609763e+00,6.593943e+00,5,14,1.257801e+01,1.731020e+01,0
1.585039e+00,8.762418e+00,8.744955e+00,4,20,1.082799e+01,1.178700e+01,0
1.192708e+00,8.698442e+00,8.686066e+00,3,23,9.550420e+00,9.929754e+00,1
1.190780e+00,3.286445e+00,3.271103e+00,3,5,8.132965e+00,9.383920e+00,0
1.194353e+00,1.526655e+00,1.511097e+00,3,0,7.281158e+00,1.031601e+01,0
1.187930e+00,6.949263e+00,6.934166e+00,3,15,7.369552e+00,1.459868e+01,0
1.586744e+00,4.422309e+00,4.412174e+00,4,11,4.210929e+00,4.251736e+00,1
1.184929e+00,5.406440e-01,5.290508e-01,3,0,3.619965e+00,3.649326e+00,1
1.186290e+00,1.889557e+00,1.872778e+00,3,1,3.885134e+00,6.762788e+00,0
1.584601e+00,1.271615e+00,1.259804e+00,4,2,2.751306e+00,2.768611e+00,1
1.192958e+00,1.966946e+00,1.955986e+00,3,4,2.301949e+00,2.301525e+00,1
1.600688e+00,1.061043e+00,1.049995e+00,4,2,1.885458e+00,1.884363e+00,1
1.223387e+00,5.263170e-01,5.080700e-01,3,0,1.203405e+00,1.203267e+00,1
1.214348e+00,6.407290e-01,6.139278e-01,3,0,7.326661e-01,7.326693e-01,1
1.222482e+00,6.767700e-01,6.511211e-01,3,0,5.741113e-01,5.741123e-01,1
1.215073e+00,5.933560e-01,5.712509e-01,3,0,8.156805e-01,8.156814e-01,1
1.208879e+00,6.270740e-01,6.029606e-01,3,0,1.089879e+00,1.089881e+00,1
1.197334e+00,5.104420e-01,4.930496e-01,3,0,7.607246e-01,7.607248e-01,1
1.204439e+00,4.758890e-01,4.620552e-01,3,0,8.005970e-01,8.005985e-01,1
1.195691e+00,8.984130e-01,8.850098e-01,3,1,2.160997e+00,2.166270e+00,1
1.195490e+00,1.363431e+00,1.348972e+00,3,2,4.809781e+00,4.852494e+00,1
1.218726e+00,2.607075e+00,2.593040e+00,3,5,6.523755e+00,6.572568e+00,1
1.196403e+00,2.367710e+00,2.352953e+00,3,5,5.497023e+00,5.626166e+00,1
1.195026e+00,2.128140e+00,2.115965e+00,3,4,5.894189e+00,5.967903e+00,1
1.188477e+00,1.219840e+00,1.207113e+00,3,2,5.757157e+00,5.795984e+00,1
1.199118e+00,1.273757e+00,1.260042e+00,3,2,5.098131e+00,5.109116e+00,1
1.196791e+00,1.271900e+00,1.260042e+00,3,2,4.055652e+00,4.055991e+00,1
1.188968e+00,2.006425e+00,1.994133e+00,3,4,3.994041e+00,4.002926e+00,1
1.194375e+00,2.305617e+00,2.288818e+00,3,2,7.163865e+00,9.406244e+00,0
2.764610e+00,2.281175e+00,2.263308e+00,7,2,9.350060e+00,1.549183e+01,0
2.365313e+00,1.545320e+00,1.528025e+00,6,0,1.106225e+01,2.337127e+01,0
1.976943e+00,6.428734e+00,6.411552e+00,5,13,9.074008e+00,1.243990e+01,0
1.973721e+00,3.462938e+00,3.451109e+00,5,8,6.937634e+00,7.016998e+00,1
1.587924e+00,3.017766e+00,3.006220e+00,4,7,5.143018e+00,5.221695e+00,1
1.189169e+00,2.444223e+00,2.431870e+00,3,5,4.150542e+00,4.309179e+00,1
1.199172e+00,3.915335e+00,3.904104e+00,3,9,5.393125e+00,5.769805e+00,1
1.191680e+00,3.131251e+00,3.119946e+00,3,7,5.356488e+00,5.625033e+00,1
1.194690e+00,3.275192e+00,3.263950e+00,3,8,4.036541e+00,4.174775e+00,1
1.589687e+00,3.051909e+00,3.041029e+00,4,7,3.971630e+00,4.064874e+00,1
2.374093e+00,2.695199e+00,2.685070e+00,6,6,4.774208e+00,4.835915e+00,1
2.365197e+00,1.214063e+00,1.202106e+00,6,2,5.231421e+00,5.255228e+00,1
1.584032e+00,1.456933e+00,1.446009e+00,4,3,6.336040e+00,6.336045e+00,1
1.185146e+00,8.750730e-01,8.628368e-01,3,1,4.959573e+00,4.960905e+00,1
1.189892e+00,5.415730e-01,5.238056e-01,3,0,6.614262e+00,6.630643e+00,1
1.185590e+00,9.360400e-01,9.241104e-01,3,1,6.576622e+00,6.583364e+00,1
1.187558e+00,1.674218e+00,1.662016e+00,3,3,5.514750e+00,5.522134e+00,1
1.187262e+00,1.617229e+00,1.606941e+00,3,3,4.546397e+00,4.606575e+00,1
1.195194e+00,1.329605e+00,1.317978e+00,3,2,4.676095e+00,4.799988e+00,1
1.194644e+00,4.240217e+00,4.229069e+00,3,10,4.645407e+00,4.838309e+00,1
1.976044e+00,1.560873e+00,1.549006e+00,5,3,3.480776e+00,3.495671e+00,1
2.368356e+00,2.352259e+00,2.341032e+00,6,5,3.425034e+00,3.445630e+00,1
1.185656e+00,1.124858e+00,1.114130e+00,3,2,2.260399e+00,2.260305e+00,1
1.191713e+00,8.739530e-01,8.630753e-01,3,1,1.839160e+00,1.853297e+00,1
1.192332e+00,5.332300e-01,5.218983e-01,3,0,1.131926e+00,1.134949e+00,1
1.193344e+00,7.787950e-01,7.679462e-01,3,1,7.273572e-01,7.273576e-01,1
1.187547e+00,4.438580e-01,4.320145e-01,3,0,4.269963e-01,4.269964e-01,1
1.196921e+00,4.510340e-01,4.410744e-01,3,0,8.387655e-01,8.387672e-01,1
1.191580e+00,4.507450e-01,4.398823e-01,3,0,4.835537e-01,4.835538e-01,1
1.187653e+00,4.446480e-01,4.336834e-01,3,0,4.474958e-01,4.474966e-01,1
1.189912e+00,4.488020e-01,4.339218e-01,3,0,2.812621e-01,2.812625e-01,1
1.192465e+00,4.499800e-01,4.391670e-01,3,0,3.051680e-01,3.051684e-01,1
1.187618e+00,4.442510e-01,4.320145e-01,3,0,2.676724e-01,2.676727e-01,1
1.192589e+00,4.445010e-01,4.339218e-01,3,0,6.540878e-01,6.540890e-01,1
1.184774e+00,4.501130e-01,4.391670e-01,3,0,5.037107e-01,5.037114e-01,1
1.195940e+00,4.442200e-01,4.332066e-01,3,0,5.084694e-01,5.084712e-01,1
1.195343e+00,4.442030e-01,4.320145e-01,3,0,1.037843e+00,1.037844e+00,1
1.190254e+00,4.504600e-01,4.386902e-01,3,0,5.707910e-01,5.707909e-01,1
1.191312e+00,4.450620e-01,4.348755e-01,3,0,8.102263e-01,8.102270e-01,1
1.193452e+00,4.452080e-01,4.336834e-01,3,0,8.247685e-01,8.247691e-01,1
1.191169e+00,4.499670e-01,4.377365e-01,3,0,1.393442e+00,1.393444e+00,1
1.191909e+00,4.508270e-01,4.386902e-01,3,0,1.064422e+00,1.064422e+00,1
1.193280e+00,4.442040e-01,4.329681e-01,3,0,6.996471e-01,6.996471e-01,1
1.197982e+00,4.446730e-01,4.329681e-01,3,0,5.109060e-01,5.109065e-01,1
1.191784e+00,4.504470e-01,4.401207e-01,3,0,6.902652e-01,6.902661e-01,1
1.194572e+00,4.446850e-01,4.341602e-01,3,0,6.367271e-01,6.367273e-01,1
1.191516e+00,4.441760e-01,4.327297e-01,3,0,5.139071e-01,5.139073e-01,1
1.194075e+00,4.509230e-01,4.401207e-01,3,0,9.025457e-01,9.025468e-01,1
1.186905e+00,4.444810e-01,4.329681e-01,3,0,6.883759e-01,6.883764e-01,1
1.191571e+00,8.779540e-01,8.659363e-01,3,1,1.024954e+00,1.025023e+00,1
1.192161e+00,1.000567e+00,9.889603e-01,3,1,1.814399e+00,1.893463e+00,1
1.196214e+00,5.397180e-01,5.280972e-01,3,0,1.587823e+00,1.607885e+00,1
1.191033e+00,7.850290e-01,7.748604e-01,3,1,1.404065e+00,1.404065e+00,1
1.190448e+00,4.449180e-01,4.351139e-01,3,0,3.208890e+00,3.208895e+00,1
1.192541e+00,8.695190e-01,8.578300e-01,3,1,3.899843e+00,3.899868e+00,1
1.185943e+00,7.873640e-01,7.760525e-01,3,1,2.221679e+00,2.221677e+00,1
1.192361e+00,4.444540e-01,4.332066e-01,3,0,1.662393e+00,1.662393e+00,1
1.186314e+00,4.502550e-01,4.391670e-01,3,0,1.277378e+00,1.277379e+00,1
1.189358e+00,4.505360e-01,4.391670e-01,3,0,8.542351e-01,8.542352e-01,1
1.197588e+00,4.442960e-01,4.329681e-01,3,0,7.535847e-01,7.535851e-01,1
1.185852e+00,4.443540e-01,4.329681e-01,3,0,1.082508e+00,1.082509e+00,1
1.186313e+00,4.509050e-01,4.410744e-01,3,0,1.037307e+00,1.037307e+00,1
1.201329e+00,4.444670e-01,4.329681e-01,3,0,5.150274e-01,5.150284e-01,1
1.194842e+00,4.444170e-01,4.339218e-01,3,0,1.401111e+00,1.401114e+00,1
1.186582e+00,4.508190e-01,4.391670e-01,3,0,7.794898e-01,7.794896e-01,1
1.188373e+00,4.449990e-01,4.341602e-01,3,0,6.904985e-01,6.904991e-01,1
1.192498e+00,4.444400e-01,4.339218e-01,3,0,9.633689e-01,9.633702e-01,1
1.193246e+00,4.516280e-01,4.401207e-01,3,0,7.896376e-01,7.896378e-01,1
1.186773e+00,4.509890e-01,4.398823e-01,3,0,9.274805e-01,9.274812e-01,1
1.194268e+00,4.444570e-01,4.339218e-01,3,0,1.180592e+00,1.180593e+00,1
1.186464e+00,4.441780e-01,4.332066e-01,3,0,9.315872e-01,9.315880e-01,1
1.187211e+00,4.514680e-01,4.401207e-01,3,0,9.682820e-01,9.682834e-01,1
1.196103e+00,4.448070e-01,4.329681e-01,3,0,1.207584e+00,1.207582e+00,1
1.191656e+00,4.446260e-01,4.339218e-01,3,0,1.483718e+00,1.483715e+00,1
1.192293e+00,4.521080e-01,4.420280e-01,3,0,2.225067e+00,2.225070e+00,1
1.196280e+00,4.446070e-01,4.341602e-01,3,0,1.541478e+00,1.541478e+00,1
1.196491e+00,4.438910e-01,4.329681e-01,3,0,1.475212e+00,1.475214e+00,1
1.192787e+00,4.503090e-01,4.401207e-01,3,0,1.428448e+00,1.428449e+00,1
1.190669e+00,4.506470e-01,4.401207e-01,3,0,1.548338e+00,1.548338e+00,1
1.189492e+00,4.448010e-01,4.351139e-01,3,0,1.281106e+00,1.281106e+00,1
1.187204e+00,1.618546e+00,1.606941e+00,3,3,2.181944e+00,2.201520e+00,1
1.583276e+00,2.070906e+00,2.059221e+00,4,4,1.651619e+00,1.676894e+00,1
1.190875e+00,5.396390e-01,5.280972e-01,3,0,1.545425e+00,1.570309e+00,1
1.187186e+00,1.738473e+00,1.728058e+00,3,3,1.511079e+00,1.545193e+00,1
1.190834e+00,9.968060e-01,9.858608e-01,3,1,1.366429e+00,1.541836e+00,1
1.199248e+00,1.333828e+00,1.322985e+00,3,2,9.767687e-01,1.031550e+00,1
1.191171e+00,9.979210e-01,9.858608e-01,3,1,1.185794e+00,1.219474e+00,1
1.186416e+00,1.245411e+00,1.234055e+00,3,2,1.335170e+00,1.335171e+00,1
1.188263e+00,4.513580e-01,4.401207e-01,3,0,9.194728e-01,9.194731e-01,1
1.184865e+00,4.517730e-01,4.401207e-01,3,0,1.722322e+00,1.722325e+00,1
1.194778e+00,4.444850e-01,4.327297e-01,3,0,1.214601e+00,1.214601e+00,1
1.190605e+00,4.506920e-01,4.391670e-01,3,0,1.109557e+00,1.109558e+00,1
1.186320e+00,4.510420e-01,4.410744e-01,3,0,9.943912e-01,9.943915e-01,1
1.193352e+00,4.441460e-01,4.332066e-01,3,0,7.779479e-01,7.779492e-01,1
1.183562e+00,4.442920e-01,4.329681e-01,3,0,5.712351e-01,5.712356e-01,1
1.186320e+00,4.517700e-01,4.420280e-01,3,0,1.133022e+00,1.133023e+00,1
1.191489e+00,4.440170e-01,4.327297e-01,3,0,9.776514e-01,9.776519e-01,1
1.186635e+00,4.446500e-01,4.339218e-01,3,0,9.931032e-01,9.931043e-01,1
1.188629e+00,4.513300e-01,4.401207e-01,3,0,9.292883e-01,9.292886e-01,1
1.193498e+00,4.449900e-01,4.327297e-01,3,0,7.235437e-01,7.235443e-01,1
1.184840e+00,4.448350e-01,4.341602e-01,3,0,8.692878e-01,8.692884e-01,1
1.188077e+00,4.508740e-01,4.408360e-01,3,0,6.739455e-01,6.739457e-01,1
1.184724e+00,4.509620e-01,4.391670e-01,3,0,2.843296e+00,2.843162e+00,1
1.582932e+00,1.604160e+00,1.593828e+00,4,3,6.317584e+00,6.325519e+00,1
1.191262e+00,7.867600e-01,7.750988e-01,3,1,4.753318e+00,4.753296e+00,1
1.186477e+00,4.453240e-01,4.351139e-01,3,0,3.395286e+00,3.395285e+00,1
1.188929e+00,4.442670e-01,4.341602e-01,3,0,2.487667e+00,2.487667e+00,1
1.185730e+00,4.515380e-01,4.410744e-01,3,0,2.696533e+00,2.696534e+00,1
1.185324e+00,4.509630e-01,4.401207e-01,3,0,2.129329e+00,2.129329e+00,1
1.186632e+00,4.450240e-01,4.341602e-01,3,0,2.058612e+00,2.058613e+00,1
1.185817e+00,4.440480e-01,4.332066e-01,3,0,2.473861e+00,2.473864e+00,1
1.184059e+00,4.516090e-01,4.401207e-01,3,0,2.816114e+00,2.816116e+00,1
1.193397e+00,4.445220e-01,4.339218e-01,3,0,2.575943e+00,2.575944e+00,1
1.187374e+00,8.701590e-01,8.590221e-01,3,1,2.743080e+00,2.743751e+00,1
1.186916e+00,1.211021e+00,1.200914e+00,3,2,3.653782e+00,3.654333e+00,1
1.188620e+00,7.882880e-01,7.772446e-01,3,1,2.698780e+00,2.698778e+00,1
1.185603e+00,4.526600e-01,4.408360e-01,3,0,1.831038e+00,1.831038e+00,1
1.190105e+00,4.446950e-01,4.339218e-01,3,0,1.085525e+00,1.085525e+00,1
1.184951e+00,4.440120e-01,4.329681e-01,3,0,7.251189e-01,7.251190e-01,1
1.185222e+00,4.510940e-01,4.389286e-01,3,0,5.679818e-01,5.679823e-01,1
1.194149e+00,4.447490e-01,4.332066e-01,3,0,7.810812e-01,7.810823e-01,1
1.189557e+00,4.443210e-01,4.329681e-01,3,0,5.524230e-01,5.524230e-01,1
1.189412e+00,4.504080e-01,4.401207e-01,3,0,9.223123e-01,9.223134e-01,1
1.188014e+00,4.453220e-01,4.339218e-01,3,0,9.794948e-01,9.794953e-01,1
1.187044e+00,8.745760e-01,8.640289e-01,3,1,9.100396e-01,9.104006e-01,1
1.187485e+00,1.000118e+00,9.887218e-01,3,1,1.170699e+00,1.174120e+00,1
1.192480e+00,7.848320e-01,7.739067e-01,3,1,6.530302e-01,6.530302e-01,1
1.191116e+00,4.507210e-01,4.398823e-01,3,0,5.291856e-01,5.291860e-01,1
1.189849e+00,4.445870e-01,4.339218e-01,3,0,2.805826e+00,2.805833e+00,1
1.188383e+00,4.453180e-01,4.329681e-01,3,0,2.923847e+00,2.923849e+00,1
1.192454e+00,4.505450e-01,4.401207e-01,3,0,1.421965e+00,1.421964e+00,1
1.205228e+00,4.444250e-01,4.332066e-01,3,0,1.403951e+00,1.403952e+00,1
1.192371e+00,4.452410e-01,4.327297e-01,3,0,1.229757e+00,1.229758e+00,1
1.186073e+00,8.771800e-01,8.668900e-01,3,1,1.318260e+00,1.318533e+00,1
1.195239e+00,7.847640e-01,7.731915e-01,3,1,6.726166e-01,6.726166e-01,1
1.189602e+00,4.499640e-01,4.389286e-01,3,0,5.630864e-01,5.630869e-01,1
1.192071e+00,4.513080e-01,4.391670e-01,3,0,1.072379e+00,1.072380e+00,1
1.195017e+00,4.447350e-01,4.339218e-01,3,0,1.338831e+00,1.338832e+00,1
1.188412e+00,4.444440e-01,4.329681e-01,3,0,1.650717e+00,1.650718e+00,1
1.188258e+00,4.513140e-01,4.398823e-01,3,0,1.074412e+00,1.074413e+00,1
1.191562e+00,4.445210e-01,4.339218e-01,3,0,1.030768e+00,1.030769e+00,1
1.191077e+00,4.445310e-01,4.339218e-01,3,0,1.545370e+00,1.545373e+00,1
1.187822e+00,4.508280e-01,4.398823e-01,3,0,2.295772e+00,2.295774e+00,1
1.185958e+00,4.455430e-01,4.351139e-01,3,0,2.548040e+00,2.548041e+00,1
1.187063e+00,8.733000e-01,8.630753e-01,3,1,3.554998e+00,3.566508e+00,1
1.190628e+00,5.339940e-01,5.228519e-01,3,0,3.359727e+00,3.359736e+00,1
1.187616e+00,1.902934e+00,1.892090e+00,3,4,5.292551e+00,5.307572e+00,1
1.585650e+00,1.394252e+00,1.382113e+00,4,3,2.343678e+00,2.343676e+00,1
1.186095e+00,4.447060e-01,4.332066e-01,3,0,1.946730e+00,1.946730e+00,1
1.188144e+00,1.274034e+00,1.262903e+00,3,2,2.849789e+00,2.851451e+00,1
1.188006e+00,1.122154e+00,1.110077e+00,3,2,1.396953e+00,1.396951e+00,1
1.191984e+00,4.513670e-01,4.401207e-01,3,0,1.151905e+00,1.151905e+00,1
1.189271e+00,4.504910e-01,4.389286e-01,3,0,9.168817e-01,9.168821e-01,1
1.190998e+00,4.468090e-01,4.360676e-01,3,0,6.066926e-01,6.066925e-01,1
1.189958e+00,4.513090e-01,4.410744e-01,3,0,1.297591e+00,1.297593e+00,1
1.196201e+00,4.513710e-01,4.410744e-01,3,0,9.659279e-01,9.659280e-01,1
1.205612e+00,4.444990e-01,4.341602e-01,3,0,5.434719e-01,5.434719e-01,1
1.191897e+00,4.447610e-01,4.329681e-01,3,0,1.279895e+00,1.279898e+00,1
1.188229e+00,4.519470e-01,4.401207e-01,3,0,8.866511e-01,8.866510e-01,1
1.205250e+00,4.456350e-01,4.348755e-01,3,0,4.791760e-01,4.791763e-01,1
1.188417e+00,4.529030e-01,4.341602e-01,3,0,5.183577e-01,5.183580e-01,1
1.187309e+00,4.522890e-01,4.401207e-01,3,0,6.717874e-01,6.717883e-01,1
1.194968e+00,8.803670e-01,8.690357e-01,3,1,1.008654e+00,1.009343e+00,1
1.187812e+00,9.361720e-01,9.250641e-01,3,1,2.098631e+00,2.099259e+00,1
1.192678e+00,8.733810e-01,8.621216e-01,3,1,1.553795e+00,1.569835e+00,1
1.196760e+00,9.276160e-01,9.160042e-01,3,1,2.806385e+00,2.899586e+00,1
1.186848e+00,8.747520e-01,8.630753e-01,3,1,1.234041e+00,1.234195e+00,1
1.193928e+00,7.857100e-01,7.760525e-01,3,1,9.837335e-01,9.837340e-01,1
1.192498e+00,4.446350e-01,4.332066e-01,3,0,6.599792e-01,6.599792e-01,1
1.193755e+00,4.441240e-01,4.332066e-01,3,0,6.044146e-01,6.044154e-01,1
1.193488e+00,4.512180e-01,4.386902e-01,3,0,1.693316e+00,1.693320e+00,1
1.200678e+00,4.446510e-01,4.332066e-01,3,0,1.689724e+00,1.689725e+00,1
1.194966e+00,4.442360e-01,4.329681e-01,3,0,2.591340e+00,2.591311e+00,1
1.191880e+00,4.508550e-01,4.391670e-01,3,0,2.664426e+00,2.664419e+00,1
1.192364e+00,4.451830e-01,4.329681e-01,3,0,3.058502e+00,3.058504e+00,1
1.193699e+00,4.448690e-01,4.329681e-01,3,0,5.003809e+00,5.003814e+00,1
1.196510e+00,8.725340e-01,8.618832e-01,3,1,5.603188e+00,5.603200e+00,1
1.192542e+00,1.211838e+00,1.201153e+00,3,2,4.187892e+00,4.198182e+00,1
1.192190e+00,9.348700e-01,9.231567e-01,3,1,3.762245e+00,3.773543e+00,1
1.189512e+00,8.749580e-01,8.637905e-01,3,1,5.277108e+00,5.279451e+00,1
1.188572e+00,1.213076e+00,1.201868e+00,3,2,3.589193e+00,3.591483e+00,1
1.190175e+00,7.867400e-01,7.760525e-01,3,1,2.975804e+00,2.975804e+00,1
1.197143e+00,4.450020e-01,4.341602e-01,3,0,3.002375e+00,3.002378e+00,1
1.192187e+00,4.455330e-01,4.336834e-01,3,0,3.238355e+00,3.238357e+00,1
1.191543e+00,8.766750e-01,8.659363e-01,3,1,3.540475e+00,3.555157e+00,1
1.191601e+00,7.858670e-01,7.739067e-01,3,1,2.613425e+00,2.613426e+00,1
1.198543e+00,4.513000e-01,4.401207e-01,3,0,2.509161e+00,2.509161e+00,1
1.195057e+00,1.675987e+00,1.663685e+00,3,3,3.218733e+00,3.230381e+00,1
1.194130e+00,1.615707e+00,1.605034e+00,3,3,3.533762e+00,3.631149e+00,1
1.197581e+00,8.779830e-01,8.668900e-01,3,1,2.240106e+00,2.254640e+00,1
1.193652e+00,1.210510e+00,1.199007e+00,3,2,2.154512e+00,2.165146e+00,1
1.188144e+00,7.860880e-01,7.748604e-01,3,1,1.268612e+00,1.268582e+00,1
1.191204e+00,4.497640e-01,4.329681e-01,3,0,1.230289e+00,1.230249e+00,1

