1.169620e+00,1.811940e+00,1.332045e+00,2,0,0.000000e+00,0.000000e+00
1.725885e+00,3.455470e-01,3.271103e-01,3,0,7.551119e-02,7.551134e-02
1.737410e+00,3.386450e-01,3.249645e-01,3,0,1.395269e-01,1.395272e-01
1.730311e+00,3.382740e-01,3.249645e-01,3,0,2.946592e-01,2.946595e-01
1.724848e+00,3.426500e-01,3.299713e-01,3,0,2.716058e-01,2.716059e-01
1.723718e+00,3.417150e-01,3.290176e-01,3,0,1.275719e+00,1.275720e+00
1.737064e+00,3.421490e-01,3.259182e-01,3,0,1.779186e+00,1.779187e+00
1.732538e+00,3.383950e-01,3.249645e-01,3,0,2.335284e+00,2.335285e+00
1.732874e+00,3.377420e-01,3.249645e-01,3,0,1.148548e+00,1.148547e+00
1.732818e+00,3.379630e-01,3.249645e-01,3,0,1.018342e+00,1.018342e+00
1.731017e+00,3.384120e-01,3.249645e-01,3,0,8.425062e-01,8.425064e-01
1.697562e+00,3.428100e-01,3.299713e-01,3,0,9.747143e-01,9.747150e-01
1.677387e+00,3.337630e-01,3.209114e-01,3,0,1.616622e+00,1.616623e+00
1.680269e+00,3.324450e-01,3.199577e-01,3,0,2.206338e+00,2.206339e+00
1.681415e+00,3.328090e-01,3.209114e-01,3,0,2.022599e+00,2.022599e+00
1.682622e+00,3.284810e-01,3.161430e-01,3,0,2.825026e+00,2.825028e+00
1.683852e+00,3.283100e-01,3.159046e-01,3,0,2.206374e+00,2.206374e+00
1.683435e+00,3.280270e-01,3.159046e-01,3,0,1.931174e+00,1.931174e+00
1.682834e+00,3.288270e-01,3.170967e-01,3,0,1.844951e+00,1.844951e+00
1.680346e+00,3.280730e-01,3.168583e-01,3,0,1.758304e+00,1.758305e+00
1.680104e+00,3.287710e-01,3.170967e-01,3,0,1.840360e+00,1.840361e+00
1.681731e+00,3.283950e-01,3.161430e-01,3,0,1.533963e+00,1.533964e+00
1.680723e+00,3.280450e-01,3.159046e-01,3,0,1.381569e+00,1.381570e+00
1.681245e+00,3.280710e-01,3.159046e-01,3,0,1.204647e+00,1.204648e+00
1.676703e+00,3.336920e-01,3.218651e-01,3,0,1.188844e+00,1.188845e+00
1.676106e+00,3.332720e-01,3.211498e-01,3,0,1.149580e+00,1.149580e+00
1.674342e+00,3.325170e-01,3.199577e-01,3,0,9.518471e-01,9.518474e-01
1.679402e+00,3.331430e-01,3.211498e-01,3,0,6.794564e-01,6.794566e-01
1.681969e+00,3.281350e-01,3.161430e-01,3,0,3.429913e-01,3.429916e-01
1.679205e+00,3.282500e-01,3.159046e-01,3,0,2.959598e-01,2.959599e-01
1.683519e+00,3.285430e-01,3.159046e-01,3,0,5.894483e-01,5.894491e-01
1.680858e+00,3.283720e-01,3.161430e-01,3,0,6.940356e-01,6.940360e-01
1.679893e+00,3.283680e-01,3.161430e-01,3,0,5.983828e-01,5.983829e-01
1.678899e+00,3.281150e-01,3.161430e-01,3,0,9.212949e-01,9.212957e-01
1.679141e+00,3.287730e-01,3.161430e-01,3,0,7.537132e-01,7.537133e-01
1.688681e+00,3.290120e-01,3.161430e-01,3,0,5.559136e-01,5.559136e-01
1.676316e+00,3.283140e-01,3.159046e-01,3,0,4.066748e-01,4.066750e-01
1.675291e+00,3.333220e-01,3.211498e-01,3,0,3.375569e-01,3.375571e-01
1.673108e+00,3.328480e-01,3.211498e-01,3,0,8.602816e-01,8.602825e-01
1.676110e+00,3.336350e-01,3.209114e-01,3,0,9.500542e-01,9.500545e-01
1.679565e+00,3.329740e-01,3.199577e-01,3,0,2.138793e+00,2.138795e+00
1.682138e+00,3.276640e-01,3.159046e-01,3,0,2.927047e+00,2.927049e+00
1.684026e+00,3.277600e-01,3.161430e-01,3,0,1.852137e+00,1.852137e+00
1.683117e+00,3.278450e-01,3.161430e-01,3,0,2.797802e+00,2.797804e+00
1.683695e+00,3.280780e-01,3.159046e-01,3,0,2.236073e+00,2.236073e+00
1.682872e+00,3.279740e-01,3.161430e-01,3,0,1.808984e+00,1.808984e+00
1.681440e+00,3.283090e-01,3.159046e-01,3,0,1.620158e+00,1.620158e+00
1.683993e+00,3.279000e-01,3.161430e-01,3,0,1.344699e+00,1.344699e+00
1.679049e+00,3.291450e-01,3.168583e-01,3,0,1.080363e+00,1.080363e+00
1.677593e+00,3.287210e-01,3.168583e-01,3,0,6.879637e-01,6.879636e-01
1.675153e+00,3.330550e-01,3.199577e-01,3,0,6.179087e-01,6.179090e-01
1.702703e+00,3.358280e-01,3.228188e-01,3,0,9.831662e-01,9.831671e-01
1.679816e+00,3.690400e-01,3.559589e-01,3,0,7.171528e-01,7.171529e-01
1.684065e+00,3.317860e-01,3.199577e-01,3,0,6.112655e-01,6.112656e-01
1.679701e+00,3.387280e-01,3.261566e-01,3,0,8.080453e-01,8.080458e-01
1.707685e+00,3.283040e-01,3.159046e-01,3,0,1.109591e+00,1.109591e+00
1.682692e+00,3.287980e-01,3.159046e-01,3,0,5.990540e-01,5.990539e-01
1.707515e+00,3.286620e-01,3.159046e-01,3,0,9.246477e-01,9.246483e-01
1.681325e+00,3.292670e-01,3.178120e-01,3,0,1.306432e+00,1.306432e+00
1.682375e+00,3.285760e-01,3.170967e-01,3,0,1.969963e+00,1.969964e+00
1.680019e+00,3.274270e-01,3.149509e-01,3,0,8.942712e-01,8.942718e-01
1.674219e+00,3.331390e-01,3.211498e-01,3,0,1.938942e+00,1.938944e+00
1.676871e+00,3.329030e-01,3.211498e-01,3,0,3.651702e+00,3.651705e+00
1.704947e+00,3.323610e-01,3.199577e-01,3,0,1.983139e+00,1.983138e+00
1.682658e+00,3.334390e-01,3.211498e-01,3,0,2.724065e+00,2.724066e+00
1.683927e+00,3.273020e-01,3.149509e-01,3,0,1.182032e+00,1.182032e+00
1.680584e+00,3.280700e-01,3.159046e-01,3,0,1.263591e+00,1.263591e+00
1.682033e+00,3.285680e-01,3.159046e-01,3,0,9.847325e-01,9.847329e-01
1.706869e+00,3.283780e-01,3.170967e-01,3,0,7.761660e-01,7.761663e-01
1.680916e+00,3.290060e-01,3.170967e-01,3,0,5.911320e-01,5.911323e-01
1.710076e+00,3.289780e-01,3.168583e-01,3,0,8.819985e-01,8.819992e-01
1.679444e+00,3.289610e-01,3.168583e-01,3,0,9.006350e-01,9.006352e-01
1.700074e+00,3.289730e-01,3.168583e-01,3,0,9.132762e-01,9.132765e-01
1.674898e+00,3.337310e-01,3.209114e-01,3,0,1.029962e+00,1.029962e+00
1.675079e+00,3.320270e-01,3.199577e-01,3,0,1.502140e+00,1.502141e+00
1.675976e+00,3.330650e-01,3.209114e-01,3,0,2.017809e+00,2.017810e+00
1.682995e+00,3.328870e-01,3.199577e-01,3,0,1.214831e+00,1.214831e+00
1.681845e+00,3.283280e-01,3.159046e-01,3,0,1.210056e+00,1.210057e+00
1.707890e+00,3.282520e-01,3.161430e-01,3,0,8.938645e-01,8.938645e-01
1.682998e+00,3.284850e-01,3.159046e-01,3,0,4.432342e-01,4.432342e-01
1.680009e+00,3.276320e-01,3.151894e-01,3,0,1.526111e+00,1.526113e+00
1.682575e+00,3.282190e-01,3.170967e-01,3,0,1.129413e+00,1.129413e+00
1.680552e+00,3.277490e-01,3.159046e-01,3,0,1.011121e+00,1.011121e+00
1.681891e+00,3.279270e-01,3.159046e-01,3,0,9.735553e-01,9.735559e-01
1.684004e+00,3.272080e-01,3.149509e-01,3,0,1.399918e+00,1.399919e+00
1.675714e+00,3.279220e-01,3.159046e-01,3,0,2.511197e+00,2.511199e+00
1.681788e+00,3.326440e-01,3.199577e-01,3,0,3.758657e+00,3.758659e+00
1.680165e+00,3.324990e-01,3.199577e-01,3,0,5.481167e+00,5.481169e+00
1.677706e+00,3.326670e-01,3.199577e-01,3,0,4.456744e+00,4.456744e+00
1.681890e+00,3.321570e-01,3.199577e-01,3,0,3.181513e+00,3.181513e+00
1.682219e+00,3.285000e-01,3.161430e-01,3,0,2.453432e+00,2.453433e+00
1.688196e+00,3.281740e-01,3.168583e-01,3,0,1.719268e+00,1.719268e+00
1.682340e+00,3.279750e-01,3.159046e-01,3,0,2.432517e+00,2.432519e+00
1.682475e+00,3.282740e-01,3.159046e-01,3,0,1.807451e+00,1.807451e+00
1.680685e+00,3.276160e-01,3.149509e-01,3,0,2.327023e+00,2.327024e+00
1.685069e+00,3.279900e-01,3.159046e-01,3,0,2.509762e+00,2.509763e+00
1.682667e+00,3.277970e-01,3.161430e-01,3,0,1.084570e+00,1.084570e+00
1.680740e+00,3.286680e-01,3.159046e-01,3,0,9.376541e-01,9.376543e-01
1.677234e+00,3.287350e-01,3.161430e-01,3,0,1.320004e+00,1.320005e+00
1.676862e+00,3.331300e-01,3.209114e-01,3,0,1.416441e+00,1.416441e+00
1.678049e+00,3.327670e-01,3.211498e-01,3,0,1.067286e+00,1.067286e+00
1.678601e+00,3.328410e-01,3.199577e-01,3,0,1.238602e+00,1.238603e+00
1.679676e+00,3.328310e-01,3.211498e-01,3,0,7.219296e-01,7.219297e-01
1.680538e+00,3.281960e-01,3.161430e-01,3,0,6.572394e-01,6.572396e-01
1.678425e+00,3.278660e-01,3.161430e-01,3,0,5.441710e-01,5.441711e-01
1.678441e+00,3.285700e-01,3.170967e-01,3,0,5.786566e-01,5.786571e-01
1.678378e+00,3.286850e-01,3.168583e-01,3,0,8.081340e-01,8.081345e-01
1.677968e+00,3.286290e-01,3.161430e-01,3,0,8.819733e-01,8.819736e-01
1.678705e+00,3.285870e-01,3.168583e-01,3,0,5.669717e-01,5.669717e-01
1.677717e+00,3.283110e-01,3.159046e-01,3,0,5.722283e-01,5.722286e-01
1.677617e+00,3.287600e-01,3.170967e-01,3,0,5.281582e-01,5.281584e-01
1.673366e+00,3.279780e-01,3.159046e-01,3,0,4.517194e-01,4.517198e-01
1.673022e+00,3.337200e-01,3.211498e-01,3,0,3.136446e-01,3.136446e-01
1.671951e+00,3.326230e-01,3.209114e-01,3,0,5.541756e-01,5.541762e-01
1.673171e+00,3.334930e-01,3.221035e-01,3,0,2.933556e-01,2.933556e-01
1.672491e+00,3.332850e-01,3.209114e-01,3,0,3.390327e-01,3.390329e-01
1.678359e+00,3.331080e-01,3.211498e-01,3,0,8.799139e-01,8.799149e-01
1.683041e+00,3.283550e-01,3.159046e-01,3,0,6.417258e-01,6.417259e-01
1.680686e+00,3.276640e-01,3.161430e-01,3,0,2.070548e+00,2.070551e+00
1.682584e+00,3.279210e-01,3.161430e-01,3,0,1.435352e+00,1.435352e+00
1.681251e+00,3.280570e-01,3.159046e-01,3,0,1.390154e+00,1.390155e+00
1.680249e+00,3.285050e-01,3.159046e-01,3,0,1.731332e+00,1.731332e+00
1.678749e+00,3.284870e-01,3.159046e-01,3,0,1.563258e+00,1.563258e+00
1.678477e+00,3.279310e-01,3.161430e-01,3,0,1.722129e+00,1.722129e+00
1.680370e+00,3.282830e-01,3.159046e-01,3,0,3.040612e+00,3.040614e+00
1.676282e+00,3.279910e-01,3.159046e-01,3,0,1.973397e+00,1.973397e+00
1.675079e+00,3.334420e-01,3.209114e-01,3,0,1.499953e+00,1.499953e+00
1.674551e+00,3.327940e-01,3.209114e-01,3,0,1.307122e+00,1.307123e+00
1.675874e+00,3.322550e-01,3.199577e-01,3,0,7.835334e-01,7.835339e-01
1.679212e+00,3.328990e-01,3.209114e-01,3,0,8.577849e-01,8.577859e-01
1.680287e+00,3.276950e-01,3.151894e-01,3,0,5.381665e-01,5.381667e-01
1.678279e+00,3.276990e-01,3.149509e-01,3,0,7.099711e-01,7.099716e-01
1.680872e+00,3.280720e-01,3.159046e-01,3,0,3.163876e-01,3.163877e-01
1.676242e+00,3.283580e-01,3.168583e-01,3,0,2.572788e-01,2.572789e-01
1.677490e+00,3.286040e-01,3.159046e-01,3,0,2.640693e-01,2.640695e-01
1.678394e+00,3.278870e-01,3.161430e-01,3,0,5.738296e-01,5.738303e-01
1.676488e+00,3.287860e-01,3.170967e-01,3,0,5.918878e-01,5.918881e-01
1.677650e+00,3.280960e-01,3.161430e-01,3,0,5.015901e-01,5.015902e-01
1.678534e+00,3.286640e-01,3.159046e-01,3,0,5.463597e-01,5.463600e-01
1.673207e+00,3.330430e-01,3.211498e-01,3,0,4.627619e-01,4.627621e-01
1.672390e+00,3.331700e-01,3.201962e-01,3,0,8.631786e-01,8.631794e-01
1.672184e+00,3.327460e-01,3.209114e-01,3,0,1.472341e+00,1.472343e+00
1.675610e+00,3.334050e-01,3.209114e-01,3,0,1.662317e+00,1.662317e+00
1.683209e+00,3.328130e-01,3.199577e-01,3,0,1.301759e+00,1.301760e+00
1.680279e+00,3.285120e-01,3.159046e-01,3,0,1.159296e+00,1.159296e+00
1.678571e+00,3.288760e-01,3.170967e-01,3,0,1.071981e+00,1.071981e+00
1.678809e+00,3.285620e-01,3.161430e-01,3,0,7.684735e-01,7.684735e-01
1.678728e+00,3.272160e-01,3.149509e-01,3,0,6.781687e-01,6.781696e-01
1.677294e+00,3.284000e-01,3.161430e-01,3,0,1.195630e+00,1.195631e+00
1.684976e+00,3.277760e-01,3.159046e-01,3,0,1.708992e+00,1.708993e+00
1.680765e+00,3.276140e-01,3.149509e-01,3,0,1.043617e+00,1.043617e+00
1.678924e+00,3.279680e-01,3.159046e-01,3,0,9.873361e-01,9.873363e-01
1.674937e+00,3.280820e-01,3.161430e-01,3,0,8.864393e-01,8.864396e-01
1.674476e+00,3.325970e-01,3.201962e-01,3,0,8.127969e-01,8.127971e-01
1.673621e+00,3.334580e-01,3.209114e-01,3,0,6.697250e-01,6.697252e-01
1.675158e+00,3.333670e-01,3.209114e-01,3,0,7.530115e-01,7.530120e-01
1.673791e+00,3.335410e-01,3.209114e-01,3,0,1.230758e+00,1.230759e+00
1.679704e+00,3.290530e-01,3.168583e-01,3,0,1.182902e+00,1.182903e+00
1.679879e+00,3.282840e-01,3.159046e-01,3,0,1.252839e+00,1.252840e+00
1.681611e+00,3.278670e-01,3.161430e-01,3,0,1.422947e+00,1.422949e+00
1.681483e+00,3.281880e-01,3.159046e-01,3,0,6.507571e-01,6.507572e-01
1.678279e+00,3.286640e-01,3.168583e-01,3,0,5.205786e-01,5.205788e-01
1.679845e+00,3.276360e-01,3.161430e-01,3,0,5.455878e-01,5.455882e-01
1.679006e+00,3.274070e-01,3.159046e-01,3,0,2.478913e-01,2.478916e-01
1.676839e+00,3.284780e-01,3.168583e-01,3,0,2.496000e-01,2.496001e-01
1.677599e+00,3.287640e-01,3.170967e-01,3,0,4.268362e-01,4.268366e-01
1.671977e+00,3.282510e-01,3.159046e-01,3,0,3.636045e-01,3.636046e-01
1.671838e+00,3.330880e-01,3.209114e-01,3,0,9.783045e-01,9.783060e-01
1.675710e+00,3.327670e-01,3.211498e-01,3,0,7.267454e-01,7.267460e-01
1.672851e+00,3.328880e-01,3.211498e-01,3,0,5.136493e-01,5.136495e-01
1.678083e+00,3.333390e-01,3.209114e-01,3,0,4.576605e-01,4.576606e-01
1.676620e+00,3.290810e-01,3.170967e-01,3,0,4.659198e-01,4.659201e-01
1.679314e+00,3.282230e-01,3.159046e-01,3,0,4.789207e-01,4.789210e-01
1.679289e+00,3.282690e-01,3.170967e-01,3,0,3.021171e-01,3.021172e-01
1.677090e+00,3.281990e-01,3.161430e-01,3,0,3.394458e-01,3.394461e-01
1.677699e+00,3.276900e-01,3.149509e-01,3,0,2.773947e-01,2.773949e-01
1.676478e+00,3.282380e-01,3.170967e-01,3,0,2.395288e-01,2.395290e-01
1.677318e+00,3.277270e-01,3.151894e-01,3,0,6.457210e-01,6.457218e-01
1.704801e+00,3.274670e-01,3.149509e-01,3,0,4.074779e-01,4.074782e-01
1.671745e+00,3.290840e-01,3.170967e-01,3,0,6.452821e-01,6.452826e-01
1.673410e+00,3.324660e-01,3.209114e-01,3,0,1.041411e+00,1.041412e+00
1.674324e+00,3.325810e-01,3.211498e-01,3,0,8.928670e-01,8.928676e-01
1.673588e+00,3.326120e-01,3.199577e-01,3,0,1.012299e+00,1.012300e+00
1.674322e+00,3.331760e-01,3.209114e-01,3,0,7.097202e-01,7.097203e-01
1.677361e+00,3.328210e-01,3.211498e-01,3,0,7.097362e-01,7.097365e-01
1.676649e+00,3.288190e-01,3.170967e-01,3,0,8.114146e-01,8.114150e-01
1.681825e+00,3.280630e-01,3.159046e-01,3,0,1.782205e+00,1.782207e+00
1.680442e+00,3.277010e-01,3.159046e-01,3,0,2.359992e+00,2.359993e+00
1.681281e+00,3.284230e-01,3.161430e-01,3,0,2.091084e+00,2.091084e+00
1.680841e+00,3.277960e-01,3.161430e-01,3,0,1.700424e+00,1.700424e+00
1.680631e+00,3.279510e-01,3.161430e-01,3,0,1.573162e+00,1.573162e+00
1.679874e+00,3.285200e-01,3.161430e-01,3,0,1.068422e+00,1.068422e+00
1.681339e+00,3.285380e-01,3.170967e-01,3,0,1.055601e+00,1.055602e+00
1.673445e+00,3.284570e-01,3.168583e-01,3,0,1.037141e+00,1.037141e+00
1.673392e+00,3.331670e-01,3.211498e-01,3,0,7.957365e-01,7.957366e-01
1.673649e+00,3.326600e-01,3.199577e-01,3,0,7.032996e-01,7.032998e-01
1.673801e+00,3.326520e-01,3.199577e-01,3,0,1.431242e+00,1.431243e+00
1.677192e+00,3.331930e-01,3.211498e-01,3,0,2.981749e+00,2.981752e+00
1.708391e+00,3.275610e-01,3.159046e-01,3,0,3.030859e+00,3.030860e+00
1.680513e+00,3.281160e-01,3.159046e-01,3,0,3.054629e+00,3.054630e+00
1.680239e+00,3.282090e-01,3.159046e-01,3,0,3.560166e+00,3.560168e+00
1.680407e+00,3.279860e-01,3.159046e-01,3,0,5.094880e+00,5.094883e+00
1.681428e+00,3.282790e-01,3.159046e-01,3,0,3.267550e+00,3.267549e+00
1.682214e+00,3.285130e-01,3.161430e-01,3,0,3.986993e+00,3.986995e+00
1.708084e+00,3.274310e-01,3.151894e-01,3,0,3.078009e+00,3.078010e+00
1.680190e+00,3.283280e-01,3.159046e-01,3,0,2.876347e+00,2.876348e+00
1.675600e+00,3.286010e-01,3.159046e-01,3,0,1.975260e+00,1.975260e+00
1.674958e+00,3.326010e-01,3.199577e-01,3,0,2.489882e+00,2.489883e+00
1.675877e+00,3.327830e-01,3.211498e-01,3,0,1.672072e+00,1.672071e+00
1.673635e+00,3.330780e-01,3.209114e-01,3,0,2.163367e+00,2.163368e+00
1.681077e+00,3.321930e-01,3.201962e-01,3,0,7.061947e-01,7.061947e-01
1.678616e+00,3.280890e-01,3.161430e-01,3,0,9.274371e-01,9.274379e-01
1.677245e+00,3.281150e-01,3.159046e-01,3,0,1.800023e+00,1.800024e+00
1.679818e+00,3.277940e-01,3.161430e-01,3,0,1.388903e+00,1.388903e+00
1.680495e+00,3.284910e-01,3.159046e-01,3,0,2.190782e+00,2.190783e+00
1.680270e+00,3.282930e-01,3.161430e-01,3,0,1.942221e+00,1.942221e+00
1.678902e+00,3.281430e-01,3.159046e-01,3,0,3.269784e+00,3.269786e+00
1.682184e+00,3.278040e-01,3.159046e-01,3,0,1.689493e+00,1.689493e+00
1.679777e+00,3.281340e-01,3.159046e-01,3,0,1.412378e+00,1.412378e+00
1.674853e+00,3.289540e-01,3.168583e-01,3,0,1.101589e+00,1.101589e+00
1.674113e+00,3.333430e-01,3.209114e-01,3,0,1.109504e+00,1.109504e+00
1.674771e+00,3.331000e-01,3.209114e-01,3,0,1.180149e+00,1.180149e+00
1.674026e+00,3.328900e-01,3.209114e-01,3,0,1.770342e+00,1.770343e+00
1.681076e+00,3.329510e-01,3.199577e-01,3,0,7.988432e-01,7.988428e-01
1.678760e+00,3.281870e-01,3.159046e-01,3,0,5.277165e-01,5.277166e-01
1.679961e+00,3.288270e-01,3.170967e-01,3,0,5.982529e-01,5.982533e-01
1.679968e+00,3.286250e-01,3.170967e-01,3,0,5.716898e-01,5.716901e-01
1.680548e+00,3.273410e-01,3.149509e-01,3,0,4.453740e-01,4.453741e-01
1.679722e+00,3.281720e-01,3.161430e-01,3,0,7.192704e-01,7.192713e-01
1.680476e+00,3.284930e-01,3.170967e-01,3,0,1.052445e+00,1.052446e+00
1.680474e+00,3.283690e-01,3.161430e-01,3,0,1.601005e+00,1.601006e+00
1.679853e+00,3.281270e-01,3.161430e-01,3,0,3.478099e+00,3.478101e+00
1.681653e+00,3.284010e-01,3.170967e-01,3,0,4.513454e+00,4.513456e+00
1.680297e+00,3.327420e-01,3.209114e-01,3,0,3.065674e+00,3.065673e+00
1.678122e+00,3.332840e-01,3.209114e-01,3,0,3.784746e+00,3.784748e+00
1.678494e+00,3.329340e-01,3.211498e-01,3,0,2.731432e+00,2.731432e+00
1.676659e+00,3.332210e-01,3.209114e-01,3,0,2.169336e+00,2.169336e+00
1.681438e+00,3.321920e-01,3.159046e-01,3,0,2.418060e+00,2.418061e+00
1.681792e+00,3.277800e-01,3.151894e-01,3,0,1.306852e+00,1.306851e+00
1.682048e+00,3.278730e-01,3.159046e-01,3,0,9.995408e-01,9.995419e-01
1.683710e+00,3.285690e-01,3.159046e-01,3,0,7.698107e-01,7.698107e-01
1.680625e+00,3.279030e-01,3.159046e-01,3,0,7.207146e-01,7.207148e-01
1.680190e+00,3.285640e-01,3.159046e-01,3,0,6.836244e-01,6.836246e-01
1.679856e+00,3.284810e-01,3.161430e-01,3,0,1.061061e+00,1.061062e+00
1.680228e+00,3.278260e-01,3.161430e-01,3,0,3.633867e-01,3.633865e-01
1.685316e+00,3.273970e-01,3.151894e-01,3,0,1.457012e+00,1.457014e+00
1.675344e+00,3.325280e-01,3.199577e-01,3,0,3.221053e+00,3.221056e+00
1.679097e+00,3.323770e-01,3.199577e-01,3,0,1.880203e+00,1.880202e+00
1.679053e+00,3.336550e-01,3.209114e-01,3,0,1.343156e+00,1.343156e+00
1.678361e+00,3.334660e-01,3.209114e-01,3,0,1.101157e+00,1.101157e+00
1.680714e+00,3.339570e-01,3.221035e-01,3,0,9.353611e-01,9.353612e-01
1.681082e+00,3.288820e-01,3.168583e-01,3,0,8.768877e-01,8.768879e-01
1.679636e+00,3.276520e-01,3.159046e-01,3,0,1.483375e+00,1.483376e+00
1.682302e+00,3.280700e-01,3.159046e-01,3,0,1.146395e+00,1.146395e+00
1.682063e+00,3.280480e-01,3.161430e-01,3,0,8.245599e-01,8.245600e-01
1.679783e+00,3.284640e-01,3.159046e-01,3,0,9.176070e-01,9.176074e-01
1.679205e+00,3.287800e-01,3.168583e-01,3,0,1.572642e+00,1.572643e+00
1.680686e+00,3.273170e-01,3.149509e-01,3,0,2.548020e+00,2.548021e+00
1.681977e+00,3.279240e-01,3.149509e-01,3,0,4.638249e+00,4.638253e+00
1.679096e+00,3.281010e-01,3.159046e-01,3,0,5.660175e+00,5.660177e+00
1.679064e+00,3.329440e-01,3.209114e-01,3,0,5.112361e+00,5.112362e+00
1.679235e+00,3.332410e-01,3.209114e-01,3,0,5.362283e+00,5.362284e+00
1.678631e+00,3.326300e-01,3.199577e-01,3,0,4.520010e+00,4.520010e+00
1.684199e+00,3.333110e-01,3.211498e-01,3,0,4.753324e+00,4.753326e+00
1.681755e+00,3.285900e-01,3.161430e-01,3,0,4.748057e+00,4.748058e+00
1.684675e+00,3.272080e-01,3.151894e-01,3,0,3.915155e+00,3.915155e+00
1.684200e+00,3.285540e-01,3.161430e-01,3,0,3.375127e+00,3.375128e+00
1.682391e+00,3.281590e-01,3.159046e-01,3,0,2.597310e+00,2.597310e+00
1.709654e+00,3.293600e-01,3.168583e-01,3,0,2.365538e+00,2.365538e+00
1.707966e+00,3.420710e-01,3.290176e-01,3,0,2.377983e+00,2.377984e+00
1.680905e+00,3.294690e-01,3.168583e-01,3,0,3.045058e+00,3.045060e+00
1.679009e+00,5.497746e+00,5.485058e+00,3,9,5.471386e+00,5.488265e+00
3.346571e+00,3.149074e+00,3.136158e+00,6,5,5.713501e+00,5.699721e+00
2.788502e+00,3.560278e+00,3.546953e+00,5,6,6.258083e+00,6.264023e+00
2.240067e+00,9.482620e-01,9.360313e-01,4,1,5.304650e+00,5.308885e+00
1.678421e+00,1.015791e+00,1.003981e+00,3,1,5.340121e+00,5.340863e+00
1.740728e+00,1.574043e+00,1.561165e+00,3,2,6.517222e+00,6.522746e+00
1.709530e+00,1.376452e+00,1.363993e+00,3,2,6.036860e+00,6.036861e+00
1.684618e+00,3.340220e-01,3.221035e-01,3,0,5.029576e+00,5.029576e+00
1.711317e+00,3.289900e-01,3.168583e-01,3,0,4.244349e+00,4.244349e+00
1.678113e+00,3.294000e-01,3.170967e-01,3,0,3.763339e+00,3.763340e+00
1.705658e+00,3.338780e-01,3.209114e-01,3,0,3.223451e+00,3.223451e+00
1.677178e+00,3.346430e-01,3.221035e-01,3,0,2.960208e+00,2.960208e+00
1.677138e+00,3.331520e-01,3.209114e-01,3,0,3.073719e+00,3.073720e+00
1.682129e+00,3.334260e-01,3.211498e-01,3,0,1.690497e+00,1.690496e+00
1.681496e+00,3.283670e-01,3.159046e-01,3,0,1.467271e+00,1.467271e+00
1.684655e+00,3.284620e-01,3.161430e-01,3,0,1.623412e+00,1.623412e+00
1.684795e+00,3.281560e-01,3.161430e-01,3,0,1.121641e+00,1.121641e+00
1.681826e+00,3.293150e-01,3.180504e-01,3,0,9.465893e-01,9.465895e-01
1.682436e+00,3.289150e-01,3.168583e-01,3,0,7.689812e-01,7.689815e-01
1.680780e+00,3.285210e-01,3.161430e-01,3,0,4.889360e-01,4.889361e-01
1.680970e+00,3.282100e-01,3.159046e-01,3,0,3.701822e-01,3.701829e-01
1.679910e+00,3.284110e-01,3.168583e-01,3,0,2.797308e-01,2.797311e-01
1.672888e+00,3.348650e-01,3.230572e-01,3,0,3.974435e-01,3.974438e-01
1.675296e+00,3.339940e-01,3.209114e-01,3,0,5.353590e-01,5.353595e-01
1.675122e+00,3.331600e-01,3.199577e-01,3,0,3.592808e-01,3.592809e-01
1.675422e+00,3.334590e-01,3.209114e-01,3,0,4.040423e-01,4.040428e-01
1.680467e+00,3.325780e-01,3.199577e-01,3,0,1.113003e+00,1.113004e+00
1.686121e+00,3.284140e-01,3.161430e-01,3,0,2.515052e+00,2.515054e+00
1.692530e+00,3.282940e-01,3.161430e-01,3,0,3.425237e+00,3.425239e+00
1.684374e+00,3.283540e-01,3.159046e-01,3,0,2.878740e+00,2.878740e+00
1.684934e+00,3.284940e-01,3.168583e-01,3,0,3.109555e+00,3.109556e+00
1.682093e+00,3.290810e-01,3.168583e-01,3,0,3.024437e+00,3.024438e+00
1.683680e+00,3.289410e-01,3.170967e-01,3,0,2.671457e+00,2.671457e+00
1.683827e+00,3.285640e-01,3.161430e-01,3,0,2.111928e+00,2.111928e+00
1.675747e+00,3.283000e-01,3.161430e-01,3,0,2.070311e+00,2.070311e+00
1.678796e+00,3.324340e-01,3.199577e-01,3,0,3.676713e+00,3.676716e+00
1.678487e+00,3.339740e-01,3.218651e-01,3,0,4.747032e+00,4.747034e+00
1.680369e+00,2.121047e+00,2.108812e+00,3,3,5.600902e+00,5.611766e+00
1.683038e+00,9.486520e-01,9.360313e-01,3,1,4.561834e+00,4.564418e+00
1.683620e+00,1.367155e+00,1.355171e+00,3,2,3.478641e+00,3.478641e+00
1.682906e+00,3.279610e-01,3.159046e-01,3,0,2.544479e+00,2.544479e+00
1.686515e+00,3.280490e-01,3.159046e-01,3,0,2.076879e+00,2.076880e+00
1.678289e+00,3.330040e-01,3.199577e-01,3,0,2.758424e+00,2.758426e+00
1.677922e+00,3.331290e-01,3.209114e-01,3,0,2.750210e+00,2.750211e+00
1.677935e+00,3.325210e-01,3.199577e-01,3,0,2.068784e+00,2.068784e+00
1.675957e+00,3.333920e-01,3.209114e-01,3,0,2.023779e+00,2.023780e+00
1.681244e+00,3.330840e-01,3.168583e-01,3,0,2.325911e+00,2.325912e+00
1.683813e+00,3.284570e-01,3.170967e-01,3,0,2.414364e+00,2.414365e+00
1.683004e+00,3.283190e-01,3.170967e-01,3,0,2.957076e+00,2.957077e+00
1.681563e+00,3.283210e-01,3.159046e-01,3,0,2.351472e+00,2.351472e+00
1.679838e+00,3.286870e-01,3.168583e-01,3,0,3.068184e+00,3.068186e+00
1.684090e+00,3.286550e-01,3.159046e-01,3,0,3.024919e+00,3.024919e+00
1.681940e+00,3.282480e-01,3.159046e-01,3,0,2.528976e+00,2.528977e+00
1.682997e+00,3.287910e-01,3.170967e-01,3,0,2.091886e+00,2.091886e+00
1.678345e+00,3.281470e-01,3.161430e-01,3,0,2.201391e+00,2.201392e+00
1.675491e+00,3.336060e-01,3.218651e-01,3,0,2.211245e+00,2.211246e+00
1.676563e+00,3.330690e-01,3.209114e-01,3,0,1.630763e+00,1.630763e+00
1.676083e+00,3.331580e-01,3.211498e-01,3,0,1.630186e+00,1.630187e+00
1.677012e+00,3.329640e-01,3.209114e-01,3,0,1.065833e+00,1.065833e+00
1.682800e+00,3.326960e-01,3.168583e-01,3,0,8.783200e-01,8.783202e-01
1.681179e+00,3.282370e-01,3.159046e-01,3,0,5.655786e-01,5.655788e-01
1.680165e+00,3.287190e-01,3.168583e-01,3,0,3.835111e-01,3.835112e-01
1.679641e+00,3.289080e-01,3.170967e-01,3,0,2.168261e-01,2.168261e-01
1.682190e+00,3.291500e-01,3.170967e-01,3,0,4.078583e-01,4.078590e-01
1.679866e+00,3.294510e-01,3.170967e-01,3,0,2.299079e-01,2.299079e-01
1.679764e+00,3.293150e-01,3.170967e-01,3,0,2.219873e-01,2.219875e-01
1.679864e+00,3.284530e-01,3.159046e-01,3,0,1.342191e-01,1.342192e-01
1.672960e+00,3.281520e-01,3.159046e-01,3,0,1.471346e-01,1.471347e-01
1.672986e+00,3.328450e-01,3.209114e-01,3,0,1.317986e-01,1.317987e-01
1.672694e+00,3.340060e-01,3.218651e-01,3,0,3.250213e-01,3.250217e-01
1.673680e+00,3.326260e-01,3.211498e-01,3,0,2.494888e-01,2.494891e-01
1.677812e+00,3.323680e-01,3.199577e-01,3,0,2.716795e-01,2.716802e-01
1.678125e+00,3.329660e-01,3.199577e-01,3,0,5.465576e-01,5.465582e-01
1.680584e+00,3.284680e-01,3.161430e-01,3,0,2.988854e-01,2.988853e-01
1.677884e+00,3.286110e-01,3.161430e-01,3,0,4.256251e-01,4.256254e-01
1.679628e+00,3.286840e-01,3.170967e-01,3,0,4.301230e-01,4.301232e-01
1.682015e+00,3.279510e-01,3.149509e-01,3,0,7.245626e-01,7.245632e-01
1.681009e+00,3.279540e-01,3.161430e-01,3,0,5.521145e-01,5.521146e-01
1.681642e+00,3.287690e-01,3.170967e-01,3,0,3.636999e-01,3.636999e-01
1.680665e+00,3.290810e-01,3.159046e-01,3,0,2.659997e-01,2.659999e-01
1.681976e+00,3.286370e-01,3.161430e-01,3,0,3.563555e-01,3.563559e-01
1.676021e+00,3.285630e-01,3.168583e-01,3,0,3.281806e-01,3.281807e-01
1.675252e+00,3.346300e-01,3.221035e-01,3,0,2.648843e-01,2.648844e-01
1.674759e+00,3.332550e-01,3.211498e-01,3,0,4.637897e-01,4.637902e-01
1.677414e+00,3.327710e-01,3.209114e-01,3,0,3.516862e-01,3.516864e-01
1.678851e+00,3.328780e-01,3.209114e-01,3,0,5.227548e-01,5.227552e-01
1.680068e+00,3.290910e-01,3.161430e-01,3,0,9.246270e-01,9.246277e-01
1.681915e+00,3.292120e-01,3.168583e-01,3,0,8.107259e-01,8.107263e-01
1.682919e+00,3.288100e-01,3.170967e-01,3,0,7.179921e-01,7.179923e-01
1.680469e+00,3.283890e-01,3.159046e-01,3,0,1.642736e+00,1.642738e+00
1.682967e+00,3.283350e-01,3.161430e-01,3,0,1.993584e+00,1.993585e+00
1.681716e+00,3.286500e-01,3.168583e-01,3,0,1.134226e+00,1.134225e+00
1.681155e+00,3.284250e-01,3.161430e-01,3,0,8.483102e-01,8.483102e-01
1.687212e+00,3.280540e-01,3.149509e-01,3,0,6.536061e-01,6.536063e-01
1.675094e+00,3.290010e-01,3.170967e-01,3,0,4.364283e-01,4.364283e-01
1.673904e+00,3.337950e-01,3.211498e-01,3,0,3.863222e-01,3.863224e-01
1.675685e+00,3.338610e-01,3.211498e-01,3,0,5.546832e-01,5.546835e-01
1.675378e+00,3.333490e-01,3.209114e-01,3,0,5.306385e-01,5.306387e-01
1.678855e+00,3.337280e-01,3.218651e-01,3,0,2.638745e-01,2.638748e-01
1.681148e+00,3.288340e-01,3.168583e-01,3,0,7.173662e-01,7.173671e-01
1.680487e+00,3.285490e-01,3.170967e-01,3,0,3.983622e-01,3.983621e-01
1.679196e+00,3.286930e-01,3.170967e-01,3,0,3.520056e-01,3.520058e-01
1.680624e+00,3.283180e-01,3.161430e-01,3,0,4.922299e-01,4.922303e-01
1.680277e+00,3.287910e-01,3.161430e-01,3,0,4.030083e-01,4.030084e-01
1.679449e+00,3.285730e-01,3.170967e-01,3,0,4.731657e-01,4.731660e-01
1.679758e+00,3.286300e-01,3.170967e-01,3,0,6.026193e-01,6.026197e-01
1.679312e+00,3.284230e-01,3.170967e-01,3,0,4.755480e-01,4.755482e-01
1.678452e+00,3.282760e-01,3.161430e-01,3,0,4.944827e-01,4.944832e-01
1.674569e+00,3.331880e-01,3.211498e-01,3,0,6.168441e-01,6.168445e-01
1.675124e+00,3.335160e-01,3.209114e-01,3,0,7.573190e-01,7.573195e-01
1.674585e+00,3.330060e-01,3.211498e-01,3,0,1.135527e+00,1.135528e+00
1.675681e+00,3.337410e-01,3.211498e-01,3,0,7.865669e-01,7.865669e-01
1.681646e+00,3.282740e-01,3.161430e-01,3,0,7.562331e-01,7.562339e-01
1.683857e+00,3.282180e-01,3.159046e-01,3,0,7.317991e-01,7.317993e-01
1.680854e+00,3.288810e-01,3.159046e-01,3,0,7.923508e-01,7.923511e-01
1.682549e+00,3.286560e-01,3.168583e-01,3,0,6.553991e-01,6.553992e-01
1.682203e+00,3.287660e-01,3.170967e-01,3,0,1.115321e+00,1.115322e+00
1.681052e+00,3.286060e-01,3.159046e-01,3,0,8.290562e-01,8.290563e-01
1.681364e+00,3.286860e-01,3.170967e-01,3,0,7.751278e-01,7.751280e-01
1.681914e+00,3.291460e-01,3.168583e-01,3,0,7.596798e-01,7.596801e-01
1.673425e+00,3.283070e-01,3.161430e-01,3,0,6.879097e-01,6.879100e-01
1.673793e+00,3.333290e-01,3.209114e-01,3,0,4.928017e-01,4.928018e-01
1.673773e+00,3.334760e-01,3.209114e-01,3,0,6.019662e-01,6.019666e-01
1.673515e+00,3.342170e-01,3.218651e-01,3,0,6.787958e-01,6.787962e-01
1.673842e+00,3.336630e-01,3.209114e-01,3,0,4.668436e-01,4.668437e-01
1.679651e+00,3.324380e-01,3.201962e-01,3,0,8.781292e-01,8.781302e-01
1.682791e+00,3.282210e-01,3.161430e-01,3,0,6.180585e-01,6.180586e-01
1.682917e+00,3.284430e-01,3.159046e-01,3,0,5.651073e-01,5.651076e-01
1.679937e+00,3.285580e-01,3.170967e-01,3,0,5.058323e-01,5.058325e-01
1.679427e+00,3.283180e-01,3.170967e-01,3,0,3.970297e-01,3.970302e-01
1.678357e+00,3.294420e-01,3.170967e-01,3,0,2.920364e-01,2.920366e-01
1.676770e+00,3.288640e-01,3.170967e-01,3,0,5.796154e-01,5.796160e-01
1.680017e+00,3.282630e-01,3.159046e-01,3,0,4.996877e-01,4.996879e-01
1.681806e+00,3.287340e-01,3.159046e-01,3,0,5.082312e-01,5.082316e-01
1.674465e+00,3.287260e-01,3.159046e-01,3,0,4.752891e-01,4.752892e-01
1.674455e+00,3.338140e-01,3.211498e-01,3,0,3.695827e-01,3.695829e-01
1.674148e+00,3.334140e-01,3.211498e-01,3,0,4.437390e-01,4.437392e-01
1.674686e+00,3.336640e-01,3.221035e-01,3,0,3.442095e-01,3.442096e-01
1.679239e+00,3.325770e-01,3.209114e-01,3,0,1.453667e+00,1.453670e+00
1.680913e+00,3.285680e-01,3.159046e-01,3,0,3.217436e+00,3.217439e+00
1.684216e+00,3.282570e-01,3.159046e-01,3,0,2.417388e+00,2.417387e+00
1.685113e+00,3.284660e-01,3.168583e-01,3,0,1.723512e+00,1.723512e+00
1.683435e+00,3.281080e-01,3.159046e-01,3,0,1.264322e+00,1.264322e+00
1.681394e+00,3.288000e-01,3.168583e-01,3,0,1.367193e+00,1.367194e+00
1.680886e+00,3.283750e-01,3.161430e-01,3,0,1.080620e+00,1.080620e+00
1.679687e+00,3.287100e-01,3.161430e-01,3,0,1.043550e+00,1.043551e+00
1.680926e+00,3.287520e-01,3.170967e-01,3,0,1.257094e+00,1.257095e+00
1.677151e+00,3.286750e-01,3.159046e-01,3,0,1.434138e+00,1.434139e+00
1.680026e+00,3.338630e-01,3.211498e-01,3,0,1.312280e+00,1.312280e+00
1.679738e+00,3.328620e-01,3.199577e-01,3,0,1.398004e+00,1.398005e+00
1.678911e+00,3.334070e-01,3.209114e-01,3,0,1.862769e+00,1.862770e+00
1.683577e+00,3.324180e-01,3.209114e-01,3,0,1.373507e+00,1.373507e+00
1.682978e+00,3.283970e-01,3.168583e-01,3,0,9.298759e-01,9.298758e-01
1.684445e+00,3.285760e-01,3.161430e-01,3,0,5.501438e-01,5.501436e-01
1.682632e+00,3.281300e-01,3.161430e-01,3,0,3.669804e-01,3.669804e-01
1.678936e+00,3.293100e-01,3.168583e-01,3,0,2.878473e-01,2.878475e-01
1.677729e+00,3.288470e-01,3.159046e-01,3,0,3.950476e-01,3.950480e-01
1.679511e+00,3.287460e-01,3.168583e-01,3,0,2.791273e-01,2.791273e-01
1.679204e+00,3.290150e-01,3.159046e-01,3,0,4.678049e-01,4.678054e-01
1.680647e+00,3.287600e-01,3.159046e-01,3,0,4.973084e-01,4.973086e-01
1.674439e+00,3.286700e-01,3.159046e-01,3,0,4.620694e-01,4.620696e-01
1.677662e+00,3.336420e-01,3.209114e-01,3,0,5.954848e-01,5.954853e-01
1.675067e+00,3.332100e-01,3.211498e-01,3,0,3.316937e-01,3.316937e-01
1.672977e+00,3.334510e-01,3.209114e-01,3,0,2.691193e-01,2.691194e-01
1.680463e+00,3.327970e-01,3.211498e-01,3,0,1.438863e+00,1.438865e+00
1.687463e+00,3.285160e-01,3.170967e-01,3,0,1.497152e+00,1.497153e+00
1.684243e+00,3.282600e-01,3.159046e-01,3,0,7.276965e-01,7.276961e-01
1.681068e+00,3.283150e-01,3.159046e-01,3,0,7.179875e-01,7.179877e-01
1.680256e+00,3.284560e-01,3.159046e-01,3,0,6.287142e-01,6.287144e-01
1.680698e+00,3.287680e-01,3.170967e-01,3,0,6.738006e-01,6.738009e-01
1.700069e+00,3.287320e-01,3.161430e-01,3,0,3.441977e-01,3.441977e-01
1.679921e+00,3.284110e-01,3.170967e-01,3,0,2.889449e-01,2.889451e-01
1.683912e+00,3.276560e-01,3.151894e-01,3,0,5.498312e-01,5.498318e-01
1.675867e+00,3.287680e-01,3.159046e-01,3,0,6.851134e-01,6.851139e-01
1.674724e+00,3.331370e-01,3.209114e-01,3,0,8.434625e-01,8.434630e-01
1.676352e+00,3.334630e-01,3.209114e-01,3,0,5.491825e-01,5.491826e-01
1.679946e+00,3.330860e-01,3.211498e-01,3,0,5.276425e-01,5.276428e-01
1.679692e+00,3.330450e-01,3.199577e-01,3,0,7.917421e-01,7.917428e-01
1.682682e+00,3.290460e-01,3.168583e-01,3,0,1.174536e+00,1.174537e+00
1.681449e+00,3.286000e-01,3.168583e-01,3,0,1.302525e+00,1.302525e+00
1.708276e+00,3.279720e-01,3.149509e-01,3,0,1.816619e+00,1.816620e+00
1.682771e+00,3.287120e-01,3.168583e-01,3,0,1.715291e+00,1.715291e+00
1.680817e+00,3.287640e-01,3.161430e-01,3,0,2.667722e+00,2.667724e+00
1.682597e+00,3.279780e-01,3.159046e-01,3,0,1.115574e+00,1.115574e+00
1.680831e+00,3.286320e-01,3.161430e-01,3,0,9.496962e-01,9.496963e-01
1.676680e+00,3.280310e-01,3.149509e-01,3,0,1.500473e+00,1.500475e+00
1.678349e+00,3.331070e-01,3.211498e-01,3,0,7.346322e-01,7.346319e-01
1.675793e+00,3.336060e-01,3.209114e-01,3,0,6.038633e-01,6.038634e-01
1.675299e+00,3.335860e-01,3.211498e-01,3,0,4.902781e-01,4.902783e-01
1.675747e+00,3.335430e-01,3.211498e-01,3,0,3.288552e-01,3.288552e-01
1.682393e+00,3.327150e-01,3.170967e-01,3,0,6.714375e-01,6.714381e-01
1.682331e+00,3.289570e-01,3.168583e-01,3,0,4.978785e-01,4.978786e-01
1.682828e+00,3.284470e-01,3.170967e-01,3,0,2.837741e-01,2.837742e-01
1.683392e+00,3.279360e-01,3.149509e-01,3,0,6.879019e-01,6.879029e-01
1.680436e+00,3.292830e-01,3.168583e-01,3,0,4.769293e-01,4.769293e-01
1.681386e+00,3.286280e-01,3.170967e-01,3,0,2.509922e-01,2.509924e-01
1.677092e+00,3.282130e-01,3.161430e-01,3,0,2.737060e-01,2.737061e-01
1.678145e+00,3.286830e-01,3.159046e-01,3,0,3.425254e-01,3.425257e-01
1.678774e+00,3.288620e-01,3.168583e-01,3,0,5.174980e-01,5.174984e-01
1.675156e+00,3.330420e-01,3.209114e-01,3,0,1.085421e+00,1.085422e+00
1.677365e+00,3.330300e-01,3.199577e-01,3,0,7.885583e-01,7.885597e-01
1.674844e+00,3.334710e-01,3.211498e-01,3,0,1.427893e+00,1.427895e+00
1.675099e+00,3.341730e-01,3.221035e-01,3,0,6.235145e-01,6.235142e-01
1.679827e+00,3.325980e-01,3.199577e-01,3,0,4.967277e-01,4.967279e-01
1.678289e+00,3.292640e-01,3.170967e-01,3,0,3.321803e-01,3.321803e-01
1.682522e+00,3.285320e-01,3.161430e-01,3,0,3.053315e-01,3.053318e-01
1.679380e+00,3.280430e-01,3.159046e-01,3,0,8.577535e-01,8.577549e-01
1.680646e+00,3.282440e-01,3.159046e-01,3,0,8.557708e-01,8.557710e-01
1.679969e+00,3.288340e-01,3.170967e-01,3,0,1.314034e+00,1.314035e+00
1.681066e+00,3.287110e-01,3.170967e-01,3,0,1.348819e+00,1.348820e+00
1.680087e+00,3.283760e-01,3.161430e-01,3,0,1.548451e+00,1.548451e+00
1.682929e+00,3.291030e-01,3.170967e-01,3,0,2.537325e+00,2.537327e+00
1.678004e+00,3.284870e-01,3.159046e-01,3,0,2.841364e+00,2.841365e+00
1.679050e+00,3.328580e-01,3.201962e-01,3,0,2.122803e+00,2.122803e+00
1.677157e+00,3.333470e-01,3.211498e-01,3,0,1.907368e+00,1.907368e+00
1.678151e+00,3.329440e-01,3.199577e-01,3,0,2.680455e+00,2.680458e+00
1.683798e+00,3.322430e-01,3.199577e-01,3,0,1.821168e+00,1.821168e+00
1.682423e+00,3.291940e-01,3.168583e-01,3,0,1.509998e+00,1.509998e+00
1.682165e+00,3.284620e-01,3.161430e-01,3,0,1.527327e+00,1.527328e+00
1.681246e+00,3.287660e-01,3.168583e-01,3,0,1.651098e+00,1.651098e+00
1.687026e+00,3.279130e-01,3.161430e-01,3,0,1.808037e+00,1.808037e+00
1.682444e+00,3.281070e-01,3.161430e-01,3,0,1.332728e+00,1.332728e+00
1.680101e+00,3.291830e-01,3.168583e-01,3,0,1.279044e+00,1.279044e+00
1.680362e+00,3.285960e-01,3.161430e-01,3,0,1.640335e+00,1.640336e+00
1.682185e+00,3.286580e-01,3.161430e-01,3,0,1.799980e+00,1.799980e+00
1.678654e+00,3.284900e-01,3.159046e-01,3,0,1.140333e+00,1.140332e+00
1.675056e+00,3.339590e-01,3.221035e-01,3,0,1.096442e+00,1.096442e+00
1.677201e+00,3.338900e-01,3.218651e-01,3,0,6.440021e-01,6.440020e-01
1.675446e+00,3.329490e-01,3.199577e-01,3,0,6.246781e-01,6.246785e-01

