0.000000e+00,0.000000e+00
0.000000e+00,0.000000e+00
-1.042270e-01,-1.042215e-01
-1.090303e-01,-1.090251e-01
1.049801e-01,1.049972e-01
1.535602e-01,1.535840e-01
1.525265e-01,1.524641e-01
2.123650e-01,2.123314e-01
5.794565e-02,5.788481e-02
-7.282078e-02,-7.281891e-02
3.581571e-01,3.580300e-01
4.822645e-02,4.828659e-02
2.255646e-01,2.253655e-01
-1.175477e-02,-1.176186e-02
1.528045e-01,1.526826e-01
4.705935e-02,4.706481e-02
9.398115e-02,9.386745e-02
-4.837388e-02,-4.837500e-02
1.905551e-01,1.904876e-01
-9.263323e-03,-9.214576e-03
2.318249e-01,2.317426e-01
-1.796939e-01,-1.796433e-01
1.582775e-01,1.582198e-01
6.467681e-03,6.494410e-03
1.678128e-01,1.677551e-01
4.178838e-02,4.173833e-02
8.330513e-02,8.325343e-02
1.029371e-01,1.028470e-01
-2.296612e-02,-2.298389e-02
1.912771e-02,1.905499e-02
1.060452e-01,1.060693e-01
1.683984e-01,1.683560e-01
-1.206001e-01,-1.206230e-01
7.407564e-03,7.371306e-03
7.553974e-02,7.559932e-02
2.953634e-02,2.961060e-02
-7.142433e-02,-7.137928e-02
1.803702e-01,1.804484e-01
-4.450008e-02,-4.446050e-02
2.378558e-01,2.380280e-01
-3.081162e-02,-3.084953e-02
-8.559730e-02,-8.549404e-02
-7.332955e-02,-7.338575e-02
-1.313447e-01,-1.311027e-01
-1.803828e-01,-1.805998e-01
-2.948296e-01,-2.949755e-01
4.131130e-02,4.132009e-02
-4.032465e-01,-4.025719e-01
1.591033e-01,1.591034e-01
-3.320973e-01,-3.316680e-01
-3.851221e-02,-3.851990e-02
-3.639244e-01,-3.636757e-01
-2.182564e-01,-2.181387e-01
-3.216144e-01,-3.215411e-01
-2.521660e-01,-2.517684e-01
2.139456e-03,2.130328e-03
-1.542333e-01,-1.539640e-01
7.638748e-02,7.634025e-02
-1.419839e-01,-1.418365e-01
5.634943e-02,5.629798e-02
-1.046796e-01,-1.045960e-01
5.935777e-02,5.928093e-02
-2.551400e-01,-2.550747e-01
2.955012e-02,2.938045e-02
-2.655531e-01,-2.653575e-01
8.876830e-02,8.861691e-02
-2.672395e-01,-2.669970e-01
1.721681e-01,1.720657e-01
-2.274380e-01,-2.271765e-01
2.055388e-01,2.055295e-01
-1.439589e-01,-1.438151e-01
2.955361e-01,2.955411e-01
-6.890691e-02,-6.886029e-02
2.781353e-01,2.781528e-01
1.298175e-01,1.297415e-01
2.837080e-02,2.840383e-02
2.982792e-01,2.979837e-01
-1.228501e-01,-1.228444e-01
4.549334e-02,4.527499e-02
-2.919163e-01,-2.918385e-01
2.149951e-01,2.145762e-01
-2.488249e-01,-2.485539e-01
4.050665e-01,4.053772e-01
1.177517e-01,1.185837e-01
4.439521e-01,4.460346e-01
1.062235e-01,1.067139e-01
4.985466e-01,4.988282e-01
2.522566e-01,2.521981e-01
3.688249e-01,3.731956e-01
3.205032e-01,3.204752e-01
1.222917e-01,1.223123e-01
-1.213666e-01,-1.214945e-01
-2.333738e-01,-2.333542e-01
-1.321372e-01,-1.321613e-01
-2.117914e-01,-2.116115e-01
2.848947e-02,2.852522e-02
-9.616494e-02,-9.601479e-02
1.531161e-01,1.531615e-01
-1.176296e-01,-1.175458e-01
1.436095e-01,1.436087e-01
-1.587898e-02,-1.583501e-02
1.559568e-01,1.559717e-01
-2.322319e-01,-2.322108e-01
-1.773018e-01,-1.772803e-01
-1.678650e-01,-1.676923e-01
-1.593782e-01,-1.591017e-01
-1.703381e-01,-1.702086e-01
-2.065557e-01,-2.061835e-01
-3.254149e-01,-3.251938e-01
-3.413398e-01,-3.407489e-01
-3.938954e-01,-3.925625e-01
-4.662552e-01,-4.602785e-01
-1.072843e-01,-1.069277e-01
-2.522017e-01,-2.507268e-01
-2.074914e-01,-2.074722e-01
-3.008959e-01,-3.007807e-01
-2.646703e-01,-2.645484e-01
-2.077700e-01,-2.076968e-01
-2.189242e-01,-2.187492e-01
-2.179078e-01,-2.178133e-01
2.785348e-02,2.802120e-02
8.551543e-02,8.558967e-02
1.888184e-01,1.888185e-01
2.665589e-01,2.665185e-01
3.018776e-01,3.015749e-01
2.029794e-01,2.028810e-01
2.190054e-01,2.187292e-01
-2.103598e-02,-2.119962e-02
4.982224e-01,4.988872e-01
8.971369e-02,8.964009e-02
2.178724e-01,2.178600e-01
1.310535e-01,1.309571e-01
3.104315e-01,3.103482e-01
3.053939e-01,3.050959e-01
1.182901e-01,1.182684e-01
1.923134e-01,1.921579e-01
-1.956143e-01,-1.955646e-01
3.205669e-01,3.204375e-01
-1.682141e-02,-1.676291e-02
3.900313e-01,3.898578e-01
1.681244e-01,1.680416e-01
2.775978e-01,2.775118e-01
1.155600e-01,1.153990e-01
-1.101559e-01,-1.102066e-01
1.290589e-01,1.289730e-01
-4.328781e-02,-4.324272e-02
-1.816002e-01,-1.816492e-01
-9.385331e-02,-9.381542e-02
-2.534990e-01,-2.533488e-01
-1.479790e-01,-1.478005e-01
-2.834358e-01,-2.831832e-01
-2.254119e-01,-2.250335e-01
-1.700918e-01,-1.699569e-01
-1.022256e-01,-1.018996e-01
-2.008532e-01,-2.009521e-01
-1.798921e-01,-1.797595e-01
-5.125425e-02,-5.126554e-02
-3.546044e-01,-3.545252e-01
-8.268469e-02,-8.265443e-02
-2.826034e-01,-2.825490e-01
1.105945e-01,1.106460e-01
-2.051806e-01,-2.051346e-01
-5.531930e-03,-5.530190e-03
-2.042183e-01,-2.042470e-01
1.412680e-01,1.413045e-01
1.046234e-01,1.046154e-01
-2.560862e-02,-2.563462e-02
6.894922e-02,6.884862e-02
-2.023373e-01,-2.023105e-01
1.732010e-01,1.730698e-01
-2.079045e-01,-2.077854e-01
2.428515e-01,2.426888e-01
-2.179856e-01,-2.178016e-01
1.984427e-01,1.982814e-01
-4.258139e-01,-4.250723e-01
9.086867e-02,9.068299e-02
-4.347760e-01,-4.327680e-01
3.042967e-02,3.069679e-02
-3.340340e-01,-3.325793e-01
-9.148279e-02,-9.118910e-02
-1.116886e-01,-1.116780e-01
-5.664830e-02,-5.647427e-02
-9.358613e-02,-9.370311e-02
-5.245609e-02,-5.230858e-02
3.710164e-01,3.707397e-01
-6.032336e-02,-5.993206e-02
4.764216e-01,4.658917e-01
-1.945047e-01,-1.952633e-01
4.975937e-01,4.976606e-01
-8.134625e-02,-8.116078e-02
4.908904e-01,4.660669e-01
2.060257e-01,2.038128e-01
2.367016e-01,2.366385e-01
-1.214545e-01,-1.213905e-01
2.666360e-01,2.665033e-01
6.040262e-02,6.037909e-02
4.314016e-01,4.295966e-01
1.671608e-01,1.668715e-01
3.477456e-01,3.464004e-01
3.398265e-01,3.389276e-01
2.633437e-01,2.631179e-01
2.437970e-01,2.433546e-01
1.216503e-01,1.216297e-01
2.567402e-01,2.564325e-01
-2.012712e-01,-2.013043e-01
-5.761301e-02,-5.774603e-02
-3.643320e-01,-3.635381e-01
1.384630e-01,1.384975e-01
-4.488194e-01,-4.436584e-01
2.869361e-01,2.873861e-01
-2.285697e-01,-2.274850e-01
3.065131e-01,3.066484e-01
-8.755530e-02,-8.752494e-02
1.139089e-01,1.139981e-01
-3.197435e-02,-3.205363e-02
-1.301885e-01,-1.300462e-01
-1.187778e-01,-1.185281e-01
-4.347697e-01,-4.321660e-01
-1.183437e-01,-1.177850e-01
-3.985148e-01,-3.941495e-01
-1.939663e-01,-1.937971e-01
-2.810348e-01,-2.802494e-01
-1.207109e-01,-1.206553e-01
-1.653817e-01,-1.652975e-01
-1.980195e-01,-1.979918e-01
-2.993004e-01,-2.992823e-01
-2.959788e-01,-2.957936e-01
-3.169463e-01,-3.168623e-01
-6.437816e-02,-6.423154e-02
9.041530e-02,9.043349e-02
7.825078e-02,7.829768e-02
1.131765e-01,1.130823e-01
-1.219736e-01,-1.219272e-01
1.832618e-01,1.831617e-01
-5.610152e-02,-5.600255e-02
1.346614e-01,1.346209e-01
-3.978416e-01,-3.975454e-01
1.154832e-01,1.154547e-01
-2.777248e-01,-2.774621e-01
-5.827941e-02,-5.825533e-02
-1.173828e-01,-1.173328e-01
-7.014336e-02,-7.009227e-02
1.191378e-02,1.187687e-02
1.153747e-02,1.163289e-02
2.727210e-01,2.727348e-01
-6.818377e-02,-6.816336e-02
4.166777e-01,4.149411e-01
1.224369e-01,1.220710e-01
4.978364e-01,4.916418e-01
1.669233e-01,1.658147e-01
3.209540e-01,3.210792e-01
6.712153e-02,6.608129e-02
2.055679e-01,2.055362e-01
1.155515e-01,1.138516e-01
1.831781e-01,1.831414e-01
3.626739e-01,3.619734e-01
-8.068113e-03,-8.199488e-03
3.996353e-01,3.985200e-01
2.762406e-01,2.759482e-01
4.338533e-01,4.312857e-01
-9.465135e-02,-9.477731e-02
1.521759e-01,1.519166e-01
-1.047548e-01,-1.047292e-01
2.780533e-03,2.803767e-03
-2.732507e-02,-2.726497e-02
-1.480284e-01,-1.479421e-01
1.558286e-02,1.561720e-02
-4.676240e-02,-4.669202e-02
-1.570126e-01,-1.569858e-01
-1.418824e-01,-1.418627e-01
-1.516740e-01,-1.515905e-01
-3.042529e-01,-3.041735e-01
-1.586713e-01,-1.585821e-01
-3.228308e-01,-3.227898e-01
-1.303251e-01,-1.302011e-01
-8.137542e-02,-8.139626e-02
-2.402306e-01,-2.400532e-01
2.690269e-01,2.688473e-01
-1.587805e-01,-1.585991e-01
1.614790e-01,1.613345e-01
-2.475268e-01,-2.472750e-01
1.598789e-01,1.598182e-01
-3.710600e-01,-3.702025e-01
9.097893e-02,9.107720e-02
-3.128227e-01,-3.118827e-01
6.116549e-02,6.138066e-02
-2.389488e-01,-2.382813e-01
2.471947e-01,2.470625e-01
-5.886231e-02,-5.767030e-02
-6.581535e-02,-6.632664e-02
-2.280642e-02,-2.412468e-02
-2.760778e-01,-2.746750e-01
2.163411e-01,2.180436e-01
-1.152745e-01,-1.158227e-01
2.150737e-01,2.081728e-01
-1.263558e-01,-1.269863e-01
2.472228e-01,2.471415e-01
-7.385849e-02,-7.376625e-02
1.466894e-01,1.466269e-01
-1.333117e-01,-1.333009e-01
7.004263e-02,6.997305e-02
-1.705587e-01,-1.705782e-01
-1.183363e-01,-1.180483e-01
-4.953752e-01,-4.922115e-01
-1.814523e-01,-1.814100e-01
-3.296613e-01,-3.297497e-01
-3.206960e-01,-3.202265e-01
1.122744e-01,1.123068e-01
-2.553227e-01,-2.551508e-01
2.050049e-01,2.050675e-01
5.174319e-02,5.180966e-02
1.764894e-01,1.765317e-01
2.040729e-01,2.039508e-01
3.727039e-01,3.725280e-01
2.706714e-01,2.703700e-01
1.574306e-01,1.573070e-01
9.465696e-02,9.452168e-02
-2.728404e-01,-2.728847e-01
6.905571e-02,6.906564e-02
-2.164655e-01,-2.163665e-01
-2.227401e-01,-2.227217e-01
-1.880064e-01,-1.879605e-01
-6.965312e-02,-6.959877e-02
8.955134e-02,8.956551e-02
2.134913e-01,2.134583e-01
1.045656e-01,1.045093e-01
8.867566e-03,8.776364e-03
1.794352e-02,1.787562e-02
8.479993e-02,8.477449e-02
1.384491e-01,1.384118e-01
4.242610e-02,4.237727e-02
1.373451e-01,1.372647e-01
2.610197e-02,2.608231e-02
2.048885e-02,2.043694e-02
7.572622e-02,7.573036e-02
9.019520e-02,9.022059e-02
-2.060809e-01,-2.061358e-01
-3.345871e-02,-3.338534e-02
2.023594e-01,2.024451e-01
1.921757e-01,1.923043e-01
3.594249e-01,3.586303e-01
5.446485e-02,5.442544e-02
2.909000e-01,2.903154e-01
-5.743413e-04,-6.406987e-04
3.570334e-01,3.563669e-01
-8.071304e-02,-8.077452e-02
1.682761e-01,1.681377e-01
-1.031321e-01,-1.031165e-01
-7.463059e-02,-7.463859e-02
-2.777805e-01,-2.777163e-01
2.733581e-02,2.740453e-02
-2.056200e-01,-2.055411e-01
3.758927e-02,3.761365e-02
-5.754541e-02,-5.755839e-02
-2.013180e-01,-2.012787e-01
4.921059e-02,4.909445e-02
-1.601378e-01,-1.600221e-01
9.641552e-02,9.630685e-02
-1.182033e-01,-1.181045e-01
2.517943e-01,2.516927e-01
-3.633702e-01,-3.630576e-01
1.288246e-01,1.288417e-01
7.334978e-02,7.354202e-02
3.625933e-01,3.629041e-01
9.138492e-02,9.119687e-02
3.587950e-01,3.593832e-01
3.588127e-02,3.483021e-02
4.479699e-03,6.135193e-03
2.332567e-01,2.330657e-01
-2.446571e-01,-2.444334e-01
2.759641e-01,2.747021e-01
-3.549326e-01,-3.548914e-01
4.269496e-01,4.319035e-01
-4.543431e-01,-4.486568e-01
3.292334e-01,3.313931e-01
-4.876348e-01,-4.644665e-01
2.259309e-01,2.257709e-01
-1.417708e-01,-1.419329e-01
8.422309e-02,8.404403e-02
-1.962199e-01,-1.981677e-01
-8.752923e-02,-8.721944e-02
2.120251e-01,2.094423e-01
-1.092239e-01,-1.087833e-01
3.002361e-01,2.991575e-01
-1.683377e-01,-1.698886e-01
4.442908e-01,4.438347e-01
-2.057348e-01,-2.081181e-01
4.984105e-01,4.999530e-01
-1.169584e-01,-1.150491e-01
4.427895e-01,4.581104e-01
3.250510e-02,3.313589e-02
1.814503e-01,1.789653e-01
-3.152234e-01,-3.075943e-01
-4.810306e-01,-4.889593e-01
-3.867581e-01,-3.943049e-01
-4.993027e-01,-4.999435e-01
-4.899814e-01,-4.927181e-01
-4.918687e-01,-4.986644e-01
-4.433096e-01,-4.378265e-01
-4.998904e-01,-4.999572e-01
-3.406838e-01,-3.468992e-01
-3.486691e-01,-4.138091e-01
-2.821553e-01,-2.818516e-01
-1.553401e-01,-1.552651e-01
-2.165196e-01,-2.163949e-01
-4.061471e-02,-4.074002e-02
-3.137566e-01,-3.138706e-01
1.144324e-01,1.143044e-01
-1.386522e-01,-1.388034e-01
4.732443e-02,4.704830e-02
-1.378805e-02,-1.355083e-02
2.034764e-01,2.031749e-01
-1.237825e-01,-1.237540e-01
1.161016e-01,1.159908e-01
1.098269e-01,1.076026e-01
4.352976e-01,4.356444e-01
2.562048e-01,2.601882e-01
4.097338e-01,4.106232e-01
4.987488e-01,4.999690e-01
2.202864e-01,2.169388e-01
3.158026e-01,3.162218e-01
3.283828e-02,3.298006e-02
3.118538e-01,3.112996e-01
-6.461053e-02,-6.467547e-02
2.522493e-01,2.519598e-01
2.244315e-01,2.243191e-01
1.878057e-01,1.876947e-01
2.435531e-01,2.433829e-01
1.195512e-01,1.195708e-01
-6.543646e-02,-6.551556e-02
-5.913881e-02,-5.897155e-02
-1.036147e-01,-1.036492e-01
-4.250405e-01,-4.237111e-01
-1.379509e-01,-1.380062e-01
-2.739762e-01,-2.733508e-01
-7.091531e-02,-7.090797e-02
-2.054616e-01,-2.052817e-01
7.540348e-02,7.527698e-02
-2.746515e-01,-2.745075e-01
-6.053085e-02,-6.068690e-02
-2.022278e-01,-2.021668e-01
1.878799e-01,1.878436e-01
7.828053e-02,7.823034e-02
1.752728e-01,1.753519e-01
3.307238e-01,3.333014e-01
4.733895e-01,4.715158e-01
4.714681e-01,4.761272e-01
3.557328e-01,3.527063e-01
3.177857e-01,3.175880e-01
1.670735e-01,1.667500e-01
1.471486e-01,1.469018e-01
-1.567123e-01,-1.568199e-01
2.427622e-02,2.418577e-02
-2.419273e-01,-2.419103e-01
4.530506e-02,4.530804e-02
1.325666e-02,1.330473e-02
2.428566e-01,2.428741e-01
1.703588e-01,1.703953e-01
2.519090e-01,2.517846e-01
3.395325e-01,3.393959e-01
2.891549e-01,2.888860e-01
1.575638e-01,1.574592e-01
4.572393e-01,4.530157e-01
-1.029231e-02,-1.075866e-02
4.204197e-01,4.101864e-01
9.025366e-02,8.895188e-02
2.523527e-01,2.505662e-01
1.071932e-01,1.067418e-01
2.870602e-01,2.868064e-01
9.567161e-02,9.551931e-02
-3.590321e-02,-3.595536e-02
6.412222e-02,6.405577e-02
-7.922631e-02,-7.904054e-02
9.270155e-02,9.275033e-02
-3.105916e-01,-3.090779e-01
-2.985829e-02,-3.002088e-02
-2.685718e-01,-2.668863e-01
1.445532e-02,1.431155e-02
-1.491916e-01,-1.490678e-01
-1.187575e-03,-1.217688e-03
-2.802739e-01,-2.801989e-01
-2.299778e-01,-2.299662e-01
-2.914144e-01,-2.910644e-01
-1.970004e-01,-1.967661e-01
-1.161027e-01,-1.158387e-01
-2.998131e-02,-2.975237e-02
-1.694965e-01,-1.691894e-01
4.391292e-02,4.406526e-02
-5.704087e-02,-5.696272e-02
-1.280317e-01,-1.279700e-01
-4.339861e-01,-4.339196e-01
-3.376454e-01,-3.380870e-01
-4.985998e-01,-4.995638e-01
-4.590587e-01,-4.620923e-01
-4.720232e-01,-4.783785e-01
-3.233992e-01,-3.240837e-01
-2.536925e-01,-2.536593e-01
-2.537824e-01,-2.536826e-01
-1.054113e-01,-1.052833e-01
2.916189e-02,2.925808e-02
6.708112e-02,6.712268e-02
1.167216e-01,1.167491e-01
-1.055951e-02,-1.059459e-02
1.324724e-01,1.324390e-01
1.706475e-01,1.704970e-01
2.038434e-02,2.029699e-02
5.890332e-02,5.849544e-02
-1.808905e-01,-1.809855e-01
8.257865e-02,8.236619e-02
-1.013897e-01,-1.013267e-01
2.782984e-01,2.781749e-01
1.584318e-01,1.585839e-01
4.979032e-01,4.977942e-01
3.717659e-01,3.720057e-01
4.815977e-01,4.849184e-01
3.703781e-01,3.707235e-01
4.999537e-01,4.979771e-01
3.228422e-01,3.184601e-01
4.966320e-01,4.763148e-01
1.402294e-01,1.382452e-01
3.815232e-01,4.053825e-01
-1.994400e-01,-1.982377e-01
3.453967e-01,3.483136e-01
-9.530593e-02,-9.381006e-02
1.238889e-01,1.252554e-01
-2.324900e-02,-2.387406e-02
2.747102e-01,2.708218e-01
2.525915e-01,2.504507e-01
1.691996e-01,1.681206e-01
2.829183e-01,2.830344e-01
-1.163944e-01,-1.185510e-01
4.032801e-02,3.926052e-02
-8.618406e-02,-1.005424e-01
4.083144e-02,3.904900e-02
-3.618997e-02,-3.976464e-02
4.112301e-02,4.099365e-02
-2.016765e-01,-2.011345e-01
-1.521645e-01,-1.520301e-01
-3.890311e-01,-3.910575e-01
-8.155718e-02,-8.284490e-02
-4.995734e-01,-4.999669e-01
-2.817587e-01,-2.833205e-01
-4.999483e-01,-4.985527e-01
-4.922989e-01,-4.922873e-01
-4.997324e-01,-4.999827e-01
-4.991887e-01,-4.997841e-01
-5.000026e-01,-4.998020e-01
-4.997464e-01,-4.989730e-01
-4.714015e-01,-4.941750e-01
-4.528446e-01,-3.828751e-01
-5.221470e-01,-4.998340e-01
-5.221470e-01,1.934873e-02
nan,-4.944621e-01
nan,2.128820e-01
-nan,nan
-nan,nan
-nan,-nan
-nan,-nan
-nan,-nan
-nan,-nan
-nan,-nan
-nan,-nan
-nan,-nan
-nan,-nan
-nan,-nan
-nan,-nan
-nan,-nan
-nan,-nan
-nan,-nan
-nan,-nan
-nan,-nan
-nan,-nan
-nan,-nan
-nan,-nan
-nan,-nan
-nan,-nan
-nan,-nan
-nan,-nan
-nan,-nan
-nan,-nan
-nan,-nan
-nan,-nan
-nan,-nan
-nan,-nan
-nan,-nan
-nan,-nan
-nan,-nan
-nan,-nan
-nan,-nan
-nan,-nan
-nan,-nan
-nan,-nan
-nan,-nan
-nan,-nan
-nan,-nan
-nan,-nan
-nan,-nan
-nan,-nan
-nan,-nan
-nan,-nan
-nan,-nan
-nan,-nan
-nan,-nan
-nan,-nan
-nan,-nan
-nan,-nan
-nan,-nan
-nan,-nan
-nan,-nan
-nan,-nan
-nan,-nan
-nan,-nan
-nan,-nan
-nan,-nan
-nan,-nan
-nan,-nan
-nan,-nan
-nan,-nan
-nan,-nan
-nan,-nan
-nan,-nan
-nan,-nan
-nan,-nan
-nan,-nan
-nan,-nan
-nan,-nan
-nan,-nan
-nan,-nan
-nan,-nan
-nan,-nan
-nan,-nan
-nan,-nan
-nan,-nan
-nan,-nan
-nan,-nan
-nan,-nan
-nan,-nan
-nan,-nan
-nan,-nan
-nan,-nan
-nan,-nan
-nan,-nan
-nan,-nan
-nan,-nan
-nan,-nan
-nan,-nan
-nan,-nan
-nan,-nan
-nan,-nan
-nan,-nan
-nan,-nan
-nan,-nan
-nan,-nan
-nan,-nan
-nan,-nan
-nan,-nan
-nan,-nan
-nan,-nan
-nan,-nan
-nan,-nan
-nan,-nan
-nan,-nan
-nan,-nan
-nan,-nan
-nan,-nan
-nan,-nan
-nan,-nan
-nan,-nan
-nan,-nan
-nan,-nan
-nan,-nan
-nan,-nan
-nan,-nan
-nan,-nan
-nan,-nan
-nan,-nan
-nan,-nan
-nan,-nan
-nan,-nan
-nan,-nan
-nan,-nan
-nan,-nan
-nan,-nan
-nan,-nan
-nan,-nan
-nan,-nan
-nan,-nan
-nan,-nan
-nan,-nan
-nan,-nan
-nan,-nan
-nan,-nan
-nan,-nan
-nan,-nan
-nan,-nan
-nan,-nan
-nan,-nan
-nan,-nan
-nan,-nan
-nan,-nan
-nan,-nan
-nan,-nan
-nan,-nan
-nan,-nan
-nan,-nan
-nan,-nan
-nan,-nan
-nan,-nan
-nan,-nan
-nan,-nan
-nan,-nan
-nan,-nan
-nan,-nan
-nan,-nan
-nan,-nan
-nan,-nan
-nan,-nan
-nan,-nan
-nan,-nan
-nan,-nan
-nan,-nan
-nan,-nan
-nan,-nan
-nan,-nan
-nan,-nan
-nan,-nan
-nan,-nan
-nan,-nan
-nan,-nan
-nan,-nan
-nan,-nan
-nan,-nan
-nan,-nan
-nan,-nan
-nan,-nan
-nan,-nan
-nan,-nan
-nan,-nan
-nan,-nan
-nan,-nan
-nan,-nan
-nan,-nan
-nan,-nan
-nan,-nan
-nan,-nan
-nan,-nan
-nan,-nan
-nan,-nan
-nan,-nan
-nan,-nan
-nan,-nan
-nan,-nan
-nan,-nan
-nan,-nan
-nan,-nan
-nan,-nan
-nan,-nan
-nan,-nan
-nan,-nan
-nan,-nan
-nan,-nan
-nan,-nan
-nan,-nan
-nan,-nan
-nan,-nan
-nan,-nan
-nan,-nan
-nan,-nan
-nan,-nan
-nan,-nan
-nan,-nan
-nan,-nan
-nan,-nan
-nan,-nan
-nan,-nan
-nan,-nan
-nan,-nan
-nan,-nan
-nan,-nan
-nan,-nan
-nan,-nan
-nan,-nan
-nan,-nan
-nan,-nan
-nan,-nan
-nan,-nan
-nan,-nan
-nan,-nan
-nan,-nan
-nan,-nan
-nan,-nan
-nan,-nan
-nan,-nan
-nan,-nan
-nan,-nan
-nan,-nan
-nan,-nan
-nan,-nan
-nan,-nan
-nan,-nan
-nan,-nan
-nan,-nan
-nan,-nan
-nan,-nan
-nan,-nan
-nan,-nan
-nan,-nan
-nan,-nan
-nan,-nan
-nan,-nan
-nan,-nan
-nan,-nan
-nan,-nan
-nan,-nan
-nan,-nan
-nan,-nan
-nan,-nan
-nan,-nan
-nan,-nan
-nan,-nan
-nan,-nan
-nan,-nan
-nan,-nan
-nan,-nan
-nan,-nan
-nan,-nan
-nan,-nan
-nan,-nan
-nan,-nan
-nan,-nan
-nan,-nan
-nan,-nan
-nan,-nan
-nan,-nan
-nan,-nan
-nan,-nan
-nan,-nan
-nan,-nan
-nan,-nan
-nan,-nan
-nan,-nan
-nan,-nan
-nan,-nan
-nan,-nan
-nan,-nan
-nan,-nan
-nan,-nan
-nan,-nan
-nan,-nan
-nan,-nan
-nan,-nan
-nan,-nan
-nan,-nan
-nan,-nan
-nan,-nan
-nan,-nan
-nan,-nan
-nan,-nan
-nan,-nan
-nan,-nan
-nan,-nan
-nan,-nan
-nan,-nan
-nan,-nan
-nan,-nan
-nan,-nan
-nan,-nan
-nan,-nan
-nan,-nan
-nan,-nan
-nan,-nan
-nan,-nan
-nan,-nan
-nan,-nan
-nan,-nan
-nan,-nan
-nan,-nan
-nan,-nan
-nan,-nan
-nan,-nan
-nan,-nan
-nan,-nan
-nan,-nan
-nan,-nan
-nan,-nan
-nan,-nan
-nan,-nan
-nan,-nan
-nan,-nan
-nan,-nan
-nan,-nan
-nan,-nan
-nan,-nan
-nan,-nan
-nan,-nan
-nan,-nan
-nan,-nan
-nan,-nan
-nan,-nan
-nan,-nan
-nan,-nan
-nan,-nan
-nan,-nan
-nan,-nan
-nan,-nan
-nan,-nan
-nan,-nan
-nan,-nan
-nan,-nan
-nan,-nan
-nan,-nan
-nan,-nan
-nan,-nan
-nan,-nan
-nan,-nan
-nan,-nan
-nan,-nan
-nan,-nan
-nan,-nan
-nan,-nan
-nan,-nan
-nan,-nan
-nan,-nan
-nan,-nan
-nan,-nan
-nan,-nan
-nan,-nan
-nan,-nan
-nan,-nan
-nan,-nan
-nan,-nan
-nan,-nan
-nan,-nan
-nan,-nan
-nan,-nan
-nan,-nan
-nan,-nan
-nan,-nan
-nan,-nan
-nan,-nan
-nan,-nan
-nan,-nan
-nan,-nan
-nan,-nan
-nan,-nan
-nan,-nan
-nan,-nan
-nan,-nan
-nan,-nan
-nan,-nan
-nan,-nan
-nan,-nan
-nan,-nan
-nan,-nan
-nan,-nan
-nan,-nan
-nan,-nan
-nan,-nan
-nan,-nan
-nan,-nan
-nan,-nan
-nan,-nan
-nan,-nan
-nan,-nan
-nan,-nan
-nan,-nan
-nan,-nan
-nan,-nan
-nan,-nan
-nan,-nan
-nan,-nan
-nan,-nan
-nan,-nan
-nan,-nan
-nan,-nan
-nan,-nan
-nan,-nan
-nan,-nan
-nan,-nan
-nan,-nan
-nan,-nan
-nan,-nan
-nan,-nan
-nan,-nan
-nan,-nan
-nan,-nan
-nan,-nan
-nan,-nan
-nan,-nan
-nan,-nan
-nan,-nan
-nan,-nan
-nan,-nan
-nan,-nan
-nan,-nan
-nan,-nan
-nan,-nan
-nan,-nan
-nan,-nan
-nan,-nan

