1.658840e+00,2.175250e+03,2.173923e+03,2,1000,0.000000e+00,3.027092e-16,0
2.420478e+00,2.099704e+02,2.099278e+02,3,125,1.480036e-01,1.480040e-01,1
2.403177e+00,1.743242e+00,1.717091e+00,3,0,2.735369e-01,2.735375e-01,1
2.393478e+00,1.819921e+00,1.796961e+00,3,0,5.775482e-01,5.775491e-01,1
2.403997e+00,1.774410e+00,1.751900e+00,3,0,5.324873e-01,5.324878e-01,1
2.396730e+00,1.783367e+00,1.761198e+00,3,0,2.501609e+00,2.501613e+00,1
2.398584e+00,1.790681e+00,1.769066e+00,3,0,3.489167e+00,3.489170e+00,1
2.407076e+00,3.376817e+00,3.355980e+00,3,1,4.579108e+00,4.583692e+00,1
2.413732e+00,3.123786e+00,3.100157e+00,3,1,2.251722e+00,2.251720e+00,1
2.402533e+00,1.758168e+00,1.735926e+00,3,0,1.996333e+00,1.996333e+00,1
2.399694e+00,1.750570e+00,1.729012e+00,3,0,1.651810e+00,1.651811e+00,1
2.407205e+00,1.760010e+00,1.736641e+00,3,0,1.911414e+00,1.911416e+00,1
2.400809e+00,1.812258e+00,1.787901e+00,3,0,3.170317e+00,3.170321e+00,1
2.399223e+00,1.784221e+00,1.759768e+00,3,0,4.326485e+00,4.326488e+00,1
2.409006e+00,1.785668e+00,1.761675e+00,3,0,3.965845e+00,3.965846e+00,1
2.403190e+00,4.888744e+00,4.866123e+00,3,2,5.539031e+00,5.541949e+00,1
2.405129e+00,9.171954e+00,9.147167e+00,3,5,4.325629e+00,4.325632e+00,1
2.407208e+00,4.820772e+00,4.796028e+00,3,2,3.786460e+00,3.786462e+00,1
2.403432e+00,3.733241e+00,3.709078e+00,3,1,3.617628e+00,3.628612e+00,1
2.401119e+00,2.137510e+00,2.114058e+00,3,0,3.447908e+00,3.460856e+00,1
2.402438e+00,5.065911e+00,5.042791e+00,3,2,3.608651e+00,3.630815e+00,1
2.396287e+00,3.446520e+00,3.422022e+00,3,1,3.007773e+00,3.009265e+00,1
2.395675e+00,2.123641e+00,2.099991e+00,3,0,2.708768e+00,2.715266e+00,1
2.405193e+00,5.052572e+00,5.028963e+00,3,2,2.361952e+00,2.478735e+00,1
2.404578e+00,3.975910e+00,3.953218e+00,3,1,2.331072e+00,2.373541e+00,1
2.398183e+00,2.126803e+00,2.104044e+00,3,0,2.254552e+00,2.254706e+00,1
2.398885e+00,3.151427e+00,3.129005e+00,3,1,1.866740e+00,1.866660e+00,1
2.394921e+00,1.757686e+00,1.736164e+00,3,0,1.339152e+00,1.338718e+00,1
2.401230e+00,1.750895e+00,1.729012e+00,3,0,6.754172e-01,6.754198e-01,1
2.407565e+00,1.778376e+00,1.756191e+00,3,0,5.788400e-01,5.788403e-01,1
2.406492e+00,1.803886e+00,1.780987e+00,3,0,1.149246e+00,1.149248e+00,1
2.394123e+00,1.777106e+00,1.754045e+00,3,0,1.355590e+00,1.355591e+00,1
2.395245e+00,1.764078e+00,1.742125e+00,3,0,1.169480e+00,1.169480e+00,1
2.396303e+00,1.768710e+00,1.748085e+00,3,0,1.807405e+00,1.807407e+00,1
2.391462e+00,1.756653e+00,1.735926e+00,3,0,1.478377e+00,1.478377e+00,1
2.399759e+00,1.755638e+00,1.734972e+00,3,0,1.091071e+00,1.091071e+00,1
2.390836e+00,1.759236e+00,1.736879e+00,3,0,7.992431e-01,7.992438e-01,1
2.394859e+00,1.755280e+00,1.732826e+00,3,0,6.655984e-01,6.655989e-01,1
2.399134e+00,3.462254e+00,3.439903e+00,3,1,1.692763e+00,1.693024e+00,1
2.390343e+00,3.065867e+00,3.042936e+00,3,1,1.868491e+00,1.868492e+00,1
2.400811e+00,4.927550e+00,4.908085e+00,3,2,4.201802e+00,4.289912e+00,1
2.404053e+00,9.436414e+00,9.416103e+00,3,5,5.751145e+00,5.777500e+00,1
2.403217e+00,8.388156e+00,8.367062e+00,3,5,3.643247e+00,3.643242e+00,1
2.395257e+00,3.323090e+00,3.301144e+00,3,1,5.501129e+00,5.501149e+00,1
2.399120e+00,3.056944e+00,3.036022e+00,3,1,4.395928e+00,4.395928e+00,1
2.401341e+00,1.719239e+00,1.698971e+00,3,0,3.555645e+00,3.555646e+00,1
2.387228e+00,1.713222e+00,1.693249e+00,3,0,3.184692e+00,3.184692e+00,1
2.400160e+00,1.721419e+00,1.702070e+00,3,0,2.643503e+00,2.643503e+00,1
2.401916e+00,1.746451e+00,1.724958e+00,3,0,2.123927e+00,2.123927e+00,1
2.390950e+00,1.743154e+00,1.722813e+00,3,0,1.353442e+00,1.353442e+00,1
2.390079e+00,1.734950e+00,1.715183e+00,3,0,1.214986e+00,1.214987e+00,1
2.392765e+00,1.716389e+00,1.696110e+00,3,0,1.931047e+00,1.931049e+00,1
2.386601e+00,1.714181e+00,1.694918e+00,3,0,1.408606e+00,1.408606e+00,1
2.388450e+00,3.411952e+00,3.391981e+00,3,1,1.200528e+00,1.201030e+00,1
2.400821e+00,8.161792e+00,8.141041e+00,3,4,1.587005e+00,1.611751e+00,1
2.399167e+00,3.398708e+00,3.377914e+00,3,1,2.178953e+00,2.207202e+00,1
3.197458e+00,3.065118e+00,3.043890e+00,4,1,1.184306e+00,1.184306e+00,1
2.407543e+00,1.845049e+00,1.817942e+00,3,0,1.825496e+00,1.825498e+00,1
2.424693e+00,1.929235e+00,1.900911e+00,3,0,2.574941e+00,2.574941e+00,1
2.407255e+00,1.886828e+00,1.858950e+00,3,0,3.881356e+00,3.881297e+00,1
2.390240e+00,1.783710e+00,1.762152e+00,3,0,1.759175e+00,1.759179e+00,1
2.406839e+00,6.471231e+00,6.448984e+00,3,3,3.799603e+00,3.880634e+00,1
2.420948e+00,1.969309e+01,1.965904e+01,3,9,7.152710e+00,7.543965e+00,0
2.420376e+00,2.312850e+01,2.310395e+01,3,15,3.884091e+00,3.893628e+00,1
2.409161e+00,1.065509e+01,1.061821e+01,3,3,5.336954e+00,6.484888e+00,0
3.198355e+00,8.455849e+00,8.433104e+00,4,5,2.310956e+00,2.310954e+00,1
2.399947e+00,1.760800e+00,1.739025e+00,3,0,2.477129e+00,2.477128e+00,1
2.399588e+00,1.750792e+00,1.729012e+00,3,0,1.938172e+00,1.938173e+00,1
2.402634e+00,1.756345e+00,1.735210e+00,3,0,1.521449e+00,1.521450e+00,1
2.392592e+00,1.749505e+00,1.727819e+00,3,0,1.165285e+00,1.165286e+00,1
2.407698e+00,1.758882e+00,1.737118e+00,3,0,1.739597e+00,1.739598e+00,1
2.397648e+00,1.749988e+00,1.729012e+00,3,0,1.775319e+00,1.775319e+00,1
2.408820e+00,1.753214e+00,1.732111e+00,3,0,1.799509e+00,1.799509e+00,1
2.401877e+00,3.469820e+00,3.447771e+00,3,1,2.026183e+00,2.027364e+00,1
2.407937e+00,3.686506e+00,3.664970e+00,3,1,2.951178e+00,2.980673e+00,1
2.401129e+00,2.122353e+00,2.099752e+00,3,0,3.962333e+00,4.012046e+00,1
2.402689e+00,5.047120e+00,5.025148e+00,3,2,2.385911e+00,2.430448e+00,1
2.409980e+00,5.384884e+00,5.359888e+00,3,2,2.376835e+00,2.392619e+00,1
2.402000e+00,2.124114e+00,2.099991e+00,3,0,1.754875e+00,1.771037e+00,1
2.415200e+00,3.107834e+00,3.085852e+00,3,1,8.692650e-01,8.692650e-01,1
2.405675e+00,1.814006e+00,1.790047e+00,3,0,2.989064e+00,2.989070e+00,1
2.406313e+00,1.801999e+00,1.779079e+00,3,0,2.211858e+00,2.211858e+00,1
2.401943e+00,1.790340e+00,1.766682e+00,3,0,1.979904e+00,1.979904e+00,1
2.399311e+00,3.520888e+00,3.497839e+00,3,1,1.907538e+00,1.936113e+00,1
2.404123e+00,4.983509e+00,4.962206e+00,3,2,2.746002e+00,2.746007e+00,1
2.393020e+00,1.774578e+00,1.751900e+00,3,0,4.925648e+00,4.925653e+00,1
2.410180e+00,1.564265e+01,1.561999e+01,3,9,7.371487e+00,7.383442e+00,1
2.403048e+00,2.098893e+01,2.095389e+01,3,10,1.074806e+01,2.184238e+01,0
2.414316e+00,2.773251e+01,2.769804e+01,3,15,8.738721e+00,1.836195e+01,0
2.416997e+00,3.745563e+01,3.741980e+01,3,22,6.239155e+00,9.077555e+00,0
2.412654e+00,1.732227e+01,1.729798e+01,3,11,4.812462e+00,4.831482e+00,1
2.396183e+00,2.114165e+00,2.091169e+00,3,0,3.371763e+00,3.374475e+00,1
2.405364e+00,1.748417e+01,1.746202e+01,3,10,4.771552e+00,4.819715e+00,1
2.408418e+00,8.909074e+00,8.884668e+00,3,5,3.545154e+00,3.565116e+00,1
2.408041e+00,1.553587e+01,1.551080e+01,3,9,4.578377e+00,4.617528e+00,1
4.794646e+00,1.868945e+01,1.866603e+01,6,12,5.027686e+00,5.074601e+00,1
3.206728e+00,1.042855e+01,1.040578e+01,4,6,2.153368e+00,2.225759e+00,1
2.406770e+00,3.116749e+00,3.094196e+00,3,1,1.868775e+00,1.868776e+00,1
2.405596e+00,1.761882e+00,1.739979e+00,3,0,2.663072e+00,2.663074e+00,1
2.391178e+00,1.753360e+00,1.731873e+00,3,0,2.891656e+00,2.891658e+00,1
2.405501e+00,1.762768e+00,1.741171e+00,3,0,2.180924e+00,2.180924e+00,1
2.393037e+00,1.753788e+00,1.732111e+00,3,0,2.512815e+00,2.512817e+00,1
2.396209e+00,1.781859e+00,1.761198e+00,3,0,1.480686e+00,1.480686e+00,1
2.405387e+00,1.776606e+00,1.755953e+00,3,0,1.351141e+00,1.351142e+00,1
2.396194e+00,1.767621e+00,1.746178e+00,3,0,1.117585e+00,1.117585e+00,1
2.407044e+00,1.818365e+00,1.795053e+00,3,0,1.167861e+00,1.167862e+00,1
2.405427e+00,3.496321e+00,3.473997e+00,3,1,1.623609e+00,1.623878e+00,1
2.400064e+00,4.826844e+00,4.803896e+00,3,2,1.769092e+00,1.773422e+00,1
2.409916e+00,3.964206e+00,3.943205e+00,3,1,1.140696e+00,1.143766e+00,1
2.405380e+00,6.892409e+00,6.870031e+00,3,3,1.145570e+00,1.199252e+00,1
2.399242e+00,2.119533e+00,2.097130e+00,3,0,1.055146e+00,1.077466e+00,1
2.398455e+00,2.106244e+00,2.084732e+00,3,0,8.892156e-01,8.892168e-01,1
2.400101e+00,3.112586e+00,3.091097e+00,3,1,6.223629e-01,6.223631e-01,1
2.402198e+00,1.757373e+00,1.736164e+00,3,0,1.095591e+00,1.095590e+00,1
2.398118e+00,1.751925e+00,1.731157e+00,3,0,5.822856e-01,5.822857e-01,1
2.407158e+00,1.753411e+00,1.731873e+00,3,0,6.708017e-01,6.708022e-01,1
2.399377e+00,1.746902e+00,1.725912e+00,3,0,1.729779e+00,1.729782e+00,1
2.401419e+00,1.749071e+00,1.728058e+00,3,0,1.261898e+00,1.261898e+00,1
2.404322e+00,1.742959e+00,1.722097e+00,3,0,4.055829e+00,4.055835e+00,1
2.408388e+00,3.454157e+00,3.433228e+00,3,1,2.812030e+00,2.855906e+00,1
2.402548e+00,2.117439e+00,2.097130e+00,3,0,2.727518e+00,2.922852e+00,1
2.415765e+00,5.622088e+00,5.599976e+00,3,2,3.397019e+00,3.510406e+00,1
2.408829e+00,4.537124e+00,4.512072e+00,3,2,3.069348e+00,3.069348e+00,1
2.418715e+00,5.195822e+00,5.170107e+00,3,2,3.383617e+00,3.385768e+00,1
2.412250e+00,1.228954e+01,1.225305e+01,3,4,5.972615e+00,1.113957e+01,0
2.405741e+00,1.355740e+01,1.353407e+01,3,8,3.876235e+00,3.886311e+00,1
2.406880e+00,6.155133e+00,6.132841e+00,3,3,2.947260e+00,2.947303e+00,1
2.411234e+00,4.259815e+00,4.236221e+00,3,2,2.568630e+00,2.568246e+00,1
3.206532e+00,2.946782e+00,2.921104e+00,4,1,1.535618e+00,1.535620e+00,1
2.407337e+00,1.830936e+00,1.806259e+00,3,0,1.689766e+00,1.689753e+00,1
2.402023e+00,1.794751e+00,1.770973e+00,3,0,1.059124e+00,1.059125e+00,1
2.399590e+00,1.770948e+00,1.749992e+00,3,0,1.391686e+00,1.391687e+00,1
2.399171e+00,1.754045e+00,1.733065e+00,3,0,6.224834e-01,6.224836e-01,1
2.399969e+00,1.778297e+00,1.757860e+00,3,0,5.061407e-01,5.061410e-01,1
2.397521e+00,1.751774e+00,1.731157e+00,3,0,5.185195e-01,5.185200e-01,1
2.404165e+00,3.498399e+00,3.478050e+00,3,1,1.126091e+00,1.135741e+00,1
2.396561e+00,4.951406e+00,4.929781e+00,3,2,1.162246e+00,1.162247e+00,1
2.410477e+00,1.787902e+00,1.765013e+00,3,0,9.840356e-01,9.840358e-01,1
2.394907e+00,1.775054e+00,1.752615e+00,3,0,1.072807e+00,1.072808e+00,1
2.400316e+00,1.783706e+00,1.759768e+00,3,0,9.085788e-01,9.085793e-01,1
2.398392e+00,1.752471e+00,1.729965e+00,3,0,1.695302e+00,1.695304e+00,1
2.402750e+00,5.046590e+00,5.024672e+00,3,2,2.891735e+00,2.893572e+00,1
2.394436e+00,5.083845e+00,5.062103e+00,3,2,3.265931e+00,3.314605e+00,1
3.198975e+00,6.644209e+00,6.622076e+00,4,3,2.575520e+00,2.651215e+00,1
2.402175e+00,3.728385e+00,3.705978e+00,3,1,2.289383e+00,2.382816e+00,1
2.407359e+00,5.297797e+00,5.275726e+00,3,2,2.113488e+00,2.261819e+00,1
2.404325e+00,3.454307e+00,3.432989e+00,3,1,1.516394e+00,1.641921e+00,1
2.398341e+00,2.107060e+00,2.085209e+00,3,0,1.344862e+00,1.355455e+00,1
2.398065e+00,3.100064e+00,3.078222e+00,3,1,2.351807e+00,2.351811e+00,1
2.398277e+00,1.757789e+00,1.735926e+00,3,0,3.350936e+00,3.350939e+00,1
2.398353e+00,1.750880e+00,1.724005e+00,3,0,2.045840e+00,2.045839e+00,1
2.398087e+00,1.758973e+00,1.737833e+00,3,0,1.936813e+00,1.936814e+00,1
2.403848e+00,1.754393e+00,1.734018e+00,3,0,1.737006e+00,1.737006e+00,1
2.393669e+00,1.773118e+00,1.751184e+00,3,0,1.592264e+00,1.592265e+00,1
2.396560e+00,1.748756e+00,1.727104e+00,3,0,1.309678e+00,1.309678e+00,1
2.410668e+00,3.502824e+00,3.480196e+00,3,1,1.471515e+00,1.471892e+00,1
2.400664e+00,3.157657e+00,3.132820e+00,3,1,2.408775e+00,2.408778e+00,1
2.402426e+00,1.798570e+00,1.773119e+00,3,0,2.316237e+00,2.316238e+00,1
2.397444e+00,1.773398e+00,1.749992e+00,3,0,2.453421e+00,2.453422e+00,1
2.402261e+00,1.759695e+00,1.737118e+00,3,0,2.787898e+00,2.787902e+00,1
2.403269e+00,1.727976e+00,1.706123e+00,3,0,1.273912e+00,1.273912e+00,1
2.396600e+00,1.755070e+00,1.734018e+00,3,0,1.018702e+00,1.018703e+00,1
2.395054e+00,1.756016e+00,1.734972e+00,3,0,1.067855e+00,1.067856e+00,1
2.396294e+00,1.736636e+00,1.715183e+00,3,0,4.854868e-01,4.854877e-01,1
2.390909e+00,1.754297e+00,1.734018e+00,3,0,4.890522e-01,4.890525e-01,1
2.394242e+00,1.752291e+00,1.729965e+00,3,0,8.369453e-01,8.369464e-01,1
2.396837e+00,1.734869e+00,1.713991e+00,3,0,7.129160e-01,7.129162e-01,1
2.401797e+00,1.757372e+00,1.737118e+00,3,0,1.917656e+00,1.917660e+00,1
2.392561e+00,1.741846e+00,1.719713e+00,3,0,1.424672e+00,1.424674e+00,1
2.395197e+00,1.758634e+00,1.736641e+00,3,0,1.006634e+00,1.006634e+00,1
2.394874e+00,3.462762e+00,3.441095e+00,3,1,8.967757e-01,8.977849e-01,1
2.398802e+00,3.109646e+00,3.087044e+00,3,1,9.131059e-01,9.131064e-01,1
2.395990e+00,1.764609e+00,1.742840e+00,3,0,9.391659e-01,9.391666e-01,1
2.392231e+00,1.754761e+00,1.733780e+00,3,0,5.924110e-01,5.924113e-01,1
2.392545e+00,1.748789e+00,1.726866e+00,3,0,6.653450e-01,6.653459e-01,1
2.397001e+00,1.752997e+00,1.730919e+00,3,0,5.440112e-01,5.440118e-01,1
2.395776e+00,1.757612e+00,1.737118e+00,3,0,4.697494e-01,4.697497e-01,1
2.394328e+00,1.779731e+00,1.758099e+00,3,0,1.266003e+00,1.266005e+00,1
2.398593e+00,1.781961e+00,1.759052e+00,3,0,7.992279e-01,7.992288e-01,1
2.403230e+00,3.501709e+00,3.479242e+00,3,1,1.265643e+00,1.266490e+00,1
2.398980e+00,3.741724e+00,3.719091e+00,3,1,2.042498e+00,2.053414e+00,1
2.402711e+00,3.968232e+00,3.944874e+00,3,1,1.751240e+00,1.791992e+00,1
2.394292e+00,3.975589e+00,3.952980e+00,3,1,1.985307e+00,2.002462e+00,1
2.401034e+00,5.046054e+00,5.021095e+00,3,2,1.392088e+00,1.435957e+00,1
2.397364e+00,5.304525e+00,5.280972e+00,3,2,1.392298e+00,1.412918e+00,1
2.407461e+00,2.106171e+00,2.084017e+00,3,0,1.591715e+00,1.624823e+00,1
2.400454e+00,2.133550e+00,2.111197e+00,3,0,3.495679e+00,3.507402e+00,1
2.404179e+00,3.124423e+00,3.100634e+00,3,1,4.628509e+00,4.628513e+00,1
2.398088e+00,3.468496e+00,3.444910e+00,3,1,4.100847e+00,4.100908e+00,1
2.405080e+00,3.111361e+00,3.087997e+00,3,1,3.335041e+00,3.335042e+00,1
2.401301e+00,1.768152e+00,1.745939e+00,3,0,3.085539e+00,3.085540e+00,1
2.397791e+00,1.763500e+00,1.739979e+00,3,0,2.095506e+00,2.095506e+00,1
2.390528e+00,1.757214e+00,1.734972e+00,3,0,2.070090e+00,2.070092e+00,1
2.402791e+00,4.872476e+00,4.849911e+00,3,2,2.035864e+00,2.035700e+00,1
3.200691e+00,4.460273e+00,4.437923e+00,4,2,1.588495e+00,1.588495e+00,1
2.412970e+00,5.376773e+00,5.352974e+00,3,2,1.398559e+00,1.405478e+00,1
2.403826e+00,6.929525e+00,6.903887e+00,3,3,2.810599e+00,2.956324e+00,1
4.792102e+00,1.273535e+01,1.271009e+01,6,7,5.875768e+00,5.941653e+00,1
4.790574e+00,1.310085e+01,1.307702e+01,6,8,6.171684e+00,6.179705e+00,1
3.984086e+00,9.294116e+00,9.270191e+00,5,5,6.475596e+00,6.458496e+00,1
3.195790e+00,1.092588e+01,1.090193e+01,4,6,7.600623e+00,7.602608e+00,1
3.991480e+00,1.665750e+01,1.663399e+01,5,10,1.077371e+01,1.087118e+01,1
2.406530e+00,1.947523e+01,1.945210e+01,3,12,6.981219e+00,6.998697e+00,1
2.399739e+00,1.676611e+01,1.674008e+01,3,10,8.565217e+00,8.644481e+00,1
2.406547e+00,1.055083e+01,1.052713e+01,3,6,6.583353e+00,6.645315e+00,1
2.410418e+00,3.139866e+01,3.137398e+01,3,20,6.050999e+00,6.172233e+00,1
2.417994e+00,1.338233e+01,1.335907e+01,3,8,4.244935e+00,4.275577e+00,1
2.418843e+00,3.120679e+01,3.117037e+01,3,17,5.193249e+00,6.270919e+00,0
2.405938e+00,1.614171e+01,1.611495e+01,3,10,3.529538e+00,3.558423e+00,1
3.214634e+00,2.840622e+01,2.838206e+01,4,18,4.528285e+00,4.669163e+00,1
3.199610e+00,2.778367e+01,2.776003e+01,4,19,1.487728e+00,1.488068e+00,1
2.402284e+00,2.293680e+00,2.269030e+00,3,0,1.789573e+00,1.829576e+00,1
2.401279e+00,3.176872e+00,3.152132e+00,3,1,3.357590e+00,3.357595e+00,1
2.399419e+00,1.795874e+00,1.772642e+00,3,0,2.536075e+00,2.536075e+00,1
2.405482e+00,3.519283e+00,3.497124e+00,3,1,4.041246e+00,4.048394e+00,1
2.397564e+00,5.077565e+00,5.053997e+00,3,2,3.584921e+00,3.585447e+00,1
2.403883e+00,1.116790e+01,1.114511e+01,3,6,6.183028e+00,6.213562e+00,1
3.195229e+00,1.141153e+01,1.138711e+01,4,7,3.170585e+00,3.170583e+00,1
2.398004e+00,1.773971e+00,1.750946e+00,3,0,2.632867e+00,2.632868e+00,1
2.400100e+00,1.760962e+00,1.737833e+00,3,0,2.062443e+00,2.062444e+00,1
2.394160e+00,1.753429e+00,1.731873e+00,3,0,2.073299e+00,2.073300e+00,1
2.394643e+00,1.763216e+00,1.741171e+00,3,0,2.218690e+00,2.218691e+00,1
2.405457e+00,1.119136e+01,1.116920e+01,3,6,3.363521e+00,3.382724e+00,1
2.409026e+00,7.173543e+00,7.149935e+00,3,4,1.506882e+00,1.506879e+00,1
2.398522e+00,1.760278e+00,1.737118e+00,3,0,1.004850e+00,1.004850e+00,1
2.402240e+00,1.757420e+00,1.735926e+00,3,0,1.144904e+00,1.144905e+00,1
2.398910e+00,1.783130e+00,1.760006e+00,3,0,1.098587e+00,1.098588e+00,1
2.400529e+00,1.762840e+00,1.740932e+00,3,0,8.549192e-01,8.549193e-01,1
2.393974e+00,1.743717e+00,1.723051e+00,3,0,1.390139e+00,1.390142e+00,1
2.402874e+00,1.769221e+00,1.747847e+00,3,0,2.045292e+00,2.045294e+00,1
2.399756e+00,1.751767e+00,1.729965e+00,3,0,3.124474e+00,3.124477e+00,1
2.408891e+00,8.132649e+00,8.110046e+00,3,4,6.813577e+00,6.834118e+00,1
2.405219e+00,6.764343e+00,6.741047e+00,3,3,8.852022e+00,8.946386e+00,1
2.402529e+00,1.643994e+01,1.641607e+01,3,10,6.013671e+00,6.049255e+00,1
2.400005e+00,6.372648e+00,6.348848e+00,3,3,7.441729e+00,7.485554e+00,1
2.403934e+00,1.057893e+01,1.055503e+01,3,6,5.365326e+00,5.367844e+00,1
2.401530e+00,3.523010e+00,3.498077e+00,3,1,4.259686e+00,4.259786e+00,1
2.407395e+00,1.140784e+01,1.138306e+01,3,6,4.734053e+00,4.752437e+00,1
2.409069e+00,8.551128e+00,8.527040e+00,3,5,2.567545e+00,2.567543e+00,1
2.393457e+00,1.766424e+00,1.740932e+00,3,0,1.975939e+00,1.975943e+00,1
2.395848e+00,1.764720e+00,1.744032e+00,3,0,1.521593e+00,1.521593e+00,1
2.403656e+00,1.764710e+00,1.742125e+00,3,0,1.423559e+00,1.423560e+00,1
2.396511e+00,1.761245e+00,1.739025e+00,3,0,1.350079e+00,1.350079e+00,1
2.398434e+00,1.762513e+00,1.739979e+00,3,0,2.090363e+00,2.090365e+00,1
2.396166e+00,1.730698e+00,1.708984e+00,3,0,7.172346e-01,7.172341e-01,1
2.398390e+00,3.469155e+00,3.448009e+00,3,1,2.868684e+00,2.871878e+00,1
2.410069e+00,9.770212e+00,9.747028e+00,3,5,6.331645e+00,6.386507e+00,1
2.400783e+00,1.199524e+01,1.197195e+01,3,7,3.700655e+00,3.703348e+00,1
2.403779e+00,3.078502e+00,3.055811e+00,3,1,2.640157e+00,2.640157e+00,1
2.388711e+00,1.726933e+00,1.705885e+00,3,0,2.165524e+00,2.165525e+00,1
2.395838e+00,1.722448e+00,1.700878e+00,3,0,1.840368e+00,1.840368e+00,1
2.395150e+00,1.752770e+00,1.730204e+00,3,0,1.725505e+00,1.725506e+00,1
2.400089e+00,6.532117e+00,6.511211e+00,3,3,2.906680e+00,2.919596e+00,1
2.399343e+00,7.683725e+00,7.662058e+00,3,4,2.246882e+00,2.246904e+00,1
2.389766e+00,2.096838e+00,2.074957e+00,3,0,1.616623e+00,1.616630e+00,1
2.398983e+00,3.074358e+00,3.052950e+00,3,1,1.799497e+00,1.799498e+00,1
2.404563e+00,6.580878e+00,6.558895e+00,3,3,3.086736e+00,3.096025e+00,1
2.398971e+00,5.236103e+00,5.215168e+00,3,2,5.005690e+00,5.020120e+00,1
2.405566e+00,1.394811e+01,1.392603e+01,3,8,9.121827e+00,9.234820e+00,1
2.412155e+00,1.606612e+01,1.603198e+01,3,7,1.115426e+01,1.604084e+01,0
2.415508e+00,2.365488e+01,2.362275e+01,3,12,1.007041e+01,1.657446e+01,0
2.413850e+00,2.820892e+01,2.817202e+01,3,15,1.057503e+01,1.105757e+01,0
2.409986e+00,2.914905e+01,2.912307e+01,3,19,8.922928e+00,9.004491e+00,1
2.408305e+00,1.027570e+01,1.024151e+01,3,3,9.392447e+00,1.046101e+01,0
2.404494e+00,9.669227e+00,9.645939e+00,3,5,9.381576e+00,9.440088e+00,1
2.413435e+00,2.182246e+01,2.179027e+01,3,11,7.732694e+00,1.248580e+01,0
2.409040e+00,1.783951e+01,1.781392e+01,3,11,6.666550e+00,6.709980e+00,1
2.405939e+00,7.730804e+00,7.706165e+00,3,4,5.132091e+00,5.141724e+00,1
2.407345e+00,1.337813e+01,1.334620e+01,3,5,4.672895e+00,8.065859e+00,0
2.405977e+00,8.696809e+00,8.661985e+00,3,2,4.695715e+00,1.558213e+01,0
4.784835e+00,6.015540e+00,5.983114e+00,6,0,6.045463e+00,3.261289e+01,0
4.782859e+00,6.019682e+00,5.985022e+00,6,0,1.130377e+01,6.718714e+01,0
4.795236e+00,2.537833e+01,2.534175e+01,6,13,1.277344e+01,5.672267e+01,0
4.782970e+00,5.991371e+00,5.953789e+00,6,0,1.451748e+01,4.669279e+01,0
4.796710e+00,2.434998e+01,2.431679e+01,6,13,1.278536e+01,3.194860e+01,0
3.206940e+00,5.975846e+00,5.942822e+00,4,0,1.298036e+01,3.128369e+01,0
3.999532e+00,5.972973e+00,5.938292e+00,5,0,1.601412e+01,4.649516e+01,0
3.215107e+00,6.583867e+01,6.580496e+01,4,41,1.494759e+01,2.821235e+01,0
4.013849e+00,2.027024e+01,2.023292e+01,5,10,1.242799e+01,2.397991e+01,0
3.212444e+00,6.783349e+01,6.779623e+01,4,43,1.070041e+01,1.305869e+01,0
2.424849e+00,5.882447e+01,5.879807e+01,3,40,9.412869e+00,9.810152e+00,1
2.404700e+00,1.787959e+01,1.784372e+01,3,8,8.011030e+00,9.726227e+00,0
2.408728e+00,1.310980e+01,1.307607e+01,3,5,7.179906e+00,1.271748e+01,0
2.411295e+00,2.864748e+01,2.861023e+01,3,16,7.274770e+00,2.197898e+01,0
3.197947e+00,2.481630e+01,2.478981e+01,4,16,4.136519e+00,4.155415e+00,1
2.402610e+00,7.777760e+00,7.752180e+00,3,4,3.550030e+00,3.560973e+00,1
2.403025e+00,1.350164e+01,1.346779e+01,3,5,3.816687e+00,9.146759e+00,0
3.994928e+00,9.115997e+00,9.090900e+00,5,5,2.696602e+00,2.694182e+00,1
2.403901e+00,4.287951e+00,4.263163e+00,3,2,2.275539e+00,2.275098e+00,1
3.201635e+00,2.879519e+00,2.856731e+00,4,1,1.864442e+00,1.863193e+00,1
2.395769e+00,1.755541e+00,1.734018e+00,3,0,1.188939e+00,1.188799e+00,1
2.395961e+00,1.762329e+00,1.739025e+00,3,0,7.331308e-01,7.331341e-01,1
2.403125e+00,1.757256e+00,1.735926e+00,3,0,5.694166e-01,5.694177e-01,1
2.394224e+00,1.754467e+00,1.733065e+00,3,0,8.128254e-01,8.128263e-01,1
2.396960e+00,1.762778e+00,1.740932e+00,3,0,1.090983e+00,1.090984e+00,1
2.388797e+00,1.748558e+00,1.726866e+00,3,0,7.585430e-01,7.585432e-01,1
2.393143e+00,1.761796e+00,1.739979e+00,3,0,8.033592e-01,8.033607e-01,1
2.399169e+00,3.470348e+00,3.448248e+00,3,1,2.166570e+00,2.171915e+00,1
2.410895e+00,6.852806e+00,6.830931e+00,3,3,4.826692e+00,4.869792e+00,1
2.413964e+00,1.323129e+01,1.320815e+01,3,7,6.547699e+00,6.593636e+00,1
2.410758e+00,1.224054e+01,1.221609e+01,3,7,5.512687e+00,5.638339e+00,1
2.416309e+00,1.140486e+01,1.138115e+01,3,6,5.911387e+00,5.982554e+00,1
2.400173e+00,1.070970e+01,1.068497e+01,3,6,5.769750e+00,5.809768e+00,1
2.407138e+00,5.045619e+00,5.023003e+00,3,2,5.107642e+00,5.139021e+00,1
2.409262e+00,1.093625e+01,1.091313e+01,3,6,4.067933e+00,4.069077e+00,1
2.404870e+00,7.744128e+00,7.720947e+00,3,4,4.005856e+00,4.005876e+00,1
2.409259e+00,1.823768e+01,1.820207e+01,3,8,7.184525e+00,1.258169e+01,0
5.585710e+00,1.035246e+01,1.031637e+01,7,3,9.369448e+00,2.634640e+01,0
4.787343e+00,6.032827e+00,5.999565e+00,6,0,1.107324e+01,4.206754e+01,0
3.205654e+00,5.932294e+01,5.928779e+01,4,36,9.071422e+00,1.657504e+01,0
4.008133e+00,4.319429e+01,4.316783e+01,5,29,6.955012e+00,7.211247e+00,1
3.202853e+00,2.343902e+01,2.341318e+01,4,15,5.141936e+00,5.234778e+00,1
2.416281e+00,1.224719e+01,1.222396e+01,3,7,4.147804e+00,4.320160e+00,1
2.415880e+00,2.635513e+01,2.632999e+01,3,16,5.395840e+00,5.736405e+00,1
2.413573e+00,1.634159e+01,1.631618e+01,3,10,5.355274e+00,5.604172e+00,1
2.412831e+00,2.773576e+01,2.771115e+01,3,18,4.030521e+00,4.162208e+00,1
3.204327e+00,1.650195e+01,1.647568e+01,4,10,3.964006e+00,4.051004e+00,1
4.785413e+00,1.165837e+01,1.163411e+01,6,7,4.764465e+00,4.765987e+00,1
4.785792e+00,6.428805e+00,6.405115e+00,6,3,5.218817e+00,5.221609e+00,1
3.203833e+00,1.078031e+01,1.075602e+01,4,6,6.316626e+00,6.317425e+00,1
2.399750e+00,6.202835e+00,6.179094e+00,3,3,4.943201e+00,4.947694e+00,1
2.398194e+00,3.740178e+00,3.716946e+00,3,1,6.594036e+00,6.599438e+00,1
2.397861e+00,2.145679e+00,2.122164e+00,3,0,6.555577e+00,6.565842e+00,1
2.407007e+00,8.016771e+00,7.993698e+00,3,4,5.495698e+00,5.503682e+00,1
2.406245e+00,5.085948e+00,5.061150e+00,3,2,4.532205e+00,4.539836e+00,1
2.404703e+00,1.422002e+01,1.419711e+01,3,8,4.667586e+00,4.738645e+00,1
2.403264e+00,2.140598e+01,2.138209e+01,3,13,4.638625e+00,4.724157e+00,1
3.993241e+00,1.915815e+01,1.913023e+01,5,12,3.472828e+00,3.485494e+00,1
4.783944e+00,7.562867e+00,7.536888e+00,6,4,3.414138e+00,3.449267e+00,1
2.397690e+00,4.860630e+00,4.837036e+00,3,2,2.250870e+00,2.258503e+00,1
2.421424e+00,5.104150e+00,5.079985e+00,3,2,1.831822e+00,1.846076e+00,1
2.401265e+00,2.133219e+00,2.109051e+00,3,0,1.131077e+00,1.134128e+00,1
2.407087e+00,3.120121e+00,3.097057e+00,3,1,7.299054e-01,7.299058e-01,1
2.399319e+00,1.756405e+00,1.734018e+00,3,0,4.261267e-01,4.261268e-01,1
2.392510e+00,1.759685e+00,1.737833e+00,3,0,8.370910e-01,8.370928e-01,1
2.398980e+00,1.764266e+00,1.742840e+00,3,0,4.819096e-01,4.819097e-01,1
2.396210e+00,1.768750e+00,1.747131e+00,3,0,4.462015e-01,4.462022e-01,1
2.396879e+00,1.739722e+00,1.718044e+00,3,0,2.803077e-01,2.803081e-01,1
2.391616e+00,1.773111e+00,1.750708e+00,3,0,3.033738e-01,3.033742e-01,1
2.396983e+00,1.757512e+00,1.734972e+00,3,0,2.669841e-01,2.669844e-01,1
2.392922e+00,1.764312e+00,1.744032e+00,3,0,6.526420e-01,6.526431e-01,1
2.398912e+00,1.762116e+00,1.739979e+00,3,0,5.019943e-01,5.019950e-01,1
2.390668e+00,1.751341e+00,1.729965e+00,3,0,5.137934e-01,5.137953e-01,1
2.392538e+00,1.765672e+00,1.744032e+00,3,0,1.045456e+00,1.045457e+00,1
2.400435e+00,1.775599e+00,1.754045e+00,3,0,5.741313e-01,5.741311e-01,1
2.392871e+00,1.777963e+00,1.754999e+00,3,0,8.142612e-01,8.142620e-01,1
2.398965e+00,1.770869e+00,1.749992e+00,3,0,8.280785e-01,8.280790e-01,1
2.391727e+00,1.753893e+00,1.732111e+00,3,0,1.397217e+00,1.397218e+00,1
2.391393e+00,1.765422e+00,1.743078e+00,3,0,1.066859e+00,1.066859e+00,1
2.394280e+00,1.764167e+00,1.741886e+00,3,0,7.028452e-01,7.028452e-01,1
2.388535e+00,1.762491e+00,1.739979e+00,3,0,5.117901e-01,5.117907e-01,1
2.396615e+00,1.756951e+00,1.734972e+00,3,0,6.908309e-01,6.908318e-01,1
2.389856e+00,1.756752e+00,1.734972e+00,3,0,6.371437e-01,6.371439e-01,1
2.392446e+00,1.772197e+00,1.750231e+00,3,0,5.139517e-01,5.139520e-01,1
2.402728e+00,1.779954e+00,1.758099e+00,3,0,9.031881e-01,9.031893e-01,1
2.393788e+00,1.775968e+00,1.754999e+00,3,0,6.888096e-01,6.888101e-01,1
2.395750e+00,3.491258e+00,3.468275e+00,3,1,1.025954e+00,1.026022e+00,1
2.402598e+00,3.984240e+00,3.962994e+00,3,1,1.815979e+00,1.895097e+00,1
2.403150e+00,2.154231e+00,2.131939e+00,3,0,1.589368e+00,1.609449e+00,1
2.398156e+00,3.128459e+00,3.105164e+00,3,1,1.406367e+00,1.406368e+00,1
2.409199e+00,3.516283e+00,3.493071e+00,3,1,3.216378e+00,3.216910e+00,1
2.401554e+00,3.714896e+00,3.691912e+00,3,1,3.904264e+00,3.905018e+00,1
2.401048e+00,4.471489e+00,4.449129e+00,3,2,2.221364e+00,2.221362e+00,1
2.390924e+00,1.769226e+00,1.747131e+00,3,0,1.660918e+00,1.660918e+00,1
2.398802e+00,1.786318e+00,1.756907e+00,3,0,1.279164e+00,1.279165e+00,1
2.399827e+00,1.768258e+00,1.745939e+00,3,0,8.539503e-01,8.539504e-01,1
2.404744e+00,1.769800e+00,1.749039e+00,3,0,7.552411e-01,7.552415e-01,1
2.393104e+00,1.756784e+00,1.736164e+00,3,0,1.085242e+00,1.085243e+00,1
2.387841e+00,1.764552e+00,1.744032e+00,3,0,1.038550e+00,1.038550e+00,1
2.395787e+00,1.758444e+00,1.738071e+00,3,0,5.170583e-01,5.170594e-01,1
2.390594e+00,1.758187e+00,1.737118e+00,3,0,1.407120e+00,1.407122e+00,1
2.400176e+00,1.749292e+00,1.727104e+00,3,0,7.812400e-01,7.812397e-01,1
2.398831e+00,1.747432e+00,1.725912e+00,3,0,6.898962e-01,6.898969e-01,1
2.393571e+00,1.747565e+00,1.727104e+00,3,0,9.654198e-01,9.654211e-01,1
2.397265e+00,1.771747e+00,1.749992e+00,3,0,7.903642e-01,7.903644e-01,1
2.396566e+00,1.768607e+00,1.745939e+00,3,0,9.278448e-01,9.278455e-01,1
2.390353e+00,1.753497e+00,1.730919e+00,3,0,1.181535e+00,1.181536e+00,1
2.400311e+00,1.731002e+00,1.710176e+00,3,0,9.326543e-01,9.326550e-01,1
2.389550e+00,1.760457e+00,1.739025e+00,3,0,9.693091e-01,9.693105e-01,1
2.405456e+00,1.747991e+00,1.727819e+00,3,0,1.209060e+00,1.209058e+00,1
2.393179e+00,1.758514e+00,1.737118e+00,3,0,1.485905e+00,1.485902e+00,1
2.397571e+00,1.755437e+00,1.731873e+00,3,0,2.228563e+00,2.228565e+00,1
2.404950e+00,1.815865e+00,1.793146e+00,3,0,1.542829e+00,1.542829e+00,1
2.401173e+00,1.818964e+00,1.796007e+00,3,0,1.482649e+00,1.482652e+00,1
2.407527e+00,1.805140e+00,1.781225e+00,3,0,1.434512e+00,1.434512e+00,1
2.395121e+00,1.766789e+00,1.744747e+00,3,0,1.553198e+00,1.553199e+00,1
2.398148e+00,1.765863e+00,1.744032e+00,3,0,1.283905e+00,1.283905e+00,1
2.411088e+00,6.434464e+00,6.412029e+00,3,3,2.186981e+00,2.206630e+00,1
3.206112e+00,8.297176e+00,8.272886e+00,4,4,1.655150e+00,1.680444e+00,1
2.395315e+00,2.125422e+00,2.101183e+00,3,0,1.546005e+00,1.570950e+00,1
2.407116e+00,6.919849e+00,6.896734e+00,3,3,1.510830e+00,1.544875e+00,1
2.399170e+00,3.962645e+00,3.940105e+00,3,1,1.365930e+00,1.541318e+00,1
2.398778e+00,5.329770e+00,5.306005e+00,3,2,9.769543e-01,1.031691e+00,1
2.408368e+00,3.998207e+00,3.974915e+00,3,1,1.186194e+00,1.219948e+00,1
2.405240e+00,4.994375e+00,4.971027e+00,3,2,1.335771e+00,1.335772e+00,1
2.401154e+00,1.761111e+00,1.738787e+00,3,0,9.193939e-01,9.193942e-01,1
2.392303e+00,1.770828e+00,1.750946e+00,3,0,1.723912e+00,1.723915e+00,1
2.407918e+00,1.770668e+00,1.749039e+00,3,0,1.214819e+00,1.214819e+00,1
2.396549e+00,1.753583e+00,1.731873e+00,3,0,1.112148e+00,1.112149e+00,1
2.404608e+00,1.777631e+00,1.754045e+00,3,0,9.950764e-01,9.950768e-01,1
2.393886e+00,1.755388e+00,1.734018e+00,3,0,7.781688e-01,7.781701e-01,1
2.391642e+00,1.749919e+00,1.728058e+00,3,0,5.708914e-01,5.708919e-01,1
2.395345e+00,1.751210e+00,1.729012e+00,3,0,1.134286e+00,1.134288e+00,1
2.393800e+00,1.743500e+00,1.721859e+00,3,0,9.785733e-01,9.785738e-01,1
2.393757e+00,1.776424e+00,1.754045e+00,3,0,9.957019e-01,9.957030e-01,1
2.398889e+00,1.786635e+00,1.764059e+00,3,0,9.312319e-01,9.312323e-01,1
2.392485e+00,1.793224e+00,1.769066e+00,3,0,7.241148e-01,7.241154e-01,1
2.394766e+00,1.763162e+00,1.739740e+00,3,0,8.698003e-01,8.698009e-01,1
2.396733e+00,1.761167e+00,1.739025e+00,3,0,6.747741e-01,6.747743e-01,1
2.397296e+00,1.761450e+00,1.739025e+00,3,0,2.849898e+00,2.849746e+00,1
3.194511e+00,1.109317e+01,1.106596e+01,4,6,6.330298e+00,6.346473e+00,1
2.407825e+00,1.184857e+01,1.182389e+01,3,7,4.754227e+00,4.754483e+00,1
2.396332e+00,3.154118e+00,3.123760e+00,3,1,3.391432e+00,3.391432e+00,1
2.401785e+00,1.767046e+00,1.744986e+00,3,0,2.486301e+00,2.486301e+00,1
2.396394e+00,1.769175e+00,1.747131e+00,3,0,2.691490e+00,2.691492e+00,1
2.398355e+00,1.759088e+00,1.736879e+00,3,0,2.126826e+00,2.126826e+00,1
2.396027e+00,1.766379e+00,1.744032e+00,3,0,2.053928e+00,2.053929e+00,1
2.390876e+00,1.762197e+00,1.739979e+00,3,0,2.472397e+00,2.472400e+00,1
2.399027e+00,1.776992e+00,1.754045e+00,3,0,2.817019e+00,2.817021e+00,1
2.395981e+00,1.754509e+00,1.732826e+00,3,0,2.576706e+00,2.576707e+00,1
2.414743e+00,3.498356e+00,3.475189e+00,3,1,2.745789e+00,2.746462e+00,1
2.393952e+00,3.142204e+00,3.118992e+00,3,1,3.658601e+00,3.658604e+00,1
2.396729e+00,1.787176e+00,1.764059e+00,3,0,2.697948e+00,2.697947e+00,1
2.403719e+00,1.795216e+00,1.771927e+00,3,0,1.827132e+00,1.827132e+00,1
2.398751e+00,1.796028e+00,1.774073e+00,3,0,1.081240e+00,1.081239e+00,1
2.406412e+00,1.762003e+00,1.741171e+00,3,0,7.213907e-01,7.213908e-01,1
2.387804e+00,1.757379e+00,1.734972e+00,3,0,5.653592e-01,5.653597e-01,1
2.391419e+00,1.759892e+00,1.738071e+00,3,0,7.758439e-01,7.758450e-01,1
2.402187e+00,1.762673e+00,1.742125e+00,3,0,5.482219e-01,5.482219e-01,1
2.393649e+00,1.760074e+00,1.738071e+00,3,0,9.182351e-01,9.182362e-01,1
2.399598e+00,1.770148e+00,1.748800e+00,3,0,9.757144e-01,9.757149e-01,1
2.406098e+00,3.485615e+00,3.463030e+00,3,1,9.064542e-01,9.068175e-01,1
2.396084e+00,4.007687e+00,3.984928e+00,3,1,1.168357e+00,1.171758e+00,1
2.401305e+00,3.163174e+00,3.139973e+00,3,1,6.508462e-01,6.508461e-01,1
2.399535e+00,1.776049e+00,1.750946e+00,3,0,5.279664e-01,5.279668e-01,1
2.402006e+00,1.754558e+00,1.731873e+00,3,0,2.820790e+00,2.820797e+00,1
2.396424e+00,1.764550e+00,1.743793e+00,3,0,2.934657e+00,2.934658e+00,1
2.400883e+00,1.758651e+00,1.736879e+00,3,0,1.426248e+00,1.426246e+00,1
2.394042e+00,1.763922e+00,1.742125e+00,3,0,1.407416e+00,1.407416e+00,1
2.400201e+00,1.769092e+00,1.747131e+00,3,0,1.232362e+00,1.232362e+00,1
2.410599e+00,3.498234e+00,3.475904e+00,3,1,1.320884e+00,1.321158e+00,1
2.403106e+00,3.148628e+00,3.125906e+00,3,1,6.746907e-01,6.746906e-01,1
2.406045e+00,1.768271e+00,1.746178e+00,3,0,5.664895e-01,5.664901e-01,1
2.395732e+00,1.759963e+00,1.737118e+00,3,0,1.078170e+00,1.078172e+00,1
2.407156e+00,1.755764e+00,1.734018e+00,3,0,1.343445e+00,1.343446e+00,1
2.400987e+00,1.786057e+00,1.763105e+00,3,0,1.653652e+00,1.653653e+00,1
2.390792e+00,1.774794e+00,1.753092e+00,3,0,1.076622e+00,1.076623e+00,1
2.401113e+00,1.756716e+00,1.735926e+00,3,0,1.034405e+00,1.034405e+00,1
2.391520e+00,1.738225e+00,1.712084e+00,3,0,1.552390e+00,1.552392e+00,1
2.396261e+00,1.772888e+00,1.751184e+00,3,0,2.302807e+00,2.302809e+00,1
2.401089e+00,1.746671e+00,1.724720e+00,3,0,2.553646e+00,2.553647e+00,1
2.408147e+00,5.033791e+00,5.012989e+00,3,2,3.561499e+00,3.575644e+00,1
2.417428e+00,5.132031e+00,5.108118e+00,3,2,3.362407e+00,3.363277e+00,1
2.469306e+00,9.503104e+00,9.477139e+00,3,5,5.297647e+00,5.314122e+00,1
3.199703e+00,8.443274e+00,8.416653e+00,4,5,2.343236e+00,2.343234e+00,1
2.453627e+00,1.797169e+00,1.774073e+00,3,0,1.947125e+00,1.947125e+00,1
2.414353e+00,6.791515e+00,6.769180e+00,3,3,2.858706e+00,2.860865e+00,1
2.405276e+00,5.887926e+00,5.866051e+00,3,3,1.398131e+00,1.398129e+00,1
2.396298e+00,1.767554e+00,1.745224e+00,3,0,1.151307e+00,1.151307e+00,1
2.400311e+00,1.752102e+00,1.730919e+00,3,0,9.152045e-01,9.152048e-01,1
2.396531e+00,1.761612e+00,1.739025e+00,3,0,6.047534e-01,6.047533e-01,1
2.405017e+00,1.816638e+00,1.792192e+00,3,0,1.293959e+00,1.293961e+00,1
2.395046e+00,1.814611e+00,1.784086e+00,3,0,9.615482e-01,9.615483e-01,1
2.408275e+00,1.801305e+00,1.776934e+00,3,0,5.406548e-01,5.406548e-01,1
2.404458e+00,1.796542e+00,1.773119e+00,3,0,1.286577e+00,1.286579e+00,1
2.396842e+00,1.770089e+00,1.749039e+00,3,0,8.903074e-01,8.903073e-01,1
2.403153e+00,1.754065e+00,1.733065e+00,3,0,4.809713e-01,4.809716e-01,1
2.393429e+00,1.757114e+00,1.735926e+00,3,0,5.197156e-01,5.197160e-01,1
2.390362e+00,1.789201e+00,1.767635e+00,3,0,6.734607e-01,6.734616e-01,1
2.391902e+00,3.467723e+00,3.446102e+00,3,1,1.009693e+00,1.010402e+00,1
2.406612e+00,3.718392e+00,3.695011e+00,3,1,2.101386e+00,2.102032e+00,1
2.400760e+00,3.481405e+00,3.459930e+00,3,1,1.561047e+00,1.577163e+00,1
2.396966e+00,3.771865e+00,3.747940e+00,3,1,2.818456e+00,2.911826e+00,1
2.398109e+00,3.498071e+00,3.475904e+00,3,1,1.238293e+00,1.238449e+00,1
2.399178e+00,3.123027e+00,3.101110e+00,3,1,9.871107e-01,9.871113e-01,1
2.398266e+00,1.761516e+00,1.740217e+00,3,0,6.630267e-01,6.630267e-01,1
2.398836e+00,1.750813e+00,1.729965e+00,3,0,6.060071e-01,6.060079e-01,1
2.405725e+00,1.790534e+00,1.769066e+00,3,0,1.699427e+00,1.699431e+00,1
2.433897e+00,1.820193e+00,1.798868e+00,3,0,1.693244e+00,1.693245e+00,1
2.402353e+00,1.819480e+00,1.798868e+00,3,0,2.594563e+00,2.594534e+00,1
2.445646e+00,1.798313e+00,1.775980e+00,3,0,2.664806e+00,2.664799e+00,1
2.396957e+00,1.797836e+00,1.765251e+00,3,0,3.056800e+00,3.056802e+00,1
2.401505e+00,3.519403e+00,3.496885e+00,3,1,5.002214e+00,5.003229e+00,1
2.404473e+00,6.645418e+00,6.621122e+00,3,3,5.598298e+00,5.599273e+00,1
2.403003e+00,6.639933e+00,6.617069e+00,3,3,4.181819e+00,4.192150e+00,1
2.400827e+00,6.636012e+00,6.613016e+00,3,3,3.756676e+00,3.769292e+00,1
2.403675e+00,9.340074e+00,9.315968e+00,3,5,5.273739e+00,5.288335e+00,1
2.410785e+00,9.354596e+00,9.330034e+00,3,5,3.584801e+00,3.590217e+00,1
2.401666e+00,4.491942e+00,4.467010e+00,3,2,2.972094e+00,2.972095e+00,1
2.405857e+00,1.767721e+00,1.746893e+00,3,0,3.001132e+00,3.001136e+00,1
2.396994e+00,1.759645e+00,1.738071e+00,3,0,3.240714e+00,3.240716e+00,1
2.404210e+00,3.475165e+00,3.452063e+00,3,1,3.545577e+00,3.560298e+00,1
2.405999e+00,3.113742e+00,3.091097e+00,3,1,2.616908e+00,2.616909e+00,1
2.391741e+00,1.766768e+00,1.743793e+00,3,0,2.511452e+00,2.511453e+00,1
2.396252e+00,5.079528e+00,5.056858e+00,3,2,3.220630e+00,3.226523e+00,1
2.411845e+00,9.595855e+00,9.571791e+00,3,5,3.533524e+00,3.575865e+00,1
2.411207e+00,5.055941e+00,5.030155e+00,3,2,2.237914e+00,2.246246e+00,1
2.404414e+00,7.770811e+00,7.748127e+00,3,4,2.151201e+00,2.153182e+00,1
2.396927e+00,3.139054e+00,3.116131e+00,3,1,1.265728e+00,1.265697e+00,1
2.394602e+00,1.768645e+00,1.746178e+00,3,0,1.227046e+00,1.227006e+00,1

