8.881160e-01,1.457061e+01,1.426816e+01,2,40,0.000000e+00,9.094947e-13,1
1.278414e+00,3.833710e-01,3.681183e-01,3,0,1.605839e-01,1.605842e-01,1
1.280864e+00,3.787130e-01,3.690720e-01,3,0,6.545386e-01,6.545398e-01,1
1.273323e+00,3.840490e-01,3.728867e-01,3,0,6.162145e-01,6.162151e-01,1
1.276861e+00,3.791860e-01,3.681183e-01,3,0,2.418715e+00,2.418721e+00,1
1.272884e+00,3.788430e-01,3.681183e-01,3,0,3.568196e+00,3.568200e+00,1
1.274732e+00,3.833160e-01,3.731251e-01,3,0,1.549538e+00,1.549531e+00,1
1.272396e+00,3.840760e-01,3.731251e-01,3,0,1.088436e+00,1.088435e+00,1
1.277174e+00,3.780700e-01,3.681183e-01,3,0,1.784967e+00,1.784971e+00,1
1.277882e+00,6.291330e-01,6.179810e-01,3,1,5.186070e+00,5.185892e+00,1
1.698111e+00,6.212190e-01,6.110668e-01,4,1,6.936447e+00,6.936446e+00,1
1.279133e+00,1.395174e+00,1.384020e+00,3,3,1.063397e+01,1.064513e+01,1
1.273491e+00,1.254591e+00,1.243114e+00,3,3,7.695660e+00,7.695655e+00,1
1.273533e+00,7.391040e-01,7.290840e-01,3,1,7.531864e+00,7.531866e+00,1
1.273295e+00,1.361489e+00,1.350880e+00,3,3,8.143663e+00,8.155496e+00,1
1.274757e+00,1.747804e+00,1.736879e+00,3,4,8.978819e+00,8.991060e+00,1
1.274695e+00,2.631822e+00,2.620220e+00,3,7,6.075198e+00,6.076195e+00,1
1.279137e+00,2.309897e+00,2.297878e+00,3,6,5.987984e+00,5.991184e+00,1
1.278668e+00,1.654643e+00,1.644135e+00,3,4,4.048768e+00,4.052657e+00,1
1.279700e+00,7.987760e-01,7.870197e-01,3,1,3.250914e+00,3.260419e+00,1
1.274345e+00,2.338396e+00,2.328157e+00,3,6,3.505232e+00,3.591336e+00,1
1.273864e+00,1.146911e+00,1.137018e+00,3,2,3.925671e+00,4.039910e+00,1
1.279868e+00,1.544391e+00,1.533031e+00,3,4,3.075531e+00,3.075528e+00,1
1.273183e+00,3.838050e-01,3.731251e-01,3,0,2.677444e+00,2.677447e+00,1
1.273253e+00,3.846920e-01,3.750324e-01,3,0,2.448630e+00,2.448630e+00,1
1.273308e+00,3.798490e-01,3.688335e-01,3,0,1.904446e+00,1.904445e+00,1
1.277558e+00,3.791960e-01,3.678799e-01,3,0,1.053351e+00,1.053350e+00,1
1.273145e+00,3.795230e-01,3.700256e-01,3,0,8.673203e-01,8.673216e-01,1
1.272905e+00,3.845150e-01,3.731251e-01,3,0,1.405551e+00,1.405553e+00,1
1.277558e+00,3.809320e-01,3.700256e-01,3,0,2.410195e+00,2.410198e+00,1
1.273521e+00,3.787250e-01,3.681183e-01,3,0,4.437123e+00,4.437129e+00,1
1.272536e+00,3.862730e-01,3.759861e-01,3,0,6.033017e+00,6.033021e+00,1
1.277959e+00,3.792030e-01,3.678799e-01,3,0,5.339759e+00,5.339760e+00,1
1.272598e+00,3.807780e-01,3.700256e-01,3,0,5.250734e+00,5.250733e+00,1
1.272979e+00,1.103999e+00,1.093149e+00,3,2,4.950201e+00,4.956333e+00,1
1.277201e+00,4.553380e-01,4.441738e-01,3,0,4.820278e+00,4.891875e+00,1
1.273972e+00,1.156698e+00,1.145840e+00,3,2,3.868184e+00,3.889872e+00,1
1.273497e+00,6.768010e-01,6.661415e-01,3,1,3.342703e+00,3.342704e+00,1
1.272780e+00,3.795710e-01,3.688335e-01,3,0,3.106065e+00,3.106066e+00,1
1.278011e+00,3.802680e-01,3.690720e-01,3,0,2.615102e+00,2.615103e+00,1
1.273089e+00,3.783140e-01,3.669262e-01,3,0,2.403966e+00,2.403967e+00,1
1.272994e+00,3.853470e-01,3.740788e-01,3,0,2.704682e+00,2.704683e+00,1
1.273209e+00,7.556030e-01,7.441044e-01,3,1,2.045579e+00,2.046423e+00,1
1.273030e+00,1.030902e+00,1.019001e+00,3,2,2.229113e+00,2.235554e+00,1
1.273231e+00,1.429049e+00,1.418829e+00,3,3,4.723841e+00,4.741591e+00,1
1.698238e+00,1.860807e+00,1.849890e+00,4,5,7.246433e-01,7.247990e-01,1
1.273334e+00,8.629020e-01,8.521080e-01,3,1,1.992541e+00,1.996142e+00,1
1.273312e+00,6.756490e-01,6.639957e-01,3,1,2.370022e+00,2.370024e+00,1
1.276905e+00,3.793140e-01,3.678799e-01,3,0,3.674363e+00,3.674367e+00,1
1.272132e+00,3.792110e-01,3.700256e-01,3,0,1.475619e+00,1.475619e+00,1
1.273056e+00,3.849580e-01,3.750324e-01,3,0,1.386720e+00,1.386721e+00,1
1.277441e+00,3.800540e-01,3.678799e-01,3,0,1.971087e+00,1.971089e+00,1
1.272930e+00,3.790380e-01,3.688335e-01,3,0,2.288405e+00,2.288409e+00,1
1.272296e+00,3.849270e-01,3.750324e-01,3,0,3.427558e+00,3.427561e+00,1
1.272494e+00,3.796250e-01,3.690720e-01,3,0,3.712676e+00,3.712674e+00,1
1.274450e+00,1.101092e+00,1.089811e+00,3,2,2.413632e+00,2.420040e+00,1
1.275235e+00,1.564784e+00,1.554012e+00,3,3,2.387232e+00,2.389558e+00,1
1.273949e+00,8.671370e-01,8.549690e-01,3,1,2.058848e+00,2.075019e+00,1
1.278613e+00,1.078379e+00,1.066923e+00,3,2,2.124255e+00,2.124256e+00,1
1.272313e+00,3.790030e-01,3.688335e-01,3,0,1.019778e+00,1.019779e+00,1
1.273090e+00,3.841470e-01,3.738403e-01,3,0,3.394712e+00,3.394718e+00,1
1.272198e+00,3.792280e-01,3.690720e-01,3,0,1.613646e+00,1.613644e+00,1
1.276521e+00,3.781330e-01,3.681183e-01,3,0,1.585202e+00,1.585204e+00,1
1.278786e+00,1.727207e+00,1.716852e+00,3,4,4.478657e+00,4.506193e+00,1
1.701004e+00,5.243071e+00,5.232096e+00,4,15,8.118442e+00,8.411082e+00,1
1.697345e+00,2.889150e+00,2.877951e+00,4,8,1.046625e+01,1.115547e+01,1
1.696208e+00,6.394567e+00,6.383896e+00,4,19,9.385198e+00,9.708129e+00,1
1.282328e+00,1.943347e+00,1.932144e+00,3,5,6.642836e+00,6.783287e+00,1
1.275596e+00,1.542369e+00,1.532078e+00,3,3,5.601103e+00,5.647517e+00,1
1.274314e+00,1.329929e+00,1.318693e+00,3,3,4.272995e+00,4.413819e+00,1
1.273888e+00,8.650640e-01,8.549690e-01,3,1,3.233063e+00,3.251934e+00,1
1.273251e+00,7.514460e-01,7.400513e-01,3,1,3.923862e+00,3.934085e+00,1
1.273961e+00,4.594860e-01,4.491806e-01,3,0,3.496880e+00,3.515534e+00,1
1.272835e+00,6.757630e-01,6.661415e-01,3,1,3.115364e+00,3.115009e+00,1
1.272755e+00,3.851250e-01,3.750324e-01,3,0,2.951767e+00,2.951772e+00,1
1.272196e+00,6.286680e-01,6.170273e-01,3,1,2.504016e+00,2.503594e+00,1
1.698541e+00,6.202580e-01,6.098747e-01,4,1,2.550398e+00,2.550166e+00,1
1.273463e+00,6.393570e-01,6.289482e-01,3,1,4.157737e+00,4.154139e+00,1
1.692743e+00,6.262980e-01,6.148815e-01,4,1,2.037060e+00,2.037058e+00,1
1.272231e+00,6.278820e-01,6.170273e-01,3,1,2.912498e+00,2.912310e+00,1
1.697107e+00,6.244950e-01,6.141663e-01,4,1,1.240912e+00,1.240912e+00,1
1.277340e+00,3.803430e-01,3.700256e-01,3,0,1.284588e+00,1.284589e+00,1
1.293912e+00,3.796730e-01,3.690720e-01,3,0,1.256550e+00,1.256551e+00,1
1.273254e+00,3.873740e-01,3.771782e-01,3,0,1.408702e+00,1.408703e+00,1
1.282811e+00,3.799650e-01,3.700256e-01,3,0,1.443233e+00,1.443233e+00,1
1.272633e+00,3.816040e-01,3.700256e-01,3,0,2.067815e+00,2.067809e+00,1
1.276355e+00,3.849210e-01,3.740788e-01,3,0,2.290234e+00,2.290236e+00,1
1.278312e+00,3.815580e-01,3.709793e-01,3,0,3.649910e+00,3.649913e+00,1
1.271748e+00,3.796670e-01,3.690720e-01,3,0,3.764717e+00,3.764718e+00,1
1.276084e+00,2.417150e+00,2.406120e+00,3,6,9.007308e+00,9.031291e+00,1
1.699153e+00,2.115243e+00,2.104044e+00,4,6,4.653494e+00,4.653487e+00,1
1.273434e+00,3.814200e-01,3.702641e-01,3,0,3.583836e+00,3.583836e+00,1
1.272355e+00,3.791220e-01,3.681183e-01,3,0,3.027567e+00,3.027567e+00,1
1.274394e+00,3.846940e-01,3.731251e-01,3,0,4.812262e+00,4.812268e+00,1
1.273461e+00,3.857450e-01,3.750324e-01,3,0,2.791467e+00,2.791465e+00,1
1.277268e+00,3.813190e-01,3.697872e-01,3,0,2.663460e+00,2.663461e+00,1
1.277864e+00,7.490370e-01,7.379055e-01,3,1,2.580166e+00,2.580182e+00,1
1.273807e+00,1.394724e+00,1.384020e+00,3,3,4.067231e+00,4.082041e+00,1
2.544407e+00,1.035042e+00,1.024008e+00,6,2,2.262081e+00,2.273604e+00,1
1.273151e+00,9.672320e-01,9.560585e-01,3,2,1.496233e+00,1.496228e+00,1
1.273202e+00,3.857660e-01,3.740788e-01,3,0,1.205546e+00,1.205546e+00,1
1.277298e+00,3.803360e-01,3.700256e-01,3,0,1.046102e+00,1.046103e+00,1
1.272057e+00,3.795640e-01,3.690720e-01,3,0,8.448238e-01,8.448244e-01,1
1.273291e+00,7.571190e-01,7.469654e-01,3,1,1.093308e+00,1.093634e+00,1
1.277284e+00,8.056950e-01,7.960796e-01,3,1,1.228729e+00,1.233536e+00,1
1.276942e+00,7.462310e-01,7.359982e-01,3,1,1.747175e+00,1.764833e+00,1
1.272370e+00,7.988580e-01,7.889271e-01,3,1,1.845340e+00,1.922527e+00,1
1.278203e+00,1.558980e+00,1.546860e+00,3,3,2.243176e+00,2.524563e+00,1
1.272864e+00,4.554650e-01,4.439354e-01,3,0,2.376420e+00,2.479133e+00,1
1.273616e+00,1.084947e+00,1.073122e+00,3,2,1.654671e+00,1.654671e+00,1
1.276518e+00,3.803670e-01,3.700256e-01,3,0,1.903256e+00,1.903257e+00,1
1.277271e+00,6.267360e-01,6.158352e-01,3,1,4.144334e+00,4.143652e+00,1
1.697089e+00,6.200390e-01,6.091595e-01,4,1,4.769360e+00,4.769351e+00,1
1.280120e+00,3.814760e-01,3.707409e-01,3,0,4.597219e+00,4.597220e+00,1
1.273193e+00,3.797410e-01,3.690720e-01,3,0,4.053996e+00,4.053996e+00,1
1.274739e+00,1.448866e+00,1.437187e+00,3,3,4.428645e+00,4.437877e+00,1
1.275161e+00,1.727053e+00,1.715899e+00,3,4,5.075241e+00,5.086849e+00,1
1.273562e+00,7.851230e-01,7.739067e-01,3,1,6.656677e+00,6.694932e+00,1
1.278736e+00,1.150877e+00,1.138926e+00,3,2,7.736712e+00,7.764903e+00,1
1.274340e+00,1.380258e+00,1.368999e+00,3,3,4.904890e+00,4.973669e+00,1
1.272589e+00,1.092978e+00,1.082897e+00,3,2,4.543455e+00,4.546206e+00,1
1.279501e+00,4.561880e-01,4.451275e-01,3,0,4.950044e+00,4.953674e+00,1
1.276850e+00,8.571550e-01,8.471012e-01,3,1,4.309243e+00,4.311391e+00,1
1.274217e+00,1.155171e+00,1.144886e+00,3,2,3.655235e+00,3.655415e+00,1
1.277971e+00,1.046021e+00,1.034975e+00,3,2,3.236235e+00,3.236800e+00,1
1.273525e+00,1.099474e+00,1.084089e+00,3,2,3.730860e+00,3.801493e+00,1
1.281699e+00,1.255026e+00,1.244068e+00,3,3,1.973841e+00,1.973841e+00,1
1.273180e+00,3.808260e-01,3.709793e-01,3,0,1.819657e+00,1.819658e+00,1
1.274495e+00,3.850990e-01,3.728867e-01,3,0,2.235074e+00,2.235075e+00,1
1.273909e+00,6.315400e-01,6.210804e-01,3,1,3.087264e+00,3.087037e+00,1
1.691364e+00,6.246640e-01,6.139278e-01,4,1,1.475714e+00,1.475712e+00,1
1.273050e+00,3.862560e-01,3.759861e-01,3,0,1.510058e+00,1.510058e+00,1
1.277872e+00,3.798760e-01,3.690720e-01,3,0,1.119111e+00,1.119111e+00,1
1.272413e+00,3.803480e-01,3.697872e-01,3,0,1.700658e+00,1.700660e+00,1
1.273751e+00,3.841530e-01,3.731251e-01,3,0,2.716389e+00,2.716393e+00,1
1.272738e+00,3.850590e-01,3.750324e-01,3,0,1.558696e+00,1.558696e+00,1
1.277397e+00,3.795280e-01,3.700256e-01,3,0,2.621716e+00,2.621719e+00,1
1.273029e+00,3.797830e-01,3.688335e-01,3,0,1.582456e+00,1.582457e+00,1
1.273359e+00,3.851610e-01,3.750324e-01,3,0,1.135720e+00,1.135720e+00,1
1.276039e+00,3.809330e-01,3.709793e-01,3,0,1.074052e+00,1.074053e+00,1
1.272148e+00,3.794680e-01,3.681183e-01,3,0,2.233387e+00,2.233391e+00,1
1.272634e+00,3.863690e-01,3.759861e-01,3,0,2.912701e+00,2.912703e+00,1
1.273378e+00,7.574620e-01,7.469654e-01,3,1,2.247764e+00,2.248224e+00,1
1.278479e+00,1.047064e+00,1.034975e+00,3,2,1.956970e+00,1.970871e+00,1
1.271687e+00,6.688690e-01,6.570816e-01,3,1,3.007117e+00,3.007123e+00,1
1.273041e+00,3.807330e-01,3.700256e-01,3,0,2.621959e+00,2.621957e+00,1
1.272399e+00,3.853280e-01,3.740788e-01,3,0,1.755733e+00,1.755732e+00,1
1.273033e+00,7.507250e-01,7.390976e-01,3,1,3.004670e+00,3.005294e+00,1
1.272713e+00,8.016000e-01,7.910728e-01,3,1,6.122529e+00,6.144747e+00,1
1.273106e+00,2.363331e+00,2.351999e+00,3,6,7.976529e+00,8.035245e+00,1
1.280842e+00,4.575637e+00,4.564047e+00,3,13,9.216705e+00,9.272093e+00,1
1.276410e+00,3.039620e+00,3.028870e+00,3,8,1.156921e+01,1.201268e+01,1
1.275911e+00,4.961046e+00,4.949808e+00,3,15,1.142273e+01,1.163635e+01,1
2.544725e+00,3.066000e+00,3.049850e+00,6,6,1.150000e+01,1.195303e+01,0
1.702421e+00,5.062705e+00,5.051851e+00,4,15,9.571527e+00,9.587004e+00,1
1.274389e+00,1.659062e+00,1.649141e+00,3,4,6.494021e+00,6.533493e+00,1
1.273481e+00,7.528110e-01,7.412434e-01,3,1,5.332258e+00,5.336637e+00,1
1.273680e+00,6.770550e-01,6.670952e-01,3,1,5.056956e+00,5.056958e+00,1
1.277606e+00,3.800100e-01,3.690720e-01,3,0,3.193035e+00,3.193036e+00,1
1.274009e+00,3.814960e-01,3.700256e-01,3,0,3.569493e+00,3.569496e+00,1
1.274713e+00,7.738740e-01,7.631779e-01,3,1,4.654752e+00,4.654954e+00,1
1.273041e+00,6.781590e-01,6.678104e-01,3,1,4.431161e+00,4.431162e+00,1
1.276486e+00,1.435667e+00,1.424789e+00,3,3,6.335327e+00,6.369311e+00,1
1.282453e+00,1.090853e+00,1.080990e+00,3,2,4.419113e+00,4.453468e+00,1
1.278797e+00,7.434070e-01,7.328987e-01,3,1,4.234106e+00,4.273008e+00,1
1.273021e+00,4.559130e-01,4.448891e-01,3,0,3.314705e+00,3.362606e+00,1
1.274277e+00,1.209168e+00,1.197815e+00,3,2,2.721187e+00,2.766027e+00,1
1.272634e+00,7.510120e-01,7.400513e-01,3,1,2.586761e+00,2.599345e+00,1
1.274311e+00,7.511650e-01,7.410049e-01,3,1,1.653051e+00,1.653542e+00,1
1.273914e+00,1.508611e+00,1.497984e+00,3,3,2.535718e+00,2.555321e+00,1
1.697252e+00,1.439766e+00,1.428843e+00,4,3,2.428286e+00,2.465775e+00,1
1.273648e+00,4.633680e-01,4.520416e-01,3,0,4.751492e+00,4.891722e+00,1
1.273367e+00,1.088632e+00,1.077890e+00,3,2,5.380642e+00,5.381595e+00,1
1.273230e+00,1.455625e+00,1.444817e+00,3,3,8.177918e+00,8.208123e+00,1
1.274323e+00,1.935012e+00,1.917839e+00,3,2,1.403253e+01,1.949514e+01,0
1.698990e+00,2.526788e+00,2.511263e+00,4,4,1.027275e+01,1.110331e+01,0
1.278635e+00,1.633566e+00,1.617908e+00,3,1,1.045830e+01,1.184842e+01,0
1.699808e+00,7.445680e-01,7.340908e-01,4,1,6.811360e+00,6.814949e+00,1
1.274202e+00,1.682090e+00,1.671076e+00,3,4,5.689606e+00,5.706851e+00,1
1.273472e+00,7.529680e-01,7.419586e-01,3,1,6.024767e+00,6.080024e+00,1
1.273303e+00,6.760610e-01,6.651878e-01,3,1,5.104553e+00,5.104554e+00,1
1.271313e+00,3.806060e-01,3.700256e-01,3,0,4.086228e+00,4.086229e+00,1
1.272911e+00,3.800090e-01,3.690720e-01,3,0,3.336146e+00,3.336146e+00,1
1.273734e+00,3.853080e-01,3.740788e-01,3,0,2.667660e+00,2.667662e+00,1
1.274903e+00,3.360794e+00,3.349066e+00,3,9,7.776837e+00,8.035444e+00,1
1.701240e+00,4.100082e+00,4.084826e+00,4,9,9.000917e+00,9.836451e+00,0
2.540375e+00,2.877598e+00,2.866030e+00,6,8,6.176865e+00,6.248296e+00,1
1.703807e+00,3.163106e+00,3.150940e+00,4,9,6.065347e+00,6.068609e+00,1
2.129021e+00,1.592775e+00,1.581907e+00,5,4,5.103761e+00,5.087280e+00,1
1.699354e+00,1.153733e+00,1.142979e+00,4,3,2.271591e+00,2.271590e+00,1
1.275087e+00,3.804030e-01,3.690720e-01,3,0,1.972594e+00,1.972595e+00,1
1.272807e+00,3.887800e-01,3.781319e-01,3,0,1.950790e+00,1.950791e+00,1
1.272891e+00,3.853900e-01,3.740788e-01,3,0,1.667557e+00,1.667559e+00,1
1.277850e+00,3.801370e-01,3.690720e-01,3,0,3.364472e+00,3.364477e+00,1
1.275453e+00,3.451479e+00,3.435135e+00,3,7,8.386626e+00,8.913988e+00,0
2.543565e+00,1.889242e+00,1.878262e+00,6,5,7.625109e+00,7.644867e+00,1
2.544052e+00,1.302338e+00,1.286268e+00,6,0,1.011802e+01,1.197066e+01,0
1.697425e+00,1.298084e+00,1.284361e+00,4,0,9.807162e+00,1.061435e+01,0
2.544979e+00,1.296445e+00,1.281261e+00,6,0,1.525202e+01,2.069381e+01,0
2.542191e+00,1.295667e+00,1.280308e+00,6,0,1.320976e+01,1.423918e+01,0
1.692642e+00,1.940735e+00,1.924038e+00,4,2,1.215882e+01,1.553926e+01,0
1.278967e+00,2.062724e+00,2.053022e+00,3,5,9.764422e+00,9.863514e+00,1
1.275202e+00,2.334807e+00,2.323866e+00,3,6,7.571460e+00,7.579830e+00,1
1.277458e+00,4.359260e+00,4.347801e+00,3,12,8.329640e+00,8.533672e+00,1
2.542678e+00,7.672113e+00,7.656813e+00,6,21,8.742022e+00,1.066388e+01,0
2.538957e+00,1.262071e+00,1.248121e+00,6,0,1.173183e+01,1.986354e+01,0
2.123229e+00,5.111042e+00,5.094528e+00,5,13,1.010294e+01,1.404933e+01,0
2.545251e+00,1.584576e+00,1.569271e+00,6,1,1.599683e+01,2.536991e+01,0
2.549926e+00,1.671748e+01,1.670575e+01,6,56,1.376250e+01,1.522291e+01,1
2.547088e+00,6.282356e+00,6.269932e+00,6,21,1.298988e+01,1.320752e+01,1
2.544177e+00,9.845428e+00,9.832144e+00,6,29,2.261758e+01,2.659406e+01,0
2.547747e+00,8.020867e+00,8.002996e+00,6,23,2.429378e+01,2.566245e+01,0
2.542582e+00,1.076821e+01,1.075816e+01,6,35,2.069923e+01,2.168377e+01,1
1.703096e+00,5.716596e+00,5.702019e+00,4,15,1.994445e+01,2.164017e+01,0
1.274193e+00,1.284098e+00,1.269817e+00,3,0,1.567955e+01,2.143150e+01,0
1.276063e+00,4.923259e+00,4.907846e+00,3,12,1.359929e+01,2.084914e+01,0
1.274935e+00,1.305371e+00,1.291275e+00,3,0,1.144613e+01,2.008362e+01,0
1.274746e+00,2.518086e+00,2.503872e+00,3,5,9.643444e+00,1.765594e+01,0
1.274498e+00,7.573470e-01,7.448196e-01,3,1,7.756649e+00,7.759075e+00,1
1.273847e+00,1.660394e+00,1.647234e+00,3,1,6.924408e+00,9.056993e+00,0
1.278974e+00,1.307566e+00,1.291752e+00,3,0,8.078717e+00,1.498903e+01,0
1.700323e+00,1.306358e+00,1.291752e+00,4,0,6.608778e+00,9.450520e+00,0
1.273136e+00,1.307945e+00,1.294851e+00,3,0,6.468860e+00,9.514597e+00,0
2.539180e+00,2.522930e+00,2.507925e+00,6,4,7.544654e+00,1.087608e+01,0
2.117712e+00,1.314052e+00,1.301050e+00,5,0,9.472314e+00,1.326053e+01,0
2.543796e+00,1.312280e+00,1.295805e+00,6,0,1.001845e+01,1.289567e+01,0
2.542666e+00,1.305597e+00,1.290798e+00,6,0,1.359396e+01,1.904089e+01,0
1.698248e+00,3.141381e+00,3.127098e+00,4,6,1.182375e+01,1.712821e+01,0
1.701823e+00,2.338994e+00,2.326965e+00,4,6,9.471667e+00,9.546734e+00,1
1.274577e+00,1.848823e+00,1.837969e+00,3,4,6.926408e+00,6.939392e+00,1
1.279967e+00,1.427914e+00,1.415968e+00,3,3,6.208760e+00,6.274774e+00,1
1.291503e+00,3.804254e+00,3.793955e+00,3,10,6.919899e+00,7.081381e+00,1
1.277044e+00,3.161778e+00,3.149033e+00,3,9,4.384032e+00,4.418911e+00,1
1.273723e+00,1.390002e+00,1.379013e+00,3,3,3.368269e+00,3.432865e+00,1
1.277227e+00,4.560560e-01,4.460812e-01,3,0,2.557645e+00,2.718307e+00,1
1.273849e+00,1.157788e+00,1.147032e+00,3,2,2.708001e+00,2.784302e+00,1
1.273451e+00,8.692240e-01,8.580685e-01,3,1,2.199969e+00,2.201050e+00,1
1.272681e+00,6.753790e-01,6.639957e-01,3,1,1.797295e+00,1.797295e+00,1
1.273431e+00,3.861170e-01,3.750324e-01,3,0,2.314897e+00,2.314899e+00,1
1.277456e+00,3.812190e-01,3.709793e-01,3,0,3.787230e+00,3.787208e+00,1
1.271214e+00,3.805950e-01,3.697872e-01,3,0,3.890747e+00,3.890750e+00,1
1.274752e+00,3.850660e-01,3.740788e-01,3,0,7.668960e+00,7.668966e+00,1
1.288896e+00,7.579630e-01,7.479191e-01,3,1,8.977797e+00,8.995923e+00,1
1.700051e+00,8.062740e-01,7.951260e-01,4,1,5.917156e+00,5.923520e+00,1
1.284801e+00,2.385333e+00,2.373934e+00,3,6,4.505650e+00,4.511374e+00,1
1.273629e+00,4.578840e-01,4.470348e-01,3,0,3.625686e+00,3.629005e+00,1
1.283603e+00,1.046475e+00,1.035929e+00,3,2,3.414611e+00,3.414952e+00,1
1.279345e+00,6.733670e-01,6.620884e-01,3,1,2.313685e+00,2.313682e+00,1
1.274475e+00,3.804860e-01,3.700256e-01,3,0,1.778741e+00,1.778742e+00,1
1.275465e+00,3.940830e-01,3.819466e-01,3,0,1.595227e+00,1.595228e+00,1
1.273331e+00,3.806520e-01,3.700256e-01,3,0,1.721450e+00,1.721453e+00,1
1.274145e+00,3.801980e-01,3.700256e-01,3,0,1.201733e+00,1.201734e+00,1
1.272631e+00,3.849600e-01,3.690720e-01,3,0,9.830394e-01,9.830401e-01,1
1.273105e+00,7.592000e-01,7.488728e-01,3,1,1.171346e+00,1.191861e+00,1
1.272845e+00,4.639230e-01,4.520416e-01,3,0,1.239174e+00,1.240144e+00,1
1.274057e+00,6.772000e-01,6.661415e-01,3,1,4.178412e-01,4.178409e-01,1
1.277450e+00,3.808470e-01,3.700256e-01,3,0,9.089571e-01,9.089587e-01,1
1.272425e+00,3.803220e-01,3.690720e-01,3,0,1.780438e+00,1.780442e+00,1
1.278483e+00,7.577610e-01,7.457733e-01,3,1,2.247861e+00,2.250026e+00,1
1.277966e+00,6.714430e-01,6.620884e-01,3,1,2.962938e+00,2.962941e+00,1
1.273997e+00,3.805570e-01,3.700256e-01,3,0,2.388357e+00,2.388357e+00,1
1.273619e+00,3.861870e-01,3.750324e-01,3,0,1.960157e+00,1.960158e+00,1
1.278291e+00,3.806960e-01,3.700256e-01,3,0,1.955893e+00,1.955894e+00,1
1.274031e+00,3.805840e-01,3.688335e-01,3,0,1.855581e+00,1.855581e+00,1
1.273251e+00,3.854650e-01,3.750324e-01,3,0,1.270248e+00,1.270248e+00,1
1.277452e+00,3.805710e-01,3.688335e-01,3,0,1.467825e+00,1.467827e+00,1
1.272167e+00,3.801000e-01,3.697872e-01,3,0,1.178762e+00,1.178763e+00,1
1.273982e+00,3.853020e-01,3.740788e-01,3,0,1.688996e+00,1.688999e+00,1
1.273474e+00,7.594610e-01,7.488728e-01,3,1,2.151711e+00,2.162856e+00,1
1.274019e+00,6.762990e-01,6.649494e-01,3,1,1.531311e+00,1.531312e+00,1
1.273546e+00,3.870020e-01,3.759861e-01,3,0,2.929695e+00,2.929698e+00,1
1.277806e+00,3.802460e-01,3.700256e-01,3,0,1.934820e+00,1.934820e+00,1
1.273481e+00,3.805130e-01,3.702641e-01,3,0,1.267091e+00,1.267091e+00,1
1.273066e+00,3.859640e-01,3.759861e-01,3,0,8.182866e-01,8.182870e-01,1
1.277112e+00,3.804430e-01,3.690720e-01,3,0,1.041165e+00,1.041167e+00,1
1.271934e+00,3.803550e-01,3.700256e-01,3,0,1.223561e+00,1.223562e+00,1
1.273227e+00,3.853820e-01,3.740788e-01,3,0,9.259743e-01,9.259748e-01,1
1.272405e+00,3.851140e-01,3.740788e-01,3,0,1.407543e+00,1.407546e+00,1
1.277738e+00,3.810050e-01,3.697872e-01,3,0,2.187648e+00,2.187651e+00,1
1.273409e+00,3.791230e-01,3.690720e-01,3,0,8.941696e-01,8.941699e-01,1
1.273501e+00,3.862780e-01,3.759861e-01,3,0,1.298847e+00,1.298848e+00,1
1.277124e+00,3.799260e-01,3.700256e-01,3,0,1.159403e+00,1.159403e+00,1
1.273705e+00,3.805440e-01,3.700256e-01,3,0,2.494040e+00,2.494034e+00,1
1.272824e+00,7.597560e-01,7.488728e-01,3,1,2.059566e+00,2.066912e+00,1
1.272296e+00,6.777300e-01,6.668568e-01,3,1,3.062440e+00,3.062443e+00,1
1.273309e+00,3.852590e-01,3.740788e-01,3,0,3.576147e+00,3.576149e+00,1
1.272013e+00,3.866580e-01,3.762245e-01,3,0,3.549760e+00,3.549761e+00,1
1.278006e+00,3.810370e-01,3.700256e-01,3,0,3.374536e+00,3.374536e+00,1
1.273040e+00,3.798070e-01,3.690720e-01,3,0,2.168272e+00,2.168272e+00,1
1.273288e+00,3.864100e-01,3.750324e-01,3,0,1.615225e+00,1.615225e+00,1
1.273635e+00,7.600640e-01,7.500648e-01,3,1,2.509443e+00,2.525299e+00,1
1.272300e+00,4.613990e-01,4.510880e-01,3,0,2.398528e+00,2.452977e+00,1
1.272719e+00,6.723080e-01,6.611347e-01,3,1,2.039809e+00,2.039810e+00,1
1.277383e+00,3.804930e-01,3.690720e-01,3,0,3.181415e+00,3.181386e+00,1
1.273236e+00,3.802560e-01,3.709793e-01,3,0,1.205122e+00,1.205118e+00,1
1.272379e+00,3.851710e-01,3.740788e-01,3,0,1.482095e+00,1.482097e+00,1
1.277543e+00,3.802760e-01,3.688335e-01,3,0,1.957710e+00,1.957712e+00,1
1.272246e+00,3.794880e-01,3.681183e-01,3,0,7.936317e-01,7.936317e-01,1
1.274266e+00,3.864480e-01,3.769398e-01,3,0,8.574592e-01,8.574602e-01,1
1.278205e+00,3.801870e-01,3.690720e-01,3,0,7.592271e-01,7.592276e-01,1
1.273065e+00,7.516700e-01,7.410049e-01,3,1,1.511910e+00,1.512107e+00,1
1.279507e+00,4.561110e-01,4.460812e-01,3,0,2.387834e+00,2.391684e+00,1
1.279876e+00,6.721190e-01,6.611347e-01,3,1,1.881872e+00,1.881872e+00,1
1.273998e+00,3.863140e-01,3.750324e-01,3,0,1.676372e+00,1.676373e+00,1
1.273456e+00,3.877660e-01,3.759861e-01,3,0,1.599988e+00,1.599988e+00,1
1.277640e+00,3.821100e-01,3.712177e-01,3,0,2.328667e+00,2.328669e+00,1
1.273573e+00,3.813220e-01,3.709793e-01,3,0,2.430730e+00,2.430731e+00,1
1.273631e+00,3.865590e-01,3.759861e-01,3,0,2.763002e+00,2.763010e+00,1
1.277086e+00,1.855553e+00,1.844168e+00,3,4,3.784446e+00,3.807505e+00,1
1.278606e+00,1.045830e+00,1.034975e+00,3,2,2.733195e+00,2.807694e+00,1
1.273836e+00,8.703660e-01,8.590221e-01,3,1,2.059101e+00,2.059865e+00,1
1.274385e+00,1.276293e+00,1.265049e+00,3,2,2.168931e+00,2.168988e+00,1
1.272876e+00,6.778770e-01,6.670952e-01,3,1,2.742721e+00,2.742694e+00,1
1.273159e+00,6.363430e-01,6.260872e-01,3,1,4.602550e+00,4.602413e+00,1
1.698193e+00,6.301620e-01,6.198883e-01,4,1,4.152623e+00,4.152624e+00,1
1.272825e+00,3.806800e-01,3.709793e-01,3,0,2.987412e+00,2.987413e+00,1
1.274547e+00,3.853780e-01,3.690720e-01,3,0,2.152430e+00,2.152430e+00,1
1.273346e+00,3.854630e-01,3.747940e-01,3,0,2.725395e+00,2.725398e+00,1
1.279381e+00,3.807280e-01,3.709793e-01,3,0,2.379459e+00,2.379460e+00,1
1.273522e+00,3.799210e-01,3.690720e-01,3,0,2.161136e+00,2.161136e+00,1
1.272812e+00,3.863990e-01,3.750324e-01,3,0,1.386123e+00,1.386123e+00,1
1.278246e+00,3.807890e-01,3.709793e-01,3,0,1.272483e+00,1.272483e+00,1
1.273828e+00,3.806900e-01,3.700256e-01,3,0,1.455125e+00,1.455126e+00,1
1.273335e+00,3.878610e-01,3.769398e-01,3,0,1.187764e+00,1.187765e+00,1
1.272800e+00,3.857590e-01,3.747940e-01,3,0,7.073815e-01,7.073827e-01,1
1.277448e+00,3.796700e-01,3.690720e-01,3,0,5.706088e-01,5.706092e-01,1
1.274558e+00,3.806380e-01,3.709793e-01,3,0,3.420618e+00,3.420622e+00,1
1.273830e+00,3.861460e-01,3.750324e-01,3,0,4.890923e+00,4.890228e+00,1
1.698114e+00,3.804300e-01,3.690720e-01,4,0,2.995362e+00,2.995362e+00,1
1.277081e+00,3.800760e-01,3.700256e-01,3,0,1.531539e+00,1.531538e+00,1
1.273851e+00,3.799040e-01,3.700256e-01,3,0,1.366924e+00,1.366924e+00,1
1.273925e+00,3.858780e-01,3.759861e-01,3,0,1.531510e+00,1.531511e+00,1
1.272703e+00,3.861480e-01,3.740788e-01,3,0,2.173716e+00,2.173718e+00,1
1.278575e+00,3.807990e-01,3.690720e-01,3,0,2.764029e+00,2.764032e+00,1
1.277576e+00,7.539730e-01,7.431507e-01,3,1,2.960187e+00,2.960863e+00,1
1.278664e+00,6.699730e-01,6.599426e-01,3,1,2.251782e+00,2.251783e+00,1
1.277895e+00,7.531300e-01,7.429123e-01,3,1,2.746454e+00,2.753837e+00,1
1.278860e+00,6.721900e-01,6.606579e-01,3,1,3.449761e+00,3.449763e+00,1
1.273826e+00,1.422678e+00,1.410961e+00,3,3,6.241374e+00,6.249019e+00,1
1.274896e+00,2.646497e+00,2.635002e+00,3,7,6.917286e+00,6.940543e+00,1
2.125572e+00,4.783460e+00,4.773855e+00,5,14,8.427440e+00,8.473423e+00,1
2.118565e+00,3.267190e+00,3.255844e+00,5,10,4.896157e+00,4.895310e+00,1
1.700292e+00,1.286710e+00,1.275778e+00,4,3,2.451759e+00,2.452187e+00,1
1.272613e+00,6.786910e-01,6.670952e-01,3,1,2.433970e+00,2.433972e+00,1
1.277715e+00,3.813470e-01,3.700256e-01,3,0,2.691854e+00,2.691856e+00,1
1.274060e+00,3.807140e-01,3.709793e-01,3,0,2.183496e+00,2.183496e+00,1
1.273901e+00,3.852630e-01,3.740788e-01,3,0,1.930803e+00,1.930804e+00,1
1.278489e+00,3.797900e-01,3.690720e-01,3,0,1.628521e+00,1.628522e+00,1
1.272449e+00,3.799760e-01,3.688335e-01,3,0,2.640831e+00,2.640834e+00,1
1.274474e+00,3.856160e-01,3.747940e-01,3,0,2.298075e+00,2.298075e+00,1
1.273774e+00,3.810600e-01,3.709793e-01,3,0,1.517222e+00,1.517222e+00,1
1.272649e+00,3.799370e-01,3.700256e-01,3,0,1.803241e+00,1.803242e+00,1
1.273611e+00,3.852030e-01,3.709793e-01,3,0,1.276441e+00,1.276442e+00,1
1.278659e+00,1.102455e+00,1.090765e+00,3,2,2.607578e+00,2.757433e+00,1
1.274147e+00,1.160036e+00,1.148224e+00,3,2,5.042537e+00,5.118351e+00,1
1.273821e+00,6.773950e-01,6.661415e-01,3,1,2.580050e+00,2.580047e+00,1
1.271918e+00,3.802640e-01,3.690720e-01,3,0,2.344790e+00,2.344790e+00,1
1.277095e+00,3.801620e-01,3.697872e-01,3,0,2.538170e+00,2.538170e+00,1
1.273257e+00,3.798270e-01,3.690720e-01,3,0,1.260234e+00,1.260235e+00,1
1.272558e+00,3.852660e-01,3.750324e-01,3,0,1.755675e+00,1.755677e+00,1
1.278257e+00,3.807170e-01,3.700256e-01,3,0,1.465520e+00,1.465521e+00,1
1.272757e+00,3.804210e-01,3.688335e-01,3,0,1.103252e+00,1.103253e+00,1
1.272868e+00,3.860830e-01,3.759861e-01,3,0,3.691496e+00,3.691503e+00,1
1.278468e+00,3.808700e-01,3.709793e-01,3,0,2.518525e+00,2.518524e+00,1
1.272589e+00,3.806650e-01,3.709793e-01,3,0,3.681231e+00,3.681234e+00,1
1.273122e+00,3.855700e-01,3.750324e-01,3,0,4.751232e+00,4.751225e+00,1
1.272726e+00,3.862240e-01,3.759861e-01,3,0,3.650770e+00,3.650768e+00,1
1.280269e+00,2.079395e+00,2.068996e+00,3,5,1.073783e+01,1.083043e+01,1
1.727381e+00,3.959652e+00,3.945112e+00,4,11,1.235202e+01,1.251407e+01,1
1.706734e+00,2.537637e+00,2.525091e+00,4,7,7.759490e+00,7.776936e+00,1
1.274639e+00,1.678094e+00,1.666069e+00,3,4,6.752866e+00,6.783650e+00,1
1.275546e+00,1.867289e+00,1.856089e+00,3,4,6.107340e+00,6.129846e+00,1
1.277199e+00,1.391158e+00,1.375914e+00,3,3,4.541980e+00,4.543294e+00,1
1.288421e+00,1.635719e+00,1.626015e+00,3,4,4.422503e+00,4.423519e+00,1
1.700971e+00,7.951020e-01,7.848740e-01,4,1,3.922743e+00,3.945755e+00,1
1.297933e+00,9.711200e-01,9.601116e-01,3,2,2.917768e+00,2.917739e+00,1
1.277930e+00,3.819450e-01,3.719330e-01,3,0,2.331898e+00,2.331877e+00,1
1.272554e+00,3.806780e-01,3.700256e-01,3,0,1.923951e+00,1.923951e+00,1
1.273159e+00,3.861220e-01,3.759861e-01,3,0,1.989306e+00,1.989309e+00,1
1.273293e+00,3.857540e-01,3.738403e-01,3,0,1.540517e+00,1.540517e+00,1
1.277077e+00,3.794730e-01,3.681183e-01,3,0,1.414385e+00,1.414386e+00,1
1.273997e+00,3.820790e-01,3.700256e-01,3,0,4.573551e+00,4.573559e+00,1
1.272652e+00,3.852220e-01,3.750324e-01,3,0,9.297059e-01,9.297040e-01,1
1.277208e+00,3.804540e-01,3.690720e-01,3,0,7.888718e-01,7.888725e-01,1
1.272741e+00,3.800030e-01,3.688335e-01,3,0,1.323537e+00,1.323540e+00,1
1.272094e+00,3.845840e-01,3.731251e-01,3,0,7.855606e-01,7.855609e-01,1
1.277850e+00,3.805870e-01,3.709793e-01,3,0,1.189743e+00,1.189745e+00,1
1.272134e+00,3.803460e-01,3.688335e-01,3,0,7.614792e-01,7.614793e-01,1
1.272162e+00,3.852380e-01,3.738403e-01,3,0,1.146777e+00,1.146779e+00,1
1.273601e+00,3.858270e-01,3.740788e-01,3,0,1.511502e+00,1.511507e+00,1
1.278300e+00,3.793150e-01,3.681183e-01,3,0,6.791906e-01,6.791907e-01,1
1.272641e+00,3.799900e-01,3.690720e-01,3,0,4.885801e-01,4.885802e-01,1
1.273250e+00,7.601180e-01,7.488728e-01,3,1,5.481725e-01,5.483141e-01,1
1.273985e+00,4.609670e-01,4.508495e-01,3,0,7.809132e-01,7.917862e-01,1
1.271895e+00,6.768240e-01,6.668568e-01,3,1,9.244840e-01,9.244851e-01,1
1.273252e+00,3.854990e-01,3.738403e-01,3,0,8.731421e-01,8.731434e-01,1
1.277722e+00,3.794480e-01,3.700256e-01,3,0,4.631333e-01,4.631334e-01,1
1.272500e+00,3.803480e-01,3.709793e-01,3,0,1.284983e+00,1.284986e+00,1
1.273554e+00,3.858260e-01,3.759861e-01,3,0,6.769420e-01,6.769422e-01,1
1.277728e+00,3.805880e-01,3.709793e-01,3,0,1.074790e+00,1.074792e+00,1
1.273059e+00,3.804750e-01,3.700256e-01,3,0,9.052743e-01,9.052746e-01,1
1.272253e+00,7.570490e-01,7.460117e-01,3,1,3.694446e+00,3.694454e+00,1
1.272207e+00,1.048052e+00,1.037121e+00,3,2,3.862643e+00,3.867277e+00,1
1.272171e+00,8.080710e-01,7.970333e-01,3,1,5.615333e+00,5.618133e+00,1
1.274106e+00,7.529460e-01,7.410049e-01,3,1,4.293130e+00,4.293147e+00,1
1.273867e+00,1.049277e+00,1.039028e+00,3,2,3.516603e+00,3.520539e+00,1
1.273072e+00,1.216772e+00,1.206160e+00,3,2,3.042435e+00,3.074184e+00,1
1.274333e+00,7.971520e-01,7.808208e-01,3,1,3.506013e+00,3.621371e+00,1
1.274602e+00,2.120844e+00,2.110004e+00,3,5,5.074132e+00,5.129110e+00,1
1.274025e+00,1.426701e+00,1.416206e+00,3,3,6.256525e+00,6.298886e+00,1
1.698929e+00,1.744895e+00,1.734018e+00,4,4,3.201149e+00,3.203079e+00,1
1.278119e+00,6.715460e-01,6.601810e-01,3,1,4.649760e+00,4.649753e+00,1
1.271755e+00,3.799840e-01,3.690720e-01,3,0,2.475901e+00,2.475899e+00,1
1.273443e+00,3.851540e-01,3.750324e-01,3,0,3.362514e+00,3.362517e+00,1
1.275480e+00,7.583550e-01,7.472038e-01,3,1,4.092280e+00,4.094130e+00,1
1.275074e+00,6.776970e-01,6.678104e-01,3,1,2.582308e+00,2.582235e+00,1
1.272772e+00,3.857600e-01,3.750324e-01,3,0,2.385845e+00,2.385841e+00,1
1.277232e+00,3.812670e-01,3.702641e-01,3,0,2.433329e+00,2.433313e+00,1
1.272915e+00,3.807330e-01,3.690720e-01,3,0,1.738398e+00,1.738398e+00,1
1.275301e+00,3.872120e-01,3.707409e-01,3,0,2.255152e+00,2.255153e+00,1
1.277943e+00,3.810850e-01,3.697872e-01,3,0,3.156473e+00,3.156476e+00,1
1.271864e+00,3.800980e-01,3.690720e-01,3,0,2.525538e+00,2.525539e+00,1
1.272834e+00,7.573640e-01,7.460117e-01,3,1,2.678466e+00,2.679212e+00,1
1.273569e+00,6.762280e-01,6.659031e-01,3,1,2.655724e+00,2.655725e+00,1
1.273424e+00,3.873560e-01,3.769398e-01,3,0,2.110967e+00,2.110967e+00,1
1.274398e+00,3.859830e-01,3.750324e-01,3,0,1.584300e+00,1.584301e+00,1
1.278673e+00,3.801880e-01,3.700256e-01,3,0,1.790883e+00,1.790884e+00,1
1.275982e+00,3.804600e-01,3.700256e-01,3,0,1.889253e+00,1.889254e+00,1
1.272806e+00,3.846730e-01,3.740788e-01,3,0,1.665744e+00,1.665745e+00,1
1.273941e+00,7.576380e-01,7.479191e-01,3,1,1.611816e+00,1.626533e+00,1
1.273718e+00,8.082020e-01,7.970333e-01,3,1,1.064284e+00,1.120996e+00,1
1.273230e+00,7.530180e-01,7.419586e-01,3,1,1.905616e+00,2.081971e+00,1
1.273098e+00,4.621230e-01,4.508495e-01,3,0,1.638460e+00,1.696115e+00,1
1.274283e+00,6.772990e-01,6.659031e-01,3,1,1.505254e+00,1.505255e+00,1
1.277535e+00,3.819100e-01,3.709793e-01,3,0,1.260656e+00,1.260657e+00,1
1.272458e+00,3.795900e-01,3.681183e-01,3,0,7.257130e-01,7.257133e-01,1
1.273740e+00,3.847940e-01,3.740788e-01,3,0,1.089109e+00,1.089110e+00,1
1.273220e+00,3.856670e-01,3.740788e-01,3,0,1.136575e+00,1.136576e+00,1
1.277948e+00,3.803280e-01,3.700256e-01,3,0,1.632860e+00,1.632862e+00,1
1.272735e+00,3.808720e-01,3.700256e-01,3,0,2.173365e+00,2.173367e+00,1
1.273447e+00,7.584660e-01,7.479191e-01,3,1,2.353402e+00,2.353727e+00,1
1.272462e+00,4.617110e-01,4.510880e-01,3,0,2.948791e+00,2.951974e+00,1
1.273107e+00,1.449860e+00,1.439095e+00,3,3,2.440533e+00,2.487976e+00,1
1.277590e+00,1.372471e+00,1.362085e+00,3,3,2.242421e+00,2.242421e+00,1
1.272897e+00,3.813180e-01,3.709793e-01,3,0,3.325735e+00,3.325740e+00,1
1.272642e+00,3.863630e-01,3.747940e-01,3,0,2.613636e+00,2.613637e+00,1
1.277095e+00,3.807540e-01,3.709793e-01,3,0,2.802855e+00,2.802857e+00,1
1.271527e+00,3.813340e-01,3.702641e-01,3,0,2.505814e+00,2.505816e+00,1
1.272994e+00,3.850510e-01,3.728867e-01,3,0,2.016850e+00,2.016851e+00,1
1.278150e+00,1.100744e+00,1.088858e+00,3,2,3.264362e+00,3.266274e+00,1
1.277746e+00,7.999570e-01,7.889271e-01,3,1,4.152915e+00,4.155825e+00,1
1.274578e+00,2.266662e+00,2.256155e+00,3,6,2.909351e+00,2.909400e+00,1
1.278243e+00,1.047999e+00,1.036882e+00,3,2,1.918998e+00,1.927304e+00,1
1.278926e+00,6.709860e-01,6.601810e-01,3,1,9.841787e-01,9.841788e-01,1
1.272069e+00,3.800300e-01,3.700256e-01,3,0,8.895094e-01,8.895098e-01,1
1.273273e+00,3.861200e-01,3.750324e-01,3,0,8.007304e-01,8.007315e-01,1
1.277583e+00,3.806050e-01,3.709793e-01,3,0,8.075549e-01,8.075559e-01,1
1.272115e+00,3.798070e-01,3.688335e-01,3,0,6.591562e-01,6.591568e-01,1
1.273480e+00,3.848330e-01,3.747940e-01,3,0,2.184483e+00,2.184489e+00,1
1.272597e+00,3.863970e-01,3.747940e-01,3,0,1.387934e+00,1.387934e+00,1
1.277172e+00,3.812890e-01,3.712177e-01,3,0,1.363494e+00,1.363495e+00,1
1.272803e+00,3.804970e-01,3.690720e-01,3,0,1.327842e+00,1.327842e+00,1
1.272836e+00,3.856220e-01,3.738403e-01,3,0,1.268298e+00,1.268299e+00,1
1.278067e+00,3.800270e-01,3.700256e-01,3,0,1.012822e+00,1.012822e+00,1
1.273208e+00,3.802270e-01,3.690720e-01,3,0,9.640651e-01,9.640660e-01,1
1.273215e+00,3.855460e-01,3.750324e-01,3,0,1.419208e+00,1.419210e+00,1
1.277617e+00,3.804920e-01,3.712177e-01,3,0,1.626655e+00,1.626657e+00,1
1.272458e+00,3.808180e-01,3.690720e-01,3,0,1.788342e+00,1.788343e+00,1
1.273400e+00,3.850600e-01,3.740788e-01,3,0,2.408595e+00,2.408597e+00,1
1.273210e+00,3.858900e-01,3.759861e-01,3,0,1.909294e+00,1.909294e+00,1
1.273888e+00,7.579890e-01,7.479191e-01,3,1,4.870378e+00,4.875405e+00,1
1.272073e+00,8.685490e-01,8.578300e-01,3,1,3.779152e+00,3.779247e+00,1
1.272907e+00,6.767590e-01,6.661415e-01,3,1,6.571992e+00,6.572000e+00,1
1.274014e+00,7.669290e-01,7.550716e-01,3,1,5.864276e+00,5.865153e+00,1
1.274176e+00,1.625197e+00,1.614809e+00,3,3,6.475685e+00,6.482253e+00,1
1.278104e+00,1.206882e+00,1.194954e+00,3,2,5.331383e+00,5.375631e+00,1
1.273189e+00,7.465120e-01,7.350445e-01,3,1,5.398476e+00,5.428041e+00,1
1.273969e+00,1.372241e+00,1.362085e+00,3,3,4.223744e+00,4.223744e+00,1
1.274237e+00,3.854670e-01,3.750324e-01,3,0,4.017632e+00,4.017633e+00,1
1.272995e+00,3.864580e-01,3.759861e-01,3,0,3.823567e+00,3.823568e+00,1
1.278265e+00,3.799650e-01,3.681183e-01,3,0,3.031778e+00,3.031779e+00,1
1.277908e+00,7.435670e-01,7.328987e-01,3,1,3.045016e+00,3.051499e+00,1
1.278112e+00,6.708930e-01,6.597042e-01,3,1,2.560336e+00,2.560334e+00,1
1.273969e+00,3.802930e-01,3.700256e-01,3,0,2.172299e+00,2.172240e+00,1
1.272898e+00,7.578800e-01,7.457733e-01,3,1,2.674322e+00,2.675059e+00,1
1.273557e+00,1.504283e+00,1.494169e+00,3,3,4.310685e+00,4.311407e+00,1
2.544579e+00,1.082090e+00,1.070976e+00,6,2,5.741442e+00,5.738658e+00,1
1.700162e+00,1.264529e+00,1.253843e+00,4,3,3.219446e+00,3.219437e+00,1
1.274899e+00,1.109421e+00,1.098156e+00,3,2,5.409738e+00,5.422763e+00,1
1.274780e+00,1.225101e+00,1.213074e+00,3,3,3.213531e+00,3.211913e+00,1
1.693986e+00,6.293520e-01,6.179810e-01,4,1,2.313654e+00,2.313655e+00,1
1.292113e+00,3.888440e-01,3.771782e-01,3,0,4.066737e+00,4.066741e+00,1
1.278304e+00,3.824330e-01,3.709793e-01,3,0,2.822348e+00,2.822348e+00,1
1.273052e+00,3.808710e-01,3.700256e-01,3,0,3.543223e+00,3.543225e+00,1
1.282785e+00,7.738750e-01,7.629395e-01,3,1,2.487924e+00,2.491184e+00,1
1.275096e+00,1.446769e+00,1.435041e+00,3,3,3.270920e+00,3.423215e+00,1
1.282315e+00,7.530120e-01,7.419586e-01,3,1,1.891016e+00,1.910277e+00,1
1.274101e+00,1.082772e+00,1.071930e+00,3,2,1.760541e+00,1.760543e+00,1
1.290650e+00,3.803070e-01,3.690720e-01,3,0,2.339685e+00,2.339687e+00,1
1.273864e+00,3.820380e-01,3.697872e-01,3,0,1.792486e+00,1.792485e+00,1

