0.000000e+00,0.000000e+00
0.000000e+00,0.000000e+00
0.000000e+00,0.000000e+00
0.000000e+00,0.000000e+00
-9.830352e-02,-9.829857e-02
-5.975604e-02,-5.975276e-02
2.963560e-02,2.963517e-02
2.499208e-02,2.499180e-02
1.221798e-01,1.221906e-01
1.366928e-01,1.367045e-01
4.804907e-02,4.805541e-02
1.327595e-02,1.327187e-02
1.765348e-01,1.764559e-01
2.091925e-01,2.091287e-01
2.620991e-02,2.617806e-02
-1.043264e-01,-1.043499e-01
9.064231e-02,9.055187e-02
1.809082e-02,1.804409e-02
1.078479e-01,1.078131e-01
9.953878e-02,9.952652e-02
3.529297e-01,3.527652e-01
6.191255e-02,6.189196e-02
3.499313e-02,3.494443e-02
2.567069e-02,2.562384e-02
2.095394e-01,2.093878e-01
1.707442e-02,1.703583e-02
-8.126193e-03,-8.160418e-03
-7.309116e-02,-7.310945e-02
9.715207e-02,9.708018e-02
5.947872e-02,5.948176e-02
-1.032264e-01,-1.031986e-01
-1.923433e-01,-1.922946e-01
5.408511e-02,5.401427e-02
1.268296e-02,1.271616e-02
9.559719e-03,9.605853e-03
-6.785005e-02,-6.778777e-02
1.427901e-01,1.427318e-01
5.674610e-02,5.675103e-02
7.716992e-03,7.715176e-03
-3.498432e-02,-3.498688e-02
1.721397e-01,1.720670e-01
-7.980103e-02,-7.982256e-02
2.127289e-02,2.124240e-02
5.383568e-02,5.380471e-02
1.108519e-01,1.108190e-01
1.364194e-02,1.362743e-02
-5.244950e-02,-5.247555e-02
-4.545596e-02,-4.549301e-02
1.449218e-01,1.448945e-01
3.557214e-04,3.500942e-04
-6.115609e-02,-6.115832e-02
-3.205114e-02,-3.205740e-02
1.182583e-01,1.182165e-01
6.092537e-02,6.093861e-02
3.795189e-02,3.795891e-02
-1.433795e-02,-1.432080e-02
1.124025e-02,1.118729e-02
-5.589307e-03,-5.578483e-03
-5.556382e-03,-5.568721e-03
-8.989076e-02,-8.986605e-02
1.892144e-01,1.891705e-01
1.129352e-01,1.129733e-01
1.481846e-01,1.481850e-01
-3.055086e-02,-3.050820e-02
1.638531e-02,1.625596e-02
3.506304e-02,3.501823e-02
3.214831e-01,3.212568e-01
1.988460e-01,1.987982e-01
1.430697e-01,1.430412e-01
-8.559632e-03,-8.607758e-03
1.227473e-01,1.226056e-01
1.446943e-01,1.446102e-01
7.494715e-03,7.537755e-03
1.286287e-01,1.285605e-01
1.227961e-01,1.227404e-01
-3.957156e-02,-3.955990e-02
-1.947802e-02,-1.941997e-02
1.904022e-01,1.903122e-01
-5.947287e-03,-5.964166e-03
-4.122542e-02,-4.118690e-02
-4.702874e-02,-4.699675e-02
3.188258e-03,3.153879e-03
-3.081940e-02,-3.082217e-02
-1.651248e-01,-1.650716e-01
-1.260002e-01,-1.259556e-01
-8.161973e-02,-8.159584e-02
-9.507477e-02,-9.504110e-02
1.077077e-01,1.077581e-01
-2.266889e-01,-2.265750e-01
-1.592003e-01,-1.591287e-01
3.655534e-02,3.656663e-02
4.903641e-02,4.906852e-02
-7.408478e-02,-7.396725e-02
-2.358656e-01,-2.357700e-01
-1.019693e-01,-1.019718e-01
-9.122291e-02,-9.120138e-02
4.214523e-02,4.222072e-02
-2.316677e-01,-2.315512e-01
-1.841030e-01,-1.840507e-01
-4.386608e-02,-4.383835e-02
-9.804728e-02,-9.798153e-02
-2.345214e-01,-2.344152e-01
-1.138902e-01,-1.138219e-01
2.073147e-02,2.074723e-02
-2.412587e-01,-2.411125e-01
-2.174238e-01,-2.173103e-01
-1.669780e-01,-1.668769e-01
4.627899e-02,4.628261e-02
-2.072777e-01,-2.070803e-01
3.993277e-02,4.002197e-02
-8.401820e-02,-8.386726e-02
-5.142452e-02,-5.139473e-02
-9.934611e-02,-9.927298e-02
8.718441e-02,8.718936e-02
-1.900399e-02,-1.891088e-02
1.626436e-02,1.628788e-02
-6.132692e-02,-6.135051e-02
-2.419480e-02,-2.422704e-02
8.559401e-02,8.558261e-02
3.442441e-01,3.440668e-01
-5.983257e-02,-5.984140e-02
-1.556076e-01,-1.556237e-01
-6.188383e-02,-6.196682e-02
1.660676e-01,1.659139e-01
-1.505308e-01,-1.504910e-01
-1.966856e-01,-1.966272e-01
-2.255396e-03,-2.289327e-03
-2.359507e-02,-2.362379e-02
-1.110449e-01,-1.109657e-01
-7.688564e-02,-7.682813e-02
1.022285e-01,1.022250e-01
1.648067e-02,1.650304e-02
-8.987692e-02,-8.982431e-02
1.073660e-01,1.073624e-01
1.533427e-01,1.533223e-01
-9.784368e-02,-9.784030e-02
-1.338340e-01,-1.337915e-01
1.172124e-01,1.171354e-01
3.350033e-02,3.349438e-02
1.320119e-01,1.319902e-01
-1.306621e-01,-1.306061e-01
1.570597e-01,1.569973e-01
4.663742e-05,5.334046e-05
-1.746561e-02,-1.749685e-02
-8.356318e-02,-8.353349e-02
1.834788e-01,1.834276e-01
1.404767e-01,1.404817e-01
1.636025e-01,1.635892e-01
5.686049e-02,5.683165e-02
3.401435e-02,3.396845e-02
6.772425e-02,6.765451e-02
1.782592e-01,1.781828e-01
2.618027e-01,2.617294e-01
1.179194e-02,1.178808e-02
8.496004e-02,8.489253e-02
-3.712055e-02,-3.714947e-02
5.181567e-02,5.173669e-02
-4.486972e-02,-4.488351e-02
5.836272e-02,5.831283e-02
-5.217387e-02,-5.215396e-02
1.797815e-01,1.797427e-01
-5.188352e-02,-5.186099e-02
-4.689860e-02,-4.691149e-02
-1.889240e-01,-1.888828e-01
3.620390e-01,3.617577e-01
1.704215e-01,1.704178e-01
2.879475e-03,2.889917e-03
-1.886794e-01,-1.886518e-01
3.233753e-01,3.228430e-01
1.170221e-01,1.169105e-01
9.629338e-03,9.610826e-03
-1.997437e-03,-2.018040e-03
3.569177e-01,3.563778e-01
1.769944e-01,1.768590e-01
-1.022728e-01,-1.022822e-01
-3.040814e-02,-3.045908e-02
2.301829e-01,2.299664e-01
2.597916e-01,2.596785e-01
-2.676701e-02,-2.674113e-02
-1.304354e-01,-1.304096e-01
3.810962e-02,3.802347e-02
-5.490840e-02,-5.496556e-02
-1.038170e-01,-1.038015e-01
-1.169343e-01,-1.168752e-01
-1.703277e-01,-1.702909e-01
-5.611816e-02,-5.608865e-02
5.041210e-02,5.045692e-02
2.772040e-02,2.779226e-02
-9.774066e-02,-9.766078e-02
5.964116e-02,5.964757e-02
1.067429e-01,1.067188e-01
-5.207624e-02,-5.206368e-02
-4.297788e-02,-4.292992e-02
3.327867e-02,3.322943e-02
-6.756300e-03,-6.813113e-03
9.157155e-02,9.154122e-02
-8.330107e-02,-8.324372e-02
-4.356737e-03,-4.378298e-03
7.104475e-02,7.099194e-02
5.065005e-02,5.062156e-02
6.536059e-03,6.595551e-03
4.849525e-02,4.850371e-02
8.522502e-02,8.518468e-02
-3.906930e-02,-3.906541e-02
-1.509943e-01,-1.509577e-01
-6.765048e-02,-6.764454e-02
1.453739e-01,1.453492e-01
1.220777e-02,1.222175e-02
-9.764392e-02,-9.755873e-02
-1.086000e-02,-1.083653e-02
1.192653e-02,1.195706e-02
6.990422e-02,6.991027e-02
-1.500851e-01,-1.500290e-01
-1.294709e-01,-1.294631e-01
-1.230727e-01,-1.230235e-01
2.581880e-01,2.581448e-01
-3.486927e-01,-3.483682e-01
-2.752433e-01,-2.751211e-01
-1.284519e-01,-1.283763e-01
1.546244e-01,1.546222e-01
-4.596996e-01,-4.544186e-01
-3.684129e-01,-3.672177e-01
-1.160495e-01,-1.155610e-01
1.738293e-01,1.742992e-01
-1.919066e-01,-1.906797e-01
-1.945736e-01,-1.940423e-01
-1.182494e-01,-1.180161e-01
1.164533e-01,1.165992e-01
-2.154395e-01,-2.152895e-01
-1.492432e-01,-1.491535e-01
2.382189e-03,2.411112e-03
1.403383e-01,1.403423e-01
-2.079895e-01,-2.078501e-01
-4.665832e-02,-4.660769e-02
4.272992e-03,4.279548e-03
4.614185e-02,4.614949e-02
-1.597001e-01,-1.595836e-01
-1.049040e-01,-1.048659e-01
-5.636005e-02,-5.633949e-02
-1.262366e-01,-1.261863e-01
6.161212e-02,6.171526e-02
5.427606e-02,5.429999e-02
-2.155832e-02,-2.149677e-02
-1.477264e-01,-1.476430e-01
1.373635e-01,1.373126e-01
1.342794e-01,1.342425e-01
-5.727307e-02,-5.724611e-02
-2.091929e-01,-2.091567e-01
1.918973e-01,1.911692e-01
7.183885e-02,7.212755e-02
-5.117297e-02,-5.107789e-02
-1.025220e-01,-1.026477e-01
1.314471e-01,1.308673e-01
-5.011435e-02,-4.977778e-02
3.621047e-02,3.623018e-02
2.381765e-02,2.366920e-02
4.743621e-01,4.683861e-01
5.715829e-02,5.662440e-02
-8.839798e-02,-8.889868e-02
-1.537307e-01,-1.544125e-01
2.517944e-01,2.496281e-01
1.318510e-01,1.315391e-01
-2.710413e-03,-2.864744e-03
-1.477477e-01,-1.479666e-01
4.375272e-01,4.346259e-01
2.807017e-01,2.802696e-01
1.023659e-01,1.021644e-01
-1.227002e-01,-1.229163e-01
2.445439e-01,2.437489e-01
1.727122e-01,1.724137e-01
1.350477e-01,1.349079e-01
-5.517827e-02,-5.526558e-02
-7.731803e-02,-7.739995e-02
2.191498e-01,2.189997e-01
2.203323e-01,2.202517e-01
9.000686e-02,8.997460e-02
-2.320141e-02,-2.320137e-02
1.916091e-01,1.914893e-01
6.431393e-02,6.423727e-02
8.335596e-02,8.328836e-02
8.884067e-02,8.881539e-02
7.440595e-02,7.436411e-02
-3.384462e-03,-3.428686e-03
3.145224e-02,3.142106e-02
6.391817e-02,6.387551e-02
-1.186876e-01,-1.186691e-01
1.148263e-01,1.147915e-01
8.246539e-02,8.247638e-02
8.686742e-02,8.687033e-02
-1.843765e-02,-1.841120e-02
-1.561033e-03,-1.587071e-03
3.271648e-02,3.273144e-02
-1.629313e-01,-1.628969e-01
-3.248310e-03,-3.242108e-03
3.524641e-02,3.523436e-02
-1.663204e-02,-1.658281e-02
-2.170119e-01,-2.168509e-01
-2.033316e-02,-2.031514e-02
1.057527e-01,1.057463e-01
1.698783e-02,1.706767e-02
-3.293053e-01,-3.289039e-01
-1.227866e-01,-1.227720e-01
-3.232712e-02,-3.232112e-02
-1.020619e-01,-1.019498e-01
-2.758505e-01,-2.754621e-01
-8.370815e-02,-8.363162e-02
-7.734921e-02,-7.727825e-02
-1.209863e-01,-1.208472e-01
-3.104413e-01,-3.101211e-01
-1.609953e-01,-1.609267e-01
-1.171652e-01,-1.171260e-01
-4.884691e-02,-4.877883e-02
-1.236522e-01,-1.235100e-01
-2.548212e-01,-2.546781e-01
-6.449546e-02,-6.446508e-02
3.290753e-03,3.322898e-03
-5.460111e-02,-5.453463e-02
-1.597313e-01,-1.596306e-01
-1.270757e-02,-1.269867e-02
8.778122e-02,8.776524e-02
1.566817e-01,1.566898e-01
-1.267688e-01,-1.266893e-01
-7.299573e-02,-7.298937e-02
2.551441e-04,2.399305e-04
7.222747e-02,7.216886e-02
-1.778794e-01,-1.777943e-01
1.237680e-02,1.240381e-02
5.157825e-02,5.160302e-02
1.628580e-01,1.628284e-01
-3.338520e-02,-3.333700e-02
-9.692960e-02,-9.689963e-02
-1.207527e-01,-1.207255e-01
-5.413601e-02,-5.417191e-02
-9.530981e-02,-9.530815e-02
-1.268815e-01,-1.268361e-01
-1.519351e-01,-1.518810e-01
-2.055027e-01,-2.054640e-01
-2.580566e-03,-2.566792e-03
-5.426445e-02,-5.421098e-02
-4.153451e-02,-4.149873e-02
-1.978252e-01,-1.977425e-01
8.446669e-02,8.444942e-02
6.236944e-03,6.258234e-03
7.573673e-02,7.574171e-02
-1.642977e-01,-1.641987e-01
1.177955e-01,1.177253e-01
1.110058e-01,1.109631e-01
-8.051190e-03,-8.065443e-03
-3.162422e-01,-3.160552e-01
3.945112e-02,3.932675e-02
1.783865e-01,1.782875e-01
2.456312e-01,2.456011e-01
-2.769767e-01,-2.766869e-01
4.379986e-02,4.373020e-02
2.660670e-01,2.658847e-01
1.442440e-01,1.441736e-01
-2.158478e-01,-2.156350e-01
-2.824828e-02,-2.830060e-02
1.103731e-01,1.102782e-01
4.454149e-02,4.449057e-02
-8.531956e-02,-8.521898e-02
-2.213727e-02,-2.212143e-02
-7.742857e-02,-7.739463e-02
-5.180708e-02,-5.180227e-02
-1.356750e-01,-1.356741e-01
-4.644062e-02,-4.637859e-02
-1.731565e-01,-1.730377e-01
6.066887e-02,6.068237e-02
2.810432e-01,2.809220e-01
-1.505603e-02,-1.489123e-02
-1.101068e-01,-1.099971e-01
6.353634e-02,6.349272e-02
3.746140e-01,3.735644e-01
-5.230996e-02,-5.229852e-02
-2.930052e-02,-2.933151e-02
3.395098e-02,3.383823e-02
4.977831e-01,4.928126e-01
6.393996e-02,6.343334e-02
-4.072320e-02,-4.106966e-02
-1.515530e-01,-1.519749e-01
4.048607e-01,3.994572e-01
2.889808e-01,2.877835e-01
6.004073e-02,6.069591e-02
-2.377525e-01,-2.365368e-01
1.256403e-01,1.250914e-01
-2.488377e-02,-2.505113e-02
-1.035396e-03,-1.102435e-03
-2.107941e-01,-2.106897e-01
1.573589e-01,1.572882e-01
9.655760e-04,9.639775e-04
-4.769154e-02,-4.770094e-02
-1.533909e-01,-1.533523e-01
2.639374e-01,2.638341e-01
4.036958e-03,4.031983e-03
-1.309595e-01,-1.309399e-01
-1.565543e-01,-1.565163e-01
2.256749e-01,2.255737e-01
1.828767e-01,1.828584e-01
-8.793352e-02,-8.789087e-02
-2.911659e-01,-2.910787e-01
2.341535e-01,2.340100e-01
1.566688e-01,1.566152e-01
5.155336e-03,5.172926e-03
-3.569364e-02,-3.565218e-02
2.347738e-01,2.346608e-01
2.215583e-01,2.214763e-01
1.554328e-01,1.553887e-01
-1.517780e-02,-1.518581e-02
-5.263346e-02,-5.269957e-02
-5.993761e-02,-6.001525e-02
9.952091e-02,9.943629e-02
-2.042134e-02,-2.043221e-02
-1.398086e-01,-1.397528e-01
8.419677e-03,8.416164e-03
2.021450e-01,2.021048e-01
1.203223e-01,1.203191e-01
-2.887458e-01,-2.885934e-01
7.002265e-02,6.999098e-02
8.897956e-02,8.893811e-02
1.222206e-01,1.221818e-01
-1.122487e-01,-1.121560e-01
1.326024e-01,1.325948e-01
1.395719e-01,1.395510e-01
1.088241e-01,1.087880e-01
-3.496668e-02,-3.495983e-02
1.897287e-02,1.895265e-02
2.344901e-02,2.340709e-02
2.384024e-01,2.383160e-01
-1.008315e-02,-1.005127e-02
-9.535579e-02,-9.533268e-02
-5.715633e-02,-5.716458e-02
2.686482e-02,2.683674e-02
-1.355249e-01,-1.354614e-01
-2.739308e-01,-2.738311e-01
-1.419326e-01,-1.418679e-01
-5.978868e-02,-5.973780e-02
-1.777135e-01,-1.775881e-01
-2.989940e-01,-2.987557e-01
-1.710460e-01,-1.708977e-01
1.355415e-01,1.356239e-01
-2.490836e-01,-2.489012e-01
-2.033691e-01,-2.032507e-01
-5.244203e-02,-5.236881e-02
1.924124e-01,1.924358e-01
-1.692835e-01,-1.691120e-01
-4.579329e-02,-4.574882e-02
2.700458e-02,2.700434e-02
8.425258e-02,8.424155e-02
-2.162607e-01,-2.161450e-01
-8.393200e-02,-8.391752e-02
3.827651e-02,3.825209e-02
9.743049e-04,9.705772e-04
-3.232751e-01,-3.230367e-01
-1.509014e-01,-1.508429e-01
-1.352008e-01,-1.351598e-01
-8.913423e-02,-8.909639e-02
-8.119900e-02,-8.108568e-02
7.596710e-03,7.688532e-03
-1.508970e-01,-1.507708e-01
-6.930385e-03,-6.866059e-03
9.576448e-02,9.576112e-02
-1.265227e-02,-1.261766e-02
3.428753e-02,3.433354e-02
8.598533e-02,8.600076e-02
-3.693321e-02,-3.695980e-02
1.062176e-01,1.061942e-01
1.854587e-01,1.854328e-01
1.378282e-01,1.378038e-01
-3.649826e-03,-3.646529e-03
5.250145e-02,5.243589e-02
5.147981e-02,5.141715e-02
1.294074e-01,1.293675e-01
-2.756762e-01,-2.756168e-01
5.420853e-03,5.378616e-03
4.901337e-02,4.896568e-02
1.227521e-01,1.227374e-01
-1.970041e-01,-1.968291e-01
-1.286169e-01,-1.286035e-01
-9.860268e-02,-9.862439e-02
-2.392949e-01,-2.392488e-01
-8.697764e-02,-8.683872e-02
-1.272196e-01,-1.271292e-01
-1.431124e-01,-1.430071e-01
-3.457293e-01,-3.454079e-01
-8.367907e-02,-8.365152e-02
-1.174033e-01,-1.173292e-01
-2.783517e-01,-2.781818e-01
-1.986755e-01,-1.985840e-01
8.681605e-02,8.678052e-02
-2.067247e-01,-2.066134e-01
-1.570138e-01,-1.569046e-01
1.302165e-01,1.302102e-01
2.134131e-01,2.133179e-01
-2.338435e-03,-2.262354e-03
-5.330627e-02,-5.328030e-02
8.692449e-02,8.684098e-02
4.207118e-01,4.194948e-01
2.207431e-01,2.207935e-01
1.185723e-01,1.184103e-01
-1.521424e-01,-1.524185e-01
3.677343e-01,3.660534e-01
2.802966e-01,2.800577e-01
2.282906e-01,2.280256e-01
-9.237202e-02,-9.263164e-02
3.156703e-01,3.147698e-01
2.367742e-01,2.365062e-01
1.013336e-01,1.011863e-01
-1.960196e-02,-1.973029e-02
3.142349e-01,3.136773e-01
2.651673e-01,2.649284e-01
1.187520e-01,1.186415e-01
-1.281940e-01,-1.282657e-01
1.146348e-01,1.144393e-01
1.552084e-01,1.550607e-01
1.955701e-01,1.954285e-01
1.095039e-01,1.094444e-01
3.031880e-01,3.030658e-01
1.720519e-01,1.719402e-01
1.859926e-01,1.858303e-01
-6.747171e-02,-6.753323e-02
-8.655174e-02,-8.662896e-02
4.098242e-02,4.088196e-02
1.484420e-01,1.483210e-01
-2.952116e-02,-2.954745e-02
-1.133008e-01,-1.132504e-01
-3.110614e-02,-3.112390e-02
-6.557991e-02,-6.560949e-02
-9.587661e-02,-9.588689e-02
-6.491044e-02,-6.483216e-02
-1.486831e-01,-1.486397e-01
-2.035418e-01,-2.034440e-01
-1.231285e-02,-1.228237e-02
-3.267218e-02,-3.260810e-02
-1.269082e-01,-1.268162e-01
-2.421477e-01,-2.419748e-01
6.133047e-02,6.136290e-02
-1.904842e-01,-1.904156e-01
-1.568542e-01,-1.567730e-01
-9.707869e-02,-9.699477e-02
6.328702e-02,6.331341e-02
-2.239178e-01,-2.237893e-01
-2.584343e-01,-2.583197e-01
-9.042401e-02,-9.039150e-02
4.064871e-02,4.066422e-02
-1.488034e-01,-1.486859e-01
-2.046907e-01,-2.045830e-01
1.373890e-01,1.373908e-01
1.147386e-01,1.147370e-01
-1.149635e-01,-1.148763e-01
-4.286413e-02,-4.286155e-02
-1.913765e-02,-1.917598e-02
4.788750e-02,4.783150e-02
-1.416440e-01,-1.415617e-01
2.342718e-01,2.342407e-01
2.487498e-02,2.488213e-02
-1.776841e-01,-1.776894e-01
-3.286694e-02,-3.285098e-02
1.178034e-01,1.177515e-01
4.231638e-02,4.231736e-02
8.480984e-03,8.475425e-03
-7.856734e-02,-7.857315e-02
9.770551e-02,9.767897e-02
1.723529e-01,1.723479e-01
1.417341e-01,1.417084e-01
-2.025241e-01,-2.025146e-01
2.910332e-02,2.905629e-02
2.036018e-01,2.035422e-01
2.888177e-01,2.887088e-01
-1.713704e-01,-1.714087e-01
-2.992247e-02,-3.006923e-02
1.829413e-01,1.826904e-01
4.311210e-01,4.297868e-01
-1.165591e-01,-1.164924e-01
1.251979e-01,1.251459e-01
1.374413e-01,1.373155e-01
2.114754e-01,2.112998e-01
7.967636e-03,8.002537e-03
-8.202785e-02,-8.205195e-02
1.447400e-02,1.433060e-02
-3.904178e-02,-3.903128e-02
1.364966e-02,1.368603e-02
-1.867372e-01,-1.866708e-01
-1.486923e-02,-1.493038e-02
-2.205182e-01,-2.204788e-01
1.110488e-01,1.111367e-01
-4.792591e-02,-4.781085e-02
-1.601394e-01,-1.600316e-01
-3.869336e-01,-3.862109e-01
-4.128538e-02,-4.127094e-02
-5.701458e-02,-5.697848e-02
-2.422823e-01,-2.421179e-01
-2.512444e-01,-2.510113e-01
-1.046528e-01,-1.045959e-01
-5.561361e-02,-5.556158e-02
-2.864455e-01,-2.861409e-01
6.675179e-03,6.759005e-03
-1.470471e-01,-1.469747e-01
4.455273e-03,4.492811e-03
-5.464506e-02,-5.452527e-02
1.234874e-01,1.235097e-01
-7.065310e-02,-7.059664e-02
1.306168e-01,1.306075e-01
9.176059e-02,9.178369e-02
1.555785e-01,1.555502e-01
-9.233170e-02,-9.233363e-02
-9.801949e-02,-9.805395e-02
6.972910e-02,6.967588e-02
2.170102e-01,2.169449e-01
1.676279e-02,1.680084e-02
-4.944636e-02,-4.943184e-02
1.170629e-01,1.170271e-01
7.819348e-02,7.817408e-02
-6.922177e-02,-6.919501e-02
1.391994e-01,1.391558e-01
8.807129e-02,8.804194e-02
1.414521e-02,1.414308e-02
-1.354084e-01,-1.353950e-01
2.869599e-02,2.864439e-02
-8.161166e-02,-8.162798e-02
-9.102224e-02,-9.102147e-02
-1.330118e-03,-1.309353e-03
-1.277030e-01,-1.276741e-01
-1.869719e-01,-1.869123e-01
-9.689110e-02,-9.685458e-02
4.635276e-02,4.636785e-02
-1.171773e-02,-1.165773e-02
-2.828295e-01,-2.826305e-01
-5.975413e-02,-5.970803e-02
1.369971e-01,1.369893e-01
-8.020677e-03,-7.985358e-03
-1.810510e-01,-1.809376e-01
-9.038200e-02,-9.034979e-02
2.647205e-02,2.645179e-02
-1.248005e-01,-1.247777e-01
-9.866682e-02,-9.860331e-02
-9.626453e-02,-9.622947e-02
5.964980e-02,5.965638e-02
-3.069933e-02,-3.067518e-02
-6.408410e-02,-6.402889e-02
5.841938e-02,5.842817e-02
-1.880208e-01,-1.880546e-01
-7.142494e-02,-7.141757e-02
6.667974e-02,6.667204e-02
2.649057e-01,2.648600e-01
-4.130599e-02,-4.127560e-02
9.628621e-02,9.629821e-02
1.087300e-01,1.086665e-01
-6.354112e-03,-6.397612e-03
2.137270e-01,2.136900e-01
1.629592e-01,1.629282e-01
1.649814e-01,1.649083e-01
-2.402415e-01,-2.402138e-01
7.903751e-03,7.801891e-03
9.223531e-02,9.216084e-02
6.826806e-02,6.820691e-02
-8.562654e-02,-8.561123e-02
7.497907e-02,7.493887e-02
7.943245e-02,7.940492e-02
-6.220794e-02,-6.222544e-02
-2.153879e-02,-2.153929e-02
8.461802e-02,8.456553e-02
5.504027e-04,5.503675e-04
3.860278e-02,3.858441e-02
1.056522e-01,1.056549e-01
1.173235e-01,1.172902e-01
-1.783760e-02,-1.783156e-02
1.743827e-01,1.743184e-01
-9.698162e-02,-9.697765e-02
1.596786e-01,1.596444e-01
1.167188e-01,1.166907e-01
1.788653e-01,1.788220e-01
-7.873911e-02,-7.871424e-02
-2.107841e-01,-2.108531e-01
-2.047903e-02,-2.053436e-02
-1.406426e-02,-1.408518e-02
9.720835e-02,9.720755e-02
1.248257e-01,1.248533e-01
1.080921e-01,1.081171e-01
-4.466454e-02,-4.462887e-02
-5.581350e-02,-5.579426e-02
2.004009e-01,2.003049e-01
-1.279054e-02,-1.281691e-02
-1.659293e-01,-1.659214e-01
-6.478784e-02,-6.477865e-02
1.726559e-01,1.725891e-01
4.711371e-02,4.711653e-02
-1.080798e-01,-1.080595e-01
-2.484108e-01,-2.483679e-01
2.853624e-01,2.852357e-01
7.305867e-02,7.305695e-02
-8.072263e-02,-8.070556e-02
-2.453001e-01,-2.452424e-01
1.148735e-01,1.147676e-01
2.636402e-02,2.635568e-02
-1.007281e-01,-1.007097e-01
-8.978907e-02,-8.976095e-02
-9.572154e-02,-9.576469e-02
-1.662688e-01,-1.662265e-01
5.219804e-02,5.220253e-02
9.926293e-02,9.926702e-02
1.092856e-02,1.094477e-02
-1.680987e-01,-1.680180e-01
1.027345e-01,1.027153e-01
1.255947e-01,1.255562e-01
5.396017e-03,5.389672e-03
-1.281375e-01,-1.280970e-01
-4.884033e-02,-4.885247e-02
7.845323e-02,7.840762e-02
-1.322208e-01,-1.321950e-01
-3.674666e-02,-3.671910e-02
3.865689e-02,3.868007e-02
2.169263e-01,2.169069e-01
-4.152159e-02,-4.146245e-02
5.877658e-02,5.878149e-02
5.124346e-02,5.124387e-02
2.607183e-02,2.606683e-02
6.605349e-02,6.606614e-02
1.982536e-01,1.982237e-01
1.512766e-01,1.512634e-01
1.029347e-03,1.064682e-03
-1.854155e-01,-1.854312e-01
8.482064e-02,8.473748e-02
1.982701e-01,1.981869e-01
1.242595e-01,1.242737e-01
1.442178e-01,1.442687e-01
1.938409e-01,1.937839e-01
1.457907e-01,1.457061e-01
-6.363814e-02,-6.362092e-02
8.839920e-02,8.836163e-02
2.056221e-01,2.054981e-01
1.386859e-01,1.385846e-01
-6.102729e-02,-6.101548e-02
-7.154142e-02,-7.155653e-02
1.054717e-02,1.047216e-02
-4.282224e-02,-4.290184e-02
-2.179226e-01,-2.178996e-01
4.708002e-02,4.711751e-02
-1.463694e-01,-1.463302e-01
-2.227154e-01,-2.226786e-01
-1.829803e-01,-1.828896e-01
9.145224e-02,9.147122e-02
-1.474414e-01,-1.473038e-01
-2.498842e-01,-2.496971e-01
-3.157996e-01,-3.155927e-01
2.364014e-01,2.363505e-01
-2.007449e-01,-2.005857e-01
-2.481681e-01,-2.479444e-01
-1.116751e-01,-1.115870e-01
1.905804e-01,1.904598e-01
-2.136712e-01,-2.135391e-01
-6.026772e-02,-6.016258e-02
1.492390e-01,1.492347e-01
1.546086e-01,1.545040e-01
1.098308e-02,1.103563e-02
-4.027700e-02,-4.024842e-02
1.489040e-01,1.488135e-01
7.313230e-02,7.302804e-02
-1.204312e-01,-1.204292e-01
-1.836953e-02,-1.837763e-02
1.873924e-01,1.873033e-01
4.332410e-02,4.329659e-02
1.063630e-01,1.063767e-01
5.436377e-02,5.435783e-02
9.762450e-02,9.757508e-02
8.969557e-02,8.969482e-02
1.529044e-01,1.528429e-01
8.983593e-02,8.980560e-02
-7.650865e-02,-7.651332e-02
7.148203e-02,7.147964e-02
2.586236e-01,2.584928e-01
2.279212e-01,2.278848e-01
-3.932153e-02,-3.929391e-02
-6.735510e-04,-8.034943e-04
4.065200e-01,4.053196e-01
1.992435e-01,1.990273e-01
-4.261472e-02,-4.270306e-02
-3.854284e-02,-3.858942e-02
1.904262e-01,1.901577e-01
1.065964e-01,1.064659e-01
6.594971e-02,6.588700e-02
-2.736682e-02,-2.736481e-02
-8.484759e-02,-8.489522e-02
4.149028e-02,4.141696e-02
8.156587e-02,8.152358e-02
-4.358550e-01,-4.346839e-01
-3.909371e-01,-3.905467e-01
-1.002568e-01,-1.001641e-01
1.134962e-01,1.136091e-01
-4.953078e-01,-4.792557e-01
-4.327607e-01,-4.281314e-01
-2.150065e-01,-2.134664e-01
9.491931e-02,9.650784e-02
-4.651690e-01,-4.435061e-01
-2.680406e-01,-2.637885e-01
-1.394621e-01,-1.428881e-01
9.798976e-02,9.256964e-02
-4.403136e-01,-4.342009e-01
-2.056124e-01,-2.047355e-01
-1.813939e-01,-1.807990e-01
1.725780e-01,1.730552e-01
-3.830762e-01,-3.733218e-01
-2.491721e-01,-2.473289e-01
-1.926188e-01,-1.915118e-01
8.648866e-02,8.751248e-02
-3.598850e-01,-3.557609e-01
-2.381270e-01,-2.373018e-01
-1.699043e-01,-1.694375e-01
5.627224e-02,5.665795e-02
-2.384704e-01,-2.378655e-01
-1.413993e-01,-1.412325e-01
8.036833e-02,8.043545e-02
6.458432e-02,6.460790e-02
-2.786249e-01,-2.783496e-01
9.561661e-03,9.591196e-03
7.359102e-02,7.354300e-02
1.394755e-01,1.394205e-01
-2.442382e-02,-2.427639e-02
1.961447e-02,1.958054e-02
8.531080e-02,8.526079e-02
-1.921986e-02,-1.930353e-02
1.776840e-01,1.775190e-01
8.745688e-02,8.741542e-02
3.332042e-02,3.336782e-02
5.503145e-02,5.490620e-02
2.613107e-02,2.566323e-02
-4.364101e-02,-4.353654e-02
-6.839956e-02,-6.829611e-02
-8.834875e-02,-8.846600e-02
2.532682e-01,2.518056e-01
1.989528e-01,2.002439e-01
1.112880e-01,1.116057e-01
4.082790e-02,4.042523e-02
2.916405e-01,2.893766e-01
2.489012e-01,2.513195e-01
7.286712e-02,7.297070e-02
-1.047131e-02,-1.138570e-02
4.978425e-01,4.895782e-01
2.022248e-01,2.038273e-01
9.630201e-02,9.564075e-02
-2.830465e-02,-3.000403e-02
2.028604e-01,2.028409e-01
7.409220e-02,7.414791e-02
-3.206433e-02,-3.204536e-02
-4.007881e-03,-4.013012e-03
1.905718e-01,1.904580e-01
-1.723404e-02,-1.728537e-02
-1.086247e-01,-1.086515e-01
-1.808068e-01,-1.808054e-01
1.120621e-01,1.120300e-01
1.441097e-01,1.440680e-01
-2.240174e-01,-2.239716e-01
-3.155532e-01,-3.154431e-01
5.338528e-02,5.338393e-02
1.763396e-01,1.762835e-01
-8.886298e-02,-8.881065e-02
-1.977578e-01,-1.976714e-01
-7.587162e-02,-7.586012e-02
-3.351155e-02,-3.354461e-02
-6.366202e-02,-6.363788e-02
-1.892089e-01,-1.891475e-01
-2.643167e-01,-2.642119e-01
-1.115530e-01,-1.115360e-01
-8.617570e-02,-8.611756e-02
8.063986e-04,8.585166e-04
-4.499831e-01,-4.470798e-01
-6.776940e-02,-6.739937e-02
2.020704e-01,2.022959e-01
1.730751e-01,1.733246e-01
-2.155687e-01,-2.149619e-01
-1.226082e-02,-1.219292e-02
1.010340e-01,1.010038e-01
2.239618e-01,2.238956e-01
8.539175e-03,8.572130e-03
6.510888e-02,6.509055e-02
1.670211e-01,1.669264e-01
2.407698e-01,2.406420e-01
-1.267088e-02,-1.270507e-02
-1.057411e-01,-1.057783e-01
6.590579e-02,6.578008e-02
4.460826e-02,4.452042e-02
3.493631e-02,3.493879e-02
6.614176e-03,6.638064e-03
-3.647878e-02,-3.650720e-02
-2.599094e-01,-2.599036e-01
1.602760e-01,1.602163e-01
-7.282885e-02,-7.278792e-02
-1.159551e-01,-1.158989e-01
-2.448942e-01,-2.448110e-01
2.559243e-01,2.557777e-01
1.465834e-01,1.466395e-01
-1.204544e-01,-1.203530e-01
-1.800477e-01,-1.800152e-01
2.822026e-01,2.818571e-01
8.769592e-02,8.765675e-02
-1.415860e-01,-1.415575e-01
5.369193e-02,5.363274e-02
1.867351e-01,1.865310e-01
8.505083e-02,8.503238e-02
6.867466e-02,6.866894e-02
2.397816e-01,2.396943e-01
1.606533e-01,1.605149e-01
6.248608e-02,6.244912e-02
2.783726e-01,2.781903e-01
1.136796e-01,1.135996e-01
1.257163e-01,1.256160e-01
5.594117e-02,5.589456e-02
1.835817e-01,1.834101e-01
-4.998620e-02,-5.001672e-02
1.884842e-01,1.884150e-01
1.828132e-01,1.827716e-01
1.701228e-01,1.700335e-01
-2.012056e-01,-2.011575e-01
2.373061e-01,2.372129e-01
1.102979e-01,1.102123e-01
-2.742053e-02,-2.748265e-02
-1.893100e-01,-1.892613e-01
1.719466e-01,1.718756e-01
1.676901e-01,1.676397e-01
8.361297e-02,8.358521e-02
-2.170632e-01,-2.169901e-01
1.477065e-01,1.476264e-01
1.079459e-01,1.078906e-01
1.116724e-01,1.116233e-01
-1.930761e-01,-1.930321e-01
2.854687e-01,2.853161e-01
4.018065e-02,4.013887e-02
-5.685234e-02,-5.687410e-02
-1.811822e-01,-1.811691e-01
3.698900e-01,3.692722e-01
1.546762e-01,1.546035e-01
-4.004094e-02,-4.003064e-02
-8.295494e-02,-8.297962e-02
3.041612e-01,3.035999e-01
1.131741e-01,1.130794e-01
-6.766892e-02,-6.768844e-02
1.031143e-01,1.030502e-01
3.996075e-01,3.985394e-01
6.648570e-02,6.635845e-02
3.833647e-02,3.825026e-02
5.131173e-03,5.026444e-03
1.089163e-01,1.087147e-01
3.181470e-02,3.178359e-02
1.579421e-01,1.578795e-01
2.088102e-03,2.105723e-03
-3.860241e-02,-3.857543e-02
-2.480228e-02,-2.483799e-02
1.181837e-02,1.177467e-02
3.395385e-03,3.438796e-03
-3.356183e-01,-3.352323e-01
-1.770262e-01,-1.771540e-01
-9.090730e-02,-9.091258e-02
-1.710448e-02,-1.696570e-02
-3.087625e-01,-3.081234e-01
-1.442079e-01,-1.441505e-01
-8.509331e-02,-8.499226e-02
6.652980e-02,6.667508e-02
-1.274765e-01,-1.272908e-01
-2.636436e-02,-2.629731e-02
9.056973e-02,9.059480e-02
1.504342e-02,1.508448e-02
-1.659830e-01,-1.659198e-01
-5.285691e-02,-5.285124e-02
1.705781e-01,1.705093e-01
1.170785e-02,1.168187e-02
-1.919069e-01,-1.918243e-01
-3.254882e-02,-3.254124e-02
4.191749e-02,4.188261e-02
9.803590e-03,9.773383e-03
-8.208265e-02,-8.201142e-02
-5.613849e-02,-5.612119e-02
-3.070162e-02,-3.069387e-02
2.103497e-01,2.102992e-01
-1.722718e-01,-1.721928e-01
-7.054124e-02,-7.052889e-02
1.274355e-02,1.274023e-02
2.456966e-01,2.456174e-01
-9.756159e-02,-9.746531e-02
-1.397926e-01,-1.397493e-01
5.438457e-04,5.394235e-04
8.217056e-02,8.214263e-02
-3.925382e-01,-3.920029e-01
-2.006920e-01,-2.005648e-01
-1.082716e-02,-1.077271e-02
8.226092e-02,8.231411e-02
-4.699455e-01,-4.623182e-01
-2.941282e-01,-2.930795e-01
-9.586620e-02,-9.527691e-02
1.816577e-01,1.823148e-01
-3.211446e-01,-3.159716e-01
-1.752783e-01,-1.742673e-01
2.324122e-02,2.374300e-02
1.733611e-01,1.738486e-01
-1.494319e-01,-1.491593e-01
-2.272708e-01,-2.271320e-01
-1.473680e-01,-1.473314e-01
2.268825e-02,2.266391e-02
-9.391360e-02,-9.382979e-02
-7.906150e-02,-7.897507e-02
-6.448967e-02,-6.441868e-02
-2.549932e-02,-2.548578e-02
-1.051858e-02,-1.049450e-02
-1.487025e-02,-1.484021e-02
-2.782655e-02,-2.779141e-02
6.106375e-02,6.105263e-02
-9.295317e-02,-9.296883e-02
2.787056e-02,2.787549e-02
1.956071e-02,1.955707e-02
2.049313e-01,2.048835e-01
1.313957e-01,1.313518e-01
3.911897e-03,3.944590e-03
6.429910e-02,6.424537e-02
7.045991e-02,7.041385e-02
1.543117e-01,1.541804e-01
-2.979994e-02,-2.975271e-02
2.376203e-01,2.374933e-01
-5.752436e-02,-5.752644e-02
2.307780e-01,2.306352e-01
8.778410e-02,8.777927e-02
2.416161e-01,2.414776e-01
-1.135769e-01,-1.135607e-01
3.559939e-01,3.555308e-01
2.488633e-01,2.487079e-01
1.443008e-01,1.441965e-01
-1.606892e-01,-1.606991e-01
4.347073e-01,4.320019e-01
3.106874e-01,3.099935e-01
-6.137807e-02,-6.161775e-02
-2.829005e-01,-2.830995e-01
4.594376e-01,4.480508e-01
2.721006e-01,2.703994e-01
-1.020018e-01,-1.027630e-01
-2.520991e-01,-2.529849e-01
4.411135e-01,4.206793e-01
2.663818e-01,2.633577e-01
-1.103647e-01,-1.117969e-01
-2.060632e-01,-2.078745e-01
3.266018e-01,3.207462e-01
1.666668e-01,1.657591e-01
-5.348467e-02,-5.386761e-02
-7.717385e-02,-7.771922e-02
2.823950e-01,2.813922e-01
-9.052452e-02,-9.060884e-02
-2.530576e-02,-2.534589e-02
-5.435447e-02,-5.439074e-02
4.700240e-01,4.638173e-01
5.446013e-02,5.387780e-02
2.072839e-01,2.068889e-01
-1.247054e-01,-1.251374e-01
2.596921e-01,2.565962e-01
1.068373e-01,1.065225e-01
1.496546e-01,1.493899e-01
-4.729176e-02,-4.745842e-02
2.464698e-01,2.453997e-01
1.643216e-01,1.643283e-01
-8.127652e-02,-8.125510e-02
-1.483716e-01,-1.483109e-01
1.039808e-01,1.026099e-01
1.557496e-01,1.559699e-01
7.580227e-02,7.593770e-02
-1.152508e-01,-1.150769e-01
-2.179568e-01,-2.199981e-01
-3.005628e-02,-2.889742e-02
3.565749e-02,3.527962e-02
7.595290e-02,7.640513e-02
-1.053220e-01,-1.050657e-01
2.867126e-02,2.928024e-02
8.279513e-02,8.216361e-02
1.475717e-01,1.484298e-01
-1.490237e-02,-1.371786e-02
2.413018e-02,2.353254e-02
-1.317935e-01,-1.320850e-01
1.044208e-02,1.099251e-02
-1.478496e-01,-1.433376e-01
-1.518070e-01,-1.552094e-01
-1.703070e-01,-1.710224e-01
-4.943197e-02,-4.812026e-02
-2.650289e-01,-2.628565e-01
-1.274795e-01,-1.289815e-01
-1.122507e-01,-1.121406e-01
-1.861714e-02,-1.761338e-02
-4.986573e-01,-4.989109e-01
-3.088928e-01,-3.075848e-01
-7.946720e-02,-7.971080e-02
1.605761e-01,1.600134e-01
-4.999714e-01,-4.999891e-01
-4.646953e-01,-4.657958e-01
-6.356562e-02,-6.390131e-02
2.121829e-01,2.117211e-01
-4.941815e-01,-4.950175e-01
-4.964100e-01,-4.933010e-01
-6.094567e-02,-5.993922e-02
1.705589e-01,1.715553e-01
-4.993497e-01,-4.995607e-01
-4.500124e-01,-4.471929e-01
-1.374444e-01,-1.382892e-01
1.866293e-01,1.848832e-01
-4.236661e-01,-4.521458e-01
-2.994660e-01,-3.027960e-01
-2.203181e-01,-2.224059e-01
2.213718e-01,2.190503e-01
-4.864130e-01,-4.714494e-01
-1.824703e-01,-1.805021e-01
-3.282053e-02,-3.246023e-02
4.001326e-01,3.996789e-01
-4.558304e-01,-4.397240e-01
-1.721522e-01,-1.705868e-01
2.284006e-01,2.287236e-01
4.784232e-01,4.748053e-01
-1.938084e-01,-1.926478e-01
3.945626e-02,3.927684e-02
3.588878e-01,3.574100e-01
1.871386e-01,1.869333e-01
-1.201961e-01,-1.217867e-01
7.920926e-02,7.882452e-02
2.481627e-01,2.484129e-01
1.787245e-01,1.781525e-01
7.714143e-02,7.637781e-02
1.193545e-01,1.195619e-01
1.787557e-01,1.787973e-01
6.650658e-02,6.648241e-02
-9.930652e-02,-9.922912e-02
9.713095e-03,1.011154e-02
-1.036244e-01,-1.039232e-01
5.969634e-02,5.973296e-02
1.035049e-01,1.026271e-01
7.608673e-02,7.669572e-02
-1.446140e-01,-1.438338e-01
-7.657862e-02,-7.754721e-02
3.241774e-01,3.208061e-01
3.822277e-02,4.076618e-02
-1.142642e-01,-1.131228e-01
-2.331407e-01,-2.347785e-01
4.714383e-01,4.534927e-01
1.134198e-02,1.988073e-02
-5.746484e-02,-5.649529e-02
-3.404999e-01,-3.460366e-01
4.009073e-01,4.182112e-01
6.140182e-02,5.351763e-02
1.219269e-01,1.184526e-01
-1.948902e-01,-1.929148e-01
4.125821e-01,4.349526e-01
4.188150e-02,3.644136e-02
-4.845530e-03,-6.383137e-03
-9.249414e-02,-9.282608e-02
4.999518e-01,4.989591e-01
1.666650e-01,1.689710e-01
-2.579259e-01,-2.569244e-01
-1.848063e-01,-1.862524e-01
4.131527e-01,4.677569e-01
2.171551e-01,2.233015e-01
-1.267232e-01,-1.229467e-01
-2.937424e-01,-2.890845e-01
4.620071e-01,4.092381e-01
3.927251e-01,3.847413e-01
8.277118e-02,7.901041e-02
-5.383505e-02,-5.839949e-02
3.770949e-01,3.858548e-01
3.072598e-01,3.086721e-01
1.098553e-01,1.104424e-01
-1.842193e-01,-1.834106e-01
1.941402e-01,1.944492e-01
2.540075e-01,2.538654e-01
2.976539e-01,2.973869e-01
-1.052501e-01,-1.052044e-01
-2.207926e-01,-2.208691e-01
1.414560e-02,1.403161e-02
2.143358e-01,2.141187e-01
-5.163835e-02,-5.165864e-02
5.607232e-02,5.612481e-02
-4.720783e-02,-4.719422e-02
-4.391462e-02,-4.394841e-02
-2.585683e-01,-2.585447e-01
5.350534e-02,5.350360e-02
-5.680452e-02,-5.678293e-02
-2.023584e-01,-2.022737e-01
-2.979198e-02,-2.976154e-02
5.386700e-02,5.385536e-02
-4.050884e-02,-4.046872e-02
-6.507274e-02,-6.499528e-02
1.226241e-01,1.226091e-01
-2.517806e-04,-2.770851e-04
-4.277956e-02,-4.274651e-02
-3.948238e-02,-3.944797e-02
7.575465e-02,7.571878e-02
6.548585e-02,6.548625e-02
1.478666e-01,1.478845e-01
1.364737e-01,1.365004e-01
1.312422e-01,1.312306e-01
1.396634e-01,1.395884e-01
2.087574e-01,2.086690e-01
3.150865e-01,3.149162e-01
2.675872e-01,2.674521e-01
2.358983e-01,2.357704e-01
2.392234e-01,2.390544e-01
2.860387e-01,2.857607e-01
2.003315e-01,2.001652e-01
1.436734e-01,1.435748e-01
7.478472e-02,7.468628e-02
6.813887e-02,6.802570e-02
-2.482378e-02,-2.487613e-02
-1.698959e-02,-1.702736e-02
-1.780992e-01,-1.780960e-01
-1.606811e-01,-1.606753e-01
-1.168766e-01,-1.168246e-01
1.736118e-01,1.736423e-01
-2.205304e-03,-2.125513e-03
-1.412502e-01,-1.411448e-01
-1.138407e-01,-1.137389e-01
3.785977e-02,3.781512e-02
-1.092326e-01,-1.092166e-01
-2.094196e-01,-2.093655e-01
-5.062856e-02,-5.057575e-02
3.301710e-02,3.302297e-02
-1.600434e-01,-1.599566e-01
-1.403382e-01,-1.402874e-01
-6.404739e-02,-6.397770e-02
-1.519792e-01,-1.519205e-01
-1.727468e-01,-1.726592e-01
1.233840e-02,1.235100e-02
-6.581844e-02,-6.574476e-02
-2.639180e-01,-2.636608e-01
-1.238219e-01,-1.237623e-01
2.147460e-02,2.149492e-02
-1.332654e-01,-1.331548e-01
-4.418271e-01,-4.387674e-01
-8.979057e-02,-8.955972e-02
-6.304436e-02,-6.283483e-02
-5.328900e-02,-5.292961e-02
-3.699626e-01,-3.646308e-01
-1.693488e-01,-1.716998e-01
-8.453067e-02,-8.449161e-02
2.104121e-01,2.115467e-01
-4.945342e-01,-4.959556e-01
4.750833e-03,6.314997e-03
8.618802e-02,8.594831e-02
2.200840e-01,2.193333e-01
-4.926119e-01,-4.701683e-01
8.872712e-02,9.203858e-02
3.424746e-02,3.387494e-02
3.326503e-01,3.316910e-01
-4.940236e-01,-4.612274e-01
-1.117788e-01,-1.080490e-01
1.451498e-01,1.472248e-01
2.810821e-01,2.838807e-01
-2.870876e-01,-2.870435e-01
-2.315817e-01,-2.315497e-01
2.418218e-02,2.416206e-02
1.884000e-01,1.883697e-01
-1.462208e-01,-1.460660e-01
-3.091431e-01,-3.088741e-01
-1.158387e-01,-1.158095e-01
-3.829074e-02,-3.825523e-02
1.298984e-01,1.294513e-01
-1.054173e-01,-1.049826e-01
-1.481944e-01,-1.479890e-01
-2.207842e-01,-2.207666e-01
2.496739e-01,2.483780e-01
-9.348127e-02,-9.258467e-02
-1.874610e-01,-1.871736e-01
-1.611736e-01,-1.613363e-01
3.139668e-01,3.131933e-01
5.694774e-02,5.760846e-02
-1.846718e-01,-1.845254e-01
-3.457407e-01,-3.457366e-01
4.978551e-01,4.949390e-01
2.398231e-01,2.398090e-01
-2.511639e-02,-2.536740e-02
-4.227905e-01,-4.228761e-01
4.107081e-01,4.689846e-01
2.795468e-01,2.871778e-01
5.061099e-02,5.417100e-02
-1.910597e-01,-1.868074e-01
4.480579e-01,4.818944e-01
3.454547e-01,3.461025e-01
9.551165e-02,1.033661e-01
-4.530533e-02,-3.410370e-02
3.537269e-01,3.536623e-01
1.441346e-01,1.441248e-01
1.588890e-01,1.588858e-01
4.947650e-02,4.946692e-02
8.700489e-02,8.683530e-02
1.019731e-01,1.019034e-01
2.089975e-01,2.088861e-01
-5.272276e-02,-5.272675e-02
3.081867e-01,3.080479e-01
2.569413e-01,2.568524e-01
9.505537e-02,9.500673e-02
-1.748005e-01,-1.747603e-01
1.772638e-01,1.770467e-01
2.067877e-01,2.066277e-01
1.867139e-01,1.866414e-01
-1.077416e-01,-1.077082e-01
1.402962e-01,1.401578e-01
2.205641e-01,2.203992e-01
8.561852e-02,8.552661e-02
-2.176858e-02,-2.177982e-02
-2.469300e-02,-2.471204e-02
-5.092191e-03,-5.210026e-03
8.368037e-03,8.288929e-03
1.249362e-01,1.249373e-01
-1.935649e-01,-1.933044e-01
-2.818689e-02,-2.830483e-02
3.856498e-02,3.849276e-02
9.293387e-03,9.354431e-03
-2.873975e-01,-2.865391e-01
-5.297766e-02,-5.341923e-02
-1.648084e-01,-1.648763e-01
-1.578505e-01,-1.575715e-01
-3.148033e-01,-3.137213e-01
-6.837000e-02,-6.896018e-02
-2.165876e-01,-2.164038e-01
-1.190366e-01,-1.185743e-01
-3.961930e-01,-3.947101e-01
-1.894133e-01,-1.900956e-01
-2.032510e-01,-2.028524e-01
1.065984e-01,1.072261e-01
-3.099050e-01,-3.101879e-01
-2.375151e-01,-2.381085e-01
-1.491081e-01,-1.488629e-01
2.089597e-01,2.093498e-01
-4.311902e-01,-4.290486e-01
-3.342526e-01,-3.338530e-01
-8.780721e-02,-8.755032e-02
9.550757e-02,9.585806e-02
-2.600696e-01,-2.592562e-01
-3.473487e-01,-3.463716e-01
4.071396e-02,4.085965e-02
-1.205773e-02,-1.187706e-02
-1.091371e-01,-1.089983e-01
-1.859486e-01,-1.857679e-01
6.292875e-02,6.292789e-02
6.264002e-02,6.268376e-02
-1.560946e-01,-1.560287e-01
-2.781992e-02,-2.778457e-02
1.399117e-01,1.398577e-01
9.256470e-02,9.256652e-02
-2.290119e-01,-2.289361e-01
-4.630750e-02,-4.630505e-02
-3.491179e-03,-3.560067e-03
-1.816108e-01,-1.816085e-01
5.745274e-03,5.802265e-03
-4.952301e-02,-4.947824e-02
2.147778e-02,2.147755e-02
-6.043568e-02,-6.038952e-02
1.441323e-01,1.441326e-01
6.246486e-02,6.248064e-02
-1.845270e-02,-1.844498e-02
-2.915908e-01,-2.915292e-01
-1.980143e-02,-1.985210e-02
-1.381147e-02,-1.382711e-02
-3.392901e-02,-3.389852e-02
-5.989176e-02,-5.984440e-02
8.821314e-02,8.819789e-02
2.919300e-02,2.918698e-02
5.354041e-02,5.355557e-02
1.777024e-01,1.776880e-01
1.700661e-02,1.697115e-02
8.057334e-02,8.052102e-02
1.075054e-02,1.069863e-02
1.403756e-01,1.403103e-01
1.156878e-01,1.156730e-01
1.974681e-01,1.974162e-01
2.158116e-01,2.157176e-01
-3.514929e-02,-3.516950e-02
9.718582e-02,9.713121e-02
6.354444e-02,6.347022e-02
1.528832e-02,1.519428e-02
-1.918324e-01,-1.918239e-01
-1.175089e-01,-1.175251e-01
-8.265931e-02,-8.266196e-02
5.738228e-03,5.729374e-03
-1.514911e-01,-1.514306e-01
-1.506607e-01,-1.505983e-01
3.220874e-02,3.224170e-02
-9.319562e-02,-9.314475e-02
-1.382805e-01,-1.382174e-01
3.952364e-02,3.954820e-02
-6.580643e-03,-6.557656e-03
3.938463e-03,3.978888e-03
-5.926101e-02,-5.922854e-02
-7.441445e-02,-7.444387e-02
-9.614904e-02,-9.615509e-02
2.857461e-02,2.856450e-02
2.630779e-01,2.630237e-01
2.010768e-02,2.012135e-02
-7.680426e-02,-7.679022e-02
-5.641501e-02,-5.645016e-02
3.137415e-02,3.130525e-02
-5.284987e-02,-5.283790e-02
-6.605000e-02,-6.603278e-02
2.906299e-02,2.905529e-02
1.447619e-01,1.447469e-01
-3.748619e-02,-3.743707e-02
1.039677e-01,1.039729e-01
5.074791e-02,5.073361e-02
-4.249915e-02,-4.250288e-02
-1.195526e-02,-1.194327e-02
5.824030e-02,5.823186e-02
3.924062e-02,3.923807e-02
-1.614297e-01,-1.613845e-01
1.635245e-02,1.633488e-02
6.382237e-03,6.388005e-03
-1.056048e-01,-1.055840e-01
-8.532706e-02,-8.528675e-02
-2.666320e-02,-2.668227e-02
-2.818573e-02,-2.816305e-02
8.138320e-02,8.139660e-02
-3.296297e-02,-3.294656e-02
-2.158538e-02,-2.160248e-02
-6.141175e-02,-6.140798e-02
8.927614e-02,8.925192e-02
2.343685e-01,2.343323e-01
-2.841176e-02,-2.841541e-02
-4.148308e-03,-4.153673e-03
1.452010e-02,1.446863e-02
1.208764e-01,1.208140e-01
8.836078e-02,8.835719e-02
8.374234e-02,8.374522e-02
1.335918e-01,1.335445e-01
1.368199e-02,1.368039e-02
-2.561970e-02,-2.565070e-02
1.599805e-02,1.597471e-02
3.796293e-02,3.790227e-02
-1.206935e-01,-1.206661e-01
-3.133228e-02,-3.131638e-02
-4.271853e-03,-4.257307e-03
4.164121e-02,4.162873e-02
-2.740789e-01,-2.739745e-01
2.628390e-02,2.628200e-02
-1.604326e-01,-1.604184e-01
-8.664020e-02,-8.663040e-02
-1.769139e-01,-1.768682e-01
7.336014e-02,7.336428e-02
-1.000767e-01,-1.000490e-01
-2.025599e-01,-2.024811e-01
-7.806951e-02,-7.806998e-02
1.584913e-01,1.584542e-01
5.815044e-02,5.816877e-02
-1.485865e-01,-1.484902e-01
7.581948e-02,7.579312e-02
2.944387e-01,2.942804e-01
2.427404e-01,2.427010e-01
-1.637226e-02,-1.634803e-02
4.927120e-02,4.920153e-02
3.617564e-01,3.609922e-01
1.494005e-01,1.492698e-01
-1.665481e-02,-1.673242e-02
1.019296e-01,1.018027e-01
1.686743e-01,1.684468e-01
-7.710484e-02,-7.711885e-02
2.170980e-02,2.165591e-02
-4.776612e-02,-4.778372e-02
1.674458e-01,1.673689e-01
-1.847305e-02,-1.843221e-02
6.936360e-02,6.933857e-02
-1.685082e-01,-1.684601e-01
-3.742404e-02,-3.747431e-02
-7.328022e-02,-7.328324e-02
1.462478e-01,1.462016e-01
-9.249256e-02,-9.246131e-02
-4.466291e-02,-4.464445e-02
7.156854e-02,7.154503e-02
1.310333e-01,1.309947e-01
1.574238e-01,1.574055e-01
-3.047870e-02,-3.046150e-02
1.069953e-01,1.069320e-01
5.891189e-03,5.832616e-03
-2.553234e-02,-2.558125e-02
-1.450299e-01,-1.449860e-01
8.078624e-02,8.074205e-02
4.493391e-02,4.491310e-02
-7.324557e-04,-7.270435e-04
-1.769300e-01,-1.768573e-01
4.638841e-02,4.637537e-02
1.361946e-01,1.361649e-01
7.443615e-02,7.442645e-02
-3.992863e-04,-3.546500e-04
-1.145561e-01,-1.145417e-01
-6.317595e-02,-6.319624e-02
-6.908277e-02,-6.910239e-02
7.698647e-02,7.699962e-02
-1.670317e-01,-1.669654e-01
-2.013267e-01,-2.012556e-01
-1.699240e-01,-1.699044e-01
2.467444e-02,2.466761e-02
-7.117520e-02,-7.110311e-02
-2.098667e-01,-2.097301e-01
8.644695e-02,8.646913e-02
-1.105235e-01,-1.105249e-01
-5.719098e-02,-5.714571e-02
-1.362810e-02,-1.358834e-02
4.792686e-02,4.789946e-02
3.281131e-02,3.281519e-02
-1.556905e-01,-1.556443e-01
5.209089e-02,5.207902e-02
1.300296e-01,1.299780e-01
-8.067834e-02,-8.069626e-02
-4.725638e-02,-4.722710e-02
8.192517e-02,8.189911e-02
1.972613e-01,1.971835e-01
-4.336308e-02,-4.336268e-02
-8.420464e-02,-8.418922e-02
2.657259e-02,2.653581e-02
7.829465e-02,7.822773e-02
1.177549e-01,1.177540e-01
1.197933e-02,1.200404e-02
4.979396e-02,4.979649e-02
5.496559e-02,5.495656e-02
-6.877117e-02,-6.879540e-02
-1.248505e-02,-1.250749e-02
7.490050e-02,7.488535e-02
1.358984e-02,1.359224e-02
7.793510e-02,7.796832e-02
2.026092e-01,2.025638e-01
1.045710e-01,1.045593e-01
-5.685875e-02,-5.685288e-02
1.514481e-01,1.513864e-01
3.240154e-01,3.237144e-01
6.331524e-02,6.324974e-02
-1.478646e-01,-1.478825e-01
3.436812e-02,3.428076e-02
3.031177e-01,3.028114e-01
1.103012e-01,1.102203e-01
-7.493439e-02,-7.495725e-02
1.294440e-01,1.293677e-01
1.381246e-01,1.380392e-01
4.937843e-02,4.930859e-02
7.928470e-02,7.925127e-02
1.176330e-01,1.175415e-01
-1.813728e-01,-1.813669e-01
4.440779e-02,4.433749e-02
-1.031099e-01,-1.031311e-01
-1.195681e-01,-1.195816e-01
-1.995735e-01,-1.994957e-01
-5.050774e-02,-5.049482e-02
-9.430002e-03,-9.405724e-03
-6.733401e-02,-6.726145e-02
-1.453323e-01,-1.452545e-01
-7.780321e-03,-7.721866e-03
8.474784e-03,8.504474e-03
-1.441676e-01,-1.440956e-01
-7.245491e-02,-7.244847e-02
-2.191886e-02,-2.187379e-02
2.348505e-01,2.348255e-01
-7.186305e-02,-7.176907e-02
1.710212e-01,1.709870e-01
-1.769959e-02,-1.767426e-02
1.293770e-01,1.293265e-01
3.663726e-02,3.666300e-02
3.720921e-01,3.718294e-01
1.241143e-01,1.240862e-01
2.729026e-02,2.726234e-02
3.848411e-02,3.844695e-02
1.034830e-01,1.033819e-01
1.084205e-01,1.083459e-01
5.459456e-02,5.458323e-02
-1.243179e-01,-1.243157e-01
-5.297214e-02,-5.299050e-02
7.689392e-02,7.683688e-02
1.612997e-01,1.612924e-01
-1.949117e-01,-1.948317e-01
-1.658971e-01,-1.658480e-01
2.221663e-02,2.218479e-02
-1.426586e-02,-1.425288e-02
-1.384521e-01,-1.383359e-01
-2.829147e-01,-2.827504e-01
-1.919688e-01,-1.919170e-01
-1.218015e-01,-1.217246e-01
-6.412053e-03,-6.328624e-03
-1.660393e-01,-1.658776e-01
-1.890207e-01,-1.888872e-01
-2.265458e-01,-2.264198e-01
1.501275e-01,1.501277e-01
-1.328107e-01,-1.327243e-01
-2.111541e-01,-2.110438e-01
-1.217452e-01,-1.216795e-01
1.660399e-01,1.660019e-01
-8.879964e-02,-8.876815e-02
-1.610786e-01,-1.610258e-01
7.765421e-02,7.765345e-02
-2.808947e-02,-2.810772e-02
-3.155388e-02,-3.154101e-02
-1.181016e-01,-1.181003e-01
-8.358702e-02,-8.360890e-02
6.926997e-02,6.929045e-02
1.899222e-03,1.937296e-03
9.498357e-02,9.499271e-02
-2.125984e-01,-2.125482e-01
-1.442820e-01,-1.443196e-01
-2.352579e-02,-2.352143e-02
9.699924e-02,9.699225e-02
-4.054956e-02,-4.053208e-02
-5.688014e-02,-5.688955e-02
-4.916066e-02,-4.914764e-02
5.810022e-02,5.809826e-02
1.593419e-01,1.592930e-01
8.582186e-02,8.579754e-02
1.123973e-01,1.123820e-01
1.123989e-01,1.123833e-01
2.106447e-01,2.105459e-01
2.248762e-01,2.247982e-01
1.845245e-01,1.844308e-01
8.866062e-02,8.859908e-02
4.382376e-02,4.374589e-02
9.233788e-02,9.225687e-02
1.456167e-01,1.455047e-01
-3.152658e-02,-3.158864e-02
-5.240264e-02,-5.243153e-02
8.053117e-02,8.050511e-02
1.357412e-01,1.356893e-01
9.032688e-02,9.027672e-02
-1.390121e-01,-1.389917e-01
-1.357280e-01,-1.357585e-01
-9.998056e-02,-1.000069e-01
1.081859e-01,1.081138e-01
-2.207293e-02,-2.205319e-02
-1.244846e-01,-1.244444e-01
-8.567306e-02,-8.562727e-02
-6.079096e-02,-6.081382e-02
-1.245707e-01,-1.245507e-01
-2.323291e-02,-2.319713e-02
-9.207317e-03,-9.153999e-03
5.042324e-02,5.044022e-02
7.413095e-03,7.448885e-03
8.406671e-02,8.406027e-02
-1.970818e-02,-1.969455e-02
-1.148033e-02,-1.150469e-02
-1.488611e-01,-1.488672e-01
7.435992e-02,7.433126e-02
-8.196992e-02,-8.195481e-02
-6.894668e-03,-6.894936e-03
5.046996e-03,5.048748e-03
5.082865e-02,5.082354e-02
-5.847122e-02,-5.845916e-02
-4.446293e-02,-4.446054e-02
-3.904226e-02,-3.906935e-02
-4.263348e-01,-4.260315e-01
-1.945045e-01,-1.944498e-01
-3.407716e-02,-3.402265e-02
1.339271e-01,1.339434e-01
-4.458674e-01,-4.417742e-01
-1.435868e-01,-1.430318e-01
-3.874213e-02,-3.840534e-02
1.609587e-01,1.612562e-01
-2.914056e-01,-2.896876e-01
-5.090830e-02,-5.063255e-02
7.687254e-02,7.701597e-02
2.059404e-01,2.060226e-01
-1.867876e-01,-1.866431e-01
-2.190687e-01,-2.190327e-01
2.509233e-02,2.505295e-02
1.216051e-01,1.215242e-01
-5.449802e-02,-5.441063e-02
-1.176434e-01,-1.175957e-01
-1.095400e-01,-1.095286e-01
6.650028e-02,6.646352e-02
-1.260449e-01,-1.259977e-01
-7.179337e-02,-7.176899e-02
-1.026307e-01,-1.026144e-01
3.547920e-02,3.546358e-02
-6.482932e-02,-6.477475e-02
1.020449e-01,1.020702e-01
1.054502e-01,1.054517e-01
-5.247048e-02,-5.246152e-02
-1.226586e-01,-1.226797e-01
8.559806e-02,8.558149e-02
2.759943e-01,2.759102e-01
2.398463e-02,2.397789e-02
-1.314689e-01,-1.314919e-01
4.950655e-03,4.925722e-03
9.360435e-02,9.353798e-02
1.085088e-01,1.084504e-01
8.244117e-02,8.242625e-02
2.096694e-02,2.097607e-02
-7.386000e-02,-7.386632e-02
1.215414e-01,1.214937e-01
1.524360e-01,1.523832e-01
7.520750e-02,7.520238e-02
2.514903e-02,2.513537e-02
3.499058e-03,3.474860e-03
3.310428e-01,3.308568e-01
8.667092e-02,8.662733e-02
2.495208e-02,2.489709e-02
-2.578290e-01,-2.578303e-01
2.383044e-01,2.380625e-01
1.055681e-01,1.055228e-01
1.191800e-01,1.191498e-01
-6.111612e-02,-6.110237e-02
1.739399e-01,1.737185e-01
1.133657e-01,1.133438e-01
1.411403e-01,1.410696e-01
6.581355e-02,6.576227e-02
2.013349e-01,2.011631e-01
6.518916e-03,6.503447e-03
-1.053847e-01,-1.054498e-01
-1.109708e-01,-1.110308e-01
2.117118e-01,2.115782e-01
-4.933500e-02,-4.928908e-02
6.095504e-03,6.115027e-03
-1.426371e-01,-1.426148e-01
3.489204e-01,3.485392e-01
1.201145e-01,1.201007e-01
-4.102151e-02,-4.099883e-02
-1.666894e-01,-1.666947e-01
3.082963e-01,3.078956e-01
1.451478e-01,1.450509e-01
-6.138061e-02,-6.135314e-02
6.957111e-02,6.953255e-02
1.208284e-01,1.207088e-01
1.922709e-01,1.921803e-01
4.170378e-02,4.171202e-02
8.979646e-02,8.975609e-02
3.634441e-02,3.627424e-02
1.165645e-01,1.165013e-01
1.254327e-01,1.253913e-01
1.350802e-01,1.350386e-01
2.069978e-01,2.069402e-01
9.029695e-03,8.991817e-03
-1.041259e-02,-1.048103e-02
4.601322e-02,4.596241e-02
6.940746e-02,6.936716e-02
-3.065883e-02,-3.066418e-02
-8.809392e-02,-8.812026e-02
-1.825174e-01,-1.824934e-01
2.178369e-02,2.180016e-02
-1.769149e-02,-1.765652e-02
-1.909977e-02,-1.907738e-02
-2.686919e-01,-2.685546e-01
-1.986490e-01,-1.986214e-01
-8.152383e-02,-8.150429e-02
1.037034e-01,1.037089e-01
-9.893032e-02,-9.886587e-02
-2.491320e-02,-2.485755e-02
-1.894360e-02,-1.893118e-02
5.436475e-02,5.435823e-02
1.234234e-01,1.233915e-01
-7.439470e-02,-7.438315e-02
2.886832e-02,2.885071e-02
-7.962443e-02,-7.963263e-02
1.500467e-01,1.499566e-01
2.458626e-01,2.458572e-01
2.053417e-02,2.055974e-02
-3.100180e-02,-3.098904e-02
-1.998233e-02,-2.002328e-02
2.182886e-01,2.181542e-01
8.266750e-02,8.267901e-02
7.868969e-02,7.869632e-02
8.214027e-02,8.212833e-02
2.147928e-02,2.138815e-02
5.685887e-03,5.676082e-03
6.404808e-03,6.377799e-03
1.268608e-01,1.268322e-01
-1.283622e-02,-1.285379e-02
-5.866905e-02,-5.863465e-02
7.276282e-02,7.273032e-02
1.509555e-01,1.509397e-01
-7.090373e-02,-7.088060e-02
-1.661531e-01,-1.660990e-01
3.116439e-03,3.068440e-03
-7.118871e-02,-7.117608e-02
-1.422550e-01,-1.421795e-01
-2.451803e-01,-2.450601e-01
2.942137e-02,2.942040e-02
-1.175518e-01,-1.174696e-01
-1.986083e-02,-1.976853e-02
-4.416940e-02,-4.410697e-02
2.897279e-02,2.898191e-02
-4.821724e-02,-4.816217e-02
-1.571917e-02,-1.568119e-02
5.910889e-02,5.909752e-02
3.596704e-02,3.594396e-02
-8.547570e-02,-8.547105e-02
-3.992648e-02,-3.991378e-02
-6.867655e-02,-6.869023e-02
2.785012e-02,2.782963e-02
6.117568e-02,6.116683e-02
2.333426e-02,2.334748e-02
1.757169e-02,1.759445e-02
-8.507462e-02,-8.506847e-02
-1.319427e-01,-1.319591e-01
8.581925e-02,8.579245e-02
-1.268096e-01,-1.267707e-01
-2.486573e-01,-2.485848e-01
-1.174362e-01,-1.174269e-01
4.007136e-02,4.004658e-02
-1.690402e-02,-1.683035e-02
7.259220e-02,7.267640e-02
8.829948e-02,8.831181e-02
-7.983186e-02,-7.987055e-02
-9.943317e-02,-9.941863e-02
-3.015180e-02,-3.014658e-02
1.760564e-01,1.759890e-01
-3.364035e-02,-3.362383e-02
-8.404627e-02,-8.400685e-02
9.390425e-03,9.412363e-03
9.843120e-02,9.839331e-02
-5.767675e-02,-5.764240e-02
1.332998e-01,1.332761e-01
8.674316e-02,8.673242e-02
2.737730e-01,2.736954e-01
-1.574859e-01,-1.574527e-01
1.099820e-01,1.098966e-01
2.749294e-01,2.747638e-01
2.155457e-01,2.154296e-01
-3.449458e-01,-3.447441e-01
-1.124727e-01,-1.125118e-01
1.560202e-01,1.558952e-01
2.028147e-01,2.027426e-01
-1.964928e-01,-1.962810e-01
-1.317457e-01,-1.316955e-01
-1.009000e-01,-1.009194e-01
-5.824937e-03,-5.827188e-03
-4.978785e-01,-4.973327e-01
-2.799083e-01,-2.797694e-01
-1.482877e-01,-1.481751e-01
-2.512018e-02,-2.500711e-02
-2.196604e-01,-2.196208e-01
-1.275663e-01,-1.275607e-01
-3.979941e-02,-3.980392e-02
9.033402e-03,9.036919e-03
-3.349776e-02,-3.346518e-02
-1.501603e-01,-1.500699e-01
-1.463771e-01,-1.463159e-01
6.561139e-02,6.561257e-02
3.198143e-01,3.197208e-01
-3.686647e-02,-3.679490e-02
-8.456840e-03,-8.427814e-03
-1.379225e-02,-1.380268e-02
1.499237e-01,1.497431e-01
4.223057e-02,4.221263e-02
1.542341e-01,1.541644e-01
1.660936e-01,1.660399e-01
2.633199e-01,2.631704e-01
1.875616e-01,1.874959e-01
7.298003e-02,7.286193e-02
1.261453e-02,1.253312e-02
2.642791e-01,2.640967e-01
7.128873e-02,7.122761e-02
-9.276516e-02,-9.283294e-02
-2.968672e-01,-2.968756e-01
2.065701e-01,2.064944e-01
7.321098e-02,7.323919e-02
-4.754604e-02,-4.745672e-02
-3.394664e-01,-3.390441e-01
1.803610e-01,1.802753e-01
2.031174e-01,2.030911e-01
7.653233e-02,7.657473e-02
-1.375149e-01,-1.374184e-01
8.872598e-02,8.860623e-02
1.785656e-01,1.784858e-01
1.471198e-01,1.470871e-01
1.025632e-01,1.025483e-01
8.982135e-02,8.972386e-02
3.477328e-03,3.423367e-03
-6.763450e-03,-6.831024e-03
4.914831e-02,4.908386e-02
-1.188977e-02,-1.193197e-02
-1.067529e-01,-1.067441e-01
-7.359159e-02,-7.361395e-02
1.049393e-02,1.048082e-02
9.648686e-02,9.651155e-02
-7.906598e-02,-7.902998e-02
4.098836e-02,4.098191e-02
1.939818e-02,1.941468e-02
-1.156125e-02,-1.153694e-02
1.427427e-02,1.426242e-02
1.431309e-01,1.430986e-01
-3.751653e-02,-3.750467e-02
-1.491685e-01,-1.491267e-01
9.889460e-02,9.885626e-02
4.783723e-02,4.781841e-02
-2.072276e-02,-2.072309e-02
1.552085e-02,1.555762e-02
1.339384e-01,1.339199e-01
-4.351812e-02,-4.349323e-02
3.406158e-03,3.403631e-03
-2.167927e-02,-2.169658e-02
-1.784616e-02,-1.784861e-02
1.674714e-02,1.678302e-02
2.062812e-01,2.062776e-01
-2.309077e-01,-2.308867e-01
-1.818593e-01,-1.818235e-01
-9.832562e-02,-9.829882e-02
1.459354e-01,1.459217e-01
1.578544e-01,1.579431e-01
-3.455556e-02,-3.446957e-02
-5.979937e-02,-5.973375e-02
-9.468677e-02,-9.462412e-02
1.988691e-01,1.988111e-01
4.173111e-02,4.172875e-02
-5.763397e-03,-5.759710e-03
-1.570165e-01,-1.569573e-01
-4.277233e-02,-4.284015e-02
-2.061365e-02,-2.064893e-02
-2.859581e-03,-2.900490e-03
2.630027e-02,2.630864e-02
-3.095645e-02,-3.095603e-02
-6.856731e-02,-6.855069e-02
-7.517571e-02,-7.520987e-02
-1.230565e-01,-1.230540e-01
6.346822e-02,6.348082e-02
-3.153604e-02,-3.149307e-02
1.219315e-02,1.220185e-02
-1.534589e-01,-1.534111e-01
1.170420e-01,1.170281e-01
7.865129e-02,7.866138e-02
9.748319e-02,9.750027e-02
-5.057813e-02,-5.054977e-02
-2.021808e-01,-2.022064e-01
-4.873391e-02,-4.876128e-02
-6.045762e-02,-6.043722e-02
1.516390e-01,1.516273e-01
-1.521136e-01,-1.520242e-01
-1.985547e-01,-1.985052e-01
-1.885696e-01,-1.884961e-01
1.557197e-01,1.557029e-01
-1.937289e-01,-1.936022e-01
-1.632975e-01,-1.632117e-01
-5.009103e-02,-5.000999e-02
1.205343e-01,1.205542e-01
-2.677503e-01,-2.675397e-01
-2.463885e-02,-2.459992e-02
3.669040e-02,3.673570e-02
2.573572e-02,2.576797e-02
-2.745748e-01,-2.743580e-01
2.547419e-02,2.546760e-02
-3.514902e-02,-3.513914e-02
1.316498e-01,1.316545e-01
-3.537243e-01,-3.533186e-01
-6.977905e-02,-6.974571e-02
9.562646e-02,9.561022e-02
2.480910e-01,2.480762e-01
-2.557233e-01,-2.554621e-01
-2.577210e-02,-2.572169e-02
8.243332e-02,8.238498e-02
-6.325083e-02,-6.325482e-02
-1.096229e-01,-1.095017e-01
-2.431310e-02,-2.427973e-02
-1.449630e-02,-1.450032e-02
5.970893e-05,9.074933e-05
-9.009407e-03,-8.976722e-03
-1.336124e-01,-1.335515e-01
1.434057e-02,1.435514e-02
6.902863e-02,6.905355e-02
-2.115722e-01,-2.115454e-01
-2.546390e-01,-2.545414e-01
-5.915199e-02,-5.913891e-02
1.485865e-01,1.485968e-01
6.527119e-02,6.536497e-02
-3.921520e-02,-3.912230e-02
-7.827669e-02,-7.823727e-02
-1.086239e-01,-1.086079e-01
1.522689e-01,1.522173e-01
1.215789e-01,1.215930e-01
-4.534995e-02,-4.532155e-02
-1.026779e-01,-1.026522e-01
5.118736e-02,5.109738e-02
2.796676e-02,2.794753e-02
4.951412e-02,4.950706e-02
-3.341317e-02,-3.340265e-02
4.531442e-02,4.527044e-02
-4.179196e-02,-4.179503e-02
-9.706798e-02,-9.706767e-02
-8.793001e-02,-8.793311e-02
-1.835946e-02,-1.838841e-02
-1.984957e-01,-1.984535e-01
-2.052329e-01,-2.051686e-01
-6.854223e-02,-6.853219e-02
2.893742e-01,2.893407e-01
4.504168e-02,4.511067e-02
-8.966595e-02,-8.957214e-02
-1.194470e-02,-1.193401e-02
1.873012e-01,1.871053e-01
5.386699e-03,5.365763e-03
-9.267189e-02,-9.265904e-02
5.536426e-02,5.531987e-02
2.051143e-01,2.048887e-01
5.635243e-02,5.643582e-02
-7.282363e-02,-7.281612e-02
-1.973272e-01,-1.973646e-01
3.219402e-01,3.218522e-01
1.394263e-01,1.397714e-01
7.007479e-04,6.667252e-04
-2.828537e-01,-2.829504e-01
2.895792e-01,2.899262e-01
1.107381e-01,1.110286e-01
7.141261e-02,7.131100e-02
-1.584487e-01,-1.586233e-01
3.574638e-01,3.580489e-01
1.337596e-01,1.339164e-01
1.668060e-01,1.665998e-01
1.096066e-01,1.092931e-01
3.761989e-01,3.753225e-01
1.030752e-01,1.029347e-01
7.246212e-02,7.226368e-02
2.123828e-01,2.120515e-01
4.221076e-01,4.195919e-01
2.171640e-01,2.167813e-01
3.122701e-02,3.098949e-02
-4.930857e-02,-4.959362e-02

