3.177840e-01,2.374530e-01,1.609325e-01,2,0,0.000000e+00,0.000000e+00
4.859320e-01,4.455300e-02,3.910065e-02,3,0,3.509978e-02,3.509985e-02
4.545770e-01,4.361200e-02,3.790855e-02,3,0,1.034526e-01,1.034528e-01
4.859980e-01,4.256200e-02,3.814697e-02,3,0,2.384677e-01,2.384679e-01
4.554390e-01,4.351200e-02,3.886223e-02,3,0,3.808277e-01,3.808281e-01
4.997530e-01,4.276000e-02,3.910065e-02,3,0,3.988352e-01,3.988354e-01
4.555820e-01,4.377100e-02,3.886223e-02,3,0,4.320527e-01,4.320529e-01
4.867920e-01,4.232000e-02,3.814697e-02,3,0,6.384760e-01,6.384766e-01
4.558050e-01,4.354500e-02,3.886223e-02,3,0,7.047879e-01,7.047883e-01
4.607040e-01,4.277000e-02,3.910065e-02,3,0,7.595119e-01,7.595121e-01
4.561580e-01,4.266000e-02,3.886223e-02,3,0,8.689884e-01,8.689888e-01
4.684280e-01,5.950500e-02,5.507469e-02,3,0,7.097819e-01,7.097819e-01
4.708640e-01,4.320800e-02,3.886223e-02,3,0,1.093615e+00,1.093616e+00
4.557450e-01,4.286000e-02,3.814697e-02,3,0,7.283792e-01,7.283790e-01
4.743240e-01,4.283300e-02,3.790855e-02,3,0,1.152556e+00,1.152557e+00
4.557540e-01,5.538200e-02,5.102158e-02,3,0,5.447805e-01,5.447802e-01
4.867760e-01,4.245900e-02,3.814697e-02,3,0,4.460200e-01,4.460202e-01
4.555450e-01,4.303300e-02,3.886223e-02,3,0,7.847522e-01,7.847531e-01
4.861200e-01,4.243700e-02,3.814697e-02,3,0,1.314470e+00,1.314471e+00
4.553030e-01,4.305400e-02,3.790855e-02,3,0,2.227303e+00,2.227305e+00
5.157940e-01,4.270600e-02,3.814697e-02,3,0,1.852410e+00,1.852410e+00
4.561230e-01,4.328000e-02,3.910065e-02,3,0,1.718389e+00,1.718389e+00
4.864730e-01,4.281400e-02,3.814697e-02,3,0,2.544324e+00,2.544326e+00
4.560720e-01,4.293900e-02,3.790855e-02,3,0,2.280948e+00,2.280948e+00
4.862540e-01,4.257300e-02,3.814697e-02,3,0,2.063158e+00,2.063159e+00
4.558140e-01,4.380900e-02,4.005432e-02,3,0,1.731558e+00,1.731558e+00
4.855530e-01,4.257000e-02,3.910065e-02,3,0,1.540910e+00,1.540910e+00
4.558940e-01,4.371100e-02,3.886223e-02,3,0,1.810636e+00,1.810636e+00
4.848070e-01,4.265400e-02,3.910065e-02,3,0,5.563043e-01,5.563036e-01
4.554580e-01,4.344700e-02,3.886223e-02,3,0,3.641648e-01,3.641648e-01
4.854350e-01,4.251000e-02,3.814697e-02,3,0,3.365497e-01,3.365500e-01
4.551900e-01,4.311600e-02,3.790855e-02,3,0,4.595902e-01,4.595905e-01
4.686000e-01,5.944200e-02,5.412102e-02,3,0,4.428659e-01,4.428666e-01
4.715740e-01,4.289200e-02,3.790855e-02,3,0,6.732400e-01,6.732405e-01
4.552650e-01,5.595900e-02,5.197525e-02,3,0,6.421834e-01,6.421836e-01
4.912770e-01,4.281400e-02,3.910065e-02,3,0,2.422255e-01,2.422253e-01
4.558300e-01,4.320000e-02,3.790855e-02,3,0,3.932515e-01,3.932519e-01
4.857010e-01,4.258500e-02,3.814697e-02,3,0,4.172983e-01,4.172984e-01
4.548390e-01,4.326800e-02,3.886223e-02,3,0,7.743819e-01,7.743824e-01
4.860700e-01,4.239300e-02,3.814697e-02,3,0,2.501053e-01,2.501050e-01
4.554260e-01,4.335900e-02,3.886223e-02,3,0,4.375459e-01,4.375462e-01
4.860650e-01,4.251600e-02,3.790855e-02,3,0,3.169482e-01,3.169484e-01
4.551280e-01,4.326300e-02,3.790855e-02,3,0,3.800008e-01,3.800014e-01
4.611740e-01,4.253700e-02,3.790855e-02,3,0,3.148167e-01,3.148168e-01
4.556550e-01,4.279200e-02,3.790855e-02,3,0,2.667884e-01,2.667885e-01
4.610470e-01,4.245100e-02,3.910065e-02,3,0,4.635359e-01,4.635367e-01
4.553250e-01,4.294000e-02,3.790855e-02,3,0,3.015559e-01,3.015560e-01
4.864670e-01,4.252500e-02,3.790855e-02,3,0,2.596246e-01,2.596248e-01
4.555520e-01,4.310900e-02,3.910065e-02,3,0,2.560218e-01,2.560219e-01
4.866520e-01,4.242900e-02,3.790855e-02,3,0,4.332382e-01,4.332385e-01
4.550730e-01,4.300800e-02,3.790855e-02,3,0,5.672675e-01,5.672678e-01
4.849380e-01,4.284400e-02,3.886223e-02,3,0,8.620313e-01,8.620318e-01
4.557910e-01,4.328300e-02,3.910065e-02,3,0,7.057074e-01,7.057074e-01
4.859900e-01,4.237400e-02,3.790855e-02,3,0,4.144252e-01,4.144252e-01
4.554900e-01,4.318500e-02,3.814697e-02,3,0,4.078995e-01,4.078996e-01
4.851590e-01,4.248700e-02,3.790855e-02,3,0,4.136841e-01,4.136842e-01
4.553650e-01,4.340200e-02,3.886223e-02,3,0,5.990073e-01,5.990077e-01
4.679420e-01,5.987500e-02,5.602837e-02,3,0,1.122978e+00,1.122979e+00
4.740930e-01,4.292500e-02,3.886223e-02,3,0,9.771740e-01,9.771741e-01
4.558780e-01,5.540100e-02,5.102158e-02,3,0,8.817201e-01,8.817202e-01
4.862090e-01,4.317700e-02,3.910065e-02,3,0,1.798237e+00,1.798238e+00
4.560630e-01,4.338900e-02,3.790855e-02,3,0,2.956257e+00,2.956259e+00
4.866900e-01,4.235900e-02,3.814697e-02,3,0,2.303533e+00,2.303532e+00
4.557460e-01,4.272000e-02,3.790855e-02,3,0,1.956553e+00,1.956553e+00
4.851450e-01,4.263200e-02,3.814697e-02,3,0,1.484535e+00,1.484534e+00
4.555930e-01,4.330800e-02,3.790855e-02,3,0,1.203136e+00,1.203136e+00
4.606610e-01,4.256600e-02,3.814697e-02,3,0,1.377880e+00,1.377880e+00
4.560360e-01,4.268800e-02,3.790855e-02,3,0,2.218180e+00,2.218182e+00
4.859620e-01,4.230200e-02,3.814697e-02,3,0,7.558988e-01,7.558981e-01
5.037990e-01,4.313400e-02,3.814697e-02,3,0,7.974916e-01,7.974919e-01
4.857830e-01,4.328400e-02,3.790855e-02,3,0,6.048277e-01,6.048279e-01
4.550130e-01,4.316600e-02,3.790855e-02,3,0,4.514257e-01,4.514257e-01
4.850320e-01,4.259400e-02,3.910065e-02,3,0,4.350060e-01,4.350062e-01
4.552520e-01,4.352000e-02,3.886223e-02,3,0,5.215430e-01,5.215433e-01
4.612410e-01,4.261800e-02,3.814697e-02,3,0,4.921573e-01,4.921574e-01
4.547910e-01,4.262000e-02,3.790855e-02,3,0,7.567774e-01,7.567778e-01
4.848940e-01,4.243000e-02,3.790855e-02,3,0,9.209700e-01,9.209704e-01
4.553280e-01,4.344700e-02,3.910065e-02,3,0,4.773739e-01,4.773740e-01
4.676360e-01,5.982600e-02,5.507469e-02,3,0,4.190770e-01,4.190771e-01
4.725990e-01,4.304200e-02,3.814697e-02,3,0,3.431880e-01,3.431880e-01
4.554000e-01,5.567300e-02,5.102158e-02,3,0,5.072726e-01,5.072731e-01
4.610060e-01,4.250300e-02,3.814697e-02,3,0,5.198884e-01,5.198885e-01
4.552840e-01,4.272300e-02,3.790855e-02,3,0,7.278837e-01,7.278842e-01
4.863890e-01,4.214300e-02,3.695488e-02,3,0,4.897683e-01,4.897682e-01
4.559770e-01,4.334200e-02,3.886223e-02,3,0,4.135923e-01,4.135923e-01
4.856980e-01,4.250600e-02,3.814697e-02,3,0,4.452254e-01,4.452256e-01
4.554250e-01,4.306300e-02,3.790855e-02,3,0,3.711325e-01,3.711325e-01
4.854820e-01,4.254700e-02,3.814697e-02,3,0,2.819337e-01,2.819339e-01
4.550970e-01,4.281900e-02,3.910065e-02,3,0,5.028439e-01,5.028444e-01
4.855410e-01,4.256400e-02,3.790855e-02,3,0,3.931963e-01,3.931964e-01
4.548770e-01,4.291800e-02,3.814697e-02,3,0,1.046710e+00,1.046711e+00
4.855000e-01,4.242400e-02,3.814697e-02,3,0,1.456491e+00,1.456492e+00
4.559340e-01,4.319200e-02,3.790855e-02,3,0,2.356779e+00,2.356780e+00
4.853530e-01,4.188600e-02,3.814697e-02,3,0,3.936968e+00,3.936971e+00
4.560110e-01,4.319400e-02,3.790855e-02,3,0,2.433601e+00,2.433600e+00
4.851860e-01,4.229000e-02,3.814697e-02,3,0,2.141580e+00,2.141580e+00
4.555420e-01,4.316200e-02,3.790855e-02,3,0,2.295608e+00,2.295609e+00
4.855780e-01,4.219400e-02,3.695488e-02,3,0,1.904135e+00,1.904135e+00
4.558960e-01,4.302400e-02,3.910065e-02,3,0,2.231896e+00,2.231897e+00
4.854520e-01,4.233600e-02,3.790855e-02,3,0,1.438066e+00,1.438066e+00
4.556860e-01,4.296200e-02,3.910065e-02,3,0,1.279181e+00,1.279181e+00
4.684750e-01,6.002900e-02,5.578995e-02,3,0,8.650538e-01,8.650537e-01
4.717750e-01,4.297000e-02,3.910065e-02,3,0,1.382972e+00,1.382973e+00
4.556320e-01,5.585300e-02,5.102158e-02,3,0,6.988943e-01,6.988940e-01
4.605980e-01,4.309000e-02,3.910065e-02,3,0,5.490054e-01,5.490058e-01
4.555930e-01,4.274900e-02,3.814697e-02,3,0,7.807711e-01,7.807716e-01
4.604020e-01,4.238000e-02,3.790855e-02,3,0,6.160990e-01,6.160991e-01
4.552180e-01,4.278300e-02,3.910065e-02,3,0,1.007634e+00,1.007635e+00
4.857570e-01,4.275600e-02,3.790855e-02,3,0,8.136881e-01,8.136881e-01
4.564630e-01,4.293900e-02,3.910065e-02,3,0,6.292142e-01,6.292142e-01
4.864850e-01,4.267300e-02,3.790855e-02,3,0,5.634306e-01,5.634307e-01
4.550290e-01,4.277300e-02,3.814697e-02,3,0,7.673659e-01,7.673666e-01
4.860380e-01,4.206900e-02,3.790855e-02,3,0,1.154754e+00,1.154754e+00
4.558070e-01,4.299300e-02,3.910065e-02,3,0,1.434301e+00,1.434301e+00
4.856610e-01,4.239800e-02,3.695488e-02,3,0,6.404953e-01,6.404948e-01
4.558380e-01,4.333000e-02,3.886223e-02,3,0,5.480785e-01,5.480786e-01
4.854720e-01,4.225500e-02,3.790855e-02,3,0,6.103144e-01,6.103147e-01
4.557020e-01,4.297500e-02,3.790855e-02,3,0,4.149556e-01,4.149556e-01
4.853100e-01,4.218600e-02,3.814697e-02,3,0,8.188365e-01,8.188374e-01
4.553250e-01,4.314800e-02,3.886223e-02,3,0,1.531546e+00,1.531547e+00
4.866240e-01,4.247200e-02,3.790855e-02,3,0,2.890315e+00,2.890317e+00
4.555330e-01,4.286100e-02,3.790855e-02,3,0,1.990763e+00,1.990762e+00
4.855750e-01,4.210400e-02,3.790855e-02,3,0,1.498936e+00,1.498936e+00
4.557170e-01,4.322500e-02,3.910065e-02,3,0,1.540911e+00,1.540911e+00
4.845040e-01,4.244300e-02,3.790855e-02,3,0,1.408823e+00,1.408824e+00
4.555960e-01,4.308800e-02,3.790855e-02,3,0,9.866503e-01,9.866505e-01
4.678280e-01,6.083600e-02,5.578995e-02,3,0,1.832814e+00,1.832815e+00
4.609420e-01,4.295800e-02,3.814697e-02,3,0,2.223198e+00,2.223199e+00
4.555220e-01,4.256500e-02,3.790855e-02,3,0,3.532463e+00,3.532465e+00
5.218840e-01,4.219800e-02,3.814697e-02,3,0,3.717180e+00,3.717181e+00
4.559270e-01,4.322900e-02,3.910065e-02,3,0,3.992862e+00,3.992863e+00
4.870380e-01,4.271500e-02,3.814697e-02,3,0,4.470101e+00,4.470103e+00
4.559580e-01,4.330600e-02,3.790855e-02,3,0,3.669066e+00,3.669066e+00
4.867960e-01,4.240200e-02,3.814697e-02,3,0,3.213641e+00,3.213641e+00
4.556870e-01,4.336100e-02,3.910065e-02,3,0,2.792247e+00,2.792247e+00
4.615820e-01,4.221200e-02,3.695488e-02,3,0,3.109779e+00,3.109780e+00
4.553750e-01,4.265900e-02,3.814697e-02,3,0,2.114801e+00,2.114800e+00
4.610070e-01,9.860300e-02,9.512901e-02,3,1,2.225204e+00,2.225082e+00
9.385130e-01,9.060900e-02,8.606911e-02,6,1,2.738294e+00,2.735544e+00
4.554880e-01,4.319400e-02,3.790855e-02,3,0,2.221659e+00,2.221637e+00
4.864610e-01,4.239600e-02,3.814697e-02,3,0,1.650161e+00,1.650161e+00
4.559950e-01,4.288700e-02,3.790855e-02,3,0,1.869231e+00,1.869231e+00
4.862320e-01,4.243400e-02,3.814697e-02,3,0,1.928029e+00,1.928030e+00
4.557140e-01,4.312500e-02,3.790855e-02,3,0,1.735486e+00,1.735487e+00
4.867820e-01,4.285800e-02,3.814697e-02,3,0,1.736585e+00,1.736585e+00
4.557610e-01,4.302500e-02,3.886223e-02,3,0,1.325054e+00,1.325054e+00
4.681880e-01,5.999500e-02,5.483627e-02,3,0,7.079455e-01,7.079451e-01
4.722540e-01,4.262800e-02,3.790855e-02,3,0,3.528641e-01,3.528641e-01
4.555470e-01,5.542600e-02,5.102158e-02,3,0,2.693829e-01,2.693830e-01
4.854190e-01,4.259000e-02,3.790855e-02,3,0,2.896460e-01,2.896463e-01
4.554790e-01,4.292600e-02,3.790855e-02,3,0,1.805448e-01,1.805448e-01
4.853720e-01,4.207800e-02,3.814697e-02,3,0,3.065661e-01,3.065665e-01
4.547540e-01,4.291200e-02,3.790855e-02,3,0,2.041230e-01,2.041233e-01
4.847910e-01,4.242600e-02,3.790855e-02,3,0,4.073573e-02,4.073585e-02
4.544310e-01,4.299200e-02,3.814697e-02,3,0,1.003399e-01,1.003400e-01
4.847200e-01,4.197200e-02,3.695488e-02,3,0,5.443228e-02,5.443242e-02
4.543100e-01,4.283400e-02,3.910065e-02,3,0,9.711549e-02,9.711559e-02
4.610620e-01,4.233700e-02,3.790855e-02,3,0,2.663138e-01,2.663144e-01
4.551660e-01,4.264300e-02,3.814697e-02,3,0,3.469568e-01,3.469571e-01
4.856970e-01,4.228300e-02,3.790855e-02,3,0,2.785445e-01,2.785448e-01
4.543900e-01,4.276200e-02,3.814697e-02,3,0,2.248820e-01,2.248821e-01
4.856760e-01,4.239500e-02,3.814697e-02,3,0,3.563596e-01,3.563599e-01
4.548840e-01,4.306600e-02,3.886223e-02,3,0,1.337505e-01,1.337504e-01
4.855290e-01,4.126400e-02,3.695488e-02,3,0,2.290935e-01,2.290937e-01
4.551450e-01,4.314900e-02,3.910065e-02,3,0,2.901853e-01,2.901855e-01
4.605440e-01,4.239000e-02,3.790855e-02,3,0,3.154968e-01,3.154969e-01
4.552880e-01,4.231600e-02,3.790855e-02,3,0,2.519406e-01,2.519408e-01
4.603260e-01,4.192900e-02,3.814697e-02,3,0,1.565442e-01,1.565442e-01
4.553520e-01,4.261300e-02,3.910065e-02,3,0,1.062822e-01,1.062823e-01
4.841170e-01,4.213400e-02,3.695488e-02,3,0,2.559099e-01,2.559103e-01
4.550160e-01,4.282700e-02,3.790855e-02,3,0,1.814426e-01,1.814427e-01
4.800940e-01,4.215800e-02,3.814697e-02,3,0,1.953824e-01,1.953825e-01
4.548190e-01,4.278600e-02,3.814697e-02,3,0,2.328300e-01,2.328302e-01
4.666380e-01,5.995000e-02,5.483627e-02,3,0,1.697740e-01,1.697740e-01
4.607430e-01,4.294200e-02,3.790855e-02,3,0,2.663540e-01,2.663545e-01
4.552270e-01,4.218700e-02,3.719330e-02,3,0,4.098483e-01,4.098486e-01
4.854770e-01,4.208900e-02,3.695488e-02,3,0,3.180381e-01,3.180381e-01
4.554850e-01,4.268200e-02,3.790855e-02,3,0,1.430042e+00,1.430044e+00
4.864610e-01,4.236300e-02,3.814697e-02,3,0,1.788364e+00,1.788365e+00
4.563210e-01,4.297200e-02,3.790855e-02,3,0,1.474830e+00,1.474830e+00
4.855520e-01,4.193800e-02,3.814697e-02,3,0,1.355381e+00,1.355381e+00
4.553420e-01,4.275000e-02,3.886223e-02,3,0,1.042472e+00,1.042472e+00
4.848720e-01,4.211200e-02,3.790855e-02,3,0,1.334291e+00,1.334292e+00
4.558710e-01,4.286400e-02,3.814697e-02,3,0,1.230955e+00,1.230955e+00
4.852890e-01,4.204600e-02,3.790855e-02,3,0,1.404735e+00,1.404736e+00
4.548970e-01,4.278600e-02,3.790855e-02,3,0,1.873616e+00,1.873617e+00
4.850720e-01,4.245100e-02,3.814697e-02,3,0,2.874298e+00,2.874300e+00
4.562390e-01,4.323400e-02,3.910065e-02,3,0,2.471470e+00,2.471470e+00
4.612820e-01,4.240900e-02,3.790855e-02,3,0,1.886003e+00,1.886003e+00
4.555390e-01,4.259000e-02,3.790855e-02,3,0,1.647691e+00,1.647691e+00
4.622100e-01,4.218200e-02,3.790855e-02,3,0,1.730757e+00,1.730758e+00
4.555220e-01,4.240500e-02,3.790855e-02,3,0,1.161710e+00,1.161710e+00
4.862540e-01,4.198100e-02,3.790855e-02,3,0,1.889521e+00,1.889522e+00
4.547470e-01,4.235800e-02,3.814697e-02,3,0,8.547874e-01,8.547869e-01
4.850980e-01,4.211900e-02,3.790855e-02,3,0,9.379096e-01,9.379100e-01
4.547970e-01,4.301000e-02,3.790855e-02,3,0,1.033781e+00,1.033782e+00
4.854440e-01,4.208600e-02,3.814697e-02,3,0,1.237132e+00,1.237133e+00
4.558880e-01,4.310900e-02,3.814697e-02,3,0,1.353387e+00,1.353388e+00
4.559720e-01,4.716100e-02,4.291534e-02,3,0,1.001206e+00,1.001206e+00
4.557000e-01,4.220300e-02,3.814697e-02,3,0,8.080351e-01,8.080351e-01
4.666660e-01,5.950800e-02,5.483627e-02,3,0,6.359457e-01,6.359458e-01
4.729280e-01,4.320100e-02,3.790855e-02,3,0,5.338965e-01,5.338965e-01
4.552900e-01,5.462900e-02,5.006790e-02,3,0,4.474645e-01,4.474648e-01
4.613700e-01,4.227600e-02,3.790855e-02,3,0,4.957246e-01,4.957249e-01
4.556650e-01,4.269300e-02,3.814697e-02,3,0,4.061026e-01,4.061027e-01
4.620220e-01,4.188100e-02,3.790855e-02,3,0,2.540102e-01,2.540102e-01
4.553340e-01,4.229900e-02,3.695488e-02,3,0,2.972966e-01,2.972968e-01
4.851930e-01,4.240200e-02,3.790855e-02,3,0,4.494690e-01,4.494694e-01
4.547920e-01,4.303300e-02,3.886223e-02,3,0,4.834589e-01,4.834591e-01
4.853790e-01,4.234600e-02,3.790855e-02,3,0,4.037176e-01,4.037176e-01
4.546340e-01,4.261000e-02,3.814697e-02,3,0,4.342824e-01,4.342828e-01
4.977540e-01,4.236000e-02,3.790855e-02,3,0,4.056502e-01,4.056503e-01
4.555460e-01,5.523200e-02,5.102158e-02,3,0,5.168439e-01,5.168444e-01
4.852300e-01,4.235000e-02,3.814697e-02,3,0,5.481992e-01,5.481996e-01
4.560900e-01,4.269500e-02,3.814697e-02,3,0,5.909448e-01,5.909453e-01
4.859420e-01,4.249400e-02,3.886223e-02,3,0,7.471006e-01,7.471010e-01
4.548160e-01,4.268500e-02,3.814697e-02,3,0,8.887404e-01,8.887407e-01
4.850490e-01,4.201400e-02,3.695488e-02,3,0,5.817706e-01,5.817705e-01
4.550590e-01,4.306600e-02,3.886223e-02,3,0,6.010728e-01,6.010730e-01
4.846760e-01,4.201300e-02,3.814697e-02,3,0,6.108234e-01,6.108236e-01
4.552600e-01,4.318900e-02,3.814697e-02,3,0,7.044646e-01,7.044651e-01
4.917530e-01,4.221700e-02,3.695488e-02,3,0,8.125686e-01,8.125689e-01
4.547110e-01,4.295000e-02,3.814697e-02,3,0,1.848154e+00,1.848156e+00
4.685150e-01,5.908600e-02,5.483627e-02,3,0,1.356840e+00,1.356840e+00
4.730450e-01,4.271800e-02,3.886223e-02,3,0,1.481643e+00,1.481644e+00
4.559590e-01,5.472300e-02,5.006790e-02,3,0,1.156074e+00,1.156074e+00
4.607070e-01,4.208600e-02,3.695488e-02,3,0,1.111418e+00,1.111418e+00
4.555230e-01,4.264000e-02,3.814697e-02,3,0,9.806856e-01,9.806857e-01
4.600170e-01,4.223500e-02,3.790855e-02,3,0,9.531802e-01,9.531805e-01
4.554240e-01,4.255200e-02,3.886223e-02,3,0,1.062558e+00,1.062558e+00
4.847910e-01,4.240000e-02,3.814697e-02,3,0,4.214671e-01,4.214669e-01
4.552490e-01,4.285200e-02,3.814697e-02,3,0,2.756981e-01,2.756981e-01
4.856040e-01,4.241800e-02,3.790855e-02,3,0,1.482065e-01,1.482066e-01
4.545540e-01,4.312300e-02,3.910065e-02,3,0,2.607914e-01,2.607917e-01
4.855250e-01,4.218500e-02,3.814697e-02,3,0,6.658288e-01,6.658294e-01
4.549330e-01,4.317600e-02,3.910065e-02,3,0,4.933537e-01,4.933536e-01
4.859370e-01,4.233300e-02,3.814697e-02,3,0,1.133017e+00,1.133018e+00
4.556370e-01,4.249400e-02,3.790855e-02,3,0,9.072370e-01,9.072369e-01
4.856330e-01,4.217700e-02,3.814697e-02,3,0,8.143942e-01,8.143946e-01
4.550880e-01,4.283000e-02,3.814697e-02,3,0,1.149616e+00,1.149617e+00
4.859110e-01,4.233000e-02,3.790855e-02,3,0,3.401646e-01,3.401644e-01
4.547790e-01,4.272800e-02,3.814697e-02,3,0,3.132861e-01,3.132862e-01
4.840930e-01,4.210600e-02,3.814697e-02,3,0,3.987878e-01,3.987884e-01
4.553870e-01,4.295400e-02,3.910065e-02,3,0,1.585728e-01,1.585729e-01
4.845770e-01,4.254800e-02,3.790855e-02,3,0,8.555801e-02,8.555818e-02
4.547140e-01,4.323900e-02,3.790855e-02,3,0,1.152998e-01,1.152999e-01
4.846100e-01,4.221000e-02,3.814697e-02,3,0,2.204889e-01,2.204891e-01
4.551350e-01,4.302700e-02,3.790855e-02,3,0,2.761404e-01,2.761405e-01
4.671480e-01,5.885600e-02,5.507469e-02,3,0,2.190735e-01,2.190735e-01
4.603600e-01,4.249100e-02,3.886223e-02,3,0,2.176009e-01,2.176010e-01
4.551970e-01,4.215300e-02,3.814697e-02,3,0,7.867497e-01,7.867509e-01
4.733900e-01,4.203800e-02,3.695488e-02,3,0,1.736283e+00,1.736284e+00
4.551970e-01,5.445100e-02,5.006790e-02,3,0,6.792441e-01,6.792438e-01
4.856830e-01,4.205400e-02,3.790855e-02,3,0,9.160001e-01,9.160006e-01
4.559960e-01,4.273800e-02,3.814697e-02,3,0,6.192942e-01,6.192942e-01
4.869530e-01,4.215200e-02,3.790855e-02,3,0,5.530663e-01,5.530663e-01
4.552930e-01,4.256400e-02,3.814697e-02,3,0,4.654757e-01,4.654758e-01
4.605360e-01,4.211100e-02,3.790855e-02,3,0,4.307467e-01,4.307468e-01
4.550220e-01,4.254600e-02,3.814697e-02,3,0,4.878677e-01,4.878679e-01
4.603100e-01,4.192900e-02,3.695488e-02,3,0,3.599112e-01,3.599113e-01
4.551910e-01,4.213800e-02,3.790855e-02,3,0,3.691628e-01,3.691631e-01
4.850230e-01,4.225200e-02,3.790855e-02,3,0,7.133570e-01,7.133576e-01
4.551660e-01,4.282100e-02,3.910065e-02,3,0,4.178820e-01,4.178818e-01
4.860190e-01,4.225300e-02,3.790855e-02,3,0,2.702821e-01,2.702821e-01
4.551220e-01,4.309400e-02,3.790855e-02,3,0,2.538793e-01,2.538794e-01
4.851240e-01,4.202000e-02,3.814697e-02,3,0,3.746974e-01,3.746977e-01
4.553540e-01,4.297200e-02,3.910065e-02,3,0,3.153493e-01,3.153495e-01
4.858610e-01,4.235500e-02,3.790855e-02,3,0,6.272151e-01,6.272155e-01
4.798430e-01,4.281900e-02,3.910065e-02,3,0,1.022667e+00,1.022668e+00
4.848570e-01,4.267400e-02,3.790855e-02,3,0,1.140541e+00,1.140541e+00
4.560960e-01,4.284800e-02,3.790855e-02,3,0,6.973534e-01,6.973536e-01
4.847590e-01,4.216600e-02,3.814697e-02,3,0,7.230059e-01,7.230063e-01
4.554900e-01,4.270900e-02,3.814697e-02,3,0,5.583312e-01,5.583313e-01
4.675450e-01,5.922200e-02,5.507469e-02,3,0,5.857979e-01,5.857980e-01
4.730420e-01,4.268500e-02,3.814697e-02,3,0,5.556557e-01,5.556559e-01
4.557890e-01,5.517300e-02,5.006790e-02,3,0,4.029075e-01,4.029075e-01
4.851240e-01,4.248400e-02,3.790855e-02,3,0,2.112056e-01,2.112056e-01
4.553980e-01,4.291500e-02,3.814697e-02,3,0,3.316539e-01,3.316542e-01
4.850590e-01,4.229000e-02,3.790855e-02,3,0,3.113733e-01,3.113734e-01
4.553660e-01,4.265000e-02,3.886223e-02,3,0,5.802038e-01,5.802045e-01
4.605060e-01,4.220700e-02,3.814697e-02,3,0,6.619695e-01,6.619698e-01
4.554750e-01,4.225300e-02,3.790855e-02,3,0,1.088047e+00,1.088048e+00
4.849520e-01,4.235300e-02,3.790855e-02,3,0,1.131817e+00,1.131817e+00
4.550030e-01,4.277000e-02,3.814697e-02,3,0,6.310928e-01,6.310929e-01
4.872370e-01,4.243700e-02,3.790855e-02,3,0,6.294903e-01,6.294906e-01
4.555590e-01,4.290300e-02,3.910065e-02,3,0,6.831797e-01,6.831802e-01
4.849460e-01,4.228800e-02,3.790855e-02,3,0,4.795000e-01,4.794999e-01
4.548740e-01,4.263700e-02,3.790855e-02,3,0,3.228771e-01,3.228776e-01
4.603020e-01,4.240100e-02,3.790855e-02,3,0,4.593111e-01,4.593114e-01
4.557550e-01,4.209400e-02,3.814697e-02,3,0,8.894112e-01,8.894120e-01
4.606080e-01,4.233100e-02,3.790855e-02,3,0,7.505719e-01,7.505721e-01
4.551820e-01,4.226100e-02,3.814697e-02,3,0,5.670748e-01,5.670747e-01
4.848960e-01,4.200900e-02,3.814697e-02,3,0,5.030209e-01,5.030210e-01
4.550500e-01,4.294600e-02,3.790855e-02,3,0,1.348515e+00,1.348517e+00
4.850820e-01,4.218500e-02,3.790855e-02,3,0,1.395328e+00,1.395329e+00
4.558030e-01,4.262900e-02,3.910065e-02,3,0,2.733779e+00,2.733781e+00
4.856870e-01,4.236700e-02,3.790855e-02,3,0,2.635848e+00,2.635848e+00
4.549120e-01,4.302200e-02,3.910065e-02,3,0,3.147732e+00,3.147733e+00
4.558720e-01,4.678100e-02,4.220009e-02,3,0,2.992251e+00,2.992252e+00
4.555160e-01,4.229400e-02,3.790855e-02,3,0,2.836345e+00,2.836346e+00
4.683870e-01,5.972300e-02,5.507469e-02,3,0,2.489220e+00,2.489220e+00
4.730060e-01,4.269400e-02,3.790855e-02,3,0,2.189520e+00,2.189520e+00
4.558450e-01,5.493400e-02,5.102158e-02,3,0,2.081997e+00,2.081997e+00
4.853960e-01,4.226300e-02,3.814697e-02,3,0,2.048819e+00,2.048819e+00
4.556480e-01,4.285800e-02,3.790855e-02,3,0,1.258493e+00,1.258492e+00
4.858940e-01,4.216500e-02,3.814697e-02,3,0,5.969008e-01,5.969010e-01
4.548380e-01,4.283200e-02,3.814697e-02,3,0,7.721754e-01,7.721761e-01
4.842600e-01,4.210700e-02,3.790855e-02,3,0,1.154291e+00,1.154292e+00
4.550980e-01,4.266000e-02,3.790855e-02,3,0,5.854618e-01,5.854618e-01
4.854700e-01,4.195700e-02,3.790855e-02,3,0,3.814537e-01,3.814537e-01
4.551360e-01,4.292800e-02,3.814697e-02,3,0,9.753628e-01,9.753640e-01
4.607210e-01,4.192300e-02,3.790855e-02,3,0,6.383440e-01,6.383439e-01
4.555790e-01,4.250000e-02,3.814697e-02,3,0,4.742022e-01,4.742021e-01
4.606850e-01,4.207000e-02,3.790855e-02,3,0,3.624889e-01,3.624889e-01
4.550170e-01,4.214400e-02,3.790855e-02,3,0,3.409376e-01,3.409379e-01
4.848920e-01,4.219200e-02,3.814697e-02,3,0,5.809597e-01,5.809603e-01
4.555460e-01,4.258800e-02,3.814697e-02,3,0,1.749116e+00,1.749118e+00
4.860760e-01,4.228300e-02,3.790855e-02,3,0,1.971806e+00,1.971807e+00
4.552990e-01,4.313800e-02,3.814697e-02,3,0,2.335479e+00,2.335480e+00
4.606590e-01,4.226500e-02,3.790855e-02,3,0,1.885438e+00,1.885438e+00
4.554990e-01,4.279800e-02,3.814697e-02,3,0,2.247366e+00,2.247367e+00
4.600150e-01,4.223800e-02,3.790855e-02,3,0,2.124600e+00,2.124600e+00
4.555230e-01,4.252800e-02,3.790855e-02,3,0,1.911784e+00,1.911784e+00
4.845000e-01,4.218600e-02,3.814697e-02,3,0,1.603223e+00,1.603223e+00
4.554450e-01,4.261500e-02,3.814697e-02,3,0,1.331927e+00,1.331928e+00
4.844380e-01,4.201600e-02,3.790855e-02,3,0,1.209192e+00,1.209192e+00
4.550820e-01,4.318700e-02,3.790855e-02,3,0,1.257603e+00,1.257603e+00
4.555380e-01,4.710900e-02,4.315376e-02,3,0,1.263934e+00,1.263935e+00
4.551670e-01,4.226300e-02,3.790855e-02,3,0,3.281255e-01,3.281251e-01
4.554350e-01,4.662800e-02,4.196167e-02,3,0,2.902001e-01,2.902002e-01
4.712930e-01,4.215300e-02,3.790855e-02,3,0,6.101931e-01,6.101936e-01
4.554150e-01,5.534600e-02,3.886223e-02,3,0,3.678576e-01,3.678574e-01
4.740550e-01,4.246500e-02,3.790855e-02,3,0,3.964527e-01,3.964529e-01
4.555960e-01,5.445400e-02,3.790855e-02,3,0,7.324554e-01,7.324562e-01
4.856590e-01,4.222000e-02,3.814697e-02,3,0,6.633741e-01,6.633743e-01
4.549600e-01,4.272500e-02,3.790855e-02,3,0,6.906860e-01,6.906862e-01
4.858390e-01,4.233700e-02,3.790855e-02,3,0,1.103771e+00,1.103772e+00
4.558220e-01,4.274600e-02,3.814697e-02,3,0,6.264896e-01,6.264893e-01
4.857610e-01,4.191500e-02,3.790855e-02,3,0,4.224494e-01,4.224497e-01
4.545540e-01,4.260400e-02,3.910065e-02,3,0,4.098293e-01,4.098295e-01
4.845740e-01,4.183400e-02,3.814697e-02,3,0,3.665335e-01,3.665336e-01
4.542730e-01,4.260800e-02,3.814697e-02,3,0,3.349081e-01,3.349082e-01
4.851480e-01,4.252900e-02,3.790855e-02,3,0,7.009789e-01,7.009798e-01
4.544670e-01,4.302800e-02,3.886223e-02,3,0,1.188361e+00,1.188362e+00
4.859030e-01,4.202800e-02,3.790855e-02,3,0,1.051623e+00,1.051623e+00
4.558560e-01,4.309200e-02,3.814697e-02,3,0,1.396113e+00,1.396114e+00
4.847430e-01,4.245200e-02,3.790855e-02,3,0,1.646333e+00,1.646333e+00
4.560950e-01,4.286400e-02,3.910065e-02,3,0,2.388139e+00,2.388141e+00
4.860160e-01,4.240800e-02,3.790855e-02,3,0,2.843103e+00,2.843105e+00
4.558610e-01,4.308500e-02,3.910065e-02,3,0,2.465178e+00,2.465178e+00
4.604860e-01,4.236900e-02,3.886223e-02,3,0,2.422629e+00,2.422629e+00
4.556210e-01,4.256200e-02,3.814697e-02,3,0,1.666146e+00,1.666146e+00
4.551630e-01,4.195000e-02,3.695488e-02,3,0,1.449653e+00,1.449654e+00
4.553370e-01,4.234200e-02,3.790855e-02,3,0,2.320722e+00,2.320724e+00
4.680310e-01,5.889100e-02,5.412102e-02,3,0,1.694677e+00,1.694677e+00
4.718120e-01,4.258800e-02,3.814697e-02,3,0,2.865584e+00,2.865582e+00
4.701800e-01,5.463100e-02,4.911423e-02,3,0,1.394136e+00,1.394128e+00
4.874060e-01,4.343000e-02,3.790855e-02,3,0,9.572160e-01,9.572159e-01
4.562010e-01,4.277200e-02,3.790855e-02,3,0,1.312076e+00,1.312077e+00
4.873370e-01,4.255500e-02,3.814697e-02,3,0,2.066983e+00,2.066984e+00
4.564150e-01,4.330200e-02,3.790855e-02,3,0,1.749646e+00,1.749646e+00
4.863020e-01,4.227300e-02,3.790855e-02,3,0,1.536070e+00,1.536070e+00
4.563000e-01,4.267000e-02,3.790855e-02,3,0,1.218429e+00,1.218429e+00
4.862060e-01,4.253300e-02,3.790855e-02,3,0,8.516238e-01,8.516238e-01
4.556900e-01,4.269400e-02,3.790855e-02,3,0,6.102856e-01,6.102856e-01
4.862380e-01,4.213800e-02,3.790855e-02,3,0,7.693813e-01,7.693818e-01
4.567050e-01,4.258400e-02,3.790855e-02,3,0,3.363089e-01,3.363088e-01
4.902430e-01,4.218900e-02,3.790855e-02,3,0,8.513562e-01,8.513572e-01
4.558710e-01,4.278700e-02,3.790855e-02,3,0,2.755210e+00,2.755213e+00
4.864370e-01,4.227800e-02,3.814697e-02,3,0,3.962741e+00,3.962743e+00
4.564920e-01,4.268400e-02,3.886223e-02,3,0,2.697363e+00,2.697363e+00
4.858550e-01,4.209400e-02,3.814697e-02,3,0,2.468030e+00,2.468030e+00
4.565790e-01,4.263900e-02,3.790855e-02,3,0,2.291510e+00,2.291510e+00
4.615500e-01,4.202800e-02,3.719330e-02,3,0,2.118448e+00,2.118448e+00
4.560640e-01,4.227300e-02,3.790855e-02,3,0,1.387076e+00,1.387075e+00
4.890430e-01,4.219900e-02,3.719330e-02,3,0,1.108676e+00,1.108676e+00
4.555470e-01,4.320600e-02,3.814697e-02,3,0,1.041988e+00,1.041989e+00
4.674720e-01,6.093900e-02,5.602837e-02,3,0,1.231970e+00,1.231970e+00
4.746450e-01,4.277300e-02,3.814697e-02,3,0,1.942148e+00,1.942150e+00
4.563400e-01,5.495500e-02,4.982948e-02,3,0,1.620303e+00,1.620303e+00
4.623030e-01,4.227400e-02,3.790855e-02,3,0,1.377465e+00,1.377465e+00
4.562740e-01,4.248400e-02,3.814697e-02,3,0,1.210466e+00,1.210466e+00
4.734620e-01,4.249300e-02,3.790855e-02,3,0,8.858853e-01,8.858852e-01
4.565410e-01,4.341500e-02,3.886223e-02,3,0,8.354287e-01,8.354288e-01
4.866320e-01,4.219400e-02,3.695488e-02,3,0,4.592223e-01,4.592224e-01
4.561250e-01,4.290800e-02,3.910065e-02,3,0,4.889316e-01,4.889319e-01
4.867460e-01,4.231500e-02,3.695488e-02,3,0,6.964676e-01,6.964681e-01
4.560380e-01,4.290800e-02,3.910065e-02,3,0,1.227413e+00,1.227414e+00
5.113200e-01,4.224400e-02,3.790855e-02,3,0,1.823234e+00,1.823235e+00
4.563010e-01,4.320800e-02,3.910065e-02,3,0,1.770384e+00,1.770384e+00
4.868080e-01,4.215400e-02,3.790855e-02,3,0,1.647259e+00,1.647259e+00
4.564820e-01,4.317000e-02,3.910065e-02,3,0,1.776262e+00,1.776263e+00
4.855840e-01,4.260200e-02,3.790855e-02,3,0,1.494137e+00,1.494137e+00
4.559830e-01,4.272600e-02,3.814697e-02,3,0,1.373106e+00,1.373107e+00
4.856710e-01,4.210800e-02,3.790855e-02,3,0,9.824747e-01,9.824747e-01
4.562400e-01,4.285200e-02,3.814697e-02,3,0,5.280598e-01,5.280600e-01
4.993880e-01,4.235700e-02,3.790855e-02,3,0,5.085617e-01,5.085618e-01
4.749770e-01,4.413100e-02,4.005432e-02,3,0,6.626467e-01,6.626471e-01
4.682590e-01,4.388500e-02,4.005432e-02,3,0,2.752385e-01,2.752388e-01
4.739710e-01,4.249100e-02,3.790855e-02,3,0,2.183913e-01,2.183914e-01
4.561830e-01,5.465700e-02,5.102158e-02,3,0,2.032956e-01,2.032957e-01
4.864750e-01,4.217500e-02,3.790855e-02,3,0,1.927794e-01,1.927795e-01
4.558370e-01,4.275900e-02,3.910065e-02,3,0,1.101117e-01,1.101117e-01
4.608280e-01,4.232000e-02,3.790855e-02,3,0,1.362861e-01,1.362862e-01
4.797020e-01,4.227000e-02,3.790855e-02,3,0,5.878385e-01,5.878393e-01
4.860620e-01,4.261800e-02,3.910065e-02,3,0,8.362220e-01,8.362225e-01
4.555390e-01,4.257400e-02,3.790855e-02,3,0,2.202475e+00,2.202478e+00
4.853220e-01,4.218300e-02,3.790855e-02,3,0,2.620231e+00,2.620232e+00
4.566160e-01,4.283200e-02,3.814697e-02,3,0,2.306982e+00,2.306983e+00
4.864960e-01,4.222700e-02,3.790855e-02,3,0,2.634871e+00,2.634872e+00
4.563700e-01,4.307700e-02,3.910065e-02,3,0,2.624359e+00,2.624359e+00
4.618410e-01,4.205300e-02,3.790855e-02,3,0,2.319983e+00,2.319983e+00
4.563140e-01,4.250700e-02,3.790855e-02,3,0,1.830068e+00,1.830068e+00
4.859360e-01,4.202900e-02,3.814697e-02,3,0,1.395093e+00,1.395093e+00
4.564050e-01,4.262100e-02,3.790855e-02,3,0,8.823121e-01,8.823122e-01
4.853230e-01,4.189000e-02,3.790855e-02,3,0,9.725013e-01,9.725017e-01
4.555170e-01,4.304800e-02,3.910065e-02,3,0,8.638132e-01,8.638135e-01
4.847280e-01,4.191100e-02,3.790855e-02,3,0,5.857294e-01,5.857294e-01
4.565850e-01,4.312900e-02,3.790855e-02,3,0,4.795696e-01,4.795697e-01
4.851440e-01,4.220200e-02,3.790855e-02,3,0,2.432532e-01,2.432537e-01
4.669110e-01,4.307000e-02,3.886223e-02,3,0,4.425508e-01,4.425512e-01
4.562950e-01,6.053600e-02,5.078316e-02,3,0,3.052282e-01,3.052281e-01
4.743100e-01,4.258800e-02,3.886223e-02,3,0,9.320464e-01,9.320474e-01
4.568590e-01,5.521400e-02,5.006790e-02,3,0,6.520743e-01,6.520742e-01
4.863500e-01,4.241300e-02,3.790855e-02,3,0,5.319195e-01,5.319195e-01
4.559120e-01,4.280300e-02,3.790855e-02,3,0,4.829272e-01,4.829273e-01
4.860880e-01,4.229700e-02,3.790855e-02,3,0,4.672388e-01,4.672392e-01
4.560020e-01,4.264800e-02,3.814697e-02,3,0,4.322224e-01,4.322226e-01
4.867740e-01,4.178800e-02,3.790855e-02,3,0,7.286350e-01,7.286357e-01
4.567420e-01,4.309800e-02,3.814697e-02,3,0,9.692055e-01,9.692061e-01
4.875010e-01,4.222300e-02,3.814697e-02,3,0,4.884349e-01,4.884347e-01
4.562040e-01,4.243200e-02,3.790855e-02,3,0,4.998598e-01,4.998600e-01
4.855450e-01,4.214100e-02,3.814697e-02,3,0,2.535166e-01,2.535165e-01
4.556040e-01,4.252500e-02,3.790855e-02,3,0,2.572764e-01,2.572766e-01
4.612910e-01,4.247700e-02,3.886223e-02,3,0,3.442727e-01,3.442729e-01
4.559480e-01,4.246300e-02,3.790855e-02,3,0,6.249291e-01,6.249295e-01
4.617920e-01,4.229100e-02,3.790855e-02,3,0,1.445254e+00,1.445256e+00
4.556120e-01,4.269800e-02,3.886223e-02,3,0,2.398563e+00,2.398564e+00
4.855710e-01,4.222000e-02,3.790855e-02,3,0,1.348866e+00,1.348865e+00
4.559850e-01,4.284100e-02,3.814697e-02,3,0,1.168599e+00,1.168599e+00
4.851200e-01,4.216500e-02,3.790855e-02,3,0,1.549347e+00,1.549348e+00
4.565060e-01,4.280300e-02,3.790855e-02,3,0,1.503809e+00,1.503809e+00
4.623070e-01,4.227100e-02,3.790855e-02,3,0,1.249512e+00,1.249512e+00
4.565660e-01,4.240500e-02,3.814697e-02,3,0,8.451911e-01,8.451912e-01
4.604700e-01,4.230500e-02,3.695488e-02,3,0,7.469774e-01,7.469777e-01
4.557400e-01,4.233500e-02,3.814697e-02,3,0,1.027780e+00,1.027781e+00
4.688410e-01,4.637100e-02,4.196167e-02,3,0,6.650655e-01,6.650656e-01
4.604560e-01,4.295100e-02,3.886223e-02,3,0,6.688458e-01,6.688460e-01
4.665620e-01,5.567400e-02,3.981590e-02,3,0,9.206632e-01,9.206637e-01
4.609110e-01,4.286600e-02,3.790855e-02,3,0,1.094901e+00,1.094902e+00
4.562800e-01,4.235100e-02,3.814697e-02,3,0,1.005386e+00,1.005387e+00
4.629770e-01,4.225200e-02,3.790855e-02,3,0,1.329394e+00,1.329394e+00
4.560930e-01,4.247500e-02,3.790855e-02,3,0,1.302345e+00,1.302346e+00
4.863090e-01,4.252800e-02,3.790855e-02,3,0,1.335574e+00,1.335575e+00
4.564630e-01,4.304800e-02,3.790855e-02,3,0,1.288569e+00,1.288569e+00
4.860060e-01,4.206800e-02,3.719330e-02,3,0,8.581165e-01,8.581164e-01
4.560520e-01,4.278500e-02,3.790855e-02,3,0,1.527769e+00,1.527770e+00
4.864970e-01,4.256300e-02,3.814697e-02,3,0,1.747305e+00,1.747306e+00
4.558060e-01,4.286800e-02,3.790855e-02,3,0,1.518611e+00,1.518612e+00
4.862980e-01,4.242300e-02,3.814697e-02,3,0,2.280807e+00,2.280808e+00
4.562460e-01,4.276900e-02,3.886223e-02,3,0,3.023370e+00,3.023371e+00
4.872530e-01,4.217800e-02,3.814697e-02,3,0,2.527856e+00,2.527856e+00
4.561540e-01,4.297300e-02,3.886223e-02,3,0,2.870067e+00,2.870068e+00
4.858880e-01,4.199800e-02,3.695488e-02,3,0,2.232422e+00,2.232422e+00
4.561050e-01,4.304800e-02,3.886223e-02,3,0,2.035421e+00,2.035421e+00
4.856510e-01,4.213700e-02,3.814697e-02,3,0,1.680937e+00,1.680937e+00
4.558470e-01,4.281200e-02,3.886223e-02,3,0,1.450724e+00,1.450724e+00
4.851550e-01,4.238600e-02,3.910065e-02,3,0,1.233654e+00,1.233655e+00
4.555280e-01,4.303900e-02,3.814697e-02,3,0,1.690027e+00,1.690028e+00
4.847370e-01,4.247300e-02,3.790855e-02,3,0,2.442501e+00,2.442502e+00
4.565860e-01,4.294300e-02,3.814697e-02,3,0,3.569288e+00,3.569290e+00
4.679880e-01,5.897200e-02,5.388260e-02,3,0,3.191723e+00,3.191723e+00
4.612420e-01,4.221800e-02,3.790855e-02,3,0,2.523931e+00,2.523930e+00
4.567910e-01,4.253200e-02,3.790855e-02,3,0,2.180383e+00,2.180383e+00
4.609740e-01,4.206900e-02,3.814697e-02,3,0,1.851104e+00,1.851104e+00
4.563700e-01,4.225400e-02,3.790855e-02,3,0,1.337050e+00,1.337049e+00
4.862110e-01,4.231500e-02,3.910065e-02,3,0,9.951665e-01,9.951664e-01
4.560200e-01,4.312100e-02,3.886223e-02,3,0,7.196643e-01,7.196643e-01
4.861260e-01,4.234800e-02,3.814697e-02,3,0,5.732005e-01,5.732007e-01
4.561250e-01,4.265200e-02,3.790855e-02,3,0,3.673660e-01,3.673664e-01
4.859670e-01,4.269100e-02,3.814697e-02,3,0,4.497701e-01,4.497705e-01
4.558790e-01,4.282400e-02,3.886223e-02,3,0,1.838989e-01,1.838989e-01
4.862390e-01,4.232400e-02,3.790855e-02,3,0,1.869176e-01,1.869178e-01
4.564240e-01,4.274900e-02,3.790855e-02,3,0,3.062487e-01,3.062489e-01
4.858040e-01,4.203900e-02,3.790855e-02,3,0,3.348223e-01,3.348224e-01
4.558810e-01,4.293100e-02,3.814697e-02,3,0,4.387591e-01,4.387594e-01
4.853590e-01,4.211300e-02,3.790855e-02,3,0,7.069530e-01,7.069535e-01
4.564630e-01,4.287600e-02,3.910065e-02,3,0,9.502993e-01,9.502998e-01
4.612630e-01,4.204500e-02,3.790855e-02,3,0,9.864904e-01,9.864906e-01
4.570880e-01,4.244500e-02,3.814697e-02,3,0,1.112695e+00,1.112695e+00
4.851350e-01,4.199100e-02,3.790855e-02,3,0,7.480591e-01,7.480590e-01
4.554970e-01,4.264900e-02,3.814697e-02,3,0,6.715939e-01,6.715942e-01
4.852310e-01,4.189200e-02,3.814697e-02,3,0,5.153097e-01,5.153097e-01
4.560880e-01,4.258300e-02,3.790855e-02,3,0,4.894672e-01,4.894673e-01
4.844560e-01,4.191100e-02,3.790855e-02,3,0,3.939471e-01,3.939472e-01
4.564600e-01,4.260700e-02,3.814697e-02,3,0,4.986399e-01,4.986402e-01
4.565160e-01,4.710300e-02,4.291534e-02,3,0,5.093396e-01,5.093398e-01
4.563280e-01,4.218400e-02,3.814697e-02,3,0,9.206572e-01,9.206578e-01
4.565920e-01,4.639000e-02,4.196167e-02,3,0,8.320432e-01,8.320433e-01
4.719870e-01,4.234000e-02,3.814697e-02,3,0,6.561073e-01,6.561074e-01

