1.969692e+00,2.882957e+00,6,20
3.355920e-01,2.038956e+00,1,17
3.426720e-01,1.781940e+00,1,15
6.554150e-01,1.842022e+00,2,15
3.291150e-01,1.311064e+00,1,10
3.279740e-01,6.899834e-01,1,5
3.367020e-01,3.399849e-01,1,2
3.271440e-01,9.608269e-02,1,0
3.265240e-01,9.393692e-02,1,0
3.259560e-01,9.393692e-02,1,0
3.263940e-01,9.393692e-02,1,0
3.266270e-01,9.393692e-02,1,0
3.346120e-01,9.393692e-02,1,0
3.268410e-01,9.393692e-02,1,0
3.264630e-01,9.393692e-02,1,0

