1.977764e+00,3.024101e+00,6,20
3.355180e-01,1.953840e+00,1,17
3.339180e-01,1.792908e+00,1,15
6.579300e-01,1.855135e+00,2,15
3.298500e-01,1.300097e+00,1,10
3.309130e-01,7.030964e-01,1,5
3.317100e-01,3.399849e-01,1,2
3.305390e-01,9.489059e-02,1,0
3.303660e-01,9.489059e-02,1,0
3.390020e-01,9.489059e-02,1,0
3.307980e-01,9.512901e-02,1,0
3.284560e-01,9.512901e-02,1,0
3.280000e-01,9.512901e-02,1,0
3.278640e-01,9.393692e-02,1,0
3.281370e-01,9.393692e-02,1,0

