1.992276e+00,2.871990e+00,6,20
3.381570e-01,1.966000e+00,1,17
3.353090e-01,1.785040e+00,1,15
6.719800e-01,1.838923e+00,2,15
3.316140e-01,1.299143e+00,1,10
3.405550e-01,6.890297e-01,1,5
3.309030e-01,3.390312e-01,1,2
3.304890e-01,9.512901e-02,1,0
3.303270e-01,9.393692e-02,1,0
3.300630e-01,9.417534e-02,1,0
3.376800e-01,9.393692e-02,1,0
3.312850e-01,9.489059e-02,1,0
3.306430e-01,9.417534e-02,1,0
3.306300e-01,9.393692e-02,1,0
3.298890e-01,9.417534e-02,1,0

