6.496320e-01,1.178990e+01,1.124310e+01,2,20,0.000000e+00,0.000000e+00,1
9.101060e-01,5.954350e-01,5.800724e-01,3,0,1.043142e-01,1.043099e-01,1
1.197041e+00,5.802030e-01,5.691051e-01,4,0,1.207036e-01,1.206634e-01,1
1.200232e+00,1.904692e+00,1.894951e+00,4,3,3.126734e-01,3.106955e-01,1
2.984280e+00,2.264320e+00,2.252817e+00,10,4,1.966587e-01,1.831428e-01,1
2.095291e+00,3.992492e+00,3.979921e+00,7,8,5.615603e-01,5.493176e-01,1
2.087370e+00,1.805952e+00,1.795053e+00,7,3,6.465434e-01,6.389701e-01,1
2.087816e+00,2.196555e+00,2.186060e+00,7,4,8.698088e-01,8.645796e-01,1
1.796658e+00,4.285519e+00,4.274130e+00,6,9,3.758936e-01,3.751996e-01,1
2.085695e+00,1.456347e+00,1.445055e+00,7,2,4.241536e-01,4.220719e-01,1
2.985211e+00,1.842550e+00,1.833200e+00,10,3,2.856392e-01,2.855202e-01,1
1.502671e+00,1.450655e+00,1.439095e+00,5,2,3.195768e-01,3.141524e-01,1
2.087788e+00,2.710558e+00,2.699137e+00,7,5,6.099428e-01,6.040570e-01,1
2.088001e+00,2.643854e+00,2.632856e+00,7,5,8.323571e-01,8.252334e-01,1
2.090158e+00,3.445913e+00,3.433943e+00,7,7,6.701866e-01,6.689653e-01,1
2.086874e+00,2.711556e+00,2.699852e+00,7,5,9.268166e-01,9.199140e-01,1
2.093783e+00,2.696904e+00,2.685070e+00,7,5,7.449724e-01,7.433705e-01,1
2.690668e+00,2.241438e+00,2.229929e+00,9,4,4.991434e-01,4.932895e-01,1
2.085684e+00,1.029878e+00,1.018047e+00,7,1,5.588965e-01,5.567696e-01,1
2.389596e+00,2.289784e+00,2.279997e+00,8,4,5.698337e-01,5.693422e-01,1
2.089022e+00,3.586100e+00,3.575087e+00,7,7,6.069621e-01,6.017488e-01,1
1.500243e+00,3.487713e+00,3.475904e+00,5,7,4.853712e-01,4.844338e-01,1
2.091878e+00,1.859026e+00,1.847982e+00,7,3,4.202196e-01,4.177109e-01,1
2.090446e+00,3.533011e+00,3.520966e+00,7,7,5.598663e-01,5.539114e-01,1
2.108435e+00,3.052565e+00,3.041029e+00,7,6,6.868847e-01,6.833410e-01,1
1.500895e+00,2.219899e+00,2.208948e+00,5,4,7.467369e-01,7.310257e-01,1
1.796780e+00,3.947232e+00,3.936052e+00,6,8,5.615822e-01,5.603375e-01,1
2.092915e+00,2.677406e+00,2.667189e+00,7,5,4.463383e-01,4.450437e-01,1
2.388331e+00,3.126031e+00,3.116131e+00,8,6,3.615470e-01,3.597977e-01,1
2.093420e+00,2.273529e+00,2.261877e+00,7,4,2.610910e-01,2.606372e-01,1
2.986771e+00,1.879081e+00,1.862049e+00,10,3,5.927031e-01,5.698895e-01,1
2.092545e+00,4.830235e+00,4.817963e+00,7,10,6.395395e-01,6.365489e-01,1
1.202441e+00,3.068804e+00,3.056049e+00,4,6,5.196024e-01,5.082581e-01,1
2.090108e+00,3.060550e+00,3.047705e+00,7,6,6.039341e-01,6.014374e-01,1
2.087212e+00,1.397501e+00,1.385212e+00,7,2,3.631744e-01,3.603591e-01,1
2.086829e+00,2.229630e+00,2.218962e+00,7,4,2.388633e-01,2.382013e-01,1
2.094872e+00,2.292120e+00,2.279997e+00,7,4,3.247471e-01,3.234700e-01,1
1.496814e+00,1.416678e+00,1.405001e+00,5,2,2.756731e-01,2.741100e-01,1
2.090761e+00,3.119873e+00,3.110170e+00,7,6,4.875132e-01,4.809107e-01,1
2.100035e+00,3.465255e+00,3.453732e+00,7,7,3.547163e-01,3.512532e-01,1
2.091609e+00,2.269548e+00,2.259970e+00,7,4,9.815398e-01,9.718587e-01,1
2.089502e+00,3.037851e+00,3.026009e+00,7,6,1.018061e+00,1.009781e+00,1
2.385545e+00,3.426940e+00,3.415823e+00,8,7,6.361768e-01,6.333242e-01,1
2.087719e+00,2.295425e+00,2.284050e+00,7,4,7.862510e-01,7.833467e-01,1
2.089953e+00,2.688256e+00,2.676964e+00,7,5,6.256119e-01,6.240868e-01,1
2.984615e+00,3.122519e+00,3.111124e+00,10,6,4.852098e-01,4.742382e-01,1
2.088079e+00,1.826808e+00,1.816034e+00,7,3,4.717322e-01,4.679531e-01,1
2.088835e+00,2.674362e+00,2.664089e+00,7,5,3.803362e-01,3.788226e-01,1
2.088636e+00,2.260513e+00,2.251148e+00,7,4,2.485965e-01,2.465990e-01,1
2.978367e+00,1.832712e+00,1.822948e+00,10,3,1.357535e-01,1.151661e-01,1
1.787070e+00,1.449123e+00,1.439095e+00,6,2,2.803034e-01,2.788240e-01,1
2.085834e+00,3.125372e+00,3.114939e+00,7,6,5.175444e-01,5.114909e-01,1
2.090882e+00,2.675005e+00,2.663851e+00,7,5,5.253600e-01,5.238841e-01,1
3.276039e+00,1.419094e+00,1.409054e+00,11,2,4.202276e-01,4.143372e-01,1
2.093559e+00,3.106272e+00,3.095150e+00,7,6,3.584673e-01,3.558867e-01,1
2.086163e+00,1.401085e+00,1.389980e+00,7,2,4.687126e-01,4.653486e-01,1
2.086291e+00,2.229211e+00,2.218962e+00,7,4,1.844254e-01,1.841035e-01,1
2.091061e+00,1.447293e+00,1.435995e+00,7,2,2.642973e-01,2.634914e-01,1
2.087649e+00,1.449847e+00,1.440048e+00,7,2,4.399172e-01,4.371550e-01,1
2.092942e+00,1.430949e+00,1.420975e+00,7,2,5.582414e-01,5.552451e-01,1
1.201867e+00,6.852167e+00,6.841183e+00,4,15,4.001081e-01,3.896509e-01,1
2.088766e+00,2.990721e+00,2.979994e+00,7,6,1.305940e+00,1.280893e+00,1
2.092637e+00,4.855807e+00,4.844904e+00,7,11,2.543200e+00,2.497909e+00,1
2.091767e+00,7.076236e+00,7.064819e+00,7,17,1.336791e+00,1.327023e+00,1
2.087907e+00,1.775344e+00,1.765013e+00,7,3,1.569605e+00,1.556461e+00,1
1.499529e+00,7.675020e+00,7.663965e+00,5,17,7.674812e-01,7.650545e-01,1
2.087835e+00,3.028149e+00,3.016949e+00,7,6,6.927526e-01,6.898941e-01,1
1.507306e+00,1.431510e+00,1.420021e+00,5,2,4.265161e-01,4.246868e-01,1
1.500664e+00,2.348268e+00,2.334118e+00,5,4,4.465441e-01,4.412804e-01,1
2.107997e+00,2.340193e+00,2.326965e+00,7,4,2.085819e-01,2.082367e-01,1
1.500193e+00,1.548953e+00,1.533985e+00,5,2,3.530089e-01,3.527033e-01,1
2.088664e+00,1.050206e+00,1.036882e+00,7,1,3.933339e-01,3.924530e-01,1
1.491794e+00,1.035090e+00,1.024008e+00,5,1,4.308668e-01,4.305321e-01,1
1.501581e+00,4.028912e+00,4.018068e+00,5,8,5.456037e-01,5.400623e-01,1
2.095866e+00,1.417747e+00,1.404762e+00,7,2,8.677288e-01,8.561538e-01,1
2.095719e+00,3.453556e+00,3.441811e+00,7,7,9.436014e-01,9.302128e-01,1
2.982901e+00,4.236073e+00,4.224062e+00,10,9,5.968729e-01,5.957779e-01,1
2.088212e+00,1.855205e+00,1.842976e+00,7,3,5.313116e-01,5.284389e-01,1
2.095147e+00,1.844175e+00,1.833916e+00,7,3,4.858812e-01,4.845081e-01,1
1.494252e+00,1.870611e+00,1.858950e+00,5,3,2.208311e-01,2.175219e-01,1
2.091971e+00,6.374030e+00,6.362915e+00,7,14,9.863000e-01,9.594522e-01,1
2.092048e+00,4.949769e+00,4.937887e+00,7,11,7.227183e-01,7.163028e-01,1
2.092317e+00,2.687443e+00,2.674818e+00,7,5,6.315959e-01,6.282363e-01,1
2.391080e+00,5.664957e+00,5.654097e+00,8,12,7.985140e-01,7.947008e-01,1
2.102348e+00,1.059643e+01,1.058412e+01,7,20,9.728838e-01,9.473265e-01,1
2.091140e+00,1.434418e+00,1.423120e+00,7,2,1.751594e+00,1.724949e+00,1
2.099813e+00,1.329485e+00,1.317978e+00,7,2,2.542623e+00,2.514596e+00,1
2.093055e+00,4.805212e+00,4.794121e+00,7,10,3.854656e+00,3.829742e+00,1
2.096193e+00,8.606884e+00,8.594990e+00,7,20,2.980866e+00,2.955504e+00,1
2.112234e+00,7.649983e+00,7.636786e+00,7,18,1.910715e+00,1.904054e+00,1
2.096881e+00,5.364377e+00,5.352020e+00,7,12,1.166520e+00,1.152991e+00,1
2.389381e+00,4.603860e+00,4.590988e+00,8,10,7.336874e-01,7.297081e-01,1
2.097667e+00,7.125598e+00,7.113934e+00,7,16,9.483870e-01,9.240166e-01,1
2.092299e+00,3.259247e+00,3.247976e+00,7,7,5.519395e-01,5.402250e-01,1
2.095337e+00,1.374416e+00,1.363039e+00,7,2,8.710840e-01,8.496134e-01,1
2.090344e+00,2.145213e+00,2.133131e+00,7,4,9.211188e-01,9.067405e-01,1
2.095463e+00,5.100189e+00,5.089045e+00,7,11,5.895841e-01,5.871598e-01,1
2.097519e+00,3.142746e+00,3.132105e+00,7,6,4.569434e-01,4.550204e-01,1
2.089297e+00,1.447127e+00,1.433849e+00,7,2,7.627473e-01,7.584748e-01,1
2.982394e+00,3.540898e+00,3.529072e+00,10,7,7.042891e-01,7.037874e-01,1
2.101813e+00,3.153096e+00,3.142118e+00,7,6,5.580998e-01,5.555179e-01,1
2.092426e+00,3.538108e+00,3.525972e+00,7,7,5.686182e-01,5.652673e-01,1
2.679893e+00,2.692399e+00,2.681017e+00,9,5,2.657149e-01,2.465250e-01,1
2.983335e+00,1.488174e+00,1.477003e+00,10,2,2.178642e-01,2.176569e-01,1
2.383303e+00,1.024109e+00,1.013041e+00,8,1,2.017167e-01,2.007374e-01,1
2.088624e+00,1.473932e+00,1.464128e+00,7,2,4.420871e-01,4.397296e-01,1
1.495323e+00,2.330930e+00,2.320051e+00,5,4,5.816871e-01,5.807430e-01,1
2.095520e+00,2.314662e+00,2.303123e+00,7,4,5.527962e-01,5.507195e-01,1
2.394586e+00,2.741536e+00,2.729654e+00,8,5,3.364224e-01,3.359259e-01,1
2.092018e+00,1.470918e+00,1.458883e+00,7,2,3.070090e-01,3.049306e-01,1
2.098290e+00,1.877583e+00,1.865149e+00,7,3,3.095151e-01,3.090388e-01,1
2.087946e+00,1.908660e+00,1.896858e+00,7,3,3.960540e-01,3.940368e-01,1
2.089218e+00,2.287458e+00,2.275944e+00,7,4,2.666350e-01,2.628842e-01,1
1.795343e+00,1.919244e+00,1.908064e+00,6,3,3.877155e-01,3.855926e-01,1
1.493598e+00,1.866161e+00,1.853943e+00,5,3,1.850254e-01,1.848826e-01,1
1.494925e+00,1.479542e+00,1.468658e+00,5,2,1.992933e-01,1.989404e-01,1
2.092747e+00,1.887989e+00,1.876831e+00,7,3,5.297084e-01,5.252897e-01,1
2.091552e+00,2.271913e+00,2.259970e+00,7,4,3.116147e-01,3.112158e-01,1
2.089665e+00,4.022380e+00,4.012108e+00,7,8,8.930157e-01,8.832174e-01,1
1.203541e+00,4.329146e+00,4.319191e+00,4,9,6.137357e-01,6.050783e-01,1
2.094537e+00,2.718724e+00,2.707005e+00,7,5,8.279920e-01,8.257337e-01,1
2.090708e+00,3.536451e+00,3.524780e+00,7,7,1.284827e+00,1.267956e+00,1
2.090786e+00,5.435001e+00,5.423069e+00,7,12,1.136535e+00,1.127627e+00,1
2.087786e+00,6.716654e+00,6.705999e+00,7,15,1.034483e+00,1.023473e+00,1
2.090144e+00,2.153268e+00,2.142906e+00,7,4,1.504015e+00,1.488332e+00,1
2.093577e+00,4.950674e+00,4.940033e+00,7,11,1.038255e+00,1.033105e+00,1
2.094651e+00,3.463550e+00,3.453016e+00,7,7,6.134363e-01,6.106900e-01,1
1.204499e+00,3.580546e+00,3.569126e+00,4,7,4.968580e-01,4.928104e-01,1
2.101386e+00,3.602616e+00,3.591061e+00,7,7,4.054187e-01,3.993507e-01,1
1.804499e+00,3.908601e+00,3.896952e+00,6,8,2.627339e-01,2.624216e-01,1
2.091681e+00,6.142070e-01,6.020069e-01,7,0,2.886943e-01,2.872258e-01,1
2.390743e+00,2.786204e+00,2.774954e+00,8,5,3.357700e-01,3.341086e-01,1
1.499924e+00,2.297030e+00,2.285242e+00,5,4,2.198051e-01,2.186954e-01,1
2.979018e+00,1.440814e+00,1.428843e+00,10,2,2.002120e-01,2.000462e-01,1
1.196093e+00,6.254850e-01,6.160736e-01,4,0,1.495366e-01,1.495362e-01,1
9.041930e-01,2.347020e+00,2.337217e+00,3,4,4.616947e-01,4.549526e-01,1
2.391069e+00,2.715868e+00,2.706051e+00,8,5,5.265126e-01,5.232528e-01,1
2.983878e+00,1.857985e+00,1.847029e+00,10,3,4.584846e-01,4.358348e-01,1
2.086986e+00,1.483065e+00,1.471996e+00,7,2,4.598801e-01,4.564522e-01,1
2.091405e+00,2.761678e+00,2.749681e+00,7,5,3.317956e-01,3.293752e-01,1
2.097845e+00,3.155389e+00,3.144026e+00,7,6,5.740146e-01,5.685634e-01,1
2.089869e+00,1.046693e+00,1.034021e+00,7,1,9.258396e-01,9.202876e-01,1
2.099362e+00,3.115336e+00,3.105879e+00,7,6,1.190936e+00,1.184585e+00,1
1.495576e+00,5.182620e+00,5.170822e+00,5,11,9.882855e-01,9.825140e-01,1
3.051414e+00,5.243348e+00,5.231857e+00,10,11,7.802558e-01,7.703127e-01,1
2.092796e+00,2.300844e+00,2.289057e+00,7,4,7.173758e-01,7.107164e-01,1
2.090395e+00,3.906548e+00,3.895044e+00,7,8,5.417702e-01,5.386843e-01,1
2.090768e+00,3.951395e+00,3.939867e+00,7,8,6.358541e-01,6.262775e-01,1
2.088671e+00,3.908035e+00,3.895760e+00,7,8,7.911470e-01,7.794734e-01,1
2.089313e+00,1.378178e+00,1.366854e+00,7,2,1.063099e+00,1.058556e+00,1
2.094316e+00,3.459391e+00,3.448963e+00,7,7,7.688341e-01,7.665538e-01,1
2.990794e+00,1.873216e+00,1.857996e+00,10,3,6.847562e-01,6.837377e-01,1
1.499535e+00,2.765110e+00,2.750158e+00,5,5,5.944631e-01,5.912303e-01,1
2.086254e+00,1.447264e+00,1.435995e+00,7,2,4.993071e-01,4.972261e-01,1
2.091925e+00,2.313183e+00,2.303123e+00,7,4,3.822908e-01,3.786888e-01,1
2.086053e+00,1.895403e+00,1.885176e+00,7,3,4.098013e-01,4.057371e-01,1
2.085944e+00,1.444142e+00,1.433134e+00,7,2,7.261608e-01,7.212132e-01,1
2.093909e+00,3.118791e+00,3.108263e+00,7,6,6.337289e-01,6.318741e-01,1
2.087226e+00,1.878494e+00,1.868010e+00,7,3,6.199544e-01,6.183278e-01,1
1.504518e+00,6.056143e+00,6.044865e+00,5,13,8.395177e-01,8.356316e-01,1
2.095256e+00,5.470783e+00,5.458593e+00,7,12,3.183407e-01,3.176739e-01,1
1.497786e+00,1.892301e+00,1.881123e+00,5,3,2.153733e-01,2.141937e-01,1
3.279285e+00,1.900899e+00,1.889706e+00,11,3,1.743663e-01,1.727777e-01,1
2.980462e+00,1.451995e+00,1.440763e+00,10,2,1.376153e-01,1.214051e-01,1
1.198308e+00,6.001080e-01,5.900860e-01,4,0,1.936602e-01,1.925158e-01,1
1.492747e+00,1.908287e+00,1.899004e+00,5,3,3.742552e-01,3.616395e-01,1
2.087106e+00,1.429426e+00,1.417875e+00,7,2,2.683005e-01,2.682280e-01,1
1.497684e+00,4.893800e+00,4.882097e+00,5,10,5.632291e-01,5.599790e-01,1
1.496719e+00,5.188013e+00,5.177975e+00,5,11,7.058599e-01,7.043775e-01,1
2.392702e+00,3.161740e+00,3.149986e+00,8,6,4.330051e-01,4.324364e-01,1
2.088204e+00,2.749817e+00,2.739906e+00,7,5,3.939456e-01,3.913576e-01,1
2.090191e+00,2.257095e+00,2.246857e+00,7,4,3.405004e-01,3.391947e-01,1
1.789096e+00,1.443939e+00,1.426935e+00,6,2,3.281985e-01,3.278038e-01,1
1.494936e+00,1.472555e+00,1.459837e+00,5,2,3.200083e-01,3.196692e-01,1
1.792280e+00,2.340427e+00,2.324820e+00,6,4,3.567120e-01,3.552218e-01,1
2.089310e+00,1.440616e+00,1.429796e+00,7,2,3.189008e-01,3.187265e-01,1
2.975342e+00,1.027168e+00,1.017094e+00,10,1,2.229424e-01,2.229405e-01,1
1.200243e+00,3.632101e+00,3.620863e+00,4,7,4.764500e-01,4.747916e-01,1
2.088912e+00,4.399625e+00,4.389048e+00,7,9,5.677952e-01,5.647478e-01,1
2.087497e+00,2.702566e+00,2.692223e+00,7,5,7.076451e-01,7.022702e-01,1
2.388683e+00,4.766565e+00,4.755020e+00,8,10,8.986704e-01,8.928242e-01,1
2.101014e+00,6.873945e+00,6.860971e+00,7,15,8.284114e-01,8.245673e-01,1
2.092969e+00,2.704873e+00,2.693176e+00,7,5,8.712143e-01,8.648232e-01,1
2.385880e+00,3.563587e+00,3.551722e+00,8,7,6.689413e-01,6.625738e-01,1
1.498182e+00,3.555439e+00,3.545046e+00,5,7,4.968535e-01,4.951516e-01,1
2.087221e+00,1.432396e+00,1.419783e+00,7,2,5.881810e-01,5.848404e-01,1
2.087112e+00,1.002882e+00,9.930134e-01,7,1,9.942129e-01,9.859692e-01,1
2.092225e+00,4.370297e+00,4.360199e+00,7,9,1.272295e+00,1.255105e+00,1
2.090122e+00,3.825406e+00,3.814936e+00,7,8,9.258807e-01,9.198938e-01,1
2.984131e+00,4.307717e+00,4.296064e+00,10,9,9.169294e-01,9.016316e-01,1
2.094415e+00,3.910753e+00,3.897905e+00,7,8,8.867523e-01,8.766315e-01,1
2.094898e+00,3.867890e+00,3.854990e+00,7,8,4.684494e-01,4.630839e-01,1
2.092492e+00,4.414756e+00,4.403114e+00,7,9,5.809763e-01,5.743991e-01,1
1.198441e+00,3.551801e+00,3.540039e+00,4,7,6.415965e-01,6.321690e-01,1
2.087669e+00,2.278783e+00,2.269030e+00,7,4,4.591888e-01,4.578394e-01,1
1.496450e+00,1.916915e+00,1.907110e+00,5,3,4.332750e-01,4.323045e-01,1
2.388851e+00,6.082384e+00,6.072044e+00,8,13,7.470418e-01,7.413781e-01,1
2.092877e+00,4.320057e+00,4.307985e+00,7,8,1.438761e+00,1.417772e+00,1
2.090985e+00,3.995202e+00,3.983974e+00,7,8,1.435399e+00,1.412145e+00,1
2.092508e+00,1.360555e+00,1.348972e+00,7,2,1.351755e+00,1.336708e+00,1
2.090269e+00,2.202031e+00,2.190828e+00,7,4,1.431392e+00,1.419596e+00,1
2.091995e+00,3.872636e+00,3.859758e+00,7,7,2.032739e+00,2.015066e+00,1
1.504580e+00,8.119875e+00,8.109808e+00,5,18,1.020334e+00,1.019079e+00,1
2.093179e+00,4.028814e+00,4.016876e+00,7,8,1.092462e+00,1.086782e+00,1
2.393671e+00,4.364143e+00,4.353046e+00,8,9,7.993483e-01,7.975418e-01,1
2.091384e+00,4.685942e+00,4.674911e+00,7,10,7.942961e-01,7.809076e-01,1
2.388747e+00,7.123219e+00,7.112026e+00,8,16,3.281038e-01,3.244745e-01,1
2.094589e+00,4.843677e+00,4.832268e+00,7,10,6.066095e-01,5.987980e-01,1
2.089351e+00,3.068675e+00,3.056049e+00,7,6,3.966955e-01,3.951122e-01,1
2.980015e+00,2.741929e+00,2.730846e+00,10,5,4.394790e-01,4.390129e-01,1
1.201469e+00,5.311953e+00,5.301952e+00,4,11,3.654409e-01,3.580710e-01,1
2.089511e+00,1.430668e+00,1.419067e+00,7,2,9.320952e-01,9.210614e-01,1
2.092950e+00,1.075177e+01,1.073909e+01,7,19,1.875970e+00,1.852549e+00,1
2.093930e+00,5.446485e+00,5.434036e+00,7,11,1.286051e+00,1.272648e+00,1
2.093726e+00,1.796709e+00,1.783609e+00,7,3,1.665514e+00,1.651676e+00,1
2.089779e+00,3.406626e+00,3.395081e+00,7,7,1.393899e+00,1.388728e+00,1
2.091657e+00,2.268310e+00,2.257109e+00,7,4,1.844860e+00,1.839295e+00,1
1.496767e+00,4.385460e+00,4.373789e+00,5,9,8.329966e-01,8.312953e-01,1
2.092191e+00,3.583292e+00,3.571987e+00,7,7,6.159651e-01,6.088708e-01,1
2.982140e+00,3.983993e+00,3.971815e+00,10,8,3.677559e-01,3.565846e-01,1
2.089951e+00,3.199319e+00,3.187895e+00,7,6,3.460693e-01,3.367413e-01,1
2.086740e+00,1.008252e+00,9.970665e-01,7,1,4.089928e-01,4.022082e-01,1
2.088028e+00,2.274084e+00,2.263069e+00,7,4,7.308254e-01,7.201240e-01,1
2.091557e+00,4.316459e+00,4.304886e+00,7,9,4.018485e-01,4.005348e-01,1
1.793989e+00,2.797954e+00,2.787113e+00,6,5,3.808033e-01,3.778474e-01,1
1.794598e+00,2.325551e+00,2.312899e+00,6,4,3.722031e-01,3.646888e-01,1
2.388410e+00,1.882056e+00,1.869917e+00,8,3,4.232930e-01,4.186910e-01,1
2.983625e+00,2.319758e+00,2.309084e+00,10,4,2.549150e-01,2.514658e-01,1
1.497803e+00,1.915283e+00,1.904011e+00,5,3,2.903299e-01,2.882324e-01,1
2.085491e+00,1.897577e+00,1.887083e+00,7,3,3.156666e-01,3.128921e-01,1
2.086440e+00,1.462142e+00,1.451254e+00,7,2,4.627405e-01,4.600037e-01,1
2.089601e+00,3.572120e+00,3.561020e+00,7,7,1.141841e+00,1.131438e+00,1
2.085302e+00,9.878500e-01,9.770393e-01,7,1,1.569149e+00,1.557883e+00,1
2.100100e+00,3.499539e+00,3.489017e+00,7,7,1.040757e+00,1.036883e+00,1
2.090646e+00,2.745220e+00,2.733946e+00,7,5,1.166619e+00,1.161785e+00,1
1.199652e+00,3.553696e+00,3.541946e+00,4,7,7.608194e-01,7.555588e-01,1
2.088993e+00,1.015385e+00,1.004219e+00,7,1,4.208942e-01,4.202360e-01,1
2.094214e+00,5.710309e+00,5.698919e+00,7,12,5.942196e-01,5.776358e-01,1
2.097544e+00,5.557775e+00,5.546808e+00,7,12,3.257493e-01,3.237315e-01,1
1.201022e+00,3.610120e+00,3.598213e+00,4,7,5.207611e-01,5.126376e-01,1
2.982686e+00,2.692481e+00,2.682924e+00,10,5,3.639445e-01,3.453088e-01,1
2.982912e+00,1.925557e+00,1.913786e+00,10,3,3.558318e-01,3.556456e-01,1
2.086771e+00,1.038449e+00,1.028061e+00,7,1,4.064787e-01,4.056865e-01,1
2.089782e+00,2.785247e+00,2.773046e+00,7,5,5.982722e-01,5.924766e-01,1
1.797584e+00,4.003534e+00,3.992081e+00,6,8,3.248628e-01,3.219609e-01,1
1.502511e+00,5.318978e+00,5.307198e+00,5,11,5.721491e-01,5.688891e-01,1
2.096030e+00,2.646079e+00,2.634048e+00,7,5,1.228815e+00,1.215167e+00,1
2.093987e+00,5.919253e+00,5.907059e+00,7,13,6.798528e-01,6.769043e-01,1
2.986311e+00,4.471589e+00,4.460096e+00,10,9,5.012600e-01,4.856196e-01,1
2.097304e+00,2.743672e+00,2.732038e+00,7,5,2.974718e-01,2.953956e-01,1
2.089771e+00,1.049408e+00,1.037121e+00,7,1,3.175282e-01,3.157372e-01,1
2.701586e+00,1.468380e+00,1.457930e+00,9,2,3.633751e-01,3.621059e-01,1
2.092467e+00,4.026031e+00,4.014969e+00,7,8,7.459652e-01,7.325732e-01,1
2.090250e+00,3.076535e+00,3.066063e+00,7,6,5.577632e-01,5.551837e-01,1
2.386616e+00,2.305489e+00,2.294064e+00,8,4,4.551906e-01,4.515817e-01,1
2.089329e+00,5.993930e-01,5.879402e-01,7,0,4.711102e-01,4.702812e-01,1
1.205779e+00,2.788365e+00,2.776861e+00,4,5,6.004361e-01,5.867587e-01,1
2.107170e+00,2.306502e+00,2.295017e+00,7,4,9.161493e-01,9.050046e-01,1
2.090398e+00,2.664941e+00,2.652884e+00,7,5,1.701807e+00,1.675419e+00,1
2.090362e+00,2.199871e+00,2.188921e+00,7,4,2.102642e+00,2.081938e+00,1
2.091548e+00,5.029118e+00,5.017996e+00,7,11,1.836799e+00,1.828158e+00,1
1.504268e+00,4.267904e+00,4.256964e+00,5,9,1.646956e+00,1.643281e+00,1
2.094340e+00,3.582298e+00,3.570795e+00,7,7,1.167264e+00,1.165233e+00,1
2.087397e+00,3.153548e+00,3.142834e+00,7,6,1.092260e+00,1.087797e+00,1
2.091432e+00,2.343232e+00,2.331018e+00,7,4,1.047759e+00,1.040383e+00,1
1.497031e+00,3.186809e+00,3.175974e+00,5,6,8.217712e-01,8.180298e-01,1
2.095057e+00,3.551320e+00,3.539085e+00,7,7,8.283567e-01,8.223968e-01,1
2.104922e+00,3.595909e+00,3.584862e+00,7,7,5.930162e-01,5.901155e-01,1
2.091936e+00,3.610920e+00,3.595114e+00,7,7,5.147032e-01,5.112398e-01,1
2.086333e+00,1.018290e+00,1.006842e+00,7,1,7.746269e-01,7.703103e-01,1
2.092156e+00,5.540862e+00,5.529642e+00,7,10,9.527223e-01,9.407249e-01,1
2.094574e+00,4.364259e+00,4.351854e+00,7,7,1.945263e+00,1.917854e+00,1
2.088489e+00,2.235117e+00,2.223969e+00,7,3,2.289516e+00,2.258014e+00,1
2.092011e+00,4.792992e+00,4.782915e+00,7,8,2.262990e+00,2.241992e+00,1
2.095749e+00,7.051326e+00,7.040024e+00,7,13,1.940785e+00,1.926297e+00,1
2.408283e+00,3.375496e+00,3.362894e+00,8,7,1.648478e+00,1.645365e+00,1
2.093326e+00,5.109201e+00,5.096912e+00,7,11,1.830392e+00,1.819572e+00,1
2.092447e+00,6.000300e+00,5.990028e+00,7,13,1.812994e+00,1.797114e+00,1
2.099769e+00,4.197903e+00,4.187107e+00,7,9,1.478451e+00,1.471785e+00,1
2.094429e+00,5.052710e+00,5.042076e+00,7,11,1.091350e+00,1.077169e+00,1
1.505152e+00,6.020062e+00,6.008148e+00,5,13,8.308207e-01,8.280397e-01,1
2.075658e+00,2.698689e+00,2.687931e+00,7,5,6.517126e-01,6.486288e-01,1
2.111878e+00,2.343415e+00,2.331018e+00,7,4,7.044744e-01,6.987906e-01,1
2.130746e+00,2.701683e+00,2.688885e+00,7,5,8.722447e-01,8.632322e-01,1
2.422589e+00,4.376610e+00,4.366875e+00,8,9,4.381296e-01,4.363663e-01,1
2.092864e+00,1.485665e+00,1.475096e+00,7,2,4.310391e-01,4.297039e-01,1
2.087920e+00,1.456140e+00,1.446009e+00,7,2,5.082070e-01,5.062563e-01,1
2.398689e+00,1.869829e+00,1.858950e+00,8,3,2.932955e-01,2.917608e-01,1
1.194413e+00,5.992680e-01,5.877018e-01,4,0,2.986262e-01,2.967480e-01,1
1.495035e+00,6.027990e-01,5.922318e-01,5,0,3.131139e-01,3.115907e-01,1
1.788770e+00,5.946480e-01,5.841255e-01,6,0,3.618601e-01,3.612092e-01,1
1.500767e+00,2.780019e+00,2.770185e+00,5,5,5.106840e-01,5.097727e-01,1
2.983546e+00,3.568655e+00,3.558159e+00,10,7,3.212354e-01,3.209325e-01,1
2.387768e+00,2.771146e+00,2.758980e+00,8,5,3.896793e-01,3.860989e-01,1
2.088391e+00,2.737426e+00,2.724886e+00,7,5,3.980033e-01,3.932605e-01,1
2.091735e+00,2.746414e+00,2.734184e+00,7,5,3.050779e-01,3.030255e-01,1
2.087977e+00,2.753343e+00,2.740860e+00,7,5,3.116604e-01,3.043113e-01,1
2.088611e+00,2.734502e+00,2.722740e+00,7,5,9.571339e-01,9.477246e-01,1
2.094645e+00,6.634525e+00,6.623030e+00,7,15,1.892558e+00,1.862072e+00,1
2.097932e+00,4.014243e+00,4.003048e+00,7,9,2.211159e+00,2.182193e+00,1
2.091142e+00,5.975504e+00,5.964041e+00,7,14,1.762983e+00,1.751850e+00,1
2.086145e+00,3.769934e+00,3.758907e+00,7,8,1.507327e+00,1.480891e+00,1
2.087070e+00,3.441158e+00,3.431082e+00,7,7,1.377211e+00,1.366827e+00,1
2.088961e+00,4.280995e+00,4.271030e+00,7,9,1.207126e+00,1.201109e+00,1
1.167632e+00,6.817850e+00,6.808996e+00,4,15,7.475536e-01,7.291959e-01,1
2.053106e+00,2.588147e+00,2.578974e+00,7,5,6.680629e-01,6.488796e-01,1
2.082919e+00,4.107113e+00,4.097939e+00,7,9,1.560438e+00,1.514579e+00,1
2.078772e+00,1.276627e+00,1.265764e+00,7,2,2.299779e+00,2.250495e+00,1
2.052576e+00,4.335157e+00,4.324913e+00,7,10,2.976685e+00,2.919907e+00,1
2.077787e+00,6.617441e+00,6.607056e+00,7,16,2.628826e+00,2.608276e+00,1
2.088108e+00,5.627219e+00,5.616188e+00,7,13,1.978648e+00,1.965235e+00,1
2.985653e+00,4.153162e+00,4.141808e+00,10,9,1.403096e+00,1.376809e+00,1
2.087880e+00,5.846662e+00,5.836010e+00,7,13,1.271682e+00,1.258203e+00,1
2.087521e+00,1.367886e+00,1.358032e+00,7,2,2.027022e+00,2.008463e+00,1
2.085593e+00,2.540119e+00,2.529144e+00,7,5,1.907699e+00,1.881666e+00,1
2.086359e+00,4.178742e+00,4.170179e+00,7,9,1.556856e+00,1.544544e+00,1
2.388224e+00,4.280926e+00,4.271984e+00,8,9,1.413466e+00,1.410052e+00,1
2.085804e+00,3.089196e+00,3.078938e+00,7,6,1.337311e+00,1.327422e+00,1
2.086084e+00,1.780310e+00,1.770020e+00,7,3,1.210350e+00,1.205055e+00,1
1.786902e+00,2.662611e+00,2.652168e+00,6,5,1.435058e+00,1.422140e+00,1
2.088314e+00,6.408306e+00,6.394148e+00,7,14,1.246686e+00,1.236856e+00,1
2.086390e+00,4.227580e+00,4.217863e+00,7,9,1.187955e+00,1.181646e+00,1
3.296784e+00,2.635606e+00,2.622128e+00,11,5,1.097409e+00,1.087551e+00,1
2.090516e+00,1.851080e+00,1.839638e+00,7,3,8.580900e-01,8.531684e-01,1
2.088405e+00,3.088281e+00,3.077984e+00,7,6,6.586280e-01,6.534484e-01,1
2.087128e+00,4.365071e+00,4.354954e+00,7,7,7.834531e-01,7.727328e-01,1
2.085312e+00,2.945935e+00,2.935171e+00,7,5,6.248252e-01,6.176776e-01,1
2.086757e+00,3.445251e+00,3.435850e+00,7,7,3.365585e-01,3.347618e-01,1
2.084057e+00,1.430991e+00,1.420021e+00,7,2,2.822905e-01,2.816696e-01,1
2.977990e+00,2.320399e+00,2.310038e+00,10,4,3.515978e-01,3.397634e-01,1
2.085589e+00,1.893810e+00,1.883030e+00,7,3,4.597896e-01,4.536894e-01,1
2.084147e+00,1.881749e+00,1.871109e+00,7,3,5.254572e-01,5.207397e-01,1
2.085215e+00,2.272538e+00,2.263069e+00,7,4,4.285017e-01,4.255960e-01,1
2.977527e+00,1.852332e+00,1.842022e+00,10,3,3.323496e-01,3.100386e-01,1
1.200031e+00,2.763537e+00,2.753973e+00,4,5,4.318537e-01,4.272089e-01,1
2.380013e+00,2.717765e+00,2.708912e+00,8,5,1.613745e-01,1.580646e-01,1
3.284822e+00,1.015168e+00,1.004934e+00,11,1,1.545687e-01,1.531234e-01,1
1.200559e+00,6.253010e-01,6.139278e-01,4,0,1.590063e-01,1.578826e-01,1
1.202864e+00,1.052268e+00,1.039982e+00,4,1,1.649813e-01,1.646959e-01,1
3.600524e+00,1.023068e+00,1.013994e+00,12,1,2.141371e-01,1.987819e-01,1
1.210411e+00,1.598651e+00,1.580000e+00,4,2,3.057511e-01,3.041144e-01,1
2.101717e+00,2.413433e+00,2.396107e+00,7,4,2.183226e-01,2.129733e-01,1
1.508073e+00,2.422092e+00,2.405167e+00,5,4,2.526079e-01,2.513990e-01,1
2.092037e+00,1.944163e+00,1.927853e+00,7,3,3.598374e-01,3.572827e-01,1
1.497558e+00,2.328901e+00,2.317190e+00,5,4,2.071370e-01,2.062367e-01,1
2.396144e+00,1.480688e+00,1.470089e+00,8,2,2.439761e-01,2.422515e-01,1
2.980180e+00,1.041547e+00,1.028776e+00,10,1,2.148179e-01,1.995234e-01,1
1.498094e+00,1.055555e+00,1.044035e+00,5,1,3.075132e-01,3.067529e-01,1
2.382511e+00,1.911160e+00,1.901150e+00,8,3,3.022221e-01,2.976530e-01,1
2.087331e+00,1.475604e+00,1.463175e+00,7,2,1.485811e-01,1.479665e-01,1
1.497339e+00,1.457425e+00,1.445770e+00,5,2,1.438721e-01,1.434951e-01,1
2.380938e+00,6.085420e-01,5.991459e-01,8,0,2.481114e-01,2.468186e-01,1
1.198418e+00,6.008320e-01,5.898476e-01,4,0,1.887692e-01,1.881137e-01,1
3.277589e+00,6.040680e-01,5.931854e-01,11,0,1.685411e-01,1.670144e-01,1
2.980975e+00,1.493151e+00,1.482964e+00,10,2,3.524000e-01,3.430494e-01,1
1.793505e+00,1.464436e+00,1.454115e+00,6,2,2.444686e-01,2.439453e-01,1
1.491253e+00,1.927572e+00,1.918077e+00,5,3,4.370349e-01,4.361922e-01,1
2.095119e+00,3.182187e+00,3.170013e+00,7,6,8.638251e-01,8.551699e-01,1
2.090907e+00,4.354894e+00,4.342079e+00,7,9,7.146627e-01,7.071683e-01,1
2.385247e+00,3.163245e+00,3.148079e+00,8,6,4.794424e-01,4.752704e-01,1
2.089463e+00,3.551268e+00,3.540039e+00,7,7,7.912029e-01,7.825709e-01,1
2.091327e+00,1.392415e+00,1.381159e+00,7,2,1.066814e+00,1.062253e+00,1
2.089498e+00,4.311708e+00,4.299879e+00,7,9,5.195913e-01,5.186347e-01,1
1.499103e+00,1.443554e+00,1.432896e+00,5,2,4.010271e-01,3.997689e-01,1
1.791855e+00,2.786139e+00,2.774954e+00,6,5,4.032145e-01,4.021586e-01,1
2.089824e+00,2.713114e+00,2.701998e+00,7,5,1.842934e-01,1.834841e-01,1
2.979944e+00,1.472514e+00,1.460791e+00,10,2,7.908072e-02,7.907200e-02,1
1.198360e+00,1.480162e+00,1.470089e+00,4,2,1.554841e-01,1.552573e-01,1
2.984014e+00,1.028622e+00,1.017809e+00,10,1,2.778704e-01,2.560264e-01,1
1.202575e+00,2.367066e+00,2.355099e+00,4,4,2.960654e-01,2.929597e-01,1
2.086763e+00,1.874533e+00,1.863003e+00,7,3,7.618826e-01,7.538138e-01,1
2.098768e+00,2.275789e+00,2.263784e+00,7,4,4.998383e-01,4.993203e-01,1
2.988792e+00,1.463659e+00,1.453161e+00,10,2,4.621042e-01,4.419135e-01,1
2.983557e+00,5.999220e-01,5.891323e-01,10,0,4.157216e-01,3.947923e-01,1
2.087089e+00,1.491199e+00,1.481056e+00,7,2,3.452273e-01,3.438806e-01,1
2.981745e+00,1.917238e+00,1.905918e+00,10,3,4.227123e-01,4.151496e-01,1
2.089346e+00,1.887233e+00,1.875877e+00,7,3,4.944812e-01,4.925568e-01,1
2.986681e+00,2.776442e+00,2.765179e+00,10,5,4.303945e-01,4.137767e-01,1
2.088096e+00,2.775876e+00,2.765179e+00,7,5,3.880755e-01,3.786484e-01,1
2.087862e+00,1.044369e+00,1.032829e+00,7,1,4.566733e-01,4.548843e-01,1
2.087073e+00,1.038418e+00,1.025915e+00,7,1,4.438240e-01,4.428789e-01,1
2.085524e+00,1.041454e+00,1.029968e+00,7,1,5.238194e-01,5.221284e-01,1
2.984259e+00,2.329463e+00,2.318144e+00,10,4,3.400849e-01,3.225656e-01,1
1.204685e+00,3.238552e+00,3.225803e+00,4,6,3.224417e-01,3.125909e-01,1
2.089121e+00,2.293918e+00,2.281666e+00,7,4,3.107865e-01,3.065008e-01,1
2.086641e+00,1.873571e+00,1.862049e+00,7,3,4.040494e-01,4.012331e-01,1
1.196614e+00,2.306626e+00,2.295017e+00,4,4,3.929035e-01,3.823422e-01,1
2.091806e+00,5.328015e+00,5.315781e+00,7,11,1.046154e+00,1.040099e+00,1
2.095470e+00,4.661843e+00,4.650831e+00,7,10,7.443688e-01,7.367476e-01,1
2.092879e+00,2.683316e+00,2.671003e+00,7,5,7.006595e-01,6.982810e-01,1
2.092828e+00,1.031567e+00,1.019955e+00,7,1,5.951417e-01,5.936452e-01,1
2.105362e+00,3.187880e+00,3.176928e+00,7,6,5.848349e-01,5.825091e-01,1
2.089219e+00,1.009977e+00,9.980202e-01,7,1,4.051842e-01,4.010972e-01,1
2.097669e+00,3.120560e+00,3.108978e+00,7,6,4.793555e-01,4.767602e-01,1
2.091091e+00,1.886422e+00,1.874924e+00,7,3,5.810548e-01,5.783327e-01,1
1.793694e+00,2.714341e+00,2.704144e+00,6,5,4.643719e-01,4.642136e-01,1
1.202798e+00,2.780917e+00,2.771139e+00,4,5,5.246526e-01,5.197548e-01,1
2.093141e+00,3.155544e+00,3.144979e+00,7,6,4.432823e-01,4.419291e-01,1
1.794669e+00,2.753466e+00,2.742052e+00,6,5,3.498446e-01,3.473578e-01,1
2.090672e+00,2.720850e+00,2.709150e+00,7,5,2.990774e-01,2.967416e-01,1
1.497807e+00,2.305851e+00,2.295971e+00,5,4,2.074258e-01,2.066192e-01,1
2.980493e+00,1.458175e+00,1.447916e+00,10,2,2.618820e-01,2.480387e-01,1
2.092758e+00,1.046397e+00,1.035929e+00,7,1,2.909520e-01,2.897338e-01,1
2.386318e+00,1.909875e+00,1.898050e+00,8,3,2.749375e-01,2.746185e-01,1
2.985744e+00,2.354891e+00,2.343893e+00,10,4,3.203320e-01,3.053538e-01,1
1.501758e+00,2.770745e+00,2.757788e+00,5,5,3.232533e-01,3.113517e-01,1
1.495059e+00,1.871829e+00,1.860142e+00,5,3,2.843914e-01,2.841077e-01,1
2.087970e+00,1.910628e+00,1.899004e+00,7,3,3.110951e-01,3.103788e-01,1
2.391999e+00,1.896947e+00,1.886845e+00,8,3,2.669702e-01,2.651313e-01,1
2.093502e+00,4.069505e+00,4.056931e+00,7,8,6.048832e-01,6.042077e-01,1
2.093435e+00,4.319781e+00,4.309177e+00,7,9,1.374213e+00,1.350975e+00,1
2.094529e+00,3.360666e+00,3.348112e+00,7,7,9.717745e-01,9.635860e-01,1
2.092085e+00,3.498039e+00,3.486156e+00,7,7,6.432021e-01,6.425341e-01,1
2.985530e+00,1.913398e+00,1.900911e+00,10,3,5.434008e-01,5.417703e-01,1
2.390378e+00,1.470750e+00,1.459122e+00,8,2,5.352541e-01,5.327916e-01,1
2.091244e+00,3.616608e+00,3.605843e+00,7,7,3.787952e-01,3.721942e-01,1
1.504511e+00,4.371479e+00,4.359961e+00,5,9,4.001469e-01,3.989157e-01,1
2.089114e+00,1.453384e+00,1.443148e+00,7,2,4.280948e-01,4.256471e-01,1
2.089070e+00,1.457609e+00,1.446962e+00,7,2,4.968685e-01,4.952481e-01,1
2.093140e+00,1.884962e+00,1.873970e+00,7,3,4.107326e-01,4.101508e-01,1
1.504071e+00,4.046184e+00,4.034996e+00,5,8,5.219457e-01,5.196183e-01,1
2.092437e+00,4.304098e+00,4.292965e+00,7,9,6.222240e-01,6.059986e-01,1
2.088487e+00,4.212148e+00,4.201174e+00,7,9,4.209628e-01,4.159401e-01,1
1.798972e+00,2.282338e+00,2.270937e+00,6,4,2.698131e-01,2.686989e-01,1
2.092496e+00,2.314513e+00,2.301931e+00,7,4,1.650258e-01,1.610599e-01,1
1.198564e+00,6.173630e-01,6.041527e-01,4,0,2.360247e-01,2.355072e-01,1
2.392012e+00,1.054624e+00,1.044989e+00,8,1,3.222607e-01,3.201867e-01,1
2.985804e+00,1.930645e+00,1.918077e+00,10,3,3.485157e-01,3.258996e-01,1
1.200184e+00,1.479652e+00,1.466990e+00,4,2,2.034775e-01,2.017512e-01,1
2.683300e+00,1.068031e+00,1.057148e+00,9,1,2.364342e-01,2.245603e-01,1
2.091342e+00,1.049090e+00,1.038074e+00,7,1,2.914060e-01,2.905743e-01,1
2.390205e+00,1.464382e+00,1.453161e+00,8,2,3.145549e-01,3.123918e-01,1
2.089304e+00,1.902114e+00,1.889706e+00,7,3,4.748291e-01,4.728156e-01,1
2.085567e+00,1.448533e+00,1.436949e+00,7,2,2.832418e-01,2.828129e-01,1
2.391349e+00,1.038270e+00,1.025915e+00,8,1,2.857768e-01,2.850665e-01,1
1.208720e+00,6.577410e+00,6.565094e+00,4,14,8.890089e-01,8.770544e-01,1
2.096804e+00,3.001908e+00,2.990007e+00,7,6,9.601735e-01,9.487896e-01,1
2.392318e+00,3.538082e+00,3.525734e+00,8,7,4.450361e-01,4.431356e-01,1
2.986476e+00,1.935157e+00,1.923084e+00,10,3,4.981609e-01,4.895873e-01,1
2.094454e+00,2.797876e+00,2.786160e+00,7,5,4.290799e-01,4.251375e-01,1
2.087454e+00,1.454665e+00,1.443863e+00,7,2,3.772536e-01,3.739860e-01,1
2.983886e+00,3.111300e+00,3.099918e+00,10,6,1.301803e-01,1.296136e-01,1
2.980855e+00,1.481776e+00,1.471043e+00,10,2,1.178485e-01,1.175045e-01,1
2.090412e+00,2.364234e+00,2.353191e+00,7,4,2.931091e-01,2.873341e-01,1
2.087351e+00,1.885847e+00,1.874924e+00,7,3,3.885999e-01,3.852558e-01,1
2.086997e+00,1.041529e+00,1.030207e+00,7,1,5.841759e-01,5.828536e-01,1
2.984394e+00,2.765031e+00,2.753973e+00,10,5,2.987588e-01,2.944458e-01,1
1.502459e+00,2.806324e+00,2.793789e+00,5,5,2.456587e-01,2.441987e-01,1
2.085871e+00,2.757040e+00,2.744913e+00,7,5,3.133587e-01,3.078602e-01,1
2.089954e+00,3.957911e+00,3.947020e+00,7,8,5.421056e-01,5.383934e-01,1
2.091551e+00,2.269805e+00,2.259016e+00,7,4,6.131505e-01,6.102203e-01,1
2.085395e+00,1.457586e+00,1.445770e+00,7,2,6.936963e-01,6.896047e-01,1
2.096828e+00,3.593223e+00,3.581047e+00,7,7,5.793634e-01,5.738965e-01,1
2.091915e+00,3.161787e+00,3.149986e+00,7,6,8.537016e-01,8.469881e-01,1
2.392459e+00,3.972147e+00,3.962040e+00,8,8,4.353130e-01,4.343418e-01,1
2.105689e+00,1.930583e+00,1.917839e+00,7,3,4.345056e-01,4.326426e-01,1
2.095179e+00,4.877295e+00,4.859924e+00,7,10,7.563476e-01,7.400547e-01,1
2.091671e+00,4.303052e+00,4.291058e+00,7,9,3.537093e-01,3.465453e-01,1
2.092911e+00,2.316578e+00,2.305031e+00,7,4,3.892921e-01,3.867945e-01,1
1.795965e+00,2.315945e+00,2.305031e+00,6,4,2.921322e-01,2.919236e-01,1
2.979371e+00,1.033393e+00,1.022100e+00,10,1,1.397634e-01,1.249454e-01,1
1.199547e+00,1.054791e+00,1.042843e+00,4,1,1.589053e-01,1.581664e-01,1
1.491782e+00,1.476552e+00,1.465797e+00,5,2,2.221432e-01,2.216377e-01,1
1.500975e+00,1.019593e+00,1.008034e+00,5,1,1.670806e-01,1.667461e-01,1
1.494194e+00,4.495380e+00,4.483938e+00,5,9,4.621955e-01,4.577656e-01,1
2.091874e+00,2.656100e+00,2.644062e+00,7,5,2.879226e-01,2.861999e-01,1
1.496464e+00,2.296674e+00,2.286196e+00,5,4,2.047206e-01,2.042100e-01,1
2.985529e+00,5.886130e-01,5.779266e-01,10,0,2.307967e-01,2.093943e-01,1
1.200705e+00,1.924193e+00,1.914024e+00,4,3,3.284975e-01,3.235890e-01,1
2.086818e+00,1.011740e+00,1.000881e+00,7,1,4.845742e-01,4.826696e-01,1
1.794890e+00,3.640398e+00,3.628969e+00,6,7,7.044119e-01,6.891817e-01,1
2.089552e+00,7.358462e+00,7.346153e+00,7,16,7.153671e-01,7.000002e-01,1
2.091017e+00,3.011523e+00,2.999783e+00,7,6,1.067386e+00,1.053053e+00,1
2.092631e+00,4.688549e+00,4.677057e+00,7,10,3.800869e-01,3.783921e-01,1
1.796037e+00,3.627133e+00,3.615856e+00,6,7,3.149228e-01,3.141318e-01,1
2.094007e+00,3.170736e+00,3.158808e+00,7,6,1.707164e-01,1.690359e-01,1
2.091424e+00,1.921412e+00,1.910210e+00,7,3,2.723796e-01,2.688357e-01,1
2.089116e+00,4.005125e+00,3.993034e+00,7,8,4.486901e-01,4.421576e-01,1
1.496596e+00,3.511112e+00,3.500223e+00,5,7,4.837262e-01,4.736788e-01,1
2.089251e+00,2.717711e+00,2.707005e+00,7,5,6.100056e-01,6.047809e-01,1
2.087049e+00,2.253496e+00,2.241850e+00,7,4,4.813638e-01,4.790722e-01,1
2.090671e+00,1.879969e+00,1.868963e+00,7,3,4.383959e-01,4.371972e-01,1
2.089744e+00,2.324934e+00,2.315044e+00,7,4,7.210852e-01,7.165966e-01,1
2.091492e+00,2.329075e+00,2.317905e+00,7,4,8.212414e-01,8.168710e-01,1
1.497943e+00,3.582659e+00,3.571033e+00,5,7,6.708398e-01,6.689926e-01,1
2.088926e+00,1.887652e+00,1.877069e+00,7,3,5.627111e-01,5.611363e-01,1
2.984651e+00,4.078016e+00,4.065990e+00,10,8,7.594228e-01,7.586827e-01,1
1.796571e+00,4.016326e+00,4.004955e+00,6,8,4.181034e-01,4.177136e-01,1
2.088407e+00,1.476601e+00,1.466036e+00,7,2,3.403868e-01,3.379789e-01,1
2.387512e+00,3.650793e+00,3.638983e+00,8,7,6.243721e-01,6.212334e-01,1
2.988135e+00,4.450001e+00,4.436970e+00,10,9,6.736731e-01,6.717922e-01,1
2.089528e+00,1.463063e+00,1.451015e+00,7,2,7.996801e-01,7.960919e-01,1
2.984998e+00,3.573864e+00,3.561974e+00,10,7,2.838757e-01,2.765672e-01,1
2.084539e+00,1.487908e+00,1.476049e+00,7,2,3.061468e-01,3.019043e-01,1
2.088277e+00,1.890021e+00,1.878023e+00,7,3,5.045671e-01,4.984827e-01,1
2.087453e+00,1.012789e+00,1.001835e+00,7,1,6.392411e-01,6.338242e-01,1
1.498367e+00,3.594509e+00,3.582954e+00,5,7,5.657578e-01,5.624196e-01,1
2.090589e+00,2.349479e+00,2.337933e+00,7,4,5.572819e-01,5.536000e-01,1
2.089867e+00,3.155011e+00,3.144026e+00,7,6,4.287909e-01,4.265106e-01,1
2.983650e+00,1.864968e+00,1.853943e+00,10,3,3.202054e-01,3.200702e-01,1

