1.378783e+00,1.471689e+03,1.470779e+03,2,1000,0.000000e+00,1.869165e-16,0
2.028705e+00,1.259857e+02,1.259480e+02,3,109,1.480035e-01,1.480038e-01,1
1.993336e+00,1.199222e+00,1.177073e+00,3,0,2.735314e-01,2.735321e-01,1
1.993077e+00,1.189663e+00,1.172066e+00,3,0,5.775439e-01,5.775449e-01,1
1.989308e+00,1.189298e+00,1.171827e+00,3,0,5.324780e-01,5.324785e-01,1
1.992670e+00,1.188689e+00,1.173019e+00,3,0,2.501528e+00,2.501532e+00,1
1.996033e+00,1.187475e+00,1.169920e+00,3,0,3.489064e+00,3.489067e+00,1
1.992650e+00,1.190226e+00,1.173019e+00,3,0,4.578991e+00,4.578994e+00,1
1.992455e+00,1.190678e+00,1.174212e+00,3,0,2.251673e+00,2.251671e+00,1
1.993146e+00,1.188014e+00,1.170874e+00,3,0,1.996298e+00,1.996298e+00,1
1.995457e+00,1.188505e+00,1.172066e+00,3,0,1.651799e+00,1.651800e+00,1
1.995643e+00,1.196337e+00,1.179934e+00,3,0,1.911398e+00,1.911400e+00,1
1.999640e+00,1.189680e+00,1.174212e+00,3,0,3.170253e+00,3.170257e+00,1
1.992588e+00,1.188582e+00,1.172066e+00,3,0,4.326383e+00,4.326386e+00,1
1.991446e+00,1.187963e+00,1.171112e+00,3,0,3.965770e+00,3.965770e+00,1
1.992597e+00,3.310733e+00,3.293991e+00,3,2,5.538896e+00,5.540171e+00,1
1.992681e+00,2.352467e+00,2.334833e+00,3,1,4.325573e+00,4.328745e+00,1
1.997116e+00,4.465884e+00,4.442930e+00,3,3,3.786424e+00,3.788805e+00,1
1.996970e+00,5.462855e+00,5.444050e+00,3,4,3.617615e+00,3.633890e+00,1
1.993310e+00,2.349839e+00,2.333164e+00,3,1,3.447867e+00,3.460830e+00,1
1.997905e+00,4.378284e+00,4.360914e+00,3,3,3.608581e+00,3.630745e+00,1
1.999857e+00,2.354862e+00,2.336979e+00,3,1,3.007740e+00,3.009233e+00,1
1.992897e+00,1.440100e+00,1.422167e+00,3,0,2.708763e+00,2.715261e+00,1
1.994770e+00,3.433130e+00,3.417015e+00,3,2,2.361952e+00,2.478735e+00,1
1.991386e+00,2.688449e+00,2.671003e+00,3,1,2.331054e+00,2.373522e+00,1
1.991784e+00,1.435194e+00,1.416922e+00,3,0,2.254522e+00,2.254676e+00,1
1.993407e+00,2.109685e+00,2.093077e+00,3,1,1.866734e+00,1.866654e+00,1
1.992406e+00,1.188016e+00,1.171112e+00,3,0,1.339155e+00,1.338722e+00,1
1.996569e+00,1.190488e+00,1.173973e+00,3,0,6.753983e-01,6.754009e-01,1
1.993032e+00,1.186701e+00,1.168728e+00,3,0,5.788198e-01,5.788201e-01,1
1.990732e+00,1.186360e+00,1.168966e+00,3,0,1.149220e+00,1.149222e+00,1
1.991667e+00,1.191707e+00,1.173973e+00,3,0,1.355570e+00,1.355571e+00,1
1.990411e+00,1.188305e+00,1.170158e+00,3,0,1.169467e+00,1.169467e+00,1
1.997076e+00,1.188568e+00,1.171827e+00,3,0,1.807369e+00,1.807372e+00,1
1.990956e+00,1.192329e+00,1.174927e+00,3,0,1.478349e+00,1.478349e+00,1
1.996273e+00,1.188892e+00,1.171112e+00,3,0,1.091055e+00,1.091054e+00,1
1.994124e+00,1.189455e+00,1.172066e+00,3,0,7.992393e-01,7.992399e-01,1
1.990786e+00,1.192600e+00,1.176119e+00,3,0,6.655803e-01,6.655808e-01,1
1.992689e+00,2.353392e+00,2.335787e+00,3,1,1.692698e+00,1.692960e+00,1
1.992851e+00,2.105963e+00,2.088070e+00,3,1,1.868419e+00,1.868420e+00,1
1.993541e+00,3.371234e+00,3.354073e+00,3,2,4.201672e+00,4.302853e+00,1
1.995579e+00,5.463358e+00,5.446196e+00,3,4,5.750965e+00,5.770019e+00,1
1.996700e+00,6.790689e+00,6.772041e+00,3,6,3.643163e+00,3.643158e+00,1
1.995253e+00,2.292946e+00,2.270937e+00,3,1,5.501025e+00,5.501040e+00,1
1.997493e+00,2.126479e+00,2.109051e+00,3,1,4.395883e+00,4.395883e+00,1
1.998348e+00,1.247839e+00,1.229048e+00,3,0,3.555628e+00,3.555629e+00,1
1.997176e+00,1.221324e+00,1.202106e+00,3,0,3.184704e+00,3.184705e+00,1
1.994552e+00,1.209625e+00,1.191139e+00,3,0,2.643536e+00,2.643536e+00,1
1.995907e+00,1.221226e+00,1.202822e+00,3,0,2.123963e+00,2.123963e+00,1
1.992689e+00,1.195464e+00,1.177788e+00,3,0,1.353478e+00,1.353478e+00,1
1.989679e+00,1.190300e+00,1.173019e+00,3,0,1.215006e+00,1.215007e+00,1
1.990503e+00,2.359095e+00,2.341986e+00,3,1,1.931081e+00,1.931190e+00,1
1.993194e+00,2.110573e+00,2.092838e+00,3,1,1.408645e+00,1.408645e+00,1
1.989587e+00,2.356135e+00,2.338886e+00,3,1,1.200561e+00,1.201064e+00,1
1.994790e+00,5.594854e+00,5.576849e+00,3,4,1.587038e+00,1.611785e+00,1
1.996471e+00,2.352449e+00,2.334118e+00,3,1,2.178975e+00,2.207225e+00,1
2.651664e+00,2.108655e+00,2.090931e+00,4,1,1.184330e+00,1.184330e+00,1
1.994066e+00,1.187913e+00,1.170158e+00,3,0,1.825510e+00,1.825512e+00,1
1.989465e+00,1.188458e+00,1.171112e+00,3,0,2.574948e+00,2.574947e+00,1
1.994575e+00,1.189489e+00,1.172781e+00,3,0,3.881336e+00,3.881278e+00,1
1.988645e+00,1.185379e+00,1.169920e+00,3,0,1.759165e+00,1.759168e+00,1
1.995828e+00,4.379717e+00,4.362106e+00,3,3,3.799495e+00,3.861177e+00,1
2.004380e+00,1.250901e+01,1.248312e+01,3,8,7.152471e+00,7.527641e+00,0
2.000094e+00,1.791711e+01,1.789689e+01,3,17,3.883980e+00,3.885568e+00,1
1.996567e+00,7.047905e+00,7.023096e+00,3,3,5.336825e+00,6.300330e+00,0
2.651110e+00,5.025591e+00,5.007029e+00,4,4,2.310871e+00,2.310869e+00,1
1.990826e+00,1.197393e+00,1.179218e+00,3,0,2.477080e+00,2.477080e+00,1
1.990185e+00,1.192073e+00,1.173973e+00,3,0,1.938168e+00,1.938169e+00,1
1.990419e+00,1.188690e+00,1.171112e+00,3,0,1.521427e+00,1.521428e+00,1
1.991060e+00,1.195158e+00,1.178026e+00,3,0,1.165304e+00,1.165305e+00,1
2.001126e+00,1.188300e+00,1.170635e+00,3,0,1.739616e+00,1.739617e+00,1
1.991550e+00,1.189693e+00,1.172066e+00,3,0,1.775341e+00,1.775341e+00,1
1.992654e+00,1.195898e+00,1.177788e+00,3,0,1.799533e+00,1.799534e+00,1
1.992147e+00,2.343390e+00,2.324820e+00,3,1,2.026204e+00,2.027385e+00,1
1.999210e+00,3.582559e+00,3.565788e+00,3,2,2.951182e+00,2.980881e+00,1
1.997072e+00,4.494360e+00,4.477024e+00,3,3,3.962306e+00,4.013208e+00,1
1.996660e+00,5.263528e+00,5.246878e+00,3,4,2.385917e+00,2.430454e+00,1
1.998504e+00,3.606283e+00,3.588915e+00,3,2,2.376847e+00,2.392632e+00,1
1.992948e+00,1.429884e+00,1.412868e+00,3,0,1.754886e+00,1.771048e+00,1
1.990683e+00,2.116775e+00,2.097845e+00,3,1,8.692411e-01,8.692410e-01,1
1.991909e+00,1.186518e+00,1.169920e+00,3,0,2.988873e+00,2.988879e+00,1
1.989740e+00,1.191276e+00,1.172781e+00,3,0,2.211724e+00,2.211723e+00,1
1.998083e+00,1.187927e+00,1.170158e+00,3,0,1.979790e+00,1.979790e+00,1
1.999391e+00,2.350415e+00,2.331972e+00,3,1,1.907464e+00,1.936038e+00,1
1.996410e+00,3.356682e+00,3.339052e+00,3,2,2.745857e+00,2.745862e+00,1
1.998580e+00,2.356210e+00,2.337217e+00,3,1,4.925411e+00,4.946120e+00,1
1.997577e+00,9.776709e+00,9.757996e+00,3,8,7.371164e+00,7.456837e+00,1
1.999850e+00,1.318262e+01,1.315498e+01,3,9,1.074765e+01,2.018605e+01,0
1.998386e+00,9.045954e+00,9.020805e+00,3,5,8.738438e+00,1.644648e+01,0
2.003687e+00,1.932847e+01,1.930165e+01,3,16,6.238975e+00,8.490175e+00,0
2.002161e+00,7.099358e+00,7.081032e+00,3,6,4.812333e+00,4.825883e+00,1
1.992269e+00,1.438811e+00,1.420021e+00,3,0,3.371712e+00,3.372612e+00,1
2.001625e+00,9.749074e+00,9.731054e+00,3,8,4.771439e+00,4.879753e+00,1
1.999028e+00,1.014018e+01,1.012206e+01,3,9,3.545088e+00,3.564188e+00,1
2.000600e+00,7.521978e+00,7.503986e+00,3,6,4.578292e+00,4.662207e+00,1
3.994525e+00,1.292051e+01,1.290202e+01,6,12,5.027552e+00,5.067900e+00,1
2.663470e+00,8.015423e+00,7.997036e+00,4,7,2.153361e+00,2.225741e+00,1
2.000891e+00,2.117639e+00,2.100229e+00,3,1,1.868824e+00,1.868825e+00,1
1.995306e+00,1.193768e+00,1.177073e+00,3,0,2.662940e+00,2.662942e+00,1
2.002017e+00,2.365901e+00,2.347708e+00,3,1,2.891298e+00,2.891521e+00,1
1.992205e+00,2.117814e+00,2.101183e+00,3,1,2.180682e+00,2.180682e+00,1
1.991939e+00,1.193929e+00,1.177073e+00,3,0,2.512553e+00,2.512555e+00,1
1.994957e+00,1.194865e+00,1.178026e+00,3,0,1.480459e+00,1.480459e+00,1
1.993393e+00,1.194425e+00,1.177073e+00,3,0,1.350926e+00,1.350927e+00,1
1.998099e+00,1.192128e+00,1.176119e+00,3,0,1.117416e+00,1.117417e+00,1
1.997545e+00,1.194700e+00,1.176596e+00,3,0,1.167747e+00,1.167748e+00,1
1.998348e+00,2.355413e+00,2.339125e+00,3,1,1.623469e+00,1.623738e+00,1
1.996480e+00,3.276834e+00,3.257990e+00,3,2,1.768939e+00,1.773270e+00,1
1.993216e+00,2.686851e+00,2.668858e+00,3,1,1.140594e+00,1.143662e+00,1
2.001583e+00,4.703062e+00,4.685163e+00,3,3,1.145490e+00,1.199169e+00,1
2.001316e+00,1.451939e+00,1.432896e+00,3,0,1.055083e+00,1.077402e+00,1
1.998614e+00,1.494809e+00,1.475811e+00,3,0,8.891920e-01,8.891932e-01,1
1.996930e+00,2.175133e+00,2.156973e+00,3,1,6.223415e-01,6.223417e-01,1
2.004886e+00,1.252964e+00,1.230955e+00,3,0,1.095555e+00,1.095554e+00,1
2.002531e+00,1.236810e+00,1.217127e+00,3,0,5.822637e-01,5.822638e-01,1
1.998428e+00,1.202636e+00,1.185894e+00,3,0,6.707802e-01,6.707807e-01,1
1.996334e+00,1.196415e+00,1.179218e+00,3,0,1.729745e+00,1.729747e+00,1
1.999895e+00,1.206412e+00,1.189947e+00,3,0,1.261869e+00,1.261869e+00,1
1.997103e+00,2.352066e+00,2.336025e+00,3,1,4.055722e+00,4.056453e+00,1
1.998054e+00,3.283741e+00,3.266096e+00,3,2,2.811980e+00,2.855856e+00,1
1.991959e+00,2.508986e+00,2.490997e+00,3,1,2.727486e+00,2.922973e+00,1
2.002845e+00,5.766084e+00,5.748987e+00,3,4,3.396996e+00,3.520273e+00,1
1.992464e+00,6.197583e+00,6.180048e+00,3,5,3.069329e+00,3.071203e+00,1
1.997412e+00,3.433153e+00,3.415823e+00,3,2,3.383568e+00,3.393334e+00,1
1.992635e+00,1.026007e+01,1.023364e+01,3,6,5.972462e+00,1.035277e+01,0
1.997895e+00,1.142366e+01,1.140499e+01,3,10,3.876169e+00,3.885603e+00,1
2.000842e+00,7.281742e+00,7.263899e+00,3,6,2.947208e+00,2.947255e+00,1
2.002216e+00,3.299760e+00,3.281116e+00,3,2,2.568592e+00,2.570078e+00,1
2.652335e+00,3.034662e+00,3.015757e+00,4,2,1.535570e+00,1.535571e+00,1
1.997089e+00,1.195535e+00,1.178980e+00,3,0,1.689748e+00,1.689736e+00,1
1.997370e+00,1.200420e+00,1.182079e+00,3,0,1.059108e+00,1.059109e+00,1
1.992077e+00,1.193719e+00,1.175880e+00,3,0,1.391634e+00,1.391636e+00,1
1.999752e+00,1.191283e+00,1.173973e+00,3,0,6.224792e-01,6.224794e-01,1
1.993312e+00,1.191179e+00,1.174212e+00,3,0,5.061399e-01,5.061403e-01,1
1.998211e+00,1.190543e+00,1.173973e+00,3,0,5.185207e-01,5.185211e-01,1
1.997482e+00,2.350031e+00,2.331972e+00,3,1,1.126096e+00,1.135746e+00,1
1.998632e+00,3.372132e+00,3.354073e+00,3,2,1.162253e+00,1.162254e+00,1
1.995869e+00,1.191554e+00,1.174212e+00,3,0,9.840393e-01,9.840395e-01,1
1.999092e+00,1.189305e+00,1.173019e+00,3,0,1.072813e+00,1.072814e+00,1
1.991841e+00,1.192391e+00,1.175880e+00,3,0,9.085862e-01,9.085867e-01,1
1.991008e+00,1.191700e+00,1.174927e+00,3,0,1.695306e+00,1.695308e+00,1
1.999813e+00,2.357242e+00,2.338886e+00,3,1,2.891718e+00,2.893506e+00,1
1.996217e+00,4.526913e+00,4.509926e+00,3,3,3.265930e+00,3.313822e+00,1
2.661579e+00,4.531031e+00,4.512787e+00,4,3,2.575516e+00,2.651213e+00,1
1.996333e+00,2.511729e+00,2.494097e+00,3,1,2.289367e+00,2.382800e+00,1
2.001031e+00,3.612768e+00,3.593922e+00,3,2,2.113475e+00,2.261808e+00,1
1.996280e+00,2.364174e+00,2.346992e+00,3,1,1.516395e+00,1.641923e+00,1
1.993799e+00,1.445756e+00,1.426935e+00,3,0,1.344825e+00,1.355418e+00,1
1.991761e+00,2.114643e+00,2.097845e+00,3,1,2.351691e+00,2.351695e+00,1
2.000347e+00,1.193471e+00,1.176119e+00,3,0,3.350783e+00,3.350786e+00,1
1.995622e+00,1.192856e+00,1.174927e+00,3,0,2.045770e+00,2.045769e+00,1
1.997123e+00,1.193141e+00,1.177073e+00,3,0,1.936760e+00,1.936760e+00,1
1.996859e+00,1.191429e+00,1.173735e+00,3,0,1.736972e+00,1.736973e+00,1
1.990210e+00,1.193237e+00,1.174927e+00,3,0,1.592244e+00,1.592244e+00,1
1.992932e+00,1.192949e+00,1.175165e+00,3,0,1.309664e+00,1.309664e+00,1
1.992213e+00,2.370942e+00,2.352953e+00,3,1,1.471493e+00,1.471871e+00,1
2.000343e+00,2.116332e+00,2.099037e+00,3,1,2.408716e+00,2.408719e+00,1
1.997553e+00,1.199624e+00,1.182795e+00,3,0,2.316183e+00,2.316184e+00,1
1.995118e+00,1.193036e+00,1.174927e+00,3,0,2.453369e+00,2.453370e+00,1
2.000444e+00,1.191612e+00,1.173973e+00,3,0,2.787853e+00,2.787856e+00,1
1.992297e+00,1.195318e+00,1.177073e+00,3,0,1.273901e+00,1.273901e+00,1
2.000178e+00,1.191704e+00,1.173973e+00,3,0,1.018688e+00,1.018689e+00,1
1.993941e+00,1.191325e+00,1.174927e+00,3,0,1.067850e+00,1.067851e+00,1
1.993459e+00,1.196021e+00,1.178026e+00,3,0,4.854748e-01,4.854756e-01,1
2.001396e+00,1.191124e+00,1.173019e+00,3,0,4.890399e-01,4.890402e-01,1
1.995513e+00,1.207669e+00,1.190186e+00,3,0,8.369160e-01,8.369170e-01,1
1.991274e+00,1.197038e+00,1.178980e+00,3,0,7.128961e-01,7.128963e-01,1
1.998856e+00,1.193753e+00,1.177073e+00,3,0,1.917615e+00,1.917619e+00,1
1.998356e+00,1.191604e+00,1.174927e+00,3,0,1.424656e+00,1.424657e+00,1
1.991304e+00,1.197261e+00,1.178980e+00,3,0,1.006630e+00,1.006630e+00,1
1.994995e+00,2.354764e+00,2.336979e+00,3,1,8.967746e-01,8.977837e-01,1
1.992125e+00,2.113370e+00,2.095938e+00,3,1,9.131036e-01,9.131041e-01,1
1.991283e+00,1.192922e+00,1.175165e+00,3,0,9.391588e-01,9.391596e-01,1
1.992030e+00,1.192980e+00,1.174927e+00,3,0,5.924145e-01,5.924147e-01,1
1.996915e+00,1.192932e+00,1.175880e+00,3,0,6.653365e-01,6.653374e-01,1
1.990487e+00,1.200621e+00,1.182079e+00,3,0,5.440151e-01,5.440157e-01,1
1.990670e+00,1.191631e+00,1.173973e+00,3,0,4.697511e-01,4.697515e-01,1
1.991209e+00,1.194482e+00,1.176596e+00,3,0,1.265990e+00,1.265993e+00,1
2.001249e+00,1.187766e+00,1.170874e+00,3,0,7.992346e-01,7.992355e-01,1
1.995539e+00,2.357737e+00,2.339840e+00,3,1,1.265642e+00,1.266489e+00,1
1.990545e+00,2.516003e+00,2.498865e+00,3,1,2.042494e+00,2.053411e+00,1
1.993496e+00,2.690534e+00,2.672911e+00,3,1,1.751227e+00,1.791979e+00,1
1.995221e+00,2.693321e+00,2.675056e+00,3,1,1.985288e+00,2.002443e+00,1
1.993677e+00,3.451911e+00,3.434896e+00,3,2,1.392095e+00,1.435964e+00,1
1.990907e+00,3.617352e+00,3.599882e+00,3,2,1.392289e+00,1.412908e+00,1
1.992404e+00,1.444168e+00,1.426220e+00,3,0,1.591704e+00,1.624813e+00,1
1.991877e+00,2.507412e+00,2.490044e+00,3,1,3.495605e+00,3.507880e+00,1
1.990013e+00,3.035722e+00,3.016949e+00,3,2,4.628412e+00,4.628415e+00,1
1.995875e+00,1.192384e+00,1.174927e+00,3,0,4.100773e+00,4.100773e+00,1
1.988986e+00,1.193658e+00,1.176119e+00,3,0,3.334999e+00,3.335000e+00,1
1.994794e+00,2.354659e+00,2.336979e+00,3,1,3.085485e+00,3.088170e+00,1
1.995451e+00,2.114803e+00,2.098083e+00,3,1,2.095495e+00,2.095495e+00,1
1.991286e+00,1.190784e+00,1.173973e+00,3,0,2.070090e+00,2.070092e+00,1
1.992369e+00,3.318173e+00,3.302097e+00,3,2,2.035868e+00,2.035704e+00,1
2.657343e+00,3.036782e+00,3.019094e+00,4,2,1.588500e+00,1.588500e+00,1
2.001372e+00,3.611870e+00,3.593683e+00,3,2,1.398569e+00,1.405488e+00,1
1.994131e+00,4.691959e+00,4.673958e+00,3,3,2.810573e+00,2.956298e+00,1
3.979369e+00,9.749628e+00,9.730816e+00,6,8,5.875620e+00,5.921575e+00,1
3.976508e+00,7.084307e+00,7.065058e+00,6,6,6.171307e+00,6.173405e+00,1
3.313086e+00,9.223151e+00,9.204149e+00,5,8,6.474631e+00,6.463813e+00,1
2.651532e+00,8.457283e+00,8.438110e+00,4,7,7.598755e+00,7.614253e+00,1
3.315409e+00,6.432492e+00,6.413698e+00,5,5,1.077173e+01,1.092300e+01,1
1.994010e+00,1.002254e+01,1.000404e+01,3,9,6.980212e+00,6.993464e+00,1
1.999828e+00,3.422207e+00,3.403902e+00,3,2,8.563926e+00,8.581882e+00,1
1.995091e+00,5.435143e+00,5.416870e+00,3,4,6.582335e+00,6.587482e+00,1
1.994143e+00,7.512089e+00,7.494211e+00,3,6,6.049981e+00,6.068606e+00,1
1.994954e+00,6.302936e+00,6.286144e+00,3,5,4.244257e+00,4.257677e+00,1
2.011476e+00,1.431024e+01,1.428223e+01,3,10,5.192536e+00,5.943215e+00,0
1.995744e+00,9.113796e+00,9.094954e+00,3,8,3.529040e+00,3.545218e+00,1
2.660237e+00,1.443812e+01,1.441908e+01,4,13,4.527675e+00,4.581540e+00,1
2.659333e+00,1.331488e+01,1.329470e+01,4,13,1.487484e+00,1.487822e+00,1
1.991761e+00,1.439491e+00,1.421928e+00,3,0,1.789436e+00,1.829428e+00,1
1.993216e+00,2.125812e+00,2.107620e+00,3,1,3.357471e+00,3.357475e+00,1
1.990262e+00,1.200078e+00,1.178026e+00,3,0,2.536025e+00,2.536025e+00,1
1.994393e+00,3.438198e+00,3.421068e+00,3,2,4.041177e+00,4.047409e+00,1
1.995759e+00,5.435916e+00,5.417109e+00,3,4,3.584877e+00,3.585607e+00,1
1.991925e+00,5.456189e+00,5.437851e+00,3,4,6.182896e+00,6.234121e+00,1
2.648714e+00,4.866786e+00,4.848003e+00,4,4,3.170583e+00,3.170581e+00,1
1.994473e+00,1.200056e+00,1.182079e+00,3,0,2.632901e+00,2.632902e+00,1
1.991033e+00,1.205397e+00,1.187086e+00,3,0,2.062484e+00,2.062485e+00,1
1.992858e+00,1.192412e+00,1.175880e+00,3,0,2.073347e+00,2.073348e+00,1
1.990361e+00,1.192526e+00,1.174212e+00,3,0,2.218737e+00,2.218738e+00,1
1.995888e+00,3.435489e+00,3.417969e+00,3,2,3.363554e+00,3.366471e+00,1
1.992981e+00,3.036928e+00,3.018856e+00,3,2,1.506928e+00,1.506925e+00,1
1.992724e+00,1.199274e+00,1.182079e+00,3,0,1.004878e+00,1.004878e+00,1
1.991657e+00,1.194533e+00,1.176119e+00,3,0,1.144947e+00,1.144948e+00,1
1.996635e+00,1.196193e+00,1.178980e+00,3,0,1.098638e+00,1.098638e+00,1
1.994699e+00,1.208423e+00,1.190901e+00,3,0,8.549561e-01,8.549562e-01,1
1.989337e+00,1.192264e+00,1.174927e+00,3,0,1.390168e+00,1.390171e+00,1
1.994064e+00,1.194690e+00,1.177073e+00,3,0,2.045296e+00,2.045298e+00,1
1.992034e+00,1.196707e+00,1.179934e+00,3,0,3.124440e+00,3.124443e+00,1
2.000129e+00,5.539081e+00,5.521059e+00,3,4,6.813417e+00,6.853352e+00,1
1.997002e+00,7.687707e+00,7.668972e+00,3,6,8.851807e+00,8.977751e+00,1
1.996234e+00,7.060464e+00,7.043123e+00,3,6,6.013595e+00,6.019734e+00,1
1.994805e+00,5.440087e+00,5.418062e+00,3,4,7.441612e+00,7.461308e+00,1
1.994558e+00,1.326183e+01,1.324296e+01,3,12,5.365308e+00,5.380359e+00,1
1.992564e+00,3.593041e+00,3.575087e+00,3,2,4.259696e+00,4.262498e+00,1
2.001200e+00,1.247960e+01,1.246190e+01,3,11,4.734047e+00,4.774745e+00,1
2.002604e+00,1.177482e+01,1.175714e+01,3,11,2.567599e+00,2.567596e+00,1
1.998848e+00,1.193943e+00,1.175165e+00,3,0,1.975918e+00,1.975922e+00,1
1.992483e+00,1.200058e+00,1.181602e+00,3,0,1.521589e+00,1.521589e+00,1
1.993098e+00,1.199864e+00,1.181841e+00,3,0,1.423574e+00,1.423574e+00,1
1.992459e+00,1.195750e+00,1.177788e+00,3,0,1.350111e+00,1.350111e+00,1
1.997403e+00,2.357635e+00,2.340078e+00,3,1,2.090403e+00,2.090446e+00,1
1.991683e+00,2.114158e+00,2.096176e+00,3,1,7.172502e-01,7.172498e-01,1
1.993063e+00,3.441191e+00,3.422737e+00,3,2,2.868687e+00,2.869949e+00,1
1.994901e+00,7.736875e+00,7.719040e+00,3,6,6.331557e+00,6.405300e+00,1
1.998149e+00,7.116057e+00,7.097006e+00,3,6,3.700647e+00,3.703978e+00,1
1.998072e+00,3.039845e+00,3.021717e+00,3,2,2.640164e+00,2.640163e+00,1
1.992940e+00,1.195228e+00,1.177073e+00,3,0,2.165539e+00,2.165539e+00,1
1.994496e+00,1.191354e+00,1.173019e+00,3,0,1.840393e+00,1.840394e+00,1
1.990197e+00,1.199308e+00,1.177073e+00,3,0,1.725534e+00,1.725534e+00,1
1.991979e+00,1.192537e+00,1.174927e+00,3,0,2.906662e+00,2.906666e+00,1
1.991121e+00,2.333909e+00,2.316236e+00,3,1,2.246880e+00,2.246901e+00,1
1.990797e+00,1.436121e+00,1.419067e+00,3,0,1.616626e+00,1.616633e+00,1
1.991332e+00,2.130213e+00,2.111912e+00,3,1,1.799502e+00,1.799503e+00,1
1.993619e+00,4.514594e+00,4.497051e+00,3,3,3.086726e+00,3.100661e+00,1
1.993819e+00,1.442074e+00,1.422882e+00,3,0,5.005652e+00,5.031224e+00,1
1.997528e+00,1.071480e+01,1.069713e+01,3,9,9.121708e+00,9.307052e+00,1
2.001058e+00,1.092136e+01,1.089287e+01,3,7,1.115413e+01,1.526106e+01,0
1.999867e+00,1.809666e+01,1.807141e+01,3,14,1.007035e+01,1.526518e+01,0
1.998586e+00,1.993921e+01,1.991105e+01,3,16,1.057500e+01,1.142142e+01,0
2.000806e+00,2.092349e+01,2.090406e+01,3,20,8.922961e+00,9.167743e+00,1
1.998947e+00,1.212273e+01,1.210308e+01,3,11,9.392495e+00,9.623738e+00,1
2.001396e+00,7.409022e+00,7.389784e+00,3,6,9.381634e+00,9.590349e+00,1
2.000911e+00,1.223901e+01,1.221228e+01,3,8,7.732802e+00,9.406480e+00,0
1.995791e+00,7.267001e+00,7.246733e+00,3,6,6.666680e+00,6.786006e+00,1
1.999378e+00,6.338825e+00,6.320000e+00,3,5,5.132210e+00,5.159022e+00,1
1.995943e+00,5.431908e+00,5.413055e+00,3,4,4.673027e+00,4.716426e+00,1
1.995495e+00,1.153650e+01,1.151896e+01,3,10,4.695849e+00,4.792724e+00,1
3.986983e+00,2.424938e+01,2.422380e+01,6,20,6.045558e+00,1.007606e+01,0
3.977679e+00,4.073040e+00,4.044056e+00,6,0,1.130382e+01,4.081279e+01,0
3.978554e+00,4.071623e+00,4.045725e+00,6,0,1.277357e+01,3.896648e+01,0
3.975691e+00,4.070179e+00,4.042149e+00,6,0,1.451750e+01,3.059993e+01,0
3.989995e+00,2.865625e+01,2.862930e+01,6,25,1.278539e+01,2.657621e+01,0
2.655888e+00,4.118178e+00,4.091263e+00,4,0,1.298027e+01,2.573130e+01,0
3.311009e+00,4.100349e+00,4.073143e+00,5,0,1.601381e+01,3.821172e+01,0
2.679994e+00,3.888648e+01,3.885722e+01,4,35,1.494724e+01,2.476036e+01,0
3.335899e+00,1.169334e+01,1.166415e+01,5,8,1.242761e+01,2.066884e+01,0
2.670344e+00,3.747081e+01,3.743911e+01,4,34,1.069968e+01,1.242155e+01,0
2.037982e+00,2.866185e+01,2.864194e+01,3,28,9.412321e+00,9.548496e+00,1
1.998740e+00,1.679354e+01,1.676321e+01,3,13,8.010562e+00,9.356911e+00,0
2.003584e+00,5.020070e+00,4.995108e+00,3,1,7.179557e+00,1.213579e+01,0
2.008636e+00,2.099007e+01,2.096295e+01,3,17,7.274503e+00,2.005709e+01,0
2.659672e+00,1.783576e+01,1.781607e+01,4,17,4.136387e+00,4.144747e+00,1
1.994904e+00,4.359319e+00,4.341125e+00,3,3,3.549909e+00,3.553618e+00,1
1.996288e+00,9.216766e+00,9.191036e+00,3,5,3.816598e+00,8.342363e+00,0
3.317564e+00,4.207040e+00,4.188061e+00,5,3,2.696525e+00,2.716094e+00,1
2.001482e+00,5.513996e+00,5.495071e+00,3,4,2.275492e+00,2.293953e+00,1
2.671037e+00,3.967240e+00,3.948927e+00,4,3,1.864380e+00,1.863152e+00,1
1.992786e+00,1.197118e+00,1.180172e+00,3,0,1.188756e+00,1.188617e+00,1
1.991541e+00,1.197003e+00,1.178980e+00,3,0,7.332023e-01,7.332056e-01,1
1.996867e+00,1.193837e+00,1.178026e+00,3,0,5.694757e-01,5.694768e-01,1
1.994986e+00,1.195271e+00,1.178026e+00,3,0,8.128399e-01,8.128408e-01,1
1.997660e+00,1.194042e+00,1.177073e+00,3,0,1.090875e+00,1.090877e+00,1
1.998301e+00,1.196755e+00,1.178980e+00,3,0,7.584859e-01,7.584861e-01,1
1.996598e+00,1.197368e+00,1.181126e+00,3,0,8.032715e-01,8.032730e-01,1
1.994410e+00,2.369560e+00,2.351046e+00,3,1,2.166480e+00,2.171825e+00,1
1.994858e+00,4.664623e+00,4.647255e+00,3,3,4.826555e+00,4.869712e+00,1
2.003956e+00,9.024857e+00,9.006977e+00,3,7,6.547516e+00,6.601455e+00,1
1.997050e+00,7.401149e+00,7.384062e+00,3,6,5.512557e+00,5.639285e+00,1
2.002833e+00,6.696696e+00,6.679058e+00,3,5,5.911281e+00,5.998331e+00,1
2.000351e+00,3.274634e+00,3.255844e+00,3,2,5.769676e+00,5.824359e+00,1
1.999771e+00,4.486155e+00,4.469156e+00,3,3,5.107605e+00,5.125718e+00,1
2.000036e+00,7.116789e+00,7.099152e+00,3,6,4.067857e+00,4.077322e+00,1
1.994137e+00,1.447076e+00,1.428127e+00,3,0,4.005773e+00,4.014980e+00,1
2.002350e+00,1.013174e+01,1.010656e+01,3,6,7.184296e+00,1.188851e+01,0
4.643621e+00,1.026403e+01,1.023698e+01,7,6,9.369155e+00,2.177759e+01,0
3.982217e+00,4.116751e+00,4.092216e+00,6,0,1.107293e+01,3.552878e+01,0
2.656648e+00,3.097824e+01,3.094983e+01,4,27,9.071230e+00,1.576333e+01,0
3.323660e+00,2.941373e+01,2.939320e+01,5,29,6.954792e+00,7.156819e+00,1
2.664131e+00,1.219041e+01,1.216578e+01,4,11,5.141713e+00,5.231806e+00,1
2.013969e+00,7.320394e+00,7.297993e+00,3,6,4.147747e+00,4.298416e+00,1
2.012029e+00,1.801309e+01,1.799202e+01,3,16,5.395845e+00,5.712742e+00,1
1.999377e+00,1.416567e+01,1.414490e+01,3,13,5.355322e+00,5.544208e+00,1
1.995577e+00,1.774835e+01,1.772904e+01,3,17,4.030585e+00,4.123054e+00,1
2.655680e+00,1.238027e+01,1.236105e+01,4,11,3.964069e+00,3.972322e+00,1
3.979196e+00,8.050333e+00,8.032084e+00,6,7,4.764461e+00,4.747573e+00,1
3.972358e+00,5.857725e+00,5.839109e+00,6,5,5.218575e+00,5.212722e+00,1
2.657598e+00,3.440584e+00,3.422737e+00,4,2,6.315655e+00,6.320525e+00,1
1.993705e+00,4.370957e+00,4.352808e+00,3,3,4.942949e+00,4.945096e+00,1
1.994282e+00,3.618521e+00,3.600121e+00,3,2,6.593143e+00,6.602571e+00,1
1.995833e+00,4.480781e+00,4.462957e+00,3,3,6.554485e+00,6.591802e+00,1
1.993839e+00,7.439862e+00,7.420778e+00,3,6,5.494573e+00,5.501567e+00,1
1.995582e+00,3.288810e+00,3.272057e+00,3,2,4.531340e+00,4.542392e+00,1
2.000077e+00,8.686579e+00,8.668900e+00,3,7,4.666935e+00,4.701686e+00,1
1.998716e+00,1.571165e+01,1.569390e+01,3,14,4.638099e+00,4.727754e+00,1
3.314686e+00,1.003340e+01,1.001501e+01,5,9,3.472352e+00,3.460365e+00,1
3.974765e+00,9.103277e+00,9.086847e+00,6,8,3.413746e+00,3.425648e+00,1
1.992126e+00,4.366663e+00,4.349947e+00,3,3,2.250571e+00,2.256387e+00,1
1.991378e+00,2.510253e+00,2.492905e+00,3,1,1.831624e+00,1.846461e+00,1
1.995063e+00,2.360680e+00,2.342701e+00,3,1,1.131018e+00,1.134065e+00,1
1.995570e+00,2.111631e+00,2.094984e+00,3,1,7.299103e-01,7.299107e-01,1
1.990590e+00,1.191532e+00,1.173973e+00,3,0,4.261078e-01,4.261078e-01,1
1.989991e+00,1.198450e+00,1.180887e+00,3,0,8.370117e-01,8.370135e-01,1
1.997810e+00,1.193161e+00,1.175880e+00,3,0,4.818443e-01,4.818444e-01,1
1.990272e+00,1.191669e+00,1.173973e+00,3,0,4.461897e-01,4.461904e-01,1
1.997254e+00,1.195891e+00,1.177788e+00,3,0,2.802759e-01,2.802763e-01,1
1.996346e+00,1.190058e+00,1.173019e+00,3,0,3.033566e-01,3.033570e-01,1
1.991901e+00,1.190880e+00,1.174927e+00,3,0,2.669694e-01,2.669697e-01,1
1.993413e+00,1.197038e+00,1.180172e+00,3,0,6.526193e-01,6.526205e-01,1
1.993219e+00,1.197338e+00,1.178741e+00,3,0,5.019744e-01,5.019751e-01,1
1.991354e+00,1.191944e+00,1.175165e+00,3,0,5.137886e-01,5.137905e-01,1
1.991042e+00,1.198734e+00,1.180887e+00,3,0,1.045439e+00,1.045441e+00,1
1.999292e+00,1.191146e+00,1.175165e+00,3,0,5.741224e-01,5.741222e-01,1
1.990968e+00,1.192721e+00,1.174927e+00,3,0,8.142602e-01,8.142610e-01,1
1.993677e+00,1.197414e+00,1.179934e+00,3,0,8.280743e-01,8.280748e-01,1
1.991516e+00,1.191560e+00,1.174212e+00,3,0,1.397215e+00,1.397216e+00,1
1.991034e+00,1.191720e+00,1.176119e+00,3,0,1.066863e+00,1.066863e+00,1
1.990741e+00,1.196186e+00,1.179934e+00,3,0,7.028399e-01,7.028400e-01,1
1.989762e+00,1.192193e+00,1.175880e+00,3,0,5.118014e-01,5.118020e-01,1
1.991341e+00,1.193223e+00,1.176119e+00,3,0,6.908384e-01,6.908393e-01,1
1.988612e+00,1.200840e+00,1.183987e+00,3,0,6.371509e-01,6.371511e-01,1
1.995499e+00,1.192765e+00,1.176119e+00,3,0,5.139626e-01,5.139628e-01,1
1.989304e+00,1.191037e+00,1.173019e+00,3,0,9.031990e-01,9.032001e-01,1
1.989658e+00,1.196775e+00,1.180172e+00,3,0,6.888074e-01,6.888078e-01,1
1.989031e+00,2.362942e+00,2.346039e+00,3,1,1.025940e+00,1.026009e+00,1
2.117750e+00,2.700342e+00,2.682209e+00,3,1,1.815953e+00,1.895070e+00,1
1.990334e+00,1.440175e+00,1.421690e+00,3,0,1.589361e+00,1.609441e+00,1
1.991711e+00,2.115483e+00,2.097845e+00,3,1,1.406355e+00,1.406356e+00,1
1.995340e+00,1.192829e+00,1.176119e+00,3,0,3.216309e+00,3.216314e+00,1
1.996689e+00,2.362809e+00,2.346039e+00,3,1,3.904194e+00,3.904223e+00,1
1.994262e+00,2.114946e+00,2.099037e+00,3,1,2.221336e+00,2.221334e+00,1
1.993927e+00,1.197399e+00,1.179934e+00,3,0,1.660909e+00,1.660909e+00,1
1.989680e+00,1.195140e+00,1.179218e+00,3,0,1.279144e+00,1.279145e+00,1
1.988576e+00,1.193843e+00,1.176834e+00,3,0,8.539489e-01,8.539490e-01,1
1.986717e+00,1.192001e+00,1.174927e+00,3,0,7.552267e-01,7.552271e-01,1
1.989985e+00,1.197651e+00,1.181126e+00,3,0,1.085215e+00,1.085216e+00,1
1.994162e+00,1.192213e+00,1.175880e+00,3,0,1.038533e+00,1.038534e+00,1
1.996981e+00,1.192439e+00,1.177073e+00,3,0,5.170413e-01,5.170423e-01,1
1.992223e+00,1.253224e+00,1.232862e+00,3,0,1.407069e+00,1.407071e+00,1
1.998723e+00,1.210349e+00,1.192093e+00,3,0,7.812245e-01,7.812243e-01,1
2.003479e+00,1.278227e+00,1.258850e+00,3,0,6.899020e-01,6.899026e-01,1
1.998841e+00,1.249286e+00,1.230001e+00,3,0,9.653983e-01,9.653996e-01,1
1.997615e+00,1.200533e+00,1.181841e+00,3,0,7.903569e-01,7.903571e-01,1
1.993415e+00,1.204639e+00,1.186848e+00,3,0,9.278396e-01,9.278403e-01,1
1.991284e+00,1.199993e+00,1.183033e+00,3,0,1.181518e+00,1.181519e+00,1
1.986650e+00,1.197104e+00,1.179934e+00,3,0,9.326455e-01,9.326462e-01,1
1.991904e+00,1.196301e+00,1.178980e+00,3,0,9.692909e-01,9.692924e-01,1
1.992614e+00,1.198689e+00,1.180887e+00,3,0,1.209034e+00,1.209032e+00,1
1.993007e+00,1.199763e+00,1.183987e+00,3,0,1.485864e+00,1.485861e+00,1
1.997572e+00,1.205906e+00,1.189947e+00,3,0,2.228494e+00,2.228497e+00,1
1.993035e+00,1.197635e+00,1.180887e+00,3,0,1.542791e+00,1.542791e+00,1
1.990425e+00,1.200500e+00,1.183033e+00,3,0,1.482589e+00,1.482592e+00,1
1.991481e+00,1.205264e+00,1.188993e+00,3,0,1.434461e+00,1.434461e+00,1
1.993611e+00,1.202207e+00,1.184940e+00,3,0,1.553152e+00,1.553152e+00,1
1.990879e+00,1.199631e+00,1.182795e+00,3,0,1.283876e+00,1.283876e+00,1
1.996815e+00,4.380719e+00,4.362822e+00,3,3,2.186941e+00,2.206590e+00,1
2.655982e+00,5.631234e+00,5.613089e+00,4,4,1.655120e+00,1.680415e+00,1
1.991554e+00,1.441965e+00,1.424074e+00,3,0,1.545999e+00,1.570944e+00,1
1.997279e+00,4.708566e+00,4.691124e+00,3,3,1.510829e+00,1.544875e+00,1
1.993119e+00,2.703358e+00,2.685070e+00,3,1,1.365932e+00,1.541321e+00,1
1.994260e+00,3.629689e+00,3.612041e+00,3,2,9.769510e-01,1.031689e+00,1
1.987742e+00,2.697816e+00,2.679586e+00,3,1,1.186189e+00,1.219943e+00,1
1.993029e+00,3.382520e+00,3.365040e+00,3,2,1.335762e+00,1.335764e+00,1
1.991798e+00,1.196364e+00,1.178980e+00,3,0,9.193945e-01,9.193947e-01,1
1.994437e+00,1.201349e+00,1.183987e+00,3,0,1.723882e+00,1.723885e+00,1
1.992958e+00,1.198173e+00,1.181126e+00,3,0,1.214810e+00,1.214810e+00,1
1.994896e+00,1.198689e+00,1.182079e+00,3,0,1.112126e+00,1.112127e+00,1
1.995213e+00,1.202741e+00,1.185179e+00,3,0,9.950687e-01,9.950690e-01,1
1.992191e+00,1.195480e+00,1.178980e+00,3,0,7.781597e-01,7.781610e-01,1
1.994147e+00,1.196734e+00,1.180887e+00,3,0,5.708874e-01,5.708879e-01,1
1.994602e+00,1.203476e+00,1.185894e+00,3,0,1.134259e+00,1.134261e+00,1
1.995701e+00,1.197134e+00,1.181126e+00,3,0,9.785542e-01,9.785548e-01,1
1.991319e+00,1.198865e+00,1.181126e+00,3,0,9.956795e-01,9.956806e-01,1
1.991817e+00,1.224549e+00,1.205921e+00,3,0,9.312144e-01,9.312147e-01,1
1.994248e+00,1.194541e+00,1.176834e+00,3,0,7.241098e-01,7.241104e-01,1
1.989918e+00,1.195561e+00,1.178026e+00,3,0,8.697948e-01,8.697954e-01,1
1.993656e+00,1.201604e+00,1.184940e+00,3,0,6.747675e-01,6.747677e-01,1
1.992263e+00,1.199250e+00,1.182795e+00,3,0,2.849821e+00,2.849669e+00,1
2.653066e+00,1.037401e+01,1.035619e+01,4,9,6.330114e+00,6.381805e+00,1
1.994589e+00,3.300209e+00,3.281116e+00,3,2,4.754132e+00,4.772205e+00,1
1.990868e+00,3.284429e+00,3.267050e+00,3,2,3.391401e+00,3.391867e+00,1
1.994697e+00,2.125511e+00,2.107143e+00,3,1,2.486277e+00,2.486277e+00,1
1.993893e+00,1.213508e+00,1.195908e+00,3,0,2.691501e+00,2.691503e+00,1
1.993057e+00,1.199841e+00,1.183033e+00,3,0,2.126838e+00,2.126838e+00,1
1.993614e+00,1.198955e+00,1.180887e+00,3,0,2.053962e+00,2.053962e+00,1
1.996376e+00,1.202487e+00,1.184940e+00,3,0,2.472399e+00,2.472402e+00,1
1.991810e+00,1.196275e+00,1.179934e+00,3,0,2.816995e+00,2.816997e+00,1
1.982516e+00,1.199608e+00,1.180887e+00,3,0,2.576694e+00,2.576695e+00,1
1.991826e+00,2.363428e+00,2.346039e+00,3,1,2.745790e+00,2.746463e+00,1
1.995119e+00,3.280535e+00,3.263950e+00,3,2,3.658578e+00,3.658583e+00,1
2.000035e+00,2.123747e+00,2.106190e+00,3,1,2.697956e+00,2.697955e+00,1
1.991434e+00,1.196424e+00,1.178980e+00,3,0,1.827156e+00,1.827156e+00,1
1.996535e+00,1.195504e+00,1.178980e+00,3,0,1.081264e+00,1.081264e+00,1
1.993328e+00,1.201285e+00,1.183987e+00,3,0,7.214140e-01,7.214141e-01,1
1.989467e+00,1.196115e+00,1.179934e+00,3,0,5.653736e-01,5.653740e-01,1
1.997057e+00,1.195715e+00,1.178026e+00,3,0,7.758776e-01,7.758787e-01,1
1.996108e+00,1.204090e+00,1.187086e+00,3,0,5.482491e-01,5.482491e-01,1
1.990022e+00,1.198769e+00,1.183033e+00,3,0,9.182597e-01,9.182609e-01,1
1.991120e+00,1.207754e+00,1.190186e+00,3,0,9.757380e-01,9.757385e-01,1
1.994519e+00,2.368259e+00,2.350807e+00,3,1,9.064795e-01,9.068428e-01,1
1.991205e+00,2.706238e+00,2.689123e+00,3,1,1.168372e+00,1.171774e+00,1
1.990890e+00,2.127826e+00,2.109766e+00,3,1,6.508639e-01,6.508638e-01,1
1.989229e+00,1.196576e+00,1.178026e+00,3,0,5.279782e-01,5.279786e-01,1
1.991914e+00,1.205281e+00,1.188040e+00,3,0,2.820647e+00,2.820654e+00,1
1.989400e+00,1.199124e+00,1.182079e+00,3,0,2.934539e+00,2.934541e+00,1
1.989980e+00,1.200749e+00,1.182795e+00,3,0,1.426202e+00,1.426200e+00,1
1.989126e+00,1.201850e+00,1.184940e+00,3,0,1.407391e+00,1.407391e+00,1
1.990262e+00,1.198692e+00,1.181126e+00,3,0,1.232347e+00,1.232347e+00,1
1.990859e+00,2.362264e+00,2.344847e+00,3,1,1.320870e+00,1.321145e+00,1
1.991383e+00,2.125913e+00,2.107859e+00,3,1,6.746782e-01,6.746781e-01,1
1.995561e+00,1.196770e+00,1.178980e+00,3,0,5.664632e-01,5.664638e-01,1
1.988396e+00,1.196161e+00,1.179218e+00,3,0,1.078115e+00,1.078116e+00,1
1.989913e+00,1.197335e+00,1.179934e+00,3,0,1.343394e+00,1.343395e+00,1
1.990171e+00,1.195927e+00,1.178980e+00,3,0,1.653619e+00,1.653620e+00,1
1.990443e+00,1.193834e+00,1.176834e+00,3,0,1.076597e+00,1.076597e+00,1
1.996913e+00,1.195995e+00,1.179218e+00,3,0,1.034379e+00,1.034380e+00,1
1.995710e+00,1.194296e+00,1.177073e+00,3,0,1.552334e+00,1.552336e+00,1
1.990559e+00,1.196445e+00,1.179218e+00,3,0,2.302739e+00,2.302741e+00,1
1.992289e+00,2.369458e+00,2.352238e+00,3,1,2.553582e+00,2.553806e+00,1
2.001853e+00,3.606703e+00,3.588676e+00,3,2,3.561402e+00,3.571025e+00,1
1.993125e+00,5.288225e+00,5.270958e+00,3,4,3.362330e+00,3.363732e+00,1
1.995363e+00,5.490365e+00,5.472183e+00,3,4,5.297516e+00,5.313994e+00,1
2.648292e+00,5.794048e+00,5.776882e+00,4,5,2.343198e+00,2.343196e+00,1
1.992321e+00,1.209799e+00,1.186132e+00,3,0,1.947102e+00,1.947103e+00,1
1.996635e+00,2.357231e+00,2.340078e+00,3,1,2.858631e+00,2.858840e+00,1
1.989984e+00,2.122754e+00,2.104759e+00,3,1,1.398117e+00,1.398116e+00,1
1.992023e+00,1.197463e+00,1.180887e+00,3,0,1.151307e+00,1.151307e+00,1
1.994708e+00,1.199268e+00,1.180887e+00,3,0,9.152089e-01,9.152092e-01,1
1.997860e+00,1.196483e+00,1.179934e+00,3,0,6.047596e-01,6.047595e-01,1
1.992910e+00,1.198873e+00,1.182079e+00,3,0,1.293963e+00,1.293965e+00,1
1.995827e+00,1.195817e+00,1.178980e+00,3,0,9.615634e-01,9.615636e-01,1
1.992831e+00,1.201303e+00,1.184225e+00,3,0,5.406641e-01,5.406642e-01,1
1.989694e+00,1.199669e+00,1.182079e+00,3,0,1.286512e+00,1.286514e+00,1
1.995216e+00,1.204617e+00,1.186848e+00,3,0,8.902662e-01,8.902662e-01,1
1.994814e+00,1.215134e+00,1.197100e+00,3,0,4.809540e-01,4.809544e-01,1
1.991586e+00,1.198079e+00,1.181126e+00,3,0,5.197005e-01,5.197009e-01,1
1.989610e+00,1.198165e+00,1.181841e+00,3,0,6.734472e-01,6.734481e-01,1
1.988189e+00,2.366011e+00,2.348185e+00,3,1,1.009684e+00,1.010394e+00,1
1.990509e+00,2.520331e+00,2.503157e+00,3,1,2.101352e+00,2.101998e+00,1
1.991676e+00,2.364320e+00,2.348185e+00,3,1,1.560989e+00,1.577105e+00,1
1.994429e+00,3.615541e+00,3.599167e+00,3,2,2.818342e+00,2.916378e+00,1
1.995978e+00,3.288795e+00,3.271103e+00,3,2,1.238245e+00,1.238402e+00,1
1.989217e+00,2.119036e+00,2.100945e+00,3,1,9.870831e-01,9.870836e-01,1
1.995281e+00,1.199063e+00,1.180887e+00,3,0,6.630034e-01,6.630034e-01,1
1.994006e+00,1.197969e+00,1.180172e+00,3,0,6.059953e-01,6.059961e-01,1
1.990970e+00,1.197550e+00,1.179695e+00,3,0,1.699371e+00,1.699375e+00,1
1.992793e+00,1.196960e+00,1.179934e+00,3,0,1.693198e+00,1.693199e+00,1
1.995743e+00,1.198509e+00,1.179934e+00,3,0,2.594497e+00,2.594468e+00,1
1.990769e+00,1.205854e+00,1.186848e+00,3,0,2.664749e+00,2.664742e+00,1
1.994802e+00,1.200791e+00,1.183033e+00,3,0,3.056747e+00,3.056748e+00,1
2.001377e+00,3.450107e+00,3.432989e+00,3,2,5.002130e+00,5.010487e+00,1
1.992357e+00,1.444104e+00,1.425982e+00,3,0,5.598226e+00,5.602751e+00,1
1.995061e+00,4.374236e+00,4.358053e+00,3,3,4.181804e+00,4.192095e+00,1
1.992946e+00,2.523852e+00,2.505064e+00,3,1,3.756680e+00,3.767981e+00,1
1.993487e+00,3.455985e+00,3.439188e+00,3,2,5.273692e+00,5.283072e+00,1
1.996197e+00,4.212562e+00,4.195929e+00,3,3,3.584817e+00,3.587110e+00,1
1.989091e+00,2.123229e+00,2.106905e+00,3,1,2.972124e+00,2.972124e+00,1
1.997152e+00,1.201804e+00,1.183748e+00,3,0,3.001132e+00,3.001135e+00,1
1.994666e+00,1.211275e+00,1.193047e+00,3,0,3.240684e+00,3.240685e+00,1
1.993831e+00,2.375723e+00,2.358198e+00,3,1,3.545525e+00,3.560246e+00,1
1.992193e+00,2.119175e+00,2.103090e+00,3,1,2.616905e+00,2.616905e+00,1
1.991697e+00,1.197573e+00,1.179934e+00,3,0,2.511463e+00,2.511464e+00,1
1.989522e+00,1.203633e+00,1.187086e+00,3,0,3.220636e+00,3.220638e+00,1
1.992709e+00,4.526600e+00,4.508018e+00,3,3,3.533530e+00,3.537871e+00,1
1.992348e+00,3.967772e+00,3.950119e+00,3,3,2.237930e+00,2.237902e+00,1
1.990377e+00,1.205245e+00,1.187086e+00,3,0,2.151218e+00,2.150984e+00,1
1.992064e+00,1.197565e+00,1.180887e+00,3,0,1.265742e+00,1.265711e+00,1
1.995143e+00,1.199338e+00,1.180887e+00,3,0,1.227064e+00,1.227024e+00,1

