3.301964e+00,7.757482e+01,7.642293e+01,2,49,0.000000e+00,-9.094947e-13,1
4.797275e+00,1.650428e+00,1.594067e+00,3,0,7.911351e-01,7.911369e-01,1
4.777884e+00,3.315521e+00,3.257990e+00,3,1,3.893573e+00,3.914823e+00,1
4.728846e+00,2.860327e+00,2.821922e+00,3,1,2.996903e+00,2.996904e+00,1
4.765304e+00,1.700282e+00,1.652956e+00,3,0,5.005217e+00,5.005224e+00,1
6.341007e+00,1.154854e+01,1.149607e+01,4,5,1.547828e+01,2.401961e+01,0
9.586719e+00,5.495395e+00,5.446196e+00,6,0,2.263111e+01,4.570316e+01,0
6.405737e+00,5.549306e+00,5.500793e+00,4,0,2.579613e+01,4.494106e+01,0
9.476711e+00,5.475736e+00,5.430937e+00,6,0,3.122869e+01,5.997414e+01,0
9.464453e+00,5.545969e+00,5.500078e+00,6,0,3.264602e+01,5.910937e+01,0
6.346059e+00,5.507432e+00,5.459070e+00,4,0,2.797462e+01,3.435807e+01,0
9.580946e+00,5.542397e+00,5.495310e+00,6,0,2.901046e+01,3.673884e+01,0
9.360353e+00,5.552007e+00,5.483627e+00,6,0,3.036791e+01,3.228949e+01,0
9.463731e+00,1.211264e+01,1.206326e+01,6,6,2.341794e+01,2.414549e+01,0
9.523503e+00,6.982521e+00,6.931543e+00,6,1,2.870201e+01,3.262068e+01,0
6.395057e+00,2.348505e+01,2.344704e+01,4,16,3.176298e+01,3.199662e+01,1
9.529354e+00,1.232430e+01,1.228404e+01,6,8,3.102495e+01,3.115195e+01,1
6.351273e+00,2.140807e+01,2.136612e+01,4,14,3.023400e+01,3.040786e+01,1
8.058478e+00,1.259883e+01,1.255798e+01,5,8,2.690317e+01,2.699761e+01,1
6.428777e+00,1.491484e+01,1.485896e+01,4,7,2.771845e+01,2.881191e+01,0
4.804892e+00,1.486863e+01,1.480794e+01,3,7,2.171002e+01,2.380691e+01,0
4.818294e+00,9.465752e+00,9.425879e+00,3,5,1.773771e+01,1.837079e+01,1
4.835410e+00,1.119070e+01,1.114321e+01,3,4,1.604655e+01,3.566037e+01,0
6.428834e+00,1.219963e+01,1.216125e+01,4,8,1.285159e+01,1.285437e+01,1
4.809710e+00,4.205186e+00,4.167080e+00,3,2,1.042350e+01,1.042349e+01,1
4.813855e+00,1.073519e+01,1.069689e+01,3,6,9.337667e+00,9.359384e+00,1
4.839637e+00,7.207051e+00,7.169247e+00,3,4,9.645391e+00,9.740036e+00,1
4.864540e+00,7.648280e+00,7.610083e+00,3,4,7.786441e+00,7.795718e+00,1
4.815882e+00,1.183282e+01,1.179481e+01,3,7,6.900239e+00,6.932994e+00,1
4.816297e+00,8.380402e+00,8.338928e+00,3,5,5.012111e+00,5.012375e+00,1
4.776487e+00,2.947151e+00,2.907038e+00,3,1,5.711358e+00,5.711371e+00,1
4.796373e+00,1.701904e+00,1.666069e+00,3,0,3.859211e+00,3.859214e+00,1
4.818319e+00,1.708149e+01,1.703262e+01,3,8,9.109658e+00,1.907898e+01,0
6.366402e+00,5.519963e+00,5.472660e+00,4,0,1.326945e+01,4.436119e+01,0
9.492657e+00,5.581870e+00,5.536079e+00,6,0,9.564188e+00,2.092805e+01,0
8.036893e+00,2.442918e+01,2.439117e+01,5,17,6.910586e+00,6.955524e+00,1
9.631917e+00,4.279775e+01,4.274702e+01,6,27,1.231752e+01,1.389769e+01,0
9.603037e+00,3.449489e+01,3.443503e+01,6,26,6.046741e+00,6.062689e+00,1
9.627059e+00,9.235102e+00,9.193897e+00,6,5,5.442836e+00,5.444238e+00,1
4.837047e+00,3.974621e+00,3.929138e+00,3,1,6.287000e+00,6.287216e+00,1
4.785064e+00,8.820900e+00,8.782148e+00,3,5,8.198173e+00,8.200764e+00,1
4.841986e+00,6.631400e+00,6.591082e+00,3,3,6.874793e+00,6.876174e+00,1
4.777318e+00,3.560532e+00,3.519058e+00,3,1,6.316152e+00,6.320030e+00,1
4.889287e+00,7.834637e+00,7.794857e+00,3,4,6.270723e+00,6.296182e+00,1
4.833307e+00,4.816517e+00,4.776001e+00,3,2,7.807942e+00,7.844515e+00,1
4.846637e+00,1.719650e+01,1.714611e+01,3,8,1.102093e+01,1.325972e+01,0
6.449413e+00,1.536680e+01,1.532507e+01,4,10,9.263928e+00,9.813981e+00,1
4.828087e+00,7.634355e+00,7.590055e+00,3,4,4.894861e+00,4.914863e+00,1
4.823406e+00,2.911248e+00,2.871990e+00,3,1,4.775838e+00,4.775841e+00,1
4.822472e+00,1.659855e+00,1.621962e+00,3,0,3.860581e+00,3.860584e+00,1
4.841433e+00,3.378991e+00,3.340960e+00,3,1,5.075305e+00,5.075317e+00,1
4.850240e+00,3.052927e+00,3.009796e+00,3,1,4.381773e+00,4.381773e+00,1
4.846100e+00,3.440918e+00,3.399134e+00,3,1,4.321622e+00,4.322237e+00,1
6.426074e+00,2.987051e+00,2.945900e+00,4,1,2.631909e+00,2.631910e+00,1
4.836467e+00,3.378356e+00,3.339052e+00,3,1,3.042021e+00,3.077013e+00,1
4.830988e+00,2.968521e+00,2.929211e+00,3,1,1.425172e+00,1.425172e+00,1
4.827032e+00,1.640749e+00,1.602888e+00,3,0,3.522122e+00,3.522129e+00,1
4.836237e+00,1.667237e+00,1.629114e+00,3,0,2.691631e+00,2.691631e+00,1
4.828912e+00,1.736500e+00,1.694918e+00,3,0,5.925946e+00,5.925955e+00,1
4.894402e+00,3.019325e+01,3.014803e+01,3,20,1.293588e+01,1.336458e+01,1
6.490415e+00,3.766209e+01,3.762078e+01,4,27,1.001291e+01,1.010546e+01,1
8.079577e+00,1.155411e+01,1.151085e+01,5,7,1.051275e+01,1.051026e+01,1
6.442462e+00,1.288657e+01,1.284218e+01,4,8,1.125380e+01,1.127308e+01,1
9.639632e+00,1.478030e+01,1.473808e+01,6,9,1.089498e+01,1.098017e+01,1
6.509834e+00,1.552875e+01,1.548815e+01,4,11,8.090237e+00,8.090223e+00,1
4.875369e+00,4.888325e+00,4.849911e+00,3,2,7.993434e+00,7.994916e+00,1
4.860247e+00,3.295243e+00,3.256083e+00,3,1,6.555792e+00,6.558203e+00,1
4.853843e+00,1.246279e+01,1.241326e+01,3,5,6.876050e+00,7.337533e+00,0
6.482866e+00,1.029475e+01,1.024866e+01,4,6,5.907108e+00,6.024191e+00,1
6.445978e+00,5.975318e+00,5.933046e+00,4,3,6.525094e+00,6.779690e+00,1
6.443795e+00,8.316088e+00,8.261681e+00,4,2,1.040901e+01,2.183057e+01,0
9.634811e+00,5.600961e+00,5.550623e+00,6,0,8.183159e+00,6.448494e+00,0
8.031367e+00,5.723304e+00,5.666733e+00,5,0,1.532869e+01,3.200900e+01,0
9.623981e+00,9.412928e+00,9.360075e+00,6,3,1.190756e+01,1.806748e+01,0
6.454036e+00,8.958259e+00,8.917093e+00,4,5,7.467905e+00,7.536202e+00,1
4.838607e+00,6.708198e+00,6.663084e+00,3,3,8.110547e+00,8.135985e+00,1
4.841636e+00,6.305187e+00,6.264925e+00,3,3,9.649328e+00,9.664583e+00,1
4.790259e+00,1.588626e+01,1.584697e+01,3,10,1.291349e+01,1.298442e+01,1
6.415185e+00,1.226523e+01,1.221275e+01,4,5,1.255904e+01,1.507707e+01,0
6.367752e+00,2.689018e+01,2.683377e+01,4,15,1.391713e+01,2.054024e+01,0
4.820718e+00,2.112121e+01,2.106929e+01,3,11,1.582589e+01,3.169460e+01,0
9.599915e+00,5.506255e+00,5.455017e+00,6,0,1.952617e+01,4.176134e+01,0
9.634665e+00,5.600790e+00,5.552053e+00,6,0,2.101897e+01,3.875982e+01,0
8.058233e+00,5.514334e+01,5.509186e+01,5,36,1.811782e+01,2.437807e+01,0
9.628816e+00,5.596789e+00,5.544186e+00,6,0,2.003574e+01,3.169641e+01,0
6.456450e+00,4.405167e+01,4.401016e+01,4,31,1.649086e+01,1.682112e+01,1
6.439536e+00,5.569867e+00,5.516052e+00,4,0,1.394936e+01,1.494582e+01,0
9.635896e+00,5.531479e+00,5.482674e+00,6,0,2.356677e+01,6.193929e+01,0
9.631755e+00,5.652631e+00,5.599976e+00,6,0,2.304956e+01,6.260979e+01,0
8.014991e+00,5.547739e+00,5.496264e+00,5,0,1.689904e+01,3.528169e+01,0
9.627554e+00,5.568951e+00,5.521536e+00,6,0,2.985952e+01,8.753316e+01,0
9.736600e+00,2.496048e+01,2.490807e+01,6,15,2.365761e+01,7.012404e+01,0
8.025063e+00,9.970056e+00,9.927273e+00,5,6,1.245054e+01,1.245324e+01,1
9.645773e+00,8.437967e+00,8.382797e+00,6,2,1.307770e+01,1.298116e+01,0
6.432242e+00,9.619715e+00,9.563684e+00,4,4,9.574012e+00,8.589532e+00,0
6.427115e+00,4.480649e+00,4.431963e+00,4,0,1.212649e+01,1.348265e+01,0
4.830151e+00,4.438087e+00,4.390001e+00,3,0,1.212455e+01,1.066913e+01,0
4.828796e+00,4.432043e+00,4.381895e+00,3,0,2.602726e+01,5.161084e+01,0
8.025722e+00,4.437613e+00,4.389286e+00,5,0,3.174771e+01,6.673333e+01,0
1.122314e+01,4.466939e+00,4.416943e+00,7,0,5.148819e+01,1.213371e+02,0
9.606235e+00,4.455996e+00,4.406691e+00,6,0,5.779302e+01,1.276318e+02,0
9.632464e+00,4.481866e+00,4.433393e+00,6,0,4.283112e+01,7.432930e+01,0
9.639400e+00,8.063580e+00,8.012056e+00,6,2,2.459925e+01,2.898623e+01,0
6.430160e+00,5.642170e+00,5.592108e+00,4,0,1.970468e+01,2.789228e+01,0
4.841518e+00,5.629290e+00,5.581617e+00,3,0,1.743593e+01,3.819183e+01,0
4.841418e+00,1.835708e+01,1.830506e+01,3,9,1.975208e+01,7.356341e+01,0
9.636599e+00,5.608516e+00,5.558729e+00,6,0,2.011692e+01,8.644925e+01,0
9.637530e+00,5.804664e+00,5.741596e+00,6,0,2.099661e+01,1.016394e+02,0
9.512786e+00,5.759733e+00,5.705833e+00,6,0,2.027826e+01,9.593804e+01,0
9.357327e+00,5.497503e+00,5.443811e+00,6,0,2.678598e+01,1.135177e+02,0
9.383776e+00,5.493319e+00,5.445004e+00,6,0,1.424622e+01,5.522526e+01,0
9.393597e+00,7.412512e+01,7.407427e+01,6,51,1.424913e+01,2.635992e+01,0
6.425491e+00,4.694947e+01,4.690599e+01,4,36,5.807138e+00,5.808867e+00,1
6.411291e+00,6.758035e+00,6.718159e+00,4,4,3.992467e+00,3.991569e+00,1
4.806013e+00,1.674491e+00,1.636028e+00,3,0,3.280457e+00,3.280418e+00,1
4.835262e+00,1.666988e+00,1.631021e+00,3,0,5.719542e+00,5.719554e+00,1
4.835020e+00,1.774661e+00,1.734972e+00,3,0,4.883715e+00,4.883611e+00,1
4.821864e+00,1.659961e+00,1.619816e+00,3,0,3.078662e+00,3.078631e+00,1
4.836824e+00,1.667460e+00,1.630068e+00,3,0,3.957814e+00,3.957750e+00,1
6.418022e+00,1.635912e+00,1.597881e+00,4,0,4.404038e+00,4.404035e+00,1
4.847915e+00,9.533077e+00,9.481907e+00,3,3,8.427980e+00,9.045397e+00,0
9.614830e+00,5.614329e+00,5.562782e+00,6,0,1.890186e+01,5.025798e+01,0
9.635496e+00,8.497679e+00,8.456945e+00,6,5,9.583004e+00,9.622170e+00,1
8.016040e+00,4.196213e+00,4.156113e+00,5,2,6.858768e+00,6.856295e+00,1
9.628024e+00,3.830461e+00,3.792048e+00,6,2,8.748546e+00,8.741343e+00,1
9.645274e+00,5.967985e+00,5.925179e+00,6,3,6.530020e+00,6.528526e+00,1
4.840940e+00,4.015375e+00,3.973246e+00,3,2,8.175236e+00,8.172366e+00,1
6.416560e+00,2.686913e+00,2.646923e+00,4,1,5.575325e+00,5.575324e+00,1
4.834932e+00,3.288704e+00,3.248692e+00,3,1,4.852885e+00,4.853193e+00,1
4.833860e+00,3.542187e+00,3.501892e+00,3,1,4.627504e+00,4.718306e+00,1
4.840338e+00,5.365179e+00,5.326033e+00,3,2,4.777280e+00,4.826618e+00,1
4.834639e+00,6.431428e+00,6.391048e+00,3,3,4.186237e+00,4.194227e+00,1
4.830272e+00,4.853298e+00,4.814148e+00,3,2,4.195525e+00,4.206808e+00,1
6.422847e+00,2.971632e+00,2.934217e+00,4,1,3.214198e+00,3.213818e+00,1
4.851659e+00,8.723786e+00,8.684158e+00,3,5,5.201129e+00,5.218264e+00,1
6.427442e+00,7.838427e+00,7.796049e+00,4,5,1.621920e+00,1.621919e+00,1
4.833111e+00,1.665500e+00,1.625061e+00,3,0,2.523255e+00,2.523260e+00,1
4.821749e+00,1.660319e+00,1.624584e+00,3,0,2.990303e+00,2.990305e+00,1
4.830497e+00,1.683135e+00,1.645803e+00,3,0,3.358839e+00,3.358834e+00,1
4.818243e+00,1.645850e+00,1.607895e+00,3,0,1.772743e+00,1.772747e+00,1
4.825100e+00,3.321482e+00,3.283978e+00,3,1,2.924913e+00,2.928564e+00,1
4.825375e+00,2.024684e+00,1.986265e+00,3,0,4.629499e+00,4.641576e+00,1
4.834007e+00,2.010202e+00,1.971960e+00,3,0,7.755937e+00,7.815489e+00,1
6.436932e+00,4.051288e+00,4.013062e+00,4,2,9.064453e+00,9.064104e+00,1
6.422912e+00,2.760869e+00,2.720118e+00,4,1,3.996041e+00,3.996038e+00,1
4.853848e+00,6.287996e+00,6.247997e+00,3,3,8.199244e+00,8.207706e+00,1
4.857730e+00,5.584099e+00,5.542040e+00,3,3,3.577293e+00,3.577284e+00,1
4.843418e+00,1.736085e+00,1.693010e+00,3,0,4.216480e+00,4.216484e+00,1
4.866064e+00,1.722230e+00,1.681805e+00,3,0,3.559776e+00,3.559777e+00,1
4.840439e+00,1.688338e+00,1.646757e+00,3,0,3.661347e+00,3.661349e+00,1
4.815303e+00,1.699623e+00,1.660824e+00,3,0,4.682573e+00,4.682578e+00,1
4.794199e+00,2.771376e+00,2.732038e+00,3,1,6.806637e+00,6.806370e+00,1
6.420010e+00,2.721595e+00,2.683878e+00,4,1,4.197154e+00,4.197152e+00,1
4.825800e+00,1.663602e+00,1.626015e+00,3,0,5.761469e+00,5.761476e+00,1
4.832974e+00,3.291950e+00,3.255844e+00,3,1,3.807446e+00,3.807685e+00,1
4.824449e+00,2.913502e+00,2.871990e+00,3,1,2.236084e+00,2.236085e+00,1
4.815828e+00,1.648205e+00,1.611948e+00,3,0,2.940235e+00,2.940240e+00,1
4.851963e+00,1.363384e+01,1.359677e+01,3,8,5.573472e+00,5.615824e+00,1
4.851122e+00,9.273213e+00,9.232044e+00,3,6,2.223775e+00,2.223775e+00,1
4.831781e+00,1.688446e+00,1.646996e+00,3,0,3.598187e+00,3.598152e+00,1
4.826369e+00,3.331968e+00,3.291130e+00,3,1,3.527131e+00,3.527178e+00,1
4.831236e+00,3.818001e+00,3.779173e+00,3,1,2.818414e+00,2.819572e+00,1
4.821895e+00,2.910299e+00,2.871752e+00,3,1,3.534643e+00,3.534646e+00,1
4.822622e+00,1.653448e+00,1.615047e+00,3,0,3.038892e+00,3.038899e+00,1
4.819692e+00,1.630026e+00,1.595020e+00,3,0,4.725156e+00,4.725162e+00,1
4.811628e+00,1.660967e+00,1.622677e+00,3,0,3.076428e+00,3.076427e+00,1
4.824396e+00,1.676995e+00,1.641035e+00,3,0,2.457604e+00,2.457607e+00,1
4.808936e+00,1.641276e+00,1.605034e+00,3,0,3.285487e+00,3.285491e+00,1
4.822833e+00,1.667274e+00,1.630068e+00,3,0,3.486325e+00,3.486332e+00,1
4.821681e+00,1.633968e+00,1.596928e+00,3,0,5.756258e+00,5.756266e+00,1
4.839756e+00,1.062103e+01,1.058102e+01,3,6,8.735422e+00,8.752894e+00,1
4.903853e+00,8.409166e+00,8.368969e+00,3,5,3.018731e+00,3.018722e+00,1
4.870165e+00,2.990077e+00,2.948046e+00,3,1,4.638825e+00,4.638767e+00,1
4.852229e+00,1.705611e+00,1.668930e+00,3,0,2.535913e+00,2.535897e+00,1
4.854937e+00,2.741693e+00,2.704859e+00,3,1,5.624168e+00,5.623525e+00,1
6.459059e+00,2.691325e+00,2.653122e+00,4,1,3.051895e+00,3.051894e+00,1
4.855563e+00,1.664647e+00,1.628160e+00,3,0,2.597928e+00,2.597929e+00,1
4.854765e+00,3.293778e+00,3.254890e+00,3,1,6.076741e+00,6.087390e+00,1
4.847743e+00,2.010434e+00,1.972914e+00,3,0,2.701694e+00,2.706702e+00,1
4.856769e+00,2.961072e+00,2.923250e+00,3,1,2.233321e+00,2.233325e+00,1
4.848080e+00,1.651418e+00,1.613140e+00,3,0,3.302583e+00,3.302587e+00,1
4.820928e+00,1.648792e+00,1.612186e+00,3,0,6.615608e+00,6.615561e+00,1
4.820434e+00,1.679853e+00,1.643181e+00,3,0,6.835236e+00,6.835219e+00,1
4.826621e+00,3.330564e+00,3.292084e+00,3,1,5.262092e+00,5.262095e+00,1
4.864580e+00,2.281310e+01,2.276921e+01,3,14,1.434181e+01,1.468563e+01,1
6.438690e+00,2.281539e+01,2.277327e+01,4,16,9.102555e+00,9.106423e+00,1
4.839199e+00,3.586586e+00,3.546953e+00,3,1,8.115299e+00,8.122513e+00,1
1.115196e+01,4.589451e+00,4.551172e+00,7,2,7.568413e+00,7.572936e+00,1
6.355303e+00,1.128801e+01,1.124692e+01,4,7,9.094631e+00,9.099483e+00,1
9.577956e+00,1.174752e+01,1.170897e+01,6,7,1.356027e+01,1.361497e+01,1
6.369971e+00,1.194576e+01,1.190186e+01,4,8,8.875415e+00,8.875284e+00,1
6.355010e+00,7.469284e+00,7.427216e+00,4,4,1.119593e+01,1.122027e+01,1
4.805181e+00,5.422273e+00,5.383015e+00,3,3,7.484426e+00,7.484418e+00,1
4.733229e+00,1.648106e+00,1.610994e+00,3,0,9.648822e+00,9.648832e+00,1
4.772886e+00,1.669942e+00,1.632690e+00,3,0,7.018692e+00,7.018628e+00,1
4.800925e+00,3.308924e+00,3.268719e+00,3,1,6.436891e+00,6.437064e+00,1
4.756316e+00,2.853557e+00,2.809048e+00,3,1,4.840347e+00,4.840347e+00,1
4.758259e+00,3.281131e+00,3.244162e+00,3,1,4.866736e+00,4.866744e+00,1
4.763750e+00,5.349127e+00,5.297899e+00,3,2,5.345144e+00,5.367772e+00,1
4.754388e+00,4.235873e+00,4.195690e+00,3,2,4.449634e+00,4.449636e+00,1
4.818025e+00,1.727664e+00,1.688242e+00,3,0,3.757618e+00,3.757620e+00,1
4.800992e+00,1.650978e+00,1.610994e+00,3,0,5.690642e+00,5.690650e+00,1
4.778061e+00,9.916578e+00,9.850502e+00,3,3,7.609754e+00,8.665791e+00,0
4.808181e+00,5.434216e+00,5.394936e+00,3,3,6.417112e+00,6.417109e+00,1
4.780049e+00,1.658649e+00,1.619101e+00,3,0,4.630208e+00,4.630213e+00,1
4.748620e+00,4.815537e+00,4.777193e+00,3,2,3.591987e+00,3.616937e+00,1
4.861528e+00,2.012888e+00,1.949072e+00,3,0,3.917146e+00,4.013804e+00,1
4.833366e+00,3.297125e+00,3.259897e+00,3,1,3.945300e+00,3.979537e+00,1
4.801746e+00,2.027829e+00,1.990080e+00,3,0,4.167503e+00,4.186243e+00,1
4.776673e+00,4.864279e+00,4.824877e+00,3,2,5.763065e+00,5.788056e+00,1
6.386132e+00,8.837652e+00,8.788824e+00,4,5,6.786133e+00,6.807214e+00,1
6.368955e+00,1.022387e+01,1.017976e+01,4,6,5.536486e+00,5.542148e+00,1
4.819255e+00,4.232377e+00,4.191160e+00,3,2,4.724070e+00,4.724071e+00,1
4.858433e+00,1.629228e+00,1.591921e+00,3,0,4.075140e+00,4.074994e+00,1
4.769215e+00,1.638058e+00,1.600981e+00,3,0,3.524646e+00,3.524652e+00,1
4.790919e+00,1.646540e+00,1.598835e+00,3,0,3.077566e+00,3.077569e+00,1
4.793541e+00,1.676876e+00,1.639843e+00,3,0,2.309761e+00,2.309763e+00,1
4.842691e+00,1.672178e+00,1.636982e+00,3,0,2.576400e+00,2.576402e+00,1
4.763977e+00,1.613506e+00,1.576900e+00,3,0,2.094793e+00,2.094796e+00,1
4.816235e+00,1.638195e+00,1.600027e+00,3,0,2.475773e+00,2.475778e+00,1
4.764114e+00,1.625321e+00,1.588106e+00,3,0,2.468913e+00,2.468915e+00,1
4.820415e+00,1.639677e+00,1.602173e+00,3,0,2.838342e+00,2.838345e+00,1
4.804212e+00,1.677272e+00,1.640081e+00,3,0,5.669016e+00,5.669025e+00,1
4.806052e+00,3.347442e+00,3.309011e+00,3,1,6.547918e+00,6.547928e+00,1
4.818770e+00,4.613746e+00,4.574060e+00,3,2,5.158186e+00,5.158573e+00,1
4.755379e+00,3.894460e+00,3.852844e+00,3,1,2.702769e+00,2.705897e+00,1
4.772775e+00,3.554315e+00,3.515244e+00,3,1,2.863156e+00,2.864270e+00,1
4.799576e+00,4.165385e+00,4.118919e+00,3,2,2.576046e+00,2.576048e+00,1
4.711863e+00,1.626209e+00,1.575947e+00,3,0,2.945666e+00,2.945668e+00,1
4.793104e+00,4.872119e+00,4.831791e+00,3,2,5.529273e+00,5.605712e+00,1
4.850913e+00,3.215317e+00,3.175974e+00,3,1,4.114870e+00,4.127928e+00,1
4.804294e+00,4.597852e+00,4.558802e+00,3,2,3.346121e+00,3.346189e+00,1
4.809083e+00,4.521671e+00,4.482985e+00,3,2,3.725083e+00,3.729804e+00,1
4.772306e+00,2.925897e+00,2.887011e+00,3,1,6.579741e+00,6.579656e+00,1
6.356353e+00,2.788457e+00,2.750874e+00,4,1,9.265379e+00,9.265208e+00,1
7.967172e+00,8.385775e+00,8.347988e+00,5,5,1.274874e+01,1.275452e+01,1
9.635343e+00,7.790166e+00,7.746696e+00,6,4,1.785073e+01,1.796256e+01,1
9.679009e+00,6.363758e+00,6.321192e+00,6,3,2.030694e+01,2.046838e+01,1
9.536237e+00,1.006375e+01,1.002407e+01,6,6,2.078933e+01,2.108782e+01,1
9.614165e+00,1.315227e+01,1.309919e+01,6,6,1.965539e+01,1.962650e+01,0
8.067246e+00,1.218887e+01,1.214600e+01,5,8,1.618797e+01,1.628455e+01,1
7.990047e+00,8.663394e+00,8.622169e+00,5,5,1.512218e+01,1.518084e+01,1
6.539665e+00,7.344688e+00,7.302046e+00,4,4,1.159549e+01,1.159963e+01,1
4.799852e+00,2.197450e+01,2.191710e+01,3,11,1.044100e+01,1.060165e+01,0
9.552521e+00,5.506515e+00,5.455971e+00,6,0,1.055612e+01,2.178061e+01,0
7.957542e+00,1.751477e+01,1.747584e+01,5,12,8.203873e+00,8.225090e+00,1
6.444869e+00,2.425047e+01,2.420902e+01,4,15,7.924998e+00,8.632126e+00,1
4.802652e+00,2.617883e+01,2.613616e+01,3,18,6.021943e+00,6.092229e+00,1
4.760954e+00,1.687238e+01,1.683211e+01,3,10,7.632474e+00,7.964617e+00,1
4.855571e+00,1.559337e+01,1.555419e+01,3,11,4.149260e+00,4.149252e+00,1
4.887391e+00,7.821326e+00,7.781982e+00,3,4,5.896341e+00,5.926267e+00,1
9.477022e+00,4.387165e+01,4.381800e+01,6,28,2.124828e+01,6.249195e+01,0
9.423410e+00,3.898089e+01,3.892779e+01,6,26,1.204133e+01,1.367479e+01,0
9.431434e+00,2.848093e+01,2.842784e+01,6,18,1.378402e+01,1.737240e+01,0
9.382735e+00,5.332037e+00,5.282164e+00,6,0,2.208731e+01,4.670512e+01,0
9.369199e+00,4.302721e+01,4.298902e+01,6,32,1.504935e+01,1.506919e+01,1
9.419557e+00,6.308454e+01,6.304097e+01,6,46,1.924037e+01,1.978177e+01,1
9.496691e+00,4.962863e+01,4.957724e+01,6,34,2.355551e+01,2.610409e+01,0
6.456594e+00,5.833782e+01,5.829310e+01,4,44,1.480903e+01,1.485018e+01,1
6.586998e+00,1.883164e+01,1.878905e+01,4,12,1.458218e+01,1.472540e+01,1
6.441475e+00,1.071206e+01,1.067114e+01,4,6,1.378794e+01,1.389624e+01,1
4.827731e+00,7.169121e+00,7.129908e+00,3,4,1.015660e+01,1.016238e+01,1
4.849139e+00,1.030790e+01,1.025176e+01,3,3,9.837878e+00,1.050611e+01,0
4.838078e+00,6.459696e+00,6.419182e+00,3,3,9.420879e+00,9.438481e+00,1
4.871074e+00,6.358812e+00,6.320000e+00,3,3,7.935681e+00,8.106096e+00,1
4.833985e+00,3.894676e+00,3.852129e+00,3,1,6.596366e+00,6.739702e+00,1
4.845850e+00,3.579180e+00,3.540993e+00,3,1,6.511948e+00,6.624738e+00,1
4.849946e+00,6.391848e+00,6.346703e+00,3,3,7.449813e+00,7.492083e+00,1
4.874929e+00,7.747603e+00,7.707119e+00,3,4,9.361046e+00,9.385982e+00,1
9.639898e+00,1.773953e+01,1.769805e+01,6,11,1.517541e+01,1.524824e+01,1
9.624442e+00,1.562705e+01,1.558471e+01,6,10,1.343443e+01,1.357419e+01,1
8.058412e+00,9.720170e+00,9.680986e+00,5,6,9.725758e+00,9.742862e+00,1
6.442782e+00,5.197006e+00,5.157948e+00,4,2,7.409155e+00,7.410872e+00,1
4.837050e+00,2.117909e+00,2.075195e+00,3,0,7.216187e+00,7.234793e+00,1
4.873172e+00,8.776992e+00,8.729935e+00,3,2,9.600783e+00,2.548263e+01,0
4.836646e+00,5.651499e+00,5.601645e+00,3,0,7.534822e+00,2.074619e+01,0
4.837756e+00,7.374536e+00,7.335901e+00,3,4,6.399275e+00,6.399235e+00,1
4.844956e+00,4.934664e+00,4.887104e+00,3,2,5.845402e+00,5.854189e+00,1
4.840890e+00,5.251029e+00,5.208969e+00,3,2,6.016376e+00,6.017832e+00,1
4.835633e+00,3.004150e+00,2.965927e+00,3,1,5.099655e+00,5.099656e+00,1
4.858803e+00,1.661234e+00,1.623154e+00,3,0,4.312731e+00,4.312735e+00,1
4.856238e+00,3.413629e+00,3.376961e+00,3,1,6.310947e+00,6.333679e+00,1
4.841657e+00,1.237723e+01,1.233482e+01,3,7,8.634325e+00,8.712471e+00,1
9.631352e+00,2.019805e+01,2.015591e+01,6,13,9.558103e+00,9.659184e+00,1
6.435256e+00,1.317063e+01,1.313090e+01,4,9,5.470145e+00,5.470143e+00,1
4.827771e+00,1.672047e+00,1.632929e+00,3,0,6.169075e+00,6.169083e+00,1
4.838197e+00,4.520320e+00,4.473925e+00,3,0,8.713205e+00,1.435824e+01,0
4.864276e+00,4.499256e+00,4.452467e+00,3,0,7.876605e+00,1.472355e+01,0
6.427678e+00,4.466399e+00,4.420042e+00,4,0,2.847876e+01,9.641866e+01,0
9.620383e+00,4.445313e+00,4.399061e+00,6,0,3.205233e+01,1.071527e+02,0
9.810237e+00,4.509911e+00,4.463196e+00,6,0,3.856829e+01,1.360347e+02,0
9.622505e+00,8.509003e+00,8.458614e+00,6,2,3.458871e+01,1.051338e+02,0
9.614171e+00,5.713669e+00,5.661726e+00,6,0,3.788061e+01,1.000476e+02,0
9.619689e+00,9.256652e+00,9.207964e+00,6,4,3.737523e+01,8.709162e+01,0
9.623227e+00,4.519599e+00,4.472733e+00,6,0,5.773830e+01,1.338328e+02,0
9.635639e+00,5.585420e+00,5.538225e+00,6,1,4.946475e+01,9.219486e+01,0
9.655836e+00,8.380440e+00,8.329868e+00,6,2,4.863298e+01,8.669082e+01,0
6.434256e+00,5.825341e+00,5.688906e+00,4,0,4.009183e+01,5.492905e+01,0
6.431360e+00,7.093078e+00,7.044077e+00,4,2,3.094578e+01,3.754014e+01,0
6.445646e+00,9.531431e+00,9.480238e+00,4,3,2.332268e+01,3.259700e+01,0
4.831592e+00,5.753741e+00,5.707026e+00,3,0,2.234087e+01,2.382559e+01,0
6.457960e+00,1.876556e+01,1.871729e+01,4,9,1.712827e+01,2.536834e+01,0
4.842457e+00,1.474737e+01,1.470804e+01,3,9,1.413648e+01,1.440258e+01,1
4.857437e+00,7.016813e+00,6.965876e+00,3,1,1.347440e+01,2.915295e+01,0
6.436581e+00,5.688421e+00,5.638599e+00,4,0,1.403401e+01,4.442737e+01,0
9.639820e+00,1.570943e+01,1.566172e+01,6,7,1.417559e+01,4.296874e+01,0
9.631360e+00,5.585392e+00,5.538702e+00,6,0,1.180221e+01,3.709420e+01,0
8.048209e+00,4.227410e+01,4.223394e+01,5,29,7.612425e+00,7.869575e+00,1
8.044274e+00,3.686346e+01,3.682113e+01,5,26,7.633942e+00,8.093816e+00,1
6.441934e+00,2.265769e+01,2.261686e+01,4,16,5.942861e+00,6.006843e+00,1
8.041209e+00,1.455945e+01,1.451802e+01,5,9,5.718735e+00,5.820434e+00,1
4.843529e+00,7.586394e+00,7.545948e+00,3,4,5.037600e+00,5.050461e+00,1
4.843659e+00,1.549465e+01,1.545429e+01,3,9,7.907532e+00,8.077461e+00,1
9.638521e+00,2.403437e+01,2.398610e+01,6,13,1.167773e+01,1.525338e+01,0
6.513968e+00,3.266051e+01,3.261995e+01,4,23,7.084922e+00,7.093339e+00,1
4.835169e+00,6.385241e+00,6.339788e+00,3,3,8.012127e+00,8.038999e+00,1
4.876661e+00,3.368201e+00,3.329992e+00,3,1,8.134505e+00,8.139706e+00,1
4.839006e+00,6.384538e+00,6.345034e+00,3,3,9.156568e+00,9.157264e+00,1
4.797996e+00,5.482094e+00,5.442142e+00,3,3,6.552977e+00,6.552978e+00,1
4.758629e+00,1.682626e+00,1.645088e+00,3,0,6.425218e+00,6.425220e+00,1
4.814412e+00,1.658082e+00,1.616001e+00,3,0,5.483708e+00,5.483710e+00,1
4.806364e+00,1.706130e+00,1.671076e+00,3,0,5.008968e+00,5.008970e+00,1
4.833726e+00,4.836705e+00,4.797935e+00,3,2,4.819059e+00,4.822285e+00,1
4.800113e+00,5.015047e+00,4.977703e+00,3,2,3.851704e+00,3.863080e+00,1
4.793650e+00,4.202479e+00,4.164934e+00,3,2,4.983274e+00,4.983280e+00,1
4.845487e+00,8.194409e+00,8.156776e+00,3,4,6.079942e+00,6.095770e+00,1
4.784377e+00,9.178228e+00,9.137154e+00,3,5,1.129993e+01,1.130885e+01,1
4.794899e+00,1.753636e+01,1.749611e+01,3,11,1.453366e+01,1.473858e+01,1
6.358616e+00,1.352787e+01,1.348782e+01,4,9,7.315729e+00,7.397338e+00,1
4.836558e+00,6.408887e+00,6.368160e+00,3,3,6.166503e+00,6.169958e+00,1
4.802479e+00,4.272876e+00,4.229069e+00,3,2,5.635493e+00,5.635498e+00,1
4.769276e+00,1.656724e+00,1.619816e+00,3,0,6.668165e+00,6.668172e+00,1
4.836096e+00,6.755104e+00,6.718159e+00,3,3,4.592168e+00,4.635643e+00,1
4.837473e+00,8.891843e+00,8.844137e+00,3,2,7.187378e+00,1.586112e+01,0
4.805036e+00,8.526988e+00,8.474827e+00,3,2,6.604270e+00,1.368193e+01,0
9.528381e+00,1.396122e+01,1.392412e+01,6,9,7.327886e+00,7.350940e+00,1
9.614165e+00,5.629309e+00,5.581856e+00,6,0,1.017932e+01,1.681465e+01,0
9.518860e+00,5.610388e+00,5.563021e+00,6,0,1.283621e+01,2.176940e+01,0
9.620431e+00,1.220077e+01,1.216483e+01,6,8,7.531761e+00,7.566683e+00,1
6.402773e+00,6.505175e+00,6.465197e+00,4,3,8.519677e+00,8.541633e+00,1
4.822205e+00,1.008573e+01,1.003504e+01,3,3,1.135628e+01,1.375793e+01,0
6.387795e+00,9.769653e+00,9.729147e+00,4,6,7.185087e+00,7.184766e+00,1
4.778970e+00,6.755337e+00,6.704807e+00,3,3,6.251089e+00,6.308302e+00,1
4.829088e+00,5.067432e+00,5.031109e+00,3,2,5.101718e+00,5.101804e+00,1
4.761240e+00,2.870848e+00,2.834082e+00,3,1,4.431251e+00,4.431253e+00,1
4.808465e+00,4.389568e+00,4.353046e+00,3,2,5.379308e+00,5.380641e+00,1
6.345770e+00,4.156316e+00,4.117966e+00,4,2,3.168996e+00,3.169001e+00,1
4.760875e+00,1.717307e+00,1.681089e+00,3,0,3.367284e+00,3.367286e+00,1
4.846109e+00,1.716801e+00,1.680851e+00,3,0,3.352941e+00,3.352945e+00,1
6.392758e+00,3.063622e+01,3.058791e+01,4,17,1.731529e+01,4.769593e+01,0
9.531016e+00,5.558107e+00,5.511045e+00,6,0,1.577745e+01,3.329242e+01,0
7.966176e+00,5.575854e+00,5.526066e+00,5,0,1.573186e+01,2.630663e+01,0
9.639395e+00,3.914912e+01,3.911114e+01,6,27,1.397407e+01,1.460601e+01,1
9.701815e+00,2.359573e+01,2.355313e+01,6,16,1.238306e+01,1.277504e+01,1
9.699517e+00,1.604628e+01,1.600599e+01,6,11,9.192262e+00,9.229527e+00,1
6.452708e+00,3.295519e+01,3.290606e+01,4,19,1.402726e+01,1.533801e+01,0
6.449380e+00,2.504119e+01,2.499986e+01,4,18,7.891076e+00,7.924261e+00,1
4.833072e+00,3.401801e+00,3.361940e+00,3,1,5.544013e+00,5.553798e+00,1
4.825215e+00,2.988492e+00,2.951145e+00,3,1,6.298232e+00,6.298238e+00,1
4.845461e+00,3.339199e+00,3.301620e+00,3,1,7.051271e+00,7.051276e+00,1
4.850396e+00,5.061868e+00,5.025148e+00,3,2,7.510851e+00,7.519544e+00,1
4.838786e+00,7.474318e+00,7.437944e+00,3,4,7.620516e+00,7.624496e+00,1
6.420975e+00,3.269848e+00,3.229856e+00,4,1,6.587376e+00,6.593180e+00,1
4.851663e+00,1.824998e+01,1.821184e+01,3,11,1.312407e+01,1.318897e+01,1
6.450032e+00,1.126584e+01,1.122570e+01,4,7,1.002030e+01,1.003379e+01,1
4.894898e+00,9.264433e+00,9.223938e+00,3,5,9.781382e+00,9.785269e+00,1
9.650746e+00,1.754240e+01,1.750278e+01,6,11,1.300858e+01,1.302074e+01,1
9.702868e+00,1.732157e+01,1.727891e+01,6,11,1.068243e+01,1.070350e+01,1
9.638710e+00,3.093018e+01,3.087211e+01,6,17,2.217883e+01,3.592905e+01,0
9.639465e+00,2.727017e+01,2.722907e+01,6,19,1.457371e+01,1.496921e+01,1
4.862953e+00,1.810751e+01,1.806903e+01,3,12,1.408536e+01,1.411903e+01,1
6.444928e+00,1.429041e+01,1.425004e+01,4,10,7.912198e+00,7.912194e+00,1
4.852174e+00,1.004921e+01,9.992838e+00,3,3,8.612759e+00,1.072163e+01,0
4.836102e+00,5.657370e+00,5.608320e+00,3,0,1.010181e+01,2.350686e+01,0
9.690760e+00,6.591338e+00,6.551981e+00,6,4,5.987121e+00,5.977890e+00,1
8.076475e+00,3.934700e+00,3.896713e+00,5,2,7.160894e+00,7.159057e+00,1
6.434152e+00,5.949154e+00,5.911112e+00,4,3,5.817397e+00,5.818965e+00,1
4.837205e+00,9.026139e+00,8.988142e+00,3,5,1.282717e+01,1.286240e+01,1
4.845878e+00,4.640336e+00,4.603148e+00,3,2,1.213906e+01,1.216465e+01,1
8.043198e+00,7.908720e+00,7.869959e+00,5,4,9.867106e+00,9.870331e+00,1
4.848786e+00,6.196356e+00,6.155968e+00,3,3,7.439458e+00,7.455839e+00,1
4.843395e+00,6.450953e+00,6.411076e+00,3,3,6.387017e+00,6.420636e+00,1
4.828633e+00,2.165548e+00,2.129078e+00,3,0,6.460378e+00,6.470497e+00,1
4.840404e+00,1.050007e+01,1.045108e+01,3,3,1.236222e+01,4.181195e+01,0
9.620880e+00,5.679551e+00,5.631685e+00,6,0,1.257400e+01,4.338373e+01,0
9.633050e+00,5.700722e+00,5.650997e+00,6,0,1.443062e+01,5.423435e+01,0
9.640663e+00,1.869757e+01,1.864886e+01,6,9,1.115282e+01,2.223823e+01,0
9.562571e+00,1.952566e+01,1.948214e+01,6,12,1.125589e+01,1.175124e+01,1
6.461043e+00,1.295806e+01,1.290393e+01,4,7,6.824575e+00,6.845732e+00,1
6.563779e+00,6.791534e+00,6.731033e+00,4,3,9.214145e+00,9.261858e+00,1
8.099444e+00,1.677879e+01,1.672196e+01,5,7,1.167411e+01,1.177938e+01,1
6.599689e+00,1.133876e+01,1.126313e+01,4,6,7.949244e+00,8.007825e+00,1
4.912872e+00,8.839646e+00,8.773804e+00,3,3,5.617593e+00,5.632629e+00,1
4.854857e+00,4.278855e+01,4.272389e+01,3,26,1.235986e+01,2.519822e+01,0
6.432884e+00,2.225898e+01,2.221727e+01,4,15,8.544938e+00,8.878569e+00,1
4.867028e+00,1.384535e+01,1.380801e+01,3,9,7.551291e+00,7.660964e+00,1
4.833036e+00,9.880027e+00,9.839058e+00,3,6,5.355884e+00,5.356585e+00,1
4.861875e+00,2.485571e+01,2.481604e+01,3,16,1.063126e+01,1.087137e+01,1
6.445596e+00,2.090761e+01,2.086926e+01,4,15,4.511496e+00,4.510759e+00,1
4.794222e+00,1.679955e+00,1.641989e+00,3,0,3.419047e+00,3.419013e+00,1
4.757653e+00,1.633413e+00,1.598835e+00,3,0,2.730580e+00,2.730582e+00,1
4.790422e+00,1.616295e+00,1.582146e+00,3,0,3.357953e+00,3.357957e+00,1
4.842731e+00,1.656530e+00,1.621962e+00,3,0,3.225552e+00,3.225554e+00,1
4.850732e+00,4.404177e+00,4.365921e+00,3,2,5.652517e+00,5.652430e+00,1
8.054760e+00,7.618172e+00,7.576704e+00,5,4,5.191583e+00,5.175705e+00,1
6.381338e+00,1.238354e+01,1.234198e+01,4,7,1.039537e+01,1.042012e+01,1
6.348763e+00,9.711545e+00,9.673119e+00,4,6,5.943280e+00,5.943290e+00,1
6.414879e+00,2.896586e+01,2.892900e+01,4,19,1.441487e+01,1.461677e+01,1
9.557128e+00,2.478855e+01,2.474809e+01,6,17,1.434797e+01,1.483051e+01,1
9.529782e+00,3.546381e+01,3.542399e+01,6,25,1.263028e+01,1.278236e+01,1
6.360212e+00,1.901906e+01,1.897907e+01,4,13,8.934046e+00,8.946946e+00,1
4.791397e+00,7.891993e+00,7.855177e+00,3,4,8.882811e+00,8.894149e+00,1
4.835771e+00,9.138339e+00,9.099960e+00,3,5,6.224329e+00,6.229679e+00,1
4.852348e+00,6.682022e+00,6.645203e+00,3,3,5.382302e+00,5.391243e+00,1
4.848397e+00,6.602061e+00,6.567240e+00,3,3,5.617249e+00,5.631141e+00,1
4.819184e+00,5.667312e+00,5.620241e+00,3,0,6.832356e+00,1.158159e+01,0
4.839008e+00,8.681920e+00,8.645773e+00,3,5,6.073815e+00,6.078236e+00,1
4.834786e+00,4.821626e+00,4.784822e+00,3,2,4.172913e+00,4.178318e+00,1
4.836101e+00,4.890753e+00,4.853964e+00,3,2,3.810108e+00,3.913846e+00,1
4.828840e+00,6.587816e+00,6.552935e+00,3,3,4.412688e+00,4.433734e+00,1
4.844332e+00,5.194263e+00,5.155087e+00,3,2,3.360201e+00,3.366136e+00,1
4.886835e+00,1.215897e+01,1.212215e+01,3,7,7.318905e+00,7.436193e+00,1
9.679522e+00,9.296443e+00,9.259939e+00,6,6,6.091681e+00,6.088406e+00,1
4.838451e+00,3.391038e+00,3.353119e+00,3,1,7.596986e+00,7.598980e+00,1
4.819189e+00,2.938162e+00,2.901077e+00,3,1,4.324796e+00,4.324782e+00,1
4.817020e+00,1.652653e+00,1.610756e+00,3,0,8.195212e+00,8.195194e+00,1
4.816911e+00,1.634210e+00,1.600027e+00,3,0,5.113377e+00,5.113364e+00,1
4.824164e+00,4.470574e+00,4.424810e+00,3,0,1.230053e+01,3.085882e+01,0
6.415834e+00,4.449513e+00,4.405737e+00,4,0,1.581005e+01,3.870928e+01,0
9.625822e+00,4.500942e+00,4.449129e+00,6,0,1.104943e+01,2.128790e+01,0
9.606608e+00,4.544723e+00,4.495859e+00,6,0,1.528930e+01,3.406985e+01,0
9.629289e+00,8.294590e+00,8.248091e+00,6,2,1.328313e+01,2.302549e+01,0
8.032142e+00,5.745874e+00,5.698681e+00,5,0,1.730245e+01,3.121629e+01,0
6.454198e+00,8.661287e+00,8.615971e+00,4,2,1.717729e+01,2.708432e+01,0
6.425592e+00,7.073156e+00,7.025957e+00,4,1,1.583867e+01,2.322440e+01,0
8.057400e+00,1.276076e+01,1.271343e+01,5,5,1.440246e+01,1.951809e+01,0
6.479478e+00,8.838271e+00,8.800983e+00,4,5,1.079075e+01,1.080852e+01,1
4.864336e+00,6.147770e+00,6.108046e+00,3,3,8.601362e+00,8.605714e+00,1
4.876693e+00,9.525998e+00,9.487867e+00,3,5,8.304735e+00,8.334763e+00,1
6.468838e+00,2.731254e+01,2.727103e+01,4,18,1.000259e+01,1.058966e+01,1
9.769878e+00,2.068976e+01,2.063870e+01,6,11,9.003583e+00,1.018392e+01,0
6.475947e+00,1.345860e+01,1.341796e+01,4,9,4.903065e+00,4.907656e+00,1
4.832469e+00,4.056632e+00,4.019976e+00,3,2,6.203946e+00,6.203754e+00,1
6.430416e+00,2.706725e+00,2.669096e+00,4,1,5.252727e+00,5.252204e+00,1
4.828680e+00,1.712572e+00,1.676083e+00,3,0,3.177845e+00,3.177836e+00,1
4.821610e+00,2.732932e+00,2.698183e+00,3,1,5.065292e+00,5.065127e+00,1
6.410561e+00,2.682767e+00,2.648115e+00,4,1,3.517951e+00,3.517949e+00,1
4.804554e+00,1.628407e+00,1.595020e+00,3,0,2.087268e+00,2.087273e+00,1
4.802775e+00,1.631539e+00,1.597881e+00,3,0,2.672207e+00,2.672210e+00,1
4.802593e+00,1.634334e+00,1.600981e+00,3,0,1.884190e+00,1.884191e+00,1
4.814396e+00,1.625147e+00,1.591921e+00,3,0,2.074202e+00,2.074205e+00,1
4.801335e+00,1.646884e+00,1.613855e+00,3,0,3.415273e+00,3.415280e+00,1
4.838184e+00,9.403604e+00,9.368181e+00,3,5,6.167514e+00,6.201894e+00,1
4.835015e+00,4.604230e+00,4.555941e+00,3,2,6.757460e+00,6.783859e+00,1
4.833666e+00,8.362347e+00,8.327007e+00,3,5,3.206242e+00,3.206240e+00,1
4.820968e+00,1.629431e+00,1.594067e+00,3,0,5.185753e+00,5.185583e+00,1
6.420327e+00,1.659361e+00,1.625061e+00,4,0,2.982427e+00,2.982427e+00,1
4.862211e+00,1.676546e+00,1.635075e+00,3,0,4.983417e+00,4.983424e+00,1
4.822260e+00,1.652892e+00,1.617193e+00,3,0,4.531162e+00,4.531164e+00,1
4.806745e+00,1.646821e+00,1.611948e+00,3,0,3.140203e+00,3.140204e+00,1
4.829794e+00,3.348793e+00,3.314972e+00,3,1,2.759303e+00,2.760255e+00,1
4.835785e+00,3.581787e+00,3.546000e+00,3,1,4.252568e+00,4.287279e+00,1
4.818266e+00,3.849542e+00,3.814936e+00,3,1,4.395170e+00,4.416879e+00,1
4.822874e+00,3.260533e+00,3.226042e+00,3,1,3.953006e+00,3.957118e+00,1
4.818455e+00,2.946147e+00,2.910137e+00,3,1,2.928531e+00,2.928532e+00,1
4.826344e+00,1.674360e+00,1.639128e+00,3,0,3.891815e+00,3.891826e+00,1
4.817312e+00,1.671735e+00,1.635075e+00,3,0,2.509244e+00,2.509244e+00,1
4.821119e+00,1.678460e+00,1.644135e+00,3,0,4.567431e+00,4.567421e+00,1
4.812715e+00,1.633368e+00,1.597166e+00,3,0,2.360907e+00,2.360907e+00,1
4.828944e+00,1.663057e+00,1.627922e+00,3,0,4.248313e+00,4.248319e+00,1
4.832332e+00,1.696230e+00,1.658201e+00,3,0,4.754734e+00,4.754737e+00,1
4.867558e+00,4.538088e+00,4.488707e+00,3,0,5.952674e+00,9.855331e+00,0
4.776823e+00,4.478899e+00,4.432201e+00,3,0,6.352816e+00,8.768820e+00,0
4.802242e+00,2.733719e+00,2.695799e+00,3,1,6.613543e+00,6.613386e+00,1
6.378537e+00,4.301747e+00,4.265070e+00,4,2,6.387985e+00,6.387574e+00,1
4.748353e+00,3.547765e+00,3.511906e+00,3,1,7.217208e+00,7.221543e+00,1
4.742346e+00,4.210346e+00,4.174948e+00,3,2,4.515516e+00,4.515502e+00,1
4.812718e+00,3.599548e+01,3.595996e+01,3,24,1.094667e+01,1.153369e+01,1
9.609121e+00,2.928066e+01,2.924109e+01,6,21,7.396806e+00,7.429731e+00,1
6.433610e+00,1.078639e+01,1.074815e+01,4,7,4.902001e+00,4.910583e+00,1
4.846099e+00,4.113549e+00,4.078150e+00,3,2,4.052147e+00,4.051865e+00,1
4.845188e+00,2.726179e+00,2.690792e+00,3,1,4.054401e+00,4.052967e+00,1
6.404913e+00,2.760997e+00,2.721786e+00,4,1,3.500299e+00,3.500277e+00,1
4.823365e+00,1.659264e+00,1.621962e+00,3,0,1.874723e+00,1.874723e+00,1
4.814378e+00,1.658678e+00,1.623869e+00,3,0,2.089788e+00,2.089790e+00,1
4.778618e+00,1.618829e+00,1.586199e+00,3,0,2.830339e+00,2.830343e+00,1
4.779592e+00,3.285385e+00,3.252029e+00,3,1,2.541555e+00,2.541691e+00,1
4.822131e+00,5.638679e+00,5.601883e+00,3,2,5.494438e+00,5.498759e+00,1
4.956494e+00,4.242240e+00,4.204035e+00,3,1,8.337507e+00,8.342641e+00,1
4.887400e+00,1.191130e+01,1.182318e+01,3,3,1.190942e+01,1.588649e+01,0
9.677262e+00,4.661667e+00,4.587889e+00,6,0,1.742938e+01,3.457805e+01,0
9.557600e+00,4.710792e+00,4.637957e+00,6,0,2.604902e+01,5.977111e+01,0
9.533948e+00,1.338377e+01,1.332808e+01,6,6,1.946298e+01,3.762766e+01,0
7.923111e+00,8.293746e+00,8.238077e+00,5,3,1.112096e+01,1.547622e+01,0
9.533822e+00,4.480317e+00,4.432678e+00,6,0,1.270975e+01,1.950307e+01,0
9.476713e+00,7.930364e+00,7.875919e+00,6,2,1.119954e+01,1.344875e+01,0
6.399692e+00,6.627137e+00,6.570101e+00,4,4,9.732860e+00,9.731741e+00,1
7.964634e+00,1.075131e+01,1.071215e+01,5,6,9.914302e+00,9.922854e+00,1
6.386852e+00,4.919546e+00,4.878044e+00,4,2,1.069771e+01,1.095783e+01,1
4.776166e+00,1.020405e+01,1.016212e+01,3,5,9.286421e+00,9.495306e+00,1

