6.152120e-01,1.147468e+00,7.967949e-01,2,0,0.000000e+00,0.000000e+00
8.804150e-01,1.814700e-01,1.728535e-01,3,0,5.784748e-02,5.784698e-02
9.086140e-01,1.788290e-01,1.709461e-01,3,0,9.449725e-02,9.449302e-02
1.229094e+00,4.477030e-01,4.401207e-01,4,1,2.010970e-01,2.007357e-01
2.996211e+00,4.214470e-01,4.141331e-01,10,1,1.906994e-01,1.843794e-01
1.219534e+00,1.239053e+00,1.230955e+00,4,4,4.860993e-01,4.848298e-01
2.105437e+00,6.790650e-01,6.589890e-01,7,2,6.515502e-01,6.480225e-01
2.074838e+00,2.047730e-01,1.969337e-01,7,0,8.091856e-01,8.067873e-01
3.302094e+00,1.624146e+00,1.616001e+00,11,6,4.264543e-01,4.202532e-01
3.012807e+00,1.795070e-01,1.709461e-01,10,0,4.103370e-01,4.096221e-01
3.008108e+00,1.800880e-01,1.718998e-01,10,0,3.193529e-01,3.162824e-01
2.682441e+00,6.806420e-01,6.728172e-01,9,2,3.200061e-01,2.983144e-01
1.463877e+00,4.351120e-01,4.270077e-01,5,1,4.671780e-01,4.663034e-01
1.806099e+00,4.385590e-01,4.189014e-01,6,1,7.324596e-01,7.276967e-01
2.969671e+00,6.571650e-01,6.499290e-01,10,2,5.635106e-01,5.634980e-01
8.827950e-01,4.558210e-01,4.479885e-01,3,1,8.715743e-01,8.703225e-01
3.602031e+00,4.193710e-01,4.107952e-01,12,1,7.392813e-01,7.378543e-01
2.990714e+00,4.294200e-01,4.210472e-01,10,1,6.337049e-01,6.220541e-01
1.481602e+00,1.847970e-01,1.759529e-01,5,0,6.536459e-01,6.520446e-01
1.195276e+00,6.989820e-01,6.909370e-01,4,2,8.156264e-01,8.141351e-01
2.092803e+00,1.156380e+00,1.148224e+00,7,4,8.574575e-01,8.546327e-01
1.195032e+00,1.426930e+00,1.419067e+00,4,5,7.521370e-01,7.490570e-01
1.489878e+00,7.100970e-01,7.021427e-01,5,2,5.999029e-01,5.990917e-01
2.976418e+00,9.113510e-01,9.028912e-01,10,3,6.637021e-01,6.630099e-01
2.090204e+00,1.794580e-01,1.718998e-01,7,0,6.457938e-01,6.448130e-01
1.782463e+00,4.551940e-01,4.470348e-01,6,1,5.896640e-01,5.864231e-01
1.520465e+00,1.434113e+00,1.425982e+00,5,5,4.817474e-01,4.811509e-01
2.091147e+00,9.080640e-01,9.000301e-01,7,3,3.457010e-01,3.416075e-01
2.372514e+00,6.581580e-01,6.499290e-01,8,2,2.341115e-01,2.182564e-01
2.988112e+00,1.793720e-01,1.709461e-01,10,0,1.621403e-01,1.533069e-01
9.078810e-01,7.043200e-01,6.959438e-01,3,2,2.495192e-01,2.482749e-01
3.296740e+00,6.577840e-01,6.499290e-01,11,2,3.665031e-01,3.463677e-01
2.992434e+00,1.800960e-01,1.721382e-01,10,0,2.878317e-01,2.782970e-01
1.201399e+00,1.432257e+00,1.424074e+00,4,5,3.438383e-01,3.402194e-01
2.088920e+00,8.852710e-01,8.771420e-01,7,3,2.071605e-01,2.062888e-01
1.804149e+00,4.191760e-01,4.110336e-01,6,1,1.472769e-01,1.466155e-01
2.687524e+00,4.203310e-01,4.119873e-01,9,1,2.595943e-01,2.593460e-01
1.211851e+00,4.285180e-01,4.200935e-01,4,1,2.978577e-01,2.959754e-01
2.066367e+00,1.206941e+00,1.199007e+00,7,4,5.641594e-01,5.582229e-01
2.066161e+00,9.209170e-01,9.129047e-01,7,3,4.880436e-01,4.861158e-01
2.115150e+00,8.958670e-01,8.878708e-01,7,3,7.919599e-01,7.861617e-01
2.113841e+00,4.112910e-01,4.029274e-01,7,1,1.174479e+00,1.168934e+00
1.781072e+00,1.384522e+00,1.375914e+00,6,5,7.881033e-01,7.821281e-01
2.099369e+00,7.016950e-01,6.930828e-01,7,2,1.047463e+00,1.046050e+00
1.803820e+00,6.553730e-01,6.470680e-01,6,2,9.058097e-01,9.018851e-01
1.170880e+00,4.511210e-01,4.429817e-01,4,1,7.249843e-01,7.233587e-01
2.089617e+00,6.793210e-01,6.718636e-01,7,2,6.212599e-01,6.199461e-01
2.412134e+00,6.583890e-01,6.508827e-01,8,2,5.021463e-01,4.994470e-01
2.368498e+00,1.796210e-01,1.718998e-01,8,0,3.556819e-01,3.555402e-01
2.400481e+00,2.089560e-01,2.009869e-01,8,0,1.149485e-01,1.149226e-01
1.172097e+00,1.786300e-01,1.709461e-01,4,0,1.863279e-01,1.863216e-01
9.068620e-01,7.035820e-01,6.961823e-01,3,2,3.345080e-01,3.329916e-01
2.039384e+00,6.899370e-01,6.818771e-01,7,2,2.902736e-01,2.895281e-01
2.096882e+00,1.790460e-01,1.709461e-01,7,0,2.352517e-01,2.351372e-01
2.682830e+00,4.330150e-01,4.251003e-01,9,1,2.497142e-01,2.364576e-01
2.065672e+00,4.562770e-01,4.479885e-01,7,1,3.569251e-01,3.544383e-01
2.381646e+00,6.907760e-01,6.821156e-01,8,2,1.836736e-01,1.815720e-01
1.502720e+00,4.333830e-01,4.248619e-01,5,1,2.259350e-01,2.257577e-01
2.044167e+00,7.020000e-01,6.940365e-01,7,2,3.092715e-01,3.080008e-01
2.097371e+00,1.765250e-01,1.678467e-01,7,0,4.986846e-01,4.973801e-01
1.193717e+00,1.423864e+00,1.415968e+00,4,5,2.155196e-01,2.129332e-01
2.090524e+00,2.123726e+00,2.115965e+00,7,8,6.884364e-01,6.765143e-01
2.085488e+00,4.125130e-01,4.000664e-01,7,1,1.479518e+00,1.465843e+00
2.070867e+00,1.572003e+00,1.564026e+00,7,6,6.808625e-01,6.789788e-01
2.092144e+00,1.803560e-01,1.718998e-01,7,0,8.717947e-01,8.697158e-01
3.280349e+00,1.616580e+00,1.609087e+00,11,6,3.829349e-01,3.645153e-01
1.760707e+00,1.800530e-01,1.718998e-01,6,0,4.284635e-01,4.235212e-01
3.223814e+00,4.200280e-01,4.119873e-01,11,1,3.010775e-01,3.010006e-01
1.176297e+00,6.821720e-01,6.740093e-01,4,2,2.573122e-01,2.566216e-01
1.168902e+00,6.643720e-01,6.568432e-01,4,2,1.860451e-01,1.855200e-01
1.172060e+00,1.794800e-01,1.711845e-01,4,0,3.532853e-01,3.527810e-01
1.464748e+00,1.823680e-01,1.740456e-01,5,0,4.067877e-01,4.066845e-01
1.174648e+00,1.790520e-01,1.709461e-01,4,0,4.535516e-01,4.533152e-01
1.174032e+00,6.741410e-01,6.659031e-01,4,2,4.987077e-01,4.974415e-01
2.041991e+00,9.096070e-01,9.021759e-01,7,3,6.373662e-01,6.337154e-01
2.041127e+00,4.185860e-01,4.100800e-01,7,1,7.781222e-01,7.753687e-01
2.916154e+00,1.605657e+00,1.596928e+00,10,6,5.556974e-01,5.556646e-01
1.172587e+00,1.835920e-01,1.749992e-01,4,0,4.846255e-01,4.845591e-01
3.522582e+00,6.775200e-01,6.699562e-01,12,2,4.484184e-01,4.375999e-01
1.747350e+00,4.235620e-01,4.148483e-01,6,1,2.001983e-01,1.988065e-01
2.040783e+00,1.634759e+00,1.626968e+00,7,6,7.827702e-01,7.760744e-01
1.751145e+00,1.594333e+00,1.586199e+00,6,6,5.909034e-01,5.855708e-01
1.754322e+00,4.298190e-01,4.210472e-01,6,1,3.756278e-01,3.695431e-01
1.461934e+00,6.587450e-01,6.511211e-01,5,2,4.345085e-01,4.331366e-01
1.179106e+00,2.581178e+00,2.573013e+00,4,10,6.964414e-01,6.878416e-01
2.040053e+00,4.013560e-01,3.929138e-01,7,1,1.254490e+00,1.243753e+00
2.042472e+00,6.403060e-01,6.320477e-01,7,2,1.962224e+00,1.941175e+00
2.041263e+00,1.537239e+00,1.528978e+00,7,6,2.827383e+00,2.795250e+00
2.049302e+00,2.685723e+00,2.676964e+00,7,11,2.184141e+00,2.175942e+00
1.757918e+00,3.200966e+00,3.192902e+00,6,13,1.424089e+00,1.416118e+00
1.170954e+00,2.039382e+00,2.031088e+00,4,8,9.168108e-01,9.101884e-01
2.042215e+00,2.270691e+00,2.263069e+00,7,9,5.719939e-01,5.689301e-01
2.043334e+00,2.547747e+00,2.538919e+00,7,10,9.486151e-01,9.278554e-01
2.040414e+00,8.500220e-01,8.411407e-01,7,3,6.460369e-01,6.392307e-01
2.040091e+00,4.140660e-01,4.060268e-01,7,1,8.511631e-01,8.411987e-01
2.043209e+00,3.993400e-01,3.910065e-01,7,1,1.028108e+00,1.017858e+00
2.921425e+00,1.808120e+00,1.800060e+00,10,7,4.344807e-01,4.338585e-01
1.750498e+00,4.232060e-01,4.160404e-01,6,1,3.027101e-01,3.020994e-01
1.751838e+00,4.309670e-01,4.229546e-01,6,1,4.550761e-01,4.479495e-01
3.002912e+00,1.165718e+00,1.156807e+00,10,4,4.006576e-01,3.999871e-01
1.468505e+00,1.195909e+00,1.184940e+00,5,4,2.828270e-01,2.823454e-01
1.784091e+00,4.209430e-01,4.119873e-01,6,1,3.258288e-01,3.245197e-01
3.242365e+00,4.392190e-01,4.291534e-01,11,1,1.479535e-01,1.476952e-01
1.176660e+00,2.052070e-01,1.950264e-01,4,0,1.193156e-01,1.189572e-01
2.369148e+00,4.311150e-01,4.229546e-01,8,1,1.043193e-01,1.034769e-01
2.922826e+00,4.226230e-01,4.148483e-01,10,1,2.804196e-01,2.803647e-01
8.820890e-01,4.602590e-01,4.520416e-01,3,1,3.538020e-01,3.507400e-01
1.754874e+00,1.787510e-01,1.709461e-01,6,0,3.076220e-01,3.057295e-01
3.248075e+00,4.206670e-01,4.129410e-01,11,1,2.130004e-01,2.128821e-01
2.943796e+00,1.801920e-01,1.718998e-01,10,0,2.038430e-01,2.009884e-01
2.954671e+00,1.831610e-01,1.759529e-01,10,0,2.279256e-01,2.117138e-01
1.464338e+00,1.797720e-01,1.718998e-01,5,0,2.549420e-01,2.538012e-01
3.234727e+00,1.789670e-01,1.709461e-01,11,0,1.941751e-01,1.926847e-01
1.464029e+00,4.297780e-01,4.220009e-01,5,1,2.920166e-01,2.918682e-01
3.514934e+00,4.221080e-01,4.141331e-01,12,1,1.359911e-01,1.323803e-01
1.172624e+00,4.296090e-01,4.210472e-01,4,1,1.165094e-01,1.164143e-01
2.042328e+00,6.754780e-01,6.680489e-01,7,2,2.732627e-01,2.712090e-01
1.751588e+00,9.018210e-01,8.940697e-01,6,3,1.604969e-01,1.591740e-01
2.041666e+00,1.406193e+00,1.398087e+00,7,5,5.575801e-01,5.527646e-01
1.175115e+00,1.126662e+00,1.117945e+00,4,4,5.127736e-01,5.112782e-01
1.173242e+00,1.167341e+00,1.159191e+00,4,4,6.585691e-01,6.551206e-01
2.049966e+00,9.083480e-01,9.000301e-01,7,3,9.605944e-01,9.592485e-01
1.750851e+00,6.571720e-01,6.489754e-01,6,2,8.401194e-01,8.341239e-01
2.333494e+00,6.694280e-01,6.618500e-01,8,2,7.658593e-01,7.640677e-01
2.049225e+00,6.968480e-01,6.771088e-01,7,2,1.130463e+00,1.128530e+00
2.044019e+00,1.412835e+00,1.404047e+00,7,5,8.479609e-01,8.471329e-01
2.041295e+00,9.011800e-01,8.928776e-01,7,3,5.359283e-01,5.351824e-01
1.469270e+00,4.278060e-01,4.198551e-01,5,1,3.486528e-01,3.483624e-01
1.169893e+00,9.188850e-01,9.109974e-01,4,3,2.511283e-01,2.483992e-01
3.513205e+00,6.582200e-01,6.499290e-01,12,2,2.486842e-01,2.368170e-01
1.172671e+00,1.784930e-01,1.711845e-01,4,0,2.448553e-01,2.440972e-01
1.460112e+00,4.329890e-01,4.251003e-01,5,1,3.350243e-01,3.341855e-01
2.638105e+00,6.738500e-01,6.661415e-01,9,2,2.090130e-01,1.986384e-01
3.218563e+00,4.223290e-01,4.141331e-01,11,1,1.803053e-01,1.802642e-01
1.466609e+00,1.839240e-01,1.759529e-01,5,0,1.480501e-01,1.475794e-01
3.523536e+00,4.327790e-01,4.248619e-01,12,1,3.876234e-01,3.874321e-01
1.167332e+00,4.266190e-01,4.189014e-01,4,1,4.405671e-01,4.387862e-01
1.756318e+00,1.792010e-01,1.711845e-01,6,0,3.550204e-01,3.549953e-01
8.801070e-01,4.302170e-01,4.220009e-01,3,1,3.976979e-01,3.964375e-01
2.356436e+00,4.188930e-01,4.110336e-01,8,1,3.036936e-01,3.035056e-01
1.750313e+00,6.810430e-01,6.730556e-01,6,2,4.016418e-01,4.013208e-01
2.046560e+00,9.116010e-01,9.028912e-01,7,3,5.475927e-01,5.461895e-01
2.041781e+00,8.896490e-01,8.809566e-01,7,3,7.804911e-01,7.779790e-01
1.169010e+00,1.158873e+00,1.151800e+00,4,4,8.113568e-01,8.097426e-01
2.042024e+00,2.363927e+00,2.356052e+00,7,9,6.845072e-01,6.783151e-01
2.040425e+00,8.771530e-01,8.687973e-01,7,3,5.967964e-01,5.938009e-01
1.755022e+00,1.146370e+00,1.137972e+00,6,4,4.822459e-01,4.773643e-01
1.196266e+00,6.632540e-01,6.549358e-01,4,2,5.589247e-01,5.578673e-01
1.170586e+00,1.656364e+00,1.647949e+00,4,6,6.292862e-01,6.223178e-01
2.066222e+00,4.120360e-01,4.038811e-01,7,1,6.668194e-01,6.606950e-01
2.044589e+00,1.353691e+00,1.345873e+00,7,5,3.576901e-01,3.571283e-01
1.757309e+00,4.179810e-01,4.088879e-01,6,1,3.755712e-01,3.751654e-01
1.464317e+00,4.206280e-01,4.119873e-01,5,1,2.780386e-01,2.776234e-01
1.179311e+00,4.289960e-01,4.220009e-01,4,1,2.369608e-01,2.356843e-01
1.172038e+00,4.197280e-01,4.119873e-01,4,1,1.875163e-01,1.873353e-01
1.177782e+00,1.787310e-01,1.709461e-01,4,0,3.099645e-01,3.099440e-01
1.174978e+00,4.281120e-01,4.198551e-01,4,1,6.376835e-01,6.376454e-01
2.040873e+00,4.251830e-01,4.181862e-01,7,1,5.120396e-01,5.118417e-01
1.169972e+00,1.786820e-01,1.709461e-01,4,0,5.704212e-01,5.684326e-01
1.168822e+00,1.651331e+00,1.642942e+00,4,6,6.069846e-01,5.995922e-01
2.037942e+00,1.605642e+00,1.597166e+00,7,6,2.822254e-01,2.817259e-01
3.519942e+00,1.794780e-01,1.709461e-01,12,0,2.309225e-01,2.292295e-01
1.467022e+00,4.328600e-01,4.248619e-01,5,1,1.859866e-01,1.847106e-01
1.170347e+00,4.236140e-01,4.160404e-01,4,1,9.329650e-02,9.289712e-02
3.523707e+00,1.789150e-01,1.721382e-01,12,0,1.163752e-01,1.131893e-01
1.466030e+00,1.800770e-01,1.718998e-01,5,0,1.909526e-01,1.909446e-01
8.794550e-01,1.834080e-01,1.749992e-01,3,0,1.379483e-01,1.375371e-01
1.175138e+00,1.166119e+00,1.157999e+00,4,4,5.382607e-01,5.359728e-01
1.169807e+00,1.137678e+00,1.129866e+00,4,4,5.404730e-01,5.395808e-01
1.173957e+00,4.321730e-01,4.241467e-01,4,1,3.429224e-01,3.423379e-01
2.039137e+00,4.197100e-01,4.110336e-01,7,1,3.084320e-01,3.082372e-01
1.752135e+00,1.839030e-01,1.759529e-01,6,0,2.699397e-01,2.698439e-01
1.457391e+00,1.828390e-01,1.749992e-01,5,0,2.218693e-01,2.216547e-01
1.176175e+00,1.783730e-01,1.709461e-01,4,0,2.012209e-01,1.993102e-01
1.753088e+00,9.188500e-01,9.109974e-01,6,3,2.700927e-01,2.698353e-01
1.750921e+00,6.597640e-01,6.518364e-01,6,2,2.128811e-01,2.115909e-01
2.333090e+00,4.200510e-01,4.119873e-01,8,1,1.967740e-01,1.956798e-01
1.464104e+00,9.229430e-01,9.109974e-01,5,3,3.462425e-01,3.449901e-01
1.168467e+00,8.985890e-01,8.909702e-01,4,3,4.277117e-01,4.270805e-01
2.646217e+00,4.283070e-01,4.210472e-01,9,1,6.040604e-01,5.866651e-01
1.751405e+00,4.319870e-01,4.239082e-01,6,1,7.454852e-01,7.446752e-01
1.168883e+00,1.162764e+00,1.155138e+00,4,4,7.216411e-01,7.153072e-01
2.042277e+00,4.232610e-01,4.160404e-01,7,1,7.739043e-01,7.718795e-01
2.041350e+00,9.013570e-01,8.940697e-01,7,3,5.475487e-01,5.453905e-01
1.175099e+00,1.166084e+00,1.157999e+00,4,4,4.084093e-01,4.011099e-01
2.040324e+00,4.130800e-01,4.048347e-01,7,1,4.545143e-01,4.533850e-01
2.039859e+00,6.655820e-01,6.568432e-01,7,2,6.104474e-01,6.074156e-01
2.046873e+00,4.104670e-01,4.019737e-01,7,1,7.627322e-01,7.602785e-01
1.750078e+00,1.143657e+00,1.135111e+00,6,4,5.660714e-01,5.579096e-01
2.948003e+00,1.388951e+00,1.380920e+00,10,5,4.789163e-01,4.700760e-01
2.067089e+00,2.314424e+00,2.305984e+00,7,9,4.904541e-01,4.831029e-01
2.041176e+00,1.565123e+00,1.556873e+00,7,6,2.619187e-01,2.592573e-01
2.920607e+00,1.136192e+00,1.127958e+00,10,4,4.123022e-01,4.122619e-01
1.175162e+00,4.294570e-01,4.208088e-01,4,1,3.997043e-01,3.994682e-01
1.751842e+00,4.190630e-01,4.110336e-01,6,1,2.858953e-01,2.836913e-01
2.639495e+00,4.287530e-01,4.210472e-01,9,1,2.732348e-01,2.578771e-01
2.926469e+00,9.220070e-01,9.140968e-01,10,3,5.443301e-01,5.423423e-01
2.040597e+00,1.149450e+00,1.141071e+00,7,4,1.100186e+00,1.094189e+00
2.039443e+00,4.083020e-01,4.000664e-01,7,1,9.675324e-01,9.617727e-01
2.039858e+00,6.547460e-01,6.461143e-01,7,2,9.619233e-01,9.579265e-01
2.048452e+00,6.523470e-01,6.439686e-01,7,2,1.248212e+00,1.246251e+00
2.047952e+00,1.381115e+00,1.373053e+00,7,5,1.994230e+00,1.989982e+00
1.753937e+00,2.321742e+00,2.313137e+00,6,9,1.097065e+00,1.089401e+00
2.042518e+00,1.169058e+00,1.160860e+00,7,4,1.235647e+00,1.230279e+00
1.467459e+00,1.639867e+00,1.631021e+00,5,6,1.008615e+00,1.007158e+00
2.043197e+00,9.051950e-01,8.969307e-01,7,3,9.836194e-01,9.795304e-01
1.752293e+00,1.615845e+00,1.607180e+00,6,6,4.473871e-01,4.421627e-01
2.043321e+00,1.152278e+00,1.144886e+00,7,4,8.416075e-01,8.395173e-01
1.756617e+00,6.515310e-01,6.430149e-01,6,2,5.321807e-01,5.283452e-01
2.043113e+00,9.149670e-01,9.071827e-01,7,3,5.647716e-01,5.621067e-01
2.635579e+00,1.368910e+00,1.360893e+00,9,5,3.129614e-01,2.996616e-01
1.174500e+00,4.349260e-01,4.270077e-01,4,1,7.188785e-01,7.183261e-01
2.042358e+00,4.262000e-01,4.179478e-01,7,1,1.443450e+00,1.440750e+00
2.042078e+00,9.131180e-01,9.050369e-01,7,3,8.200727e-01,8.165112e-01
2.041095e+00,4.201070e-01,4.119873e-01,7,1,1.228502e+00,1.224070e+00
2.050186e+00,8.860600e-01,8.790493e-01,7,3,1.118856e+00,1.117257e+00
2.065465e+00,1.145164e+00,1.137018e+00,7,4,1.363344e+00,1.356796e+00
2.331491e+00,1.838784e+00,1.830816e+00,8,7,7.462600e-01,7.446952e-01
1.750056e+00,4.351560e-01,4.260540e-01,6,1,6.101833e-01,6.076564e-01
2.333332e+00,4.265920e-01,4.189014e-01,8,1,3.652166e-01,3.649231e-01
2.343524e+00,6.831100e-01,6.752014e-01,8,2,3.244554e-01,3.230619e-01
2.046314e+00,6.744750e-01,6.668568e-01,7,2,2.848919e-01,2.823218e-01
2.040642e+00,6.905480e-01,6.830692e-01,7,2,4.827249e-01,4.780989e-01
1.780283e+00,1.361285e+00,1.353979e+00,6,5,2.055458e-01,2.045653e-01
3.536359e+00,4.218230e-01,4.138947e-01,12,1,2.507974e-01,2.405758e-01
2.053088e+00,1.804590e-01,1.721382e-01,7,0,3.280195e-01,3.280091e-01
8.755490e-01,1.787860e-01,1.711845e-01,3,0,3.979821e-01,3.979779e-01
8.755050e-01,1.826720e-01,1.749992e-01,3,0,2.650588e-01,2.650415e-01
1.181340e+00,6.807750e-01,6.690025e-01,4,2,3.084183e-01,3.079512e-01
2.039434e+00,1.815000e-01,1.740456e-01,7,0,3.699045e-01,3.692018e-01
2.044373e+00,6.654440e-01,6.568432e-01,7,2,5.058977e-01,5.046516e-01
2.039768e+00,9.003160e-01,8.919239e-01,7,3,1.007247e+00,1.001297e+00
2.039124e+00,6.453020e-01,6.380081e-01,7,2,1.440521e+00,1.434695e+00
1.756725e+00,8.904910e-01,8.828640e-01,6,3,9.444147e-01,9.362605e-01
2.046278e+00,1.772750e-01,1.688004e-01,7,0,1.196756e+00,1.195859e+00
3.517599e+00,6.638510e-01,6.558895e-01,12,2,8.265343e-01,8.243380e-01
1.467065e+00,4.352910e-01,4.279613e-01,5,1,5.166333e-01,5.157521e-01
2.043781e+00,1.639857e+00,1.631975e+00,7,6,6.765373e-01,6.681362e-01
1.757753e+00,1.354949e+00,1.346827e+00,6,5,3.105253e-01,3.047911e-01
2.927863e+00,1.412157e+00,1.404047e+00,10,5,3.929379e-01,3.787747e-01
3.517060e+00,8.975920e-01,8.888245e-01,12,3,2.480379e-01,2.416068e-01
1.173088e+00,1.796080e-01,1.709461e-01,4,0,2.418694e-01,2.397348e-01
2.048932e+00,4.339080e-01,4.260540e-01,7,1,2.421835e-01,2.418026e-01
2.048703e+00,1.162467e+00,1.154900e+00,7,4,3.236554e-01,3.213657e-01
3.219264e+00,1.377091e+00,1.368999e+00,11,5,1.750674e-01,1.747931e-01
1.175021e+00,1.167561e+00,1.159191e+00,4,4,4.131074e-01,4.111525e-01
2.042481e+00,6.641390e-01,6.561279e-01,7,2,1.070119e+00,1.064280e+00
1.756175e+00,1.360872e+00,1.353025e+00,6,5,6.030007e-01,5.982510e-01
1.750186e+00,4.270790e-01,4.179478e-01,6,1,4.623595e-01,4.621481e-01
2.928665e+00,1.787300e-01,1.709461e-01,10,0,3.461620e-01,3.369810e-01
1.173801e+00,1.828050e-01,1.749992e-01,4,0,3.090921e-01,3.090918e-01
8.821800e-01,1.788630e-01,1.709461e-01,3,0,3.379981e-01,3.379922e-01
8.828190e-01,1.169536e+00,1.162052e+00,3,4,6.627107e-01,6.592059e-01
2.921690e+00,1.138535e+00,1.130104e+00,10,4,5.748434e-01,5.748404e-01
8.812100e-01,1.802230e-01,1.730919e-01,3,0,5.192981e-01,5.190466e-01
2.341165e+00,4.334870e-01,4.260540e-01,8,1,5.417037e-01,5.413677e-01
2.041275e+00,1.162678e+00,1.155138e+00,7,4,6.525869e-01,6.455009e-01
2.046802e+00,1.126149e+00,1.118183e+00,7,4,9.665129e-01,9.587590e-01
1.751874e+00,1.724850e-01,1.640320e-01,6,0,1.819660e+00,1.795412e+00
2.043531e+00,1.348856e+00,1.339912e+00,7,5,2.306430e+00,2.290171e+00
2.044580e+00,1.801604e+00,1.792908e+00,7,7,1.922491e+00,1.913642e+00
2.052336e+00,1.785124e+00,1.776934e+00,7,7,2.024226e+00,2.021268e+00
1.462506e+00,1.118312e+00,1.110077e+00,5,4,1.577605e+00,1.575385e+00
2.041757e+00,4.229260e-01,4.148483e-01,7,1,1.450748e+00,1.446284e+00
2.047355e+00,6.584770e-01,6.499290e-01,7,2,1.418016e+00,1.414995e+00
2.047173e+00,2.293192e+00,2.285004e+00,7,9,1.081554e+00,1.076172e+00
2.040086e+00,2.483608e+00,2.475023e+00,7,10,9.213009e-01,9.186849e-01
2.333233e+00,1.137529e+00,1.128912e+00,8,4,7.177460e-01,7.156487e-01
1.756701e+00,9.253160e-01,9.169579e-01,6,3,6.821686e-01,6.811383e-01
2.042073e+00,4.194470e-01,4.119873e-01,7,1,8.146333e-01,8.126998e-01
2.041066e+00,1.383066e+00,1.375198e+00,7,5,1.082577e+00,1.078131e+00
2.039778e+00,6.424470e-01,6.339550e-01,7,2,2.108007e+00,2.096158e+00
2.042208e+00,1.099672e+00,1.091003e+00,7,4,2.390547e+00,2.381086e+00
2.040172e+00,1.319934e+00,1.312017e+00,7,5,2.583848e+00,2.565417e+00
2.048438e+00,1.536803e+00,1.527786e+00,7,6,2.315169e+00,2.308076e+00
2.042390e+00,4.091960e-01,4.010201e-01,7,1,2.102323e+00,2.096342e+00
2.040899e+00,6.416690e-01,6.339550e-01,7,2,2.246574e+00,2.234414e+00
2.047454e+00,2.209226e+00,2.200842e+00,7,9,1.968688e+00,1.959091e+00
2.043321e+00,2.177489e+00,2.169132e+00,7,9,1.626100e+00,1.615228e+00
2.042037e+00,2.209855e+00,2.196789e+00,7,9,1.120853e+00,1.110836e+00
2.049907e+00,2.731555e+00,2.723932e+00,7,11,7.730498e-01,7.712952e-01
2.041820e+00,4.268490e-01,4.189014e-01,7,1,5.908899e-01,5.878300e-01
2.042992e+00,1.157624e+00,1.149893e+00,7,4,6.239295e-01,6.206915e-01
2.077878e+00,1.372900e+00,1.364946e+00,7,5,7.324628e-01,7.235797e-01
1.754790e+00,2.295040e+00,2.286911e+00,6,9,4.221365e-01,4.203953e-01
2.947478e+00,1.793580e-01,1.709461e-01,10,0,3.814196e-01,3.813963e-01
8.815860e-01,6.827380e-01,6.740093e-01,3,2,4.388193e-01,4.370355e-01
2.334268e+00,6.584470e-01,6.501675e-01,8,2,2.293568e-01,2.284427e-01
1.458502e+00,1.802230e-01,1.718998e-01,5,0,2.365601e-01,2.317340e-01
1.773724e+00,1.830600e-01,1.749992e-01,6,0,1.987281e-01,1.985744e-01
1.171213e+00,1.843970e-01,1.769066e-01,4,0,2.191541e-01,2.188847e-01
1.200073e+00,9.249440e-01,9.169579e-01,4,3,3.013272e-01,2.986804e-01
2.337906e+00,9.015260e-01,8.928776e-01,8,3,3.464805e-01,3.389845e-01
1.465954e+00,4.351640e-01,4.270077e-01,5,1,3.688255e-01,3.670719e-01
1.172632e+00,4.251580e-01,4.181862e-01,4,1,3.363395e-01,3.356322e-01
1.469737e+00,1.783050e-01,1.709461e-01,5,0,2.701644e-01,2.691097e-01
1.755490e+00,4.282760e-01,4.208088e-01,6,1,2.894419e-01,2.889392e-01
2.039366e+00,4.249300e-01,4.169941e-01,7,1,8.680448e-01,8.668555e-01
2.041853e+00,1.399106e+00,1.391172e+00,7,5,1.811171e+00,1.805743e+00
2.043886e+00,1.849838e+00,1.840830e+00,7,7,2.127180e+00,2.110946e+00
2.041917e+00,1.078822e+00,1.070023e+00,7,4,1.626048e+00,1.619491e+00
2.040100e+00,1.348130e+00,1.338959e+00,7,5,1.591878e+00,1.584592e+00
2.045616e+00,8.666070e-01,8.590221e-01,7,3,1.394320e+00,1.390818e+00
2.040597e+00,1.122340e+00,1.114130e+00,7,4,1.172069e+00,1.167718e+00
1.171219e+00,2.373698e+00,2.366066e+00,4,9,7.759889e-01,7.670712e-01
2.040667e+00,1.337863e+00,1.328945e+00,7,5,6.994036e-01,6.872792e-01
2.040687e+00,6.321140e-01,6.239414e-01,7,2,1.512033e+00,1.483442e+00
2.041937e+00,8.439490e-01,8.349419e-01,7,3,2.129064e+00,2.098560e+00
2.039791e+00,8.477770e-01,8.389950e-01,7,3,2.376009e+00,2.343380e+00
2.047894e+00,2.436744e+00,2.424002e+00,7,10,1.790818e+00,1.776672e+00
2.051117e+00,2.705870e+00,2.697945e+00,7,11,1.295816e+00,1.292613e+00
1.751139e+00,2.072950e+00,2.064943e+00,6,8,9.003940e-01,8.899407e-01
1.171422e+00,3.018725e+00,3.010035e+00,4,12,6.834930e-01,6.711276e-01
2.041000e+00,4.009630e-01,3.931522e-01,7,1,1.104273e+00,1.093112e+00
2.041282e+00,6.241140e-01,6.160736e-01,7,2,1.095804e+00,1.086057e+00
2.040286e+00,1.092744e+00,1.085043e+00,7,4,7.675249e-01,7.648427e-01
2.039379e+00,6.474990e-01,6.389618e-01,7,2,7.982501e-01,7.963900e-01
2.047814e+00,4.136410e-01,4.060268e-01,7,1,9.028220e-01,9.018900e-01
1.754431e+00,1.766390e-01,1.690388e-01,6,0,9.350392e-01,9.294188e-01
2.045555e+00,6.671150e-01,6.589890e-01,7,2,1.198956e+00,1.198042e+00
1.170133e+00,8.995820e-01,8.919239e-01,4,3,1.040425e+00,1.039625e+00
1.178420e+00,4.295570e-01,4.210472e-01,4,1,1.173478e+00,1.171616e+00
2.040985e+00,4.203920e-01,4.119873e-01,7,1,1.131551e+00,1.130955e+00
1.752221e+00,1.787430e-01,1.699924e-01,6,0,9.331237e-01,9.317617e-01
2.343644e+00,1.783750e-01,1.699924e-01,8,0,7.704565e-01,7.704258e-01
1.176214e+00,1.194079e+00,1.186132e+00,4,4,8.031622e-01,8.011640e-01
2.065730e+00,6.623940e-01,6.539822e-01,7,2,6.889534e-01,6.855026e-01
2.043528e+00,8.846960e-01,8.759499e-01,7,3,3.511812e-01,3.501390e-01
2.042512e+00,4.157420e-01,4.079342e-01,7,1,3.090041e-01,3.060457e-01
1.168653e+00,6.627590e-01,6.549358e-01,4,2,2.406276e-01,2.393112e-01
3.222924e+00,4.341400e-01,4.260540e-01,11,1,3.022315e-01,3.009478e-01
2.039207e+00,4.273560e-01,4.189014e-01,7,1,3.039421e-01,3.033272e-01
2.918503e+00,6.662270e-01,6.580353e-01,10,2,2.734389e-01,2.724525e-01
1.169819e+00,1.794050e-01,1.709461e-01,4,0,2.260122e-01,2.260039e-01
8.736480e-01,1.835960e-01,1.759529e-01,3,0,2.460036e-01,2.459710e-01
1.172913e+00,1.821610e-01,1.740456e-01,4,0,7.984548e-02,7.984544e-02
8.800780e-01,1.782650e-01,1.709461e-01,3,0,9.137571e-02,9.137572e-02
8.800750e-01,1.785810e-01,1.709461e-01,3,0,9.490307e-02,9.490288e-02
8.795290e-01,1.789020e-01,1.718998e-01,3,0,8.731627e-02,8.731538e-02
8.796130e-01,1.786380e-01,1.709461e-01,3,0,1.148318e-01,1.148284e-01
8.741520e-01,1.780540e-01,1.709461e-01,3,0,1.922585e-01,1.922444e-01
1.172495e+00,1.822460e-01,1.740456e-01,4,0,1.128408e-01,1.128372e-01
1.172761e+00,4.273470e-01,4.200935e-01,4,1,2.022658e-01,2.018962e-01
2.064159e+00,6.760830e-01,6.690025e-01,7,2,3.285700e-01,3.275100e-01
2.921403e+00,9.008190e-01,8.931160e-01,10,3,2.173947e-01,2.173371e-01
1.172430e+00,4.348320e-01,4.270077e-01,4,1,2.411967e-01,2.408214e-01
3.218741e+00,4.197270e-01,4.107952e-01,11,1,2.874899e-01,2.692400e-01
1.170981e+00,6.809570e-01,6.728172e-01,4,2,3.589129e-01,3.569610e-01
1.754898e+00,6.636630e-01,6.558895e-01,6,2,2.984602e-01,2.982101e-01
1.465478e+00,1.784950e-01,1.709461e-01,5,0,1.769245e-01,1.768556e-01
2.643249e+00,1.835710e-01,1.759529e-01,9,0,1.138241e-01,1.056179e-01
2.916548e+00,1.792840e-01,1.709461e-01,10,0,1.592480e-01,1.592121e-01
8.806780e-01,1.831420e-01,1.749992e-01,3,0,1.220618e-01,1.220555e-01
8.804450e-01,1.779480e-01,1.699924e-01,3,0,1.107887e-01,1.107781e-01
8.812460e-01,1.777570e-01,1.699924e-01,3,0,3.111171e-01,3.111121e-01
8.819900e-01,1.780250e-01,1.709461e-01,3,0,1.888098e-01,1.888027e-01
8.813090e-01,1.783290e-01,1.709461e-01,3,0,3.328254e-01,3.328080e-01
8.798070e-01,1.781970e-01,1.699924e-01,3,0,6.916068e-01,6.914800e-01
1.174576e+00,6.822720e-01,6.749630e-01,4,2,4.974041e-01,4.953196e-01
2.917989e+00,9.127860e-01,9.050369e-01,10,3,3.791675e-01,3.782620e-01
2.046603e+00,4.269620e-01,4.191399e-01,7,1,6.953374e-01,6.943937e-01
1.756547e+00,6.669950e-01,6.589890e-01,6,2,9.102265e-01,9.067264e-01
1.461810e+00,6.597160e-01,6.518364e-01,5,2,3.651474e-01,3.651066e-01
3.523466e+00,1.784640e-01,1.699924e-01,12,0,2.343199e-01,2.341489e-01
1.173680e+00,4.285900e-01,4.210472e-01,4,1,2.893858e-01,2.891385e-01
2.093996e+00,4.239270e-01,4.160404e-01,7,1,1.073287e-01,1.071113e-01
2.346577e+00,1.808010e-01,1.718998e-01,8,0,8.980329e-02,8.980179e-02
8.822580e-01,1.787960e-01,1.709461e-01,3,0,1.841361e-01,1.839952e-01
1.755780e+00,1.784360e-01,1.709461e-01,6,0,1.737152e-01,1.729541e-01
1.179275e+00,4.293000e-01,4.210472e-01,4,1,2.240911e-01,2.235541e-01
2.041314e+00,1.161556e+00,1.152992e+00,7,4,4.505359e-01,4.476097e-01
1.749370e+00,1.132483e+00,1.124859e+00,6,4,3.064995e-01,3.035977e-01
3.226066e+00,4.677550e-01,4.599094e-01,11,1,2.878750e-01,2.877630e-01
1.203493e+00,1.797010e-01,1.711845e-01,4,0,2.825874e-01,2.825858e-01
8.879080e-01,1.789740e-01,1.709461e-01,3,0,2.252431e-01,2.252047e-01
1.171452e+00,1.786240e-01,1.709461e-01,4,0,2.630097e-01,2.628215e-01
2.344305e+00,1.784160e-01,1.709461e-01,8,0,3.696175e-01,3.694659e-01
2.055026e+00,1.788120e-01,1.709461e-01,7,0,2.595754e-01,2.578969e-01
2.634305e+00,6.796670e-01,6.721020e-01,9,2,3.128932e-01,2.895587e-01
1.463842e+00,1.781780e-01,1.699924e-01,5,0,3.427109e-01,3.418053e-01
1.753703e+00,4.175580e-01,4.098415e-01,6,1,3.967165e-01,3.949957e-01
1.754812e+00,1.788210e-01,1.709461e-01,6,0,5.221283e-01,5.171316e-01
2.632564e+00,6.712780e-01,6.628036e-01,9,2,2.664524e-01,2.620916e-01
1.170846e+00,1.168568e+00,1.156807e+00,4,4,2.615237e-01,2.598218e-01
2.042451e+00,6.597870e-01,6.518364e-01,7,2,2.766783e-01,2.763179e-01
1.753390e+00,4.259220e-01,4.179478e-01,6,1,2.809385e-01,2.770152e-01
1.460455e+00,6.695670e-01,6.618500e-01,5,2,1.888214e-01,1.874845e-01
2.041028e+00,6.694090e-01,6.618500e-01,7,2,6.560823e-01,6.522769e-01
2.040707e+00,1.154367e+00,1.147032e+00,7,4,4.343622e-01,4.332515e-01
2.067822e+00,4.169150e-01,4.079342e-01,7,1,4.078052e-01,4.072611e-01
1.755017e+00,4.207120e-01,4.129410e-01,6,1,3.676147e-01,3.645877e-01
1.753442e+00,1.170015e+00,1.162052e+00,6,4,3.504425e-01,3.494694e-01
1.754521e+00,6.506540e-01,6.420612e-01,6,2,2.501848e-01,2.455419e-01
2.622375e+00,4.218370e-01,4.138947e-01,9,1,3.745256e-01,3.734202e-01
1.752587e+00,1.788630e-01,1.711845e-01,6,0,4.166967e-01,4.145100e-01
3.212978e+00,4.257610e-01,4.179478e-01,11,1,3.775136e-01,3.685100e-01
1.173052e+00,4.295460e-01,4.220009e-01,4,1,3.811210e-01,3.795491e-01
1.754185e+00,1.782700e-01,1.709461e-01,6,0,2.922384e-01,2.909534e-01
1.174657e+00,9.183580e-01,9.100437e-01,4,3,2.660543e-01,2.640366e-01
2.338556e+00,6.644120e-01,6.570816e-01,8,2,2.183016e-01,2.161020e-01
1.754148e+00,6.597980e-01,6.520748e-01,6,2,1.854715e-01,1.843403e-01
1.750012e+00,4.329250e-01,4.251003e-01,6,1,1.424471e-01,1.424351e-01
1.748717e+00,1.833880e-01,1.759529e-01,6,0,2.075294e-01,2.064263e-01
3.516495e+00,6.742500e-01,6.661415e-01,12,2,1.485143e-01,1.451957e-01
3.515033e+00,4.204050e-01,4.129410e-01,12,1,2.122676e-01,2.016482e-01
1.172651e+00,1.795220e-01,1.709461e-01,4,0,1.804279e-01,1.799195e-01
3.219526e+00,1.781990e-01,1.699924e-01,11,0,2.555617e-01,2.554396e-01
1.461905e+00,1.839220e-01,1.759529e-01,5,0,3.111245e-01,3.108410e-01
2.351947e+00,1.787620e-01,1.709461e-01,8,0,2.465446e-01,2.465322e-01
1.178619e+00,1.674848e+00,1.667023e+00,4,6,6.020146e-01,5.976665e-01
2.047516e+00,1.119272e+00,1.111031e+00,7,4,1.368803e+00,1.354540e+00
2.066079e+00,1.092890e+00,1.084805e+00,7,4,1.010496e+00,1.005269e+00
1.812131e+00,1.406396e+00,1.398087e+00,6,5,7.720393e-01,7.697411e-01
3.544556e+00,4.268010e-01,4.179478e-01,12,1,6.676057e-01,6.645310e-01
2.644325e+00,2.062950e-01,1.950264e-01,9,0,7.457334e-01,7.298648e-01
2.950748e+00,1.970900e-01,1.881123e-01,10,0,5.423373e-01,5.423298e-01
9.078530e-01,4.535830e-01,4.429817e-01,3,1,4.906296e-01,4.892589e-01
1.756570e+00,4.307220e-01,4.229546e-01,6,1,4.314879e-01,4.243276e-01
2.070826e+00,9.225280e-01,9.138584e-01,7,3,4.441756e-01,4.420673e-01
2.041710e+00,4.267260e-01,4.181862e-01,7,1,3.432238e-01,3.427736e-01
1.199953e+00,2.127926e+00,2.120018e+00,4,8,4.230762e-01,4.170295e-01
2.042043e+00,1.108831e+00,1.099825e+00,7,4,6.561364e-01,6.455406e-01
2.040849e+00,1.091738e+00,1.083136e+00,7,4,4.956606e-01,4.917474e-01
2.039514e+00,8.837930e-01,8.740425e-01,7,3,1.758138e-01,1.744025e-01
2.628190e+00,9.018870e-01,8.928776e-01,9,3,1.009024e-01,1.004952e-01
1.782714e+00,1.802820e-01,1.728535e-01,6,0,1.405497e-01,1.405480e-01
8.814020e-01,1.794940e-01,1.718998e-01,3,0,1.908812e-01,1.906033e-01
1.467288e+00,1.786970e-01,1.709461e-01,5,0,2.625768e-01,2.625759e-01
8.813900e-01,1.787890e-01,1.709461e-01,3,0,1.593658e-01,1.593613e-01
9.070500e-01,4.296780e-01,4.220009e-01,3,1,1.958565e-01,1.955262e-01
2.040138e+00,4.260550e-01,4.179478e-01,7,1,2.364784e-01,2.361186e-01
1.173287e+00,1.787970e-01,1.711845e-01,4,0,2.467914e-01,2.467615e-01
1.174224e+00,4.294400e-01,4.220009e-01,4,1,4.343576e-01,4.342121e-01
2.919903e+00,4.204300e-01,4.119873e-01,10,1,2.475965e-01,2.416493e-01
9.034690e-01,1.806800e-01,1.730919e-01,3,0,2.215945e-01,2.213522e-01
1.174933e+00,1.411370e+00,1.403809e+00,4,5,7.696302e-01,7.659305e-01
2.041142e+00,6.471950e-01,6.399155e-01,7,2,9.438158e-01,9.431529e-01
2.332321e+00,8.965180e-01,8.878708e-01,8,3,3.936541e-01,3.925449e-01
1.470262e+00,1.790120e-01,1.709461e-01,5,0,4.209243e-01,4.197362e-01
1.754179e+00,4.277140e-01,4.198551e-01,6,1,3.722851e-01,3.722087e-01
1.753677e+00,4.274090e-01,4.191399e-01,6,1,3.810562e-01,3.767170e-01
1.168762e+00,6.642500e-01,6.561279e-01,4,2,1.904571e-01,1.899059e-01
2.940740e+00,1.785540e-01,1.709461e-01,10,0,1.478074e-01,1.452819e-01
1.467585e+00,6.800820e-01,6.718636e-01,5,2,2.350314e-01,2.343693e-01
2.335813e+00,9.135450e-01,9.047985e-01,8,3,2.671711e-01,2.655831e-01
2.335697e+00,6.712580e-01,6.630421e-01,8,2,3.704775e-01,3.696505e-01
1.169887e+00,4.204900e-01,4.129410e-01,4,1,2.264965e-01,2.263925e-01
1.174628e+00,6.794960e-01,6.721020e-01,4,2,1.865893e-01,1.860842e-01
2.042251e+00,4.286810e-01,4.210472e-01,7,1,2.781508e-01,2.763558e-01
2.041732e+00,4.200850e-01,4.119873e-01,7,1,3.584726e-01,3.566945e-01
2.040885e+00,4.258970e-01,4.100800e-01,7,1,3.703863e-01,3.696059e-01
2.040935e+00,6.612120e-01,6.530285e-01,7,2,4.535993e-01,4.526720e-01
2.043010e+00,9.277760e-01,9.191036e-01,7,3,4.365859e-01,4.364775e-01
2.405275e+00,9.242080e-01,9.160042e-01,8,3,7.010635e-01,6.904716e-01
3.536847e+00,9.019760e-01,8.931160e-01,12,3,3.037553e-01,2.898262e-01
2.639506e+00,1.806380e-01,1.721382e-01,9,0,2.787358e-01,2.785662e-01
1.174383e+00,1.652551e+00,1.643181e+00,4,6,5.079854e-01,5.011073e-01
2.040077e+00,1.122413e+00,1.113892e+00,7,4,2.811186e-01,2.804866e-01
1.750778e+00,4.232910e-01,4.148483e-01,6,1,3.193456e-01,3.177830e-01
2.330771e+00,4.267330e-01,4.181862e-01,8,1,2.225478e-01,2.207707e-01
2.926430e+00,1.799650e-01,1.718998e-01,10,0,1.205011e-01,1.022094e-01
1.753991e+00,1.850350e-01,1.759529e-01,6,0,2.414564e-01,2.395364e-01
2.924343e+00,1.781800e-01,1.699924e-01,10,0,2.727863e-01,2.560275e-01
2.935185e+00,1.840490e-01,1.759529e-01,10,0,1.868600e-01,1.774883e-01
1.173880e+00,9.231510e-01,9.150505e-01,4,3,4.067022e-01,4.046003e-01
2.042545e+00,6.641290e-01,6.561279e-01,7,2,1.960835e-01,1.959541e-01
1.754293e+00,4.214400e-01,4.129410e-01,6,1,1.337309e-01,1.335464e-01
3.230655e+00,1.784900e-01,1.709461e-01,11,0,1.493565e-01,1.376392e-01
1.173930e+00,1.799990e-01,1.721382e-01,4,0,2.596182e-01,2.580904e-01
1.172557e+00,1.791920e-01,1.709461e-01,4,0,4.186466e-01,4.176989e-01
2.636575e+00,6.879290e-01,6.799698e-01,9,2,5.857600e-01,5.840985e-01
1.169011e+00,1.897762e+00,1.889944e+00,4,7,6.023597e-01,5.985224e-01
2.041556e+00,9.212540e-01,9.059906e-01,7,3,7.684350e-01,7.614006e-01
2.042105e+00,2.067347e+00,2.058983e+00,7,8,3.532473e-01,3.519829e-01
1.465194e+00,1.785720e-01,1.699924e-01,5,0,3.270770e-01,3.261037e-01
1.463596e+00,1.786830e-01,1.711845e-01,5,0,1.932263e-01,1.928495e-01
1.170828e+00,1.786750e-01,1.711845e-01,4,0,1.677124e-01,1.667829e-01
1.461851e+00,9.243420e-01,9.160042e-01,5,3,3.633140e-01,3.557022e-01
2.043991e+00,4.153910e-01,4.079342e-01,7,1,4.668022e-01,4.662893e-01
2.049460e+00,6.740390e-01,6.659031e-01,7,2,4.834158e-01,4.815846e-01
1.754609e+00,6.662540e-01,6.580353e-01,6,2,4.013540e-01,3.953016e-01
2.041485e+00,4.184560e-01,4.100800e-01,7,1,4.511741e-01,4.499098e-01
2.040423e+00,1.159832e+00,1.152039e+00,7,4,5.934322e-01,5.896988e-01
2.049871e+00,4.156040e-01,4.069805e-01,7,1,6.750669e-01,6.738411e-01
2.332570e+00,1.137093e+00,1.128912e+00,8,4,4.802937e-01,4.782784e-01
2.057674e+00,1.803890e-01,1.718998e-01,7,0,4.094307e-01,4.094158e-01
1.174989e+00,4.294490e-01,4.210472e-01,4,1,5.487926e-01,5.484999e-01
1.169808e+00,4.246830e-01,4.169941e-01,4,1,2.884492e-01,2.879953e-01
2.052803e+00,4.301040e-01,4.220009e-01,7,1,2.407369e-01,2.404929e-01
1.170041e+00,6.736180e-01,6.659031e-01,4,2,3.674093e-01,3.657924e-01
1.485327e+00,4.254180e-01,4.169941e-01,5,1,4.909233e-01,4.907543e-01
1.459200e+00,4.343880e-01,4.260540e-01,5,1,6.900389e-01,6.895680e-01
1.195099e+00,4.252580e-01,4.169941e-01,4,1,2.574341e-01,2.569369e-01
1.749103e+00,6.813770e-01,6.730556e-01,6,2,2.622139e-01,2.620733e-01
2.040079e+00,6.717970e-01,6.639957e-01,7,2,3.159821e-01,3.140221e-01
2.041722e+00,8.991480e-01,8.900166e-01,7,3,3.721337e-01,3.711522e-01
2.926640e+00,9.017420e-01,8.931160e-01,10,3,3.203282e-01,3.116364e-01
2.113130e+00,4.297040e-01,4.208088e-01,7,1,3.475523e-01,3.471379e-01
1.804854e+00,4.482300e-01,4.389286e-01,6,1,2.597466e-01,2.565963e-01
1.510898e+00,4.377460e-01,4.291534e-01,5,1,1.881988e-01,1.878732e-01

