6.809430e-01,1.218894e+00,8.730888e-01,2,0,0.000000e+00,0.000000e+00
9.961540e-01,2.497090e-01,2.379417e-01,3,0,5.784748e-02,5.784698e-02
9.976490e-01,2.023650e-01,1.938343e-01,3,0,9.449725e-02,9.449302e-02
1.339863e+00,5.059910e-01,4.980564e-01,4,1,2.010970e-01,2.007357e-01
3.323220e+00,4.748400e-01,4.661083e-01,10,1,1.906994e-01,1.843794e-01
1.339031e+00,1.343499e+00,1.334190e+00,4,4,4.860993e-01,4.848298e-01
2.323828e+00,7.682640e-01,7.600784e-01,7,2,6.515502e-01,6.480225e-01
2.312649e+00,2.036610e-01,1.947880e-01,7,0,8.091856e-01,8.067873e-01
3.672819e+00,1.799797e+00,1.791954e+00,11,6,4.264543e-01,4.202532e-01
3.303798e+00,2.061620e-01,1.978874e-01,10,0,4.103370e-01,4.096221e-01
3.339257e+00,2.079570e-01,1.988411e-01,10,0,3.193529e-01,3.162824e-01
2.995933e+00,7.799580e-01,7.710457e-01,9,2,3.200061e-01,2.983144e-01
1.658536e+00,4.803310e-01,4.708767e-01,5,1,4.671780e-01,4.663034e-01
1.985684e+00,4.652220e-01,4.560947e-01,6,1,7.324596e-01,7.276967e-01
3.301934e+00,7.506300e-01,7.421970e-01,10,2,5.635106e-01,5.634980e-01
9.969550e-01,4.899100e-01,4.808903e-01,3,1,8.715743e-01,8.703225e-01
3.979520e+00,4.715730e-01,4.630089e-01,12,1,7.392813e-01,7.378543e-01
3.328601e+00,4.986620e-01,4.899502e-01,10,1,6.337049e-01,6.220541e-01
1.655222e+00,2.020620e-01,1.931190e-01,5,0,6.536459e-01,6.520446e-01
1.324357e+00,7.659400e-01,7.569790e-01,4,2,8.156264e-01,8.141351e-01
2.318406e+00,1.315779e+00,1.307011e+00,7,4,8.574575e-01,8.546327e-01
1.322326e+00,1.547076e+00,1.538038e+00,4,5,7.521370e-01,7.490570e-01
1.657324e+00,7.722260e-01,7.641315e-01,5,2,5.999029e-01,5.990917e-01
3.322727e+00,1.031832e+00,1.023054e+00,10,3,6.637021e-01,6.630099e-01
2.309121e+00,2.055380e-01,1.959801e-01,7,0,6.457938e-01,6.448130e-01
1.988494e+00,4.946440e-01,4.858971e-01,6,1,5.896640e-01,5.864231e-01
1.661887e+00,1.602159e+00,1.592875e+00,5,5,4.817474e-01,4.811509e-01
2.313285e+00,1.037262e+00,1.028061e+00,7,3,3.457010e-01,3.416075e-01
2.660001e+00,7.438230e-01,7.350445e-01,8,2,2.341115e-01,2.182564e-01
3.333829e+00,2.041710e-01,1.959801e-01,10,0,1.621403e-01,1.533069e-01
9.970100e-01,7.632700e-01,7.548332e-01,3,2,2.495192e-01,2.482749e-01
3.668183e+00,7.552930e-01,7.469654e-01,11,2,3.665031e-01,3.463677e-01
3.315271e+00,2.026560e-01,1.938343e-01,10,0,2.878317e-01,2.782970e-01
1.325705e+00,1.584534e+00,1.575947e+00,4,5,3.438383e-01,3.402194e-01
2.314296e+00,9.987270e-01,9.901524e-01,7,3,2.071605e-01,2.062888e-01
1.982196e+00,4.694260e-01,4.611015e-01,6,1,1.472769e-01,1.466155e-01
2.979568e+00,4.924140e-01,4.830360e-01,9,1,2.595943e-01,2.593460e-01
1.334255e+00,4.913860e-01,4.820824e-01,4,1,2.978577e-01,2.959754e-01
2.307833e+00,1.308009e+00,1.298904e+00,7,4,5.641594e-01,5.582229e-01
2.312988e+00,1.010423e+00,1.001120e+00,7,3,4.880436e-01,4.861158e-01
2.322080e+00,1.014495e+00,1.005173e+00,7,3,7.919599e-01,7.861617e-01
2.310087e+00,4.751780e-01,4.658699e-01,7,1,1.174479e+00,1.168934e+00
1.986697e+00,1.551192e+00,1.541853e+00,6,5,7.881033e-01,7.821281e-01
2.336268e+00,7.573700e-01,7.491112e-01,7,2,1.047463e+00,1.046050e+00
1.983382e+00,7.349220e-01,7.259846e-01,6,2,9.058097e-01,9.018851e-01
1.323033e+00,4.719120e-01,4.630089e-01,4,1,7.249843e-01,7.233587e-01
2.317515e+00,7.677880e-01,7.588863e-01,7,2,6.212599e-01,6.199461e-01
2.644941e+00,7.395910e-01,7.300377e-01,8,2,5.021463e-01,4.994470e-01
2.653910e+00,2.015140e-01,1.928806e-01,8,0,3.556819e-01,3.555402e-01
2.662598e+00,2.059420e-01,1.969337e-01,8,0,1.149485e-01,1.149226e-01
1.324168e+00,2.037120e-01,1.959801e-01,4,0,1.863279e-01,1.863216e-01
9.983490e-01,7.666530e-01,7.579327e-01,3,2,3.345080e-01,3.329916e-01
2.317927e+00,7.601940e-01,7.510185e-01,7,2,2.902736e-01,2.895281e-01
2.312923e+00,2.009780e-01,1.928806e-01,7,0,2.352517e-01,2.351372e-01
2.981999e+00,4.900390e-01,4.811287e-01,9,1,2.497142e-01,2.364576e-01
2.310624e+00,4.924510e-01,4.839897e-01,7,1,3.569251e-01,3.544383e-01
2.651524e+00,7.571550e-01,7.491112e-01,8,2,1.836736e-01,1.815720e-01
1.657559e+00,4.953290e-01,4.870892e-01,5,1,2.259350e-01,2.257577e-01
2.312131e+00,7.655180e-01,7.569790e-01,7,2,3.092715e-01,3.080008e-01
2.325494e+00,2.009210e-01,1.928806e-01,7,0,4.986846e-01,4.973801e-01
1.327381e+00,1.572955e+00,1.564026e+00,4,5,2.155196e-01,2.129332e-01
2.310597e+00,2.365184e+00,2.357006e+00,7,8,6.884364e-01,6.765143e-01
2.311446e+00,4.663640e-01,4.570484e-01,7,1,1.479518e+00,1.465843e+00
2.320895e+00,1.756408e+00,1.747131e+00,7,6,6.808625e-01,6.789788e-01
2.322182e+00,1.976140e-01,1.890659e-01,7,0,8.717947e-01,8.697158e-01
3.657098e+00,1.842045e+00,1.833916e+00,11,6,3.829349e-01,3.645153e-01
1.993669e+00,2.093980e-01,2.009869e-01,6,0,4.284635e-01,4.235212e-01
3.670288e+00,4.724770e-01,4.630089e-01,11,1,3.010775e-01,3.010006e-01
1.328524e+00,7.872810e-01,7.791519e-01,4,2,2.573122e-01,2.566216e-01
1.322271e+00,7.512950e-01,7.419586e-01,4,2,1.860451e-01,1.855200e-01
1.356002e+00,2.015260e-01,1.928806e-01,4,0,3.532853e-01,3.527810e-01
1.663163e+00,2.020430e-01,1.931190e-01,5,0,4.067877e-01,4.066845e-01
1.325314e+00,2.008300e-01,1.919270e-01,4,0,4.535516e-01,4.533152e-01
1.328608e+00,7.687420e-01,7.600784e-01,4,2,4.987077e-01,4.974415e-01
2.317016e+00,1.024891e+00,1.016140e+00,7,3,6.373662e-01,6.337154e-01
2.313706e+00,4.741410e-01,4.661083e-01,7,1,7.781222e-01,7.753687e-01
3.308721e+00,1.809092e+00,1.801014e+00,10,6,5.556974e-01,5.556646e-01
1.328704e+00,2.059600e-01,1.969337e-01,4,0,4.846255e-01,4.845591e-01
3.987916e+00,7.702740e-01,7.619858e-01,12,2,4.484184e-01,4.375999e-01
1.982218e+00,4.855180e-01,4.770756e-01,6,1,2.001983e-01,1.988065e-01
2.308487e+00,1.838143e+00,1.829147e+00,7,6,7.827702e-01,7.760744e-01
1.996007e+00,1.798569e+00,1.790047e+00,6,6,5.909034e-01,5.855708e-01
1.993912e+00,4.896480e-01,4.820824e-01,6,1,3.756278e-01,3.695431e-01
1.671829e+00,7.465590e-01,7.381439e-01,5,2,4.345085e-01,4.331366e-01
1.328155e+00,2.922144e+00,2.912998e+00,4,10,6.964414e-01,6.878416e-01
2.308412e+00,4.593850e-01,4.510880e-01,7,1,1.254490e+00,1.243753e+00
2.311561e+00,7.351400e-01,7.259846e-01,7,2,1.962224e+00,1.941175e+00
2.309313e+00,1.759462e+00,1.749992e+00,7,6,2.827383e+00,2.795250e+00
2.321835e+00,3.040869e+00,3.032207e+00,7,11,2.184141e+00,2.175942e+00
1.992236e+00,3.640972e+00,3.633022e+00,6,13,1.424089e+00,1.416118e+00
1.325118e+00,2.306689e+00,2.298117e+00,4,8,9.168108e-01,9.101884e-01
2.312782e+00,2.542392e+00,2.532959e+00,7,9,5.719939e-01,5.689301e-01
2.317060e+00,2.879299e+00,2.870083e+00,7,10,9.486151e-01,9.278554e-01
2.312892e+00,9.594440e-01,9.510517e-01,7,3,6.460369e-01,6.392307e-01
2.308508e+00,4.657300e-01,4.570484e-01,7,1,8.511631e-01,8.411987e-01
2.327175e+00,4.635990e-01,4.549026e-01,7,1,1.028108e+00,1.017858e+00
3.319009e+00,2.038601e+00,2.029896e+00,10,7,4.344807e-01,4.338585e-01
1.987287e+00,4.902990e-01,4.820824e-01,6,1,3.027101e-01,3.020994e-01
1.981511e+00,4.830760e-01,4.739761e-01,6,1,4.550761e-01,4.479495e-01
3.302642e+00,1.327012e+00,1.317978e+00,10,4,4.006576e-01,3.999871e-01
1.656230e+00,1.310283e+00,1.302004e+00,5,4,2.828270e-01,2.823454e-01
1.990730e+00,4.761170e-01,4.680157e-01,6,1,3.258288e-01,3.245197e-01
3.655137e+00,4.787650e-01,4.699230e-01,11,1,1.479535e-01,1.476952e-01
1.328826e+00,2.050300e-01,1.971722e-01,4,0,1.193156e-01,1.189572e-01
2.654831e+00,5.064770e-01,4.980564e-01,8,1,1.043193e-01,1.034769e-01
3.315291e+00,4.804650e-01,4.718304e-01,10,1,2.804196e-01,2.803647e-01
9.964120e-01,4.955850e-01,4.870892e-01,3,1,3.538020e-01,3.507400e-01
1.984552e+00,2.000030e-01,1.921654e-01,6,0,3.076220e-01,3.057295e-01
3.652088e+00,4.825420e-01,4.739761e-01,11,1,2.130004e-01,2.128821e-01
3.335756e+00,2.096010e-01,2.009869e-01,10,0,2.038430e-01,2.009884e-01
3.324709e+00,2.034260e-01,1.950264e-01,10,0,2.279256e-01,2.117138e-01
1.663255e+00,2.049690e-01,1.969337e-01,5,0,2.549420e-01,2.538012e-01
3.632258e+00,2.007650e-01,1.919270e-01,11,0,1.941751e-01,1.926847e-01
1.663485e+00,4.951900e-01,4.858971e-01,5,1,2.920166e-01,2.918682e-01
3.983111e+00,4.733560e-01,4.651546e-01,12,1,1.359911e-01,1.323803e-01
1.328425e+00,5.031570e-01,4.940033e-01,4,1,1.165094e-01,1.164143e-01
2.320577e+00,7.619710e-01,7.529259e-01,7,2,2.732627e-01,2.712090e-01
1.981748e+00,1.015165e+00,1.006126e+00,6,3,1.604969e-01,1.591740e-01
2.324614e+00,1.593570e+00,1.585007e+00,7,5,5.575801e-01,5.527646e-01
1.333353e+00,1.276431e+00,1.268148e+00,4,4,5.127736e-01,5.112782e-01
1.335244e+00,1.333136e+00,1.325130e+00,4,4,6.585691e-01,6.551206e-01
2.318472e+00,1.020622e+00,1.012087e+00,7,3,9.605944e-01,9.592485e-01
1.985309e+00,7.487710e-01,7.400513e-01,6,2,8.401194e-01,8.341239e-01
2.637990e+00,7.775620e-01,7.688999e-01,8,2,7.658593e-01,7.640677e-01
2.324065e+00,7.658280e-01,7.569790e-01,7,2,1.130463e+00,1.128530e+00
2.309773e+00,1.572848e+00,1.564026e+00,7,5,8.479609e-01,8.471329e-01
2.329433e+00,1.013828e+00,1.005888e+00,7,3,5.359283e-01,5.351824e-01
1.662861e+00,4.870470e-01,4.780293e-01,5,1,3.486528e-01,3.483624e-01
1.324515e+00,1.040691e+00,1.032114e+00,4,3,2.511283e-01,2.483992e-01
3.974071e+00,7.448850e-01,7.359982e-01,12,2,2.486842e-01,2.368170e-01
1.329712e+00,2.041630e-01,1.959801e-01,4,0,2.448553e-01,2.440972e-01
1.658198e+00,4.915230e-01,4.830360e-01,5,1,3.350243e-01,3.341855e-01
2.988840e+00,7.841210e-01,7.760525e-01,9,2,2.090130e-01,1.986384e-01
3.651975e+00,4.821160e-01,4.739761e-01,11,1,1.803053e-01,1.802642e-01
1.662791e+00,2.054270e-01,1.969337e-01,5,0,1.480501e-01,1.475794e-01
3.995697e+00,4.919590e-01,4.830360e-01,12,1,3.876234e-01,3.874321e-01
1.323528e+00,4.849700e-01,4.758835e-01,4,1,4.405671e-01,4.387862e-01
1.985753e+00,2.039090e-01,1.950264e-01,6,0,3.550204e-01,3.549953e-01
9.958460e-01,4.911490e-01,4.830360e-01,3,1,3.976979e-01,3.964375e-01
2.640094e+00,4.720330e-01,4.639626e-01,8,1,3.036936e-01,3.035056e-01
1.988736e+00,7.815030e-01,7.729530e-01,6,2,4.016418e-01,4.013208e-01
2.317310e+00,1.028609e+00,1.019001e+00,7,3,5.475927e-01,5.461895e-01
2.321611e+00,9.981340e-01,9.889603e-01,7,3,7.804911e-01,7.779790e-01
1.328542e+00,1.326612e+00,1.317978e+00,4,4,8.113568e-01,8.097426e-01
2.322713e+00,2.693491e+00,2.685070e+00,7,9,6.845072e-01,6.783151e-01
2.308724e+00,9.875720e-01,9.779930e-01,7,3,5.967964e-01,5.938009e-01
1.984766e+00,1.302211e+00,1.292944e+00,6,4,4.822459e-01,4.773643e-01
1.322671e+00,7.545300e-01,7.460117e-01,4,2,5.589247e-01,5.578673e-01
1.331686e+00,1.869431e+00,1.860857e+00,4,6,6.292862e-01,6.223178e-01
2.314677e+00,4.642250e-01,4.560947e-01,7,1,6.668194e-01,6.606950e-01
2.315446e+00,1.540708e+00,1.532078e+00,7,5,3.576901e-01,3.571283e-01
1.983767e+00,4.833930e-01,4.739761e-01,6,1,3.755712e-01,3.751654e-01
1.681665e+00,4.799760e-01,4.711151e-01,5,1,2.780386e-01,2.776234e-01
1.327032e+00,4.921020e-01,4.830360e-01,4,1,2.369608e-01,2.356843e-01
1.328193e+00,4.795260e-01,4.699230e-01,4,1,1.875163e-01,1.873353e-01
1.326150e+00,2.006090e-01,1.921654e-01,4,0,3.099645e-01,3.099440e-01
1.332169e+00,4.977320e-01,4.889965e-01,4,1,6.376835e-01,6.376454e-01
2.305836e+00,4.797120e-01,4.711151e-01,7,1,5.120396e-01,5.118417e-01
1.332265e+00,2.054260e-01,1.969337e-01,4,0,5.704212e-01,5.684326e-01
1.325203e+00,1.876199e+00,1.867056e+00,4,6,6.069846e-01,5.995922e-01
2.308339e+00,1.814127e+00,1.806021e+00,7,6,2.822254e-01,2.817259e-01
3.986731e+00,2.013190e-01,1.928806e-01,12,0,2.309225e-01,2.292295e-01
1.674654e+00,4.999710e-01,4.911423e-01,5,1,1.859866e-01,1.847106e-01
1.330654e+00,4.757770e-01,4.670620e-01,4,1,9.329650e-02,9.289712e-02
4.000991e+00,2.148700e-01,2.059937e-01,12,0,1.163752e-01,1.131893e-01
1.669766e+00,2.052150e-01,1.959801e-01,5,0,1.909526e-01,1.909446e-01
9.953490e-01,2.024000e-01,1.938343e-01,3,0,1.379483e-01,1.375371e-01
1.337157e+00,1.325019e+00,1.317024e+00,4,4,5.382607e-01,5.359728e-01
1.323913e+00,1.276649e+00,1.268148e+00,4,4,5.404730e-01,5.395808e-01
1.332689e+00,4.915690e-01,4.830360e-01,4,1,3.429224e-01,3.423379e-01
2.315077e+00,4.862450e-01,4.780293e-01,7,1,3.084320e-01,3.082372e-01
1.996185e+00,2.049840e-01,1.959801e-01,6,0,2.699397e-01,2.698439e-01
1.671100e+00,2.003720e-01,1.919270e-01,5,0,2.218693e-01,2.216547e-01
1.337860e+00,2.015860e-01,1.931190e-01,4,0,2.012209e-01,1.993102e-01
1.982947e+00,1.053693e+00,1.044989e+00,6,3,2.700927e-01,2.698353e-01
1.987065e+00,7.435560e-01,7.338524e-01,6,2,2.128811e-01,2.115909e-01
2.641867e+00,4.796330e-01,4.708767e-01,8,1,1.967740e-01,1.956798e-01
1.649173e+00,1.052077e+00,1.043797e+00,5,3,3.462425e-01,3.449901e-01
1.339036e+00,1.007844e+00,9.989738e-01,4,3,4.277117e-01,4.270805e-01
3.003906e+00,4.836110e-01,4.739761e-01,9,1,6.040604e-01,5.866651e-01
1.992284e+00,4.965150e-01,4.880428e-01,6,1,7.454852e-01,7.446752e-01
1.327188e+00,1.307660e+00,1.298904e+00,4,4,7.216411e-01,7.153072e-01
2.306857e+00,4.752170e-01,4.658699e-01,7,1,7.739043e-01,7.718795e-01
2.306989e+00,1.017218e+00,1.008034e+00,7,3,5.475487e-01,5.453905e-01
1.330098e+00,1.334238e+00,1.326084e+00,4,4,4.084093e-01,4.011099e-01
2.309646e+00,4.697980e-01,4.611015e-01,7,1,4.545143e-01,4.533850e-01
2.314329e+00,7.547340e-01,7.460117e-01,7,2,6.104474e-01,6.074156e-01
2.318123e+00,4.604110e-01,4.520416e-01,7,1,7.627322e-01,7.602785e-01
1.985604e+00,1.286878e+00,1.278162e+00,6,4,5.660714e-01,5.579096e-01
3.309021e+00,1.570628e+00,1.562119e+00,10,5,4.789163e-01,4.700760e-01
2.321751e+00,2.621138e+00,2.612829e+00,7,9,4.904541e-01,4.831029e-01
2.315743e+00,1.751945e+00,1.744032e+00,7,6,2.619187e-01,2.592573e-01
3.306823e+00,1.278595e+00,1.268864e+00,10,4,4.123022e-01,4.122619e-01
1.326910e+00,4.915970e-01,4.830360e-01,4,1,3.997043e-01,3.994682e-01
1.981461e+00,4.782190e-01,4.692078e-01,6,1,2.858953e-01,2.836913e-01
2.987909e+00,4.951120e-01,4.870892e-01,9,1,2.732348e-01,2.578771e-01
3.318675e+00,1.051215e+00,1.042128e+00,10,3,5.443301e-01,5.423423e-01
2.312233e+00,1.302038e+00,1.294136e+00,7,4,1.100186e+00,1.094189e+00
2.307260e+00,4.663650e-01,4.580021e-01,7,1,9.675324e-01,9.617727e-01
2.309231e+00,7.446580e-01,7.362366e-01,7,2,9.619233e-01,9.579265e-01
2.318417e+00,7.360510e-01,7.269382e-01,7,2,1.248212e+00,1.246251e+00
2.315076e+00,1.562838e+00,1.553774e+00,7,5,1.994230e+00,1.989982e+00
1.983863e+00,2.633592e+00,2.624989e+00,6,9,1.097065e+00,1.089401e+00
2.319507e+00,1.318338e+00,1.309156e+00,7,4,1.235647e+00,1.230279e+00
1.657680e+00,1.865121e+00,1.856089e+00,5,6,1.008615e+00,1.007158e+00
2.314164e+00,1.027645e+00,1.019001e+00,7,3,9.836194e-01,9.795304e-01
1.988706e+00,1.832213e+00,1.822948e+00,6,6,4.473871e-01,4.421627e-01
2.311847e+00,1.297707e+00,1.288891e+00,7,4,8.416075e-01,8.395173e-01
1.986244e+00,7.446750e-01,7.359982e-01,6,2,5.321807e-01,5.283452e-01
2.308393e+00,1.038931e+00,1.029968e+00,7,3,5.647716e-01,5.621067e-01
2.991102e+00,1.546678e+00,1.538038e+00,9,5,3.129614e-01,2.996616e-01
1.329559e+00,4.981150e-01,4.889965e-01,4,1,7.188785e-01,7.183261e-01
2.335179e+00,4.800600e-01,4.720688e-01,7,1,1.443450e+00,1.440750e+00
2.307618e+00,1.037742e+00,1.029015e+00,7,3,8.200727e-01,8.165112e-01
2.315718e+00,4.897720e-01,4.770756e-01,7,1,1.228502e+00,1.224070e+00
2.323494e+00,1.009360e+00,1.001120e+00,7,3,1.118856e+00,1.117257e+00
2.307198e+00,1.296879e+00,1.287937e+00,7,4,1.363344e+00,1.356796e+00
2.645440e+00,2.070828e+00,2.062082e+00,8,7,7.462600e-01,7.446952e-01
1.984586e+00,4.854970e-01,4.761219e-01,6,1,6.101833e-01,6.076564e-01
2.650642e+00,4.808190e-01,4.720688e-01,8,1,3.652166e-01,3.649231e-01
2.657956e+00,7.666560e-01,7.581711e-01,8,2,3.244554e-01,3.230619e-01
2.308206e+00,7.711580e-01,7.619858e-01,7,2,2.848919e-01,2.823218e-01
2.308556e+00,7.681250e-01,7.588863e-01,7,2,4.827249e-01,4.780989e-01
1.987855e+00,1.542337e+00,1.533985e+00,6,5,2.055458e-01,2.045653e-01
3.972531e+00,4.765020e-01,4.680157e-01,12,1,2.507974e-01,2.405758e-01
2.326714e+00,2.128500e-01,2.038479e-01,7,0,3.280195e-01,3.280091e-01
1.004288e+00,2.026170e-01,1.938343e-01,3,0,3.979821e-01,3.979779e-01
1.003095e+00,2.007100e-01,1.921654e-01,3,0,2.650588e-01,2.650415e-01
1.333635e+00,7.757440e-01,7.669926e-01,4,2,3.084183e-01,3.079512e-01
2.318480e+00,2.064550e-01,1.981258e-01,7,0,3.699045e-01,3.692018e-01
2.313611e+00,7.602200e-01,7.519722e-01,7,2,5.058977e-01,5.046516e-01
2.312282e+00,1.013491e+00,1.003981e+00,7,3,1.007247e+00,1.001297e+00
2.312552e+00,7.223750e-01,7.140636e-01,7,2,1.440521e+00,1.434695e+00
1.985402e+00,1.006195e+00,9.980202e-01,6,3,9.444147e-01,9.362605e-01
2.314186e+00,2.027440e-01,1.938343e-01,7,0,1.196756e+00,1.195859e+00
3.991682e+00,7.479400e-01,7.400513e-01,12,2,8.265343e-01,8.243380e-01
1.659353e+00,4.993210e-01,4.899502e-01,5,1,5.166333e-01,5.157521e-01
2.315257e+00,1.856348e+00,1.847029e+00,7,6,6.765373e-01,6.681362e-01
1.984262e+00,1.520775e+00,1.512051e+00,6,5,3.105253e-01,3.047911e-01
3.311931e+00,1.605759e+00,1.596928e+00,10,5,3.929379e-01,3.787747e-01
3.971672e+00,1.019410e+00,1.011133e+00,12,3,2.480379e-01,2.416068e-01
1.331685e+00,2.046530e-01,1.959801e-01,4,0,2.418694e-01,2.397348e-01
2.328788e+00,5.001050e-01,4.920959e-01,7,1,2.421835e-01,2.418026e-01
2.315326e+00,1.317005e+00,1.308918e+00,7,4,3.236554e-01,3.213657e-01
3.669624e+00,1.561384e+00,1.552820e+00,11,5,1.750674e-01,1.747931e-01
1.341183e+00,1.318530e+00,1.310110e+00,4,4,4.131074e-01,4.111525e-01
2.305369e+00,7.470660e-01,7.388592e-01,7,2,1.070119e+00,1.064280e+00
1.989943e+00,1.548756e+00,1.540184e+00,6,5,6.030007e-01,5.982510e-01
1.991750e+00,4.770700e-01,4.680157e-01,6,1,4.623595e-01,4.621481e-01
3.316805e+00,2.013080e-01,1.928806e-01,10,0,3.461620e-01,3.369810e-01
1.333788e+00,2.056140e-01,1.971722e-01,4,0,3.090921e-01,3.090918e-01
9.966020e-01,2.054990e-01,1.969337e-01,3,0,3.379981e-01,3.379922e-01
9.960350e-01,1.326682e+00,1.318932e+00,3,4,6.627107e-01,6.592059e-01
3.299399e+00,1.292101e+00,1.282930e+00,10,4,5.748434e-01,5.748404e-01
9.955470e-01,2.040450e-01,1.950264e-01,3,0,5.192981e-01,5.190466e-01
2.648453e+00,4.947820e-01,4.861355e-01,8,1,5.417037e-01,5.413677e-01
2.307772e+00,1.317127e+00,1.308918e+00,7,4,6.525869e-01,6.455009e-01
2.311696e+00,1.280012e+00,1.271009e+00,7,4,9.665129e-01,9.587590e-01
1.983558e+00,2.037080e-01,1.950264e-01,6,0,1.819660e+00,1.795412e+00
2.323386e+00,1.511446e+00,1.501799e+00,7,5,2.306430e+00,2.290171e+00
2.310015e+00,2.001437e+00,1.992941e+00,7,7,1.922491e+00,1.913642e+00
2.044979e+00,1.954992e+00,1.945972e+00,7,7,2.024226e+00,2.021268e+00
1.501187e+00,1.134153e+00,1.126051e+00,5,4,1.577605e+00,1.575385e+00
2.088864e+00,4.073670e-01,4.000664e-01,7,1,1.450748e+00,1.446284e+00
2.094245e+00,6.570590e-01,6.492138e-01,7,2,1.418016e+00,1.414995e+00
2.053727e+00,2.338999e+00,2.330065e+00,7,9,1.081554e+00,1.076172e+00
2.051062e+00,2.488933e+00,2.479792e+00,7,10,9.213009e-01,9.186849e-01
2.338517e+00,1.140456e+00,1.132011e+00,8,4,7.177460e-01,7.156487e-01
1.762904e+00,9.252010e-01,9.169579e-01,6,3,6.821686e-01,6.811383e-01
2.046172e+00,4.192430e-01,4.107952e-01,7,1,8.146333e-01,8.126998e-01
2.045019e+00,1.383348e+00,1.374960e+00,7,5,1.082577e+00,1.078131e+00
2.043367e+00,6.437390e-01,6.358624e-01,7,2,2.108007e+00,2.096158e+00
2.049547e+00,1.095414e+00,1.087189e+00,7,4,2.390547e+00,2.381086e+00
2.043976e+00,1.319119e+00,1.311064e+00,7,5,2.583848e+00,2.565417e+00
2.051873e+00,1.527683e+00,1.518965e+00,7,6,2.315169e+00,2.308076e+00
2.046800e+00,4.090560e-01,4.010201e-01,7,1,2.102323e+00,2.096342e+00
2.041436e+00,6.502550e-01,6.420612e-01,7,2,2.246574e+00,2.234414e+00
2.049536e+00,2.202743e+00,2.194881e+00,7,9,1.968688e+00,1.959091e+00
2.053519e+00,2.172640e+00,2.165079e+00,7,9,1.626100e+00,1.615228e+00
2.045526e+00,2.205525e+00,2.197981e+00,7,9,1.120853e+00,1.110836e+00
2.052844e+00,2.714425e+00,2.706051e+00,7,11,7.730498e-01,7.712952e-01
2.047649e+00,4.463810e-01,4.391670e-01,7,1,5.908899e-01,5.878300e-01
2.045265e+00,1.154307e+00,1.145840e+00,7,4,6.239295e-01,6.206915e-01
2.042650e+00,1.372274e+00,1.364946e+00,7,5,7.324628e-01,7.235797e-01
1.759014e+00,2.284926e+00,2.276897e+00,6,9,4.221365e-01,4.203953e-01
2.925042e+00,1.795030e-01,1.718998e-01,10,0,3.814196e-01,3.813963e-01
8.822670e-01,6.823300e-01,6.740093e-01,3,2,4.388193e-01,4.370355e-01
2.339163e+00,6.558770e-01,6.480217e-01,8,2,2.293568e-01,2.284427e-01
1.460762e+00,1.796440e-01,1.709461e-01,5,0,2.365601e-01,2.317340e-01
1.755450e+00,1.786830e-01,1.709461e-01,6,0,1.987281e-01,1.985744e-01
1.178706e+00,1.783580e-01,1.709461e-01,4,0,2.191541e-01,2.188847e-01
1.174838e+00,9.240710e-01,9.160042e-01,4,3,3.013272e-01,2.986804e-01
2.333650e+00,8.960380e-01,8.881092e-01,8,3,3.464805e-01,3.389845e-01
1.465445e+00,4.293940e-01,4.220009e-01,5,1,3.688255e-01,3.670719e-01
1.176786e+00,4.199850e-01,4.119873e-01,4,1,3.363395e-01,3.356322e-01
1.466528e+00,1.779380e-01,1.699924e-01,5,0,2.701644e-01,2.691097e-01
1.762113e+00,4.427730e-01,4.348755e-01,6,1,2.894419e-01,2.889392e-01
2.042436e+00,4.234660e-01,4.148483e-01,7,1,8.680448e-01,8.668555e-01
2.048108e+00,1.392026e+00,1.384020e+00,7,5,1.811171e+00,1.805743e+00
2.042926e+00,1.812689e+00,1.805067e+00,7,7,2.127180e+00,2.110946e+00
2.043901e+00,1.077140e+00,1.068830e+00,7,4,1.626048e+00,1.619491e+00
2.042531e+00,1.361824e+00,1.353979e+00,7,5,1.591878e+00,1.584592e+00
2.051189e+00,8.650580e-01,8.580685e-01,7,3,1.394320e+00,1.390818e+00
2.045986e+00,1.118746e+00,1.111031e+00,7,4,1.172069e+00,1.167718e+00
1.173374e+00,2.387472e+00,2.380133e+00,4,9,7.759889e-01,7.670712e-01
2.046594e+00,1.335650e+00,1.327038e+00,7,5,6.994036e-01,6.872792e-01
2.045973e+00,6.274420e-01,6.198883e-01,7,2,1.512033e+00,1.483442e+00
2.046153e+00,8.508180e-01,8.430481e-01,7,3,2.129064e+00,2.098560e+00
2.044735e+00,8.469070e-01,8.389950e-01,7,3,2.376009e+00,2.343380e+00
2.050995e+00,2.420090e+00,2.413034e+00,7,10,1.790818e+00,1.776672e+00
2.055416e+00,2.701204e+00,2.694130e+00,7,11,1.295816e+00,1.292613e+00
1.757941e+00,2.071256e+00,2.063036e+00,6,8,9.003940e-01,8.899407e-01
1.173746e+00,3.007303e+00,3.000021e+00,4,12,6.834930e-01,6.711276e-01
2.042404e+00,4.045620e-01,3.969669e-01,7,1,1.104273e+00,1.093112e+00
2.043334e+00,6.166860e-01,6.089211e-01,7,2,1.095804e+00,1.086057e+00
2.044259e+00,1.091132e+00,1.084089e+00,7,4,7.675249e-01,7.648427e-01
2.044045e+00,6.377000e-01,6.299019e-01,7,2,7.982501e-01,7.963900e-01
2.052764e+00,4.177930e-01,4.100800e-01,7,1,9.028220e-01,9.018900e-01
1.759923e+00,1.772540e-01,1.690388e-01,6,0,9.350392e-01,9.294188e-01
2.047531e+00,6.673830e-01,6.599426e-01,7,2,1.198956e+00,1.198042e+00
1.171856e+00,8.906020e-01,8.828640e-01,4,3,1.040425e+00,1.039625e+00
1.175086e+00,4.311350e-01,4.229546e-01,4,1,1.173478e+00,1.171616e+00
2.046490e+00,4.246170e-01,4.158020e-01,7,1,1.131551e+00,1.130955e+00
1.764591e+00,1.784780e-01,1.709461e-01,6,0,9.331237e-01,9.317617e-01
2.345232e+00,1.789590e-01,1.709461e-01,8,0,7.704565e-01,7.704258e-01
1.186257e+00,1.174505e+00,1.167059e+00,4,4,8.031622e-01,8.011640e-01
2.045255e+00,6.547430e-01,6.470680e-01,7,2,6.889534e-01,6.855026e-01
2.051072e+00,8.726060e-01,8.649826e-01,7,3,3.511812e-01,3.501390e-01
2.046136e+00,4.146190e-01,4.069805e-01,7,1,3.090041e-01,3.060457e-01
1.171080e+00,6.613740e-01,6.539822e-01,4,2,2.406276e-01,2.393112e-01
3.233590e+00,4.371700e-01,4.289150e-01,11,1,3.022315e-01,3.009478e-01
2.045610e+00,4.282550e-01,4.210472e-01,7,1,3.039421e-01,3.033272e-01
2.923897e+00,6.636630e-01,6.561279e-01,10,2,2.734389e-01,2.724525e-01
1.172576e+00,1.784580e-01,1.709461e-01,4,0,2.260122e-01,2.260039e-01
8.814490e-01,1.781310e-01,1.699924e-01,3,0,2.460036e-01,2.459710e-01
1.180065e+00,1.784060e-01,1.699924e-01,4,0,7.984548e-02,7.984544e-02
8.817440e-01,1.781540e-01,1.709461e-01,3,0,9.137571e-02,9.137572e-02
8.826170e-01,1.777640e-01,1.699924e-01,3,0,9.490307e-02,9.490288e-02
8.829810e-01,1.781200e-01,1.709461e-01,3,0,8.731627e-02,8.731538e-02
8.823160e-01,1.778560e-01,1.711845e-01,3,0,1.148318e-01,1.148284e-01
8.820710e-01,1.776510e-01,1.702309e-01,3,0,1.922585e-01,1.922444e-01
1.179031e+00,1.772960e-01,1.699924e-01,4,0,1.128408e-01,1.128372e-01
1.174700e+00,4.288280e-01,4.220009e-01,4,1,2.022658e-01,2.018962e-01
2.046474e+00,6.760470e-01,6.680489e-01,7,2,3.285700e-01,3.275100e-01
2.928082e+00,8.966640e-01,8.881092e-01,10,3,2.173947e-01,2.173371e-01
1.179392e+00,4.297160e-01,4.220009e-01,4,1,2.411967e-01,2.408214e-01
3.224751e+00,4.180660e-01,4.098415e-01,11,1,2.874899e-01,2.692400e-01
1.172493e+00,6.819710e-01,6.749630e-01,4,2,3.589129e-01,3.569610e-01
1.759941e+00,6.608280e-01,6.530285e-01,6,2,2.984602e-01,2.982101e-01
1.468950e+00,1.787040e-01,1.709461e-01,5,0,1.769245e-01,1.768556e-01
2.698986e+00,1.781150e-01,1.709461e-01,9,0,1.138241e-01,1.056179e-01
2.926310e+00,1.801610e-01,1.730919e-01,10,0,1.592480e-01,1.592121e-01
8.768790e-01,1.793200e-01,1.718998e-01,3,0,1.220618e-01,1.220555e-01
8.816040e-01,1.829980e-01,1.749992e-01,3,0,1.107887e-01,1.107781e-01
8.835970e-01,1.775730e-01,1.699924e-01,3,0,3.111171e-01,3.111121e-01
8.836580e-01,1.774700e-01,1.699924e-01,3,0,1.888098e-01,1.888027e-01
8.839730e-01,1.777820e-01,1.699924e-01,3,0,3.328254e-01,3.328080e-01
8.819840e-01,1.779360e-01,1.699924e-01,3,0,6.916068e-01,6.914800e-01
1.176632e+00,6.902460e-01,6.830692e-01,4,2,4.974041e-01,4.953196e-01
2.926068e+00,9.185670e-01,9.109974e-01,10,3,3.791675e-01,3.782620e-01
2.052089e+00,4.338540e-01,4.260540e-01,7,1,6.953374e-01,6.943937e-01
1.761269e+00,6.650220e-01,6.570816e-01,6,2,9.102265e-01,9.067264e-01
1.469276e+00,6.558540e-01,6.480217e-01,5,2,3.651474e-01,3.651066e-01
3.532219e+00,1.781320e-01,1.711845e-01,12,0,2.343199e-01,2.341489e-01
1.176676e+00,4.308770e-01,4.231930e-01,4,1,2.893858e-01,2.891385e-01
2.044824e+00,4.237220e-01,4.160404e-01,7,1,1.073287e-01,1.071113e-01
2.347875e+00,1.788910e-01,1.709461e-01,8,0,8.980329e-02,8.980179e-02
8.775460e-01,1.844600e-01,1.769066e-01,3,0,1.841361e-01,1.839952e-01
1.754682e+00,1.833630e-01,1.761913e-01,6,0,1.737152e-01,1.729541e-01
1.174948e+00,4.349780e-01,4.270077e-01,4,1,2.240911e-01,2.235541e-01
2.045860e+00,1.161464e+00,1.154184e+00,7,4,4.505359e-01,4.476097e-01
1.751615e+00,1.123000e+00,1.116037e+00,6,4,3.064995e-01,3.035977e-01
3.230306e+00,4.264600e-01,4.179478e-01,11,1,2.878750e-01,2.877630e-01
1.175624e+00,1.791820e-01,1.711845e-01,4,0,2.825874e-01,2.825858e-01
8.760430e-01,1.827460e-01,1.749992e-01,3,0,2.252431e-01,2.252047e-01
1.174269e+00,1.849240e-01,1.771450e-01,4,0,2.630097e-01,2.628215e-01
2.345487e+00,1.779980e-01,1.709461e-01,8,0,3.696175e-01,3.694659e-01
2.057355e+00,1.839530e-01,1.759529e-01,7,0,2.595754e-01,2.578969e-01
2.643755e+00,6.810530e-01,6.730556e-01,9,2,3.128932e-01,2.895587e-01
1.469112e+00,1.773630e-01,1.690388e-01,5,0,3.427109e-01,3.418053e-01
1.759877e+00,4.163220e-01,4.091263e-01,6,1,3.967165e-01,3.949957e-01
1.760574e+00,1.781780e-01,1.699924e-01,6,0,5.221283e-01,5.171316e-01
2.639567e+00,6.717600e-01,6.639957e-01,9,2,2.664524e-01,2.620916e-01
1.172808e+00,1.171744e+00,1.163960e+00,4,4,2.615237e-01,2.598218e-01
2.046603e+00,6.516980e-01,6.439686e-01,7,2,2.766783e-01,2.763179e-01
1.758243e+00,4.354470e-01,4.281998e-01,6,1,2.809385e-01,2.770152e-01
1.470435e+00,6.627300e-01,6.549358e-01,5,2,1.888214e-01,1.874845e-01
2.043538e+00,6.677440e-01,6.599426e-01,7,2,6.560823e-01,6.522769e-01
2.049263e+00,1.151504e+00,1.143932e+00,7,4,4.343622e-01,4.332515e-01
2.042988e+00,4.159310e-01,4.081726e-01,7,1,4.078052e-01,4.072611e-01
1.758362e+00,4.240160e-01,4.160404e-01,6,1,3.676147e-01,3.645877e-01
1.756961e+00,1.168666e+00,1.161098e+00,6,4,3.504425e-01,3.494694e-01
1.758873e+00,6.471720e-01,6.401539e-01,6,2,2.501848e-01,2.455419e-01
2.633946e+00,4.168610e-01,4.091263e-01,9,1,3.745256e-01,3.734202e-01
1.756514e+00,1.794140e-01,1.718998e-01,6,0,4.166967e-01,4.145100e-01
3.219852e+00,4.249380e-01,4.169941e-01,11,1,3.775136e-01,3.685100e-01
1.172592e+00,4.323960e-01,4.251003e-01,4,1,3.811210e-01,3.795491e-01
1.752588e+00,1.827870e-01,1.749992e-01,6,0,2.922384e-01,2.909534e-01
1.177781e+00,9.285150e-01,9.210110e-01,4,3,2.660543e-01,2.640366e-01
2.340083e+00,6.616340e-01,6.542206e-01,8,2,2.183016e-01,2.161020e-01
1.755634e+00,6.557460e-01,6.480217e-01,6,2,1.854715e-01,1.843403e-01
1.747779e+00,4.305810e-01,4.229546e-01,6,1,1.424471e-01,1.424351e-01
1.749940e+00,1.781810e-01,1.699924e-01,6,0,2.075294e-01,2.064263e-01
3.512344e+00,6.761410e-01,6.690025e-01,12,2,1.485143e-01,1.451957e-01
3.515323e+00,4.242370e-01,4.119873e-01,12,1,2.122676e-01,2.016482e-01
1.176076e+00,1.844150e-01,1.769066e-01,4,0,1.804279e-01,1.799195e-01
3.225738e+00,1.795020e-01,1.721382e-01,11,0,2.555617e-01,2.554396e-01
1.465007e+00,1.851350e-01,1.771450e-01,5,0,3.111245e-01,3.108410e-01
2.358801e+00,1.787630e-01,1.709461e-01,8,0,2.465446e-01,2.465322e-01
1.176160e+00,1.648063e+00,1.641035e+00,4,6,6.020146e-01,5.976665e-01
2.043048e+00,1.119528e+00,1.111984e+00,7,4,1.368803e+00,1.354540e+00
2.045656e+00,1.088518e+00,1.080990e+00,7,4,1.010496e+00,1.005269e+00
1.784462e+00,1.356564e+00,1.348972e+00,6,5,7.720393e-01,7.697411e-01
3.606260e+00,4.217970e-01,4.141331e-01,12,1,6.676057e-01,6.645310e-01
2.724309e+00,2.131660e-01,2.050400e-01,9,0,7.457334e-01,7.298648e-01
2.984376e+00,1.846560e-01,1.769066e-01,10,0,5.423373e-01,5.423298e-01
9.174990e-01,4.692720e-01,4.611015e-01,3,1,4.906296e-01,4.892589e-01
1.796969e+00,4.260650e-01,4.179478e-01,6,1,4.314879e-01,4.243276e-01
2.149461e+00,1.091483e+00,1.082897e+00,7,3,4.441756e-01,4.420673e-01
2.134957e+00,4.535360e-01,4.460812e-01,7,1,3.432238e-01,3.427736e-01
1.210051e+00,2.183255e+00,2.175093e+00,4,8,4.230762e-01,4.170295e-01
2.102523e+00,1.137329e+00,1.130104e+00,7,4,6.561364e-01,6.455406e-01
2.105685e+00,1.120574e+00,1.111984e+00,7,4,4.956606e-01,4.917474e-01
2.105302e+00,9.044360e-01,8.959770e-01,7,3,1.758138e-01,1.744025e-01
2.712495e+00,9.254500e-01,9.181499e-01,9,3,1.009024e-01,1.004952e-01
1.812130e+00,1.831040e-01,1.759529e-01,6,0,1.405497e-01,1.405480e-01
9.087590e-01,1.837670e-01,1.761913e-01,3,0,1.908812e-01,1.906033e-01
1.513840e+00,1.836140e-01,1.759529e-01,5,0,2.625768e-01,2.625759e-01
9.095240e-01,1.830470e-01,1.749992e-01,3,0,1.593658e-01,1.593613e-01
9.105360e-01,4.417080e-01,4.339218e-01,3,1,1.958565e-01,1.955262e-01
2.105954e+00,4.376700e-01,4.298687e-01,7,1,2.364784e-01,2.361186e-01
1.210834e+00,1.834200e-01,1.759529e-01,4,0,2.467914e-01,2.467615e-01
1.211161e+00,4.549280e-01,4.470348e-01,4,1,4.343576e-01,4.342121e-01
3.013347e+00,4.312610e-01,4.239082e-01,10,1,2.475965e-01,2.416493e-01
9.012420e-01,1.910560e-01,1.831055e-01,3,0,2.215945e-01,2.213522e-01
1.210821e+00,1.454344e+00,1.445770e+00,4,5,7.696302e-01,7.659305e-01
2.102425e+00,6.680770e-01,6.599426e-01,7,2,9.438158e-01,9.431529e-01
2.403739e+00,9.241550e-01,9.160042e-01,8,3,3.936541e-01,3.925449e-01
1.510123e+00,1.881410e-01,1.800060e-01,5,0,4.209243e-01,4.197362e-01
1.802038e+00,4.473230e-01,4.389286e-01,6,1,3.722851e-01,3.722087e-01
1.809121e+00,4.430200e-01,4.351139e-01,6,1,3.810562e-01,3.767170e-01
1.208680e+00,6.766210e-01,6.690025e-01,4,2,1.904571e-01,1.899059e-01
3.029423e+00,1.830130e-01,1.749992e-01,10,0,1.478074e-01,1.452819e-01
1.511499e+00,7.002470e-01,6.930828e-01,5,2,2.350314e-01,2.343693e-01
2.407276e+00,9.462420e-01,9.379387e-01,8,3,2.671711e-01,2.655831e-01
2.408549e+00,6.969140e-01,6.811619e-01,8,2,3.704775e-01,3.696505e-01
1.204985e+00,4.300670e-01,4.220009e-01,4,1,2.264965e-01,2.263925e-01
1.211336e+00,7.004470e-01,6.918907e-01,4,2,1.865893e-01,1.860842e-01
2.105065e+00,4.494020e-01,4.339218e-01,7,1,2.781508e-01,2.763558e-01
2.101297e+00,4.338620e-01,4.260540e-01,7,1,3.584726e-01,3.566945e-01
2.103970e+00,4.281620e-01,4.198551e-01,7,1,3.703863e-01,3.696059e-01
2.102232e+00,6.838650e-01,6.761551e-01,7,2,4.535993e-01,4.526720e-01
2.105181e+00,9.251890e-01,9.160042e-01,7,3,4.365859e-01,4.364775e-01
2.424408e+00,9.535060e-01,9.450912e-01,8,3,7.010635e-01,6.904716e-01
3.622525e+00,9.211000e-01,9.140968e-01,12,3,3.037553e-01,2.898262e-01
2.719926e+00,1.842080e-01,1.759529e-01,9,0,2.787358e-01,2.785662e-01
1.212811e+00,1.697810e+00,1.689911e+00,4,6,5.079854e-01,5.011073e-01
2.104023e+00,1.149016e+00,1.141071e+00,7,4,2.811186e-01,2.804866e-01
1.804276e+00,4.344180e-01,4.260540e-01,6,1,3.193456e-01,3.177830e-01
2.402278e+00,4.369750e-01,4.291534e-01,8,1,2.225478e-01,2.207707e-01
3.015708e+00,1.885570e-01,1.811981e-01,10,0,1.205011e-01,1.022094e-01
1.814495e+00,1.840570e-01,1.759529e-01,6,0,2.414564e-01,2.395364e-01
3.018157e+00,1.849370e-01,1.769066e-01,10,0,2.727863e-01,2.560275e-01
3.025179e+00,1.847680e-01,1.769066e-01,10,0,1.868600e-01,1.774883e-01
1.210558e+00,9.595290e-01,9.520054e-01,4,3,4.067022e-01,4.046003e-01
2.101777e+00,6.769120e-01,6.690025e-01,7,2,1.960835e-01,1.959541e-01
1.801422e+00,4.368430e-01,4.281998e-01,6,1,1.337309e-01,1.335464e-01
3.331374e+00,1.885710e-01,1.800060e-01,11,0,1.493565e-01,1.376392e-01
1.206272e+00,1.844710e-01,1.769066e-01,4,0,2.596182e-01,2.580904e-01
1.208815e+00,1.881330e-01,1.797676e-01,4,0,4.186466e-01,4.176989e-01
2.716328e+00,6.994120e-01,6.921291e-01,9,2,5.857600e-01,5.840985e-01
1.209591e+00,1.948211e+00,1.940966e+00,4,7,6.023597e-01,5.985224e-01
2.107460e+00,9.077220e-01,8.988380e-01,7,3,7.684350e-01,7.614006e-01
2.105945e+00,2.116181e+00,2.107859e+00,7,8,3.532473e-01,3.519829e-01
1.516626e+00,1.832850e-01,1.749992e-01,5,0,3.270770e-01,3.261037e-01
1.510490e+00,1.834330e-01,1.759529e-01,5,0,1.932263e-01,1.928495e-01
1.208576e+00,1.895110e-01,1.809597e-01,4,0,1.677124e-01,1.667829e-01
1.502297e+00,9.551250e-01,9.481907e-01,5,3,3.633140e-01,3.557022e-01
2.107951e+00,4.318830e-01,4.241467e-01,7,1,4.668022e-01,4.662893e-01
2.109046e+00,6.997840e-01,6.921291e-01,7,2,4.834158e-01,4.815846e-01
1.807639e+00,6.664220e-01,6.589890e-01,6,2,4.013540e-01,3.953016e-01
2.103825e+00,4.340160e-01,4.260540e-01,7,1,4.511741e-01,4.499098e-01
2.103148e+00,1.208452e+00,1.200914e+00,7,4,5.934322e-01,5.896988e-01
2.112102e+00,4.263230e-01,4.189014e-01,7,1,6.750669e-01,6.738411e-01
2.403962e+00,1.164058e+00,1.155853e+00,8,4,4.802937e-01,4.782784e-01
2.119225e+00,1.882760e-01,1.800060e-01,7,0,4.094307e-01,4.094158e-01
1.209685e+00,4.478920e-01,4.398823e-01,4,1,5.487926e-01,5.484999e-01
1.206314e+00,4.364450e-01,4.291534e-01,4,1,2.884492e-01,2.879953e-01
2.114867e+00,4.476100e-01,4.401207e-01,7,1,2.407369e-01,2.404929e-01
1.211035e+00,6.899820e-01,6.809235e-01,4,2,3.674093e-01,3.657924e-01
1.510727e+00,4.302550e-01,4.220009e-01,5,1,4.909233e-01,4.907543e-01
1.508183e+00,4.402790e-01,4.329681e-01,5,1,6.900389e-01,6.895680e-01
1.206006e+00,4.302280e-01,4.220009e-01,4,1,2.574341e-01,2.569369e-01
1.814708e+00,7.011640e-01,6.928444e-01,6,2,2.622139e-01,2.620733e-01
2.102624e+00,6.921790e-01,6.840229e-01,7,2,3.159821e-01,3.140221e-01
2.102212e+00,9.303090e-01,9.231567e-01,7,3,3.721337e-01,3.711522e-01
3.014960e+00,9.236250e-01,9.150505e-01,10,3,3.203282e-01,3.116364e-01
2.099123e+00,4.445560e-01,4.370213e-01,7,1,3.475523e-01,3.471379e-01
1.808248e+00,4.445300e-01,4.370213e-01,6,1,2.597466e-01,2.565963e-01
1.510331e+00,4.281860e-01,4.200935e-01,5,1,1.881988e-01,1.878732e-01

