4.575266e+00,2.451568e+03,2.450121e+03,2,1000,0.000000e+00,-3.252607e-18,0
6.783667e+00,8.498969e+01,8.491206e+01,3,42,7.641814e-01,7.641832e-01,1
6.790914e+00,2.359788e+00,2.301693e+00,3,0,6.261037e+00,6.261049e+00,1
6.714605e+00,2.367115e+00,2.317190e+00,3,0,1.837217e+00,1.837214e+00,1
6.744501e+00,1.089814e+01,1.082969e+01,3,2,1.490163e+01,3.029714e+01,0
1.341846e+01,7.848233e+00,7.778645e+00,6,0,2.152364e+01,5.847057e+01,0
1.333591e+01,7.818025e+00,7.746935e+00,6,0,2.913455e+01,7.280941e+01,0
8.999520e+00,7.979918e+00,7.910013e+00,4,0,2.332035e+01,4.693186e+01,0
1.336306e+01,7.781805e+00,7.711649e+00,6,0,3.673913e+01,8.207909e+01,0
8.914286e+00,7.825684e+00,7.757902e+00,4,0,3.334557e+01,6.422557e+01,0
1.342718e+01,9.879331e+00,9.805918e+00,6,1,3.404942e+01,5.538411e+01,0
8.939008e+00,1.404033e+01,1.397610e+01,4,4,2.589505e+01,2.664207e+01,0
8.947078e+00,7.762098e+00,7.695913e+00,4,0,3.725604e+01,5.821475e+01,0
1.335661e+01,7.719541e+00,7.652760e+00,6,0,5.456907e+01,1.202442e+02,0
1.342754e+01,7.703393e+00,7.631063e+00,6,0,5.656672e+01,1.225641e+02,0
1.561804e+01,7.820823e+00,7.750034e+00,7,0,6.009161e+01,1.183326e+02,0
1.336514e+01,7.780136e+00,7.700920e+00,6,0,7.157640e+01,1.354186e+02,0
1.123629e+01,7.519073e+00,7.449627e+00,5,0,5.473528e+01,7.631509e+01,0
8.926555e+00,1.088406e+01,1.081610e+01,4,2,4.428523e+01,4.698215e+01,0
9.012183e+00,2.361625e+01,2.354980e+01,4,9,4.023841e+01,4.085536e+01,0
1.336203e+01,7.740910e+00,7.671118e+00,6,0,4.403092e+01,4.692690e+01,0
9.031353e+00,1.517666e+01,1.512194e+01,4,7,3.546382e+01,3.548287e+01,1
6.718926e+00,1.357160e+01,1.349330e+01,3,3,3.745752e+01,4.057706e+01,0
6.886004e+00,1.204152e+01,1.198602e+01,3,5,3.318030e+01,3.318996e+01,1
6.793218e+00,3.451599e+01,3.446198e+01,3,17,2.755400e+01,2.764882e+01,1
6.736238e+00,3.398679e+01,3.392911e+01,3,17,2.678951e+01,2.687045e+01,1
6.704307e+00,1.395405e+01,1.390004e+01,3,6,2.234874e+01,2.239178e+01,1
8.939393e+00,1.908914e+01,1.901293e+01,4,6,2.349704e+01,5.433755e+01,0
1.333639e+01,7.705306e+00,7.632256e+00,6,0,2.322407e+01,6.737566e+01,0
1.336267e+01,7.912918e+00,7.846117e+00,6,0,1.903336e+01,6.071143e+01,0
1.336261e+01,7.837206e+00,7.768869e+00,6,0,1.445121e+01,4.094820e+01,0
1.344355e+01,7.800223e+00,7.733822e+00,6,0,1.538585e+01,3.834911e+01,0
1.121584e+01,3.117580e+01,3.110313e+01,5,13,1.053013e+01,2.482705e+01,0
6.743361e+00,2.903432e+01,2.897429e+01,3,14,8.793916e+00,9.027718e+00,1
1.344230e+01,1.144489e+01,1.137829e+01,6,2,1.174273e+01,2.706986e+01,0
1.335668e+01,1.669664e+01,1.662755e+01,6,5,1.092003e+01,2.332122e+01,0
1.376392e+01,7.775177e+00,7.706165e+00,6,0,1.276525e+01,2.855810e+01,0
1.149439e+01,8.084964e+00,8.014917e+00,5,0,2.084276e+01,6.147422e+01,0
1.374497e+01,8.037628e+00,7.973194e+00,6,0,2.390478e+01,5.705990e+01,0
1.115987e+01,5.328464e+01,5.322790e+01,5,27,1.215391e+01,1.233564e+01,1
6.728680e+00,3.531369e+01,3.525996e+01,3,18,1.283997e+01,1.292482e+01,1
1.350109e+01,2.949259e+01,2.943802e+01,6,15,1.398429e+01,1.415727e+01,1
8.955450e+00,2.552254e+01,2.545929e+01,4,13,1.102844e+01,1.112031e+01,1
1.340187e+01,1.078688e+01,1.073098e+01,6,4,1.214723e+01,1.222194e+01,1
8.954064e+00,8.294539e+00,8.232117e+00,4,3,1.081867e+01,1.087539e+01,1
6.735508e+00,8.718758e+00,8.657932e+00,3,3,1.269659e+01,1.283575e+01,1
6.710412e+00,6.360279e+00,6.298065e+00,3,2,9.167661e+00,9.188804e+00,1
6.777811e+00,4.110008e+01,4.104614e+01,3,20,1.792884e+01,1.808055e+01,1
8.923941e+00,2.018161e+01,2.013278e+01,4,10,1.282669e+01,1.287081e+01,1
6.722428e+00,3.018691e+01,3.012991e+01,3,14,1.827427e+01,1.857156e+01,1
8.956601e+00,4.983325e+01,4.977584e+01,4,26,2.150320e+01,2.205185e+01,1
1.334727e+01,2.513694e+01,2.506614e+01,6,9,2.714484e+01,3.879860e+01,0
1.369961e+01,7.572571e+00,7.507801e+00,6,0,2.854601e+01,3.355162e+01,0
1.342011e+01,6.905767e+01,6.899309e+01,6,38,1.806683e+01,1.806452e+01,1
8.975155e+00,6.666950e+00,6.614208e+00,4,2,1.487194e+01,1.487218e+01,1
6.743820e+00,8.309597e+00,8.252144e+00,3,3,1.659688e+01,1.659855e+01,1
6.688511e+00,8.288514e+00,8.231878e+00,3,3,1.420374e+01,1.420500e+01,1
6.749157e+00,1.123882e+01,1.118612e+01,3,4,1.563153e+01,1.569001e+01,1
1.118333e+01,1.553040e+01,1.547194e+01,5,7,1.441094e+01,1.441744e+01,1
8.924952e+00,1.348332e+01,1.341510e+01,4,3,1.104033e+01,1.765022e+01,0
6.749055e+00,1.022195e+01,1.016808e+01,3,4,9.205844e+00,9.211022e+00,1
6.713833e+00,1.197684e+01,1.190329e+01,3,2,1.292484e+01,3.647541e+01,0
8.981063e+00,1.592576e+01,1.586986e+01,4,7,8.644363e+00,8.643171e+00,1
8.930493e+00,7.481112e+00,7.414103e+00,4,3,7.078627e+00,7.079045e+00,1
6.726143e+00,4.961530e+00,4.907131e+00,3,1,6.561636e+00,6.561965e+00,1
6.738755e+00,8.135998e+00,8.076191e+00,3,3,9.984820e+00,9.984907e+00,1
6.746531e+00,4.165137e+00,4.112005e+00,3,1,5.589726e+00,5.589715e+00,1
6.723268e+00,8.225804e+00,8.162975e+00,3,3,9.047099e+00,9.052037e+00,1
1.341228e+01,2.588311e+01,2.581596e+01,6,9,1.419202e+01,2.139405e+01,0
1.335875e+01,4.584356e+01,4.578495e+01,6,23,1.536095e+01,1.549063e+01,1
8.956675e+00,3.651390e+01,3.645968e+01,4,18,1.010240e+01,1.014747e+01,1
6.711766e+00,1.080672e+01,1.075125e+01,3,4,1.111659e+01,1.113320e+01,1
6.758371e+00,8.070006e+00,8.013964e+00,3,3,8.528144e+00,8.534203e+00,1
6.740400e+00,7.875077e+00,7.806778e+00,3,0,1.057766e+01,1.595303e+01,0
8.920991e+00,7.875527e+00,7.805824e+00,4,0,1.322612e+01,2.866825e+01,0
9.009469e+00,1.314925e+01,1.309419e+01,4,5,9.714004e+00,9.761920e+00,1
6.716416e+00,8.017935e+00,7.950306e+00,3,0,1.260069e+01,3.931100e+01,0
1.114896e+01,1.160903e+01,1.154041e+01,5,2,9.591969e+00,2.367533e+01,0
8.943539e+00,9.807902e+00,9.752989e+00,4,4,9.582229e+00,9.609656e+00,1
6.707745e+00,4.067881e+00,4.009008e+00,3,1,7.546772e+00,7.546751e+00,1
6.745767e+00,2.232494e+00,2.182007e+00,3,0,5.479777e+00,5.479767e+00,1
6.751348e+00,9.714789e+00,9.640455e+00,3,1,6.756153e+00,7.814310e+00,0
6.726849e+00,8.003625e+00,7.935762e+00,3,0,1.441564e+01,4.908772e+01,0
1.336029e+01,7.906872e+00,7.839918e+00,6,0,1.861915e+01,5.210231e+01,0
1.337917e+01,7.925004e+00,7.848024e+00,6,0,2.737450e+01,7.309401e+01,0
1.339128e+01,1.327379e+01,1.319695e+01,6,3,2.399522e+01,4.934919e+01,0
1.339783e+01,1.340441e+01,1.334906e+01,6,6,1.076853e+01,1.076583e+01,1
1.115467e+01,1.441262e+01,1.435208e+01,5,6,8.550836e+00,8.561699e+00,1
6.744733e+00,8.281553e+00,8.227825e+00,3,3,6.873506e+00,6.879335e+00,1
6.751975e+00,2.953715e+01,2.946687e+01,3,11,1.102268e+01,2.122112e+01,0
1.340452e+01,7.794949e+00,7.723808e+00,6,0,1.244152e+01,2.972184e+01,0
1.344996e+01,1.146409e+01,1.139402e+01,6,2,1.216812e+01,2.913829e+01,0
1.340488e+01,7.885344e+00,7.816076e+00,6,0,2.544483e+01,7.793653e+01,0
8.995885e+00,3.266763e+01,3.261304e+01,4,16,1.157091e+01,1.173984e+01,1
9.172783e+00,1.812113e+01,1.806712e+01,4,9,6.827904e+00,6.827903e+00,1
6.930792e+00,2.565920e+00,2.501965e+00,3,0,5.211379e+00,5.211384e+00,1
6.869432e+00,2.482705e+00,2.427101e+00,3,0,4.500724e+00,4.500726e+00,1
6.922571e+00,3.927913e+00,3.875256e+00,3,1,5.710976e+00,5.710632e+00,1
9.161931e+00,3.682295e+00,3.628016e+00,4,1,4.663107e+00,4.663108e+00,1
6.994700e+00,8.646304e+00,8.592129e+00,3,3,5.497295e+00,5.501338e+00,1
1.372535e+01,2.825096e+00,2.773046e+00,6,0,6.539662e+00,6.554729e+00,1
1.147867e+01,2.549330e+01,2.542400e+01,5,9,1.087704e+01,1.326253e+01,0
1.391725e+01,7.944042e+00,7.878065e+00,6,0,2.158144e+01,5.289951e+01,0
1.149812e+01,1.360458e+01,1.354814e+01,5,6,1.152219e+01,1.151767e+01,1
9.227008e+00,7.422352e+00,7.367134e+00,4,3,1.015823e+01,1.015703e+01,1
1.373644e+01,7.718417e+00,7.645845e+00,6,1,1.503217e+01,2.272810e+01,0
9.217747e+00,7.706707e+00,7.652044e+00,4,3,1.155287e+01,1.155745e+01,1
6.914256e+00,2.928505e+00,2.871037e+00,3,0,9.651100e+00,9.651875e+00,1
6.916380e+00,4.049937e+00,3.998041e+00,3,1,6.999472e+00,6.999471e+00,1
6.876559e+00,2.360811e+00,2.302170e+00,3,0,6.168003e+00,6.168005e+00,1
6.877155e+00,2.317791e+00,2.264023e+00,3,0,5.198390e+00,5.198392e+00,1
6.924871e+00,4.812516e+00,4.754782e+00,3,1,4.841088e+00,4.859532e+00,1
6.881807e+00,2.805305e+00,2.755165e+00,3,0,5.197323e+00,5.220849e+00,1
6.916385e+00,6.576226e+00,6.519794e+00,3,2,4.898880e+00,4.958636e+00,1
6.900935e+00,3.971774e+00,3.921032e+00,3,1,2.931471e+00,2.931475e+00,1
6.912639e+00,6.624518e+00,6.570101e+00,3,2,3.548437e+00,3.550945e+00,1
6.904387e+00,5.040245e+00,4.986048e+00,3,1,4.648577e+00,4.682682e+00,1
6.909871e+00,1.109897e+01,1.104498e+01,3,4,3.481552e+00,3.492292e+00,1
6.912288e+00,2.911706e+00,2.857924e+00,3,0,5.015725e+00,5.063684e+00,1
6.900509e+00,5.814616e+00,5.749941e+00,3,2,3.922453e+00,3.922016e+00,1
6.881053e+00,2.293840e+00,2.243042e+00,3,0,4.808791e+00,4.808819e+00,1
6.910269e+00,2.340343e+00,2.288103e+00,3,0,3.994225e+00,3.994193e+00,1
6.878558e+00,2.355155e+00,2.294064e+00,3,0,4.698897e+00,4.698867e+00,1
6.901906e+00,2.359912e+00,2.307653e+00,3,0,3.859237e+00,3.859241e+00,1
6.900952e+00,2.343899e+00,2.290010e+00,3,0,3.866574e+00,3.866577e+00,1
6.904441e+00,6.927874e+00,6.875038e+00,3,2,3.218110e+00,3.220013e+00,1
6.907540e+00,2.891347e+00,2.837896e+00,3,0,3.107638e+00,3.128523e+00,1
6.912165e+00,4.730007e+00,4.674196e+00,3,1,3.534149e+00,3.550307e+00,1
6.901369e+00,2.911964e+00,2.857924e+00,3,0,2.082057e+00,2.082601e+00,1
6.913563e+00,4.206302e+00,4.143715e+00,3,1,1.966756e+00,1.966759e+00,1
6.905169e+00,2.511491e+00,2.460003e+00,3,0,4.037156e+00,4.037166e+00,1
6.917059e+00,4.617529e+00,4.565239e+00,3,1,2.688933e+00,2.688938e+00,1
6.937685e+00,1.926145e+01,1.920295e+01,3,8,8.056623e+00,8.112259e+00,1
9.099272e+00,1.565150e+01,1.558614e+01,4,7,2.861274e+00,2.879974e+00,1
6.732554e+00,7.213308e+00,7.158756e+00,3,2,5.759227e+00,5.761635e+00,1
6.746115e+00,6.593584e+00,6.533146e+00,3,2,5.384933e+00,5.386308e+00,1
8.949327e+00,1.115839e+01,1.110315e+01,4,4,2.879384e+00,2.882862e+00,1
6.723720e+00,7.580812e+00,7.524967e+00,3,2,3.919000e+00,3.953838e+00,1
6.720519e+00,8.260961e+00,8.198977e+00,3,3,3.831110e+00,3.831123e+00,1
6.723701e+00,2.307404e+00,2.255917e+00,3,0,2.687699e+00,2.687699e+00,1
6.712761e+00,2.249737e+00,2.197981e+00,3,0,3.631307e+00,3.631314e+00,1
6.702557e+00,2.228286e+00,2.177000e+00,3,0,5.715959e+00,5.715966e+00,1
6.751043e+00,2.431037e+00,2.377033e+00,3,0,4.237811e+00,4.237812e+00,1
6.743819e+00,4.752049e+00,4.697084e+00,3,1,7.678812e+00,7.678792e+00,1
6.718275e+00,4.213112e+00,4.159927e+00,3,1,3.558733e+00,3.558748e+00,1
6.703623e+00,4.728000e+00,4.667997e+00,3,1,2.757119e+00,2.757649e+00,1
6.708232e+00,3.975456e+00,3.919840e+00,3,1,2.821776e+00,2.821779e+00,1
6.702231e+00,4.423716e+00,4.368782e+00,3,1,2.116336e+00,2.118289e+00,1
6.752627e+00,4.296705e+00,4.242897e+00,3,1,1.576823e+00,1.576824e+00,1
6.714331e+00,6.459346e+00,6.407022e+00,3,2,6.699623e+00,6.734665e+00,1
6.712049e+00,2.751086e+00,2.689838e+00,3,0,3.894277e+00,3.897691e+00,1
6.732766e+00,4.423136e+00,4.371881e+00,3,1,5.762931e+00,5.763868e+00,1
1.337924e+01,1.653723e+01,1.648307e+01,6,7,8.810288e+00,8.881720e+00,1
8.968163e+00,2.544417e+01,2.538896e+01,4,12,1.420733e+01,1.489534e+01,1
1.341322e+01,3.012991e+01,3.004599e+01,6,12,2.679875e+01,4.100612e+01,0
1.559305e+01,7.898655e+00,7.829189e+00,7,0,5.836716e+01,1.323687e+02,0
1.118637e+01,7.852012e+00,7.785797e+00,5,0,3.970276e+01,7.883512e+01,0
1.341018e+01,4.777463e+01,4.770780e+01,6,22,3.878016e+01,7.566698e+01,0
1.337099e+01,7.682903e+00,7.620096e+00,6,0,3.994653e+01,7.966490e+01,0
1.337970e+01,4.036698e+01,4.029894e+01,6,18,4.696784e+01,1.008193e+02,0
1.343516e+01,7.578533e+00,7.515430e+00,6,0,3.420230e+01,6.001357e+01,0
1.341725e+01,6.513025e+01,6.505513e+01,6,32,3.522708e+01,7.866085e+01,0
1.113405e+01,5.082148e+01,5.075717e+01,5,24,2.934519e+01,4.780582e+01,0
1.336763e+01,7.967772e+00,7.891655e+00,6,0,2.779573e+01,3.377802e+01,0
1.114846e+01,5.077354e+01,5.071998e+01,5,27,2.136260e+01,2.141064e+01,1
1.122861e+01,1.890593e+01,1.885319e+01,5,9,1.915274e+01,1.915492e+01,1
6.696400e+00,5.937889e+00,5.879164e+00,3,2,1.714638e+01,1.714637e+01,1
6.746758e+00,6.654294e+00,6.599903e+00,3,2,1.390058e+01,1.397842e+01,1
6.735011e+00,5.144053e+00,5.090714e+00,3,1,1.383489e+01,1.400168e+01,1
6.712296e+00,1.189935e+01,1.183200e+01,3,2,1.275804e+01,1.377623e+01,0
6.753985e+00,8.011521e+00,7.944107e+00,3,0,1.402860e+01,3.471328e+01,0
1.124148e+01,7.879251e+00,7.805109e+00,5,0,1.143803e+01,2.604122e+01,0
8.989811e+00,1.200693e+01,1.195192e+01,4,5,6.273715e+00,6.273712e+00,1
6.712384e+00,4.358021e+00,4.303932e+00,3,1,6.531738e+00,6.531774e+00,1
6.720327e+00,3.954478e+00,3.899097e+00,3,1,5.771019e+00,5.770899e+00,1
6.721615e+00,2.480138e+00,2.425194e+00,3,0,4.520173e+00,4.520171e+00,1
6.720033e+00,2.408434e+00,2.351999e+00,3,0,3.856730e+00,3.856728e+00,1
6.667466e+00,2.238375e+00,2.186060e+00,3,0,4.842583e+00,4.842592e+00,1
6.706998e+00,4.582917e+00,4.523039e+00,3,1,4.403005e+00,4.403073e+00,1
6.910467e+00,4.211627e+00,4.156113e+00,3,1,3.636558e+00,3.636560e+00,1
6.893233e+00,2.546807e+00,2.494097e+00,3,0,3.780475e+00,3.780478e+00,1
6.887444e+00,2.411477e+00,2.347946e+00,3,0,4.593143e+00,4.593148e+00,1
6.907932e+00,8.991436e+00,8.941889e+00,3,3,3.312398e+00,3.343487e+00,1
6.923878e+00,4.831047e+00,4.774809e+00,3,1,3.300208e+00,3.350031e+00,1
6.931360e+00,3.011685e+00,2.954721e+00,3,0,3.498978e+00,3.571478e+00,1
6.931021e+00,7.344645e+00,7.288933e+00,3,2,4.735097e+00,4.764338e+00,1
6.888941e+00,2.820307e+00,2.767801e+00,3,0,4.499168e+00,4.519006e+00,1
6.900811e+00,4.198725e+00,4.145145e+00,3,1,4.992678e+00,4.992681e+00,1
6.907176e+00,6.261001e+00,6.188393e+00,3,0,7.228877e+00,9.516360e+00,0
6.897251e+00,2.395412e+00,2.340794e+00,3,0,3.046699e+00,3.046695e+00,1
6.894197e+00,2.470297e+00,2.417088e+00,3,0,2.662139e+00,2.662141e+00,1
6.897563e+00,2.353943e+00,2.301216e+00,3,0,3.554583e+00,3.554589e+00,1
6.889761e+00,2.365123e+00,2.302170e+00,3,0,4.765279e+00,4.765284e+00,1
6.918335e+00,7.034597e+00,6.981134e+00,3,2,1.020154e+01,1.020157e+01,1
6.952259e+00,1.046304e+01,1.040196e+01,3,4,8.196388e+00,8.196918e+00,1
6.914636e+00,7.317745e+00,7.261038e+00,3,2,5.694737e+00,5.698678e+00,1
9.227395e+00,1.795626e+01,1.788783e+01,4,5,1.280101e+01,1.586293e+01,0
1.375069e+01,1.031375e+01,1.024199e+01,6,1,1.606301e+01,2.534358e+01,0
1.380791e+01,8.064477e+00,7.992744e+00,6,0,2.626290e+01,5.191900e+01,0
1.373673e+01,8.127285e+00,8.058786e+00,6,0,3.019440e+01,6.727481e+01,0
1.378200e+01,2.498973e+01,2.492189e+01,6,9,2.790730e+01,4.194889e+01,0
9.183238e+00,1.859612e+01,1.854110e+01,4,9,2.209915e+01,2.209650e+01,1
9.196573e+00,1.756494e+01,1.748991e+01,4,5,2.350706e+01,2.406865e+01,0
9.186544e+00,1.571397e+01,1.565599e+01,4,7,2.495222e+01,2.500592e+01,1
9.189452e+00,1.360976e+01,1.355481e+01,4,6,1.784154e+01,1.783732e+01,1
9.198747e+00,5.644999e+00,5.591154e+00,4,2,1.525920e+01,1.525917e+01,1
6.893395e+00,4.500182e+00,4.449129e+00,3,1,1.542200e+01,1.547293e+01,1
6.929619e+00,1.432696e+01,1.425481e+01,3,3,1.238974e+01,1.895797e+01,0
6.927860e+00,6.553983e+00,6.500006e+00,3,2,1.141578e+01,1.142007e+01,1
6.936903e+00,1.727633e+01,1.721501e+01,3,7,1.039839e+01,1.048759e+01,1
6.929740e+00,1.183026e+01,1.177216e+01,3,5,7.709185e+00,7.720585e+00,1
1.340659e+01,1.963820e+01,1.956725e+01,6,6,1.817811e+01,5.652564e+01,0
1.335444e+01,7.940349e+00,7.871866e+00,6,0,9.948841e+00,1.638831e+01,0
1.342985e+01,7.984257e+00,7.913351e+00,6,0,1.154074e+01,2.853260e+01,0
1.115421e+01,7.605064e+00,7.538795e+00,5,0,1.756689e+01,6.203056e+01,0
1.338408e+01,4.443500e+01,4.437709e+01,6,22,1.027408e+01,1.064480e+01,1
1.117010e+01,3.828266e+01,3.822803e+01,5,20,5.921873e+00,5.912433e+00,1
1.347218e+01,4.520154e+00,4.461050e+00,6,1,6.970851e+00,7.142303e+00,1
6.747491e+00,6.479181e+00,6.426811e+00,3,2,5.741433e+00,5.771939e+00,1
6.724667e+00,4.012209e+00,3.954887e+00,3,1,4.925920e+00,4.925757e+00,1
6.715581e+00,4.713071e+00,4.657984e+00,3,1,5.351979e+00,5.360191e+00,1
6.771521e+00,6.587866e+00,6.534100e+00,3,2,4.088324e+00,4.088324e+00,1
6.686670e+00,2.311104e+00,2.255201e+00,3,0,4.238642e+00,4.238650e+00,1
6.706038e+00,2.379498e+00,2.328157e+00,3,0,3.940713e+00,3.940712e+00,1
6.706272e+00,2.302588e+00,2.248049e+00,3,0,3.461451e+00,3.461453e+00,1
6.737388e+00,4.605614e+00,4.550219e+00,3,1,6.297951e+00,6.299970e+00,1
6.726504e+00,1.091118e+01,1.085687e+01,3,4,1.017253e+01,1.018265e+01,1
6.784763e+00,2.209633e+01,2.204204e+01,3,10,1.177088e+01,1.183193e+01,1
8.962256e+00,2.257429e+01,2.251720e+01,4,11,8.392711e+00,8.394853e+00,1
6.716495e+00,4.245812e+00,4.191637e+00,3,1,7.406423e+00,7.406422e+00,1
6.705192e+00,2.446487e+00,2.395153e+00,3,0,6.962504e+00,6.962518e+00,1
6.788286e+00,6.158556e+00,6.095409e+00,3,0,1.084235e+01,1.345794e+01,0
1.114040e+01,2.271462e+00,2.217054e+00,5,0,7.227876e+00,7.217727e+00,1
8.918321e+00,2.312000e+00,2.259254e+00,4,0,6.287952e+00,6.287858e+00,1
6.707112e+00,2.404254e+00,2.351761e+00,3,0,3.627223e+00,3.627214e+00,1
6.718610e+00,3.742945e+00,3.688097e+00,3,1,3.578936e+00,3.578503e+00,1
1.115915e+01,6.146644e+00,6.090164e+00,5,2,6.399156e+00,6.401099e+00,1
8.983500e+00,2.610628e+01,2.605200e+01,4,12,1.329690e+01,1.343966e+01,1
1.117229e+01,3.614648e+01,3.608394e+01,5,18,1.574912e+01,1.595762e+01,1
8.980344e+00,3.119153e+01,3.113604e+01,4,17,6.849807e+00,6.849087e+00,1
6.768662e+00,4.737501e+00,4.680872e+00,3,1,6.133020e+00,6.133075e+00,1
6.764976e+00,1.057973e+01,1.052094e+01,3,4,7.826482e+00,7.828923e+00,1
1.114523e+01,7.965263e+00,7.899284e+00,5,0,1.547504e+01,4.378318e+01,0
1.342959e+01,7.914598e+00,7.846832e+00,6,0,3.191777e+01,1.014513e+02,0
1.336179e+01,7.898053e+00,7.826328e+00,6,0,3.614989e+01,9.152511e+01,0
1.115860e+01,1.930566e+01,1.924109e+01,5,6,3.496885e+01,8.122204e+01,0
1.334370e+01,7.997220e+00,7.930994e+00,6,0,4.146268e+01,9.408551e+01,0
1.342217e+01,8.024227e+00,7.956028e+00,6,0,4.641970e+01,9.871638e+01,0
1.338479e+01,7.975166e+00,7.900953e+00,6,0,5.343954e+01,1.293492e+02,0
1.339656e+01,1.366087e+01,1.359391e+01,6,3,4.357400e+01,7.723559e+01,0
9.013249e+00,1.695724e+01,1.687622e+01,4,5,3.216174e+01,3.502557e+01,0
6.733880e+00,1.134882e+01,1.127124e+01,3,2,2.708091e+01,2.863293e+01,0
6.752657e+00,1.857917e+01,1.852608e+01,3,8,2.303421e+01,2.308255e+01,1
6.764061e+00,1.355146e+01,1.349211e+01,3,6,2.080215e+01,2.080294e+01,1
6.728684e+00,1.386171e+01,1.380706e+01,3,6,1.791915e+01,1.791948e+01,1
6.721136e+00,2.006983e+01,2.000999e+01,3,9,1.482910e+01,1.496689e+01,1
1.379319e+01,3.320824e+01,3.314328e+01,6,13,1.588781e+01,2.229727e+01,0
1.376609e+01,7.998042e+00,7.919073e+00,6,0,1.913203e+01,3.793459e+01,0
1.376780e+01,8.048429e+00,7.976770e+00,6,0,1.203973e+01,1.303116e+01,0
1.377850e+01,6.123240e+01,6.115866e+01,6,29,1.279548e+01,1.419858e+01,0
1.374936e+01,3.719310e+01,3.714108e+01,6,19,8.689327e+00,8.724255e+00,1
1.378953e+01,3.053640e+01,3.046417e+01,6,11,9.816443e+00,1.714074e+01,0
1.375146e+01,3.300701e+01,3.295302e+01,6,16,8.150459e+00,8.365244e+00,1
1.379462e+01,2.992139e+01,2.985001e+01,6,11,9.668067e+00,1.308588e+01,0
1.147578e+01,4.355598e+01,4.349017e+01,5,19,1.090664e+01,1.330784e+01,0
1.375731e+01,3.911447e+01,3.905320e+01,6,20,6.649437e+00,6.709747e+00,1
6.924847e+00,3.656897e+01,3.651500e+01,3,17,1.046689e+01,1.066482e+01,1
1.378577e+01,2.759378e+01,2.751136e+01,6,10,1.307248e+01,1.649325e+01,0
1.114998e+01,3.806241e+01,3.800797e+01,5,20,9.109385e+00,9.121307e+00,1
1.340981e+01,8.185705e+00,8.128881e+00,6,3,7.171887e+00,7.160435e+00,1
9.002849e+00,1.672472e+01,1.667023e+01,4,7,8.434052e+00,8.473099e+00,1
9.005658e+00,1.128512e+01,1.122499e+01,4,5,4.833162e+00,4.833162e+00,1
6.735496e+00,8.637767e+00,8.581877e+00,3,3,8.183170e+00,8.206435e+00,1
6.724693e+00,4.980247e+00,4.925966e+00,3,1,1.054857e+01,1.064402e+01,1
8.931608e+00,4.927869e+00,4.871845e+00,4,1,1.104309e+01,1.108835e+01,1
6.721571e+00,4.255574e+01,4.248738e+01,3,18,2.234494e+01,3.310942e+01,0
8.946859e+00,3.121913e+01,3.116322e+01,4,16,1.583183e+01,1.609437e+01,1
8.962092e+00,1.592747e+01,1.586986e+01,4,7,1.379940e+01,1.379907e+01,1
1.338872e+01,1.247449e+01,1.241994e+01,6,5,1.423011e+01,1.423273e+01,1
1.342147e+01,2.121848e+01,2.116108e+01,6,10,1.838772e+01,1.841168e+01,1
8.975011e+00,1.967561e+01,1.960897e+01,4,9,1.073945e+01,1.074737e+01,1
6.730638e+00,1.732095e+01,1.724911e+01,3,5,1.168438e+01,1.833914e+01,0
1.340387e+01,1.323572e+01,1.317000e+01,6,3,1.165136e+01,2.483823e+01,0
1.335458e+01,2.411439e+01,2.404690e+01,6,9,1.385413e+01,3.737817e+01,0
1.333220e+01,8.054363e+00,7.977009e+00,6,0,1.387860e+01,3.521003e+01,0
1.334384e+01,7.831457e+00,7.754803e+00,6,0,1.377343e+01,4.004701e+01,0
1.341723e+01,7.960301e+00,7.883072e+00,6,0,1.597201e+01,4.792943e+01,0
1.114844e+01,1.983485e+01,1.976681e+01,5,8,9.980413e+00,2.168550e+01,0
1.356130e+01,1.915623e+01,1.908708e+01,6,6,8.140276e+00,1.106732e+01,0
1.343333e+01,8.893852e+00,8.836031e+00,6,3,7.136086e+00,7.193024e+00,1
1.338432e+01,1.236293e+01,1.230288e+01,6,6,3.889644e+00,3.885808e+00,1
6.710092e+00,2.381654e+00,2.320051e+00,3,0,8.147695e+00,8.147757e+00,1
6.751877e+00,4.604894e+00,4.551172e+00,3,1,5.320293e+00,5.336995e+00,1
6.724773e+00,7.419674e+00,7.363081e+00,3,2,5.144802e+00,5.183525e+00,1
8.981369e+00,4.177387e+01,4.170513e+01,4,17,1.738722e+01,3.650857e+01,0
1.338979e+01,4.629060e+01,4.622102e+01,6,21,1.482547e+01,1.643900e+01,0
1.340507e+01,2.118760e+01,2.111912e+01,6,7,1.467675e+01,2.058057e+01,0
8.948114e+00,7.776442e+00,7.684946e+00,4,0,1.513806e+01,2.382657e+01,0
1.339772e+01,5.234875e+01,5.228519e+01,6,28,1.016024e+01,1.041623e+01,1
1.340325e+01,2.925334e+01,2.916765e+01,6,11,1.598868e+01,2.948537e+01,0
1.340696e+01,2.213458e+01,2.207994e+01,6,11,9.007818e+00,9.029819e+00,1
9.238406e+00,8.599893e+00,8.536816e+00,4,3,5.695065e+00,5.728389e+00,1
6.914340e+00,4.374824e+00,4.317284e+00,3,1,5.714361e+00,5.714365e+00,1
6.910090e+00,2.380223e+00,2.326965e+00,3,0,5.692348e+00,5.692341e+00,1
6.920009e+00,1.108529e+01,1.102996e+01,3,4,8.573791e+00,8.595754e+00,1
6.949011e+00,1.217343e+01,1.211524e+01,3,5,7.371327e+00,7.373153e+00,1
6.928174e+00,3.748752e+01,3.743124e+01,3,17,1.562362e+01,1.596914e+01,1
6.916762e+00,4.007917e+01,4.001808e+01,3,20,1.253396e+01,1.258914e+01,1
6.886096e+00,1.435681e+01,1.430488e+01,3,6,1.269810e+01,1.273273e+01,1
6.919936e+00,9.617920e+00,9.567976e+00,3,4,1.192148e+01,1.192139e+01,1
9.225590e+00,6.252427e+01,6.244588e+01,4,28,2.683139e+01,4.092807e+01,0
1.375779e+01,4.751746e+01,4.745698e+01,6,25,1.295017e+01,1.295217e+01,1
9.211962e+00,9.494547e+00,9.439230e+00,4,3,1.392797e+01,1.421500e+01,1
6.926113e+00,2.424400e+01,2.416992e+01,3,8,1.442096e+01,1.739431e+01,0
6.904880e+00,8.219893e+00,8.140802e+00,3,0,1.690538e+01,4.389528e+01,0
1.148684e+01,1.657253e+01,1.651788e+01,5,7,1.002161e+01,1.001822e+01,1
6.909010e+00,6.105308e+00,6.051064e+00,3,2,6.661633e+00,6.661545e+00,1
6.922231e+00,2.373867e+00,2.320051e+00,3,0,5.244174e+00,5.244175e+00,1
6.915004e+00,4.869815e+00,4.805088e+00,3,1,5.897937e+00,5.901152e+00,1
6.907203e+00,8.896735e+00,8.839846e+00,3,3,8.642605e+00,8.658256e+00,1
1.375461e+01,6.844515e+00,6.781101e+00,6,2,1.006935e+01,1.011943e+01,1
1.380270e+01,1.231554e+01,1.224184e+01,6,2,1.171443e+01,1.193765e+01,0
1.131068e+01,1.304837e+01,1.299191e+01,5,5,8.454152e+00,8.496896e+00,1
8.935456e+00,1.139747e+01,1.132703e+01,4,2,2.302065e+01,6.117881e+01,0
1.113387e+01,1.583508e+01,1.576376e+01,5,4,1.599704e+01,2.420230e+01,0
8.998165e+00,1.220938e+01,1.215386e+01,4,5,1.334773e+01,1.348914e+01,1
8.985117e+00,8.452996e+00,8.398056e+00,4,3,8.462850e+00,8.470103e+00,1
6.727138e+00,1.249085e+01,1.240516e+01,3,5,7.440325e+00,7.503024e+00,1
6.740113e+00,1.577727e+01,1.570988e+01,3,4,1.023212e+01,1.575958e+01,0
1.336046e+01,7.989148e+00,7.912636e+00,6,0,1.733396e+01,3.811406e+01,0
1.335381e+01,4.692302e+01,4.685521e+01,6,21,1.500952e+01,2.179690e+01,0
1.338481e+01,7.752539e+00,7.682800e+00,6,0,2.706999e+01,6.120313e+01,0
1.335431e+01,7.808998e+00,7.740021e+00,6,0,2.017064e+01,3.133605e+01,0
1.337489e+01,7.820228e+00,7.752895e+00,6,0,2.887137e+01,6.135318e+01,0
1.338543e+01,7.460041e+00,7.390976e+00,6,0,3.543279e+01,7.042124e+01,0
8.964430e+00,7.615667e+01,7.609677e+01,4,40,1.818453e+01,1.851301e+01,1
8.957437e+00,2.326286e+01,2.321291e+01,4,11,1.484014e+01,1.501338e+01,1
8.928758e+00,1.683533e+01,1.678085e+01,4,8,1.094771e+01,1.105001e+01,1
1.338805e+01,1.906642e+01,1.900911e+01,6,8,1.076003e+01,1.082902e+01,1
1.342363e+01,1.742596e+01,1.737022e+01,6,8,1.042007e+01,1.040215e+01,1
8.946948e+00,1.358297e+01,1.352406e+01,4,6,8.064837e+00,8.141503e+00,1
6.759933e+00,2.107061e+01,2.101302e+01,3,9,1.257608e+01,1.267963e+01,1
8.961720e+00,2.070767e+01,2.065277e+01,4,10,7.769812e+00,7.769812e+00,1
6.729254e+00,1.886409e+01,1.880717e+01,3,8,1.309090e+01,1.322281e+01,1
6.728591e+00,2.119767e+01,2.112913e+01,3,7,1.790892e+01,2.636717e+01,0
8.953254e+00,2.303505e+01,2.298212e+01,4,12,7.417687e+00,7.417679e+00,1
6.715230e+00,2.407895e+00,2.352953e+00,3,0,7.357158e+00,7.357167e+00,1
6.718113e+00,4.741856e+00,4.689217e+00,3,1,6.828922e+00,6.829112e+00,1
6.737361e+00,5.286838e+00,5.218267e+00,3,1,8.615138e+00,8.624466e+00,1
6.721076e+00,1.003160e+01,9.954929e+00,3,1,1.095307e+01,1.908143e+01,0
1.337659e+01,7.910714e+00,7.845163e+00,6,0,1.222912e+01,2.822881e+01,0
1.335130e+01,8.025469e+00,7.957935e+00,6,0,1.126283e+01,1.573191e+01,0
1.120731e+01,1.299757e+01,1.294065e+01,5,5,1.547828e+01,1.563223e+01,1
8.962989e+00,4.987727e+01,4.980183e+01,4,22,2.152528e+01,2.798262e+01,0
8.898557e+00,4.695476e+01,4.688811e+01,4,21,1.603668e+01,1.928075e+01,0
1.115639e+01,3.900442e+01,3.894186e+01,5,20,1.640897e+01,1.648906e+01,1
1.380320e+01,1.297381e+01,1.291609e+01,6,5,1.744620e+01,1.750289e+01,1
9.239701e+00,1.862483e+01,1.856804e+01,4,8,1.521485e+01,1.529805e+01,1
6.925150e+00,1.974894e+01,1.967812e+01,3,6,1.324014e+01,2.083409e+01,0
7.098503e+00,1.315367e+01,1.309609e+01,3,5,1.082101e+01,1.087135e+01,1
6.925380e+00,8.123342e+00,8.049965e+00,3,0,1.560784e+01,5.114033e+01,0
1.379442e+01,8.148232e+00,8.074999e+00,6,0,2.016060e+01,7.438432e+01,0
1.375480e+01,1.793000e+01,1.785803e+01,6,5,1.680924e+01,4.972836e+01,0
1.377024e+01,1.562449e+01,1.555514e+01,6,4,1.577991e+01,3.763914e+01,0
1.377419e+01,8.113201e+00,8.044720e+00,6,0,1.632882e+01,3.807116e+01,0
1.373112e+01,8.275282e+00,8.208990e+00,6,0,1.905933e+01,4.656466e+01,0
1.375572e+01,1.574519e+01,1.567936e+01,6,4,1.971911e+01,3.883660e+01,0
1.374463e+01,1.258878e+01,1.251411e+01,6,4,1.861547e+01,2.727896e+01,0
1.376221e+01,6.109867e+00,6.047010e+00,6,2,1.471753e+01,1.473079e+01,1
9.198670e+00,7.517351e+00,7.462263e+00,4,3,1.024849e+01,1.024848e+01,1
6.932254e+00,4.037349e+00,3.982067e+00,3,1,9.253173e+00,9.252545e+00,1
9.203309e+00,6.250970e+00,6.191254e+00,4,2,1.427127e+01,1.427156e+01,1
6.911671e+00,9.637582e+00,9.558201e+00,3,2,2.189839e+01,3.106338e+01,0
1.147753e+01,1.072244e+01,1.066613e+01,5,4,1.920415e+01,1.922405e+01,1
1.377313e+01,1.277765e+01,1.272392e+01,6,5,1.141514e+01,1.141681e+01,1
9.215876e+00,8.769407e+00,8.712053e+00,4,4,1.506605e+01,1.506478e+01,1
9.214098e+00,6.844380e+00,6.788969e+00,4,3,8.029051e+00,8.029049e+00,1
6.924669e+00,4.886287e+00,4.831076e+00,3,1,7.496849e+00,7.497036e+00,1
6.914735e+00,4.341106e+00,4.287004e+00,3,1,6.010406e+00,6.010408e+00,1
6.909683e+00,2.525214e+00,2.470016e+00,3,0,6.232331e+00,6.232329e+00,1
6.932641e+00,1.702761e+01,1.697326e+01,3,7,8.323491e+00,8.441624e+00,1
1.366083e+01,2.019529e+01,2.011609e+01,6,6,1.424044e+01,3.063881e+01,0
1.345757e+01,3.471980e+01,3.464413e+01,6,14,1.303242e+01,1.720976e+01,0
1.337438e+01,2.270842e+01,2.263522e+01,6,8,1.319366e+01,1.568926e+01,0
1.115934e+01,3.916588e+01,3.911209e+01,5,20,9.581002e+00,9.690960e+00,1
6.792189e+00,2.849424e+01,2.843714e+01,3,13,1.111031e+01,1.144397e+01,1
1.114697e+01,9.846052e+00,9.782791e+00,5,1,1.349712e+01,2.381428e+01,0
1.339430e+01,2.763841e+01,2.756810e+01,6,11,1.385092e+01,2.330494e+01,0
1.116940e+01,4.869469e+01,4.864001e+01,5,25,1.348118e+01,1.392422e+01,1
1.342953e+01,1.746925e+01,1.739883e+01,6,5,1.789302e+01,2.468139e+01,0
1.114986e+01,7.876846e+00,7.809639e+00,5,0,2.526487e+01,4.200303e+01,0
1.120890e+01,7.819863e+00,7.740021e+00,5,0,2.517687e+01,3.438126e+01,0
1.336849e+01,6.103783e+01,6.098080e+01,6,32,2.109897e+01,2.136799e+01,1
9.019194e+00,2.973072e+01,2.967024e+01,4,15,1.662135e+01,1.665303e+01,1
1.334017e+01,1.851184e+01,1.845908e+01,6,8,1.895691e+01,1.901145e+01,1
8.945492e+00,1.730227e+01,1.724720e+01,4,8,1.203959e+01,1.204198e+01,1
6.905182e+00,4.726592e+00,4.665136e+00,3,1,1.042023e+01,1.043847e+01,1
6.726489e+00,1.200660e+01,1.194477e+01,3,2,1.267850e+01,2.594398e+01,0
6.731021e+00,1.248930e+01,1.241803e+01,3,2,1.019811e+01,1.906940e+01,0
6.686086e+00,1.278227e+01,1.272917e+01,3,5,6.471015e+00,6.587138e+00,1
6.769714e+00,7.793977e+00,7.732868e+00,3,2,5.845437e+00,5.914526e+00,1
6.718528e+00,9.646772e+00,9.579182e+00,3,1,5.705055e+00,6.785467e+00,0
6.738320e+00,7.361889e+00,7.306099e+00,3,2,7.803956e+00,7.945128e+00,1
6.730177e+00,6.175058e+00,6.098032e+00,3,2,6.852692e+00,6.953689e+00,1
1.334667e+01,5.441398e+00,5.380154e+00,6,1,6.547632e+00,6.540657e+00,1
8.938132e+00,6.497877e+00,6.440163e+00,4,2,5.070164e+00,5.089767e+00,1
6.735837e+00,6.568403e+00,6.515026e+00,3,2,4.398778e+00,4.398779e+00,1
6.730499e+00,2.238829e+00,2.187967e+00,3,0,4.876707e+00,4.876676e+00,1
6.711857e+00,2.286753e+00,2.233982e+00,3,0,3.481797e+00,3.481755e+00,1
6.693004e+00,2.286423e+00,2.227068e+00,3,0,5.349169e+00,5.349124e+00,1
6.694508e+00,2.475267e+00,2.425194e+00,3,0,4.035177e+00,4.035086e+00,1
6.718800e+00,6.503834e+00,6.443739e+00,3,2,6.138886e+00,6.138732e+00,1
8.950777e+00,1.500778e+01,1.495385e+01,4,6,9.390586e+00,9.457084e+00,1
8.996041e+00,9.804874e+00,9.731770e+00,4,1,1.594946e+01,2.810797e+01,0
1.343791e+01,7.987921e+00,7.923126e+00,6,0,2.023362e+01,5.475828e+01,0
8.943849e+00,1.342192e+01,1.336503e+01,4,6,9.222506e+00,9.222129e+00,1
6.738679e+00,3.839625e+00,3.785133e+00,3,1,1.029835e+01,1.029699e+01,1
1.338572e+01,6.126028e+00,6.059885e+00,6,0,1.424146e+01,2.339155e+01,0
1.335264e+01,9.009084e+00,8.940697e+00,6,2,1.083655e+01,1.192445e+01,0
8.913861e+00,3.838975e+00,3.777027e+00,4,1,8.337315e+00,8.336965e+00,1
6.698336e+00,2.590471e+00,2.534866e+00,3,0,7.567475e+00,7.567471e+00,1
6.706050e+00,2.297062e+00,2.243996e+00,3,0,5.368444e+00,5.368448e+00,1
6.735028e+00,1.012592e+01,1.006603e+01,3,4,8.190118e+00,8.250414e+00,1
1.380152e+01,9.530412e+00,9.474039e+00,6,4,6.895012e+00,6.892424e+00,1
6.944218e+00,1.397752e+01,1.391506e+01,3,6,8.493934e+00,8.492780e+00,1
9.208199e+00,9.332184e+00,9.267807e+00,4,4,6.484400e+00,6.484398e+00,1
6.911404e+00,2.037742e+01,2.030396e+01,3,6,1.066139e+01,1.644043e+01,0
6.931636e+00,8.186810e+00,8.117914e+00,3,0,1.647114e+01,2.840977e+01,0
1.381302e+01,2.201142e+01,2.195597e+01,6,10,9.834263e+00,9.843326e+00,1
1.375866e+01,1.023352e+01,1.017714e+01,6,4,9.773280e+00,9.805626e+00,1
9.176298e+00,6.797113e+00,6.743193e+00,4,2,9.022511e+00,9.099060e+00,1
6.921861e+00,5.566727e+00,5.505085e+00,3,1,7.775448e+00,7.917261e+00,1
6.871596e+00,7.291879e+00,7.236004e+00,3,2,7.396755e+00,7.448124e+00,1
6.930626e+00,1.544541e+01,1.539397e+01,3,6,7.313921e+00,7.429328e+00,1
6.931786e+00,3.813672e+01,3.806400e+01,3,15,1.216432e+01,2.324999e+01,0
1.377594e+01,8.085239e+00,8.013964e+00,6,0,1.067959e+01,1.216786e+01,0
9.219731e+00,6.651309e+01,6.645703e+01,4,33,1.109172e+01,1.142202e+01,1
1.605140e+01,4.168653e+01,4.162216e+01,7,21,5.529747e+00,5.555873e+00,1
9.207480e+00,8.685175e+00,8.630991e+00,4,3,3.969990e+00,3.969991e+00,1
6.900501e+00,2.352280e+00,2.295971e+00,3,0,4.715102e+00,4.714620e+00,1
9.193859e+00,1.092917e+01,1.087618e+01,4,4,5.508727e+00,5.522528e+00,1
1.147889e+01,1.288951e+01,1.283407e+01,5,5,5.515635e+00,5.498291e+00,1
9.187666e+00,2.478625e+00,2.423048e+00,4,0,7.186692e+00,7.186696e+00,1
6.892811e+00,2.454253e+00,2.399206e+00,3,0,7.488313e+00,7.488313e+00,1
6.901491e+00,3.718745e+00,3.668070e+00,3,1,6.225033e+00,6.224733e+00,1
9.213645e+00,3.967635e+00,3.908157e+00,4,1,6.636467e+00,6.636425e+00,1
6.777930e+00,2.406381e+00,2.351999e+00,3,0,6.433462e+00,6.433506e+00,1
6.751231e+00,2.357699e+00,2.299786e+00,3,0,4.302642e+00,4.302650e+00,1
6.719208e+00,2.317066e+00,2.263069e+00,3,0,6.249358e+00,6.249371e+00,1
6.740642e+00,2.367029e+00,2.312899e+00,3,0,4.782468e+00,4.782473e+00,1
9.033969e+00,1.788981e+01,1.781797e+01,4,5,1.652226e+01,3.538782e+01,0
1.339929e+01,8.019459e+00,7.952213e+00,6,0,2.311001e+01,6.574100e+01,0
1.336149e+01,7.588096e+00,7.519007e+00,6,0,2.014893e+01,5.110038e+01,0
1.337641e+01,7.984939e+00,7.913113e+00,6,0,2.661953e+01,7.295654e+01,0
1.337332e+01,8.048546e+00,7.982016e+00,6,0,3.039617e+01,9.251595e+01,0
8.930174e+00,1.843321e+01,1.835775e+01,4,6,1.566883e+01,3.002552e+01,0
6.717567e+00,6.365378e+00,6.307125e+00,3,2,1.293915e+01,1.295608e+01,1
6.714179e+00,9.079338e+00,9.021997e+00,3,3,1.014390e+01,1.015722e+01,1
6.790724e+00,5.057706e+01,5.052495e+01,3,25,1.284117e+01,1.355904e+01,1
1.343400e+01,2.931038e+01,2.923703e+01,6,12,1.515365e+01,2.310506e+01,0
1.345197e+01,5.298486e+01,5.293107e+01,6,28,9.451338e+00,9.505975e+00,1
1.340449e+01,2.419349e+01,2.413797e+01,6,12,8.182646e+00,8.205058e+00,1
1.338174e+01,1.961366e+01,1.953888e+01,6,6,9.173229e+00,1.100131e+01,0
8.954675e+00,2.000122e+01,1.994705e+01,4,10,5.950368e+00,5.949565e+00,1
8.943022e+00,5.330272e+00,5.275965e+00,4,2,7.173100e+00,7.171014e+00,1
1.344709e+01,1.266072e+01,1.260281e+01,6,5,1.004237e+01,1.004514e+01,1
8.985716e+00,1.572170e+01,1.566100e+01,4,7,9.622542e+00,9.630793e+00,1
6.727511e+00,1.138302e+01,1.132917e+01,3,4,9.627307e+00,9.631397e+00,1
6.746779e+00,3.378879e+01,3.371787e+01,3,13,2.018657e+01,5.198854e+01,0
1.344236e+01,7.797421e+00,7.730246e+00,6,0,2.055285e+01,4.955146e+01,0
1.336236e+01,7.858325e+00,7.786036e+00,6,0,2.191829e+01,4.673645e+01,0
1.337812e+01,9.737416e+00,9.669065e+00,6,1,2.420041e+01,4.762084e+01,0
1.335945e+01,5.520575e+01,5.513525e+01,6,26,1.779692e+01,2.400059e+01,0
9.010789e+00,2.575197e+01,2.569509e+01,4,12,1.381011e+01,1.403900e+01,1
6.753728e+00,1.379439e+01,1.374078e+01,3,6,1.043958e+01,1.044255e+01,1
6.789943e+00,9.963940e+00,9.908199e+00,3,4,9.022524e+00,9.022552e+00,1
6.716587e+00,6.486233e+00,6.425858e+00,3,2,9.547622e+00,9.550503e+00,1
6.709013e+00,4.254169e+00,4.199982e+00,3,1,8.453470e+00,8.453451e+00,1
6.721759e+00,6.719253e+00,6.659985e+00,3,2,7.715556e+00,7.728152e+00,1
6.789103e+00,1.350903e+01,1.343870e+01,3,3,8.007012e+00,8.062159e+00,0
1.335381e+01,7.909719e+00,7.844925e+00,6,0,1.194375e+01,2.246276e+01,0
1.336352e+01,7.933005e+00,7.860899e+00,6,0,1.324878e+01,3.101989e+01,0
1.335101e+01,7.910365e+00,7.837057e+00,6,0,2.210121e+01,7.100071e+01,0
1.337240e+01,8.055441e+00,7.984638e+00,6,0,3.128353e+01,1.045810e+02,0
1.360955e+01,8.054566e+00,7.983923e+00,6,0,3.594119e+01,1.098372e+02,0
1.375888e+01,8.177980e+00,8.103848e+00,6,0,3.470166e+01,9.642334e+01,0
1.149880e+01,8.286553e+00,8.218050e+00,5,0,2.756516e+01,6.128207e+01,0
9.170982e+00,1.179529e+01,1.172209e+01,4,3,2.463099e+01,5.716430e+01,0
1.393978e+01,6.295914e+00,6.231070e+00,6,0,3.201656e+01,9.009787e+01,0
1.150650e+01,6.441011e+00,6.373882e+00,5,0,3.587581e+01,9.563249e+01,0
1.376168e+01,1.141283e+01,1.134109e+01,6,2,2.148960e+01,2.183557e+01,0
9.189318e+00,8.493092e+00,8.437872e+00,4,3,1.482294e+01,1.482365e+01,1
6.906164e+00,4.264086e+00,4.209042e+00,3,1,1.347457e+01,1.347457e+01,1
6.899485e+00,2.526164e+00,2.469778e+00,3,0,1.094729e+01,1.094729e+01,1
6.931162e+00,1.812021e+01,1.805592e+01,3,5,9.638760e+00,1.285583e+01,0
1.376905e+01,8.125237e+00,8.050919e+00,6,0,9.336356e+00,1.538737e+01,0
1.378321e+01,2.420836e+01,2.414584e+01,6,11,9.611681e+00,9.805761e+00,1
1.147962e+01,2.103746e+01,2.097797e+01,5,9,9.304939e+00,9.592468e+00,1
6.935942e+00,2.587977e+01,2.581787e+01,3,12,5.447169e+00,5.454899e+00,1
6.941910e+00,7.827038e+00,7.769108e+00,3,3,4.355983e+00,4.355984e+00,1

