5.975590e-01,5.300450e-01,3.249645e-01,2,0,0.000000e+00,0.000000e+00
8.337600e-01,9.703500e-02,8.797646e-02,3,0,7.539545e-02,7.539560e-02
8.598960e-01,9.497600e-02,8.702278e-02,3,0,1.376321e-01,1.376323e-01
8.372650e-01,9.528000e-02,8.797646e-02,3,0,2.934707e-01,2.934711e-01
8.625030e-01,9.482100e-02,8.797646e-02,3,0,2.694861e-01,2.694863e-01
8.363400e-01,9.488500e-02,8.797646e-02,3,0,1.254802e+00,1.254804e+00
8.415710e-01,9.503200e-02,8.797646e-02,3,0,1.756505e+00,1.756505e+00
8.360440e-01,9.461500e-02,8.797646e-02,3,0,2.310508e+00,2.310509e+00
8.636170e-01,9.458500e-02,8.797646e-02,3,0,1.130837e+00,1.130837e+00
8.362310e-01,9.495700e-02,8.797646e-02,3,0,1.001612e+00,1.001612e+00
8.556570e-01,9.472400e-02,8.797646e-02,3,0,8.336068e-01,8.336071e-01
8.368120e-01,9.497100e-02,8.797646e-02,3,0,9.629342e-01,9.629349e-01
8.479440e-01,9.466600e-02,8.797646e-02,3,0,1.587834e+00,1.587835e+00
8.308530e-01,1.072600e-01,9.989738e-02,3,0,2.162954e+00,2.162955e+00
8.299420e-01,1.002100e-01,8.797646e-02,3,0,1.981320e+00,1.981320e+00
8.305540e-01,1.074840e-01,9.989738e-02,3,0,2.764890e+00,2.764892e+00
8.307590e-01,9.471800e-02,8.821487e-02,3,0,2.160226e+00,2.160226e+00
8.614730e-01,9.497100e-02,8.702278e-02,3,0,1.888243e+00,1.888243e+00
8.370300e-01,9.567600e-02,8.797646e-02,3,0,1.808789e+00,1.808790e+00
8.433380e-01,9.463400e-02,8.797646e-02,3,0,1.714912e+00,1.714913e+00
8.356620e-01,9.553800e-02,8.821487e-02,3,0,1.786460e+00,1.786461e+00
8.356350e-01,9.492600e-02,8.797646e-02,3,0,1.489483e+00,1.489483e+00
8.364810e-01,9.485500e-02,8.797646e-02,3,0,1.350344e+00,1.350344e+00
8.365400e-01,9.466600e-02,8.821487e-02,3,0,1.181708e+00,1.181708e+00
8.361770e-01,9.513600e-02,8.797646e-02,3,0,1.163048e+00,1.163049e+00
8.371190e-01,9.508700e-02,8.797646e-02,3,0,1.122189e+00,1.122189e+00
8.372870e-01,9.438600e-02,8.702278e-02,3,0,9.327395e-01,9.327398e-01
8.365690e-01,9.473500e-02,8.797646e-02,3,0,6.697031e-01,6.697032e-01
8.362010e-01,9.477000e-02,8.797646e-02,3,0,3.317620e-01,3.317623e-01
8.350590e-01,9.456400e-02,8.797646e-02,3,0,2.847486e-01,2.847487e-01
8.343390e-01,9.530900e-02,8.797646e-02,3,0,5.746734e-01,5.746742e-01
8.349440e-01,9.461100e-02,8.797646e-02,3,0,6.785120e-01,6.785124e-01
8.354920e-01,9.442400e-02,8.702278e-02,3,0,5.886633e-01,5.886634e-01
8.342820e-01,9.465300e-02,8.797646e-02,3,0,9.046022e-01,9.046030e-01
8.313530e-01,9.511200e-02,8.797646e-02,3,0,7.425771e-01,7.425772e-01
8.304220e-01,9.885800e-02,9.107590e-02,3,0,5.507321e-01,5.507321e-01
8.300190e-01,9.440400e-02,8.797646e-02,3,0,4.051342e-01,4.051344e-01
8.356040e-01,9.503000e-02,8.797646e-02,3,0,3.321687e-01,3.321689e-01
8.352520e-01,9.411800e-02,8.702278e-02,3,0,8.440177e-01,8.440186e-01
8.357750e-01,9.475800e-02,8.702278e-02,3,0,9.345924e-01,9.345927e-01
8.361190e-01,9.455700e-02,8.702278e-02,3,0,2.113311e+00,2.113312e+00
8.366410e-01,9.415500e-02,8.702278e-02,3,0,2.895594e+00,2.895595e+00
8.361670e-01,9.468500e-02,8.797646e-02,3,0,1.840142e+00,1.840142e+00
8.361200e-01,9.475600e-02,8.797646e-02,3,0,2.783683e+00,2.783684e+00
8.359770e-01,9.429000e-02,8.702278e-02,3,0,2.225772e+00,2.225772e+00
8.365800e-01,9.447400e-02,8.797646e-02,3,0,1.795047e+00,1.795047e+00
8.369710e-01,9.477800e-02,8.797646e-02,3,0,1.612535e+00,1.612535e+00
8.360870e-01,9.459500e-02,8.702278e-02,3,0,1.344273e+00,1.344273e+00
8.370460e-01,9.515200e-02,8.797646e-02,3,0,1.081679e+00,1.081679e+00
8.356170e-01,9.475400e-02,8.821487e-02,3,0,6.877546e-01,6.877545e-01
8.362050e-01,9.443000e-02,8.702278e-02,3,0,6.110293e-01,6.110296e-01
8.356110e-01,9.440300e-02,8.797646e-02,3,0,9.854031e-01,9.854040e-01
8.353280e-01,9.492200e-02,8.797646e-02,3,0,7.250155e-01,7.250156e-01
8.304840e-01,9.502900e-02,8.821487e-02,3,0,6.194853e-01,6.194853e-01
8.302120e-01,9.924900e-02,9.298325e-02,3,0,8.206624e-01,8.206629e-01
8.300210e-01,9.867000e-02,9.202957e-02,3,0,1.122914e+00,1.122915e+00
8.350540e-01,9.475300e-02,8.797646e-02,3,0,6.142229e-01,6.142228e-01
8.353190e-01,9.484900e-02,8.702278e-02,3,0,9.369085e-01,9.369092e-01
8.351730e-01,9.477600e-02,8.797646e-02,3,0,1.314886e+00,1.314887e+00
8.383260e-01,9.464200e-02,8.797646e-02,3,0,1.969159e+00,1.969160e+00
8.369830e-01,9.379400e-02,8.606911e-02,3,0,8.898526e-01,8.898532e-01
8.364360e-01,9.429600e-02,8.702278e-02,3,0,1.910652e+00,1.910654e+00
8.360910e-01,9.488500e-02,8.797646e-02,3,0,3.606268e+00,3.606270e+00
8.364810e-01,9.464400e-02,8.797646e-02,3,0,1.975417e+00,1.975415e+00
8.370110e-01,9.461200e-02,8.702278e-02,3,0,2.723683e+00,2.723684e+00
8.361660e-01,9.453600e-02,8.821487e-02,3,0,1.169084e+00,1.169083e+00
8.355530e-01,9.455700e-02,8.797646e-02,3,0,1.263230e+00,1.263230e+00
8.341690e-01,9.440100e-02,8.702278e-02,3,0,9.984229e-01,9.984233e-01
8.357740e-01,9.394600e-02,8.702278e-02,3,0,7.742218e-01,7.742221e-01
8.367240e-01,9.461500e-02,8.702278e-02,3,0,6.009269e-01,6.009272e-01
8.351840e-01,9.461200e-02,8.702278e-02,3,0,8.870310e-01,8.870317e-01
8.354300e-01,9.471300e-02,8.797646e-02,3,0,9.023889e-01,9.023891e-01
8.297700e-01,9.461600e-02,8.821487e-02,3,0,9.126757e-01,9.126760e-01
8.298900e-01,9.897600e-02,9.179115e-02,3,0,1.030194e+00,1.030195e+00
8.302130e-01,9.923800e-02,9.179115e-02,3,0,1.503318e+00,1.503319e+00
8.358330e-01,9.428700e-02,8.797646e-02,3,0,2.023180e+00,2.023181e+00
8.365920e-01,9.455600e-02,8.797646e-02,3,0,1.231910e+00,1.231910e+00
8.353910e-01,9.505800e-02,8.797646e-02,3,0,1.232612e+00,1.232612e+00
8.357820e-01,9.462800e-02,8.797646e-02,3,0,9.106059e-01,9.106059e-01
8.352280e-01,9.426100e-02,8.678436e-02,3,0,4.415008e-01,4.415008e-01
8.354330e-01,9.381900e-02,8.678436e-02,3,0,1.469211e+00,1.469213e+00
8.365950e-01,9.414200e-02,8.678436e-02,3,0,1.093927e+00,1.093927e+00
8.376580e-01,9.434900e-02,8.702278e-02,3,0,9.839060e-01,9.839062e-01
8.371140e-01,9.471200e-02,8.797646e-02,3,0,9.484037e-01,9.484043e-01
8.360750e-01,9.400900e-02,8.702278e-02,3,0,1.340376e+00,1.340377e+00
8.356370e-01,9.417500e-02,8.702278e-02,3,0,2.426739e+00,2.426741e+00
8.366140e-01,9.432100e-02,8.797646e-02,3,0,3.657854e+00,3.657856e+00
8.361600e-01,9.503200e-02,8.797646e-02,3,0,5.363844e+00,5.363847e+00
8.370950e-01,9.422400e-02,8.702278e-02,3,0,4.373634e+00,4.373634e+00
8.358060e-01,9.395300e-02,8.702278e-02,3,0,3.112641e+00,3.112641e+00
8.363840e-01,9.418500e-02,8.797646e-02,3,0,2.394087e+00,2.394087e+00
8.301260e-01,9.483300e-02,8.797646e-02,3,0,1.688656e+00,1.688656e+00
8.308780e-01,9.861600e-02,9.202957e-02,3,0,2.384602e+00,2.384604e+00
8.308430e-01,9.924800e-02,9.202957e-02,3,0,1.787173e+00,1.787172e+00
8.353150e-01,9.443200e-02,8.702278e-02,3,0,2.318071e+00,2.318072e+00
8.364100e-01,9.448900e-02,8.797646e-02,3,0,2.520931e+00,2.520932e+00
8.355390e-01,9.409000e-02,8.678436e-02,3,0,1.100126e+00,1.100126e+00
8.353410e-01,9.463300e-02,8.797646e-02,3,0,9.618320e-01,9.618322e-01
8.358660e-01,9.458400e-02,8.702278e-02,3,0,1.351688e+00,1.351689e+00
8.352350e-01,9.475800e-02,8.797646e-02,3,0,1.448054e+00,1.448055e+00
8.364350e-01,9.454400e-02,8.797646e-02,3,0,1.093162e+00,1.093162e+00
8.355230e-01,9.426100e-02,8.702278e-02,3,0,1.256484e+00,1.256484e+00
8.355500e-01,9.432400e-02,8.678436e-02,3,0,7.338232e-01,7.338233e-01
8.359870e-01,9.498100e-02,8.797646e-02,3,0,6.687876e-01,6.687878e-01
8.357570e-01,9.449000e-02,8.797646e-02,3,0,5.546592e-01,5.546593e-01
8.360440e-01,9.447100e-02,8.797646e-02,3,0,5.820472e-01,5.820477e-01
8.359480e-01,9.499000e-02,8.797646e-02,3,0,8.179784e-01,8.179790e-01
8.364220e-01,9.494300e-02,8.797646e-02,3,0,8.954412e-01,8.954415e-01
8.366530e-01,9.480500e-02,8.678436e-02,3,0,5.794090e-01,5.794090e-01
8.350670e-01,9.488500e-02,8.797646e-02,3,0,5.854888e-01,5.854891e-01
8.296910e-01,9.462700e-02,8.797646e-02,3,0,5.420893e-01,5.420894e-01
8.296200e-01,9.934100e-02,9.298325e-02,3,0,4.512420e-01,4.512423e-01
8.299220e-01,9.924400e-02,9.202957e-02,3,0,3.199590e-01,3.199591e-01
8.346380e-01,9.455500e-02,8.797646e-02,3,0,5.570476e-01,5.570482e-01
8.349930e-01,9.503200e-02,8.797646e-02,3,0,2.969425e-01,2.969426e-01
8.353240e-01,9.439000e-02,8.702278e-02,3,0,3.398680e-01,3.398682e-01
8.426570e-01,9.504400e-02,8.797646e-02,3,0,8.709419e-01,8.709428e-01
8.364950e-01,9.513200e-02,8.797646e-02,3,0,6.328207e-01,6.328208e-01
8.364670e-01,9.417500e-02,8.702278e-02,3,0,2.025278e+00,2.025280e+00
8.375780e-01,9.457900e-02,8.797646e-02,3,0,1.408769e+00,1.408769e+00
8.370860e-01,9.444100e-02,8.797646e-02,3,0,1.369022e+00,1.369023e+00
8.358180e-01,9.459600e-02,8.797646e-02,3,0,1.713030e+00,1.713031e+00
8.368520e-01,9.443000e-02,8.797646e-02,3,0,1.550057e+00,1.550058e+00
8.371960e-01,9.426500e-02,8.797646e-02,3,0,1.710002e+00,1.710003e+00
8.367400e-01,9.467400e-02,8.797646e-02,3,0,3.017659e+00,3.017662e+00
8.366660e-01,9.479500e-02,8.702278e-02,3,0,1.975120e+00,1.975119e+00
8.365570e-01,9.472200e-02,8.702278e-02,3,0,1.505443e+00,1.505443e+00
8.366320e-01,9.455300e-02,8.702278e-02,3,0,1.315035e+00,1.315035e+00
8.368300e-01,9.401000e-02,8.702278e-02,3,0,7.775207e-01,7.775211e-01
8.363020e-01,9.474900e-02,8.821487e-02,3,0,8.598513e-01,8.598523e-01
8.303970e-01,9.460500e-02,8.797646e-02,3,0,5.383564e-01,5.383566e-01
8.310180e-01,9.918900e-02,9.202957e-02,3,0,7.027548e-01,7.027553e-01
8.321810e-01,9.957100e-02,9.202957e-02,3,0,3.166074e-01,3.166074e-01
8.356840e-01,9.449100e-02,8.797646e-02,3,0,2.578552e-01,2.578553e-01
8.347630e-01,9.469900e-02,8.797646e-02,3,0,2.690208e-01,2.690210e-01
8.362980e-01,9.419600e-02,8.702278e-02,3,0,5.781329e-01,5.781336e-01
8.362780e-01,9.463300e-02,8.702278e-02,3,0,5.978219e-01,5.978222e-01
8.363430e-01,9.463900e-02,8.821487e-02,3,0,5.053834e-01,5.053835e-01
8.353970e-01,9.464700e-02,8.702278e-02,3,0,5.510604e-01,5.510607e-01
8.359110e-01,9.467600e-02,8.797646e-02,3,0,4.678502e-01,4.678504e-01
8.354890e-01,9.490400e-02,8.797646e-02,3,0,8.671481e-01,8.671488e-01
8.368220e-01,9.458700e-02,8.702278e-02,3,0,1.470053e+00,1.470054e+00
8.364400e-01,9.460600e-02,8.797646e-02,3,0,1.664422e+00,1.664422e+00
8.369060e-01,9.436500e-02,8.702278e-02,3,0,1.301451e+00,1.301452e+00
8.364720e-01,9.499600e-02,8.797646e-02,3,0,1.156650e+00,1.156650e+00
8.361830e-01,9.454300e-02,8.702278e-02,3,0,1.072100e+00,1.072100e+00
8.372790e-01,9.467600e-02,8.797646e-02,3,0,7.728983e-01,7.728983e-01
8.360540e-01,9.440800e-02,8.702278e-02,3,0,6.617629e-01,6.617638e-01
8.356500e-01,9.455700e-02,8.797646e-02,3,0,1.152295e+00,1.152296e+00
8.311410e-01,9.451100e-02,8.702278e-02,3,0,1.655924e+00,1.655925e+00
8.309350e-01,9.866000e-02,9.202957e-02,3,0,1.013204e+00,1.013204e+00
8.313250e-01,9.928100e-02,9.202957e-02,3,0,9.622535e-01,9.622538e-01
8.356590e-01,9.516500e-02,8.797646e-02,3,0,8.659567e-01,8.659569e-01
8.362220e-01,9.440700e-02,8.797646e-02,3,0,7.954315e-01,7.954317e-01
8.358800e-01,9.474400e-02,8.821487e-02,3,0,6.562090e-01,6.562092e-01
8.358220e-01,9.506000e-02,8.797646e-02,3,0,7.372112e-01,7.372116e-01
8.360620e-01,9.446000e-02,8.702278e-02,3,0,1.203657e+00,1.203658e+00
8.365910e-01,9.472200e-02,8.821487e-02,3,0,1.155230e+00,1.155230e+00
8.360930e-01,9.497500e-02,8.797646e-02,3,0,1.224534e+00,1.224535e+00
8.367260e-01,9.411600e-02,8.702278e-02,3,0,1.391972e+00,1.391974e+00
8.368660e-01,9.429100e-02,8.702278e-02,3,0,6.362730e-01,6.362730e-01
8.363610e-01,9.462100e-02,8.797646e-02,3,0,5.053670e-01,5.053672e-01
8.356830e-01,9.447600e-02,8.702278e-02,3,0,5.338890e-01,5.338894e-01
8.366570e-01,9.410900e-02,8.797646e-02,3,0,2.370515e-01,2.370518e-01
8.362320e-01,9.475900e-02,8.797646e-02,3,0,2.393576e-01,2.393577e-01
8.361890e-01,9.455500e-02,8.797646e-02,3,0,4.120253e-01,4.120257e-01
8.353950e-01,9.457700e-02,8.797646e-02,3,0,3.515092e-01,3.515092e-01
8.353400e-01,9.445300e-02,8.702278e-02,3,0,9.585719e-01,9.585733e-01
8.316270e-01,9.463100e-02,8.821487e-02,3,0,7.182278e-01,7.182285e-01
8.302480e-01,9.951900e-02,9.298325e-02,3,0,5.098746e-01,5.098748e-01
8.312400e-01,9.934900e-02,9.298325e-02,3,0,4.558847e-01,4.558849e-01
8.346610e-01,9.496600e-02,8.797646e-02,3,0,4.646784e-01,4.646787e-01
8.356140e-01,9.454900e-02,8.797646e-02,3,0,4.770056e-01,4.770059e-01
8.361820e-01,9.424200e-02,8.702278e-02,3,0,3.040839e-01,3.040840e-01
8.357340e-01,9.458000e-02,8.702278e-02,3,0,3.377664e-01,3.377668e-01
8.354780e-01,9.438300e-02,8.702278e-02,3,0,2.788534e-01,2.788536e-01
8.359010e-01,9.475300e-02,8.797646e-02,3,0,2.407059e-01,2.407060e-01
8.354010e-01,9.419100e-02,8.702278e-02,3,0,6.442230e-01,6.442239e-01
8.361920e-01,9.453700e-02,8.797646e-02,3,0,4.095452e-01,4.095455e-01
8.354720e-01,9.473700e-02,8.821487e-02,3,0,6.437721e-01,6.437726e-01
8.359250e-01,9.433100e-02,8.797646e-02,3,0,1.039902e+00,1.039903e+00
8.365880e-01,9.441900e-02,8.702278e-02,3,0,8.875855e-01,8.875861e-01
8.363590e-01,9.416900e-02,8.797646e-02,3,0,1.006186e+00,1.006186e+00
8.357870e-01,9.475100e-02,8.702278e-02,3,0,7.122620e-01,7.122621e-01
8.350910e-01,9.477800e-02,8.797646e-02,3,0,7.083473e-01,7.083476e-01
8.361740e-01,9.507300e-02,8.797646e-02,3,0,8.100302e-01,8.100306e-01
8.356730e-01,9.446500e-02,8.702278e-02,3,0,1.766688e+00,1.766690e+00
8.312600e-01,9.435300e-02,8.702278e-02,3,0,2.341985e+00,2.341986e+00
8.308380e-01,9.935300e-02,8.702278e-02,3,0,2.078283e+00,2.078283e+00
8.307350e-01,9.892500e-02,9.202957e-02,3,0,1.686164e+00,1.686164e+00
8.314240e-01,9.469800e-02,8.797646e-02,3,0,1.548802e+00,1.548802e+00
8.363070e-01,9.468200e-02,8.702278e-02,3,0,1.061556e+00,1.061556e+00
8.361290e-01,9.472200e-02,8.797646e-02,3,0,1.052392e+00,1.052393e+00
8.345980e-01,9.470000e-02,8.702278e-02,3,0,1.034730e+00,1.034731e+00
8.614130e-01,9.403600e-02,8.702278e-02,3,0,7.927306e-01,7.927307e-01
8.366400e-01,9.519100e-02,8.797646e-02,3,0,7.023906e-01,7.023908e-01
8.354470e-01,9.440800e-02,8.702278e-02,3,0,1.423105e+00,1.423106e+00
8.358690e-01,9.439200e-02,8.797646e-02,3,0,2.958255e+00,2.958258e+00
8.367690e-01,9.454600e-02,8.797646e-02,3,0,3.026537e+00,3.026538e+00
8.367180e-01,9.447000e-02,8.702278e-02,3,0,3.062268e+00,3.062269e+00
8.364420e-01,9.432100e-02,8.702278e-02,3,0,3.571487e+00,3.571488e+00
8.353200e-01,9.447200e-02,8.797646e-02,3,0,5.100197e+00,5.100200e+00
8.370080e-01,9.444000e-02,8.797646e-02,3,0,3.278300e+00,3.278299e+00
8.367330e-01,9.442000e-02,8.678436e-02,3,0,3.995907e+00,3.995909e+00
8.366650e-01,9.361200e-02,8.702278e-02,3,0,3.076641e+00,3.076641e+00
8.367680e-01,9.422200e-02,8.702278e-02,3,0,2.868580e+00,2.868581e+00
8.367400e-01,9.455500e-02,8.702278e-02,3,0,1.982004e+00,1.982004e+00
8.310620e-01,9.434100e-02,8.702278e-02,3,0,2.500428e+00,2.500429e+00
8.307550e-01,9.944200e-02,9.202957e-02,3,0,1.694900e+00,1.694900e+00
8.315200e-01,9.926200e-02,9.202957e-02,3,0,2.202419e+00,2.202420e+00
8.357020e-01,9.394800e-02,8.583069e-02,3,0,7.198395e-01,7.198394e-01
8.361240e-01,9.438800e-02,8.702278e-02,3,0,9.079751e-01,9.079759e-01
8.349300e-01,9.446400e-02,8.702278e-02,3,0,1.727905e+00,1.727906e+00
8.364250e-01,9.428600e-02,8.702278e-02,3,0,1.320268e+00,1.320268e+00
8.368150e-01,9.418900e-02,8.702278e-02,3,0,2.105952e+00,2.105953e+00
8.366580e-01,9.442400e-02,8.678436e-02,3,0,1.874714e+00,1.874714e+00
8.371930e-01,9.493100e-02,8.797646e-02,3,0,3.197580e+00,3.197582e+00
8.370580e-01,9.434100e-02,8.797646e-02,3,0,1.638093e+00,1.638092e+00
8.366780e-01,9.426500e-02,8.797646e-02,3,0,1.357662e+00,1.357662e+00
8.367690e-01,9.496400e-02,8.797646e-02,3,0,1.070695e+00,1.070695e+00
8.373920e-01,9.445800e-02,8.702278e-02,3,0,1.074448e+00,1.074448e+00
8.374380e-01,9.452300e-02,8.797646e-02,3,0,1.150461e+00,1.150461e+00
8.366350e-01,9.436900e-02,8.702278e-02,3,0,1.737571e+00,1.737573e+00
8.366280e-01,9.458300e-02,8.797646e-02,3,0,7.951804e-01,7.951799e-01
8.368610e-01,9.434700e-02,8.797646e-02,3,0,5.279798e-01,5.279799e-01
8.351220e-01,9.454100e-02,8.797646e-02,3,0,6.065543e-01,6.065547e-01
8.352670e-01,9.437500e-02,8.702278e-02,3,0,5.859223e-01,5.859226e-01
8.306570e-01,9.405900e-02,8.702278e-02,3,0,4.544746e-01,4.544747e-01
8.305890e-01,9.917900e-02,9.202957e-02,3,0,7.273237e-01,7.273247e-01
8.306370e-01,9.435300e-02,8.797646e-02,3,0,1.054653e+00,1.054654e+00
8.354760e-01,9.455500e-02,8.702278e-02,3,0,1.592878e+00,1.592879e+00
8.373390e-01,9.444400e-02,8.678436e-02,3,0,3.436945e+00,3.436948e+00
8.355880e-01,9.459400e-02,8.797646e-02,3,0,4.458252e+00,4.458254e+00
8.356000e-01,9.431500e-02,8.702278e-02,3,0,3.034823e+00,3.034822e+00
8.376950e-01,9.494200e-02,8.797646e-02,3,0,3.739701e+00,3.739703e+00
8.366870e-01,9.431500e-02,8.702278e-02,3,0,2.696262e+00,2.696262e+00
8.362490e-01,9.464300e-02,8.797646e-02,3,0,2.137313e+00,2.137313e+00
8.374810e-01,9.401900e-02,8.678436e-02,3,0,2.381990e+00,2.381991e+00
8.372390e-01,9.435100e-02,8.702278e-02,3,0,1.301140e+00,1.301139e+00
8.372250e-01,9.431200e-02,8.702278e-02,3,0,9.675367e-01,9.675378e-01
8.356020e-01,9.512900e-02,8.893013e-02,3,0,7.439905e-01,7.439905e-01
8.371380e-01,9.434300e-02,8.702278e-02,3,0,7.050904e-01,7.050906e-01
8.371300e-01,9.478000e-02,8.821487e-02,3,0,6.801899e-01,6.801901e-01
8.371170e-01,9.424200e-02,8.797646e-02,3,0,1.067872e+00,1.067873e+00
8.368310e-01,9.417300e-02,8.702278e-02,3,0,3.636401e-01,3.636399e-01
8.361970e-01,9.419400e-02,8.702278e-02,3,0,1.459904e+00,1.459906e+00
8.304440e-01,9.420000e-02,8.702278e-02,3,0,3.207473e+00,3.207476e+00
8.310810e-01,9.887500e-02,9.202957e-02,3,0,1.890641e+00,1.890640e+00
8.310420e-01,9.894100e-02,9.202957e-02,3,0,1.351988e+00,1.351988e+00
8.359110e-01,9.481900e-02,8.797646e-02,3,0,1.108379e+00,1.108379e+00
8.355040e-01,9.476700e-02,8.702278e-02,3,0,9.424709e-01,9.424710e-01
8.361580e-01,9.482200e-02,8.702278e-02,3,0,8.821413e-01,8.821415e-01
8.356350e-01,9.426500e-02,8.797646e-02,3,0,1.484896e+00,1.484897e+00
8.368960e-01,9.449900e-02,8.702278e-02,3,0,1.155477e+00,1.155477e+00
8.531350e-01,9.566800e-02,8.893013e-02,3,0,8.308275e-01,8.308276e-01
8.636110e-01,9.757800e-02,8.988380e-02,3,0,9.286501e-01,9.286505e-01
8.365220e-01,9.519600e-02,8.893013e-02,3,0,1.590914e+00,1.590915e+00
8.365890e-01,9.460100e-02,8.702278e-02,3,0,2.569067e+00,2.569069e+00
8.373170e-01,9.429400e-02,8.702278e-02,3,0,4.647755e+00,4.647759e+00
8.378160e-01,9.517900e-02,8.797646e-02,3,0,5.667842e+00,5.667844e+00
8.369620e-01,9.617100e-02,8.916855e-02,3,0,5.122846e+00,5.122846e+00
8.615310e-01,9.532700e-02,8.916855e-02,3,0,5.366623e+00,5.366625e+00
8.366510e-01,9.474900e-02,8.797646e-02,3,0,4.520514e+00,4.520514e+00
8.369550e-01,9.407200e-02,8.702278e-02,3,0,4.741373e+00,4.741375e+00
8.364200e-01,9.499400e-02,8.797646e-02,3,0,4.719997e+00,4.719998e+00
8.360170e-01,9.418900e-02,8.702278e-02,3,0,3.889055e+00,3.889055e+00
8.371090e-01,9.440000e-02,8.797646e-02,3,0,3.354371e+00,3.354372e+00
8.308020e-01,9.435600e-02,8.702278e-02,3,0,2.571330e+00,2.571330e+00
8.317100e-01,9.997700e-02,9.298325e-02,3,0,2.355249e+00,2.355249e+00
8.312680e-01,9.987400e-02,9.298325e-02,3,0,2.387999e+00,2.388000e+00
8.613860e-01,9.421400e-02,8.702278e-02,3,0,3.076475e+00,3.076477e+00
8.403270e-01,1.048127e+00,1.039982e+00,3,6,5.515769e+00,5.522246e+00
1.661982e+00,4.104530e-01,4.029274e-01,6,2,5.779056e+00,5.757583e+00
1.391335e+00,6.037540e-01,5.960464e-01,5,4,6.338930e+00,6.331055e+00
1.114464e+00,9.545800e-02,8.797646e-02,4,0,5.385154e+00,5.385154e+00
8.370330e-01,9.596900e-02,8.797646e-02,3,0,5.410946e+00,5.410947e+00
8.310400e-01,9.585200e-02,8.893013e-02,3,0,6.562613e+00,6.562616e+00
8.318100e-01,1.006300e-01,9.417534e-02,3,0,6.069971e+00,6.069972e+00
8.319050e-01,1.004980e-01,9.393692e-02,3,0,5.053625e+00,5.053625e+00
8.357210e-01,9.501400e-02,8.916855e-02,3,0,4.256742e+00,4.256742e+00
8.425260e-01,9.577700e-02,8.893013e-02,3,0,3.743721e+00,3.743722e+00
8.360220e-01,9.532800e-02,8.797646e-02,3,0,3.197473e+00,3.197473e+00
8.357750e-01,9.558400e-02,8.893013e-02,3,0,2.934418e+00,2.934418e+00
8.371990e-01,9.508800e-02,8.821487e-02,3,0,3.068115e+00,3.068116e+00
8.376580e-01,9.546200e-02,8.797646e-02,3,0,1.688217e+00,1.688217e+00
8.365530e-01,9.607600e-02,8.893013e-02,3,0,1.476138e+00,1.476138e+00
8.366970e-01,9.541800e-02,8.916855e-02,3,0,1.648484e+00,1.648485e+00
8.370430e-01,9.546300e-02,8.893013e-02,3,0,1.149411e+00,1.149411e+00
8.374480e-01,9.603900e-02,8.893013e-02,3,0,9.746521e-01,9.746522e-01
8.373390e-01,9.532300e-02,8.916855e-02,3,0,7.983474e-01,7.983476e-01
8.357130e-01,9.567500e-02,8.797646e-02,3,0,5.137608e-01,5.137609e-01
8.360770e-01,9.546100e-02,8.797646e-02,3,0,3.727217e-01,3.727224e-01
8.367710e-01,9.600500e-02,8.893013e-02,3,0,2.852823e-01,2.852826e-01
8.368890e-01,9.536800e-02,8.797646e-02,3,0,3.980860e-01,3.980863e-01
8.365260e-01,9.545200e-02,8.797646e-02,3,0,5.226316e-01,5.226320e-01
8.624240e-01,9.524000e-02,8.797646e-02,3,0,3.597099e-01,3.597100e-01
8.366010e-01,9.551400e-02,8.916855e-02,3,0,3.916197e-01,3.916201e-01
8.296540e-01,9.513700e-02,8.797646e-02,3,0,1.091919e+00,1.091920e+00
8.311250e-01,1.002510e-01,9.298325e-02,3,0,2.457323e+00,2.457326e+00
8.312960e-01,1.007840e-01,9.298325e-02,3,0,3.341935e+00,3.341937e+00
8.618690e-01,9.541800e-02,8.893013e-02,3,0,2.815515e+00,2.815515e+00
8.368740e-01,9.640100e-02,8.893013e-02,3,0,3.037638e+00,3.037639e+00
8.366990e-01,9.563100e-02,8.893013e-02,3,0,2.960966e+00,2.960966e+00
8.498430e-01,9.541600e-02,8.893013e-02,3,0,2.616533e+00,2.616533e+00
8.366110e-01,1.073460e-01,8.893013e-02,3,0,2.054233e+00,2.054234e+00
8.373870e-01,9.540800e-02,8.893013e-02,3,0,2.024359e+00,2.024360e+00
8.374160e-01,9.454800e-02,8.678436e-02,3,0,3.619191e+00,3.619194e+00
8.377890e-01,9.571200e-02,8.893013e-02,3,0,4.710444e+00,4.710446e+00
8.384060e-01,9.583500e-02,8.893013e-02,3,0,5.589759e+00,5.589761e+00
8.379320e-01,9.576000e-02,8.893013e-02,3,0,4.581102e+00,4.581102e+00
8.375610e-01,9.520100e-02,8.797646e-02,3,0,3.502569e+00,3.502568e+00
8.376500e-01,9.465100e-02,8.797646e-02,3,0,2.563124e+00,2.563124e+00
8.373580e-01,9.517000e-02,8.797646e-02,3,0,2.075944e+00,2.075945e+00
8.375000e-01,9.508000e-02,8.893013e-02,3,0,2.714942e+00,2.714944e+00
8.401810e-01,9.487300e-02,8.821487e-02,3,0,2.720042e+00,2.720043e+00
8.361540e-01,9.550800e-02,8.797646e-02,3,0,2.061630e+00,2.061629e+00
8.362070e-01,9.530000e-02,8.797646e-02,3,0,2.028900e+00,2.028900e+00
8.353740e-01,9.530200e-02,8.821487e-02,3,0,2.348377e+00,2.348378e+00
8.310620e-01,9.583600e-02,8.797646e-02,3,0,2.454774e+00,2.454775e+00
8.300790e-01,1.004480e-01,9.393692e-02,3,0,3.008110e+00,3.008111e+00
8.311160e-01,9.947300e-02,9.322166e-02,3,0,2.384947e+00,2.384947e+00
8.351310e-01,9.538300e-02,8.797646e-02,3,0,3.117955e+00,3.117957e+00
8.375190e-01,9.519500e-02,8.797646e-02,3,0,3.065566e+00,3.065567e+00
8.367550e-01,9.509000e-02,8.797646e-02,3,0,2.557292e+00,2.557292e+00
8.374130e-01,9.578700e-02,8.893013e-02,3,0,2.106663e+00,2.106663e+00
8.380070e-01,9.487100e-02,8.797646e-02,3,0,2.211412e+00,2.211412e+00
8.378200e-01,9.599600e-02,8.893013e-02,3,0,2.227023e+00,2.227024e+00
8.363520e-01,9.519500e-02,8.797646e-02,3,0,1.659078e+00,1.659078e+00
8.371210e-01,9.614400e-02,8.893013e-02,3,0,1.667724e+00,1.667724e+00
8.367710e-01,9.491100e-02,8.797646e-02,3,0,1.099130e+00,1.099130e+00
8.362400e-01,9.554000e-02,8.893013e-02,3,0,9.022113e-01,9.022114e-01
8.364940e-01,9.532300e-02,8.797646e-02,3,0,5.674390e-01,5.674392e-01
8.361300e-01,9.544800e-02,8.893013e-02,3,0,3.751871e-01,3.751873e-01
8.364470e-01,9.587500e-02,8.893013e-02,3,0,2.186422e-01,2.186422e-01
8.362720e-01,9.569200e-02,8.893013e-02,3,0,4.111152e-01,4.111158e-01
8.359330e-01,9.564400e-02,8.893013e-02,3,0,2.328079e-01,2.328079e-01
8.357710e-01,9.503600e-02,8.893013e-02,3,0,2.265187e-01,2.265190e-01
8.304390e-01,9.521900e-02,8.821487e-02,3,0,1.359835e-01,1.359836e-01
8.558190e-01,1.004090e-01,8.893013e-02,3,0,1.527804e-01,1.527806e-01
8.293920e-01,1.007710e-01,9.393692e-02,3,0,1.332161e-01,1.332162e-01
8.286170e-01,1.001300e-01,9.298325e-02,3,0,3.298570e-01,3.298574e-01
8.351410e-01,9.549500e-02,8.797646e-02,3,0,2.550311e-01,2.550314e-01
8.353990e-01,9.535700e-02,8.916855e-02,3,0,2.544629e-01,2.544636e-01
8.357460e-01,9.555300e-02,8.893013e-02,3,0,5.217731e-01,5.217736e-01
8.358680e-01,9.543500e-02,8.893013e-02,3,0,2.867224e-01,2.867223e-01
8.351810e-01,9.545000e-02,8.916855e-02,3,0,4.110207e-01,4.110210e-01
8.360640e-01,9.535600e-02,8.797646e-02,3,0,4.170100e-01,4.170102e-01
8.355400e-01,9.556800e-02,8.797646e-02,3,0,7.090291e-01,7.090297e-01
8.359830e-01,9.553400e-02,8.797646e-02,3,0,5.399893e-01,5.399894e-01
8.360360e-01,9.510800e-02,8.797646e-02,3,0,3.504812e-01,3.504812e-01
8.375000e-01,9.553800e-02,8.893013e-02,3,0,2.595418e-01,2.595420e-01
8.355150e-01,9.594700e-02,8.893013e-02,3,0,3.508181e-01,3.508184e-01
8.356250e-01,9.525700e-02,8.916855e-02,3,0,3.231019e-01,3.231020e-01
8.352040e-01,9.552200e-02,8.797646e-02,3,0,2.615448e-01,2.615448e-01
8.347450e-01,9.578300e-02,8.893013e-02,3,0,4.593716e-01,4.593721e-01
8.358290e-01,9.494200e-02,8.797646e-02,3,0,3.475158e-01,3.475159e-01
8.360830e-01,9.521100e-02,8.821487e-02,3,0,5.158213e-01,5.158217e-01
8.294740e-01,9.559300e-02,8.797646e-02,3,0,9.145396e-01,9.145403e-01
8.299620e-01,1.000150e-01,9.393692e-02,3,0,8.031674e-01,8.031677e-01
8.301570e-01,1.003870e-01,9.393692e-02,3,0,7.101309e-01,7.101311e-01
8.348980e-01,9.528900e-02,8.797646e-02,3,0,1.620586e+00,1.620588e+00
8.358700e-01,9.557000e-02,8.893013e-02,3,0,1.979796e+00,1.979797e+00
8.360500e-01,9.543200e-02,8.893013e-02,3,0,1.132997e+00,1.132996e+00
8.350460e-01,9.515700e-02,8.916855e-02,3,0,8.490297e-01,8.490297e-01
8.363560e-01,9.548200e-02,8.797646e-02,3,0,6.456044e-01,6.456047e-01
8.365390e-01,9.521500e-02,8.893013e-02,3,0,4.354735e-01,4.354736e-01
8.358360e-01,9.557300e-02,8.893013e-02,3,0,3.815785e-01,3.815787e-01
8.850580e-01,9.543700e-02,8.797646e-02,3,0,5.486857e-01,5.486860e-01
8.379800e-01,9.640400e-02,8.988380e-02,3,0,5.290712e-01,5.290714e-01
8.366370e-01,9.586000e-02,8.893013e-02,3,0,2.579665e-01,2.579668e-01
8.364590e-01,9.579600e-02,8.893013e-02,3,0,6.967598e-01,6.967607e-01
8.363990e-01,9.558100e-02,8.797646e-02,3,0,3.919490e-01,3.919490e-01
8.357290e-01,9.570400e-02,8.893013e-02,3,0,3.534010e-01,3.534013e-01
8.358880e-01,9.556300e-02,8.893013e-02,3,0,4.850318e-01,4.850322e-01
8.370110e-01,9.560600e-02,8.893013e-02,3,0,3.999567e-01,3.999568e-01
8.357530e-01,9.511700e-02,8.797646e-02,3,0,4.713089e-01,4.713092e-01
8.361660e-01,9.521900e-02,8.893013e-02,3,0,5.989256e-01,5.989260e-01
8.337860e-01,9.501800e-02,8.797646e-02,3,0,4.713876e-01,4.713878e-01
8.314810e-01,9.546000e-02,8.797646e-02,3,0,4.905612e-01,4.905617e-01
8.294910e-01,1.000990e-01,9.298325e-02,3,0,6.108603e-01,6.108607e-01
8.301850e-01,1.001130e-01,9.298325e-02,3,0,7.470375e-01,7.470380e-01
8.360670e-01,9.560400e-02,8.893013e-02,3,0,1.118033e+00,1.118034e+00
8.359290e-01,9.584800e-02,8.893013e-02,3,0,7.738547e-01,7.738547e-01
8.360950e-01,9.552900e-02,8.797646e-02,3,0,7.282347e-01,7.282355e-01
8.361010e-01,9.590800e-02,8.893013e-02,3,0,7.119240e-01,7.119242e-01
8.372050e-01,9.559300e-02,8.797646e-02,3,0,7.781483e-01,7.781485e-01
8.377050e-01,9.584300e-02,8.916855e-02,3,0,6.471715e-01,6.471717e-01
8.373680e-01,9.522700e-02,8.893013e-02,3,0,1.098068e+00,1.098069e+00
8.365340e-01,9.543700e-02,8.797646e-02,3,0,8.187841e-01,8.187842e-01
8.374840e-01,9.561300e-02,8.916855e-02,3,0,7.743098e-01,7.743100e-01
8.368680e-01,9.551300e-02,8.893013e-02,3,0,7.614110e-01,7.614113e-01
8.365160e-01,9.533400e-02,8.797646e-02,3,0,6.899914e-01,6.899917e-01
8.363090e-01,9.519800e-02,8.893013e-02,3,0,4.930596e-01,4.930597e-01
8.358980e-01,9.516800e-02,8.797646e-02,3,0,6.012258e-01,6.012263e-01
8.356900e-01,9.578300e-02,8.893013e-02,3,0,6.780122e-01,6.780126e-01
8.368340e-01,9.531000e-02,8.893013e-02,3,0,4.676081e-01,4.676082e-01
8.356400e-01,9.566900e-02,8.893013e-02,3,0,8.746392e-01,8.746402e-01
8.309560e-01,9.508200e-02,8.797646e-02,3,0,6.178420e-01,6.178421e-01
8.300980e-01,1.008630e-01,8.893013e-02,3,0,5.576305e-01,5.576308e-01
8.305510e-01,1.006250e-01,9.298325e-02,3,0,5.046116e-01,5.046118e-01
8.556610e-01,9.527900e-02,8.797646e-02,3,0,3.967175e-01,3.967179e-01
8.359470e-01,9.643500e-02,8.916855e-02,3,0,2.920719e-01,2.920721e-01
8.348440e-01,9.585300e-02,8.893013e-02,3,0,5.730694e-01,5.730699e-01
8.362950e-01,9.511200e-02,8.916855e-02,3,0,4.927671e-01,4.927672e-01
8.352610e-01,9.532200e-02,8.797646e-02,3,0,4.981755e-01,4.981759e-01
8.356390e-01,9.581700e-02,8.893013e-02,3,0,4.688683e-01,4.688684e-01
8.373530e-01,9.540500e-02,8.916855e-02,3,0,3.674338e-01,3.674341e-01
8.359350e-01,9.528000e-02,8.893013e-02,3,0,4.423480e-01,4.423482e-01
8.372730e-01,9.545500e-02,8.916855e-02,3,0,3.414488e-01,3.414489e-01
8.615180e-01,9.533900e-02,8.797646e-02,3,0,1.434873e+00,1.434875e+00
8.368640e-01,9.596900e-02,8.797646e-02,3,0,3.181126e+00,3.181129e+00
8.369620e-01,9.526900e-02,8.797646e-02,3,0,2.408614e+00,2.408614e+00
8.359820e-01,9.596300e-02,8.893013e-02,3,0,1.724162e+00,1.724162e+00
8.365830e-01,9.511500e-02,8.821487e-02,3,0,1.256671e+00,1.256671e+00
8.360770e-01,9.625200e-02,8.893013e-02,3,0,1.368063e+00,1.368064e+00
8.361190e-01,9.593300e-02,8.916855e-02,3,0,1.077320e+00,1.077320e+00
8.368270e-01,9.539300e-02,8.797646e-02,3,0,1.043494e+00,1.043494e+00
8.367560e-01,9.540900e-02,8.797646e-02,3,0,1.242604e+00,1.242605e+00
8.309510e-01,9.585000e-02,8.893013e-02,3,0,1.406409e+00,1.406410e+00
8.313000e-01,1.002910e-01,9.298325e-02,3,0,1.284407e+00,1.284407e+00
8.311690e-01,1.001180e-01,9.298325e-02,3,0,1.374070e+00,1.374071e+00
8.353960e-01,9.550900e-02,8.893013e-02,3,0,1.844400e+00,1.844401e+00
8.355070e-01,9.518100e-02,8.893013e-02,3,0,1.377107e+00,1.377107e+00
8.364170e-01,9.540400e-02,8.797646e-02,3,0,9.441333e-01,9.441332e-01
8.363680e-01,9.525200e-02,8.797646e-02,3,0,5.655942e-01,5.655940e-01
8.358660e-01,9.556800e-02,8.893013e-02,3,0,3.798159e-01,3.798159e-01
8.369900e-01,9.534500e-02,8.797646e-02,3,0,2.967605e-01,2.967606e-01
8.353560e-01,9.571700e-02,8.893013e-02,3,0,4.102474e-01,4.102478e-01
8.361310e-01,9.524400e-02,8.797646e-02,3,0,2.912585e-01,2.912585e-01
8.362950e-01,9.570500e-02,8.893013e-02,3,0,4.764578e-01,4.764583e-01
8.363150e-01,9.532100e-02,8.797646e-02,3,0,5.043371e-01,5.043373e-01
8.364360e-01,9.573400e-02,8.893013e-02,3,0,4.688270e-01,4.688271e-01
8.350990e-01,9.513600e-02,8.821487e-02,3,0,6.028402e-01,6.028408e-01
8.365250e-01,9.534800e-02,8.797646e-02,3,0,3.377127e-01,3.377127e-01
8.366570e-01,9.579100e-02,8.797646e-02,3,0,2.711839e-01,2.711840e-01
8.365900e-01,9.550600e-02,8.797646e-02,3,0,1.383306e+00,1.383309e+00
8.364750e-01,9.564000e-02,8.916855e-02,3,0,1.451329e+00,1.451329e+00
8.356070e-01,9.512400e-02,8.893013e-02,3,0,7.031839e-01,7.031835e-01
8.300370e-01,9.536800e-02,8.797646e-02,3,0,6.982511e-01,6.982514e-01
8.307730e-01,1.002440e-01,9.322166e-02,3,0,6.137516e-01,6.137517e-01
8.314430e-01,1.003610e-01,9.298325e-02,3,0,6.617285e-01,6.617287e-01
8.361370e-01,9.589700e-02,8.916855e-02,3,0,3.354983e-01,3.354982e-01
8.361050e-01,9.607500e-02,8.893013e-02,3,0,2.759661e-01,2.759663e-01
8.352940e-01,9.510500e-02,8.821487e-02,3,0,5.279966e-01,5.279972e-01
8.360360e-01,9.585500e-02,8.893013e-02,3,0,6.667663e-01,6.667667e-01
8.365370e-01,9.551800e-02,8.893013e-02,3,0,8.292178e-01,8.292183e-01
8.359510e-01,9.530200e-02,8.797646e-02,3,0,5.374542e-01,5.374543e-01
8.356370e-01,9.523000e-02,8.797646e-02,3,0,5.127800e-01,5.127803e-01
8.383790e-01,9.560400e-02,8.821487e-02,3,0,7.688165e-01,7.688172e-01
8.372460e-01,9.569100e-02,8.893013e-02,3,0,1.152271e+00,1.152272e+00
8.362910e-01,9.595400e-02,8.893013e-02,3,0,1.284036e+00,1.284037e+00
8.365160e-01,9.551600e-02,8.797646e-02,3,0,1.793355e+00,1.793356e+00
8.374080e-01,9.585000e-02,8.797646e-02,3,0,1.700294e+00,1.700294e+00
8.375210e-01,9.577400e-02,8.893013e-02,3,0,2.642651e+00,2.642653e+00
8.365820e-01,9.533300e-02,8.893013e-02,3,0,1.107416e+00,1.107415e+00
8.367310e-01,9.528400e-02,8.797646e-02,3,0,9.386903e-01,9.386905e-01
8.370500e-01,9.539300e-02,8.797646e-02,3,0,1.466584e+00,1.466585e+00
8.542870e-01,1.078970e-01,1.010895e-01,3,0,7.286371e-01,7.286368e-01
8.306540e-01,9.597700e-02,8.893013e-02,3,0,6.052259e-01,6.052260e-01
8.308240e-01,1.008270e-01,9.417534e-02,3,0,4.965911e-01,4.965912e-01
8.312150e-01,1.012150e-01,9.393692e-02,3,0,3.360130e-01,3.360130e-01
8.430900e-01,9.585600e-02,8.893013e-02,3,0,6.849909e-01,6.849916e-01
8.350270e-01,9.600200e-02,8.893013e-02,3,0,5.121156e-01,5.121156e-01
8.355960e-01,9.519500e-02,8.797646e-02,3,0,2.922550e-01,2.922550e-01
8.356720e-01,9.480400e-02,8.797646e-02,3,0,6.679345e-01,6.679354e-01
8.366560e-01,9.564700e-02,8.893013e-02,3,0,4.674127e-01,4.674127e-01
8.365960e-01,9.544700e-02,8.916855e-02,3,0,2.461262e-01,2.461263e-01
8.338640e-01,9.551800e-02,8.893013e-02,3,0,2.703545e-01,2.703547e-01
8.353630e-01,9.591000e-02,8.893013e-02,3,0,3.371024e-01,3.371027e-01
8.355840e-01,9.541700e-02,8.797646e-02,3,0,5.136953e-01,5.136958e-01
8.366410e-01,9.504300e-02,8.893013e-02,3,0,1.077991e+00,1.077992e+00
8.369350e-01,9.529900e-02,8.797646e-02,3,0,7.645050e-01,7.645064e-01
8.368700e-01,9.535200e-02,8.893013e-02,3,0,1.387647e+00,1.387648e+00
8.371400e-01,9.518100e-02,8.821487e-02,3,0,6.073496e-01,6.073492e-01
8.363740e-01,9.567400e-02,8.893013e-02,3,0,4.838976e-01,4.838978e-01
8.379360e-01,9.568800e-02,8.893013e-02,3,0,3.213725e-01,3.213725e-01
8.371410e-01,9.519400e-02,8.821487e-02,3,0,2.984320e-01,2.984323e-01
8.354690e-01,9.465100e-02,8.797646e-02,3,0,8.386706e-01,8.386719e-01
8.315980e-01,9.530300e-02,8.797646e-02,3,0,8.449806e-01,8.449808e-01
8.312320e-01,1.004150e-01,9.298325e-02,3,0,1.302749e+00,1.302750e+00
8.302120e-01,1.001490e-01,9.298325e-02,3,0,1.342942e+00,1.342942e+00
8.314770e-01,9.535600e-02,8.916855e-02,3,0,1.544383e+00,1.544383e+00
8.361000e-01,9.514600e-02,8.797646e-02,3,0,2.525370e+00,2.525371e+00
8.360500e-01,9.583400e-02,8.916855e-02,3,0,2.830332e+00,2.830332e+00
8.368910e-01,9.502900e-02,8.893013e-02,3,0,2.115056e+00,2.115056e+00
8.367130e-01,9.499100e-02,8.797646e-02,3,0,1.898372e+00,1.898372e+00
8.369230e-01,9.534600e-02,8.893013e-02,3,0,2.653305e+00,2.653307e+00
8.377940e-01,9.542100e-02,8.893013e-02,3,0,1.802900e+00,1.802900e+00
8.368550e-01,9.564600e-02,8.893013e-02,3,0,1.494907e+00,1.494907e+00
8.365270e-01,9.498000e-02,8.797646e-02,3,0,1.498995e+00,1.498996e+00
8.372770e-01,9.543500e-02,8.797646e-02,3,0,1.609108e+00,1.609109e+00
8.359890e-01,9.526400e-02,8.797646e-02,3,0,1.756702e+00,1.756702e+00
8.357350e-01,9.505500e-02,8.797646e-02,3,0,1.294859e+00,1.294860e+00
8.371690e-01,9.555700e-02,8.797646e-02,3,0,1.255283e+00,1.255283e+00
8.371320e-01,9.500900e-02,8.797646e-02,3,0,1.626537e+00,1.626538e+00
8.370290e-01,9.533700e-02,8.797646e-02,3,0,1.798403e+00,1.798403e+00
8.375660e-01,9.551900e-02,8.797646e-02,3,0,1.146720e+00,1.146720e+00
8.374600e-01,9.593900e-02,8.893013e-02,3,0,1.106796e+00,1.106796e+00
8.309860e-01,9.509800e-02,8.797646e-02,3,0,6.536678e-01,6.536678e-01
8.297180e-01,1.015180e-01,9.512901e-02,3,0,6.339582e-01,6.339586e-01

