2.875330e-01,1.853000e-01,1.239777e-01,2,0,0.000000e+00,0.000000e+00
4.048530e-01,3.516400e-02,3.004074e-02,3,0,7.299426e-02,7.299441e-02
4.122560e-01,3.293600e-02,2.884865e-02,3,0,1.202878e-01,1.202880e-01
4.048250e-01,3.269400e-02,2.789497e-02,3,0,2.752775e-01,2.752778e-01
4.102380e-01,3.256300e-02,2.813339e-02,3,0,2.416191e-01,2.416192e-01
4.043180e-01,3.240800e-02,2.789497e-02,3,0,1.053510e+00,1.053512e+00
4.262150e-01,3.232200e-02,2.789497e-02,3,0,1.486309e+00,1.486310e+00
4.052680e-01,4.562900e-02,4.076958e-02,3,0,1.984450e+00,1.984451e+00
4.047470e-01,3.235800e-02,2.789497e-02,3,0,9.697205e-01,9.697200e-01
4.299720e-01,3.206200e-02,2.789497e-02,3,0,8.785314e-01,8.785315e-01
4.043410e-01,3.312600e-02,2.813339e-02,3,0,7.547275e-01,7.547278e-01
4.104820e-01,3.195700e-02,2.813339e-02,3,0,8.541110e-01,8.541116e-01
4.048920e-01,3.238600e-02,2.789497e-02,3,0,1.335767e+00,1.335769e+00
4.106710e-01,3.225500e-02,2.813339e-02,3,0,1.788927e+00,1.788928e+00
4.046810e-01,3.227900e-02,2.789497e-02,3,0,1.659453e+00,1.659454e+00
4.365450e-01,3.207900e-02,2.789497e-02,3,0,2.269479e+00,2.269481e+00
4.048550e-01,3.327700e-02,2.908707e-02,3,0,1.847245e+00,1.847245e+00
4.048740e-01,3.232900e-02,2.813339e-02,3,0,1.628586e+00,1.628586e+00
4.048160e-01,4.401100e-02,4.005432e-02,3,0,1.634209e+00,1.634209e+00
4.048230e-01,3.273300e-02,2.908707e-02,3,0,1.456978e+00,1.456978e+00
4.112950e-01,3.251900e-02,2.908707e-02,3,0,1.447082e+00,1.447082e+00
4.050710e-01,3.249400e-02,2.908707e-02,3,0,1.253252e+00,1.253252e+00
4.104680e-01,3.237300e-02,2.884865e-02,3,0,1.235691e+00,1.235691e+00
4.052770e-01,3.248100e-02,2.813339e-02,3,0,1.092519e+00,1.092519e+00
4.357370e-01,3.222600e-02,2.789497e-02,3,0,1.047691e+00,1.047691e+00
4.043510e-01,3.282600e-02,2.908707e-02,3,0,9.984293e-01,9.984296e-01
4.172610e-01,3.220900e-02,2.813339e-02,3,0,8.813839e-01,8.813842e-01
4.295530e-01,3.273700e-02,2.813339e-02,3,0,6.596989e-01,6.596991e-01
4.051220e-01,3.235600e-02,2.789497e-02,3,0,2.911126e-01,2.911128e-01
4.051980e-01,3.736600e-02,3.290176e-02,3,0,2.312074e-01,2.312075e-01
4.046800e-01,3.242100e-02,2.908707e-02,3,0,4.522935e-01,4.522942e-01
4.093510e-01,3.232500e-02,2.789497e-02,3,0,5.682805e-01,5.682809e-01
4.047280e-01,3.229500e-02,2.789497e-02,3,0,5.170765e-01,5.170766e-01
4.105070e-01,3.199700e-02,2.813339e-02,3,0,7.868971e-01,7.868977e-01
4.052040e-01,3.243400e-02,2.789497e-02,3,0,6.515139e-01,6.515140e-01
4.104830e-01,3.185300e-02,2.813339e-02,3,0,4.968741e-01,4.968741e-01
4.046640e-01,3.222800e-02,2.789497e-02,3,0,3.894190e-01,3.894192e-01
4.047300e-01,3.209600e-02,2.789497e-02,3,0,3.105377e-01,3.105379e-01
4.048640e-01,3.681500e-02,2.908707e-02,3,0,7.322858e-01,7.322865e-01
4.054160e-01,3.206500e-02,2.813339e-02,3,0,8.038421e-01,8.038423e-01
4.094440e-01,3.157400e-02,2.694130e-02,3,0,1.837617e+00,1.837619e+00
4.053610e-01,3.206800e-02,2.789497e-02,3,0,2.481515e+00,2.481516e+00
4.103190e-01,3.167300e-02,2.717972e-02,3,0,1.605391e+00,1.605391e+00
4.047920e-01,3.209300e-02,2.789497e-02,3,0,2.450231e+00,2.450233e+00
4.098500e-01,3.213300e-02,2.789497e-02,3,0,1.992187e+00,1.992187e+00
4.054400e-01,3.211400e-02,2.813339e-02,3,0,1.623003e+00,1.623003e+00
4.093580e-01,3.209600e-02,2.789497e-02,3,0,1.524520e+00,1.524520e+00
4.043740e-01,3.209900e-02,2.789497e-02,3,0,1.331048e+00,1.331048e+00
4.046590e-01,3.253900e-02,2.813339e-02,3,0,1.102548e+00,1.102548e+00
4.099080e-01,3.210800e-02,2.813339e-02,3,0,7.144915e-01,7.144912e-01
4.047280e-01,3.213400e-02,2.789497e-02,3,0,6.042136e-01,6.042137e-01
4.102320e-01,3.206300e-02,2.789497e-02,3,0,1.020205e+00,1.020206e+00
4.049390e-01,3.241600e-02,2.813339e-02,3,0,7.986932e-01,7.986933e-01
4.100890e-01,3.253200e-02,2.884865e-02,3,0,6.929104e-01,6.929104e-01
4.045130e-01,3.206400e-02,2.813339e-02,3,0,9.035105e-01,9.035111e-01
4.102020e-01,3.181600e-02,2.813339e-02,3,0,1.181459e+00,1.181460e+00
4.055720e-01,3.221800e-02,2.789497e-02,3,0,6.836576e-01,6.836575e-01
4.044560e-01,3.209700e-02,2.813339e-02,3,0,9.577094e-01,9.577101e-01
4.095100e-01,3.226900e-02,2.789497e-02,3,0,1.277777e+00,1.277778e+00
4.043050e-01,3.208500e-02,2.789497e-02,3,0,1.837678e+00,1.837680e+00
4.350520e-01,3.142300e-02,2.789497e-02,3,0,8.481043e-01,8.481047e-01
4.049730e-01,3.241100e-02,2.813339e-02,3,0,1.684327e+00,1.684329e+00
4.108250e-01,3.209500e-02,2.789497e-02,3,0,3.141579e+00,3.141583e+00
4.552040e-01,3.258100e-02,2.908707e-02,3,0,1.790339e+00,1.790337e+00
4.457130e-01,3.296400e-02,2.908707e-02,3,0,2.498342e+00,2.498344e+00
4.052650e-01,3.252100e-02,2.789497e-02,3,0,1.020062e+00,1.020061e+00
4.549210e-01,3.237100e-02,2.813339e-02,3,0,1.180046e+00,1.180047e+00
4.194760e-01,3.373200e-02,2.908707e-02,3,0,1.006402e+00,1.006402e+00
4.102160e-01,3.226000e-02,2.789497e-02,3,0,7.356383e-01,7.356385e-01
4.053420e-01,3.210000e-02,2.813339e-02,3,0,6.450082e-01,6.450085e-01
4.050530e-01,3.180800e-02,2.789497e-02,3,0,9.097486e-01,9.097493e-01
4.093440e-01,3.205900e-02,2.813339e-02,3,0,9.229146e-01,9.229148e-01
4.052850e-01,3.228300e-02,2.908707e-02,3,0,9.367865e-01,9.367868e-01
4.101250e-01,3.204800e-02,2.789497e-02,3,0,1.068926e+00,1.068927e+00
4.039850e-01,3.191800e-02,2.813339e-02,3,0,1.511633e+00,1.511634e+00
4.101450e-01,3.178900e-02,2.813339e-02,3,0,2.005888e+00,2.005889e+00
4.051050e-01,3.216200e-02,2.813339e-02,3,0,1.305145e+00,1.305145e+00
4.359590e-01,3.208100e-02,2.789497e-02,3,0,1.324114e+00,1.324115e+00
4.048030e-01,3.263000e-02,2.908707e-02,3,0,9.914513e-01,9.914512e-01
4.044980e-01,3.178400e-02,2.789497e-02,3,0,4.349969e-01,4.349967e-01
4.098260e-01,3.171600e-02,2.694130e-02,3,0,1.079526e+00,1.079527e+00
4.048060e-01,3.209000e-02,2.813339e-02,3,0,8.278181e-01,8.278180e-01
4.104590e-01,3.197100e-02,2.813339e-02,3,0,7.467932e-01,7.467934e-01
4.043780e-01,3.211800e-02,2.789497e-02,3,0,7.573777e-01,7.573783e-01
4.109180e-01,3.164800e-02,2.789497e-02,3,0,1.012894e+00,1.012895e+00
4.046890e-01,3.223400e-02,2.813339e-02,3,0,1.883313e+00,1.883315e+00
4.347460e-01,3.215900e-02,2.884865e-02,3,0,2.893167e+00,2.893169e+00
4.051790e-01,3.288000e-02,2.908707e-02,3,0,4.331211e+00,4.331213e+00
4.108230e-01,3.238200e-02,2.908707e-02,3,0,3.607361e+00,3.607361e+00
4.043400e-01,3.200800e-02,2.789497e-02,3,0,2.604963e+00,2.604963e+00
4.057680e-01,3.184600e-02,2.813339e-02,3,0,2.040654e+00,2.040654e+00
4.097510e-01,3.176200e-02,2.694130e-02,3,0,1.488948e+00,1.488948e+00
4.048250e-01,3.203900e-02,2.789497e-02,3,0,2.133143e+00,2.133146e+00
4.111900e-01,3.207500e-02,2.813339e-02,3,0,1.666219e+00,1.666218e+00
4.044220e-01,3.239300e-02,2.789497e-02,3,0,2.188657e+00,2.188659e+00
4.360030e-01,3.192500e-02,2.789497e-02,3,0,2.422833e+00,2.422834e+00
4.045000e-01,3.249100e-02,2.813339e-02,3,0,1.129857e+00,1.129856e+00
4.107110e-01,3.176700e-02,2.789497e-02,3,0,1.041197e+00,1.041197e+00
4.053630e-01,3.206900e-02,2.813339e-02,3,0,1.462422e+00,1.462423e+00
4.048170e-01,3.206300e-02,2.813339e-02,3,0,1.561060e+00,1.561060e+00
4.097570e-01,3.180500e-02,2.789497e-02,3,0,1.210702e+00,1.210702e+00
4.049950e-01,3.192900e-02,2.789497e-02,3,0,1.323178e+00,1.323179e+00
4.105810e-01,3.197800e-02,2.813339e-02,3,0,7.812620e-01,7.812620e-01
4.044420e-01,3.213000e-02,2.789497e-02,3,0,7.454100e-01,7.454102e-01
4.102760e-01,3.204500e-02,2.789497e-02,3,0,6.351316e-01,6.351316e-01
4.052620e-01,3.226100e-02,2.789497e-02,3,0,6.281938e-01,6.281943e-01
4.105730e-01,3.210800e-02,2.813339e-02,3,0,8.975784e-01,8.975791e-01
4.047540e-01,3.208500e-02,2.789497e-02,3,0,9.912051e-01,9.912055e-01
4.052040e-01,3.258700e-02,2.789497e-02,3,0,6.697291e-01,6.697290e-01
4.047430e-01,3.234100e-02,2.813339e-02,3,0,6.732946e-01,6.732949e-01
4.049850e-01,3.247700e-02,2.813339e-02,3,0,6.307868e-01,6.307870e-01
4.098380e-01,3.249200e-02,2.789497e-02,3,0,4.562135e-01,4.562137e-01
4.047420e-01,3.259200e-02,2.908707e-02,3,0,3.680576e-01,3.680577e-01
4.104390e-01,3.185100e-02,2.789497e-02,3,0,5.854030e-01,5.854036e-01
4.046710e-01,3.261700e-02,2.813339e-02,3,0,3.295080e-01,3.295081e-01
4.100040e-01,3.252700e-02,2.908707e-02,3,0,3.528360e-01,3.528362e-01
4.045740e-01,3.251000e-02,2.884865e-02,3,0,8.081614e-01,8.081623e-01
4.047550e-01,3.238100e-02,2.813339e-02,3,0,5.797070e-01,5.797070e-01
4.047930e-01,3.643500e-02,3.194809e-02,3,0,1.679548e+00,1.679550e+00
4.044540e-01,3.217800e-02,2.789497e-02,3,0,1.184049e+00,1.184048e+00
4.098560e-01,3.181200e-02,2.694130e-02,3,0,1.221860e+00,1.221861e+00
4.048990e-01,3.187900e-02,2.717972e-02,3,0,1.594107e+00,1.594108e+00
4.100240e-01,3.195900e-02,2.789497e-02,3,0,1.490865e+00,1.490865e+00
4.046030e-01,3.184400e-02,2.789497e-02,3,0,1.655636e+00,1.655637e+00
4.101210e-01,3.212200e-02,2.813339e-02,3,0,2.813744e+00,2.813747e+00
4.048720e-01,3.188500e-02,2.813339e-02,3,0,1.918059e+00,1.918059e+00
4.089990e-01,3.230200e-02,2.789497e-02,3,0,1.479688e+00,1.479688e+00
4.051500e-01,3.242500e-02,2.789497e-02,3,0,1.281167e+00,1.281167e+00
4.043160e-01,3.178300e-02,2.717972e-02,3,0,7.374815e-01,7.374818e-01
4.093650e-01,3.154000e-02,2.717972e-02,3,0,8.410949e-01,8.410959e-01
4.056260e-01,3.198000e-02,2.813339e-02,3,0,5.335648e-01,5.335650e-01
4.097140e-01,3.195200e-02,2.789497e-02,3,0,6.434313e-01,6.434318e-01
4.052570e-01,3.194300e-02,2.813339e-02,3,0,3.223489e-01,3.223489e-01
4.102060e-01,3.174600e-02,2.813339e-02,3,0,2.693104e-01,2.693106e-01
4.051370e-01,3.203400e-02,2.789497e-02,3,0,3.005639e-01,3.005640e-01
4.093480e-01,3.188300e-02,2.813339e-02,3,0,6.012672e-01,6.012679e-01
4.044350e-01,3.220300e-02,2.813339e-02,3,0,6.380639e-01,6.380642e-01
4.053060e-01,3.195800e-02,2.813339e-02,3,0,5.389642e-01,5.389643e-01
4.104660e-01,3.186000e-02,2.789497e-02,3,0,5.923912e-01,5.923915e-01
4.047610e-01,3.205800e-02,2.813339e-02,3,0,5.107945e-01,5.107947e-01
4.095230e-01,3.169000e-02,2.813339e-02,3,0,8.983728e-01,8.983736e-01
4.048990e-01,3.187300e-02,2.789497e-02,3,0,1.446679e+00,1.446680e+00
4.098180e-01,3.184100e-02,2.789497e-02,3,0,1.665911e+00,1.665912e+00
4.047650e-01,3.204500e-02,2.813339e-02,3,0,1.321370e+00,1.321370e+00
4.105230e-01,3.205700e-02,2.813339e-02,3,0,1.160036e+00,1.160036e+00
4.048200e-01,3.227100e-02,2.789497e-02,3,0,1.085934e+00,1.085935e+00
4.047610e-01,3.199300e-02,2.813339e-02,3,0,8.158447e-01,8.158447e-01
4.095160e-01,3.186900e-02,2.813339e-02,3,0,5.973871e-01,5.973878e-01
4.046460e-01,3.233200e-02,2.789497e-02,3,0,8.683790e-01,8.683799e-01
4.100710e-01,3.201300e-02,2.789497e-02,3,0,1.224913e+00,1.224914e+00
4.049040e-01,3.222300e-02,2.813339e-02,3,0,7.685683e-01,7.685682e-01
4.105500e-01,3.199300e-02,2.789497e-02,3,0,7.563769e-01,7.563771e-01
4.052120e-01,3.199100e-02,2.813339e-02,3,0,7.099581e-01,7.099583e-01
4.101190e-01,3.177900e-02,2.813339e-02,3,0,6.809937e-01,6.809939e-01
4.051490e-01,3.217000e-02,2.789497e-02,3,0,5.510334e-01,5.510335e-01
4.050050e-01,3.209000e-02,2.789497e-02,3,0,6.010016e-01,6.010019e-01
4.096140e-01,3.189300e-02,2.813339e-02,3,0,9.725007e-01,9.725017e-01
4.049060e-01,3.225400e-02,2.789497e-02,3,0,9.366869e-01,9.366871e-01
4.095930e-01,3.202100e-02,2.813339e-02,3,0,1.015780e+00,1.015780e+00
4.054160e-01,3.192200e-02,2.717972e-02,3,0,1.234662e+00,1.234663e+00
4.100750e-01,3.174800e-02,2.789497e-02,3,0,5.605936e-01,5.605935e-01
4.048970e-01,3.252600e-02,2.908707e-02,3,0,4.174208e-01,4.174209e-01
4.101440e-01,3.168400e-02,2.813339e-02,3,0,4.762187e-01,4.762191e-01
4.049400e-01,3.172600e-02,2.789497e-02,3,0,1.865198e-01,1.865199e-01
4.042230e-01,3.177000e-02,2.789497e-02,3,0,1.920409e-01,1.920410e-01
4.050480e-01,3.191800e-02,2.789497e-02,3,0,3.305189e-01,3.305192e-01
4.042990e-01,3.187700e-02,2.813339e-02,3,0,2.912341e-01,2.912342e-01
4.097370e-01,3.202100e-02,2.694130e-02,3,0,8.482769e-01,8.482782e-01
4.048160e-01,3.237500e-02,2.789497e-02,3,0,6.665035e-01,6.665040e-01
4.102210e-01,3.219500e-02,2.813339e-02,3,0,4.916388e-01,4.916389e-01
4.048570e-01,3.255700e-02,2.813339e-02,3,0,4.448167e-01,4.448168e-01
4.103310e-01,3.249700e-02,2.884865e-02,3,0,4.528620e-01,4.528623e-01
4.295650e-01,3.233600e-02,2.813339e-02,3,0,4.545842e-01,4.545844e-01
4.095610e-01,3.262700e-02,2.789497e-02,3,0,3.105070e-01,3.105071e-01
4.050200e-01,3.246100e-02,2.789497e-02,3,0,3.274085e-01,3.274088e-01
4.052010e-01,3.274800e-02,2.813339e-02,3,0,2.924056e-01,2.924058e-01
4.093200e-01,3.244700e-02,2.789497e-02,3,0,2.517611e-01,2.517612e-01
4.048940e-01,3.228700e-02,2.789497e-02,3,0,6.211287e-01,6.211295e-01
4.105860e-01,3.177200e-02,2.813339e-02,3,0,4.351212e-01,4.351215e-01
4.049150e-01,3.218000e-02,2.789497e-02,3,0,6.480730e-01,6.480735e-01
4.096130e-01,3.206700e-02,2.789497e-02,3,0,1.035904e+00,1.035905e+00
4.049900e-01,3.207600e-02,2.813339e-02,3,0,8.709634e-01,8.709639e-01
4.116850e-01,3.219500e-02,2.789497e-02,3,0,9.737405e-01,9.737410e-01
4.046770e-01,3.236400e-02,2.813339e-02,3,0,7.453204e-01,7.453205e-01
4.046450e-01,3.182700e-02,2.789497e-02,3,0,7.013960e-01,7.013963e-01
4.097950e-01,3.208100e-02,2.789497e-02,3,0,7.998239e-01,7.998243e-01
4.049440e-01,3.197900e-02,2.789497e-02,3,0,1.609745e+00,1.609747e+00
4.103540e-01,3.196500e-02,2.813339e-02,3,0,2.125077e+00,2.125078e+00
4.054130e-01,3.213200e-02,2.789497e-02,3,0,1.900785e+00,1.900785e+00
4.097930e-01,3.164500e-02,2.694130e-02,3,0,1.576720e+00,1.576720e+00
4.047490e-01,3.195100e-02,2.717972e-02,3,0,1.430840e+00,1.430841e+00
4.099880e-01,3.192300e-02,2.789497e-02,3,0,1.045641e+00,1.045641e+00
4.048560e-01,3.195300e-02,2.789497e-02,3,0,1.047994e+00,1.047995e+00
4.049410e-01,3.176900e-02,2.813339e-02,3,0,1.046304e+00,1.046305e+00
4.093740e-01,3.174400e-02,2.789497e-02,3,0,8.081162e-01,8.081163e-01
4.052050e-01,3.202400e-02,2.789497e-02,3,0,7.322280e-01,7.322281e-01
4.093900e-01,3.186300e-02,2.789497e-02,3,0,1.369697e+00,1.369699e+00
4.040040e-01,3.238100e-02,2.813339e-02,3,0,2.682522e+00,2.682525e+00
4.100580e-01,3.214700e-02,2.908707e-02,3,0,2.762366e+00,2.762367e+00
4.052970e-01,3.247900e-02,2.789497e-02,3,0,2.811566e+00,2.811566e+00
4.100490e-01,3.174700e-02,2.813339e-02,3,0,3.292974e+00,3.292975e+00
4.050860e-01,3.208700e-02,2.813339e-02,3,0,4.677498e+00,4.677501e+00
4.047280e-01,3.179700e-02,2.789497e-02,3,0,3.084750e+00,3.084748e+00
4.103860e-01,3.194900e-02,2.813339e-02,3,0,3.772827e+00,3.772830e+00
4.051300e-01,3.175700e-02,2.813339e-02,3,0,2.976594e+00,2.976594e+00
4.113720e-01,3.175100e-02,2.789497e-02,3,0,2.830556e+00,2.830557e+00
4.051770e-01,3.195900e-02,2.813339e-02,3,0,2.049864e+00,2.049863e+00
4.105690e-01,3.184000e-02,2.694130e-02,3,0,2.575688e+00,2.575690e+00
4.054790e-01,3.226500e-02,2.813339e-02,3,0,1.851266e+00,1.851265e+00
4.100160e-01,3.215000e-02,2.789497e-02,3,0,2.384727e+00,2.384729e+00
4.047280e-01,3.171600e-02,2.694130e-02,3,0,8.229260e-01,8.229253e-01
4.050250e-01,3.168400e-02,2.813339e-02,3,0,8.089212e-01,8.089218e-01
4.052810e-01,3.642900e-02,3.194809e-02,3,0,1.269859e+00,1.269860e+00
4.047420e-01,3.185200e-02,2.694130e-02,3,0,8.596930e-01,8.596929e-01
4.098100e-01,3.199700e-02,2.789497e-02,3,0,1.451383e+00,1.451384e+00
4.057510e-01,3.212800e-02,2.813339e-02,3,0,1.317253e+00,1.317254e+00
4.108800e-01,3.211200e-02,2.789497e-02,3,0,2.435876e+00,2.435878e+00
4.052600e-01,3.201100e-02,2.813339e-02,3,0,1.188777e+00,1.188776e+00
4.108170e-01,3.195300e-02,2.789497e-02,3,0,9.803944e-01,9.803946e-01
4.045890e-01,3.271500e-02,2.908707e-02,3,0,8.159143e-01,8.159144e-01
4.098440e-01,3.241400e-02,2.789497e-02,3,0,8.274884e-01,8.274887e-01
4.052420e-01,3.235900e-02,2.789497e-02,3,0,9.257435e-01,9.257438e-01
4.049390e-01,3.250300e-02,2.813339e-02,3,0,1.441314e+00,1.441315e+00
4.099120e-01,3.215200e-02,2.789497e-02,3,0,7.046571e-01,7.046565e-01
4.046800e-01,3.288300e-02,2.908707e-02,3,0,4.818445e-01,4.818446e-01
4.103530e-01,3.219800e-02,2.789497e-02,3,0,5.910038e-01,5.910041e-01
4.050650e-01,3.233900e-02,2.813339e-02,3,0,6.100773e-01,6.100776e-01
4.104050e-01,3.205500e-02,2.813339e-02,3,0,4.665784e-01,4.665784e-01
4.052540e-01,3.218600e-02,2.789497e-02,3,0,7.024095e-01,7.024103e-01
4.096490e-01,3.225200e-02,2.813339e-02,3,0,9.736101e-01,9.736106e-01
4.049020e-01,3.197000e-02,2.813339e-02,3,0,1.412109e+00,1.412109e+00
4.048360e-01,3.174800e-02,2.789497e-02,3,0,2.936460e+00,2.936463e+00
4.097150e-01,3.202200e-02,2.789497e-02,3,0,3.792861e+00,3.792863e+00
4.046670e-01,3.190500e-02,2.813339e-02,3,0,2.642161e+00,2.642161e+00
4.109270e-01,3.170500e-02,2.789497e-02,3,0,3.223706e+00,3.223708e+00
4.045790e-01,3.208800e-02,2.789497e-02,3,0,2.391579e+00,2.391579e+00
4.103680e-01,3.186500e-02,2.813339e-02,3,0,1.936375e+00,1.936375e+00
4.045590e-01,3.203000e-02,2.789497e-02,3,0,2.205286e+00,2.205287e+00
4.104510e-01,3.206900e-02,2.789497e-02,3,0,1.320858e+00,1.320857e+00
4.047250e-01,3.179900e-02,2.813339e-02,3,0,8.408198e-01,8.408204e-01
4.046160e-01,3.213800e-02,2.813339e-02,3,0,6.712734e-01,6.712735e-01
4.097910e-01,3.188900e-02,2.789497e-02,3,0,7.014755e-01,7.014757e-01
4.052070e-01,3.207300e-02,2.789497e-02,3,0,7.419146e-01,7.419148e-01
4.103650e-01,3.194400e-02,2.813339e-02,3,0,1.165932e+00,1.165933e+00
4.055270e-01,3.184900e-02,2.789497e-02,3,0,4.149588e-01,4.149584e-01
4.098260e-01,3.197800e-02,2.813339e-02,3,0,1.493786e+00,1.493788e+00
4.045550e-01,3.247300e-02,2.908707e-02,3,0,3.011956e+00,3.011958e+00
4.099390e-01,3.181600e-02,2.694130e-02,3,0,1.855048e+00,1.855047e+00
4.048390e-01,3.228600e-02,2.813339e-02,3,0,1.348674e+00,1.348674e+00
4.047920e-01,3.200800e-02,2.813339e-02,3,0,1.111577e+00,1.111577e+00
4.353130e-01,3.213400e-02,2.789497e-02,3,0,9.684545e-01,9.684546e-01
4.046190e-01,3.274100e-02,2.789497e-02,3,0,9.115081e-01,9.115083e-01
4.103220e-01,3.167900e-02,2.813339e-02,3,0,1.481985e+00,1.481986e+00
4.047690e-01,3.236400e-02,2.789497e-02,3,0,1.190557e+00,1.190557e+00
4.101050e-01,3.176200e-02,2.789497e-02,3,0,8.585369e-01,8.585369e-01
4.056260e-01,3.227200e-02,2.813339e-02,3,0,9.729904e-01,9.729908e-01
4.096220e-01,3.190800e-02,2.694130e-02,3,0,1.616507e+00,1.616508e+00
4.052030e-01,3.182400e-02,2.789497e-02,3,0,2.519706e+00,2.519708e+00
4.048270e-01,3.183000e-02,2.717972e-02,3,0,4.356772e+00,4.356776e+00
4.052610e-01,3.217800e-02,2.813339e-02,3,0,5.262371e+00,5.262373e+00
4.051780e-01,3.181700e-02,2.789497e-02,3,0,4.809030e+00,4.809030e+00
4.094630e-01,3.184800e-02,2.813339e-02,3,0,5.028560e+00,5.028562e+00
4.047850e-01,3.203800e-02,2.789497e-02,3,0,4.296137e+00,4.296137e+00
4.106730e-01,3.193200e-02,2.789497e-02,3,0,4.467172e+00,4.467174e+00
4.050580e-01,3.228100e-02,2.813339e-02,3,0,4.403869e+00,4.403870e+00
4.100940e-01,3.170000e-02,2.789497e-02,3,0,3.773923e+00,3.773923e+00
4.053730e-01,3.204800e-02,2.789497e-02,3,0,3.321917e+00,3.321917e+00
4.107540e-01,3.220500e-02,2.813339e-02,3,0,2.557784e+00,2.557783e+00
4.055460e-01,3.253800e-02,2.884865e-02,3,0,2.472227e+00,2.472227e+00
4.047210e-01,3.203000e-02,2.813339e-02,3,0,2.617061e+00,2.617062e+00
4.090550e-01,3.188200e-02,2.789497e-02,3,0,3.367619e+00,3.367621e+00
4.113460e-01,2.250840e-01,2.210140e-01,3,4,5.686536e+00,5.755159e+00
8.106090e-01,1.897820e-01,1.859665e-01,6,4,5.914706e+00,5.896661e+00
8.072860e-01,1.491640e-01,1.449585e-01,6,3,6.356600e+00,6.355863e+00
4.056660e-01,7.867200e-02,7.390976e-02,3,1,5.475181e+00,5.475166e+00
4.052110e-01,3.265300e-02,2.789497e-02,3,0,5.457677e+00,5.457678e+00
4.102910e-01,3.227300e-02,2.789497e-02,3,0,6.424481e+00,6.424485e+00
4.053440e-01,3.243700e-02,2.813339e-02,3,0,5.985187e+00,5.985188e+00
4.095940e-01,3.215900e-02,2.789497e-02,3,0,5.110530e+00,5.110530e+00
4.057070e-01,3.220500e-02,2.813339e-02,3,0,4.374727e+00,4.374727e+00
4.103370e-01,3.215800e-02,2.789497e-02,3,0,3.708827e+00,3.708827e+00
4.300080e-01,3.220100e-02,2.813339e-02,3,0,3.209941e+00,3.209940e+00
4.119420e-01,3.234800e-02,2.813339e-02,3,0,3.010906e+00,3.010906e+00
4.047050e-01,3.210700e-02,2.813339e-02,3,0,3.305011e+00,3.305013e+00
4.047350e-01,3.223500e-02,2.813339e-02,3,0,1.931730e+00,1.931728e+00
4.046200e-01,3.209900e-02,2.789497e-02,3,0,1.772410e+00,1.772410e+00
4.042590e-01,3.214800e-02,2.789497e-02,3,0,2.000840e+00,2.000841e+00
4.090570e-01,3.188000e-02,2.813339e-02,3,0,1.475190e+00,1.475189e+00
4.046980e-01,3.176400e-02,2.813339e-02,3,0,1.264200e+00,1.264200e+00
4.102260e-01,3.203500e-02,2.813339e-02,3,0,1.061034e+00,1.061034e+00
4.046550e-01,3.235700e-02,2.789497e-02,3,0,7.293786e-01,7.293786e-01
4.101040e-01,3.179000e-02,2.813339e-02,3,0,4.083885e-01,4.083890e-01
4.052460e-01,3.245000e-02,2.908707e-02,3,0,3.376104e-01,3.376108e-01
4.053470e-01,3.204700e-02,2.789497e-02,3,0,4.264529e-01,4.264532e-01
4.048410e-01,3.655800e-02,3.194809e-02,3,0,4.787154e-01,4.787157e-01
4.048370e-01,3.198400e-02,2.789497e-02,3,0,3.924166e-01,3.924167e-01
4.095460e-01,3.193700e-02,2.717972e-02,3,0,3.408020e-01,3.408024e-01
4.051830e-01,3.228400e-02,2.789497e-02,3,0,9.408226e-01,9.408237e-01
4.101480e-01,3.201900e-02,2.789497e-02,3,0,1.982785e+00,1.982787e+00
4.054790e-01,3.230500e-02,2.813339e-02,3,0,2.602620e+00,2.602621e+00
4.104130e-01,3.183500e-02,2.789497e-02,3,0,2.231798e+00,2.231798e+00
4.052940e-01,3.228500e-02,2.908707e-02,3,0,2.355797e+00,2.355798e+00
4.097440e-01,3.215400e-02,2.813339e-02,3,0,2.352799e+00,2.352800e+00
4.053990e-01,3.219900e-02,2.789497e-02,3,0,2.149651e+00,2.149652e+00
4.045060e-01,3.214400e-02,2.813339e-02,3,0,1.701742e+00,1.701742e+00
4.095330e-01,3.191400e-02,2.789497e-02,3,0,1.758415e+00,1.758415e+00
4.043620e-01,3.203800e-02,2.813339e-02,3,0,3.190626e+00,3.190630e+00
4.101160e-01,8.236800e-02,7.915497e-02,3,1,4.228989e+00,4.229022e+00
4.050330e-01,1.349070e-01,1.311302e-01,3,2,5.091355e+00,5.155150e+00
4.099770e-01,1.176400e-01,1.139641e-01,3,2,4.301125e+00,4.303884e+00
4.053260e-01,7.285400e-02,6.890297e-02,3,1,3.361438e+00,3.361437e+00
4.096540e-01,3.207000e-02,2.789497e-02,3,0,2.513077e+00,2.513077e+00
4.053520e-01,3.194400e-02,2.813339e-02,3,0,2.007333e+00,2.007334e+00
4.183180e-01,3.178700e-02,2.789497e-02,3,0,2.423558e+00,2.423560e+00
4.050970e-01,3.244900e-02,2.884865e-02,3,0,2.462090e+00,2.462090e+00
4.096850e-01,3.199900e-02,2.813339e-02,3,0,1.948325e+00,1.948325e+00
4.047640e-01,3.210100e-02,2.813339e-02,3,0,1.949055e+00,1.949056e+00
4.091080e-01,3.222500e-02,2.789497e-02,3,0,2.288417e+00,2.288418e+00
4.049860e-01,3.187900e-02,2.789497e-02,3,0,2.450983e+00,2.450984e+00
4.045080e-01,3.233500e-02,2.908707e-02,3,0,3.019884e+00,3.019886e+00
4.095700e-01,3.193800e-02,2.813339e-02,3,0,2.414718e+00,2.414718e+00
4.140750e-01,3.210200e-02,2.789497e-02,3,0,3.203850e+00,3.203852e+00
4.098120e-01,3.194800e-02,2.789497e-02,3,0,3.147898e+00,3.147899e+00
4.047350e-01,3.212500e-02,2.813339e-02,3,0,2.662263e+00,2.662263e+00
4.101120e-01,3.164200e-02,2.813339e-02,3,0,2.198210e+00,2.198210e+00
4.052170e-01,3.208400e-02,2.789497e-02,3,0,2.293594e+00,2.293594e+00
4.092810e-01,3.191700e-02,2.813339e-02,3,0,2.306371e+00,2.306372e+00
4.044880e-01,3.202000e-02,2.813339e-02,3,0,1.796254e+00,1.796254e+00
4.046880e-01,3.182100e-02,2.813339e-02,3,0,1.819995e+00,1.819995e+00
4.091560e-01,3.169200e-02,2.694130e-02,3,0,1.248125e+00,1.248125e+00
4.048790e-01,3.214500e-02,2.789497e-02,3,0,1.018029e+00,1.018029e+00
4.100600e-01,3.211900e-02,2.789497e-02,3,0,5.822704e-01,5.822705e-01
4.041310e-01,3.241300e-02,2.813339e-02,3,0,3.330042e-01,3.330043e-01
4.098350e-01,3.219700e-02,2.789497e-02,3,0,2.482012e-01,2.482013e-01
4.052460e-01,3.202300e-02,2.789497e-02,3,0,4.556665e-01,4.556671e-01
4.098260e-01,3.209900e-02,2.813339e-02,3,0,2.828503e-01,2.828503e-01
4.046710e-01,3.217300e-02,2.789497e-02,3,0,2.550038e-01,2.550041e-01
4.050590e-01,3.209900e-02,2.813339e-02,3,0,1.703391e-01,1.703393e-01
4.086850e-01,3.161900e-02,2.789497e-02,3,0,2.014382e-01,2.014383e-01
4.051840e-01,3.247600e-02,2.789497e-02,3,0,1.610878e-01,1.610879e-01
4.104370e-01,3.208500e-02,2.813339e-02,3,0,3.675098e-01,3.675102e-01
4.048710e-01,3.224200e-02,2.789497e-02,3,0,2.943286e-01,2.943288e-01
4.173850e-01,3.180300e-02,2.789497e-02,3,0,1.531881e-01,1.531885e-01
4.046650e-01,3.233400e-02,2.789497e-02,3,0,3.406145e-01,3.406149e-01
4.099720e-01,3.212800e-02,2.789497e-02,3,0,1.992794e-01,1.992794e-01
4.047510e-01,3.230900e-02,2.813339e-02,3,0,2.863253e-01,2.863255e-01
4.051500e-01,3.211400e-02,2.789497e-02,3,0,3.065630e-01,3.065632e-01
4.047750e-01,3.677100e-02,3.290176e-02,3,0,5.424410e-01,5.424416e-01
4.041750e-01,3.192700e-02,2.813339e-02,3,0,4.279558e-01,4.279559e-01
4.094140e-01,3.243800e-02,2.908707e-02,3,0,2.632428e-01,2.632428e-01
4.048140e-01,3.282100e-02,2.789497e-02,3,0,1.987338e-01,1.987340e-01
4.094970e-01,3.199000e-02,2.789497e-02,3,0,3.001355e-01,3.001358e-01
4.046350e-01,3.244000e-02,2.908707e-02,3,0,2.796328e-01,2.796329e-01
4.102140e-01,3.194600e-02,2.789497e-02,3,0,2.333222e-01,2.333222e-01
4.049080e-01,3.244900e-02,2.789497e-02,3,0,4.161912e-01,4.161916e-01
4.050890e-01,3.197400e-02,2.813339e-02,3,0,3.164070e-01,3.164072e-01
4.045520e-01,3.720200e-02,3.290176e-02,3,0,4.669154e-01,4.669158e-01
4.046610e-01,3.203200e-02,2.789497e-02,3,0,8.393308e-01,8.393316e-01
4.094880e-01,3.187800e-02,2.813339e-02,3,0,7.641868e-01,7.641872e-01
4.047590e-01,3.241800e-02,2.813339e-02,3,0,6.688066e-01,6.688068e-01
4.101570e-01,3.201000e-02,2.789497e-02,3,0,1.426902e+00,1.426904e+00
4.051210e-01,3.204800e-02,2.789497e-02,3,0,1.782333e+00,1.782334e+00
4.098470e-01,3.215800e-02,2.813339e-02,3,0,1.041850e+00,1.041850e+00
4.045720e-01,3.217100e-02,2.789497e-02,3,0,7.859893e-01,7.859893e-01
4.084250e-01,3.199200e-02,2.789497e-02,3,0,5.735276e-01,5.735277e-01
4.052790e-01,3.186000e-02,2.813339e-02,3,0,4.160026e-01,4.160026e-01
4.050850e-01,3.235600e-02,2.789497e-02,3,0,3.451743e-01,3.451744e-01
4.091670e-01,3.196600e-02,2.789497e-02,3,0,4.915619e-01,4.915622e-01
4.049620e-01,3.194300e-02,2.813339e-02,3,0,4.936917e-01,4.936918e-01
4.101420e-01,3.187500e-02,2.813339e-02,3,0,2.252739e-01,2.252742e-01
4.044130e-01,3.276500e-02,2.884865e-02,3,0,5.618388e-01,5.618395e-01
4.096000e-01,3.173000e-02,2.694130e-02,3,0,3.495964e-01,3.495964e-01
4.046230e-01,3.252900e-02,2.908707e-02,3,0,3.592869e-01,3.592871e-01
4.093490e-01,3.181400e-02,2.789497e-02,3,0,4.280375e-01,4.280379e-01
4.048390e-01,3.229700e-02,2.789497e-02,3,0,3.779338e-01,3.779339e-01
4.044270e-01,3.191300e-02,2.813339e-02,3,0,4.555058e-01,4.555061e-01
4.096620e-01,3.212200e-02,2.789497e-02,3,0,5.577085e-01,5.577089e-01
4.046300e-01,3.205300e-02,2.813339e-02,3,0,4.481921e-01,4.481923e-01
4.101830e-01,3.189500e-02,2.813339e-02,3,0,4.443838e-01,4.443842e-01
4.047760e-01,3.215500e-02,2.884865e-02,3,0,5.393824e-01,5.393827e-01
4.096660e-01,3.173000e-02,2.694130e-02,3,0,6.312316e-01,6.312320e-01
4.048260e-01,3.255000e-02,2.908707e-02,3,0,9.205165e-01,9.205172e-01
4.100210e-01,3.190000e-02,2.789497e-02,3,0,6.345202e-01,6.345203e-01
4.048690e-01,3.194000e-02,2.789497e-02,3,0,5.539466e-01,5.539472e-01
4.046840e-01,3.214600e-02,2.813339e-02,3,0,5.765081e-01,5.765082e-01
4.094770e-01,3.228300e-02,2.813339e-02,3,0,6.578870e-01,6.578873e-01
4.043250e-01,3.227800e-02,2.789497e-02,3,0,5.534815e-01,5.534817e-01
4.098030e-01,3.220700e-02,2.789497e-02,3,0,9.484619e-01,9.484631e-01
4.052060e-01,3.233800e-02,2.813339e-02,3,0,7.298599e-01,7.298600e-01
4.103110e-01,3.191400e-02,2.789497e-02,3,0,7.465294e-01,7.465297e-01
4.048020e-01,3.244600e-02,2.908707e-02,3,0,7.507962e-01,7.507964e-01
4.101580e-01,3.205900e-02,2.813339e-02,3,0,6.817459e-01,6.817461e-01
4.298580e-01,3.204100e-02,2.789497e-02,3,0,4.901159e-01,4.901160e-01
4.044240e-01,3.233700e-02,2.789497e-02,3,0,5.921281e-01,5.921285e-01
4.052860e-01,3.735300e-02,3.314018e-02,3,0,6.727251e-01,6.727256e-01
4.047120e-01,3.230500e-02,2.789497e-02,3,0,4.880306e-01,4.880307e-01
4.093280e-01,3.228300e-02,2.789497e-02,3,0,8.279034e-01,8.279043e-01
4.049670e-01,3.223500e-02,2.813339e-02,3,0,6.131676e-01,6.131677e-01
4.103010e-01,3.219500e-02,2.789497e-02,3,0,5.265205e-01,5.265207e-01
4.048730e-01,3.240200e-02,2.789497e-02,3,0,5.088590e-01,5.088592e-01
4.094380e-01,3.203900e-02,2.813339e-02,3,0,3.969120e-01,3.969123e-01
4.045430e-01,3.265200e-02,2.789497e-02,3,0,2.762960e-01,2.762961e-01
4.094980e-01,3.199400e-02,2.789497e-02,3,0,4.978548e-01,4.978552e-01
4.044210e-01,3.187900e-02,2.813339e-02,3,0,4.210892e-01,4.210894e-01
4.047830e-01,3.206000e-02,2.813339e-02,3,0,4.279700e-01,4.279704e-01
4.102350e-01,3.193300e-02,2.789497e-02,3,0,4.182497e-01,4.182498e-01
4.051220e-01,3.251200e-02,2.789497e-02,3,0,3.543472e-01,3.543474e-01
4.099940e-01,3.198000e-02,2.813339e-02,3,0,4.322884e-01,4.322886e-01
4.047160e-01,3.251200e-02,2.789497e-02,3,0,3.281681e-01,3.281681e-01
4.093330e-01,3.166500e-02,2.789497e-02,3,0,1.257821e+00,1.257823e+00
4.039670e-01,3.233400e-02,2.813339e-02,3,0,2.742537e+00,2.742540e+00
4.095800e-01,3.189900e-02,2.813339e-02,3,0,2.134744e+00,2.134744e+00
4.050940e-01,3.212100e-02,2.789497e-02,3,0,1.555064e+00,1.555064e+00
4.048370e-01,3.139700e-02,2.694130e-02,3,0,1.114300e+00,1.114300e+00
4.146340e-01,3.174900e-02,2.789497e-02,3,0,1.267583e+00,1.267583e+00
4.050780e-01,3.219000e-02,2.813339e-02,3,0,1.013176e+00,1.013176e+00
4.098350e-01,3.181100e-02,2.789497e-02,3,0,1.003273e+00,1.003274e+00
4.047460e-01,3.230700e-02,2.908707e-02,3,0,1.120686e+00,1.120686e+00
4.099590e-01,3.229400e-02,2.813339e-02,3,0,1.208034e+00,1.208034e+00
4.048230e-01,3.233000e-02,2.789497e-02,3,0,1.116001e+00,1.116001e+00
4.099710e-01,3.185500e-02,2.813339e-02,3,0,1.282012e+00,1.282013e+00
4.046500e-01,3.228800e-02,2.813339e-02,3,0,1.768272e+00,1.768273e+00
4.042330e-01,3.187800e-02,2.789497e-02,3,0,1.402028e+00,1.402028e+00
4.088760e-01,3.204300e-02,2.789497e-02,3,0,1.025092e+00,1.025092e+00
4.042930e-01,3.237300e-02,2.789497e-02,3,0,6.593292e-01,6.593289e-01
4.097170e-01,3.191400e-02,2.813339e-02,3,0,4.606536e-01,4.606536e-01
4.045670e-01,3.242800e-02,2.789497e-02,3,0,3.524187e-01,3.524189e-01
4.095810e-01,3.236900e-02,2.789497e-02,3,0,4.960515e-01,4.960519e-01
4.050550e-01,3.234700e-02,2.789497e-02,3,0,3.668235e-01,3.668235e-01
4.106450e-01,3.203000e-02,2.813339e-02,3,0,5.251833e-01,5.251838e-01
4.049830e-01,3.212700e-02,2.789497e-02,3,0,5.437236e-01,5.437238e-01
4.047230e-01,3.219900e-02,2.813339e-02,3,0,5.191680e-01,5.191681e-01
4.182960e-01,4.862300e-02,4.506111e-02,3,0,6.627464e-01,6.627470e-01
4.044530e-01,3.262900e-02,2.884865e-02,3,0,3.909010e-01,3.909010e-01
4.100590e-01,3.224900e-02,2.813339e-02,3,0,3.016423e-01,3.016424e-01
4.048410e-01,3.211000e-02,2.813339e-02,3,0,1.002091e+00,1.002093e+00
4.098360e-01,3.179400e-02,2.694130e-02,3,0,1.093279e+00,1.093279e+00
4.040970e-01,3.224600e-02,2.813339e-02,3,0,5.362180e-01,5.362178e-01
4.092430e-01,3.184100e-02,2.813339e-02,3,0,5.961707e-01,5.961710e-01
4.051450e-01,3.239900e-02,2.813339e-02,3,0,5.419457e-01,5.419458e-01
4.089980e-01,3.199900e-02,2.789497e-02,3,0,6.077994e-01,6.077996e-01
4.049420e-01,3.244300e-02,2.789497e-02,3,0,2.971781e-01,2.971780e-01
4.048240e-01,3.177000e-02,2.813339e-02,3,0,2.040109e-01,2.040110e-01
4.091450e-01,3.185400e-02,2.789497e-02,3,0,3.827939e-01,3.827943e-01
4.045580e-01,3.248600e-02,2.884865e-02,3,0,5.329205e-01,5.329209e-01
4.102370e-01,3.211200e-02,2.789497e-02,3,0,7.166409e-01,7.166414e-01
4.051530e-01,3.203900e-02,2.717972e-02,3,0,4.506404e-01,4.506405e-01
4.099960e-01,3.165000e-02,2.789497e-02,3,0,4.308090e-01,4.308093e-01
4.053800e-01,3.209900e-02,2.789497e-02,3,0,6.218864e-01,6.218870e-01
4.095170e-01,3.211100e-02,2.908707e-02,3,0,9.787901e-01,9.787908e-01
4.043950e-01,3.245100e-02,2.789497e-02,3,0,1.116791e+00,1.116792e+00
4.055090e-01,3.140800e-02,2.694130e-02,3,0,1.540904e+00,1.540905e+00
4.099460e-01,3.215700e-02,2.813339e-02,3,0,1.475718e+00,1.475718e+00
4.053010e-01,3.239600e-02,2.813339e-02,3,0,2.271338e+00,2.271340e+00
4.098480e-01,3.143500e-02,2.694130e-02,3,0,9.813099e-01,9.813095e-01
4.047370e-01,3.253900e-02,2.813339e-02,3,0,8.421965e-01,8.421967e-01
4.098240e-01,3.152200e-02,2.717972e-02,3,0,1.248222e+00,1.248223e+00
4.050010e-01,3.226300e-02,2.789497e-02,3,0,6.708158e-01,6.708154e-01
4.098530e-01,3.211800e-02,2.789497e-02,3,0,5.824210e-01,5.824211e-01
4.052510e-01,3.257300e-02,2.908707e-02,3,0,4.992677e-01,4.992678e-01
4.053150e-01,3.199000e-02,2.789497e-02,3,0,3.472349e-01,3.472349e-01
4.103920e-01,3.229200e-02,2.813339e-02,3,0,6.987594e-01,6.987600e-01
4.050440e-01,3.207900e-02,2.789497e-02,3,0,5.471631e-01,5.471631e-01
4.103900e-01,3.194000e-02,2.789497e-02,3,0,3.170678e-01,3.170678e-01
4.040200e-01,3.226900e-02,2.813339e-02,3,0,5.217454e-01,5.217461e-01
4.119120e-01,3.217100e-02,2.789497e-02,3,0,3.842854e-01,3.842854e-01
4.053040e-01,3.247300e-02,2.813339e-02,3,0,2.140727e-01,2.140729e-01
4.096430e-01,3.216800e-02,2.789497e-02,3,0,2.387965e-01,2.387966e-01
4.041220e-01,3.208600e-02,2.789497e-02,3,0,2.955949e-01,2.955952e-01
4.046500e-01,3.225300e-02,2.813339e-02,3,0,4.694231e-01,4.694236e-01
4.211170e-01,3.212000e-02,2.813339e-02,3,0,9.842172e-01,9.842184e-01
4.172600e-01,3.317600e-02,2.908707e-02,3,0,6.232691e-01,6.232702e-01
4.104480e-01,3.257400e-02,2.908707e-02,3,0,1.098332e+00,1.098333e+00
4.051590e-01,3.204300e-02,2.813339e-02,3,0,4.853319e-01,4.853316e-01
4.093930e-01,3.196100e-02,2.789497e-02,3,0,4.187908e-01,4.187910e-01
4.045280e-01,3.218000e-02,2.908707e-02,3,0,2.720649e-01,2.720649e-01
4.102010e-01,3.241600e-02,2.908707e-02,3,0,2.441733e-01,2.441736e-01
4.051030e-01,3.216800e-02,2.789497e-02,3,0,7.164640e-01,7.164652e-01
4.047160e-01,3.202100e-02,2.813339e-02,3,0,7.442926e-01,7.442928e-01
4.047020e-01,3.845800e-02,2.908707e-02,3,0,1.152313e+00,1.152313e+00
4.051870e-01,3.212200e-02,2.789497e-02,3,0,1.193370e+00,1.193370e+00
4.091760e-01,3.202400e-02,2.813339e-02,3,0,1.380567e+00,1.380568e+00
4.048490e-01,3.234600e-02,2.908707e-02,3,0,2.239501e+00,2.239503e+00
4.101560e-01,3.185100e-02,2.789497e-02,3,0,2.529364e+00,2.529365e+00
4.051580e-01,3.219100e-02,2.813339e-02,3,0,1.942816e+00,1.942816e+00
4.099530e-01,3.211600e-02,2.789497e-02,3,0,1.766978e+00,1.766978e+00
4.049310e-01,3.180800e-02,2.789497e-02,3,0,2.333588e+00,2.333591e+00
4.089460e-01,3.187800e-02,2.789497e-02,3,0,1.662287e+00,1.662287e+00
4.050370e-01,3.267600e-02,2.908707e-02,3,0,1.406041e+00,1.406041e+00
4.050110e-01,3.190000e-02,2.789497e-02,3,0,1.309667e+00,1.309668e+00
4.095810e-01,3.227900e-02,2.789497e-02,3,0,1.353551e+00,1.353551e+00
4.051990e-01,3.234700e-02,2.908707e-02,3,0,1.446554e+00,1.446555e+00
4.099460e-01,3.174500e-02,2.789497e-02,3,0,1.149410e+00,1.149410e+00
4.055050e-01,3.254500e-02,2.884865e-02,3,0,1.202724e+00,1.202725e+00
4.097430e-01,3.205800e-02,2.813339e-02,3,0,1.600580e+00,1.600581e+00
4.042770e-01,3.219900e-02,2.789497e-02,3,0,1.799590e+00,1.799591e+00
4.095120e-01,3.176400e-02,2.789497e-02,3,0,1.192503e+00,1.192502e+00
4.053610e-01,3.222700e-02,2.789497e-02,3,0,1.158590e+00,1.158590e+00
4.047420e-01,3.215500e-02,2.813339e-02,3,0,7.133188e-01,7.133187e-01
4.091800e-01,3.205000e-02,2.789497e-02,3,0,6.901438e-01,6.901442e-01

