2.858410e-01,1.922060e-01,1.280308e-01,2,0,0.000000e+00,0.000000e+00
4.443240e-01,3.496300e-02,2.908707e-02,3,0,7.299426e-02,7.299441e-02
4.049680e-01,3.416000e-02,2.980232e-02,3,0,1.202878e-01,1.202880e-01
4.109990e-01,3.243800e-02,2.908707e-02,3,0,2.752775e-01,2.752778e-01
4.045220e-01,3.269400e-02,2.908707e-02,3,0,2.416191e-01,2.416192e-01
4.040230e-01,3.216800e-02,2.813339e-02,3,0,1.053510e+00,1.053512e+00
4.050600e-01,3.731000e-02,3.314018e-02,3,0,1.486309e+00,1.486310e+00
4.042210e-01,3.251000e-02,2.884865e-02,3,0,1.984450e+00,1.984451e+00
4.229470e-01,3.158400e-02,2.789497e-02,3,0,9.697205e-01,9.697200e-01
4.049470e-01,3.263500e-02,2.789497e-02,3,0,8.785314e-01,8.785315e-01
4.361880e-01,3.226500e-02,2.813339e-02,3,0,7.547275e-01,7.547278e-01
4.046400e-01,3.273800e-02,2.789497e-02,3,0,8.541110e-01,8.541116e-01
4.105520e-01,3.162400e-02,2.694130e-02,3,0,1.335767e+00,1.335769e+00
4.042960e-01,3.268400e-02,2.908707e-02,3,0,1.788927e+00,1.788928e+00
4.102720e-01,3.185500e-02,2.813339e-02,3,0,1.659453e+00,1.659454e+00
4.047030e-01,3.219300e-02,2.789497e-02,3,0,2.269479e+00,2.269481e+00
4.048610e-01,3.214000e-02,2.789497e-02,3,0,1.847245e+00,1.847245e+00
4.236640e-01,3.190800e-02,2.813339e-02,3,0,1.628586e+00,1.628586e+00
4.041890e-01,3.234600e-02,2.813339e-02,3,0,1.634209e+00,1.634209e+00
4.358720e-01,3.199400e-02,2.789497e-02,3,0,1.456978e+00,1.456978e+00
4.052510e-01,3.304100e-02,2.884865e-02,3,0,1.447082e+00,1.447082e+00
4.108760e-01,3.234600e-02,2.813339e-02,3,0,1.253252e+00,1.253252e+00
4.050360e-01,3.227900e-02,2.789497e-02,3,0,1.235691e+00,1.235691e+00
4.101590e-01,3.228000e-02,2.813339e-02,3,0,1.092519e+00,1.092519e+00
4.052440e-01,3.243500e-02,2.789497e-02,3,0,1.047691e+00,1.047691e+00
4.042110e-01,3.224100e-02,2.789497e-02,3,0,9.984293e-01,9.984296e-01
4.042690e-01,3.275000e-02,2.813339e-02,3,0,8.813839e-01,8.813842e-01
4.043340e-01,3.193600e-02,2.813339e-02,3,0,6.596989e-01,6.596991e-01
4.099590e-01,3.158200e-02,2.813339e-02,3,0,2.911126e-01,2.911128e-01
4.040620e-01,3.217500e-02,2.789497e-02,3,0,2.312074e-01,2.312075e-01
4.094840e-01,3.207700e-02,2.789497e-02,3,0,4.522935e-01,4.522942e-01
4.042120e-01,3.229800e-02,2.789497e-02,3,0,5.682805e-01,5.682809e-01
4.092690e-01,3.190200e-02,2.813339e-02,3,0,5.170765e-01,5.170766e-01
4.044550e-01,3.226700e-02,2.813339e-02,3,0,7.868971e-01,7.868977e-01
4.090070e-01,3.183200e-02,2.813339e-02,3,0,6.515139e-01,6.515140e-01
4.047490e-01,3.195500e-02,2.813339e-02,3,0,4.968741e-01,4.968741e-01
4.043110e-01,3.171900e-02,2.789497e-02,3,0,3.894190e-01,3.894192e-01
4.090240e-01,3.194000e-02,2.789497e-02,3,0,3.105377e-01,3.105379e-01
4.046540e-01,3.195200e-02,2.789497e-02,3,0,7.322858e-01,7.322865e-01
4.108830e-01,3.195900e-02,2.813339e-02,3,0,8.038421e-01,8.038423e-01
4.048380e-01,3.168800e-02,2.694130e-02,3,0,1.837617e+00,1.837619e+00
4.099610e-01,3.171100e-02,2.789497e-02,3,0,2.481515e+00,2.481516e+00
4.045280e-01,3.166200e-02,2.694130e-02,3,0,1.605391e+00,1.605391e+00
4.095710e-01,3.149500e-02,2.694130e-02,3,0,2.450231e+00,2.450233e+00
4.043370e-01,3.239900e-02,2.789497e-02,3,0,1.992187e+00,1.992187e+00
4.044290e-01,3.162900e-02,2.717972e-02,3,0,1.623003e+00,1.623003e+00
4.089640e-01,3.195200e-02,2.813339e-02,3,0,1.524520e+00,1.524520e+00
4.043120e-01,3.209200e-02,2.813339e-02,3,0,1.331048e+00,1.331048e+00
4.101210e-01,3.216200e-02,2.813339e-02,3,0,1.102548e+00,1.102548e+00
4.042610e-01,3.243800e-02,2.789497e-02,3,0,7.144915e-01,7.144912e-01
4.103400e-01,3.200000e-02,2.789497e-02,3,0,6.042136e-01,6.042137e-01
4.039610e-01,3.230300e-02,2.813339e-02,3,0,1.020205e+00,1.020206e+00
4.350840e-01,3.208900e-02,2.813339e-02,3,0,7.986932e-01,7.986933e-01
4.037810e-01,3.296000e-02,2.884865e-02,3,0,6.929104e-01,6.929104e-01
4.043930e-01,3.180200e-02,2.813339e-02,3,0,9.035105e-01,9.035111e-01
4.088660e-01,3.176600e-02,2.813339e-02,3,0,1.181459e+00,1.181460e+00
4.045340e-01,3.193300e-02,2.813339e-02,3,0,6.836576e-01,6.836575e-01
4.103520e-01,3.198000e-02,2.813339e-02,3,0,9.577094e-01,9.577101e-01
4.038500e-01,3.236700e-02,2.884865e-02,3,0,1.277777e+00,1.277778e+00
4.099910e-01,3.179000e-02,2.694130e-02,3,0,1.837678e+00,1.837680e+00
4.048350e-01,3.174500e-02,2.789497e-02,3,0,8.481043e-01,8.481047e-01
4.096820e-01,3.149200e-02,2.717972e-02,3,0,1.684327e+00,1.684329e+00
4.047200e-01,3.226400e-02,2.908707e-02,3,0,3.141579e+00,3.141583e+00
4.042460e-01,3.195400e-02,2.694130e-02,3,0,1.790339e+00,1.790337e+00
4.038710e-01,4.230400e-02,3.790855e-02,3,0,2.498342e+00,2.498344e+00
4.040680e-01,3.218300e-02,2.789497e-02,3,0,1.020062e+00,1.020061e+00
4.094060e-01,3.190300e-02,2.694130e-02,3,0,1.180046e+00,1.180047e+00
4.043930e-01,3.221600e-02,2.813339e-02,3,0,1.006402e+00,1.006402e+00
4.093990e-01,3.187500e-02,2.717972e-02,3,0,7.356383e-01,7.356385e-01
4.049380e-01,3.204000e-02,2.789497e-02,3,0,6.450082e-01,6.450085e-01
4.096590e-01,3.176900e-02,2.789497e-02,3,0,9.097486e-01,9.097493e-01
4.043440e-01,3.219600e-02,2.789497e-02,3,0,9.229146e-01,9.229148e-01
4.041570e-01,3.196600e-02,2.813339e-02,3,0,9.367865e-01,9.367868e-01
4.040840e-01,3.630700e-02,3.314018e-02,3,0,1.068926e+00,1.068927e+00
4.037630e-01,3.176800e-02,2.813339e-02,3,0,1.511633e+00,1.511634e+00
4.084410e-01,3.160200e-02,2.717972e-02,3,0,2.005888e+00,2.005889e+00
4.043550e-01,3.193400e-02,2.813339e-02,3,0,1.305145e+00,1.305145e+00
4.095680e-01,3.168600e-02,2.813339e-02,3,0,1.324114e+00,1.324115e+00
4.042790e-01,3.215800e-02,2.908707e-02,3,0,9.914513e-01,9.914512e-01
4.092610e-01,3.143900e-02,2.694130e-02,3,0,4.349969e-01,4.349967e-01
4.046730e-01,3.189300e-02,2.789497e-02,3,0,1.079526e+00,1.079527e+00
4.039850e-01,3.167500e-02,2.694130e-02,3,0,8.278181e-01,8.278180e-01
4.045780e-01,3.666900e-02,3.290176e-02,3,0,7.467932e-01,7.467934e-01
4.047030e-01,3.199000e-02,2.789497e-02,3,0,7.573777e-01,7.573783e-01
4.172020e-01,3.127900e-02,2.694130e-02,3,0,1.012894e+00,1.012895e+00
4.046840e-01,3.194000e-02,2.789497e-02,3,0,1.883313e+00,1.883315e+00
4.097570e-01,3.188100e-02,2.694130e-02,3,0,2.893167e+00,2.893169e+00
4.041420e-01,3.203600e-02,2.789497e-02,3,0,4.331211e+00,4.331213e+00
4.247730e-01,3.236900e-02,2.813339e-02,3,0,3.607361e+00,3.607361e+00
4.043230e-01,4.428700e-02,4.005432e-02,3,0,2.604963e+00,2.604963e+00
4.099150e-01,3.190600e-02,2.789497e-02,3,0,2.040654e+00,2.040654e+00
4.051070e-01,3.213500e-02,2.813339e-02,3,0,1.488948e+00,1.488948e+00
4.046830e-01,3.152500e-02,2.789497e-02,3,0,2.133143e+00,2.133146e+00
4.089090e-01,3.152400e-02,2.694130e-02,3,0,1.666219e+00,1.666218e+00
4.042020e-01,3.226300e-02,2.789497e-02,3,0,2.188657e+00,2.188659e+00
4.092010e-01,3.198100e-02,2.694130e-02,3,0,2.422833e+00,2.422834e+00
4.043470e-01,3.199700e-02,2.789497e-02,3,0,1.129857e+00,1.129856e+00
4.091830e-01,3.165700e-02,2.813339e-02,3,0,1.041197e+00,1.041197e+00
4.044140e-01,3.213500e-02,2.813339e-02,3,0,1.462422e+00,1.462423e+00
4.092100e-01,3.187300e-02,2.813339e-02,3,0,1.561060e+00,1.561060e+00
4.046360e-01,3.211800e-02,2.813339e-02,3,0,1.210702e+00,1.210702e+00
4.041300e-01,3.162000e-02,2.694130e-02,3,0,1.323178e+00,1.323179e+00
4.087440e-01,3.159700e-02,2.789497e-02,3,0,7.812620e-01,7.812620e-01
4.042520e-01,3.181100e-02,2.694130e-02,3,0,7.454100e-01,7.454102e-01
4.089660e-01,3.205000e-02,2.789497e-02,3,0,6.351316e-01,6.351316e-01
4.044120e-01,3.204900e-02,2.789497e-02,3,0,6.281938e-01,6.281943e-01
4.181990e-01,3.163100e-02,2.789497e-02,3,0,8.975784e-01,8.975791e-01
4.044360e-01,3.214500e-02,2.789497e-02,3,0,9.912051e-01,9.912055e-01
4.091380e-01,3.237700e-02,2.813339e-02,3,0,6.697291e-01,6.697290e-01
4.042470e-01,3.228100e-02,2.813339e-02,3,0,6.732946e-01,6.732949e-01
4.042610e-01,3.212400e-02,2.813339e-02,3,0,6.307868e-01,6.307870e-01
4.039610e-01,3.214400e-02,2.789497e-02,3,0,4.562135e-01,4.562137e-01
4.043440e-01,3.253100e-02,2.884865e-02,3,0,3.680576e-01,3.680577e-01
4.094960e-01,3.180900e-02,2.789497e-02,3,0,5.854030e-01,5.854036e-01
4.047510e-01,3.241400e-02,2.813339e-02,3,0,3.295080e-01,3.295081e-01
4.085420e-01,3.208400e-02,2.813339e-02,3,0,3.528360e-01,3.528362e-01
4.043420e-01,3.217800e-02,2.813339e-02,3,0,8.081614e-01,8.081623e-01
4.152550e-01,3.203400e-02,2.813339e-02,3,0,5.797070e-01,5.797070e-01
4.041580e-01,3.162900e-02,2.789497e-02,3,0,1.679548e+00,1.679550e+00
4.042100e-01,3.167600e-02,2.789497e-02,3,0,1.184049e+00,1.184048e+00
4.047530e-01,3.620100e-02,3.194809e-02,3,0,1.221860e+00,1.221861e+00
4.042310e-01,3.182800e-02,2.789497e-02,3,0,1.594107e+00,1.594108e+00
4.087760e-01,3.194600e-02,2.789497e-02,3,0,1.490865e+00,1.490865e+00
4.044460e-01,3.177000e-02,2.789497e-02,3,0,1.655636e+00,1.655637e+00
4.093350e-01,3.195600e-02,2.717972e-02,3,0,2.813744e+00,2.813747e+00
4.047430e-01,3.207900e-02,2.813339e-02,3,0,1.918059e+00,1.918059e+00
4.102850e-01,3.215700e-02,2.789497e-02,3,0,1.479688e+00,1.479688e+00
4.039520e-01,3.222100e-02,2.884865e-02,3,0,1.281167e+00,1.281167e+00
4.042710e-01,3.113400e-02,2.694130e-02,3,0,7.374815e-01,7.374818e-01
4.044650e-01,3.655800e-02,3.290176e-02,3,0,8.410949e-01,8.410959e-01
4.047130e-01,3.176200e-02,2.789497e-02,3,0,5.335648e-01,5.335650e-01
4.090380e-01,3.184000e-02,2.813339e-02,3,0,6.434313e-01,6.434318e-01
4.043010e-01,3.189000e-02,2.813339e-02,3,0,3.223489e-01,3.223489e-01
4.096430e-01,3.181900e-02,2.813339e-02,3,0,2.693104e-01,2.693106e-01
4.044230e-01,3.224400e-02,2.789497e-02,3,0,3.005639e-01,3.005640e-01
4.089100e-01,3.161400e-02,2.694130e-02,3,0,6.012672e-01,6.012679e-01
4.041600e-01,3.219600e-02,2.789497e-02,3,0,6.380639e-01,6.380642e-01
4.046480e-01,3.171500e-02,2.694130e-02,3,0,5.389642e-01,5.389643e-01
4.040320e-01,3.644600e-02,2.789497e-02,3,0,5.923912e-01,5.923915e-01
4.043390e-01,3.167100e-02,2.694130e-02,3,0,5.107945e-01,5.107947e-01
4.086450e-01,3.156400e-02,2.717972e-02,3,0,8.983728e-01,8.983736e-01
4.040260e-01,3.203500e-02,2.813339e-02,3,0,1.446679e+00,1.446680e+00
4.091930e-01,3.149800e-02,2.813339e-02,3,0,1.665911e+00,1.665912e+00
4.043720e-01,3.193700e-02,2.813339e-02,3,0,1.321370e+00,1.321370e+00
4.096330e-01,3.166800e-02,2.813339e-02,3,0,1.160036e+00,1.160036e+00
4.045370e-01,3.221300e-02,2.789497e-02,3,0,1.085934e+00,1.085935e+00
4.087660e-01,3.161400e-02,2.694130e-02,3,0,8.158447e-01,8.158447e-01
4.043210e-01,3.188300e-02,2.789497e-02,3,0,5.973871e-01,5.973878e-01
4.043410e-01,3.201200e-02,2.789497e-02,3,0,8.683790e-01,8.683799e-01
4.093100e-01,3.174800e-02,2.694130e-02,3,0,1.224913e+00,1.224914e+00
4.044100e-01,3.210500e-02,2.813339e-02,3,0,7.685683e-01,7.685682e-01
4.094730e-01,3.181200e-02,2.813339e-02,3,0,7.563769e-01,7.563771e-01
4.039350e-01,3.203500e-02,2.813339e-02,3,0,7.099581e-01,7.099583e-01
4.096600e-01,3.180900e-02,2.813339e-02,3,0,6.809937e-01,6.809939e-01
4.043830e-01,3.212700e-02,2.789497e-02,3,0,5.510334e-01,5.510335e-01
4.093060e-01,3.204400e-02,2.789497e-02,3,0,6.010016e-01,6.010019e-01
4.044750e-01,3.211500e-02,2.789497e-02,3,0,9.725007e-01,9.725017e-01
4.047880e-01,3.202800e-02,2.813339e-02,3,0,9.366869e-01,9.366871e-01
4.091390e-01,3.167800e-02,2.789497e-02,3,0,1.015780e+00,1.015780e+00
4.046790e-01,3.196000e-02,2.789497e-02,3,0,1.234662e+00,1.234663e+00
4.096850e-01,3.156200e-02,2.789497e-02,3,0,5.605936e-01,5.605935e-01
4.041710e-01,3.231400e-02,2.908707e-02,3,0,4.174208e-01,4.174209e-01
4.092590e-01,3.184700e-02,2.813339e-02,3,0,4.762187e-01,4.762191e-01
4.043680e-01,3.154100e-02,2.813339e-02,3,0,1.865198e-01,1.865199e-01
4.091010e-01,3.174400e-02,2.813339e-02,3,0,1.920409e-01,1.920410e-01
4.042840e-01,3.197400e-02,2.813339e-02,3,0,3.305189e-01,3.305192e-01
4.036940e-01,3.145500e-02,2.813339e-02,3,0,2.912341e-01,2.912342e-01
4.087380e-01,3.170900e-02,2.694130e-02,3,0,8.482769e-01,8.482782e-01
4.044930e-01,3.194800e-02,2.813339e-02,3,0,6.665035e-01,6.665040e-01
4.093520e-01,3.181400e-02,2.813339e-02,3,0,4.916388e-01,4.916389e-01
4.040320e-01,3.240200e-02,2.789497e-02,3,0,4.448167e-01,4.448168e-01
4.094910e-01,3.211000e-02,2.789497e-02,3,0,4.528620e-01,4.528623e-01
4.044860e-01,3.225100e-02,2.789497e-02,3,0,4.545842e-01,4.545844e-01
4.089770e-01,3.182900e-02,2.717972e-02,3,0,3.105070e-01,3.105071e-01
4.043910e-01,3.246600e-02,2.908707e-02,3,0,3.274085e-01,3.274088e-01
4.045660e-01,3.219100e-02,2.813339e-02,3,0,2.924056e-01,2.924058e-01
4.090280e-01,3.220000e-02,2.789497e-02,3,0,2.517611e-01,2.517612e-01
4.045100e-01,3.216000e-02,2.789497e-02,3,0,6.211287e-01,6.211295e-01
4.095650e-01,3.191500e-02,2.789497e-02,3,0,4.351212e-01,4.351215e-01
4.041870e-01,3.213900e-02,2.813339e-02,3,0,6.480730e-01,6.480735e-01
4.093950e-01,3.158200e-02,2.813339e-02,3,0,1.035904e+00,1.035905e+00
4.042990e-01,3.210300e-02,2.813339e-02,3,0,8.709634e-01,8.709639e-01
4.088680e-01,3.201200e-02,2.789497e-02,3,0,9.737405e-01,9.737410e-01
4.044280e-01,3.217400e-02,2.789497e-02,3,0,7.453204e-01,7.453205e-01
4.049070e-01,3.161100e-02,2.789497e-02,3,0,7.013960e-01,7.013963e-01
4.087970e-01,3.188000e-02,2.813339e-02,3,0,7.998239e-01,7.998243e-01
4.046470e-01,3.175200e-02,2.694130e-02,3,0,1.609745e+00,1.609747e+00
4.096560e-01,3.159100e-02,2.813339e-02,3,0,2.125077e+00,2.125078e+00
4.046510e-01,3.210100e-02,2.813339e-02,3,0,1.900785e+00,1.900785e+00
4.094560e-01,3.181400e-02,2.789497e-02,3,0,1.576720e+00,1.576720e+00
4.047500e-01,3.175000e-02,2.694130e-02,3,0,1.430840e+00,1.430841e+00
4.095280e-01,3.219000e-02,2.789497e-02,3,0,1.045641e+00,1.045641e+00
4.047160e-01,3.197300e-02,2.813339e-02,3,0,1.047994e+00,1.047995e+00
4.043080e-01,3.195900e-02,2.717972e-02,3,0,1.046304e+00,1.046305e+00
4.091320e-01,3.151600e-02,2.717972e-02,3,0,8.081162e-01,8.081163e-01
4.041960e-01,3.200300e-02,2.717972e-02,3,0,7.322280e-01,7.322281e-01
4.093390e-01,3.154000e-02,2.694130e-02,3,0,1.369697e+00,1.369699e+00
4.043320e-01,3.239600e-02,2.789497e-02,3,0,2.682522e+00,2.682525e+00
4.088110e-01,3.167700e-02,2.789497e-02,3,0,2.762366e+00,2.762367e+00
4.043310e-01,3.231000e-02,2.789497e-02,3,0,2.811566e+00,2.811566e+00
4.097570e-01,3.178600e-02,2.694130e-02,3,0,3.292974e+00,3.292975e+00
4.294860e-01,3.191500e-02,2.789497e-02,3,0,4.677498e+00,4.677501e+00
4.040640e-01,3.212500e-02,2.813339e-02,3,0,3.084750e+00,3.084748e+00
4.048000e-01,3.664300e-02,3.314018e-02,3,0,3.772827e+00,3.772830e+00
4.048500e-01,3.154800e-02,2.717972e-02,3,0,2.976594e+00,2.976594e+00
4.093200e-01,3.132700e-02,2.694130e-02,3,0,2.830556e+00,2.830557e+00
4.048700e-01,3.194100e-02,2.789497e-02,3,0,2.049864e+00,2.049863e+00
4.093500e-01,3.173300e-02,2.694130e-02,3,0,2.575688e+00,2.575690e+00
4.047230e-01,3.206600e-02,2.789497e-02,3,0,1.851266e+00,1.851265e+00
4.094260e-01,3.180100e-02,2.717972e-02,3,0,2.384727e+00,2.384729e+00
4.049280e-01,3.173300e-02,2.813339e-02,3,0,8.229260e-01,8.229253e-01
4.049520e-01,3.168000e-02,2.694130e-02,3,0,8.089212e-01,8.089218e-01
4.040380e-01,3.624900e-02,2.884865e-02,3,0,1.269859e+00,1.269860e+00
4.045220e-01,3.131900e-02,2.694130e-02,3,0,8.596930e-01,8.596929e-01
4.090940e-01,3.172600e-02,2.694130e-02,3,0,1.451383e+00,1.451384e+00
4.042560e-01,3.206500e-02,2.789497e-02,3,0,1.317253e+00,1.317254e+00
4.094510e-01,3.186300e-02,2.789497e-02,3,0,2.435876e+00,2.435878e+00
4.040210e-01,3.191700e-02,2.813339e-02,3,0,1.188777e+00,1.188776e+00
4.092520e-01,3.139500e-02,2.694130e-02,3,0,9.803944e-01,9.803946e-01
4.045240e-01,3.231700e-02,2.789497e-02,3,0,8.159143e-01,8.159144e-01
4.090930e-01,3.202100e-02,2.789497e-02,3,0,8.274884e-01,8.274887e-01
4.047490e-01,3.213500e-02,2.813339e-02,3,0,9.257435e-01,9.257438e-01
4.045150e-01,3.183700e-02,2.717972e-02,3,0,1.441314e+00,1.441315e+00
4.095630e-01,3.189100e-02,2.813339e-02,3,0,7.046571e-01,7.046565e-01
4.042790e-01,3.252800e-02,2.789497e-02,3,0,4.818445e-01,4.818446e-01
4.091850e-01,3.216100e-02,2.884865e-02,3,0,5.910038e-01,5.910041e-01
4.047560e-01,3.215500e-02,2.789497e-02,3,0,6.100773e-01,6.100776e-01
4.095620e-01,3.166200e-02,2.717972e-02,3,0,4.665784e-01,4.665784e-01
4.043800e-01,3.197700e-02,2.813339e-02,3,0,7.024095e-01,7.024103e-01
4.094290e-01,3.189300e-02,2.694130e-02,3,0,9.736101e-01,9.736106e-01
4.044320e-01,3.198400e-02,2.789497e-02,3,0,1.412109e+00,1.412109e+00
4.043020e-01,3.153200e-02,2.789497e-02,3,0,2.936460e+00,2.936463e+00
4.092030e-01,3.198200e-02,2.789497e-02,3,0,3.792861e+00,3.792863e+00
4.045820e-01,3.201700e-02,2.694130e-02,3,0,2.642161e+00,2.642161e+00
4.096280e-01,3.154200e-02,2.813339e-02,3,0,3.223706e+00,3.223708e+00
4.046730e-01,3.167400e-02,2.717972e-02,3,0,2.391579e+00,2.391579e+00
4.099670e-01,3.163200e-02,2.717972e-02,3,0,1.936375e+00,1.936375e+00
4.039180e-01,3.184400e-02,2.813339e-02,3,0,2.205286e+00,2.205287e+00
4.088620e-01,3.167600e-02,2.789497e-02,3,0,1.320858e+00,1.320857e+00
4.047520e-01,3.194000e-02,2.789497e-02,3,0,8.408198e-01,8.408204e-01
4.045230e-01,3.189200e-02,2.789497e-02,3,0,6.712734e-01,6.712735e-01
4.088060e-01,3.184200e-02,2.789497e-02,3,0,7.014755e-01,7.014757e-01
4.043730e-01,3.170800e-02,2.694130e-02,3,0,7.419146e-01,7.419148e-01
4.088690e-01,3.172700e-02,2.694130e-02,3,0,1.165932e+00,1.165933e+00
4.047620e-01,3.168900e-02,2.789497e-02,3,0,4.149588e-01,4.149584e-01
4.096990e-01,3.190600e-02,2.813339e-02,3,0,1.493786e+00,1.493788e+00
4.042590e-01,3.240800e-02,2.813339e-02,3,0,3.011956e+00,3.011958e+00
4.098560e-01,3.148600e-02,2.789497e-02,3,0,1.855048e+00,1.855047e+00
4.043210e-01,3.222600e-02,2.789497e-02,3,0,1.348674e+00,1.348674e+00
4.047870e-01,3.177900e-02,2.694130e-02,3,0,1.111577e+00,1.111577e+00
4.092940e-01,3.196000e-02,2.813339e-02,3,0,9.684545e-01,9.684546e-01
4.048600e-01,3.230000e-02,2.813339e-02,3,0,9.115081e-01,9.115083e-01
4.097090e-01,3.158000e-02,2.694130e-02,3,0,1.481985e+00,1.481986e+00
4.044030e-01,3.220000e-02,2.789497e-02,3,0,1.190557e+00,1.190557e+00
4.095890e-01,3.163900e-02,2.694130e-02,3,0,8.585369e-01,8.585369e-01
4.043640e-01,3.214200e-02,2.789497e-02,3,0,9.729904e-01,9.729908e-01
4.092240e-01,3.165200e-02,2.717972e-02,3,0,1.616507e+00,1.616508e+00
4.046530e-01,3.200700e-02,2.813339e-02,3,0,2.519706e+00,2.519708e+00
4.040260e-01,3.170600e-02,2.813339e-02,3,0,4.356772e+00,4.356776e+00
4.092350e-01,3.194700e-02,2.813339e-02,3,0,5.262371e+00,5.262373e+00
4.045170e-01,3.194800e-02,2.789497e-02,3,0,4.809030e+00,4.809030e+00
4.092790e-01,3.173300e-02,2.789497e-02,3,0,5.028560e+00,5.028562e+00
4.045020e-01,3.163400e-02,2.789497e-02,3,0,4.296137e+00,4.296137e+00
4.105610e-01,3.165400e-02,2.813339e-02,3,0,4.467172e+00,4.467174e+00
4.045270e-01,3.219700e-02,2.908707e-02,3,0,4.403869e+00,4.403870e+00
4.099060e-01,3.171500e-02,2.789497e-02,3,0,3.773923e+00,3.773923e+00
4.046300e-01,3.196500e-02,2.789497e-02,3,0,3.321917e+00,3.321917e+00
4.046980e-01,3.216100e-02,2.908707e-02,3,0,2.557784e+00,2.557783e+00
4.089950e-01,3.224700e-02,2.908707e-02,3,0,2.472227e+00,2.472227e+00
4.041080e-01,3.226200e-02,2.813339e-02,3,0,2.617061e+00,2.617062e+00
4.086570e-01,3.172100e-02,2.789497e-02,3,0,3.367619e+00,3.367621e+00
4.057300e-01,2.242890e-01,2.200603e-01,3,4,5.686536e+00,5.755159e+00
8.047180e-01,1.952180e-01,1.909733e-01,6,4,5.914706e+00,5.896661e+00
8.327900e-01,1.549610e-01,1.509190e-01,6,3,6.356600e+00,6.355863e+00
4.053640e-01,7.845500e-02,7.414818e-02,3,1,5.475181e+00,5.475166e+00
4.044080e-01,3.265000e-02,2.789497e-02,3,0,5.457677e+00,5.457678e+00
4.093190e-01,3.247900e-02,2.908707e-02,3,0,6.424481e+00,6.424485e+00
4.050300e-01,3.253100e-02,2.908707e-02,3,0,5.985187e+00,5.985188e+00
4.108510e-01,3.219900e-02,2.789497e-02,3,0,5.110530e+00,5.110530e+00
4.047140e-01,3.209500e-02,2.813339e-02,3,0,4.374727e+00,4.374727e+00
4.103310e-01,3.212400e-02,2.813339e-02,3,0,3.708827e+00,3.708827e+00
4.045550e-01,3.220200e-02,2.789497e-02,3,0,3.209941e+00,3.209940e+00
4.045780e-01,3.174600e-02,2.789497e-02,3,0,3.010906e+00,3.010906e+00
4.044720e-01,3.637700e-02,2.789497e-02,3,0,3.305011e+00,3.305013e+00
4.044670e-01,3.206300e-02,2.813339e-02,3,0,1.931730e+00,1.931728e+00
4.091750e-01,3.200700e-02,2.813339e-02,3,0,1.772410e+00,1.772410e+00
4.035410e-01,3.207700e-02,2.789497e-02,3,0,2.000840e+00,2.000841e+00
4.093800e-01,3.188500e-02,2.813339e-02,3,0,1.475190e+00,1.475189e+00
4.043980e-01,3.211500e-02,2.789497e-02,3,0,1.264200e+00,1.264200e+00
4.096510e-01,3.197000e-02,2.789497e-02,3,0,1.061034e+00,1.061034e+00
4.297010e-01,3.224300e-02,2.789497e-02,3,0,7.293786e-01,7.293786e-01
4.442550e-01,4.482200e-02,4.100800e-02,3,0,4.083885e-01,4.083890e-01
4.048290e-01,3.374900e-02,2.908707e-02,3,0,3.376104e-01,3.376108e-01
4.519920e-01,3.243400e-02,2.884865e-02,3,0,4.264529e-01,4.264532e-01
4.217050e-01,3.373200e-02,3.004074e-02,3,0,4.787154e-01,4.787157e-01
4.045280e-01,3.262700e-02,2.813339e-02,3,0,3.924166e-01,3.924167e-01
4.095090e-01,3.182800e-02,2.813339e-02,3,0,3.408020e-01,3.408024e-01
4.049080e-01,3.243300e-02,2.789497e-02,3,0,9.408226e-01,9.408237e-01
4.098620e-01,3.183700e-02,2.789497e-02,3,0,1.982785e+00,1.982787e+00
4.044510e-01,3.223300e-02,2.813339e-02,3,0,2.602620e+00,2.602621e+00
4.106310e-01,3.162400e-02,2.717972e-02,3,0,2.231798e+00,2.231798e+00
4.044370e-01,3.228400e-02,2.789497e-02,3,0,2.355797e+00,2.355798e+00
4.352980e-01,3.222000e-02,2.789497e-02,3,0,2.352799e+00,2.352800e+00
4.046520e-01,3.253300e-02,2.813339e-02,3,0,2.149651e+00,2.149652e+00
4.049310e-01,3.189600e-02,2.813339e-02,3,0,1.701742e+00,1.701742e+00
4.046110e-01,3.713100e-02,3.290176e-02,3,0,1.758415e+00,1.758415e+00
4.038970e-01,3.175600e-02,2.694130e-02,3,0,3.190626e+00,3.190630e+00
4.097840e-01,8.223700e-02,7.796288e-02,3,1,4.228989e+00,4.229022e+00
4.044230e-01,1.351890e-01,1.308918e-01,3,2,5.091355e+00,5.155150e+00
4.301930e-01,1.241870e-01,1.199245e-01,3,2,4.301125e+00,4.303884e+00
4.048180e-01,7.288000e-02,6.914139e-02,3,1,3.361438e+00,3.361437e+00
4.166780e-01,4.997500e-02,4.577637e-02,3,0,2.513077e+00,2.513077e+00
4.044650e-01,3.203600e-02,2.789497e-02,3,0,2.007333e+00,2.007334e+00
4.105950e-01,3.161000e-02,2.694130e-02,3,0,2.423558e+00,2.423560e+00
4.046790e-01,3.208000e-02,2.813339e-02,3,0,2.462090e+00,2.462090e+00
4.098000e-01,3.180900e-02,2.789497e-02,3,0,1.948325e+00,1.948325e+00
4.047240e-01,3.201600e-02,2.694130e-02,3,0,1.949055e+00,1.949056e+00
4.099350e-01,3.188900e-02,2.789497e-02,3,0,2.288417e+00,2.288418e+00
4.043180e-01,3.183300e-02,2.813339e-02,3,0,2.450983e+00,2.450984e+00
4.223060e-01,3.197400e-02,2.813339e-02,3,0,3.019884e+00,3.019886e+00
4.052190e-01,4.543100e-02,4.100800e-02,3,0,2.414718e+00,2.414718e+00
4.044640e-01,3.197300e-02,2.789497e-02,3,0,3.203850e+00,3.203852e+00
4.104910e-01,3.197600e-02,2.813339e-02,3,0,3.147898e+00,3.147899e+00
4.041630e-01,3.206100e-02,2.789497e-02,3,0,2.662263e+00,2.662263e+00
4.096510e-01,3.190600e-02,2.789497e-02,3,0,2.198210e+00,2.198210e+00
4.044040e-01,3.200700e-02,2.789497e-02,3,0,2.293594e+00,2.293594e+00
4.091670e-01,3.199400e-02,2.789497e-02,3,0,2.306371e+00,2.306372e+00
4.041330e-01,3.235900e-02,2.813339e-02,3,0,1.796254e+00,1.796254e+00
4.099080e-01,3.182000e-02,2.813339e-02,3,0,1.819995e+00,1.819995e+00
4.043480e-01,3.228300e-02,2.813339e-02,3,0,1.248125e+00,1.248125e+00
4.042340e-01,3.182000e-02,2.694130e-02,3,0,1.018029e+00,1.018029e+00
4.090850e-01,3.161000e-02,2.694130e-02,3,0,5.822704e-01,5.822705e-01
4.046670e-01,3.246500e-02,2.789497e-02,3,0,3.330042e-01,3.330043e-01
4.095810e-01,3.193600e-02,2.694130e-02,3,0,2.482012e-01,2.482013e-01
4.045920e-01,3.199400e-02,2.813339e-02,3,0,4.556665e-01,4.556671e-01
4.095480e-01,3.185300e-02,2.813339e-02,3,0,2.828503e-01,2.828503e-01
4.039080e-01,3.214000e-02,2.789497e-02,3,0,2.550038e-01,2.550041e-01
4.093280e-01,3.198500e-02,2.789497e-02,3,0,1.703391e-01,1.703393e-01
4.043930e-01,3.177100e-02,2.789497e-02,3,0,2.014382e-01,2.014383e-01
4.046570e-01,3.200400e-02,2.789497e-02,3,0,1.610878e-01,1.610879e-01
4.084910e-01,3.205900e-02,2.813339e-02,3,0,3.675098e-01,3.675102e-01
4.044740e-01,3.215900e-02,2.908707e-02,3,0,2.943286e-01,2.943288e-01
4.102720e-01,3.169500e-02,2.813339e-02,3,0,1.531881e-01,1.531885e-01
4.043420e-01,3.242400e-02,2.884865e-02,3,0,3.406145e-01,3.406149e-01
4.105730e-01,3.227800e-02,2.789497e-02,3,0,1.992794e-01,1.992794e-01
4.043890e-01,3.217400e-02,2.813339e-02,3,0,2.863253e-01,2.863255e-01
4.105970e-01,3.197300e-02,2.694130e-02,3,0,3.065630e-01,3.065632e-01
4.043730e-01,3.224100e-02,2.789497e-02,3,0,5.424410e-01,5.424416e-01
4.048980e-01,3.161200e-02,2.789497e-02,3,0,4.279558e-01,4.279559e-01
4.053380e-01,3.702800e-02,2.813339e-02,3,0,2.632428e-01,2.632428e-01
4.040030e-01,3.292700e-02,2.884865e-02,3,0,1.987338e-01,1.987340e-01
4.094060e-01,3.208400e-02,2.789497e-02,3,0,3.001355e-01,3.001358e-01
4.043810e-01,3.234700e-02,2.813339e-02,3,0,2.796328e-01,2.796329e-01
4.098740e-01,3.157600e-02,2.813339e-02,3,0,2.333222e-01,2.333222e-01
4.042930e-01,3.243400e-02,2.813339e-02,3,0,4.161912e-01,4.161916e-01
4.106940e-01,3.171900e-02,2.694130e-02,3,0,3.164070e-01,3.164072e-01
4.043650e-01,3.262800e-02,2.908707e-02,3,0,4.669154e-01,4.669158e-01
4.041210e-01,3.203000e-02,2.813339e-02,3,0,8.393308e-01,8.393316e-01
4.047170e-01,3.720200e-02,3.314018e-02,3,0,7.641868e-01,7.641872e-01
4.048530e-01,3.218700e-02,2.908707e-02,3,0,6.688066e-01,6.688068e-01
4.093150e-01,3.184600e-02,2.789497e-02,3,0,1.426902e+00,1.426904e+00
4.043410e-01,3.189700e-02,2.789497e-02,3,0,1.782333e+00,1.782334e+00
4.105510e-01,3.203700e-02,2.813339e-02,3,0,1.041850e+00,1.041850e+00
4.041160e-01,3.226200e-02,2.789497e-02,3,0,7.859893e-01,7.859893e-01
4.104170e-01,3.205600e-02,2.789497e-02,3,0,5.735276e-01,5.735277e-01
4.042830e-01,3.208500e-02,2.813339e-02,3,0,4.160026e-01,4.160026e-01
4.047090e-01,3.222800e-02,2.813339e-02,3,0,3.451743e-01,3.451744e-01
4.048560e-01,3.724800e-02,2.789497e-02,3,0,4.915619e-01,4.915622e-01
4.045140e-01,3.188800e-02,2.789497e-02,3,0,4.936917e-01,4.936918e-01
4.095280e-01,3.169800e-02,2.813339e-02,3,0,2.252739e-01,2.252742e-01
4.042180e-01,3.251300e-02,2.908707e-02,3,0,5.618388e-01,5.618395e-01
4.114190e-01,3.168900e-02,2.813339e-02,3,0,3.495964e-01,3.495964e-01
4.041590e-01,3.274700e-02,2.884865e-02,3,0,3.592869e-01,3.592871e-01
4.096050e-01,3.164900e-02,2.813339e-02,3,0,4.280375e-01,4.280379e-01
4.046360e-01,3.237900e-02,2.908707e-02,3,0,3.779338e-01,3.779339e-01
4.091630e-01,3.205900e-02,2.813339e-02,3,0,4.555058e-01,4.555061e-01
4.041600e-01,3.250600e-02,2.789497e-02,3,0,5.577085e-01,5.577089e-01
4.044710e-01,3.214400e-02,2.884865e-02,3,0,4.481921e-01,4.481923e-01
4.096440e-01,3.175500e-02,2.789497e-02,3,0,4.443838e-01,4.443842e-01
4.045780e-01,3.212400e-02,2.813339e-02,3,0,5.393824e-01,5.393827e-01
4.099480e-01,3.172800e-02,2.813339e-02,3,0,6.312316e-01,6.312320e-01
4.047100e-01,3.248800e-02,2.789497e-02,3,0,9.205165e-01,9.205172e-01
4.099180e-01,3.184300e-02,2.789497e-02,3,0,6.345202e-01,6.345203e-01
4.040580e-01,3.200400e-02,2.813339e-02,3,0,5.539466e-01,5.539472e-01
4.096820e-01,3.210700e-02,2.813339e-02,3,0,5.765081e-01,5.765082e-01
4.043090e-01,3.242600e-02,2.908707e-02,3,0,6.578870e-01,6.578873e-01
4.040390e-01,3.194200e-02,2.789497e-02,3,0,5.534815e-01,5.534817e-01
4.089440e-01,3.203200e-02,2.789497e-02,3,0,9.484619e-01,9.484631e-01
4.050000e-01,3.235100e-02,2.884865e-02,3,0,7.298599e-01,7.298600e-01
4.098590e-01,3.186700e-02,2.717972e-02,3,0,7.465294e-01,7.465297e-01
4.039470e-01,3.246000e-02,2.789497e-02,3,0,7.507962e-01,7.507964e-01
4.099720e-01,3.190900e-02,2.789497e-02,3,0,6.817459e-01,6.817461e-01
4.046230e-01,3.205000e-02,2.789497e-02,3,0,4.901159e-01,4.901160e-01
4.093340e-01,3.211000e-02,2.813339e-02,3,0,5.921281e-01,5.921285e-01
4.046950e-01,3.268600e-02,2.908707e-02,3,0,6.727251e-01,6.727256e-01
4.042690e-01,3.211500e-02,2.789497e-02,3,0,4.880306e-01,4.880307e-01
4.093550e-01,3.214100e-02,2.789497e-02,3,0,8.279034e-01,8.279043e-01
4.039560e-01,3.230200e-02,2.789497e-02,3,0,6.131676e-01,6.131677e-01
4.103490e-01,3.218800e-02,2.789497e-02,3,0,5.265205e-01,5.265207e-01
4.043890e-01,3.258500e-02,2.813339e-02,3,0,5.088590e-01,5.088592e-01
4.097780e-01,3.192200e-02,2.789497e-02,3,0,3.969120e-01,3.969123e-01
4.037900e-01,3.240200e-02,2.884865e-02,3,0,2.762960e-01,2.762961e-01
4.103570e-01,3.198400e-02,2.789497e-02,3,0,4.978548e-01,4.978552e-01
4.043200e-01,3.203100e-02,2.813339e-02,3,0,4.210892e-01,4.210894e-01
4.041680e-01,3.173400e-02,2.813339e-02,3,0,4.279700e-01,4.279704e-01
4.099910e-01,3.227900e-02,2.908707e-02,3,0,4.182497e-01,4.182498e-01
4.044780e-01,3.220100e-02,2.789497e-02,3,0,3.543472e-01,3.543474e-01
4.097270e-01,3.182400e-02,2.789497e-02,3,0,4.322884e-01,4.322886e-01
4.046590e-01,3.222700e-02,2.813339e-02,3,0,3.281681e-01,3.281681e-01
4.362210e-01,3.197600e-02,2.813339e-02,3,0,1.257821e+00,1.257823e+00
4.046470e-01,3.261000e-02,2.789497e-02,3,0,2.742537e+00,2.742540e+00
4.104650e-01,3.239300e-02,2.813339e-02,3,0,2.134744e+00,2.134744e+00
4.048200e-01,3.203000e-02,2.789497e-02,3,0,1.555064e+00,1.555064e+00
4.043530e-01,3.130100e-02,2.694130e-02,3,0,1.114300e+00,1.114300e+00
4.050320e-01,3.663300e-02,3.290176e-02,3,0,1.267583e+00,1.267583e+00
4.042460e-01,3.191200e-02,2.813339e-02,3,0,1.013176e+00,1.013176e+00
4.087740e-01,3.195300e-02,2.813339e-02,3,0,1.003273e+00,1.003274e+00
4.043260e-01,3.252900e-02,2.908707e-02,3,0,1.120686e+00,1.120686e+00
4.141580e-01,3.212700e-02,2.789497e-02,3,0,1.208034e+00,1.208034e+00
4.043690e-01,3.229600e-02,2.884865e-02,3,0,1.116001e+00,1.116001e+00
4.102990e-01,3.153900e-02,2.789497e-02,3,0,1.282012e+00,1.282013e+00
4.306900e-01,3.220700e-02,2.813339e-02,3,0,1.768272e+00,1.768273e+00
4.100910e-01,3.230800e-02,2.789497e-02,3,0,1.402028e+00,1.402028e+00
4.038950e-01,3.219800e-02,2.789497e-02,3,0,1.025092e+00,1.025092e+00
4.045980e-01,3.199900e-02,2.789497e-02,3,0,6.593292e-01,6.593289e-01
4.091780e-01,3.173900e-02,2.813339e-02,3,0,4.606536e-01,4.606536e-01
4.042490e-01,3.231800e-02,2.813339e-02,3,0,3.524187e-01,3.524189e-01
4.168950e-01,3.193900e-02,2.813339e-02,3,0,4.960515e-01,4.960519e-01
4.046630e-01,3.225100e-02,2.789497e-02,3,0,3.668235e-01,3.668235e-01
4.105390e-01,3.187900e-02,2.813339e-02,3,0,5.251833e-01,5.251838e-01
4.050790e-01,3.220200e-02,2.884865e-02,3,0,5.437236e-01,5.437238e-01
4.095480e-01,3.214400e-02,2.789497e-02,3,0,5.191680e-01,5.191681e-01
4.044040e-01,3.219100e-02,2.908707e-02,3,0,6.627464e-01,6.627470e-01
4.043000e-01,3.223200e-02,2.813339e-02,3,0,3.909010e-01,3.909010e-01
4.095550e-01,3.214500e-02,2.789497e-02,3,0,3.016423e-01,3.016424e-01
4.042490e-01,3.215600e-02,2.789497e-02,3,0,1.002091e+00,1.002093e+00
4.093710e-01,3.193600e-02,2.789497e-02,3,0,1.093279e+00,1.093279e+00
4.048640e-01,3.230000e-02,2.908707e-02,3,0,5.362180e-01,5.362178e-01
4.099200e-01,3.200100e-02,2.813339e-02,3,0,5.961707e-01,5.961710e-01
4.045420e-01,3.236400e-02,2.789497e-02,3,0,5.419457e-01,5.419458e-01
4.095250e-01,3.202700e-02,2.884865e-02,3,0,6.077994e-01,6.077996e-01
4.045390e-01,3.264100e-02,2.908707e-02,3,0,2.971781e-01,2.971780e-01
4.046040e-01,3.144400e-02,2.813339e-02,3,0,2.040109e-01,2.040110e-01
4.088500e-01,3.179700e-02,2.813339e-02,3,0,3.827939e-01,3.827943e-01
4.041550e-01,3.235500e-02,2.813339e-02,3,0,5.329205e-01,5.329209e-01
4.088360e-01,3.186000e-02,2.694130e-02,3,0,7.166409e-01,7.166414e-01
4.044560e-01,3.191200e-02,2.789497e-02,3,0,4.506404e-01,4.506405e-01
4.101730e-01,3.163800e-02,2.694130e-02,3,0,4.308090e-01,4.308093e-01
4.045220e-01,3.232200e-02,2.789497e-02,3,0,6.218864e-01,6.218870e-01
4.094920e-01,3.217100e-02,2.813339e-02,3,0,9.787901e-01,9.787908e-01
4.048100e-01,3.197600e-02,2.813339e-02,3,0,1.116791e+00,1.116792e+00
4.048880e-01,3.139100e-02,2.694130e-02,3,0,1.540904e+00,1.540905e+00
4.047650e-01,3.589800e-02,3.194809e-02,3,0,1.475718e+00,1.475718e+00
4.042400e-01,3.248800e-02,2.884865e-02,3,0,2.271338e+00,2.271340e+00
4.090880e-01,3.142800e-02,2.789497e-02,3,0,9.813099e-01,9.813095e-01
4.044670e-01,3.227200e-02,2.789497e-02,3,0,8.421965e-01,8.421967e-01
4.096500e-01,3.151100e-02,2.813339e-02,3,0,1.248222e+00,1.248223e+00
4.048140e-01,3.211100e-02,2.813339e-02,3,0,6.708158e-01,6.708154e-01
4.092960e-01,3.202400e-02,2.813339e-02,3,0,5.824210e-01,5.824211e-01
4.042360e-01,3.225700e-02,2.789497e-02,3,0,4.992677e-01,4.992678e-01
4.043600e-01,3.200600e-02,2.789497e-02,3,0,3.472349e-01,3.472349e-01
4.042810e-01,3.632400e-02,3.194809e-02,3,0,6.987594e-01,6.987600e-01
4.045710e-01,3.184500e-02,2.789497e-02,3,0,5.471631e-01,5.471631e-01
4.090730e-01,3.193200e-02,2.813339e-02,3,0,3.170678e-01,3.170678e-01
4.039790e-01,3.232300e-02,2.813339e-02,3,0,5.217454e-01,5.217461e-01
4.094950e-01,3.205800e-02,2.813339e-02,3,0,3.842854e-01,3.842854e-01
4.045870e-01,3.237600e-02,2.789497e-02,3,0,2.140727e-01,2.140729e-01
4.095430e-01,3.202400e-02,2.789497e-02,3,0,2.387965e-01,2.387966e-01
4.043590e-01,3.202000e-02,2.789497e-02,3,0,2.955949e-01,2.955952e-01
4.041380e-01,3.222800e-02,2.813339e-02,3,0,4.694231e-01,4.694236e-01
4.042370e-01,3.675200e-02,3.314018e-02,3,0,9.842172e-01,9.842184e-01
4.050770e-01,3.164500e-02,2.694130e-02,3,0,6.232691e-01,6.232702e-01
4.096080e-01,3.197800e-02,2.789497e-02,3,0,1.098332e+00,1.098333e+00
4.043670e-01,3.214300e-02,2.789497e-02,3,0,4.853319e-01,4.853316e-01
4.091130e-01,3.185600e-02,2.789497e-02,3,0,4.187908e-01,4.187910e-01
4.042350e-01,3.235500e-02,2.908707e-02,3,0,2.720649e-01,2.720649e-01
4.096350e-01,3.209200e-02,2.813339e-02,3,0,2.441733e-01,2.441736e-01
4.044700e-01,3.198500e-02,2.789497e-02,3,0,7.164640e-01,7.164652e-01
4.086070e-01,3.179000e-02,2.694130e-02,3,0,7.442926e-01,7.442928e-01
4.044540e-01,3.247700e-02,2.884865e-02,3,0,1.152313e+00,1.152313e+00
4.038940e-01,3.210900e-02,2.789497e-02,3,0,1.193370e+00,1.193370e+00
4.090860e-01,3.219300e-02,2.813339e-02,3,0,1.380567e+00,1.380568e+00
4.046230e-01,3.226600e-02,2.908707e-02,3,0,2.239501e+00,2.239503e+00
4.096330e-01,3.184400e-02,2.813339e-02,3,0,2.529364e+00,2.529365e+00
4.048300e-01,3.205800e-02,2.789497e-02,3,0,1.942816e+00,1.942816e+00
4.096150e-01,3.204300e-02,2.789497e-02,3,0,1.766978e+00,1.766978e+00
4.041710e-01,3.208700e-02,2.813339e-02,3,0,2.333588e+00,2.333591e+00
4.092040e-01,3.174600e-02,2.813339e-02,3,0,1.662287e+00,1.662287e+00
4.048280e-01,3.253200e-02,2.813339e-02,3,0,1.406041e+00,1.406041e+00
4.040990e-01,3.139700e-02,2.789497e-02,3,0,1.309667e+00,1.309668e+00
4.091440e-01,3.211700e-02,2.789497e-02,3,0,1.353551e+00,1.353551e+00
4.038020e-01,3.225100e-02,2.789497e-02,3,0,1.446554e+00,1.446555e+00
4.096520e-01,3.158800e-02,2.789497e-02,3,0,1.149410e+00,1.149410e+00
4.046070e-01,3.240200e-02,2.789497e-02,3,0,1.202724e+00,1.202725e+00
4.095460e-01,3.177000e-02,2.717972e-02,3,0,1.600580e+00,1.600581e+00
4.049110e-01,3.197900e-02,2.813339e-02,3,0,1.799590e+00,1.799591e+00
4.357230e-01,3.168600e-02,2.789497e-02,3,0,1.192503e+00,1.192502e+00
4.045210e-01,3.278900e-02,2.789497e-02,3,0,1.158590e+00,1.158590e+00
4.041360e-01,3.196100e-02,2.813339e-02,3,0,7.133188e-01,7.133187e-01
4.092270e-01,3.203300e-02,2.813339e-02,3,0,6.901438e-01,6.901442e-01

