3.058400e-01,1.882670e-01,1.280308e-01,2,0,0.000000e+00,0.000000e+00
4.031410e-01,3.581200e-02,3.099442e-02,3,0,7.299426e-02,7.299441e-02
4.107320e-01,3.333900e-02,2.813339e-02,3,0,1.202878e-01,1.202880e-01
4.039810e-01,3.370900e-02,2.884865e-02,3,0,2.752775e-01,2.752778e-01
4.042460e-01,3.311800e-02,2.908707e-02,3,0,2.416191e-01,2.416192e-01
4.094190e-01,3.278100e-02,2.789497e-02,3,0,1.053510e+00,1.053512e+00
4.046990e-01,3.316100e-02,2.813339e-02,3,0,1.486309e+00,1.486310e+00
4.115350e-01,3.339900e-02,2.884865e-02,3,0,1.984450e+00,1.984451e+00
4.039230e-01,3.297500e-02,2.908707e-02,3,0,9.697205e-01,9.697200e-01
4.364820e-01,3.246700e-02,2.789497e-02,3,0,8.785314e-01,8.785315e-01
4.043410e-01,3.355700e-02,2.908707e-02,3,0,7.547275e-01,7.547278e-01
4.101180e-01,3.260700e-02,2.884865e-02,3,0,8.541110e-01,8.541116e-01
4.045320e-01,3.296300e-02,2.908707e-02,3,0,1.335767e+00,1.335769e+00
4.039560e-01,3.301000e-02,2.884865e-02,3,0,1.788927e+00,1.788928e+00
4.043500e-01,4.964600e-02,4.506111e-02,3,0,1.659453e+00,1.659454e+00
4.037920e-01,3.250500e-02,2.789497e-02,3,0,2.269479e+00,2.269481e+00
4.103170e-01,3.315900e-02,2.908707e-02,3,0,1.847245e+00,1.847245e+00
4.295320e-01,3.297300e-02,2.789497e-02,3,0,1.628586e+00,1.628586e+00
4.284670e-01,4.561000e-02,4.100800e-02,3,0,1.634209e+00,1.634209e+00
4.036570e-01,3.364600e-02,2.884865e-02,3,0,1.456978e+00,1.456978e+00
4.187720e-01,3.313400e-02,2.908707e-02,3,0,1.447082e+00,1.447082e+00
4.040560e-01,3.313300e-02,2.908707e-02,3,0,1.253252e+00,1.253252e+00
4.097040e-01,3.272500e-02,2.789497e-02,3,0,1.235691e+00,1.235691e+00
4.045060e-01,3.307300e-02,2.813339e-02,3,0,1.092519e+00,1.092519e+00
4.042970e-01,3.280100e-02,2.908707e-02,3,0,1.047691e+00,1.047691e+00
4.047270e-01,3.766100e-02,3.290176e-02,3,0,9.984293e-01,9.984296e-01
4.033980e-01,3.317000e-02,2.908707e-02,3,0,8.813839e-01,8.813842e-01
4.088170e-01,3.256900e-02,2.789497e-02,3,0,6.596989e-01,6.596991e-01
4.039840e-01,3.270100e-02,2.884865e-02,3,0,2.911126e-01,2.911128e-01
4.087520e-01,3.245500e-02,2.789497e-02,3,0,2.312074e-01,2.312075e-01
4.040390e-01,3.345600e-02,2.908707e-02,3,0,4.522935e-01,4.522942e-01
4.090980e-01,3.258800e-02,2.789497e-02,3,0,5.682805e-01,5.682809e-01
4.039510e-01,3.278200e-02,2.789497e-02,3,0,5.170765e-01,5.170766e-01
4.040600e-01,3.249000e-02,2.813339e-02,3,0,7.868971e-01,7.868977e-01
4.041550e-01,3.752000e-02,3.314018e-02,3,0,6.515139e-01,6.515140e-01
4.038480e-01,3.264000e-02,2.789497e-02,3,0,4.968741e-01,4.968741e-01
4.154120e-01,3.250400e-02,2.789497e-02,3,0,3.894190e-01,3.894192e-01
4.036730e-01,3.296000e-02,2.908707e-02,3,0,3.105377e-01,3.105379e-01
4.100420e-01,3.289000e-02,2.884865e-02,3,0,7.322858e-01,7.322865e-01
4.042760e-01,3.295500e-02,2.908707e-02,3,0,8.038421e-01,8.038423e-01
4.091200e-01,3.224100e-02,2.789497e-02,3,0,1.837617e+00,1.837619e+00
4.040060e-01,3.278700e-02,2.789497e-02,3,0,2.481515e+00,2.481516e+00
4.091760e-01,3.219900e-02,2.789497e-02,3,0,1.605391e+00,1.605391e+00
4.040030e-01,3.292300e-02,2.813339e-02,3,0,2.450231e+00,2.450233e+00
4.035170e-01,3.270600e-02,2.789497e-02,3,0,1.992187e+00,1.992187e+00
4.089600e-01,3.250000e-02,2.884865e-02,3,0,1.623003e+00,1.623003e+00
4.038440e-01,3.277100e-02,2.908707e-02,3,0,1.524520e+00,1.524520e+00
4.090540e-01,3.245500e-02,2.813339e-02,3,0,1.331048e+00,1.331048e+00
4.045960e-01,3.331700e-02,2.908707e-02,3,0,1.102548e+00,1.102548e+00
4.092520e-01,3.282400e-02,2.884865e-02,3,0,7.144915e-01,7.144912e-01
4.039400e-01,3.314500e-02,2.908707e-02,3,0,6.042136e-01,6.042137e-01
4.090780e-01,3.276800e-02,2.789497e-02,3,0,1.020205e+00,1.020206e+00
4.045900e-01,3.320200e-02,2.908707e-02,3,0,7.986932e-01,7.986933e-01
4.037690e-01,3.312600e-02,2.884865e-02,3,0,6.929104e-01,6.929104e-01
4.087920e-01,3.265000e-02,2.908707e-02,3,0,9.035105e-01,9.035111e-01
4.036780e-01,3.254500e-02,2.813339e-02,3,0,1.181459e+00,1.181460e+00
4.093520e-01,3.264500e-02,2.813339e-02,3,0,6.836576e-01,6.836575e-01
4.043750e-01,3.310600e-02,2.884865e-02,3,0,9.577094e-01,9.577101e-01
4.094400e-01,3.282900e-02,2.908707e-02,3,0,1.277777e+00,1.277778e+00
4.035470e-01,3.297000e-02,2.789497e-02,3,0,1.837678e+00,1.837680e+00
4.094270e-01,3.222000e-02,2.694130e-02,3,0,8.481043e-01,8.481047e-01
4.039400e-01,3.303300e-02,2.813339e-02,3,0,1.684327e+00,1.684329e+00
4.042160e-01,3.298800e-02,2.908707e-02,3,0,3.141579e+00,3.141583e+00
4.087860e-01,3.288400e-02,2.789497e-02,3,0,1.790339e+00,1.790337e+00
4.039030e-01,3.340600e-02,2.813339e-02,3,0,2.498342e+00,2.498344e+00
4.090850e-01,3.254900e-02,2.813339e-02,3,0,1.020062e+00,1.020061e+00
4.043350e-01,3.309400e-02,2.884865e-02,3,0,1.180046e+00,1.180047e+00
4.091000e-01,3.283400e-02,2.813339e-02,3,0,1.006402e+00,1.006402e+00
4.044340e-01,3.289500e-02,2.908707e-02,3,0,7.356383e-01,7.356385e-01
4.093420e-01,3.273100e-02,2.789497e-02,3,0,6.450082e-01,6.450085e-01
4.042610e-01,3.290500e-02,2.908707e-02,3,0,9.097486e-01,9.097493e-01
4.038650e-01,3.287800e-02,2.813339e-02,3,0,9.229146e-01,9.229148e-01
4.042880e-01,3.698500e-02,3.290176e-02,3,0,9.367865e-01,9.367868e-01
4.044970e-01,3.251100e-02,2.789497e-02,3,0,1.068926e+00,1.068927e+00
4.081250e-01,3.255400e-02,2.813339e-02,3,0,1.511633e+00,1.511634e+00
4.036010e-01,3.284100e-02,2.908707e-02,3,0,2.005888e+00,2.005889e+00
4.093670e-01,3.241200e-02,2.789497e-02,3,0,1.305145e+00,1.305145e+00
4.036900e-01,3.254400e-02,2.789497e-02,3,0,1.324114e+00,1.324115e+00
4.090270e-01,3.270400e-02,2.813339e-02,3,0,9.914513e-01,9.914512e-01
4.038680e-01,3.277900e-02,2.813339e-02,3,0,4.349969e-01,4.349967e-01
4.043050e-01,3.225500e-02,2.789497e-02,3,0,1.079526e+00,1.079527e+00
4.044310e-01,3.721500e-02,3.290176e-02,3,0,8.278181e-01,8.278180e-01
4.040580e-01,3.292600e-02,2.908707e-02,3,0,7.467932e-01,7.467934e-01
4.086650e-01,3.296600e-02,2.908707e-02,3,0,7.573777e-01,7.573783e-01
4.040590e-01,3.239200e-02,2.884865e-02,3,0,1.012894e+00,1.012895e+00
4.096440e-01,3.223100e-02,2.789497e-02,3,0,1.883313e+00,1.883315e+00
4.043730e-01,3.298800e-02,2.813339e-02,3,0,2.893167e+00,2.893169e+00
4.103430e-01,3.289300e-02,2.884865e-02,3,0,4.331211e+00,4.331213e+00
4.041760e-01,3.308000e-02,2.908707e-02,3,0,3.607361e+00,3.607361e+00
4.078130e-01,3.257700e-02,2.789497e-02,3,0,2.604963e+00,2.604963e+00
4.047890e-01,3.297100e-02,2.789497e-02,3,0,2.040654e+00,2.040654e+00
4.039070e-01,3.260700e-02,2.813339e-02,3,0,1.488948e+00,1.488948e+00
4.089370e-01,3.241200e-02,2.813339e-02,3,0,2.133143e+00,2.133146e+00
4.035690e-01,3.292200e-02,2.884865e-02,3,0,1.666219e+00,1.666218e+00
4.083460e-01,3.249100e-02,2.789497e-02,3,0,2.188657e+00,2.188659e+00
4.041420e-01,3.291100e-02,2.884865e-02,3,0,2.422833e+00,2.422834e+00
4.092310e-01,3.267800e-02,2.813339e-02,3,0,1.129857e+00,1.129856e+00
4.038820e-01,3.265700e-02,2.884865e-02,3,0,1.041197e+00,1.041197e+00
4.406750e-01,3.277200e-02,2.789497e-02,3,0,1.462422e+00,1.462423e+00
4.044420e-01,4.615900e-02,4.100800e-02,3,0,1.561060e+00,1.561060e+00
4.037520e-01,3.269500e-02,2.813339e-02,3,0,1.210702e+00,1.210702e+00
4.092450e-01,3.271800e-02,2.884865e-02,3,0,1.323178e+00,1.323179e+00
4.039620e-01,3.268000e-02,2.789497e-02,3,0,7.812620e-01,7.812620e-01
4.091120e-01,3.248800e-02,2.813339e-02,3,0,7.454100e-01,7.454102e-01
4.035670e-01,3.291700e-02,2.789497e-02,3,0,6.351316e-01,6.351316e-01
4.095870e-01,3.244200e-02,2.884865e-02,3,0,6.281938e-01,6.281943e-01
4.046750e-01,3.265800e-02,2.813339e-02,3,0,8.975784e-01,8.975791e-01
4.091230e-01,3.262600e-02,2.908707e-02,3,0,9.912051e-01,9.912055e-01
4.040560e-01,3.341500e-02,2.908707e-02,3,0,6.697291e-01,6.697290e-01
4.041760e-01,3.294400e-02,2.813339e-02,3,0,6.732946e-01,6.732949e-01
4.041400e-01,3.843000e-02,3.385544e-02,3,0,6.307868e-01,6.307870e-01
4.036740e-01,3.299300e-02,2.908707e-02,3,0,4.562135e-01,4.562137e-01
4.091360e-01,3.296500e-02,2.908707e-02,3,0,3.680576e-01,3.680577e-01
4.038020e-01,3.273000e-02,2.789497e-02,3,0,5.854030e-01,5.854036e-01
4.091740e-01,3.322300e-02,2.813339e-02,3,0,3.295080e-01,3.295081e-01
4.031370e-01,3.312000e-02,2.908707e-02,3,0,3.528360e-01,3.528362e-01
4.090410e-01,3.305600e-02,2.884865e-02,3,0,8.081614e-01,8.081623e-01
4.040950e-01,3.320100e-02,2.789497e-02,3,0,5.797070e-01,5.797070e-01
4.042420e-01,3.233900e-02,2.813339e-02,3,0,1.679548e+00,1.679550e+00
4.043630e-01,3.790200e-02,2.884865e-02,3,0,1.184049e+00,1.184048e+00
4.037200e-01,3.275400e-02,2.789497e-02,3,0,1.221860e+00,1.221861e+00
4.087550e-01,3.268600e-02,2.908707e-02,3,0,1.594107e+00,1.594108e+00
4.040280e-01,3.268000e-02,2.908707e-02,3,0,1.490865e+00,1.490865e+00
4.094800e-01,3.227800e-02,2.789497e-02,3,0,1.655636e+00,1.655637e+00
4.042600e-01,3.299600e-02,2.789497e-02,3,0,2.813744e+00,2.813747e+00
4.089140e-01,3.249200e-02,2.813339e-02,3,0,1.918059e+00,1.918059e+00
4.049340e-01,3.306500e-02,2.789497e-02,3,0,1.479688e+00,1.479688e+00
4.098780e-01,3.266700e-02,2.789497e-02,3,0,1.281167e+00,1.281167e+00
4.041040e-01,3.281500e-02,2.908707e-02,3,0,7.374815e-01,7.374818e-01
4.041390e-01,3.265400e-02,2.884865e-02,3,0,8.410949e-01,8.410959e-01
4.094070e-01,3.272000e-02,2.813339e-02,3,0,5.335648e-01,5.335650e-01
4.037960e-01,3.326800e-02,2.908707e-02,3,0,6.434313e-01,6.434318e-01
4.091600e-01,3.222800e-02,2.789497e-02,3,0,3.223489e-01,3.223489e-01
4.037430e-01,3.275000e-02,2.908707e-02,3,0,2.693104e-01,2.693106e-01
4.099560e-01,3.302900e-02,2.908707e-02,3,0,3.005639e-01,3.005640e-01
4.040320e-01,3.259200e-02,2.789497e-02,3,0,6.012672e-01,6.012679e-01
4.097780e-01,3.271800e-02,2.813339e-02,3,0,6.380639e-01,6.380642e-01
4.044900e-01,3.291300e-02,2.908707e-02,3,0,5.389642e-01,5.389643e-01
4.041050e-01,3.252500e-02,2.789497e-02,3,0,5.923912e-01,5.923915e-01
4.085150e-01,3.253800e-02,2.813339e-02,3,0,5.107945e-01,5.107947e-01
4.038950e-01,3.274100e-02,2.813339e-02,3,0,8.983728e-01,8.983736e-01
4.089160e-01,3.253700e-02,2.789497e-02,3,0,1.446679e+00,1.446680e+00
4.037890e-01,3.287900e-02,2.789497e-02,3,0,1.665911e+00,1.665912e+00
4.089150e-01,3.248300e-02,2.908707e-02,3,0,1.321370e+00,1.321370e+00
4.041990e-01,3.261000e-02,2.813339e-02,3,0,1.160036e+00,1.160036e+00
4.091130e-01,3.275900e-02,2.908707e-02,3,0,1.085934e+00,1.085935e+00
4.037850e-01,3.265900e-02,2.789497e-02,3,0,8.158447e-01,8.158447e-01
4.037260e-01,3.260600e-02,2.908707e-02,3,0,5.973871e-01,5.973878e-01
4.088070e-01,3.264700e-02,2.908707e-02,3,0,8.683790e-01,8.683799e-01
4.036190e-01,3.299500e-02,2.908707e-02,3,0,1.224913e+00,1.224914e+00
4.089170e-01,3.257500e-02,2.789497e-02,3,0,7.685683e-01,7.685682e-01
4.036710e-01,3.276400e-02,2.789497e-02,3,0,7.563769e-01,7.563771e-01
4.094270e-01,3.236600e-02,2.813339e-02,3,0,7.099581e-01,7.099583e-01
4.039570e-01,3.276500e-02,2.813339e-02,3,0,6.809937e-01,6.809939e-01
4.090660e-01,3.258300e-02,2.789497e-02,3,0,5.510334e-01,5.510335e-01
4.045250e-01,3.295900e-02,2.908707e-02,3,0,6.010016e-01,6.010019e-01
4.038530e-01,3.250100e-02,2.813339e-02,3,0,9.725007e-01,9.725017e-01
4.044570e-01,3.284900e-02,2.789497e-02,3,0,9.366869e-01,9.366871e-01
4.040930e-01,3.314200e-02,2.813339e-02,3,0,1.015780e+00,1.015780e+00
4.091550e-01,3.248100e-02,2.813339e-02,3,0,1.234662e+00,1.234663e+00
4.041690e-01,3.289300e-02,2.884865e-02,3,0,5.605936e-01,5.605935e-01
4.095380e-01,3.271300e-02,2.813339e-02,3,0,4.174208e-01,4.174209e-01
4.041670e-01,3.257800e-02,2.813339e-02,3,0,4.762187e-01,4.762191e-01
4.097860e-01,3.216200e-02,2.789497e-02,3,0,1.865198e-01,1.865199e-01
4.038760e-01,3.275100e-02,2.813339e-02,3,0,1.920409e-01,1.920410e-01
4.032370e-01,3.229000e-02,2.813339e-02,3,0,3.305189e-01,3.305192e-01
4.032440e-01,3.693200e-02,3.314018e-02,3,0,2.912341e-01,2.912342e-01
4.037270e-01,3.264900e-02,2.813339e-02,3,0,8.482769e-01,8.482782e-01
4.086580e-01,3.256600e-02,2.789497e-02,3,0,6.665035e-01,6.665040e-01
4.038260e-01,3.253900e-02,2.884865e-02,3,0,4.916388e-01,4.916389e-01
4.088950e-01,3.320700e-02,2.908707e-02,3,0,4.448167e-01,4.448168e-01
4.039070e-01,3.316400e-02,2.813339e-02,3,0,4.528620e-01,4.528623e-01
4.097580e-01,3.278400e-02,2.884865e-02,3,0,4.545842e-01,4.545844e-01
4.034340e-01,3.314400e-02,2.908707e-02,3,0,3.105070e-01,3.105071e-01
4.037890e-01,3.297400e-02,2.908707e-02,3,0,3.274085e-01,3.274088e-01
4.036240e-01,3.776400e-02,3.290176e-02,3,0,2.924056e-01,2.924058e-01
4.036890e-01,3.285300e-02,2.789497e-02,3,0,2.517611e-01,2.517612e-01
4.085030e-01,3.280300e-02,2.813339e-02,3,0,6.211287e-01,6.211295e-01
4.041960e-01,3.264400e-02,2.813339e-02,3,0,4.351212e-01,4.351215e-01
4.090220e-01,3.257000e-02,2.789497e-02,3,0,6.480730e-01,6.480735e-01
4.041120e-01,3.273800e-02,2.789497e-02,3,0,1.035904e+00,1.035905e+00
4.093300e-01,3.266900e-02,2.813339e-02,3,0,8.709634e-01,8.709639e-01
4.041860e-01,3.329800e-02,2.908707e-02,3,0,9.737405e-01,9.737410e-01
4.092950e-01,3.258200e-02,2.789497e-02,3,0,7.453204e-01,7.453205e-01
4.036500e-01,3.265700e-02,2.908707e-02,3,0,7.013960e-01,7.013963e-01
4.045220e-01,3.272300e-02,2.908707e-02,3,0,7.998239e-01,7.998243e-01
4.087460e-01,3.234500e-02,2.789497e-02,3,0,1.609745e+00,1.609747e+00
4.042020e-01,3.264300e-02,2.789497e-02,3,0,2.125077e+00,2.125078e+00
4.095500e-01,3.258500e-02,2.908707e-02,3,0,1.900785e+00,1.900785e+00
4.046660e-01,3.277800e-02,2.789497e-02,3,0,1.576720e+00,1.576720e+00
4.090350e-01,3.244700e-02,2.789497e-02,3,0,1.430840e+00,1.430841e+00
4.038030e-01,3.276000e-02,2.908707e-02,3,0,1.045641e+00,1.045641e+00
4.084920e-01,3.248900e-02,2.908707e-02,3,0,1.047994e+00,1.047995e+00
4.045000e-01,3.313800e-02,2.884865e-02,3,0,1.046304e+00,1.046305e+00
4.037320e-01,3.259700e-02,2.813339e-02,3,0,8.081162e-01,8.081163e-01
4.091470e-01,3.282900e-02,2.908707e-02,3,0,7.322280e-01,7.322281e-01
4.038820e-01,3.266700e-02,2.789497e-02,3,0,1.369697e+00,1.369699e+00
4.090130e-01,3.265100e-02,2.789497e-02,3,0,2.682522e+00,2.682525e+00
4.039350e-01,3.317300e-02,2.908707e-02,3,0,2.762366e+00,2.762367e+00
4.091880e-01,3.275100e-02,2.789497e-02,3,0,2.811566e+00,2.811566e+00
4.043480e-01,3.302900e-02,2.789497e-02,3,0,3.292974e+00,3.292975e+00
4.093120e-01,3.263800e-02,2.908707e-02,3,0,4.677498e+00,4.677501e+00
4.035330e-01,3.259100e-02,2.789497e-02,3,0,3.084750e+00,3.084748e+00
4.040920e-01,3.286900e-02,2.884865e-02,3,0,3.772827e+00,3.772830e+00
4.089840e-01,3.242900e-02,2.789497e-02,3,0,2.976594e+00,2.976594e+00
4.040920e-01,3.253300e-02,2.908707e-02,3,0,2.830556e+00,2.830557e+00
4.095750e-01,3.267200e-02,2.789497e-02,3,0,2.049864e+00,2.049863e+00
4.039450e-01,3.294400e-02,2.884865e-02,3,0,2.575688e+00,2.575690e+00
4.092170e-01,3.262000e-02,2.813339e-02,3,0,1.851266e+00,1.851265e+00
4.035880e-01,3.296100e-02,2.789497e-02,3,0,2.384727e+00,2.384729e+00
4.089310e-01,3.258000e-02,2.789497e-02,3,0,8.229260e-01,8.229253e-01
4.041580e-01,3.263800e-02,2.813339e-02,3,0,8.089212e-01,8.089218e-01
4.043600e-01,3.263600e-02,2.813339e-02,3,0,1.269859e+00,1.269860e+00
4.085240e-01,3.227100e-02,2.789497e-02,3,0,8.596930e-01,8.596929e-01
4.039460e-01,3.270200e-02,2.884865e-02,3,0,1.451383e+00,1.451384e+00
4.092360e-01,3.264500e-02,2.908707e-02,3,0,1.317253e+00,1.317254e+00
4.042960e-01,3.283200e-02,2.789497e-02,3,0,2.435876e+00,2.435878e+00
4.095180e-01,3.256100e-02,2.789497e-02,3,0,1.188777e+00,1.188776e+00
4.038930e-01,3.268500e-02,2.908707e-02,3,0,9.803944e-01,9.803946e-01
4.094450e-01,3.322300e-02,2.908707e-02,3,0,8.159143e-01,8.159144e-01
4.042610e-01,3.326100e-02,2.789497e-02,3,0,8.274884e-01,8.274887e-01
4.034930e-01,3.293200e-02,2.813339e-02,3,0,9.257435e-01,9.257438e-01
4.042280e-01,3.747900e-02,3.314018e-02,3,0,1.441314e+00,1.441315e+00
4.042950e-01,3.290200e-02,2.789497e-02,3,0,7.046571e-01,7.046565e-01
4.085110e-01,3.330400e-02,2.908707e-02,3,0,4.818445e-01,4.818446e-01
4.039100e-01,3.329400e-02,2.908707e-02,3,0,5.910038e-01,5.910041e-01
4.091260e-01,3.291900e-02,2.789497e-02,3,0,6.100773e-01,6.100776e-01
4.039120e-01,3.287200e-02,2.908707e-02,3,0,4.665784e-01,4.665784e-01
4.091980e-01,3.272200e-02,2.789497e-02,3,0,7.024095e-01,7.024103e-01
4.031210e-01,3.317500e-02,2.884865e-02,3,0,9.736101e-01,9.736106e-01
4.039960e-01,3.260800e-02,2.813339e-02,3,0,1.412109e+00,1.412109e+00
4.040370e-01,3.731100e-02,3.314018e-02,3,0,2.936460e+00,2.936463e+00
4.042150e-01,3.290100e-02,2.908707e-02,3,0,3.792861e+00,3.792863e+00
4.089530e-01,3.263200e-02,2.789497e-02,3,0,2.642161e+00,2.642161e+00
4.040690e-01,3.267600e-02,2.813339e-02,3,0,3.223706e+00,3.223708e+00
4.089970e-01,3.250800e-02,2.813339e-02,3,0,2.391579e+00,2.391579e+00
4.040710e-01,3.283500e-02,2.789497e-02,3,0,1.936375e+00,1.936375e+00
4.086390e-01,3.255600e-02,2.789497e-02,3,0,2.205286e+00,2.205287e+00
4.041260e-01,3.295500e-02,2.813339e-02,3,0,1.320858e+00,1.320857e+00
4.090370e-01,3.267700e-02,2.908707e-02,3,0,8.408198e-01,8.408204e-01
4.048670e-01,3.298600e-02,2.884865e-02,3,0,6.712734e-01,6.712735e-01
4.045800e-01,3.253400e-02,2.813339e-02,3,0,7.014755e-01,7.014757e-01
4.087780e-01,3.237300e-02,2.789497e-02,3,0,7.419146e-01,7.419148e-01
4.039740e-01,3.290500e-02,2.884865e-02,3,0,1.165932e+00,1.165933e+00
4.094550e-01,3.207900e-02,2.813339e-02,3,0,4.149588e-01,4.149584e-01
4.038330e-01,3.260800e-02,2.813339e-02,3,0,1.493786e+00,1.493788e+00
4.085450e-01,3.307000e-02,2.908707e-02,3,0,3.011956e+00,3.011958e+00
4.042280e-01,3.286000e-02,2.789497e-02,3,0,1.855048e+00,1.855047e+00
4.143280e-01,3.273100e-02,2.813339e-02,3,0,1.348674e+00,1.348674e+00
4.043390e-01,3.265700e-02,2.789497e-02,3,0,1.111577e+00,1.111577e+00
4.040990e-01,3.262800e-02,2.789497e-02,3,0,9.684545e-01,9.684546e-01
4.086670e-01,3.249700e-02,2.813339e-02,3,0,9.115081e-01,9.115083e-01
4.036620e-01,3.248800e-02,2.908707e-02,3,0,1.481985e+00,1.481986e+00
4.088270e-01,3.274500e-02,2.908707e-02,3,0,1.190557e+00,1.190557e+00
4.038890e-01,3.284700e-02,2.789497e-02,3,0,8.585369e-01,8.585369e-01
4.087160e-01,3.264000e-02,2.789497e-02,3,0,9.729904e-01,9.729908e-01
4.038660e-01,3.284900e-02,2.813339e-02,3,0,1.616507e+00,1.616508e+00
4.096810e-01,3.236700e-02,2.813339e-02,3,0,2.519706e+00,2.519708e+00
4.033530e-01,3.272500e-02,2.884865e-02,3,0,4.356772e+00,4.356776e+00
4.038180e-01,3.276900e-02,2.908707e-02,3,0,5.262371e+00,5.262373e+00
4.082730e-01,3.286200e-02,2.884865e-02,3,0,4.809030e+00,4.809030e+00
4.048730e-01,3.269500e-02,2.789497e-02,3,0,5.028560e+00,5.028562e+00
4.092900e-01,3.237500e-02,2.813339e-02,3,0,4.296137e+00,4.296137e+00
4.039580e-01,3.255500e-02,2.789497e-02,3,0,4.467172e+00,4.467174e+00
4.095840e-01,3.287200e-02,2.789497e-02,3,0,4.403869e+00,4.403870e+00
4.044870e-01,3.248800e-02,2.813339e-02,3,0,3.773923e+00,3.773923e+00
4.096040e-01,3.238100e-02,2.789497e-02,3,0,3.321917e+00,3.321917e+00
4.043250e-01,3.276700e-02,2.908707e-02,3,0,2.557784e+00,2.557783e+00
4.042690e-01,3.306900e-02,2.813339e-02,3,0,2.472227e+00,2.472227e+00
4.044110e-01,3.703500e-02,3.290176e-02,3,0,2.617061e+00,2.617062e+00
4.041050e-01,3.258900e-02,2.908707e-02,3,0,3.367619e+00,3.367621e+00
4.046720e-01,2.310330e-01,2.269745e-01,3,4,5.686536e+00,5.755159e+00
8.101980e-01,1.904200e-01,1.850128e-01,6,4,5.914706e+00,5.896661e+00
8.116910e-01,1.494230e-01,1.440048e-01,6,3,6.356600e+00,6.355863e+00
4.048300e-01,7.372800e-02,7.009506e-02,3,1,5.475181e+00,5.475166e+00
4.040980e-01,3.825000e-02,3.385544e-02,3,0,5.457677e+00,5.457678e+00
4.042210e-01,3.319400e-02,2.908707e-02,3,0,6.424481e+00,6.424485e+00
4.088140e-01,3.302100e-02,2.884865e-02,3,0,5.985187e+00,5.985188e+00
4.043180e-01,3.302900e-02,2.884865e-02,3,0,5.110530e+00,5.110530e+00
4.097990e-01,3.286700e-02,2.908707e-02,3,0,4.374727e+00,4.374727e+00
4.046840e-01,3.347000e-02,2.884865e-02,3,0,3.708827e+00,3.708827e+00
4.094010e-01,3.244200e-02,2.908707e-02,3,0,3.209941e+00,3.209940e+00
4.034830e-01,3.324600e-02,2.884865e-02,3,0,3.010906e+00,3.010906e+00
4.042270e-01,3.265000e-02,2.789497e-02,3,0,3.305011e+00,3.305013e+00
4.043750e-01,3.786700e-02,3.314018e-02,3,0,1.931730e+00,1.931728e+00
4.036620e-01,3.289700e-02,2.789497e-02,3,0,1.772410e+00,1.772410e+00
4.091470e-01,3.286700e-02,2.789497e-02,3,0,2.000840e+00,2.000841e+00
4.037640e-01,3.316400e-02,2.908707e-02,3,0,1.475190e+00,1.475189e+00
4.090930e-01,3.285000e-02,2.789497e-02,3,0,1.264200e+00,1.264200e+00
4.043200e-01,3.308500e-02,2.908707e-02,3,0,1.061034e+00,1.061034e+00
4.115870e-01,3.266400e-02,2.813339e-02,3,0,7.293786e-01,7.293786e-01
4.037980e-01,3.287000e-02,2.908707e-02,3,0,4.083885e-01,4.083890e-01
4.089790e-01,3.309500e-02,2.813339e-02,3,0,3.376104e-01,3.376108e-01
4.040050e-01,3.300400e-02,2.884865e-02,3,0,4.264529e-01,4.264532e-01
4.036550e-01,3.254500e-02,2.813339e-02,3,0,4.787154e-01,4.787157e-01
4.088760e-01,3.301100e-02,2.908707e-02,3,0,3.924166e-01,3.924167e-01
4.039760e-01,3.290100e-02,2.908707e-02,3,0,3.408020e-01,3.408024e-01
4.094160e-01,3.293100e-02,2.789497e-02,3,0,9.408226e-01,9.408237e-01
4.038190e-01,3.297000e-02,2.908707e-02,3,0,1.982785e+00,1.982787e+00
4.102560e-01,3.269400e-02,2.908707e-02,3,0,2.602620e+00,2.602621e+00
4.045300e-01,3.287800e-02,2.813339e-02,3,0,2.231798e+00,2.231798e+00
4.097670e-01,3.308300e-02,2.908707e-02,3,0,2.355797e+00,2.355798e+00
4.041590e-01,3.322000e-02,2.908707e-02,3,0,2.352799e+00,2.352800e+00
4.045320e-01,3.285000e-02,2.813339e-02,3,0,2.149651e+00,2.149652e+00
4.090040e-01,3.283300e-02,2.884865e-02,3,0,1.701742e+00,1.701742e+00
4.041350e-01,3.293800e-02,2.813339e-02,3,0,1.758415e+00,1.758415e+00
4.088630e-01,3.277900e-02,2.813339e-02,3,0,3.190626e+00,3.190630e+00
4.043760e-01,8.343400e-02,7.891655e-02,3,1,4.228989e+00,4.229022e+00
4.100420e-01,1.362780e-01,1.318455e-01,3,2,5.091355e+00,5.155150e+00
4.041670e-01,1.197930e-01,1.151562e-01,3,2,4.301125e+00,4.303884e+00
4.115090e-01,7.353100e-02,6.985664e-02,3,1,3.361438e+00,3.361437e+00
4.040110e-01,3.306900e-02,2.813339e-02,3,0,2.513077e+00,2.513077e+00
4.098170e-01,3.263100e-02,2.884865e-02,3,0,2.007333e+00,2.007334e+00
4.039660e-01,3.275600e-02,2.813339e-02,3,0,2.423558e+00,2.423560e+00
4.091460e-01,3.281300e-02,2.884865e-02,3,0,2.462090e+00,2.462090e+00
4.038520e-01,3.308300e-02,2.789497e-02,3,0,1.948325e+00,1.948325e+00
4.091220e-01,3.250700e-02,2.813339e-02,3,0,1.949055e+00,1.949056e+00
4.036750e-01,3.322400e-02,2.884865e-02,3,0,2.288417e+00,2.288418e+00
4.038390e-01,3.255800e-02,2.789497e-02,3,0,2.450983e+00,2.450984e+00
4.086140e-01,3.286700e-02,2.813339e-02,3,0,3.019884e+00,3.019886e+00
4.041070e-01,3.285100e-02,2.813339e-02,3,0,2.414718e+00,2.414718e+00
4.099080e-01,3.274300e-02,2.884865e-02,3,0,3.203850e+00,3.203852e+00
4.041870e-01,3.280300e-02,2.908707e-02,3,0,3.147898e+00,3.147899e+00
4.093840e-01,3.301500e-02,2.789497e-02,3,0,2.662263e+00,2.662263e+00
4.042630e-01,3.281500e-02,2.789497e-02,3,0,2.198210e+00,2.198210e+00
4.089330e-01,3.264700e-02,2.813339e-02,3,0,2.293594e+00,2.293594e+00
4.041500e-01,3.335000e-02,2.908707e-02,3,0,2.306371e+00,2.306372e+00
4.036330e-01,3.261800e-02,2.789497e-02,3,0,1.796254e+00,1.796254e+00
4.093620e-01,3.252900e-02,2.813339e-02,3,0,1.819995e+00,1.819995e+00
4.046240e-01,3.305400e-02,2.908707e-02,3,0,1.248125e+00,1.248125e+00
4.093310e-01,3.282000e-02,2.789497e-02,3,0,1.018029e+00,1.018029e+00
4.036520e-01,3.276100e-02,2.908707e-02,3,0,5.822704e-01,5.822705e-01
4.093790e-01,3.284900e-02,2.908707e-02,3,0,3.330042e-01,3.330043e-01
4.038780e-01,3.322200e-02,2.908707e-02,3,0,2.482012e-01,2.482013e-01
4.094270e-01,3.270000e-02,2.908707e-02,3,0,4.556665e-01,4.556671e-01
4.040490e-01,3.309100e-02,2.884865e-02,3,0,2.828503e-01,2.828503e-01
4.038700e-01,3.288400e-02,2.884865e-02,3,0,2.550038e-01,2.550041e-01
4.090110e-01,3.309700e-02,2.908707e-02,3,0,1.703391e-01,1.703393e-01
4.031500e-01,3.258700e-02,2.884865e-02,3,0,2.014382e-01,2.014383e-01
4.087900e-01,3.295000e-02,2.884865e-02,3,0,1.610878e-01,1.610879e-01
4.038550e-01,3.300300e-02,2.813339e-02,3,0,3.675098e-01,3.675102e-01
4.089160e-01,3.294300e-02,2.908707e-02,3,0,2.943286e-01,2.943288e-01
4.038710e-01,3.288200e-02,2.884865e-02,3,0,1.531881e-01,1.531885e-01
4.095420e-01,3.303100e-02,2.884865e-02,3,0,3.406145e-01,3.406149e-01
4.034700e-01,3.320000e-02,2.908707e-02,3,0,1.992794e-01,1.992794e-01
4.034160e-01,3.263000e-02,2.789497e-02,3,0,2.863253e-01,2.863255e-01
4.036270e-01,3.799400e-02,3.385544e-02,3,0,3.065630e-01,3.065632e-01
4.043470e-01,3.279200e-02,2.813339e-02,3,0,5.424410e-01,5.424416e-01
4.089790e-01,3.282500e-02,2.789497e-02,3,0,4.279558e-01,4.279559e-01
4.040400e-01,3.323000e-02,2.884865e-02,3,0,2.632428e-01,2.632428e-01
4.094140e-01,3.296400e-02,2.908707e-02,3,0,1.987338e-01,1.987340e-01
4.040240e-01,3.296300e-02,2.908707e-02,3,0,3.001355e-01,3.001358e-01
4.100500e-01,3.272700e-02,2.884865e-02,3,0,2.796328e-01,2.796329e-01
4.043860e-01,3.276600e-02,2.908707e-02,3,0,2.333222e-01,2.333222e-01
4.037260e-01,3.288900e-02,2.884865e-02,3,0,4.161912e-01,4.161916e-01
4.045390e-01,3.742600e-02,3.290176e-02,3,0,3.164070e-01,3.164072e-01
4.035030e-01,3.329200e-02,2.813339e-02,3,0,4.669154e-01,4.669158e-01
4.089320e-01,3.300000e-02,2.789497e-02,3,0,8.393308e-01,8.393316e-01
4.040290e-01,3.286400e-02,2.789497e-02,3,0,7.641868e-01,7.641872e-01
4.093130e-01,3.324300e-02,2.908707e-02,3,0,6.688066e-01,6.688068e-01
4.037660e-01,3.308300e-02,2.884865e-02,3,0,1.426902e+00,1.426904e+00
4.092190e-01,3.237200e-02,2.789497e-02,3,0,1.782333e+00,1.782334e+00
4.036570e-01,3.306600e-02,2.908707e-02,3,0,1.041850e+00,1.041850e+00
4.087270e-01,3.303900e-02,2.789497e-02,3,0,7.859893e-01,7.859893e-01
4.042310e-01,3.311800e-02,2.884865e-02,3,0,5.735276e-01,5.735277e-01
4.043570e-01,3.250100e-02,2.813339e-02,3,0,4.160026e-01,4.160026e-01
4.092160e-01,3.305500e-02,2.884865e-02,3,0,3.451743e-01,3.451744e-01
4.040060e-01,3.291800e-02,2.813339e-02,3,0,4.915619e-01,4.915622e-01
4.092790e-01,3.261900e-02,2.813339e-02,3,0,4.936917e-01,4.936918e-01
4.039030e-01,3.283000e-02,2.884865e-02,3,0,2.252739e-01,2.252742e-01
4.088020e-01,3.311500e-02,2.908707e-02,3,0,5.618388e-01,5.618395e-01
4.035440e-01,3.293800e-02,2.813339e-02,3,0,3.495964e-01,3.495964e-01
4.092420e-01,3.303400e-02,2.789497e-02,3,0,3.592869e-01,3.592871e-01
4.036190e-01,3.261200e-02,2.908707e-02,3,0,4.280375e-01,4.280379e-01
4.038870e-01,3.250500e-02,2.813339e-02,3,0,3.779338e-01,3.779339e-01
4.090770e-01,3.272900e-02,2.813339e-02,3,0,4.555058e-01,4.555061e-01
4.038510e-01,3.299700e-02,2.789497e-02,3,0,5.577085e-01,5.577089e-01
4.098640e-01,3.299900e-02,2.908707e-02,3,0,4.481921e-01,4.481923e-01
4.041950e-01,3.269100e-02,2.908707e-02,3,0,4.443838e-01,4.443842e-01
4.091710e-01,3.260500e-02,2.884865e-02,3,0,5.393824e-01,5.393827e-01
4.037420e-01,3.290900e-02,2.813339e-02,3,0,6.312316e-01,6.312320e-01
4.094930e-01,3.295500e-02,2.813339e-02,3,0,9.205165e-01,9.205172e-01
4.040080e-01,3.305200e-02,2.884865e-02,3,0,6.345202e-01,6.345203e-01
4.046870e-01,3.280500e-02,2.813339e-02,3,0,5.539466e-01,5.539472e-01
4.093330e-01,3.279700e-02,2.789497e-02,3,0,5.765081e-01,5.765082e-01
4.036320e-01,3.285500e-02,2.884865e-02,3,0,6.578870e-01,6.578873e-01
4.089940e-01,3.270600e-02,2.813339e-02,3,0,5.534815e-01,5.534817e-01
4.042610e-01,3.319500e-02,2.908707e-02,3,0,9.484619e-01,9.484631e-01
4.097590e-01,3.290500e-02,2.884865e-02,3,0,7.298599e-01,7.298600e-01
4.050390e-01,3.285000e-02,2.908707e-02,3,0,7.465294e-01,7.465297e-01
4.094110e-01,3.281400e-02,2.884865e-02,3,0,7.507962e-01,7.507964e-01
4.034840e-01,3.283500e-02,2.908707e-02,3,0,6.817459e-01,6.817461e-01
4.041420e-01,3.245900e-02,2.813339e-02,3,0,4.901159e-01,4.901160e-01
4.042210e-01,3.277700e-02,2.789497e-02,3,0,5.921281e-01,5.921285e-01
4.039500e-01,3.319400e-02,2.789497e-02,3,0,6.727251e-01,6.727256e-01
4.086300e-01,3.280000e-02,2.813339e-02,3,0,4.880306e-01,4.880307e-01
4.039630e-01,3.309900e-02,2.908707e-02,3,0,8.279034e-01,8.279043e-01
4.093340e-01,3.307700e-02,2.884865e-02,3,0,6.131676e-01,6.131677e-01
4.043160e-01,3.326000e-02,2.908707e-02,3,0,5.265205e-01,5.265207e-01
4.092020e-01,3.307300e-02,2.884865e-02,3,0,5.088590e-01,5.088592e-01
4.041500e-01,3.270100e-02,2.789497e-02,3,0,3.969120e-01,3.969123e-01
4.038180e-01,3.288300e-02,2.908707e-02,3,0,2.762960e-01,2.762961e-01
4.038650e-01,3.790100e-02,3.290176e-02,3,0,4.978548e-01,4.978552e-01
4.032160e-01,3.265900e-02,2.789497e-02,3,0,4.210892e-01,4.210894e-01
4.086480e-01,3.266900e-02,2.908707e-02,3,0,4.279700e-01,4.279704e-01
4.038710e-01,3.304900e-02,2.908707e-02,3,0,4.182497e-01,4.182498e-01
4.095340e-01,3.275800e-02,2.908707e-02,3,0,3.543472e-01,3.543474e-01
4.041180e-01,3.273000e-02,2.884865e-02,3,0,4.322884e-01,4.322886e-01
4.093310e-01,3.293700e-02,2.908707e-02,3,0,3.281681e-01,3.281681e-01
4.043330e-01,3.293400e-02,2.884865e-02,3,0,1.257821e+00,1.257823e+00
4.029310e-01,3.276500e-02,2.789497e-02,3,0,2.742537e+00,2.742540e+00
4.041420e-01,3.309200e-02,2.908707e-02,3,0,2.134744e+00,2.134744e+00
4.038880e-01,3.269100e-02,2.813339e-02,3,0,1.555064e+00,1.555064e+00
4.090500e-01,3.219400e-02,2.789497e-02,3,0,1.114300e+00,1.114300e+00
4.039750e-01,3.259200e-02,2.884865e-02,3,0,1.267583e+00,1.267583e+00
4.090800e-01,3.272900e-02,2.908707e-02,3,0,1.013176e+00,1.013176e+00
4.042610e-01,3.281400e-02,2.813339e-02,3,0,1.003273e+00,1.003274e+00
4.094040e-01,3.318400e-02,2.884865e-02,3,0,1.120686e+00,1.120686e+00
4.042990e-01,3.295400e-02,2.908707e-02,3,0,1.208034e+00,1.208034e+00
4.089140e-01,3.269800e-02,2.789497e-02,3,0,1.116001e+00,1.116001e+00
4.037080e-01,3.276100e-02,2.789497e-02,3,0,1.282012e+00,1.282013e+00
4.038770e-01,3.278400e-02,2.813339e-02,3,0,1.768272e+00,1.768273e+00
4.091490e-01,3.275400e-02,2.789497e-02,3,0,1.402028e+00,1.402028e+00
4.039890e-01,3.287000e-02,2.789497e-02,3,0,1.025092e+00,1.025092e+00
4.092780e-01,3.293200e-02,2.908707e-02,3,0,6.593292e-01,6.593289e-01
4.036210e-01,3.278800e-02,2.813339e-02,3,0,4.606536e-01,4.606536e-01
4.087690e-01,3.277800e-02,2.884865e-02,3,0,3.524187e-01,3.524189e-01
4.038290e-01,3.316000e-02,2.884865e-02,3,0,4.960515e-01,4.960519e-01
4.092530e-01,3.278100e-02,2.813339e-02,3,0,3.668235e-01,3.668235e-01
4.034740e-01,3.254700e-02,2.813339e-02,3,0,5.251833e-01,5.251838e-01
4.039320e-01,3.273000e-02,2.789497e-02,3,0,5.437236e-01,5.437238e-01
4.088180e-01,3.285700e-02,2.789497e-02,3,0,5.191680e-01,5.191681e-01
4.034520e-01,3.313500e-02,2.813339e-02,3,0,6.627464e-01,6.627470e-01
4.088910e-01,3.298200e-02,2.789497e-02,3,0,3.909010e-01,3.909010e-01
4.040550e-01,3.294300e-02,2.789497e-02,3,0,3.016423e-01,3.016424e-01
4.161350e-01,3.233700e-02,2.789497e-02,3,0,1.002091e+00,1.002093e+00
4.175120e-01,3.274900e-02,2.789497e-02,3,0,1.093279e+00,1.093279e+00
4.219470e-01,3.415300e-02,2.980232e-02,3,0,5.362180e-01,5.362178e-01
4.160190e-01,3.395300e-02,2.884865e-02,3,0,5.961707e-01,5.961710e-01
4.214590e-01,3.428000e-02,2.980232e-02,3,0,5.419457e-01,5.419458e-01
4.155510e-01,3.425600e-02,3.004074e-02,3,0,6.077994e-01,6.077996e-01
4.159800e-01,3.423300e-02,2.980232e-02,3,0,2.971781e-01,2.971780e-01
4.212090e-01,3.336500e-02,2.884865e-02,3,0,2.040109e-01,2.040110e-01
4.154870e-01,3.373400e-02,2.908707e-02,3,0,3.827939e-01,3.827943e-01
4.237010e-01,3.404100e-02,3.004074e-02,3,0,5.329205e-01,5.329209e-01
4.158740e-01,3.374300e-02,3.004074e-02,3,0,7.166409e-01,7.166414e-01
4.223350e-01,3.333800e-02,2.908707e-02,3,0,4.506404e-01,4.506405e-01
4.196360e-01,3.371600e-02,2.908707e-02,3,0,4.308090e-01,4.308093e-01
4.220670e-01,3.395000e-02,2.908707e-02,3,0,6.218864e-01,6.218870e-01
4.157260e-01,3.436400e-02,3.004074e-02,3,0,9.787901e-01,9.787908e-01
4.214670e-01,3.378600e-02,3.004074e-02,3,0,1.116791e+00,1.116792e+00
4.159590e-01,3.398700e-02,3.004074e-02,3,0,1.540904e+00,1.540905e+00
4.158370e-01,3.400400e-02,2.908707e-02,3,0,1.475718e+00,1.475718e+00
4.159520e-01,3.892200e-02,3.504753e-02,3,0,2.271338e+00,2.271340e+00
4.157350e-01,3.331700e-02,2.884865e-02,3,0,9.813099e-01,9.813095e-01
4.209280e-01,3.378000e-02,3.004074e-02,3,0,8.421965e-01,8.421967e-01
4.279140e-01,3.350900e-02,2.908707e-02,3,0,1.248222e+00,1.248223e+00
4.216810e-01,3.365900e-02,2.908707e-02,3,0,6.708158e-01,6.708154e-01
4.157440e-01,3.416200e-02,3.004074e-02,3,0,5.824210e-01,5.824211e-01
4.212890e-01,3.373400e-02,3.004074e-02,3,0,4.992677e-01,4.992678e-01
4.152870e-01,3.381000e-02,2.908707e-02,3,0,3.472349e-01,3.472349e-01
4.209460e-01,3.377100e-02,2.908707e-02,3,0,6.987594e-01,6.987600e-01
4.153550e-01,3.376000e-02,2.884865e-02,3,0,5.471631e-01,5.471631e-01
4.212290e-01,3.378400e-02,2.908707e-02,3,0,3.170678e-01,3.170678e-01
4.159630e-01,3.382900e-02,2.908707e-02,3,0,5.217454e-01,5.217461e-01
4.152620e-01,3.401200e-02,2.908707e-02,3,0,3.842854e-01,3.842854e-01
4.162480e-01,3.856700e-02,3.409386e-02,3,0,2.140727e-01,2.140729e-01
4.150830e-01,3.404400e-02,2.908707e-02,3,0,2.387965e-01,2.387966e-01
4.206050e-01,3.355600e-02,2.884865e-02,3,0,2.955949e-01,2.955952e-01
4.157970e-01,3.364600e-02,2.884865e-02,3,0,4.694231e-01,4.694236e-01
4.209430e-01,3.385900e-02,3.004074e-02,3,0,9.842172e-01,9.842184e-01
4.152880e-01,3.353900e-02,2.908707e-02,3,0,6.232691e-01,6.232702e-01
4.218470e-01,3.380300e-02,3.004074e-02,3,0,1.098332e+00,1.098333e+00
4.156610e-01,3.371400e-02,2.908707e-02,3,0,4.853319e-01,4.853316e-01
4.213200e-01,3.365900e-02,2.884865e-02,3,0,4.187908e-01,4.187910e-01
4.157750e-01,3.411400e-02,2.980232e-02,3,0,2.720649e-01,2.720649e-01
4.214360e-01,3.403300e-02,2.980232e-02,3,0,2.441733e-01,2.441736e-01
4.157850e-01,3.352600e-02,2.884865e-02,3,0,7.164640e-01,7.164652e-01
4.158870e-01,3.369600e-02,2.908707e-02,3,0,7.442926e-01,7.442928e-01
4.218230e-01,3.393900e-02,3.004074e-02,3,0,1.152313e+00,1.152313e+00
4.038580e-01,3.332300e-02,2.813339e-02,3,0,1.193370e+00,1.193370e+00
4.348430e-01,3.300300e-02,2.884865e-02,3,0,1.380567e+00,1.380568e+00
4.039320e-01,3.333100e-02,2.813339e-02,3,0,2.239501e+00,2.239503e+00
4.350740e-01,3.260300e-02,2.908707e-02,3,0,2.529364e+00,2.529365e+00
4.034640e-01,3.320800e-02,2.789497e-02,3,0,1.942816e+00,1.942816e+00
4.096980e-01,3.289200e-02,2.813339e-02,3,0,1.766978e+00,1.766978e+00
4.036390e-01,3.238200e-02,2.789497e-02,3,0,2.333588e+00,2.333591e+00
4.239720e-01,3.270200e-02,2.789497e-02,3,0,1.662287e+00,1.662287e+00
4.041510e-01,4.598400e-02,4.100800e-02,3,0,1.406041e+00,1.406041e+00
4.044220e-01,3.259000e-02,2.789497e-02,3,0,1.309667e+00,1.309668e+00
4.041250e-01,3.305800e-02,2.908707e-02,3,0,1.353551e+00,1.353551e+00
4.037650e-01,3.299500e-02,2.908707e-02,3,0,1.446554e+00,1.446555e+00
4.353310e-01,3.254400e-02,2.789497e-02,3,0,1.149410e+00,1.149410e+00
4.037860e-01,3.340600e-02,2.908707e-02,3,0,1.202724e+00,1.202725e+00
4.344650e-01,3.253600e-02,2.884865e-02,3,0,1.600580e+00,1.600581e+00
4.035370e-01,3.327300e-02,2.884865e-02,3,0,1.799590e+00,1.799591e+00
4.358530e-01,3.241600e-02,2.813339e-02,3,0,1.192503e+00,1.192502e+00
4.035640e-01,3.349600e-02,2.884865e-02,3,0,1.158590e+00,1.158590e+00
4.338520e-01,3.291900e-02,2.789497e-02,3,0,7.133188e-01,7.133187e-01
4.039440e-01,3.352500e-02,2.908707e-02,3,0,6.901438e-01,6.901442e-01

