2.626982e+00,2.978194e+00,2.320051e+00,2,0,0.000000e+00,0.000000e+00
3.878277e+00,5.634410e-01,5.300045e-01,3,0,2.943502e-01,2.943507e-01
3.840510e+00,5.950580e-01,5.590916e-01,3,0,7.738568e-01,7.738579e-01
3.874873e+00,5.924160e-01,5.679131e-01,3,0,2.110699e+00,2.110702e+00
3.911978e+00,5.835640e-01,5.600452e-01,3,0,9.151715e-01,9.151716e-01
3.884270e+00,6.183570e-01,5.939007e-01,3,0,3.310158e+00,3.310163e+00
3.843420e+00,6.197930e-01,5.960464e-01,3,0,4.396029e+00,4.396031e+00
3.853683e+00,5.810600e-01,5.581379e-01,3,0,6.049184e+00,6.049187e+00
3.869307e+00,5.747740e-01,5.538464e-01,3,0,6.796466e+00,6.796468e+00
3.842042e+00,1.542921e+00,1.519918e+00,3,1,9.220863e+00,9.223779e+00
3.873305e+00,1.425488e+00,1.400948e+00,3,1,7.076029e+00,7.076029e+00
3.866901e+00,5.422380e-01,5.187988e-01,3,0,7.225058e+00,7.225060e+00
3.866400e+00,5.922920e-01,5.688667e-01,3,0,6.440358e+00,6.440360e+00
3.841271e+00,5.764280e-01,5.528927e-01,3,0,7.070589e+00,7.070592e+00
3.909651e+00,5.835790e-01,5.600452e-01,3,0,5.366433e+00,5.366433e+00
3.804933e+00,5.852510e-01,5.609989e-01,3,0,4.718849e+00,4.718850e+00
3.836126e+00,6.030780e-01,5.800724e-01,3,0,5.027944e+00,5.027947e+00
3.859127e+00,5.932910e-01,5.700588e-01,3,0,4.898086e+00,4.898087e+00
3.863186e+00,5.728700e-01,5.500317e-01,3,0,6.187872e+00,6.187876e+00
3.861373e+00,6.115530e-01,5.869865e-01,3,0,8.093107e+00,8.093112e+00
3.836189e+00,5.814530e-01,5.578995e-01,3,0,8.250017e+00,8.250019e+00
3.885112e+00,5.719480e-01,5.490780e-01,3,0,8.075628e+00,8.075630e+00
3.839672e+00,5.724070e-01,5.490780e-01,3,0,7.999811e+00,7.999814e+00
3.873214e+00,6.113550e-01,5.829334e-01,3,0,7.032232e+00,7.032233e+00
3.868447e+00,5.902920e-01,5.669594e-01,3,0,5.565580e+00,5.565580e+00
3.870359e+00,5.846510e-01,5.619526e-01,3,0,5.866769e+00,5.866771e+00
3.863252e+00,6.116270e-01,5.869865e-01,3,0,4.289288e+00,4.289289e+00
3.834516e+00,5.849000e-01,5.619526e-01,3,0,4.144728e+00,4.144730e+00
3.895607e+00,5.812230e-01,5.590916e-01,3,0,4.099341e+00,4.099343e+00
3.841371e+00,5.857120e-01,5.638599e-01,3,0,3.010831e+00,3.010832e+00
3.862460e+00,5.674500e-01,5.450249e-01,3,0,3.632744e+00,3.632747e+00
3.868628e+00,5.884960e-01,5.648136e-01,3,0,3.443847e+00,3.443848e+00
3.867795e+00,5.825490e-01,5.588531e-01,3,0,2.213546e+00,2.213546e+00
3.856427e+00,6.145120e-01,5.910397e-01,3,0,2.015604e+00,2.015605e+00
3.832944e+00,5.814320e-01,5.590916e-01,3,0,3.537603e+00,3.537607e+00
3.888835e+00,6.156010e-01,5.919933e-01,3,0,2.862344e+00,2.862345e+00
3.914151e+00,5.833870e-01,5.619526e-01,3,0,2.012374e+00,2.012375e+00
3.910493e+00,6.069810e-01,5.829334e-01,3,0,3.723258e+00,3.723262e+00
3.898835e+00,6.221490e-01,5.958080e-01,3,0,3.506795e+00,3.506796e+00
3.904882e+00,6.277790e-01,6.020069e-01,3,0,3.303820e+00,3.303821e+00
3.899401e+00,6.216850e-01,5.960464e-01,3,0,1.799392e+00,1.799392e+00
3.902681e+00,6.124710e-01,5.879402e-01,3,0,3.816012e+00,3.816015e+00
3.901679e+00,6.121950e-01,5.869865e-01,3,0,2.636189e+00,2.636189e+00
3.893868e+00,6.047530e-01,5.819798e-01,3,0,2.468861e+00,2.468862e+00
3.905564e+00,5.596390e-01,5.388260e-01,3,0,1.638367e+00,1.638367e+00
3.907783e+00,5.777830e-01,5.559921e-01,3,0,1.308424e+00,1.308424e+00
3.900970e+00,5.901520e-01,5.669594e-01,3,0,1.499527e+00,1.499528e+00
3.890336e+00,6.045220e-01,5.800724e-01,3,0,1.177837e+00,1.177837e+00
3.893753e+00,5.989910e-01,5.750656e-01,3,0,8.472224e-01,8.472226e-01
3.892593e+00,6.031890e-01,5.791187e-01,3,0,1.111874e+00,1.111874e+00
3.888139e+00,6.064200e-01,5.829334e-01,3,0,3.024757e+00,3.024760e+00
3.895795e+00,6.038890e-01,5.798340e-01,3,0,6.404152e+00,6.404159e+00
3.908446e+00,5.642630e-01,5.419254e-01,3,0,3.879767e+00,3.879766e+00
3.896740e+00,5.735270e-01,5.500317e-01,3,0,2.488073e+00,2.488073e+00
3.894993e+00,5.818740e-01,5.588531e-01,3,0,2.474610e+00,2.474611e+00
3.916256e+00,6.022370e-01,5.779266e-01,3,0,2.462520e+00,2.462522e+00
3.909589e+00,6.011600e-01,5.772114e-01,3,0,3.273766e+00,3.273768e+00
3.897363e+00,6.054370e-01,5.810261e-01,3,0,2.128115e+00,2.128116e+00
3.921699e+00,6.065000e-01,5.819798e-01,3,0,1.372840e+00,1.372840e+00
3.890835e+00,5.988130e-01,5.750656e-01,3,0,1.019340e+00,1.019340e+00
3.903721e+00,5.852230e-01,5.631447e-01,3,0,1.291427e+00,1.291428e+00
3.890789e+00,5.792920e-01,5.569458e-01,3,0,1.122847e+00,1.122847e+00
3.901054e+00,5.823800e-01,5.600452e-01,3,0,8.906360e-01,8.906363e-01
3.895744e+00,6.007130e-01,5.779266e-01,3,0,1.908737e+00,1.908740e+00
3.900093e+00,5.957550e-01,5.719662e-01,3,0,3.367062e+00,3.367065e+00
3.896959e+00,6.020450e-01,5.788803e-01,3,0,2.785949e+00,2.785950e+00
3.884493e+00,6.063520e-01,5.829334e-01,3,0,3.767122e+00,3.767124e+00
3.896275e+00,5.945600e-01,5.710125e-01,3,0,7.055469e+00,7.055475e+00
3.904864e+00,5.802480e-01,5.578995e-01,3,0,6.149421e+00,6.149422e+00
3.900231e+00,1.546865e+00,1.524925e+00,3,1,8.154454e+00,8.154583e+00
3.900697e+00,1.431112e+00,1.405954e+00,3,1,6.968053e+00,6.968053e+00
3.891895e+00,5.541140e-01,5.300045e-01,3,0,6.752393e+00,6.752394e+00
3.899663e+00,5.621390e-01,5.390644e-01,3,0,5.070212e+00,5.070213e+00
3.901581e+00,5.877300e-01,5.638599e-01,3,0,4.315196e+00,4.315197e+00
3.895834e+00,5.949710e-01,5.700588e-01,3,0,4.185394e+00,4.185395e+00
3.901603e+00,6.002790e-01,5.760193e-01,3,0,2.809427e+00,2.809427e+00
3.893810e+00,6.037750e-01,5.798340e-01,3,0,2.651844e+00,2.651845e+00
3.897748e+00,5.956500e-01,5.719662e-01,3,0,3.109754e+00,3.109756e+00
3.897898e+00,6.066080e-01,5.829334e-01,3,0,4.195332e+00,4.195335e+00
3.895833e+00,5.589220e-01,5.381107e-01,3,0,3.316977e+00,3.316977e+00
3.900772e+00,1.313370e+00,1.291037e+00,3,1,6.509702e+00,6.509558e+00
5.208189e+00,1.255558e+00,1.230955e+00,4,1,4.703765e+00,4.703765e+00
3.911257e+00,1.571358e+00,1.545906e+00,3,1,5.636955e+00,5.637471e+00
3.897779e+00,7.719670e-01,7.469654e-01,3,0,5.430749e+00,5.431478e+00
3.899944e+00,1.446061e+00,1.422167e+00,3,1,3.320933e+00,3.320933e+00
3.899075e+00,5.900200e-01,5.650520e-01,3,0,3.657562e+00,3.657565e+00
3.917593e+00,2.510024e+00,2.487898e+00,3,2,5.539689e+00,5.552063e+00
3.915358e+00,4.490990e+00,4.466057e+00,3,4,6.083959e+00,6.125414e+00
3.926277e+00,3.977274e+00,3.952026e+00,3,4,6.034668e+00,6.034670e+00
3.904981e+00,5.916240e-01,5.660057e-01,3,0,6.303631e+00,6.303634e+00
3.899411e+00,1.303145e+00,1.277924e+00,3,1,6.724687e+00,6.723854e+00
9.075500e+00,1.546105e+00,1.520872e+00,7,1,5.521227e+00,5.517446e+00
7.798122e+00,2.701963e+00,2.676010e+00,6,2,6.523966e+00,6.511515e+00
5.220617e+00,7.241261e+00,7.214069e+00,4,7,6.873727e+00,6.914151e+00
3.934596e+00,7.042854e+00,7.015944e+00,3,7,7.232455e+00,7.291749e+00
7.801870e+00,4.015862e+00,3.990173e+00,6,4,4.974623e+00,4.961160e+00
5.210279e+00,6.129910e-01,5.810261e-01,4,0,5.226757e+00,5.226745e+00
3.908470e+00,6.108450e-01,5.869865e-01,3,0,3.211760e+00,3.211756e+00
3.926597e+00,6.075540e-01,5.810261e-01,3,0,2.593122e+00,2.593124e+00
3.942337e+00,1.597931e+00,1.574039e+00,3,1,4.956568e+00,4.958587e+00
3.909787e+00,1.479104e+00,1.452923e+00,3,1,4.288620e+00,4.288621e+00
3.922127e+00,6.065600e-01,5.798340e-01,3,0,2.972799e+00,2.972799e+00
3.910680e+00,6.005170e-01,5.769730e-01,3,0,2.910543e+00,2.910544e+00
3.915024e+00,3.700062e+00,3.665924e+00,3,1,5.323566e+00,7.229420e+00
5.223780e+00,1.290002e+00,1.262903e+00,4,1,3.800284e+00,3.800284e+00
3.911526e+00,6.323920e-01,6.051064e-01,3,0,3.527421e+00,3.527423e+00
3.912145e+00,6.247690e-01,5.979538e-01,3,0,2.014509e+00,2.014510e+00
3.905551e+00,6.441100e-01,6.170273e-01,3,0,1.532552e+00,1.532552e+00
3.895656e+00,6.284690e-01,6.020069e-01,3,0,1.610091e+00,1.610092e+00
3.906878e+00,5.701640e-01,5.490780e-01,3,0,9.228754e-01,9.228755e-01
3.899086e+00,5.695940e-01,5.471706e-01,3,0,2.093515e+00,2.093518e+00
3.894303e+00,5.916790e-01,5.679131e-01,3,0,6.281803e+00,6.281810e+00
3.888100e+00,5.961480e-01,5.719662e-01,3,0,8.694862e+00,8.694867e+00
5.230868e+00,9.847565e+00,9.814024e+00,4,7,1.516299e+01,1.866310e+01
7.798405e+00,4.480623e+00,4.453897e+00,6,4,1.650787e+01,1.661308e+01
7.813479e+00,8.438131e+00,8.410931e+00,6,9,1.340435e+01,1.338834e+01
5.207488e+00,2.171906e+00,2.145052e+00,4,2,7.230196e+00,7.230191e+00
3.899147e+00,6.006860e-01,5.750656e-01,3,0,5.280200e+00,5.280200e+00
3.904055e+00,6.071750e-01,5.819798e-01,3,0,4.385274e+00,4.385274e+00
3.911969e+00,2.573481e+00,2.551079e+00,3,2,4.487674e+00,4.490120e+00
3.910934e+00,1.023007e+01,1.020384e+01,3,10,7.405902e+00,7.787253e+00
3.937760e+00,1.093849e+01,1.091194e+01,3,11,7.968609e+00,8.439186e+00
6.512429e+00,1.267302e+01,1.264596e+01,5,13,8.988689e+00,9.315806e+00
7.821500e+00,1.621771e+01,1.619101e+01,6,18,7.658340e+00,7.736553e+00
6.497771e+00,2.509325e+00,2.483130e+00,5,2,7.460334e+00,7.549638e+00
7.838809e+00,2.103973e+01,2.101398e+01,6,22,1.287743e+01,1.325922e+01
5.234664e+00,2.068471e+01,2.065706e+01,4,24,6.255206e+00,6.250932e+00
5.209571e+00,1.976314e+00,1.948833e+00,4,2,6.000990e+00,6.000955e+00
3.902872e+00,5.938430e-01,5.679131e-01,3,0,3.142335e+00,3.142331e+00
3.912097e+00,5.966510e-01,5.719662e-01,3,0,2.729577e+00,2.729578e+00
3.905653e+00,6.077820e-01,5.829334e-01,3,0,2.614599e+00,2.614600e+00
3.889044e+00,6.000800e-01,5.750656e-01,3,0,2.493856e+00,2.493858e+00
3.901213e+00,6.080790e-01,5.838871e-01,3,0,3.342561e+00,3.342563e+00
3.896548e+00,6.080770e-01,5.841255e-01,3,0,2.073159e+00,2.073159e+00
3.898313e+00,5.676990e-01,5.459785e-01,3,0,2.776812e+00,2.776814e+00
3.900337e+00,5.758490e-01,5.540848e-01,3,0,2.030324e+00,2.030324e+00
3.898005e+00,5.950700e-01,5.719662e-01,3,0,3.003127e+00,3.003128e+00
3.899485e+00,5.968740e-01,5.729198e-01,3,0,5.179120e+00,5.179124e+00
3.913002e+00,3.004478e+00,2.971649e+00,3,0,9.820808e+00,2.320611e+01
5.212522e+00,1.609035e+00,1.585007e+00,4,1,6.050881e+00,6.051318e+00
3.900844e+00,1.467809e+00,1.441002e+00,3,1,4.052534e+00,4.052521e+00
3.905923e+00,5.931530e-01,5.681515e-01,3,0,3.325520e+00,3.325520e+00
3.899756e+00,5.979120e-01,5.738735e-01,3,0,4.569673e+00,4.569677e+00
3.896741e+00,5.554390e-01,5.340576e-01,3,0,2.306430e+00,2.306430e+00
3.905574e+00,5.755420e-01,5.531311e-01,3,0,2.211195e+00,2.211196e+00
3.887985e+00,5.972270e-01,5.738735e-01,3,0,1.617141e+00,1.617141e+00
3.897730e+00,5.946660e-01,5.710125e-01,3,0,1.775676e+00,1.775677e+00
3.898804e+00,6.069700e-01,5.819798e-01,3,0,2.853577e+00,2.853580e+00
3.889871e+00,6.072330e-01,5.831718e-01,3,0,3.305863e+00,3.305864e+00
3.899491e+00,5.992120e-01,5.760193e-01,3,0,3.097319e+00,3.097320e+00
3.892604e+00,6.058110e-01,5.810261e-01,3,0,3.570088e+00,3.570089e+00
3.893714e+00,5.612270e-01,5.400181e-01,3,0,3.522204e+00,3.522205e+00
3.907520e+00,1.301517e+00,1.278877e+00,3,1,3.321794e+00,3.321550e+00
7.803012e+00,1.264871e+00,1.240969e+00,6,1,4.892920e+00,4.878393e+00
5.197856e+00,6.185610e-01,5.931854e-01,4,0,2.306900e+00,2.306898e+00
3.909720e+00,6.169770e-01,5.910397e-01,3,0,2.799719e+00,2.799721e+00
3.905201e+00,6.039770e-01,5.791187e-01,3,0,3.558301e+00,3.558303e+00
3.894735e+00,6.076060e-01,5.841255e-01,3,0,4.167696e+00,4.167698e+00
3.894915e+00,6.105340e-01,5.857944e-01,3,0,3.855786e+00,3.855787e+00
3.895686e+00,6.040460e-01,5.800724e-01,3,0,3.354423e+00,3.354424e+00
3.889703e+00,6.095490e-01,5.848408e-01,3,0,2.667023e+00,2.667024e+00
3.893960e+00,5.772450e-01,5.559921e-01,3,0,2.723555e+00,2.723556e+00
3.911063e+00,5.727670e-01,5.509853e-01,3,0,3.632854e+00,3.632857e+00
3.916851e+00,2.651429e+00,2.629042e+00,3,2,4.985992e+00,4.993134e+00
3.914813e+00,2.294912e+00,2.269030e+00,3,2,3.754074e+00,3.754074e+00
3.940533e+00,5.920640e-01,5.660057e-01,3,0,2.981566e+00,2.981566e+00
3.907473e+00,5.982930e-01,5.729198e-01,3,0,3.429917e+00,3.429919e+00
3.902944e+00,5.727110e-01,5.509853e-01,3,0,1.773222e+00,1.773221e+00
3.898516e+00,5.763430e-01,5.528927e-01,3,0,2.310445e+00,2.310447e+00
3.899768e+00,5.839980e-01,5.609989e-01,3,0,1.769403e+00,1.769404e+00
3.894482e+00,6.021450e-01,5.772114e-01,3,0,2.222336e+00,2.222338e+00
3.911040e+00,5.993800e-01,5.750656e-01,3,0,1.798044e+00,1.798045e+00
3.903798e+00,6.069980e-01,5.819798e-01,3,0,2.925571e+00,2.925573e+00
3.911621e+00,6.271300e-01,6.029606e-01,3,0,2.867887e+00,2.867888e+00
3.905550e+00,6.009370e-01,5.760193e-01,3,0,2.572568e+00,2.572568e+00
3.905603e+00,5.736490e-01,5.509853e-01,3,0,2.077559e+00,2.077559e+00
3.904159e+00,5.796320e-01,5.581379e-01,3,0,2.079005e+00,2.079008e+00
3.901890e+00,5.906320e-01,5.679131e-01,3,0,1.756995e+00,1.756996e+00
3.896081e+00,5.977590e-01,5.750656e-01,3,0,1.642100e+00,1.642101e+00
3.896163e+00,1.320371e+00,1.296997e+00,3,1,4.207816e+00,4.207347e+00
7.798919e+00,1.275930e+00,1.252174e+00,6,1,3.187179e+00,3.183977e+00
3.902412e+00,6.077970e-01,5.819798e-01,3,0,2.658732e+00,2.658718e+00
3.904380e+00,5.997010e-01,5.750656e-01,3,0,2.591596e+00,2.591596e+00
3.893807e+00,5.935590e-01,5.691051e-01,3,0,2.309567e+00,2.309568e+00
3.895226e+00,5.959180e-01,5.719662e-01,3,0,1.435713e+00,1.435713e+00
3.893365e+00,5.922730e-01,5.700588e-01,3,0,1.767386e+00,1.767387e+00
3.898113e+00,5.725390e-01,5.500317e-01,3,0,1.103547e+00,1.103547e+00
3.890207e+00,5.812730e-01,5.590916e-01,3,0,3.336382e+00,3.336387e+00
3.894201e+00,5.744260e-01,5.519390e-01,3,0,2.685376e+00,2.685377e+00
3.898429e+00,5.886270e-01,5.650520e-01,3,0,2.028989e+00,2.028989e+00
3.886653e+00,5.256690e-01,5.059242e-01,3,0,3.135567e+00,3.135569e+00
3.894041e+00,5.840390e-01,5.569458e-01,3,0,4.109252e+00,4.109254e+00
3.898985e+00,5.834270e-01,5.600452e-01,3,0,1.798459e+00,1.798458e+00
3.888600e+00,5.864510e-01,5.640984e-01,3,0,1.553122e+00,1.553123e+00
3.902933e+00,5.344010e-01,5.149841e-01,3,0,2.135773e+00,2.135775e+00
3.899612e+00,5.793460e-01,5.571842e-01,3,0,1.428018e+00,1.428019e+00
3.905701e+00,5.769300e-01,5.550385e-01,3,0,1.934787e+00,1.934789e+00
3.893144e+00,5.947070e-01,5.719662e-01,3,0,1.260185e+00,1.260185e+00
3.903097e+00,5.694980e-01,5.481243e-01,3,0,1.424758e+00,1.424759e+00
3.897808e+00,5.914680e-01,5.681515e-01,3,0,1.292300e+00,1.292301e+00
3.851053e+00,5.897410e-01,5.660057e-01,3,0,9.546574e-01,9.546578e-01
3.781833e+00,5.621810e-01,5.409718e-01,3,0,8.896162e-01,8.896167e-01
3.774208e+00,5.628940e-01,5.400181e-01,3,0,2.081078e+00,2.081081e+00
3.785592e+00,5.358630e-01,5.149841e-01,3,0,9.561507e-01,9.561508e-01
3.806218e+00,5.621620e-01,5.400181e-01,3,0,1.354896e+00,1.354897e+00
3.896925e+00,5.788670e-01,5.569458e-01,3,0,1.135734e+00,1.135735e+00
3.903628e+00,6.097500e-01,5.850792e-01,3,0,1.553032e+00,1.553034e+00
3.900904e+00,5.888960e-01,5.660057e-01,3,0,3.341175e+00,3.341178e+00
3.900069e+00,5.669400e-01,5.440712e-01,3,0,2.713586e+00,2.713587e+00
3.897041e+00,5.717100e-01,5.490780e-01,3,0,2.370907e+00,2.370908e+00
3.918770e+00,7.439952e+00,7.415056e+00,3,7,9.188416e+00,9.245993e+00
7.809134e+00,6.396995e+00,6.369829e+00,6,7,6.904343e+00,6.889814e+00
5.196866e+00,6.090240e-01,5.831718e-01,4,0,4.790216e+00,4.790215e+00
3.906367e+00,6.150310e-01,5.898476e-01,3,0,5.217198e+00,5.217199e+00
3.889715e+00,6.018410e-01,5.781651e-01,3,0,5.230823e+00,5.230824e+00
3.907088e+00,6.050320e-01,5.810261e-01,3,0,5.364297e+00,5.364299e+00
3.891911e+00,6.079100e-01,5.831718e-01,3,0,7.233877e+00,7.233882e+00
3.907586e+00,6.041800e-01,5.798340e-01,3,0,5.077922e+00,5.077922e+00
3.897202e+00,6.061750e-01,5.829334e-01,3,0,4.198243e+00,4.198245e+00
3.897508e+00,6.125700e-01,5.888939e-01,3,0,3.640930e+00,3.640931e+00
3.930040e+00,5.601210e-01,5.390644e-01,3,0,4.329281e+00,4.329284e+00
3.904597e+00,5.825300e-01,5.600452e-01,3,0,3.536917e+00,3.536917e+00
3.899453e+00,5.922440e-01,5.688667e-01,3,0,3.393125e+00,3.393126e+00
3.816359e+00,6.040740e-01,5.729198e-01,3,0,3.618699e+00,3.618701e+00
3.789857e+00,5.865020e-01,5.629063e-01,3,0,2.692856e+00,2.692856e+00
3.786172e+00,5.767330e-01,5.528927e-01,3,0,2.343506e+00,2.343506e+00
3.781749e+00,5.817940e-01,5.600452e-01,3,0,2.815578e+00,2.815579e+00
3.780824e+00,5.749620e-01,5.528927e-01,3,0,1.923835e+00,1.923835e+00
3.780432e+00,5.485190e-01,5.290508e-01,3,0,1.826420e+00,1.826421e+00
3.786168e+00,5.465040e-01,5.259514e-01,3,0,3.177283e+00,3.177286e+00
3.784515e+00,5.547960e-01,5.338192e-01,3,0,2.959612e+00,2.959613e+00
3.784095e+00,5.742000e-01,5.519390e-01,3,0,1.839261e+00,1.839261e+00
3.782742e+00,5.704220e-01,5.490780e-01,3,0,1.785615e+00,1.785615e+00
3.783388e+00,5.768100e-01,5.540848e-01,3,0,7.976561e-01,7.976569e-01
3.787583e+00,5.735560e-01,5.521774e-01,3,0,4.706168e-01,4.706170e-01
3.783359e+00,5.726710e-01,5.497932e-01,3,0,4.162991e-01,4.162995e-01
3.781512e+00,5.643970e-01,5.421638e-01,3,0,1.018298e+00,1.018299e+00
3.787113e+00,5.672630e-01,5.450249e-01,3,0,2.366419e+00,2.366422e+00
3.794317e+00,5.578140e-01,5.359650e-01,3,0,3.783975e+00,3.783978e+00
3.817163e+00,5.904840e-01,5.688667e-01,3,0,4.582415e+00,4.582417e+00
3.790782e+00,5.687790e-01,5.459785e-01,3,0,6.226779e+00,6.226783e+00
3.787841e+00,5.702270e-01,5.469322e-01,3,0,4.482309e+00,4.482309e+00
3.831689e+00,5.611230e-01,5.390644e-01,3,0,3.336196e+00,3.336196e+00
3.786619e+00,5.463930e-01,5.249977e-01,3,0,2.943437e+00,2.943437e+00
3.808905e+00,5.634790e-01,5.409718e-01,3,0,2.522391e+00,2.522392e+00
3.891241e+00,5.789130e-01,5.571842e-01,3,0,3.032511e+00,3.032513e+00
3.889534e+00,5.983690e-01,5.741119e-01,3,0,3.456886e+00,3.456888e+00
3.905849e+00,5.941840e-01,5.719662e-01,3,0,2.242254e+00,2.242254e+00
3.897305e+00,5.682110e-01,5.469322e-01,3,0,2.017916e+00,2.017917e+00
3.899667e+00,5.784450e-01,5.562305e-01,3,0,1.597608e+00,1.597609e+00
3.893725e+00,6.024940e-01,5.779266e-01,3,0,1.671926e+00,1.671927e+00
3.891857e+00,5.978130e-01,5.738735e-01,3,0,2.047242e+00,2.047244e+00
3.888243e+00,6.027800e-01,5.791187e-01,3,0,1.421585e+00,1.421585e+00
3.890677e+00,6.100890e-01,5.860329e-01,3,0,2.739543e+00,2.739546e+00
3.898700e+00,5.958320e-01,5.719662e-01,3,0,4.199642e+00,4.199645e+00
3.897823e+00,6.033950e-01,5.810261e-01,3,0,5.928770e+00,5.928774e+00
3.908594e+00,5.647310e-01,5.428791e-01,3,0,4.161643e+00,4.161643e+00
3.892061e+00,5.783560e-01,5.559921e-01,3,0,1.589852e+00,1.589851e+00
3.899620e+00,6.156910e-01,5.919933e-01,3,0,1.791703e+00,1.791704e+00
3.889634e+00,5.951450e-01,5.719662e-01,3,0,2.339039e+00,2.339040e+00
3.892785e+00,6.070570e-01,5.831718e-01,3,0,2.541469e+00,2.541471e+00
3.896176e+00,6.071080e-01,5.829334e-01,3,0,3.331810e+00,3.331813e+00
3.891733e+00,5.974040e-01,5.738735e-01,3,0,6.903008e+00,6.903015e+00
3.900043e+00,6.041690e-01,5.810261e-01,3,0,4.792142e+00,4.792142e+00
3.901560e+00,5.512540e-01,5.300045e-01,3,0,4.036393e+00,4.036393e+00
3.908982e+00,5.763720e-01,5.540848e-01,3,0,4.326546e+00,4.326548e+00
3.897125e+00,5.983700e-01,5.738735e-01,3,0,7.773648e+00,7.773655e+00
3.892898e+00,5.962880e-01,5.719662e-01,3,0,6.659506e+00,6.659507e+00
3.895210e+00,6.049370e-01,5.810261e-01,3,0,5.223939e+00,5.223939e+00
3.895945e+00,1.317244e+00,1.294136e+00,3,1,7.952374e+00,7.952175e+00
6.482668e+00,1.297651e+00,1.272917e+00,5,1,1.051842e+01,1.051825e+01
5.215022e+00,1.319122e+00,1.295090e+00,4,1,1.176301e+01,1.176292e+01
9.101673e+00,6.155300e-01,5.900860e-01,7,0,1.150883e+01,1.150466e+01
5.203473e+00,1.342834e+00,1.317024e+00,4,1,8.788686e+00,8.788684e+00
3.921351e+00,6.058440e-01,5.810261e-01,3,0,8.631488e+00,8.631490e+00
3.903023e+00,6.323540e-01,6.070137e-01,3,0,8.106698e+00,8.106699e+00
3.889790e+00,5.921250e-01,5.691051e-01,3,0,7.204660e+00,7.204661e+00
3.906682e+00,5.700080e-01,5.481243e-01,3,0,6.104625e+00,6.104626e+00
3.907131e+00,5.958390e-01,5.729198e-01,3,0,4.980099e+00,4.980099e+00
3.911770e+00,1.627646e+00,1.604080e+00,3,1,4.587683e+00,4.592018e+00
3.905338e+00,1.464195e+00,1.439095e+00,3,1,3.338082e+00,3.338083e+00
3.907338e+00,3.661663e+00,3.635883e+00,3,3,4.581268e+00,4.595471e+00
3.919634e+00,3.432568e+00,3.401995e+00,3,3,4.688991e+00,4.691627e+00
3.908323e+00,1.623061e+00,1.597881e+00,3,1,3.873939e+00,3.874021e+00
3.914355e+00,1.443473e+00,1.417875e+00,3,1,3.609327e+00,3.609327e+00
3.892633e+00,5.809430e-01,5.559921e-01,3,0,2.598881e+00,2.598881e+00
3.896164e+00,1.308550e+00,1.284122e+00,3,1,4.698141e+00,4.697639e+00
7.814156e+00,1.411249e+01,1.408696e+01,6,14,1.197597e+01,1.207031e+01
7.820833e+00,1.150803e+01,1.147985e+01,6,13,6.728040e+00,6.723776e+00
5.207604e+00,6.114390e-01,5.850792e-01,4,0,8.536181e+00,8.536182e+00
3.929075e+00,6.410327e+00,6.380081e+00,3,6,1.099212e+01,1.100447e+01
1.042760e+01,5.742321e+00,5.715847e+00,8,6,5.995136e+00,5.980298e+00
5.195006e+00,6.227190e-01,5.960464e-01,4,0,6.093524e+00,6.093508e+00
3.911319e+00,6.148800e-01,5.888939e-01,3,0,4.089704e+00,4.089704e+00
3.908454e+00,6.032610e-01,5.781651e-01,3,0,3.708844e+00,3.708846e+00
3.903576e+00,5.997520e-01,5.760193e-01,3,0,3.092194e+00,3.092195e+00
3.896372e+00,6.105960e-01,5.869865e-01,3,0,2.425441e+00,2.425441e+00
3.904613e+00,6.187000e-01,5.939007e-01,3,0,1.803063e+00,1.803063e+00
3.907451e+00,6.381720e-01,6.039143e-01,3,0,1.941692e+00,1.941693e+00
3.904217e+00,6.341350e-01,6.079674e-01,3,0,4.353152e+00,4.353157e+00
3.909166e+00,1.359361e+00,1.333952e+00,3,1,3.658480e+00,3.658164e+00
5.195826e+00,1.294061e+00,1.269102e+00,4,1,1.364080e+00,1.364079e+00
3.901214e+00,5.977280e-01,5.719662e-01,3,0,2.361011e+00,2.361013e+00
3.898079e+00,6.015300e-01,5.769730e-01,3,0,2.455755e+00,2.455756e+00
3.912572e+00,5.970500e-01,5.748272e-01,3,0,3.022535e+00,3.022537e+00
3.895614e+00,5.631270e-01,5.409718e-01,3,0,1.788576e+00,1.788577e+00
3.900897e+00,5.882080e-01,5.648136e-01,3,0,1.995499e+00,1.995500e+00
3.901095e+00,5.995340e-01,5.769730e-01,3,0,2.971568e+00,2.971571e+00
3.894243e+00,5.964810e-01,5.738735e-01,3,0,2.725308e+00,2.725308e+00
3.904685e+00,6.043660e-01,5.800724e-01,3,0,1.840622e+00,1.840623e+00
3.895263e+00,6.070840e-01,5.829334e-01,3,0,1.679198e+00,1.679199e+00
3.903024e+00,5.996720e-01,5.760193e-01,3,0,2.019618e+00,2.019619e+00
3.926326e+00,6.021030e-01,5.788803e-01,3,0,4.082909e+00,4.082913e+00
3.914705e+00,1.606511e+00,1.585007e+00,3,1,4.621446e+00,4.621452e+00
3.903613e+00,1.453141e+00,1.420975e+00,3,1,4.576738e+00,4.576739e+00
3.915813e+00,5.831620e-01,5.581379e-01,3,0,3.778982e+00,3.778983e+00
3.905559e+00,5.506770e-01,5.280972e-01,3,0,3.770301e+00,3.770303e+00
3.912288e+00,1.605189e+00,1.581907e+00,3,1,4.168633e+00,4.168637e+00
3.910986e+00,2.447969e+00,2.424002e+00,3,2,4.485210e+00,4.487091e+00
3.915002e+00,1.450225e+00,1.424074e+00,3,1,3.540991e+00,3.540991e+00
3.901771e+00,5.929410e-01,5.671978e-01,3,0,4.427200e+00,4.427202e+00
3.904304e+00,1.533104e+00,1.512051e+00,3,1,5.477882e+00,5.485944e+00
3.929692e+00,7.557689e+00,7.532120e+00,3,7,8.906170e+00,8.932348e+00
7.788096e+00,2.468344e+00,2.440929e+00,6,2,9.669510e+00,9.695647e+00
5.206196e+00,5.778242e+00,5.752087e+00,4,6,4.808811e+00,4.808805e+00
3.905247e+00,6.047000e-01,5.788803e-01,3,0,3.551482e+00,3.551482e+00
3.908758e+00,5.978310e-01,5.722046e-01,3,0,3.414315e+00,3.414317e+00
3.899660e+00,6.042530e-01,5.800724e-01,3,0,3.799390e+00,3.799392e+00
3.906304e+00,5.678140e-01,5.462170e-01,3,0,3.754078e+00,3.754079e+00
5.215600e+00,2.987957e+00,2.956629e+00,4,0,1.154891e+01,3.864730e+01
7.796114e+00,2.986977e+00,2.953529e+00,6,0,1.672569e+01,5.352500e+01
7.797864e+00,3.008614e+00,2.973795e+00,6,0,1.311130e+01,3.300792e+01
1.039308e+01,3.028407e+00,2.993345e+00,8,0,1.279651e+01,3.142828e+01
7.803207e+00,5.453952e+00,5.419254e+00,6,2,1.190215e+01,2.266211e+01
7.794165e+00,3.890317e+00,3.855467e+00,6,0,1.456208e+01,2.740310e+01
5.206337e+00,4.323156e+00,4.296064e+00,4,4,1.206187e+01,1.207426e+01
6.502275e+00,4.745086e+00,4.709721e+00,5,1,1.612955e+01,1.858798e+01
5.204996e+00,3.170192e+00,3.144026e+00,4,3,1.281998e+01,1.281998e+01
3.907955e+00,6.199810e-01,5.939007e-01,3,0,1.095365e+01,1.095365e+01
3.930013e+00,3.622745e+00,3.597975e+00,3,3,8.102391e+00,8.103730e+00
3.929241e+00,4.421989e+00,4.395962e+00,3,4,6.582274e+00,6.590044e+00
3.921931e+00,4.496453e+00,4.471064e+00,3,4,6.002305e+00,6.008663e+00
4.015362e+00,2.476399e+00,2.450228e+00,3,2,4.513115e+00,4.513657e+00
3.896424e+00,1.445315e+00,1.420021e+00,3,1,3.845873e+00,3.845875e+00
3.926381e+00,5.921950e-01,5.681515e-01,3,0,3.722838e+00,3.722840e+00
3.920514e+00,6.040510e-01,5.798340e-01,3,0,2.629667e+00,2.629667e+00
3.907968e+00,6.028040e-01,5.779266e-01,3,0,2.656381e+00,2.656382e+00
3.905086e+00,6.057830e-01,5.822182e-01,3,0,1.850317e+00,1.850318e+00
3.894500e+00,6.088040e-01,5.850792e-01,3,0,1.047555e+00,1.047555e+00
3.904728e+00,5.682120e-01,5.459785e-01,3,0,2.704134e+00,2.704137e+00
3.907695e+00,5.910590e-01,5.679131e-01,3,0,1.254604e+00,1.254603e+00
3.902207e+00,6.222170e-01,5.970001e-01,3,0,8.889712e-01,8.889721e-01
3.902963e+00,6.158890e-01,5.910397e-01,3,0,1.207745e+00,1.207746e+00
3.891990e+00,6.169940e-01,5.931854e-01,3,0,1.064289e+00,1.064290e+00
3.896983e+00,6.223090e-01,5.970001e-01,3,0,1.880616e+00,1.880619e+00
3.914146e+00,6.166400e-01,5.910397e-01,3,0,1.101737e+00,1.101737e+00
3.919644e+00,6.190600e-01,5.960464e-01,3,0,2.770470e+00,2.770473e+00
3.910355e+00,6.206320e-01,5.960464e-01,3,0,2.550560e+00,2.550561e+00
3.909903e+00,6.195110e-01,5.941391e-01,3,0,2.365976e+00,2.365977e+00
3.926273e+00,6.463150e-01,6.198883e-01,3,0,1.558908e+00,1.558908e+00
3.901710e+00,6.167930e-01,5.910397e-01,3,0,2.535408e+00,2.535410e+00
3.891209e+00,5.953580e-01,5.698204e-01,3,0,2.454961e+00,2.454962e+00
3.863292e+00,6.217170e-01,5.970001e-01,3,0,2.626964e+00,2.626965e+00
3.824755e+00,5.849760e-01,5.621910e-01,3,0,2.040742e+00,2.040743e+00
3.869890e+00,5.718800e-01,5.509853e-01,3,0,1.875050e+00,1.875051e+00
3.837706e+00,5.949140e-01,5.731583e-01,3,0,1.587148e+00,1.587149e+00
3.896305e+00,5.805340e-01,5.571842e-01,3,0,1.230955e+00,1.230956e+00
3.877373e+00,5.940420e-01,5.700588e-01,3,0,1.278793e+00,1.278794e+00
3.891654e+00,5.856890e-01,5.619526e-01,3,0,1.022407e+00,1.022408e+00
3.860849e+00,6.182070e-01,5.950928e-01,3,0,1.543585e+00,1.543586e+00
3.826171e+00,6.362280e-01,6.129742e-01,3,0,1.477633e+00,1.477634e+00
3.868586e+00,5.995410e-01,5.769730e-01,3,0,2.805497e+00,2.805500e+00
3.834519e+00,5.761760e-01,5.550385e-01,3,0,3.538421e+00,3.538423e+00
3.880896e+00,1.608158e+00,1.585960e+00,3,1,7.698572e+00,7.700170e+00
3.888638e+00,1.476370e+00,1.453161e+00,3,1,6.636430e+00,6.636430e+00
3.899772e+00,5.376360e-01,5.140305e-01,3,0,3.366050e+00,3.366049e+00
3.890984e+00,5.851320e-01,5.619526e-01,3,0,3.715297e+00,3.715299e+00
3.837702e+00,5.863920e-01,5.629063e-01,3,0,3.973241e+00,3.973243e+00
3.869779e+00,5.964490e-01,5.722046e-01,3,0,4.613007e+00,4.613011e+00
3.878268e+00,6.259400e-01,6.029606e-01,3,0,4.342410e+00,4.342412e+00
3.867816e+00,5.856200e-01,5.621910e-01,3,0,3.700611e+00,3.700613e+00
3.887551e+00,6.217460e-01,5.979538e-01,3,0,4.268945e+00,4.268948e+00
3.868401e+00,6.102440e-01,5.869865e-01,3,0,4.423437e+00,4.423439e+00
3.882704e+00,5.483600e-01,5.269051e-01,3,0,4.586933e+00,4.586934e+00
3.872340e+00,6.017150e-01,5.800724e-01,3,0,5.096225e+00,5.096227e+00
3.857240e+00,5.824600e-01,5.588531e-01,3,0,6.038832e+00,6.038835e+00
3.880576e+00,6.135440e-01,5.898476e-01,3,0,2.306173e+00,2.306172e+00
3.857199e+00,6.060610e-01,5.831718e-01,3,0,2.509675e+00,2.509676e+00
3.892083e+00,6.005140e-01,5.660057e-01,3,0,3.255081e+00,3.255083e+00
3.858007e+00,5.942090e-01,5.710125e-01,3,0,2.127946e+00,2.127946e+00
3.968230e+00,5.924600e-01,5.660057e-01,3,0,1.598678e+00,1.598679e+00
3.867956e+00,5.504780e-01,5.300045e-01,3,0,1.522938e+00,1.522939e+00
3.855515e+00,5.992710e-01,5.660057e-01,3,0,1.566273e+00,1.566274e+00
3.862774e+00,5.956470e-01,5.619526e-01,3,0,1.588308e+00,1.588308e+00
3.863481e+00,6.156710e-01,5.929470e-01,3,0,1.282278e+00,1.282278e+00
3.908303e+00,5.888050e-01,5.660057e-01,3,0,1.709831e+00,1.709833e+00
3.855586e+00,5.928930e-01,5.700588e-01,3,0,2.356897e+00,2.356899e+00
3.831972e+00,6.066080e-01,5.841255e-01,3,0,3.438205e+00,3.438208e+00
3.869349e+00,5.840220e-01,5.619526e-01,3,0,5.105882e+00,5.105886e+00
3.875174e+00,3.653521e+00,3.633022e+00,3,3,1.009198e+01,1.010609e+01
3.942499e+00,6.152882e+00,6.127119e+00,3,6,9.071002e+00,9.073030e+00
5.170356e+00,5.062872e+00,5.036831e+00,4,5,9.122450e+00,9.123463e+00
3.881504e+00,2.295235e+00,2.269983e+00,3,2,8.059125e+00,8.059125e+00
3.840840e+00,5.733200e-01,5.490780e-01,3,0,7.667674e+00,7.667676e+00
3.852624e+00,6.127460e-01,5.879402e-01,3,0,5.890774e+00,5.890774e+00
3.894413e+00,5.870220e-01,5.631447e-01,3,0,5.081142e+00,5.081142e+00
3.887881e+00,6.182490e-01,5.939007e-01,3,0,6.157650e+00,6.157654e+00
3.864773e+00,5.916290e-01,5.700588e-01,3,0,3.648162e+00,3.648162e+00
3.869685e+00,5.515600e-01,5.300045e-01,3,0,4.012717e+00,4.012720e+00
3.875340e+00,5.794780e-01,5.581379e-01,3,0,4.401239e+00,4.401241e+00
3.865495e+00,1.519971e+00,1.497030e+00,3,1,5.999107e+00,5.999127e+00
3.857314e+00,1.469013e+00,1.444101e+00,3,1,3.831817e+00,3.831739e+00
3.899988e+00,5.672860e-01,5.438328e-01,3,0,1.990552e+00,1.990552e+00
3.885289e+00,5.879100e-01,5.629063e-01,3,0,1.533872e+00,1.533872e+00
3.857658e+00,5.834150e-01,5.590916e-01,3,0,1.576811e+00,1.576812e+00
3.856203e+00,5.972400e-01,5.731583e-01,3,0,3.107624e+00,3.107627e+00
3.833260e+00,6.179420e-01,5.950928e-01,3,0,2.469162e+00,2.469162e+00
3.863990e+00,5.907830e-01,5.681515e-01,3,0,2.520327e+00,2.520328e+00
3.915078e+00,5.429240e-01,5.228519e-01,3,0,2.508417e+00,2.508418e+00
3.880560e+00,6.594520e-01,6.370544e-01,3,0,3.208301e+00,3.208302e+00
3.895195e+00,1.309188e+00,1.273870e+00,3,1,8.632316e+00,8.631784e+00
5.187452e+00,1.417699e+00,1.382113e+00,4,1,6.497508e+00,6.497508e+00
3.892605e+00,6.500240e-01,6.191730e-01,3,0,3.725296e+00,3.725296e+00
3.917600e+00,6.893020e-01,6.561279e-01,3,0,3.393167e+00,3.393168e+00
3.898453e+00,7.270050e-01,6.959438e-01,3,0,2.444499e+00,2.444499e+00
3.895274e+00,6.636580e-01,6.220341e-01,3,0,4.077829e+00,4.077833e+00
3.860962e+00,6.079770e-01,5.819798e-01,3,0,5.963876e+00,5.963880e+00
3.885477e+00,6.021330e-01,5.769730e-01,3,0,3.851657e+00,3.851656e+00
3.823574e+00,5.925990e-01,5.691051e-01,3,0,2.903419e+00,2.903419e+00
3.841563e+00,5.935080e-01,5.719662e-01,3,0,2.142724e+00,2.142724e+00
3.836217e+00,5.517250e-01,5.300045e-01,3,0,1.976376e+00,1.976377e+00
3.840455e+00,6.061790e-01,5.829334e-01,3,0,2.216800e+00,2.216804e+00
3.888696e+00,6.119200e-01,5.888939e-01,3,0,2.338784e+00,2.338784e+00
3.894243e+00,5.875770e-01,5.638599e-01,3,0,8.038378e-01,8.038377e-01
3.912357e+00,5.934790e-01,5.700588e-01,3,0,1.025675e+00,1.025676e+00
3.826370e+00,5.955800e-01,5.719662e-01,3,0,9.353343e-01,9.353350e-01
3.844149e+00,6.205040e-01,5.960464e-01,3,0,1.424047e+00,1.424050e+00
3.863165e+00,5.795850e-01,5.600452e-01,3,0,1.090306e+00,1.090306e+00
3.871652e+00,5.585820e-01,5.369186e-01,3,0,6.275622e+00,6.275631e+00
3.886675e+00,5.998480e-01,5.779266e-01,3,0,3.924268e+00,3.924267e+00
3.877619e+00,5.812520e-01,5.578995e-01,3,0,4.911938e+00,4.911940e+00
3.887860e+00,6.264630e-01,6.020069e-01,3,0,2.987617e+00,2.987617e+00
3.858601e+00,5.881620e-01,5.650520e-01,3,0,3.894830e+00,3.894834e+00
3.829420e+00,5.872690e-01,5.629063e-01,3,0,5.026864e+00,5.026867e+00
3.864571e+00,2.640346e+00,2.616882e+00,3,2,7.493912e+00,7.638158e+00
3.880057e+00,4.507731e+00,4.482985e+00,3,4,6.361314e+00,6.396571e+00
7.729530e+00,3.963514e+00,3.938913e+00,6,4,3.643108e+00,3.638009e+00
5.153796e+00,3.342371e+00,3.314972e+00,4,3,6.243747e+00,6.245619e+00
5.171914e+00,3.010104e+00,2.984047e+00,4,3,3.761127e+00,3.761126e+00
3.918988e+00,1.033110e+01,1.030397e+01,3,10,9.011503e+00,9.142908e+00
9.024047e+00,1.027928e+01,1.025081e+01,7,11,6.315722e+00,6.335118e+00
5.212519e+00,3.187312e+00,3.160000e+00,4,3,3.773140e+00,3.773140e+00
3.846055e+00,6.577360e-01,6.318092e-01,3,0,4.914312e+00,4.914316e+00
3.863174e+00,6.226140e-01,5.991459e-01,3,0,4.192922e+00,4.192923e+00
3.869419e+00,5.888490e-01,5.650520e-01,3,0,5.222406e+00,5.222409e+00
3.865276e+00,6.236000e-01,5.991459e-01,3,0,3.406828e+00,3.406829e+00
3.893250e+00,5.619770e-01,5.409718e-01,3,0,2.921190e+00,2.921190e+00
3.867219e+00,5.878350e-01,5.650520e-01,3,0,2.326068e+00,2.326068e+00
3.858327e+00,5.792110e-01,5.559921e-01,3,0,2.257396e+00,2.257397e+00
3.867162e+00,5.894520e-01,5.660057e-01,3,0,2.648310e+00,2.648311e+00
3.840558e+00,6.162990e-01,5.919933e-01,3,0,1.576956e+00,1.576956e+00
3.859852e+00,5.827090e-01,5.590916e-01,3,0,2.046848e+00,2.046850e+00
3.836009e+00,6.364850e-01,6.129742e-01,3,0,1.448918e+00,1.448918e+00
3.865965e+00,5.878110e-01,5.640984e-01,3,0,1.423209e+00,1.423211e+00
3.863243e+00,5.806120e-01,5.540848e-01,3,0,9.476562e-01,9.476568e-01
3.881810e+00,5.590380e-01,5.381107e-01,3,0,2.142607e+00,2.142610e+00
3.834092e+00,5.665170e-01,5.447865e-01,3,0,1.882697e+00,1.882699e+00
3.834259e+00,6.125990e-01,5.898476e-01,3,0,1.556191e+00,1.556192e+00
3.862485e+00,5.856610e-01,5.631447e-01,3,0,3.129242e+00,3.129246e+00
3.866033e+00,6.150400e-01,5.922318e-01,3,0,3.766259e+00,3.766260e+00
3.866229e+00,5.867240e-01,5.619526e-01,3,0,3.189997e+00,3.189997e+00
3.870451e+00,5.956440e-01,5.722046e-01,3,0,3.827248e+00,3.827249e+00
3.886974e+00,5.525420e-01,5.328655e-01,3,0,3.631623e+00,3.631624e+00
3.857226e+00,5.600120e-01,5.381107e-01,3,0,3.761470e+00,3.761471e+00
3.841564e+00,6.176070e-01,5.939007e-01,3,0,4.617822e+00,4.617809e+00
5.148902e+00,1.305226e+00,1.281977e+00,4,1,5.138446e+00,5.137739e+00
5.176487e+00,1.265284e+00,1.240969e+00,4,1,2.774775e+00,2.774773e+00
3.848413e+00,6.108060e-01,5.869865e-01,3,0,3.240882e+00,3.240886e+00
3.866379e+00,5.580010e-01,5.249977e-01,3,0,3.018051e+00,3.018052e+00
3.829529e+00,7.385372e+00,7.363081e+00,3,7,6.125261e+00,6.168451e+00
5.202173e+00,6.472913e+00,6.447077e+00,4,7,4.159384e+00,4.159376e+00
3.872245e+00,3.007467e+00,2.980947e+00,3,3,6.620801e+00,6.614746e+00
6.442600e+00,2.809622e+00,2.783060e+00,5,3,3.441918e+00,3.413201e+00
5.120445e+00,5.945460e-01,5.681515e-01,4,0,2.461978e+00,2.461978e+00
3.847506e+00,6.247070e-01,5.841255e-01,3,0,2.529576e+00,2.529577e+00
3.897029e+00,6.214720e-01,5.970001e-01,3,0,1.690591e+00,1.690591e+00
3.868154e+00,5.888710e-01,5.650520e-01,3,0,2.036742e+00,2.036744e+00
3.883300e+00,6.210120e-01,5.970001e-01,3,0,1.559496e+00,1.559497e+00
3.849032e+00,5.549450e-01,5.340576e-01,3,0,3.832666e+00,3.832671e+00
3.870543e+00,5.784370e-01,5.559921e-01,3,0,4.524415e+00,4.524417e+00
3.875724e+00,6.102690e-01,5.879402e-01,3,0,4.005165e+00,4.005166e+00
3.873260e+00,5.830590e-01,5.590916e-01,3,0,2.780146e+00,2.780145e+00
3.897001e+00,6.164370e-01,5.919933e-01,3,0,4.587536e+00,4.587540e+00
3.823851e+00,5.867770e-01,5.629063e-01,3,0,3.676150e+00,3.676150e+00
3.859746e+00,6.201250e-01,5.788803e-01,3,0,5.215791e+00,5.215794e+00
3.831987e+00,6.222210e-01,5.989075e-01,3,0,5.800993e+00,5.800995e+00
3.879938e+00,5.439920e-01,5.230904e-01,3,0,4.253186e+00,4.253186e+00
3.870585e+00,5.662720e-01,5.450249e-01,3,0,4.168061e+00,4.168062e+00
3.863428e+00,5.707220e-01,5.478859e-01,3,0,2.922177e+00,2.922177e+00
3.892052e+00,6.162670e-01,5.929470e-01,3,0,2.847135e+00,2.847136e+00

