2.601739e+00,3.072730e+00,2.290964e+00,2,0,0.000000e+00,0.000000e+00
3.850011e+00,6.593780e-01,6.191730e-01,3,0,2.943502e-01,2.943507e-01
3.911859e+00,5.775800e-01,5.562305e-01,3,0,7.738568e-01,7.738579e-01
3.866175e+00,5.852480e-01,5.619526e-01,3,0,2.110699e+00,2.110702e+00
3.864056e+00,6.227960e-01,5.960464e-01,3,0,9.151715e-01,9.151716e-01
3.867615e+00,6.213680e-01,5.948544e-01,3,0,3.310158e+00,3.310163e+00
3.893471e+00,5.350520e-01,5.149841e-01,3,0,4.396029e+00,4.396031e+00
3.819280e+00,5.900590e-01,5.669594e-01,3,0,6.049184e+00,6.049187e+00
3.825439e+00,6.046660e-01,5.800724e-01,3,0,6.796466e+00,6.796468e+00
3.823990e+00,1.555571e+00,1.531124e+00,3,1,9.220863e+00,9.223779e+00
3.796027e+00,1.476404e+00,1.452923e+00,3,1,7.076029e+00,7.076029e+00
3.796428e+00,5.272480e-01,5.040169e-01,3,0,7.225058e+00,7.225060e+00
3.792351e+00,5.986630e-01,5.729198e-01,3,0,6.440358e+00,6.440360e+00
3.814915e+00,5.973110e-01,5.710125e-01,3,0,7.070589e+00,7.070592e+00
3.795802e+00,5.944710e-01,5.738735e-01,3,0,5.366433e+00,5.366433e+00
3.797625e+00,5.620820e-01,5.400181e-01,3,0,4.718849e+00,4.718850e+00
3.798388e+00,6.282290e-01,6.029606e-01,3,0,5.027944e+00,5.027947e+00
3.793052e+00,5.998460e-01,5.729198e-01,3,0,4.898086e+00,4.898087e+00
3.791874e+00,5.506970e-01,5.309582e-01,3,0,6.187872e+00,6.187876e+00
3.785999e+00,5.828280e-01,5.600452e-01,3,0,8.093107e+00,8.093112e+00
3.854053e+00,5.994940e-01,5.750656e-01,3,0,8.250017e+00,8.250019e+00
3.819975e+00,6.225810e-01,5.979538e-01,3,0,8.075628e+00,8.075630e+00
3.787483e+00,5.153040e-01,4.959106e-01,3,0,7.999811e+00,7.999814e+00
3.787870e+00,6.083760e-01,5.838871e-01,3,0,7.032232e+00,7.032233e+00
3.787615e+00,6.231180e-01,5.979538e-01,3,0,5.565580e+00,5.565580e+00
3.768490e+00,5.873750e-01,5.669594e-01,3,0,5.866769e+00,5.866771e+00
3.795321e+00,5.957910e-01,5.609989e-01,3,0,4.289288e+00,4.289289e+00
3.811797e+00,6.009550e-01,5.769730e-01,3,0,4.144728e+00,4.144730e+00
3.815359e+00,6.170150e-01,5.788803e-01,3,0,4.099341e+00,4.099343e+00
3.795580e+00,5.166180e-01,4.971027e-01,3,0,3.010831e+00,3.010832e+00
3.788181e+00,5.883160e-01,5.650520e-01,3,0,3.632744e+00,3.632747e+00
3.825295e+00,6.546980e-01,6.289482e-01,3,0,3.443847e+00,3.443848e+00
3.796182e+00,5.992730e-01,5.757809e-01,3,0,2.213546e+00,2.213546e+00
3.797885e+00,5.622280e-01,5.409718e-01,3,0,2.015604e+00,2.015605e+00
3.798005e+00,5.910940e-01,5.669594e-01,3,0,3.537603e+00,3.537607e+00
3.821440e+00,6.022280e-01,5.769730e-01,3,0,2.862344e+00,2.862345e+00
3.796102e+00,5.405500e-01,5.209446e-01,3,0,2.012374e+00,2.012375e+00
3.813702e+00,5.824150e-01,5.590916e-01,3,0,3.723258e+00,3.723262e+00
3.794920e+00,5.969230e-01,5.722046e-01,3,0,3.506795e+00,3.506796e+00
3.796642e+00,6.346970e-01,6.079674e-01,3,0,3.303820e+00,3.303821e+00
3.804466e+00,5.139360e-01,4.949570e-01,3,0,1.799392e+00,1.799392e+00
3.794761e+00,6.155690e-01,5.919933e-01,3,0,3.816012e+00,3.816015e+00
3.809968e+00,5.957830e-01,5.710125e-01,3,0,2.636189e+00,2.636189e+00
3.822688e+00,5.978530e-01,5.748272e-01,3,0,2.468861e+00,2.468862e+00
3.790094e+00,5.408800e-01,5.199909e-01,3,0,1.638367e+00,1.638367e+00
3.820266e+00,5.990680e-01,5.741119e-01,3,0,1.308424e+00,1.308424e+00
3.755158e+00,6.309520e-01,6.051064e-01,3,0,1.499527e+00,1.499528e+00
3.801099e+00,5.534640e-01,5.218983e-01,3,0,1.177837e+00,1.177837e+00
3.765267e+00,6.186270e-01,5.950928e-01,3,0,8.472224e-01,8.472226e-01
3.813526e+00,6.259660e-01,5.841255e-01,3,0,1.111874e+00,1.111874e+00
3.794583e+00,6.203180e-01,5.939007e-01,3,0,3.024757e+00,3.024760e+00
3.796229e+00,5.078200e-01,4.889965e-01,3,0,6.404152e+00,6.404159e+00
3.788295e+00,6.241180e-01,5.998611e-01,3,0,3.879767e+00,3.879766e+00
3.821658e+00,5.943630e-01,5.688667e-01,3,0,2.488073e+00,2.488073e+00
3.800014e+00,6.139600e-01,5.910397e-01,3,0,2.474610e+00,2.474611e+00
3.795742e+00,5.476670e-01,5.259514e-01,3,0,2.462520e+00,2.462522e+00
3.848319e+00,6.268600e-01,6.029606e-01,3,0,3.273766e+00,3.273768e+00
3.814916e+00,5.948040e-01,5.710125e-01,3,0,2.128115e+00,2.128116e+00
3.793407e+00,5.345310e-01,5.149841e-01,3,0,1.372840e+00,1.372840e+00
3.831213e+00,5.822510e-01,5.588531e-01,3,0,1.019340e+00,1.019340e+00
3.775428e+00,6.051290e-01,5.800724e-01,3,0,1.291427e+00,1.291428e+00
3.732653e+00,6.020940e-01,5.769730e-01,3,0,1.122847e+00,1.122847e+00
3.742633e+00,5.139790e-01,4.949570e-01,3,0,8.906360e-01,8.906363e-01
3.740067e+00,5.770970e-01,5.538464e-01,3,0,1.908737e+00,1.908740e+00
3.744325e+00,5.910860e-01,5.679131e-01,3,0,3.367062e+00,3.367065e+00
3.737245e+00,5.695800e-01,5.478859e-01,3,0,2.785949e+00,2.785950e+00
3.738255e+00,5.317470e-01,5.118847e-01,3,0,3.767122e+00,3.767124e+00
3.738027e+00,5.848130e-01,5.619526e-01,3,0,7.055469e+00,7.055475e+00
3.739855e+00,5.888940e-01,5.650520e-01,3,0,6.149421e+00,6.149422e+00
3.743737e+00,1.498173e+00,1.479149e+00,3,1,8.154454e+00,8.154583e+00
3.748860e+00,1.361078e+00,1.338959e+00,3,1,6.968053e+00,6.968053e+00
3.743527e+00,5.538090e-01,5.309582e-01,3,0,6.752393e+00,6.752394e+00
3.750215e+00,5.864720e-01,5.619526e-01,3,0,5.070212e+00,5.070213e+00
3.730127e+00,5.911190e-01,5.660057e-01,3,0,4.315196e+00,4.315197e+00
3.794848e+00,5.123610e-01,4.930496e-01,3,0,4.185394e+00,4.185395e+00
3.793087e+00,5.821110e-01,5.600452e-01,3,0,2.809427e+00,2.809427e+00
3.784950e+00,6.276310e-01,6.020069e-01,3,0,2.651844e+00,2.651845e+00
3.825406e+00,6.037490e-01,5.798340e-01,3,0,3.109754e+00,3.109756e+00
3.788092e+00,5.463380e-01,5.269051e-01,3,0,4.195332e+00,4.195335e+00
3.833927e+00,5.912630e-01,5.669594e-01,3,0,3.316977e+00,3.316977e+00
3.858548e+00,1.376200e+00,1.349211e+00,3,1,6.509702e+00,6.509558e+00
5.134328e+00,1.342531e+00,1.312017e+00,4,1,4.703765e+00,4.703765e+00
3.846764e+00,1.628202e+00,1.595974e+00,3,1,5.636955e+00,5.637471e+00
3.853177e+00,8.022000e-01,7.760525e-01,3,0,5.430749e+00,5.431478e+00
3.833156e+00,1.410594e+00,1.386881e+00,3,1,3.320933e+00,3.320933e+00
3.826198e+00,5.923120e-01,5.660057e-01,3,0,3.657562e+00,3.657565e+00
3.850523e+00,2.528564e+00,2.501965e+00,3,2,5.539689e+00,5.552063e+00
3.785891e+00,4.488924e+00,4.461050e+00,3,4,6.083959e+00,6.125414e+00
3.820636e+00,3.949027e+00,3.904104e+00,3,4,6.034668e+00,6.034670e+00
3.839065e+00,5.821970e-01,5.550385e-01,3,0,6.303631e+00,6.303634e+00
3.800663e+00,1.254688e+00,1.230955e+00,3,1,6.724687e+00,6.723854e+00
8.848152e+00,1.581581e+00,1.556158e+00,7,1,5.521227e+00,5.517446e+00
7.634204e+00,2.671934e+00,2.644062e+00,6,2,6.523966e+00,6.511515e+00
5.068462e+00,7.174603e+00,7.146120e+00,4,7,6.873727e+00,6.914151e+00
3.850998e+00,6.960591e+00,6.915808e+00,3,7,7.232455e+00,7.291749e+00
7.623194e+00,3.984563e+00,3.954887e+00,6,4,4.974623e+00,4.961160e+00
5.065568e+00,6.149630e-01,5.860329e-01,4,0,5.226757e+00,5.226745e+00
3.827214e+00,6.438360e-01,6.158352e-01,3,0,3.211760e+00,3.211756e+00
3.818160e+00,6.084800e-01,5.822182e-01,3,0,2.593122e+00,2.593124e+00
3.833418e+00,1.559609e+00,1.538992e+00,3,1,4.956568e+00,4.958587e+00
3.808287e+00,1.407657e+00,1.383066e+00,3,1,4.288620e+00,4.288621e+00
3.871892e+00,6.049510e-01,5.788803e-01,3,0,2.972799e+00,2.972799e+00
3.803610e+00,6.032270e-01,5.769730e-01,3,0,2.910543e+00,2.910544e+00
3.826028e+00,3.690580e+00,3.652334e+00,3,1,5.323566e+00,7.229420e+00
5.053178e+00,1.307352e+00,1.280069e+00,4,1,3.800284e+00,3.800284e+00
3.822523e+00,6.308330e-01,6.029606e-01,3,0,3.527421e+00,3.527423e+00
3.758765e+00,6.222230e-01,5.950928e-01,3,0,2.014509e+00,2.014510e+00
3.833149e+00,5.490740e-01,5.300045e-01,3,0,1.532552e+00,1.532552e+00
3.787513e+00,5.938320e-01,5.719662e-01,3,0,1.610091e+00,1.610092e+00
3.797804e+00,6.057800e-01,5.800724e-01,3,0,9.228754e-01,9.228755e-01
3.789572e+00,6.400770e-01,6.158352e-01,3,0,2.093515e+00,2.093518e+00
3.794440e+00,5.178620e-01,4.980564e-01,3,0,6.281803e+00,6.281810e+00
3.822290e+00,6.263390e-01,6.020069e-01,3,0,8.694862e+00,8.694867e+00
5.079523e+00,9.781337e+00,9.743929e+00,4,7,1.516299e+01,1.866310e+01
7.636152e+00,4.453831e+00,4.424810e+00,6,4,1.650787e+01,1.661308e+01
7.634817e+00,8.363439e+00,8.333921e+00,6,9,1.340435e+01,1.338834e+01
5.054045e+00,2.178856e+00,2.151012e+00,4,2,7.230196e+00,7.230191e+00
3.808879e+00,6.385270e-01,6.110668e-01,3,0,5.280200e+00,5.280200e+00
3.759573e+00,6.074610e-01,5.819798e-01,3,0,4.385274e+00,4.385274e+00
3.814921e+00,2.582595e+00,2.562046e+00,3,2,4.487674e+00,4.490120e+00
3.829706e+00,1.009609e+01,1.006889e+01,3,10,7.405902e+00,7.787253e+00
3.835841e+00,1.090332e+01,1.087308e+01,3,11,7.968609e+00,8.439186e+00
6.259325e+00,1.256204e+01,1.253200e+01,5,13,8.988689e+00,9.315806e+00
7.445960e+00,1.575175e+01,1.571798e+01,6,18,7.658340e+00,7.736553e+00
6.146893e+00,2.346013e+00,2.319098e+00,5,2,7.460334e+00,7.549638e+00
7.581141e+00,2.056483e+01,2.053881e+01,6,22,1.287743e+01,1.325922e+01
5.022199e+00,2.015144e+01,2.011991e+01,4,24,6.255206e+00,6.250932e+00
5.081211e+00,1.934520e+00,1.907110e+00,4,2,6.000990e+00,6.000955e+00
3.845203e+00,6.109240e-01,5.850792e-01,3,0,3.142335e+00,3.142331e+00
3.825351e+00,6.339220e-01,6.070137e-01,3,0,2.729577e+00,2.729578e+00
3.819626e+00,6.083970e-01,5.810261e-01,3,0,2.614599e+00,2.614600e+00
3.824946e+00,6.281400e-01,6.051064e-01,3,0,2.493856e+00,2.493858e+00
3.826096e+00,5.427960e-01,5.218983e-01,3,0,3.342561e+00,3.342563e+00
3.852011e+00,6.537740e-01,6.279945e-01,3,0,2.073159e+00,2.073159e+00
3.806898e+00,6.046700e-01,5.779266e-01,3,0,2.776812e+00,2.776814e+00
3.851837e+00,5.499460e-01,5.290508e-01,3,0,2.030324e+00,2.030324e+00
3.795542e+00,5.988780e-01,5.738735e-01,3,0,3.003127e+00,3.003128e+00
3.824717e+00,6.343690e-01,5.919933e-01,3,0,5.179120e+00,5.179124e+00
3.806196e+00,3.035115e+00,2.996445e+00,3,0,9.820808e+00,2.320611e+01
5.118396e+00,1.677618e+00,1.648188e+00,4,1,6.050881e+00,6.051318e+00
3.767611e+00,1.466433e+00,1.438141e+00,3,1,4.052534e+00,4.052521e+00
3.787867e+00,6.432220e-01,6.160736e-01,3,0,3.325520e+00,3.325520e+00
3.797990e+00,5.198540e-01,5.002022e-01,3,0,4.569673e+00,4.569677e+00
3.791498e+00,6.163740e-01,5.919933e-01,3,0,2.306430e+00,2.306430e+00
3.781851e+00,6.106680e-01,5.841255e-01,3,0,2.211195e+00,2.211196e+00
3.799270e+00,6.041820e-01,5.760193e-01,3,0,1.617141e+00,1.617141e+00
3.814551e+00,5.665850e-01,5.450249e-01,3,0,1.775676e+00,1.775677e+00
3.797218e+00,6.083220e-01,5.841255e-01,3,0,2.853577e+00,2.853580e+00
3.816900e+00,6.349320e-01,6.079674e-01,3,0,3.305863e+00,3.305864e+00
3.802896e+00,5.509020e-01,5.309582e-01,3,0,3.097319e+00,3.097320e+00
3.793722e+00,6.090080e-01,5.860329e-01,3,0,3.570088e+00,3.570089e+00
3.802349e+00,5.989300e-01,5.738735e-01,3,0,3.522204e+00,3.522205e+00
3.816616e+00,1.310442e+00,1.284122e+00,3,1,3.321794e+00,3.321550e+00
7.579069e+00,1.317828e+00,1.291037e+00,6,1,4.892920e+00,4.878393e+00
5.091036e+00,6.205270e-01,5.919933e-01,4,0,2.306900e+00,2.306898e+00
3.797323e+00,6.405500e-01,6.139278e-01,3,0,2.799719e+00,2.799721e+00
3.792707e+00,6.262020e-01,6.000996e-01,3,0,3.558301e+00,3.558303e+00
3.805543e+00,5.163410e-01,4.968643e-01,3,0,4.167696e+00,4.167698e+00
3.809114e+00,6.304710e-01,6.070137e-01,3,0,3.855786e+00,3.855787e+00
3.796951e+00,6.165330e-01,5.898476e-01,3,0,3.354423e+00,3.354424e+00
3.793734e+00,6.191700e-01,5.960464e-01,3,0,2.667023e+00,2.667024e+00
3.823695e+00,5.508120e-01,5.290508e-01,3,0,2.723555e+00,2.723556e+00
3.794131e+00,6.027970e-01,5.791187e-01,3,0,3.632854e+00,3.632857e+00
3.800263e+00,2.607786e+00,2.581120e+00,3,2,4.985992e+00,4.993134e+00
3.818202e+00,2.296220e+00,2.269030e+00,3,2,3.754074e+00,3.754074e+00
3.787392e+00,6.246370e-01,5.970001e-01,3,0,2.981566e+00,2.981566e+00
3.769941e+00,5.713280e-01,5.509853e-01,3,0,3.429917e+00,3.429919e+00
3.794021e+00,5.890100e-01,5.660057e-01,3,0,1.773222e+00,1.773221e+00
3.789004e+00,6.283880e-01,5.910397e-01,3,0,2.310445e+00,2.310447e+00
3.786468e+00,6.158840e-01,5.891323e-01,3,0,1.769403e+00,1.769404e+00
3.803348e+00,5.284500e-01,5.090237e-01,3,0,2.222336e+00,2.222338e+00
3.792813e+00,5.872530e-01,5.650520e-01,3,0,1.798044e+00,1.798045e+00
3.789243e+00,6.283070e-01,6.031990e-01,3,0,2.925571e+00,2.925573e+00
3.960536e+00,5.108810e-01,4.920959e-01,3,0,2.867887e+00,2.867888e+00
3.823583e+00,6.166640e-01,5.939007e-01,3,0,2.572568e+00,2.572568e+00
3.810938e+00,5.629800e-01,5.419254e-01,3,0,2.077559e+00,2.077559e+00
3.844649e+00,7.623220e-01,7.219315e-01,3,0,2.079005e+00,2.079008e+00
3.811824e+00,7.017910e-01,6.670952e-01,3,0,1.756995e+00,1.756996e+00
3.812729e+00,6.566710e-01,6.239414e-01,3,0,1.642100e+00,1.642101e+00
3.837373e+00,1.383822e+00,1.357079e+00,3,1,4.207816e+00,4.207347e+00
7.662190e+00,1.422946e+00,1.384020e+00,6,1,3.187179e+00,3.183977e+00
3.835651e+00,7.723930e-01,7.321835e-01,3,0,2.658732e+00,2.658718e+00
3.795210e+00,6.320520e-01,6.039143e-01,3,0,2.591596e+00,2.591596e+00
3.820741e+00,6.221460e-01,5.939007e-01,3,0,2.309567e+00,2.309568e+00
3.831458e+00,6.407640e-01,6.120205e-01,3,0,1.435713e+00,1.435713e+00
3.815560e+00,6.257230e-01,5.979538e-01,3,0,1.767386e+00,1.767387e+00
3.791471e+00,5.588290e-01,5.381107e-01,3,0,1.103547e+00,1.103547e+00
3.843234e+00,6.083140e-01,5.719662e-01,3,0,3.336382e+00,3.336387e+00
3.822420e+00,6.395730e-01,6.120205e-01,3,0,2.685376e+00,2.685377e+00
3.777783e+00,6.175650e-01,5.910397e-01,3,0,2.028989e+00,2.028989e+00
3.747146e+00,5.280650e-01,5.078316e-01,3,0,3.135567e+00,3.135569e+00
3.739667e+00,5.968150e-01,5.719662e-01,3,0,4.109252e+00,4.109254e+00
3.747451e+00,6.138100e-01,5.879402e-01,3,0,1.798459e+00,1.798458e+00
3.750644e+00,5.673800e-01,5.459785e-01,3,0,1.553122e+00,1.553123e+00
3.735833e+00,5.756310e-01,5.519390e-01,3,0,2.135773e+00,2.135775e+00
3.741916e+00,6.014260e-01,5.760193e-01,3,0,1.428018e+00,1.428019e+00
3.738933e+00,6.166950e-01,5.900860e-01,3,0,1.934787e+00,1.934789e+00
3.754378e+00,5.201930e-01,4.999638e-01,3,0,1.260185e+00,1.260185e+00
3.737451e+00,5.979010e-01,5.738735e-01,3,0,1.424758e+00,1.424759e+00
3.750988e+00,6.070020e-01,5.810261e-01,3,0,1.292300e+00,1.292301e+00
3.728324e+00,6.008720e-01,5.772114e-01,3,0,9.546574e-01,9.546578e-01
3.744314e+00,5.349040e-01,5.149841e-01,3,0,8.896162e-01,8.896167e-01
3.743301e+00,5.954810e-01,5.710125e-01,3,0,2.081078e+00,2.081081e+00
3.733010e+00,6.047440e-01,5.781651e-01,3,0,9.561507e-01,9.561508e-01
3.739820e+00,5.552360e-01,5.340576e-01,3,0,1.354896e+00,1.354897e+00
3.741198e+00,5.738870e-01,5.509853e-01,3,0,1.135734e+00,1.135735e+00
3.736923e+00,6.002750e-01,5.760193e-01,3,0,1.553032e+00,1.553034e+00
3.742756e+00,6.135050e-01,5.879402e-01,3,0,3.341175e+00,3.341178e+00
3.753689e+00,5.207520e-01,5.018711e-01,3,0,2.713586e+00,2.713587e+00
3.738758e+00,5.950710e-01,5.710125e-01,3,0,2.370907e+00,2.370908e+00
3.777923e+00,7.265148e+00,7.238865e+00,3,7,9.188416e+00,9.245993e+00
7.496475e+00,6.287764e+00,6.255150e+00,6,7,6.904343e+00,6.889814e+00
5.000114e+00,6.264010e-01,5.950928e-01,4,0,4.790216e+00,4.790215e+00
3.752884e+00,6.239360e-01,5.960464e-01,3,0,5.217198e+00,5.217199e+00
3.737622e+00,6.206020e-01,5.939007e-01,3,0,5.230823e+00,5.230824e+00
3.752043e+00,5.310880e-01,5.109310e-01,3,0,5.364297e+00,5.364299e+00
3.747635e+00,6.009900e-01,5.750656e-01,3,0,7.233877e+00,7.233882e+00
3.752670e+00,6.173670e-01,5.910397e-01,3,0,5.077922e+00,5.077922e+00
3.749296e+00,5.779350e-01,5.550385e-01,3,0,4.198243e+00,4.198245e+00
3.740086e+00,5.664970e-01,5.440712e-01,3,0,3.640930e+00,3.640931e+00
3.747541e+00,6.024440e-01,5.769730e-01,3,0,4.329281e+00,4.329284e+00
3.775251e+00,6.153050e-01,5.888939e-01,3,0,3.536917e+00,3.536917e+00
3.777860e+00,5.317210e-01,5.121231e-01,3,0,3.393125e+00,3.393126e+00
3.767647e+00,5.984090e-01,5.748272e-01,3,0,3.618699e+00,3.618701e+00
3.771483e+00,6.098450e-01,5.760193e-01,3,0,2.692856e+00,2.692856e+00
3.740275e+00,6.186400e-01,5.939007e-01,3,0,2.343506e+00,2.343506e+00
3.746388e+00,5.188180e-01,4.999638e-01,3,0,2.815578e+00,2.815579e+00
3.743206e+00,6.039520e-01,5.729198e-01,3,0,1.923835e+00,1.923835e+00
3.744622e+00,6.072620e-01,5.819798e-01,3,0,1.826420e+00,1.826421e+00
3.740968e+00,5.845580e-01,5.609989e-01,3,0,3.177283e+00,3.177286e+00
3.774264e+00,5.653610e-01,5.419254e-01,3,0,2.959612e+00,2.959613e+00
3.776962e+00,5.989700e-01,5.741119e-01,3,0,1.839261e+00,1.839261e+00
3.735352e+00,6.147440e-01,5.879402e-01,3,0,1.785615e+00,1.785615e+00
3.746715e+00,5.243280e-01,5.040169e-01,3,0,7.976561e-01,7.976569e-01
3.745755e+00,5.979540e-01,5.741119e-01,3,0,4.706168e-01,4.706170e-01
3.742742e+00,5.982690e-01,5.729198e-01,3,0,4.162991e-01,4.162995e-01
3.737719e+00,6.118270e-01,5.860329e-01,3,0,1.018298e+00,1.018299e+00
3.746884e+00,5.177870e-01,4.980564e-01,3,0,2.366419e+00,2.366422e+00
3.735444e+00,6.012390e-01,5.760193e-01,3,0,3.783975e+00,3.783978e+00
3.737338e+00,6.084590e-01,5.769730e-01,3,0,4.582415e+00,4.582417e+00
3.742318e+00,5.878520e-01,5.650520e-01,3,0,6.226779e+00,6.226783e+00
3.746725e+00,5.611450e-01,5.397797e-01,3,0,4.482309e+00,4.482309e+00
3.736773e+00,6.001110e-01,5.750656e-01,3,0,3.336196e+00,3.336196e+00
3.735814e+00,6.088880e-01,5.838871e-01,3,0,2.943437e+00,2.943437e+00
3.743628e+00,5.238210e-01,5.028248e-01,3,0,2.522391e+00,2.522392e+00
3.739527e+00,5.975780e-01,5.738735e-01,3,0,3.032511e+00,3.032513e+00
3.737374e+00,5.991940e-01,5.750656e-01,3,0,3.456886e+00,3.456888e+00
3.739719e+00,6.120340e-01,5.869865e-01,3,0,2.242254e+00,2.242254e+00
3.747721e+00,5.190070e-01,4.990101e-01,3,0,2.017916e+00,2.017917e+00
3.743911e+00,6.006880e-01,5.760193e-01,3,0,1.597608e+00,1.597609e+00
3.740800e+00,6.069840e-01,5.769730e-01,3,0,1.671926e+00,1.671927e+00
3.745280e+00,5.814920e-01,5.600452e-01,3,0,2.047242e+00,2.047244e+00
3.776738e+00,5.640390e-01,5.409718e-01,3,0,1.421585e+00,1.421585e+00
3.734698e+00,5.980350e-01,5.719662e-01,3,0,2.739543e+00,2.739546e+00
3.735401e+00,6.097460e-01,5.831718e-01,3,0,4.199642e+00,4.199645e+00
3.745802e+00,5.209760e-01,5.011559e-01,3,0,5.928770e+00,5.928774e+00
3.739495e+00,5.967420e-01,5.731583e-01,3,0,4.161643e+00,4.161643e+00
3.735976e+00,5.952920e-01,5.698204e-01,3,0,1.589852e+00,1.589851e+00
3.741518e+00,6.153630e-01,5.910397e-01,3,0,1.791703e+00,1.791704e+00
3.743156e+00,5.284590e-01,5.080700e-01,3,0,2.339039e+00,2.339040e+00
3.739458e+00,6.019890e-01,5.769730e-01,3,0,2.541469e+00,2.541471e+00
3.741615e+00,6.015710e-01,5.760193e-01,3,0,3.331810e+00,3.331813e+00
3.777695e+00,5.669810e-01,5.459785e-01,3,0,6.903008e+00,6.903015e+00
3.738256e+00,5.730280e-01,5.438328e-01,3,0,4.792142e+00,4.792142e+00
3.733524e+00,6.039250e-01,5.788803e-01,3,0,4.036393e+00,4.036393e+00
3.735725e+00,6.080820e-01,5.810261e-01,3,0,4.326546e+00,4.326548e+00
3.738547e+00,5.242890e-01,5.028248e-01,3,0,7.773648e+00,7.773655e+00
3.744962e+00,5.950010e-01,5.710125e-01,3,0,6.659506e+00,6.659507e+00
3.737453e+00,6.013760e-01,5.760193e-01,3,0,5.223939e+00,5.223939e+00
3.739921e+00,1.309842e+00,1.285076e+00,3,1,7.952374e+00,7.952175e+00
6.234087e+00,1.241437e+00,1.219034e+00,5,1,1.051842e+01,1.051825e+01
4.992433e+00,1.326205e+00,1.294851e+00,4,1,1.176301e+01,1.176292e+01
8.744582e+00,6.151110e-01,5.860329e-01,7,0,1.150883e+01,1.150466e+01
4.992773e+00,1.300092e+00,1.271963e+00,4,1,8.788686e+00,8.788684e+00
3.748050e+00,6.098560e-01,5.829334e-01,3,0,8.631488e+00,8.631490e+00
3.771963e+00,6.059520e-01,5.788803e-01,3,0,8.106698e+00,8.106699e+00
3.741683e+00,6.162160e-01,5.891323e-01,3,0,7.204660e+00,7.204661e+00
3.740114e+00,5.848550e-01,5.631447e-01,3,0,6.104625e+00,6.104626e+00
3.751987e+00,5.636730e-01,5.409718e-01,3,0,4.980099e+00,4.980099e+00
3.755465e+00,1.611793e+00,1.585960e+00,3,1,4.587683e+00,4.592018e+00
3.754054e+00,1.446598e+00,1.420021e+00,3,1,3.338082e+00,3.338083e+00
3.754302e+00,3.595650e+00,3.566980e+00,3,3,4.581268e+00,4.595471e+00
3.753172e+00,3.362162e+00,3.333807e+00,3,3,4.688991e+00,4.691627e+00
3.750019e+00,1.595001e+00,1.567841e+00,3,1,3.873939e+00,3.874021e+00
3.747984e+00,1.431552e+00,1.403093e+00,3,1,3.609327e+00,3.609327e+00
3.740890e+00,6.054640e-01,5.779266e-01,3,0,2.598881e+00,2.598881e+00
3.736030e+00,1.314505e+00,1.287937e+00,3,1,4.698141e+00,4.697639e+00
7.518657e+00,1.372519e+01,1.370287e+01,6,14,1.197597e+01,1.207031e+01
7.518482e+00,1.129234e+01,1.126194e+01,6,13,6.728040e+00,6.723776e+00
5.012373e+00,6.234870e-01,5.929470e-01,4,0,8.536181e+00,8.536182e+00
3.821432e+00,6.354427e+00,6.325006e+00,3,6,1.099212e+01,1.100447e+01
1.000259e+01,5.604454e+00,5.571842e+00,8,6,5.995136e+00,5.980298e+00
5.006410e+00,6.341170e-01,6.039143e-01,4,0,6.093524e+00,6.093508e+00
3.763023e+00,6.188670e-01,5.910397e-01,3,0,4.089704e+00,4.089704e+00
3.744938e+00,6.207650e-01,5.939007e-01,3,0,3.708844e+00,3.708846e+00
3.739114e+00,6.218710e-01,5.939007e-01,3,0,3.092194e+00,3.092195e+00
3.756540e+00,5.320570e-01,5.118847e-01,3,0,2.425441e+00,2.425441e+00
3.761151e+00,5.947440e-01,5.710125e-01,3,0,1.803063e+00,1.803063e+00
3.740622e+00,6.096440e-01,5.829334e-01,3,0,1.941692e+00,1.941693e+00
3.744188e+00,6.040350e-01,5.810261e-01,3,0,4.353152e+00,4.353157e+00
3.755039e+00,1.235980e+00,1.215935e+00,3,1,3.658480e+00,3.658164e+00
4.987387e+00,1.270364e+00,1.243830e+00,4,1,1.364080e+00,1.364079e+00
3.801704e+00,6.035210e-01,5.760193e-01,3,0,2.361011e+00,2.361013e+00
3.745170e+00,6.161230e-01,5.879402e-01,3,0,2.455755e+00,2.455756e+00
3.751100e+00,6.174810e-01,5.891323e-01,3,0,3.022535e+00,3.022537e+00
3.805581e+00,5.290820e-01,5.099773e-01,3,0,1.788576e+00,1.788577e+00
3.742032e+00,5.954370e-01,5.710125e-01,3,0,1.995499e+00,1.995500e+00
3.771661e+00,6.143940e-01,5.879402e-01,3,0,2.971568e+00,2.971571e+00
3.746817e+00,6.088640e-01,5.838871e-01,3,0,2.725308e+00,2.725308e+00
3.738758e+00,5.379640e-01,5.168915e-01,3,0,1.840622e+00,1.840623e+00
3.756252e+00,6.055740e-01,5.760193e-01,3,0,1.679198e+00,1.679199e+00
3.731494e+00,6.115090e-01,5.869865e-01,3,0,2.019618e+00,2.019619e+00
3.752251e+00,5.560700e-01,5.350113e-01,3,0,4.082909e+00,4.082913e+00
3.751305e+00,1.577816e+00,1.554012e+00,3,1,4.621446e+00,4.621452e+00
3.751619e+00,1.438816e+00,1.410961e+00,3,1,4.576738e+00,4.576739e+00
3.750976e+00,6.009730e-01,5.731583e-01,3,0,3.778982e+00,3.778983e+00
3.773098e+00,6.106550e-01,5.841255e-01,3,0,3.770301e+00,3.770303e+00
3.752812e+00,1.556685e+00,1.537085e+00,3,1,4.168633e+00,4.168637e+00
3.760539e+00,2.404156e+00,2.372980e+00,3,2,4.485210e+00,4.487091e+00
3.764537e+00,1.380996e+00,1.355886e+00,3,1,3.540991e+00,3.540991e+00
3.782727e+00,5.783710e-01,5.500317e-01,3,0,4.427200e+00,4.427202e+00
3.767232e+00,1.554307e+00,1.525879e+00,3,1,5.477882e+00,5.485944e+00
3.804688e+00,7.417034e+00,7.389069e+00,3,7,8.906170e+00,8.932348e+00
7.481032e+00,2.427041e+00,2.394199e+00,6,2,9.669510e+00,9.695647e+00
5.099612e+00,5.649312e+00,5.620003e+00,4,6,4.808811e+00,4.808805e+00
3.843775e+00,6.082530e-01,5.769730e-01,3,0,3.551482e+00,3.551482e+00
3.825056e+00,6.386040e-01,6.110668e-01,3,0,3.414315e+00,3.414317e+00
3.857826e+00,6.152020e-01,5.807877e-01,3,0,3.799390e+00,3.799392e+00
3.849493e+00,5.581240e-01,5.350113e-01,3,0,3.754078e+00,3.754079e+00
5.141556e+00,3.013680e+00,2.978563e+00,4,0,1.154891e+01,3.864730e+01
7.663220e+00,3.024422e+00,2.987623e+00,6,0,1.672569e+01,5.352500e+01
7.593425e+00,3.020391e+00,2.982616e+00,6,0,1.311130e+01,3.300792e+01
1.014771e+01,2.987520e+00,2.949238e+00,8,0,1.279651e+01,3.142828e+01
7.608953e+00,5.446248e+00,5.406857e+00,6,2,1.190215e+01,2.266211e+01
7.730556e+00,3.967117e+00,3.915787e+00,6,0,1.456208e+01,2.740310e+01
5.161832e+00,4.446685e+00,4.413128e+00,4,4,1.206187e+01,1.207426e+01
6.445359e+00,4.809521e+00,4.771709e+00,5,1,1.612955e+01,1.858798e+01
5.144316e+00,3.270305e+00,3.239870e+00,4,3,1.281998e+01,1.281998e+01
3.860844e+00,6.384900e-01,6.079674e-01,3,0,1.095365e+01,1.095365e+01
3.872302e+00,3.562395e+00,3.540993e+00,3,3,8.102391e+00,8.103730e+00
3.890814e+00,4.444043e+00,4.415035e+00,3,4,6.582274e+00,6.590044e+00
3.870852e+00,4.520555e+00,4.490852e+00,3,4,6.002305e+00,6.008663e+00
3.870069e+00,2.493742e+00,2.465010e+00,3,2,4.513115e+00,4.513657e+00
3.869698e+00,1.423424e+00,1.395941e+00,3,1,3.845873e+00,3.845875e+00
3.862930e+00,6.069690e-01,5.788803e-01,3,0,3.722838e+00,3.722840e+00
3.853581e+00,6.155710e-01,5.879402e-01,3,0,2.629667e+00,2.629667e+00
3.852985e+00,6.248160e-01,6.010532e-01,3,0,2.656381e+00,2.656382e+00
3.858270e+00,5.457870e-01,5.238056e-01,3,0,1.850317e+00,1.850318e+00
3.851926e+00,6.147930e-01,5.888939e-01,3,0,1.047555e+00,1.047555e+00
3.847039e+00,6.250890e-01,5.981922e-01,3,0,2.704134e+00,2.704137e+00
3.859812e+00,5.543930e-01,5.331039e-01,3,0,1.254604e+00,1.254603e+00
3.962758e+00,5.950650e-01,5.710125e-01,3,0,8.889712e-01,8.889721e-01
3.857795e+00,6.249180e-01,5.979538e-01,3,0,1.207745e+00,1.207746e+00
3.848209e+00,6.243210e-01,5.970001e-01,3,0,1.064289e+00,1.064290e+00
3.856299e+00,5.417940e-01,5.211830e-01,3,0,1.880616e+00,1.880619e+00
3.882397e+00,6.055250e-01,5.819798e-01,3,0,1.101737e+00,1.101737e+00
3.858584e+00,6.199890e-01,5.929470e-01,3,0,2.770470e+00,2.770473e+00
3.860694e+00,6.340130e-01,6.091595e-01,3,0,2.550560e+00,2.550561e+00
3.873441e+00,5.435410e-01,5.230904e-01,3,0,2.365976e+00,2.365977e+00
3.860839e+00,6.187510e-01,5.929470e-01,3,0,1.558908e+00,1.558908e+00
3.849618e+00,6.177020e-01,5.910397e-01,3,0,2.535408e+00,2.535410e+00
3.857492e+00,5.932010e-01,5.710125e-01,3,0,2.454961e+00,2.454962e+00
3.848629e+00,5.759550e-01,5.528927e-01,3,0,2.626964e+00,2.626965e+00
3.848904e+00,6.189800e-01,5.931854e-01,3,0,2.040742e+00,2.040743e+00
3.855603e+00,6.291870e-01,6.029606e-01,3,0,1.875050e+00,1.875051e+00
3.853817e+00,5.387830e-01,5.180836e-01,3,0,1.587148e+00,1.587149e+00
3.858485e+00,6.129650e-01,5.881786e-01,3,0,1.230955e+00,1.230956e+00
3.839755e+00,6.166300e-01,5.898476e-01,3,0,1.278793e+00,1.278794e+00
3.851209e+00,6.266120e-01,6.017685e-01,3,0,1.022407e+00,1.022408e+00
3.856499e+00,5.435900e-01,5.230904e-01,3,0,1.543585e+00,1.543586e+00
3.844167e+00,6.096870e-01,5.841255e-01,3,0,1.477633e+00,1.477634e+00
3.802277e+00,6.082920e-01,5.829334e-01,3,0,2.805497e+00,2.805500e+00
3.817576e+00,5.797720e-01,5.569458e-01,3,0,3.538421e+00,3.538423e+00
3.807732e+00,1.630340e+00,1.608133e+00,3,1,7.698572e+00,7.700170e+00
3.850621e+00,1.455060e+00,1.427889e+00,3,1,6.636430e+00,6.636430e+00
3.820450e+00,6.026700e-01,5.750656e-01,3,0,3.366050e+00,3.366049e+00
3.851318e+00,6.081460e-01,5.810261e-01,3,0,3.715297e+00,3.715299e+00
3.822728e+00,5.627060e-01,5.419254e-01,3,0,3.973241e+00,3.973243e+00
3.795636e+00,5.861780e-01,5.609989e-01,3,0,4.613007e+00,4.613011e+00
3.803481e+00,6.063580e-01,5.800724e-01,3,0,4.342410e+00,4.342412e+00
3.761177e+00,6.363150e-01,6.089211e-01,3,0,3.700611e+00,3.700613e+00
3.823300e+00,5.494580e-01,5.288124e-01,3,0,4.268945e+00,4.268948e+00
3.824200e+00,6.025880e-01,5.779266e-01,3,0,4.423437e+00,4.423439e+00
3.840545e+00,5.979690e-01,5.729198e-01,3,0,4.586933e+00,4.586934e+00
3.820840e+00,6.292610e-01,6.060600e-01,3,0,5.096225e+00,5.096227e+00
3.792607e+00,5.407330e-01,5.187988e-01,3,0,6.038832e+00,6.038835e+00
3.822257e+00,6.009920e-01,5.760193e-01,3,0,2.306173e+00,2.306172e+00
3.789625e+00,6.056700e-01,5.779266e-01,3,0,2.509675e+00,2.509676e+00
3.817693e+00,5.692430e-01,5.478859e-01,3,0,3.255081e+00,3.255083e+00
3.826716e+00,5.810760e-01,5.569458e-01,3,0,2.127946e+00,2.127946e+00
3.845758e+00,6.044720e-01,5.779266e-01,3,0,1.598678e+00,1.598679e+00
3.809599e+00,6.165580e-01,5.898476e-01,3,0,1.522938e+00,1.522939e+00
3.805262e+00,5.534860e-01,5.328655e-01,3,0,1.566273e+00,1.566274e+00
3.819719e+00,6.010060e-01,5.750656e-01,3,0,1.588308e+00,1.588308e+00
3.793914e+00,6.075170e-01,5.769730e-01,3,0,1.282278e+00,1.282278e+00
3.815163e+00,6.277150e-01,6.048679e-01,3,0,1.709831e+00,1.709833e+00
3.855867e+00,5.409730e-01,5.199909e-01,3,0,2.356897e+00,2.356899e+00
3.845068e+00,6.049600e-01,5.788803e-01,3,0,3.438205e+00,3.438208e+00
3.816160e+00,6.042880e-01,5.781651e-01,3,0,5.105882e+00,5.105886e+00
3.842424e+00,3.620799e+00,3.600121e+00,3,3,1.009198e+01,1.010609e+01
3.845372e+00,6.108569e+00,6.078005e+00,3,6,9.071002e+00,9.073030e+00
5.130796e+00,5.013413e+00,4.986048e+00,4,5,9.122450e+00,9.123463e+00
3.789482e+00,2.364893e+00,2.332926e+00,3,2,8.059125e+00,8.059125e+00
3.804919e+00,6.535330e-01,6.070137e-01,3,0,7.667674e+00,7.667676e+00
3.843687e+00,6.487680e-01,6.151199e-01,3,0,5.890774e+00,5.890774e+00
3.814786e+00,5.553920e-01,5.340576e-01,3,0,5.081142e+00,5.081142e+00
3.796630e+00,6.151320e-01,5.888939e-01,3,0,6.157650e+00,6.157654e+00
3.742535e+00,6.067360e-01,5.800724e-01,3,0,3.648162e+00,3.648162e+00
3.782677e+00,6.080940e-01,5.838871e-01,3,0,4.012717e+00,4.012720e+00
3.786238e+00,5.372620e-01,5.149841e-01,3,0,4.401239e+00,4.401241e+00
3.756899e+00,1.549176e+00,1.523972e+00,3,1,5.999107e+00,5.999127e+00
3.751923e+00,1.443039e+00,1.415968e+00,3,1,3.831817e+00,3.831739e+00
3.801064e+00,6.054450e-01,5.779266e-01,3,0,1.990552e+00,1.990552e+00
3.795149e+00,5.611980e-01,5.397797e-01,3,0,1.533872e+00,1.533872e+00
3.830928e+00,5.981440e-01,5.738735e-01,3,0,1.576811e+00,1.576812e+00
3.847471e+00,6.115200e-01,5.731583e-01,3,0,3.107624e+00,3.107627e+00
3.790910e+00,6.158300e-01,5.869865e-01,3,0,2.469162e+00,2.469162e+00
3.796705e+00,5.186060e-01,4.990101e-01,3,0,2.520327e+00,2.520328e+00
3.798257e+00,6.271750e-01,6.020069e-01,3,0,2.508417e+00,2.508418e+00
3.787612e+00,5.999870e-01,5.729198e-01,3,0,3.208301e+00,3.208302e+00
3.815165e+00,1.344667e+00,1.321077e+00,3,1,8.632316e+00,8.631784e+00
5.153851e+00,1.246847e+00,1.223087e+00,4,1,6.497508e+00,6.497508e+00
3.869744e+00,6.341090e-01,6.067753e-01,3,0,3.725296e+00,3.725296e+00
3.856261e+00,6.233230e-01,5.950928e-01,3,0,3.393167e+00,3.393168e+00
3.864966e+00,6.423970e-01,6.132126e-01,3,0,2.444499e+00,2.444499e+00
3.838951e+00,6.657430e-01,6.239414e-01,3,0,4.077829e+00,4.077833e+00
3.855805e+00,5.378530e-01,5.171299e-01,3,0,5.963876e+00,5.963880e+00
3.843707e+00,6.399050e-01,6.139278e-01,3,0,3.851657e+00,3.851656e+00
3.809611e+00,6.089340e-01,5.829334e-01,3,0,2.903419e+00,2.903419e+00
3.830017e+00,6.019570e-01,5.810261e-01,3,0,2.142724e+00,2.142724e+00
3.811088e+00,5.851740e-01,5.609989e-01,3,0,1.976376e+00,1.976377e+00
3.825255e+00,6.300330e-01,5.869865e-01,3,0,2.216800e+00,2.216804e+00
3.820922e+00,6.174240e-01,5.900860e-01,3,0,2.338784e+00,2.338784e+00
3.824232e+00,5.226810e-01,5.028248e-01,3,0,8.038378e-01,8.038377e-01
3.816956e+00,6.258760e-01,6.010532e-01,3,0,1.025675e+00,1.025676e+00
3.892921e+00,5.976160e-01,5.719662e-01,3,0,9.353343e-01,9.353350e-01
3.816849e+00,6.452230e-01,6.198883e-01,3,0,1.424047e+00,1.424050e+00
3.792449e+00,5.259490e-01,5.061626e-01,3,0,1.090306e+00,1.090306e+00
3.853287e+00,6.225090e-01,5.981922e-01,3,0,6.275622e+00,6.275631e+00
3.817121e+00,6.074120e-01,5.819798e-01,3,0,3.924268e+00,3.924267e+00
3.845977e+00,5.653200e-01,5.450249e-01,3,0,4.911938e+00,4.911940e+00
3.821921e+00,5.984540e-01,5.760193e-01,3,0,2.987617e+00,2.987617e+00
3.853113e+00,5.990640e-01,5.729198e-01,3,0,3.894830e+00,3.894834e+00
3.828878e+00,6.353620e-01,6.079674e-01,3,0,5.026864e+00,5.026867e+00
3.799887e+00,2.597623e+00,2.576828e+00,3,2,7.493912e+00,7.638158e+00
3.844511e+00,4.528755e+00,4.503965e+00,3,4,6.361314e+00,6.396571e+00
7.672910e+00,4.006220e+00,3.977060e+00,6,4,3.643108e+00,3.638009e+00
5.101245e+00,3.350884e+00,3.320217e+00,4,3,6.243747e+00,6.245619e+00
4.990052e+00,2.946804e+00,2.918005e+00,4,3,3.761127e+00,3.761126e+00
3.796447e+00,1.011817e+01,1.009297e+01,3,10,9.011503e+00,9.142908e+00
8.953176e+00,1.041761e+01,1.038718e+01,7,11,6.315722e+00,6.335118e+00
5.114541e+00,3.177564e+00,3.146172e+00,4,3,3.773140e+00,3.773140e+00
3.855008e+00,6.207030e-01,5.919933e-01,3,0,4.914312e+00,4.914316e+00
3.797126e+00,6.070410e-01,5.800724e-01,3,0,4.192922e+00,4.192923e+00
3.829353e+00,6.434090e-01,6.148815e-01,3,0,5.222406e+00,5.222409e+00
3.854302e+00,5.575470e-01,5.369186e-01,3,0,3.406828e+00,3.406829e+00
3.851064e+00,5.941870e-01,5.688667e-01,3,0,2.921190e+00,2.921190e+00
3.858971e+00,6.274990e-01,6.010532e-01,3,0,2.326068e+00,2.326068e+00
3.815032e+00,6.091860e-01,5.841255e-01,3,0,2.257396e+00,2.257397e+00
3.846432e+00,5.288020e-01,5.090237e-01,3,0,2.648310e+00,2.648311e+00
3.844836e+00,5.996830e-01,5.738735e-01,3,0,1.576956e+00,1.576956e+00
3.847980e+00,6.228640e-01,5.970001e-01,3,0,2.046848e+00,2.046850e+00
3.864609e+00,6.110650e-01,5.869865e-01,3,0,1.448918e+00,1.448918e+00
3.863746e+00,5.555550e-01,5.328655e-01,3,0,1.423209e+00,1.423211e+00
3.861433e+00,6.153090e-01,5.898476e-01,3,0,9.476562e-01,9.476568e-01
3.840356e+00,6.161820e-01,5.898476e-01,3,0,2.142607e+00,2.142610e+00
3.854676e+00,5.419030e-01,5.209446e-01,3,0,1.882697e+00,1.882699e+00
3.856222e+00,6.103870e-01,5.860329e-01,3,0,1.556191e+00,1.556192e+00
3.851549e+00,6.139590e-01,5.869865e-01,3,0,3.129242e+00,3.129246e+00
3.853333e+00,6.299780e-01,6.051064e-01,3,0,3.766259e+00,3.766260e+00
3.855877e+00,5.296460e-01,5.099773e-01,3,0,3.189997e+00,3.189997e+00
3.852762e+00,6.129820e-01,5.881786e-01,3,0,3.827248e+00,3.827249e+00
3.848465e+00,6.202560e-01,5.929470e-01,3,0,3.631623e+00,3.631624e+00
3.865103e+00,6.011940e-01,5.779266e-01,3,0,3.761470e+00,3.761471e+00
3.852448e+00,5.703050e-01,5.478859e-01,3,0,4.617822e+00,4.617809e+00
5.136831e+00,1.332151e+00,1.306057e+00,4,1,5.138446e+00,5.137739e+00
5.127087e+00,1.317035e+00,1.289129e+00,4,1,2.774775e+00,2.774773e+00
3.844116e+00,6.120120e-01,5.850792e-01,3,0,3.240882e+00,3.240886e+00
3.852379e+00,6.253930e-01,5.979538e-01,3,0,3.018051e+00,3.018052e+00
3.889489e+00,7.494981e+00,7.471085e+00,3,7,6.125261e+00,6.168451e+00
5.169921e+00,6.640564e+00,6.608963e+00,4,7,4.159384e+00,4.159376e+00
3.877716e+00,3.081642e+00,3.050089e+00,3,3,6.620801e+00,6.614746e+00
6.423194e+00,2.873732e+00,2.844095e+00,5,3,3.441918e+00,3.413201e+00
5.144375e+00,6.328960e-01,6.029606e-01,4,0,2.461978e+00,2.461978e+00
3.856698e+00,6.380240e-01,6.101131e-01,3,0,2.529576e+00,2.529577e+00
3.861675e+00,5.385530e-01,5.180836e-01,3,0,1.690591e+00,1.690591e+00
3.861175e+00,6.199010e-01,5.950928e-01,3,0,2.036742e+00,2.036744e+00
3.859229e+00,6.164140e-01,5.891323e-01,3,0,1.559496e+00,1.559497e+00
3.851803e+00,6.659560e-01,6.389618e-01,3,0,3.832666e+00,3.832671e+00
3.858981e+00,5.399520e-01,5.199909e-01,3,0,4.524415e+00,4.524417e+00
3.852894e+00,6.088680e-01,5.831718e-01,3,0,4.005165e+00,4.005166e+00
3.856623e+00,6.309290e-01,6.060600e-01,3,0,2.780146e+00,2.780145e+00
3.854127e+00,6.165420e-01,5.898476e-01,3,0,4.587536e+00,4.587540e+00
3.850758e+00,5.861190e-01,5.609989e-01,3,0,3.676150e+00,3.676150e+00
3.910737e+00,6.159000e-01,5.900860e-01,3,0,5.215791e+00,5.215794e+00
3.853115e+00,6.320150e-01,6.041527e-01,3,0,5.800993e+00,5.800995e+00
3.855813e+00,6.252300e-01,5.979538e-01,3,0,4.253186e+00,4.253186e+00
3.858891e+00,6.235050e-01,5.919933e-01,3,0,4.168061e+00,4.168062e+00
3.894618e+00,6.189390e-01,5.929470e-01,3,0,2.922177e+00,2.922177e+00
3.858687e+00,6.288240e-01,6.010532e-01,3,0,2.847135e+00,2.847136e+00

