2.613808e+00,3.188890e+00,2.311945e+00,2,0,0.000000e+00,0.000000e+00
3.875588e+00,5.932160e-01,5.588531e-01,3,0,2.943502e-01,2.943507e-01
3.885557e+00,6.011610e-01,5.760193e-01,3,0,7.738568e-01,7.738579e-01
3.865948e+00,6.204200e-01,5.939007e-01,3,0,2.110699e+00,2.110702e+00
3.875459e+00,6.337600e-01,6.060600e-01,3,0,9.151715e-01,9.151716e-01
3.881810e+00,5.405700e-01,5.199909e-01,3,0,3.310158e+00,3.310163e+00
3.873334e+00,6.078070e-01,5.829334e-01,3,0,4.396029e+00,4.396031e+00
3.867913e+00,6.234630e-01,5.979538e-01,3,0,6.049184e+00,6.049187e+00
3.884694e+00,6.239530e-01,6.010532e-01,3,0,6.796466e+00,6.796468e+00
3.879440e+00,1.535081e+00,1.513004e+00,3,1,9.220863e+00,9.223779e+00
3.882585e+00,1.462339e+00,1.436949e+00,3,1,7.076029e+00,7.076029e+00
3.875733e+00,6.028120e-01,5.779266e-01,3,0,7.225058e+00,7.225060e+00
3.907052e+00,6.168510e-01,5.919933e-01,3,0,6.440358e+00,6.440360e+00
3.865930e+00,5.701340e-01,5.500317e-01,3,0,7.070589e+00,7.070592e+00
3.841033e+00,5.718340e-01,5.500317e-01,3,0,5.366433e+00,5.366433e+00
3.826918e+00,5.953070e-01,5.722046e-01,3,0,4.718849e+00,4.718850e+00
3.861992e+00,6.209890e-01,5.800724e-01,3,0,5.027944e+00,5.027947e+00
3.862354e+00,5.443570e-01,5.249977e-01,3,0,4.898086e+00,4.898087e+00
3.844622e+00,5.792460e-01,5.569458e-01,3,0,6.187872e+00,6.187876e+00
3.874413e+00,6.111790e-01,5.879402e-01,3,0,8.093107e+00,8.093112e+00
3.858650e+00,6.211360e-01,5.960464e-01,3,0,8.250017e+00,8.250019e+00
3.872704e+00,5.423510e-01,5.221367e-01,3,0,8.075628e+00,8.075630e+00
3.894488e+00,6.102600e-01,5.860329e-01,3,0,7.999811e+00,7.999814e+00
3.870013e+00,6.204710e-01,5.948544e-01,3,0,7.032232e+00,7.032233e+00
3.885734e+00,6.007130e-01,5.781651e-01,3,0,5.565580e+00,5.565580e+00
3.886965e+00,5.775910e-01,5.550385e-01,3,0,5.866769e+00,5.866771e+00
3.870458e+00,6.203280e-01,5.948544e-01,3,0,4.289288e+00,4.289289e+00
3.868077e+00,6.292680e-01,6.039143e-01,3,0,4.144728e+00,4.144730e+00
3.872367e+00,5.418870e-01,5.221367e-01,3,0,4.099341e+00,4.099343e+00
3.877644e+00,6.065580e-01,5.829334e-01,3,0,3.010831e+00,3.010832e+00
3.865149e+00,6.116540e-01,5.881786e-01,3,0,3.632744e+00,3.632747e+00
3.861612e+00,6.298320e-01,5.989075e-01,3,0,3.443847e+00,3.443848e+00
3.876403e+00,5.407930e-01,5.199909e-01,3,0,2.213546e+00,2.213546e+00
3.872973e+00,6.048310e-01,5.810261e-01,3,0,2.015604e+00,2.015605e+00
3.861692e+00,6.201970e-01,5.948544e-01,3,0,3.537603e+00,3.537607e+00
3.875828e+00,6.016460e-01,5.760193e-01,3,0,2.862344e+00,2.862345e+00
3.869840e+00,5.712130e-01,5.500317e-01,3,0,2.012374e+00,2.012375e+00
3.861884e+00,6.200600e-01,5.970001e-01,3,0,3.723258e+00,3.723262e+00
3.864084e+00,6.189850e-01,5.941391e-01,3,0,3.506795e+00,3.506796e+00
3.884103e+00,5.426410e-01,5.230904e-01,3,0,3.303820e+00,3.303821e+00
3.861821e+00,6.057280e-01,5.819798e-01,3,0,1.799392e+00,1.799392e+00
3.877375e+00,6.207720e-01,5.888939e-01,3,0,3.816012e+00,3.816015e+00
3.869905e+00,6.412670e-01,6.170273e-01,3,0,2.636189e+00,2.636189e+00
3.877235e+00,5.411780e-01,5.211830e-01,3,0,2.468861e+00,2.468862e+00
3.878194e+00,6.129680e-01,5.881786e-01,3,0,1.638367e+00,1.638367e+00
3.864439e+00,6.258440e-01,6.010532e-01,3,0,1.308424e+00,1.308424e+00
3.881860e+00,5.964360e-01,5.750656e-01,3,0,1.499527e+00,1.499528e+00
3.880497e+00,5.783260e-01,5.559921e-01,3,0,1.177837e+00,1.177837e+00
3.875576e+00,6.134300e-01,5.888939e-01,3,0,8.472224e-01,8.472226e-01
3.863648e+00,6.415960e-01,6.170273e-01,3,0,1.111874e+00,1.111874e+00
3.867513e+00,5.507820e-01,5.309582e-01,3,0,3.024757e+00,3.024760e+00
3.866802e+00,5.994230e-01,5.757809e-01,3,0,6.404152e+00,6.404159e+00
3.860446e+00,6.217840e-01,5.970001e-01,3,0,3.879767e+00,3.879766e+00
3.857518e+00,6.196830e-01,5.939007e-01,3,0,2.488073e+00,2.488073e+00
3.863879e+00,5.437680e-01,5.240440e-01,3,0,2.474610e+00,2.474611e+00
3.865817e+00,6.141690e-01,5.900860e-01,3,0,2.462520e+00,2.462522e+00
3.859359e+00,6.181360e-01,5.939007e-01,3,0,3.273766e+00,3.273768e+00
3.877533e+00,5.995620e-01,5.779266e-01,3,0,2.128115e+00,2.128116e+00
3.859969e+00,5.727040e-01,5.509853e-01,3,0,1.372840e+00,1.372840e+00
3.864235e+00,6.184920e-01,5.939007e-01,3,0,1.019340e+00,1.019340e+00
3.865404e+00,6.268460e-01,6.010532e-01,3,0,1.291427e+00,1.291428e+00
3.868885e+00,5.369190e-01,5.171299e-01,3,0,1.122847e+00,1.122847e+00
3.876492e+00,6.068380e-01,5.829334e-01,3,0,8.906360e-01,8.906363e-01
3.860755e+00,6.135270e-01,5.891323e-01,3,0,1.908737e+00,1.908740e+00
3.860432e+00,6.230970e-01,5.989075e-01,3,0,3.367062e+00,3.367065e+00
3.862374e+00,5.509230e-01,5.300045e-01,3,0,2.785949e+00,2.785950e+00
3.874334e+00,6.225360e-01,5.970001e-01,3,0,3.767122e+00,3.767124e+00
3.870841e+00,6.485600e-01,6.210804e-01,3,0,7.055469e+00,7.055475e+00
3.876012e+00,6.236110e-01,6.000996e-01,3,0,6.149421e+00,6.149422e+00
3.886037e+00,1.591334e+00,1.565933e+00,3,1,8.154454e+00,8.154583e+00
3.876567e+00,1.478661e+00,1.451969e+00,3,1,6.968053e+00,6.968053e+00
3.869506e+00,6.167820e-01,5.898476e-01,3,0,6.752393e+00,6.752394e+00
3.868655e+00,6.328400e-01,6.060600e-01,3,0,5.070212e+00,5.070213e+00
3.871488e+00,5.364500e-01,5.168915e-01,3,0,4.315196e+00,4.315197e+00
3.861388e+00,6.067430e-01,5.829334e-01,3,0,4.185394e+00,4.185395e+00
3.870590e+00,6.405720e-01,6.151199e-01,3,0,2.809427e+00,2.809427e+00
3.891057e+00,6.190380e-01,5.960464e-01,3,0,2.651844e+00,2.651845e+00
3.883107e+00,5.605830e-01,5.390644e-01,3,0,3.109754e+00,3.109756e+00
3.876580e+00,6.276220e-01,6.010532e-01,3,0,4.195332e+00,4.195335e+00
3.869154e+00,6.336610e-01,5.989075e-01,3,0,3.316977e+00,3.316977e+00
3.878642e+00,1.369073e+00,1.345873e+00,3,1,6.509702e+00,6.509558e+00
5.160056e+00,1.272169e+00,1.247168e+00,4,1,4.703765e+00,4.703765e+00
3.897442e+00,1.613452e+00,1.585960e+00,3,1,5.636955e+00,5.637471e+00
3.881111e+00,7.823680e-01,7.548332e-01,3,0,5.430749e+00,5.431478e+00
3.886547e+00,1.488936e+00,1.461983e+00,3,1,3.320933e+00,3.320933e+00
3.866571e+00,6.328830e-01,6.060600e-01,3,0,3.657562e+00,3.657565e+00
3.881968e+00,2.573080e+00,2.549171e+00,3,2,5.539689e+00,5.552063e+00
3.881866e+00,4.511413e+00,4.482985e+00,3,4,6.083959e+00,6.125414e+00
3.883306e+00,4.022027e+00,3.993034e+00,3,4,6.034668e+00,6.034670e+00
3.870146e+00,5.944300e-01,5.681515e-01,3,0,6.303631e+00,6.303634e+00
3.878720e+00,1.329349e+00,1.302004e+00,3,1,6.724687e+00,6.723854e+00
8.980701e+00,1.575014e+00,1.549006e+00,7,1,5.521227e+00,5.517446e+00
7.747147e+00,2.773182e+00,2.744913e+00,6,2,6.523966e+00,6.511515e+00
5.199910e+00,7.234280e+00,7.204056e+00,4,7,6.873727e+00,6.914151e+00
3.910264e+00,7.047586e+00,7.016897e+00,3,7,7.232455e+00,7.291749e+00
7.755484e+00,4.027106e+00,3.997803e+00,6,4,4.974623e+00,4.961160e+00
5.171362e+00,6.398140e-01,6.098747e-01,4,0,5.226757e+00,5.226745e+00
3.868643e+00,6.384120e-01,6.110668e-01,3,0,3.211760e+00,3.211756e+00
3.879719e+00,5.491280e-01,5.290508e-01,3,0,2.593122e+00,2.593124e+00
3.874750e+00,1.584658e+00,1.559973e+00,3,1,4.956568e+00,4.958587e+00
3.896368e+00,1.505941e+00,1.480103e+00,3,1,4.288620e+00,4.288621e+00
3.883102e+00,6.283730e-01,6.029606e-01,3,0,2.972799e+00,2.972799e+00
3.872721e+00,6.287100e-01,6.020069e-01,3,0,2.910543e+00,2.910544e+00
3.895331e+00,3.687774e+00,3.656864e+00,3,1,5.323566e+00,7.229420e+00
5.163898e+00,1.320464e+00,1.291037e+00,4,1,3.800284e+00,3.800284e+00
3.871974e+00,6.170240e-01,5.879402e-01,3,0,3.527421e+00,3.527423e+00
3.875784e+00,5.369870e-01,5.171299e-01,3,0,2.014509e+00,2.014510e+00
3.864172e+00,6.030700e-01,5.779266e-01,3,0,1.532552e+00,1.532552e+00
3.863930e+00,6.192460e-01,5.939007e-01,3,0,1.610091e+00,1.610092e+00
3.875180e+00,6.266550e-01,6.029606e-01,3,0,9.228754e-01,9.228755e-01
3.868018e+00,5.582210e-01,5.369186e-01,3,0,2.093515e+00,2.093518e+00
3.871111e+00,6.199070e-01,5.950928e-01,3,0,6.281803e+00,6.281810e+00
3.858452e+00,6.185060e-01,5.929470e-01,3,0,8.694862e+00,8.694867e+00
5.201041e+00,9.829162e+00,9.799480e+00,4,7,1.516299e+01,1.866310e+01
7.771696e+00,4.486815e+00,4.456043e+00,6,4,1.650787e+01,1.661308e+01
7.771771e+00,8.530236e+00,8.499861e+00,6,9,1.340435e+01,1.338834e+01
5.167006e+00,2.256073e+00,2.227068e+00,4,2,7.230196e+00,7.230191e+00
3.880650e+00,6.406470e-01,6.120205e-01,3,0,5.280200e+00,5.280200e+00
3.886190e+00,5.470180e-01,5.259514e-01,3,0,4.385274e+00,4.385274e+00
3.887304e+00,2.596700e+00,2.571106e+00,3,2,4.487674e+00,4.490120e+00
3.896318e+00,1.024452e+01,1.021695e+01,3,10,7.405902e+00,7.787253e+00
3.911555e+00,1.089350e+01,1.086593e+01,3,11,7.968609e+00,8.439186e+00
6.479132e+00,1.278071e+01,1.274991e+01,5,13,8.988689e+00,9.315806e+00
7.768947e+00,1.624800e+01,1.621890e+01,6,18,7.658340e+00,7.736553e+00
6.468212e+00,2.534459e+00,2.503872e+00,5,2,7.460334e+00,7.549638e+00
7.767036e+00,2.109616e+01,2.106905e+01,6,22,1.287743e+01,1.325922e+01
5.204650e+00,2.072864e+01,2.069807e+01,4,24,6.255206e+00,6.250932e+00
5.163350e+00,2.005791e+00,1.976967e+00,4,2,6.000990e+00,6.000955e+00
3.889503e+00,6.361990e-01,6.070137e-01,3,0,3.142335e+00,3.142331e+00
3.868603e+00,6.223720e-01,5.960464e-01,3,0,2.729577e+00,2.729578e+00
3.874912e+00,5.601450e-01,5.400181e-01,3,0,2.614599e+00,2.614600e+00
3.870675e+00,6.032770e-01,5.779266e-01,3,0,2.493856e+00,2.493858e+00
3.868073e+00,6.254930e-01,5.979538e-01,3,0,3.342561e+00,3.342563e+00
3.870137e+00,6.362330e-01,6.101131e-01,3,0,2.073159e+00,2.073159e+00
3.879705e+00,5.353430e-01,5.149841e-01,3,0,2.776812e+00,2.776814e+00
3.868914e+00,6.177290e-01,5.941391e-01,3,0,2.030324e+00,2.030324e+00
3.858261e+00,6.204360e-01,5.948544e-01,3,0,3.003127e+00,3.003128e+00
3.874558e+00,6.187820e-01,5.970001e-01,3,0,5.179120e+00,5.179124e+00
3.882828e+00,3.000377e+00,2.968550e+00,3,0,9.820808e+00,2.320611e+01
5.162700e+00,1.607465e+00,1.580954e+00,4,1,6.050881e+00,6.051318e+00
3.907046e+00,1.492489e+00,1.466036e+00,3,1,4.052534e+00,4.052521e+00
3.871112e+00,5.584050e-01,5.340576e-01,3,0,3.325520e+00,3.325520e+00
3.893030e+00,6.197180e-01,5.939007e-01,3,0,4.569673e+00,4.569677e+00
3.862533e+00,6.229250e-01,5.950928e-01,3,0,2.306430e+00,2.306430e+00
3.894231e+00,6.124580e-01,5.900860e-01,3,0,2.211195e+00,2.211196e+00
3.872219e+00,5.771900e-01,5.550385e-01,3,0,1.617141e+00,1.617141e+00
3.865657e+00,6.156470e-01,5.908012e-01,3,0,1.775676e+00,1.775677e+00
3.863954e+00,6.239680e-01,5.998611e-01,3,0,2.853577e+00,2.853580e+00
3.862682e+00,5.489160e-01,5.288124e-01,3,0,3.305863e+00,3.305864e+00
3.867388e+00,6.078760e-01,5.848408e-01,3,0,3.097319e+00,3.097320e+00
3.864064e+00,6.227650e-01,5.979538e-01,3,0,3.570088e+00,3.570089e+00
3.864578e+00,6.305820e-01,6.060600e-01,3,0,3.522204e+00,3.522205e+00
3.876650e+00,1.274682e+00,1.253843e+00,3,1,3.321794e+00,3.321550e+00
7.721059e+00,1.286257e+00,1.262188e+00,6,1,4.892920e+00,4.878393e+00
5.153167e+00,6.458880e-01,6.151199e-01,4,0,2.306900e+00,2.306898e+00
3.864004e+00,6.418500e-01,6.160736e-01,3,0,2.799719e+00,2.799721e+00
3.874699e+00,5.502650e-01,5.290508e-01,3,0,3.558301e+00,3.558303e+00
3.869404e+00,6.195820e-01,5.950928e-01,3,0,4.167696e+00,4.167698e+00
3.872528e+00,6.294260e-01,6.000996e-01,3,0,3.855786e+00,3.855787e+00
3.878693e+00,6.186240e-01,5.970001e-01,3,0,3.354423e+00,3.354424e+00
3.865774e+00,5.733820e-01,5.519390e-01,3,0,2.667023e+00,2.667024e+00
3.874465e+00,6.217160e-01,5.970001e-01,3,0,2.723555e+00,2.723556e+00
3.861358e+00,6.300760e-01,6.041527e-01,3,0,3.632854e+00,3.632857e+00
3.882715e+00,2.627172e+00,2.607107e+00,3,2,4.985992e+00,4.993134e+00
3.884109e+00,2.327213e+00,2.300024e+00,3,2,3.754074e+00,3.754074e+00
3.884465e+00,5.695420e-01,5.440712e-01,3,0,2.981566e+00,2.981566e+00
3.875531e+00,5.905530e-01,5.671978e-01,3,0,3.429917e+00,3.429919e+00
3.867429e+00,6.148290e-01,5.891323e-01,3,0,1.773222e+00,1.773221e+00
3.862665e+00,6.284590e-01,6.020069e-01,3,0,2.310445e+00,2.310447e+00
3.873922e+00,5.449150e-01,5.249977e-01,3,0,1.769403e+00,1.769404e+00
3.875192e+00,6.112320e-01,5.869865e-01,3,0,2.222336e+00,2.222338e+00
3.878182e+00,6.446520e-01,6.179810e-01,3,0,1.798044e+00,1.798045e+00
3.862666e+00,6.178340e-01,5.948544e-01,3,0,2.925571e+00,2.925573e+00
3.869416e+00,5.571180e-01,5.359650e-01,3,0,2.867887e+00,2.867888e+00
3.872656e+00,6.211640e-01,5.970001e-01,3,0,2.572568e+00,2.572568e+00
3.860524e+00,6.215830e-01,5.960464e-01,3,0,2.077559e+00,2.077559e+00
3.866887e+00,5.753790e-01,5.550385e-01,3,0,2.079005e+00,2.079008e+00
3.862264e+00,5.896320e-01,5.679131e-01,3,0,1.756995e+00,1.756996e+00
3.866372e+00,6.208270e-01,5.950928e-01,3,0,1.642100e+00,1.642101e+00
3.860348e+00,1.339602e+00,1.313925e+00,3,1,4.207816e+00,4.207347e+00
7.729966e+00,1.310709e+00,1.288176e+00,6,1,3.187179e+00,3.183977e+00
3.867507e+00,6.237200e-01,5.960464e-01,3,0,2.658732e+00,2.658718e+00
3.859263e+00,6.398960e-01,6.129742e-01,3,0,2.591596e+00,2.591596e+00
3.870040e+00,5.440220e-01,5.240440e-01,3,0,2.309567e+00,2.309568e+00
3.872044e+00,6.145690e-01,5.888939e-01,3,0,1.435713e+00,1.435713e+00
3.875314e+00,6.277100e-01,6.029606e-01,3,0,1.767386e+00,1.767387e+00
3.897742e+00,6.229040e-01,5.981922e-01,3,0,1.103547e+00,1.103547e+00
3.864538e+00,5.499070e-01,5.300045e-01,3,0,3.336382e+00,3.336387e+00
3.862818e+00,6.095830e-01,5.848408e-01,3,0,2.685376e+00,2.685377e+00
3.873097e+00,6.236930e-01,5.989075e-01,3,0,2.028989e+00,2.028989e+00
3.870815e+00,6.080230e-01,5.860329e-01,3,0,3.135567e+00,3.135569e+00
3.889301e+00,5.717490e-01,5.500317e-01,3,0,4.109252e+00,4.109254e+00
3.880842e+00,6.214690e-01,5.960464e-01,3,0,1.798459e+00,1.798458e+00
3.873114e+00,6.208420e-01,5.970001e-01,3,0,1.553122e+00,1.553123e+00
3.887600e+00,6.219880e-01,5.958080e-01,3,0,2.135773e+00,2.135775e+00
3.877735e+00,6.440720e-01,6.179810e-01,3,0,1.428018e+00,1.428019e+00
3.856993e+00,5.422180e-01,5.218983e-01,3,0,1.934787e+00,1.934789e+00
3.876068e+00,6.281320e-01,6.041527e-01,3,0,1.260185e+00,1.260185e+00
3.869568e+00,6.333110e-01,6.070137e-01,3,0,1.424758e+00,1.424759e+00
3.870230e+00,6.229510e-01,5.979538e-01,3,0,1.292300e+00,1.292301e+00
3.859953e+00,6.308260e-01,6.048679e-01,3,0,9.546574e-01,9.546578e-01
3.864219e+00,5.408280e-01,5.209446e-01,3,0,8.896162e-01,8.896167e-01
3.867847e+00,6.144050e-01,5.860329e-01,3,0,2.081078e+00,2.081081e+00
3.866702e+00,6.289690e-01,6.041527e-01,3,0,9.561507e-01,9.561508e-01
3.860478e+00,6.279580e-01,6.029606e-01,3,0,1.354896e+00,1.354897e+00
3.874206e+00,5.448580e-01,5.240440e-01,3,0,1.135734e+00,1.135735e+00
3.865533e+00,6.158800e-01,5.910397e-01,3,0,1.553032e+00,1.553034e+00
3.860685e+00,6.204750e-01,5.960464e-01,3,0,3.341175e+00,3.341178e+00
3.883540e+00,5.998540e-01,5.788803e-01,3,0,2.713586e+00,2.713587e+00
3.864973e+00,6.232390e-01,5.970001e-01,3,0,2.370907e+00,2.370908e+00
3.918604e+00,7.469149e+00,7.441044e+00,3,7,9.188416e+00,9.245993e+00
7.750187e+00,6.509350e+00,6.479025e+00,6,7,6.904343e+00,6.889814e+00
5.169670e+00,6.400840e-01,6.110668e-01,4,0,4.790216e+00,4.790215e+00
3.894212e+00,6.382300e-01,6.110668e-01,3,0,5.217198e+00,5.217199e+00
3.879900e+00,6.270650e-01,6.010532e-01,3,0,5.230823e+00,5.230824e+00
3.878569e+00,6.253380e-01,5.989075e-01,3,0,5.364297e+00,5.364299e+00
3.869976e+00,6.348350e-01,6.091595e-01,3,0,7.233877e+00,7.233882e+00
3.880114e+00,6.104480e-01,5.869865e-01,3,0,5.077922e+00,5.077922e+00
3.890383e+00,6.063390e-01,5.810261e-01,3,0,4.198243e+00,4.198245e+00
3.878288e+00,6.358400e-01,6.091595e-01,3,0,3.640930e+00,3.640931e+00
3.873158e+00,6.164320e-01,5.910397e-01,3,0,4.329281e+00,4.329284e+00
3.874462e+00,6.244540e-01,5.991459e-01,3,0,3.536917e+00,3.536917e+00
3.877276e+00,6.457560e-01,6.201267e-01,3,0,3.393125e+00,3.393126e+00
3.872795e+00,6.170500e-01,5.910397e-01,3,0,3.618699e+00,3.618701e+00
3.870877e+00,6.317160e-01,6.060600e-01,3,0,2.692856e+00,2.692856e+00
3.863371e+00,6.376640e-01,6.120205e-01,3,0,2.343506e+00,2.343506e+00
3.865040e+00,5.248490e-01,5.059242e-01,3,0,2.815578e+00,2.815579e+00
3.873407e+00,6.273580e-01,6.020069e-01,3,0,1.923835e+00,1.923835e+00
3.881372e+00,6.327400e-01,6.070137e-01,3,0,1.826420e+00,1.826421e+00
3.862785e+00,6.161530e-01,5.898476e-01,3,0,3.177283e+00,3.177286e+00
3.848923e+00,6.317590e-01,6.060600e-01,3,0,2.959612e+00,2.959613e+00
3.847143e+00,6.210120e-01,5.948544e-01,3,0,1.839261e+00,1.839261e+00
3.853008e+00,6.225010e-01,5.979538e-01,3,0,1.785615e+00,1.785615e+00
3.847066e+00,6.296510e-01,6.039143e-01,3,0,7.976561e-01,7.976569e-01
3.858956e+00,5.422760e-01,5.218983e-01,3,0,4.706168e-01,4.706170e-01
3.845189e+00,6.326760e-01,6.070137e-01,3,0,4.162991e-01,4.162995e-01
3.843573e+00,6.160590e-01,5.910397e-01,3,0,1.018298e+00,1.018299e+00
3.851632e+00,6.372430e-01,6.108284e-01,3,0,2.366419e+00,2.366422e+00
3.853046e+00,5.453610e-01,5.249977e-01,3,0,3.783975e+00,3.783978e+00
3.846301e+00,6.174720e-01,5.929470e-01,3,0,4.582415e+00,4.582417e+00
3.820190e+00,6.166360e-01,5.919933e-01,3,0,6.226779e+00,6.226783e+00
3.849537e+00,5.364480e-01,5.171299e-01,3,0,4.482309e+00,4.482309e+00
3.833945e+00,6.036330e-01,5.807877e-01,3,0,3.336196e+00,3.336196e+00
3.776514e+00,5.893730e-01,5.660057e-01,3,0,2.943437e+00,2.943437e+00
3.805784e+00,6.428510e-01,6.179810e-01,3,0,2.522391e+00,2.522392e+00
3.790868e+00,5.314270e-01,5.109310e-01,3,0,3.032511e+00,3.032513e+00
3.808963e+00,5.934920e-01,5.719662e-01,3,0,3.456886e+00,3.456888e+00
3.788796e+00,6.007260e-01,5.760193e-01,3,0,2.242254e+00,2.242254e+00
3.813874e+00,6.064360e-01,5.819798e-01,3,0,2.017916e+00,2.017917e+00
3.815358e+00,5.292990e-01,5.099773e-01,3,0,1.597608e+00,1.597609e+00
3.813920e+00,6.167860e-01,5.941391e-01,3,0,1.671926e+00,1.671927e+00
3.808200e+00,6.346670e-01,6.098747e-01,3,0,2.047242e+00,2.047244e+00
3.841525e+00,5.898340e-01,5.679131e-01,3,0,1.421585e+00,1.421585e+00
3.809273e+00,6.267650e-01,6.020069e-01,3,0,2.739543e+00,2.739546e+00
3.819374e+00,5.369990e-01,5.168915e-01,3,0,4.199642e+00,4.199645e+00
3.813483e+00,6.085760e-01,5.838871e-01,3,0,5.928770e+00,5.928774e+00
3.846610e+00,5.919810e-01,5.700588e-01,3,0,4.161643e+00,4.161643e+00
3.813128e+00,5.676130e-01,5.459785e-01,3,0,1.589852e+00,1.589851e+00
3.810366e+00,5.883640e-01,5.650520e-01,3,0,1.791703e+00,1.791704e+00
3.801309e+00,6.297870e-01,6.060600e-01,3,0,2.339039e+00,2.339040e+00
3.781068e+00,5.173410e-01,4.980564e-01,3,0,2.541469e+00,2.541471e+00
3.814329e+00,6.115180e-01,5.900860e-01,3,0,3.331810e+00,3.331813e+00
3.844255e+00,6.116410e-01,5.879402e-01,3,0,6.903008e+00,6.903015e+00
3.851752e+00,6.192980e-01,5.950928e-01,3,0,4.792142e+00,4.792142e+00
3.864085e+00,5.784710e-01,5.559921e-01,3,0,4.036393e+00,4.036393e+00
3.846627e+00,6.335540e-01,6.070137e-01,3,0,4.326546e+00,4.326548e+00
3.877826e+00,6.477050e-01,6.210804e-01,3,0,7.773648e+00,7.773655e+00
3.923558e+00,6.537510e-01,6.310940e-01,3,0,6.659506e+00,6.659507e+00
3.868626e+00,5.962360e-01,5.719662e-01,3,0,5.223939e+00,5.223939e+00
3.890623e+00,1.380459e+00,1.353979e+00,3,1,7.952374e+00,7.952175e+00
6.524109e+00,1.363662e+00,1.336813e+00,5,1,1.051842e+01,1.051825e+01
5.195747e+00,1.357366e+00,1.331091e+00,4,1,1.176301e+01,1.176292e+01
9.116914e+00,6.369410e-01,6.048679e-01,7,0,1.150883e+01,1.150466e+01
5.141300e+00,1.404639e+00,1.375914e+00,4,1,8.788686e+00,8.788684e+00
3.870788e+00,6.385150e-01,6.101131e-01,3,0,8.631488e+00,8.631490e+00
3.877407e+00,5.355380e-01,5.149841e-01,3,0,8.106698e+00,8.106699e+00
3.876564e+00,6.144980e-01,5.891323e-01,3,0,7.204660e+00,7.204661e+00
3.868581e+00,6.277700e-01,5.970001e-01,3,0,6.104625e+00,6.104626e+00
3.843883e+00,6.109880e-01,5.879402e-01,3,0,4.980099e+00,4.980099e+00
3.854449e+00,1.609987e+00,1.587868e+00,3,1,4.587683e+00,4.592018e+00
3.863083e+00,1.459186e+00,1.435041e+00,3,1,3.338082e+00,3.338083e+00
3.867951e+00,3.715103e+00,3.689051e+00,3,3,4.581268e+00,4.595471e+00
3.882258e+00,3.436801e+00,3.408909e+00,3,3,4.688991e+00,4.691627e+00
3.876208e+00,1.667988e+00,1.640081e+00,3,1,3.873939e+00,3.874021e+00
3.857347e+00,1.481188e+00,1.453161e+00,3,1,3.609327e+00,3.609327e+00
3.847764e+00,6.252980e-01,5.979538e-01,3,0,2.598881e+00,2.598881e+00
3.874252e+00,1.328802e+00,1.302958e+00,3,1,4.698141e+00,4.697639e+00
7.796933e+00,1.422844e+01,1.419902e+01,6,14,1.197597e+01,1.207031e+01
7.784098e+00,1.167220e+01,1.164103e+01,6,13,6.728040e+00,6.723776e+00
5.176845e+00,6.487250e-01,6.198883e-01,4,0,8.536181e+00,8.536182e+00
3.901797e+00,6.451460e+00,6.424189e+00,3,6,1.099212e+01,1.100447e+01
1.033450e+01,5.790710e+00,5.760908e+00,8,6,5.995136e+00,5.980298e+00
5.152592e+00,6.602410e-01,6.299019e-01,4,0,6.093524e+00,6.093508e+00
3.873179e+00,6.383130e-01,6.110668e-01,3,0,4.089704e+00,4.089704e+00
3.873329e+00,5.501540e-01,5.278587e-01,3,0,3.708844e+00,3.708846e+00
3.874972e+00,6.293910e-01,6.029606e-01,3,0,3.092194e+00,3.092195e+00
3.864060e+00,6.248960e-01,5.989075e-01,3,0,2.425441e+00,2.425441e+00
3.878970e+00,5.957660e-01,5.738735e-01,3,0,1.803063e+00,1.803063e+00
3.872700e+00,5.880660e-01,5.660057e-01,3,0,1.941692e+00,1.941693e+00
3.868129e+00,6.180800e-01,5.929470e-01,3,0,4.353152e+00,4.353157e+00
3.872362e+00,1.352062e+00,1.327038e+00,3,1,3.658480e+00,3.658164e+00
5.181357e+00,1.342897e+00,1.318932e+00,4,1,1.364080e+00,1.364079e+00
3.872467e+00,6.250320e-01,5.979538e-01,3,0,2.361011e+00,2.361013e+00
3.891786e+00,5.455310e-01,5.249977e-01,3,0,2.455755e+00,2.455756e+00
3.867753e+00,6.291740e-01,6.041527e-01,3,0,3.022535e+00,3.022537e+00
3.870157e+00,6.479280e-01,6.220341e-01,3,0,1.788576e+00,1.788577e+00
3.881223e+00,5.722480e-01,5.519390e-01,3,0,1.995499e+00,1.995500e+00
3.872827e+00,5.984990e-01,5.760193e-01,3,0,2.971568e+00,2.971571e+00
3.866929e+00,6.205580e-01,5.960464e-01,3,0,2.725308e+00,2.725308e+00
3.865882e+00,6.285370e-01,6.041527e-01,3,0,1.840622e+00,1.840623e+00
3.874314e+00,5.558550e-01,5.350113e-01,3,0,1.679198e+00,1.679199e+00
3.870552e+00,6.051810e-01,5.819798e-01,3,0,2.019618e+00,2.019619e+00
3.866683e+00,6.235430e-01,5.991459e-01,3,0,4.082909e+00,4.082913e+00
3.867258e+00,1.658640e+00,1.633883e+00,3,1,4.621446e+00,4.621452e+00
3.883372e+00,1.465333e+00,1.441002e+00,3,1,4.576738e+00,4.576739e+00
3.891602e+00,5.720000e-01,5.481243e-01,3,0,3.778982e+00,3.778983e+00
3.879233e+00,6.122500e-01,5.881786e-01,3,0,3.770301e+00,3.770303e+00
3.873338e+00,1.646242e+00,1.621008e+00,3,1,4.168633e+00,4.168637e+00
3.881528e+00,2.502183e+00,2.476931e+00,3,2,4.485210e+00,4.487091e+00
3.866904e+00,1.481491e+00,1.455069e+00,3,1,3.540991e+00,3.540991e+00
3.867851e+00,6.014150e-01,5.769730e-01,3,0,4.427200e+00,4.427202e+00
3.884810e+00,1.530584e+00,1.509190e+00,3,1,5.477882e+00,5.485944e+00
3.902093e+00,7.607067e+00,7.580996e+00,3,7,8.906170e+00,8.932348e+00
7.775537e+00,2.523200e+00,2.492905e+00,6,2,9.669510e+00,9.695647e+00
5.188858e+00,5.845327e+00,5.808830e+00,4,6,4.808811e+00,4.808805e+00
3.894000e+00,6.538010e-01,6.241798e-01,3,0,3.551482e+00,3.551482e+00
3.880380e+00,6.737790e-01,6.470680e-01,3,0,3.414315e+00,3.414317e+00
3.891514e+00,6.312790e-01,6.039143e-01,3,0,3.799390e+00,3.799392e+00
3.880090e+00,6.305280e-01,6.058216e-01,3,0,3.754078e+00,3.754079e+00
5.198646e+00,3.040401e+00,3.009558e+00,4,0,1.154891e+01,3.864730e+01
7.719051e+00,3.030517e+00,2.990484e+00,6,0,1.672569e+01,5.352500e+01
7.734574e+00,3.063288e+00,3.025293e+00,6,0,1.311130e+01,3.300792e+01
1.033407e+01,3.048374e+00,3.011227e+00,8,0,1.279651e+01,3.142828e+01
7.753091e+00,5.546456e+00,5.504847e+00,6,2,1.190215e+01,2.266211e+01
7.742449e+00,3.990188e+00,3.950119e+00,6,0,1.456208e+01,2.740310e+01
5.188387e+00,4.413121e+00,4.382133e+00,4,4,1.206187e+01,1.207426e+01
6.442908e+00,4.753418e+00,4.714966e+00,5,1,1.612955e+01,1.858798e+01
5.179615e+00,3.236792e+00,3.208160e+00,4,3,1.281998e+01,1.281998e+01
3.864000e+00,6.265890e-01,5.989075e-01,3,0,1.095365e+01,1.095365e+01
3.892053e+00,3.631292e+00,3.607988e+00,3,3,8.102391e+00,8.103730e+00
3.882510e+00,4.491481e+00,4.462004e+00,3,4,6.582274e+00,6.590044e+00
3.884553e+00,4.532980e+00,4.503965e+00,3,4,6.002305e+00,6.008663e+00
3.998247e+00,2.449807e+00,2.423048e+00,3,2,4.513115e+00,4.513657e+00
3.879000e+00,1.444939e+00,1.416922e+00,3,1,3.845873e+00,3.845875e+00
3.873213e+00,5.462090e-01,5.221367e-01,3,0,3.722838e+00,3.722840e+00
3.875117e+00,6.097700e-01,5.829334e-01,3,0,2.629667e+00,2.629667e+00
3.874471e+00,6.305280e-01,6.039143e-01,3,0,2.656381e+00,2.656382e+00
3.871181e+00,5.959540e-01,5.738735e-01,3,0,1.850317e+00,1.850318e+00
3.865657e+00,5.864470e-01,5.650520e-01,3,0,1.047555e+00,1.047555e+00
3.870875e+00,6.189830e-01,5.948544e-01,3,0,2.704134e+00,2.704137e+00
3.862784e+00,6.223740e-01,5.960464e-01,3,0,1.254604e+00,1.254603e+00
3.869792e+00,5.451960e-01,5.261898e-01,3,0,8.889712e-01,8.889721e-01
3.866378e+00,6.091740e-01,5.848408e-01,3,0,1.207745e+00,1.207746e+00
3.878561e+00,6.228290e-01,5.989075e-01,3,0,1.064289e+00,1.064290e+00
3.871155e+00,6.319070e-01,6.079674e-01,3,0,1.880616e+00,1.880619e+00
3.875903e+00,5.451490e-01,5.249977e-01,3,0,1.101737e+00,1.101737e+00
3.863842e+00,6.154360e-01,5.919933e-01,3,0,2.770470e+00,2.770473e+00
3.856675e+00,6.160750e-01,5.919933e-01,3,0,2.550560e+00,2.550561e+00
3.867904e+00,6.066530e-01,5.838871e-01,3,0,2.365976e+00,2.365977e+00
3.866235e+00,5.771050e-01,5.550385e-01,3,0,1.558908e+00,1.558908e+00
3.866770e+00,6.256030e-01,5.929470e-01,3,0,2.535408e+00,2.535410e+00
3.864383e+00,6.436050e-01,6.170273e-01,3,0,2.454961e+00,2.454962e+00
3.866817e+00,5.424510e-01,5.218983e-01,3,0,2.626964e+00,2.626965e+00
3.864940e+00,6.119460e-01,5.888939e-01,3,0,2.040742e+00,2.040743e+00
3.866570e+00,6.211400e-01,5.970001e-01,3,0,1.875050e+00,1.875051e+00
3.861086e+00,6.220750e-01,5.979538e-01,3,0,1.587148e+00,1.587149e+00
3.919344e+00,5.466030e-01,5.261898e-01,3,0,1.230955e+00,1.230956e+00
3.873827e+00,6.198240e-01,5.950928e-01,3,0,1.278793e+00,1.278794e+00
3.869728e+00,6.242920e-01,5.991459e-01,3,0,1.022407e+00,1.022408e+00
3.888625e+00,6.255450e-01,6.039143e-01,3,0,1.543585e+00,1.543586e+00
3.869040e+00,5.817400e-01,5.590916e-01,3,0,1.477633e+00,1.477634e+00
3.871019e+00,6.216560e-01,5.979538e-01,3,0,2.805497e+00,2.805500e+00
3.866525e+00,6.280380e-01,6.029606e-01,3,0,3.538421e+00,3.538423e+00
3.882082e+00,1.625065e+00,1.605034e+00,3,1,7.698572e+00,7.700170e+00
3.887763e+00,1.436251e+00,1.411915e+00,3,1,6.636430e+00,6.636430e+00
3.873986e+00,5.920400e-01,5.679131e-01,3,0,3.366050e+00,3.366049e+00
3.872038e+00,6.213420e-01,5.960464e-01,3,0,3.715297e+00,3.715299e+00
3.865165e+00,6.392680e-01,6.120205e-01,3,0,3.973241e+00,3.973243e+00
3.877589e+00,5.404650e-01,5.199909e-01,3,0,4.613007e+00,4.613011e+00
3.871288e+00,6.149580e-01,5.910397e-01,3,0,4.342410e+00,4.342412e+00
3.867857e+00,6.170360e-01,5.919933e-01,3,0,3.700611e+00,3.700613e+00
3.866589e+00,6.184850e-01,5.950928e-01,3,0,4.268945e+00,4.268948e+00
3.869096e+00,5.669490e-01,5.459785e-01,3,0,4.423437e+00,4.423439e+00
3.875820e+00,6.149600e-01,5.900860e-01,3,0,4.586933e+00,4.586934e+00
3.877572e+00,6.282140e-01,6.029606e-01,3,0,5.096225e+00,5.096227e+00
3.871437e+00,5.575730e-01,5.369186e-01,3,0,6.038832e+00,6.038835e+00
3.881116e+00,6.010960e-01,5.779266e-01,3,0,2.306173e+00,2.306172e+00
3.870158e+00,6.239160e-01,5.989075e-01,3,0,2.509675e+00,2.509676e+00
3.869332e+00,6.236420e-01,5.970001e-01,3,0,3.255081e+00,3.255083e+00
3.867889e+00,5.421100e-01,5.218983e-01,3,0,2.127946e+00,2.127946e+00
3.860305e+00,6.226180e-01,5.979538e-01,3,0,1.598678e+00,1.598679e+00
3.864592e+00,6.205990e-01,5.960464e-01,3,0,1.522938e+00,1.522939e+00
3.875072e+00,6.469060e-01,6.229877e-01,3,0,1.566273e+00,1.566274e+00
3.870615e+00,5.576810e-01,5.371571e-01,3,0,1.588308e+00,1.588308e+00
3.862602e+00,6.190190e-01,5.950928e-01,3,0,1.282278e+00,1.282278e+00
3.864196e+00,6.273770e-01,6.029606e-01,3,0,1.709831e+00,1.709833e+00
3.840836e+00,5.657250e-01,5.462170e-01,3,0,2.356897e+00,2.356899e+00
3.867039e+00,5.874100e-01,5.650520e-01,3,0,3.438205e+00,3.438208e+00
3.835631e+00,5.965010e-01,5.729198e-01,3,0,5.105882e+00,5.105886e+00
3.846276e+00,3.638007e+00,3.614902e+00,3,3,1.009198e+01,1.010609e+01
3.861510e+00,6.124676e+00,6.098986e+00,3,6,9.071002e+00,9.073030e+00
5.105145e+00,4.998555e+00,4.972935e+00,4,5,9.122450e+00,9.123463e+00
3.819023e+00,2.307180e+00,2.280951e+00,3,2,8.059125e+00,8.059125e+00
3.816859e+00,5.795860e-01,5.550385e-01,3,0,7.667674e+00,7.667676e+00
3.810188e+00,5.974700e-01,5.707741e-01,3,0,5.890774e+00,5.890774e+00
3.865799e+00,6.052310e-01,5.731583e-01,3,0,5.081142e+00,5.081142e+00
3.832916e+00,5.433240e-01,5.230904e-01,3,0,6.157650e+00,6.157654e+00
3.812660e+00,5.834730e-01,5.600452e-01,3,0,3.648162e+00,3.648162e+00
3.830698e+00,6.249980e-01,5.998611e-01,3,0,4.012717e+00,4.012720e+00
3.812796e+00,5.856060e-01,5.638599e-01,3,0,4.401239e+00,4.401241e+00
3.765111e+00,1.476490e+00,1.456022e+00,3,1,5.999107e+00,5.999127e+00
3.765938e+00,1.408172e+00,1.384974e+00,3,1,3.831817e+00,3.831739e+00
3.752956e+00,5.844890e-01,5.600452e-01,3,0,1.990552e+00,1.990552e+00
3.780312e+00,6.028650e-01,5.781651e-01,3,0,1.533872e+00,1.533872e+00
3.786373e+00,5.617890e-01,5.412102e-01,3,0,1.576811e+00,1.576812e+00
3.842598e+00,5.672900e-01,5.459785e-01,3,0,3.107624e+00,3.107627e+00
3.783289e+00,6.255310e-01,6.008148e-01,3,0,2.469162e+00,2.469162e+00
3.805332e+00,6.494620e-01,6.239414e-01,3,0,2.520327e+00,2.520328e+00
3.824935e+00,5.370640e-01,5.171299e-01,3,0,2.508417e+00,2.508418e+00
3.854962e+00,6.149010e-01,5.819798e-01,3,0,3.208301e+00,3.208302e+00
3.825337e+00,1.324994e+00,1.301050e+00,3,1,8.632316e+00,8.631784e+00
5.107985e+00,1.310108e+00,1.284838e+00,4,1,6.497508e+00,6.497508e+00
3.817359e+00,6.353660e-01,6.079674e-01,3,0,3.725296e+00,3.725296e+00
3.850850e+00,5.720150e-01,5.400181e-01,3,0,3.393167e+00,3.393168e+00
3.812087e+00,5.766740e-01,5.528927e-01,3,0,2.444499e+00,2.444499e+00
3.838973e+00,6.038410e-01,5.788803e-01,3,0,4.077829e+00,4.077833e+00
3.857107e+00,6.378610e-01,6.120205e-01,3,0,5.963876e+00,5.963880e+00
3.833615e+00,5.302610e-01,5.099773e-01,3,0,3.851657e+00,3.851656e+00
3.836258e+00,6.276140e-01,6.051064e-01,3,0,2.903419e+00,2.903419e+00
3.803857e+00,6.240800e-01,6.000996e-01,3,0,2.142724e+00,2.142724e+00
3.839159e+00,6.229900e-01,5.989075e-01,3,0,1.976376e+00,1.976377e+00
3.834538e+00,5.398270e-01,5.190372e-01,3,0,2.216800e+00,2.216804e+00
3.864827e+00,6.000580e-01,5.760193e-01,3,0,2.338784e+00,2.338784e+00
3.834647e+00,6.384690e-01,6.129742e-01,3,0,8.038378e-01,8.038377e-01
3.836619e+00,5.482750e-01,5.280972e-01,3,0,1.025675e+00,1.025676e+00
3.837485e+00,6.189170e-01,5.960464e-01,3,0,9.353343e-01,9.353350e-01
3.803373e+00,6.179900e-01,5.929470e-01,3,0,1.424047e+00,1.424050e+00
3.864809e+00,6.492460e-01,6.091595e-01,3,0,1.090306e+00,1.090306e+00
3.818460e+00,5.298060e-01,5.099773e-01,3,0,6.275622e+00,6.275631e+00
3.830121e+00,5.940520e-01,5.710125e-01,3,0,3.924268e+00,3.924267e+00
3.874534e+00,6.338420e-01,6.091595e-01,3,0,4.911938e+00,4.911940e+00
3.849450e+00,5.912410e-01,5.679131e-01,3,0,2.987617e+00,2.987617e+00
3.833761e+00,5.850640e-01,5.631447e-01,3,0,3.894830e+00,3.894834e+00
3.836580e+00,6.351030e-01,6.110668e-01,3,0,5.026864e+00,5.026867e+00
3.835094e+00,2.632185e+00,2.607107e+00,3,2,7.493912e+00,7.638158e+00
3.847186e+00,4.534690e+00,4.507780e+00,3,4,6.361314e+00,6.396571e+00
7.690903e+00,4.026319e+00,3.999949e+00,6,4,3.643108e+00,3.638009e+00
5.121971e+00,3.358848e+00,3.328085e+00,4,3,6.243747e+00,6.245619e+00
5.134017e+00,3.026029e+00,2.997875e+00,4,3,3.761127e+00,3.761126e+00
3.902107e+00,1.039842e+01,1.036906e+01,3,10,9.011503e+00,9.142908e+00
8.987577e+00,1.030876e+01,1.027894e+01,7,11,6.315722e+00,6.335118e+00
5.130076e+00,3.217496e+00,3.188133e+00,4,3,3.773140e+00,3.773140e+00
3.843750e+00,6.094920e-01,5.819798e-01,3,0,4.914312e+00,4.914316e+00
3.860379e+00,6.249920e-01,5.998611e-01,3,0,4.192922e+00,4.192923e+00
3.789097e+00,6.150300e-01,5.891323e-01,3,0,5.222406e+00,5.222409e+00
3.834242e+00,6.162800e-01,5.888939e-01,3,0,3.406828e+00,3.406829e+00
3.840554e+00,5.282360e-01,5.078316e-01,3,0,2.921190e+00,2.921190e+00
3.813822e+00,5.929720e-01,5.688667e-01,3,0,2.326068e+00,2.326068e+00
3.833240e+00,6.493120e-01,6.241798e-01,3,0,2.257396e+00,2.257397e+00
3.843151e+00,5.963760e-01,5.750656e-01,3,0,2.648310e+00,2.648311e+00
3.869513e+00,5.766730e-01,5.550385e-01,3,0,1.576956e+00,1.576956e+00
3.784891e+00,6.186050e-01,5.941391e-01,3,0,2.046848e+00,2.046850e+00
3.836349e+00,6.127970e-01,5.879402e-01,3,0,1.448918e+00,1.448918e+00
3.850108e+00,5.596030e-01,5.388260e-01,3,0,1.423209e+00,1.423211e+00
3.841644e+00,5.837190e-01,5.609989e-01,3,0,9.476562e-01,9.476568e-01
3.868118e+00,6.297220e-01,6.058216e-01,3,0,2.142607e+00,2.142610e+00
3.841441e+00,6.099290e-01,5.838871e-01,3,0,1.882697e+00,1.882699e+00
3.844006e+00,5.499320e-01,5.300045e-01,3,0,1.556191e+00,1.556192e+00
3.784455e+00,5.936920e-01,5.700588e-01,3,0,3.129242e+00,3.129246e+00
3.833257e+00,6.402120e-01,6.158352e-01,3,0,3.766259e+00,3.766260e+00
3.842447e+00,6.097440e-01,5.879402e-01,3,0,3.189997e+00,3.189997e+00
3.837325e+00,5.429700e-01,5.218983e-01,3,0,3.827248e+00,3.827249e+00
3.831050e+00,6.416840e-01,6.170273e-01,3,0,3.631623e+00,3.631624e+00
3.830752e+00,6.239310e-01,5.991459e-01,3,0,3.761470e+00,3.761471e+00
3.846248e+00,5.785150e-01,5.590916e-01,3,0,4.617822e+00,4.617809e+00
5.066453e+00,1.311000e+00,1.287937e+00,4,1,5.138446e+00,5.137739e+00
5.136303e+00,1.335636e+00,1.310825e+00,4,1,2.774775e+00,2.774773e+00
3.848452e+00,6.058690e-01,5.810261e-01,3,0,3.240882e+00,3.240886e+00
3.836156e+00,6.094110e-01,5.838871e-01,3,0,3.018051e+00,3.018052e+00
3.822071e+00,7.593859e+00,7.567167e+00,3,7,6.125261e+00,6.168451e+00
5.212539e+00,6.461671e+00,6.430149e+00,4,7,4.159384e+00,4.159376e+00
3.912937e+00,3.236958e+00,3.199100e+00,3,3,6.620801e+00,6.614746e+00
6.468079e+00,2.915060e+00,2.877951e+00,5,3,3.441918e+00,3.413201e+00
5.166313e+00,6.654570e-01,6.339550e-01,4,0,2.461978e+00,2.461978e+00
3.879264e+00,6.730430e-01,6.420612e-01,3,0,2.529576e+00,2.529577e+00
3.871925e+00,6.922590e-01,6.599426e-01,3,0,1.690591e+00,1.690591e+00
3.881054e+00,5.887660e-01,5.660057e-01,3,0,2.036742e+00,2.036744e+00
3.879638e+00,6.629810e-01,6.339550e-01,3,0,1.559496e+00,1.559497e+00
3.878915e+00,6.670140e-01,6.377697e-01,3,0,3.832666e+00,3.832671e+00
3.880391e+00,6.508650e-01,6.248951e-01,3,0,4.524415e+00,4.524417e+00
3.901928e+00,6.318710e-01,6.058216e-01,3,0,4.005165e+00,4.005166e+00
3.880098e+00,6.657400e-01,6.370544e-01,3,0,2.780146e+00,2.780145e+00
3.863118e+00,6.609630e-01,6.299019e-01,3,0,4.587536e+00,4.587540e+00
3.877219e+00,6.015140e-01,5.719662e-01,3,0,3.676150e+00,3.676150e+00
3.880675e+00,6.562760e-01,6.289482e-01,3,0,5.215791e+00,5.215794e+00
3.859703e+00,6.527450e-01,6.239414e-01,3,0,5.800993e+00,5.800995e+00
3.873267e+00,6.834410e-01,6.539822e-01,3,0,4.253186e+00,4.253186e+00
3.868649e+00,5.986370e-01,5.750656e-01,3,0,4.168061e+00,4.168062e+00
3.866002e+00,6.534060e-01,6.251335e-01,3,0,2.922177e+00,2.922177e+00
3.868375e+00,6.644350e-01,6.339550e-01,3,0,2.847135e+00,2.847136e+00

