8.823930e-01,8.027290e-01,2,2,0.000000e+00,0.000000e+00
1.304705e+00,1.202908e+00,3,3,7.550078e-02,7.550077e-02
1.300379e+00,1.210873e+00,3,3,1.392706e-01,1.392706e-01
1.303999e+00,1.199477e+00,3,3,2.945231e-01,2.945230e-01
1.296355e+00,1.200433e+00,3,3,2.713983e-01,2.713983e-01
1.325248e+00,1.200031e+00,3,3,1.273066e+00,1.273066e+00
1.298528e+00,1.201952e+00,3,3,1.776988e+00,1.776987e+00
1.303123e+00,1.201861e+00,3,3,2.333710e+00,2.333710e+00
1.301265e+00,1.215586e+00,3,3,1.147661e+00,1.147661e+00
1.299706e+00,1.202781e+00,3,3,1.017220e+00,1.017220e+00
1.299695e+00,1.205664e+00,3,3,8.426457e-01,8.426456e-01
1.303652e+00,1.202649e+00,3,3,9.749332e-01,9.749330e-01
1.300035e+00,1.208699e+00,3,3,1.615443e+00,1.615442e+00
1.300520e+00,1.198051e+00,3,3,2.204132e+00,2.204132e+00
1.301653e+00,1.207829e+00,3,3,2.021057e+00,2.021057e+00
1.298975e+00,1.201983e+00,3,3,2.821884e+00,2.821883e+00
1.299256e+00,1.205968e+00,3,3,2.204836e+00,2.204836e+00
1.299249e+00,1.202238e+00,3,3,1.929722e+00,1.929722e+00
1.301104e+00,1.210689e+00,3,3,1.843490e+00,1.843490e+00
1.300685e+00,1.199891e+00,3,3,1.756232e+00,1.756232e+00
1.301826e+00,1.203601e+00,3,3,1.837166e+00,1.837166e+00
1.299306e+00,1.202023e+00,3,3,1.531560e+00,1.531560e+00
1.303888e+00,1.203308e+00,3,3,1.379545e+00,1.379545e+00
1.299053e+00,1.199456e+00,3,3,1.203360e+00,1.203360e+00
1.302178e+00,1.201068e+00,3,3,1.186874e+00,1.186873e+00
1.298057e+00,1.203131e+00,3,3,1.147252e+00,1.147252e+00
1.302541e+00,1.200155e+00,3,3,9.502009e-01,9.502009e-01
1.300925e+00,1.199310e+00,3,3,6.786570e-01,6.786570e-01
1.304323e+00,1.203445e+00,3,3,3.417595e-01,3.417594e-01
1.296943e+00,1.200335e+00,3,3,2.947097e-01,2.947097e-01
1.303445e+00,1.200218e+00,3,3,5.879488e-01,5.879487e-01
1.298620e+00,1.200020e+00,3,3,6.923793e-01,6.923792e-01
1.305963e+00,1.203275e+00,3,3,5.973160e-01,5.973160e-01
1.297782e+00,1.199286e+00,3,3,9.191548e-01,9.191545e-01
1.304361e+00,1.203469e+00,3,3,7.523447e-01,7.523447e-01
1.302354e+00,1.203513e+00,3,3,5.554150e-01,5.554151e-01
1.303889e+00,1.201486e+00,3,3,4.065824e-01,4.065823e-01
1.298388e+00,1.199923e+00,3,3,3.366953e-01,3.366952e-01
1.305120e+00,1.202286e+00,3,3,8.576678e-01,8.576676e-01
1.301659e+00,1.199208e+00,3,3,9.477144e-01,9.477143e-01
1.305628e+00,1.201164e+00,3,3,2.135459e+00,2.135458e+00
1.299535e+00,1.202089e+00,3,3,2.923777e+00,2.923776e+00
1.302408e+00,1.202694e+00,3,3,1.852391e+00,1.852392e+00
1.301518e+00,1.203469e+00,3,3,2.799191e+00,2.799190e+00
1.300116e+00,1.202956e+00,3,3,2.238454e+00,2.238454e+00
1.300417e+00,1.204364e+00,3,3,1.810533e+00,1.810533e+00
1.300404e+00,1.201208e+00,3,3,1.622085e+00,1.622085e+00
1.299762e+00,1.206937e+00,3,3,1.346987e+00,1.346987e+00
1.297559e+00,1.203608e+00,3,3,1.082154e+00,1.082154e+00
1.300529e+00,1.204007e+00,3,3,6.894114e-01,6.894114e-01
1.298117e+00,1.201655e+00,3,3,6.183574e-01,6.183573e-01
1.297269e+00,1.207877e+00,3,3,9.842941e-01,9.842938e-01
1.298060e+00,1.200656e+00,3,3,7.187417e-01,7.187417e-01
1.298682e+00,1.202986e+00,3,3,6.126999e-01,6.126999e-01
1.299120e+00,1.201607e+00,3,3,8.099082e-01,8.099080e-01
1.297370e+00,1.207907e+00,3,3,1.111553e+00,1.111553e+00
1.301081e+00,1.201048e+00,3,3,6.013858e-01,6.013860e-01
1.298606e+00,1.203603e+00,3,3,9.270743e-01,9.270741e-01
1.298076e+00,1.200121e+00,3,3,1.309008e+00,1.309008e+00
1.299305e+00,1.205393e+00,3,3,1.972319e+00,1.972319e+00
1.298042e+00,1.202662e+00,3,3,8.945292e-01,8.945291e-01
1.302541e+00,1.201928e+00,3,3,1.934340e+00,1.934339e+00
1.300886e+00,1.201761e+00,3,3,3.643563e+00,3.643561e+00
1.303679e+00,1.198485e+00,3,3,1.981067e+00,1.981068e+00
1.301449e+00,1.201802e+00,3,3,2.723415e+00,2.723415e+00
1.306121e+00,1.201969e+00,3,3,1.180076e+00,1.180076e+00
1.298027e+00,1.202705e+00,3,3,1.263674e+00,1.263674e+00
1.304034e+00,1.201149e+00,3,3,9.874007e-01,9.874006e-01
1.299574e+00,1.201879e+00,3,3,7.762666e-01,7.762665e-01
1.305891e+00,1.199693e+00,3,3,5.934270e-01,5.934269e-01
1.300290e+00,1.200715e+00,3,3,8.843576e-01,8.843575e-01
1.304265e+00,1.200637e+00,3,3,9.026865e-01,9.026864e-01
1.299539e+00,1.202191e+00,3,3,9.150988e-01,9.150987e-01
1.302801e+00,1.201809e+00,3,3,1.030915e+00,1.030914e+00
1.299648e+00,1.200645e+00,3,3,1.502469e+00,1.502469e+00
1.303959e+00,1.199712e+00,3,3,2.017975e+00,2.017975e+00
1.301385e+00,1.199650e+00,3,3,1.216816e+00,1.216816e+00
1.302928e+00,1.200913e+00,3,3,1.212940e+00,1.212940e+00
1.300846e+00,1.203695e+00,3,3,8.961043e-01,8.961044e-01
1.304754e+00,1.201656e+00,3,3,4.427208e-01,4.427209e-01
1.299011e+00,1.198814e+00,3,3,1.517221e+00,1.517220e+00
1.301721e+00,1.193006e+00,3,3,1.123792e+00,1.123792e+00
1.295695e+00,1.193990e+00,3,3,1.006887e+00,1.006887e+00
1.299847e+00,1.192581e+00,3,3,9.700708e-01,9.700706e-01
1.293980e+00,1.193303e+00,3,3,1.391503e+00,1.391502e+00
1.301433e+00,1.193436e+00,3,3,2.499394e+00,2.499393e+00
1.296368e+00,1.193500e+00,3,3,3.745386e+00,3.745386e+00
1.301253e+00,1.192639e+00,3,3,5.467228e+00,5.467227e+00
1.297134e+00,1.195514e+00,3,3,4.448808e+00,4.448808e+00
1.302514e+00,1.192568e+00,3,3,3.175237e+00,3.175237e+00
1.296312e+00,1.195051e+00,3,3,2.447584e+00,2.447584e+00
1.299764e+00,1.193132e+00,3,3,1.717504e+00,1.717504e+00
1.294826e+00,1.193682e+00,3,3,2.426209e+00,2.426208e+00
1.299382e+00,1.193995e+00,3,3,1.804372e+00,1.804372e+00
1.296629e+00,1.191770e+00,3,3,2.324896e+00,2.324897e+00
1.300061e+00,1.196084e+00,3,3,2.510537e+00,2.510538e+00
1.298152e+00,1.193975e+00,3,3,1.086454e+00,1.086455e+00
1.296856e+00,1.196719e+00,3,3,9.410226e-01,9.410226e-01
1.298640e+00,1.198617e+00,3,3,1.324946e+00,1.324945e+00
1.297674e+00,1.193730e+00,3,3,1.421946e+00,1.421946e+00
1.296901e+00,1.196845e+00,3,3,1.071994e+00,1.071994e+00
1.296891e+00,1.193370e+00,3,3,1.242755e+00,1.242755e+00
1.296657e+00,1.200064e+00,3,3,7.251480e-01,7.251480e-01
1.296346e+00,1.197248e+00,3,3,6.598995e-01,6.598994e-01
1.300408e+00,1.208744e+00,3,3,5.463697e-01,5.463697e-01
1.299564e+00,1.204438e+00,3,3,5.799359e-01,5.799358e-01
1.298804e+00,1.207392e+00,3,3,8.098027e-01,8.098025e-01
1.301603e+00,1.203530e+00,3,3,8.837597e-01,8.837596e-01
1.300031e+00,1.206283e+00,3,3,5.686046e-01,5.686047e-01
1.299876e+00,1.205241e+00,3,3,5.739388e-01,5.739387e-01
1.299642e+00,1.209541e+00,3,3,5.300203e-01,5.300202e-01
1.301027e+00,1.202353e+00,3,3,4.514162e-01,4.514161e-01
1.300099e+00,1.208622e+00,3,3,3.144383e-01,3.144383e-01
1.300553e+00,1.203269e+00,3,3,5.546371e-01,5.546369e-01
1.302222e+00,1.205642e+00,3,3,2.939834e-01,2.939834e-01
1.298069e+00,1.199390e+00,3,3,3.394433e-01,3.394433e-01
1.303680e+00,1.199010e+00,3,3,8.794453e-01,8.794450e-01
1.295878e+00,1.196225e+00,3,3,6.413848e-01,6.413848e-01
1.301106e+00,1.203109e+00,3,3,2.066182e+00,2.066181e+00
1.302113e+00,1.202479e+00,3,3,1.433950e+00,1.433950e+00
1.307393e+00,1.201530e+00,3,3,1.389161e+00,1.389161e+00
1.299307e+00,1.203784e+00,3,3,1.730335e+00,1.730334e+00
1.303964e+00,1.198500e+00,3,3,1.562355e+00,1.562355e+00
1.296362e+00,1.201645e+00,3,3,1.720593e+00,1.720593e+00
1.303186e+00,1.197964e+00,3,3,3.036876e+00,3.036875e+00
1.298212e+00,1.191860e+00,3,3,1.973471e+00,1.973472e+00
1.302567e+00,1.200181e+00,3,3,1.500746e+00,1.500746e+00
1.296411e+00,1.193857e+00,3,3,1.308689e+00,1.308689e+00
1.301251e+00,1.195168e+00,3,3,7.826753e-01,7.826750e-01
1.297808e+00,1.193081e+00,3,3,8.587389e-01,8.587386e-01
1.301880e+00,1.195468e+00,3,3,5.384690e-01,5.384689e-01
1.294962e+00,1.195931e+00,3,3,7.085613e-01,7.085612e-01
1.300607e+00,1.193443e+00,3,3,3.165290e-01,3.165290e-01
1.295146e+00,1.192477e+00,3,3,2.574300e-01,2.574300e-01
1.298508e+00,1.197747e+00,3,3,2.646273e-01,2.646273e-01
1.295840e+00,1.193800e+00,3,3,5.743972e-01,5.743969e-01
1.299879e+00,1.193592e+00,3,3,5.926450e-01,5.926449e-01
1.295962e+00,1.201562e+00,3,3,5.020436e-01,5.020435e-01
1.299452e+00,1.194866e+00,3,3,5.469793e-01,5.469792e-01
1.299122e+00,1.197412e+00,3,3,4.634504e-01,4.634504e-01
1.300093e+00,1.195165e+00,3,3,8.639298e-01,8.639295e-01
1.296266e+00,1.192082e+00,3,3,1.472558e+00,1.472558e+00
1.301709e+00,1.194105e+00,3,3,1.663320e+00,1.663320e+00
1.296661e+00,1.196353e+00,3,3,1.301928e+00,1.301928e+00
1.300943e+00,1.194069e+00,3,3,1.158772e+00,1.158772e+00
1.297011e+00,1.191078e+00,3,3,1.071729e+00,1.071729e+00
1.301111e+00,1.193296e+00,3,3,7.688698e-01,7.688700e-01
1.296837e+00,1.195393e+00,3,3,6.760058e-01,6.760053e-01
1.301240e+00,1.193575e+00,3,3,1.190080e+00,1.190080e+00
1.296887e+00,1.194726e+00,3,3,1.702830e+00,1.702830e+00
1.301571e+00,1.194047e+00,3,3,1.040863e+00,1.040863e+00
1.296417e+00,1.194398e+00,3,3,9.853935e-01,9.853934e-01
1.300412e+00,1.195008e+00,3,3,8.851255e-01,8.851254e-01
1.296095e+00,1.195693e+00,3,3,8.116157e-01,8.116157e-01
1.301003e+00,1.196208e+00,3,3,6.690446e-01,6.690445e-01
1.295560e+00,1.195291e+00,3,3,7.522641e-01,7.522640e-01
1.299555e+00,1.194534e+00,3,3,1.229020e+00,1.229019e+00
1.297100e+00,1.197673e+00,3,3,1.181290e+00,1.181290e+00
1.300186e+00,1.196822e+00,3,3,1.251217e+00,1.251217e+00
1.297013e+00,1.195701e+00,3,3,1.419613e+00,1.419613e+00
1.303517e+00,1.196782e+00,3,3,6.497962e-01,6.497962e-01
1.296316e+00,1.193749e+00,3,3,5.195459e-01,5.195458e-01
1.298866e+00,1.192623e+00,3,3,5.445820e-01,5.445818e-01
1.297085e+00,1.195229e+00,3,3,2.469490e-01,2.469489e-01
1.298940e+00,1.195661e+00,3,3,2.486740e-01,2.486740e-01
1.294770e+00,1.193807e+00,3,3,4.252994e-01,4.252993e-01
1.300112e+00,1.195350e+00,3,3,3.624122e-01,3.624122e-01
1.296289e+00,1.193294e+00,3,3,9.756999e-01,9.756994e-01
1.301342e+00,1.195522e+00,3,3,7.256290e-01,7.256289e-01
1.294176e+00,1.192387e+00,3,3,5.132352e-01,5.132352e-01
1.300798e+00,1.196655e+00,3,3,4.574957e-01,4.574957e-01
1.295372e+00,1.196144e+00,3,3,4.658428e-01,4.658427e-01
1.299544e+00,1.197050e+00,3,3,4.788151e-01,4.788150e-01
1.296517e+00,1.194633e+00,3,3,3.025519e-01,3.025518e-01
1.299746e+00,1.194871e+00,3,3,3.391366e-01,3.391365e-01
1.296212e+00,1.194632e+00,3,3,2.776732e-01,2.776732e-01
1.299714e+00,1.193668e+00,3,3,2.396825e-01,2.396825e-01
1.294284e+00,1.194399e+00,3,3,6.453740e-01,6.453736e-01
1.301302e+00,1.193451e+00,3,3,4.078096e-01,4.078095e-01
1.294786e+00,1.196241e+00,3,3,6.451532e-01,6.451530e-01
1.300021e+00,1.194011e+00,3,3,1.041233e+00,1.041233e+00
1.296715e+00,1.195897e+00,3,3,8.921139e-01,8.921137e-01
1.296074e+00,1.194487e+00,3,3,1.011426e+00,1.011426e+00
1.296748e+00,1.193950e+00,3,3,7.101068e-01,7.101069e-01
1.296675e+00,1.194697e+00,3,3,7.095861e-01,7.095860e-01
1.296172e+00,1.198248e+00,3,3,8.113130e-01,8.113128e-01
1.295992e+00,1.198398e+00,3,3,1.780394e+00,1.780393e+00
1.297900e+00,1.199845e+00,3,3,2.358464e+00,2.358463e+00
1.297733e+00,1.196231e+00,3,3,2.090871e+00,2.090871e+00
1.297543e+00,1.198844e+00,3,3,1.699954e+00,1.699954e+00
1.296654e+00,1.194791e+00,3,3,1.570483e+00,1.570483e+00
1.297732e+00,1.198612e+00,3,3,1.068078e+00,1.068078e+00
1.296335e+00,1.192889e+00,3,3,1.056222e+00,1.056222e+00
1.295587e+00,1.198836e+00,3,3,1.037597e+00,1.037597e+00
1.295135e+00,1.194788e+00,3,3,7.960545e-01,7.960545e-01
1.296318e+00,1.198361e+00,3,3,7.037016e-01,7.037016e-01
1.295971e+00,1.194068e+00,3,3,1.429994e+00,1.429994e+00
1.297589e+00,1.198562e+00,3,3,2.977884e+00,2.977884e+00
1.297282e+00,1.193340e+00,3,3,3.030434e+00,3.030451e+00
1.297056e+00,1.199154e+00,3,3,3.057134e+00,3.057135e+00
1.297575e+00,1.197170e+00,3,3,3.564808e+00,3.564808e+00
1.297973e+00,1.198109e+00,3,3,5.101268e+00,5.101266e+00
1.298019e+00,1.194372e+00,3,3,3.274938e+00,3.274939e+00
1.297510e+00,1.201035e+00,3,3,3.996123e+00,3.996123e+00
1.297496e+00,1.197675e+00,3,3,3.084262e+00,3.084262e+00
1.296975e+00,1.199282e+00,3,3,2.879089e+00,2.879088e+00
1.298483e+00,1.193541e+00,3,3,1.979207e+00,1.979207e+00
1.297089e+00,1.200294e+00,3,3,2.492069e+00,2.492068e+00
1.298110e+00,1.193969e+00,3,3,1.675417e+00,1.675418e+00
1.298082e+00,1.198307e+00,3,3,2.167981e+00,2.167981e+00
1.298924e+00,1.197576e+00,3,3,7.076937e-01,7.076938e-01
1.295019e+00,1.199027e+00,3,3,9.244447e-01,9.244444e-01
1.294891e+00,1.194289e+00,3,3,1.789691e+00,1.789690e+00
1.297171e+00,1.198531e+00,3,3,1.379265e+00,1.379265e+00
1.297900e+00,1.198886e+00,3,3,2.179142e+00,2.179142e+00
1.297647e+00,1.200647e+00,3,3,1.933634e+00,1.933634e+00
1.297829e+00,1.196031e+00,3,3,3.261526e+00,3.261526e+00
1.298567e+00,1.199331e+00,3,3,1.684841e+00,1.684842e+00
1.298085e+00,1.194096e+00,3,3,1.407010e+00,1.407010e+00
1.297685e+00,1.209316e+00,3,3,1.099238e+00,1.099238e+00
1.296503e+00,1.198212e+00,3,3,1.105764e+00,1.105764e+00
1.297037e+00,1.198662e+00,3,3,1.176464e+00,1.176463e+00
1.298382e+00,1.200274e+00,3,3,1.765584e+00,1.765583e+00
1.298058e+00,1.201475e+00,3,3,7.981748e-01,7.981751e-01
1.296706e+00,1.194198e+00,3,3,5.276609e-01,5.276609e-01
1.294030e+00,1.198497e+00,3,3,5.993494e-01,5.993493e-01
1.296623e+00,1.197181e+00,3,3,5.737398e-01,5.737396e-01
1.300241e+00,1.195005e+00,3,3,4.466774e-01,4.466774e-01
1.296149e+00,1.196298e+00,3,3,7.208877e-01,7.208874e-01
1.302160e+00,1.194678e+00,3,3,1.053741e+00,1.053741e+00
1.296262e+00,1.198057e+00,3,3,1.601705e+00,1.601704e+00
1.300818e+00,1.195497e+00,3,3,3.475975e+00,3.475974e+00
1.299272e+00,1.196667e+00,3,3,4.511358e+00,4.511357e+00
1.302081e+00,1.195389e+00,3,3,3.067479e+00,3.067479e+00
1.298452e+00,1.196425e+00,3,3,3.786192e+00,3.786191e+00
1.302611e+00,1.194281e+00,3,3,2.733514e+00,2.733514e+00
1.297446e+00,1.195680e+00,3,3,2.170624e+00,2.170624e+00
1.300844e+00,1.194808e+00,3,3,2.416048e+00,2.416048e+00
1.297761e+00,1.196270e+00,3,3,1.308537e+00,1.308537e+00
1.300988e+00,1.194366e+00,3,3,9.979647e-01,9.979641e-01
1.296374e+00,1.195445e+00,3,3,7.687011e-01,7.687011e-01
1.299301e+00,1.195457e+00,3,3,7.203361e-01,7.203360e-01
1.295226e+00,1.194298e+00,3,3,6.842866e-01,6.842865e-01
1.299877e+00,1.193556e+00,3,3,1.062648e+00,1.062647e+00
1.298407e+00,1.196035e+00,3,3,3.637674e-01,3.637675e-01
1.299018e+00,1.193647e+00,3,3,1.457888e+00,1.457887e+00
1.298440e+00,1.194463e+00,3,3,3.220380e+00,3.220378e+00
1.301982e+00,1.195233e+00,3,3,1.883266e+00,1.883266e+00
1.297658e+00,1.193878e+00,3,3,1.345904e+00,1.345904e+00
1.299366e+00,1.196293e+00,3,3,1.103810e+00,1.103810e+00
1.297193e+00,1.200669e+00,3,3,9.378064e-01,9.378064e-01
1.305516e+00,1.200239e+00,3,3,8.789548e-01,8.789547e-01
1.300804e+00,1.203485e+00,3,3,1.483283e+00,1.483282e+00
1.306258e+00,1.203885e+00,3,3,1.147227e+00,1.147227e+00
1.301388e+00,1.199388e+00,3,3,8.251891e-01,8.251891e-01
1.302945e+00,1.203922e+00,3,3,9.187775e-01,9.187774e-01
1.301491e+00,1.203947e+00,3,3,1.574782e+00,1.574781e+00
1.306149e+00,1.194328e+00,3,3,2.551205e+00,2.551204e+00
1.297425e+00,1.195462e+00,3,3,4.641632e+00,4.641630e+00
1.303522e+00,1.196726e+00,3,3,5.666045e+00,5.666043e+00
1.298838e+00,1.194918e+00,3,3,5.120493e+00,5.120494e+00
1.304266e+00,1.192210e+00,3,3,5.371596e+00,5.371596e+00
1.298412e+00,1.195418e+00,3,3,4.529396e+00,4.529396e+00
1.302315e+00,1.196708e+00,3,3,4.762754e+00,4.762753e+00
1.300383e+00,1.196758e+00,3,3,4.756523e+00,4.756522e+00
1.301941e+00,1.194536e+00,3,3,3.921165e+00,3.921166e+00
1.298874e+00,1.203750e+00,3,3,3.380775e+00,3.380775e+00
1.307382e+00,1.199521e+00,3,3,2.601331e+00,2.601331e+00
1.302409e+00,1.205319e+00,3,3,2.369196e+00,2.369196e+00
1.300784e+00,1.205430e+00,3,3,2.382191e+00,2.382191e+00
1.302267e+00,1.208955e+00,3,3,3.050269e+00,3.050271e+00
1.297130e+00,1.201492e+00,3,3,5.477040e+00,5.475979e+00
2.597176e+00,2.400770e+00,6,6,5.722753e+00,5.720656e+00
2.157749e+00,1.987791e+00,5,5,6.271918e+00,6.271702e+00
1.729002e+00,1.596198e+00,4,4,5.319746e+00,5.319746e+00
1.298634e+00,1.194509e+00,3,3,5.356166e+00,5.356167e+00
1.297742e+00,1.199189e+00,3,3,6.532999e+00,6.532998e+00
1.299191e+00,1.196623e+00,3,3,6.052419e+00,6.052419e+00
1.299339e+00,1.201708e+00,3,3,5.042841e+00,5.042841e+00
1.301147e+00,1.195605e+00,3,3,4.255239e+00,4.255239e+00
1.297488e+00,1.200552e+00,3,3,3.770938e+00,3.770938e+00
1.297081e+00,1.195952e+00,3,3,3.229171e+00,3.229171e+00
1.297637e+00,1.199980e+00,3,3,2.964221e+00,2.964221e+00
1.298917e+00,1.191098e+00,3,3,3.077434e+00,3.077434e+00
1.298359e+00,1.200638e+00,3,3,1.693697e+00,1.693697e+00
1.298017e+00,1.194766e+00,3,3,1.470553e+00,1.470553e+00
1.296704e+00,1.196914e+00,3,3,1.627839e+00,1.627839e+00
1.297183e+00,1.196826e+00,3,3,1.125980e+00,1.125980e+00
1.299546e+00,1.198980e+00,3,3,9.507674e-01,9.507674e-01
1.296415e+00,1.195756e+00,3,3,7.733032e-01,7.733031e-01
1.295416e+00,1.197558e+00,3,3,4.924485e-01,4.924485e-01
1.295142e+00,1.196338e+00,3,3,3.696617e-01,3.696615e-01
1.306104e+00,1.198644e+00,3,3,2.802130e-01,2.802129e-01
1.293770e+00,1.195304e+00,3,3,3.976739e-01,3.976738e-01
1.295321e+00,1.198039e+00,3,3,5.342369e-01,5.342368e-01
1.295845e+00,1.191617e+00,3,3,3.596130e-01,3.596130e-01
1.295525e+00,1.200355e+00,3,3,4.029730e-01,4.029728e-01
1.294852e+00,1.195589e+00,3,3,1.111065e+00,1.111064e+00
1.295827e+00,1.197562e+00,3,3,2.508753e+00,2.508752e+00
1.297968e+00,1.195384e+00,3,3,3.416436e+00,3.416435e+00
1.298341e+00,1.201155e+00,3,3,2.873442e+00,2.873442e+00
1.298071e+00,1.195125e+00,3,3,3.103727e+00,3.103726e+00
1.297920e+00,1.197979e+00,3,3,3.020686e+00,3.020686e+00
1.297711e+00,1.194445e+00,3,3,2.668741e+00,2.668741e+00
1.297665e+00,1.197577e+00,3,3,2.107371e+00,2.107371e+00
1.297693e+00,1.197835e+00,3,3,2.065761e+00,2.065761e+00
1.295785e+00,1.198445e+00,3,3,3.668475e+00,3.668474e+00
1.298840e+00,1.197199e+00,3,3,4.741019e+00,4.741018e+00
1.297555e+00,1.197869e+00,3,3,5.599301e+00,5.599301e+00
1.299500e+00,1.198827e+00,3,3,4.565831e+00,4.565832e+00
1.301335e+00,1.197314e+00,3,3,3.484034e+00,3.484035e+00
1.298013e+00,1.197746e+00,3,3,2.549248e+00,2.549248e+00
1.300047e+00,1.197089e+00,3,3,2.078089e+00,2.078089e+00
1.298603e+00,1.196936e+00,3,3,2.751482e+00,2.751480e+00
1.303225e+00,1.194666e+00,3,3,2.744215e+00,2.744215e+00
1.298521e+00,1.197792e+00,3,3,2.066328e+00,2.066328e+00
1.304195e+00,1.196683e+00,3,3,2.023031e+00,2.023031e+00
1.298087e+00,1.195268e+00,3,3,2.328000e+00,2.328045e+00
1.302651e+00,1.196107e+00,3,3,2.420089e+00,2.420091e+00
1.299090e+00,1.195203e+00,3,3,2.965939e+00,2.965938e+00
1.302757e+00,1.195370e+00,3,3,2.358325e+00,2.358325e+00
1.297858e+00,1.193738e+00,3,3,3.078846e+00,3.078845e+00
1.307667e+00,1.198376e+00,3,3,3.035389e+00,3.035389e+00
1.300153e+00,1.194278e+00,3,3,2.537495e+00,2.537495e+00
1.301557e+00,1.194678e+00,3,3,2.097296e+00,2.097296e+00
1.298015e+00,1.192689e+00,3,3,2.204030e+00,2.204029e+00
1.301909e+00,1.198540e+00,3,3,2.213155e+00,2.213155e+00
1.297678e+00,1.193780e+00,3,3,1.633975e+00,1.633976e+00
1.302231e+00,1.193635e+00,3,3,1.634336e+00,1.634336e+00
1.298405e+00,1.195491e+00,3,3,1.069710e+00,1.069710e+00
1.301113e+00,1.196870e+00,3,3,8.811089e-01,8.811089e-01
1.298949e+00,1.194500e+00,3,3,5.653318e-01,5.653318e-01
1.299379e+00,1.197772e+00,3,3,3.817907e-01,3.817907e-01
1.297141e+00,1.194525e+00,3,3,2.167704e-01,2.167704e-01
1.299148e+00,1.197329e+00,3,3,4.084118e-01,4.084117e-01
1.295257e+00,1.192766e+00,3,3,2.304339e-01,2.304339e-01
1.299835e+00,1.194861e+00,3,3,2.223581e-01,2.223580e-01
1.295500e+00,1.193915e+00,3,3,1.345786e-01,1.345785e-01
1.298514e+00,1.190771e+00,3,3,1.478643e-01,1.478643e-01
1.295229e+00,1.192825e+00,3,3,1.320517e-01,1.320517e-01
1.299031e+00,1.194449e+00,3,3,3.256077e-01,3.256076e-01
1.296920e+00,1.191997e+00,3,3,2.501675e-01,2.501674e-01
1.300280e+00,1.193202e+00,3,3,2.692769e-01,2.692768e-01
1.295931e+00,1.196254e+00,3,3,5.432110e-01,5.432108e-01
1.301007e+00,1.194480e+00,3,3,2.974375e-01,2.974376e-01
1.294372e+00,1.193849e+00,3,3,4.238974e-01,4.238973e-01
1.300676e+00,1.195250e+00,3,3,4.287167e-01,4.287167e-01
1.297722e+00,1.193525e+00,3,3,7.229803e-01,7.229801e-01
1.301120e+00,1.195685e+00,3,3,5.510776e-01,5.510776e-01
1.295213e+00,1.194402e+00,3,3,3.622927e-01,3.622927e-01
1.300463e+00,1.194847e+00,3,3,2.656213e-01,2.656213e-01
1.295518e+00,1.193811e+00,3,3,3.561040e-01,3.561039e-01
1.298992e+00,1.191802e+00,3,3,3.279824e-01,3.279824e-01
1.295088e+00,1.194227e+00,3,3,2.648477e-01,2.648477e-01
1.298742e+00,1.195090e+00,3,3,4.634970e-01,4.634969e-01
1.296981e+00,1.195940e+00,3,3,3.514571e-01,3.514571e-01
1.300446e+00,1.194842e+00,3,3,5.222573e-01,5.222572e-01
1.295566e+00,1.192987e+00,3,3,9.238566e-01,9.238563e-01
1.301983e+00,1.194508e+00,3,3,8.099784e-01,8.099782e-01
1.295905e+00,1.194150e+00,3,3,7.169344e-01,7.169343e-01
1.300657e+00,1.194040e+00,3,3,1.639446e+00,1.639445e+00
1.298187e+00,1.195968e+00,3,3,1.991770e+00,1.991769e+00
1.302422e+00,1.196115e+00,3,3,1.134497e+00,1.134498e+00
1.296875e+00,1.194637e+00,3,3,8.490539e-01,8.490540e-01
1.302177e+00,1.198897e+00,3,3,6.528362e-01,6.528361e-01
1.295895e+00,1.193418e+00,3,3,4.365836e-01,4.365836e-01
1.301203e+00,1.196172e+00,3,3,3.856166e-01,3.856166e-01
1.295535e+00,1.195105e+00,3,3,5.535294e-01,5.535293e-01
1.300994e+00,1.195684e+00,3,3,5.301530e-01,5.301530e-01
1.297686e+00,1.195261e+00,3,3,2.629657e-01,2.629655e-01
1.297941e+00,1.195935e+00,3,3,7.146291e-01,7.146289e-01
1.296360e+00,1.195171e+00,3,3,3.975615e-01,3.975615e-01
1.299396e+00,1.194855e+00,3,3,3.522738e-01,3.522737e-01
1.300141e+00,1.196508e+00,3,3,4.913079e-01,4.913078e-01
1.301303e+00,1.193807e+00,3,3,4.026741e-01,4.026741e-01
1.295482e+00,1.196144e+00,3,3,4.729994e-01,4.729994e-01
1.299514e+00,1.195537e+00,3,3,6.022197e-01,6.022196e-01
1.296836e+00,1.194473e+00,3,3,4.750531e-01,4.750531e-01
1.299178e+00,1.194054e+00,3,3,4.940496e-01,4.940494e-01
1.296156e+00,1.195253e+00,3,3,6.162175e-01,6.162174e-01
1.301596e+00,1.194606e+00,3,3,7.563857e-01,7.563855e-01
1.297798e+00,1.193609e+00,3,3,1.134037e+00,1.134037e+00
1.301430e+00,1.194704e+00,3,3,7.859842e-01,7.859843e-01
1.297205e+00,1.195959e+00,3,3,7.528195e-01,7.528192e-01
1.304376e+00,1.193611e+00,3,3,7.290524e-01,7.290524e-01
1.298208e+00,1.193148e+00,3,3,7.901867e-01,7.901866e-01
1.299441e+00,1.197217e+00,3,3,6.541683e-01,6.541683e-01
1.297064e+00,1.198558e+00,3,3,1.113056e+00,1.113056e+00
1.296615e+00,1.195694e+00,3,3,8.276499e-01,8.276499e-01
1.296259e+00,1.199458e+00,3,3,7.750368e-01,7.750368e-01
1.295864e+00,1.195799e+00,3,3,7.599414e-01,7.599413e-01
1.295941e+00,1.198397e+00,3,3,6.882507e-01,6.882507e-01
1.294105e+00,1.194753e+00,3,3,4.927906e-01,4.927906e-01
1.294118e+00,1.198419e+00,3,3,6.018291e-01,6.018289e-01
1.295747e+00,1.193193e+00,3,3,6.785708e-01,6.785707e-01
1.296098e+00,1.197143e+00,3,3,4.669021e-01,4.669021e-01
1.296306e+00,1.195681e+00,3,3,8.774901e-01,8.774898e-01
1.296928e+00,1.201388e+00,3,3,6.180020e-01,6.180020e-01
1.298929e+00,1.194340e+00,3,3,5.639593e-01,5.639593e-01
1.295902e+00,1.196979e+00,3,3,5.055512e-01,5.055511e-01
1.295471e+00,1.192707e+00,3,3,3.969552e-01,3.969551e-01
1.297074e+00,1.199659e+00,3,3,2.922041e-01,2.922040e-01
1.295245e+00,1.195705e+00,3,3,5.790766e-01,5.790764e-01
1.296759e+00,1.196420e+00,3,3,4.992791e-01,4.992791e-01
1.294763e+00,1.198055e+00,3,3,5.070441e-01,5.070440e-01
1.297107e+00,1.197887e+00,3,3,4.744146e-01,4.744145e-01
1.296762e+00,1.194395e+00,3,3,3.693220e-01,3.693219e-01
1.294648e+00,1.198617e+00,3,3,4.435144e-01,4.435144e-01
1.295386e+00,1.194411e+00,3,3,3.438318e-01,3.438318e-01
1.295506e+00,1.198282e+00,3,3,1.450781e+00,1.450780e+00
1.304879e+00,1.193890e+00,3,3,3.212625e+00,3.212623e+00
1.305320e+00,1.200099e+00,3,3,2.417518e+00,2.417518e+00
1.298036e+00,1.195799e+00,3,3,1.725542e+00,1.725542e+00
1.299743e+00,1.199745e+00,3,3,1.265116e+00,1.265116e+00
1.296890e+00,1.197114e+00,3,3,1.369624e+00,1.369624e+00
1.296921e+00,1.201839e+00,3,3,1.081819e+00,1.081819e+00
1.295825e+00,1.195292e+00,3,3,1.045649e+00,1.045649e+00
1.296847e+00,1.197549e+00,3,3,1.257681e+00,1.257680e+00
1.296503e+00,1.196087e+00,3,3,1.433584e+00,1.433584e+00
1.297318e+00,1.201052e+00,3,3,1.311727e+00,1.311727e+00
1.295447e+00,1.194812e+00,3,3,1.396585e+00,1.396585e+00
1.295268e+00,1.201025e+00,3,3,1.860545e+00,1.860545e+00
1.297255e+00,1.193886e+00,3,3,1.373918e+00,1.373918e+00
1.297654e+00,1.198868e+00,3,3,9.316925e-01,9.316925e-01
1.297395e+00,1.194663e+00,3,3,5.521379e-01,5.521380e-01
1.298225e+00,1.197123e+00,3,3,3.686997e-01,3.686997e-01
1.296612e+00,1.197153e+00,3,3,2.890579e-01,2.890578e-01
1.293202e+00,1.199434e+00,3,3,3.974289e-01,3.974288e-01
1.296772e+00,1.195429e+00,3,3,2.810356e-01,2.810356e-01
1.294638e+00,1.199782e+00,3,3,4.696349e-01,4.696348e-01
1.297337e+00,1.195260e+00,3,3,4.989981e-01,4.989980e-01
1.295714e+00,1.200665e+00,3,3,4.636613e-01,4.636613e-01
1.299304e+00,1.195457e+00,3,3,5.965577e-01,5.965575e-01
1.296852e+00,1.196871e+00,3,3,3.326713e-01,3.326713e-01
1.296377e+00,1.196493e+00,3,3,2.696447e-01,2.696447e-01
1.295872e+00,1.199828e+00,3,3,1.432083e+00,1.432082e+00
1.297937e+00,1.195073e+00,3,3,1.492267e+00,1.492267e+00
1.297015e+00,1.197752e+00,3,3,7.257015e-01,7.257016e-01
1.295407e+00,1.197190e+00,3,3,7.163307e-01,7.163306e-01
1.294395e+00,1.198820e+00,3,3,6.274545e-01,6.274545e-01
1.296698e+00,1.194290e+00,3,3,6.725526e-01,6.725525e-01
1.296705e+00,1.195020e+00,3,3,3.432229e-01,3.432230e-01
1.294953e+00,1.192704e+00,3,3,2.873769e-01,2.873769e-01
1.294086e+00,1.196658e+00,3,3,5.472064e-01,5.472063e-01
1.295964e+00,1.195270e+00,3,3,6.830382e-01,6.830381e-01
1.300618e+00,1.194678e+00,3,3,8.421267e-01,8.421266e-01
1.300819e+00,1.195129e+00,3,3,5.481679e-01,5.481679e-01
1.298912e+00,1.195564e+00,3,3,5.259511e-01,5.259510e-01
1.296599e+00,1.193743e+00,3,3,7.885554e-01,7.885551e-01
1.301161e+00,1.196643e+00,3,3,1.171393e+00,1.171393e+00
1.297546e+00,1.195190e+00,3,3,1.300049e+00,1.300049e+00
1.300938e+00,1.195009e+00,3,3,1.813813e+00,1.813812e+00
1.297496e+00,1.196431e+00,3,3,1.714228e+00,1.714228e+00
1.300688e+00,1.193693e+00,3,3,2.666198e+00,2.666215e+00
1.297254e+00,1.193851e+00,3,3,1.116318e+00,1.116319e+00
1.299829e+00,1.195000e+00,3,3,9.496082e-01,9.496081e-01
1.296078e+00,1.194971e+00,3,3,1.495809e+00,1.495809e+00
1.301196e+00,1.194552e+00,3,3,7.337589e-01,7.337591e-01
1.297155e+00,1.192381e+00,3,3,6.039239e-01,6.039239e-01
1.300809e+00,1.195251e+00,3,3,4.908800e-01,4.908799e-01
1.297238e+00,1.193053e+00,3,3,3.296281e-01,3.296282e-01
1.299848e+00,1.195162e+00,3,3,6.731908e-01,6.731905e-01
1.296803e+00,1.199955e+00,3,3,4.999328e-01,4.999328e-01
1.299763e+00,1.192352e+00,3,3,2.850430e-01,2.850430e-01
1.295657e+00,1.194655e+00,3,3,6.846788e-01,6.846786e-01
1.300976e+00,1.194206e+00,3,3,4.751934e-01,4.751935e-01
1.297578e+00,1.193889e+00,3,3,2.501682e-01,2.501681e-01
1.297677e+00,1.194953e+00,3,3,2.730759e-01,2.730759e-01
1.295566e+00,1.194183e+00,3,3,3.417809e-01,3.417808e-01
1.297965e+00,1.194428e+00,3,3,5.170271e-01,5.170269e-01
1.294506e+00,1.195313e+00,3,3,1.084212e+00,1.084211e+00
1.301010e+00,1.193088e+00,3,3,7.852629e-01,7.852624e-01
1.297105e+00,1.194741e+00,3,3,1.422441e+00,1.422441e+00
1.301465e+00,1.194773e+00,3,3,6.216157e-01,6.216160e-01
1.296596e+00,1.196743e+00,3,3,4.951791e-01,4.951790e-01
1.300485e+00,1.194543e+00,3,3,3.307847e-01,3.307847e-01
1.297690e+00,1.194092e+00,3,3,3.046022e-01,3.046021e-01
1.300179e+00,1.194970e+00,3,3,8.550010e-01,8.550006e-01
1.296381e+00,1.196253e+00,3,3,8.542213e-01,8.542212e-01
1.301322e+00,1.196371e+00,3,3,1.312673e+00,1.312673e+00
1.297374e+00,1.195004e+00,3,3,1.348761e+00,1.348761e+00
1.302775e+00,1.196659e+00,3,3,1.549339e+00,1.549339e+00
1.297252e+00,1.195997e+00,3,3,2.538201e+00,2.538200e+00
1.301751e+00,1.199155e+00,3,3,2.843699e+00,2.843699e+00
1.297802e+00,1.194088e+00,3,3,2.125498e+00,2.125499e+00
1.302164e+00,1.195715e+00,3,3,1.909762e+00,1.909762e+00
1.296023e+00,1.192831e+00,3,3,2.681876e+00,2.681875e+00
1.302798e+00,1.194079e+00,3,3,1.822912e+00,1.822912e+00
1.296191e+00,1.194532e+00,3,3,1.511419e+00,1.511419e+00
1.301682e+00,1.196450e+00,3,3,1.527632e+00,1.527631e+00
1.298241e+00,1.194456e+00,3,3,1.649759e+00,1.649759e+00
1.301245e+00,1.195535e+00,3,3,1.805455e+00,1.805454e+00
1.296933e+00,1.192958e+00,3,3,1.330819e+00,1.330818e+00
1.300670e+00,1.194392e+00,3,3,1.277745e+00,1.277745e+00
1.295211e+00,1.194815e+00,3,3,1.639318e+00,1.639318e+00
1.302046e+00,1.195941e+00,3,3,1.800038e+00,1.800038e+00
1.298156e+00,1.194476e+00,3,3,1.141315e+00,1.141315e+00
1.301838e+00,1.193019e+00,3,3,1.097961e+00,1.097961e+00
1.298450e+00,1.195308e+00,3,3,6.453178e-01,6.453181e-01
1.300386e+00,1.196885e+00,3,3,6.261352e-01,6.261351e-01

