0.000000e+00,0.000000e+00,0.000000e+00,1,2,0
6.164157e-02,6.164125e-02,6.164125e-02,1,3,0
1.175661e-01,1.175656e-01,1.175656e-01,1,3,0
2.547797e-01,2.547671e-01,2.547671e-01,1,3,0
2.418972e-01,2.418953e-01,2.418953e-01,1,4,0
9.723448e-01,9.708141e-01,9.708141e-01,1,4,4
1.354185e+00,1.350585e+00,1.350585e+00,1,7,2
1.770390e+00,1.764467e+00,1.764467e+00,1,7,3
8.544000e-01,8.541892e-01,8.541892e-01,1,5,7
7.584941e-01,7.582710e-01,7.582710e-01,1,8,0
6.363435e-01,6.342011e-01,6.342011e-01,1,4,0
6.716109e-01,6.708158e-01,6.708158e-01,1,6,3
1.067540e+00,1.057748e+00,1.057748e+00,1,6,3
1.502571e+00,1.494772e+00,1.494772e+00,1,6,1
1.283402e+00,1.269346e+00,1.269346e+00,1,6,1
1.856843e+00,1.842442e+00,1.842442e+00,1,6,4
1.432634e+00,1.429585e+00,1.429585e+00,1,4,7
1.227756e+00,1.227064e+00,1.227064e+00,1,7,4
1.197334e+00,1.194374e+00,1.194374e+00,1,6,1
1.216198e+00,1.215217e+00,1.215217e+00,1,4,2
1.271898e+00,1.265509e+00,1.265509e+00,1,5,6
1.108786e+00,1.107019e+00,1.107019e+00,1,6,6
9.781218e-01,9.771925e-01,9.771925e-01,1,8,1
9.218875e-01,9.203637e-01,9.203637e-01,1,4,3
9.015302e-01,8.991441e-01,8.991441e-01,1,7,2
8.357939e-01,8.315882e-01,8.315882e-01,1,6,2
7.411634e-01,7.332687e-01,7.332687e-01,1,6,4
5.422575e-01,5.394474e-01,5.394474e-01,1,7,4
2.715741e-01,2.712877e-01,2.712877e-01,1,4,4
2.039446e-01,2.038774e-01,2.038774e-01,1,11,0
3.544988e-01,3.533566e-01,3.533566e-01,1,5,1
4.521972e-01,4.512575e-01,4.512575e-01,1,10,4
3.742828e-01,3.731890e-01,3.731890e-01,1,7,1
6.469609e-01,6.467031e-01,6.467031e-01,1,7,2
5.098450e-01,5.089016e-01,5.089016e-01,1,7,1
3.733824e-01,3.675451e-01,3.675451e-01,1,6,1
3.097518e-01,3.085078e-01,3.085078e-01,1,7,2
3.034116e-01,3.026781e-01,3.026781e-01,1,7,0
7.275160e-01,7.249645e-01,7.249645e-01,1,4,5
7.129858e-01,7.123761e-01,7.123761e-01,1,7,2
1.630868e+00,1.626580e+00,1.626580e+00,1,7,3
2.382988e+00,2.372965e+00,2.372965e+00,1,7,4
1.512320e+00,1.506979e+00,1.506979e+00,1,7,7
2.244301e+00,2.230945e+00,2.230945e+00,1,6,7
1.836110e+00,1.834811e+00,1.834811e+00,1,6,4
1.421469e+00,1.414615e+00,1.414615e+00,1,7,6
1.247099e+00,1.245117e+00,1.245117e+00,1,7,2
1.026006e+00,1.014692e+00,1.014692e+00,1,6,1
7.889678e-01,7.778726e-01,7.778726e-01,1,6,3
4.387201e-01,4.355722e-01,4.355722e-01,1,7,1
4.136178e-01,4.136130e-01,4.136130e-01,1,10,3
6.507179e-01,6.499955e-01,6.499955e-01,1,4,2
4.697902e-01,4.694803e-01,4.694803e-01,1,6,1
3.866530e-01,3.848755e-01,3.848755e-01,1,8,1
5.637331e-01,5.406287e-01,5.406287e-01,1,10,0
8.276102e-01,8.167587e-01,8.167587e-01,1,10,0
4.762548e-01,4.756132e-01,4.756132e-01,1,7,0
6.952238e-01,6.932806e-01,6.932806e-01,1,4,2
9.458101e-01,9.445676e-01,9.445676e-01,1,7,1
1.432860e+00,1.431490e+00,1.431490e+00,1,7,1
5.074225e-01,5.013669e-01,5.013669e-01,1,4,7
1.322009e+00,1.320785e+00,1.320785e+00,1,7,0
2.714869e+00,2.709290e+00,2.709290e+00,1,7,1
1.346557e+00,1.346015e+00,1.346015e+00,1,7,2
1.945834e+00,1.944330e+00,1.944330e+00,1,7,2
7.269912e-01,7.254318e-01,7.254318e-01,1,4,8
8.675926e-01,8.623198e-01,8.623198e-01,1,10,4
7.005019e-01,7.003718e-01,7.003718e-01,1,5,0
5.279936e-01,5.270703e-01,5.270703e-01,1,4,1
4.340470e-01,4.334499e-01,4.334499e-01,1,4,1
6.742649e-01,6.740629e-01,6.740629e-01,1,5,0
6.914530e-01,6.913625e-01,6.913625e-01,1,4,0
7.261367e-01,7.261211e-01,7.261211e-01,1,4,0
8.212223e-01,8.205701e-01,8.205701e-01,1,4,3
1.166709e+00,1.161566e+00,1.161566e+00,1,6,0
1.553792e+00,1.553270e+00,1.553270e+00,1,7,0
9.712731e-01,9.712224e-01,9.712224e-01,1,7,2
9.283136e-01,9.281111e-01,9.281111e-01,1,7,1
7.145120e-01,7.072037e-01,7.072037e-01,1,10,0
3.021277e-01,3.018102e-01,3.018102e-01,1,3,0
1.148930e+00,1.147761e+00,1.147761e+00,1,4,4
8.369185e-01,8.324539e-01,8.324539e-01,1,6,2
6.929508e-01,6.927733e-01,6.927733e-01,1,7,0
6.028119e-01,5.954958e-01,5.954958e-01,1,6,4
9.925119e-01,9.841393e-01,9.841393e-01,1,4,5
1.939845e+00,1.933793e+00,1.933793e+00,1,7,1
3.012217e+00,3.000761e+00,3.000761e+00,1,7,7
4.487898e+00,4.506800e+00,4.475299e+00,1,7,5
3.564968e+00,3.564501e+00,3.560121e+00,1,7,7
2.436304e+00,2.426657e+00,2.426657e+00,1,8,7
1.777455e+00,1.775483e+00,1.775483e+00,1,7,3
1.238429e+00,1.235229e+00,1.235229e+00,1,7,0
1.782806e+00,1.780152e+00,1.780152e+00,1,7,1
1.296280e+00,1.294443e+00,1.294443e+00,1,7,1
1.744338e+00,1.741174e+00,1.741175e+00,1,7,0
1.978896e+00,1.975137e+00,1.975137e+00,1,7,1
7.796133e-01,7.790849e-01,7.790849e-01,1,7,2
6.556723e-01,6.484602e-01,6.484602e-01,1,6,3
9.749222e-01,9.677717e-01,9.677717e-01,1,6,1
1.018271e+00,1.010180e+00,1.010180e+00,1,6,2
7.324892e-01,7.305849e-01,7.305849e-01,1,4,4
8.838537e-01,8.838367e-01,8.838367e-01,1,10,2
4.447646e-01,4.445964e-01,4.445964e-01,1,4,2
4.116139e-01,4.071432e-01,4.071432e-01,1,6,3
3.359075e-01,3.287689e-01,3.287689e-01,1,6,4
4.531715e-01,4.395265e-01,4.395265e-01,1,9,3
5.794957e-01,5.776958e-01,5.776958e-01,1,4,2
6.041371e-01,5.975577e-01,5.975577e-01,1,6,0
3.929195e-01,3.927163e-01,3.927163e-01,1,4,2
3.988317e-01,3.986277e-01,3.986277e-01,1,11,0
3.820769e-01,3.820722e-01,3.820722e-01,1,4,0
3.339527e-01,3.301012e-01,3.301012e-01,1,3,2
2.468204e-01,2.423147e-01,2.423147e-01,1,7,2
4.110596e-01,4.031873e-01,4.031873e-01,1,9,0
2.055815e-01,2.054323e-01,2.054323e-01,1,8,0
2.118653e-01,2.099245e-01,2.099245e-01,1,4,2
5.701722e-01,5.694361e-01,5.694361e-01,1,7,0
3.927132e-01,3.906653e-01,3.906653e-01,1,6,1
1.409453e+00,1.408339e+00,1.408339e+00,1,7,1
1.044208e+00,1.039502e+00,1.039502e+00,1,9,2
1.011139e+00,1.008661e+00,1.008661e+00,1,4,3
1.338912e+00,1.335197e+00,1.335197e+00,1,6,1
1.189594e+00,1.187679e+00,1.187679e+00,1,6,0
1.269929e+00,1.261205e+00,1.261205e+00,1,6,0
2.248196e+00,2.247994e+00,2.247994e+00,1,7,0
1.494440e+00,1.494340e+00,1.494340e+00,1,6,2
1.088643e+00,1.088633e+00,1.088633e+00,1,4,0
9.004992e-01,9.004508e-01,9.004508e-01,1,3,0
5.022775e-01,5.014222e-01,5.014222e-01,1,4,2
5.629391e-01,5.627690e-01,5.627690e-01,1,4,2
3.925188e-01,3.854445e-01,3.854445e-01,1,10,0
5.078902e-01,5.055648e-01,5.055648e-01,1,3,1
2.329841e-01,2.321651e-01,2.321651e-01,1,4,1
2.022789e-01,1.984849e-01,1.984849e-01,1,11,0
2.142190e-01,2.139689e-01,2.139689e-01,1,11,0
4.785177e-01,4.744729e-01,4.744729e-01,1,3,0
5.396057e-01,5.386196e-01,5.386196e-01,1,7,0
4.485091e-01,4.463237e-01,4.463237e-01,1,6,0
4.989322e-01,4.982781e-01,4.982781e-01,1,4,0
3.892890e-01,3.887939e-01,3.887939e-01,1,6,1
6.252311e-01,6.219762e-01,6.219762e-01,1,6,1
1.037601e+00,1.029944e+00,1.029944e+00,1,6,1
1.224498e+00,1.220001e+00,1.220001e+00,1,6,3
9.982555e-01,9.952104e-01,9.952104e-01,1,4,3
8.730931e-01,8.717556e-01,8.717556e-01,1,7,2
7.896563e-01,7.891392e-01,7.891392e-01,1,7,2
5.872135e-01,5.865891e-01,5.865891e-01,1,7,0
5.467502e-01,5.463474e-01,5.463474e-01,1,4,3
8.349577e-01,8.338082e-01,8.338082e-01,1,4,3
1.127888e+00,1.126478e+00,1.126478e+00,1,7,0
6.303236e-01,6.286573e-01,6.286573e-01,1,7,2
6.455921e-01,6.421943e-01,6.421943e-01,1,6,2
5.091143e-01,5.072299e-01,5.072299e-01,1,8,2
4.467085e-01,4.449491e-01,4.449491e-01,1,7,2
3.715930e-01,3.658461e-01,3.658461e-01,1,7,3
5.064010e-01,4.944041e-01,4.944041e-01,1,10,0
9.207885e-01,9.197088e-01,9.197088e-01,1,6,1
8.067565e-01,8.031892e-01,8.031892e-01,1,6,1
8.904361e-01,8.901094e-01,8.901094e-01,1,6,3
1.033213e+00,1.028221e+00,1.028221e+00,1,6,3
4.534650e-01,4.428227e-01,4.428227e-01,1,11,3
3.617161e-01,3.612093e-01,3.612093e-01,1,4,1
3.472033e-01,3.471638e-01,3.471638e-01,1,5,0
1.640788e-01,1.640780e-01,1.640780e-01,1,4,0
1.749680e-01,1.749626e-01,1.749626e-01,1,3,0
2.938930e-01,2.934294e-01,2.934294e-01,1,3,1
2.283313e-01,2.256616e-01,2.256616e-01,1,8,1
7.635782e-01,7.602412e-01,7.602412e-01,1,4,4
6.136033e-01,6.135558e-01,6.135558e-01,1,7,4
4.276206e-01,4.275345e-01,4.275345e-01,1,11,0
3.758147e-01,3.751971e-01,3.751971e-01,1,7,0
3.650570e-01,3.648270e-01,3.648270e-01,1,4,1
3.642276e-01,3.588432e-01,3.588432e-01,1,8,1
2.692945e-01,2.684800e-01,2.684800e-01,1,12,0
2.969558e-01,2.965869e-01,2.965869e-01,1,4,0
2.496269e-01,2.490283e-01,2.490283e-01,1,6,0
2.068837e-01,2.061877e-01,2.061877e-01,1,4,0
5.043803e-01,5.007010e-01,5.007010e-01,1,4,4
4.089408e-01,4.089190e-01,4.089190e-01,1,10,4
5.864388e-01,5.862235e-01,5.862235e-01,1,4,1
8.560314e-01,8.518587e-01,8.518587e-01,1,6,1
7.525435e-01,7.500929e-01,7.500929e-01,1,6,5
8.514318e-01,8.499953e-01,8.499954e-01,1,7,1
5.938745e-01,5.879528e-01,5.879528e-01,1,6,2
5.323202e-01,5.299359e-01,5.299359e-01,1,7,1
6.371502e-01,6.360096e-01,6.360096e-01,1,7,0
1.337434e+00,1.333795e+00,1.333795e+00,1,7,3
1.794439e+00,1.790452e+00,1.790452e+00,1,7,2
1.553098e+00,1.542241e+00,1.542241e+00,1,6,4
1.167262e+00,1.166836e+00,1.166836e+00,1,10,2
1.088464e+00,1.087994e+00,1.087994e+00,1,8,3
6.813037e-01,6.799844e-01,6.799844e-01,1,7,1
7.645020e-01,7.641972e-01,7.641972e-01,1,7,4
7.407215e-01,7.406829e-01,7.406829e-01,1,6,1
5.500875e-01,5.499568e-01,5.499568e-01,1,7,1
4.706827e-01,4.706706e-01,4.706706e-01,1,4,0
1.026417e+00,1.026064e+00,1.026064e+00,1,4,0
2.182027e+00,2.174906e+00,2.174906e+00,1,5,5
2.173898e+00,2.167216e+00,2.167216e+00,1,7,5
2.191926e+00,2.183790e+00,2.183790e+00,1,7,1
2.642800e+00,2.635062e+00,2.635062e+00,1,7,3
3.959437e+00,3.950068e+00,3.950068e+00,1,7,1
2.431053e+00,2.424489e+00,2.424489e+00,1,7,5
2.941346e+00,2.939108e+00,2.939108e+00,1,7,2
2.239500e+00,2.238609e+00,2.238609e+00,1,5,6
2.072330e+00,2.069466e+00,2.069466e+00,1,7,2
1.305564e+00,1.304580e+00,1.304580e+00,1,7,4
1.761628e+00,1.759337e+00,1.759337e+00,1,7,2
1.151649e+00,1.150350e+00,1.150350e+00,1,7,3
1.486147e+00,1.476501e+00,1.476501e+00,1,6,5
4.297491e-01,4.297074e-01,4.297074e-01,1,7,4
6.906759e-01,6.905769e-01,6.905769e-01,1,3,0
1.463331e+00,1.461531e+00,1.461531e+00,1,4,3
9.918385e-01,9.911107e-01,9.911107e-01,1,7,0
1.676644e+00,1.675935e+00,1.675935e+00,1,7,1
1.540965e+00,1.532792e+00,1.532792e+00,1,6,2
2.389363e+00,2.384124e+00,2.384124e+00,1,7,7
1.228752e+00,1.225387e+00,1.225387e+00,1,7,6
9.814445e-01,9.792203e-01,9.792203e-01,1,7,5
7.239516e-01,7.227151e-01,7.227151e-01,1,8,2
7.153482e-01,7.143749e-01,7.143749e-01,1,7,2
7.545985e-01,7.537970e-01,7.537971e-01,1,7,0
1.248839e+00,1.248183e+00,1.248183e+00,1,7,1
5.378983e-01,5.377815e-01,5.377816e-01,1,7,2
3.957774e-01,3.862670e-01,3.862670e-01,1,12,1
5.292417e-01,5.291669e-01,5.291669e-01,1,4,0
5.540897e-01,5.514702e-01,5.514702e-01,1,10,0
3.951550e-01,3.944537e-01,3.944537e-01,1,4,0
5.834756e-01,5.823936e-01,5.823937e-01,1,4,2
7.926484e-01,7.877040e-01,7.877040e-01,1,6,0
1.131811e+00,1.123623e+00,1.123623e+00,1,6,0
2.418798e+00,2.412248e+00,2.412248e+00,1,7,8
3.259286e+00,3.252363e+00,3.252363e+00,1,7,1
2.179931e+00,2.175509e+00,2.175509e+00,1,7,4
2.681667e+00,2.678723e+00,2.678723e+00,1,7,1
1.906631e+00,1.905596e+00,1.905596e+00,1,5,4
1.436635e+00,1.425997e+00,1.425997e+00,1,6,2
1.653971e+00,1.652653e+00,1.652653e+00,1,7,3
8.113305e-01,8.094552e-01,8.094552e-01,1,7,1
6.580847e-01,6.528105e-01,6.528105e-01,1,6,5
4.862565e-01,4.826263e-01,4.826263e-01,1,6,3
4.699040e-01,4.618166e-01,4.618166e-01,1,6,3
4.642873e-01,4.633788e-01,4.633788e-01,1,10,1
7.463366e-01,7.459121e-01,7.459121e-01,1,7,1
2.471596e-01,2.470756e-01,2.470756e-01,1,4,3
1.012681e+00,1.011696e+00,1.011696e+00,1,4,2
2.352724e+00,2.351412e+00,2.351412e+00,1,7,1
1.344710e+00,1.344556e+00,1.344556e+00,1,7,2
9.516717e-01,9.336021e-01,9.336021e-01,1,10,1
7.054603e-01,7.034751e-01,7.034751e-01,1,8,0
5.897396e-01,5.861733e-01,5.861733e-01,1,6,2
5.786501e-01,5.778918e-01,5.778918e-01,1,7,2
1.091952e+00,1.088959e+00,1.088959e+00,1,4,4
8.703076e-01,8.698649e-01,8.698649e-01,1,7,2
6.743888e-01,6.655101e-01,6.655101e-01,1,12,2
7.538769e-01,7.537780e-01,7.537780e-01,1,4,0
1.251232e+00,1.245990e+00,1.245990e+00,1,4,4
2.034022e+00,2.025187e+00,2.025187e+00,1,7,5
3.755911e+00,3.743368e+00,3.742237e+00,1,7,4
4.606218e+00,4.603573e+00,4.595408e+00,1,7,3
4.054491e+00,4.054070e+00,4.050090e+00,1,7,5
4.301408e+00,4.276902e+00,4.276902e+00,1,6,3
3.512480e+00,3.502076e+00,3.502077e+00,1,7,4
3.508248e+00,3.503659e+00,3.503659e+00,1,7,2
3.389837e+00,3.386307e+00,3.386307e+00,1,7,0
2.740532e+00,2.738282e+00,2.738282e+00,1,7,6
2.276704e+00,2.275412e+00,2.275412e+00,1,7,2
1.667469e+00,1.662987e+00,1.662987e+00,1,7,2
1.542841e+00,1.539586e+00,1.539586e+00,1,7,0
1.608427e+00,1.605178e+00,1.605178e+00,1,7,2
2.178728e+00,2.175649e+00,2.175649e+00,1,7,2
4.213791e+00,4.207768e+00,4.203909e+00,1,7,10
4.450217e+00,4.441709e+00,4.439160e+00,1,7,3
4.873262e+00,4.874163e+00,4.862046e+00,1,7,2
4.228612e+00,4.221620e+00,4.221290e+00,1,7,2
4.166427e+00,4.161945e+00,4.161945e+00,1,7,3
4.961680e+00,4.956868e+00,4.956868e+00,1,7,1
4.495221e+00,4.491713e+00,4.491713e+00,1,7,3
3.728720e+00,3.703704e+00,3.703704e+00,1,6,3
2.966035e+00,2.964250e+00,2.964250e+00,1,8,3
2.513959e+00,2.510543e+00,2.510543e+00,1,7,0
2.078592e+00,2.076425e+00,2.076425e+00,1,7,1
1.924668e+00,1.923440e+00,1.923440e+00,1,7,2
2.069719e+00,2.068992e+00,2.068992e+00,1,7,1
1.050854e+00,1.049016e+00,1.049016e+00,1,7,1
9.108597e-01,9.046980e-01,9.046980e-01,1,6,2
1.052298e+00,1.046417e+00,1.046417e+00,1,6,0
6.866805e-01,6.828949e-01,6.828949e-01,1,6,1
6.171541e-01,6.171395e-01,6.171395e-01,1,10,2
4.949891e-01,4.928881e-01,4.928881e-01,1,3,2
3.783052e-01,3.744418e-01,3.744418e-01,1,7,2
3.317497e-01,3.300895e-01,3.300895e-01,1,4,0
3.028922e-01,2.875362e-01,2.875362e-01,1,10,0
3.706765e-01,3.595566e-01,3.595566e-01,1,12,1
4.089148e-01,4.087143e-01,4.087143e-01,1,6,0
2.872122e-01,2.864941e-01,2.864941e-01,1,4,1
3.261563e-01,3.260408e-01,3.260408e-01,1,11,0
9.673400e-01,9.651790e-01,9.651790e-01,1,5,1
2.214477e+00,2.197490e+00,2.197490e+00,1,5,3
2.902846e+00,2.893994e+00,2.893994e+00,1,7,8
2.334187e+00,2.329150e+00,2.329150e+00,1,7,3
2.544211e+00,2.539914e+00,2.539914e+00,1,7,0
2.394102e+00,2.390232e+00,2.390232e+00,1,7,4
2.077009e+00,2.064599e+00,2.064599e+00,1,6,3
1.542497e+00,1.532669e+00,1.532669e+00,1,4,5
1.497187e+00,1.494733e+00,1.494733e+00,1,7,1
2.863711e+00,2.857160e+00,2.857160e+00,1,7,1
3.819331e+00,3.812421e+00,3.806274e+00,1,7,7
4.500973e+00,4.525564e+00,4.484184e+00,1,7,8
3.589191e+00,3.592092e+00,3.582256e+00,1,7,8
2.693850e+00,2.689950e+00,2.689950e+00,1,7,3
1.899290e+00,1.884986e+00,1.884986e+00,1,4,4
1.474170e+00,1.473336e+00,1.473336e+00,1,7,4
2.042342e+00,2.040760e+00,2.040760e+00,1,7,0
2.060542e+00,2.059162e+00,2.059162e+00,1,7,1
1.528894e+00,1.528373e+00,1.528373e+00,1,7,2
1.553197e+00,1.550110e+00,1.550110e+00,1,6,0
1.813012e+00,1.806336e+00,1.806336e+00,1,6,0
1.891769e+00,1.885034e+00,1.885034e+00,1,6,0
2.308600e+00,2.297484e+00,2.297484e+00,1,6,4
1.824877e+00,1.813594e+00,1.813594e+00,1,4,6
2.355919e+00,2.354309e+00,2.354309e+00,1,8,7
2.256388e+00,2.253438e+00,2.253432e+00,1,7,5
1.871961e+00,1.871629e+00,1.871629e+00,1,5,6
1.504373e+00,1.502891e+00,1.502891e+00,1,7,7
1.593501e+00,1.592011e+00,1.592011e+00,1,6,2
1.578466e+00,1.577602e+00,1.577602e+00,1,7,1
1.087694e+00,1.082072e+00,1.082072e+00,1,6,1
1.087404e+00,1.085151e+00,1.085151e+00,1,6,1
6.757374e-01,6.748937e-01,6.748937e-01,1,6,1
5.804591e-01,5.798471e-01,5.798471e-01,1,4,1
3.743252e-01,3.735670e-01,3.735670e-01,1,5,2
2.804212e-01,2.802991e-01,2.802991e-01,1,7,2
2.381472e-01,2.214577e-01,2.214577e-01,1,10,0
3.240449e-01,3.238790e-01,3.238790e-01,1,4,0
1.640986e-01,1.634438e-01,1.634438e-01,1,3,0
1.480443e-01,1.479770e-01,1.479770e-01,1,5,0
1.328014e-01,1.146162e-01,1.146162e-01,1,11,0
1.292298e-01,1.282347e-01,1.282347e-01,1,11,0
1.528240e-01,1.334241e-01,1.334241e-01,1,11,0
2.759935e-01,2.756524e-01,2.756524e-01,1,12,0
1.762641e-01,1.745950e-01,1.745950e-01,1,4,3
2.653656e-01,2.561683e-01,2.561683e-01,1,12,3
4.604766e-01,4.584763e-01,4.584763e-01,1,3,1
2.692358e-01,2.691925e-01,2.691925e-01,1,5,1
3.534884e-01,3.534183e-01,3.534183e-01,1,3,0
3.647120e-01,3.647120e-01,3.647120e-01,1,4,0
5.211700e-01,5.182674e-01,5.182674e-01,1,3,1
3.980993e-01,3.980046e-01,3.980046e-01,1,7,1
2.568238e-01,2.562319e-01,2.562319e-01,1,4,0
1.843619e-01,1.732711e-01,1.732711e-01,1,12,0
2.686720e-01,2.682523e-01,2.682523e-01,1,4,0
2.313367e-01,2.313342e-01,2.313342e-01,1,12,0
1.846664e-01,1.846620e-01,1.846620e-01,1,3,0
3.613244e-01,3.611704e-01,3.611704e-01,1,3,0
2.495810e-01,2.495598e-01,2.495598e-01,1,6,0
4.097264e-01,4.097257e-01,4.097257e-01,1,4,0
8.049299e-01,8.049286e-01,8.049286e-01,1,3,0
6.403979e-01,6.399298e-01,6.399298e-01,1,4,2
5.494269e-01,5.475719e-01,5.475719e-01,1,6,0
1.211299e+00,1.204674e+00,1.204674e+00,1,6,1
1.511761e+00,1.500327e+00,1.500327e+00,1,6,0
7.399330e-01,7.341919e-01,7.341919e-01,1,6,1
5.185661e-01,5.184654e-01,5.184654e-01,1,7,2
4.434297e-01,4.427418e-01,4.427418e-01,1,5,2
2.469253e-01,2.463546e-01,2.463546e-01,1,7,2
1.993073e-01,1.978757e-01,1.978757e-01,1,8,2
3.468088e-01,3.459184e-01,3.459184e-01,1,7,1
3.251976e-01,3.206249e-01,3.206249e-01,1,6,1
2.495844e-01,2.490671e-01,2.490671e-01,1,4,2
5.807304e-01,5.801977e-01,5.801977e-01,1,4,2
3.780786e-01,3.780058e-01,3.780058e-01,1,10,2
3.478033e-01,3.293417e-01,3.293417e-01,1,11,0
3.408814e-01,3.401990e-01,3.401990e-01,1,6,0
2.550495e-01,2.549263e-01,2.549263e-01,1,6,0
2.885876e-01,2.872855e-01,2.872855e-01,1,4,1
4.253362e-01,4.219244e-01,4.219244e-01,1,8,1
3.052934e-01,3.038694e-01,3.038694e-01,1,4,2
3.769147e-01,3.768488e-01,3.768488e-01,1,4,2
4.833059e-01,4.832333e-01,4.832333e-01,1,3,0
5.821197e-01,5.821192e-01,5.821192e-01,1,4,0
8.330171e-01,8.304300e-01,8.304300e-01,1,3,2
4.870891e-01,4.825405e-01,4.825405e-01,1,6,1
4.220377e-01,4.212696e-01,4.212696e-01,1,5,5
4.395155e-01,4.323750e-01,4.323750e-01,1,6,1
4.811076e-01,4.734160e-01,4.734160e-01,1,6,0
3.300730e-01,3.267065e-01,3.267065e-01,1,6,1
7.737498e-01,7.713729e-01,7.713729e-01,1,10,3
5.255148e-01,5.242190e-01,5.242190e-01,1,6,3
5.061151e-01,5.018254e-01,5.018254e-01,1,6,1
5.132103e-01,5.126433e-01,5.126433e-01,1,6,3
4.561524e-01,4.557112e-01,4.557112e-01,1,7,3
3.311651e-01,3.281609e-01,3.281609e-01,1,6,1
4.633469e-01,4.632328e-01,4.632328e-01,1,7,1
5.251602e-01,5.248687e-01,5.248687e-01,1,7,1
4.343383e-01,4.342269e-01,4.342269e-01,1,6,2
5.707255e-01,5.678396e-01,5.678396e-01,1,3,2
3.822923e-01,3.807844e-01,3.807844e-01,1,7,4
3.804821e-01,3.753470e-01,3.753470e-01,1,4,4
3.102441e-01,3.097308e-01,3.097308e-01,1,7,1
2.283862e-01,2.281253e-01,2.281253e-01,1,4,3
1.815436e-01,1.799236e-01,1.799236e-01,1,4,0
3.627676e-01,3.616338e-01,3.616338e-01,1,4,2
2.475535e-01,2.442111e-01,2.442111e-01,1,4,1
2.878731e-01,2.859431e-01,2.859431e-01,1,10,3
2.770540e-01,2.711186e-01,2.711186e-01,1,6,3
2.829634e-01,2.792068e-01,2.792068e-01,1,8,3
3.549139e-01,3.548700e-01,3.548700e-01,1,11,0
2.830852e-01,2.830125e-01,2.830125e-01,1,5,0
9.844931e-01,9.837759e-01,9.837759e-01,1,4,4
2.369740e+00,2.360315e+00,2.360315e+00,1,6,5
1.755251e+00,1.750812e+00,1.750812e+00,1,7,5
1.286991e+00,1.285439e+00,1.285439e+00,1,7,6
9.840525e-01,9.830448e-01,9.830448e-01,1,4,2
1.083221e+00,1.083127e+00,1.083127e+00,1,5,0
8.417989e-01,8.410515e-01,8.410515e-01,1,4,0
7.580620e-01,7.573207e-01,7.573207e-01,1,6,3
8.008680e-01,7.942422e-01,7.942422e-01,1,6,2
8.501524e-01,8.354494e-01,8.354494e-01,1,6,3
7.241299e-01,7.101304e-01,7.101304e-01,1,6,2
8.586513e-01,8.513132e-01,8.513132e-01,1,4,4
1.307288e+00,1.305029e+00,1.305029e+00,1,7,1
9.438161e-01,9.425912e-01,9.425912e-01,1,7,1
5.538689e-01,5.532033e-01,5.532033e-01,1,7,1
2.988799e-01,2.985845e-01,2.985845e-01,1,7,1
2.409960e-01,2.408949e-01,2.408949e-01,1,6,2
2.244104e-01,2.242184e-01,2.242184e-01,1,3,0
3.643800e-01,3.632433e-01,3.632433e-01,1,5,0
2.572086e-01,2.569125e-01,2.569125e-01,1,12,0
3.536970e-01,3.533910e-01,3.533910e-01,1,3,0
3.795622e-01,3.793872e-01,3.793872e-01,1,4,0
3.773670e-01,3.768473e-01,3.768473e-01,1,6,0
5.678320e-01,5.676398e-01,5.676398e-01,1,5,0
3.118310e-01,3.105711e-01,3.105711e-01,1,12,0
2.669899e-01,2.592176e-01,2.592176e-01,1,10,0
1.024719e+00,1.023070e+00,1.023070e+00,1,4,3
1.177501e+00,1.177378e+00,1.177378e+00,1,7,3
5.400385e-01,5.259972e-01,5.259972e-01,1,12,0
5.759532e-01,5.752608e-01,5.752608e-01,1,4,1
5.064950e-01,5.063847e-01,5.063847e-01,1,6,1
5.425094e-01,5.424948e-01,5.424948e-01,1,4,0
2.432906e-01,2.432903e-01,2.432903e-01,1,4,0
1.908953e-01,1.908943e-01,1.908943e-01,1,3,0
3.600458e-01,3.574556e-01,3.574556e-01,1,3,2
4.628539e-01,4.617529e-01,4.617529e-01,1,6,1
5.677825e-01,5.638911e-01,5.638911e-01,1,6,0
3.583118e-01,3.563161e-01,3.563161e-01,1,12,1
2.901159e-01,2.880475e-01,2.880475e-01,1,4,3
4.523299e-01,4.513247e-01,4.513247e-01,1,7,1
6.879849e-01,6.872864e-01,6.872864e-01,1,7,1
7.835669e-01,7.833208e-01,7.833209e-01,1,7,1
1.189210e+00,1.186684e+00,1.186684e+00,1,6,0
1.134055e+00,1.128516e+00,1.128516e+00,1,6,1
1.842889e+00,1.841961e+00,1.841961e+00,1,7,0
7.307555e-01,7.292998e-01,7.292998e-01,1,4,1
6.295365e-01,6.283960e-01,6.283960e-01,1,7,1
1.026797e+00,1.025105e+00,1.025105e+00,1,7,4
4.818499e-01,4.815502e-01,4.815502e-01,1,7,4
4.450851e-01,4.448833e-01,4.448833e-01,1,6,1
3.422499e-01,3.402716e-01,3.402716e-01,1,7,0
2.004918e-01,1.997049e-01,1.997049e-01,1,8,2
4.630624e-01,4.627529e-01,4.627529e-01,1,7,0
3.893428e-01,3.880980e-01,3.880980e-01,1,9,2
2.323042e-01,2.305556e-01,2.305556e-01,1,11,0
5.849866e-01,5.809771e-01,5.809771e-01,1,4,3
3.509447e-01,3.504253e-01,3.504253e-01,1,7,1
1.917027e-01,1.804278e-01,1.804278e-01,1,12,2
2.137655e-01,2.137647e-01,2.137647e-01,1,5,0
2.729368e-01,2.729343e-01,2.729343e-01,1,3,0
4.270454e-01,4.269615e-01,4.269615e-01,1,3,0
8.150939e-01,8.144073e-01,8.144073e-01,1,4,1
6.847310e-01,6.820741e-01,6.820741e-01,1,4,4
1.176315e+00,1.174243e+00,1.174243e+00,1,7,1
4.894080e-01,4.892985e-01,4.892985e-01,1,7,2
3.617424e-01,3.615828e-01,3.615828e-01,1,6,2
2.049545e-01,2.042367e-01,2.042367e-01,1,4,1
2.141257e-01,2.138382e-01,2.138382e-01,1,7,2
5.705308e-01,5.677316e-01,5.677316e-01,1,7,3
6.409047e-01,6.323845e-01,6.323845e-01,1,6,1
8.956348e-01,8.950385e-01,8.950385e-01,1,7,0
8.980427e-01,8.905851e-01,8.905851e-01,1,6,1
1.052535e+00,1.047219e+00,1.047219e+00,1,6,0
1.722532e+00,1.718999e+00,1.718999e+00,1,7,5
1.955112e+00,1.952806e+00,1.952806e+00,1,7,1
1.385258e+00,1.383153e+00,1.383153e+00,1,7,3
1.192199e+00,1.189676e+00,1.189676e+00,1,7,2
1.755807e+00,1.748890e+00,1.748890e+00,1,6,4
1.086991e+00,1.073899e+00,1.073899e+00,1,6,6
8.631190e-01,8.496176e-01,8.496176e-01,1,6,1
9.026575e-01,8.951529e-01,8.951529e-01,1,6,2
1.038199e+00,1.034269e+00,1.034269e+00,1,6,2
1.258442e+00,1.256289e+00,1.256289e+00,1,8,4
7.566939e-01,7.524677e-01,7.524677e-01,1,4,5
7.448531e-01,7.445462e-01,7.445462e-01,1,7,1
1.017237e+00,1.016688e+00,1.016688e+00,1,7,1
1.178478e+00,1.173758e+00,1.173758e+00,1,6,1
7.221069e-01,7.214043e-01,7.214043e-01,1,6,1
7.010087e-01,7.009420e-01,7.009420e-01,1,10,1
3.800462e-01,3.795195e-01,3.795195e-01,1,4,2
3.707722e-01,3.684149e-01,3.684149e-01,1,8,2

