3.618821e+00,8.099038e+01,7.967901e+01,2,48,0.000000e+00,9.094947e-13,1
5.501319e+00,1.738616e+00,1.686096e+00,3,0,8.011814e-01,8.011832e-01,1
5.436773e+00,3.689422e+00,3.644705e+00,3,1,4.909226e+00,4.909246e+00,1
5.472234e+00,3.106199e+00,3.064156e+00,3,1,2.566046e+00,2.566046e+00,1
5.646285e+00,1.904290e+00,1.863003e+00,3,0,7.996260e+00,7.996275e+00,1
5.476880e+00,4.871716e+00,4.810810e+00,3,0,1.355361e+01,2.086885e+01,0
1.086346e+01,4.872054e+00,4.804850e+00,6,0,1.571225e+01,2.100429e+01,0
1.092444e+01,4.899767e+00,4.817724e+00,6,0,2.551941e+01,5.527058e+01,0
1.095124e+01,4.894593e+00,4.838943e+00,6,0,1.606586e+01,9.769569e+00,0
1.095722e+01,4.926144e+00,4.870892e+00,6,0,1.947293e+01,2.311764e+01,0
9.140239e+00,4.922332e+00,4.868031e+00,5,0,1.807073e+01,2.135587e+01,0
7.339359e+00,4.906300e+00,4.853249e+00,4,0,1.615830e+01,1.879945e+01,0
7.316470e+00,3.704444e+00,3.657818e+00,4,1,1.090687e+01,1.091071e+01,1
5.521420e+00,4.065303e+00,4.021168e+00,3,1,1.214674e+01,1.215682e+01,1
5.514456e+00,4.775061e+00,4.729986e+00,3,2,1.210273e+01,1.210268e+01,1
5.494396e+00,2.935894e+00,2.892017e+00,3,1,1.397096e+01,1.396902e+01,1
7.329134e+00,3.073854e+00,3.030062e+00,4,1,1.415530e+01,1.415467e+01,1
5.514349e+00,3.624590e+00,3.580093e+00,3,1,1.381585e+01,1.381736e+01,1
5.500120e+00,3.315233e+00,3.267765e+00,3,1,1.422193e+01,1.422193e+01,1
5.558970e+00,3.688672e+00,3.644943e+00,3,1,1.179659e+01,1.179667e+01,1
5.511209e+00,5.777686e+00,5.733967e+00,3,2,9.793487e+00,9.794149e+00,1
5.517667e+00,9.628496e+00,9.582281e+00,3,5,7.624888e+00,7.632121e+00,1
5.525873e+00,1.171212e+01,1.166415e+01,3,6,8.702660e+00,8.703887e+00,1
5.517971e+00,4.713322e+00,4.669189e+00,3,2,7.708211e+00,7.708214e+00,1
5.506187e+00,3.745372e+00,3.700018e+00,3,1,7.804384e+00,7.804402e+00,1
5.509524e+00,5.900433e+00,5.853891e+00,3,2,1.259858e+01,1.260218e+01,1
5.502893e+00,2.299632e+00,2.251148e+00,3,0,9.375602e+00,9.380140e+00,1
5.518644e+00,7.042031e+00,6.999016e+00,3,3,6.886019e+00,6.933589e+00,1
5.515389e+00,9.505190e+00,9.460688e+00,3,4,1.120337e+01,1.139354e+01,1
7.316899e+00,5.085295e+00,5.037785e+00,4,2,8.825510e+00,8.839757e+00,1
5.516169e+00,4.687796e+00,4.643917e+00,3,2,5.512556e+00,5.512567e+00,1
5.528186e+00,3.631916e+01,3.626227e+01,3,20,8.398784e+00,9.238940e+00,0
7.331693e+00,2.678152e+01,2.673578e+01,4,18,4.548298e+00,4.548296e+00,1
5.480666e+00,1.901943e+00,1.857996e+00,3,0,3.669313e+00,3.669315e+00,1
5.501583e+00,3.510989e+00,3.466129e+00,3,1,6.593106e+00,6.594668e+00,1
5.509874e+00,3.324809e+00,3.280640e+00,3,1,3.092264e+00,3.092263e+00,1
5.499858e+00,1.848430e+00,1.804113e+00,3,0,4.192800e+00,4.192805e+00,1
5.489815e+00,1.814470e+00,1.769066e+00,3,0,3.595935e+00,3.595938e+00,1
5.500271e+00,3.590008e+00,3.545761e+00,3,1,5.486288e+00,5.496459e+00,1
5.511367e+00,5.348854e+00,5.302191e+00,3,2,5.730854e+00,5.739819e+00,1
7.348313e+00,5.449700e+00,5.402088e+00,4,2,7.440234e+00,7.472658e+00,1
1.095845e+01,2.348159e+01,2.343512e+01,6,14,1.226455e+01,1.268168e+01,1
1.094848e+01,1.042263e+01,1.036382e+01,6,3,2.125477e+01,4.830267e+01,0
1.096362e+01,2.768746e+01,2.764082e+01,6,18,1.445661e+01,1.474823e+01,1
7.323665e+00,1.538988e+01,1.534414e+01,4,10,5.810385e+00,5.810378e+00,1
5.507327e+00,1.887202e+00,1.840830e+00,3,0,6.113498e+00,6.113502e+00,1
5.479126e+00,5.447256e+00,5.403042e+00,3,2,6.988901e+00,6.991112e+00,1
5.508547e+00,3.633705e+00,3.586054e+00,3,1,6.798097e+00,6.799550e+00,1
5.513493e+00,5.905835e+00,5.861998e+00,3,2,6.364294e+00,6.399375e+00,1
5.500401e+00,3.736288e+00,3.684759e+00,3,1,5.785379e+00,5.800304e+00,1
5.506695e+00,4.195974e+00,4.153013e+00,3,1,5.087636e+00,5.107395e+00,1
5.501844e+00,2.357932e+00,2.314091e+00,3,0,4.480150e+00,4.480941e+00,1
5.506023e+00,3.261868e+00,3.217936e+00,3,1,3.479846e+00,3.479851e+00,1
5.510534e+00,3.807318e+00,3.764868e+00,3,1,4.112817e+00,4.113160e+00,1
5.501943e+00,3.347576e+00,3.297091e+00,3,1,3.544368e+00,3.544369e+00,1
5.493212e+00,1.870873e+00,1.827955e+00,3,0,7.771791e+00,7.771805e+00,1
5.489000e+00,3.531071e+00,3.489017e+00,3,1,9.070722e+00,9.070793e+00,1
5.504979e+00,2.599479e+01,2.594471e+01,3,16,1.403601e+01,1.418852e+01,1
1.095977e+01,1.961773e+01,1.957297e+01,6,12,1.633436e+01,1.658625e+01,1
1.098029e+01,2.914629e+01,2.909875e+01,6,19,9.906014e+00,9.912982e+00,1
5.479764e+00,6.838169e+00,6.793022e+00,3,3,1.213365e+01,1.223006e+01,1
7.293820e+00,7.094467e+00,7.051229e+00,4,3,8.312491e+00,8.314109e+00,1
5.480419e+00,3.363792e+00,3.318071e+00,3,1,8.200694e+00,8.200697e+00,1
5.493092e+00,1.829643e+00,1.785040e+00,3,0,7.290743e+00,7.290747e+00,1
5.494488e+00,1.834863e+00,1.789093e+00,3,0,7.667972e+00,7.667978e+00,1
5.495139e+00,3.675053e+00,3.630161e+00,3,1,7.697366e+00,7.701028e+00,1
5.519486e+00,9.045199e+00,8.987904e+00,3,2,9.944395e+00,2.082757e+01,0
5.503884e+00,3.294073e+00,3.247976e+00,3,1,6.859906e+00,6.859894e+00,1
5.506132e+00,4.976750e+00,4.920244e+00,3,0,1.176888e+01,3.456877e+01,0
5.496758e+00,3.649664e+00,3.606796e+00,3,1,6.248855e+00,6.248893e+00,1
5.498133e+00,3.282269e+00,3.235102e+00,3,1,3.136341e+00,3.136341e+00,1
5.479910e+00,1.840875e+00,1.796961e+00,3,0,4.491473e+00,4.491482e+00,1
5.511541e+00,1.569519e+01,1.565289e+01,3,9,6.971316e+00,7.121365e+00,1
9.142602e+00,9.104382e+00,9.055853e+00,5,5,6.183224e+00,6.196702e+00,1
5.508074e+00,4.702629e+00,4.656076e+00,3,2,5.911702e+00,5.911705e+00,1
5.517151e+00,6.895781e+00,6.849051e+00,3,3,1.059886e+01,1.064473e+01,1
5.513763e+00,2.683259e+01,2.678704e+01,3,16,1.553161e+01,1.602276e+01,1
1.097425e+01,1.779885e+01,1.775312e+01,6,11,1.502991e+01,1.564852e+01,1
1.095248e+01,1.504473e+01,1.500010e+01,6,9,1.208663e+01,1.250492e+01,1
5.509613e+00,1.236684e+01,1.231599e+01,3,7,1.015020e+01,1.024825e+01,1
5.492718e+00,8.099304e+00,8.053064e+00,3,4,7.338702e+00,7.338560e+00,1
5.516986e+00,1.227583e+01,1.221490e+01,3,4,9.309460e+00,1.110907e+01,0
7.319912e+00,6.438971e+00,6.382942e+00,4,0,2.078497e+01,6.965643e+01,0
1.095561e+01,6.298382e+00,6.242752e+00,6,0,1.896835e+01,6.336686e+01,0
1.095478e+01,6.367500e+00,6.310940e+00,6,0,1.557977e+01,4.404988e+01,0
1.094895e+01,6.385845e+00,6.330013e+00,6,0,2.670164e+01,7.881840e+01,0
9.159401e+00,6.343507e+00,6.285906e+00,5,0,1.953854e+01,4.415777e+01,0
7.328202e+00,1.052425e+01,1.046705e+01,4,4,9.375568e+00,1.320503e+01,0
5.507098e+00,1.885671e+00,1.841068e+00,3,0,8.168677e+00,8.168182e+00,1
5.506583e+00,4.902928e+00,4.840374e+00,3,0,7.795971e+00,1.010270e+01,0
5.493408e+00,1.819185e+00,1.776934e+00,3,0,5.960910e+00,5.960910e+00,1
5.505157e+00,7.683222e+00,7.629395e+00,3,1,1.254937e+01,2.951049e+01,0
9.124685e+00,6.302135e+00,6.248713e+00,5,0,1.965442e+01,4.448783e+01,0
1.096578e+01,6.281783e+00,6.227255e+00,6,0,3.250162e+01,8.277434e+01,0
1.096885e+01,6.292784e+00,6.235123e+00,6,0,3.699633e+01,9.284521e+01,0
1.094279e+01,6.131733e+00,6.074667e+00,6,0,2.755900e+01,5.242941e+01,0
7.329470e+00,9.548710e+00,9.503126e+00,4,4,1.662981e+01,1.679699e+01,1
5.514400e+00,8.739555e+00,8.696079e+00,3,4,1.455479e+01,1.478994e+01,1
5.487107e+00,7.879179e+00,7.822990e+00,3,1,1.457894e+01,2.375376e+01,0
7.322515e+00,6.212237e+00,6.157875e+00,4,0,1.913926e+01,6.402095e+01,0
1.096804e+01,6.237604e+00,6.184101e+00,6,0,1.818076e+01,6.250366e+01,0
1.096025e+01,6.311448e+00,6.255865e+00,6,0,2.019562e+01,6.274007e+01,0
1.095598e+01,6.326381e+00,6.267309e+00,6,0,2.022810e+01,6.680514e+01,0
1.094957e+01,6.439704e+00,6.383181e+00,6,0,3.260358e+01,1.233127e+02,0
9.145039e+00,1.673240e+01,1.667523e+01,5,7,1.828571e+01,5.335077e+01,0
1.086426e+01,2.924459e+01,2.919817e+01,6,18,1.284204e+01,1.328740e+01,1
7.244490e+00,1.991736e+01,1.987267e+01,4,13,9.114796e+00,9.165609e+00,1
5.422990e+00,3.747273e+00,3.696918e+00,3,1,7.647293e+00,7.667354e+00,1
5.471075e+00,5.550148e+00,5.505085e+00,3,2,9.656015e+00,9.670471e+00,1
5.416879e+00,6.760073e+00,6.714106e+00,3,3,8.754417e+00,8.755221e+00,1
5.448465e+00,4.683175e+00,4.625082e+00,3,2,6.451627e+00,6.451590e+00,1
5.505667e+00,1.923886e+00,1.879930e+00,3,0,8.235232e+00,8.235238e+00,1
5.467074e+00,1.046538e+01,1.040864e+01,3,3,8.394947e+00,9.889648e+00,0
1.084077e+01,6.302642e+00,6.246090e+00,6,0,1.316995e+01,3.224591e+01,0
1.089946e+01,6.384656e+00,6.325722e+00,6,0,2.389055e+01,6.796259e+01,0
9.108371e+00,6.373267e+00,6.303787e+00,5,0,1.456307e+01,2.771262e+01,0
1.086219e+01,1.654592e+01,1.648903e+01,6,7,1.233063e+01,1.952268e+01,0
1.085232e+01,6.304533e+00,6.249189e+00,6,0,1.487442e+01,3.442153e+01,0
1.082844e+01,2.474241e+01,2.468181e+01,6,12,1.018578e+01,1.105852e+01,0
7.334356e+00,1.121405e+01,1.116800e+01,4,6,8.083513e+00,8.101798e+00,1
5.453626e+00,4.421145e+00,4.375219e+00,3,1,7.190760e+00,7.208343e+00,1
5.499034e+00,7.699748e+00,7.657051e+00,3,3,4.842014e+00,4.850575e+00,1
5.521767e+00,2.300042e+00,2.253056e+00,3,0,4.585325e+00,4.585449e+00,1
5.508050e+00,3.325160e+00,3.280163e+00,3,1,3.843248e+00,3.843249e+00,1
5.509534e+00,3.664465e+00,3.618002e+00,3,1,4.954096e+00,4.954283e+00,1
5.502381e+00,3.355187e+00,3.312111e+00,3,1,4.034690e+00,4.034691e+00,1
5.509451e+00,1.561135e+01,1.555419e+01,3,6,7.942774e+00,1.057145e+01,0
7.329948e+00,1.012264e+01,1.007700e+01,4,6,2.770602e+00,2.770601e+00,1
5.647405e+00,1.889030e+00,1.837015e+00,3,0,3.058968e+00,3.058972e+00,1
5.490741e+00,1.816650e+00,1.773119e+00,3,0,4.043293e+00,4.043178e+00,1
5.499143e+00,3.080213e+00,3.039122e+00,3,1,5.247464e+00,5.244478e+00,1
7.308633e+00,3.017766e+00,2.973080e+00,4,1,3.298981e+00,3.298981e+00,1
5.498296e+00,1.919185e+00,1.875877e+00,3,0,2.928362e+00,2.928364e+00,1
5.501537e+00,1.871893e+00,1.827955e+00,3,0,4.178536e+00,4.178540e+00,1
5.491041e+00,1.834026e+00,1.791239e+00,3,0,6.907932e+00,6.907943e+00,1
5.509805e+00,4.829589e+00,4.785061e+00,3,2,7.655444e+00,7.655261e+00,1
7.329244e+00,7.749731e+00,7.706165e+00,4,4,4.556193e+00,4.558636e+00,1
5.512106e+00,4.803957e+00,4.758120e+00,3,2,5.689569e+00,5.689573e+00,1
5.506529e+00,5.411579e+00,5.367041e+00,3,2,3.822659e+00,3.828162e+00,1
5.519421e+00,3.721462e+00,3.674984e+00,3,1,3.743994e+00,3.759473e+00,1
5.501709e+00,2.392252e+00,2.347231e+00,3,0,2.463589e+00,2.466471e+00,1
5.537339e+00,3.374688e+00,3.327847e+00,3,1,2.621692e+00,2.621694e+00,1
5.501807e+00,1.841900e+00,1.793146e+00,3,0,4.907403e+00,4.907409e+00,1
5.497413e+00,1.871278e+00,1.828909e+00,3,0,3.197477e+00,3.197475e+00,1
5.507626e+00,1.933196e+00,1.888990e+00,3,0,3.924240e+00,3.924245e+00,1
5.510329e+00,6.823157e+00,6.772995e+00,3,3,5.634509e+00,5.649336e+00,1
7.332580e+00,6.153574e+00,6.107807e+00,4,3,3.588605e+00,3.588521e+00,1
5.495588e+00,1.879648e+00,1.835108e+00,3,0,4.381448e+00,4.381462e+00,1
5.510657e+00,1.324561e+01,1.319790e+01,3,7,7.663926e+00,7.693338e+00,1
5.520738e+00,8.950310e+00,8.905172e+00,3,5,4.883610e+00,4.883597e+00,1
5.508847e+00,1.007806e+01,1.003504e+01,3,5,6.393397e+00,6.405893e+00,1
5.541946e+00,7.858235e+00,7.813692e+00,3,4,5.649406e+00,5.653922e+00,1
5.509783e+00,3.329283e+00,3.284931e+00,3,1,4.613343e+00,4.613332e+00,1
5.514511e+00,3.720577e+00,3.675938e+00,3,1,3.182765e+00,3.182785e+00,1
5.497532e+00,3.155519e+00,3.113031e+00,3,1,6.515457e+00,6.515486e+00,1
5.501145e+00,1.902963e+00,1.858950e+00,3,0,3.724010e+00,3.724003e+00,1
5.484974e+00,1.804503e+00,1.763105e+00,3,0,4.353610e+00,4.353584e+00,1
5.508385e+00,1.902275e+00,1.860857e+00,3,0,4.988757e+00,4.988573e+00,1
5.500763e+00,1.875968e+00,1.829147e+00,3,0,3.583296e+00,3.583304e+00,1
5.499720e+00,3.481813e+00,3.440142e+00,3,1,3.986813e+00,3.987282e+00,1
5.513835e+00,5.101699e+00,5.056858e+00,3,2,5.582801e+00,5.582985e+00,1
5.506130e+00,5.110359e+00,5.066156e+00,3,2,2.743403e+00,2.743634e+00,1
5.519593e+00,5.346246e+00,5.301237e+00,3,2,2.791708e+00,2.792742e+00,1
5.546784e+00,5.887913e+00,5.843163e+00,3,2,2.059116e+00,2.059283e+00,1
5.493252e+00,2.231546e+00,2.186775e+00,3,0,2.929520e+00,2.945270e+00,1
5.500253e+00,2.363745e+00,2.321959e+00,3,0,1.964952e+00,1.994793e+00,1
5.498401e+00,3.727925e+00,3.683805e+00,3,1,3.392144e+00,3.415739e+00,1
5.522935e+00,5.309031e+00,5.266905e+00,3,2,2.488535e+00,2.488542e+00,1
5.511771e+00,1.806598e+00,1.764059e+00,3,0,1.586962e+00,1.586962e+00,1
5.501723e+00,1.842515e+00,1.795053e+00,3,0,2.288800e+00,2.288804e+00,1
5.512026e+00,3.763937e+00,3.718853e+00,3,1,3.116800e+00,3.116830e+00,1
5.496464e+00,8.912979e+00,8.865118e+00,3,4,4.577564e+00,4.602719e+00,1
5.503693e+00,1.560004e+01,1.554513e+01,3,6,1.165402e+01,1.598469e+01,0
1.094364e+01,6.236670e+00,6.181955e+00,6,0,2.615238e+01,7.782454e+01,0
7.331418e+00,6.049757e+01,6.045413e+01,4,39,1.781635e+01,1.861572e+01,1
1.094063e+01,3.543426e+01,3.538799e+01,6,24,1.288372e+01,1.298717e+01,1
7.329278e+00,1.242871e+01,1.238370e+01,4,7,1.189457e+01,1.196368e+01,1
5.523480e+00,2.052335e+01,2.047992e+01,3,12,1.525736e+01,1.532314e+01,1
7.359128e+00,3.017735e+01,3.011799e+01,4,16,2.069521e+01,2.827516e+01,0
7.338067e+00,3.357202e+01,3.352714e+01,4,23,1.170790e+01,1.170567e+01,1
7.319881e+00,4.371623e+01,4.365778e+01,4,25,1.893579e+01,1.943790e+01,0
9.144882e+00,3.017063e+01,3.012586e+01,5,20,1.399586e+01,1.399938e+01,1
7.341925e+00,1.691136e+01,1.686502e+01,4,10,1.454912e+01,1.454951e+01,1
7.324209e+00,7.930820e+00,7.884979e+00,4,4,1.022368e+01,1.022378e+01,1
5.502963e+00,2.250356e+00,2.205133e+00,3,0,1.125452e+01,1.125465e+01,1
5.500987e+00,3.421480e+00,3.376961e+00,3,1,9.664424e+00,9.664423e+00,1
5.492166e+00,1.847666e+00,1.802921e+00,3,0,1.107297e+01,1.107297e+01,1
5.503782e+00,1.814100e+00,1.770973e+00,3,0,9.024427e+00,9.024429e+00,1
5.490934e+00,1.805069e+00,1.764059e+00,3,0,7.402918e+00,7.402918e+00,1
5.506515e+00,9.185418e+00,9.128809e+00,3,2,9.237387e+00,1.584005e+01,0
5.507802e+00,6.450306e+00,6.394148e+00,3,0,1.233372e+01,3.731008e+01,0
1.095913e+01,7.668862e+00,7.614613e+00,6,2,9.208039e+00,1.808385e+01,0
7.320026e+00,1.834659e+00,1.792908e+00,4,0,5.318782e+00,5.318763e+00,1
5.488752e+00,5.404644e+00,5.359888e+00,3,2,5.041878e+00,5.050305e+00,1
5.438051e+00,6.856869e+00,6.809950e+00,3,3,5.604284e+00,5.607983e+00,1
5.457053e+00,6.041120e+00,5.998135e+00,3,3,4.093355e+00,4.093350e+00,1
5.439877e+00,1.881002e+00,1.838684e+00,3,0,3.352670e+00,3.352674e+00,1
5.404925e+00,1.800991e+00,1.758814e+00,3,0,3.075156e+00,3.075158e+00,1
5.489114e+00,1.933479e+00,1.891136e+00,3,0,3.601684e+00,3.601688e+00,1
5.424209e+00,1.915979e+00,1.868963e+00,3,0,2.539092e+00,2.539094e+00,1
5.412336e+00,1.967134e+00,1.924038e+00,3,0,2.955527e+00,2.955530e+00,1
5.414993e+00,1.789934e+00,1.747847e+00,3,0,2.742331e+00,2.742332e+00,1
5.458003e+00,5.350779e+00,5.306721e+00,3,2,2.580276e+00,2.589021e+00,1
5.520887e+00,5.287537e+00,5.243778e+00,3,2,3.856416e+00,3.881135e+00,1
5.531156e+00,8.505211e+00,8.460760e+00,3,4,2.331170e+00,2.331191e+00,1
5.483679e+00,8.796522e+00,8.744240e+00,3,4,2.802617e+00,2.825449e+00,1
5.419045e+00,2.307151e+00,2.260685e+00,3,0,4.482923e+00,4.518648e+00,1
5.445475e+00,8.502195e+00,8.460045e+00,3,4,3.956042e+00,3.956044e+00,1
5.511992e+00,3.672448e+00,3.616095e+00,3,1,4.228858e+00,4.228955e+00,1
5.432239e+00,3.198578e+00,3.139973e+00,3,1,7.206396e+00,7.206407e+00,1
5.441691e+00,4.911215e+00,4.858017e+00,3,0,9.798221e+00,1.847426e+01,0
5.422757e+00,1.922319e+00,1.879215e+00,3,0,5.752790e+00,5.752783e+00,1
5.465695e+00,1.848547e+00,1.796007e+00,3,0,4.102729e+00,4.102450e+00,1
5.413011e+00,2.946942e+00,2.901077e+00,3,1,5.161049e+00,5.160756e+00,1
7.234868e+00,8.622092e+00,8.579969e+00,4,4,5.341005e+00,5.342822e+00,1
5.411645e+00,5.213606e+00,5.167007e+00,3,2,6.001331e+00,6.008345e+00,1
1.085269e+01,8.806449e+00,8.750200e+00,6,5,1.263409e+01,1.260929e+01,1
7.241050e+00,7.714593e+00,7.670164e+00,4,5,1.126613e+01,1.126581e+01,1
5.413937e+00,1.920158e+00,1.879215e+00,3,0,6.311380e+00,6.311365e+00,1
5.416090e+00,1.797076e+00,1.755714e+00,3,0,1.297376e+01,1.297370e+01,1
5.452496e+00,1.581208e+01,1.576805e+01,3,9,1.525354e+01,1.539296e+01,1
9.051821e+00,6.366665e+00,6.309986e+00,5,0,1.647267e+01,1.771341e+01,0
1.081129e+01,6.350430e+00,6.292105e+00,6,0,2.186734e+01,3.093574e+01,0
1.086544e+01,6.327807e+00,6.272078e+00,6,0,2.195640e+01,2.953058e+01,0
1.088375e+01,1.246415e+01,1.240492e+01,6,4,2.090136e+01,2.738498e+01,0
1.082037e+01,7.725179e+00,7.669926e+00,6,1,2.036083e+01,2.498293e+01,0
1.081726e+01,2.563128e+01,2.557135e+01,6,13,1.733272e+01,1.809267e+01,0
7.250597e+00,9.078997e+00,9.021044e+00,4,2,1.611137e+01,1.954267e+01,0
1.080797e+01,1.475228e+01,1.469731e+01,6,6,1.332541e+01,1.589768e+01,0
7.225595e+00,5.126324e+00,5.080938e+00,4,2,1.155055e+01,1.151623e+01,1
5.492183e+00,1.004642e+01,9.998083e+00,3,5,1.109231e+01,1.114391e+01,1
5.466860e+00,3.894962e+01,3.889298e+01,3,22,1.014454e+01,1.173014e+01,0
1.084610e+01,6.237085e+00,6.181479e+00,6,0,9.901069e+00,1.391893e+01,0
1.086458e+01,3.863058e+01,3.858495e+01,6,26,6.569452e+00,6.749164e+00,1
9.053372e+00,1.467233e+01,1.462388e+01,5,9,4.513043e+00,4.518002e+00,1
5.455268e+00,2.306192e+00,2.261162e+00,3,0,2.750637e+00,2.750776e+00,1
7.349632e+00,3.801581e+01,3.796029e+01,4,22,1.709296e+01,4.366233e+01,0
1.080342e+01,2.625618e+01,2.620792e+01,6,17,8.352294e+00,8.396359e+00,1
9.030703e+00,1.527694e+01,1.523209e+01,5,9,9.705850e+00,9.813911e+00,1
1.079234e+01,1.682436e+01,1.675653e+01,6,7,1.724834e+01,3.560194e+01,0
1.081754e+01,2.453971e+01,2.449584e+01,6,16,1.224395e+01,1.239261e+01,1
9.106664e+00,3.534433e+01,3.528190e+01,5,22,1.404680e+01,1.410104e+01,1
1.084697e+01,4.446681e+01,4.440522e+01,6,27,2.084000e+01,2.559684e+01,0
1.088627e+01,7.120868e+01,7.116103e+01,6,51,1.556958e+01,1.560710e+01,1
1.085084e+01,1.748598e+01,1.743698e+01,6,10,1.523798e+01,1.528938e+01,1
7.245831e+00,1.590544e+01,1.584125e+01,4,9,1.401666e+01,1.407997e+01,1
5.627515e+00,1.314919e+01,1.309109e+01,3,5,9.304500e+00,1.149064e+01,0
5.456063e+00,2.253218e+00,2.207041e+00,3,0,6.429069e+00,6.461699e+00,1
5.438126e+00,1.097136e+01,1.092720e+01,3,5,7.387112e+00,7.397888e+00,1
7.259705e+00,6.826113e+00,6.783247e+00,4,3,5.050866e+00,5.052240e+00,1
5.483712e+00,2.302159e+00,2.259970e+00,3,0,5.789065e+00,5.802041e+00,1
5.421554e+00,3.330172e+00,3.287077e+00,3,1,9.145252e+00,9.145032e+00,1
7.241493e+00,2.151111e+01,2.146888e+01,4,13,1.723771e+01,1.732436e+01,1
1.085581e+01,2.924613e+01,2.920198e+01,6,19,2.068864e+01,2.077060e+01,1
9.069465e+00,1.925309e+01,1.920485e+01,5,12,1.927784e+01,1.922453e+01,1
9.077762e+00,1.392041e+01,1.387501e+01,5,8,1.576245e+01,1.575929e+01,1
1.092107e+01,5.097478e+00,5.050898e+00,6,2,1.453451e+01,1.452378e+01,1
7.214371e+00,4.444503e+00,4.400015e+00,4,2,8.595888e+00,8.595889e+00,1
5.454679e+00,7.743607e+00,7.686853e+00,3,1,1.001603e+01,2.329386e+01,0
5.469786e+00,6.209472e+00,6.154299e+00,3,0,7.399056e+00,1.812969e+01,0
5.473927e+00,3.357211e+00,3.309965e+00,3,1,5.336923e+00,5.336924e+00,1
5.477580e+00,3.709569e+00,3.664970e+00,3,1,5.364131e+00,5.364184e+00,1
5.513794e+00,5.127812e+00,5.082130e+00,3,2,4.336334e+00,4.336820e+00,1
5.478870e+00,8.004672e+00,7.947683e+00,3,1,4.920270e+00,6.314004e+00,0
5.520907e+00,8.245115e+00,8.199215e+00,3,4,3.483238e+00,3.486048e+00,1
5.505384e+00,7.142161e+00,7.093906e+00,3,3,7.213578e+00,7.213773e+00,1
7.305003e+00,8.085809e+00,8.040905e+00,4,4,8.959082e+00,8.962358e+00,1
7.312294e+00,6.466929e+00,6.420135e+00,4,3,3.774089e+00,3.774208e+00,1
5.429863e+00,2.286761e+00,2.240896e+00,3,0,4.281006e+00,4.282535e+00,1
5.467515e+00,6.767796e+00,6.722689e+00,3,3,5.403281e+00,5.403727e+00,1
5.445301e+00,2.216557e+00,2.171040e+00,3,0,4.333764e+00,4.335526e+00,1
7.243920e+00,7.505292e+00,7.452250e+00,4,1,2.212311e+01,8.351638e+01,0
1.083516e+01,6.345838e+00,6.288767e+00,6,0,2.878430e+01,9.951403e+01,0
1.081933e+01,6.344036e+00,6.286860e+00,6,0,3.708826e+01,1.305095e+02,0
1.081977e+01,6.384228e+00,6.326675e+00,6,0,3.212910e+01,9.613062e+01,0
1.090518e+01,6.304223e+00,6.248951e+00,6,0,3.741250e+01,1.008382e+02,0
1.085252e+01,6.394984e+00,6.335735e+00,6,0,3.872446e+01,9.077420e+01,0
1.086542e+01,6.350997e+00,6.292105e+00,6,0,5.488486e+01,1.350267e+02,0
9.080124e+00,7.346709e+00,7.291555e+00,5,2,3.951469e+01,6.880366e+01,0
7.284889e+00,4.978686e+00,4.920959e+00,4,0,3.479638e+01,5.265977e+01,0
1.085443e+01,1.055212e+01,1.049399e+01,6,3,3.359743e+01,4.300529e+01,0
7.279468e+00,7.912595e+00,7.855177e+00,4,1,2.891645e+01,2.494696e+01,0
7.339460e+00,6.456271e+00,6.394863e+00,4,0,2.490751e+01,1.227939e+01,0
5.556501e+00,1.089449e+01,1.083088e+01,3,3,2.322957e+01,2.324445e+01,0
5.440949e+00,1.211062e+01,1.205373e+01,3,4,1.999033e+01,2.471106e+01,0
5.471743e+00,1.471575e+01,1.467109e+01,3,8,1.906297e+01,1.915157e+01,1
5.448029e+00,7.624766e+00,7.566929e+00,3,1,1.818132e+01,2.157116e+01,0
5.462289e+00,1.360036e+01,1.354003e+01,3,5,1.691845e+01,1.951781e+01,0
5.485702e+00,6.432965e+00,6.353140e+00,3,0,1.262879e+01,2.137204e+01,0
5.489459e+00,2.850244e+01,2.845693e+01,3,17,1.212302e+01,1.218909e+01,1
5.461161e+00,1.352900e+01,1.348090e+01,3,8,9.293842e+00,9.355268e+00,1
5.399281e+00,7.702593e+00,7.644176e+00,3,1,9.064325e+00,1.233063e+01,0
5.437925e+00,8.405201e+00,8.359909e+00,3,4,6.022039e+00,6.029112e+00,1
5.487981e+00,1.584474e+01,1.577997e+01,3,6,7.463824e+00,7.923227e+00,0
5.477183e+00,1.151762e+01,1.146817e+01,3,6,7.094252e+00,7.115353e+00,1
5.454775e+00,1.215506e+01,1.210999e+01,3,7,6.770393e+00,6.809722e+00,1
5.367795e+00,3.585543e+00,3.543139e+00,3,1,4.254091e+00,4.303942e+00,1
5.482950e+00,1.877149e+01,1.871991e+01,3,8,7.688635e+00,1.015896e+01,0
1.275666e+01,6.300900e+00,6.245375e+00,7,0,1.125655e+01,2.482317e+01,0
1.096918e+01,2.032530e+01,2.028108e+01,6,12,9.065217e+00,9.331217e+00,1
7.330003e+00,1.252298e+01,1.246905e+01,4,7,8.526477e+00,8.584346e+00,1
5.545570e+00,3.659787e+00,3.614902e+00,3,1,7.057490e+00,7.061841e+00,1
5.519030e+00,1.615413e+01,1.611090e+01,3,9,9.590198e+00,9.600458e+00,1
7.365462e+00,1.230749e+01,1.225901e+01,4,8,6.053538e+00,6.053521e+00,1
5.515873e+00,5.473915e+00,5.430222e+00,3,2,8.935326e+00,8.938675e+00,1
7.253618e+00,1.198819e+01,1.194310e+01,4,6,1.025811e+01,1.027615e+01,1
5.436477e+00,1.311497e+01,1.306891e+01,3,7,1.358238e+01,1.368162e+01,1
5.510191e+00,1.865179e+01,1.859093e+01,3,8,2.088198e+01,3.328512e+01,0
7.250254e+00,2.823096e+01,2.817369e+01,4,15,2.114658e+01,2.671747e+01,0
7.321797e+00,3.327994e+01,3.323102e+01,4,22,9.990220e+00,1.001576e+01,1
5.634016e+00,3.997065e+00,3.949881e+00,3,1,9.833943e+00,9.849088e+00,1
5.559549e+00,3.752264e+00,3.708124e+00,3,1,1.101941e+01,1.102114e+01,1
5.529570e+00,5.379955e+00,5.333900e+00,3,2,1.052962e+01,1.054243e+01,1
5.526415e+00,2.428063e+00,2.380848e+00,3,0,8.078903e+00,8.079115e+00,1
5.554391e+00,6.166241e+00,6.108761e+00,3,1,9.645915e+00,2.231008e+01,0
7.246557e+00,4.944390e+00,4.887104e+00,4,0,1.099446e+01,3.279978e+01,0
1.103186e+01,4.982297e+00,4.927874e+00,6,0,1.310084e+01,5.192171e+01,0
1.098740e+01,5.078560e+00,5.021334e+00,6,0,1.448830e+01,5.276014e+01,0
1.089180e+01,7.719521e+00,7.660866e+00,6,1,9.602229e+00,1.928523e+01,0
9.050574e+00,6.459852e+00,6.403208e+00,5,0,9.769758e+00,2.226106e+01,0
1.088801e+01,6.204444e+00,6.149769e+00,6,0,1.110295e+01,3.398997e+01,0
7.233982e+00,5.179953e+00,5.136251e+00,4,2,6.513626e+00,6.513449e+00,1
5.432818e+00,1.914037e+00,1.863956e+00,3,0,6.460745e+00,6.460583e+00,1
5.438143e+00,1.873472e+00,1.832008e+00,3,0,4.900520e+00,4.900516e+00,1
5.419958e+00,1.873645e+00,1.832962e+00,3,0,4.022320e+00,4.022321e+00,1
5.470998e+00,1.917481e+00,1.874924e+00,3,0,6.588430e+00,6.588431e+00,1
5.419458e+00,1.815147e+00,1.771212e+00,3,0,3.407442e+00,3.407442e+00,1
5.445190e+00,6.285590e+00,6.236076e+00,3,3,4.750474e+00,4.748171e+00,1
1.086006e+01,3.533711e+01,3.528285e+01,6,19,1.335444e+01,1.887140e+01,0
9.086106e+00,6.118202e+00,6.061077e+00,5,0,2.180468e+01,5.193486e+01,0
1.093744e+01,1.604767e+01,1.599383e+01,6,7,1.570034e+01,2.459344e+01,0
7.201346e+00,2.646088e+01,2.640200e+01,4,14,1.486374e+01,2.486574e+01,0
9.128904e+00,5.056351e+01,5.051780e+01,5,33,1.391839e+01,1.417006e+01,1
7.276584e+00,2.548110e+01,2.543402e+01,4,17,9.060930e+00,9.065120e+00,1
7.230688e+00,2.757231e+01,2.751589e+01,4,14,1.589591e+01,1.837004e+01,0
7.393853e+00,2.414514e+01,2.410173e+01,4,16,9.399375e+00,9.423549e+00,1
5.468969e+00,2.306851e+00,2.262831e+00,3,0,5.897779e+00,5.947279e+00,1
5.489946e+00,5.935342e+00,5.892992e+00,3,3,5.343587e+00,5.343468e+00,1
5.429261e+00,1.777720e+00,1.734018e+00,3,0,5.091660e+00,5.091591e+00,1
5.502552e+00,1.766712e+00,1.724958e+00,3,0,4.830605e+00,4.830608e+00,1
5.443616e+00,1.824142e+00,1.783133e+00,3,0,7.043053e+00,7.043065e+00,1
5.459304e+00,1.903628e+00,1.860142e+00,3,0,1.000058e+01,1.000059e+01,1
5.503467e+00,1.938648e+01,1.933908e+01,3,11,1.628891e+01,1.643637e+01,1
5.411203e+00,1.178153e+01,1.173806e+01,3,7,1.277002e+01,1.278193e+01,1
5.466180e+00,1.058346e+01,1.054120e+01,3,5,1.203203e+01,1.204126e+01,1
7.252941e+00,1.784735e+01,1.779103e+01,4,10,1.661918e+01,1.693488e+01,1
1.093162e+01,4.756732e+01,4.751492e+01,6,28,3.187129e+01,5.572467e+01,0
1.100112e+01,7.376627e+01,7.371783e+01,6,51,2.010258e+01,2.025192e+01,1
1.095236e+01,3.259151e+01,3.254485e+01,6,21,2.030139e+01,2.047296e+01,1
7.330927e+00,2.135404e+01,2.130890e+01,4,14,1.082402e+01,1.082400e+01,1
5.517294e+00,8.507269e+00,8.463621e+00,3,4,1.275865e+01,1.279034e+01,1
5.502324e+00,1.099044e+01,1.093388e+01,3,3,1.597486e+01,2.650267e+01,0
1.096928e+01,1.799923e+01,1.795411e+01,6,11,1.000484e+01,1.001124e+01,1
5.648253e+00,5.135705e+00,5.089283e+00,3,2,8.350332e+00,8.352043e+00,1
5.504579e+00,3.755540e+00,3.709078e+00,3,1,5.888359e+00,5.890529e+00,1
5.515100e+00,8.526301e+00,8.481026e+00,3,4,8.865664e+00,8.879631e+00,1
5.514333e+00,5.813635e+00,5.765915e+00,3,2,8.872313e+00,9.038993e+00,1
5.507197e+00,3.742173e+00,3.693104e+00,3,1,6.145740e+00,6.169288e+00,1
5.510095e+00,3.321304e+00,3.277063e+00,3,1,4.499973e+00,4.499933e+00,1
5.564602e+00,5.418096e+00,5.370140e+00,3,2,6.256417e+00,6.258024e+00,1
5.559119e+00,5.506745e+00,5.455017e+00,3,2,4.754067e+00,4.758722e+00,1
5.519505e+00,1.044850e+01,1.039290e+01,3,3,1.353314e+01,3.853509e+01,0
1.098578e+01,7.661814e+00,7.604837e+00,6,2,6.894646e+00,6.322712e+00,0
5.497915e+00,2.002079e+00,1.959085e+00,3,0,4.729128e+00,4.729102e+00,1
5.492763e+00,1.804904e+00,1.764059e+00,3,0,6.404647e+00,6.404656e+00,1
5.476376e+00,1.842316e+00,1.798153e+00,3,0,3.488302e+00,3.488302e+00,1
5.563707e+00,1.045451e+01,1.040912e+01,3,5,5.438551e+00,5.464802e+00,1
5.490211e+00,1.337335e+01,1.332712e+01,3,7,7.859378e+00,8.050853e+00,1
7.333985e+00,2.284444e+01,2.280188e+01,4,14,1.055821e+01,1.077923e+01,1
1.096892e+01,1.770404e+01,1.765704e+01,6,11,7.042887e+00,7.060890e+00,1
1.096670e+01,3.961372e+01,3.955102e+01,6,22,1.649961e+01,2.266122e+01,0
9.133876e+00,3.653712e+01,3.649402e+01,5,24,1.327130e+01,1.361859e+01,1
7.337554e+00,3.184330e+01,3.179693e+01,4,20,1.590215e+01,1.646805e+01,1
9.137393e+00,2.603148e+01,2.598715e+01,5,17,1.272013e+01,1.281199e+01,1
5.516263e+00,1.994881e+01,1.990604e+01,3,12,1.532759e+01,1.535762e+01,1
7.321478e+00,1.058807e+01,1.054311e+01,4,6,1.111584e+01,1.113919e+01,1
5.502071e+00,3.842130e+00,3.787994e+00,3,1,8.445961e+00,8.458329e+00,1
5.503526e+00,3.266995e+00,3.220797e+00,3,1,7.358686e+00,7.358691e+00,1
5.486163e+00,1.869463e+00,1.824617e+00,3,0,4.827184e+00,4.827184e+00,1
5.502383e+00,3.618987e+00,3.575802e+00,3,1,4.800612e+00,4.800678e+00,1
5.503630e+00,3.334436e+00,3.288984e+00,3,1,5.516359e+00,5.516363e+00,1
5.499962e+00,3.695211e+00,3.649950e+00,3,1,6.874677e+00,6.882839e+00,1
7.326410e+00,3.276439e+00,3.230810e+00,4,1,5.017497e+00,5.017499e+00,1
5.478875e+00,1.820462e+00,1.778126e+00,3,0,8.703105e+00,8.703102e+00,1
5.515028e+00,1.272136e+01,1.267791e+01,3,7,8.977685e+00,9.024911e+00,1
7.334284e+00,1.340425e+01,1.335812e+01,4,8,6.300522e+00,6.306428e+00,1
5.515675e+00,3.344806e+00,3.293991e+00,3,1,5.580004e+00,5.580008e+00,1
5.495640e+00,1.835984e+00,1.791000e+00,3,0,7.498004e+00,7.498012e+00,1
5.504583e+00,4.897605e+00,4.843950e+00,3,0,7.497515e+00,1.360763e+01,0
1.093493e+01,4.934972e+00,4.879951e+00,6,0,8.567260e+00,2.095236e+01,0
1.094486e+01,7.726608e+00,7.671833e+00,6,1,1.068710e+01,2.580586e+01,0
1.095161e+01,6.385900e+00,6.330729e+00,6,0,1.259542e+01,3.424103e+01,0
1.095470e+01,8.325860e+00,8.282185e+00,6,4,7.198394e+00,7.212785e+00,1
7.312975e+00,8.836062e+00,8.787870e+00,4,5,6.490407e+00,6.490291e+00,1
5.489483e+00,1.920357e+00,1.871109e+00,3,0,4.306142e+00,4.306149e+00,1
5.491274e+00,1.826792e+00,1.784801e+00,3,0,4.778175e+00,4.778179e+00,1
5.501465e+00,8.590731e+00,8.546114e+00,3,4,7.851302e+00,8.030108e+00,1
7.332249e+00,9.186361e+00,9.140730e+00,4,5,5.134871e+00,5.134941e+00,1
5.491329e+00,6.524389e+00,6.479025e+00,3,3,9.133375e+00,9.133056e+00,1
7.311585e+00,5.524458e+00,5.476713e+00,4,3,6.430664e+00,6.428144e+00,1
1.094565e+01,4.804318e+00,4.759073e+00,6,2,1.104486e+01,1.102855e+01,1
7.332392e+00,5.873179e+00,5.825996e+00,4,3,6.855133e+00,6.855126e+00,1
5.515431e+00,1.092085e+01,1.086640e+01,3,3,1.622036e+01,2.838593e+01,0
1.094281e+01,6.241191e+00,6.186962e+00,6,0,2.140094e+01,4.391190e+01,0
1.094369e+01,6.262637e+00,6.206036e+00,6,0,1.351735e+01,2.081384e+01,0
1.094908e+01,6.257323e+00,6.203175e+00,6,0,1.951192e+01,3.777679e+01,0
1.095879e+01,1.043172e+01,1.037121e+01,6,3,1.821218e+01,3.257846e+01,0
1.097480e+01,8.992085e+00,8.935213e+00,6,2,1.506560e+01,2.119236e+01,0
7.315340e+00,6.279691e+00,6.222248e+00,4,0,1.912954e+01,3.131447e+01,0
9.140457e+00,1.383839e+01,1.377892e+01,5,5,1.813569e+01,2.463992e+01,0
7.321721e+00,6.317899e+00,6.263018e+00,4,0,1.920579e+01,2.636305e+01,0
1.095341e+01,6.324877e+00,6.266832e+00,6,0,1.474731e+01,9.679890e+00,0
9.106759e+00,1.358507e+01,1.353192e+01,5,8,9.569553e+00,9.574105e+00,1
7.351333e+00,2.672980e+01,2.668309e+01,4,16,9.064985e+00,9.670283e+00,1
1.083461e+01,1.403600e+01,1.397848e+01,6,5,9.372910e+00,1.598045e+01,0
7.312052e+00,3.948169e+01,3.943467e+01,4,27,4.138641e+00,4.138615e+00,1
5.510540e+00,1.879746e+00,1.835108e+00,3,0,5.313576e+00,5.313588e+00,1
5.509176e+00,5.293141e+00,5.245924e+00,3,2,5.256046e+00,5.260690e+00,1
5.507986e+00,2.356552e+00,2.310038e+00,3,0,4.709682e+00,4.724568e+00,1
5.496295e+00,4.106326e+00,4.063845e+00,3,1,5.803529e+00,5.816197e+00,1
5.519596e+00,8.618830e+00,8.574009e+00,3,4,5.946344e+00,5.959208e+00,1
5.521917e+00,2.026853e+01,2.021599e+01,3,9,7.731599e+00,9.821226e+00,0
9.090618e+00,1.716686e+01,1.712108e+01,5,10,6.313395e+00,6.455677e+00,1
7.271209e+00,1.647701e+01,1.642895e+01,4,10,7.098710e+00,7.354522e+00,1
7.250749e+00,1.222069e+01,1.218987e+01,4,8,4.936421e+00,4.936323e+00,1
5.446828e+00,1.195847e+01,1.192975e+01,3,7,6.791416e+00,6.831563e+00,1
1.086873e+01,1.084069e+01,1.081204e+01,6,6,7.323057e+00,7.495529e+00,1
1.087613e+01,1.031431e+01,1.028419e+01,6,6,6.920354e+00,7.042207e+00,1
7.267430e+00,1.177046e+01,1.174092e+01,4,7,4.982937e+00,4.983392e+00,1
5.470043e+00,5.983881e+00,5.952835e+00,3,3,4.552163e+00,4.552174e+00,1
7.255142e+00,1.480525e+01,1.477695e+01,4,9,9.271790e+00,9.328725e+00,1
9.056320e+00,9.893632e+00,9.865999e+00,5,6,5.607137e+00,5.595501e+00,1
7.247060e+00,4.260172e+00,4.230976e+00,4,2,3.872838e+00,3.872839e+00,1
5.440035e+00,6.779397e+00,6.751060e+00,3,3,4.731823e+00,4.777626e+00,1
5.438952e+00,3.330884e+00,3.303051e+00,3,1,6.237205e+00,6.328158e+00,1
5.455555e+00,3.887599e+00,3.859043e+00,3,1,7.213981e+00,7.259256e+00,1
5.438405e+00,3.871758e+00,3.843069e+00,3,1,7.643217e+00,7.654008e+00,1
5.462176e+00,4.608468e+00,4.579782e+00,3,2,7.440269e+00,7.441392e+00,1
5.475175e+00,3.093578e+00,3.057957e+00,3,1,5.642871e+00,5.642875e+00,1
5.527797e+00,2.228322e+00,2.167225e+00,3,0,4.739370e+00,4.739370e+00,1
5.503301e+00,3.786959e+00,3.732920e+00,3,1,6.580941e+00,6.585665e+00,1
5.517501e+00,3.201180e+00,3.153086e+00,3,1,2.518996e+00,2.518989e+00,1
5.530679e+00,4.290528e+00,4.234076e+00,3,2,6.571962e+00,6.570457e+00,1
1.094339e+01,6.063083e+00,6.010056e+00,6,3,7.640021e+00,7.625168e+00,1
1.094861e+01,9.485607e+00,9.423256e+00,6,2,1.682238e+01,3.118241e+01,0
1.820930e+01,6.249126e+00,6.188869e+00,10,0,1.506432e+01,1.324662e+01,0
7.314918e+00,1.082336e+01,1.077819e+01,4,6,9.807801e+00,9.803194e+00,1
7.320746e+00,6.644764e+00,6.595135e+00,4,3,7.582228e+00,7.585539e+00,1
5.528038e+00,1.175149e+01,1.170206e+01,3,6,8.381249e+00,8.390921e+00,1
7.336691e+00,1.566201e+01,1.561403e+01,4,9,5.777454e+00,5.804684e+00,1
5.520790e+00,6.487740e+00,6.439924e+00,3,3,4.373384e+00,4.377931e+00,1
5.495961e+00,4.166069e+00,4.115820e+00,3,1,5.385464e+00,5.407789e+00,1
5.520215e+00,6.092116e+00,6.047010e+00,3,2,4.299833e+00,4.306303e+00,1
5.488331e+00,2.224050e+00,2.177954e+00,3,0,5.297246e+00,5.343274e+00,1
5.516562e+00,5.605041e+00,5.558968e+00,3,2,5.389743e+00,5.481845e+00,1
5.507070e+00,4.262361e+00,4.218102e+00,3,1,4.348341e+00,4.386173e+00,1
5.490313e+00,3.576566e+00,3.530025e+00,3,1,4.222719e+00,4.223902e+00,1
5.501448e+00,3.277234e+00,3.230095e+00,3,1,4.195404e+00,4.195408e+00,1
5.499073e+00,3.554958e+00,3.508806e+00,3,1,4.472756e+00,4.483926e+00,1
5.496592e+00,3.321948e+00,3.275633e+00,3,1,2.372771e+00,2.372736e+00,1
5.497556e+00,1.854726e+00,1.805782e+00,3,0,2.528388e+00,2.528395e+00,1
5.512765e+00,3.607750e+00,3.562212e+00,3,1,5.384799e+00,5.384782e+00,1
7.341410e+00,8.567449e+00,8.521080e+00,4,5,9.597658e+00,9.595895e+00,1
1.093903e+01,4.007078e+00,3.959894e+00,6,2,7.862152e+00,7.846196e+00,1
9.144486e+00,4.231303e+00,4.185915e+00,5,2,4.289240e+00,4.288908e+00,1
5.524009e+00,6.654978e+00,6.608009e+00,3,3,7.014956e+00,7.017092e+00,1
7.317890e+00,5.258719e+00,5.211830e+00,4,2,6.143711e+00,6.143064e+00,1
7.324568e+00,8.589425e+00,8.543968e+00,4,4,4.670062e+00,4.676436e+00,1
5.509128e+00,2.356447e+00,2.310038e+00,3,0,6.127851e+00,6.141567e+00,1
5.498166e+00,4.023277e+00,3.973961e+00,3,1,8.049375e+00,8.082079e+00,1
5.513337e+00,7.285872e+00,7.233143e+00,3,3,7.059700e+00,7.112222e+00,1
5.490520e+00,4.201748e+00,4.154205e+00,3,1,1.007746e+01,1.019634e+01,1
7.305386e+00,2.279627e+00,2.233028e+00,4,0,8.991269e+00,9.223048e+00,1
7.334644e+00,5.635859e+00,5.589962e+00,4,2,5.556929e+00,5.687831e+00,1
5.499232e+00,3.598052e+00,3.553152e+00,3,1,3.903190e+00,3.904585e+00,1
5.509427e+00,3.324490e+00,3.279924e+00,3,1,2.535431e+00,2.535432e+00,1
5.496891e+00,3.587319e+00,3.541231e+00,3,1,2.787518e+00,2.792375e+00,1
5.505582e+00,4.006518e+00,3.960133e+00,3,1,2.824102e+00,2.829241e+00,1
5.491652e+00,2.226042e+00,2.180099e+00,3,0,5.674775e+00,5.786401e+00,1
5.511396e+00,3.705030e+00,3.659248e+00,3,1,3.599437e+00,3.611066e+00,1
5.504443e+00,2.271609e+00,2.228022e+00,3,0,5.233116e+00,5.249034e+00,1
5.495318e+00,3.244075e+00,3.193140e+00,3,1,6.615829e+00,6.615836e+00,1
5.495644e+00,1.864837e+00,1.820803e+00,3,0,8.919258e+00,8.919240e+00,1
5.483344e+00,1.848014e+00,1.801968e+00,3,0,7.860221e+00,7.860195e+00,1
5.479530e+00,1.815045e+00,1.771927e+00,3,0,4.139191e+00,4.139200e+00,1
5.517123e+00,1.314540e+01,1.309824e+01,3,7,8.143385e+00,8.227670e+00,1
5.516159e+00,1.541201e+01,1.536512e+01,3,9,7.594514e+00,7.671403e+00,1
7.342528e+00,2.355091e+01,2.350473e+01,4,14,9.616090e+00,9.705651e+00,1
9.135577e+00,2.515619e+01,2.510786e+01,5,16,8.869424e+00,8.936883e+00,1
9.142991e+00,8.973685e+00,8.926153e+00,5,4,6.431788e+00,6.450871e+00,1
7.322098e+00,5.587902e+00,5.536795e+00,4,2,7.069651e+00,7.121120e+00,1
1.096116e+01,1.954132e+01,1.949406e+01,6,11,1.159744e+01,1.173591e+01,1
7.362317e+00,1.719465e+01,1.714706e+01,4,11,7.000168e+00,7.000163e+00,1
5.520803e+00,1.012951e+01,1.007318e+01,3,5,1.029802e+01,1.037162e+01,1
5.513211e+00,1.405345e+01,1.400614e+01,3,8,1.129883e+01,1.135245e+01,1
1.096055e+01,1.360786e+01,1.355910e+01,6,8,1.082335e+01,1.084459e+01,1
7.321264e+00,8.889524e+00,8.841991e+00,4,5,8.018910e+00,8.018847e+00,1
5.489393e+00,1.822479e+00,1.777887e+00,3,0,6.198956e+00,6.198952e+00,1
5.510745e+00,5.361351e+00,5.313873e+00,3,2,6.003777e+00,6.015679e+00,1
5.507681e+00,3.763064e+00,3.717184e+00,3,1,4.384910e+00,4.385075e+00,1

