3.635746e+00,8.000170e+01,7.865906e+01,2,48,0.000000e+00,9.094947e-13,1
5.304154e+00,1.772823e+00,1.714945e+00,3,0,8.011814e-01,8.011832e-01,1
5.364211e+00,3.645688e+00,3.602982e+00,3,1,4.909226e+00,4.909246e+00,1
5.311634e+00,3.093709e+00,3.051043e+00,3,1,2.566046e+00,2.566046e+00,1
5.333075e+00,1.870931e+00,1.828194e+00,3,0,7.996260e+00,7.996275e+00,1
5.316555e+00,4.743468e+00,4.686356e+00,3,0,1.355361e+01,2.086885e+01,0
1.058036e+01,4.614053e+00,4.561901e+00,6,0,1.571225e+01,2.100429e+01,0
1.062172e+01,4.726803e+00,4.671097e+00,6,0,2.551941e+01,5.527058e+01,0
1.057794e+01,4.814228e+00,4.757166e+00,6,0,1.606586e+01,9.769569e+00,0
1.063020e+01,4.766455e+00,4.715204e+00,6,0,1.947293e+01,2.311764e+01,0
8.845609e+00,4.780391e+00,4.725933e+00,5,0,1.807073e+01,2.135587e+01,0
7.082920e+00,4.737036e+00,4.685402e+00,4,0,1.615830e+01,1.879945e+01,0
7.139027e+00,3.488186e+00,3.442049e+00,4,1,1.090687e+01,1.091071e+01,1
5.357396e+00,3.737449e+00,3.691912e+00,3,1,1.214674e+01,1.215682e+01,1
5.342312e+00,4.586440e+00,4.544020e+00,3,2,1.210273e+01,1.210268e+01,1
5.343681e+00,2.922438e+00,2.879858e+00,3,1,1.397096e+01,1.396902e+01,1
7.085009e+00,2.901914e+00,2.853155e+00,4,1,1.415530e+01,1.415467e+01,1
5.342638e+00,3.555207e+00,3.509998e+00,3,1,1.381585e+01,1.381736e+01,1
5.301856e+00,3.161267e+00,3.114939e+00,3,1,1.422193e+01,1.422193e+01,1
5.310905e+00,3.486392e+00,3.437996e+00,3,1,1.179659e+01,1.179667e+01,1
5.314967e+00,5.669508e+00,5.625963e+00,3,2,9.793487e+00,9.794149e+00,1
5.321586e+00,9.339423e+00,9.295225e+00,3,5,7.624888e+00,7.632121e+00,1
5.379721e+00,1.129690e+01,1.125121e+01,3,6,8.702660e+00,8.703887e+00,1
5.400081e+00,4.529452e+00,4.483938e+00,3,2,7.708211e+00,7.708214e+00,1
5.368173e+00,3.469734e+00,3.423214e+00,3,1,7.804384e+00,7.804402e+00,1
5.345532e+00,5.665054e+00,5.622149e+00,3,2,1.259858e+01,1.260218e+01,1
5.340512e+00,2.379574e+00,2.334833e+00,3,0,9.375602e+00,9.380140e+00,1
5.509255e+00,6.922853e+00,6.875992e+00,3,3,6.886019e+00,6.933589e+00,1
5.443393e+00,9.334499e+00,9.287834e+00,3,4,1.120337e+01,1.139354e+01,1
7.249239e+00,4.937509e+00,4.890203e+00,4,2,8.825510e+00,8.839757e+00,1
5.496286e+00,4.649255e+00,4.605055e+00,3,2,5.512556e+00,5.512567e+00,1
5.465600e+00,3.628326e+01,3.622389e+01,3,20,8.398784e+00,9.238940e+00,0
7.187508e+00,2.635416e+01,2.629924e+01,4,18,4.548298e+00,4.548296e+00,1
5.433004e+00,1.791303e+00,1.744032e+00,3,0,3.669313e+00,3.669315e+00,1
5.445163e+00,3.584888e+00,3.543139e+00,3,1,6.593106e+00,6.594668e+00,1
5.380093e+00,3.154445e+00,3.111124e+00,3,1,3.092264e+00,3.092263e+00,1
5.395482e+00,1.948590e+00,1.906872e+00,3,0,4.192800e+00,4.192805e+00,1
5.434348e+00,1.784522e+00,1.742125e+00,3,0,3.595935e+00,3.595938e+00,1
5.418961e+00,3.574476e+00,3.530025e+00,3,1,5.486288e+00,5.496459e+00,1
5.358556e+00,5.157289e+00,5.110979e+00,3,2,5.730854e+00,5.739819e+00,1
7.200279e+00,5.172573e+00,5.125046e+00,4,2,7.440234e+00,7.472658e+00,1
1.080134e+01,2.289295e+01,2.284694e+01,6,14,1.226455e+01,1.268168e+01,1
1.084819e+01,1.016029e+01,1.009226e+01,6,3,2.125477e+01,4.830267e+01,0
1.087218e+01,2.716166e+01,2.711105e+01,6,18,1.445661e+01,1.474823e+01,1
7.193754e+00,1.539751e+01,1.534986e+01,4,10,5.810385e+00,5.810378e+00,1
5.409257e+00,1.903084e+00,1.859188e+00,3,0,6.113498e+00,6.113502e+00,1
5.446280e+00,5.266428e+00,5.220890e+00,3,2,6.988901e+00,6.991112e+00,1
5.474045e+00,3.576537e+00,3.522158e+00,3,1,6.798097e+00,6.799550e+00,1
5.445083e+00,5.801588e+00,5.759001e+00,3,2,6.364294e+00,6.399375e+00,1
5.467126e+00,3.830262e+00,3.784180e+00,3,1,5.785379e+00,5.800304e+00,1
5.568299e+00,4.293185e+00,4.247189e+00,3,1,5.087636e+00,5.107395e+00,1
5.604662e+00,2.298891e+00,2.252102e+00,3,0,4.480150e+00,4.480941e+00,1
5.510095e+00,3.353263e+00,3.309965e+00,3,1,3.479846e+00,3.479851e+00,1
5.458645e+00,3.640712e+00,3.590107e+00,3,1,4.112817e+00,4.113160e+00,1
5.478500e+00,3.333519e+00,3.285170e+00,3,1,3.544368e+00,3.544369e+00,1
5.456892e+00,1.813295e+00,1.768112e+00,3,0,7.771791e+00,7.771805e+00,1
5.481299e+00,3.782026e+00,3.737211e+00,3,1,9.070722e+00,9.070793e+00,1
5.538061e+00,2.583354e+01,2.578807e+01,3,16,1.403601e+01,1.418852e+01,1
1.088389e+01,1.951858e+01,1.947212e+01,6,12,1.633436e+01,1.658625e+01,1
1.092727e+01,2.880579e+01,2.875590e+01,6,19,9.906014e+00,9.912982e+00,1
5.478785e+00,6.668671e+00,6.617069e+00,3,3,1.213365e+01,1.223006e+01,1
7.304178e+00,6.957082e+00,6.911993e+00,4,3,8.312491e+00,8.314109e+00,1
5.697743e+00,3.337294e+00,3.289938e+00,3,1,8.200694e+00,8.200697e+00,1
5.448454e+00,1.806664e+00,1.762152e+00,3,0,7.290743e+00,7.290747e+00,1
5.453460e+00,1.862767e+00,1.819849e+00,3,0,7.667972e+00,7.667978e+00,1
5.516070e+00,3.635315e+00,3.587961e+00,3,1,7.697366e+00,7.701028e+00,1
5.469196e+00,9.086686e+00,9.030581e+00,3,2,9.944395e+00,2.082757e+01,0
5.516625e+00,3.178156e+00,3.130198e+00,3,1,6.859906e+00,6.859894e+00,1
5.518841e+00,4.879867e+00,4.831076e+00,3,0,1.176888e+01,3.456877e+01,0
5.613796e+00,3.714273e+00,3.671885e+00,3,1,6.248855e+00,6.248893e+00,1
5.459000e+00,3.176234e+00,3.129244e+00,3,1,3.136341e+00,3.136341e+00,1
5.463400e+00,1.913406e+00,1.871109e+00,3,0,4.491473e+00,4.491482e+00,1
5.423261e+00,1.548463e+01,1.543999e+01,3,9,6.971316e+00,7.121365e+00,1
8.979393e+00,9.070967e+00,9.027004e+00,5,5,6.183224e+00,6.196702e+00,1
5.426464e+00,4.522036e+00,4.475117e+00,3,2,5.911702e+00,5.911705e+00,1
5.534085e+00,7.036776e+00,6.989956e+00,3,3,1.059886e+01,1.064473e+01,1
5.580553e+00,2.703461e+01,2.697992e+01,3,16,1.553161e+01,1.602276e+01,1
1.089080e+01,1.788459e+01,1.783776e+01,6,11,1.502991e+01,1.564852e+01,1
1.096910e+01,1.513888e+01,1.509404e+01,6,9,1.208663e+01,1.250492e+01,1
5.488167e+00,1.263505e+01,1.259089e+01,3,7,1.015020e+01,1.024825e+01,1
5.472721e+00,7.873503e+00,7.829189e+00,3,4,7.338702e+00,7.338560e+00,1
5.477107e+00,1.239713e+01,1.233864e+01,3,4,9.309460e+00,1.110907e+01,0
7.272430e+00,6.258878e+00,6.198645e+00,4,0,2.078497e+01,6.965643e+01,0
1.088674e+01,6.228359e+00,6.170988e+00,6,0,1.896835e+01,6.336686e+01,0
1.088028e+01,6.287099e+00,6.231070e+00,6,0,1.557977e+01,4.404988e+01,0
1.091798e+01,6.247498e+00,6.194115e+00,6,0,2.670164e+01,7.881840e+01,0
9.076578e+00,6.288915e+00,6.231785e+00,5,0,1.953854e+01,4.415777e+01,0
7.228054e+00,1.042059e+01,1.036572e+01,4,4,9.375568e+00,1.320503e+01,0
5.405782e+00,1.814355e+00,1.770020e+00,3,0,8.168677e+00,8.168182e+00,1
5.441083e+00,4.888213e+00,4.832983e+00,3,0,7.795971e+00,1.010270e+01,0
5.417439e+00,1.856466e+00,1.815081e+00,3,0,5.960910e+00,5.960910e+00,1
5.430171e+00,7.666290e+00,7.588863e+00,3,1,1.254937e+01,2.951049e+01,0
8.975613e+00,6.278844e+00,6.224155e+00,5,0,1.965442e+01,4.448783e+01,0
1.078903e+01,6.260579e+00,6.201982e+00,6,0,3.250162e+01,8.277434e+01,0
1.086749e+01,6.293017e+00,6.222725e+00,6,0,3.699633e+01,9.284521e+01,0
1.088411e+01,6.288217e+00,6.229639e+00,6,0,2.755900e+01,5.242941e+01,0
7.277601e+00,9.368722e+00,9.322166e+00,4,4,1.662981e+01,1.679699e+01,1
5.475298e+00,8.836086e+00,8.790016e+00,3,4,1.455479e+01,1.478994e+01,1
5.467003e+00,7.953221e+00,7.896900e+00,3,1,1.457894e+01,2.375376e+01,0
7.348857e+00,6.214342e+00,6.158113e+00,4,0,1.913926e+01,6.402095e+01,0
1.093888e+01,6.230707e+00,6.175756e+00,6,0,1.818076e+01,6.250366e+01,0
1.087514e+01,6.281026e+00,6.225109e+00,6,0,2.019562e+01,6.274007e+01,0
1.088714e+01,6.299045e+00,6.242990e+00,6,0,2.022810e+01,6.680514e+01,0
1.090444e+01,6.359592e+00,6.301165e+00,6,0,3.260358e+01,1.233127e+02,0
9.110876e+00,1.680376e+01,1.674533e+01,5,7,1.828571e+01,5.335077e+01,0
1.089854e+01,2.937708e+01,2.932906e+01,6,18,1.284204e+01,1.328740e+01,1
7.291055e+00,1.998110e+01,1.993394e+01,4,13,9.114796e+00,9.165609e+00,1
5.453864e+00,3.587535e+00,3.542185e+00,3,1,7.647293e+00,7.667354e+00,1
5.465773e+00,5.484383e+00,5.442142e+00,3,2,9.656015e+00,9.670471e+00,1
5.469358e+00,6.652907e+00,6.608009e+00,3,3,8.754417e+00,8.755221e+00,1
5.466220e+00,4.584428e+00,4.537106e+00,3,2,6.451627e+00,6.451590e+00,1
5.479900e+00,1.912453e+00,1.871109e+00,3,0,8.235232e+00,8.235238e+00,1
5.475627e+00,1.058724e+01,1.052904e+01,3,3,8.394947e+00,9.889648e+00,0
1.086567e+01,6.170069e+00,6.111622e+00,6,0,1.316995e+01,3.224591e+01,0
1.087998e+01,6.246186e+00,6.188869e+00,6,0,2.389055e+01,6.796259e+01,0
9.067093e+00,6.260118e+00,6.199837e+00,5,0,1.456307e+01,2.771262e+01,0
1.057510e+01,1.631748e+01,1.625800e+01,6,7,1.233063e+01,1.952268e+01,0
1.059565e+01,6.090954e+00,6.035566e+00,6,0,1.487442e+01,3.442153e+01,0
1.063168e+01,2.406235e+01,2.400804e+01,6,12,1.018578e+01,1.105852e+01,0
7.079273e+00,1.088589e+01,1.083708e+01,4,6,8.083513e+00,8.101798e+00,1
5.434311e+00,4.078319e+00,4.032850e+00,3,1,7.190760e+00,7.208343e+00,1
5.443633e+00,7.567586e+00,7.523060e+00,3,3,4.842014e+00,4.850575e+00,1
5.428204e+00,2.210967e+00,2.165079e+00,3,0,4.585325e+00,4.585449e+00,1
5.487670e+00,3.299694e+00,3.256798e+00,3,1,3.843248e+00,3.843249e+00,1
5.448523e+00,3.553693e+00,3.509045e+00,3,1,4.954096e+00,4.954283e+00,1
5.540491e+00,3.384774e+00,3.341913e+00,3,1,4.034690e+00,4.034691e+00,1
5.537585e+00,1.540190e+01,1.534581e+01,3,6,7.942774e+00,1.057145e+01,0
7.325725e+00,1.013408e+01,1.008296e+01,4,6,2.770602e+00,2.770601e+00,1
5.450249e+00,1.841788e+00,1.796007e+00,3,0,3.058968e+00,3.058972e+00,1
5.450389e+00,1.808632e+00,1.766920e+00,3,0,4.043293e+00,4.043178e+00,1
5.460514e+00,3.065526e+00,3.022909e+00,3,1,5.247464e+00,5.244478e+00,1
7.407587e+00,2.917105e+00,2.871990e+00,4,1,3.298981e+00,3.298981e+00,1
5.441148e+00,1.836237e+00,1.791716e+00,3,0,2.928362e+00,2.928364e+00,1
5.472713e+00,1.800052e+00,1.759052e+00,3,0,4.178536e+00,4.178540e+00,1
5.469826e+00,1.909898e+00,1.869202e+00,3,0,6.907932e+00,6.907943e+00,1
5.472826e+00,4.700296e+00,4.654884e+00,3,2,7.655444e+00,7.655261e+00,1
7.331927e+00,7.844718e+00,7.794857e+00,4,4,4.556193e+00,4.558636e+00,1
5.510811e+00,4.718375e+00,4.674196e+00,3,2,5.689569e+00,5.689573e+00,1
5.516244e+00,5.365307e+00,5.319834e+00,3,2,3.822659e+00,3.828162e+00,1
5.464005e+00,3.663070e+00,3.616095e+00,3,1,3.743994e+00,3.759473e+00,1
5.457449e+00,2.270009e+00,2.222061e+00,3,0,2.463589e+00,2.466471e+00,1
5.457921e+00,3.200923e+00,3.157616e+00,3,1,2.621692e+00,2.621694e+00,1
5.458542e+00,1.868664e+00,1.823902e+00,3,0,4.907403e+00,4.907409e+00,1
5.443147e+00,1.800901e+00,1.760244e+00,3,0,3.197477e+00,3.197475e+00,1
5.455626e+00,1.816341e+00,1.773596e+00,3,0,3.924240e+00,3.924245e+00,1
5.468939e+00,6.803433e+00,6.756067e+00,3,3,5.634509e+00,5.649336e+00,1
7.267063e+00,6.062106e+00,6.015778e+00,4,3,3.588605e+00,3.588521e+00,1
5.448810e+00,1.814563e+00,1.771927e+00,3,0,4.381448e+00,4.381462e+00,1
5.485277e+00,1.318024e+01,1.312900e+01,3,7,7.663926e+00,7.693338e+00,1
5.480946e+00,8.703650e+00,8.654118e+00,3,5,4.883610e+00,4.883597e+00,1
5.552771e+00,9.982780e+00,9.938955e+00,3,5,6.393397e+00,6.405893e+00,1
5.507857e+00,7.776945e+00,7.732153e+00,3,4,5.649406e+00,5.653922e+00,1
5.493957e+00,3.326806e+00,3.282070e+00,3,1,4.613343e+00,4.613332e+00,1
5.538396e+00,3.574912e+00,3.530979e+00,3,1,3.182765e+00,3.182785e+00,1
5.518342e+00,3.232562e+00,3.185987e+00,3,1,6.515457e+00,6.515486e+00,1
5.492261e+00,1.859226e+00,1.815081e+00,3,0,3.724010e+00,3.724003e+00,1
5.494624e+00,1.982196e+00,1.935959e+00,3,0,4.353610e+00,4.353584e+00,1
5.503762e+00,1.826612e+00,1.771212e+00,3,0,4.988757e+00,4.988573e+00,1
5.463053e+00,1.790781e+00,1.749992e+00,3,0,3.583296e+00,3.583304e+00,1
5.457782e+00,3.713135e+00,3.669262e+00,3,1,3.986813e+00,3.987282e+00,1
5.472552e+00,5.052114e+00,5.007029e+00,3,2,5.582801e+00,5.582985e+00,1
5.481561e+00,5.138879e+00,5.093098e+00,3,2,2.743403e+00,2.743634e+00,1
5.465686e+00,5.342421e+00,5.297184e+00,3,2,2.791708e+00,2.792742e+00,1
5.474070e+00,5.950111e+00,5.905151e+00,3,2,2.059116e+00,2.059283e+00,1
5.464747e+00,2.221980e+00,2.174854e+00,3,0,2.929520e+00,2.945270e+00,1
5.499404e+00,2.238059e+00,2.195835e+00,3,0,1.964952e+00,1.994793e+00,1
5.472195e+00,3.617364e+00,3.572941e+00,3,1,3.392144e+00,3.415739e+00,1
5.476265e+00,5.243071e+00,5.198956e+00,3,2,2.488535e+00,2.488542e+00,1
5.444940e+00,1.808972e+00,1.765013e+00,3,0,1.586962e+00,1.586962e+00,1
5.467001e+00,1.910433e+00,1.866102e+00,3,0,2.288800e+00,2.288804e+00,1
5.470585e+00,3.611684e+00,3.568172e+00,3,1,3.116800e+00,3.116830e+00,1
5.477960e+00,8.646663e+00,8.603096e+00,3,4,4.577564e+00,4.602719e+00,1
5.474337e+00,1.533923e+01,1.527977e+01,3,6,1.165402e+01,1.598469e+01,0
1.086707e+01,6.135222e+00,6.080627e+00,6,0,2.615238e+01,7.782454e+01,0
7.298992e+00,6.031878e+01,6.027079e+01,4,39,1.781635e+01,1.861572e+01,1
1.094643e+01,3.501246e+01,3.496718e+01,6,24,1.288372e+01,1.298717e+01,1
7.277914e+00,1.242181e+01,1.237702e+01,4,7,1.189457e+01,1.196368e+01,1
5.488334e+00,2.048087e+01,2.043509e+01,3,12,1.525736e+01,1.532314e+01,1
7.231731e+00,2.981231e+01,2.975512e+01,4,16,2.069521e+01,2.827516e+01,0
7.233438e+00,3.333813e+01,3.329182e+01,4,23,1.170790e+01,1.170567e+01,1
7.286668e+00,4.315244e+01,4.309607e+01,4,25,1.893579e+01,1.943790e+01,0
8.992101e+00,2.981108e+01,2.976513e+01,5,20,1.399586e+01,1.399938e+01,1
7.256080e+00,1.684494e+01,1.679802e+01,4,10,1.454912e+01,1.454951e+01,1
7.209859e+00,7.663411e+00,7.618904e+00,4,4,1.022368e+01,1.022378e+01,1
5.351688e+00,2.266095e+00,2.219915e+00,3,0,1.125452e+01,1.125465e+01,1
5.438785e+00,3.294740e+00,3.251076e+00,3,1,9.664424e+00,9.664423e+00,1
5.352874e+00,1.841751e+00,1.797199e+00,3,0,1.107297e+01,1.107297e+01,1
5.388748e+00,1.799660e+00,1.757860e+00,3,0,9.024427e+00,9.024429e+00,1
5.434508e+00,1.951777e+00,1.908779e+00,3,0,7.402918e+00,7.402918e+00,1
5.423375e+00,9.069646e+00,9.014845e+00,3,2,9.237387e+00,1.584005e+01,0
5.438619e+00,6.196613e+00,6.139994e+00,3,0,1.233372e+01,3.731008e+01,0
1.077446e+01,7.657298e+00,7.603168e+00,6,2,9.208039e+00,1.808385e+01,0
7.169801e+00,1.869882e+00,1.823902e+00,4,0,5.318782e+00,5.318763e+00,1
5.436456e+00,5.273583e+00,5.229950e+00,3,2,5.041878e+00,5.050305e+00,1
5.420962e+00,6.880324e+00,6.834984e+00,3,3,5.604284e+00,5.607983e+00,1
5.462611e+00,5.906691e+00,5.859137e+00,3,3,4.093355e+00,4.093350e+00,1
5.437835e+00,1.903552e+00,1.858711e+00,3,0,3.352670e+00,3.352674e+00,1
5.393253e+00,1.844743e+00,1.800776e+00,3,0,3.075156e+00,3.075158e+00,1
5.400048e+00,1.803181e+00,1.762152e+00,3,0,3.601684e+00,3.601688e+00,1
5.416540e+00,1.904878e+00,1.861095e+00,3,0,2.539092e+00,2.539094e+00,1
5.422684e+00,1.815618e+00,1.772881e+00,3,0,2.955527e+00,2.955530e+00,1
5.417461e+00,1.789014e+00,1.748085e+00,3,0,2.742331e+00,2.742332e+00,1
5.391387e+00,5.262039e+00,5.201817e+00,3,2,2.580276e+00,2.589021e+00,1
5.570653e+00,5.306064e+00,5.260706e+00,3,2,3.856416e+00,3.881135e+00,1
5.459053e+00,8.364598e+00,8.321047e+00,3,4,2.331170e+00,2.331191e+00,1
5.457718e+00,8.506504e+00,8.452177e+00,3,4,2.802617e+00,2.825449e+00,1
5.375907e+00,2.347666e+00,2.302885e+00,3,0,4.482923e+00,4.518648e+00,1
5.428803e+00,8.441575e+00,8.395195e+00,3,4,3.956042e+00,3.956044e+00,1
5.443338e+00,3.689980e+00,3.645897e+00,3,1,4.228858e+00,4.228955e+00,1
5.470346e+00,3.216922e+00,3.172159e+00,3,1,7.206396e+00,7.206407e+00,1
5.534364e+00,5.007640e+00,4.948854e+00,3,0,9.798221e+00,1.847426e+01,0
5.466510e+00,1.802885e+00,1.759768e+00,3,0,5.752790e+00,5.752783e+00,1
5.504356e+00,1.862873e+00,1.819134e+00,3,0,4.102729e+00,4.102450e+00,1
5.468776e+00,2.923308e+00,2.879858e+00,3,1,5.161049e+00,5.160756e+00,1
7.346616e+00,8.417601e+00,8.373976e+00,4,4,5.341005e+00,5.342822e+00,1
5.556141e+00,5.198163e+00,5.151749e+00,3,2,6.001331e+00,6.008345e+00,1
1.084998e+01,8.617604e+00,8.572102e+00,6,5,1.263409e+01,1.260929e+01,1
7.281445e+00,7.980023e+00,7.931948e+00,4,5,1.126613e+01,1.126581e+01,1
5.492997e+00,1.909354e+00,1.865864e+00,3,0,6.311380e+00,6.311365e+00,1
5.371572e+00,1.838661e+00,1.780272e+00,3,0,1.297376e+01,1.297370e+01,1
5.472965e+00,1.587616e+01,1.583314e+01,3,9,1.525354e+01,1.539296e+01,1
9.028404e+00,6.231593e+00,6.163120e+00,5,0,1.647267e+01,1.771341e+01,0
1.085949e+01,6.168861e+00,6.115675e+00,6,0,2.186734e+01,3.093574e+01,0
1.080693e+01,6.156063e+00,6.098032e+00,6,0,2.195640e+01,2.953058e+01,0
1.080512e+01,1.250001e+01,1.242948e+01,6,4,2.090136e+01,2.738498e+01,0
1.078205e+01,7.583930e+00,7.519960e+00,6,1,2.036083e+01,2.498293e+01,0
1.078288e+01,2.556629e+01,2.551198e+01,6,13,1.733272e+01,1.809267e+01,0
7.265767e+00,9.086813e+00,9.028912e+00,4,2,1.611137e+01,1.954267e+01,0
1.080948e+01,1.474220e+01,1.468515e+01,6,6,1.332541e+01,1.589768e+01,0
7.217802e+00,5.108037e+00,5.063057e+00,4,2,1.155055e+01,1.151623e+01,1
5.430401e+00,1.007947e+01,1.003623e+01,3,5,1.109231e+01,1.114391e+01,1
5.429726e+00,3.875662e+01,3.869987e+01,3,22,1.014454e+01,1.173014e+01,0
1.076601e+01,6.095622e+00,6.036043e+00,6,0,9.901069e+00,1.391893e+01,0
1.073831e+01,3.845983e+01,3.841114e+01,6,26,6.569452e+00,6.749164e+00,1
8.982032e+00,1.462567e+01,1.458001e+01,5,9,4.513043e+00,4.518002e+00,1
5.409169e+00,2.273722e+00,2.226114e+00,3,0,2.750637e+00,2.750776e+00,1
7.298771e+00,3.776307e+01,3.769612e+01,4,22,1.709296e+01,4.366233e+01,0
1.081924e+01,2.591216e+01,2.586508e+01,6,17,8.352294e+00,8.396359e+00,1
9.025759e+00,1.534150e+01,1.529312e+01,5,9,9.705850e+00,9.813911e+00,1
1.075348e+01,1.677895e+01,1.671982e+01,6,7,1.724834e+01,3.560194e+01,0
1.087281e+01,2.458242e+01,2.453494e+01,6,16,1.224395e+01,1.239261e+01,1
9.123132e+00,3.530846e+01,3.526282e+01,5,22,1.404680e+01,1.410104e+01,1
1.100312e+01,4.486396e+01,4.480600e+01,6,27,2.084000e+01,2.559684e+01,0
1.090603e+01,7.169325e+01,7.164502e+01,6,51,1.556958e+01,1.560710e+01,1
1.089615e+01,1.731612e+01,1.726985e+01,6,10,1.523798e+01,1.528938e+01,1
7.314049e+00,1.591816e+01,1.587415e+01,4,9,1.401666e+01,1.407997e+01,1
5.483134e+00,1.316904e+01,1.311183e+01,3,5,9.304500e+00,1.149064e+01,0
5.468560e+00,2.350494e+00,2.303123e+00,3,0,6.429069e+00,6.461699e+00,1
5.482532e+00,1.089420e+01,1.084781e+01,3,5,7.387112e+00,7.397888e+00,1
7.464480e+00,6.989758e+00,6.941795e+00,4,3,5.050866e+00,5.052240e+00,1
5.487741e+00,2.382965e+00,2.336740e+00,3,0,5.789065e+00,5.802041e+00,1
5.456494e+00,3.196437e+00,3.151894e+00,3,1,9.145252e+00,9.145032e+00,1
7.327124e+00,2.187792e+01,2.183414e+01,4,13,1.723771e+01,1.732436e+01,1
1.077857e+01,2.940563e+01,2.935886e+01,6,19,2.068864e+01,2.077060e+01,1
9.234303e+00,1.936177e+01,1.931095e+01,5,12,1.927784e+01,1.922453e+01,1
8.975583e+00,1.397990e+01,1.393223e+01,5,8,1.576245e+01,1.575929e+01,1
1.079743e+01,5.003777e+00,4.957199e+00,6,2,1.453451e+01,1.452378e+01,1
7.166102e+00,4.510232e+00,4.467010e+00,4,2,8.595888e+00,8.595889e+00,1
5.413312e+00,7.758397e+00,7.702112e+00,3,1,1.001603e+01,2.329386e+01,0
5.430803e+00,6.233897e+00,6.164074e+00,3,0,7.399056e+00,1.812969e+01,0
5.476596e+00,3.181962e+00,3.138065e+00,3,1,5.336923e+00,5.336924e+00,1
5.476957e+00,3.705919e+00,3.662825e+00,3,1,5.364131e+00,5.364184e+00,1
5.425230e+00,5.097802e+00,5.054235e+00,3,2,4.336334e+00,4.336820e+00,1
5.425735e+00,7.851709e+00,7.797003e+00,3,1,4.920270e+00,6.314004e+00,0
5.534118e+00,8.104109e+00,8.060932e+00,3,4,3.483238e+00,3.486048e+00,1
5.404946e+00,6.985586e+00,6.939173e+00,3,3,7.213578e+00,7.213773e+00,1
7.235778e+00,7.930642e+00,7.884026e+00,4,4,8.959082e+00,8.962358e+00,1
7.250446e+00,6.458837e+00,6.412983e+00,4,3,3.774089e+00,3.774208e+00,1
5.405189e+00,2.245190e+00,2.201080e+00,3,0,4.281006e+00,4.282535e+00,1
5.420724e+00,6.721716e+00,6.677866e+00,3,3,5.403281e+00,5.403727e+00,1
5.402824e+00,2.244405e+00,2.201080e+00,3,0,4.333764e+00,4.335526e+00,1
7.204997e+00,7.492662e+00,7.439137e+00,4,1,2.212311e+01,8.351638e+01,0
1.091435e+01,6.256529e+00,6.198168e+00,6,0,2.878430e+01,9.951403e+01,0
1.081842e+01,6.259798e+00,6.203890e+00,6,0,3.708826e+01,1.305095e+02,0
1.075040e+01,6.325688e+00,6.268978e+00,6,0,3.212910e+01,9.613062e+01,0
1.082183e+01,6.227386e+00,6.169796e+00,6,0,3.741250e+01,1.008382e+02,0
1.077978e+01,6.296561e+00,6.241798e+00,6,0,3.872446e+01,9.077420e+01,0
1.073985e+01,6.216297e+00,6.162643e+00,6,0,5.488486e+01,1.350267e+02,0
8.999737e+00,7.458957e+00,7.405996e+00,5,2,3.951469e+01,6.880366e+01,0
7.188027e+00,4.859044e+00,4.802704e+00,4,0,3.479638e+01,5.265977e+01,0
1.080893e+01,1.060462e+01,1.054788e+01,6,3,3.359743e+01,4.300529e+01,0
7.248069e+00,7.824503e+00,7.767677e+00,4,1,2.891645e+01,2.494696e+01,0
7.266762e+00,6.251643e+00,6.193161e+00,4,0,2.490751e+01,1.227939e+01,0
5.418179e+00,1.061621e+01,1.054931e+01,3,3,2.322957e+01,2.324445e+01,0
5.477020e+00,1.212007e+01,1.206398e+01,3,4,1.999033e+01,2.471106e+01,0
5.515155e+00,1.464853e+01,1.460409e+01,3,8,1.906297e+01,1.915157e+01,1
5.476997e+00,7.801403e+00,7.741928e+00,3,1,1.818132e+01,2.157116e+01,0
5.513034e+00,1.365510e+01,1.359773e+01,3,5,1.691845e+01,1.951781e+01,0
5.472066e+00,6.241572e+00,6.167173e+00,3,0,1.262879e+01,2.137204e+01,0
5.514504e+00,2.852655e+01,2.847886e+01,3,17,1.212302e+01,1.218909e+01,1
5.546088e+00,1.351779e+01,1.346898e+01,3,8,9.293842e+00,9.355268e+00,1
5.483109e+00,7.643804e+00,7.586956e+00,3,1,9.064325e+00,1.233063e+01,0
5.499120e+00,8.489529e+00,8.446217e+00,3,4,6.022039e+00,6.029112e+00,1
5.530891e+00,1.587542e+01,1.581097e+01,3,6,7.463824e+00,7.923227e+00,0
5.533222e+00,1.142059e+01,1.136994e+01,3,6,7.094252e+00,7.115353e+00,1
5.494603e+00,1.214544e+01,1.209807e+01,3,7,6.770393e+00,6.809722e+00,1
5.492333e+00,3.696421e+00,3.650665e+00,3,1,4.254091e+00,4.303942e+00,1
5.493108e+00,1.906007e+01,1.900005e+01,3,8,7.688635e+00,1.015896e+01,0
1.269085e+01,6.284357e+00,6.227970e+00,7,0,1.125655e+01,2.482317e+01,0
1.089559e+01,2.023373e+01,2.018785e+01,6,12,9.065217e+00,9.331217e+00,1
7.331632e+00,1.240070e+01,1.235414e+01,4,7,8.526477e+00,8.584346e+00,1
5.481551e+00,3.779814e+00,3.735065e+00,3,1,7.057490e+00,7.061841e+00,1
5.473920e+00,1.603455e+01,1.598907e+01,3,9,9.590198e+00,9.600458e+00,1
7.281278e+00,1.228734e+01,1.224208e+01,4,8,6.053538e+00,6.053521e+00,1
5.482886e+00,5.417416e+00,5.372047e+00,3,2,8.935326e+00,8.938675e+00,1
7.335701e+00,1.175905e+01,1.171422e+01,4,6,1.025811e+01,1.027615e+01,1
5.482035e+00,1.318410e+01,1.312208e+01,3,7,1.358238e+01,1.368162e+01,1
5.481733e+00,1.850566e+01,1.844597e+01,3,8,2.088198e+01,3.328512e+01,0
7.295412e+00,2.851351e+01,2.845407e+01,4,15,2.114658e+01,2.671747e+01,0
7.282039e+00,3.313284e+01,3.308105e+01,4,22,9.990220e+00,1.001576e+01,1
5.535260e+00,3.921008e+00,3.871679e+00,3,1,9.833943e+00,9.849088e+00,1
5.531977e+00,3.764240e+00,3.720045e+00,3,1,1.101941e+01,1.102114e+01,1
5.515409e+00,5.417871e+00,5.373001e+00,3,2,1.052962e+01,1.054243e+01,1
5.459721e+00,2.368784e+00,2.325058e+00,3,0,8.078903e+00,8.079115e+00,1
5.479526e+00,6.372254e+00,6.319046e+00,3,1,9.645915e+00,2.231008e+01,0
7.272239e+00,5.004709e+00,4.949808e+00,4,0,1.099446e+01,3.279978e+01,0
1.088459e+01,4.990948e+00,4.931688e+00,6,0,1.310084e+01,5.192171e+01,0
1.088090e+01,4.936497e+00,4.880905e+00,6,0,1.448830e+01,5.276014e+01,0
1.088244e+01,7.797924e+00,7.743835e+00,6,1,9.602229e+00,1.928523e+01,0
9.064703e+00,6.453737e+00,6.396770e+00,5,0,9.769758e+00,2.226106e+01,0
1.090192e+01,6.395539e+00,6.340742e+00,6,0,1.110295e+01,3.398997e+01,0
7.284143e+00,5.327038e+00,5.280972e+00,4,2,6.513626e+00,6.513449e+00,1
5.473132e+00,1.884175e+00,1.832962e+00,3,0,6.460745e+00,6.460583e+00,1
5.469285e+00,1.894846e+00,1.847029e+00,3,0,4.900520e+00,4.900516e+00,1
5.416892e+00,1.852742e+00,1.809120e+00,3,0,4.022320e+00,4.022321e+00,1
5.431975e+00,1.834907e+00,1.795053e+00,3,0,6.588430e+00,6.588431e+00,1
5.406086e+00,1.917948e+00,1.875162e+00,3,0,3.407442e+00,3.407442e+00,1
5.384772e+00,6.385458e+00,6.339788e+00,3,3,4.750474e+00,4.748171e+00,1
1.096709e+01,3.594305e+01,3.588200e+01,6,19,1.335444e+01,1.887140e+01,0
9.093920e+00,6.237890e+00,6.181955e+00,5,0,2.180468e+01,5.193486e+01,0
1.098408e+01,1.637489e+01,1.631594e+01,6,7,1.570034e+01,2.459344e+01,0
7.287276e+00,2.677253e+01,2.671623e+01,4,14,1.486374e+01,2.486574e+01,0
9.111922e+00,5.084373e+01,5.079603e+01,5,33,1.391839e+01,1.417006e+01,1
7.331444e+00,2.559108e+01,2.554274e+01,4,17,9.060930e+00,9.065120e+00,1
7.303043e+00,2.783779e+01,2.778006e+01,4,14,1.589591e+01,1.837004e+01,0
7.283044e+00,2.447395e+01,2.442884e+01,4,16,9.399375e+00,9.423549e+00,1
5.520409e+00,2.411904e+00,2.366781e+00,3,0,5.897779e+00,5.947279e+00,1
5.551553e+00,6.190798e+00,6.147861e+00,3,3,5.343587e+00,5.343468e+00,1
5.495032e+00,1.894179e+00,1.851082e+00,3,0,5.091660e+00,5.091591e+00,1
5.495794e+00,1.791045e+00,1.748085e+00,3,0,4.830605e+00,4.830608e+00,1
5.441607e+00,1.825547e+00,1.783133e+00,3,0,7.043053e+00,7.043065e+00,1
5.446335e+00,1.844039e+00,1.803160e+00,3,0,1.000058e+01,1.000059e+01,1
5.495658e+00,1.971406e+01,1.967192e+01,3,11,1.628891e+01,1.643637e+01,1
5.473526e+00,1.192173e+01,1.187706e+01,3,7,1.277002e+01,1.278193e+01,1
5.502388e+00,1.061159e+01,1.056790e+01,3,5,1.203203e+01,1.204126e+01,1
7.311127e+00,1.813447e+01,1.808524e+01,4,10,1.661918e+01,1.693488e+01,1
1.094214e+01,4.804109e+01,4.798508e+01,6,28,3.187129e+01,5.572467e+01,0
1.078679e+01,7.319335e+01,7.314706e+01,6,51,2.010258e+01,2.025192e+01,1
1.079808e+01,3.256453e+01,3.251791e+01,6,21,2.030139e+01,2.047296e+01,1
7.269106e+00,2.116678e+01,2.111292e+01,4,14,1.082402e+01,1.082400e+01,1
5.387714e+00,8.472374e+00,8.425236e+00,3,4,1.275865e+01,1.279034e+01,1
5.489105e+00,1.097448e+01,1.091790e+01,3,3,1.597486e+01,2.650267e+01,0
1.060891e+01,1.851754e+01,1.846123e+01,6,11,1.000484e+01,1.001124e+01,1
5.428723e+00,5.000412e+00,4.956007e+00,3,2,8.350332e+00,8.352043e+00,1
5.453446e+00,3.835786e+00,3.787994e+00,3,1,5.888359e+00,5.890529e+00,1
5.499070e+00,8.555037e+00,8.509874e+00,3,4,8.865664e+00,8.879631e+00,1
5.474132e+00,5.919776e+00,5.871773e+00,3,2,8.872313e+00,9.038993e+00,1
5.315579e+00,3.942281e+00,3.894806e+00,3,1,6.145740e+00,6.169288e+00,1
5.308126e+00,3.239519e+00,3.198147e+00,3,1,4.499973e+00,4.499933e+00,1
5.311941e+00,5.258342e+00,5.213022e+00,3,2,6.256417e+00,6.258024e+00,1
5.330015e+00,5.536039e+00,5.491972e+00,3,2,4.754067e+00,4.758722e+00,1
5.321114e+00,1.019917e+01,1.014709e+01,3,3,1.353314e+01,3.853509e+01,0
1.078185e+01,7.484651e+00,7.432938e+00,6,2,6.894646e+00,6.322712e+00,0
5.467318e+00,1.870887e+00,1.825094e+00,3,0,4.729128e+00,4.729102e+00,1
5.395704e+00,1.837044e+00,1.794100e+00,3,0,6.404647e+00,6.404656e+00,1
5.338561e+00,1.779582e+00,1.737118e+00,3,0,3.488302e+00,3.488302e+00,1
5.478718e+00,1.025561e+01,1.021004e+01,3,5,5.438551e+00,5.464802e+00,1
5.526885e+00,1.324776e+01,1.319075e+01,3,7,7.859378e+00,8.050853e+00,1
7.281467e+00,2.286161e+01,2.281308e+01,4,14,1.055821e+01,1.077923e+01,1
1.096137e+01,1.792101e+01,1.787615e+01,6,11,7.042887e+00,7.060890e+00,1
1.068636e+01,3.875583e+01,3.869915e+01,6,22,1.649961e+01,2.266122e+01,0
8.908789e+00,3.566238e+01,3.561497e+01,5,24,1.327130e+01,1.361859e+01,1
7.112189e+00,3.112917e+01,3.107524e+01,4,20,1.590215e+01,1.646805e+01,1
8.854481e+00,2.547683e+01,2.543116e+01,5,17,1.272013e+01,1.281199e+01,1
5.332115e+00,1.967405e+01,1.962805e+01,3,12,1.532759e+01,1.535762e+01,1
7.082898e+00,1.057255e+01,1.052809e+01,4,6,1.111584e+01,1.113919e+01,1
5.317066e+00,3.559559e+00,3.511906e+00,3,1,8.445961e+00,8.458329e+00,1
5.306814e+00,3.239580e+00,3.194809e+00,3,1,7.358686e+00,7.358691e+00,1
5.335805e+00,1.868069e+00,1.825094e+00,3,0,4.827184e+00,4.827184e+00,1
5.324302e+00,3.681564e+00,3.638029e+00,3,1,4.800612e+00,4.800678e+00,1
5.323189e+00,3.088145e+00,3.046036e+00,3,1,5.516359e+00,5.516363e+00,1
5.314612e+00,3.622456e+00,3.581047e+00,3,1,6.874677e+00,6.882839e+00,1
7.103759e+00,3.295932e+00,3.252029e+00,4,1,5.017497e+00,5.017499e+00,1
5.308443e+00,1.872265e+00,1.829147e+00,3,0,8.703105e+00,8.703102e+00,1
5.370131e+00,1.237931e+01,1.233697e+01,3,7,8.977685e+00,9.024911e+00,1
7.123419e+00,1.318069e+01,1.313782e+01,4,8,6.300522e+00,6.306428e+00,1
5.295327e+00,3.074422e+00,3.031015e+00,3,1,5.580004e+00,5.580008e+00,1
5.311001e+00,1.754511e+00,1.708984e+00,3,0,7.498004e+00,7.498012e+00,1
5.298227e+00,4.670294e+00,4.618406e+00,3,0,7.497515e+00,1.360763e+01,0
1.056096e+01,4.766266e+00,4.714489e+00,6,0,8.567260e+00,2.095236e+01,0
1.057668e+01,7.468216e+00,7.414103e+00,6,1,1.068710e+01,2.580586e+01,0
1.056206e+01,6.063418e+00,6.012917e+00,6,0,1.259542e+01,3.424103e+01,0
1.058969e+01,8.058523e+00,8.015871e+00,6,4,7.198394e+00,7.212785e+00,1
7.061148e+00,8.553470e+00,8.503199e+00,4,5,6.490407e+00,6.490291e+00,1
5.307552e+00,1.840154e+00,1.792908e+00,3,0,4.306142e+00,4.306149e+00,1
5.292005e+00,1.805529e+00,1.764774e+00,3,0,4.778175e+00,4.778179e+00,1
5.317321e+00,8.340423e+00,8.296251e+00,3,4,7.851302e+00,8.030108e+00,1
7.136840e+00,8.925838e+00,8.880138e+00,4,5,5.134871e+00,5.134941e+00,1
5.347994e+00,6.316208e+00,6.273985e+00,3,3,9.133375e+00,9.133056e+00,1
7.122826e+00,5.412697e+00,5.370140e+00,4,3,6.430664e+00,6.428144e+00,1
1.057357e+01,4.481831e+00,4.438877e+00,6,2,1.104486e+01,1.102855e+01,1
7.073380e+00,5.768732e+00,5.720854e+00,4,3,6.855133e+00,6.855126e+00,1
5.321024e+00,1.068764e+01,1.063275e+01,3,3,1.622036e+01,2.838593e+01,0
1.058466e+01,6.228495e+00,6.174803e+00,6,0,2.140094e+01,4.391190e+01,0
1.072430e+01,6.150209e+00,6.096125e+00,6,0,1.351735e+01,2.081384e+01,0
1.089908e+01,6.486111e+00,6.426811e+00,6,0,1.951192e+01,3.777679e+01,0
1.089782e+01,1.062863e+01,1.056814e+01,6,3,1.821218e+01,3.257846e+01,0
1.088052e+01,9.182304e+00,9.117842e+00,6,2,1.506560e+01,2.119236e+01,0
7.265734e+00,6.348989e+00,6.283998e+00,4,0,1.912954e+01,3.131447e+01,0
9.101615e+00,1.383320e+01,1.377678e+01,5,5,1.813569e+01,2.463992e+01,0
7.264885e+00,6.301899e+00,6.243229e+00,4,0,1.920579e+01,2.636305e+01,0
1.087257e+01,6.287611e+00,6.231785e+00,6,0,1.474731e+01,9.679890e+00,0
9.097868e+00,1.362488e+01,1.358080e+01,5,8,9.569553e+00,9.574105e+00,1
7.288204e+00,2.688912e+01,2.684212e+01,4,16,9.064985e+00,9.670283e+00,1
1.090159e+01,1.425782e+01,1.420021e+01,6,5,9.372910e+00,1.598045e+01,0
7.290690e+00,4.020160e+01,4.015517e+01,4,27,4.138641e+00,4.138615e+00,1
5.472215e+00,1.852598e+00,1.806021e+00,3,0,5.313576e+00,5.313588e+00,1
5.476986e+00,5.321871e+00,5.275965e+00,3,2,5.256046e+00,5.260690e+00,1
5.465512e+00,2.319313e+00,2.274990e+00,3,0,4.709682e+00,4.724568e+00,1
5.363884e+00,4.260855e+00,4.218102e+00,3,1,5.803529e+00,5.816197e+00,1
5.364321e+00,8.455462e+00,8.401155e+00,3,4,5.946344e+00,5.959208e+00,1
5.322729e+00,1.984980e+01,1.979399e+01,3,9,7.731599e+00,9.821226e+00,0
9.122512e+00,1.710633e+01,1.705909e+01,5,10,6.313395e+00,6.455677e+00,1
7.208349e+00,1.731349e+01,1.725006e+01,4,10,7.098710e+00,7.354522e+00,1
7.173853e+00,1.277836e+01,1.273108e+01,4,8,4.936421e+00,4.936323e+00,1
5.465955e+00,1.254794e+01,1.250410e+01,3,7,6.791416e+00,6.831563e+00,1
1.080285e+01,1.145865e+01,1.141405e+01,6,6,7.323057e+00,7.495529e+00,1
1.075203e+01,1.098594e+01,1.093793e+01,6,6,6.920354e+00,7.042207e+00,1
7.166054e+00,1.261387e+01,1.256561e+01,4,7,4.982937e+00,4.983392e+00,1
5.420471e+00,6.458413e+00,6.413698e+00,3,3,4.552163e+00,4.552174e+00,1
7.286974e+00,1.527826e+01,1.523280e+01,4,9,9.271790e+00,9.328725e+00,1
8.954609e+00,1.054421e+01,1.050019e+01,5,6,5.607137e+00,5.595501e+00,1
7.169028e+00,4.449648e+00,4.406929e+00,4,2,3.872838e+00,3.872839e+00,1
5.375266e+00,7.335264e+00,7.290125e+00,3,3,4.731823e+00,4.777626e+00,1
5.448018e+00,3.725512e+00,3.673077e+00,3,1,6.237205e+00,6.328158e+00,1
5.457183e+00,4.259938e+00,4.215002e+00,3,1,7.213981e+00,7.259256e+00,1
5.434845e+00,4.321672e+00,4.273176e+00,3,1,7.643217e+00,7.654008e+00,1
5.393685e+00,5.041002e+00,4.996061e+00,3,2,7.440269e+00,7.441392e+00,1
5.334397e+00,3.199649e+00,3.155947e+00,3,1,5.642871e+00,5.642875e+00,1
5.390791e+00,1.732008e+00,1.694202e+00,3,0,4.739370e+00,4.739370e+00,1
5.428290e+00,3.673070e+00,3.619909e+00,3,1,6.580941e+00,6.585665e+00,1
5.417167e+00,3.277073e+00,3.232002e+00,3,1,2.518996e+00,2.518989e+00,1
5.403283e+00,4.216124e+00,4.172087e+00,3,2,6.571962e+00,6.570457e+00,1
1.076641e+01,5.844725e+00,5.800724e+00,6,3,7.640021e+00,7.625168e+00,1
1.073547e+01,9.513720e+00,9.447098e+00,6,2,1.682238e+01,3.118241e+01,0
1.787827e+01,6.181963e+00,6.128311e+00,10,0,1.506432e+01,1.324662e+01,0
7.199230e+00,1.068603e+01,1.064110e+01,4,6,9.807801e+00,9.803194e+00,1
7.223166e+00,6.610292e+00,6.567955e+00,4,3,7.582228e+00,7.585539e+00,1
5.448104e+00,1.165124e+01,1.160789e+01,3,6,8.381249e+00,8.390921e+00,1
7.257671e+00,1.564198e+01,1.559615e+01,4,9,5.777454e+00,5.804684e+00,1
5.422627e+00,6.386742e+00,6.341219e+00,3,3,4.373384e+00,4.377931e+00,1
5.438376e+00,4.110670e+00,4.067183e+00,3,1,5.385464e+00,5.407789e+00,1
5.489944e+00,6.142512e+00,6.095886e+00,3,2,4.299833e+00,4.306303e+00,1
5.466017e+00,2.291993e+00,2.246141e+00,3,0,5.297246e+00,5.343274e+00,1
5.358357e+00,5.631127e+00,5.586147e+00,3,2,5.389743e+00,5.481845e+00,1
5.304314e+00,4.046701e+00,4.001141e+00,3,1,4.348341e+00,4.386173e+00,1
5.301857e+00,3.680502e+00,3.637075e+00,3,1,4.222719e+00,4.223902e+00,1
5.304505e+00,3.194516e+00,3.149033e+00,3,1,4.195404e+00,4.195408e+00,1
5.303502e+00,3.531199e+00,3.489017e+00,3,1,4.472756e+00,4.483926e+00,1
5.358156e+00,3.143878e+00,3.100872e+00,3,1,2.372771e+00,2.372736e+00,1
5.339393e+00,1.831240e+00,1.788139e+00,3,0,2.528388e+00,2.528395e+00,1
5.310371e+00,3.595947e+00,3.555059e+00,3,1,5.384799e+00,5.384782e+00,1
7.093102e+00,8.372638e+00,8.326054e+00,4,5,9.597658e+00,9.595895e+00,1
1.057439e+01,4.108238e+00,4.058123e+00,6,2,7.862152e+00,7.846196e+00,1
8.821689e+00,3.956447e+00,3.911734e+00,5,2,4.289240e+00,4.288908e+00,1
5.326377e+00,6.497679e+00,6.454229e+00,3,3,7.014956e+00,7.017092e+00,1
7.122000e+00,5.178329e+00,5.136013e+00,4,2,6.143711e+00,6.143064e+00,1
7.185411e+00,8.500898e+00,8.454084e+00,4,4,4.670062e+00,4.676436e+00,1
5.478922e+00,2.315344e+00,2.266169e+00,3,0,6.127851e+00,6.141567e+00,1
5.465055e+00,4.044246e+00,3.999949e+00,3,1,8.049375e+00,8.082079e+00,1
5.476178e+00,7.231033e+00,7.184982e+00,3,3,7.059700e+00,7.112222e+00,1
5.478351e+00,4.324730e+00,4.281998e+00,3,1,1.007746e+01,1.019634e+01,1
7.269033e+00,2.248986e+00,2.204895e+00,4,0,8.991269e+00,9.223048e+00,1
7.293715e+00,5.780192e+00,5.737066e+00,4,2,5.556929e+00,5.687831e+00,1
5.520509e+00,3.744392e+00,3.700972e+00,3,1,3.903190e+00,3.904585e+00,1
5.462336e+00,3.332624e+00,3.288031e+00,3,1,2.535431e+00,2.535432e+00,1
5.462272e+00,3.694048e+00,3.648996e+00,3,1,2.787518e+00,2.792375e+00,1
5.477293e+00,3.961814e+00,3.918886e+00,3,1,2.824102e+00,2.829241e+00,1
5.470423e+00,2.289412e+00,2.246141e+00,3,0,5.674775e+00,5.786401e+00,1
5.448279e+00,3.777953e+00,3.732681e+00,3,1,3.599437e+00,3.611066e+00,1
5.456905e+00,2.336570e+00,2.293110e+00,3,0,5.233116e+00,5.249034e+00,1
5.470000e+00,3.334048e+00,3.289223e+00,3,1,6.615829e+00,6.615836e+00,1
5.458726e+00,1.897961e+00,1.854897e+00,3,0,8.919258e+00,8.919240e+00,1
5.489498e+00,1.939159e+00,1.896143e+00,3,0,7.860221e+00,7.860195e+00,1
5.440046e+00,1.829899e+00,1.789093e+00,3,0,4.139191e+00,4.139200e+00,1
5.461476e+00,1.318239e+01,1.313710e+01,3,7,8.143385e+00,8.227670e+00,1
5.366940e+00,1.534812e+01,1.530623e+01,3,9,7.594514e+00,7.671403e+00,1
7.159402e+00,2.287152e+01,2.282906e+01,4,14,9.616090e+00,9.705651e+00,1
8.926597e+00,2.464677e+01,2.460003e+01,5,16,8.869424e+00,8.936883e+00,1
8.884109e+00,8.675828e+00,8.630991e+00,5,4,6.431788e+00,6.450871e+00,1
7.089270e+00,5.497522e+00,5.454063e+00,4,2,7.069651e+00,7.121120e+00,1
1.067039e+01,1.912833e+01,1.908302e+01,6,11,1.159744e+01,1.173591e+01,1
7.135470e+00,1.666640e+01,1.662016e+01,4,11,7.000168e+00,7.000163e+00,1
5.317420e+00,9.955714e+00,9.909868e+00,3,5,1.029802e+01,1.037162e+01,1
5.389871e+00,1.365902e+01,1.361609e+01,3,8,1.129883e+01,1.135245e+01,1
1.067484e+01,1.330579e+01,1.326299e+01,6,8,1.082335e+01,1.084459e+01,1
7.082166e+00,8.651703e+00,8.607864e+00,4,5,8.018910e+00,8.018847e+00,1
5.296921e+00,1.827323e+00,1.781225e+00,3,0,6.198956e+00,6.198952e+00,1
5.348588e+00,5.179293e+00,5.138874e+00,3,2,6.003777e+00,6.015679e+00,1
5.378532e+00,3.519900e+00,3.477097e+00,3,1,4.384910e+00,4.385075e+00,1

