1.010283e+00,8.740425e-01,6,20
3.265380e-01,5.469322e-01,2,17
3.251000e-01,5.009174e-01,2,15
3.365350e-01,5.280972e-01,2,15
3.236310e-01,3.769398e-01,2,10
3.235770e-01,2.028942e-01,2,5
3.181460e-01,1.051426e-01,2,2
3.107920e-01,3.004074e-02,2,0
3.108440e-01,3.099442e-02,2,0
1.575770e-01,3.004074e-02,1,0
1.576140e-01,3.004074e-02,1,0
1.663710e-01,3.004074e-02,1,0
1.577150e-01,3.099442e-02,1,0
3.104950e-01,3.004074e-02,2,0
1.574430e-01,3.099442e-02,1,0

