9.880890e-01,8.940697e-01,6,20
3.254110e-01,5.478859e-01,2,17
3.234300e-01,4.999638e-01,2,15
3.231120e-01,5.290508e-01,2,15
3.239070e-01,3.879070e-01,2,10
3.223740e-01,2.019405e-01,2,5
3.180070e-01,1.039505e-01,2,2
3.095540e-01,2.980232e-02,2,0
3.095730e-01,3.004074e-02,2,0
1.568030e-01,3.099442e-02,1,0
1.569240e-01,3.099442e-02,1,0
1.570510e-01,3.004074e-02,1,0
1.572020e-01,2.980232e-02,1,0
3.319360e-01,3.004074e-02,2,0
1.575700e-01,3.099442e-02,1,0

