iter,mehrotra,qpoases,gurobi
1,0,0,0
2,0.4070468,0.4070476,0.4070476
3,3.423504,3.423509,3.423509
4,1.458942,1.458942,1.458942
5,7.285963,7.285975,7.285975
6,10.23676,10.23646,10.23646
7,16.19528,26.92435,16.1933
8,10.75716,10.74528,10.74528
9,10.13614,10.13444,10.13444
10,11.18375,11.18373,11.18373
11,8.311259,8.311258,8.311258
12,9.693764,9.693769,9.693769
13,11.72259,11.7226,11.7226
14,12.52468,12.52445,12.52445
15,11.07911,11.0708,11.0708
16,13.26566,13.26566,13.26565
17,9.825205,9.824888,9.824888
18,8.319787,8.319784,8.319784
19,8.560873,8.560878,8.560878
20,7.809423,7.809427,7.809427
21,6.359344,6.359345,6.359345
22,7.887366,7.887474,7.887371
23,6.505523,6.505523,6.505523
24,6.303463,6.303465,6.303465
25,8.750322,8.750331,8.750331
26,6.507523,6.507524,6.507524
27,8.068922,8.073124,8.068931
28,6.168495,6.168495,6.168495
29,5.925116,5.925118,5.925118
30,5.18635,5.186468,5.186352
31,4.127045,4.127046,4.127046
32,3.584474,3.584475,3.584475
33,3.904179,3.904181,3.904181
34,3.161355,3.161356,3.161356
35,3.745596,3.745598,3.745598
36,6.812573,6.812565,6.812565
37,6.55868,6.573602,6.55868
38,2.900726,2.900724,2.900724
39,3.771141,3.771144,3.771144
40,4.00111,4.001112,4.001112
41,2.935218,2.935219,2.935219
42,3.376089,3.376091,3.376091
43,4.069921,4.069923,4.069923
44,3.231136,3.231136,3.231136
45,3.185887,3.185888,3.185888
46,4.980608,4.980611,4.980611
47,5.143606,5.143608,5.143608
48,9.389155,9.391782,9.388981
49,7.706337,7.705916,7.705916
50,8.761847,8.761842,8.761842
51,6.86485,6.864851,6.864851
52,7.522539,7.522542,7.522542
53,5.318289,5.318289,5.318289
54,3.926172,3.926172,3.926172
55,4.170482,4.170484,4.170484
56,5.029899,5.029902,5.029902
57,6.09954,6.099544,6.099544
58,5.314061,5.314062,5.314062
59,9.450452,15.17699,9.449904
60,6.43991,6.439798,6.439798
61,4.789646,4.789645,4.789645
62,5.770274,5.770278,5.770278
63,5.213998,5.214001,5.214001
64,3.990134,3.990135,3.990135
65,5.576593,5.576597,5.576597
66,7.378293,7.378297,7.378297
67,6.111471,6.111471,6.111471
68,4.640739,4.64074,4.64074
69,3.509947,3.509947,3.509947
70,3.778879,3.778883,3.778883
71,6.434913,6.434919,6.434919
72,3.741071,3.741071,3.741071
73,10.43546,12.37431,10.43486
74,6.312153,6.312137,6.312137
75,3.40984,3.409844,3.409844
76,3.090529,3.09053,3.09053
77,3.32725,3.327253,3.327253
78,4.711013,4.711016,4.711016
79,9.787892,10.96392,9.787902
80,15.05501,26.324,15.04315
81,18.45766,39.15802,18.44448
82,10.86966,10.84094,10.84094
83,7.168128,7.167465,7.167465
84,5.721198,5.721201,5.721201
85,7.331471,7.333655,7.331477
86,7.004662,7.018339,7.004662
87,7.962024,8.065009,7.951915
88,8.753766,9.041197,8.737122
89,9.156999,9.301491,9.155223
90,8.170865,8.199936,8.153824
91,4.648765,4.648765,4.648765
92,4.025562,4.025563,4.025563
93,4.22413,4.224135,4.224135
94,3.485613,3.485613,3.485613
95,3.05436,3.054363,3.054363
96,3.120946,3.120947,3.120947
97,4.386915,4.386919,4.386919
98,8.367602,11.33388,8.367609
99,4.316527,4.316522,4.316522
100,3.701703,3.701703,3.701703
101,3.81498,3.814982,3.814982
102,5.102444,5.102174,5.102174
103,4.802891,4.801687,4.801687
104,3.627008,3.627002,3.627002
105,3.355713,3.355714,3.355714
106,3.231239,3.23124,3.23124
107,2.504124,2.504124,2.504124
108,5.121914,5.12174,5.12174
109,1.345103,1.345101,1.345101
110,2.157579,2.157581,2.157581
111,2.293964,2.293965,2.293965
112,1.289935,1.289936,1.289936
113,2.829945,2.829948,2.829948
114,1.905405,1.905405,1.905405
115,2.224197,2.2242,2.2242
116,1.612458,1.612459,1.612459
117,2.582753,2.582756,2.582756
118,1.01287,1.01287,1.01287
119,1.336611,1.336612,1.336612
120,1.263732,1.263733,1.263733
121,1.518464,1.518465,1.518465
122,2.380322,2.380324,2.380324
123,1.718206,1.718206,1.718206
124,1.908265,1.908269,1.908269
125,1.182769,1.182769,1.182769
126,2.453155,2.453158,2.453158
127,1.637074,1.637075,1.637075
128,2.801304,2.801306,2.801306
129,2.823111,2.823112,2.823112
130,1.393169,1.393169,1.393169
131,2.063328,2.06333,2.06333
132,1.982568,1.982572,1.982572
133,1.427875,1.427876,1.427876
134,2.184846,2.184848,2.184848
135,3.328849,3.328852,3.328852
136,2.513959,2.51396,2.51396
137,3.022914,3.022917,3.022917
138,1.655121,1.655122,1.655122
139,1.47516,1.475161,1.475161
140,1.245425,1.245426,1.245426
141,1.129816,1.129816,1.129816
142,1.194333,1.194334,1.194334
143,3.216322,3.216328,3.216328
144,3.552636,3.552638,3.552638
145,3.289432,3.289433,3.289433
146,3.362077,3.36208,3.36208
147,7.4877,7.487708,7.487708
148,17.73469,20.06762,17.73207
149,12.42521,12.47008,12.42517
150,11.09375,11.10178,11.09375
151,10.51437,10.51436,10.51436
152,12.4066,12.40198,12.39792
153,8.204367,8.20315,8.20315
154,10.04536,10.04127,10.04127
155,8.798899,8.780186,8.780186
156,6.911465,6.911465,6.911465
157,6.219436,6.219438,6.219438
158,5.562947,5.562948,5.562948
159,5.757912,5.757914,5.757914
160,5.017952,5.017954,5.017954
161,4.71732,4.717322,4.717322
162,4.952129,4.952132,4.952132
163,4.122417,4.122418,4.122418
164,3.172286,3.172287,3.172287
165,3.122303,3.122305,3.122305
166,2.11721,2.11721,2.11721
167,2.362493,2.362495,2.362495
168,3.441558,3.44156,3.44156
169,7.060754,7.060761,7.060761
170,4.654707,4.654707,4.654707
171,4.036364,4.036365,4.036365
172,3.752037,3.752038,3.752038
173,3.719243,3.719244,3.719244
174,2.645465,2.645466,2.645466
175,3.141928,3.14193,3.14193
176,2.165333,2.165333,2.165333
177,1.852774,1.852775,1.852775
178,2.80766,2.807663,2.807663
179,2.617049,2.61705,2.61705
180,3.110075,3.110077,3.110077
181,1.57112,1.571122,1.571122
182,1.840887,1.840889,1.840889
183,1.360518,1.360518,1.360518
184,2.018465,2.018467,2.018467
185,3.031602,3.031605,3.031605
186,2.66098,2.660981,2.660981
187,4.484069,4.484073,4.484073
188,5.399773,5.399773,5.399773
189,7.257499,7.257504,7.257504
190,9.576979,9.576984,9.576984
191,9.792848,9.792851,9.792851
192,8.357609,8.357609,8.357609
193,8.488799,8.488801,8.488801
194,8.890579,8.890581,8.890581
195,6.51369,6.513689,6.513689
196,6.25712,6.257122,6.257122
197,8.769458,8.769464,8.769464
198,6.98917,6.989172,6.989172
199,5.992672,5.992673,5.992673
200,7.584101,7.584105,7.584105
201,5.442398,5.442398,5.442398
202,9.580337,9.692056,9.580196
203,6.550942,6.54809,6.54809
204,6.732998,6.733275,6.732998
205,3.758397,3.758396,3.758396
206,3.783983,3.783986,3.783986
207,5.603585,5.60359,5.60359
208,4.120781,4.120782,4.120782
209,3.792775,3.792776,3.792776
210,2.960068,2.96007,2.96007
211,2.420607,2.420608,2.420608
212,4.355132,4.355136,4.355136
213,4.227228,4.227229,4.227229
214,4.558848,4.558851,4.558851
215,8.705135,8.705211,8.705143
216,12.60189,12.64884,12.60008
217,10.34829,10.35462,10.34691
218,8.934704,8.9347,8.9347
219,6.426256,6.426255,6.426255
220,6.109816,6.109821,6.109821
221,6.040341,6.040343,6.040343
222,3.643158,3.643157,3.643157
223,4.239351,4.239354,4.239354
224,2.521096,2.521095,2.521095
225,3.602924,3.602927,3.602927
226,5.002873,5.002878,5.002878
227,5.410984,5.410987,5.410987
228,2.855058,2.855058,2.855058
229,3.5843,3.584303,3.584303
230,4.440618,4.44062,4.44062
231,11.37566,20.78283,11.36349
232,18.48038,45.05038,18.47462
233,20.53787,51.42852,20.5238
234,19.55666,39.957,19.53907
235,26.68536,63.65804,26.6618
236,35.13574,84.40891,35.09996
237,33.54108,60.33454,33.49148
238,30.10417,43.76968,30.09484
239,27.05755,28.53058,27.05702
240,20.87356,20.85027,20.84831
241,25.4804,25.53289,25.47657
242,19.11248,19.10143,19.09625
243,18.63627,18.63771,18.63624
244,16.07243,16.07243,16.07243
245,14.00962,14.00962,14.00962
246,11.52863,11.52863,11.52863
247,11.03142,11.03143,11.03143
248,9.618647,9.618649,9.618649
249,9.389752,9.389757,9.389757
250,8.640542,8.672324,8.640545
251,9.502618,13.49931,9.502622
252,5.817836,5.817835,5.817835
253,7.572778,7.603685,7.572783
254,9.432679,14.79248,9.431446
255,6.946953,7.018696,6.946952
256,6.361363,6.383517,6.361364
257,3.983902,3.983901,3.983901
258,4.487847,4.48785,4.48785
259,6.516197,6.533843,6.516202
260,6.422544,6.424538,6.422399
261,7.120249,7.11523,7.11523
262,12.24714,12.32313,12.24473
263,9.744015,9.777753,9.744008
264,6.285179,6.285179,6.285179
265,6.481942,6.481945,6.481945
266,6.906937,6.90694,6.90694
267,5.182012,5.182014,5.182014
268,7.22929,7.229296,7.229296
269,7.783311,7.783314,7.783314
270,9.611301,12.7693,9.610662
271,8.347257,8.343884,8.343884
272,9.763705,9.759178,9.746547
273,11.49424,11.48539,11.44327
274,7.354399,7.349934,7.349934
275,7.987555,7.987306,7.987306
276,6.967029,6.96703,6.96703
277,7.219024,7.219028,7.219028
278,3.901266,3.901265,3.901265
279,2.647027,2.647027,2.647027
280,7.090244,7.090254,7.090254
281,7.185023,7.378555,7.185026
282,7.497579,7.640804,7.497581
283,6.6148,6.674422,6.614801
284,4.405262,4.405616,4.405262
285,8.238786,8.269102,8.236346
286,4.218592,4.214464,4.214464
287,2.093816,2.093769,2.093769
288,2.871366,2.871368,2.871368
289,2.642895,2.642896,2.642896
290,5.001376,5.001382,5.001382
291,6.997792,6.997797,6.997797
292,9.294704,9.294709,9.294709
293,9.177838,9.17784,9.17784
294,13.93316,13.93679,13.9311
295,22.04738,32.23604,22.04259
296,13.17813,13.17812,13.17812
297,14.95938,14.99934,14.95847
298,9.200939,9.200937,9.200937
299,6.58221,6.58221,6.58221
300,6.926063,6.926067,6.926067
301,7.765247,7.765252,7.765252
302,6.440277,6.440278,6.440278
303,10.20339,10.2034,10.2034
304,7.979184,7.979185,7.979185
305,8.212308,8.21231,8.21231
306,10.01648,10.01649,10.01649
307,8.569782,8.569783,8.569783
308,9.403364,14.45357,9.403333
309,9.170144,9.189712,9.169329
310,6.433836,6.43368,6.43368
311,5.17474,5.174741,5.174741
312,5.371955,5.371959,5.371959
313,6.927135,6.927139,6.927139
314,9.229749,9.229756,9.229756
315,8.118245,8.118247,8.118247
316,9.262127,9.262132,9.262132
317,6.691085,6.691084,6.691084
318,6.799885,6.799887,6.799887
319,7.600898,7.600902,7.600902
320,5.741466,5.741466,5.741466
321,3.875195,3.875195,3.875195
322,4.244615,4.244617,4.244617
323,4.071279,4.07128,4.07128
324,2.45537,2.455371,2.455371
325,4.407979,4.407985,4.407985
326,5.069102,5.069105,5.069105
327,2.417163,2.417164,2.417164
328,4.262123,4.262127,4.262127
329,2.212952,2.212954,2.212954
330,2.714099,2.714101,2.714101
331,3.1411,3.141102,3.141102
332,4.291631,4.291634,4.291634
333,7.380135,7.380141,7.380141
334,6.560962,6.560963,6.560963
335,6.755941,6.755946,6.755946
336,10.76825,10.76826,10.76826
337,8.786407,8.786408,8.786408
338,7.296689,7.296691,7.296691
339,5.654985,5.657056,5.654986
340,5.915976,5.965073,5.915978
341,3.405842,3.405843,3.405843
342,3.08067,3.080671,3.080671
343,3.297949,3.297953,3.297953
344,4.960459,4.960463,4.960463
345,5.988361,5.984841,5.984841
346,5.584094,5.568227,5.568227
347,4.057078,4.05708,4.05708
348,4.466083,4.466085,4.466085
349,4.647781,4.647783,4.647783
350,3.00796,3.00796,3.00796
351,2.441618,2.44162,2.44162
352,4.552666,4.552671,4.552671
353,4.818522,4.818524,4.818524
354,2.83022,2.83022,2.83022
355,3.958707,3.958711,3.958711
356,4.867339,4.867342,4.867342
357,2.630573,2.630573,2.630573
358,3.787288,3.787291,3.787291
359,4.885635,4.885638,4.885638
360,3.415063,3.415063,3.415063
361,2.990535,2.990536,2.990536
362,4.854352,4.854357,4.854357
363,8.145144,8.147471,8.145149
364,6.913028,6.912453,6.912453
365,7.708126,7.701455,7.701455
366,7.889297,7.878896,7.878896
367,5.641474,5.641472,5.641472
368,4.508966,4.508967,4.508967
369,4.883436,4.883438,4.883438
370,4.89672,4.896722,4.896722
371,5.510781,5.510784,5.510784
372,7.073906,7.07391,7.07391
373,7.777408,7.777413,7.777413
374,5.735569,5.735569,5.735569
375,6.04898,6.048983,6.048983
376,5.241553,5.241554,5.241554
377,4.759398,4.7594,4.7594
378,7.15867,7.158675,7.158675
379,5.511499,5.511499,5.511499
380,2.933416,2.933415,2.933415
381,2.21294,2.21294,2.21294
382,2.848507,2.848458,2.848458
383,1.978365,1.978367,1.978367
384,1.913224,1.913225,1.913225
385,2.512312,2.512314,2.512314
386,2.102711,2.102712,2.102712
387,1.944869,1.94487,1.94487
388,1.854182,1.854183,1.854183
389,2.988472,2.988475,2.988475
390,2.367161,2.367162,2.367162
391,3.098663,3.098667,3.098667
392,6.685355,6.685362,6.685362
393,9.52396,9.523966,9.523966
394,15.32926,15.32593,15.31521
395,7.101859,7.101625,7.101625
396,7.057865,7.057778,7.057778
397,8.305964,8.305971,8.305971
398,7.063375,7.063375,7.063375
399,5.61342,5.61342,5.61342
400,4.718602,4.718604,4.718604
401,4.100934,4.100936,4.100936
402,5.575218,5.575222,5.575222
403,5.111929,5.111971,5.111931
404,7.745328,7.801025,7.745332
405,9.535125,9.619812,9.533614
406,11.01009,12.87166,10.99448
407,17.6477,38.64522,17.63108
408,8.107387,8.107221,8.107221
409,4.451933,4.451928,4.451928
410,4.536685,4.536687,4.536687
411,4.335615,4.335616,4.335616
412,6.871785,6.871793,6.871793
413,9.516263,9.51661,9.516269
414,7.249638,7.249637,7.249637
415,6.653027,6.653028,6.653028
416,5.247216,5.247217,5.247217
417,3.680022,3.680022,3.680022
418,3.703218,3.703219,3.703219
419,4.883065,4.883068,4.883068
420,4.00049,4.000491,4.000491
421,4.548399,4.548401,4.548401
422,4.658742,4.658744,4.658744
423,4.19456,4.194562,4.194562
424,4.365926,4.365928,4.365928
425,3.330965,3.330966,3.330966
426,3.225918,3.225921,3.225921
427,2.671924,2.671927,2.671927
428,4.634295,4.6343,4.6343
429,15.35115,33.34146,15.3487
430,12.78495,13.61181,12.77617
431,22.14686,47.91088,22.12852
432,26.11427,54.60607,26.10037
433,13.39432,13.4018,13.37542
434,12.09188,12.07341,12.07341
435,8.16486,8.15289,8.15289
436,5.703573,5.702761,5.702761
437,4.251629,4.25163,4.25163
438,5.041462,5.041466,5.041466
439,3.726082,3.726082,3.726082
440,3.116317,3.116318,3.116318
441,2.956812,2.956814,2.956814
442,2.877767,2.877768,2.877768
443,3.314253,3.314255,3.314255
444,3.936226,3.936228,3.936228
445,7.575895,7.575419,7.575419
446,12.06664,12.20993,12.05194
447,11.66996,11.79364,11.65458
448,8.084121,8.071357,8.071356
449,17.04283,24.65991,16.98641
450,11.37514,11.44311,11.35685
451,5.776824,5.775746,5.775746
452,3.724281,3.724265,3.724265
453,11.40462,11.49756,11.40462
454,11.62762,11.64781,11.62742
455,9.07885,9.078812,9.078812
456,6.010389,6.010387,6.010387
457,6.449567,6.449571,6.449571
458,5.618141,5.618143,5.618143
459,6.900947,14.73081,6.900951
460,11.71582,42.49177,11.71528
461,13.85079,50.16484,13.83808
462,8.651129,11.55082,8.649508
463,9.516345,9.549528,9.516168
464,6.931728,6.93172,6.93172
465,6.733144,6.733146,6.733146
466,10.50765,10.53288,10.50659
467,6.117892,6.115732,6.115732
468,4.070419,4.070398,4.070398
469,2.944983,2.944984,2.944984
470,3.304479,3.304481,3.304481
471,3.910182,3.910184,3.910184
472,2.725244,2.725244,2.725244
473,3.295763,3.295765,3.295765
474,1.949308,1.949308,1.949308
475,1.871252,1.871253,1.871253
476,3.378211,3.378215,3.378215
477,2.906296,2.906298,2.906298
478,3.290384,3.290386,3.290386
479,2.348667,2.348668,2.348668
480,3.43099,3.430995,3.430995
481,6.385357,6.398628,6.385363
482,2.455818,2.455816,2.455816
483,2.48149,2.481491,2.481491
484,2.436728,2.436729,2.436729
485,2.487337,2.487338,2.487338
486,1.736922,1.736923,1.736923
487,1.592218,1.592219,1.592219
488,2.755153,2.755159,2.755159
489,1.625784,1.625784,1.625784
490,1.145442,1.145444,1.145444
491,1.84558,1.845582,1.845582
492,4.866204,4.86621,4.86621
493,2.666829,2.666829,2.666829
494,3.032124,3.032127,3.032127
495,3.018364,3.018366,3.018366
496,2.646868,2.646869,2.646869
497,4.586368,4.586374,4.586374
498,3.756391,3.756392,3.756392
499,2.931946,2.931947,2.931947
500,2.783699,2.7837,2.7837
