5.967980e-01,5.280540e-01,2,2,0.000000e+00,0.000000e+00
8.536710e-01,7.864100e-01,3,3,7.539545e-02,7.539544e-02
8.547950e-01,7.786560e-01,3,3,1.376321e-01,1.376320e-01
8.549380e-01,7.848260e-01,3,3,2.934707e-01,2.934706e-01
8.868900e-01,7.866670e-01,3,3,2.694861e-01,2.694861e-01
8.550010e-01,7.787370e-01,3,3,1.254802e+00,1.254801e+00
8.551360e-01,7.840530e-01,3,3,1.756505e+00,1.756504e+00
8.624500e-01,7.862380e-01,3,3,2.310508e+00,2.310508e+00
8.558900e-01,7.788380e-01,3,3,1.130837e+00,1.130837e+00
8.631550e-01,7.854430e-01,3,3,1.001612e+00,1.001612e+00
8.554250e-01,7.832490e-01,3,3,8.336068e-01,8.336068e-01
8.544400e-01,7.782870e-01,3,3,9.629342e-01,9.629340e-01
8.550660e-01,7.843540e-01,3,3,1.587834e+00,1.587833e+00
8.558050e-01,7.971820e-01,3,3,2.162954e+00,2.162953e+00
8.506120e-01,7.839570e-01,3,3,1.981320e+00,1.981320e+00
8.556700e-01,7.848150e-01,3,3,2.764890e+00,2.764889e+00
8.562980e-01,7.846520e-01,3,3,2.160226e+00,2.160226e+00
8.501490e-01,7.839470e-01,3,3,1.888243e+00,1.888242e+00
8.559070e-01,7.848190e-01,3,3,1.808789e+00,1.808789e+00
8.563020e-01,7.790540e-01,3,3,1.714912e+00,1.714912e+00
8.545130e-01,7.841800e-01,3,3,1.786460e+00,1.786460e+00
8.558550e-01,7.839080e-01,3,3,1.489483e+00,1.489483e+00
8.552370e-01,7.790480e-01,3,3,1.350344e+00,1.350343e+00
8.553240e-01,7.840190e-01,3,3,1.181708e+00,1.181708e+00
8.556870e-01,7.844580e-01,3,3,1.163048e+00,1.163048e+00
8.544290e-01,7.781570e-01,3,3,1.122189e+00,1.122189e+00
8.545190e-01,7.847250e-01,3,3,9.327395e-01,9.327395e-01
8.552660e-01,7.834950e-01,3,3,6.697031e-01,6.697031e-01
8.498490e-01,7.791060e-01,3,3,3.317620e-01,3.317618e-01
8.541160e-01,7.846080e-01,3,3,2.847486e-01,2.847486e-01
8.536610e-01,7.845050e-01,3,3,5.746734e-01,5.746733e-01
8.489790e-01,7.832430e-01,3,3,6.785120e-01,6.785118e-01
8.551750e-01,7.850490e-01,3,3,5.886633e-01,5.886632e-01
8.547210e-01,7.819520e-01,3,3,9.046022e-01,9.046020e-01
8.500480e-01,7.834820e-01,3,3,7.425771e-01,7.425771e-01
8.547590e-01,7.838500e-01,3,3,5.507321e-01,5.507322e-01
8.547540e-01,7.781740e-01,3,3,4.051342e-01,4.051341e-01
8.547360e-01,7.835340e-01,3,3,3.321687e-01,3.321687e-01
8.545550e-01,7.838240e-01,3,3,8.440177e-01,8.440175e-01
8.553550e-01,7.781270e-01,3,3,9.345924e-01,9.345924e-01
8.536220e-01,7.841080e-01,3,3,2.113311e+00,2.113310e+00
8.554190e-01,7.833930e-01,3,3,2.895594e+00,2.895593e+00
8.536630e-01,7.789930e-01,3,3,1.840142e+00,1.840143e+00
8.556280e-01,7.840960e-01,3,3,2.783683e+00,2.783682e+00
8.648610e-01,7.890390e-01,3,3,2.225772e+00,2.225772e+00
8.504160e-01,7.848390e-01,3,3,1.795047e+00,1.795047e+00
8.559410e-01,7.850610e-01,3,3,1.612535e+00,1.612535e+00
8.560170e-01,7.836260e-01,3,3,1.344273e+00,1.344273e+00
8.500870e-01,7.844510e-01,3,3,1.081679e+00,1.081679e+00
8.562780e-01,7.854600e-01,3,3,6.877546e-01,6.877546e-01
8.544090e-01,7.781380e-01,3,3,6.110293e-01,6.110292e-01
8.547750e-01,7.843180e-01,3,3,9.854031e-01,9.854028e-01
8.561490e-01,7.842360e-01,3,3,7.250155e-01,7.250155e-01
8.555900e-01,7.788230e-01,3,3,6.194853e-01,6.194853e-01
8.538570e-01,7.849990e-01,3,3,8.206624e-01,8.206622e-01
8.562440e-01,7.849650e-01,3,3,1.122914e+00,1.122914e+00
8.559170e-01,7.781870e-01,3,3,6.142229e-01,6.142230e-01
8.543090e-01,7.859690e-01,3,3,9.369085e-01,9.369084e-01
8.558200e-01,7.842700e-01,3,3,1.314886e+00,1.314886e+00
8.488550e-01,7.841920e-01,3,3,1.969159e+00,1.969158e+00
8.545730e-01,7.852530e-01,3,3,8.898526e-01,8.898524e-01
8.555490e-01,7.844630e-01,3,3,1.910652e+00,1.910651e+00
8.495760e-01,7.863270e-01,3,3,3.606268e+00,3.606266e+00
8.561450e-01,7.847870e-01,3,3,1.975417e+00,1.975418e+00
8.559010e-01,7.840200e-01,3,3,2.723683e+00,2.723682e+00
8.508740e-01,7.839600e-01,3,3,1.169084e+00,1.169084e+00
8.547570e-01,7.854310e-01,3,3,1.263230e+00,1.263229e+00
8.563520e-01,7.784060e-01,3,3,9.984229e-01,9.984228e-01
8.543970e-01,7.832600e-01,3,3,7.742218e-01,7.742218e-01
8.571080e-01,7.848200e-01,3,3,6.009269e-01,6.009268e-01
8.553680e-01,7.786550e-01,3,3,8.870310e-01,8.870309e-01
8.547170e-01,7.845090e-01,3,3,9.023889e-01,9.023888e-01
8.560930e-01,7.840480e-01,3,3,9.126757e-01,9.126756e-01
8.548970e-01,7.783260e-01,3,3,1.030194e+00,1.030194e+00
8.543650e-01,7.963570e-01,3,3,1.503318e+00,1.503318e+00
8.579250e-01,7.844610e-01,3,3,2.023180e+00,2.023180e+00
8.502560e-01,7.830870e-01,3,3,1.231910e+00,1.231910e+00
8.548820e-01,7.856670e-01,3,3,1.232612e+00,1.232612e+00
8.565350e-01,7.847590e-01,3,3,9.106059e-01,9.106059e-01
8.489400e-01,7.838970e-01,3,3,4.415008e-01,4.415008e-01
8.543040e-01,7.840480e-01,3,3,1.469211e+00,1.469210e+00
8.557820e-01,7.782830e-01,3,3,1.093927e+00,1.093927e+00
8.550820e-01,7.846350e-01,3,3,9.839060e-01,9.839060e-01
8.579100e-01,7.851920e-01,3,3,9.484037e-01,9.484035e-01
8.545830e-01,7.789600e-01,3,3,1.340376e+00,1.340375e+00
8.554640e-01,7.846020e-01,3,3,2.426739e+00,2.426739e+00
8.562130e-01,7.853890e-01,3,3,3.657854e+00,3.657853e+00
8.549360e-01,7.787040e-01,3,3,5.363844e+00,5.363843e+00
8.564850e-01,7.841240e-01,3,3,4.373634e+00,4.373634e+00
8.552890e-01,7.839090e-01,3,3,3.112641e+00,3.112642e+00
8.555570e-01,7.788970e-01,3,3,2.394087e+00,2.394087e+00
8.545920e-01,7.849090e-01,3,3,1.688656e+00,1.688656e+00
8.561700e-01,7.853580e-01,3,3,2.384602e+00,2.384601e+00
8.503550e-01,7.851670e-01,3,3,1.787173e+00,1.787173e+00
8.557690e-01,7.835480e-01,3,3,2.318071e+00,2.318071e+00
8.561380e-01,7.841890e-01,3,3,2.520931e+00,2.520932e+00
8.505650e-01,7.836320e-01,3,3,1.100126e+00,1.100127e+00
8.559290e-01,7.844750e-01,3,3,9.618320e-01,9.618319e-01
8.559550e-01,7.784820e-01,3,3,1.351688e+00,1.351688e+00
8.542340e-01,7.831570e-01,3,3,1.448054e+00,1.448054e+00
8.555540e-01,7.834370e-01,3,3,1.093162e+00,1.093162e+00
8.553360e-01,7.784060e-01,3,3,1.256484e+00,1.256483e+00
8.543760e-01,7.835490e-01,3,3,7.338232e-01,7.338232e-01
8.560890e-01,7.847600e-01,3,3,6.687876e-01,6.687875e-01
8.547880e-01,7.778880e-01,3,3,5.546592e-01,5.546592e-01
8.661870e-01,7.864520e-01,3,3,5.820472e-01,5.820471e-01
8.544020e-01,7.847900e-01,3,3,8.179784e-01,8.179782e-01
8.501550e-01,7.839940e-01,3,3,8.954412e-01,8.954411e-01
8.565460e-01,7.848830e-01,3,3,5.794090e-01,5.794091e-01
8.547420e-01,7.842890e-01,3,3,5.854888e-01,5.854887e-01
8.498330e-01,7.850610e-01,3,3,5.420893e-01,5.420892e-01
8.545200e-01,7.852630e-01,3,3,4.512420e-01,4.512419e-01
8.552790e-01,7.783310e-01,3,3,3.199590e-01,3.199590e-01
8.536430e-01,7.831960e-01,3,3,5.570476e-01,5.570474e-01
8.552380e-01,7.839690e-01,3,3,2.969425e-01,2.969425e-01
8.540840e-01,7.779190e-01,3,3,3.398680e-01,3.398680e-01
8.533250e-01,7.833810e-01,3,3,8.709419e-01,8.709415e-01
8.559470e-01,7.845180e-01,3,3,6.328207e-01,6.328207e-01
8.542140e-01,7.782280e-01,3,3,2.025278e+00,2.025277e+00
8.553600e-01,7.845480e-01,3,3,1.408769e+00,1.408769e+00
8.549100e-01,7.852870e-01,3,3,1.369022e+00,1.369022e+00
8.541210e-01,7.785460e-01,3,3,1.713030e+00,1.713030e+00
8.553770e-01,7.836610e-01,3,3,1.550057e+00,1.550057e+00
8.548680e-01,7.845990e-01,3,3,1.710002e+00,1.710002e+00
8.501510e-01,7.833540e-01,3,3,3.017659e+00,3.017658e+00
8.551060e-01,7.836940e-01,3,3,1.975120e+00,1.975120e+00
8.542100e-01,7.831740e-01,3,3,1.505443e+00,1.505444e+00
8.507320e-01,7.837250e-01,3,3,1.315035e+00,1.315035e+00
8.550940e-01,7.840430e-01,3,3,7.775207e-01,7.775204e-01
8.557800e-01,7.778340e-01,3,3,8.598513e-01,8.598510e-01
8.544160e-01,7.843860e-01,3,3,5.383564e-01,5.383563e-01
8.548290e-01,7.834970e-01,3,3,7.027548e-01,7.027546e-01
8.545590e-01,7.784350e-01,3,3,3.166074e-01,3.166073e-01
8.546730e-01,7.836570e-01,3,3,2.578552e-01,2.578552e-01
8.543920e-01,7.838600e-01,3,3,2.690208e-01,2.690207e-01
8.555510e-01,7.887940e-01,3,3,5.781329e-01,5.781326e-01
8.555600e-01,7.839050e-01,3,3,5.978219e-01,5.978218e-01
8.558220e-01,7.848170e-01,3,3,5.053834e-01,5.053834e-01
8.481690e-01,7.836460e-01,3,3,5.510604e-01,5.510603e-01
8.546140e-01,7.849570e-01,3,3,4.678502e-01,4.678502e-01
8.550460e-01,7.841480e-01,3,3,8.671481e-01,8.671477e-01
8.490470e-01,7.852250e-01,3,3,1.470053e+00,1.470052e+00
8.545770e-01,7.855220e-01,3,3,1.664422e+00,1.664422e+00
8.556590e-01,7.780730e-01,3,3,1.301451e+00,1.301451e+00
8.558160e-01,7.849790e-01,3,3,1.156650e+00,1.156650e+00
8.562060e-01,7.843560e-01,3,3,1.072100e+00,1.072100e+00
8.565370e-01,7.784060e-01,3,3,7.728983e-01,7.728986e-01
8.574850e-01,7.841220e-01,3,3,6.617629e-01,6.617624e-01
8.545390e-01,7.837830e-01,3,3,1.152295e+00,1.152294e+00
8.563030e-01,7.785050e-01,3,3,1.655924e+00,1.655924e+00
8.552470e-01,7.845260e-01,3,3,1.013204e+00,1.013204e+00
8.551710e-01,7.843240e-01,3,3,9.622535e-01,9.622535e-01
8.490280e-01,7.837650e-01,3,3,8.659567e-01,8.659566e-01
8.548700e-01,7.842000e-01,3,3,7.954315e-01,7.954314e-01
8.557290e-01,7.846440e-01,3,3,6.562090e-01,6.562090e-01
8.502360e-01,7.841770e-01,3,3,7.372112e-01,7.372110e-01
8.541510e-01,7.833400e-01,3,3,1.203657e+00,1.203656e+00
8.557330e-01,7.788310e-01,3,3,1.155230e+00,1.155230e+00
8.505060e-01,7.847690e-01,3,3,1.224534e+00,1.224534e+00
8.552910e-01,7.854820e-01,3,3,1.391972e+00,1.391972e+00
8.550480e-01,7.772280e-01,3,3,6.362730e-01,6.362729e-01
8.541310e-01,7.837910e-01,3,3,5.053670e-01,5.053669e-01
8.547870e-01,7.847840e-01,3,3,5.338890e-01,5.338889e-01
8.560100e-01,7.783840e-01,3,3,2.370515e-01,2.370514e-01
8.541990e-01,7.836130e-01,3,3,2.393576e-01,2.393575e-01
8.544360e-01,7.838170e-01,3,3,4.120253e-01,4.120253e-01
8.674110e-01,7.786580e-01,3,3,3.515092e-01,3.515092e-01
8.545310e-01,7.844730e-01,3,3,9.585719e-01,9.585714e-01
8.557110e-01,7.843110e-01,3,3,7.182278e-01,7.182277e-01
8.492900e-01,7.831870e-01,3,3,5.098746e-01,5.098746e-01
8.551980e-01,7.844090e-01,3,3,4.558847e-01,4.558847e-01
8.545990e-01,7.843360e-01,3,3,4.646784e-01,4.646783e-01
8.496960e-01,7.843980e-01,3,3,4.770056e-01,4.770055e-01
8.549660e-01,7.838510e-01,3,3,3.040839e-01,3.040839e-01
8.551950e-01,7.773780e-01,3,3,3.377664e-01,3.377663e-01
8.552580e-01,7.837020e-01,3,3,2.788534e-01,2.788533e-01
8.541300e-01,7.837920e-01,3,3,2.407059e-01,2.407058e-01
8.550530e-01,7.786400e-01,3,3,6.442230e-01,6.442227e-01
8.547570e-01,7.833210e-01,3,3,4.095452e-01,4.095451e-01
8.547100e-01,7.834060e-01,3,3,6.437721e-01,6.437719e-01
8.546700e-01,7.779910e-01,3,3,1.039902e+00,1.039901e+00
8.553750e-01,7.847170e-01,3,3,8.875855e-01,8.875853e-01
8.550700e-01,7.835970e-01,3,3,1.006186e+00,1.006185e+00
8.494980e-01,7.838030e-01,3,3,7.122620e-01,7.122620e-01
8.540770e-01,7.843720e-01,3,3,7.083473e-01,7.083472e-01
8.546280e-01,7.838260e-01,3,3,8.100302e-01,8.100300e-01
8.493390e-01,7.832950e-01,3,3,1.766688e+00,1.766687e+00
8.551950e-01,7.840270e-01,3,3,2.341985e+00,2.341984e+00
8.552710e-01,7.792030e-01,3,3,2.078283e+00,2.078283e+00
8.638630e-01,7.838020e-01,3,3,1.686164e+00,1.686164e+00
8.562200e-01,7.843750e-01,3,3,1.548802e+00,1.548802e+00
8.562380e-01,7.787960e-01,3,3,1.061556e+00,1.061556e+00
8.552490e-01,7.837660e-01,3,3,1.052392e+00,1.052391e+00
8.546880e-01,7.842810e-01,3,3,1.034730e+00,1.034731e+00
8.547460e-01,7.782750e-01,3,3,7.927306e-01,7.927305e-01
8.548730e-01,7.831780e-01,3,3,7.023906e-01,7.023906e-01
8.566700e-01,7.942220e-01,3,3,1.423105e+00,1.423104e+00
8.553190e-01,7.790250e-01,3,3,2.958255e+00,2.958256e+00
8.550390e-01,7.843040e-01,3,3,3.026537e+00,3.026555e+00
8.553720e-01,7.839030e-01,3,3,3.062268e+00,3.062270e+00
8.494880e-01,7.824130e-01,3,3,3.571487e+00,3.571487e+00
8.560180e-01,7.847990e-01,3,3,5.100197e+00,5.100195e+00
8.562110e-01,7.841680e-01,3,3,3.278300e+00,3.278301e+00
8.502900e-01,7.855590e-01,3,3,3.995907e+00,3.995906e+00
8.558090e-01,7.850310e-01,3,3,3.076641e+00,3.076641e+00
8.556440e-01,7.783920e-01,3,3,2.868580e+00,2.868580e+00
8.557410e-01,7.836720e-01,3,3,1.982004e+00,1.982004e+00
8.566130e-01,7.840350e-01,3,3,2.500428e+00,2.500428e+00
8.560490e-01,7.785590e-01,3,3,1.694900e+00,1.694901e+00
8.546780e-01,7.839010e-01,3,3,2.202419e+00,2.202419e+00
8.558850e-01,7.841680e-01,3,3,7.198395e-01,7.198397e-01
8.539180e-01,7.787390e-01,3,3,9.079751e-01,9.079748e-01
8.543730e-01,7.841170e-01,3,3,1.727905e+00,1.727904e+00
8.575680e-01,7.836610e-01,3,3,1.320268e+00,1.320268e+00
8.495170e-01,7.833150e-01,3,3,2.105952e+00,2.105951e+00
8.548990e-01,7.845190e-01,3,3,1.874714e+00,1.874714e+00
8.554460e-01,7.833390e-01,3,3,3.197580e+00,3.197579e+00
8.501670e-01,7.840990e-01,3,3,1.638093e+00,1.638094e+00
8.554130e-01,7.842790e-01,3,3,1.357662e+00,1.357662e+00
8.555420e-01,7.781470e-01,3,3,1.070695e+00,1.070695e+00
8.545380e-01,7.839650e-01,3,3,1.074448e+00,1.074447e+00
8.553890e-01,7.833990e-01,3,3,1.150461e+00,1.150461e+00
8.552530e-01,7.777950e-01,3,3,1.737571e+00,1.737571e+00
8.549570e-01,7.836490e-01,3,3,7.951804e-01,7.951808e-01
8.547890e-01,7.835450e-01,3,3,5.279798e-01,5.279797e-01
8.557920e-01,7.785670e-01,3,3,6.065543e-01,6.065542e-01
8.542820e-01,7.952150e-01,3,3,5.859223e-01,5.859222e-01
8.558090e-01,7.845610e-01,3,3,4.544746e-01,4.544746e-01
8.528140e-01,7.795140e-01,3,3,7.273237e-01,7.273235e-01
8.544300e-01,7.837470e-01,3,3,1.054653e+00,1.054653e+00
8.552410e-01,7.833560e-01,3,3,1.592878e+00,1.592877e+00
8.483090e-01,7.842190e-01,3,3,3.436945e+00,3.436943e+00
8.547260e-01,7.840790e-01,3,3,4.458252e+00,4.458252e+00
8.559380e-01,7.818050e-01,3,3,3.034823e+00,3.034823e+00
8.501360e-01,7.829710e-01,3,3,3.739701e+00,3.739700e+00
8.551640e-01,7.845610e-01,3,3,2.696262e+00,2.696262e+00
8.565010e-01,7.786650e-01,3,3,2.137313e+00,2.137313e+00
8.561210e-01,7.839270e-01,3,3,2.381990e+00,2.381990e+00
8.562420e-01,7.846260e-01,3,3,1.301140e+00,1.301140e+00
8.556160e-01,7.786170e-01,3,3,9.675367e-01,9.675361e-01
8.550220e-01,7.842880e-01,3,3,7.439905e-01,7.439905e-01
8.550960e-01,7.844170e-01,3,3,7.050904e-01,7.050904e-01
8.548620e-01,7.775130e-01,3,3,6.801899e-01,6.801899e-01
8.541690e-01,7.851140e-01,3,3,1.067872e+00,1.067872e+00
8.564970e-01,7.847560e-01,3,3,3.636401e-01,3.636402e-01
8.492230e-01,7.844630e-01,3,3,1.459904e+00,1.459903e+00
8.549260e-01,7.841530e-01,3,3,3.207473e+00,3.207472e+00
8.557620e-01,7.824370e-01,3,3,1.890641e+00,1.890642e+00
8.498560e-01,7.839310e-01,3,3,1.351988e+00,1.351988e+00
8.547350e-01,7.842280e-01,3,3,1.108379e+00,1.108379e+00
8.557290e-01,7.783530e-01,3,3,9.424709e-01,9.424709e-01
8.551160e-01,7.836370e-01,3,3,8.821413e-01,8.821412e-01
8.677370e-01,7.843560e-01,3,3,1.484896e+00,1.484895e+00
8.556580e-01,7.783850e-01,3,3,1.155477e+00,1.155477e+00
8.541460e-01,7.844500e-01,3,3,8.308275e-01,8.308275e-01
8.545680e-01,7.836230e-01,3,3,9.286501e-01,9.286500e-01
8.545790e-01,7.791350e-01,3,3,1.590914e+00,1.590913e+00
8.659190e-01,7.858760e-01,3,3,2.569067e+00,2.569066e+00
8.553020e-01,7.839100e-01,3,3,4.647755e+00,4.647753e+00
8.498280e-01,7.839870e-01,3,3,5.667842e+00,5.667841e+00
8.554350e-01,7.845480e-01,3,3,5.122846e+00,5.122846e+00
8.567810e-01,7.845930e-01,3,3,5.366623e+00,5.366623e+00
8.506070e-01,7.848820e-01,3,3,4.520514e+00,4.520514e+00
8.569600e-01,7.854400e-01,3,3,4.741373e+00,4.741373e+00
8.561900e-01,7.842440e-01,3,3,4.719997e+00,4.719996e+00
8.505080e-01,7.841480e-01,3,3,3.889055e+00,3.889055e+00
8.561980e-01,7.850910e-01,3,3,3.354371e+00,3.354371e+00
8.568710e-01,7.784570e-01,3,3,2.571330e+00,2.571330e+00
8.569050e-01,7.836560e-01,3,3,2.355249e+00,2.355249e+00
8.560330e-01,7.839960e-01,3,3,2.387999e+00,2.387999e+00
8.566160e-01,7.790290e-01,3,3,3.076475e+00,3.076478e+00
8.547120e-01,7.834870e-01,3,3,5.515769e+00,5.514907e+00
1.703128e+00,1.558728e+00,6,6,5.779056e+00,5.774943e+00
1.421672e+00,1.559102e+00,5,6,6.338930e+00,6.333055e+00
1.134866e+00,1.041945e+00,4,4,5.385154e+00,5.385154e+00
8.559360e-01,7.841730e-01,3,3,5.410946e+00,5.410948e+00
8.565720e-01,7.837640e-01,3,3,6.562613e+00,6.562613e+00
8.552510e-01,7.787880e-01,3,3,6.069971e+00,6.069971e+00
8.556250e-01,7.831870e-01,3,3,5.053625e+00,5.053626e+00
8.557640e-01,7.843190e-01,3,3,4.256742e+00,4.256742e+00
8.554540e-01,7.790080e-01,3,3,3.743721e+00,3.743721e+00
8.564080e-01,7.844360e-01,3,3,3.197473e+00,3.197473e+00
8.556550e-01,7.842180e-01,3,3,2.934418e+00,2.934418e+00
8.497580e-01,7.834320e-01,3,3,3.068115e+00,3.068115e+00
8.552280e-01,7.843400e-01,3,3,1.688217e+00,1.688218e+00
8.556680e-01,7.951960e-01,3,3,1.476138e+00,1.476138e+00
8.501220e-01,7.838720e-01,3,3,1.648484e+00,1.648484e+00
8.553350e-01,7.851640e-01,3,3,1.149411e+00,1.149411e+00
8.562910e-01,7.856020e-01,3,3,9.746521e-01,9.746522e-01
8.506180e-01,7.843890e-01,3,3,7.983474e-01,7.983472e-01
8.554530e-01,7.842940e-01,3,3,5.137608e-01,5.137609e-01
8.554170e-01,7.776250e-01,3,3,3.727217e-01,3.727215e-01
8.552890e-01,7.836140e-01,3,3,2.852823e-01,2.852822e-01
8.550990e-01,7.841340e-01,3,3,3.980860e-01,3.980859e-01
8.537460e-01,7.780250e-01,3,3,5.226316e-01,5.226315e-01
8.541760e-01,7.845040e-01,3,3,3.597099e-01,3.597099e-01
8.548200e-01,7.841050e-01,3,3,3.916197e-01,3.916195e-01
8.543830e-01,7.786200e-01,3,3,1.091919e+00,1.091919e+00
8.551190e-01,7.843780e-01,3,3,2.457323e+00,2.457322e+00
8.551000e-01,7.835600e-01,3,3,3.341935e+00,3.341934e+00
8.495790e-01,7.846240e-01,3,3,2.815515e+00,2.815515e+00
8.553570e-01,7.836830e-01,3,3,3.037638e+00,3.037638e+00
8.559090e-01,7.834270e-01,3,3,2.960966e+00,2.960965e+00
8.503140e-01,7.843850e-01,3,3,2.616533e+00,2.616533e+00
8.552450e-01,7.846150e-01,3,3,2.054233e+00,2.054233e+00
8.566520e-01,7.786230e-01,3,3,2.024359e+00,2.024359e+00
8.551870e-01,7.838340e-01,3,3,3.619191e+00,3.619190e+00
8.558320e-01,7.843660e-01,3,3,4.710444e+00,4.710443e+00
8.557060e-01,7.777400e-01,3,3,5.589759e+00,5.589759e+00
8.558070e-01,7.837280e-01,3,3,4.581102e+00,4.581104e+00
8.559430e-01,7.838820e-01,3,3,3.502569e+00,3.502570e+00
8.544330e-01,7.780640e-01,3,3,2.563124e+00,2.563125e+00
8.559410e-01,7.843760e-01,3,3,2.075944e+00,2.075944e+00
8.562530e-01,7.841140e-01,3,3,2.714942e+00,2.714941e+00
8.511480e-01,7.835610e-01,3,3,2.720042e+00,2.720042e+00
8.547620e-01,7.847250e-01,3,3,2.061630e+00,2.061630e+00
8.673070e-01,7.847600e-01,3,3,2.028900e+00,2.028901e+00
8.492660e-01,7.841250e-01,3,3,2.348377e+00,2.348421e+00
8.543400e-01,7.841370e-01,3,3,2.454774e+00,2.454776e+00
8.552300e-01,7.833820e-01,3,3,3.008110e+00,3.008109e+00
8.499250e-01,7.832420e-01,3,3,2.384947e+00,2.384947e+00
8.556660e-01,7.845040e-01,3,3,3.117955e+00,3.117954e+00
8.554660e-01,7.789280e-01,3,3,3.065566e+00,3.065566e+00
8.557850e-01,7.839310e-01,3,3,2.557292e+00,2.557292e+00
8.558070e-01,7.847630e-01,3,3,2.106663e+00,2.106663e+00
8.554890e-01,7.783360e-01,3,3,2.211412e+00,2.211412e+00
8.555840e-01,7.838010e-01,3,3,2.227023e+00,2.227023e+00
8.564090e-01,7.834070e-01,3,3,1.659078e+00,1.659078e+00
8.551420e-01,7.791980e-01,3,3,1.667724e+00,1.667723e+00
8.553860e-01,7.844400e-01,3,3,1.099130e+00,1.099130e+00
8.563390e-01,7.842270e-01,3,3,9.022113e-01,9.022113e-01
8.502800e-01,7.848140e-01,3,3,5.674390e-01,5.674390e-01
8.550580e-01,7.845360e-01,3,3,3.751871e-01,3.751871e-01
8.552850e-01,7.835560e-01,3,3,2.186422e-01,2.186422e-01
8.490710e-01,7.841430e-01,3,3,4.111152e-01,4.111150e-01
8.545230e-01,7.848430e-01,3,3,2.328079e-01,2.328079e-01
8.541780e-01,7.778960e-01,3,3,2.265187e-01,2.265186e-01
8.543800e-01,7.840540e-01,3,3,1.359835e-01,1.359834e-01
8.542300e-01,7.844210e-01,3,3,1.527804e-01,1.527804e-01
8.542770e-01,7.780450e-01,3,3,1.332161e-01,1.332161e-01
8.532880e-01,7.834390e-01,3,3,3.298570e-01,3.298569e-01
8.549670e-01,7.833700e-01,3,3,2.550311e-01,2.550311e-01
8.551190e-01,7.789600e-01,3,3,2.544629e-01,2.544628e-01
8.536640e-01,7.845310e-01,3,3,5.217731e-01,5.217729e-01
8.558010e-01,7.828200e-01,3,3,2.867224e-01,2.867224e-01
8.485130e-01,7.842720e-01,3,3,4.110207e-01,4.110206e-01
8.537350e-01,7.950490e-01,3,3,4.170100e-01,4.170100e-01
8.547790e-01,7.836400e-01,3,3,7.090291e-01,7.090289e-01
8.499050e-01,7.835950e-01,3,3,5.399893e-01,5.399893e-01
8.548070e-01,7.846460e-01,3,3,3.504812e-01,3.504812e-01
8.558690e-01,7.780020e-01,3,3,2.595418e-01,2.595417e-01
8.541880e-01,7.839140e-01,3,3,3.508181e-01,3.508180e-01
8.541190e-01,7.837290e-01,3,3,3.231019e-01,3.231019e-01
8.542150e-01,7.779770e-01,3,3,2.615448e-01,2.615447e-01
8.529890e-01,7.832450e-01,3,3,4.593716e-01,4.593715e-01
8.551590e-01,7.838270e-01,3,3,3.475158e-01,3.475157e-01
8.548330e-01,7.783650e-01,3,3,5.158213e-01,5.158212e-01
8.539000e-01,7.838830e-01,3,3,9.145396e-01,9.145393e-01
8.543410e-01,7.844750e-01,3,3,8.031674e-01,8.031672e-01
8.486170e-01,7.833070e-01,3,3,7.101309e-01,7.101308e-01
8.548900e-01,7.841660e-01,3,3,1.620586e+00,1.620586e+00
8.551990e-01,7.837850e-01,3,3,1.979796e+00,1.979796e+00
8.496790e-01,7.837580e-01,3,3,1.132997e+00,1.132997e+00
8.548620e-01,7.838210e-01,3,3,8.490297e-01,8.490297e-01
8.583080e-01,7.788060e-01,3,3,6.456044e-01,6.456044e-01
8.503390e-01,7.842720e-01,3,3,4.354735e-01,4.354735e-01
8.552290e-01,7.856590e-01,3,3,3.815785e-01,3.815785e-01
8.553880e-01,7.783890e-01,3,3,5.486857e-01,5.486856e-01
8.569090e-01,7.837410e-01,3,3,5.290712e-01,5.290711e-01
8.564000e-01,7.839640e-01,3,3,2.579665e-01,2.579664e-01
8.532990e-01,7.780600e-01,3,3,6.967598e-01,6.967596e-01
8.550500e-01,7.843040e-01,3,3,3.919490e-01,3.919491e-01
8.557570e-01,7.842780e-01,3,3,3.534010e-01,3.534010e-01
8.549580e-01,7.783680e-01,3,3,4.850318e-01,4.850316e-01
8.533570e-01,7.833940e-01,3,3,3.999567e-01,3.999567e-01
8.535290e-01,7.851690e-01,3,3,4.713089e-01,4.713089e-01
8.487340e-01,7.833110e-01,3,3,5.989256e-01,5.989254e-01
8.652310e-01,7.848260e-01,3,3,4.713876e-01,4.713875e-01
8.547500e-01,7.836570e-01,3,3,4.905612e-01,4.905610e-01
8.497320e-01,7.833150e-01,3,3,6.108603e-01,6.108601e-01
8.546660e-01,7.831660e-01,3,3,7.470375e-01,7.470373e-01
8.547670e-01,7.779450e-01,3,3,1.118033e+00,1.118033e+00
8.543510e-01,7.841120e-01,3,3,7.738547e-01,7.738547e-01
8.550240e-01,7.844330e-01,3,3,7.282347e-01,7.282344e-01
8.549000e-01,7.782050e-01,3,3,7.119240e-01,7.119240e-01
8.561500e-01,7.846340e-01,3,3,7.781483e-01,7.781482e-01
8.565740e-01,7.833290e-01,3,3,6.471715e-01,6.471715e-01
8.557040e-01,7.788680e-01,3,3,1.098068e+00,1.098067e+00
8.546840e-01,7.844030e-01,3,3,8.187841e-01,8.187841e-01
8.557930e-01,7.852280e-01,3,3,7.743098e-01,7.743097e-01
8.488860e-01,7.835100e-01,3,3,7.614110e-01,7.614109e-01
8.542980e-01,7.840270e-01,3,3,6.899914e-01,6.899913e-01
8.542580e-01,7.834590e-01,3,3,4.930596e-01,4.930596e-01
8.494670e-01,7.838090e-01,3,3,6.012258e-01,6.012257e-01
8.551560e-01,7.838910e-01,3,3,6.780122e-01,6.780121e-01
8.547660e-01,7.785310e-01,3,3,4.676081e-01,4.676081e-01
8.546200e-01,7.829780e-01,3,3,8.746392e-01,8.746389e-01
8.553220e-01,7.843710e-01,3,3,6.178420e-01,6.178420e-01
8.548810e-01,7.785640e-01,3,3,5.576305e-01,5.576305e-01
8.551450e-01,7.833160e-01,3,3,5.046116e-01,5.046116e-01
8.547460e-01,7.836890e-01,3,3,3.967175e-01,3.967173e-01
8.548340e-01,7.776550e-01,3,3,2.920719e-01,2.920719e-01
8.531950e-01,7.850800e-01,3,3,5.730694e-01,5.730693e-01
8.556120e-01,7.835520e-01,3,3,4.927671e-01,4.927670e-01
8.501020e-01,7.827330e-01,3,3,4.981755e-01,4.981754e-01
8.544870e-01,7.839380e-01,3,3,4.688683e-01,4.688682e-01
8.557520e-01,7.839080e-01,3,3,3.674338e-01,3.674338e-01
8.602860e-01,7.853870e-01,3,3,4.423480e-01,4.423479e-01
8.561010e-01,7.843540e-01,3,3,3.414488e-01,3.414488e-01
8.539910e-01,7.829290e-01,3,3,1.434873e+00,1.434872e+00
8.511620e-01,7.844000e-01,3,3,3.181126e+00,3.181124e+00
8.554200e-01,7.838480e-01,3,3,2.408614e+00,2.408615e+00
8.562510e-01,7.788070e-01,3,3,1.724162e+00,1.724163e+00
8.548580e-01,7.843540e-01,3,3,1.256671e+00,1.256671e+00
8.558880e-01,7.847530e-01,3,3,1.368063e+00,1.368063e+00
8.550630e-01,7.782650e-01,3,3,1.077320e+00,1.077320e+00
8.562020e-01,7.834420e-01,3,3,1.043494e+00,1.043494e+00
8.563940e-01,7.843370e-01,3,3,1.242604e+00,1.242604e+00
8.546120e-01,7.777750e-01,3,3,1.406409e+00,1.406409e+00
8.549120e-01,7.835510e-01,3,3,1.284407e+00,1.284407e+00
8.550090e-01,7.838740e-01,3,3,1.374070e+00,1.374070e+00
8.499320e-01,7.836870e-01,3,3,1.844400e+00,1.844399e+00
8.557740e-01,7.847000e-01,3,3,1.377107e+00,1.377108e+00
8.549200e-01,7.832160e-01,3,3,9.441333e-01,9.441334e-01
8.494180e-01,7.836810e-01,3,3,5.655942e-01,5.655943e-01
8.551900e-01,7.835710e-01,3,3,3.798159e-01,3.798159e-01
8.543780e-01,7.781690e-01,3,3,2.967605e-01,2.967604e-01
8.530670e-01,7.828260e-01,3,3,4.102474e-01,4.102472e-01
8.545800e-01,7.832410e-01,3,3,2.912585e-01,2.912585e-01
8.539200e-01,7.778270e-01,3,3,4.764578e-01,4.764577e-01
8.554120e-01,7.921340e-01,3,3,5.043371e-01,5.043371e-01
8.555000e-01,7.836780e-01,3,3,4.688270e-01,4.688269e-01
8.541850e-01,7.780120e-01,3,3,6.028402e-01,6.028400e-01
8.545480e-01,7.843940e-01,3,3,3.377127e-01,3.377127e-01
8.552010e-01,7.828820e-01,3,3,2.711839e-01,2.711838e-01
8.491900e-01,7.833490e-01,3,3,1.383306e+00,1.383306e+00
8.546280e-01,7.838580e-01,3,3,1.451329e+00,1.451329e+00
8.575860e-01,7.937980e-01,3,3,7.031839e-01,7.031841e-01
8.507390e-01,7.844850e-01,3,3,6.982511e-01,6.982511e-01
8.557120e-01,7.838630e-01,3,3,6.137516e-01,6.137515e-01
8.557840e-01,7.775800e-01,3,3,6.617285e-01,6.617284e-01
8.544480e-01,7.832640e-01,3,3,3.354983e-01,3.354983e-01
8.559180e-01,7.839610e-01,3,3,2.759661e-01,2.759661e-01
8.554800e-01,7.780310e-01,3,3,5.279966e-01,5.279965e-01
8.544710e-01,7.855200e-01,3,3,6.667663e-01,6.667662e-01
8.563380e-01,7.842010e-01,3,3,8.292178e-01,8.292177e-01
8.550680e-01,7.781690e-01,3,3,5.374542e-01,5.374542e-01
8.550600e-01,7.842450e-01,3,3,5.127800e-01,5.127799e-01
8.552310e-01,7.834240e-01,3,3,7.688165e-01,7.688162e-01
8.553330e-01,7.790320e-01,3,3,1.152271e+00,1.152271e+00
8.552030e-01,7.842490e-01,3,3,1.284036e+00,1.284036e+00
8.559260e-01,7.883630e-01,3,3,1.793355e+00,1.793354e+00
8.500690e-01,7.834950e-01,3,3,1.700294e+00,1.700293e+00
8.553850e-01,7.841890e-01,3,3,2.642651e+00,2.642665e+00
8.556920e-01,7.821300e-01,3,3,1.107416e+00,1.107417e+00
8.502090e-01,7.831140e-01,3,3,9.386903e-01,9.386903e-01
8.555500e-01,7.841740e-01,3,3,1.466584e+00,1.466583e+00
8.561340e-01,7.775160e-01,3,3,7.286371e-01,7.286373e-01
8.549300e-01,7.832840e-01,3,3,6.052259e-01,6.052259e-01
8.559280e-01,7.833490e-01,3,3,4.965911e-01,4.965910e-01
8.554300e-01,7.782930e-01,3,3,3.360130e-01,3.360130e-01
8.621920e-01,7.829680e-01,3,3,6.849909e-01,6.849906e-01
8.553190e-01,7.835150e-01,3,3,5.121156e-01,5.121155e-01
8.548390e-01,7.788800e-01,3,3,2.922550e-01,2.922550e-01
8.544000e-01,7.842960e-01,3,3,6.679345e-01,6.679343e-01
8.553860e-01,7.847500e-01,3,3,4.674127e-01,4.674127e-01
8.502030e-01,7.841230e-01,3,3,2.461262e-01,2.461262e-01
8.536110e-01,7.844200e-01,3,3,2.703545e-01,2.703545e-01
8.643400e-01,7.842170e-01,3,3,3.371024e-01,3.371023e-01
8.494370e-01,7.848150e-01,3,3,5.136953e-01,5.136952e-01
8.547250e-01,7.847940e-01,3,3,1.077991e+00,1.077990e+00
8.550990e-01,7.781140e-01,3,3,7.645050e-01,7.645045e-01
8.551880e-01,7.836380e-01,3,3,1.387647e+00,1.387647e+00
8.562070e-01,7.835150e-01,3,3,6.073496e-01,6.073499e-01
8.545650e-01,7.777710e-01,3,3,4.838976e-01,4.838976e-01
8.552140e-01,7.843110e-01,3,3,3.213725e-01,3.213726e-01
8.553190e-01,7.837860e-01,3,3,2.984320e-01,2.984320e-01
8.549400e-01,7.777720e-01,3,3,8.386706e-01,8.386702e-01
8.546930e-01,7.834100e-01,3,3,8.449806e-01,8.449804e-01
8.549360e-01,7.839960e-01,3,3,1.302749e+00,1.302749e+00
8.493380e-01,7.826930e-01,3,3,1.342942e+00,1.342942e+00
8.541670e-01,7.839350e-01,3,3,1.544383e+00,1.544383e+00
8.544720e-01,7.845330e-01,3,3,2.525370e+00,2.525369e+00
8.492410e-01,7.877870e-01,3,3,2.830332e+00,2.830331e+00
8.559200e-01,7.853690e-01,3,3,2.115056e+00,2.115056e+00
8.563890e-01,7.827780e-01,3,3,1.898372e+00,1.898372e+00
8.497780e-01,7.837400e-01,3,3,2.653305e+00,2.653304e+00
8.567600e-01,7.847950e-01,3,3,1.802900e+00,1.802900e+00
8.561180e-01,7.782500e-01,3,3,1.494907e+00,1.494907e+00
8.548980e-01,7.839490e-01,3,3,1.498995e+00,1.498995e+00
8.572480e-01,7.842420e-01,3,3,1.609108e+00,1.609108e+00
8.561020e-01,7.784340e-01,3,3,1.756702e+00,1.756701e+00
8.557440e-01,7.839390e-01,3,3,1.294859e+00,1.294859e+00
8.560970e-01,7.840490e-01,3,3,1.255283e+00,1.255283e+00
8.554610e-01,7.789890e-01,3,3,1.626537e+00,1.626537e+00
8.551460e-01,7.850760e-01,3,3,1.798403e+00,1.798403e+00
8.549310e-01,7.849050e-01,3,3,1.146720e+00,1.146720e+00
8.507870e-01,7.836350e-01,3,3,1.106796e+00,1.106796e+00
8.557820e-01,7.940290e-01,3,3,6.536678e-01,6.536681e-01
8.561000e-01,7.834970e-01,3,3,6.339582e-01,6.339582e-01

