5.634410e-01,2.448930e+02,2.446361e+02,2,1000,0.000000e+00,-1.843144e-18,0
7.867830e-01,8.641439e+00,8.630037e+00,3,43,1.477751e-01,1.477754e-01,1
7.822030e-01,2.151280e-01,2.071857e-01,3,0,2.697547e-01,2.697553e-01,1
7.817530e-01,2.147220e-01,2.071857e-01,3,0,5.751734e-01,5.751744e-01,1
7.769190e-01,2.141030e-01,2.059937e-01,3,0,5.282505e-01,5.282509e-01,1
7.764570e-01,2.185970e-01,2.110004e-01,3,0,2.459757e+00,2.459761e+00,1
7.763770e-01,2.191520e-01,2.110004e-01,3,0,3.443760e+00,3.443762e+00,1
7.771070e-01,2.202670e-01,2.110004e-01,3,0,4.529692e+00,4.529694e+00,1
7.774490e-01,2.189420e-01,2.110004e-01,3,0,2.216738e+00,2.216737e+00,1
7.770110e-01,2.193120e-01,2.100468e-01,3,0,1.963306e+00,1.963307e+00,1
7.773320e-01,2.190230e-01,2.119541e-01,3,0,1.634474e+00,1.634475e+00,1
7.766310e-01,2.194360e-01,2.119541e-01,3,0,1.888457e+00,1.888459e+00,1
7.924810e-01,2.198330e-01,2.121925e-01,3,0,3.113620e+00,3.113623e+00,1
7.824250e-01,2.210320e-01,2.131462e-01,3,0,4.240895e+00,4.240898e+00,1
7.832220e-01,4.068550e-01,3.991127e-01,3,1,3.884715e+00,3.887958e+00,1
7.881410e-01,4.302990e-01,4.229546e-01,3,1,5.420458e+00,5.428553e+00,1
7.834110e-01,4.112310e-01,4.031658e-01,3,1,4.235205e+00,4.235399e+00,1
7.773800e-01,3.777800e-01,3.690720e-01,3,1,3.702471e+00,3.702472e+00,1
7.904260e-01,6.049970e-01,5.970001e-01,3,2,3.546971e+00,3.557237e+00,1
7.840990e-01,2.536360e-01,2.460480e-01,3,0,3.362838e+00,3.374992e+00,1
7.831320e-01,5.973300e-01,5.900860e-01,3,2,3.502663e+00,3.524048e+00,1
7.840980e-01,4.153830e-01,4.079342e-01,3,1,2.920580e+00,2.921994e+00,1
7.857810e-01,2.583470e-01,2.479553e-01,3,0,2.647642e+00,2.654071e+00,1
7.841100e-01,5.964370e-01,5.888939e-01,3,2,2.317108e+00,2.433269e+00,1
7.834900e-01,4.695130e-01,4.611015e-01,3,1,2.280358e+00,2.322225e+00,1
7.771870e-01,2.579680e-01,2.489090e-01,3,0,2.200572e+00,2.200711e+00,1
7.830420e-01,3.757270e-01,3.669262e-01,3,1,1.829212e+00,1.829152e+00,1
7.825090e-01,2.137310e-01,2.059937e-01,3,0,1.319248e+00,1.318786e+00,1
7.821860e-01,2.134850e-01,2.048016e-01,3,0,6.534984e-01,6.535009e-01,1
7.824290e-01,2.128870e-01,2.048016e-01,3,0,5.567998e-01,5.568000e-01,1
7.837890e-01,2.137190e-01,2.059937e-01,3,0,1.120268e+00,1.120270e+00,1
7.827080e-01,2.150080e-01,2.079010e-01,3,0,1.325162e+00,1.325163e+00,1
7.826730e-01,2.140250e-01,2.059937e-01,3,0,1.150528e+00,1.150528e+00,1
7.834870e-01,2.150530e-01,2.059937e-01,3,0,1.774555e+00,1.774557e+00,1
7.826540e-01,2.144430e-01,2.057552e-01,3,0,1.456476e+00,1.456476e+00,1
7.826240e-01,2.133480e-01,2.050400e-01,3,0,1.080970e+00,1.080970e+00,1
7.819710e-01,2.140210e-01,2.071857e-01,3,0,7.962757e-01,7.962763e-01,1
7.822250e-01,2.139790e-01,2.059937e-01,3,0,6.548356e-01,6.548361e-01,1
7.822950e-01,4.127970e-01,4.038811e-01,3,1,1.660106e+00,1.660411e+00,1
7.823990e-01,3.699600e-01,3.619194e-01,3,1,1.837470e+00,1.837471e+00,1
7.833320e-01,7.728530e-01,7.648468e-01,3,3,4.150749e+00,4.239557e+00,1
7.774620e-01,7.457870e-01,7.369518e-01,3,3,5.688163e+00,5.694845e+00,1
7.861250e-01,5.330110e-01,5.247593e-01,3,2,3.619173e+00,3.619169e+00,1
7.833130e-01,4.141040e-01,4.050732e-01,3,1,5.472907e+00,5.473067e+00,1
7.827020e-01,3.719110e-01,3.638268e-01,3,1,4.375941e+00,4.375941e+00,1
7.840850e-01,2.133090e-01,2.050400e-01,3,0,3.528658e+00,3.528658e+00,1
7.822450e-01,2.141400e-01,2.059937e-01,3,0,3.170248e+00,3.170249e+00,1
8.028500e-01,2.138340e-01,2.048016e-01,3,0,2.643302e+00,2.643303e+00,1
8.123090e-01,2.090280e-01,2.009869e-01,3,0,2.127032e+00,2.127032e+00,1
8.108510e-01,2.082920e-01,1.990795e-01,3,0,1.353564e+00,1.353564e+00,1
8.014840e-01,2.074790e-01,1.990795e-01,3,0,1.201780e+00,1.201781e+00,1
7.991510e-01,4.271670e-01,4.200935e-01,3,1,1.935873e+00,1.938873e+00,1
8.052720e-01,3.733560e-01,3.650188e-01,3,1,1.424564e+00,1.424564e+00,1
7.852060e-01,4.130070e-01,4.050732e-01,3,1,1.217132e+00,1.217591e+00,1
7.854700e-01,9.751480e-01,9.679794e-01,3,4,1.612301e+00,1.637165e+00,1
7.830080e-01,4.097740e-01,4.022121e-01,3,1,2.205653e+00,2.234093e+00,1
1.038997e+00,3.696600e-01,3.621578e-01,4,1,1.214929e+00,1.214929e+00,1
7.764120e-01,2.198760e-01,2.121925e-01,3,0,1.850409e+00,1.850411e+00,1
7.761260e-01,2.193020e-01,2.110004e-01,3,0,2.592462e+00,2.592461e+00,1
7.840670e-01,4.106200e-01,4.029274e-01,3,1,3.880669e+00,3.882258e+00,1
7.831680e-01,3.703170e-01,3.631115e-01,3,1,1.751065e+00,1.751069e+00,1
7.821240e-01,4.131130e-01,4.038811e-01,3,1,3.743403e+00,3.798252e+00,1
7.841420e-01,2.006687e+00,1.996040e+00,3,7,7.061598e+00,7.328098e+00,0
7.840320e-01,1.312092e+00,1.304150e+00,3,7,3.868531e+00,3.868520e+00,1
7.848620e-01,1.063457e+00,1.052141e+00,3,2,5.336208e+00,5.750018e+00,0
1.040446e+00,8.719240e-01,8.640289e-01,4,4,2.285561e+00,2.285560e+00,1
7.822240e-01,2.143710e-01,2.059937e-01,3,0,2.476828e+00,2.476827e+00,1
7.824230e-01,2.142990e-01,2.050400e-01,3,0,1.966015e+00,1.966016e+00,1
7.824840e-01,2.130160e-01,2.038479e-01,3,0,1.518141e+00,1.518141e+00,1
7.824730e-01,2.145340e-01,2.071857e-01,3,0,1.185555e+00,1.185556e+00,1
7.827810e-01,2.139920e-01,2.069473e-01,3,0,1.750564e+00,1.750565e+00,1
7.838490e-01,2.137720e-01,2.069473e-01,3,0,1.779765e+00,1.779766e+00,1
7.827850e-01,2.135950e-01,2.059937e-01,3,0,1.799250e+00,1.799251e+00,1
7.831140e-01,4.115400e-01,4.029274e-01,3,1,2.027236e+00,2.028424e+00,1
7.838260e-01,6.187860e-01,6.110668e-01,3,2,2.953748e+00,2.982704e+00,1
7.834430e-01,4.296650e-01,4.210472e-01,3,1,3.972893e+00,4.030506e+00,1
7.820290e-01,9.125760e-01,9.050369e-01,3,4,2.419968e+00,2.463277e+00,1
7.834830e-01,6.237690e-01,6.158352e-01,3,2,2.421935e+00,2.437840e+00,1
7.814770e-01,2.529420e-01,2.448559e-01,3,0,1.788399e+00,1.804446e+00,1
7.772860e-01,3.745230e-01,3.619194e-01,3,1,8.657456e-01,8.657455e-01,1
7.759620e-01,2.196190e-01,2.119541e-01,3,0,2.874666e+00,2.874671e+00,1
7.765970e-01,2.192070e-01,2.119541e-01,3,0,2.140292e+00,2.140292e+00,1
7.769770e-01,2.189300e-01,2.119541e-01,3,0,1.924900e+00,1.924901e+00,1
7.822280e-01,4.194730e-01,4.119873e-01,3,1,1.857077e+00,1.884809e+00,1
7.840830e-01,3.697750e-01,3.609657e-01,3,1,2.627106e+00,2.627111e+00,1
7.848440e-01,4.052010e-01,3.969669e-01,3,1,4.756818e+00,4.760565e+00,1
7.781950e-01,6.265100e-01,6.182194e-01,3,2,7.169829e+00,7.245884e+00,1
7.833390e-01,2.291329e+00,2.279758e+00,3,9,1.051339e+01,1.376895e+01,0
7.836010e-01,1.730565e+00,1.722097e+00,3,9,8.572963e+00,8.894003e+00,1
7.829790e-01,1.065819e+00,1.058102e+00,3,5,6.102340e+00,6.115956e+00,1
7.776390e-01,5.266290e-01,5.190372e-01,3,2,4.694680e+00,4.694680e+00,1
7.771220e-01,2.197910e-01,2.107620e-01,3,0,3.311402e+00,3.311402e+00,1
7.833980e-01,6.016000e-01,5.929470e-01,3,2,4.676176e+00,4.680937e+00,1
7.845970e-01,5.958550e-01,5.872250e-01,3,2,3.504615e+00,3.516836e+00,1
7.826890e-01,7.913040e-01,7.841587e-01,3,3,4.557084e+00,4.644140e+00,1
1.041879e+00,2.086571e+00,2.079010e+00,4,11,5.036996e+00,5.142376e+00,1
1.043018e+00,1.720734e+00,1.713037e+00,4,9,2.185318e+00,2.256323e+00,1
7.826790e-01,3.704480e-01,3.631115e-01,3,1,1.915967e+00,1.915968e+00,1
7.832190e-01,2.140060e-01,2.059937e-01,3,0,2.722432e+00,2.722435e+00,1
7.823190e-01,4.113180e-01,4.038811e-01,3,1,2.949001e+00,2.954722e+00,1
7.778270e-01,3.714120e-01,3.640652e-01,3,1,2.228318e+00,2.228318e+00,1
7.761570e-01,2.194570e-01,2.110004e-01,3,0,2.545234e+00,2.545236e+00,1
7.763230e-01,2.184960e-01,2.110004e-01,3,0,1.502043e+00,1.502044e+00,1
7.777330e-01,2.194100e-01,2.110004e-01,3,0,1.371448e+00,1.371448e+00,1
7.759310e-01,2.197310e-01,2.119541e-01,3,0,1.136427e+00,1.136427e+00,1
7.763800e-01,2.199270e-01,2.121925e-01,3,0,1.174077e+00,1.174078e+00,1
7.826260e-01,4.182210e-01,4.110336e-01,3,1,1.642144e+00,1.642347e+00,1
7.828100e-01,5.692500e-01,5.609989e-01,3,2,1.794969e+00,1.799210e+00,1
7.769810e-01,4.670580e-01,4.599094e-01,3,1,1.165205e+00,1.168311e+00,1
7.831920e-01,8.134670e-01,8.046627e-01,3,3,1.172119e+00,1.225554e+00,1
7.832160e-01,2.536390e-01,2.470016e-01,3,0,1.083212e+00,1.105672e+00,1
7.828120e-01,2.523970e-01,2.450943e-01,3,0,8.886640e-01,8.886668e-01,1
7.828700e-01,3.702880e-01,3.631115e-01,3,1,6.353263e-01,6.353264e-01,1
7.820490e-01,2.136160e-01,2.059937e-01,3,0,1.101719e+00,1.101720e+00,1
7.815810e-01,2.139400e-01,2.059937e-01,3,0,5.897289e-01,5.897290e-01,1
7.759910e-01,2.138110e-01,2.048016e-01,3,0,6.727555e-01,6.727560e-01,1
7.764800e-01,2.193530e-01,2.112389e-01,3,0,1.712291e+00,1.712294e+00,1
7.775650e-01,2.195850e-01,2.129078e-01,3,0,1.244475e+00,1.244475e+00,1
7.819420e-01,4.179840e-01,4.110336e-01,3,1,3.965856e+00,3.971743e+00,1
7.834030e-01,5.696400e-01,5.631447e-01,3,2,2.759459e+00,2.801875e+00,1
7.815670e-01,2.535620e-01,2.460480e-01,3,0,2.685961e+00,2.877987e+00,1
7.777690e-01,4.673420e-01,4.601479e-01,3,1,3.361085e+00,3.472358e+00,1
7.764420e-01,3.758410e-01,3.671646e-01,3,1,3.043491e+00,3.043491e+00,1
7.771810e-01,2.192890e-01,2.119541e-01,3,0,3.359707e+00,3.359709e+00,1
7.773570e-01,1.070522e+00,1.060247e+00,3,2,5.926757e+00,6.852260e+00,0
7.830020e-01,9.148170e-01,9.069443e-01,3,4,3.879667e+00,3.879931e+00,1
7.769360e-01,4.146730e-01,4.060268e-01,3,1,2.958350e+00,2.958369e+00,1
7.824380e-01,5.736320e-01,5.669594e-01,3,2,2.584689e+00,2.590235e+00,1
1.039770e+00,3.702170e-01,3.628731e-01,4,1,1.524175e+00,1.524177e+00,1
7.821290e-01,2.144020e-01,2.050400e-01,3,0,1.693966e+00,1.693958e+00,1
7.829130e-01,2.137310e-01,2.069473e-01,3,0,1.059656e+00,1.059657e+00,1
7.820380e-01,2.137070e-01,2.050400e-01,3,0,1.377541e+00,1.377543e+00,1
7.810140e-01,2.126680e-01,2.050400e-01,3,0,6.229854e-01,6.229856e-01,1
7.823040e-01,2.131950e-01,2.059937e-01,3,0,5.073364e-01,5.073367e-01,1
7.818540e-01,2.133200e-01,2.059937e-01,3,0,5.285171e-01,5.285175e-01,1
7.763440e-01,4.198600e-01,4.119873e-01,3,1,1.134791e+00,1.144313e+00,1
7.824320e-01,5.898860e-01,5.810261e-01,3,2,1.174135e+00,1.174136e+00,1
7.818040e-01,2.137570e-01,2.069473e-01,3,0,9.917023e-01,9.917025e-01,1
7.826710e-01,2.140810e-01,2.069473e-01,3,0,1.082230e+00,1.082231e+00,1
7.827610e-01,2.134940e-01,2.059937e-01,3,0,9.188136e-01,9.188141e-01,1
7.824150e-01,2.137720e-01,2.059937e-01,3,0,1.703315e+00,1.703317e+00,1
7.840080e-01,4.123890e-01,4.041195e-01,3,1,2.887266e+00,2.888965e+00,1
7.826700e-01,6.094740e-01,6.010532e-01,3,2,3.270435e+00,3.317183e+00,1
1.045219e+00,6.238110e-01,6.151199e-01,4,2,2.575823e+00,2.650428e+00,1
7.830780e-01,4.446700e-01,4.370213e-01,3,1,2.284671e+00,2.377443e+00,1
7.837660e-01,6.226590e-01,6.148815e-01,3,2,2.114043e+00,2.262669e+00,1
7.823490e-01,4.094610e-01,4.019737e-01,3,1,1.525459e+00,1.651589e+00,1
7.765320e-01,2.525550e-01,2.448559e-01,3,0,1.312818e+00,1.323701e+00,1
7.765240e-01,3.768490e-01,3.681183e-01,3,1,2.265458e+00,2.265462e+00,1
7.760350e-01,2.200000e-01,2.131462e-01,3,0,3.244754e+00,3.244757e+00,1
7.819680e-01,2.188430e-01,2.050400e-01,3,0,1.985182e+00,1.985181e+00,1
7.816100e-01,2.138110e-01,2.059937e-01,3,0,1.886946e+00,1.886947e+00,1
7.825890e-01,2.134990e-01,2.050400e-01,3,0,1.696303e+00,1.696304e+00,1
7.823870e-01,2.136570e-01,2.059937e-01,3,0,1.557803e+00,1.557803e+00,1
7.827510e-01,2.137500e-01,2.059937e-01,3,0,1.282779e+00,1.282780e+00,1
7.824650e-01,4.149520e-01,4.060268e-01,3,1,1.440062e+00,1.440373e+00,1
7.826590e-01,3.692500e-01,3.600121e-01,3,1,2.354947e+00,2.354950e+00,1
7.828860e-01,2.135550e-01,2.059937e-01,3,0,2.261473e+00,2.261473e+00,1
7.816370e-01,2.139190e-01,2.071857e-01,3,0,2.397506e+00,2.397507e+00,1
7.830590e-01,2.139060e-01,2.059937e-01,3,0,2.726403e+00,2.726406e+00,1
7.817510e-01,2.130210e-01,2.050400e-01,3,0,1.245363e+00,1.245363e+00,1
7.822080e-01,2.135770e-01,2.050400e-01,3,0,9.887013e-01,9.887019e-01,1
7.816930e-01,2.136920e-01,2.069473e-01,3,0,1.044758e+00,1.044759e+00,1
7.819040e-01,2.128630e-01,2.050400e-01,3,0,4.640929e-01,4.640938e-01,1
7.818480e-01,2.135750e-01,2.059937e-01,3,0,4.688404e-01,4.688407e-01,1
7.819190e-01,2.138740e-01,2.059937e-01,3,0,8.076118e-01,8.076128e-01,1
7.833020e-01,2.199880e-01,2.119541e-01,3,0,6.890079e-01,6.890080e-01,1
7.822370e-01,2.150420e-01,2.079010e-01,3,0,1.878360e+00,1.878364e+00,1
7.760670e-01,2.144040e-01,2.059937e-01,3,0,1.407735e+00,1.407737e+00,1
7.773830e-01,2.182640e-01,2.100468e-01,3,0,9.991587e-01,9.991590e-01,1
7.823710e-01,4.191080e-01,4.119873e-01,3,1,8.932517e-01,8.941772e-01,1
7.823580e-01,3.705380e-01,3.628731e-01,3,1,9.106466e-01,9.106471e-01,1
7.819630e-01,2.136680e-01,2.059937e-01,3,0,9.353766e-01,9.353773e-01,1
7.823720e-01,2.131960e-01,2.050400e-01,3,0,5.963682e-01,5.963684e-01,1
7.811930e-01,2.135030e-01,2.050400e-01,3,0,6.619421e-01,6.619430e-01,1
7.826840e-01,2.137710e-01,2.050400e-01,3,0,5.469526e-01,5.469532e-01,1
7.829770e-01,2.133700e-01,2.052784e-01,3,0,4.720932e-01,4.720936e-01,1
7.815870e-01,2.138440e-01,2.059937e-01,3,0,1.262910e+00,1.262913e+00,1
7.808680e-01,2.136660e-01,2.069473e-01,3,0,8.033939e-01,8.033948e-01,1
7.820520e-01,4.143560e-01,4.060268e-01,3,1,1.262700e+00,1.263467e+00,1
7.769510e-01,4.441760e-01,4.360676e-01,3,1,2.039534e+00,2.050020e+00,1
7.831250e-01,4.726120e-01,4.649162e-01,3,1,1.740741e+00,1.780507e+00,1
7.830400e-01,4.658730e-01,4.570484e-01,3,1,1.973091e+00,1.989840e+00,1
7.764300e-01,5.989960e-01,5.910397e-01,3,2,1.397186e+00,1.441107e+00,1
7.822140e-01,4.147000e-01,4.069805e-01,3,1,1.389499e+00,1.410118e+00,1
7.829330e-01,4.679550e-01,4.608631e-01,3,1,1.588936e+00,1.621988e+00,1
7.828980e-01,2.528450e-01,2.450943e-01,3,0,3.464564e+00,3.476235e+00,1
7.818480e-01,3.706010e-01,3.638268e-01,3,1,4.592461e+00,4.592464e+00,1
7.824590e-01,2.144460e-01,2.069473e-01,3,0,4.075414e+00,4.075414e+00,1
7.818090e-01,2.133790e-01,2.059937e-01,3,0,3.306959e+00,3.306960e+00,1
7.828560e-01,2.139360e-01,2.059937e-01,3,0,3.037190e+00,3.037191e+00,1
7.821830e-01,2.142020e-01,2.059937e-01,3,0,2.082030e+00,2.082030e+00,1
7.827880e-01,2.139600e-01,2.050400e-01,3,0,2.064062e+00,2.064063e+00,1
7.831210e-01,5.836690e-01,5.760193e-01,3,2,2.031354e+00,2.031201e+00,1
1.041411e+00,5.261040e-01,5.178452e-01,4,2,1.582963e+00,1.582963e+00,1
7.832450e-01,6.337670e-01,6.258488e-01,3,2,1.397065e+00,1.404070e+00,1
7.839480e-01,8.076270e-01,7.991791e-01,3,3,2.794303e+00,2.939548e+00,1
1.298568e+00,8.028290e-01,7.951260e-01,5,3,5.814700e+00,5.853380e+00,1
1.557531e+00,8.889820e-01,8.809566e-01,6,4,6.067264e+00,6.046262e+00,1
1.299213e+00,4.111410e-01,4.029274e-01,5,1,6.359437e+00,6.358846e+00,1
1.040374e+00,4.163990e-01,4.081726e-01,4,1,7.386813e+00,7.395420e+00,1
1.298821e+00,9.598250e-01,9.520054e-01,5,4,1.049895e+01,1.058962e+01,1
7.840330e-01,8.426140e-01,8.349419e-01,3,4,6.789607e+00,6.789584e+00,1
7.843920e-01,4.150460e-01,4.057884e-01,3,1,8.302639e+00,8.305092e+00,1
7.776780e-01,3.771570e-01,3.681183e-01,3,1,6.378506e+00,6.378505e+00,1
7.771090e-01,2.193950e-01,2.107620e-01,3,0,5.885419e+00,5.885400e+00,1
7.842350e-01,4.165470e-01,4.079342e-01,3,1,4.120540e+00,4.123720e+00,1
7.838030e-01,1.240626e+00,1.228809e+00,3,3,5.102275e+00,5.337154e+00,0
7.858040e-01,4.106820e-01,4.019737e-01,3,1,3.483355e+00,3.504124e+00,1
7.829420e-01,1.452920e+00,1.445055e+00,3,7,4.505625e+00,4.629853e+00,1
1.042701e+00,1.676587e+00,1.667738e+00,4,9,1.476639e+00,1.476892e+00,1
7.819240e-01,2.542430e-01,2.446175e-01,3,0,1.749115e+00,1.788277e+00,1
7.825720e-01,3.712040e-01,3.640652e-01,3,1,3.253409e+00,3.253414e+00,1
7.818200e-01,2.146530e-01,2.069473e-01,3,0,2.445909e+00,2.445909e+00,1
7.773570e-01,4.262450e-01,4.181862e-01,3,1,3.937491e+00,3.959709e+00,1
7.829830e-01,2.604810e-01,2.529621e-01,3,0,3.508867e+00,3.508906e+00,1
7.778170e-01,1.060923e+00,1.049995e+00,3,2,6.102961e+00,6.200395e+00,0
1.039880e+00,6.656880e-01,6.580353e-01,4,3,3.111345e+00,3.111343e+00,1
7.820960e-01,2.144110e-01,2.059937e-01,3,0,2.559139e+00,2.559139e+00,1
7.824720e-01,2.142800e-01,2.069473e-01,3,0,2.030544e+00,2.030545e+00,1
7.852880e-01,2.141300e-01,2.059937e-01,3,0,2.029548e+00,2.029549e+00,1
7.829540e-01,2.149950e-01,2.059937e-01,3,0,2.181584e+00,2.181585e+00,1
7.764530e-01,4.211050e-01,4.131794e-01,3,1,3.319721e+00,3.321892e+00,1
7.983590e-01,3.770460e-01,3.700256e-01,3,1,1.511241e+00,1.511238e+00,1
7.836120e-01,2.154610e-01,2.071857e-01,3,0,1.011055e+00,1.011055e+00,1
7.823230e-01,2.144180e-01,2.050400e-01,3,0,1.167476e+00,1.167477e+00,1
7.830180e-01,2.144160e-01,2.059937e-01,3,0,1.131952e+00,1.131953e+00,1
7.817510e-01,2.141370e-01,2.069473e-01,3,0,8.765723e-01,8.765724e-01,1
7.831680e-01,2.137420e-01,2.059937e-01,3,0,1.412698e+00,1.412701e+00,1
7.824790e-01,2.138770e-01,2.059937e-01,3,0,2.056964e+00,2.056966e+00,1
7.821630e-01,2.146620e-01,2.071857e-01,3,0,3.116109e+00,3.116112e+00,1
7.827230e-01,5.928300e-01,5.850792e-01,3,2,6.740493e+00,6.745076e+00,1
7.833770e-01,9.892290e-01,9.808540e-01,3,4,8.750713e+00,8.803520e+00,1
7.776480e-01,1.569339e+00,1.559973e+00,3,8,5.960113e+00,5.968440e+00,1
7.766430e-01,2.596730e-01,2.510548e-01,3,0,7.358279e+00,7.385679e+00,1
7.833280e-01,6.005740e-01,5.929470e-01,3,2,5.301867e+00,5.308961e+00,1
7.843840e-01,4.115240e-01,4.038811e-01,3,1,4.201623e+00,4.203380e+00,1
7.778610e-01,6.032210e-01,5.939007e-01,3,2,4.668147e+00,4.696684e+00,1
7.829310e-01,3.766460e-01,3.628731e-01,3,1,2.559425e+00,2.559422e+00,1
7.826240e-01,2.141090e-01,2.059937e-01,3,0,1.912133e+00,1.912137e+00,1
7.821080e-01,2.141620e-01,2.069473e-01,3,0,1.470410e+00,1.470411e+00,1
7.835200e-01,2.138250e-01,2.059937e-01,3,0,1.392732e+00,1.392733e+00,1
7.813210e-01,2.143200e-01,2.069473e-01,3,0,1.343528e+00,1.343529e+00,1
7.841560e-01,2.143110e-01,2.059937e-01,3,0,2.104442e+00,2.104444e+00,1
7.838120e-01,2.145210e-01,2.071857e-01,3,0,7.177930e-01,7.177924e-01,1
7.825050e-01,2.145000e-01,2.069473e-01,3,0,2.874755e+00,2.874762e+00,1
7.764690e-01,7.897690e-01,7.829666e-01,3,3,6.304743e+00,6.404735e+00,1
7.838570e-01,6.880560e-01,6.790161e-01,3,3,3.721556e+00,3.721512e+00,1
7.833430e-01,2.155180e-01,2.081394e-01,3,0,2.658603e+00,2.658603e+00,1
7.829340e-01,2.182660e-01,2.100468e-01,3,0,2.180672e+00,2.180673e+00,1
7.820670e-01,2.143280e-01,2.069473e-01,3,0,1.855125e+00,1.855126e+00,1
7.818490e-01,2.150840e-01,2.081394e-01,3,0,1.736404e+00,1.736405e+00,1
7.822450e-01,2.138110e-01,2.057552e-01,3,0,2.910387e+00,2.910391e+00,1
7.769320e-01,4.113530e-01,4.029274e-01,3,1,2.265315e+00,2.265337e+00,1
7.759990e-01,2.581420e-01,2.491474e-01,3,0,1.629329e+00,1.629336e+00,1
7.815720e-01,3.761230e-01,3.681183e-01,3,1,1.821676e+00,1.821677e+00,1
7.827100e-01,5.971690e-01,5.900860e-01,3,2,3.123181e+00,3.154689e+00,1
7.831050e-01,2.538630e-01,2.460480e-01,3,0,5.047766e+00,5.104388e+00,1
7.829100e-01,1.315542e+00,1.307964e+00,3,6,9.141304e+00,9.303219e+00,1
1.041165e+00,1.614387e+00,1.605988e+00,4,8,1.117011e+01,1.160567e+01,1
7.802100e-01,1.757975e+00,1.743793e+00,3,6,1.009095e+01,1.105260e+01,0
7.859890e-01,2.431335e+00,2.420425e+00,3,10,1.058302e+01,1.129736e+01,0
7.859710e-01,1.749443e+00,1.741171e+00,3,9,8.923972e+00,8.999852e+00,1
7.836510e-01,9.055110e-01,8.981228e-01,3,4,9.367430e+00,9.444522e+00,1
7.838200e-01,2.545200e-01,2.460480e-01,3,0,9.324215e+00,9.379099e+00,1
7.823540e-01,1.284543e+00,1.276016e+00,3,6,7.680179e+00,7.708571e+00,1
7.833250e-01,7.609260e-01,7.519722e-01,3,3,6.624371e+00,6.672389e+00,1
7.831470e-01,5.974950e-01,5.900860e-01,3,2,5.080024e+00,5.080126e+00,1
7.782640e-01,6.008730e-01,5.931854e-01,3,2,4.652110e+00,4.659974e+00,1
7.774410e-01,1.150117e+00,1.142025e+00,3,5,4.714276e+00,4.748794e+00,1
1.559652e+00,1.971840e+00,1.963854e+00,6,10,6.101089e+00,6.448312e+00,1
1.557720e+00,1.055853e+00,1.046181e+00,6,2,1.135291e+01,1.823608e+01,0
1.558845e+00,7.010240e-01,6.909370e-01,6,0,1.286436e+01,1.868269e+01,0
1.552463e+00,7.052490e-01,6.942749e-01,6,0,1.464135e+01,1.634294e+01,0
1.297753e+00,7.064700e-01,6.937981e-01,5,0,1.295802e+01,1.036279e+01,0
1.041620e+00,7.147830e-01,7.023811e-01,4,0,1.319905e+01,1.017760e+01,0
1.296434e+00,7.072350e-01,6.961823e-01,5,0,1.619020e+01,1.556068e+01,0
1.043693e+00,4.759916e+00,4.748106e+00,4,24,1.507478e+01,1.794082e+01,0
1.040576e+00,1.536163e+00,1.525164e+00,4,5,1.252192e+01,1.474802e+01,0
7.880090e-01,2.740970e+00,2.728224e+00,3,12,1.068193e+01,1.109767e+01,0
7.862100e-01,1.750096e+00,1.741171e+00,3,9,9.375000e+00,9.425519e+00,1
7.833970e-01,1.218984e+00,1.206875e+00,3,3,7.960185e+00,8.355074e+00,0
7.846410e-01,7.118530e-01,7.023811e-01,3,0,7.132835e+00,8.591097e+00,0
7.857880e-01,1.885129e+00,1.874208e+00,3,7,7.279126e+00,1.166721e+01,0
1.041298e+00,7.482400e-01,7.379055e-01,4,1,4.157511e+00,4.165330e+00,0
7.832190e-01,2.146320e-01,2.071857e-01,3,0,3.598931e+00,3.598909e+00,1
7.819380e-01,5.856410e-01,5.731583e-01,3,0,3.904977e+00,6.038164e+00,0
1.295599e+00,4.164500e-01,4.079342e-01,5,1,2.784785e+00,2.786234e+00,1
7.828540e-01,9.236090e-01,9.150505e-01,3,4,2.346019e+00,2.352452e+00,1
1.039539e+00,6.847930e-01,6.761551e-01,4,3,1.932852e+00,1.932678e+00,1
7.768960e-01,2.195610e-01,2.121925e-01,3,0,1.237885e+00,1.237847e+00,1
7.768470e-01,2.192490e-01,2.110004e-01,3,0,7.578909e-01,7.578935e-01,1
7.761340e-01,2.200870e-01,2.119541e-01,3,0,5.986300e-01,5.986311e-01,1
7.763040e-01,2.198550e-01,2.131462e-01,3,0,8.249606e-01,8.249615e-01,1
7.772100e-01,2.197940e-01,2.119541e-01,3,0,1.063487e+00,1.063489e+00,1
7.768160e-01,2.194340e-01,2.119541e-01,3,0,7.600052e-01,7.600053e-01,1
7.762650e-01,2.194750e-01,2.110004e-01,3,0,7.740733e-01,7.740748e-01,1
7.827970e-01,4.199450e-01,4.119873e-01,3,1,2.118585e+00,2.123219e+00,1
7.821700e-01,6.247450e-01,6.170273e-01,3,2,4.703750e+00,4.743935e+00,1
7.832720e-01,1.026515e+00,1.018047e+00,3,4,6.371638e+00,6.414147e+00,1
7.771220e-01,6.010040e-01,5.941391e-01,3,2,5.376119e+00,5.500410e+00,1
7.829040e-01,8.120040e-01,8.049011e-01,3,3,5.760829e+00,5.831103e+00,1
7.774320e-01,6.013810e-01,5.929470e-01,3,2,5.636319e+00,5.700103e+00,1
7.830850e-01,4.152410e-01,4.072189e-01,3,1,4.992246e+00,5.028665e+00,1
7.818350e-01,7.510680e-01,7.429123e-01,3,3,3.945144e+00,3.993454e+00,1
7.822440e-01,2.543550e-01,2.470016e-01,3,0,3.906544e+00,3.912073e+00,1
7.836500e-01,1.673389e+00,1.665831e+00,3,8,7.055665e+00,7.208118e+00,1
1.043241e+00,2.091279e+00,2.079725e+00,4,8,9.262721e+00,9.954340e+00,0
1.553222e+00,7.158500e-01,7.040501e-01,6,0,1.101488e+01,1.636484e+01,0
1.295365e+00,7.155920e-01,7.038116e-01,5,0,9.082830e+00,1.280962e+01,0
1.300391e+00,3.305087e+00,3.298044e+00,5,18,6.961363e+00,7.117433e+00,1
1.039770e+00,1.409005e+00,1.401186e+00,4,7,5.172029e+00,5.250534e+00,1
7.830910e-01,7.557800e-01,7.479191e-01,3,3,4.140247e+00,4.293844e+00,1
7.854980e-01,1.365532e+00,1.356125e+00,3,6,5.307000e+00,5.575239e+00,1
7.833370e-01,1.085658e+00,1.077890e+00,3,5,5.291941e+00,5.472298e+00,1
7.783040e-01,1.564494e+00,1.556158e+00,3,8,4.015618e+00,4.077974e+00,1
1.042475e+00,1.268975e+00,1.260996e+00,4,6,3.969793e+00,3.970956e+00,1
1.553734e+00,8.206710e-01,8.130074e-01,6,4,4.787301e+00,4.762144e+00,1
1.552257e+00,5.484570e-01,5.409718e-01,6,2,5.275127e+00,5.261678e+00,1
1.039763e+00,5.352570e-01,5.280972e-01,4,2,6.418349e+00,6.418354e+00,1
7.825290e-01,2.149140e-01,2.079010e-01,3,0,5.004629e+00,5.004628e+00,1
7.833940e-01,4.131830e-01,4.050732e-01,3,1,6.693354e+00,6.737448e+00,1
7.834480e-01,6.271980e-01,6.189346e-01,3,2,6.643806e+00,6.706269e+00,1
7.828740e-01,7.508270e-01,7.431507e-01,3,3,5.565141e+00,5.565425e+00,1
7.784170e-01,5.333610e-01,5.249977e-01,3,2,4.571018e+00,4.571018e+00,1
7.833650e-01,1.646749e+00,1.639128e+00,3,8,4.690842e+00,4.705233e+00,1
7.839130e-01,1.465784e+00,1.457930e+00,3,7,4.670039e+00,4.740641e+00,1
1.300669e+00,1.224344e+00,1.217127e+00,5,6,3.520077e+00,3.538576e+00,1
1.559339e+00,4.124830e-01,4.050732e-01,6,1,3.492198e+00,3.511306e+00,1
1.041366e+00,4.113620e-01,4.029274e-01,4,1,2.318386e+00,2.322394e+00,1
7.831020e-01,5.752550e-01,5.669594e-01,3,2,1.877163e+00,1.890549e+00,1
7.822650e-01,2.533020e-01,2.460480e-01,3,0,1.134988e+00,1.137731e+00,1
7.824520e-01,3.700130e-01,3.631115e-01,3,1,7.149030e-01,7.149034e-01,1
7.824600e-01,2.137260e-01,2.050400e-01,3,0,4.305170e-01,4.305171e-01,1
7.811680e-01,2.145810e-01,2.071857e-01,3,0,8.423595e-01,8.423612e-01,1
7.827010e-01,2.138830e-01,2.069473e-01,3,0,4.883783e-01,4.883785e-01,1
7.822360e-01,2.136800e-01,2.059937e-01,3,0,4.539481e-01,4.539488e-01,1
7.816930e-01,2.139870e-01,2.062321e-01,3,0,2.837925e-01,2.837929e-01,1
7.817600e-01,2.138360e-01,2.069473e-01,3,0,3.137920e-01,3.137924e-01,1
7.827450e-01,2.134160e-01,2.059937e-01,3,0,2.700686e-01,2.700689e-01,1
7.823420e-01,2.137560e-01,2.050400e-01,3,0,6.614335e-01,6.614346e-01,1
7.826650e-01,2.141380e-01,2.059937e-01,3,0,5.131234e-01,5.131241e-01,1
7.812100e-01,2.136590e-01,2.050400e-01,3,0,4.811902e-01,4.811919e-01,1
7.823120e-01,2.133930e-01,2.059937e-01,3,0,9.972128e-01,9.972144e-01,1
7.816500e-01,2.141670e-01,2.069473e-01,3,0,5.504026e-01,5.504024e-01,1
7.812250e-01,2.139000e-01,2.059937e-01,3,0,7.856635e-01,7.856643e-01,1
7.819060e-01,2.141280e-01,2.069473e-01,3,0,8.021382e-01,8.021387e-01,1
7.813760e-01,2.135910e-01,2.059937e-01,3,0,1.366197e+00,1.366199e+00,1
7.812050e-01,2.140620e-01,2.069473e-01,3,0,1.043040e+00,1.043040e+00,1
7.821300e-01,2.134250e-01,2.059937e-01,3,0,6.769789e-01,6.769789e-01,1
7.813090e-01,2.134010e-01,2.059937e-01,3,0,4.991544e-01,4.991550e-01,1
7.813720e-01,2.133560e-01,2.059937e-01,3,0,6.798405e-01,6.798413e-01,1
7.802920e-01,2.130890e-01,2.050400e-01,3,0,6.270691e-01,6.270693e-01,1
7.759060e-01,2.136330e-01,2.059937e-01,3,0,5.073503e-01,5.073505e-01,1
7.762240e-01,2.195520e-01,2.119541e-01,3,0,8.943777e-01,8.943789e-01,1
7.761900e-01,2.194980e-01,2.119541e-01,3,0,6.805199e-01,6.805204e-01,1
7.828200e-01,4.205360e-01,4.122257e-01,3,1,1.012277e+00,1.012335e+00,1
7.847870e-01,4.697670e-01,4.620552e-01,3,1,1.796149e+00,1.874364e+00,1
7.818390e-01,2.533460e-01,2.460480e-01,3,0,1.574355e+00,1.594197e+00,1
7.832150e-01,3.701470e-01,3.621578e-01,3,1,1.390542e+00,1.390543e+00,1
7.830650e-01,2.142070e-01,2.057552e-01,3,0,3.171552e+00,3.171556e+00,1
7.825670e-01,2.148610e-01,2.069473e-01,3,0,3.876013e+00,3.876010e+00,1
7.818730e-01,2.143150e-01,2.069473e-01,3,0,2.218522e+00,2.218520e+00,1
7.821550e-01,2.133100e-01,2.059937e-01,3,0,1.662187e+00,1.662186e+00,1
7.823640e-01,2.143410e-01,2.069473e-01,3,0,1.263089e+00,1.263089e+00,1
7.827210e-01,2.137390e-01,2.069473e-01,3,0,8.519731e-01,8.519732e-01,1
7.821860e-01,2.141450e-01,2.069473e-01,3,0,7.455627e-01,7.455631e-01,1
7.769070e-01,2.141880e-01,2.050400e-01,3,0,1.072886e+00,1.072887e+00,1
7.767700e-01,2.187130e-01,2.069473e-01,3,0,1.035071e+00,1.035072e+00,1
7.756520e-01,2.181300e-01,2.100468e-01,3,0,5.051728e-01,5.051738e-01,1
7.762580e-01,2.191090e-01,2.110004e-01,3,0,1.366075e+00,1.366078e+00,1
7.759870e-01,2.188930e-01,2.098083e-01,3,0,7.684837e-01,7.684836e-01,1
7.765760e-01,2.191230e-01,2.112389e-01,3,0,6.926982e-01,6.926988e-01,1
7.766230e-01,2.190780e-01,2.110004e-01,3,0,9.510765e-01,9.510777e-01,1
7.762980e-01,2.191160e-01,2.110004e-01,3,0,7.843147e-01,7.843150e-01,1
7.760730e-01,2.188530e-01,2.110004e-01,3,0,9.241724e-01,9.241731e-01,1
7.766620e-01,2.185970e-01,2.110004e-01,3,0,1.174144e+00,1.174145e+00,1
7.763050e-01,2.194840e-01,2.107620e-01,3,0,9.244205e-01,9.244212e-01,1
8.013180e-01,2.135910e-01,2.050400e-01,3,0,9.614435e-01,9.614449e-01,1
7.824970e-01,2.155150e-01,2.079010e-01,3,0,1.197063e+00,1.197060e+00,1
7.827170e-01,2.144700e-01,2.057552e-01,3,0,1.465391e+00,1.465387e+00,1
7.829620e-01,2.146370e-01,2.057552e-01,3,0,2.193731e+00,2.193734e+00,1
7.827980e-01,2.138750e-01,2.050400e-01,3,0,1.517709e+00,1.517709e+00,1
7.822840e-01,2.135800e-01,2.059937e-01,3,0,1.427008e+00,1.427010e+00,1
7.882650e-01,2.145560e-01,2.057552e-01,3,0,1.394852e+00,1.394853e+00,1
7.841450e-01,2.147940e-01,2.069473e-01,3,0,1.524729e+00,1.524730e+00,1
7.817860e-01,2.147340e-01,2.071857e-01,3,0,1.267355e+00,1.267355e+00,1
7.779190e-01,7.653440e-01,7.579327e-01,3,3,2.152223e+00,2.170430e+00,1
1.041401e+00,9.802980e-01,9.720325e-01,4,4,1.631715e+00,1.656249e+00,1
7.772150e-01,2.591080e-01,2.520084e-01,3,0,1.541825e+00,1.565690e+00,1
7.955610e-01,8.150690e-01,8.060932e-01,3,3,1.512230e+00,1.546144e+00,1
7.768980e-01,4.759700e-01,4.670620e-01,3,1,1.368450e+00,1.542714e+00,1
7.832620e-01,6.287200e-01,6.210804e-01,3,2,9.764712e-01,1.031068e+00,1
7.872230e-01,4.672200e-01,4.589558e-01,3,1,1.184139e+00,1.217280e+00,1
7.761900e-01,5.911190e-01,5.831718e-01,3,2,1.333735e+00,1.333736e+00,1
7.766810e-01,2.196280e-01,2.121925e-01,3,0,9.206006e-01,9.206008e-01,1
7.822090e-01,2.187800e-01,2.119541e-01,3,0,1.716627e+00,1.716629e+00,1
7.830860e-01,2.141550e-01,2.059937e-01,3,0,1.214090e+00,1.214090e+00,1
7.830420e-01,2.142550e-01,2.071857e-01,3,0,1.096866e+00,1.096867e+00,1
7.830910e-01,2.136500e-01,2.050400e-01,3,0,9.923311e-01,9.923314e-01,1
7.831360e-01,2.130450e-01,2.059937e-01,3,0,7.774961e-01,7.774974e-01,1
7.825860e-01,2.141260e-01,2.057552e-01,3,0,5.710486e-01,5.710491e-01,1
7.820330e-01,2.140050e-01,2.059937e-01,3,0,1.121347e+00,1.121349e+00,1
7.815180e-01,2.133680e-01,2.050400e-01,3,0,9.649002e-01,9.649008e-01,1
7.818820e-01,2.141230e-01,2.059937e-01,3,0,9.757279e-01,9.757291e-01,1
7.826150e-01,2.135340e-01,2.059937e-01,3,0,9.184279e-01,9.184282e-01,1
7.817520e-01,2.139880e-01,2.069473e-01,3,0,7.198569e-01,7.198575e-01,1
7.830480e-01,2.134520e-01,2.059937e-01,3,0,8.669969e-01,8.669975e-01,1
7.831840e-01,2.137810e-01,2.059937e-01,3,0,6.692728e-01,6.692730e-01,1
7.818710e-01,2.136860e-01,2.059937e-01,3,0,2.812092e+00,2.812025e+00,1
7.824720e-01,5.973940e-01,5.888939e-01,3,2,6.252122e+00,6.250521e+00,1
1.039511e+00,8.752720e-01,8.680820e-01,4,4,4.778860e+00,4.778860e+00,1
7.821600e-01,2.138780e-01,2.069473e-01,3,0,3.421406e+00,3.421405e+00,1
7.821100e-01,2.134470e-01,2.059937e-01,3,0,2.483568e+00,2.483568e+00,1
7.828340e-01,2.148800e-01,2.069473e-01,3,0,2.719384e+00,2.719386e+00,1
7.814930e-01,2.137330e-01,2.048016e-01,3,0,2.138911e+00,2.138911e+00,1
7.809760e-01,2.141790e-01,2.071857e-01,3,0,2.075938e+00,2.075939e+00,1
7.769600e-01,2.142760e-01,2.059937e-01,3,0,2.464893e+00,2.464896e+00,1
7.764880e-01,2.197170e-01,2.110004e-01,3,0,2.778302e+00,2.778304e+00,1
7.765850e-01,2.206300e-01,2.131462e-01,3,0,2.534843e+00,2.534843e+00,1
7.852090e-01,4.199730e-01,4.119873e-01,3,1,2.713012e+00,2.713670e+00,1
7.832920e-01,3.709580e-01,3.640652e-01,3,1,3.638477e+00,3.638480e+00,1
7.832350e-01,2.142940e-01,2.059937e-01,3,0,2.717860e+00,2.717857e+00,1
7.819680e-01,2.138360e-01,2.050400e-01,3,0,1.865109e+00,1.865108e+00,1
7.829450e-01,2.143020e-01,2.062321e-01,3,0,1.118547e+00,1.118547e+00,1
7.826410e-01,2.136640e-01,2.059937e-01,3,0,7.524168e-01,7.524169e-01,1
7.831350e-01,2.142490e-01,2.069473e-01,3,0,5.861015e-01,5.861019e-01,1
7.827370e-01,2.143200e-01,2.057552e-01,3,0,8.102396e-01,8.102407e-01,1
7.823230e-01,2.142630e-01,2.069473e-01,3,0,5.755474e-01,5.755475e-01,1
7.821040e-01,2.137160e-01,2.071857e-01,3,0,9.391565e-01,9.391577e-01,1
7.835210e-01,2.138720e-01,2.059937e-01,3,0,9.928145e-01,9.928150e-01,1
7.838420e-01,4.136260e-01,4.050732e-01,3,1,9.225296e-01,9.228622e-01,1
7.783910e-01,4.722140e-01,4.639626e-01,3,1,1.185544e+00,1.189099e+00,1
7.859230e-01,3.750880e-01,3.669262e-01,3,1,6.645029e-01,6.645028e-01,1
7.817330e-01,2.144110e-01,2.059937e-01,3,0,5.330671e-01,5.330675e-01,1
7.818660e-01,2.138510e-01,2.050400e-01,3,0,2.707671e+00,2.707678e+00,1
7.825050e-01,2.142590e-01,2.069473e-01,3,0,2.841113e+00,2.841114e+00,1
7.819390e-01,2.141110e-01,2.069473e-01,3,0,1.376632e+00,1.376631e+00,1
7.821880e-01,2.139720e-01,2.062321e-01,3,0,1.368063e+00,1.368064e+00,1
7.819750e-01,2.145530e-01,2.079010e-01,3,0,1.202553e+00,1.202554e+00,1
7.834370e-01,4.134220e-01,4.048347e-01,3,1,1.297007e+00,1.297244e+00,1
7.816070e-01,3.705460e-01,3.619194e-01,3,1,6.570838e-01,6.570836e-01,1
7.813610e-01,2.136140e-01,2.059937e-01,3,0,5.401839e-01,5.401844e-01,1
7.819530e-01,2.137000e-01,2.071857e-01,3,0,1.034198e+00,1.034199e+00,1
7.820640e-01,2.142750e-01,2.057552e-01,3,0,1.306494e+00,1.306495e+00,1
7.764920e-01,2.141220e-01,2.059937e-01,3,0,1.625038e+00,1.625039e+00,1
7.762430e-01,2.187730e-01,2.110004e-01,3,0,1.053127e+00,1.053127e+00,1
7.764170e-01,2.181310e-01,2.098083e-01,3,0,1.004465e+00,1.004466e+00,1
7.767910e-01,2.194540e-01,2.107620e-01,3,0,1.505983e+00,1.505986e+00,1
7.760050e-01,2.197160e-01,2.110004e-01,3,0,2.257561e+00,2.257563e+00,1
7.769230e-01,2.197780e-01,2.110004e-01,3,0,2.515954e+00,2.515955e+00,1
7.836260e-01,4.211030e-01,4.138947e-01,3,1,3.514011e+00,3.521366e+00,1
7.833340e-01,2.535830e-01,2.458096e-01,3,0,3.331659e+00,3.343823e+00,1
7.831450e-01,6.912440e-01,6.840229e-01,3,3,5.239641e+00,5.238739e+00,1
1.039910e+00,4.809050e-01,4.727840e-01,4,2,2.319730e+00,2.319728e+00,1
7.832180e-01,2.142580e-01,2.050400e-01,3,0,1.922216e+00,1.922217e+00,1
7.843910e-01,4.107720e-01,4.041195e-01,3,1,2.797239e+00,2.797275e+00,1
7.825310e-01,3.708560e-01,3.628731e-01,3,1,1.389003e+00,1.389001e+00,1
7.819580e-01,2.145340e-01,2.059937e-01,3,0,1.155720e+00,1.155720e+00,1
7.811790e-01,2.142230e-01,2.069473e-01,3,0,9.296065e-01,9.296068e-01,1
7.822150e-01,2.130460e-01,2.050400e-01,3,0,6.205235e-01,6.205233e-01,1
7.817620e-01,2.141620e-01,2.050400e-01,3,0,1.320994e+00,1.320996e+00,1
7.816830e-01,2.137600e-01,2.059937e-01,3,0,9.903784e-01,9.903785e-01,1
7.768880e-01,2.134820e-01,2.069473e-01,3,0,5.586414e-01,5.586414e-01,1
7.769460e-01,2.200170e-01,2.119541e-01,3,0,1.249720e+00,1.249722e+00,1
7.763600e-01,2.193510e-01,2.119541e-01,3,0,8.726678e-01,8.726678e-01,1
7.766130e-01,2.192710e-01,2.119541e-01,3,0,4.713378e-01,4.713381e-01,1
7.762130e-01,2.191430e-01,2.110004e-01,3,0,5.132423e-01,5.132427e-01,1
7.759100e-01,2.197270e-01,2.119541e-01,3,0,6.622897e-01,6.622906e-01,1
7.831470e-01,4.186850e-01,4.119873e-01,3,1,1.001999e+00,1.002496e+00,1
7.856570e-01,4.400140e-01,4.310608e-01,3,1,2.086643e+00,2.087102e+00,1
7.832660e-01,4.097820e-01,4.010201e-01,3,1,1.512769e+00,1.528143e+00,1
7.855550e-01,6.302850e-01,6.229877e-01,3,2,2.737894e+00,2.831896e+00,1
7.851800e-01,5.666380e-01,5.600452e-01,3,2,1.205496e+00,1.205635e+00,1
7.853020e-01,3.711750e-01,3.621578e-01,3,1,9.613929e-01,9.613935e-01,1
7.823550e-01,2.140680e-01,2.069473e-01,3,0,6.414082e-01,6.414081e-01,1
7.814710e-01,2.136920e-01,2.048016e-01,3,0,5.920689e-01,5.920696e-01,1
7.816820e-01,2.142210e-01,2.062321e-01,3,0,1.661641e+00,1.661645e+00,1
7.813200e-01,2.144030e-01,2.069473e-01,3,0,1.672177e+00,1.672178e+00,1
7.817790e-01,2.138080e-01,2.069473e-01,3,0,2.572674e+00,2.572648e+00,1
7.811520e-01,2.142790e-01,2.069473e-01,3,0,2.653660e+00,2.653656e+00,1
7.765040e-01,2.144510e-01,2.069473e-01,3,0,3.049365e+00,3.049366e+00,1
7.836050e-01,4.199100e-01,4.119873e-01,3,1,4.979113e+00,4.985933e+00,1
7.828770e-01,2.540670e-01,2.470016e-01,3,0,5.577266e+00,5.580801e+00,1
7.851360e-01,5.691040e-01,5.609989e-01,3,2,4.167758e+00,4.177750e+00,1
7.827120e-01,4.397180e-01,4.320145e-01,3,1,3.740126e+00,3.751028e+00,1
7.820820e-01,5.988350e-01,5.910397e-01,3,2,5.220948e+00,5.232045e+00,1
7.832090e-01,7.267900e-01,7.188320e-01,3,3,3.549991e+00,3.552225e+00,1
7.779520e-01,3.770160e-01,3.697872e-01,3,1,2.943434e+00,2.943435e+00,1
7.770810e-01,2.186350e-01,2.112389e-01,3,0,2.946009e+00,2.946013e+00,1
7.766360e-01,2.201340e-01,2.119541e-01,3,0,3.158371e+00,3.158373e+00,1
7.859850e-01,4.188920e-01,4.119873e-01,3,1,3.444558e+00,3.458881e+00,1
7.821810e-01,3.697800e-01,3.619194e-01,3,1,2.542775e+00,2.542776e+00,1
7.831300e-01,2.138980e-01,2.059937e-01,3,0,2.465111e+00,2.465112e+00,1
7.831760e-01,2.152890e-01,2.079010e-01,3,0,3.193802e+00,3.193804e+00,1
7.821470e-01,4.106410e-01,4.029274e-01,3,1,3.530768e+00,3.530821e+00,1
7.814590e-01,3.709610e-01,3.640652e-01,3,1,2.250885e+00,2.250861e+00,1
7.811860e-01,2.145960e-01,2.062321e-01,3,0,2.172056e+00,2.171848e+00,1
7.765690e-01,2.142220e-01,2.059937e-01,3,0,1.285225e+00,1.285204e+00,1
7.768060e-01,2.198100e-01,2.121925e-01,3,0,1.246174e+00,1.246134e+00,1

