5.893870e-01,9.430350e-01,6.511211e-01,2,0,0.000000e+00,0.000000e+00
8.671280e-01,1.685580e-01,1.602173e-01,3,0,6.146605e-02,6.146569e-02
8.674910e-01,1.400580e-01,1.330376e-01,3,0,1.071135e-01,1.071120e-01
8.951940e-01,1.394850e-01,1.318455e-01,3,0,2.395170e-01,2.394965e-01
1.752130e+00,1.400470e-01,1.330376e-01,6,0,2.182489e-01,2.172487e-01
1.184667e+00,1.293155e+00,1.286030e+00,4,6,7.254577e-01,7.218321e-01
2.020723e+00,1.379330e-01,1.299381e-01,7,0,9.801481e-01,9.759013e-01
2.049463e+00,3.281510e-01,3.209114e-01,7,1,1.245128e+00,1.241568e+00
1.153118e+00,1.029002e+00,1.022100e+00,4,5,6.389644e-01,6.381231e-01
2.310556e+00,1.399500e-01,1.320839e-01,8,0,5.915604e-01,5.907707e-01
1.438044e+00,1.449740e-01,1.380444e-01,5,0,4.613551e-01,4.608197e-01
1.724949e+00,5.197380e-01,5.121231e-01,6,2,4.374909e-01,4.371729e-01
1.726248e+00,3.297140e-01,3.218651e-01,6,1,6.784898e-01,6.692621e-01
1.724551e+00,3.265110e-01,3.190041e-01,6,1,1.026450e+00,1.021781e+00
2.009988e+00,5.020400e-01,4.949570e-01,7,2,8.277684e-01,8.267814e-01
2.019300e+00,3.275570e-01,3.199577e-01,7,1,1.242992e+00,1.241143e+00
1.154409e+00,3.245090e-01,3.168583e-01,4,1,1.001991e+00,1.001245e+00
2.310477e+00,3.277020e-01,3.199577e-01,8,1,8.374427e-01,8.371573e-01
2.010110e+00,3.256870e-01,3.180504e-01,7,1,8.304892e-01,8.292797e-01
1.185229e+00,4.970730e-01,4.889965e-01,4,2,9.382565e-01,9.375685e-01
1.158834e+00,8.866600e-01,8.790493e-01,4,4,9.853446e-01,9.801631e-01
1.727452e+00,8.543040e-01,8.471012e-01,6,4,8.788991e-01,8.788732e-01
8.695200e-01,3.325840e-01,3.249645e-01,3,1,7.495568e-01,7.474695e-01
1.153202e+00,3.191360e-01,3.111362e-01,4,1,7.635589e-01,7.624038e-01
1.730229e+00,3.274260e-01,3.199577e-01,6,1,7.422433e-01,7.417873e-01
1.723341e+00,3.301630e-01,3.230572e-01,6,1,6.817738e-01,6.752478e-01
1.156708e+00,1.067255e+00,1.060009e+00,4,5,5.669005e-01,5.639467e-01
2.011983e+00,6.832900e-01,6.759167e-01,7,3,4.019724e-01,4.002081e-01
3.163129e+00,8.547260e-01,8.471012e-01,11,4,2.345025e-01,2.263139e-01
3.175870e+00,1.398400e-01,1.320839e-01,11,0,1.651284e-01,1.649198e-01
1.444802e+00,5.146430e-01,5.078316e-01,5,2,2.769557e-01,2.764342e-01
1.152758e+00,4.970940e-01,4.899502e-01,4,2,3.744538e-01,3.716806e-01
1.439607e+00,3.337140e-01,3.259182e-01,5,1,2.983947e-01,2.977265e-01
2.010548e+00,1.061786e+00,1.054049e+00,7,5,4.674628e-01,4.631551e-01
2.008637e+00,3.172530e-01,3.099442e-01,7,1,3.387856e-01,3.373647e-01
1.727944e+00,6.669450e-01,6.599426e-01,6,3,2.463856e-01,2.419272e-01
2.298113e+00,5.015230e-01,4.940033e-01,8,2,2.519494e-01,2.512180e-01
1.157512e+00,7.023370e-01,6.949902e-01,4,3,2.808212e-01,2.791784e-01
2.035456e+00,5.031600e-01,4.959106e-01,7,2,6.224525e-01,6.187338e-01
2.012713e+00,4.996510e-01,4.918575e-01,7,2,5.621245e-01,5.593309e-01
2.061641e+00,3.183790e-01,3.108978e-01,7,1,1.147992e+00,1.141259e+00
2.010074e+00,6.855070e-01,6.778240e-01,7,3,1.761972e+00,1.755059e+00
1.729704e+00,1.195785e+00,1.188040e+00,6,6,1.142166e+00,1.136385e+00
2.020290e+00,7.019620e-01,6.949902e-01,7,3,1.622088e+00,1.619603e+00
1.440415e+00,8.572500e-01,8.490086e-01,5,4,1.380221e+00,1.379814e+00
1.438283e+00,9.003580e-01,8.931160e-01,5,4,1.040088e+00,1.036311e+00
2.013666e+00,5.108660e-01,5.030632e-01,7,2,9.009051e-01,8.971290e-01
2.012477e+00,1.047064e+00,1.039982e+00,7,5,7.249251e-01,7.234921e-01
2.019341e+00,7.030990e-01,6.949902e-01,7,3,5.298179e-01,5.280397e-01
1.159642e+00,5.003430e-01,4.918575e-01,4,2,2.325861e-01,2.317707e-01
3.467118e+00,1.401020e-01,1.327991e-01,12,0,2.613767e-01,2.611949e-01
1.157292e+00,7.061210e-01,6.988049e-01,4,3,4.175933e-01,4.170466e-01
2.010213e+00,5.031060e-01,4.961491e-01,7,2,3.296406e-01,3.292703e-01
3.460878e+00,3.220930e-01,3.151894e-01,12,1,2.845186e-01,2.680725e-01
2.892947e+00,1.700150e-01,1.630783e-01,10,0,3.526019e-01,3.451474e-01
2.012170e+00,3.294400e-01,3.221035e-01,7,1,5.248161e-01,5.246300e-01
2.299882e+00,3.213750e-01,3.139973e-01,8,1,2.724853e-01,2.694722e-01
1.152992e+00,7.006820e-01,6.937981e-01,4,3,3.844337e-01,3.829240e-01
2.014151e+00,3.283480e-01,3.211498e-01,7,1,5.250030e-01,5.233448e-01
2.028132e+00,3.167380e-01,3.099442e-01,7,1,8.460034e-01,8.445268e-01
1.152585e+00,1.067981e+00,1.060009e+00,4,5,2.893778e-01,2.879800e-01
2.010217e+00,1.241097e+00,1.233101e+00,7,6,8.843674e-01,8.751654e-01
2.009929e+00,3.092100e-01,3.018379e-01,7,1,1.912480e+00,1.905194e+00
2.010610e+00,4.897780e-01,4.818439e-01,7,2,8.666602e-01,8.650932e-01
2.011277e+00,4.916680e-01,4.839897e-01,7,2,1.243751e+00,1.242324e+00
3.462578e+00,6.806210e-01,6.730556e-01,12,3,4.783352e-01,4.631300e-01
1.722782e+00,1.406520e-01,1.330376e-01,6,0,5.775875e-01,5.765168e-01
1.447664e+00,1.402910e-01,1.327991e-01,5,0,4.530213e-01,4.522260e-01
1.449081e+00,5.161040e-01,5.090237e-01,5,2,3.496165e-01,3.489932e-01
1.728116e+00,4.994480e-01,4.918575e-01,6,2,2.738178e-01,2.732446e-01
1.156248e+00,1.404380e-01,1.330376e-01,4,0,4.619110e-01,4.617207e-01
3.474362e+00,1.453510e-01,1.380444e-01,12,0,5.080196e-01,4.970618e-01
2.605257e+00,1.405520e-01,1.327991e-01,9,0,5.599798e-01,5.479781e-01
1.154047e+00,7.062880e-01,6.990433e-01,4,3,5.979551e-01,5.938491e-01
2.009677e+00,5.064110e-01,4.990101e-01,7,2,8.002730e-01,7.976577e-01
2.016319e+00,1.384550e-01,1.318455e-01,7,0,1.060811e+00,1.058686e+00
1.728460e+00,8.475840e-01,8.399487e-01,6,4,6.921234e-01,6.916758e-01
1.746495e+00,3.209140e-01,3.128052e-01,6,1,6.377091e-01,6.370551e-01
1.156178e+00,1.407870e-01,1.330376e-01,4,0,5.157709e-01,5.147678e-01
1.434895e+00,3.294680e-01,3.218651e-01,5,1,2.035726e-01,2.028331e-01
2.059192e+00,8.833460e-01,8.759499e-01,7,4,8.762038e-01,8.714953e-01
1.728658e+00,6.755300e-01,6.678104e-01,6,3,6.424875e-01,6.369560e-01
1.730224e+00,3.193380e-01,3.120899e-01,6,1,4.539850e-01,4.519441e-01
1.730564e+00,5.089700e-01,5.011559e-01,6,2,4.178526e-01,4.170431e-01
1.155083e+00,1.970665e+00,1.962900e+00,4,10,8.015966e-01,7.890416e-01
2.008592e+00,1.361780e-01,1.280308e-01,7,0,1.593566e+00,1.577517e+00
2.010510e+00,1.022480e+00,1.014948e+00,7,5,2.488277e+00,2.466423e+00
2.013392e+00,1.366116e+00,1.357794e+00,7,7,3.643363e+00,3.606343e+00
2.016532e+00,1.645806e+00,1.637936e+00,7,9,2.820371e+00,2.810532e+00
1.731290e+00,1.695714e+00,1.688004e+00,6,9,1.881776e+00,1.857403e+00
1.151826e+00,1.011401e+00,1.003981e+00,4,5,1.278910e+00,1.264880e+00
2.012603e+00,1.352935e+00,1.346111e+00,7,7,8.323104e-01,8.280288e-01
2.012061e+00,1.220889e+00,1.214027e+00,7,6,1.309597e+00,1.304539e+00
2.007677e+00,4.783860e-01,4.699230e-01,7,2,9.188566e-01,9.113865e-01
2.009377e+00,1.409910e-01,1.339912e-01,7,0,1.257208e+00,1.244822e+00
2.010514e+00,4.838040e-01,4.770756e-01,7,2,1.482480e+00,1.473816e+00
2.014056e+00,8.478180e-01,8.409023e-01,7,4,5.424886e-01,5.409683e-01
1.729181e+00,3.207550e-01,3.130436e-01,6,1,4.182925e-01,4.127839e-01
1.728210e+00,1.407290e-01,1.330376e-01,6,0,6.053248e-01,5.986357e-01
1.747820e+00,5.163750e-01,5.090237e-01,6,2,5.980443e-01,5.924371e-01
3.167096e+00,8.885190e-01,8.809566e-01,11,4,4.359348e-01,4.156021e-01
3.169660e+00,5.085760e-01,5.009174e-01,11,2,5.416426e-01,5.414400e-01
1.448033e+00,1.416000e-01,1.339912e-01,5,0,2.453029e-01,2.444666e-01
1.448954e+00,5.208260e-01,5.140305e-01,5,2,2.009972e-01,1.999759e-01
2.011814e+00,3.224070e-01,3.149509e-01,7,1,1.626106e-01,1.620703e-01
2.296768e+00,3.233780e-01,3.159046e-01,8,1,3.193439e-01,3.185861e-01
1.153158e+00,7.133550e-01,7.050037e-01,4,3,4.096022e-01,4.071340e-01
1.749426e+00,5.014510e-01,4.940033e-01,6,2,3.838174e-01,3.822639e-01
3.485495e+00,3.580950e-01,3.490448e-01,12,1,2.688668e-01,2.596163e-01
1.738077e+00,1.483780e-01,1.399517e-01,6,0,2.741290e-01,2.735973e-01
2.333037e+00,1.492950e-01,1.409054e-01,8,0,2.855952e-01,2.852367e-01
1.439216e+00,5.354730e-01,5.269051e-01,5,2,3.019233e-01,3.014696e-01
2.322975e+00,5.100450e-01,5.030632e-01,8,2,2.130930e-01,2.099172e-01
1.446804e+00,1.420170e-01,1.349449e-01,5,0,3.267548e-01,3.267096e-01
1.469394e+00,1.416100e-01,1.342297e-01,5,0,1.500777e-01,1.498105e-01
1.156292e+00,3.389800e-01,3.318787e-01,4,1,1.544841e-01,1.538622e-01
2.036333e+00,7.091880e-01,7.019043e-01,7,3,3.703215e-01,3.678354e-01
1.754826e+00,6.795580e-01,6.721020e-01,6,3,2.523835e-01,2.499950e-01
2.013513e+00,5.229100e-01,5.159378e-01,7,2,8.842126e-01,8.826505e-01
1.440771e+00,7.130340e-01,7.050037e-01,5,3,7.437259e-01,7.434631e-01
1.157141e+00,9.239790e-01,9.160042e-01,4,4,8.116979e-01,8.087639e-01
2.009501e+00,1.402990e-01,1.327991e-01,7,0,1.114821e+00,1.113093e+00
1.725547e+00,3.235760e-01,3.159046e-01,6,1,9.697232e-01,9.633336e-01
1.722011e+00,1.452660e-01,1.380444e-01,6,0,9.614431e-01,9.564942e-01
2.018917e+00,3.317530e-01,3.249645e-01,7,1,1.572331e+00,1.570945e+00
1.151525e+00,8.647200e-01,8.568764e-01,4,4,1.107300e+00,1.104244e+00
2.883421e+00,1.419370e-01,1.339912e-01,10,0,7.441376e-01,7.412188e-01
1.155738e+00,1.415560e-01,1.339912e-01,4,0,5.459478e-01,5.456469e-01
1.153764e+00,5.254200e-01,5.178452e-01,4,2,3.299720e-01,3.283955e-01
1.164977e+00,6.967940e-01,6.890297e-01,4,3,3.624809e-01,3.608402e-01
1.153849e+00,3.230880e-01,3.161430e-01,4,1,2.827659e-01,2.824151e-01
1.154658e+00,3.372110e-01,3.299713e-01,4,1,3.730693e-01,3.723291e-01
1.153018e+00,5.121230e-01,5.040169e-01,4,2,2.040528e-01,2.033161e-01
1.151902e+00,3.283700e-01,3.211498e-01,4,1,1.769789e-01,1.768150e-01
1.156670e+00,1.415840e-01,1.339912e-01,4,0,1.691594e-01,1.691455e-01
1.156246e+00,3.374240e-01,3.299713e-01,4,1,4.239216e-01,4.238794e-01
1.150745e+00,3.236060e-01,3.159046e-01,4,1,4.868048e-01,4.859121e-01
2.015315e+00,1.415430e-01,1.339912e-01,7,0,3.974131e-01,3.960142e-01
2.904308e+00,3.324330e-01,3.249645e-01,10,1,4.587531e-01,4.428538e-01
2.017289e+00,3.237940e-01,3.161430e-01,7,1,3.342884e-01,3.332250e-01
1.437143e+00,7.147450e-01,7.078648e-01,5,3,4.413057e-01,4.398810e-01
1.722403e+00,1.448050e-01,1.368523e-01,6,0,6.694119e-01,6.587565e-01
2.012736e+00,3.517560e-01,3.440380e-01,7,1,8.817989e-01,8.812541e-01
2.886745e+00,1.075571e+00,1.067877e+00,10,5,8.340892e-01,8.314115e-01
2.012231e+00,1.272153e+00,1.264095e+00,7,6,7.332021e-01,7.285889e-01
2.009039e+00,4.895760e-01,4.820824e-01,7,2,6.430584e-01,6.405764e-01
2.007768e+00,8.542050e-01,8.461475e-01,7,4,5.051654e-01,5.047787e-01
1.152869e+00,3.271970e-01,3.190041e-01,4,1,5.134677e-01,5.126821e-01
1.154145e+00,1.081934e+00,1.074076e+00,4,5,6.926243e-01,6.896094e-01
2.007815e+00,1.393210e-01,1.320839e-01,7,0,8.513350e-01,8.474442e-01
1.729750e+00,6.777590e-01,6.701946e-01,6,3,4.410622e-01,4.364938e-01
2.012448e+00,5.044450e-01,4.968643e-01,7,2,4.951018e-01,4.950948e-01
1.155193e+00,1.460290e-01,1.378059e-01,4,0,3.674399e-01,3.672156e-01
2.024361e+00,1.412810e-01,1.339912e-01,7,0,3.048437e-01,3.039907e-01
2.014573e+00,1.416820e-01,1.339912e-01,7,0,2.472978e-01,2.471850e-01
2.592588e+00,1.417010e-01,1.339912e-01,9,0,3.833804e-01,3.811888e-01
1.156538e+00,5.207200e-01,5.130768e-01,4,2,7.638264e-01,7.578206e-01
2.009090e+00,3.225840e-01,3.149509e-01,7,1,6.417476e-01,6.412400e-01
3.461089e+00,3.240300e-01,3.159046e-01,12,1,7.180717e-01,7.148328e-01
1.155161e+00,1.442021e+00,1.433849e+00,4,7,7.537708e-01,7.478435e-01
2.011288e+00,1.391152e+00,1.384020e+00,7,7,3.497901e-01,3.497217e-01
8.684980e-01,1.419180e-01,1.339912e-01,3,0,2.848491e-01,2.845264e-01
1.180250e+00,1.412200e-01,1.339912e-01,4,0,2.483534e-01,2.472981e-01
1.159755e+00,1.408740e-01,1.330376e-01,4,0,1.244523e-01,1.241413e-01
2.909610e+00,1.411280e-01,1.339912e-01,10,0,1.626235e-01,1.396556e-01
1.756292e+00,3.324610e-01,3.249645e-01,6,1,2.782791e-01,2.749912e-01
2.302155e+00,3.229850e-01,3.159046e-01,8,1,2.044924e-01,2.027662e-01
1.156405e+00,8.940440e-01,8.862019e-01,4,4,5.895566e-01,5.860966e-01
2.305542e+00,8.600410e-01,8.530617e-01,8,4,5.601014e-01,5.586325e-01
2.887111e+00,1.418150e-01,1.339912e-01,10,0,3.740823e-01,3.604848e-01
1.731085e+00,3.324600e-01,3.252029e-01,6,1,3.340246e-01,3.332674e-01
2.010330e+00,1.416350e-01,1.349449e-01,7,0,3.180848e-01,3.177240e-01
1.728350e+00,1.413440e-01,1.330376e-01,6,0,2.976406e-01,2.960548e-01
1.151663e+00,3.236480e-01,3.159046e-01,4,1,2.461684e-01,2.457789e-01
1.157385e+00,1.462990e-01,1.389980e-01,4,0,2.999815e-01,2.999588e-01
1.739453e+00,1.416140e-01,1.339912e-01,6,0,2.349444e-01,2.346464e-01
1.157701e+00,1.414660e-01,1.339912e-01,4,0,1.944988e-01,1.944836e-01
1.158284e+00,1.080646e+00,1.072884e+00,4,5,4.198391e-01,4.175084e-01
2.876653e+00,1.039907e+00,1.031876e+00,10,5,4.273409e-01,4.263935e-01
2.024713e+00,3.371450e-01,3.290176e-01,7,1,5.827845e-01,5.826463e-01
1.438837e+00,3.298320e-01,3.218651e-01,5,1,7.530315e-01,7.509086e-01
1.730546e+00,5.087650e-01,5.009174e-01,6,2,7.301748e-01,7.297045e-01
1.452253e+00,7.081430e-01,7.009506e-01,5,3,8.081581e-01,8.070512e-01
2.015140e+00,6.884560e-01,6.809235e-01,7,3,5.686019e-01,5.658487e-01
1.158446e+00,1.083045e+00,1.074791e+00,4,5,4.545510e-01,4.492500e-01
2.010252e+00,3.177870e-01,3.099442e-01,7,1,5.340307e-01,5.321817e-01
2.009418e+00,3.295040e-01,3.221035e-01,7,1,9.243143e-01,9.194017e-01
2.036543e+00,6.821050e-01,6.752014e-01,7,3,1.223154e+00,1.218421e+00
1.731299e+00,1.045894e+00,1.038074e+00,6,5,1.012026e+00,9.984060e-01
1.726876e+00,1.387660e+00,1.379967e+00,6,7,7.020405e-01,7.000362e-01
2.012001e+00,1.026906e+00,1.019001e+00,7,5,6.854797e-01,6.806978e-01
2.013591e+00,4.882950e-01,4.801750e-01,7,2,3.793830e-01,3.763552e-01
2.589997e+00,1.389866e+00,1.383066e+00,9,7,5.404406e-01,5.395443e-01
1.443338e+00,3.321010e-01,3.240108e-01,5,1,5.405585e-01,5.403480e-01
2.297543e+00,3.236160e-01,3.161430e-01,8,1,3.974372e-01,3.957539e-01
2.313472e+00,1.469990e-01,1.389980e-01,8,0,3.586719e-01,3.543649e-01
1.449425e+00,3.322800e-01,3.249645e-01,5,1,7.650335e-01,7.642900e-01
2.013273e+00,1.074506e+00,1.065969e+00,7,5,1.551547e+00,1.541721e+00
2.010426e+00,5.010960e-01,4.930496e-01,7,2,1.439134e+00,1.430583e+00
2.010691e+00,4.918800e-01,4.839897e-01,7,2,1.439232e+00,1.432702e+00
2.011403e+00,5.019290e-01,4.940033e-01,7,2,1.808217e+00,1.802487e+00
2.013071e+00,8.461850e-01,8.389950e-01,7,4,2.806771e+00,2.798154e+00
2.014979e+00,1.369755e+00,1.362085e+00,7,7,1.639635e+00,1.637268e+00
2.041587e+00,8.703580e-01,8.630753e-01,7,4,1.894235e+00,1.888681e+00
1.160771e+00,1.558178e+00,1.549959e+00,4,8,1.498916e+00,1.492224e+00
2.040610e+00,1.070976e+00,1.063824e+00,7,5,1.381515e+00,1.374533e+00
1.727262e+00,1.908453e+00,1.900911e+00,6,10,7.512798e-01,7.416051e-01
2.013582e+00,8.864350e-01,8.780956e-01,7,4,1.168657e+00,1.164996e+00
1.729168e+00,6.758790e-01,6.680489e-01,6,3,7.415750e-01,7.360016e-01
2.010791e+00,5.127040e-01,5.049706e-01,7,2,8.787236e-01,8.710810e-01
1.728575e+00,1.040532e+00,1.033068e+00,6,5,3.005483e-01,2.999083e-01
2.892520e+00,1.421920e-01,1.349449e-01,10,0,6.981235e-01,6.802581e-01
1.157511e+00,7.152910e-01,7.078648e-01,4,3,1.405877e+00,1.404368e+00
2.010622e+00,1.402240e-01,1.330376e-01,7,0,8.170851e-01,8.151503e-01
2.010133e+00,3.319350e-01,3.240108e-01,7,1,1.340015e+00,1.337689e+00
1.732140e+00,5.003080e-01,4.930496e-01,6,2,1.254220e+00,1.245751e+00
2.009852e+00,1.249908e+00,1.242161e+00,7,6,1.692296e+00,1.682068e+00
2.014217e+00,1.383063e+00,1.375198e+00,7,7,8.903787e-01,8.895956e-01
3.177817e+00,1.077159e+00,1.069069e+00,11,5,7.317355e-01,7.299908e-01
2.013311e+00,8.738470e-01,8.659363e-01,7,4,4.829226e-01,4.816051e-01
1.155607e+00,1.265523e+00,1.257896e+00,4,6,4.636801e-01,4.577955e-01
2.010491e+00,3.206860e-01,3.130436e-01,7,1,4.386704e-01,4.364014e-01
2.009657e+00,3.224310e-01,3.149509e-01,7,1,7.754782e-01,7.723311e-01
2.925930e+00,1.034458e+00,1.025915e+00,10,5,3.251700e-01,3.213313e-01
3.457476e+00,3.240870e-01,3.170967e-01,12,1,3.190037e-01,3.095110e-01
1.155615e+00,1.420450e-01,1.339912e-01,4,0,4.034090e-01,4.034040e-01
8.684790e-01,1.415650e-01,1.339912e-01,3,0,4.441890e-01,4.441791e-01
1.158204e+00,1.412260e-01,1.339912e-01,4,0,3.022140e-01,3.022140e-01
8.779800e-01,5.471260e-01,5.400181e-01,3,2,3.900917e-01,3.857139e-01
2.014878e+00,3.291190e-01,3.211498e-01,7,1,5.140155e-01,5.132582e-01
1.723551e+00,1.404470e-01,1.330376e-01,6,0,7.291327e-01,7.200485e-01
2.009117e+00,1.060537e+00,1.053095e+00,7,5,1.540286e+00,1.531380e+00
2.010194e+00,5.004510e-01,4.928112e-01,7,2,2.171717e+00,2.161501e+00
1.730316e+00,1.363809e+00,1.355886e+00,6,7,1.445912e+00,1.433191e+00
2.017699e+00,3.235320e-01,3.159046e-01,7,1,1.806123e+00,1.803268e+00
3.463905e+00,1.410311e+00,1.403093e+00,12,7,1.268166e+00,1.267299e+00
2.011126e+00,5.172920e-01,5.090237e-01,7,2,8.700758e-01,8.679769e-01
2.009731e+00,3.225240e-01,3.149509e-01,7,1,1.033095e+00,1.027556e+00
2.018032e+00,6.758460e-01,6.678104e-01,7,3,4.854935e-01,4.840781e-01
2.302375e+00,1.067748e+00,1.060009e+00,8,5,4.948873e-01,4.804872e-01
3.486201e+00,5.109840e-01,5.030632e-01,12,2,3.381003e-01,3.336833e-01
1.182287e+00,1.471610e-01,1.399517e-01,4,0,3.310904e-01,3.296998e-01
1.153318e+00,3.326640e-01,3.249645e-01,4,1,3.106460e-01,3.086015e-01
2.017812e+00,9.185490e-01,9.109974e-01,7,4,4.374257e-01,4.357314e-01
3.456081e+00,1.043454e+00,1.036167e+00,12,5,1.976618e-01,1.898052e-01
1.158118e+00,8.968990e-01,8.890629e-01,4,4,6.596350e-01,6.566059e-01
2.010372e+00,3.235060e-01,3.161430e-01,7,1,1.642373e+00,1.637870e+00
1.730626e+00,8.599620e-01,8.530617e-01,6,4,9.178051e-01,9.154412e-01
3.465314e+00,3.244760e-01,3.161430e-01,12,1,6.609202e-01,6.539796e-01
3.467520e+00,1.418940e-01,1.339912e-01,12,0,4.983729e-01,4.934472e-01
3.464683e+00,1.423670e-01,1.349449e-01,12,0,4.330215e-01,4.248772e-01
1.158029e+00,1.423910e-01,1.349449e-01,4,0,4.427822e-01,4.427369e-01
1.156720e+00,1.270139e+00,1.262903e+00,4,6,7.905792e-01,7.868320e-01
2.011313e+00,8.584220e-01,8.499622e-01,7,4,6.630964e-01,6.626918e-01
1.152493e+00,5.044180e-01,4.971027e-01,4,2,5.574930e-01,5.571623e-01
3.181197e+00,1.469970e-01,1.389980e-01,11,0,6.080897e-01,6.065969e-01
1.157422e+00,1.267552e+00,1.260042e+00,4,6,8.286763e-01,8.240009e-01
2.010505e+00,5.069280e-01,4.990101e-01,7,2,1.325654e+00,1.315736e+00
2.012162e+00,1.371521e+00,1.363993e+00,7,7,2.557643e+00,2.528599e+00
2.012616e+00,1.149537e+00,1.142025e+00,7,6,3.227996e+00,3.198475e+00
2.036382e+00,1.305338e+00,1.297951e+00,7,7,2.749091e+00,2.733837e+00
2.020642e+00,1.352352e+00,1.344919e+00,7,7,2.970416e+00,2.963810e+00
1.726528e+00,1.364968e+00,1.357079e+00,6,7,2.376991e+00,2.359792e+00
2.018306e+00,3.108550e-01,3.030300e-01,7,1,2.301740e+00,2.296744e+00
2.011153e+00,3.077620e-01,2.999306e-01,7,1,2.236251e+00,2.231083e+00
2.017412e+00,1.358513e+00,1.350880e+00,7,7,1.719476e+00,1.712074e+00
2.015370e+00,6.483570e-01,6.411076e-01,7,3,1.415740e+00,1.411326e+00
2.012911e+00,1.012872e+00,1.004934e+00,7,5,1.070060e+00,1.067743e+00
2.041080e+00,6.934350e-01,6.849766e-01,7,3,1.001110e+00,9.926282e-01
2.010397e+00,5.007640e-01,4.930496e-01,7,2,1.092890e+00,1.089498e+00
2.010223e+00,1.436860e-01,1.358986e-01,7,0,1.481117e+00,1.478173e+00
2.011668e+00,8.616130e-01,8.540154e-01,7,4,2.902642e+00,2.897327e+00
2.011883e+00,8.353740e-01,8.280277e-01,7,4,3.206614e+00,3.184844e+00
2.009520e+00,8.175700e-01,8.101463e-01,7,4,3.477922e+00,3.455858e+00
2.012676e+00,8.134050e-01,8.049011e-01,7,4,3.057087e+00,3.047183e+00
2.034314e+00,4.902120e-01,4.830360e-01,7,2,2.915719e+00,2.905629e+00
2.010648e+00,1.358224e+00,1.349926e+00,7,7,3.367543e+00,3.342628e+00
2.036070e+00,1.155767e+00,1.147985e+00,7,6,2.979828e+00,2.966689e+00
1.727926e+00,1.136634e+00,1.128912e+00,6,6,2.434255e+00,2.414138e+00
1.446802e+00,9.792800e-01,9.720325e-01,5,5,1.803104e+00,1.797111e+00
2.010907e+00,6.364820e-01,6.279945e-01,7,3,1.430909e+00,1.423466e+00
2.011647e+00,6.598430e-01,6.520748e-01,7,3,1.117720e+00,1.109675e+00
2.012482e+00,6.704170e-01,6.630421e-01,7,3,1.066654e+00,1.058455e+00
2.009851e+00,4.781870e-01,4.708767e-01,7,2,1.213136e+00,1.208305e+00
2.009686e+00,1.198850e+00,1.191139e+00,7,6,6.126590e-01,6.111541e-01
1.727196e+00,5.060300e-01,4.980564e-01,6,2,5.236736e-01,5.161332e-01
1.728748e+00,3.210820e-01,3.139973e-01,6,1,6.070083e-01,6.022023e-01
1.727431e+00,3.232250e-01,3.149509e-01,6,1,3.447632e-01,3.442631e-01
2.873737e+00,3.246070e-01,3.168583e-01,10,1,3.514908e-01,3.470734e-01
1.161075e+00,1.414170e-01,1.339912e-01,4,0,2.649715e-01,2.647950e-01
2.027084e+00,1.416920e-01,1.349449e-01,7,0,2.600187e-01,2.597994e-01
2.893406e+00,5.206880e-01,5.128384e-01,10,2,3.432857e-01,3.408374e-01
3.456914e+00,5.107160e-01,5.028248e-01,12,2,3.467110e-01,3.381949e-01
1.160152e+00,1.420030e-01,1.339912e-01,4,0,3.542219e-01,3.540855e-01
1.437577e+00,3.316950e-01,3.240108e-01,5,1,3.303954e-01,3.294708e-01
2.311484e+00,3.290900e-01,3.209114e-01,8,1,2.814968e-01,2.652458e-01
1.723972e+00,1.416760e-01,1.342297e-01,6,0,2.856534e-01,2.846959e-01
2.046322e+00,3.321820e-01,3.240108e-01,7,1,8.840024e-01,8.837296e-01
2.973722e+00,1.866325e+00,1.857996e+00,10,9,1.966030e+00,1.963008e+00
2.071905e+00,1.245552e+00,1.238108e+00,7,6,2.526375e+00,2.514527e+00
2.075864e+00,8.514700e-01,8.430481e-01,7,4,1.966779e+00,1.958983e+00
1.777780e+00,3.250370e-01,3.168583e-01,6,1,2.120715e+00,2.109075e+00
2.070545e+00,1.046964e+00,1.039028e+00,7,5,1.918038e+00,1.909129e+00
1.785488e+00,1.133303e+00,1.125097e+00,6,5,1.629157e+00,1.599366e+00
1.483394e+00,2.132047e+00,2.124071e+00,5,11,1.084185e+00,1.081972e+00
2.069963e+00,3.203140e-01,3.120899e-01,7,1,1.003230e+00,9.941467e-01
2.070423e+00,1.397460e-01,1.320839e-01,7,0,2.061922e+00,2.039123e+00
2.071575e+00,4.990560e-01,4.911423e-01,7,2,2.846521e+00,2.820847e+00
2.070461e+00,1.399586e+00,1.391888e+00,7,7,3.293975e+00,3.261642e+00
2.073974e+00,1.376222e+00,1.368046e+00,7,7,2.529631e+00,2.515057e+00
1.782602e+00,1.569051e+00,1.560926e+00,6,8,1.867703e+00,1.840545e+00
2.072424e+00,1.424783e+00,1.416922e+00,7,7,1.264919e+00,1.261049e+00
1.187941e+00,1.425749e+00,1.417875e+00,4,7,9.397971e-01,9.280987e-01
2.070185e+00,5.070150e-01,4.990101e-01,7,2,1.399100e+00,1.389321e+00
2.068567e+00,4.986020e-01,4.909039e-01,7,2,1.408992e+00,1.402520e+00
2.070686e+00,5.028210e-01,4.951954e-01,7,2,1.011330e+00,1.009100e+00
2.072579e+00,3.265260e-01,3.190041e-01,7,1,1.067114e+00,1.065930e+00
2.077418e+00,5.152200e-01,5.071163e-01,7,2,1.249731e+00,1.249172e+00
1.775387e+00,3.441990e-01,3.359318e-01,6,1,1.297192e+00,1.287481e+00
2.076691e+00,1.449880e-01,1.370907e-01,7,0,1.603573e+00,1.602565e+00
3.268921e+00,7.035920e-01,6.949902e-01,11,3,1.335718e+00,1.318474e+00
1.186074e+00,3.421800e-01,3.340244e-01,4,1,1.701195e+00,1.699180e+00
2.069492e+00,3.339360e-01,3.259182e-01,7,1,1.645876e+00,1.644701e+00
1.779582e+00,1.456750e-01,1.380444e-01,6,0,1.348244e+00,1.348008e+00
2.385812e+00,7.316010e-01,7.238388e-01,8,3,1.059665e+00,1.059212e+00
2.075002e+00,7.157480e-01,7.081032e-01,7,3,1.095909e+00,1.091924e+00
2.068328e+00,1.428830e-01,1.351833e-01,7,0,1.022454e+00,1.019508e+00
2.070306e+00,5.081000e-01,5.011559e-01,7,2,6.102906e-01,6.086825e-01
1.780300e+00,3.335850e-01,3.261566e-01,6,1,5.881144e-01,5.818279e-01
2.370893e+00,7.044730e-01,6.968975e-01,8,3,3.655405e-01,3.648003e-01
1.489827e+00,3.425160e-01,3.349781e-01,5,1,3.852149e-01,3.849912e-01
1.479658e+00,1.456540e-01,1.370907e-01,5,0,3.075601e-01,3.058927e-01
2.961003e+00,3.390070e-01,3.311634e-01,10,1,2.625738e-01,2.625137e-01
1.484398e+00,1.460610e-01,1.389980e-01,5,0,2.191912e-01,2.181530e-01
2.078861e+00,1.461180e-01,1.380444e-01,7,0,2.789562e-01,2.772713e-01
2.967095e+00,1.510090e-01,1.430511e-01,10,0,1.233848e-01,1.203143e-01
1.483918e+00,1.459890e-01,1.380444e-01,5,0,9.655984e-02,9.645265e-02
1.194124e+00,1.455580e-01,1.380444e-01,4,0,1.059369e-01,1.059338e-01
8.935690e-01,1.457300e-01,1.380444e-01,3,0,1.000807e-01,1.000788e-01
8.934210e-01,1.458220e-01,1.380444e-01,3,0,1.225679e-01,1.225652e-01
8.938310e-01,1.455260e-01,1.380444e-01,3,0,2.196501e-01,2.196443e-01
1.190893e+00,1.457750e-01,1.389980e-01,4,0,1.385334e-01,1.385123e-01
1.484393e+00,3.468080e-01,3.390312e-01,5,1,2.162722e-01,2.153074e-01
2.072444e+00,3.410570e-01,3.340244e-01,7,1,3.748248e-01,3.740426e-01
2.963416e+00,5.202000e-01,5.128384e-01,10,2,2.375605e-01,2.374879e-01
8.933920e-01,1.464320e-01,1.380444e-01,3,0,2.927191e-01,2.927124e-01
1.189560e+00,1.458410e-01,1.378059e-01,4,0,3.124515e-01,3.124515e-01
8.944880e-01,3.474040e-01,3.390312e-01,3,1,4.048634e-01,4.045703e-01
2.960102e+00,3.332900e-01,3.259182e-01,10,1,3.263875e-01,3.261826e-01
8.938590e-01,1.457780e-01,1.380444e-01,3,0,2.130559e-01,2.127735e-01
3.278198e+00,1.458790e-01,1.378059e-01,11,0,1.410983e-01,1.265260e-01
1.184774e+00,1.457920e-01,1.380444e-01,4,0,2.111653e-01,2.100062e-01
2.970326e+00,1.459540e-01,1.380444e-01,10,0,1.948304e-01,1.730273e-01
2.977657e+00,1.461570e-01,1.389980e-01,10,0,1.580195e-01,1.449165e-01
3.574450e+00,1.456170e-01,1.380444e-01,12,0,3.409171e-01,3.400883e-01
2.977762e+00,1.457710e-01,1.378059e-01,10,0,2.433147e-01,2.355499e-01
1.194883e+00,1.458110e-01,1.380444e-01,4,0,3.858624e-01,3.858620e-01
8.939420e-01,1.463030e-01,1.380444e-01,3,0,7.722440e-01,7.722432e-01
9.046930e-01,7.285020e-01,7.200241e-01,3,3,5.718900e-01,5.693261e-01
1.728008e+00,5.098410e-01,5.018711e-01,6,2,4.588808e-01,4.578925e-01
2.016264e+00,3.313630e-01,3.240108e-01,7,1,9.180444e-01,9.170854e-01
1.729755e+00,1.409970e-01,1.330376e-01,6,0,1.166767e+00,1.162483e+00
1.726381e+00,3.235200e-01,3.161430e-01,6,1,5.002994e-01,4.983444e-01
2.300821e+00,3.242740e-01,3.170967e-01,8,1,3.304059e-01,3.272275e-01
1.157201e+00,1.413130e-01,1.339912e-01,4,0,3.419008e-01,3.410724e-01
1.725939e+00,1.415610e-01,1.339912e-01,6,0,1.520437e-01,1.516024e-01
1.441240e+00,3.322560e-01,3.249645e-01,5,1,1.190791e-01,1.188831e-01
2.010690e+00,1.414750e-01,1.339912e-01,7,0,2.287429e-01,2.286655e-01
1.726927e+00,1.416180e-01,1.342297e-01,6,0,1.987016e-01,1.977522e-01
1.151192e+00,5.148360e-01,5.078316e-01,4,2,2.348555e-01,2.331374e-01
2.012539e+00,5.234400e-01,5.149841e-01,7,2,5.225265e-01,5.198959e-01
1.722251e+00,5.079070e-01,5.011559e-01,6,2,3.651892e-01,3.647590e-01
3.195605e+00,3.299200e-01,3.221035e-01,11,1,3.311899e-01,3.308258e-01
8.692070e-01,3.473240e-01,3.390312e-01,3,1,3.414497e-01,3.404341e-01
3.486290e+00,3.243260e-01,3.168583e-01,12,1,2.648179e-01,2.546220e-01
1.448089e+00,1.425980e-01,1.349449e-01,5,0,2.931927e-01,2.930290e-01
1.749902e+00,1.417370e-01,1.339912e-01,6,0,4.268864e-01,4.268261e-01
1.444040e+00,1.473200e-01,1.399517e-01,5,0,2.858878e-01,2.856755e-01
2.343945e+00,1.412410e-01,1.342297e-01,8,0,3.562103e-01,3.469320e-01
8.696770e-01,1.421420e-01,1.349449e-01,3,0,4.115423e-01,4.112326e-01
1.155979e+00,1.417100e-01,1.351833e-01,4,0,4.715564e-01,4.714239e-01
1.157738e+00,5.271840e-01,5.199909e-01,4,2,6.298355e-01,6.282768e-01
1.731897e+00,3.228440e-01,3.149509e-01,6,1,3.276399e-01,3.255549e-01
1.153535e+00,7.327440e-01,7.250309e-01,4,3,3.299182e-01,3.281033e-01
2.009505e+00,3.285210e-01,3.211498e-01,7,1,3.433245e-01,3.423268e-01
1.727403e+00,1.404430e-01,1.330376e-01,6,0,3.639360e-01,3.586481e-01
1.721882e+00,6.968940e-01,6.890297e-01,6,3,2.207557e-01,2.162454e-01
3.170144e+00,5.098470e-01,5.018711e-01,11,2,6.929875e-01,6.851333e-01
1.720594e+00,5.284850e-01,5.209446e-01,6,2,4.656166e-01,4.580709e-01
2.903770e+00,3.278470e-01,3.211498e-01,10,1,4.304851e-01,4.233495e-01
2.010247e+00,3.245010e-01,3.168583e-01,7,1,3.862214e-01,3.858182e-01
1.154423e+00,7.140530e-01,7.059574e-01,4,3,3.622152e-01,3.601599e-01
1.729206e+00,3.210550e-01,3.139973e-01,6,1,2.571927e-01,2.518863e-01
2.302804e+00,3.232560e-01,3.149509e-01,8,1,3.862117e-01,3.836548e-01
1.728044e+00,1.415780e-01,1.339912e-01,6,0,4.421403e-01,4.410018e-01
3.456715e+00,3.244870e-01,3.170967e-01,12,1,3.953280e-01,3.915685e-01
1.154115e+00,5.261730e-01,5.190372e-01,4,2,4.379813e-01,4.367070e-01
1.723749e+00,3.230210e-01,3.159046e-01,6,1,3.093124e-01,3.077590e-01
1.152567e+00,1.082672e+00,1.075029e+00,4,5,3.014366e-01,2.993322e-01
2.011932e+00,6.862000e-01,6.790161e-01,7,3,2.308988e-01,2.294605e-01
1.152934e+00,6.887650e-01,6.809235e-01,4,3,1.956381e-01,1.949635e-01
2.332564e+00,1.417550e-01,1.351833e-01,8,0,1.686204e-01,1.686110e-01
1.158193e+00,3.340590e-01,3.268719e-01,4,1,2.757341e-01,2.754063e-01
1.464605e+00,5.200430e-01,5.121231e-01,5,2,1.646901e-01,1.638120e-01
1.178898e+00,3.236810e-01,3.159046e-01,4,1,2.349580e-01,2.348928e-01
1.155647e+00,1.421960e-01,1.349449e-01,4,0,2.060615e-01,2.057717e-01
1.152430e+00,1.412470e-01,1.339912e-01,4,0,2.451539e-01,2.449552e-01
1.154801e+00,1.523900e-01,1.449585e-01,4,0,3.174562e-01,3.173334e-01
1.156405e+00,1.415180e-01,1.339912e-01,4,0,2.548788e-01,2.548727e-01
1.157529e+00,1.266892e+00,1.259804e+00,4,6,7.727434e-01,7.678861e-01
2.011799e+00,6.863950e-01,6.780624e-01,7,3,1.813397e+00,1.801553e+00
2.013144e+00,6.644490e-01,6.570816e-01,7,3,1.337553e+00,1.332623e+00
2.012162e+00,1.038117e+00,1.029968e+00,7,5,1.039036e+00,1.038782e+00
1.157469e+00,3.230150e-01,3.149509e-01,4,1,8.486687e-01,8.476754e-01
1.443118e+00,1.418170e-01,1.339912e-01,5,0,9.129708e-01,9.129033e-01
1.155454e+00,1.414050e-01,1.339912e-01,4,0,7.047881e-01,7.046980e-01
1.156440e+00,3.374030e-01,3.290176e-01,4,1,5.912713e-01,5.907844e-01
1.730497e+00,1.414170e-01,1.339912e-01,6,0,5.439997e-01,5.384764e-01
2.011627e+00,3.314310e-01,3.240108e-01,7,1,5.436099e-01,5.430948e-01
2.010951e+00,5.096770e-01,5.018711e-01,7,2,4.154613e-01,4.146106e-01
1.159019e+00,1.809016e+00,1.801968e+00,4,9,5.594731e-01,5.489361e-01
2.010271e+00,1.368680e-01,1.292229e-01,7,0,9.471104e-01,9.397126e-01
2.008764e+00,4.872080e-01,4.799366e-01,7,2,6.976100e-01,6.920979e-01
2.012379e+00,4.892350e-01,4.820824e-01,7,2,3.207740e-01,3.181069e-01
2.012208e+00,8.610920e-01,8.540154e-01,7,4,1.779523e-01,1.778132e-01
1.149693e+00,3.237420e-01,3.159046e-01,4,1,1.894071e-01,1.891412e-01
1.155210e+00,3.326690e-01,3.240108e-01,4,1,2.266060e-01,2.260447e-01
1.156481e+00,3.241660e-01,3.170967e-01,4,1,3.133705e-01,3.133116e-01
1.154950e+00,1.414270e-01,1.339912e-01,4,0,2.059275e-01,2.059272e-01
8.693970e-01,3.321720e-01,3.252029e-01,3,1,2.504787e-01,2.499816e-01
2.009780e+00,3.488180e-01,3.409386e-01,7,1,2.940128e-01,2.936765e-01
1.156182e+00,1.415620e-01,1.339912e-01,4,0,3.001747e-01,3.001667e-01
8.690750e-01,3.322620e-01,3.249645e-01,3,1,5.056992e-01,5.051357e-01
2.874423e+00,3.236230e-01,3.159046e-01,10,1,2.739486e-01,2.739382e-01
8.671590e-01,1.419160e-01,1.339912e-01,3,0,2.251678e-01,2.251678e-01
1.161004e+00,1.080513e+00,1.072884e+00,4,5,8.753034e-01,8.713045e-01
2.011146e+00,6.757030e-01,6.680489e-01,7,3,1.064447e+00,1.064014e+00
1.440058e+00,5.098620e-01,5.021095e-01,5,2,4.794447e-01,4.790629e-01
1.449204e+00,1.411260e-01,1.339912e-01,5,0,5.058719e-01,5.058049e-01
1.157244e+00,1.418590e-01,1.339912e-01,4,0,4.422209e-01,4.421966e-01
8.685930e-01,1.415610e-01,1.339912e-01,3,0,4.526313e-01,4.524967e-01
1.159006e+00,1.417090e-01,1.339912e-01,4,0,2.127323e-01,2.127246e-01
8.697410e-01,1.415470e-01,1.339912e-01,3,0,1.703140e-01,1.703030e-01
8.693910e-01,5.192400e-01,5.118847e-01,3,2,2.756602e-01,2.748878e-01
2.009535e+00,3.219050e-01,3.149509e-01,7,1,3.396390e-01,3.395712e-01
1.723953e+00,1.461110e-01,1.380444e-01,6,0,4.146578e-01,4.130938e-01
2.885490e+00,3.280060e-01,3.201962e-01,10,1,2.940517e-01,2.715630e-01
1.448176e+00,5.203180e-01,5.121231e-01,5,2,2.630254e-01,2.613638e-01
2.010917e+00,6.990700e-01,6.911755e-01,7,3,4.164582e-01,4.133710e-01
2.011334e+00,1.443810e-01,1.368523e-01,7,0,5.336998e-01,5.314057e-01
2.017296e+00,4.960260e-01,4.880428e-01,7,2,5.634959e-01,5.627765e-01
1.729861e+00,1.402490e-01,1.318455e-01,6,0,8.469066e-01,8.401549e-01
1.722947e+00,5.322490e-01,5.240440e-01,6,2,7.949161e-01,7.911021e-01
2.017462e+00,3.373340e-01,3.299713e-01,7,1,1.248434e+00,1.247896e+00
3.549124e+00,5.310100e-01,5.230904e-01,12,2,4.984132e-01,4.955657e-01
1.162360e+00,5.418610e-01,5.328655e-01,4,2,4.373831e-01,4.347304e-01
2.012983e+00,8.806010e-01,8.730888e-01,7,4,7.471964e-01,7.410780e-01
2.012408e+00,8.993420e-01,8.769035e-01,7,4,3.787629e-01,3.781670e-01
2.323685e+00,5.158370e-01,5.080700e-01,8,2,3.990374e-01,3.981932e-01
1.439302e+00,3.447710e-01,3.368855e-01,5,1,2.744824e-01,2.744586e-01
2.038523e+00,3.238430e-01,3.170967e-01,7,1,1.383455e-01,1.377664e-01
1.156459e+00,1.420010e-01,1.339912e-01,4,0,3.255574e-01,3.242739e-01
3.172344e+00,1.410890e-01,1.339912e-01,11,0,3.253081e-01,3.168614e-01
1.154502e+00,1.412460e-01,1.330376e-01,4,0,2.090000e-01,2.087406e-01
1.158576e+00,5.213070e-01,5.130768e-01,4,2,5.616837e-01,5.610352e-01
2.294547e+00,3.280940e-01,3.199577e-01,8,1,2.946054e-01,2.930658e-01
2.882487e+00,3.235860e-01,3.159046e-01,10,1,1.642542e-01,1.608792e-01
3.172798e+00,1.411920e-01,1.330376e-01,11,0,1.635475e-01,1.617859e-01
2.309944e+00,1.463300e-01,1.380444e-01,8,0,2.392570e-01,2.363339e-01
1.156592e+00,1.414950e-01,1.339912e-01,4,0,3.735783e-01,3.735694e-01
1.157421e+00,3.371900e-01,3.287792e-01,4,1,6.209146e-01,6.208253e-01
1.152942e+00,1.261874e+00,1.255035e+00,4,6,6.386884e-01,6.355289e-01
2.012253e+00,5.096700e-01,5.021095e-01,7,2,9.675673e-01,9.627932e-01
2.010790e+00,1.028334e+00,1.020908e+00,7,5,4.131800e-01,4.124453e-01
2.878277e+00,5.027600e-01,4.949570e-01,10,2,3.418267e-01,3.314370e-01
1.446401e+00,3.641000e-01,3.559589e-01,5,1,2.165522e-01,2.164618e-01
1.438974e+00,1.415610e-01,1.339912e-01,5,0,2.101994e-01,2.101428e-01
2.009144e+00,7.030270e-01,6.949902e-01,7,3,4.712246e-01,4.684429e-01
2.011235e+00,6.801070e-01,6.721020e-01,7,3,5.843464e-01,5.841397e-01
2.012290e+00,8.948100e-01,8.869171e-01,7,4,6.526445e-01,6.498082e-01
2.018191e+00,5.023900e-01,4.940033e-01,7,2,5.761556e-01,5.750478e-01
1.729888e+00,1.400830e-01,1.330376e-01,6,0,6.648487e-01,6.587603e-01
2.011813e+00,3.261020e-01,3.190041e-01,7,1,9.961490e-01,9.931592e-01
2.018315e+00,3.255020e-01,3.180504e-01,7,1,1.146464e+00,1.143813e+00
1.725772e+00,1.236122e+00,1.228094e+00,6,6,7.681594e-01,7.620468e-01
3.170563e+00,3.496170e-01,3.421307e-01,11,1,6.408966e-01,6.371231e-01
2.009922e+00,1.056325e+00,1.049042e+00,7,5,1.007495e+00,1.005225e+00
1.154394e+00,1.079103e+00,1.070976e+00,4,5,5.367668e-01,5.345600e-01
2.006865e+00,1.397570e-01,1.330376e-01,7,0,4.178110e-01,4.154962e-01
1.728943e+00,1.254147e+00,1.241922e+00,6,6,5.379105e-01,5.297581e-01
1.152321e+00,5.047230e-01,4.971027e-01,4,2,6.772995e-01,6.750243e-01
3.197674e+00,1.414500e-01,1.339912e-01,11,0,9.167598e-01,9.125844e-01
2.016931e+00,5.215840e-01,5.140305e-01,7,2,4.113482e-01,4.075666e-01
2.037337e+00,7.073690e-01,6.999969e-01,7,3,4.021897e-01,3.994536e-01
2.036407e+00,1.397350e-01,1.330376e-01,7,0,5.378088e-01,5.354114e-01
2.018041e+00,3.180350e-01,3.099442e-01,7,1,6.476571e-01,6.463992e-01
2.006935e+00,8.606770e-01,8.528233e-01,7,4,4.354644e-01,4.351560e-01
1.722719e+00,1.462080e-01,1.378059e-01,6,0,4.542263e-01,4.487172e-01
2.008567e+00,5.282320e-01,5.209446e-01,7,2,2.791360e-01,2.781310e-01
1.725923e+00,3.232520e-01,3.159046e-01,6,1,2.251385e-01,2.248119e-01

