2.045746e+00,1.895160e+00,2,2,0.000000e+00,0.000000e+00
3.057727e+00,2.813430e+00,3,3,7.551209e-02,7.551208e-02
3.067406e+00,2.804323e+00,3,3,1.395620e-01,1.395620e-01
3.060559e+00,2.804170e+00,3,3,2.946822e-01,2.946821e-01
3.062069e+00,2.804676e+00,3,3,2.716495e-01,2.716494e-01
3.060279e+00,2.805870e+00,3,3,1.276166e+00,1.276166e+00
3.061940e+00,2.800460e+00,3,3,1.779663e+00,1.779662e+00
3.061477e+00,2.798908e+00,3,3,2.335722e+00,2.335721e+00
3.065200e+00,2.802738e+00,3,3,1.148687e+00,1.148687e+00
3.062958e+00,2.803320e+00,3,3,1.018461e+00,1.018461e+00
3.063516e+00,2.803901e+00,3,3,8.424528e-01,8.424527e-01
3.063406e+00,2.805812e+00,3,3,9.746404e-01,9.746401e-01
3.061421e+00,2.803957e+00,3,3,1.616753e+00,1.616753e+00
3.061174e+00,2.803283e+00,3,3,2.206612e+00,2.206612e+00
3.064145e+00,2.811140e+00,3,3,2.022702e+00,2.022702e+00
3.064716e+00,2.796775e+00,3,3,2.825380e+00,2.825379e+00
3.063410e+00,2.799129e+00,3,3,2.206349e+00,2.206349e+00
3.063356e+00,2.801566e+00,3,3,1.931090e+00,1.931090e+00
3.063230e+00,2.806574e+00,3,3,1.844837e+00,1.844837e+00
3.064598e+00,2.807831e+00,3,3,1.758302e+00,1.758302e+00
3.064391e+00,2.804393e+00,3,3,1.840509e+00,1.840509e+00
3.062112e+00,2.803075e+00,3,3,1.533955e+00,1.533955e+00
3.062870e+00,2.806726e+00,3,3,1.381534e+00,1.381534e+00
3.062444e+00,2.803526e+00,3,3,1.204581e+00,1.204581e+00
3.062565e+00,2.797730e+00,3,3,1.188903e+00,1.188903e+00
3.067269e+00,2.800819e+00,3,3,1.149710e+00,1.149709e+00
3.063609e+00,2.805402e+00,3,3,9.518773e-01,9.518772e-01
3.062153e+00,2.805522e+00,3,3,6.794437e-01,6.794437e-01
3.061058e+00,2.806019e+00,3,3,3.431006e-01,3.431005e-01
3.061778e+00,2.806923e+00,3,3,2.960828e-01,2.960828e-01
3.061842e+00,2.801836e+00,3,3,5.896100e-01,5.896099e-01
3.061921e+00,2.800878e+00,3,3,6.941781e-01,6.941780e-01
3.059833e+00,2.803190e+00,3,3,5.984791e-01,5.984791e-01
3.059492e+00,2.798502e+00,3,3,9.215441e-01,9.215438e-01
3.064531e+00,2.800545e+00,3,3,7.538886e-01,7.538886e-01
3.063594e+00,2.804734e+00,3,3,5.559930e-01,5.559930e-01
3.063303e+00,2.805361e+00,3,3,4.066880e-01,4.066879e-01
3.062477e+00,2.807571e+00,3,3,3.376782e-01,3.376782e-01
3.059757e+00,2.805870e+00,3,3,8.606972e-01,8.606970e-01
3.063046e+00,2.807059e+00,3,3,9.504779e-01,9.504779e-01
3.063194e+00,2.801240e+00,3,3,2.139476e+00,2.139475e+00
3.060251e+00,2.804679e+00,3,3,2.927873e+00,2.927872e+00
3.064691e+00,2.798164e+00,3,3,1.852340e+00,1.852340e+00
3.063839e+00,2.807244e+00,3,3,2.797935e+00,2.797934e+00
3.063574e+00,2.804908e+00,3,3,2.235884e+00,2.235884e+00
3.064493e+00,2.805381e+00,3,3,1.808748e+00,1.808748e+00
3.062008e+00,2.804844e+00,3,3,1.619818e+00,1.619818e+00
3.061808e+00,2.797516e+00,3,3,1.344300e+00,1.344300e+00
3.062558e+00,2.800275e+00,3,3,1.080028e+00,1.080028e+00
3.062061e+00,2.801630e+00,3,3,6.876477e-01,6.876478e-01
3.060349e+00,2.789642e+00,3,3,6.177118e-01,6.177118e-01
3.064415e+00,2.793176e+00,3,3,9.829237e-01,9.829235e-01
3.062315e+00,2.802487e+00,3,3,7.168845e-01,7.168845e-01
3.064580e+00,2.802107e+00,3,3,6.110375e-01,6.110375e-01
3.061954e+00,2.800327e+00,3,3,8.078105e-01,8.078103e-01
3.060690e+00,2.802737e+00,3,3,1.109397e+00,1.109397e+00
3.060456e+00,2.802892e+00,3,3,5.988311e-01,5.988312e-01
3.064140e+00,2.802739e+00,3,3,9.244303e-01,9.244301e-01
3.060812e+00,2.794954e+00,3,3,1.306200e+00,1.306200e+00
3.060972e+00,2.794507e+00,3,3,1.969784e+00,1.969784e+00
3.064959e+00,2.804750e+00,3,3,8.942516e-01,8.942515e-01
3.065641e+00,2.802891e+00,3,3,1.939670e+00,1.939670e+00
3.060399e+00,2.802816e+00,3,3,3.653224e+00,3.653222e+00
3.065792e+00,2.806210e+00,3,3,1.983768e+00,1.983769e+00
3.062973e+00,2.802768e+00,3,3,2.724662e+00,2.724662e+00
3.063579e+00,2.800882e+00,3,3,1.182476e+00,1.182477e+00
3.061391e+00,2.800032e+00,3,3,1.263766e+00,1.263765e+00
3.060418e+00,2.800281e+00,3,3,9.845569e-01,9.845568e-01
3.066318e+00,2.798396e+00,3,3,7.762216e-01,7.762215e-01
3.060003e+00,2.802662e+00,3,3,5.908725e-01,5.908723e-01
3.064187e+00,2.800385e+00,3,3,8.816922e-01,8.816920e-01
3.061912e+00,2.803043e+00,3,3,9.003221e-01,9.003220e-01
3.061438e+00,2.801021e+00,3,3,9.129589e-01,9.129589e-01
3.061493e+00,2.798729e+00,3,3,1.029772e+00,1.029772e+00
3.060349e+00,2.801635e+00,3,3,1.502112e+00,1.502111e+00
3.059845e+00,2.801665e+00,3,3,2.017964e+00,2.017964e+00
3.064578e+00,2.801619e+00,3,3,1.214734e+00,1.214734e+00
3.062110e+00,2.796248e+00,3,3,1.209877e+00,1.209877e+00
3.062487e+00,2.799098e+00,3,3,8.937066e-01,8.937067e-01
3.061195e+00,2.800468e+00,3,3,4.433705e-01,4.433705e-01
3.060295e+00,2.798957e+00,3,3,1.527408e+00,1.527407e+00
3.061996e+00,2.804544e+00,3,3,1.130289e+00,1.130289e+00
3.059857e+00,2.800597e+00,3,3,1.011827e+00,1.011827e+00
3.062485e+00,2.797014e+00,3,3,9.740373e-01,9.740371e-01
3.061704e+00,2.791784e+00,3,3,1.400943e+00,1.400943e+00
3.064568e+00,2.794848e+00,3,3,2.512776e+00,2.512775e+00
3.064008e+00,2.797788e+00,3,3,3.760615e+00,3.760614e+00
3.064859e+00,2.798751e+00,3,3,5.483422e+00,5.483421e+00
3.065694e+00,2.795438e+00,3,3,4.458068e+00,4.458068e+00
3.064148e+00,2.798707e+00,3,3,3.182344e+00,3.182344e+00
3.062619e+00,2.801328e+00,3,3,2.454092e+00,2.454092e+00
3.062415e+00,2.798800e+00,3,3,1.719396e+00,1.719396e+00
3.058980e+00,2.793579e+00,3,3,2.433286e+00,2.433285e+00
3.065189e+00,2.792559e+00,3,3,1.807900e+00,1.807900e+00
3.060485e+00,2.798686e+00,3,3,2.327531e+00,2.327532e+00
3.063845e+00,2.797989e+00,3,3,2.510070e+00,2.510071e+00
3.062134e+00,2.800619e+00,3,3,1.084533e+00,1.084533e+00
3.060756e+00,2.796243e+00,3,3,9.374212e-01,9.374212e-01
3.060520e+00,2.798887e+00,3,3,1.319559e+00,1.319559e+00
3.058936e+00,2.798107e+00,3,3,1.415890e+00,1.415890e+00
3.060773e+00,2.792278e+00,3,3,1.066767e+00,1.066767e+00
3.063220e+00,2.790832e+00,3,3,1.238102e+00,1.238102e+00
3.060419e+00,2.796546e+00,3,3,7.214974e-01,7.214974e-01
3.061005e+00,2.798783e+00,3,3,6.568652e-01,6.568652e-01
3.060756e+00,2.801817e+00,3,3,5.438516e-01,5.438516e-01
3.061644e+00,2.798780e+00,3,3,5.784203e-01,5.784202e-01
3.061453e+00,2.796930e+00,3,3,8.078970e-01,8.078968e-01
3.060323e+00,2.798574e+00,3,3,8.817771e-01,8.817770e-01
3.058880e+00,2.791080e+00,3,3,5.667882e-01,5.667882e-01
3.061239e+00,2.791547e+00,3,3,5.720608e-01,5.720608e-01
3.062235e+00,2.798462e+00,3,3,5.279838e-01,5.279837e-01
3.062401e+00,2.798580e+00,3,3,4.518010e-01,4.518008e-01
3.058881e+00,2.799757e+00,3,3,3.135726e-01,3.135726e-01
3.058890e+00,2.798317e+00,3,3,5.541243e-01,5.541241e-01
3.057936e+00,2.796825e+00,3,3,2.932878e-01,2.932878e-01
3.058314e+00,2.797182e+00,3,3,3.389798e-01,3.389798e-01
3.060729e+00,2.796394e+00,3,3,8.799551e-01,8.799547e-01
3.058876e+00,2.789876e+00,3,3,6.417447e-01,6.417447e-01
3.057407e+00,2.798404e+00,3,3,2.071143e+00,2.071142e+00
3.060914e+00,2.801328e+00,3,3,1.435506e+00,1.435506e+00
3.060922e+00,2.798741e+00,3,3,1.390175e+00,1.390175e+00
3.058164e+00,2.803843e+00,3,3,1.731344e+00,1.731343e+00
3.062010e+00,2.800422e+00,3,3,1.563279e+00,1.563279e+00
3.061207e+00,2.799515e+00,3,3,1.722313e+00,1.722312e+00
3.059123e+00,2.797409e+00,3,3,3.041310e+00,3.041309e+00
3.061460e+00,2.793672e+00,3,3,1.973577e+00,1.973578e+00
3.059978e+00,2.797000e+00,3,3,1.500037e+00,1.500037e+00
3.062133e+00,2.798058e+00,3,3,1.307087e+00,1.307087e+00
3.058064e+00,2.798851e+00,3,3,7.837205e-01,7.837202e-01
3.062459e+00,2.798087e+00,3,3,8.577163e-01,8.577160e-01
3.058406e+00,2.798509e+00,3,3,5.381583e-01,5.381582e-01
3.059846e+00,2.796201e+00,3,3,7.102337e-01,7.102335e-01
3.060950e+00,2.795916e+00,3,3,3.163725e-01,3.163725e-01
3.058238e+00,2.789844e+00,3,3,2.572585e-01,2.572584e-01
3.056023e+00,2.799248e+00,3,3,2.640277e-01,2.640277e-01
3.058858e+00,2.798310e+00,3,3,5.737760e-01,5.737757e-01
3.070015e+00,2.797559e+00,3,3,5.918176e-01,5.918175e-01
3.059986e+00,2.797231e+00,3,3,5.015504e-01,5.015504e-01
3.061109e+00,2.794872e+00,3,3,5.462995e-01,5.462995e-01
3.058785e+00,2.803250e+00,3,3,4.626903e-01,4.626903e-01
3.058151e+00,2.797979e+00,3,3,8.631048e-01,8.631045e-01
3.058707e+00,2.793976e+00,3,3,1.472360e+00,1.472359e+00
3.065070e+00,2.793953e+00,3,3,1.662220e+00,1.662220e+00
3.063853e+00,2.798265e+00,3,3,1.301747e+00,1.301747e+00
3.061496e+00,2.795185e+00,3,3,1.159393e+00,1.159393e+00
3.064032e+00,2.798351e+00,3,3,1.072057e+00,1.072057e+00
3.058540e+00,2.799116e+00,3,3,7.684551e-01,7.684553e-01
3.062414e+00,2.798158e+00,3,3,6.784222e-01,6.784217e-01
3.062205e+00,2.797437e+00,3,3,1.196364e+00,1.196363e+00
3.061445e+00,2.792277e+00,3,3,1.709869e+00,1.709869e+00
3.065659e+00,2.794184e+00,3,3,1.043961e+00,1.043961e+00
3.060754e+00,2.797978e+00,3,3,9.875629e-01,9.875629e-01
3.062679e+00,2.799895e+00,3,3,8.865498e-01,8.865498e-01
3.060282e+00,2.799693e+00,3,3,8.128656e-01,8.128656e-01
3.063035e+00,2.797631e+00,3,3,6.697429e-01,6.697429e-01
3.060935e+00,2.800010e+00,3,3,7.530456e-01,7.530454e-01
3.060291e+00,2.798381e+00,3,3,1.230953e+00,1.230953e+00
3.060854e+00,2.791982e+00,3,3,1.183055e+00,1.183055e+00
3.066221e+00,2.791271e+00,3,3,1.252972e+00,1.252972e+00
3.063451e+00,2.797313e+00,3,3,1.423245e+00,1.423245e+00
3.062688e+00,2.796210e+00,3,3,6.507798e-01,6.507798e-01
3.061089e+00,2.799016e+00,3,3,5.206112e-01,5.206111e-01
3.060648e+00,2.797165e+00,3,3,5.456167e-01,5.456166e-01
3.063483e+00,2.796784e+00,3,3,2.479465e-01,2.479464e-01
3.059116e+00,2.802038e+00,3,3,2.496598e-01,2.496597e-01
3.058781e+00,2.791352e+00,3,3,4.269944e-01,4.269943e-01
3.060659e+00,2.793844e+00,3,3,3.637094e-01,3.637094e-01
3.059165e+00,2.796866e+00,3,3,9.785973e-01,9.785969e-01
3.064716e+00,2.801838e+00,3,3,7.268656e-01,7.268654e-01
3.060048e+00,2.796335e+00,3,3,5.136780e-01,5.136780e-01
3.061319e+00,2.798727e+00,3,3,4.576684e-01,4.576684e-01
3.060828e+00,2.799229e+00,3,3,4.659262e-01,4.659261e-01
3.059407e+00,2.796240e+00,3,3,4.789425e-01,4.789424e-01
3.059266e+00,2.797441e+00,3,3,3.020692e-01,3.020692e-01
3.058480e+00,2.792012e+00,3,3,3.394996e-01,3.394995e-01
3.058438e+00,2.796965e+00,3,3,2.773580e-01,2.773580e-01
3.058941e+00,2.797230e+00,3,3,2.395138e-01,2.395138e-01
3.060642e+00,2.798298e+00,3,3,6.457985e-01,6.457982e-01
3.058130e+00,2.798200e+00,3,3,4.074309e-01,4.074308e-01
3.058796e+00,2.796465e+00,3,3,6.452891e-01,6.452890e-01
3.058210e+00,2.800755e+00,3,3,1.041436e+00,1.041436e+00
3.062051e+00,2.797310e+00,3,3,8.929570e-01,8.929568e-01
3.058846e+00,2.794929e+00,3,3,1.012420e+00,1.012420e+00
3.062949e+00,2.797493e+00,3,3,7.096699e-01,7.096700e-01
3.059446e+00,2.796452e+00,3,3,7.097770e-01,7.097769e-01
3.059748e+00,2.797521e+00,3,3,8.114542e-01,8.114540e-01
3.058483e+00,2.797450e+00,3,3,1.782574e+00,1.782573e+00
3.060501e+00,2.798770e+00,3,3,2.360399e+00,2.360398e+00
3.062088e+00,2.801099e+00,3,3,2.091286e+00,2.091286e+00
3.061683e+00,2.797270e+00,3,3,1.700507e+00,1.700507e+00
3.058735e+00,2.793183e+00,3,3,1.573464e+00,1.573464e+00
3.062512e+00,2.797718e+00,3,3,1.068439e+00,1.068440e+00
3.060330e+00,2.798423e+00,3,3,1.055490e+00,1.055490e+00
3.060523e+00,2.803935e+00,3,3,1.037041e+00,1.037041e+00
3.064403e+00,2.798427e+00,3,3,7.956397e-01,7.956397e-01
3.062272e+00,2.796178e+00,3,3,7.031926e-01,7.031926e-01
3.061103e+00,2.799540e+00,3,3,1.431417e+00,1.431416e+00
3.060945e+00,2.797087e+00,3,3,2.982530e+00,2.982530e+00
3.062757e+00,2.792861e+00,3,3,3.031353e+00,3.031369e+00
3.068585e+00,2.793603e+00,3,3,3.054807e+00,3.054808e+00
3.062424e+00,2.796199e+00,3,3,3.560093e+00,3.560092e+00
3.062276e+00,2.797491e+00,3,3,5.094647e+00,5.094645e+00
3.064707e+00,2.797428e+00,3,3,3.266820e+00,3.266821e+00
3.062733e+00,2.801668e+00,3,3,3.985970e+00,3.985970e+00
3.064343e+00,2.799107e+00,3,3,3.077073e+00,3.077073e+00
3.063495e+00,2.797183e+00,3,3,2.875826e+00,2.875826e+00
3.061336e+00,2.790548e+00,3,3,1.974572e+00,1.974572e+00
3.066281e+00,2.792689e+00,3,3,2.489593e+00,2.489593e+00
3.062432e+00,2.797324e+00,3,3,1.671669e+00,1.671670e+00
3.058248e+00,2.800757e+00,3,3,2.163023e+00,2.163023e+00
3.062616e+00,2.798927e+00,3,3,7.060766e-01,7.060767e-01
3.059820e+00,2.795773e+00,3,3,9.278438e-01,9.278435e-01
3.062663e+00,2.797187e+00,3,3,1.801418e+00,1.801417e+00
3.061926e+00,2.799614e+00,3,3,1.390242e+00,1.390242e+00
3.062377e+00,2.795040e+00,3,3,2.192524e+00,2.192524e+00
3.061794e+00,2.791635e+00,3,3,1.943534e+00,1.943534e+00
3.062478e+00,2.797860e+00,3,3,3.271277e+00,3.271277e+00
3.062323e+00,2.797696e+00,3,3,1.690167e+00,1.690167e+00
3.061958e+00,2.798489e+00,3,3,1.412965e+00,1.412965e+00
3.059365e+00,2.799709e+00,3,3,1.101832e+00,1.101832e+00
3.061062e+00,2.804675e+00,3,3,1.109889e+00,1.109889e+00
3.061232e+00,2.798894e+00,3,3,1.180572e+00,1.180572e+00
3.057924e+00,2.797349e+00,3,3,1.771003e+00,1.771003e+00
3.060914e+00,2.791412e+00,3,3,7.989905e-01,7.989909e-01
3.060075e+00,2.794713e+00,3,3,5.277676e-01,5.277676e-01
3.056504e+00,2.800472e+00,3,3,5.981898e-01,5.981896e-01
3.057615e+00,2.799292e+00,3,3,5.715107e-01,5.715106e-01
3.061820e+00,2.795781e+00,3,3,4.452615e-01,4.452615e-01
3.060644e+00,2.798609e+00,3,3,7.191408e-01,7.191405e-01
3.059571e+00,2.797535e+00,3,3,1.052376e+00,1.052376e+00
3.058491e+00,2.797819e+00,3,3,1.601037e+00,1.601036e+00
3.057841e+00,2.791582e+00,3,3,3.478609e+00,3.478608e+00
3.064991e+00,2.797251e+00,3,3,4.514008e+00,4.514007e+00
3.061421e+00,2.796751e+00,3,3,3.065471e+00,3.065472e+00
3.060160e+00,2.797080e+00,3,3,3.784558e+00,3.784557e+00
3.061638e+00,2.798696e+00,3,3,2.730909e+00,2.730909e+00
3.060629e+00,2.797478e+00,3,3,2.168827e+00,2.168827e+00
3.059155e+00,2.797062e+00,3,3,2.418019e+00,2.418018e+00
3.059562e+00,2.795877e+00,3,3,1.306380e+00,1.306381e+00
3.061922e+00,2.789345e+00,3,3,9.994597e-01,9.994591e-01
3.058292e+00,2.797724e+00,3,3,7.696714e-01,7.696714e-01
3.057807e+00,2.795917e+00,3,3,7.205177e-01,7.205176e-01
3.059341e+00,2.797628e+00,3,3,6.833545e-01,6.833544e-01
3.059209e+00,2.796568e+00,3,3,1.060751e+00,1.060750e+00
3.062020e+00,2.796159e+00,3,3,3.632652e-01,3.632653e-01
3.060740e+00,2.795906e+00,3,3,1.456896e+00,1.456895e+00
3.057140e+00,2.795756e+00,3,3,3.221339e+00,3.221338e+00
3.065775e+00,2.793034e+00,3,3,1.879967e+00,1.879967e+00
3.060906e+00,2.797945e+00,3,3,1.342877e+00,1.342877e+00
3.058849e+00,2.798200e+00,3,3,1.100848e+00,1.100848e+00
3.062277e+00,2.798431e+00,3,3,9.350394e-01,9.350394e-01
3.060307e+00,2.798071e+00,3,3,8.765799e-01,8.765799e-01
3.058845e+00,2.799914e+00,3,3,1.483488e+00,1.483487e+00
3.058883e+00,2.794801e+00,3,3,1.146398e+00,1.146398e+00
3.059707e+00,2.794606e+00,3,3,8.245377e-01,8.245377e-01
3.058365e+00,2.789534e+00,3,3,9.175513e-01,9.175512e-01
3.059360e+00,2.796028e+00,3,3,1.572601e+00,1.572600e+00
3.060033e+00,2.797416e+00,3,3,2.548007e+00,2.548006e+00
3.061062e+00,2.797563e+00,3,3,4.638469e+00,4.638467e+00
3.062167e+00,2.796226e+00,3,3,5.660154e+00,5.660152e+00
3.063779e+00,2.800702e+00,3,3,5.111812e+00,5.111812e+00
3.063669e+00,2.797506e+00,3,3,5.361427e+00,5.361427e+00
3.062829e+00,2.796805e+00,3,3,4.518845e+00,4.518845e+00
3.059353e+00,2.791952e+00,3,3,4.751985e+00,4.751985e+00
3.060644e+00,2.792880e+00,3,3,4.746635e+00,4.746635e+00
3.061967e+00,2.800237e+00,3,3,3.913832e+00,3.913832e+00
3.062274e+00,2.798027e+00,3,3,3.373796e+00,3.373796e+00
3.063275e+00,2.798085e+00,3,3,2.596153e+00,2.596153e+00
3.059337e+00,2.798985e+00,3,3,2.364516e+00,2.364516e+00
3.062882e+00,2.797167e+00,3,3,2.377071e+00,2.377071e+00
3.060606e+00,2.796276e+00,3,3,3.044290e+00,3.044292e+00
3.059443e+00,2.791978e+00,3,3,5.471064e+00,5.469934e+00
6.108062e+00,5.577789e+00,6,6,5.713008e+00,5.711238e+00
5.091364e+00,4.655514e+00,5,5,6.257296e+00,6.256953e+00
4.075817e+00,3.726697e+00,4,4,5.303524e+00,5.303524e+00
3.062963e+00,2.797488e+00,3,3,5.338698e+00,5.338699e+00
3.059871e+00,2.790367e+00,3,3,6.515689e+00,6.515689e+00
3.066701e+00,2.793199e+00,3,3,6.035014e+00,6.035015e+00
3.064482e+00,2.798897e+00,3,3,5.027705e+00,5.027706e+00
3.062921e+00,2.796993e+00,3,3,4.242569e+00,4.242569e+00
3.062880e+00,2.802301e+00,3,3,3.761766e+00,3.761766e+00
3.068417e+00,2.803754e+00,3,3,3.222006e+00,3.222006e+00
3.059535e+00,2.798100e+00,3,3,2.958957e+00,2.958957e+00
3.061270e+00,2.796734e+00,3,3,3.072665e+00,3.072665e+00
3.060133e+00,2.798104e+00,3,3,1.689578e+00,1.689578e+00
3.059231e+00,2.791870e+00,3,3,1.466483e+00,1.466483e+00
3.060078e+00,2.794029e+00,3,3,1.622638e+00,1.622638e+00
3.061352e+00,2.796608e+00,3,3,1.120965e+00,1.120966e+00
3.060714e+00,2.799073e+00,3,3,9.459925e-01,9.459926e-01
3.060348e+00,2.797298e+00,3,3,7.684231e-01,7.684230e-01
3.061145e+00,2.803808e+00,3,3,4.885171e-01,4.885171e-01
3.061735e+00,2.805035e+00,3,3,3.703970e-01,3.703967e-01
3.060800e+00,2.801778e+00,3,3,2.797296e-01,2.797295e-01
3.059384e+00,2.796905e+00,3,3,3.974023e-01,3.974022e-01
3.059045e+00,2.804172e+00,3,3,5.354262e-01,5.354261e-01
3.060536e+00,2.800394e+00,3,3,3.592152e-01,3.592152e-01
3.057982e+00,2.803297e+00,3,3,4.040960e-01,4.040958e-01
3.058577e+00,2.802312e+00,3,3,1.113163e+00,1.113163e+00
3.058179e+00,2.804183e+00,3,3,2.515820e+00,2.515819e+00
3.060805e+00,2.805537e+00,3,3,3.426457e+00,3.426457e+00
3.061585e+00,2.802298e+00,3,3,2.879434e+00,2.879435e+00
3.059568e+00,2.795945e+00,3,3,3.110359e+00,3.110358e+00
3.064845e+00,2.799214e+00,3,3,3.024906e+00,3.024906e+00
3.069443e+00,2.803288e+00,3,3,2.671659e+00,2.671659e+00
3.060801e+00,2.803562e+00,3,3,2.112219e+00,2.112219e+00
3.060711e+00,2.803721e+00,3,3,2.070677e+00,2.070677e+00
3.061654e+00,2.804964e+00,3,3,3.677847e+00,3.677846e+00
3.062476e+00,2.802723e+00,3,3,4.748284e+00,4.748283e+00
3.062540e+00,2.814212e+00,3,3,5.601877e+00,5.601877e+00
3.062014e+00,2.800259e+00,3,3,4.561991e+00,4.561992e+00
3.062121e+00,2.801377e+00,3,3,3.478403e+00,3.478404e+00
3.065662e+00,2.801159e+00,3,3,2.544122e+00,2.544123e+00
3.060265e+00,2.804919e+00,3,3,2.076842e+00,2.076842e+00
3.063114e+00,2.796955e+00,3,3,2.759520e+00,2.759519e+00
3.060203e+00,2.808726e+00,3,3,2.751328e+00,2.751328e+00
3.062966e+00,2.808093e+00,3,3,2.069404e+00,2.069405e+00
3.064870e+00,2.802489e+00,3,3,2.024263e+00,2.024264e+00
3.061965e+00,2.806407e+00,3,3,2.326176e+00,2.326219e+00
3.058682e+00,2.803062e+00,3,3,2.414221e+00,2.414223e+00
3.060215e+00,2.800262e+00,3,3,2.956549e+00,2.956549e+00
3.060537e+00,2.806001e+00,3,3,2.350925e+00,2.350925e+00
3.064051e+00,2.806012e+00,3,3,3.067180e+00,3.067179e+00
3.061212e+00,2.802004e+00,3,3,3.023788e+00,3.023788e+00
3.060301e+00,2.804239e+00,3,3,2.527912e+00,2.527912e+00
3.061613e+00,2.803112e+00,3,3,2.091118e+00,2.091118e+00
3.063271e+00,2.805094e+00,3,3,2.201044e+00,2.201043e+00
3.059578e+00,2.804475e+00,3,3,2.211135e+00,2.211135e+00
3.063907e+00,2.795027e+00,3,3,1.630545e+00,1.630545e+00
3.064068e+00,2.797267e+00,3,3,1.629960e+00,1.629960e+00
3.062673e+00,2.801556e+00,3,3,1.065575e+00,1.065575e+00
3.060992e+00,2.809642e+00,3,3,8.781366e-01,8.781366e-01
3.060905e+00,2.804765e+00,3,3,5.657122e-01,5.657122e-01
3.061969e+00,2.805657e+00,3,3,3.838167e-01,3.838167e-01
3.059429e+00,2.800307e+00,3,3,2.168859e-01,2.168859e-01
3.059145e+00,2.804297e+00,3,3,4.077928e-01,4.077927e-01
3.059932e+00,2.802374e+00,3,3,2.298410e-01,2.298410e-01
3.058418e+00,2.797598e+00,3,3,2.219914e-01,2.219913e-01
3.059849e+00,2.799282e+00,3,3,1.341587e-01,1.341587e-01
3.057118e+00,2.803848e+00,3,3,1.470553e-01,1.470553e-01
3.079675e+00,2.804582e+00,3,3,1.317567e-01,1.317567e-01
3.058819e+00,2.801503e+00,3,3,3.249662e-01,3.249661e-01
3.059237e+00,2.802221e+00,3,3,2.494327e-01,2.494326e-01
3.059369e+00,2.801620e+00,3,3,2.719721e-01,2.719719e-01
3.055482e+00,2.802831e+00,3,3,5.470060e-01,5.470057e-01
3.057541e+00,2.793995e+00,3,3,2.990695e-01,2.990696e-01
3.059709e+00,2.797045e+00,3,3,4.258675e-01,4.258674e-01
3.056431e+00,2.801935e+00,3,3,4.303105e-01,4.303105e-01
3.059507e+00,2.805490e+00,3,3,7.248234e-01,7.248232e-01
3.060006e+00,2.804781e+00,3,3,5.522407e-01,5.522407e-01
3.059631e+00,2.802383e+00,3,3,3.638420e-01,3.638421e-01
3.059062e+00,2.802486e+00,3,3,2.660242e-01,2.660242e-01
3.057082e+00,2.805214e+00,3,3,3.563769e-01,3.563768e-01
3.056751e+00,2.795724e+00,3,3,3.281879e-01,3.281879e-01
3.058138e+00,2.796480e+00,3,3,2.648641e-01,2.648641e-01
3.059482e+00,2.805010e+00,3,3,4.637969e-01,4.637968e-01
3.061384e+00,2.801066e+00,3,3,3.516938e-01,3.516938e-01
3.059711e+00,2.803704e+00,3,3,5.227981e-01,5.227980e-01
3.061254e+00,2.804374e+00,3,3,9.247089e-01,9.247085e-01
3.061899e+00,2.803489e+00,3,3,8.107849e-01,8.107847e-01
3.061840e+00,2.807002e+00,3,3,7.181153e-01,7.181152e-01
3.059671e+00,2.804463e+00,3,3,1.643258e+00,1.643257e+00
3.061279e+00,2.798188e+00,3,3,1.994016e+00,1.994015e+00
3.064386e+00,2.796968e+00,3,3,1.134334e+00,1.134334e+00
3.059749e+00,2.810516e+00,3,3,8.482996e-01,8.482997e-01
3.061708e+00,2.806533e+00,3,3,6.537287e-01,6.537286e-01
3.061059e+00,2.804040e+00,3,3,4.364268e-01,4.364269e-01
3.059986e+00,2.804444e+00,3,3,3.864400e-01,3.864399e-01
3.058299e+00,2.804707e+00,3,3,5.548974e-01,5.548973e-01
3.061239e+00,2.802986e+00,3,3,5.307643e-01,5.307642e-01
3.057709e+00,2.798082e+00,3,3,2.639972e-01,2.639970e-01
3.059374e+00,2.799607e+00,3,3,7.177021e-01,7.177019e-01
3.057070e+00,2.799163e+00,3,3,3.984590e-01,3.984591e-01
3.059337e+00,2.802059e+00,3,3,3.519681e-01,3.519681e-01
3.058470e+00,2.803636e+00,3,3,4.923570e-01,4.923568e-01
3.061934e+00,2.805378e+00,3,3,4.030472e-01,4.030472e-01
3.057147e+00,2.806169e+00,3,3,4.731872e-01,4.731871e-01
3.063071e+00,2.803943e+00,3,3,6.026992e-01,6.026991e-01
3.056639e+00,2.804040e+00,3,3,4.756016e-01,4.756016e-01
3.059327e+00,2.802624e+00,3,3,4.945690e-01,4.945688e-01
3.063180e+00,2.799030e+00,3,3,6.169640e-01,6.169639e-01
3.059663e+00,2.801938e+00,3,3,7.574958e-01,7.574955e-01
3.059609e+00,2.805462e+00,3,3,1.135819e+00,1.135818e+00
3.060745e+00,2.802478e+00,3,3,7.866709e-01,7.866709e-01
3.058778e+00,2.804766e+00,3,3,7.566146e-01,7.566143e-01
3.061246e+00,2.804093e+00,3,3,7.321448e-01,7.321447e-01
3.063411e+00,2.803989e+00,3,3,7.926653e-01,7.926652e-01
3.058451e+00,2.796469e+00,3,3,6.555934e-01,6.555933e-01
3.065759e+00,2.797126e+00,3,3,1.115601e+00,1.115600e+00
3.059297e+00,2.799066e+00,3,3,8.292406e-01,8.292407e-01
3.059569e+00,2.800631e+00,3,3,7.751496e-01,7.751495e-01
3.057461e+00,2.805752e+00,3,3,7.596657e-01,7.596656e-01
3.060428e+00,2.793669e+00,3,3,6.878776e-01,6.878775e-01
3.061168e+00,2.799573e+00,3,3,4.928153e-01,4.928153e-01
3.061405e+00,2.799076e+00,3,3,6.019904e-01,6.019902e-01
3.058503e+00,2.796268e+00,3,3,6.788456e-01,6.788454e-01
3.057549e+00,2.793937e+00,3,3,4.668361e-01,4.668360e-01
3.059085e+00,2.794482e+00,3,3,8.782913e-01,8.782910e-01
3.059990e+00,2.799824e+00,3,3,6.180956e-01,6.180955e-01
3.060088e+00,2.798785e+00,3,3,5.652570e-01,5.652569e-01
3.059992e+00,2.796880e+00,3,3,5.058808e-01,5.058807e-01
3.064134e+00,2.797329e+00,3,3,3.970669e-01,3.970667e-01
3.060978e+00,2.797813e+00,3,3,2.920336e-01,2.920336e-01
3.067634e+00,2.797357e+00,3,3,5.797283e-01,5.797281e-01
3.058943e+00,2.790111e+00,3,3,4.997495e-01,4.997495e-01
3.059231e+00,2.794010e+00,3,3,5.083714e-01,5.083713e-01
3.060852e+00,2.798588e+00,3,3,4.754077e-01,4.754077e-01
3.062089e+00,2.798493e+00,3,3,3.696140e-01,3.696140e-01
3.057380e+00,2.796313e+00,3,3,4.437754e-01,4.437753e-01
3.059081e+00,2.797521e+00,3,3,3.442545e-01,3.442545e-01
3.057837e+00,2.796719e+00,3,3,1.454145e+00,1.454144e+00
3.059495e+00,2.797014e+00,3,3,3.218432e+00,3.218431e+00
3.061455e+00,2.793653e+00,3,3,2.417712e+00,2.417713e+00
3.060882e+00,2.799009e+00,3,3,1.723471e+00,1.723471e+00
3.058514e+00,2.798485e+00,3,3,1.264275e+00,1.264275e+00
3.059602e+00,2.796956e+00,3,3,1.366921e+00,1.366921e+00
3.062874e+00,2.798416e+00,3,3,1.080434e+00,1.080434e+00
3.059201e+00,2.797009e+00,3,3,1.043215e+00,1.043215e+00
3.062493e+00,2.798420e+00,3,3,1.256931e+00,1.256930e+00
3.059428e+00,2.795185e+00,3,3,1.434086e+00,1.434086e+00
3.060893e+00,2.792417e+00,3,3,1.312171e+00,1.312171e+00
3.059326e+00,2.797838e+00,3,3,1.397984e+00,1.397984e+00
3.063288e+00,2.795793e+00,3,3,1.863006e+00,1.863005e+00
3.062117e+00,2.798150e+00,3,3,1.373502e+00,1.373502e+00
3.062442e+00,2.798774e+00,3,3,9.297251e-01,9.297252e-01
3.057717e+00,2.799053e+00,3,3,5.499698e-01,5.499699e-01
3.058472e+00,2.796045e+00,3,3,3.668125e-01,3.668125e-01
3.069255e+00,2.796821e+00,3,3,2.877346e-01,2.877345e-01
3.058066e+00,2.792137e+00,3,3,3.947817e-01,3.947816e-01
3.057384e+00,2.790369e+00,3,3,2.789109e-01,2.789109e-01
3.057226e+00,2.797921e+00,3,3,4.675784e-01,4.675784e-01
3.057627e+00,2.800434e+00,3,3,4.970872e-01,4.970872e-01
3.060140e+00,2.796573e+00,3,3,4.618474e-01,4.618474e-01
3.058285e+00,2.796186e+00,3,3,5.953706e-01,5.953704e-01
3.058845e+00,2.797470e+00,3,3,3.315650e-01,3.315650e-01
3.059165e+00,2.794518e+00,3,3,2.690294e-01,2.690293e-01
3.058765e+00,2.791448e+00,3,3,1.439723e+00,1.439722e+00
3.060255e+00,2.797165e+00,3,3,1.497784e+00,1.497784e+00
3.059637e+00,2.795609e+00,3,3,7.278898e-01,7.278900e-01
3.058616e+00,2.796255e+00,3,3,7.181023e-01,7.181023e-01
3.058491e+00,2.796723e+00,3,3,6.287865e-01,6.287865e-01
3.058874e+00,2.798351e+00,3,3,6.738955e-01,6.738954e-01
3.062478e+00,2.797711e+00,3,3,3.442819e-01,3.442820e-01
3.056754e+00,2.797713e+00,3,3,2.891117e-01,2.891117e-01
3.055622e+00,2.791983e+00,3,3,5.501594e-01,5.501593e-01
3.057732e+00,2.795260e+00,3,3,6.853903e-01,6.853902e-01
3.056920e+00,2.796526e+00,3,3,8.436223e-01,8.436222e-01
3.060704e+00,2.796364e+00,3,3,5.492941e-01,5.492941e-01
3.058990e+00,2.797780e+00,3,3,5.278047e-01,5.278046e-01
3.060238e+00,2.797819e+00,3,3,7.921349e-01,7.921347e-01
3.061028e+00,2.800666e+00,3,3,1.174980e+00,1.174980e+00
3.061533e+00,2.797578e+00,3,3,1.302907e+00,1.302907e+00
3.061149e+00,2.794520e+00,3,3,1.817128e+00,1.817127e+00
3.059388e+00,2.797258e+00,3,3,1.715595e+00,1.715595e+00
3.063107e+00,2.797087e+00,3,3,2.668152e+00,2.668169e+00
3.063457e+00,2.798272e+00,3,3,1.115506e+00,1.115507e+00
3.060573e+00,2.795502e+00,3,3,9.496710e-01,9.496709e-01
3.059213e+00,2.797675e+00,3,3,1.501074e+00,1.501073e+00
3.062042e+00,2.797633e+00,3,3,7.347723e-01,7.347725e-01
3.061420e+00,2.797934e+00,3,3,6.039010e-01,6.039009e-01
3.060113e+00,2.790899e+00,3,3,4.902779e-01,4.902779e-01
3.064071e+00,2.790801e+00,3,3,3.288281e-01,3.288281e-01
3.059367e+00,2.794933e+00,3,3,6.713494e-01,6.713491e-01
3.059981e+00,2.795716e+00,3,3,4.977143e-01,4.977143e-01
3.061292e+00,2.796037e+00,3,3,2.836721e-01,2.836721e-01
3.057291e+00,2.797641e+00,3,3,6.883867e-01,6.883865e-01
3.059439e+00,2.797022e+00,3,3,4.772300e-01,4.772300e-01
3.059522e+00,2.795080e+00,3,3,2.511177e-01,2.511177e-01
3.054411e+00,2.791091e+00,3,3,2.738165e-01,2.738164e-01
3.056705e+00,2.795364e+00,3,3,3.426204e-01,3.426202e-01
3.056553e+00,2.797469e+00,3,3,5.175608e-01,5.175607e-01
3.060486e+00,2.796553e+00,3,3,1.085640e+00,1.085639e+00
3.059398e+00,2.798551e+00,3,3,7.889600e-01,7.889595e-01
3.059538e+00,2.795494e+00,3,3,1.428627e+00,1.428627e+00
3.061470e+00,2.797648e+00,3,3,6.237792e-01,6.237795e-01
3.060535e+00,2.795781e+00,3,3,4.968999e-01,4.968998e-01
3.057288e+00,2.793293e+00,3,3,3.323366e-01,3.323366e-01
3.058516e+00,2.798155e+00,3,3,3.054060e-01,3.054059e-01
3.058889e+00,2.796829e+00,3,3,8.581271e-01,8.581267e-01
3.061566e+00,2.795612e+00,3,3,8.560416e-01,8.560415e-01
3.060408e+00,2.797789e+00,3,3,1.314359e+00,1.314359e+00
3.059827e+00,2.796696e+00,3,3,1.349009e+00,1.349009e+00
3.060418e+00,2.797209e+00,3,3,1.548528e+00,1.548528e+00
3.059204e+00,2.797953e+00,3,3,2.537457e+00,2.537456e+00
3.059546e+00,2.794863e+00,3,3,2.841285e+00,2.841284e+00
3.059096e+00,2.798446e+00,3,3,2.122477e+00,2.122477e+00
3.061570e+00,2.798622e+00,3,3,1.906988e+00,1.906988e+00
3.061580e+00,2.799351e+00,3,3,2.680225e+00,2.680224e+00
3.064848e+00,2.799496e+00,3,3,1.820728e+00,1.820728e+00
3.060979e+00,2.799163e+00,3,3,1.509573e+00,1.509573e+00
3.062088e+00,2.798411e+00,3,3,1.527033e+00,1.527033e+00
3.061103e+00,2.795808e+00,3,3,1.650989e+00,1.650988e+00
3.059928e+00,2.791572e+00,3,3,1.808075e+00,1.808074e+00
3.068114e+00,2.792954e+00,3,3,1.332615e+00,1.332614e+00
3.059213e+00,2.798049e+00,3,3,1.278934e+00,1.278933e+00
3.061233e+00,2.796882e+00,3,3,1.640310e+00,1.640310e+00
3.062219e+00,2.798377e+00,3,3,1.799944e+00,1.799944e+00
3.062410e+00,2.795701e+00,3,3,1.140216e+00,1.140217e+00
3.060905e+00,2.798476e+00,3,3,1.096292e+00,1.096292e+00
3.060082e+00,2.795903e+00,3,3,6.438808e-01,6.438811e-01
3.058205e+00,2.790436e+00,3,3,6.245242e-01,6.245242e-01

