6.785240e-01,1.775647e+00,1.287937e+00,2,0,0.000000e+00,0.000000e+00
9.903310e-01,2.734940e-01,2.629757e-01,3,0,5.321986e-02,5.321936e-02
9.961770e-01,3.270670e-01,3.159046e-01,3,0,6.159864e-02,6.159609e-02
9.881230e-01,2.821660e-01,2.729893e-01,3,0,1.569301e-01,1.568385e-01
1.656710e+00,2.682920e-01,2.589226e-01,5,0,9.117295e-02,9.115070e-02
1.322066e+00,1.953564e+00,1.943827e+00,4,4,2.575829e-01,2.566199e-01
2.299288e+00,2.252101e+00,2.240896e+00,7,5,2.642301e-01,2.628205e-01
2.294336e+00,1.097971e+00,1.087189e+00,7,2,3.331320e-01,3.303558e-01
1.981642e+00,1.510087e+00,1.497984e+00,6,3,1.663230e-01,1.649198e-01
2.302704e+00,7.058010e-01,6.971359e-01,7,1,2.054691e-01,2.029511e-01
2.289470e+00,7.314260e-01,7.188320e-01,7,1,1.234625e-01,1.230692e-01
1.649334e+00,1.103589e+00,1.093864e+00,5,2,1.438479e-01,1.434905e-01
2.307447e+00,1.328881e+00,1.318932e+00,7,2,2.815121e-01,2.796583e-01
2.300882e+00,1.509343e+00,1.497030e+00,7,3,3.639028e-01,3.613850e-01
2.291920e+00,1.448712e+00,1.439095e+00,7,3,2.898551e-01,2.854555e-01
3.625411e+00,1.507038e+00,1.497030e+00,11,3,4.117022e-01,4.098936e-01
1.974586e+00,1.119445e+00,1.106024e+00,6,2,3.375594e-01,3.368543e-01
3.281334e+00,1.154775e+00,1.143932e+00,10,2,2.325501e-01,2.220428e-01
2.289616e+00,3.142480e-01,3.039837e-01,7,0,2.492023e-01,2.487558e-01
3.296135e+00,7.154560e-01,7.050037e-01,10,1,2.646199e-01,2.601567e-01
1.640137e+00,1.138256e+00,1.125813e+00,5,2,2.921734e-01,2.908621e-01
1.318120e+00,1.049801e+00,1.040936e+00,4,2,2.271318e-01,2.255046e-01
2.622921e+00,1.132557e+00,1.121998e+00,8,2,1.953549e-01,1.941404e-01
1.971307e+00,1.077561e+00,1.068115e+00,6,2,2.580992e-01,2.531695e-01
1.970041e+00,2.928120e-01,2.820492e-01,6,0,3.216790e-01,3.183013e-01
2.292584e+00,1.484558e+00,1.475096e+00,7,3,3.323307e-01,3.307907e-01
3.608190e+00,1.849771e+00,1.840115e+00,11,4,2.636758e-01,2.522426e-01
1.983082e+00,7.309630e-01,7.200241e-01,6,1,2.043743e-01,2.018925e-01
3.613045e+00,1.142618e+00,1.131058e+00,11,2,1.940524e-01,1.823159e-01
3.294661e+00,3.305520e-01,3.180504e-01,10,0,1.321489e-01,1.262089e-01
1.649701e+00,1.089693e+00,1.080036e+00,5,2,2.595039e-01,2.578218e-01
1.634952e+00,1.114296e+00,1.102924e+00,5,2,2.866532e-01,2.831286e-01
2.238119e+00,2.932550e-01,2.851486e-01,6,0,2.328194e-01,2.326808e-01
1.320336e+00,2.363999e+00,2.351999e+00,4,5,2.633879e-01,2.600379e-01
2.315769e+00,1.472408e+00,1.462936e+00,7,3,1.513973e-01,1.507081e-01
1.981421e+00,6.675320e-01,6.568432e-01,6,1,9.821962e-02,9.725292e-02
2.620772e+00,1.130028e+00,1.117945e+00,8,2,1.486089e-01,1.472291e-01
2.305603e+00,6.812250e-01,6.718636e-01,7,1,1.286271e-01,1.285117e-01
2.635918e+00,1.539985e+00,1.529932e+00,8,3,2.184417e-01,2.176368e-01
1.965994e+00,1.485174e+00,1.474142e+00,6,3,1.362509e-01,1.334623e-01
2.290037e+00,1.535116e+00,1.524925e+00,7,3,3.839342e-01,3.807905e-01
2.298106e+00,1.465855e+00,1.456022e+00,7,3,3.763655e-01,3.747586e-01
3.274260e+00,1.865832e+00,1.853943e+00,10,4,2.447463e-01,2.446958e-01
1.314386e+00,7.384220e-01,7.278919e-01,4,1,2.926823e-01,2.925746e-01
1.970634e+00,2.695080e-01,2.601147e-01,6,0,2.456365e-01,2.445465e-01
3.604761e+00,1.128827e+00,1.117945e+00,11,2,2.078885e-01,1.984483e-01
3.268259e+00,3.257740e-01,3.139973e-01,10,0,2.355777e-01,2.257174e-01
1.967268e+00,1.081912e+00,1.073122e+00,6,2,1.857569e-01,1.849406e-01
2.618788e+00,7.090880e-01,6.978512e-01,8,1,1.294378e-01,1.282835e-01
1.315297e+00,2.851040e-01,2.760887e-01,4,0,7.303353e-02,7.273557e-02
1.314100e+00,7.067730e-01,6.971359e-01,4,1,1.533438e-01,1.529312e-01
2.630331e+00,1.066928e+00,1.058102e+00,8,2,2.443331e-01,2.408478e-01
2.286428e+00,7.111470e-01,6.999969e-01,7,1,2.570964e-01,2.543318e-01
1.318815e+00,7.215780e-01,7.121563e-01,4,1,2.083740e-01,2.059890e-01
2.948044e+00,6.744480e-01,6.651878e-01,9,1,1.944048e-01,1.771552e-01
1.971290e+00,1.517382e+00,1.507998e+00,6,3,2.216235e-01,2.207981e-01
1.967872e+00,1.433297e+00,1.423836e+00,6,3,8.029807e-02,7.957818e-02
1.310006e+00,3.035940e-01,2.930164e-01,4,0,1.232633e-01,1.221589e-01
1.967128e+00,1.086623e+00,1.077890e+00,6,2,2.287897e-01,2.103502e-01
2.287182e+00,1.505985e+00,1.496077e+00,7,3,2.853285e-01,2.809772e-01
1.642908e+00,1.864051e+00,1.853943e+00,5,4,1.961506e-01,1.958493e-01
2.292822e+00,3.456545e+00,3.447056e+00,7,8,5.131862e-01,5.046300e-01
2.291728e+00,1.432627e+00,1.420975e+00,7,3,9.395201e-01,9.282211e-01
2.292651e+00,3.669817e+00,3.659010e+00,7,9,4.936565e-01,4.877257e-01
2.297452e+00,6.667570e-01,6.558895e-01,7,1,5.610441e-01,5.604650e-01
1.317030e+00,1.918341e+00,1.907110e+00,4,4,3.046766e-01,3.028897e-01
1.967861e+00,6.625400e-01,6.530285e-01,6,1,2.712945e-01,2.655260e-01
3.613035e+00,7.008110e-01,6.902218e-01,11,1,1.562806e-01,1.545715e-01
1.318137e+00,1.547306e+00,1.534939e+00,4,3,1.795310e-01,1.758700e-01
3.271779e+00,1.440721e+00,1.431942e+00,10,3,8.835925e-02,8.810456e-02
9.878610e-01,7.348020e-01,7.240772e-01,3,1,1.745038e-01,1.737056e-01
2.621011e+00,6.703860e-01,6.608963e-01,8,1,1.894674e-01,1.891511e-01
3.617470e+00,2.969160e-01,2.861023e-01,11,0,2.155061e-01,2.120896e-01
3.274560e+00,7.312860e-01,7.200241e-01,10,1,2.691615e-01,2.520135e-01
2.288951e+00,1.136914e+00,1.126051e+00,7,2,3.648815e-01,3.624244e-01
2.298949e+00,1.888153e+00,1.878023e+00,7,4,3.745483e-01,3.718263e-01
1.641395e+00,2.243699e+00,2.233028e+00,5,5,2.347342e-01,2.323313e-01
2.287018e+00,1.099616e+00,1.087904e+00,7,2,2.245534e-01,2.237964e-01
1.315783e+00,1.508129e+00,1.498938e+00,4,3,2.033034e-01,1.995601e-01
2.292404e+00,1.445287e+00,1.435995e+00,7,3,1.128057e-01,1.121996e-01
1.975051e+00,3.902152e+00,3.890991e+00,6,9,4.287271e-01,4.220232e-01
1.968926e+00,2.968900e+00,2.958059e+00,6,7,3.152170e-01,3.094100e-01
1.966209e+00,1.098944e+00,1.087189e+00,6,2,2.698827e-01,2.656341e-01
1.972289e+00,2.299683e+00,2.290010e+00,6,5,3.641935e-01,3.632841e-01
2.294768e+00,4.577102e+00,4.565954e+00,7,11,4.443293e-01,4.346642e-01
2.297709e+00,1.802259e+00,1.791000e+00,7,4,7.024380e-01,6.904487e-01
2.295984e+00,6.260290e-01,6.151199e-01,7,1,9.201492e-01,9.113319e-01
2.289460e+00,1.040218e+00,1.029015e+00,7,2,1.333787e+00,1.319271e+00
1.975564e+00,3.704068e+00,3.695011e+00,6,9,1.021772e+00,1.005937e+00
1.649715e+00,2.652001e+00,2.641201e+00,5,6,6.563713e-01,6.552170e-01
2.291879e+00,1.472763e+00,1.461983e+00,7,3,4.038474e-01,4.007149e-01
1.650311e+00,1.454368e+00,1.443863e+00,5,3,2.303971e-01,2.302690e-01
1.648426e+00,4.625931e+00,4.616022e+00,5,11,3.278767e-01,3.209797e-01
2.638533e+00,4.065977e+00,4.055023e+00,8,10,1.834914e-01,1.824382e-01
2.299194e+00,1.610950e+00,1.593828e+00,7,3,2.712300e-01,2.689228e-01
2.293550e+00,2.364060e+00,2.346992e+00,7,5,2.725458e-01,2.667730e-01
1.316765e+00,2.313495e+00,2.300978e+00,4,5,2.366145e-01,2.339236e-01
3.286389e+00,1.498828e+00,1.484871e+00,10,3,1.665837e-01,1.625363e-01
2.289025e+00,7.738710e-01,7.598400e-01,7,1,2.805383e-01,2.793257e-01
3.940596e+00,3.253690e-01,3.139973e-01,12,0,2.542931e-01,2.534112e-01
1.971336e+00,1.170154e+00,1.157999e+00,6,2,2.082731e-01,2.062733e-01
1.969937e+00,1.131191e+00,1.121044e+00,6,2,2.304945e-01,2.276860e-01
2.958408e+00,1.102848e+00,1.092911e+00,9,2,1.264849e-01,1.076341e-01
3.958028e+00,2.800680e-01,2.710819e-01,12,0,9.583228e-02,8.505542e-02
3.294701e+00,3.220790e-01,3.108978e-01,10,0,1.051862e-01,8.991180e-02
3.609748e+00,3.232320e-01,3.128052e-01,11,0,2.218053e-01,2.215815e-01
1.637546e+00,7.536900e-01,7.429123e-01,5,1,2.803702e-01,2.782205e-01
1.969571e+00,2.768470e-01,2.679825e-01,6,0,2.613959e-01,2.588016e-01
3.610519e+00,7.311630e-01,7.209778e-01,11,1,1.571530e-01,1.569860e-01
1.312482e+00,2.953090e-01,2.858639e-01,4,0,1.452247e-01,1.443032e-01
1.964003e+00,2.912850e-01,2.820492e-01,6,0,1.562945e-01,1.537301e-01
1.965457e+00,2.862440e-01,2.770424e-01,6,0,1.966238e-01,1.961936e-01
3.277148e+00,3.209410e-01,3.108978e-01,10,0,1.362837e-01,1.335814e-01
1.644578e+00,7.081660e-01,6.990433e-01,5,1,2.033152e-01,2.029940e-01
3.598726e+00,7.007080e-01,6.899834e-01,11,1,1.033449e-01,9.371364e-02
1.963286e+00,3.196240e-01,3.101826e-01,6,0,9.107998e-02,9.063906e-02
2.295100e+00,1.095627e+00,1.085997e+00,7,2,2.245385e-01,2.232730e-01
1.963479e+00,1.108138e+00,1.097918e+00,6,2,1.276579e-01,1.258718e-01
2.293882e+00,2.307235e+00,2.298117e+00,7,5,3.781432e-01,3.723637e-01
1.315311e+00,1.828318e+00,1.818180e+00,4,4,2.556667e-01,2.544006e-01
1.970516e+00,1.521174e+00,1.510859e+00,6,3,3.746772e-01,3.682996e-01
2.303414e+00,2.258598e+00,2.249956e+00,7,5,5.702046e-01,5.679902e-01
1.972452e+00,1.452026e+00,1.441956e+00,6,3,4.987894e-01,4.883260e-01
2.953563e+00,1.888647e+00,1.878977e+00,9,4,4.317598e-01,4.296805e-01
2.290900e+00,2.710769e+00,2.698898e+00,7,6,5.712838e-01,5.609256e-01
2.292320e+00,2.627118e+00,2.616167e+00,7,6,3.974306e-01,3.941696e-01
1.967107e+00,2.639581e+00,2.628088e+00,6,6,2.243400e-01,2.210112e-01
1.311571e+00,1.134619e+00,1.123905e+00,4,2,2.087155e-01,2.063045e-01
2.297167e+00,2.276698e+00,2.268076e+00,7,5,1.801881e-01,1.761129e-01
3.283164e+00,1.455479e+00,1.446009e+00,10,3,1.222836e-01,1.116400e-01
1.316380e+00,3.197980e-01,3.089905e-01,4,0,1.269197e-01,1.267565e-01
3.612156e+00,2.765120e-01,2.682209e-01,11,0,1.407435e-01,1.364831e-01
2.625804e+00,3.257060e-01,3.151894e-01,8,0,1.031945e-01,1.029772e-01
3.283523e+00,3.225170e-01,3.130436e-01,10,0,1.157788e-01,9.970868e-02
3.952553e+00,2.892310e-01,2.801418e-01,12,0,7.338107e-02,7.241572e-02
1.321915e+00,7.404070e-01,7.309914e-01,4,1,2.244988e-01,2.241337e-01
1.642614e+00,6.925670e-01,6.830692e-01,5,1,2.558351e-01,2.551124e-01
1.319337e+00,2.802560e-01,2.710819e-01,4,0,2.104491e-01,2.098581e-01
3.622265e+00,2.818190e-01,2.729893e-01,11,0,2.397473e-01,2.357621e-01
2.953454e+00,7.351510e-01,7.250309e-01,9,1,1.622803e-01,1.591196e-01
2.618163e+00,1.941444e+00,1.930952e+00,8,4,2.691317e-01,2.661504e-01
2.286062e+00,3.174530e-01,3.070831e-01,7,0,4.116098e-01,4.103183e-01
2.294352e+00,1.069419e+00,1.060009e+00,7,2,5.307510e-01,5.296524e-01
1.643101e+00,1.104387e+00,1.094103e+00,5,2,4.538413e-01,4.519161e-01
3.290703e+00,1.897783e+00,1.888037e+00,10,4,3.664430e-01,3.582562e-01
2.297688e+00,1.081957e+00,1.071930e+00,7,2,3.221868e-01,3.210954e-01
1.967704e+00,2.289410e+00,2.279043e+00,6,5,2.537543e-01,2.450429e-01
2.287340e+00,7.057570e-01,6.968975e-01,7,1,3.006805e-01,2.968355e-01
2.293735e+00,3.463263e+00,3.453016e+00,7,8,3.579552e-01,3.542727e-01
2.620725e+00,1.439571e+00,1.430035e+00,8,3,4.501159e-01,4.470155e-01
1.975046e+00,2.199029e+00,2.188921e+00,6,5,3.387422e-01,3.371421e-01
1.317035e+00,6.818920e-01,6.711483e-01,4,1,3.045302e-01,3.015715e-01
1.652555e+00,2.717530e-01,2.629757e-01,5,0,2.702445e-01,2.700422e-01
2.293750e+00,3.086540e-01,2.989769e-01,7,0,2.296700e-01,2.278669e-01
1.641604e+00,2.765970e-01,2.679825e-01,5,0,1.749642e-01,1.747519e-01
3.618340e+00,1.128039e+00,1.119137e+00,11,2,1.918926e-01,1.896948e-01
2.290320e+00,7.172470e-01,7.081032e-01,7,1,3.326745e-01,3.310866e-01
1.967471e+00,1.454005e+00,1.445055e+00,6,3,2.908994e-01,2.869196e-01
1.637049e+00,3.091810e-01,2.989769e-01,5,0,2.767385e-01,2.744181e-01
1.316199e+00,2.696451e+00,2.687931e+00,4,6,3.774098e-01,3.700811e-01
2.287919e+00,2.593359e+00,2.583981e+00,7,6,1.489305e-01,1.465560e-01
1.646807e+00,3.147030e-01,3.039837e-01,5,0,1.033346e-01,1.026164e-01
1.646689e+00,6.885740e-01,6.799698e-01,5,1,8.064028e-02,8.039206e-02
3.608265e+00,7.151640e-01,7.038116e-01,11,1,6.625268e-02,6.123893e-02
2.622974e+00,3.018350e-01,2.920628e-01,8,0,8.432505e-02,8.252166e-02
2.957114e+00,2.946420e-01,2.849102e-01,9,0,1.865045e-01,1.691615e-01
1.961953e+00,3.200470e-01,3.089905e-01,6,0,1.232551e-01,1.231829e-01
1.979336e+00,1.492602e+00,1.483917e+00,6,3,2.659533e-01,2.651943e-01
1.633499e+00,1.488755e+00,1.477957e+00,5,3,3.319503e-01,3.317752e-01
1.640217e+00,2.816790e-01,2.729893e-01,5,0,2.022319e-01,2.018013e-01
1.316944e+00,7.849350e-01,7.748604e-01,4,1,1.906907e-01,1.894004e-01
1.967593e+00,6.693100e-01,6.599426e-01,6,1,1.657024e-01,1.617728e-01
3.281955e+00,3.260650e-01,3.149509e-01,10,0,1.754284e-01,1.614681e-01
2.639756e+00,2.820950e-01,2.729893e-01,8,0,1.681273e-01,1.607664e-01
2.640499e+00,1.134114e+00,1.123905e+00,8,2,1.735661e-01,1.719281e-01
1.987244e+00,1.105555e+00,1.095057e+00,6,2,1.530109e-01,1.512942e-01
2.953016e+00,2.728890e-01,2.629757e-01,9,0,1.112928e-01,1.068281e-01
2.295110e+00,7.307400e-01,7.200241e-01,7,1,2.105015e-01,2.082626e-01
2.286440e+00,3.149470e-01,3.049374e-01,7,0,2.564971e-01,2.558316e-01
2.292741e+00,7.022720e-01,6.921291e-01,7,1,3.152913e-01,3.144142e-01
1.968900e+00,1.529786e+00,1.519918e+00,6,3,3.855739e-01,3.836342e-01
1.643438e+00,1.860808e+00,1.850843e+00,5,4,3.617356e-01,3.603209e-01
2.290369e+00,6.884440e-01,6.780624e-01,7,1,3.799611e-01,3.790006e-01
1.640150e+00,1.081895e+00,1.073122e+00,5,2,2.944095e-01,2.940323e-01
3.616336e+00,1.092196e+00,1.083136e+00,11,2,2.094011e-01,2.079769e-01
2.288768e+00,7.160450e-01,7.069111e-01,7,1,2.503206e-01,2.497743e-01
2.291185e+00,1.912330e+00,1.902103e+00,7,4,3.903503e-01,3.869897e-01
2.308247e+00,1.851219e+00,1.842022e+00,7,4,4.984880e-01,4.975359e-01
2.294248e+00,1.448807e+00,1.438856e+00,7,3,3.480721e-01,3.455446e-01
1.967587e+00,1.140743e+00,1.130819e+00,6,2,3.690084e-01,3.681689e-01
2.296420e+00,3.082068e+00,3.072023e+00,7,7,3.423479e-01,3.387027e-01
2.290507e+00,2.613226e+00,2.601862e+00,7,6,1.861740e-01,1.855605e-01
3.279765e+00,1.899649e+00,1.889944e+00,10,4,2.655687e-01,2.587110e-01
1.313971e+00,1.474385e+00,1.463890e+00,4,3,2.672264e-01,2.638647e-01
2.622920e+00,1.061144e+00,1.051903e+00,8,2,1.884249e-01,1.874679e-01
1.318903e+00,3.101550e-01,2.999306e-01,4,0,1.884048e-01,1.871229e-01
3.290627e+00,2.293267e+00,2.285004e+00,10,5,3.225182e-01,2.999151e-01
2.295114e+00,1.873165e+00,1.863003e+00,7,4,5.370669e-01,5.281114e-01
2.289455e+00,1.057853e+00,1.048088e+00,7,2,5.372540e-01,5.328501e-01
2.299335e+00,1.822597e+00,1.812935e+00,7,4,4.885923e-01,4.875660e-01
1.970373e+00,1.064955e+00,1.055002e+00,6,2,4.922025e-01,4.833203e-01
2.298214e+00,1.877845e+00,1.868010e+00,7,4,6.884029e-01,6.860590e-01
1.647561e+00,2.239470e+00,2.229929e+00,5,5,3.207462e-01,3.207257e-01
9.917820e-01,6.900300e-01,6.811619e-01,3,1,3.645053e-01,3.639270e-01
3.291090e+00,1.485614e+00,1.477003e+00,10,3,3.150528e-01,2.915353e-01
2.292606e+00,2.712413e+00,2.702951e+00,7,6,2.819072e-01,2.779177e-01
2.287347e+00,3.042268e+00,3.031969e+00,7,7,1.357109e-01,1.351398e-01
3.277629e+00,2.729305e+00,2.718925e+00,10,6,2.275735e-01,2.225844e-01
2.619321e+00,2.262579e+00,2.250910e+00,8,5,1.562884e-01,1.542811e-01
3.932439e+00,3.168170e-01,3.049374e-01,12,0,1.702975e-01,1.610300e-01
1.316508e+00,1.554467e+00,1.543999e+00,4,3,1.898637e-01,1.876653e-01
2.288287e+00,1.478770e+00,1.469135e+00,7,3,4.365967e-01,4.321988e-01
2.292750e+00,1.101670e+00,1.091003e+00,7,2,8.104995e-01,8.034651e-01
2.295794e+00,3.016011e+00,3.005981e+00,7,7,5.342794e-01,5.313273e-01
2.292517e+00,7.074930e-01,6.961823e-01,7,1,6.161230e-01,6.133361e-01
1.971035e+00,2.210860e+00,2.202034e+00,6,5,5.018466e-01,4.964869e-01
3.280935e+00,1.512654e+00,1.502037e+00,10,3,6.296967e-01,6.294171e-01
1.969086e+00,1.901297e+00,1.889944e+00,6,4,2.778157e-01,2.775431e-01
1.967467e+00,1.136245e+00,1.126051e+00,6,2,2.343900e-01,2.328122e-01
1.637264e+00,1.062228e+00,1.053095e+00,5,2,1.337658e-01,1.337060e-01
1.969151e+00,7.310710e-01,7.200241e-01,6,1,1.370622e-01,1.369607e-01
1.634331e+00,6.801420e-01,6.721020e-01,5,1,1.547379e-01,1.539299e-01
2.292376e+00,1.110368e+00,1.100063e+00,7,2,2.667714e-01,2.659120e-01
3.619626e+00,1.060813e+00,1.052141e+00,11,2,1.631599e-01,1.630585e-01
2.304870e+00,3.055080e-01,2.949238e-01,7,0,1.916886e-01,1.915590e-01
2.629396e+00,7.349830e-01,7.240772e-01,8,1,1.731011e-01,1.726882e-01
2.288163e+00,6.745020e-01,6.649494e-01,7,1,1.999667e-01,1.939369e-01
1.647065e+00,2.983150e-01,2.892017e-01,5,0,1.141334e-01,1.134740e-01
1.643930e+00,6.950770e-01,6.859303e-01,5,1,1.389287e-01,1.374112e-01
2.290800e+00,1.112051e+00,1.101971e+00,7,2,1.477230e-01,1.418127e-01
2.294129e+00,2.730530e-01,2.639294e-01,7,0,2.241225e-01,2.237442e-01
2.297369e+00,2.715578e+00,2.705097e+00,7,6,5.208846e-01,5.170153e-01
2.297360e+00,6.494150e-01,6.389618e-01,7,1,6.605093e-01,6.568365e-01
3.279756e+00,2.243570e+00,2.233982e+00,10,5,4.495140e-01,4.476048e-01
2.291613e+00,1.119983e+00,1.108885e+00,7,2,4.747206e-01,4.724345e-01
1.317927e+00,6.987460e-01,6.880760e-01,4,1,3.238910e-01,3.226160e-01
2.295170e+00,2.718340e-01,2.629757e-01,7,0,1.785216e-01,1.766636e-01
1.645649e+00,2.727695e+00,2.717018e+00,5,6,2.509395e-01,2.467101e-01
2.621125e+00,2.601394e+00,2.591133e+00,8,6,1.555015e-01,1.535401e-01
1.319233e+00,1.517974e+00,1.507044e+00,4,3,2.781915e-01,2.749746e-01
1.969540e+00,1.080972e+00,1.070023e+00,6,2,1.774099e-01,1.768956e-01
3.275407e+00,6.689080e-01,6.599426e-01,10,1,1.755950e-01,1.744583e-01
1.314242e+00,7.367430e-01,7.271767e-01,4,1,1.884215e-01,1.878783e-01
2.312508e+00,6.914420e-01,6.818771e-01,7,1,2.632685e-01,2.624075e-01
2.957713e+00,1.094664e+00,1.085043e+00,9,2,1.607882e-01,1.453624e-01
3.282915e+00,1.134657e+00,1.124144e+00,10,2,2.405303e-01,2.322103e-01
2.290218e+00,2.706626e+00,2.695799e+00,7,6,4.539977e-01,4.471799e-01
3.280723e+00,3.396171e+00,3.386021e+00,10,8,2.510252e-01,2.508681e-01
1.318030e+00,7.360550e-01,7.240772e-01,4,1,1.986151e-01,1.967951e-01
3.278734e+00,6.682940e-01,6.599426e-01,10,1,1.227574e-01,1.225633e-01
1.316756e+00,3.290160e-01,3.170967e-01,4,0,1.476947e-01,1.476831e-01
1.314341e+00,6.914960e-01,6.830692e-01,4,1,1.747438e-01,1.746226e-01
1.972228e+00,1.518201e+00,1.507998e+00,6,3,3.403290e-01,3.302069e-01
3.278851e+00,1.836386e+00,1.827002e+00,10,4,2.502597e-01,2.500123e-01
2.634978e+00,2.773720e-01,2.670288e-01,8,0,2.092580e-01,2.075638e-01
1.968877e+00,3.046040e-01,2.939701e-01,6,0,2.037326e-01,2.035598e-01
1.667330e+00,1.098691e+00,1.088858e+00,5,2,2.474543e-01,2.460589e-01
2.297646e+00,1.901556e+00,1.891851e+00,7,4,3.653503e-01,3.625488e-01
2.288970e+00,1.101732e+00,1.091003e+00,7,2,6.315473e-01,6.240288e-01
2.295422e+00,1.047563e+00,1.038074e+00,7,2,7.434257e-01,7.389079e-01
2.625589e+00,2.595227e+00,2.583981e+00,8,6,6.286807e-01,6.263050e-01
1.642977e+00,1.908062e+00,1.897097e+00,5,4,5.496232e-01,5.477563e-01
2.292177e+00,1.107420e+00,1.096964e+00,7,2,3.838090e-01,3.813578e-01
3.285645e+00,2.721470e-01,2.629757e-01,10,0,3.885240e-01,3.796909e-01
2.633729e+00,7.351670e-01,7.250309e-01,8,1,4.251094e-01,4.209211e-01
1.646747e+00,1.536271e+00,1.526117e+00,5,3,3.368625e-01,3.364668e-01
2.299742e+00,6.809450e-01,6.721020e-01,7,1,3.717362e-01,3.708027e-01
2.285956e+00,1.502455e+00,1.491070e+00,7,3,2.886796e-01,2.883911e-01
1.317200e+00,1.534101e+00,1.523972e+00,4,3,2.420800e-01,2.389299e-01
2.291063e+00,2.699240e-01,2.608299e-01,7,0,3.510697e-01,3.471417e-01
2.296164e+00,1.114285e+00,1.104116e+00,7,2,4.003663e-01,3.989215e-01
2.300697e+00,3.040130e+00,3.031015e+00,7,7,7.161071e-01,7.095374e-01
2.298325e+00,1.772837e+00,1.763105e+00,7,4,8.370393e-01,8.340487e-01
2.293144e+00,1.057567e+00,1.047850e+00,7,2,7.687569e-01,7.654183e-01
3.281132e+00,1.845050e+00,1.834869e+00,10,4,6.648557e-01,6.584138e-01
2.627241e+00,1.534268e+00,1.521826e+00,8,3,5.361553e-01,5.337049e-01
2.301694e+00,1.508279e+00,1.498938e+00,7,3,5.932805e-01,5.910558e-01
1.971998e+00,1.469692e+00,1.460075e+00,6,3,6.046114e-01,5.961292e-01
1.970995e+00,2.643345e+00,2.632856e+00,6,6,5.071803e-01,4.986227e-01
3.275599e+00,1.102018e+00,1.091003e+00,10,2,3.679040e-01,3.664422e-01
1.316416e+00,1.538649e+00,1.528978e+00,4,3,3.128361e-01,3.095753e-01
2.293715e+00,1.058683e+00,1.049995e+00,7,2,2.508721e-01,2.495952e-01
1.967683e+00,7.273630e-01,7.169247e-01,6,1,3.004937e-01,2.931895e-01
1.647893e+00,1.897640e+00,1.888037e+00,5,4,3.654970e-01,3.575154e-01
1.648127e+00,1.856564e+00,1.847029e+00,5,4,2.132903e-01,2.130109e-01
1.969996e+00,1.115290e+00,1.105070e+00,6,2,2.095991e-01,2.069102e-01
2.623381e+00,1.072754e+00,1.063108e+00,8,2,2.305621e-01,2.299259e-01
3.282762e+00,7.008710e-01,6.899834e-01,10,1,1.310147e-01,1.288100e-01
1.648315e+00,3.190750e-01,3.080368e-01,5,0,1.387130e-01,1.387117e-01
9.890950e-01,2.724300e-01,2.639294e-01,3,0,1.502383e-01,1.502217e-01
9.880670e-01,2.757220e-01,2.670288e-01,3,0,1.738829e-01,1.735345e-01
1.318361e+00,1.536748e+00,1.527071e+00,4,3,2.459601e-01,2.440897e-01
2.297696e+00,1.446608e+00,1.437902e+00,7,3,1.593350e-01,1.592890e-01
2.640756e+00,7.139920e-01,7.040501e-01,8,1,1.966525e-01,1.907872e-01
2.620259e+00,1.929660e+00,1.919985e+00,8,4,2.079268e-01,2.040121e-01
1.968549e+00,1.061122e+00,1.050949e+00,6,2,1.516924e-01,1.492317e-01
3.277443e+00,1.503077e+00,1.492977e+00,10,3,1.577450e-01,1.569281e-01
2.286491e+00,7.214390e-01,7.109642e-01,7,1,4.347120e-01,4.330137e-01
2.293301e+00,3.054063e+00,3.045082e+00,7,7,7.841855e-01,7.785421e-01
2.299937e+00,4.937462e+00,4.927158e+00,7,12,8.413608e-01,8.323542e-01
1.640629e+00,3.315860e+00,3.304005e+00,5,8,6.436682e-01,6.406134e-01
2.294615e+00,2.216479e+00,2.205849e+00,7,5,4.997890e-01,4.982226e-01
1.969238e+00,7.121520e-01,6.999969e-01,6,1,4.459662e-01,4.382986e-01
2.296184e+00,1.466106e+00,1.456976e+00,7,3,4.008150e-01,3.982959e-01
3.282032e+00,1.926659e+00,1.915932e+00,10,4,2.882037e-01,2.860070e-01
2.294883e+00,1.500319e+00,1.489162e+00,7,3,2.591627e-01,2.560194e-01
2.291421e+00,3.807068e+00,3.797054e+00,7,9,5.220404e-01,5.060253e-01
2.288242e+00,1.044174e+00,1.034021e+00,7,2,6.985780e-01,6.858949e-01
2.293865e+00,2.528970e+00,2.519131e+00,7,6,8.591095e-01,8.524560e-01
2.292263e+00,3.403123e+00,3.392935e+00,7,8,7.874734e-01,7.804917e-01
2.303261e+00,2.264269e+00,2.253056e+00,7,5,5.930523e-01,5.920704e-01
1.315864e+00,1.069709e+00,1.060009e+00,4,2,4.400847e-01,4.379901e-01
1.640792e+00,3.502963e+00,3.493071e+00,5,8,4.405293e-01,4.352776e-01
2.299691e+00,2.019089e+00,2.007961e+00,7,4,7.431228e-01,7.337211e-01
2.294648e+00,1.535961e+00,1.523972e+00,7,3,6.755693e-01,6.697907e-01
2.306194e+00,2.570511e+00,2.559900e+00,7,6,5.646713e-01,5.632504e-01
2.300340e+00,1.469343e+00,1.459122e+00,7,3,4.875380e-01,4.858650e-01
2.305377e+00,7.020170e-01,6.911755e-01,7,1,4.083280e-01,4.073437e-01
3.276697e+00,1.107286e+00,1.096010e+00,10,2,3.438817e-01,3.437001e-01
1.973923e+00,1.113224e+00,1.104116e+00,6,2,4.452382e-01,4.401585e-01
1.654749e+00,1.882674e+00,1.873016e+00,5,4,4.345849e-01,4.286660e-01
2.295988e+00,1.495525e+00,1.483917e+00,7,3,3.965936e-01,3.938998e-01
2.293361e+00,6.862330e-01,6.780624e-01,7,1,3.757559e-01,3.745372e-01
2.297802e+00,6.866710e-01,6.771088e-01,7,1,2.876799e-01,2.871606e-01
2.289375e+00,1.117021e+00,1.107931e+00,7,2,2.303113e-01,2.238463e-01
2.305969e+00,1.893731e+00,1.884222e+00,7,4,2.920130e-01,2.903227e-01
2.623048e+00,1.453188e+00,1.444101e+00,8,3,2.187693e-01,2.147684e-01
1.965930e+00,1.482253e+00,1.471996e+00,6,3,1.164414e-01,1.150057e-01
3.273599e+00,2.975250e-01,2.880096e-01,10,0,1.028211e-01,1.020669e-01
1.319220e+00,2.958190e-01,2.861023e-01,4,0,1.625500e-01,1.622670e-01
2.964151e+00,7.047240e-01,6.949902e-01,9,1,2.195211e-01,2.172559e-01
2.298612e+00,6.875210e-01,6.790161e-01,7,1,2.396813e-01,2.388873e-01
2.950028e+00,1.095172e+00,1.085043e+00,9,2,1.975046e-01,1.968258e-01
1.647955e+00,3.066850e-01,2.980232e-01,5,0,1.538099e-01,1.537563e-01
1.317161e+00,1.103173e+00,1.093864e+00,4,2,2.143668e-01,2.136785e-01
3.282032e+00,1.075204e+00,1.065969e+00,10,2,8.285155e-02,7.785351e-02
2.969715e+00,2.853600e-01,2.758503e-01,9,0,7.645709e-02,7.484732e-02
1.319403e+00,3.040760e-01,2.942085e-01,4,0,7.224021e-02,7.217073e-02
1.315494e+00,2.724980e-01,2.639294e-01,4,0,7.937957e-02,7.937927e-02
9.888770e-01,2.950380e-01,2.861023e-01,3,0,9.744010e-02,9.743721e-02
9.867330e-01,7.001670e-01,6.911755e-01,3,1,1.396845e-01,1.395929e-01
3.937335e+00,6.634860e-01,6.549358e-01,12,1,1.121616e-01,1.091082e-01
1.319898e+00,1.135716e+00,1.125097e+00,4,2,1.508698e-01,1.493295e-01
2.291968e+00,1.093879e+00,1.085043e+00,7,2,1.972219e-01,1.959218e-01
1.968224e+00,1.071738e+00,1.062870e+00,6,2,1.072948e-01,1.071844e-01
1.313770e+00,3.188390e-01,3.089905e-01,4,0,1.223792e-01,1.221986e-01
1.320884e+00,2.723200e-01,2.639294e-01,4,0,9.361934e-02,9.332033e-02
1.318793e+00,2.746590e-01,2.660751e-01,4,0,1.592596e-01,1.591916e-01
3.287679e+00,7.225950e-01,7.128716e-01,10,1,1.687901e-01,1.454869e-01
2.292263e+00,6.811390e-01,6.721020e-01,7,1,7.094570e-02,6.958277e-02
1.646877e+00,2.928410e-01,2.830029e-01,5,0,8.019509e-02,8.007654e-02
3.619644e+00,2.738940e-01,2.651215e-01,11,0,1.445233e-01,1.331225e-01
3.607215e+00,3.063000e-01,2.970695e-01,11,0,1.120429e-01,1.062312e-01
3.269408e+00,3.194580e-01,3.089905e-01,10,0,9.459303e-02,8.902761e-02
1.317304e+00,3.422540e-01,3.330708e-01,4,0,1.505139e-01,1.504231e-01
1.649479e+00,2.838200e-01,2.751350e-01,5,0,1.156593e-01,1.144816e-01
1.322935e+00,1.524429e+00,1.514912e+00,4,3,2.190710e-01,2.172547e-01
1.969265e+00,6.914300e-01,6.809235e-01,6,1,4.193282e-01,4.115257e-01
3.287467e+00,1.898085e+00,1.889229e+00,10,4,3.426209e-01,3.422503e-01
3.280684e+00,1.083950e+00,1.071930e+00,10,2,2.300043e-01,2.223504e-01
1.975756e+00,3.173567e+00,3.160954e+00,6,7,3.357529e-01,3.346874e-01
2.291972e+00,1.046134e+00,1.034975e+00,7,2,4.485791e-01,4.465390e-01
2.617662e+00,2.265031e+00,2.254009e+00,8,5,2.202137e-01,2.192240e-01
1.315754e+00,3.154950e-01,3.039837e-01,4,0,1.810723e-01,1.783311e-01
1.967836e+00,1.497824e+00,1.488924e+00,6,3,1.999753e-01,1.994423e-01
1.970265e+00,1.495798e+00,1.484156e+00,6,3,8.312021e-02,8.280154e-02
3.959134e+00,2.770870e-01,2.679825e-01,12,0,4.332379e-02,3.705026e-02
1.316105e+00,3.255750e-01,3.151894e-01,4,0,7.257275e-02,7.242714e-02
1.324077e+00,2.745080e-01,2.660751e-01,4,0,1.266557e-01,1.256738e-01
1.313834e+00,7.218840e-01,7.119179e-01,4,1,1.583463e-01,1.576494e-01
2.299816e+00,1.486189e+00,1.477003e+00,7,3,3.598625e-01,3.575814e-01
1.966983e+00,1.473256e+00,1.462936e+00,6,3,2.369426e-01,2.335312e-01
3.621839e+00,6.889800e-01,6.790161e-01,11,1,2.156530e-01,2.155314e-01
1.318591e+00,2.837050e-01,2.739429e-01,4,0,1.948198e-01,1.947806e-01
1.315155e+00,3.173550e-01,3.068447e-01,4,0,1.667154e-01,1.666798e-01
1.642147e+00,6.895090e-01,6.809235e-01,5,1,2.069761e-01,2.066245e-01
1.964212e+00,2.833770e-01,2.751350e-01,6,0,2.408125e-01,2.388208e-01
3.602987e+00,6.946150e-01,6.849766e-01,11,1,2.156724e-01,2.083641e-01
2.949578e+00,3.170620e-01,3.061295e-01,9,0,2.222806e-01,2.031664e-01
1.637136e+00,1.107355e+00,1.099110e+00,5,2,2.365092e-01,2.325227e-01
2.288981e+00,3.067260e-01,2.970695e-01,7,0,2.342833e-01,2.338759e-01
2.290613e+00,1.482226e+00,1.474142e+00,7,3,2.649754e-01,2.600738e-01
3.615015e+00,1.094430e+00,1.084805e+00,11,2,1.706649e-01,1.650535e-01
2.304884e+00,1.538346e+00,1.528025e+00,7,3,1.239255e-01,1.213180e-01
2.290465e+00,7.226740e-01,7.119179e-01,7,1,1.194785e-01,1.190203e-01
2.295494e+00,6.658350e-01,6.568432e-01,7,1,1.630741e-01,1.627824e-01
3.297060e+00,7.263130e-01,7.159710e-01,10,1,1.833557e-01,1.718901e-01
1.314387e+00,1.940129e+00,1.929045e+00,4,4,4.593704e-01,4.515657e-01
3.285033e+00,3.065875e+00,3.057003e+00,10,7,3.173575e-01,3.162142e-01
1.965804e+00,6.958960e-01,6.849766e-01,6,1,3.019837e-01,2.983923e-01
1.970011e+00,6.973450e-01,6.828308e-01,6,1,2.630346e-01,2.608157e-01
1.968787e+00,1.909167e+00,1.900911e+00,6,4,2.452999e-01,2.417109e-01
1.970423e+00,1.050126e+00,1.039982e+00,6,2,1.669689e-01,1.612036e-01
3.274825e+00,1.103410e+00,1.093149e+00,10,2,2.095838e-01,2.093077e-01
1.968855e+00,7.285110e-01,7.169247e-01,6,1,2.591630e-01,2.561990e-01
1.645177e+00,6.667680e-01,6.580353e-01,5,1,2.140106e-01,2.137762e-01
1.324138e+00,1.139592e+00,1.128912e+00,4,2,2.356195e-01,2.341679e-01
2.303316e+00,6.615590e-01,6.520748e-01,7,1,1.984684e-01,1.983435e-01
3.293713e+00,7.044470e-01,6.949902e-01,10,1,1.691482e-01,1.583934e-01
2.297135e+00,6.944050e-01,6.849766e-01,7,1,1.408730e-01,1.396745e-01
1.315841e+00,6.753250e-01,6.659031e-01,4,1,9.697603e-02,9.615374e-02
1.318814e+00,2.756540e-01,2.670288e-01,4,0,1.254789e-01,1.242652e-01
1.640872e+00,3.161960e-01,3.011227e-01,5,0,1.515300e-01,1.493600e-01
1.326977e+00,6.824270e-01,6.740093e-01,4,1,1.465788e-01,1.449323e-01
1.318490e+00,6.761990e-01,6.668568e-01,4,1,1.536759e-01,1.528901e-01
3.942099e+00,2.852750e-01,2.760887e-01,12,0,1.587005e-01,1.478253e-01
3.286723e+00,3.114010e-01,3.020763e-01,10,0,1.606444e-01,1.392091e-01
3.286133e+00,2.785580e-01,2.698898e-01,10,0,1.687351e-01,1.496040e-01
1.316414e+00,3.175700e-01,3.070831e-01,4,0,1.347940e-01,1.340825e-01
1.645750e+00,2.311938e+00,2.302885e+00,5,5,2.645162e-01,2.628461e-01
2.291981e+00,2.630360e+00,2.620935e+00,7,6,5.431507e-01,5.336368e-01
2.297784e+00,3.314188e+00,3.304005e+00,7,8,3.725597e-01,3.709219e-01
3.620187e+00,1.446482e+00,1.435995e+00,11,3,2.391645e-01,2.362993e-01
2.294421e+00,7.337020e-01,7.228851e-01,7,1,2.264540e-01,2.263045e-01
3.273218e+00,7.129230e-01,7.028580e-01,10,1,2.319979e-01,2.284059e-01
1.318381e+00,3.010780e-01,2.911091e-01,4,0,1.624994e-01,1.622393e-01
3.291989e+00,7.074060e-01,6.978512e-01,10,1,2.180990e-01,2.008158e-01
2.294481e+00,7.225840e-01,7.128716e-01,7,1,2.251769e-01,2.244393e-01
2.297886e+00,1.884343e+00,1.874924e+00,7,4,2.544196e-01,2.523700e-01
2.289990e+00,1.087797e+00,1.077890e+00,7,2,2.055422e-01,2.049971e-01
1.316795e+00,1.529134e+00,1.518011e+00,4,3,2.474896e-01,2.459564e-01
2.295381e+00,3.065072e+00,3.055096e+00,7,7,2.570453e-01,2.520347e-01
2.621298e+00,2.216418e+00,2.206087e+00,8,5,1.685213e-01,1.658052e-01
3.615860e+00,6.795160e-01,6.690025e-01,11,1,1.217160e-01,1.166175e-01
1.642616e+00,3.129880e-01,3.020763e-01,5,0,6.888802e-02,6.881446e-02
9.895510e-01,2.734260e-01,2.651215e-01,3,0,1.200642e-01,1.198074e-01
1.321062e+00,2.979290e-01,2.889633e-01,4,0,1.690446e-01,1.680444e-01
1.313869e+00,6.977760e-01,6.887913e-01,4,1,1.766216e-01,1.742564e-01
3.606337e+00,6.662840e-01,6.570816e-01,11,1,1.174706e-01,1.064357e-01
2.635361e+00,7.273690e-01,7.159710e-01,8,1,1.297855e-01,1.295136e-01
2.292618e+00,7.048040e-01,6.940365e-01,7,1,1.622153e-01,1.615745e-01
1.961831e+00,6.872250e-01,6.780624e-01,6,1,1.681075e-01,1.675827e-01
1.640971e+00,7.190400e-01,7.090569e-01,5,1,2.514383e-01,2.482992e-01
2.292596e+00,1.064353e+00,1.055002e+00,7,2,1.448135e-01,1.447906e-01
1.315181e+00,3.040860e-01,2.939701e-01,4,0,1.442995e-01,1.442922e-01
1.324136e+00,3.881657e+00,3.872871e+00,4,9,4.110159e-01,4.074420e-01
2.316078e+00,1.789656e+00,1.779079e+00,7,4,4.042412e-01,4.023294e-01
1.974214e+00,2.237292e+00,2.225876e+00,6,5,1.868237e-01,1.866076e-01
3.307793e+00,3.002030e-01,2.892017e-01,10,0,2.406192e-01,2.289409e-01
1.974231e+00,3.066110e-01,2.970695e-01,6,0,2.063965e-01,2.063099e-01
2.639942e+00,1.114443e+00,1.104116e+00,8,2,1.751170e-01,1.730788e-01
3.619917e+00,1.122536e+00,1.110077e+00,11,2,7.340244e-02,5.815926e-02
1.313557e+00,3.206590e-01,3.099442e-01,4,0,5.954110e-02,5.844513e-02
2.632806e+00,7.151870e-01,7.050037e-01,8,1,1.404886e-01,1.402572e-01
1.648485e+00,1.131878e+00,1.121044e+00,5,2,1.954831e-01,1.946665e-01
2.625648e+00,1.078776e+00,1.068830e+00,8,2,2.964865e-01,2.954662e-01
1.318888e+00,7.108370e-01,7.009506e-01,4,1,1.559738e-01,1.542880e-01
3.289605e+00,2.737210e-01,2.648830e-01,10,0,1.414258e-01,1.214635e-01
1.316405e+00,7.531740e-01,7.429123e-01,4,1,1.538124e-01,1.505008e-01
1.980037e+00,6.828600e-01,6.740093e-01,6,1,2.470013e-01,2.449263e-01
2.287953e+00,7.234720e-01,7.128716e-01,7,1,2.707664e-01,2.702038e-01
2.300276e+00,1.085230e+00,1.075983e+00,7,2,2.880686e-01,2.867388e-01
3.280548e+00,7.071540e-01,6.968975e-01,10,1,2.395071e-01,2.356858e-01
1.323941e+00,1.544306e+00,1.533985e+00,4,3,3.346869e-01,3.320734e-01
3.294928e+00,1.448729e+00,1.440048e+00,10,3,1.999313e-01,1.884156e-01
2.630712e+00,7.336750e-01,7.231236e-01,8,1,2.047070e-01,2.030248e-01
2.297657e+00,2.733219e+00,2.723217e+00,7,6,3.650097e-01,3.535481e-01
3.291385e+00,2.659531e+00,2.646923e+00,10,6,1.764307e-01,1.762061e-01
3.280290e+00,1.146754e+00,1.133919e+00,10,2,1.899300e-01,1.897753e-01
1.846700e+00,7.225190e-01,7.119179e-01,5,1,1.467983e-01,1.456118e-01
1.310953e+00,2.844200e-01,2.748966e-01,4,0,6.310887e-02,6.266101e-02
1.654199e+00,2.968030e-01,2.870560e-01,5,0,8.208066e-02,8.189881e-02
2.961631e+00,2.858450e-01,2.758503e-01,9,0,1.302894e-01,1.157330e-01
3.284353e+00,3.094770e-01,2.939701e-01,10,0,8.817572e-02,7.793022e-02
1.315618e+00,1.549733e+00,1.539946e+00,4,3,2.121835e-01,2.115014e-01
3.273661e+00,1.499209e+00,1.488924e+00,10,3,1.368012e-01,1.285673e-01
1.644419e+00,3.189140e-01,3.070831e-01,5,0,1.132879e-01,1.124383e-01
3.620629e+00,2.728690e-01,2.639294e-01,11,0,1.167530e-01,1.105606e-01
2.622857e+00,7.489740e-01,7.369518e-01,8,1,1.589937e-01,1.587200e-01
2.289216e+00,2.780160e-01,2.691746e-01,7,0,2.131107e-01,2.128950e-01
2.614275e+00,2.344857e+00,2.334833e+00,8,5,3.202424e-01,3.169160e-01
1.316929e+00,3.515053e+00,3.504038e+00,4,8,3.215405e-01,3.185251e-01
2.287420e+00,1.496123e+00,1.485109e+00,7,3,4.412138e-01,4.354561e-01
2.291448e+00,2.995915e+00,2.987146e+00,7,7,1.521381e-01,1.505780e-01
1.657753e+00,7.093560e-01,6.988049e-01,5,1,1.353866e-01,1.349525e-01
2.613190e+00,6.804730e-01,6.721020e-01,8,1,7.653310e-02,7.299305e-02
1.316182e+00,2.981280e-01,2.880096e-01,4,0,1.316981e-01,1.302649e-01
2.624554e+00,1.500141e+00,1.491070e+00,8,3,2.123227e-01,2.114119e-01
2.290997e+00,1.098734e+00,1.088142e+00,7,2,2.150806e-01,2.138101e-01
2.291474e+00,1.089473e+00,1.080036e+00,7,2,2.432811e-01,2.423442e-01
1.640068e+00,7.025520e-01,6.928444e-01,5,1,1.736605e-01,1.731143e-01
3.285079e+00,2.743850e-01,2.660751e-01,10,0,1.617988e-01,1.592198e-01
1.642879e+00,1.536283e+00,1.526117e+00,5,3,2.855809e-01,2.849050e-01
1.968626e+00,6.968870e-01,6.859303e-01,6,1,3.220072e-01,3.177153e-01
1.965901e+00,1.061391e+00,1.051903e+00,6,2,2.703685e-01,2.702279e-01
1.967303e+00,3.166660e-01,3.068447e-01,6,0,2.336990e-01,2.336932e-01
9.915260e-01,1.095461e+00,1.085997e+00,3,2,3.395514e-01,3.386439e-01
2.635188e+00,1.086451e+00,1.076937e+00,8,2,1.836666e-01,1.827382e-01
1.317003e+00,2.799760e-01,2.708435e-01,4,0,1.611054e-01,1.599562e-01
1.642845e+00,1.110440e+00,1.101017e+00,5,2,3.152694e-01,3.146726e-01
1.316865e+00,1.062145e+00,1.052856e+00,4,2,3.366710e-01,3.294965e-01
2.296495e+00,1.518641e+00,1.507998e+00,7,3,3.888091e-01,3.879918e-01
1.315802e+00,1.457092e+00,1.447916e+00,4,3,1.354187e-01,1.347122e-01
2.628948e+00,1.096584e+00,1.082897e+00,8,2,1.450327e-01,1.445569e-01
2.289857e+00,7.255750e-01,7.150173e-01,7,1,2.137282e-01,2.124952e-01
2.301460e+00,1.062018e+00,1.053095e+00,7,2,2.663734e-01,2.642704e-01
1.311264e+00,7.655270e-01,7.500648e-01,4,1,2.478366e-01,2.455083e-01
1.974560e+00,2.753630e-01,2.658367e-01,6,0,2.488678e-01,2.487697e-01
1.638480e+00,7.770500e-01,7.629395e-01,5,1,1.973836e-01,1.949783e-01
2.287608e+00,2.824750e-01,2.729893e-01,7,0,1.459080e-01,1.458654e-01

