n,hard,soft
4,0.925731,0.556959
5,0.643765,0.584063
6,1.694789,1.555712
7,2.137519,1.994622
8,3.2194,2.541521
9,5.07101,3.070459
10,4.690205,3.738324
11,5.586586,4.502126
12,6.568277,5.308358
13,7.391668,8.077464
14,9.829292,6.960573
15,11.39778,8.067309
16,11.19027,9.289424
17,12.78475,10.46477
18,14.49325,13.72804
19,16.30185,13.37173
20,18.25391,15.007
