1.867532e+00,2.174521e+00,1.639128e+00,2,0,0.000000e+00,0.000000e+00
2.788879e+00,3.865690e-01,3.612041e-01,3,0,2.981004e-01,2.981010e-01
2.790952e+00,3.932390e-01,3.759861e-01,3,0,3.599056e-01,3.599059e-01
2.787219e+00,4.012040e-01,3.838539e-01,3,0,2.229702e+00,2.229706e+00
2.770880e+00,4.033280e-01,3.859997e-01,3,0,1.503187e+00,1.503187e+00
2.735015e+00,3.710890e-01,3.550053e-01,3,0,1.400057e+00,1.400057e+00
2.748541e+00,3.838920e-01,3.681183e-01,3,0,4.804107e+00,4.804113e+00
2.729863e+00,3.903590e-01,3.740788e-01,3,0,5.579141e+00,5.579143e+00
2.734961e+00,4.015020e-01,3.850460e-01,3,0,6.728144e+00,6.728146e+00
2.740673e+00,3.782320e-01,3.621578e-01,3,0,6.632286e+00,6.632288e+00
2.733581e+00,1.698615e+00,1.682997e+00,3,2,1.054866e+01,1.054862e+01
3.649468e+00,1.570913e+00,1.554012e+00,4,2,7.195772e+00,7.195770e+00
2.736404e+00,3.920560e-01,3.750324e-01,3,0,8.216297e+00,8.216301e+00
2.741134e+00,3.928300e-01,3.759861e-01,3,0,6.883692e+00,6.883693e+00
2.738548e+00,3.877220e-01,3.709793e-01,3,0,5.959202e+00,5.959203e+00
2.731029e+00,3.912220e-01,3.750324e-01,3,0,5.888057e+00,5.888059e+00
2.741120e+00,3.910440e-01,3.747940e-01,3,0,5.182907e+00,5.182908e+00
2.743219e+00,1.058054e+00,1.041889e+00,3,1,4.795323e+00,4.795592e+00
2.735840e+00,9.801580e-01,9.639263e-01,3,1,4.027718e+00,4.027718e+00
2.726615e+00,3.840710e-01,3.671646e-01,3,0,3.669422e+00,3.669423e+00
2.734770e+00,3.864980e-01,3.697872e-01,3,0,3.686914e+00,3.686915e+00
2.739317e+00,3.824370e-01,3.669262e-01,3,0,2.743736e+00,2.743736e+00
2.741950e+00,3.845700e-01,3.690720e-01,3,0,3.513130e+00,3.513133e+00
2.728448e+00,3.903820e-01,3.738403e-01,3,0,3.329479e+00,3.329480e+00
2.733113e+00,3.976330e-01,3.809929e-01,3,0,3.187505e+00,3.187505e+00
2.734282e+00,3.691420e-01,3.540516e-01,3,0,3.827169e+00,3.827171e+00
2.738019e+00,3.885660e-01,3.728867e-01,3,0,2.716916e+00,2.716917e+00
2.733978e+00,3.845570e-01,3.681183e-01,3,0,2.297279e+00,2.297279e+00
2.733286e+00,3.890250e-01,3.731251e-01,3,0,1.844793e+00,1.844793e+00
2.735918e+00,3.903910e-01,3.738403e-01,3,0,2.397625e+00,2.397626e+00
2.736844e+00,3.845130e-01,3.681183e-01,3,0,1.949041e+00,1.949042e+00
2.738329e+00,3.746600e-01,3.581047e-01,3,0,2.769630e+00,2.769634e+00
2.743594e+00,3.802520e-01,3.640652e-01,3,0,3.316140e+00,3.316142e+00
2.734246e+00,3.940110e-01,3.771782e-01,3,0,3.591524e+00,3.591526e+00
2.737212e+00,3.907710e-01,3.738403e-01,3,0,2.176355e+00,2.176355e+00
2.733790e+00,3.944560e-01,3.778934e-01,3,0,2.603750e+00,2.603752e+00
2.733743e+00,3.925350e-01,3.759861e-01,3,0,2.658363e+00,2.658364e+00
2.732903e+00,3.912930e-01,3.750324e-01,3,0,2.027866e+00,2.027867e+00
2.731781e+00,3.993300e-01,3.831387e-01,3,0,1.635336e+00,1.635336e+00
2.737339e+00,3.929600e-01,3.759861e-01,3,0,1.514686e+00,1.514687e+00
2.736910e+00,3.946420e-01,3.778934e-01,3,0,2.174938e+00,2.174941e+00
2.737859e+00,3.926940e-01,3.759861e-01,3,0,1.749257e+00,1.749257e+00
2.729568e+00,3.925100e-01,3.759861e-01,3,0,1.542032e+00,1.542033e+00
2.730956e+00,3.827400e-01,3.659725e-01,3,0,3.383957e+00,3.383961e+00
2.738263e+00,1.080967e+00,1.063824e+00,3,1,4.587076e+00,4.589782e+00
2.749469e+00,9.983840e-01,9.810925e-01,3,1,2.343486e+00,2.343484e+00
2.735075e+00,4.037910e-01,3.859997e-01,3,0,1.849874e+00,1.849875e+00
2.739096e+00,3.963150e-01,3.798008e-01,3,0,1.767093e+00,1.767094e+00
2.741087e+00,3.705460e-01,3.550053e-01,3,0,2.714593e+00,2.714596e+00
2.733097e+00,3.863900e-01,3.700256e-01,3,0,1.834846e+00,1.834846e+00
2.729471e+00,3.952380e-01,3.778934e-01,3,0,1.052900e+00,1.052900e+00
2.734365e+00,4.020340e-01,3.850460e-01,3,0,1.689210e+00,1.689212e+00
2.741619e+00,3.706180e-01,3.550053e-01,3,0,1.823648e+00,1.823649e+00
2.734619e+00,3.906920e-01,3.740788e-01,3,0,2.054222e+00,2.054224e+00
2.735348e+00,3.911360e-01,3.750324e-01,3,0,1.376093e+00,1.376093e+00
2.727331e+00,3.975310e-01,3.809929e-01,3,0,1.500696e+00,1.500696e+00
2.728660e+00,3.773270e-01,3.619194e-01,3,0,1.686901e+00,1.686902e+00
2.736651e+00,3.822140e-01,3.659725e-01,3,0,1.567418e+00,1.567419e+00
2.737526e+00,3.881360e-01,3.709793e-01,3,0,1.939159e+00,1.939160e+00
2.737859e+00,3.897210e-01,3.731251e-01,3,0,3.706977e+00,3.706981e+00
2.730470e+00,3.899890e-01,3.738403e-01,3,0,2.228121e+00,2.228121e+00
2.736081e+00,3.808610e-01,3.650188e-01,3,0,2.284232e+00,2.284233e+00
2.740257e+00,3.885170e-01,3.709793e-01,3,0,3.327520e+00,3.327523e+00
2.735542e+00,3.944180e-01,3.778934e-01,3,0,2.330644e+00,2.330644e+00
2.733345e+00,3.962930e-01,3.790855e-01,3,0,1.445491e+00,1.445491e+00
2.729189e+00,3.755020e-01,3.600121e-01,3,0,1.879426e+00,1.879427e+00
2.732932e+00,3.909600e-01,3.740788e-01,3,0,1.307159e+00,1.307159e+00
2.737355e+00,3.888030e-01,3.719330e-01,3,0,8.683366e-01,8.683367e-01
2.740077e+00,3.929310e-01,3.771782e-01,3,0,8.033127e-01,8.033133e-01
2.737912e+00,3.719760e-01,3.559589e-01,3,0,8.252692e-01,8.252697e-01
2.724608e+00,3.887410e-01,3.721714e-01,3,0,8.878894e-01,8.878901e-01
2.742839e+00,3.937130e-01,3.769398e-01,3,0,1.154344e+00,1.154345e+00
2.732736e+00,3.901890e-01,3.728867e-01,3,0,9.145426e-01,9.145435e-01
2.741972e+00,3.797670e-01,3.650188e-01,3,0,5.186829e-01,5.186830e-01
2.737430e+00,3.739540e-01,3.581047e-01,3,0,1.687122e+00,1.687125e+00
2.729136e+00,4.121630e-01,3.950596e-01,3,0,1.648997e+00,1.648997e+00
2.740099e+00,3.982430e-01,3.819466e-01,3,0,1.693040e+00,1.693041e+00
2.740779e+00,3.942680e-01,3.781319e-01,3,0,2.026327e+00,2.026328e+00
2.751897e+00,3.707630e-01,3.550053e-01,3,0,4.816313e+00,4.816317e+00
2.727508e+00,3.882610e-01,3.709793e-01,3,0,6.149685e+00,6.149687e+00
2.731148e+00,3.971940e-01,3.800392e-01,3,0,5.213942e+00,5.213943e+00
2.736131e+00,3.913310e-01,3.712177e-01,3,0,4.555880e+00,4.555881e+00
2.737829e+00,3.900200e-01,3.738403e-01,3,0,5.356069e+00,5.356072e+00
2.736734e+00,3.876530e-01,3.709793e-01,3,0,5.100548e+00,5.100550e+00
2.727248e+00,3.928390e-01,3.759861e-01,3,0,4.071635e+00,4.071636e+00
2.729421e+00,3.950690e-01,3.788471e-01,3,0,3.468412e+00,3.468413e+00
2.736991e+00,3.748280e-01,3.590584e-01,3,0,2.673497e+00,2.673497e+00
2.737619e+00,3.853210e-01,3.688335e-01,3,0,2.389343e+00,2.389343e+00
2.744306e+00,3.933600e-01,3.762245e-01,3,0,2.033998e+00,2.033999e+00
2.734612e+00,3.993080e-01,3.829002e-01,3,0,1.876356e+00,1.876357e+00
2.731269e+00,3.749330e-01,3.590584e-01,3,0,1.742228e+00,1.742229e+00
2.738165e+00,3.866990e-01,3.700256e-01,3,0,2.353090e+00,2.353092e+00
2.734160e+00,3.929290e-01,3.769398e-01,3,0,1.839110e+00,1.839110e+00
2.734131e+00,3.892990e-01,3.731251e-01,3,0,3.450954e+00,3.450957e+00
2.799640e+00,3.771540e-01,3.621578e-01,3,0,4.194962e+00,4.194964e+00
2.736061e+00,3.875340e-01,3.709793e-01,3,0,2.469197e+00,2.469197e+00
2.729139e+00,8.918050e-01,8.749962e-01,3,1,5.964552e+00,5.964382e+00
4.552350e+00,8.706980e-01,8.540154e-01,5,1,4.369864e+00,4.369670e+00
2.727675e+00,3.868140e-01,3.700256e-01,3,0,1.623371e+00,1.623368e+00
2.730950e+00,3.904030e-01,3.728867e-01,3,0,1.692095e+00,1.692096e+00
2.764955e+00,4.026010e-01,3.850460e-01,3,0,2.215824e+00,2.215826e+00
2.733725e+00,3.829610e-01,3.671646e-01,3,0,2.305506e+00,2.305507e+00
2.737881e+00,3.761110e-01,3.609657e-01,3,0,4.291551e+00,4.291554e+00
2.734973e+00,3.898710e-01,3.738403e-01,3,0,4.487123e+00,4.487124e+00
2.725778e+00,3.991480e-01,3.819466e-01,3,0,3.770399e+00,3.770400e+00
2.732425e+00,4.009110e-01,3.838539e-01,3,0,4.886310e+00,4.886313e+00
2.731782e+00,3.700720e-01,3.540516e-01,3,0,7.600464e+00,7.600469e+00
2.734452e+00,1.406159e+00,1.389027e+00,3,2,1.058205e+01,1.058082e+01
5.465833e+00,6.280048e+00,6.263018e+00,6,9,1.262827e+01,1.264212e+01
4.569778e+00,5.918313e+00,5.889177e+00,5,9,8.146870e+00,8.162395e+00
2.744041e+00,1.612859e+00,1.595020e+00,3,2,6.627039e+00,6.627011e+00
2.739677e+00,3.889320e-01,3.719330e-01,3,0,5.278261e+00,5.278261e+00
2.742640e+00,3.771780e-01,3.609657e-01,3,0,5.005637e+00,5.005638e+00
2.731346e+00,4.059470e-01,3.888607e-01,3,0,3.920533e+00,3.920533e+00
2.738589e+00,4.040910e-01,3.869534e-01,3,0,4.074256e+00,4.074258e+00
2.736794e+00,3.094019e+00,3.076077e+00,3,4,4.675510e+00,4.740330e+00
2.743905e+00,2.704477e+00,2.677917e+00,3,0,9.396666e+00,2.909064e+01
5.456907e+00,2.657473e+00,2.635002e+00,6,0,9.618617e+00,2.525926e+01
3.654987e+00,3.886206e+00,3.861666e+00,4,2,6.237434e+00,7.679644e+00
4.558248e+00,3.296031e+00,3.271103e+00,5,2,6.658714e+00,7.222833e+00
3.646192e+00,2.084900e+00,2.061129e+00,4,0,9.703493e+00,2.107883e+01
4.547402e+00,1.101514e+00,1.084089e+00,5,1,7.270491e+00,7.247429e+00
3.645323e+00,9.949730e-01,9.779930e-01,4,1,5.976932e+00,5.976932e+00
2.732010e+00,3.948870e-01,3.778934e-01,3,0,3.019113e+00,3.019115e+00
2.734653e+00,4.021460e-01,3.850460e-01,3,0,2.301399e+00,2.301399e+00
2.742985e+00,3.741350e-01,3.590584e-01,3,0,2.015959e+00,2.015959e+00
2.735760e+00,3.838310e-01,3.681183e-01,3,0,1.617367e+00,1.617367e+00
2.765319e+00,3.919410e-01,3.759861e-01,3,0,1.451495e+00,1.451495e+00
2.731298e+00,4.028610e-01,3.850460e-01,3,0,9.649223e-01,9.649228e-01
2.736623e+00,3.983220e-01,3.819466e-01,3,0,2.964021e+00,2.964026e+00
2.738057e+00,3.728070e-01,3.571510e-01,3,0,3.741698e+00,3.741700e+00
2.737179e+00,3.921800e-01,3.759861e-01,3,0,4.517099e+00,4.517100e+00
2.737323e+00,3.943210e-01,3.781319e-01,3,0,8.614284e+00,8.614293e+00
2.730959e+00,3.993730e-01,3.829002e-01,3,0,8.854586e+00,8.854588e+00
2.736675e+00,3.770330e-01,3.569126e-01,3,0,7.980370e+00,7.980371e+00
2.734801e+00,3.860640e-01,3.690720e-01,3,0,5.071802e+00,5.071801e+00
2.742272e+00,3.874220e-01,3.709793e-01,3,0,4.143985e+00,4.143987e+00
2.728391e+00,3.945560e-01,3.769398e-01,3,0,4.835795e+00,4.835797e+00
2.738847e+00,3.825996e+00,3.810167e+00,3,5,6.978019e+00,7.202353e+00
2.752091e+00,4.365322e+00,4.347086e+00,3,6,5.848577e+00,5.928540e+00
2.787687e+00,1.022066e+01,1.020193e+01,3,15,1.084445e+01,1.172236e+01
5.546563e+00,8.990894e+00,8.971930e+00,6,14,1.143231e+01,1.200765e+01
4.558811e+00,8.210082e+00,8.192062e+00,5,13,1.031745e+01,1.051515e+01
3.657419e+00,5.381438e+00,5.362988e+00,4,8,7.337646e+00,7.345345e+00
2.744131e+00,1.001194e+00,9.839535e-01,3,1,6.828734e+00,6.828733e+00
2.743008e+00,3.947340e-01,3.769398e-01,3,0,6.459339e+00,6.459339e+00
2.742267e+00,3.721730e-01,3.569126e-01,3,0,7.317300e+00,7.317304e+00
2.740469e+00,3.879280e-01,3.709793e-01,3,0,4.379776e+00,4.379775e+00
2.739147e+00,4.008710e-01,3.840923e-01,3,0,4.164910e+00,4.164911e+00
2.738120e+00,3.946960e-01,3.778934e-01,3,0,4.189777e+00,4.189780e+00
2.808291e+00,2.540040e+00,2.524137e+00,3,3,3.999013e+00,4.000583e+00
2.824815e+00,2.758016e+00,2.728939e+00,3,0,5.260254e+00,9.451173e+00
2.776267e+00,2.276520e+00,2.255917e+00,3,3,3.738321e+00,3.738320e+00
2.811758e+00,4.131390e-01,3.931522e-01,3,0,2.357660e+00,2.357660e+00
2.843696e+00,4.500140e-01,4.308224e-01,3,0,2.054870e+00,2.054871e+00
2.884358e+00,4.267190e-01,4.091263e-01,3,0,1.800649e+00,1.800650e+00
2.814626e+00,3.979890e-01,3.809929e-01,3,0,1.301180e+00,1.301181e+00
2.819960e+00,4.035380e-01,3.859997e-01,3,0,3.249059e+00,3.249063e+00
2.816973e+00,4.052740e-01,3.881454e-01,3,0,2.736054e+00,2.736054e+00
2.814628e+00,4.089350e-01,3.910065e-01,3,0,4.031574e+00,4.031577e+00
2.816455e+00,4.102380e-01,3.931522e-01,3,0,4.463430e+00,4.463432e+00
2.814007e+00,1.145175e+00,1.128912e+00,3,1,8.328058e+00,8.330075e+00
2.816910e+00,1.010966e+00,9.939671e-01,3,1,5.911013e+00,5.911012e+00
2.821959e+00,3.987620e-01,3.809929e-01,3,0,3.995913e+00,3.995912e+00
2.819713e+00,4.047770e-01,3.881454e-01,3,0,3.242556e+00,3.242556e+00
2.810795e+00,4.136670e-01,3.969669e-01,3,0,2.823340e+00,2.823341e+00
2.815706e+00,3.859000e-01,3.700256e-01,3,0,2.718373e+00,2.718374e+00
2.817955e+00,3.948980e-01,3.790855e-01,3,0,2.492674e+00,2.492675e+00
2.825722e+00,4.194200e-01,4.019737e-01,3,0,2.117858e+00,2.117859e+00
2.819939e+00,4.744940e-01,4.520416e-01,3,0,2.094573e+00,2.094574e+00
2.817177e+00,4.342400e-01,4.158020e-01,3,0,1.816016e+00,1.816017e+00
2.816295e+00,4.365820e-01,4.179478e-01,3,0,2.205007e+00,2.205009e+00
2.825758e+00,4.199550e-01,4.010201e-01,3,0,2.414741e+00,2.414742e+00
2.822861e+00,4.111380e-01,3.931522e-01,3,0,2.788999e+00,2.789000e+00
2.815580e+00,4.079350e-01,3.910065e-01,3,0,3.218601e+00,3.218602e+00
2.816181e+00,3.870130e-01,3.709793e-01,3,0,3.046066e+00,3.046066e+00
2.814414e+00,4.067900e-01,3.898144e-01,3,0,3.530996e+00,3.530998e+00
2.812973e+00,4.117590e-01,3.941059e-01,3,0,2.039395e+00,2.039394e+00
2.812151e+00,4.122050e-01,3.950596e-01,3,0,3.223013e+00,3.223016e+00
2.814035e+00,3.834450e-01,3.669262e-01,3,0,2.186897e+00,2.186897e+00
2.818073e+00,3.999760e-01,3.829002e-01,3,0,1.744588e+00,1.744588e+00
2.819000e+00,4.228660e-01,4.048347e-01,3,0,1.619824e+00,1.619825e+00
2.818101e+00,4.231830e-01,4.038811e-01,3,0,1.664214e+00,1.664215e+00
2.813560e+00,3.918830e-01,3.750324e-01,3,0,1.655540e+00,1.655541e+00
2.820206e+00,4.179740e-01,3.998280e-01,3,0,1.086000e+00,1.086000e+00
2.818361e+00,4.200550e-01,4.029274e-01,3,0,1.292450e+00,1.292452e+00
2.816417e+00,4.258010e-01,4.069805e-01,3,0,6.647535e-01,6.647538e-01
2.817987e+00,3.886970e-01,3.731251e-01,3,0,9.422098e-01,9.422105e-01
2.817282e+00,4.015290e-01,3.838539e-01,3,0,1.600472e+00,1.600473e+00
2.821850e+00,4.063900e-01,3.890991e-01,3,0,2.429688e+00,2.429689e+00
2.816813e+00,4.148720e-01,3.981590e-01,3,0,3.294515e+00,3.294517e+00
2.815640e+00,3.942720e-01,3.769398e-01,3,0,2.943267e+00,2.943267e+00
2.818842e+00,3.902850e-01,3.731251e-01,3,0,1.234291e+00,1.234291e+00
2.808552e+00,4.158880e-01,3.991127e-01,3,0,1.400990e+00,1.400991e+00
2.811227e+00,4.135230e-01,3.960133e-01,3,0,1.643235e+00,1.643236e+00
2.821149e+00,4.069180e-01,3.900528e-01,3,0,1.270229e+00,1.270229e+00
2.819425e+00,3.835420e-01,3.669262e-01,3,0,1.039081e+00,1.039082e+00
2.811284e+00,4.077620e-01,3.910065e-01,3,0,9.870579e-01,9.870584e-01
2.846524e+00,4.058220e-01,3.879070e-01,3,0,1.345554e+00,1.345555e+00
2.834395e+00,4.088230e-01,3.910065e-01,3,0,1.238950e+00,1.238950e+00
2.822470e+00,3.896970e-01,3.740788e-01,3,0,1.154382e+00,1.154383e+00
2.835459e+00,3.977260e-01,3.800392e-01,3,0,1.959893e+00,1.959894e+00
2.822874e+00,4.050520e-01,3.871918e-01,3,0,1.463424e+00,1.463424e+00
2.817364e+00,4.127370e-01,3.950596e-01,3,0,1.478461e+00,1.478462e+00
2.817285e+00,3.976480e-01,3.821850e-01,3,0,1.421870e+00,1.421871e+00
2.819980e+00,3.891770e-01,3.731251e-01,3,0,3.336188e+00,3.336194e+00
2.809493e+00,4.091740e-01,3.919601e-01,3,0,2.002375e+00,2.002375e+00
2.815953e+00,4.119100e-01,3.950596e-01,3,0,1.956548e+00,1.956549e+00
2.817330e+00,4.086320e-01,3.910065e-01,3,0,3.081002e+00,3.081004e+00
2.811541e+00,3.829590e-01,3.669262e-01,3,0,4.863613e+00,4.863617e+00
2.815726e+00,4.027800e-01,3.859997e-01,3,0,2.649473e+00,2.649472e+00
2.822718e+00,4.030580e-01,3.850460e-01,3,0,2.254465e+00,2.254466e+00
2.817101e+00,4.070340e-01,3.898144e-01,3,0,2.064764e+00,2.064765e+00
2.812572e+00,3.886590e-01,3.728867e-01,3,0,2.177926e+00,2.177927e+00
2.813782e+00,3.973280e-01,3.798008e-01,3,0,1.786456e+00,1.786456e+00
2.819914e+00,4.031860e-01,3.859997e-01,3,0,1.549910e+00,1.549910e+00
2.804914e+00,4.102320e-01,3.929138e-01,3,0,1.626751e+00,1.626752e+00
2.811619e+00,3.970120e-01,3.800392e-01,3,0,1.299160e+00,1.299161e+00
2.820731e+00,3.878760e-01,3.719330e-01,3,0,3.463036e+00,3.463041e+00
2.810769e+00,4.025350e-01,3.859997e-01,3,0,1.927920e+00,1.927920e+00
2.817938e+00,4.120680e-01,3.950596e-01,3,0,1.591379e+00,1.591379e+00
2.818371e+00,4.061060e-01,3.890991e-01,3,0,2.360541e+00,2.360543e+00
2.820677e+00,3.834610e-01,3.669262e-01,3,0,3.125231e+00,3.125233e+00
2.812620e+00,4.059800e-01,3.888607e-01,3,0,3.479036e+00,3.479037e+00
2.813868e+00,4.044160e-01,3.881454e-01,3,0,1.402024e+00,1.402023e+00
2.815219e+00,4.056240e-01,3.879070e-01,3,0,8.818663e-01,8.818664e-01
2.811661e+00,3.887030e-01,3.728867e-01,3,0,1.314825e+00,1.314826e+00
2.814624e+00,4.038100e-01,3.871918e-01,3,0,2.062683e+00,2.062685e+00
2.825310e+00,4.034690e-01,3.859997e-01,3,0,2.548552e+00,2.548554e+00
2.808673e+00,4.106040e-01,3.890991e-01,3,0,2.057823e+00,2.057824e+00
2.810734e+00,3.949370e-01,3.788471e-01,3,0,1.760862e+00,1.760862e+00
2.810989e+00,3.900140e-01,3.728867e-01,3,0,1.029614e+00,1.029614e+00
2.820653e+00,4.033580e-01,3.859997e-01,3,0,1.438019e+00,1.438021e+00
2.810200e+00,4.111700e-01,3.941059e-01,3,0,7.388890e-01,7.388889e-01
2.808949e+00,4.072730e-01,3.900528e-01,3,0,5.790255e-01,5.790257e-01
2.816384e+00,3.836060e-01,3.681183e-01,3,0,1.519916e+00,1.519918e+00
2.804480e+00,4.104050e-01,3.931522e-01,3,0,1.790200e+00,1.790203e+00
2.812114e+00,4.099760e-01,3.929138e-01,3,0,1.258276e+00,1.258276e+00
2.817498e+00,4.068900e-01,3.888607e-01,3,0,1.017551e+00,1.017552e+00
2.816020e+00,3.830740e-01,3.681183e-01,3,0,9.776409e-01,9.776419e-01
2.815170e+00,4.036520e-01,3.869534e-01,3,0,1.632338e+00,1.632339e+00
2.818891e+00,4.047760e-01,3.879070e-01,3,0,2.838119e+00,2.838122e+00
2.821101e+00,4.048680e-01,3.869534e-01,3,0,2.687789e+00,2.687789e+00
2.810330e+00,3.884480e-01,3.731251e-01,3,0,5.935242e+00,5.935248e+00
2.815332e+00,3.958010e-01,3.788471e-01,3,0,4.280948e+00,4.280948e+00
2.825070e+00,2.540124e+00,2.523184e+00,3,3,8.421305e+00,8.425246e+00
4.700529e+00,2.117782e+00,2.099991e+00,5,3,6.040842e+00,6.039731e+00
3.751023e+00,4.101570e-01,3.921986e-01,4,0,4.512724e+00,4.512724e+00
2.826550e+00,4.117570e-01,3.888607e-01,3,0,3.740370e+00,3.740371e+00
2.819958e+00,4.079830e-01,3.910065e-01,3,0,2.998562e+00,2.998562e+00
2.808870e+00,3.885430e-01,3.719330e-01,3,0,2.653263e+00,2.653264e+00
2.817924e+00,4.052290e-01,3.879070e-01,3,0,2.487918e+00,2.487919e+00
2.818031e+00,4.044930e-01,3.869534e-01,3,0,3.229353e+00,3.229356e+00
2.819701e+00,4.040830e-01,3.869534e-01,3,0,2.125003e+00,2.125003e+00
2.816823e+00,3.892460e-01,3.740788e-01,3,0,2.868164e+00,2.868168e+00
2.817344e+00,3.924540e-01,3.759861e-01,3,0,1.222936e+00,1.222936e+00
2.818144e+00,4.018930e-01,3.850460e-01,3,0,1.898667e+00,1.898669e+00
2.814486e+00,4.170170e-01,4.000664e-01,3,0,1.043148e+00,1.043149e+00
2.814262e+00,3.995600e-01,3.829002e-01,3,0,1.051730e+00,1.051730e+00
2.819340e+00,3.858510e-01,3.700256e-01,3,0,1.035906e+00,1.035907e+00
2.807258e+00,4.152010e-01,3.979206e-01,3,0,1.010111e+00,1.010112e+00
2.817266e+00,4.094220e-01,3.919601e-01,3,0,1.082853e+00,1.082853e+00
2.820175e+00,4.068460e-01,3.888607e-01,3,0,1.095828e+00,1.095828e+00
2.808962e+00,3.832950e-01,3.681183e-01,3,0,1.132018e+00,1.132019e+00
2.814938e+00,4.041730e-01,3.869534e-01,3,0,9.615286e-01,9.615290e-01
2.814825e+00,4.014200e-01,3.840923e-01,3,0,1.049270e+00,1.049271e+00
2.813956e+00,4.039430e-01,3.869534e-01,3,0,7.879088e-01,7.879091e-01
2.812905e+00,3.886210e-01,3.731251e-01,3,0,1.439363e+00,1.439365e+00
2.819294e+00,3.962710e-01,3.790855e-01,3,0,1.335670e+00,1.335671e+00
2.815708e+00,4.000210e-01,3.831387e-01,3,0,3.141573e+00,3.141576e+00
2.805224e+00,4.092130e-01,3.910065e-01,3,0,1.910718e+00,1.910718e+00
2.816490e+00,4.036770e-01,3.859997e-01,3,0,8.631936e-01,8.631934e-01
2.818834e+00,3.858700e-01,3.700256e-01,3,0,1.186081e+00,1.186082e+00
2.820274e+00,4.045150e-01,3.869534e-01,3,0,1.261711e+00,1.261711e+00
2.817012e+00,4.110870e-01,3.938675e-01,3,0,1.672320e+00,1.672321e+00
2.817193e+00,4.069300e-01,3.890991e-01,3,0,2.347209e+00,2.347210e+00
2.827569e+00,3.833210e-01,3.681183e-01,3,0,2.956519e+00,2.956521e+00
2.818054e+00,4.048560e-01,3.879070e-01,3,0,2.625336e+00,2.625336e+00
2.818284e+00,4.041700e-01,3.871918e-01,3,0,2.381874e+00,2.381875e+00
2.819285e+00,4.048040e-01,3.879070e-01,3,0,2.840120e+00,2.840121e+00
2.821271e+00,3.898440e-01,3.740788e-01,3,0,4.242098e+00,4.242101e+00
2.813736e+00,3.962920e-01,3.790855e-01,3,0,3.232897e+00,3.232897e+00
2.814769e+00,4.012020e-01,3.840923e-01,3,0,2.060546e+00,2.060546e+00
2.804491e+00,4.105630e-01,3.929138e-01,3,0,1.917774e+00,1.917774e+00
2.820455e+00,4.012440e-01,3.850460e-01,3,0,1.570783e+00,1.570784e+00
2.818117e+00,3.881650e-01,3.721714e-01,3,0,1.788717e+00,1.788719e+00
2.815387e+00,4.036000e-01,3.859997e-01,3,0,1.670397e+00,1.670398e+00
2.816204e+00,4.135730e-01,3.960133e-01,3,0,1.852885e+00,1.852887e+00
2.818104e+00,4.066640e-01,3.888607e-01,3,0,1.575074e+00,1.575075e+00
2.810593e+00,3.831800e-01,3.681183e-01,3,0,1.322500e+00,1.322501e+00
2.807384e+00,4.028440e-01,3.859997e-01,3,0,1.608497e+00,1.608498e+00
2.830738e+00,4.104140e-01,3.881454e-01,3,0,1.947952e+00,1.947953e+00
2.735272e+00,3.975850e-01,3.800392e-01,3,0,3.513622e+00,3.513624e+00
2.760163e+00,3.727490e-01,3.578663e-01,3,0,3.981975e+00,3.981977e+00
2.735255e+00,3.933790e-01,3.769398e-01,3,0,3.370380e+00,3.370380e+00
2.731322e+00,3.971650e-01,3.809929e-01,3,0,4.707157e+00,4.707160e+00
2.737031e+00,1.075178e+00,1.057863e+00,3,1,6.499834e+00,6.513260e+00
2.762375e+00,9.965680e-01,9.799004e-01,3,1,7.406377e+00,7.406380e+00
2.741484e+00,3.952190e-01,3.781319e-01,3,0,5.772756e+00,5.772756e+00
2.741938e+00,3.724110e-01,3.559589e-01,3,0,3.672912e+00,3.672912e+00
2.739131e+00,3.832680e-01,3.669262e-01,3,0,3.393920e+00,3.393921e+00
2.802633e+00,3.772120e-01,3.621578e-01,3,0,2.305089e+00,2.305089e+00
2.729235e+00,4.197540e-01,4.019737e-01,3,0,2.182125e+00,2.182126e+00
2.786511e+00,3.980110e-01,3.819466e-01,3,0,1.942341e+00,1.942342e+00
2.762606e+00,4.614810e-01,4.370213e-01,3,0,1.774993e+00,1.774993e+00
2.728826e+00,5.190300e-01,4.980564e-01,3,0,1.636768e+00,1.636768e+00
2.767734e+00,4.185550e-01,3.988743e-01,3,0,1.690944e+00,1.690946e+00
2.739121e+00,4.578730e-01,4.367828e-01,3,0,1.753688e+00,1.753689e+00
2.738922e+00,4.629680e-01,4.432201e-01,3,0,1.618223e+00,1.618224e+00
2.739822e+00,4.431590e-01,4.239082e-01,3,0,1.499648e+00,1.499649e+00
2.738993e+00,4.044790e-01,3.879070e-01,3,0,2.850304e+00,2.850306e+00
2.737978e+00,3.989870e-01,3.821850e-01,3,0,2.594243e+00,2.594244e+00
2.753341e+00,3.771320e-01,3.609657e-01,3,0,4.129187e+00,4.129190e+00
2.741112e+00,3.947620e-01,3.778934e-01,3,0,3.962295e+00,3.962295e+00
2.740846e+00,3.927660e-01,3.759861e-01,3,0,4.596367e+00,4.596369e+00
2.737820e+00,3.963220e-01,3.790855e-01,3,0,6.442923e+00,6.442927e+00
2.742676e+00,3.725070e-01,3.569126e-01,3,0,7.415846e+00,7.415849e+00
2.732856e+00,3.926330e-01,3.759861e-01,3,0,5.716735e+00,5.716735e+00
2.731920e+00,4.049250e-01,3.881454e-01,3,0,4.806163e+00,4.806164e+00
2.734178e+00,3.954010e-01,3.778934e-01,3,0,4.709871e+00,4.709872e+00
2.736974e+00,3.737270e-01,3.581047e-01,3,0,3.777732e+00,3.777732e+00
2.733646e+00,3.852970e-01,3.690720e-01,3,0,3.416251e+00,3.416251e+00
2.724893e+00,3.969020e-01,3.800392e-01,3,0,2.955894e+00,2.955894e+00
2.734335e+00,3.980980e-01,3.809929e-01,3,0,2.458325e+00,2.458325e+00
2.764520e+00,3.841650e-01,3.688335e-01,3,0,2.550069e+00,2.550070e+00
2.734154e+00,3.794700e-01,3.628731e-01,3,0,2.255615e+00,2.255616e+00
2.733312e+00,3.881720e-01,3.719330e-01,3,0,1.336178e+00,1.336178e+00
2.724304e+00,4.051960e-01,3.890991e-01,3,0,1.991934e+00,1.991936e+00
2.749970e+00,3.986930e-01,3.829002e-01,3,0,1.945321e+00,1.945322e+00
2.742499e+00,3.733330e-01,3.578663e-01,3,0,2.295225e+00,2.295226e+00
2.742702e+00,3.900410e-01,3.740788e-01,3,0,1.917948e+00,1.917949e+00
2.729176e+00,3.928080e-01,3.762245e-01,3,0,2.861790e+00,2.861792e+00
2.729796e+00,3.983210e-01,3.819466e-01,3,0,1.172088e+00,1.172087e+00
2.733875e+00,3.734320e-01,3.578663e-01,3,0,1.207366e+00,1.207367e+00
2.735893e+00,3.838190e-01,3.669262e-01,3,0,3.169206e+00,3.169210e+00
2.732893e+00,3.894670e-01,3.731251e-01,3,0,4.162678e+00,4.162681e+00
2.735378e+00,3.962010e-01,3.790855e-01,3,0,2.831877e+00,2.831876e+00
2.733503e+00,3.845340e-01,3.688335e-01,3,0,3.689524e+00,3.689526e+00
2.736422e+00,3.807090e-01,3.638268e-01,3,0,3.553527e+00,3.553528e+00
2.736300e+00,3.886010e-01,3.721714e-01,3,0,2.756447e+00,2.756447e+00
2.737873e+00,3.921320e-01,3.759861e-01,3,0,2.418443e+00,2.418444e+00
2.733977e+00,3.967200e-01,3.809929e-01,3,0,4.230816e+00,4.230812e+00
2.730719e+00,3.761760e-01,3.600121e-01,3,0,2.672076e+00,2.672061e+00
2.762094e+00,4.024780e-01,3.859997e-01,3,0,1.647522e+00,1.647522e+00
2.737484e+00,3.922970e-01,3.750324e-01,3,0,2.018341e+00,2.018342e+00
2.731990e+00,3.946770e-01,3.781319e-01,3,0,1.763221e+00,1.763221e+00
2.736292e+00,3.784580e-01,3.631115e-01,3,0,1.355416e+00,1.355417e+00
2.730714e+00,3.916410e-01,3.759861e-01,3,0,1.132915e+00,1.132915e+00
2.756600e+00,3.908490e-01,3.738403e-01,3,0,1.383428e+00,1.383429e+00
2.732873e+00,3.948040e-01,3.769398e-01,3,0,1.589472e+00,1.589474e+00
2.737535e+00,3.820920e-01,3.669262e-01,3,0,1.614565e+00,1.614566e+00
2.730802e+00,3.937400e-01,3.781319e-01,3,0,6.387642e-01,6.387640e-01
2.761963e+00,3.951730e-01,3.788471e-01,3,0,1.263129e+00,1.263130e+00
2.742078e+00,3.950660e-01,3.778934e-01,3,0,1.756925e+00,1.756926e+00
2.742515e+00,3.936980e-01,3.769398e-01,3,0,1.214975e+00,1.214976e+00
2.750872e+00,3.720470e-01,3.569126e-01,3,0,6.896474e-01,6.896477e-01
2.732934e+00,4.220200e-01,4.048347e-01,3,0,1.322707e+00,1.322709e+00
2.742845e+00,3.951100e-01,3.781319e-01,3,0,2.747684e+00,2.747686e+00
2.739911e+00,3.936500e-01,3.769398e-01,3,0,3.122748e+00,3.122750e+00
2.767713e+00,3.735310e-01,3.578663e-01,3,0,3.745935e+00,3.745936e+00
2.726325e+00,3.898880e-01,3.738403e-01,3,0,2.934402e+00,2.934402e+00
2.731948e+00,3.967190e-01,3.800392e-01,3,0,2.319153e+00,2.319153e+00
2.738224e+00,3.968550e-01,3.800392e-01,3,0,1.680245e+00,1.680245e+00
2.735596e+00,3.829600e-01,3.678799e-01,3,0,1.510748e+00,1.510749e+00
2.730279e+00,3.785620e-01,3.619194e-01,3,0,3.475020e+00,3.475024e+00
2.744678e+00,2.461621e+00,2.444983e+00,3,3,4.952406e+00,4.966882e+00
3.640376e+00,2.170047e+00,2.152205e+00,4,3,2.345955e+00,2.345953e+00
2.740045e+00,3.950130e-01,3.778934e-01,3,0,2.364500e+00,2.364501e+00
2.738663e+00,3.774220e-01,3.609657e-01,3,0,1.781333e+00,1.781333e+00
2.734331e+00,3.781970e-01,3.619194e-01,3,0,1.292388e+00,1.292389e+00
2.740148e+00,3.860570e-01,3.690720e-01,3,0,5.982890e-01,5.982893e-01
2.731208e+00,3.985770e-01,3.809929e-01,3,0,8.724916e-01,8.724922e-01
2.733828e+00,4.127050e-01,3.960133e-01,3,0,6.429651e-01,6.429653e-01
2.761418e+00,3.717080e-01,3.559589e-01,3,0,7.267693e-01,7.267701e-01
2.739713e+00,3.890210e-01,3.728867e-01,3,0,7.403457e-01,7.403468e-01
2.732638e+00,3.907380e-01,3.740788e-01,3,0,3.214886e+00,3.214890e+00
2.737051e+00,4.074690e-01,3.831387e-01,3,0,5.166954e+00,5.166954e+00
2.733514e+00,1.107156e+00,1.091957e+00,3,1,6.496184e+00,6.496862e+00
2.735984e+00,9.744010e-01,9.582043e-01,3,1,3.328825e+00,3.328821e+00
2.731163e+00,3.847190e-01,3.681183e-01,3,0,2.543168e+00,2.543168e+00
2.734817e+00,3.938540e-01,3.781319e-01,3,0,2.612517e+00,2.612519e+00
2.740276e+00,3.947730e-01,3.778934e-01,3,0,2.705704e+00,2.705705e+00
2.729479e+00,3.941040e-01,3.781319e-01,3,0,2.846806e+00,2.846807e+00
2.744500e+00,1.826359e+00,1.810074e+00,3,2,5.080861e+00,5.113948e+00
2.745290e+00,2.704654e+00,2.681255e+00,3,0,1.008151e+01,2.494750e+01
5.485717e+00,2.689829e+00,2.665758e+00,6,0,1.225672e+01,2.876389e+01
5.460246e+00,1.124274e+00,1.101017e+00,6,1,7.547308e+00,7.543234e+00
3.641517e+00,3.312355e+00,3.288269e+00,4,2,9.436417e+00,1.180556e+01
3.640464e+00,8.743890e-01,8.571148e-01,4,1,7.125081e+00,7.124987e+00
2.735984e+00,3.871440e-01,3.700256e-01,3,0,5.271544e+00,5.271425e+00
2.737619e+00,3.914790e-01,3.750324e-01,3,0,6.471873e+00,6.471879e+00
2.726217e+00,4.008670e-01,3.840923e-01,3,0,5.618434e+00,5.618435e+00
2.733377e+00,3.813470e-01,3.659725e-01,3,0,7.608868e+00,7.608873e+00
2.733591e+00,3.804270e-01,3.640652e-01,3,0,5.902795e+00,5.902795e+00
2.736835e+00,3.876170e-01,3.709793e-01,3,0,4.483681e+00,4.483681e+00
2.732030e+00,3.917130e-01,3.750324e-01,3,0,4.020976e+00,4.020977e+00
2.726433e+00,3.965590e-01,3.800392e-01,3,0,3.094427e+00,3.094427e+00
2.741028e+00,3.780390e-01,3.619194e-01,3,0,2.888103e+00,2.888104e+00
2.761757e+00,3.889840e-01,3.728867e-01,3,0,3.291346e+00,3.291348e+00
2.737147e+00,3.933670e-01,3.769398e-01,3,0,2.571925e+00,2.571925e+00
2.726847e+00,4.088450e-01,3.910065e-01,3,0,1.174217e+00,1.174217e+00
2.725868e+00,3.775100e-01,3.621578e-01,3,0,1.972185e+00,1.972186e+00
2.739408e+00,3.924310e-01,3.719330e-01,3,0,1.997746e+00,1.997747e+00
2.734646e+00,3.917340e-01,3.747940e-01,3,0,1.105918e+00,1.105918e+00
2.735843e+00,3.939430e-01,3.769398e-01,3,0,1.114494e+00,1.114495e+00
2.729132e+00,3.818410e-01,3.659725e-01,3,0,9.310651e-01,9.310653e-01
2.736577e+00,3.865690e-01,3.709793e-01,3,0,7.802638e-01,7.802642e-01
2.735105e+00,3.878860e-01,3.719330e-01,3,0,1.263091e+00,1.263093e+00
2.737793e+00,3.937240e-01,3.778934e-01,3,0,8.592391e-01,8.592393e-01
2.742082e+00,3.912430e-01,3.750324e-01,3,0,1.329574e+00,1.329575e+00
2.759585e+00,3.778800e-01,3.619194e-01,3,0,2.423947e+00,2.423949e+00
2.736896e+00,4.009760e-01,3.790855e-01,3,0,2.648755e+00,2.648757e+00
2.735982e+00,3.924420e-01,3.759861e-01,3,0,2.116984e+00,2.116985e+00
2.760307e+00,3.932050e-01,3.759861e-01,3,0,1.666201e+00,1.666201e+00
2.766792e+00,3.731530e-01,3.569126e-01,3,0,1.109046e+00,1.109046e+00
2.731717e+00,3.915280e-01,3.750324e-01,3,0,2.155936e+00,2.155938e+00
2.739175e+00,4.618920e-01,4.451275e-01,3,0,1.948723e+00,1.948724e+00
2.738200e+00,3.745150e-01,3.590584e-01,3,0,4.287806e+00,4.287810e+00
2.738642e+00,3.817690e-01,3.650188e-01,3,0,2.829841e+00,2.829840e+00
2.752509e+00,4.003300e-01,3.829002e-01,3,0,1.982913e+00,1.982913e+00
2.745324e+00,4.016300e-01,3.838539e-01,3,0,3.599257e+00,3.599260e+00
2.736527e+00,3.977190e-01,3.800392e-01,3,0,3.308568e+00,3.308569e+00
2.740274e+00,3.928220e-01,3.759861e-01,3,0,3.792307e+00,3.792309e+00
2.781842e+00,3.986940e-01,3.809929e-01,3,0,3.616082e+00,3.616083e+00
2.731723e+00,4.016020e-01,3.840923e-01,3,0,3.168031e+00,3.168031e+00
2.736491e+00,3.876150e-01,3.719330e-01,3,0,2.862350e+00,2.862351e+00
2.738634e+00,3.753640e-01,3.590584e-01,3,0,3.123848e+00,3.123850e+00
2.736355e+00,3.906140e-01,3.740788e-01,3,0,2.293018e+00,2.293018e+00
2.730070e+00,4.014080e-01,3.850460e-01,3,0,2.090619e+00,2.090620e+00
2.759087e+00,4.019660e-01,3.850460e-01,3,0,2.032072e+00,2.032073e+00
2.738512e+00,3.725710e-01,3.569126e-01,3,0,2.145502e+00,2.145504e+00
2.742179e+00,3.867020e-01,3.700256e-01,3,0,1.756338e+00,1.756338e+00
2.733910e+00,3.961030e-01,3.719330e-01,3,0,2.950886e+00,2.950889e+00
2.730476e+00,3.976220e-01,3.809929e-01,3,0,3.588799e+00,3.588801e+00
2.758015e+00,3.791600e-01,3.638268e-01,3,0,5.137349e+00,5.137352e+00
2.736131e+00,3.814480e-01,3.650188e-01,3,0,7.576455e+00,7.576460e+00
2.735144e+00,1.112598e+00,1.096964e+00,3,1,7.613250e+00,7.613593e+00
2.733503e+00,9.912340e-01,9.739399e-01,3,1,4.682868e+00,4.682867e+00
2.773259e+00,3.884610e-01,3.709793e-01,3,0,4.125087e+00,4.125088e+00
2.732383e+00,3.961160e-01,3.790855e-01,3,0,3.396980e+00,3.396981e+00
2.740541e+00,3.728410e-01,3.569126e-01,3,0,2.239274e+00,2.239274e+00
2.758241e+00,3.953410e-01,3.778934e-01,3,0,2.243202e+00,2.243203e+00
2.737180e+00,4.000030e-01,3.829002e-01,3,0,2.909488e+00,2.909491e+00
2.731892e+00,3.972190e-01,3.800392e-01,3,0,2.670832e+00,2.670834e+00
2.767155e+00,1.108060e+00,1.091957e+00,3,1,4.180717e+00,4.180824e+00
2.739713e+00,9.826640e-01,9.658337e-01,3,1,4.148641e+00,4.148642e+00
2.737690e+00,3.788320e-01,3.621578e-01,3,0,4.158757e+00,4.158758e+00
2.741545e+00,3.908030e-01,3.728867e-01,3,0,4.007576e+00,4.007577e+00
2.731307e+00,3.980690e-01,3.800392e-01,3,0,3.549812e+00,3.549813e+00
2.727730e+00,4.016260e-01,3.850460e-01,3,0,3.682443e+00,3.682444e+00
2.735467e+00,3.761950e-01,3.612041e-01,3,0,1.671085e+00,1.671085e+00
2.734774e+00,3.889680e-01,3.731251e-01,3,0,1.546731e+00,1.546732e+00
2.730006e+00,3.898320e-01,3.728867e-01,3,0,1.173817e+00,1.173817e+00
2.732322e+00,3.928240e-01,3.759861e-01,3,0,2.043508e+00,2.043510e+00
2.724504e+00,3.801670e-01,3.650188e-01,3,0,1.503401e+00,1.503402e+00
2.735428e+00,3.824720e-01,3.669262e-01,3,0,1.253273e+00,1.253274e+00
2.731899e+00,3.866620e-01,3.709793e-01,3,0,8.426970e-01,8.426973e-01
2.733421e+00,3.929180e-01,3.759861e-01,3,0,8.052929e-01,8.052934e-01
2.728965e+00,3.868020e-01,3.709793e-01,3,0,9.850239e-01,9.850247e-01
2.728197e+00,3.812360e-01,3.650188e-01,3,0,8.358680e-01,8.358682e-01
2.757986e+00,3.928680e-01,3.759861e-01,3,0,2.317594e+00,2.317597e+00
2.735827e+00,3.910500e-01,3.740788e-01,3,0,2.152668e+00,2.152669e+00
2.736061e+00,3.938800e-01,3.769398e-01,3,0,2.328922e+00,2.328923e+00
2.728861e+00,3.720340e-01,3.559589e-01,3,0,1.935999e+00,1.936000e+00
2.730095e+00,3.937920e-01,3.769398e-01,3,0,2.556836e+00,2.556838e+00
2.740668e+00,2.512164e+00,2.495050e+00,3,3,7.753507e+00,7.797406e+00
6.377225e+00,5.744056e+00,5.726099e+00,7,8,1.122668e+01,1.138357e+01
6.380884e+00,7.111245e+00,7.093191e+00,7,11,6.409954e+00,6.409927e+00
2.732637e+00,9.052850e-01,8.881092e-01,3,1,6.722059e+00,6.720836e+00
4.579749e+00,9.116880e-01,8.940697e-01,5,1,5.386229e+00,5.385345e+00
3.645544e+00,3.947180e-01,3.769398e-01,4,0,4.609931e+00,4.609931e+00
2.732309e+00,3.992690e-01,3.819466e-01,3,0,3.415360e+00,3.415359e+00
2.729125e+00,3.775370e-01,3.621578e-01,3,0,2.811436e+00,2.811436e+00
2.738230e+00,3.974220e-01,3.809929e-01,3,0,3.462090e+00,3.462092e+00
2.737276e+00,3.949720e-01,3.778934e-01,3,0,2.836194e+00,2.836195e+00
2.737006e+00,3.949980e-01,3.781319e-01,3,0,2.157823e+00,2.157824e+00
2.728279e+00,3.743980e-01,3.590584e-01,3,0,2.170133e+00,2.170134e+00
2.722474e+00,3.869220e-01,3.709793e-01,3,0,2.997184e+00,2.997186e+00
2.730900e+00,3.939530e-01,3.781319e-01,3,0,3.287193e+00,3.287194e+00
2.737222e+00,3.891520e-01,3.728867e-01,3,0,2.308765e+00,2.308765e+00
2.739686e+00,3.835440e-01,3.669262e-01,3,0,1.605628e+00,1.605628e+00
2.733779e+00,3.732960e-01,3.581047e-01,3,0,1.055688e+00,1.055690e+00
2.732970e+00,3.948130e-01,3.778934e-01,3,0,8.252304e-01,8.252306e-01
2.758983e+00,3.996160e-01,3.819466e-01,3,0,1.579785e+00,1.579787e+00
2.735719e+00,3.951650e-01,3.778934e-01,3,0,4.245297e+00,4.245301e+00
2.739034e+00,3.726100e-01,3.569126e-01,3,0,3.410456e+00,3.410456e+00
2.732786e+00,3.888060e-01,3.721714e-01,3,0,3.589409e+00,3.589410e+00
2.733995e+00,3.966820e-01,3.788471e-01,3,0,3.625135e+00,3.625136e+00
2.748685e+00,3.933830e-01,3.759861e-01,3,0,4.496771e+00,4.496773e+00
2.736133e+00,3.750750e-01,3.590584e-01,3,0,4.059654e+00,4.059655e+00
2.751672e+00,2.456628e+00,2.439976e+00,3,3,8.874701e+00,8.898335e+00
3.674991e+00,2.180755e+00,2.162933e+00,4,3,6.774891e+00,6.774890e+00
2.730333e+00,3.947220e-01,3.771782e-01,3,0,4.146104e+00,4.146103e+00
2.735444e+00,3.986420e-01,3.819466e-01,3,0,4.658729e+00,4.658731e+00
2.739901e+00,3.989980e-01,3.838539e-01,3,0,3.161513e+00,3.161513e+00
2.746806e+00,2.554565e+00,2.538204e+00,3,3,4.325414e+00,4.336943e+00
2.770305e+00,1.702442e+00,1.684189e+00,3,2,4.016904e+00,4.025718e+00
2.735498e+00,1.877391e+00,1.859903e+00,3,2,4.397163e+00,4.400097e+00
2.727021e+00,2.187639e+00,2.169847e+00,3,3,2.409206e+00,2.409205e+00
2.743292e+00,3.948070e-01,3.769398e-01,3,0,1.762131e+00,1.762131e+00

