9.431230e-01,9.527440e-01,6.980896e-01,2,0,0.000000e+00,0.000000e+00
1.332765e+00,1.665890e-01,1.549721e-01,3,0,8.193058e-02,8.193074e-02
1.329090e+00,1.644850e-01,1.549721e-01,3,0,3.339468e-01,3.339473e-01
1.373299e+00,1.634330e-01,1.540184e-01,3,0,3.143827e-01,3.143829e-01
1.332092e+00,1.645060e-01,1.549721e-01,3,0,1.234091e+00,1.234093e+00
1.373290e+00,1.639900e-01,1.549721e-01,3,0,1.820400e+00,1.820401e+00
1.333591e+00,1.636340e-01,1.540184e-01,3,0,7.904648e-01,7.904644e-01
1.335989e+00,1.635960e-01,1.540184e-01,3,0,5.548025e-01,5.548025e-01
1.331754e+00,1.632810e-01,1.540184e-01,3,0,9.098071e-01,9.098081e-01
1.330445e+00,1.630840e-01,1.530647e-01,3,0,2.643851e+00,2.643854e+00
1.359300e+00,1.636460e-01,1.537800e-01,3,0,3.521030e+00,3.521032e+00
1.332262e+00,1.683690e-01,1.590252e-01,3,0,5.401207e+00,5.401211e+00
1.356771e+00,1.635080e-01,1.537800e-01,3,0,3.906060e+00,3.906059e+00
1.332300e+00,1.688890e-01,1.590252e-01,3,0,3.821178e+00,3.821178e+00
1.335500e+00,1.639590e-01,1.540184e-01,3,0,4.130744e+00,4.130746e+00
1.331515e+00,1.636900e-01,1.540184e-01,3,0,4.555921e+00,4.555923e+00
1.336783e+00,1.631610e-01,1.540184e-01,3,0,3.081153e+00,3.081153e+00
1.331666e+00,1.633080e-01,1.540184e-01,3,0,3.042321e+00,3.042322e+00
1.336867e+00,1.637410e-01,1.540184e-01,3,0,2.053895e+00,2.053894e+00
1.332659e+00,1.638280e-01,1.540184e-01,3,0,1.648537e+00,1.648537e+00
1.335799e+00,1.639580e-01,1.540184e-01,3,0,1.779535e+00,1.779536e+00
1.330809e+00,1.638860e-01,1.540184e-01,3,0,1.995336e+00,1.995337e+00
1.334935e+00,1.639490e-01,1.540184e-01,3,0,1.562491e+00,1.562491e+00
1.331636e+00,1.632810e-01,1.540184e-01,3,0,1.361983e+00,1.361984e+00
1.331321e+00,1.633800e-01,1.540184e-01,3,0,1.246552e+00,1.246552e+00
1.331119e+00,1.637690e-01,1.540184e-01,3,0,9.682573e-01,9.682576e-01
1.330654e+00,1.685030e-01,1.590252e-01,3,0,5.351648e-01,5.351648e-01
1.335443e+00,1.633890e-01,1.540184e-01,3,0,4.425743e-01,4.425747e-01
1.331827e+00,1.679870e-01,1.580715e-01,3,0,7.187914e-01,7.187921e-01
1.329813e+00,1.640880e-01,1.549721e-01,3,0,1.231469e+00,1.231470e+00
1.331079e+00,1.637640e-01,1.549721e-01,3,0,2.266509e+00,2.266511e+00
1.336185e+00,1.636620e-01,1.549721e-01,3,0,3.080572e+00,3.080573e+00
1.332370e+00,1.633640e-01,1.540184e-01,3,0,2.726629e+00,2.726629e+00
1.336663e+00,1.635890e-01,1.537800e-01,3,0,2.680951e+00,2.680952e+00
1.331745e+00,1.632160e-01,1.540184e-01,3,0,2.526431e+00,2.526432e+00
1.337098e+00,1.638960e-01,1.540184e-01,3,0,2.456689e+00,2.456690e+00
1.332618e+00,1.638740e-01,1.540184e-01,3,0,1.966151e+00,1.966151e+00
1.336494e+00,1.639650e-01,1.540184e-01,3,0,1.697874e+00,1.697874e+00
1.331431e+00,1.640910e-01,1.549721e-01,3,0,1.579117e+00,1.579117e+00
1.334495e+00,1.638370e-01,1.549721e-01,3,0,1.330361e+00,1.330362e+00
1.330895e+00,1.632750e-01,1.540184e-01,3,0,1.225111e+00,1.225111e+00
1.344441e+00,1.632780e-01,1.540184e-01,3,0,1.379984e+00,1.379985e+00
1.331593e+00,1.640620e-01,1.540184e-01,3,0,1.043081e+00,1.043081e+00
1.356403e+00,1.677750e-01,1.580715e-01,3,0,1.137167e+00,1.137168e+00
1.330939e+00,1.648250e-01,1.552105e-01,3,0,2.400504e+00,2.400506e+00
1.332063e+00,1.674680e-01,1.571178e-01,3,0,3.588394e-01,3.588392e-01
1.336778e+00,1.631750e-01,1.540184e-01,3,0,1.063356e+00,1.063358e+00
1.340725e+00,1.634810e-01,1.537800e-01,3,0,1.252178e+00,1.252179e+00
1.338720e+00,1.644380e-01,1.549721e-01,3,0,1.927499e+00,1.927500e+00
1.331663e+00,1.631210e-01,1.528263e-01,3,0,7.858908e-01,7.858907e-01
1.340808e+00,1.636430e-01,1.540184e-01,3,0,7.365630e-01,7.365633e-01
1.331370e+00,1.641460e-01,1.540184e-01,3,0,1.026469e+00,1.026469e+00
1.353043e+00,1.638920e-01,1.549721e-01,3,0,1.191389e+00,1.191390e+00
1.332308e+00,1.645530e-01,1.549721e-01,3,0,1.770519e+00,1.770521e+00
1.344546e+00,1.643120e-01,1.549721e-01,3,0,1.910123e+00,1.910124e+00
1.331812e+00,1.638580e-01,1.549721e-01,3,0,1.242352e+00,1.242352e+00
1.331627e+00,1.685580e-01,1.590252e-01,3,0,1.233827e+00,1.233828e+00
1.331144e+00,1.639600e-01,1.540184e-01,3,0,1.059630e+00,1.059630e+00
1.331642e+00,1.688010e-01,1.590252e-01,3,0,1.094722e+00,1.094722e+00
1.330955e+00,1.629450e-01,1.528263e-01,3,0,5.186396e-01,5.186401e-01
1.330933e+00,1.679360e-01,1.580715e-01,3,0,1.721407e+00,1.721410e+00
1.336812e+00,1.632710e-01,1.540184e-01,3,0,8.180417e-01,8.180413e-01
1.331929e+00,1.630220e-01,1.540184e-01,3,0,8.089178e-01,8.089185e-01
1.334325e+00,1.628960e-01,1.530647e-01,3,0,2.286534e+00,2.286536e+00
1.332783e+00,1.633880e-01,1.540184e-01,3,0,4.104395e+00,4.104398e+00
1.337220e+00,1.636220e-01,1.540184e-01,3,0,5.186831e+00,5.186834e+00
1.332440e+00,1.694430e-01,1.599789e-01,3,0,4.646795e+00,4.646795e+00
1.336056e+00,1.636460e-01,1.540184e-01,3,0,3.276442e+00,3.276442e+00
1.332154e+00,1.633140e-01,1.540184e-01,3,0,2.759350e+00,2.759350e+00
1.336484e+00,1.631540e-01,1.540184e-01,3,0,2.116711e+00,2.116711e+00
1.332318e+00,1.633240e-01,1.540184e-01,3,0,1.593888e+00,1.593888e+00
1.330722e+00,1.631540e-01,1.528263e-01,3,0,1.984059e+00,1.984060e+00
1.331730e+00,1.636610e-01,1.540184e-01,3,0,1.746889e+00,1.746890e+00
1.331372e+00,1.682360e-01,1.590252e-01,3,0,1.560985e+00,1.560986e+00
1.330069e+00,1.636890e-01,1.549721e-01,3,0,1.489772e+00,1.489773e+00
1.331148e+00,1.681280e-01,1.580715e-01,3,0,1.267041e+00,1.267041e+00
1.331791e+00,1.634270e-01,1.537800e-01,3,0,1.290915e+00,1.290916e+00
1.330040e+00,1.678530e-01,1.540184e-01,3,0,2.093565e+00,2.093567e+00
1.341111e+00,1.639070e-01,1.540184e-01,3,0,9.930380e-01,9.930376e-01
1.331157e+00,1.639720e-01,1.537800e-01,3,0,1.440214e+00,1.440215e+00
1.336720e+00,1.633610e-01,1.540184e-01,3,0,6.168046e-01,6.168045e-01
1.330129e+00,1.639890e-01,1.549721e-01,3,0,6.486012e-01,6.486016e-01
1.334963e+00,1.639940e-01,1.540184e-01,3,0,6.458249e-01,6.458252e-01
1.330743e+00,1.636900e-01,1.540184e-01,3,0,7.233478e-01,7.233482e-01
1.335740e+00,1.638110e-01,1.540184e-01,3,0,7.478178e-01,7.478181e-01
1.330962e+00,1.641110e-01,1.549721e-01,3,0,1.064691e+00,1.064692e+00
1.338049e+00,1.634960e-01,1.540184e-01,3,0,1.177700e+00,1.177700e+00
1.331548e+00,1.635680e-01,1.549721e-01,3,0,1.874518e+00,1.874520e+00
1.330839e+00,1.640520e-01,1.540184e-01,3,0,1.928039e+00,1.928040e+00
1.331591e+00,1.630520e-01,1.528263e-01,3,0,4.589904e+00,4.589908e+00
1.331890e+00,1.675590e-01,1.580715e-01,3,0,2.356051e+00,2.356050e+00
1.331135e+00,1.635520e-01,1.540184e-01,3,0,1.821841e+00,1.821841e+00
1.331997e+00,1.680420e-01,1.587868e-01,3,0,1.550170e+00,1.550171e+00
1.335572e+00,1.631440e-01,1.530647e-01,3,0,2.494850e+00,2.494853e+00
1.332863e+00,1.636650e-01,1.540184e-01,3,0,1.447907e+00,1.447906e+00
1.336585e+00,1.635240e-01,1.549721e-01,3,0,1.382700e+00,1.382700e+00
1.332577e+00,1.637570e-01,1.540184e-01,3,0,1.329238e+00,1.329239e+00
1.336029e+00,1.631480e-01,1.537800e-01,3,0,2.078078e+00,2.078080e+00
1.331045e+00,1.631730e-01,1.540184e-01,3,0,1.100201e+00,1.100201e+00
1.335468e+00,1.631330e-01,1.530647e-01,3,0,7.328598e-01,7.328601e-01
1.331230e+00,1.632370e-01,1.540184e-01,3,0,5.909246e-01,5.909248e-01
1.334287e+00,1.632970e-01,1.540184e-01,3,0,5.329295e-01,5.329299e-01
1.331036e+00,1.640450e-01,1.549721e-01,3,0,4.186103e-01,4.186105e-01
1.335268e+00,1.639840e-01,1.549721e-01,3,0,5.654971e-01,5.654975e-01
1.332641e+00,1.635780e-01,1.537800e-01,3,0,6.360340e-01,6.360344e-01
1.331052e+00,1.637320e-01,1.540184e-01,3,0,9.161548e-01,9.161556e-01
1.331452e+00,1.638640e-01,1.540184e-01,3,0,9.592467e-01,9.592472e-01
1.330579e+00,1.678880e-01,1.580715e-01,3,0,1.151272e+00,1.151273e+00
1.330169e+00,1.639710e-01,1.549721e-01,3,0,1.214467e+00,1.214468e+00
1.332043e+00,1.683300e-01,1.590252e-01,3,0,8.427260e-01,8.427261e-01
1.334870e+00,1.634140e-01,1.530647e-01,3,0,9.681886e-01,9.681894e-01
1.331128e+00,1.633910e-01,1.540184e-01,3,0,2.104984e+00,2.104987e+00
1.335753e+00,1.638330e-01,1.540184e-01,3,0,2.405114e+00,2.405115e+00
1.332242e+00,1.639080e-01,1.537800e-01,3,0,2.321857e+00,2.321857e+00
1.336202e+00,1.634670e-01,1.540184e-01,3,0,2.050884e+00,2.050884e+00
1.331308e+00,1.636260e-01,1.540184e-01,3,0,2.237768e+00,2.237769e+00
1.336010e+00,1.638650e-01,1.540184e-01,3,0,2.562660e+00,2.562661e+00
1.332152e+00,1.634570e-01,1.540184e-01,3,0,3.365837e+00,3.365839e+00
1.336177e+00,1.636800e-01,1.549721e-01,3,0,3.916651e+00,3.916653e+00
1.333293e+00,1.627960e-01,1.540184e-01,3,0,2.482886e+00,2.482885e+00
1.337231e+00,1.640150e-01,1.540184e-01,3,0,2.297676e+00,2.297677e+00
1.331407e+00,1.634210e-01,1.540184e-01,3,0,2.507445e+00,2.507446e+00
1.331700e+00,1.679320e-01,1.590252e-01,3,0,2.183640e+00,2.183641e+00
1.331506e+00,1.640230e-01,1.549721e-01,3,0,1.852831e+00,1.852831e+00
1.331192e+00,1.692760e-01,1.602173e-01,3,0,1.642339e+00,1.642340e+00
1.331442e+00,1.636560e-01,1.540184e-01,3,0,1.893659e+00,1.893660e+00
1.333076e+00,1.679710e-01,1.580715e-01,3,0,1.000815e+00,1.000815e+00
1.335846e+00,1.637630e-01,1.540184e-01,3,0,9.230756e-01,9.230759e-01
1.356500e+00,1.637960e-01,1.540184e-01,3,0,1.134676e+00,1.134676e+00
1.336325e+00,1.637670e-01,1.540184e-01,3,0,1.568012e+00,1.568013e+00
1.330662e+00,1.635340e-01,1.540184e-01,3,0,7.417924e-01,7.417921e-01
1.336609e+00,1.638080e-01,1.549721e-01,3,0,7.612320e-01,7.612324e-01
1.332424e+00,1.634400e-01,1.540184e-01,3,0,5.615348e-01,5.615349e-01
1.335409e+00,1.636000e-01,1.540184e-01,3,0,8.570701e-01,8.570709e-01
1.330292e+00,1.634370e-01,1.540184e-01,3,0,1.368532e+00,1.368533e+00
1.335622e+00,1.631530e-01,1.540184e-01,3,0,7.834280e-01,7.834280e-01
1.330904e+00,1.637630e-01,1.540184e-01,3,0,1.324859e+00,1.324860e+00
1.330967e+00,1.633260e-01,1.540184e-01,3,0,7.983583e-01,7.983584e-01
1.330108e+00,1.641320e-01,1.549721e-01,3,0,5.720848e-01,5.720849e-01
1.330713e+00,1.684090e-01,1.590252e-01,3,0,5.424244e-01,5.424246e-01
1.329362e+00,1.634770e-01,1.540184e-01,3,0,1.136120e+00,1.136121e+00
1.332085e+00,1.930720e-01,1.840591e-01,3,0,1.483807e+00,1.483807e+00
1.335452e+00,1.640160e-01,1.549721e-01,3,0,1.145115e+00,1.145115e+00
1.330959e+00,1.639620e-01,1.549721e-01,3,0,9.960988e-01,9.960992e-01
1.334881e+00,1.632770e-01,1.537800e-01,3,0,1.536201e+00,1.536203e+00
1.331279e+00,1.638490e-01,1.549721e-01,3,0,1.339108e+00,1.339108e+00
1.335367e+00,1.636590e-01,1.540184e-01,3,0,8.963447e-01,8.963446e-01
1.331811e+00,1.629680e-01,1.540184e-01,3,0,1.530724e+00,1.530726e+00
1.334822e+00,1.633860e-01,1.540184e-01,3,0,3.120150e+00,3.120153e+00
1.332473e+00,1.636790e-01,1.540184e-01,3,0,4.061983e+00,4.061984e+00
1.361504e+00,1.635820e-01,1.540184e-01,3,0,4.688644e+00,4.688645e+00
1.331783e+00,1.639710e-01,1.540184e-01,3,0,5.882574e+00,5.882577e+00
1.335831e+00,1.638330e-01,1.540184e-01,3,0,5.767801e+00,5.767801e+00
1.344583e+00,1.752690e-01,1.649857e-01,3,0,5.693435e+00,5.693437e+00
1.331705e+00,1.686320e-01,1.590252e-01,3,0,4.718466e+00,4.718466e+00
1.330929e+00,1.629010e-01,1.540184e-01,3,0,3.273574e+00,3.273575e+00
1.331055e+00,1.687670e-01,1.590252e-01,3,0,2.651052e+00,2.651052e+00
1.334876e+00,1.631650e-01,1.537800e-01,3,0,2.531013e+00,2.531014e+00
1.332665e+00,1.636110e-01,1.540184e-01,3,0,1.523933e+00,1.523934e+00
1.335795e+00,1.637250e-01,1.540184e-01,3,0,1.709332e+00,1.709333e+00
1.331891e+00,1.638390e-01,1.540184e-01,3,0,2.275371e+00,2.275373e+00
1.336154e+00,1.639450e-01,1.540184e-01,3,0,2.183757e+00,2.183757e+00
1.330457e+00,1.637870e-01,1.540184e-01,3,0,3.177644e+00,3.177647e+00
1.337097e+00,1.639900e-01,1.540184e-01,3,0,2.200421e+00,2.200421e+00
1.331263e+00,1.634880e-01,1.540184e-01,3,0,2.128112e+00,2.128113e+00
1.337194e+00,1.634980e-01,1.540184e-01,3,0,1.654947e+00,1.654947e+00
1.331408e+00,1.634770e-01,1.540184e-01,3,0,1.361092e+00,1.361092e+00
1.334840e+00,1.636000e-01,1.540184e-01,3,0,1.290532e+00,1.290532e+00
1.331623e+00,1.635130e-01,1.540184e-01,3,0,8.311484e-01,8.311485e-01
1.329508e+00,1.682730e-01,1.590252e-01,3,0,1.269288e+00,1.269289e+00
1.333416e+00,1.636510e-01,1.549721e-01,3,0,1.211517e+00,1.211517e+00
1.331505e+00,1.680370e-01,1.580715e-01,3,0,2.390725e+00,2.390727e+00
1.332278e+00,1.632510e-01,1.540184e-01,3,0,2.705532e+00,2.705533e+00
1.357741e+00,1.682980e-01,1.580715e-01,3,0,4.124200e+00,4.124203e+00
1.331848e+00,4.643740e-01,4.549026e-01,3,1,7.090920e+00,7.095793e+00
1.338863e+00,4.149230e-01,4.048347e-01,3,1,5.152033e+00,5.152032e+00
1.331446e+00,1.639000e-01,1.540184e-01,3,0,5.249338e+00,5.249340e+00
1.335608e+00,1.633200e-01,1.530647e-01,3,0,3.411966e+00,3.411966e+00
1.332504e+00,1.633840e-01,1.540184e-01,3,0,2.851295e+00,2.851296e+00
1.335621e+00,1.637610e-01,1.540184e-01,3,0,2.997321e+00,2.997322e+00
1.331393e+00,1.639210e-01,1.549721e-01,3,0,2.532716e+00,2.532717e+00
1.336520e+00,1.639390e-01,1.549721e-01,3,0,2.023318e+00,2.023318e+00
1.330873e+00,1.636370e-01,1.537800e-01,3,0,1.649926e+00,1.649926e+00
1.331305e+00,1.680850e-01,1.590252e-01,3,0,1.317540e+00,1.317540e+00
1.330905e+00,1.626180e-01,1.530647e-01,3,0,3.917373e+00,3.917378e+00
1.331380e+00,1.682220e-01,1.580715e-01,3,0,4.539280e+00,4.539282e+00
1.333180e+00,1.630930e-01,1.540184e-01,3,0,3.118062e+00,3.118062e+00
1.332244e+00,1.687250e-01,1.590252e-01,3,0,3.063498e+00,3.063498e+00
1.336121e+00,1.639940e-01,1.549721e-01,3,0,2.505882e+00,2.505882e+00
1.331894e+00,1.629700e-01,1.528263e-01,3,0,1.081578e+00,1.081578e+00
1.335244e+00,1.639060e-01,1.540184e-01,3,0,9.461800e-01,9.461802e-01
1.330238e+00,1.640710e-01,1.549721e-01,3,0,9.267420e-01,9.267425e-01
1.336991e+00,1.632300e-01,1.537800e-01,3,0,8.546266e-01,8.546272e-01
1.330099e+00,1.631300e-01,1.540184e-01,3,0,1.786876e+00,1.786878e+00
1.334875e+00,1.628600e-01,1.528263e-01,3,0,4.375525e+00,4.375529e+00
1.331785e+00,1.632350e-01,1.540184e-01,3,0,3.852414e+00,3.852414e+00
1.335980e+00,1.636920e-01,1.549721e-01,3,0,4.967680e+00,4.967683e+00
1.331341e+00,1.630170e-01,1.540184e-01,3,0,4.752140e+00,4.752141e+00
1.334799e+00,7.310990e-01,7.209778e-01,3,2,7.301361e+00,7.311125e+00
1.334458e+00,6.661030e-01,6.570816e-01,3,2,6.164362e+00,6.164361e+00
1.331215e+00,1.683650e-01,1.590252e-01,3,0,5.613071e+00,5.613072e+00
1.332041e+00,1.631460e-01,1.540184e-01,3,0,4.507828e+00,4.507828e+00
1.331739e+00,1.678200e-01,1.540184e-01,3,0,3.561643e+00,3.561643e+00
1.335727e+00,4.440450e-01,4.339218e-01,3,1,4.183400e+00,4.192902e+00
1.331190e+00,2.121070e-01,2.021790e-01,3,0,4.457504e+00,4.460924e+00
1.348185e+00,1.082385e+00,1.072884e+00,3,3,5.971357e+00,6.021876e+00
1.335004e+00,1.167135e+00,1.156807e+00,3,4,5.125451e+00,5.125451e+00
1.334520e+00,2.369196e+00,2.360106e+00,3,8,7.679071e+00,7.721351e+00
3.140549e+00,1.458919e+00,1.449108e+00,7,5,6.231178e+00,6.241698e+00
2.689614e+00,6.628430e-01,6.530285e-01,6,2,5.614803e+00,5.595828e+00
2.688010e+00,1.281774e+00,1.271963e+00,6,4,9.423627e+00,9.400495e+00
2.671868e+00,1.108741e+00,1.098871e+00,6,4,9.696487e+00,9.672637e+00
1.775993e+00,3.667830e-01,3.569126e-01,4,1,7.977407e+00,7.977406e+00
1.337844e+00,1.645340e-01,1.549721e-01,3,0,7.652234e+00,7.652236e+00
1.336837e+00,4.456980e-01,4.360676e-01,3,1,5.970131e+00,5.974526e+00
1.332724e+00,4.143360e-01,4.041195e-01,3,1,5.148169e+00,5.148169e+00
1.331333e+00,1.645440e-01,1.552105e-01,3,0,4.307094e+00,4.307095e+00
1.331714e+00,1.640300e-01,1.549721e-01,3,0,3.647443e+00,3.647444e+00
1.331288e+00,1.686720e-01,1.590252e-01,3,0,2.862786e+00,2.862786e+00
1.329837e+00,1.644760e-01,1.549721e-01,3,0,2.617927e+00,2.617928e+00
1.332580e+00,1.683320e-01,1.578331e-01,3,0,3.287440e+00,3.287442e+00
1.332023e+00,1.638960e-01,1.540184e-01,3,0,2.645832e+00,2.645832e+00
1.332430e+00,1.685760e-01,1.549721e-01,3,0,2.698857e+00,2.698858e+00
1.336226e+00,1.641220e-01,1.537800e-01,3,0,3.205600e+00,3.205602e+00
1.332609e+00,1.641790e-01,1.549721e-01,3,0,4.098623e+00,4.098625e+00
1.335723e+00,1.638470e-01,1.537800e-01,3,0,4.298308e+00,4.298309e+00
1.333416e+00,4.630570e-01,4.539490e-01,3,1,5.786115e+00,5.788157e+00
1.358974e+00,4.188560e-01,4.088879e-01,3,1,4.825138e+00,4.825138e+00
1.336384e+00,1.644600e-01,1.540184e-01,3,0,3.861528e+00,3.861528e+00
1.331482e+00,1.640160e-01,1.540184e-01,3,0,2.853965e+00,2.853965e+00
1.331904e+00,1.633720e-01,1.540184e-01,3,0,3.012455e+00,3.012457e+00
1.338472e+00,4.640870e-01,4.541874e-01,3,1,3.491848e+00,3.491914e+00
1.332876e+00,4.144360e-01,4.050732e-01,3,1,2.126767e+00,2.126767e+00
1.331232e+00,1.684500e-01,1.580715e-01,3,0,1.614225e+00,1.614225e+00
1.336747e+00,1.640130e-01,1.540184e-01,3,0,1.203725e+00,1.203725e+00
1.332202e+00,1.634390e-01,1.540184e-01,3,0,1.313013e+00,1.313015e+00
1.335697e+00,1.641350e-01,1.540184e-01,3,0,1.043822e+00,1.043822e+00
1.331874e+00,1.636090e-01,1.540184e-01,3,0,8.750668e-01,8.750670e-01
1.335632e+00,1.637300e-01,1.540184e-01,3,0,1.230409e+00,1.230410e+00
1.344008e+00,1.637290e-01,1.540184e-01,3,0,2.064964e+00,2.064965e+00
1.337116e+00,1.788450e-01,1.688004e-01,3,0,2.105682e+00,2.105683e+00
1.333121e+00,1.638490e-01,1.549721e-01,3,0,4.169944e+00,4.169947e+00
1.338050e+00,1.642430e-01,1.540184e-01,3,0,4.855987e+00,4.855989e+00
1.332019e+00,1.638790e-01,1.549721e-01,3,0,3.188728e+00,3.188727e+00
1.331221e+00,1.682050e-01,1.580715e-01,3,0,2.400481e+00,2.400481e+00
1.332476e+00,1.641010e-01,1.549721e-01,3,0,1.928933e+00,1.928933e+00
1.330448e+00,1.686940e-01,1.590252e-01,3,0,1.782812e+00,1.782812e+00
1.331732e+00,1.643610e-01,1.549721e-01,3,0,1.222342e+00,1.222342e+00
1.331856e+00,1.686640e-01,1.590252e-01,3,0,9.575021e-01,9.575025e-01
1.333905e+00,1.643170e-01,1.540184e-01,3,0,8.569834e-01,8.569837e-01
1.331316e+00,1.638360e-01,1.540184e-01,3,0,9.137060e-01,9.137069e-01
1.335658e+00,1.640230e-01,1.549721e-01,3,0,6.362897e-01,6.362900e-01
1.330397e+00,1.642780e-01,1.552105e-01,3,0,5.140678e-01,5.140681e-01
1.334874e+00,1.640240e-01,1.549721e-01,3,0,6.127791e-01,6.127796e-01
1.330661e+00,1.639580e-01,1.549721e-01,3,0,6.496632e-01,6.496636e-01
1.335522e+00,1.637430e-01,1.549721e-01,3,0,2.191364e-01,2.191363e-01
1.329693e+00,1.642330e-01,1.549721e-01,3,0,4.652328e-01,4.652334e-01
1.334786e+00,1.637680e-01,1.537800e-01,3,0,9.324010e-01,9.324023e-01
1.331474e+00,1.639280e-01,1.540184e-01,3,0,1.166381e+00,1.166381e+00
1.336630e+00,1.641310e-01,1.549721e-01,3,0,1.537967e+00,1.537968e+00
1.332605e+00,1.639490e-01,1.549721e-01,3,0,1.236670e+00,1.236670e+00
1.330800e+00,1.692490e-01,1.599789e-01,3,0,1.013819e+00,1.013819e+00
1.331956e+00,1.640850e-01,1.549721e-01,3,0,1.009031e+00,1.009031e+00
1.330913e+00,1.687200e-01,1.590252e-01,3,0,9.552688e-01,9.552692e-01
1.330579e+00,1.638360e-01,1.540184e-01,3,0,6.556452e-01,6.556452e-01
1.330044e+00,1.686750e-01,1.590252e-01,3,0,7.550658e-01,7.550663e-01
1.335530e+00,1.642070e-01,1.549721e-01,3,0,6.056373e-01,6.056376e-01
1.331136e+00,1.641250e-01,1.549721e-01,3,0,8.640312e-01,8.640321e-01
1.335116e+00,1.642140e-01,1.540184e-01,3,0,1.099546e+00,1.099547e+00
1.331736e+00,1.640870e-01,1.549721e-01,3,0,7.859613e-01,7.859618e-01
1.336656e+00,1.639780e-01,1.549721e-01,3,0,1.500847e+00,1.500848e+00
1.333382e+00,1.638890e-01,1.540184e-01,3,0,9.907678e-01,9.907679e-01
1.336264e+00,1.638540e-01,1.540184e-01,3,0,6.487686e-01,6.487686e-01
1.332127e+00,1.639420e-01,1.540184e-01,3,0,4.171359e-01,4.171361e-01
1.335349e+00,1.641840e-01,1.549721e-01,3,0,5.311484e-01,5.311487e-01
1.334736e+00,1.640290e-01,1.540184e-01,3,0,6.231016e-01,6.231019e-01
1.336853e+00,1.640940e-01,1.540184e-01,3,0,4.719339e-01,4.719341e-01
1.331716e+00,1.637330e-01,1.540184e-01,3,0,7.192140e-01,7.192149e-01
1.331402e+00,1.686430e-01,1.590252e-01,3,0,1.117197e+00,1.117199e+00
1.332774e+00,1.638780e-01,1.549721e-01,3,0,4.565858e-01,4.565859e-01
1.330244e+00,1.679350e-01,1.578331e-01,3,0,6.631641e-01,6.631647e-01
1.330753e+00,1.642280e-01,1.540184e-01,3,0,5.918048e-01,5.918050e-01
1.331545e+00,1.687170e-01,1.590252e-01,3,0,1.272236e+00,1.272237e+00
1.335974e+00,1.640040e-01,1.549721e-01,3,0,1.049703e+00,1.049703e+00
1.331663e+00,1.640320e-01,1.549721e-01,3,0,1.560714e+00,1.560715e+00
1.336772e+00,1.641680e-01,1.549721e-01,3,0,1.822273e+00,1.822274e+00
1.331915e+00,1.639900e-01,1.549721e-01,3,0,1.809079e+00,1.809080e+00
1.336245e+00,1.639470e-01,1.540184e-01,3,0,1.719971e+00,1.719971e+00
1.331689e+00,1.635890e-01,1.540184e-01,3,0,1.105061e+00,1.105062e+00
1.335524e+00,1.643820e-01,1.540184e-01,3,0,8.229579e-01,8.229580e-01
1.331341e+00,1.638050e-01,1.540184e-01,3,0,1.278679e+00,1.278680e+00
1.335511e+00,1.639850e-01,1.540184e-01,3,0,1.222919e+00,1.222920e+00
1.331971e+00,1.634320e-01,1.528263e-01,3,0,1.040156e+00,1.040156e+00
1.331110e+00,1.635730e-01,1.540184e-01,3,0,1.622768e+00,1.622769e+00
1.331949e+00,1.637890e-01,1.549721e-01,3,0,6.134301e-01,6.134296e-01
1.330272e+00,1.681140e-01,1.590252e-01,3,0,7.538407e-01,7.538412e-01
1.331711e+00,1.638080e-01,1.540184e-01,3,0,9.963460e-01,9.963466e-01
1.332576e+00,1.679680e-01,1.580715e-01,3,0,4.041556e-01,4.041557e-01
1.329728e+00,1.642480e-01,1.540184e-01,3,0,4.361305e-01,4.361309e-01
1.331010e+00,1.684070e-01,1.552105e-01,3,0,3.864821e-01,3.864823e-01
1.334197e+00,1.632670e-01,1.530647e-01,3,0,7.715751e-01,7.715760e-01
1.332372e+00,1.640600e-01,1.552105e-01,3,0,1.218730e+00,1.218730e+00
1.335766e+00,1.634160e-01,1.537800e-01,3,0,9.607167e-01,9.607168e-01
1.331655e+00,1.638160e-01,1.540184e-01,3,0,8.557071e-01,8.557074e-01
1.336100e+00,1.638610e-01,1.549721e-01,3,0,8.167433e-01,8.167436e-01
1.330886e+00,1.636970e-01,1.549721e-01,3,0,1.188200e+00,1.188200e+00
1.335769e+00,1.639190e-01,1.549721e-01,3,0,1.239648e+00,1.239648e+00
1.332732e+00,1.632330e-01,1.540184e-01,3,0,1.409840e+00,1.409843e+00
1.337029e+00,1.636860e-01,1.549721e-01,3,0,1.931517e+00,1.931518e+00
1.332905e+00,1.639590e-01,1.549721e-01,3,0,1.394984e+00,1.394984e+00
1.331008e+00,1.639680e-01,1.549721e-01,3,0,1.050604e+00,1.050604e+00
1.332005e+00,1.638710e-01,1.552105e-01,3,0,1.106464e+00,1.106465e+00
1.330223e+00,1.682390e-01,1.578331e-01,3,0,1.399082e+00,1.399083e+00
1.330560e+00,1.639790e-01,1.540184e-01,3,0,2.325287e+00,2.325289e+00
1.331471e+00,1.690720e-01,1.599789e-01,3,0,2.051800e+00,2.051800e+00
1.335797e+00,1.635280e-01,1.540184e-01,3,0,1.501297e+00,1.501297e+00
1.331381e+00,1.636580e-01,1.540184e-01,3,0,1.105547e+00,1.105547e+00
1.334584e+00,1.637870e-01,1.540184e-01,3,0,1.374187e+00,1.374188e+00
1.331588e+00,1.636880e-01,1.540184e-01,3,0,1.192876e+00,1.192876e+00
1.337553e+00,1.637210e-01,1.540184e-01,3,0,1.076098e+00,1.076099e+00
1.331704e+00,1.638940e-01,1.540184e-01,3,0,6.866549e-01,6.866548e-01
1.335520e+00,1.639240e-01,1.549721e-01,3,0,6.316571e-01,6.316573e-01
1.331030e+00,1.638750e-01,1.549721e-01,3,0,7.236622e-01,7.236628e-01
1.336632e+00,1.637960e-01,1.549721e-01,3,0,5.884425e-01,5.884426e-01
1.330843e+00,1.635330e-01,1.540184e-01,3,0,3.525740e-01,3.525744e-01
1.336001e+00,1.643950e-01,1.549721e-01,3,0,2.784367e-01,2.784369e-01
1.329429e+00,1.635280e-01,1.540184e-01,3,0,1.721879e+00,1.721882e+00
1.331807e+00,1.636890e-01,1.540184e-01,3,0,2.467678e+00,2.467680e+00
1.332748e+00,1.638740e-01,1.549721e-01,3,0,1.502051e+00,1.502051e+00
1.331307e+00,1.684490e-01,1.590252e-01,3,0,7.734066e-01,7.734063e-01
1.332452e+00,1.637810e-01,1.549721e-01,3,0,6.911530e-01,6.911531e-01
1.331131e+00,1.688860e-01,1.590252e-01,3,0,7.695693e-01,7.695697e-01
1.334216e+00,1.636930e-01,1.549721e-01,3,0,1.093177e+00,1.093177e+00
1.331886e+00,1.639230e-01,1.540184e-01,3,0,1.392962e+00,1.392963e+00
1.335973e+00,1.639910e-01,1.540184e-01,3,0,1.493154e+00,1.493154e+00
1.331810e+00,1.631470e-01,1.540184e-01,3,0,1.138737e+00,1.138737e+00
1.335527e+00,1.638870e-01,1.549721e-01,3,0,1.393832e+00,1.393833e+00
1.331823e+00,1.645470e-01,1.549721e-01,3,0,1.754151e+00,1.754152e+00
1.336367e+00,1.636300e-01,1.549721e-01,3,0,3.178057e+00,3.178060e+00
1.332496e+00,1.639740e-01,1.540184e-01,3,0,3.522761e+00,3.522762e+00
1.337097e+00,1.635990e-01,1.549721e-01,3,0,4.234067e+00,4.234069e+00
1.331370e+00,1.634870e-01,1.540184e-01,3,0,2.355399e+00,2.355398e+00
1.335444e+00,1.636680e-01,1.549721e-01,3,0,1.225546e+00,1.225546e+00
1.330497e+00,1.640490e-01,1.540184e-01,3,0,1.188398e+00,1.188399e+00
1.331745e+00,1.682820e-01,1.590252e-01,3,0,1.271953e+00,1.271953e+00
1.331588e+00,1.643370e-01,1.549721e-01,3,0,1.032860e+00,1.032860e+00
1.330938e+00,1.682890e-01,1.580715e-01,3,0,9.463270e-01,9.463274e-01
1.331359e+00,1.641400e-01,1.549721e-01,3,0,7.797200e-01,7.797205e-01
1.331104e+00,1.688390e-01,1.590252e-01,3,0,1.290756e+00,1.290757e+00
1.335302e+00,1.643550e-01,1.549721e-01,3,0,1.122561e+00,1.122561e+00
1.333229e+00,1.641760e-01,1.549721e-01,3,0,7.305574e-01,7.305573e-01
1.335780e+00,1.637870e-01,1.540184e-01,3,0,8.839973e-01,8.839978e-01
1.333608e+00,1.638320e-01,1.540184e-01,3,0,6.189473e-01,6.189474e-01
1.403985e+00,1.648350e-01,1.549721e-01,3,0,1.294982e+00,1.294984e+00
1.365584e+00,1.875590e-01,1.769066e-01,3,0,2.521858e+00,2.521860e+00
1.332663e+00,1.652700e-01,1.549721e-01,3,0,1.288661e+00,1.288660e+00
1.334681e+00,1.651860e-01,1.561642e-01,3,0,1.170352e+00,1.170352e+00
1.331975e+00,1.798780e-01,1.690388e-01,3,0,1.262638e+00,1.262638e+00
1.350574e+00,1.656190e-01,1.568794e-01,3,0,6.376495e-01,6.376499e-01
1.357478e+00,1.756460e-01,1.659393e-01,3,0,8.868820e-01,8.868827e-01
1.337968e+00,1.647560e-01,1.552105e-01,3,0,7.493697e-01,7.493700e-01
1.332733e+00,1.644370e-01,1.549721e-01,3,0,5.648396e-01,5.648398e-01
1.373737e+00,1.727910e-01,1.630783e-01,3,0,1.895741e+00,1.895744e+00
1.334831e+00,1.643490e-01,1.549721e-01,3,0,1.293068e+00,1.293068e+00
1.343542e+00,1.643700e-01,1.540184e-01,3,0,1.885963e+00,1.885964e+00
1.332281e+00,1.641730e-01,1.549721e-01,3,0,2.430868e+00,2.430869e+00
1.337206e+00,1.635760e-01,1.540184e-01,3,0,1.867438e+00,1.867438e+00
1.342248e+00,1.636330e-01,1.540184e-01,3,0,5.467727e+00,5.467734e+00
1.332500e+00,1.702830e-01,1.611710e-01,3,0,6.218313e+00,6.218315e+00
1.335026e+00,1.633900e-01,1.540184e-01,3,0,3.933799e+00,3.933799e+00
1.334228e+00,1.754520e-01,1.659393e-01,3,0,3.426453e+00,3.426453e+00
1.332548e+00,1.641430e-01,1.540184e-01,3,0,3.126343e+00,3.126344e+00
1.332654e+00,1.693730e-01,1.549721e-01,3,0,2.314123e+00,2.314123e+00
1.345247e+00,1.640060e-01,1.549721e-01,3,0,2.262918e+00,2.262919e+00
1.332868e+00,1.636960e-01,1.540184e-01,3,0,2.001626e+00,2.001627e+00
1.337039e+00,1.638280e-01,1.540184e-01,3,0,1.482267e+00,1.482267e+00
1.330837e+00,1.642590e-01,1.549721e-01,3,0,1.181895e+00,1.181895e+00
1.335276e+00,1.644340e-01,1.549721e-01,3,0,9.729844e-01,9.729846e-01
1.330443e+00,1.639650e-01,1.540184e-01,3,0,1.012118e+00,1.012119e+00
1.336695e+00,1.641720e-01,1.549721e-01,3,0,7.815290e-01,7.815291e-01
1.331133e+00,1.641400e-01,1.540184e-01,3,0,7.117179e-01,7.117183e-01
1.335808e+00,1.631340e-01,1.540184e-01,3,0,2.308455e+00,2.308459e+00
1.332776e+00,1.633420e-01,1.540184e-01,3,0,4.698170e-01,4.698166e-01
1.329930e+00,1.685350e-01,1.590252e-01,3,0,4.057991e-01,4.057994e-01
1.331536e+00,1.635330e-01,1.540184e-01,3,0,6.685368e-01,6.685377e-01
1.332191e+00,1.692560e-01,1.587868e-01,3,0,4.014942e-01,4.014943e-01
1.329779e+00,1.642870e-01,1.540184e-01,3,0,6.127979e-01,6.127986e-01
1.332007e+00,1.689140e-01,1.599789e-01,3,0,3.929298e-01,3.929298e-01
1.359769e+00,1.642160e-01,1.549721e-01,3,0,5.881570e-01,5.881575e-01
1.333046e+00,1.645170e-01,1.552105e-01,3,0,7.699268e-01,7.699282e-01
1.335629e+00,1.635470e-01,1.540184e-01,3,0,3.470493e-01,3.470494e-01
1.330050e+00,1.642290e-01,1.552105e-01,3,0,2.500389e-01,2.500390e-01
1.341406e+00,1.641070e-01,1.549721e-01,3,0,2.803843e-01,2.803846e-01
1.330123e+00,1.641900e-01,1.540184e-01,3,0,3.988077e-01,3.988079e-01
1.334156e+00,1.637710e-01,1.540184e-01,3,0,4.718079e-01,4.718083e-01
1.331479e+00,1.635970e-01,1.540184e-01,3,0,4.443176e-01,4.443181e-01
1.334266e+00,1.637630e-01,1.540184e-01,3,0,2.363330e-01,2.363331e-01
1.329860e+00,1.637230e-01,1.549721e-01,3,0,6.573185e-01,6.573194e-01
1.331217e+00,1.636340e-01,1.552105e-01,3,0,3.454129e-01,3.454130e-01
1.331145e+00,1.640190e-01,1.549721e-01,3,0,5.493356e-01,5.493361e-01
1.331786e+00,1.685270e-01,1.590252e-01,3,0,4.623655e-01,4.623656e-01
1.329925e+00,1.635510e-01,1.540184e-01,3,0,1.886847e+00,1.886849e+00
1.332578e+00,1.687360e-01,1.590252e-01,3,0,1.972371e+00,1.972371e+00
1.330974e+00,1.637500e-01,1.540184e-01,3,0,2.867085e+00,2.867087e+00
1.332621e+00,1.638810e-01,1.540184e-01,3,0,2.191751e+00,2.191751e+00
1.336475e+00,1.638050e-01,1.540184e-01,3,0,1.795282e+00,1.795282e+00
1.330140e+00,1.637890e-01,1.549721e-01,3,0,1.553111e+00,1.553112e+00
1.335186e+00,1.636330e-01,1.540184e-01,3,0,1.789659e+00,1.789660e+00
1.332028e+00,1.632260e-01,1.540184e-01,3,0,2.589453e+00,2.589455e+00
1.338559e+00,1.636330e-01,1.552105e-01,3,0,3.192252e+00,3.192253e+00
1.331596e+00,1.637590e-01,1.540184e-01,3,0,1.627883e+00,1.627882e+00
1.336064e+00,1.635450e-01,1.537800e-01,3,0,2.363949e+00,2.363951e+00
1.332312e+00,1.639970e-01,1.540184e-01,3,0,1.257891e+00,1.257891e+00
1.335549e+00,1.640840e-01,1.540184e-01,3,0,1.706988e+00,1.706989e+00
1.331812e+00,1.638890e-01,1.540184e-01,3,0,2.079271e+00,2.079272e+00
1.331360e+00,1.636240e-01,1.540184e-01,3,0,1.310312e+00,1.310312e+00
1.331800e+00,1.639310e-01,1.552105e-01,3,0,1.209783e+00,1.209783e+00
1.331822e+00,1.684760e-01,1.590252e-01,3,0,1.237001e+00,1.237002e+00
1.331459e+00,1.643390e-01,1.549721e-01,3,0,8.829990e-01,8.829991e-01
1.332283e+00,1.686370e-01,1.590252e-01,3,0,1.146950e+00,1.146951e+00
1.335876e+00,1.639540e-01,1.549721e-01,3,0,1.607432e+00,1.607433e+00
1.330992e+00,1.639450e-01,1.549721e-01,3,0,1.285515e+00,1.285516e+00
1.335900e+00,1.639090e-01,1.549721e-01,3,0,1.363248e+00,1.363249e+00
1.331652e+00,1.638520e-01,1.540184e-01,3,0,1.352330e+00,1.352331e+00
1.336479e+00,1.638380e-01,1.540184e-01,3,0,1.074787e+00,1.074787e+00
1.333343e+00,1.640480e-01,1.549721e-01,3,0,8.070037e-01,8.070039e-01
1.335194e+00,1.641090e-01,1.540184e-01,3,0,9.129929e-01,9.129934e-01
1.332213e+00,1.637160e-01,1.552105e-01,3,0,9.631561e-01,9.631566e-01
1.336688e+00,1.638640e-01,1.540184e-01,3,0,8.499507e-01,8.499512e-01
1.330864e+00,1.637200e-01,1.549721e-01,3,0,8.217385e-01,8.217390e-01
1.336640e+00,1.639830e-01,1.549721e-01,3,0,5.434056e-01,5.434058e-01
1.330706e+00,1.634810e-01,1.540184e-01,3,0,9.735113e-01,9.735122e-01
1.330800e+00,1.683210e-01,1.578331e-01,3,0,8.362503e-01,8.362508e-01
1.331155e+00,1.641700e-01,1.549721e-01,3,0,7.677145e-01,7.677149e-01
1.331596e+00,1.683900e-01,1.590252e-01,3,0,6.435390e-01,6.435396e-01
1.330915e+00,1.639460e-01,1.549721e-01,3,0,3.702111e-01,3.702112e-01
1.330892e+00,1.690710e-01,1.590252e-01,3,0,5.555658e-01,5.555664e-01
1.334395e+00,1.640330e-01,1.549721e-01,3,0,5.796819e-01,5.796823e-01
1.341821e+00,1.640530e-01,1.540184e-01,3,0,8.328929e-01,8.328934e-01
1.337063e+00,1.644000e-01,1.549721e-01,3,0,1.108578e+00,1.108578e+00
1.331845e+00,1.640360e-01,1.540184e-01,3,0,1.200289e+00,1.200290e+00
1.336773e+00,1.640470e-01,1.540184e-01,3,0,1.503934e+00,1.503935e+00
1.331121e+00,1.637400e-01,1.540184e-01,3,0,1.244833e+00,1.244834e+00
1.340964e+00,1.644670e-01,1.549721e-01,3,0,1.143551e+00,1.143551e+00
1.330262e+00,1.635730e-01,1.540184e-01,3,0,1.696160e+00,1.696162e+00
1.335703e+00,1.641760e-01,1.537800e-01,3,0,1.332709e+00,1.332709e+00
1.332500e+00,1.638020e-01,1.540184e-01,3,0,1.429200e+00,1.429201e+00
1.330159e+00,1.643180e-01,1.549721e-01,3,0,1.277911e+00,1.277912e+00
1.329982e+00,1.638500e-01,1.540184e-01,3,0,1.028708e+00,1.028709e+00
1.331630e+00,1.681310e-01,1.580715e-01,3,0,1.665616e+00,1.665617e+00
1.332214e+00,1.639790e-01,1.540184e-01,3,0,2.118986e+00,2.118987e+00
1.332001e+00,1.683090e-01,1.590252e-01,3,0,1.484338e+00,1.484338e+00
1.331214e+00,1.638660e-01,1.549721e-01,3,0,9.790386e-01,9.790385e-01
1.332810e+00,1.678730e-01,1.540184e-01,3,0,5.021165e-01,5.021166e-01
1.334675e+00,1.639040e-01,1.540184e-01,3,0,4.537429e-01,4.537431e-01
1.331420e+00,1.641410e-01,1.540184e-01,3,0,4.085157e-01,4.085161e-01
1.335813e+00,1.636760e-01,1.540184e-01,3,0,4.124019e-01,4.124023e-01
1.330479e+00,1.639800e-01,1.549721e-01,3,0,3.364084e-01,3.364086e-01
1.335133e+00,1.634530e-01,1.540184e-01,3,0,1.115431e+00,1.115433e+00
1.332321e+00,1.635620e-01,1.540184e-01,3,0,7.087615e-01,7.087615e-01
1.335982e+00,1.641290e-01,1.549721e-01,3,0,6.960584e-01,6.960587e-01
1.330967e+00,1.642730e-01,1.549721e-01,3,0,6.777748e-01,6.777751e-01
1.335494e+00,1.638610e-01,1.549721e-01,3,0,6.473474e-01,6.473478e-01
1.331953e+00,1.637570e-01,1.540184e-01,3,0,5.170091e-01,5.170093e-01
1.330595e+00,1.640690e-01,1.549721e-01,3,0,4.919197e-01,4.919200e-01
1.330440e+00,1.634620e-01,1.540184e-01,3,0,7.238363e-01,7.238371e-01
1.331326e+00,1.680020e-01,1.587868e-01,3,0,8.296659e-01,8.296665e-01
1.337706e+00,1.639150e-01,1.540184e-01,3,0,9.120697e-01,9.120701e-01
1.341358e+00,1.687410e-01,1.590252e-01,3,0,1.228337e+00,1.228338e+00
1.335141e+00,1.638800e-01,1.540184e-01,3,0,9.737436e-01,9.737437e-01
1.330515e+00,1.638160e-01,1.540184e-01,3,0,2.484001e+00,2.484004e+00
1.335744e+00,1.637150e-01,1.549721e-01,3,0,1.926551e+00,1.926551e+00
1.330689e+00,1.637430e-01,1.540184e-01,3,0,3.349810e+00,3.349813e+00
1.336071e+00,1.635560e-01,1.540184e-01,3,0,2.988791e+00,2.988791e+00
1.332034e+00,1.638020e-01,1.540184e-01,3,0,3.300426e+00,3.300427e+00
1.335421e+00,1.635250e-01,1.540184e-01,3,0,2.717241e+00,2.717241e+00
1.331809e+00,1.641830e-01,1.540184e-01,3,0,2.751167e+00,2.751167e+00
1.345572e+00,1.638030e-01,1.540184e-01,3,0,2.152551e+00,2.152551e+00
1.337332e+00,1.643790e-01,1.549721e-01,3,0,2.047357e+00,2.047357e+00
1.335107e+00,1.641970e-01,1.540184e-01,3,0,1.948476e+00,1.948476e+00
1.330879e+00,1.641290e-01,1.549721e-01,3,0,1.544941e+00,1.544941e+00
1.331892e+00,1.685050e-01,1.590252e-01,3,0,1.552074e+00,1.552074e+00
1.331275e+00,1.637620e-01,1.549721e-01,3,0,1.305194e+00,1.305194e+00
1.329904e+00,1.679400e-01,1.590252e-01,3,0,1.106919e+00,1.106919e+00
1.330708e+00,1.640260e-01,1.549721e-01,3,0,1.360833e+00,1.360834e+00
1.331913e+00,1.686440e-01,1.590252e-01,3,0,2.189533e+00,2.189535e+00
1.335768e+00,1.640950e-01,1.549721e-01,3,0,2.876868e+00,2.876869e+00
1.332550e+00,1.637940e-01,1.549721e-01,3,0,1.603567e+00,1.603567e+00
1.337294e+00,1.637140e-01,1.540184e-01,3,0,2.702155e+00,2.702157e+00
1.332128e+00,1.637310e-01,1.537800e-01,3,0,1.602116e+00,1.602115e+00
1.337227e+00,1.638570e-01,1.552105e-01,3,0,1.138911e+00,1.138911e+00
1.331817e+00,1.636390e-01,1.540184e-01,3,0,2.004422e+00,2.004424e+00
1.337740e+00,1.638640e-01,1.549721e-01,3,0,1.385264e+00,1.385264e+00
1.371448e+00,1.639740e-01,1.549721e-01,3,0,1.751699e+00,1.751700e+00
1.376331e+00,1.779080e-01,1.680851e-01,3,0,1.232253e+00,1.232254e+00
1.371095e+00,1.695380e-01,1.590252e-01,3,0,1.633015e+00,1.633016e+00
1.371493e+00,1.749120e-01,1.652241e-01,3,0,9.412960e-01,9.412964e-01
1.389804e+00,1.690880e-01,1.602173e-01,3,0,8.751964e-01,8.751969e-01
1.371322e+00,1.702840e-01,1.599789e-01,3,0,1.171621e+00,1.171622e+00
1.375639e+00,1.704830e-01,1.599789e-01,3,0,8.953361e-01,8.953362e-01

