9.152890e-01,9.512940e-01,7.069111e-01,2,0,0.000000e+00,0.000000e+00
1.331679e+00,1.670980e-01,1.559258e-01,3,0,8.193058e-02,8.193074e-02
1.355351e+00,1.655700e-01,1.559258e-01,3,0,3.339468e-01,3.339473e-01
1.344334e+00,1.651210e-01,1.549721e-01,3,0,3.143827e-01,3.143829e-01
1.331398e+00,1.647170e-01,1.549721e-01,3,0,1.234091e+00,1.234093e+00
1.361069e+00,1.650700e-01,1.561642e-01,3,0,1.820400e+00,1.820401e+00
1.331703e+00,1.646520e-01,1.549721e-01,3,0,7.904648e-01,7.904644e-01
1.329785e+00,1.645960e-01,1.549721e-01,3,0,5.548025e-01,5.548025e-01
1.340077e+00,1.645540e-01,1.540184e-01,3,0,9.098071e-01,9.098081e-01
1.330258e+00,1.696900e-01,1.599789e-01,3,0,2.643851e+00,2.643854e+00
1.358051e+00,1.646740e-01,1.549721e-01,3,0,3.521030e+00,3.521032e+00
1.331048e+00,1.695600e-01,1.602173e-01,3,0,5.401207e+00,5.401211e+00
1.336626e+00,1.642460e-01,1.549721e-01,3,0,3.906060e+00,3.906059e+00
1.332222e+00,1.646720e-01,1.549721e-01,3,0,3.821178e+00,3.821178e+00
1.335467e+00,1.650900e-01,1.552105e-01,3,0,4.130744e+00,4.130746e+00
1.331178e+00,1.647000e-01,1.549721e-01,3,0,4.555921e+00,4.555923e+00
1.335293e+00,1.642960e-01,1.549721e-01,3,0,3.081153e+00,3.081153e+00
1.330277e+00,1.639570e-01,1.540184e-01,3,0,3.042321e+00,3.042322e+00
1.334724e+00,1.645310e-01,1.540184e-01,3,0,2.053895e+00,2.053894e+00
1.330884e+00,1.648620e-01,1.549721e-01,3,0,1.648537e+00,1.648537e+00
1.334836e+00,1.647010e-01,1.549721e-01,3,0,1.779535e+00,1.779536e+00
1.330835e+00,1.646540e-01,1.552105e-01,3,0,1.995336e+00,1.995337e+00
1.334081e+00,1.648980e-01,1.549721e-01,3,0,1.562491e+00,1.562491e+00
1.330118e+00,1.645370e-01,1.549721e-01,3,0,1.361983e+00,1.361984e+00
1.329716e+00,1.697730e-01,1.599789e-01,3,0,1.246552e+00,1.246552e+00
1.329748e+00,1.647850e-01,1.549721e-01,3,0,9.682573e-01,9.682576e-01
1.330558e+00,1.695530e-01,1.599789e-01,3,0,5.351648e-01,5.351648e-01
1.328724e+00,1.642360e-01,1.549721e-01,3,0,4.425743e-01,4.425747e-01
1.355171e+00,1.691780e-01,1.590252e-01,3,0,7.187914e-01,7.187921e-01
1.334383e+00,1.655740e-01,1.561642e-01,3,0,1.231469e+00,1.231470e+00
1.331565e+00,1.646050e-01,1.549721e-01,3,0,2.266509e+00,2.266511e+00
1.391701e+00,1.667880e-01,1.571178e-01,3,0,3.080572e+00,3.080573e+00
1.345783e+00,1.752010e-01,1.637936e-01,3,0,2.726629e+00,2.726629e+00
1.336010e+00,1.670950e-01,1.568794e-01,3,0,2.680951e+00,2.680952e+00
1.333036e+00,1.654880e-01,1.559258e-01,3,0,2.526431e+00,2.526432e+00
1.330389e+00,1.790430e-01,1.678467e-01,3,0,2.456689e+00,2.456690e+00
1.357558e+00,1.666290e-01,1.568794e-01,3,0,1.966151e+00,1.966151e+00
1.330312e+00,1.782140e-01,1.680851e-01,3,0,1.697874e+00,1.697874e+00
1.348276e+00,1.651010e-01,1.549721e-01,3,0,1.579117e+00,1.579117e+00
1.331042e+00,1.781840e-01,1.678467e-01,3,0,1.330361e+00,1.330362e+00
1.334257e+00,1.643500e-01,1.540184e-01,3,0,1.225111e+00,1.225111e+00
1.356398e+00,1.642650e-01,1.549721e-01,3,0,1.379984e+00,1.379985e+00
1.336077e+00,1.655260e-01,1.549721e-01,3,0,1.043081e+00,1.043081e+00
1.356012e+00,1.642340e-01,1.549721e-01,3,0,1.137167e+00,1.137168e+00
1.334848e+00,1.646810e-01,1.549721e-01,3,0,2.400504e+00,2.400506e+00
1.330735e+00,1.641070e-01,1.540184e-01,3,0,3.588394e-01,3.588392e-01
1.360324e+00,1.642000e-01,1.549721e-01,3,0,1.063356e+00,1.063358e+00
1.331239e+00,1.648570e-01,1.549721e-01,3,0,1.252178e+00,1.252179e+00
1.329816e+00,1.694140e-01,1.590252e-01,3,0,1.927499e+00,1.927500e+00
1.330967e+00,1.640290e-01,1.549721e-01,3,0,7.858908e-01,7.858907e-01
1.328503e+00,1.695730e-01,1.590252e-01,3,0,7.365630e-01,7.365633e-01
1.329721e+00,1.647230e-01,1.549721e-01,3,0,1.026469e+00,1.026469e+00
1.331021e+00,1.691530e-01,1.590252e-01,3,0,1.191389e+00,1.191390e+00
1.338863e+00,1.644550e-01,1.549721e-01,3,0,1.770519e+00,1.770521e+00
1.339636e+00,1.649850e-01,1.549721e-01,3,0,1.910123e+00,1.910124e+00
1.335071e+00,1.644530e-01,1.540184e-01,3,0,1.242352e+00,1.242352e+00
1.330206e+00,1.645740e-01,1.540184e-01,3,0,1.233827e+00,1.233828e+00
1.335606e+00,1.648490e-01,1.549721e-01,3,0,1.059630e+00,1.059630e+00
1.330527e+00,1.643050e-01,1.552105e-01,3,0,1.094722e+00,1.094722e+00
1.335052e+00,1.640170e-01,1.540184e-01,3,0,5.186396e-01,5.186401e-01
1.330359e+00,1.641350e-01,1.540184e-01,3,0,1.721407e+00,1.721410e+00
1.336080e+00,1.645380e-01,1.549721e-01,3,0,8.180417e-01,8.180413e-01
1.330694e+00,1.639250e-01,1.549721e-01,3,0,8.089178e-01,8.089185e-01
1.354752e+00,1.684910e-01,1.540184e-01,3,0,2.286534e+00,2.286536e+00
1.331517e+00,1.651100e-01,1.549721e-01,3,0,4.104395e+00,4.104398e+00
1.331346e+00,1.697440e-01,1.599789e-01,3,0,5.186831e+00,5.186834e+00
1.331658e+00,1.642610e-01,1.549721e-01,3,0,4.646795e+00,4.646795e+00
1.337544e+00,1.692480e-01,1.590252e-01,3,0,3.276442e+00,3.276442e+00
1.336915e+00,1.652190e-01,1.549721e-01,3,0,2.759350e+00,2.759350e+00
1.331323e+00,1.638640e-01,1.540184e-01,3,0,2.116711e+00,2.116711e+00
1.345002e+00,1.644490e-01,1.540184e-01,3,0,1.593888e+00,1.593888e+00
1.330689e+00,1.645330e-01,1.540184e-01,3,0,1.984059e+00,1.984060e+00
1.347388e+00,1.644410e-01,1.549721e-01,3,0,1.746889e+00,1.746890e+00
1.331728e+00,1.652990e-01,1.561642e-01,3,0,1.560985e+00,1.560986e+00
1.334540e+00,1.643240e-01,1.540184e-01,3,0,1.489772e+00,1.489773e+00
1.331533e+00,1.645200e-01,1.549721e-01,3,0,1.267041e+00,1.267041e+00
1.335104e+00,1.645890e-01,1.549721e-01,3,0,1.290915e+00,1.290916e+00
1.330800e+00,1.647150e-01,1.549721e-01,3,0,2.093565e+00,2.093567e+00
1.331849e+00,1.693790e-01,1.599789e-01,3,0,9.930380e-01,9.930376e-01
1.330962e+00,1.649450e-01,1.549721e-01,3,0,1.440214e+00,1.440215e+00
1.330825e+00,1.696450e-01,1.599789e-01,3,0,6.168046e-01,6.168045e-01
1.329885e+00,1.649860e-01,1.549721e-01,3,0,6.486012e-01,6.486016e-01
1.330189e+00,1.697900e-01,1.599789e-01,3,0,6.458249e-01,6.458252e-01
1.333094e+00,1.649040e-01,1.549721e-01,3,0,7.233478e-01,7.233482e-01
1.330718e+00,1.647810e-01,1.552105e-01,3,0,7.478178e-01,7.478181e-01
1.334089e+00,1.646820e-01,1.552105e-01,3,0,1.064691e+00,1.064692e+00
1.335452e+00,1.647460e-01,1.549721e-01,3,0,1.177700e+00,1.177700e+00
1.335699e+00,1.648210e-01,1.549721e-01,3,0,1.874518e+00,1.874520e+00
1.331386e+00,1.645410e-01,1.540184e-01,3,0,1.928039e+00,1.928040e+00
1.404448e+00,1.654240e-01,1.559258e-01,3,0,4.589904e+00,4.589908e+00
1.332904e+00,1.913810e-01,1.800060e-01,3,0,2.356051e+00,2.356050e+00
1.331079e+00,1.704150e-01,1.602173e-01,3,0,1.821841e+00,1.821841e+00
1.330797e+00,1.652940e-01,1.549721e-01,3,0,1.550170e+00,1.550171e+00
1.355075e+00,1.758610e-01,1.659393e-01,3,0,2.494850e+00,2.494853e+00
1.335310e+00,1.651470e-01,1.552105e-01,3,0,1.447907e+00,1.447906e+00
1.331517e+00,1.645310e-01,1.549721e-01,3,0,1.382700e+00,1.382700e+00
1.360355e+00,1.647050e-01,1.549721e-01,3,0,1.329238e+00,1.329239e+00
1.331258e+00,1.647560e-01,1.549721e-01,3,0,2.078078e+00,2.078080e+00
1.362611e+00,1.645490e-01,1.549721e-01,3,0,1.100201e+00,1.100201e+00
1.331398e+00,1.645750e-01,1.549721e-01,3,0,7.328598e-01,7.328601e-01
1.339910e+00,1.646840e-01,1.549721e-01,3,0,5.909246e-01,5.909248e-01
1.330319e+00,1.643690e-01,1.549721e-01,3,0,5.329295e-01,5.329299e-01
1.335199e+00,1.647190e-01,1.549721e-01,3,0,4.186103e-01,4.186105e-01
1.329055e+00,1.651230e-01,1.559258e-01,3,0,5.654971e-01,5.654975e-01
1.329602e+00,1.689140e-01,1.587868e-01,3,0,6.360340e-01,6.360344e-01
1.329986e+00,1.648920e-01,1.549721e-01,3,0,9.161548e-01,9.161556e-01
1.329979e+00,1.692210e-01,1.590252e-01,3,0,9.592467e-01,9.592472e-01
1.329499e+00,1.643250e-01,1.549721e-01,3,0,1.151272e+00,1.151273e+00
1.330367e+00,1.694830e-01,1.590252e-01,3,0,1.214467e+00,1.214468e+00
1.332939e+00,1.650920e-01,1.549721e-01,3,0,8.427260e-01,8.427261e-01
1.329614e+00,1.644890e-01,1.549721e-01,3,0,9.681886e-01,9.681894e-01
1.333810e+00,1.643440e-01,1.540184e-01,3,0,2.104984e+00,2.104987e+00
1.330741e+00,1.648240e-01,1.549721e-01,3,0,2.405114e+00,2.405115e+00
1.335864e+00,1.645260e-01,1.549721e-01,3,0,2.321857e+00,2.321857e+00
1.330746e+00,1.644830e-01,1.549721e-01,3,0,2.050884e+00,2.050884e+00
1.334999e+00,1.648820e-01,1.549721e-01,3,0,2.237768e+00,2.237769e+00
1.330500e+00,1.647630e-01,1.549721e-01,3,0,2.562660e+00,2.562661e+00
1.334731e+00,1.646600e-01,1.549721e-01,3,0,3.365837e+00,3.365839e+00
1.331030e+00,1.648150e-01,1.549721e-01,3,0,3.916651e+00,3.916653e+00
1.335702e+00,1.636880e-01,1.540184e-01,3,0,2.482886e+00,2.482885e+00
1.330892e+00,1.649500e-01,1.552105e-01,3,0,2.297676e+00,2.297677e+00
1.329783e+00,1.691910e-01,1.590252e-01,3,0,2.507445e+00,2.507446e+00
1.331466e+00,1.642510e-01,1.549721e-01,3,0,2.183640e+00,2.183641e+00
1.329998e+00,1.697160e-01,1.599789e-01,3,0,1.852831e+00,1.852831e+00
1.330882e+00,1.650290e-01,1.549721e-01,3,0,1.642339e+00,1.642340e+00
1.330194e+00,1.692700e-01,1.590252e-01,3,0,1.893659e+00,1.893660e+00
1.340823e+00,1.648650e-01,1.549721e-01,3,0,1.000815e+00,1.000815e+00
1.330639e+00,1.644190e-01,1.540184e-01,3,0,9.230756e-01,9.230759e-01
1.334180e+00,1.647170e-01,1.549721e-01,3,0,1.134676e+00,1.134676e+00
1.330649e+00,1.642140e-01,1.540184e-01,3,0,1.568012e+00,1.568013e+00
1.333816e+00,1.646280e-01,1.549721e-01,3,0,7.417924e-01,7.417921e-01
1.331608e+00,1.646540e-01,1.540184e-01,3,0,7.612320e-01,7.612324e-01
1.335757e+00,1.647990e-01,1.549721e-01,3,0,5.615348e-01,5.615349e-01
1.329504e+00,1.642630e-01,1.540184e-01,3,0,8.570701e-01,8.570709e-01
1.334962e+00,1.640290e-01,1.540184e-01,3,0,1.368532e+00,1.368533e+00
1.330551e+00,1.641780e-01,1.549721e-01,3,0,7.834280e-01,7.834280e-01
1.329354e+00,1.648550e-01,1.549721e-01,3,0,1.324859e+00,1.324860e+00
1.330066e+00,1.644940e-01,1.549721e-01,3,0,7.983583e-01,7.983584e-01
1.329516e+00,1.711450e-01,1.621246e-01,3,0,5.720848e-01,5.720849e-01
1.329623e+00,1.644650e-01,1.549721e-01,3,0,5.424244e-01,5.424246e-01
1.328535e+00,1.692360e-01,1.590252e-01,3,0,1.136120e+00,1.136121e+00
1.330014e+00,1.644800e-01,1.549721e-01,3,0,1.483807e+00,1.483807e+00
1.330408e+00,1.692180e-01,1.599789e-01,3,0,1.145115e+00,1.145115e+00
1.335644e+00,1.647720e-01,1.552105e-01,3,0,9.960988e-01,9.960992e-01
1.330515e+00,1.643100e-01,1.549721e-01,3,0,1.536201e+00,1.536203e+00
1.366944e+00,1.647890e-01,1.549721e-01,3,0,1.339108e+00,1.339108e+00
1.330673e+00,1.648460e-01,1.549721e-01,3,0,8.963447e-01,8.963446e-01
1.334042e+00,1.642790e-01,1.540184e-01,3,0,1.530724e+00,1.530726e+00
1.329372e+00,1.643760e-01,1.549721e-01,3,0,3.120150e+00,3.120153e+00
1.334696e+00,1.648270e-01,1.549721e-01,3,0,4.061983e+00,4.061984e+00
1.330248e+00,1.649270e-01,1.549721e-01,3,0,4.688644e+00,4.688645e+00
1.333982e+00,1.645230e-01,1.549721e-01,3,0,5.882574e+00,5.882577e+00
1.329886e+00,1.647590e-01,1.549721e-01,3,0,5.767801e+00,5.767801e+00
1.329392e+00,1.689600e-01,1.590252e-01,3,0,5.693435e+00,5.693437e+00
1.331160e+00,1.645200e-01,1.552105e-01,3,0,4.718466e+00,4.718466e+00
1.330471e+00,1.682390e-01,1.580715e-01,3,0,3.273574e+00,3.273575e+00
1.329486e+00,1.649520e-01,1.559258e-01,3,0,2.651052e+00,2.651052e+00
1.329859e+00,1.687520e-01,1.590252e-01,3,0,2.531013e+00,2.531014e+00
1.334116e+00,1.648510e-01,1.549721e-01,3,0,1.523933e+00,1.523934e+00
1.328843e+00,1.646260e-01,1.540184e-01,3,0,1.709332e+00,1.709333e+00
1.333906e+00,1.646670e-01,1.549721e-01,3,0,2.275371e+00,2.275373e+00
1.330163e+00,1.645560e-01,1.549721e-01,3,0,2.183757e+00,2.183757e+00
1.333762e+00,1.645670e-01,1.549721e-01,3,0,3.177644e+00,3.177647e+00
1.330887e+00,1.644610e-01,1.549721e-01,3,0,2.200421e+00,2.200421e+00
1.341055e+00,1.645280e-01,1.549721e-01,3,0,2.128112e+00,2.128113e+00
1.330338e+00,1.646240e-01,1.537800e-01,3,0,1.654947e+00,1.654947e+00
1.333004e+00,1.646630e-01,1.549721e-01,3,0,1.361092e+00,1.361092e+00
1.329160e+00,1.646020e-01,1.549721e-01,3,0,1.290532e+00,1.290532e+00
1.333756e+00,1.648650e-01,1.549721e-01,3,0,8.311484e-01,8.311485e-01
1.327653e+00,1.643820e-01,1.549721e-01,3,0,1.269288e+00,1.269289e+00
1.329166e+00,1.695350e-01,1.590252e-01,3,0,1.211517e+00,1.211517e+00
1.329990e+00,1.643540e-01,1.540184e-01,3,0,2.390725e+00,2.390727e+00
1.331199e+00,1.690180e-01,1.590252e-01,3,0,2.705532e+00,2.705533e+00
1.330360e+00,1.646170e-01,1.540184e-01,3,0,4.124200e+00,4.124203e+00
1.332289e+00,4.668130e-01,4.570484e-01,3,1,7.090920e+00,7.095793e+00
1.330930e+00,4.222480e-01,4.119873e-01,3,1,5.152033e+00,5.152032e+00
1.335169e+00,1.646800e-01,1.549721e-01,3,0,5.249338e+00,5.249340e+00
1.331583e+00,1.640080e-01,1.540184e-01,3,0,3.411966e+00,3.411966e+00
1.336408e+00,1.642260e-01,1.549721e-01,3,0,2.851295e+00,2.851296e+00
1.329421e+00,1.643890e-01,1.549721e-01,3,0,2.997321e+00,2.997322e+00
1.333750e+00,1.649190e-01,1.549721e-01,3,0,2.532716e+00,2.532717e+00
1.329842e+00,1.648630e-01,1.549721e-01,3,0,2.023318e+00,2.023318e+00
1.333384e+00,1.646820e-01,1.549721e-01,3,0,1.649926e+00,1.649926e+00
1.329273e+00,1.644470e-01,1.540184e-01,3,0,1.317540e+00,1.317540e+00
1.328376e+00,1.633360e-01,1.540184e-01,3,0,3.917373e+00,3.917378e+00
1.330903e+00,1.644200e-01,1.549721e-01,3,0,4.539280e+00,4.539282e+00
1.330654e+00,1.689580e-01,1.590252e-01,3,0,3.118062e+00,3.118062e+00
1.329603e+00,1.645070e-01,1.549721e-01,3,0,3.063498e+00,3.063498e+00
1.329157e+00,1.699230e-01,1.599789e-01,3,0,2.505882e+00,2.505882e+00
1.334341e+00,1.639460e-01,1.540184e-01,3,0,1.081578e+00,1.081578e+00
1.329070e+00,1.649260e-01,1.549721e-01,3,0,9.461800e-01,9.461802e-01
1.333376e+00,1.652350e-01,1.549721e-01,3,0,9.267420e-01,9.267425e-01
1.330227e+00,1.638250e-01,1.540184e-01,3,0,8.546266e-01,8.546272e-01
1.333552e+00,1.639730e-01,1.540184e-01,3,0,1.786876e+00,1.786878e+00
1.330442e+00,1.642700e-01,1.537800e-01,3,0,4.375525e+00,4.375529e+00
1.333901e+00,1.644270e-01,1.540184e-01,3,0,3.852414e+00,3.852414e+00
1.330148e+00,1.644970e-01,1.540184e-01,3,0,4.967680e+00,4.967683e+00
1.334667e+00,1.639350e-01,1.540184e-01,3,0,4.752140e+00,4.752141e+00
1.335423e+00,7.275150e-01,7.171631e-01,3,2,7.301361e+00,7.311125e+00
1.330170e+00,6.681890e-01,6.580353e-01,3,2,6.164362e+00,6.164361e+00
1.329969e+00,1.644640e-01,1.540184e-01,3,0,5.613071e+00,5.613072e+00
1.330212e+00,1.686620e-01,1.578331e-01,3,0,4.507828e+00,4.507828e+00
1.328889e+00,1.644800e-01,1.540184e-01,3,0,3.561643e+00,3.561643e+00
1.329283e+00,4.506630e-01,4.410744e-01,3,1,4.183400e+00,4.192902e+00
1.329526e+00,2.123580e-01,2.028942e-01,3,0,4.457504e+00,4.460924e+00
1.331358e+00,1.059388e+00,1.049042e+00,3,3,5.971357e+00,6.021876e+00
1.335363e+00,1.167247e+00,1.157999e+00,3,4,5.125451e+00,5.125451e+00
1.336284e+00,2.360656e+00,2.350807e+00,3,8,7.679071e+00,7.721351e+00
3.098494e+00,1.451313e+00,1.441002e+00,7,5,6.231178e+00,6.241698e+00
2.659729e+00,6.686370e-01,6.580353e-01,6,2,5.614803e+00,5.595828e+00
2.654990e+00,1.287181e+00,1.274109e+00,6,4,9.423627e+00,9.400495e+00
2.655677e+00,1.114937e+00,1.105070e+00,6,4,9.696487e+00,9.672637e+00
1.768773e+00,3.735890e-01,3.638268e-01,4,1,7.977407e+00,7.977406e+00
1.331447e+00,1.700140e-01,1.599789e-01,3,0,7.652234e+00,7.652236e+00
1.336193e+00,4.464490e-01,4.360676e-01,3,1,5.970131e+00,5.974526e+00
1.336222e+00,4.152080e-01,4.060268e-01,3,1,5.148169e+00,5.148169e+00
1.358419e+00,1.648810e-01,1.549721e-01,3,0,4.307094e+00,4.307095e+00
1.334048e+00,1.658030e-01,1.559258e-01,3,0,3.647443e+00,3.647444e+00
1.342820e+00,1.647750e-01,1.549721e-01,3,0,2.862786e+00,2.862786e+00
1.336769e+00,1.652490e-01,1.549721e-01,3,0,2.617927e+00,2.617928e+00
1.330279e+00,1.643550e-01,1.540184e-01,3,0,3.287440e+00,3.287442e+00
1.337906e+00,1.644330e-01,1.549721e-01,3,0,2.645832e+00,2.645832e+00
1.330790e+00,1.657260e-01,1.559258e-01,3,0,2.698857e+00,2.698858e+00
1.360910e+00,1.693590e-01,1.590252e-01,3,0,3.205600e+00,3.205602e+00
1.331511e+00,1.659360e-01,1.559258e-01,3,0,4.098623e+00,4.098625e+00
1.330843e+00,1.699650e-01,1.599789e-01,3,0,4.298308e+00,4.298309e+00
1.336272e+00,4.648870e-01,4.549026e-01,3,1,5.786115e+00,5.788157e+00
1.336678e+00,4.154630e-01,4.050732e-01,3,1,4.825138e+00,4.825138e+00
1.330317e+00,1.646950e-01,1.549721e-01,3,0,3.861528e+00,3.861528e+00
1.336887e+00,1.645970e-01,1.540184e-01,3,0,2.853965e+00,2.853965e+00
1.331133e+00,1.641270e-01,1.549721e-01,3,0,3.012455e+00,3.012457e+00
1.330865e+00,4.709960e-01,4.608631e-01,3,1,3.491848e+00,3.491914e+00
1.336507e+00,4.156600e-01,4.060268e-01,3,1,2.126767e+00,2.126767e+00
1.330486e+00,1.649120e-01,1.549721e-01,3,0,1.614225e+00,1.614225e+00
1.330690e+00,1.693760e-01,1.590252e-01,3,0,1.203725e+00,1.203725e+00
1.330519e+00,1.640830e-01,1.549721e-01,3,0,1.313013e+00,1.313015e+00
1.329792e+00,1.691980e-01,1.587868e-01,3,0,1.043822e+00,1.043822e+00
1.328432e+00,1.645160e-01,1.549721e-01,3,0,8.750668e-01,8.750670e-01
1.329261e+00,1.695720e-01,1.599789e-01,3,0,1.230409e+00,1.230410e+00
1.333677e+00,1.649410e-01,1.549721e-01,3,0,2.064964e+00,2.064965e+00
1.330505e+00,1.648510e-01,1.549721e-01,3,0,2.105682e+00,2.105683e+00
1.334481e+00,1.644660e-01,1.549721e-01,3,0,4.169944e+00,4.169947e+00
1.331400e+00,1.648870e-01,1.549721e-01,3,0,4.855987e+00,4.855989e+00
1.335773e+00,1.644590e-01,1.549721e-01,3,0,3.188728e+00,3.188727e+00
1.337167e+00,1.648890e-01,1.552105e-01,3,0,2.400481e+00,2.400481e+00
1.334378e+00,1.649990e-01,1.549721e-01,3,0,1.928933e+00,1.928933e+00
1.329632e+00,1.646160e-01,1.549721e-01,3,0,1.782812e+00,1.782812e+00
1.334270e+00,1.653100e-01,1.549721e-01,3,0,1.222342e+00,1.222342e+00
1.329334e+00,1.649720e-01,1.559258e-01,3,0,9.575021e-01,9.575025e-01
1.330060e+00,1.650000e-01,1.549721e-01,3,0,8.569834e-01,8.569837e-01
1.329885e+00,1.648550e-01,1.552105e-01,3,0,9.137060e-01,9.137069e-01
1.329572e+00,1.692940e-01,1.590252e-01,3,0,6.362897e-01,6.362900e-01
1.329208e+00,1.648480e-01,1.549721e-01,3,0,5.140678e-01,5.140681e-01
1.328596e+00,1.700550e-01,1.599789e-01,3,0,6.127791e-01,6.127796e-01
1.329899e+00,1.652240e-01,1.549721e-01,3,0,6.496632e-01,6.496636e-01
1.330681e+00,1.697310e-01,1.599789e-01,3,0,2.191364e-01,2.191363e-01
1.333551e+00,1.650590e-01,1.549721e-01,3,0,4.652328e-01,4.652334e-01
1.329690e+00,1.645800e-01,1.540184e-01,3,0,9.324010e-01,9.324023e-01
1.334719e+00,1.648120e-01,1.549721e-01,3,0,1.166381e+00,1.166381e+00
1.331297e+00,1.646180e-01,1.549721e-01,3,0,1.537967e+00,1.537968e+00
1.335541e+00,1.649510e-01,1.549721e-01,3,0,1.236670e+00,1.236670e+00
1.330153e+00,1.649910e-01,1.549721e-01,3,0,1.013819e+00,1.013819e+00
1.333656e+00,1.649700e-01,1.549721e-01,3,0,1.009031e+00,1.009031e+00
1.330265e+00,1.648870e-01,1.549721e-01,3,0,9.552688e-01,9.552692e-01
1.335476e+00,1.648470e-01,1.549721e-01,3,0,6.556452e-01,6.556452e-01
1.330197e+00,1.647100e-01,1.549721e-01,3,0,7.550658e-01,7.550663e-01
1.329965e+00,1.646690e-01,1.552105e-01,3,0,6.056373e-01,6.056376e-01
1.328833e+00,1.646860e-01,1.549721e-01,3,0,8.640312e-01,8.640321e-01
1.329997e+00,1.710670e-01,1.609325e-01,3,0,1.099546e+00,1.099547e+00
1.331667e+00,1.648540e-01,1.561642e-01,3,0,7.859613e-01,7.859618e-01
1.355195e+00,1.946490e-01,1.850128e-01,3,0,1.500847e+00,1.500848e+00
1.336693e+00,1.654020e-01,1.559258e-01,3,0,9.907678e-01,9.907679e-01
1.330611e+00,1.646330e-01,1.549721e-01,3,0,6.487686e-01,6.487686e-01
1.335158e+00,1.652500e-01,1.559258e-01,3,0,4.171359e-01,4.171361e-01
1.330266e+00,1.648120e-01,1.549721e-01,3,0,5.311484e-01,5.311487e-01
1.333904e+00,1.648290e-01,1.549721e-01,3,0,6.231016e-01,6.231019e-01
1.331348e+00,1.648500e-01,1.549721e-01,3,0,4.719339e-01,4.719341e-01
1.334784e+00,1.644190e-01,1.540184e-01,3,0,7.192140e-01,7.192149e-01
1.329831e+00,1.645280e-01,1.549721e-01,3,0,1.117197e+00,1.117199e+00
1.336934e+00,1.645130e-01,1.549721e-01,3,0,4.565858e-01,4.565859e-01
1.330285e+00,1.643710e-01,1.549721e-01,3,0,6.631641e-01,6.631647e-01
1.329541e+00,1.647290e-01,1.552105e-01,3,0,5.918048e-01,5.918050e-01
1.330777e+00,1.649890e-01,1.549721e-01,3,0,1.272236e+00,1.272237e+00
1.330050e+00,1.695190e-01,1.599789e-01,3,0,1.049703e+00,1.049703e+00
1.330566e+00,1.651930e-01,1.549721e-01,3,0,1.560714e+00,1.560715e+00
1.330806e+00,1.700110e-01,1.599789e-01,3,0,1.822273e+00,1.822274e+00
1.330647e+00,1.647340e-01,1.549721e-01,3,0,1.809079e+00,1.809080e+00
1.331179e+00,1.652710e-01,1.561642e-01,3,0,1.719971e+00,1.719971e+00
1.335760e+00,1.640820e-01,1.540184e-01,3,0,1.105061e+00,1.105062e+00
1.331248e+00,1.648640e-01,1.549721e-01,3,0,8.229579e-01,8.229580e-01
1.334864e+00,1.646700e-01,1.549721e-01,3,0,1.278679e+00,1.278680e+00
1.331435e+00,1.646400e-01,1.549721e-01,3,0,1.222919e+00,1.222920e+00
1.335665e+00,1.646770e-01,1.549721e-01,3,0,1.040156e+00,1.040156e+00
1.374580e+00,1.646040e-01,1.549721e-01,3,0,1.622768e+00,1.622769e+00
1.337247e+00,1.652790e-01,1.559258e-01,3,0,6.134301e-01,6.134296e-01
1.330819e+00,1.647420e-01,1.549721e-01,3,0,7.538407e-01,7.538412e-01
1.332280e+00,1.646690e-01,1.549721e-01,3,0,9.963460e-01,9.963466e-01
1.331954e+00,1.646180e-01,1.549721e-01,3,0,4.041556e-01,4.041557e-01
1.351478e+00,1.698140e-01,1.599789e-01,3,0,4.361305e-01,4.361309e-01
1.329689e+00,1.654270e-01,1.549721e-01,3,0,3.864821e-01,3.864823e-01
1.328643e+00,1.693180e-01,1.599789e-01,3,0,7.715751e-01,7.715760e-01
1.335197e+00,1.647590e-01,1.552105e-01,3,0,1.218730e+00,1.218730e+00
1.330514e+00,1.646120e-01,1.549721e-01,3,0,9.607167e-01,9.607168e-01
1.336071e+00,1.645790e-01,1.540184e-01,3,0,8.557071e-01,8.557074e-01
1.330706e+00,1.681800e-01,1.590252e-01,3,0,8.167433e-01,8.167436e-01
1.334432e+00,1.646500e-01,1.549721e-01,3,0,1.188200e+00,1.188200e+00
1.329429e+00,1.646000e-01,1.549721e-01,3,0,1.239648e+00,1.239648e+00
1.334968e+00,1.644120e-01,1.537800e-01,3,0,1.409840e+00,1.409843e+00
1.330984e+00,1.648490e-01,1.549721e-01,3,0,1.931517e+00,1.931518e+00
1.335229e+00,1.650790e-01,1.549721e-01,3,0,1.394984e+00,1.394984e+00
1.331210e+00,1.648870e-01,1.549721e-01,3,0,1.050604e+00,1.050604e+00
1.330591e+00,1.648590e-01,1.549721e-01,3,0,1.106464e+00,1.106465e+00
1.329301e+00,1.642360e-01,1.540184e-01,3,0,1.399082e+00,1.399083e+00
1.330141e+00,1.695780e-01,1.590252e-01,3,0,2.325287e+00,2.325289e+00
1.330386e+00,1.652270e-01,1.559258e-01,3,0,2.051800e+00,2.051800e+00
1.330556e+00,1.689170e-01,1.590252e-01,3,0,1.501297e+00,1.501297e+00
1.330092e+00,1.647950e-01,1.552105e-01,3,0,1.105547e+00,1.105547e+00
1.329903e+00,1.688080e-01,1.549721e-01,3,0,1.374187e+00,1.374188e+00
1.334623e+00,1.650050e-01,1.549721e-01,3,0,1.192876e+00,1.192876e+00
1.330032e+00,1.642280e-01,1.540184e-01,3,0,1.076098e+00,1.076099e+00
1.335491e+00,1.646780e-01,1.549721e-01,3,0,6.866549e-01,6.866548e-01
1.328879e+00,1.647790e-01,1.549721e-01,3,0,6.316571e-01,6.316573e-01
1.334415e+00,1.647750e-01,1.549721e-01,3,0,7.236622e-01,7.236628e-01
1.329402e+00,1.646870e-01,1.549721e-01,3,0,5.884425e-01,5.884426e-01
1.335436e+00,1.648550e-01,1.549721e-01,3,0,3.525740e-01,3.525744e-01
1.328704e+00,1.647690e-01,1.549721e-01,3,0,2.784367e-01,2.784369e-01
1.332693e+00,1.643580e-01,1.549721e-01,3,0,1.721879e+00,1.721882e+00
1.330338e+00,1.643670e-01,1.549721e-01,3,0,2.467678e+00,2.467680e+00
1.330830e+00,1.645740e-01,1.552105e-01,3,0,1.502051e+00,1.502051e+00
1.331602e+00,1.644490e-01,1.549721e-01,3,0,7.734066e-01,7.734063e-01
1.329183e+00,1.689050e-01,1.590252e-01,3,0,6.911530e-01,6.911531e-01
1.329879e+00,1.651420e-01,1.559258e-01,3,0,7.695693e-01,7.695697e-01
1.330602e+00,1.700060e-01,1.599789e-01,3,0,1.093177e+00,1.093177e+00
1.328703e+00,1.649540e-01,1.549721e-01,3,0,1.392962e+00,1.392963e+00
1.330318e+00,1.647060e-01,1.549721e-01,3,0,1.493154e+00,1.493154e+00
1.335612e+00,1.641560e-01,1.540184e-01,3,0,1.138737e+00,1.138737e+00
1.330919e+00,1.643860e-01,1.540184e-01,3,0,1.393832e+00,1.393833e+00
1.335237e+00,1.651300e-01,1.559258e-01,3,0,1.754151e+00,1.754152e+00
1.331255e+00,1.646730e-01,1.549721e-01,3,0,3.178057e+00,3.178060e+00
1.335128e+00,1.645440e-01,1.549721e-01,3,0,3.522761e+00,3.522762e+00
1.330511e+00,1.644270e-01,1.552105e-01,3,0,4.234067e+00,4.234069e+00
1.334249e+00,1.643970e-01,1.549721e-01,3,0,2.355399e+00,2.355398e+00
1.331122e+00,1.641170e-01,1.549721e-01,3,0,1.225546e+00,1.225546e+00
1.335028e+00,1.649390e-01,1.549721e-01,3,0,1.188398e+00,1.188399e+00
1.329334e+00,1.646600e-01,1.549721e-01,3,0,1.271953e+00,1.271953e+00
1.329791e+00,1.650740e-01,1.559258e-01,3,0,1.032860e+00,1.032860e+00
1.329029e+00,1.642960e-01,1.540184e-01,3,0,9.463270e-01,9.463274e-01
1.329579e+00,1.695120e-01,1.590252e-01,3,0,7.797200e-01,7.797205e-01
1.330128e+00,1.643980e-01,1.549721e-01,3,0,1.290756e+00,1.290757e+00
1.330226e+00,1.696520e-01,1.599789e-01,3,0,1.122561e+00,1.122561e+00
1.334004e+00,1.647820e-01,1.549721e-01,3,0,7.305574e-01,7.305573e-01
1.329444e+00,1.643940e-01,1.540184e-01,3,0,8.839973e-01,8.839978e-01
1.334908e+00,1.646690e-01,1.549721e-01,3,0,6.189473e-01,6.189474e-01
1.329804e+00,1.640420e-01,1.549721e-01,3,0,1.294982e+00,1.294984e+00
1.333850e+00,1.640430e-01,1.549721e-01,3,0,2.521858e+00,2.521860e+00
1.330362e+00,1.642410e-01,1.540184e-01,3,0,1.288661e+00,1.288660e+00
1.334070e+00,1.651320e-01,1.561642e-01,3,0,1.170352e+00,1.170352e+00
1.331152e+00,1.645460e-01,1.549721e-01,3,0,1.262638e+00,1.262638e+00
1.334551e+00,1.644200e-01,1.549721e-01,3,0,6.376495e-01,6.376499e-01
1.330226e+00,1.648740e-01,1.549721e-01,3,0,8.868820e-01,8.868827e-01
1.334202e+00,1.646720e-01,1.549721e-01,3,0,7.493697e-01,7.493700e-01
1.328336e+00,1.651570e-01,1.549721e-01,3,0,5.648396e-01,5.648398e-01
1.328633e+00,1.642740e-01,1.540184e-01,3,0,1.895741e+00,1.895744e+00
1.330765e+00,1.645180e-01,1.549721e-01,3,0,1.293068e+00,1.293068e+00
1.330627e+00,1.692470e-01,1.590252e-01,3,0,1.885963e+00,1.885964e+00
1.330200e+00,1.642880e-01,1.549721e-01,3,0,2.430868e+00,2.430869e+00
1.331474e+00,1.695230e-01,1.599789e-01,3,0,1.867438e+00,1.867438e+00
1.335060e+00,1.639560e-01,1.549721e-01,3,0,5.467727e+00,5.467734e+00
1.330532e+00,1.649930e-01,1.549721e-01,3,0,6.218313e+00,6.218315e+00
1.335269e+00,1.642000e-01,1.540184e-01,3,0,3.933799e+00,3.933799e+00
1.332011e+00,1.651100e-01,1.552105e-01,3,0,3.426453e+00,3.426453e+00
1.335164e+00,1.646430e-01,1.549721e-01,3,0,3.126343e+00,3.126344e+00
1.330313e+00,1.648140e-01,1.549721e-01,3,0,2.314123e+00,2.314123e+00
1.335262e+00,1.648370e-01,1.549721e-01,3,0,2.262918e+00,2.262919e+00
1.330557e+00,1.643570e-01,1.540184e-01,3,0,2.001626e+00,2.001627e+00
1.334736e+00,1.648690e-01,1.549721e-01,3,0,1.482267e+00,1.482267e+00
1.329449e+00,1.649660e-01,1.549721e-01,3,0,1.181895e+00,1.181895e+00
1.335553e+00,1.653350e-01,1.549721e-01,3,0,9.729844e-01,9.729846e-01
1.345454e+00,1.645070e-01,1.549721e-01,3,0,1.012118e+00,1.012119e+00
1.330019e+00,1.709600e-01,1.621246e-01,3,0,7.815290e-01,7.815291e-01
1.331445e+00,1.650150e-01,1.552105e-01,3,0,7.117179e-01,7.117183e-01
1.330381e+00,1.693910e-01,1.587868e-01,3,0,2.308455e+00,2.308459e+00
1.335377e+00,1.640580e-01,1.540184e-01,3,0,4.698170e-01,4.698166e-01
1.330940e+00,1.714530e-01,1.609325e-01,3,0,4.057991e-01,4.057994e-01
1.338735e+00,1.647760e-01,1.549721e-01,3,0,6.685368e-01,6.685377e-01
1.331545e+00,1.653390e-01,1.561642e-01,3,0,4.014942e-01,4.014943e-01
1.332040e+00,1.650990e-01,1.549721e-01,3,0,6.127979e-01,6.127986e-01
1.333789e+00,1.647780e-01,1.549721e-01,3,0,3.929298e-01,3.929298e-01
1.335492e+00,1.654450e-01,1.561642e-01,3,0,5.881570e-01,5.881575e-01
1.331703e+00,1.646960e-01,1.549721e-01,3,0,7.699268e-01,7.699282e-01
1.347710e+00,1.646070e-01,1.549721e-01,3,0,3.470493e-01,3.470494e-01
1.329962e+00,1.659250e-01,1.568794e-01,3,0,2.500389e-01,2.500390e-01
1.332743e+00,1.646650e-01,1.549721e-01,3,0,2.803843e-01,2.803846e-01
1.330038e+00,1.651570e-01,1.549721e-01,3,0,3.988077e-01,3.988079e-01
1.328210e+00,1.693420e-01,1.599789e-01,3,0,4.718079e-01,4.718083e-01
1.329479e+00,1.644540e-01,1.549721e-01,3,0,4.443176e-01,4.443181e-01
1.329320e+00,1.697790e-01,1.602173e-01,3,0,2.363330e-01,2.363331e-01
1.328953e+00,1.645600e-01,1.549721e-01,3,0,6.573185e-01,6.573194e-01
1.329770e+00,1.693730e-01,1.590252e-01,3,0,3.454129e-01,3.454130e-01
1.332271e+00,1.649420e-01,1.559258e-01,3,0,5.493356e-01,5.493361e-01
1.328617e+00,1.646460e-01,1.552105e-01,3,0,4.623655e-01,4.623656e-01
1.333486e+00,1.646240e-01,1.540184e-01,3,0,1.886847e+00,1.886849e+00
1.329359e+00,1.650900e-01,1.549721e-01,3,0,1.972371e+00,1.972371e+00
1.335168e+00,1.642620e-01,1.540184e-01,3,0,2.867085e+00,2.867087e+00
1.329709e+00,1.643990e-01,1.549721e-01,3,0,2.191751e+00,2.191751e+00
1.358986e+00,1.646500e-01,1.540184e-01,3,0,1.795282e+00,1.795282e+00
1.330737e+00,1.648940e-01,1.549721e-01,3,0,1.553111e+00,1.553112e+00
1.333632e+00,1.641850e-01,1.549721e-01,3,0,1.789659e+00,1.789660e+00
1.329939e+00,1.643020e-01,1.540184e-01,3,0,2.589453e+00,2.589455e+00
1.329588e+00,1.646420e-01,1.549721e-01,3,0,3.192252e+00,3.192253e+00
1.330090e+00,1.644260e-01,1.540184e-01,3,0,1.627883e+00,1.627882e+00
1.329662e+00,1.688740e-01,1.590252e-01,3,0,2.363949e+00,2.363951e+00
1.330727e+00,1.648320e-01,1.552105e-01,3,0,1.257891e+00,1.257891e+00
1.330127e+00,1.693410e-01,1.599789e-01,3,0,1.706988e+00,1.706989e+00
1.329193e+00,1.648430e-01,1.549721e-01,3,0,2.079271e+00,2.079272e+00
1.330499e+00,1.689810e-01,1.561642e-01,3,0,1.310312e+00,1.310312e+00
1.367490e+00,1.649110e-01,1.549721e-01,3,0,1.209783e+00,1.209783e+00
1.378597e+00,1.711960e-01,1.611710e-01,3,0,1.237001e+00,1.237002e+00
1.375179e+00,1.704330e-01,1.599789e-01,3,0,8.829990e-01,8.829991e-01
1.368244e+00,1.696140e-01,1.599789e-01,3,0,1.146950e+00,1.146951e+00
1.368214e+00,1.702740e-01,1.609325e-01,3,0,1.607432e+00,1.607433e+00
1.368681e+00,1.703150e-01,1.599789e-01,3,0,1.285515e+00,1.285516e+00
1.369004e+00,1.753260e-01,1.649857e-01,3,0,1.363248e+00,1.363249e+00
1.374584e+00,1.699590e-01,1.599789e-01,3,0,1.352330e+00,1.352331e+00
1.369521e+00,1.698800e-01,1.599789e-01,3,0,1.074787e+00,1.074787e+00
1.374272e+00,1.705080e-01,1.599789e-01,3,0,8.070037e-01,8.070039e-01
1.367984e+00,1.696030e-01,1.590252e-01,3,0,9.129929e-01,9.129934e-01
1.329959e+00,1.876280e-01,1.769066e-01,3,0,9.631561e-01,9.631566e-01
1.329074e+00,1.645760e-01,1.549721e-01,3,0,8.499507e-01,8.499512e-01
1.330529e+00,1.948860e-01,1.850128e-01,3,0,8.217385e-01,8.217390e-01
1.333951e+00,1.651240e-01,1.549721e-01,3,0,5.434056e-01,5.434058e-01
1.361105e+00,1.642070e-01,1.540184e-01,3,0,9.735113e-01,9.735122e-01
1.335972e+00,1.647410e-01,1.549721e-01,3,0,8.362503e-01,8.362508e-01
1.329690e+00,1.651380e-01,1.549721e-01,3,0,7.677145e-01,7.677149e-01
1.362370e+00,1.648420e-01,1.549721e-01,3,0,6.435390e-01,6.435396e-01
1.330538e+00,1.651640e-01,1.549721e-01,3,0,3.702111e-01,3.702112e-01
1.358137e+00,1.645300e-01,1.549721e-01,3,0,5.555658e-01,5.555664e-01
1.328962e+00,1.652470e-01,1.549721e-01,3,0,5.796819e-01,5.796823e-01
1.328115e+00,1.649550e-01,1.549721e-01,3,0,8.328929e-01,8.328934e-01
1.330036e+00,1.647990e-01,1.549721e-01,3,0,1.108578e+00,1.108578e+00
1.330388e+00,1.699520e-01,1.602173e-01,3,0,1.200289e+00,1.200290e+00
1.355638e+00,1.647210e-01,1.549721e-01,3,0,1.503934e+00,1.503935e+00
1.331852e+00,1.703080e-01,1.599789e-01,3,0,1.244833e+00,1.244834e+00
1.333337e+00,1.647980e-01,1.549721e-01,3,0,1.143551e+00,1.143551e+00
1.329370e+00,1.643040e-01,1.540184e-01,3,0,1.696160e+00,1.696162e+00
1.333842e+00,1.650220e-01,1.549721e-01,3,0,1.332709e+00,1.332709e+00
1.356275e+00,1.644220e-01,1.549721e-01,3,0,1.429200e+00,1.429201e+00
1.333696e+00,1.652170e-01,1.549721e-01,3,0,1.277911e+00,1.277912e+00
1.330375e+00,1.644920e-01,1.540184e-01,3,0,1.028708e+00,1.028709e+00
1.333614e+00,1.646380e-01,1.549721e-01,3,0,1.665616e+00,1.665617e+00
1.330641e+00,1.647220e-01,1.549721e-01,3,0,2.118986e+00,2.118987e+00
1.335056e+00,1.647130e-01,1.549721e-01,3,0,1.484338e+00,1.484338e+00
1.330595e+00,1.647110e-01,1.549721e-01,3,0,9.790386e-01,9.790385e-01
1.334651e+00,1.649600e-01,1.549721e-01,3,0,5.021165e-01,5.021166e-01
1.330300e+00,1.647590e-01,1.549721e-01,3,0,4.537429e-01,4.537431e-01
1.329525e+00,1.699880e-01,1.599789e-01,3,0,4.085157e-01,4.085161e-01
1.330240e+00,1.647230e-01,1.552105e-01,3,0,4.124019e-01,4.124023e-01
1.329127e+00,1.695200e-01,1.590252e-01,3,0,3.364084e-01,3.364086e-01
1.329269e+00,1.642030e-01,1.540184e-01,3,0,1.115431e+00,1.115433e+00
1.330022e+00,1.697010e-01,1.599789e-01,3,0,7.087615e-01,7.087615e-01
1.337067e+00,1.648960e-01,1.549721e-01,3,0,6.960584e-01,6.960587e-01
1.330604e+00,1.651370e-01,1.549721e-01,3,0,6.777748e-01,6.777751e-01
1.334976e+00,1.647850e-01,1.549721e-01,3,0,6.473474e-01,6.473478e-01
1.330715e+00,1.647850e-01,1.549721e-01,3,0,5.170091e-01,5.170093e-01
1.334007e+00,1.647970e-01,1.552105e-01,3,0,4.919197e-01,4.919200e-01
1.329758e+00,1.646240e-01,1.540184e-01,3,0,7.238363e-01,7.238371e-01
1.334878e+00,1.644750e-01,1.549721e-01,3,0,8.296659e-01,8.296665e-01
1.330201e+00,1.648490e-01,1.549721e-01,3,0,9.120697e-01,9.120701e-01
1.334725e+00,1.649060e-01,1.552105e-01,3,0,1.228337e+00,1.228338e+00
1.330553e+00,1.646880e-01,1.549721e-01,3,0,9.737436e-01,9.737437e-01
1.331279e+00,1.645030e-01,1.549721e-01,3,0,2.484001e+00,2.484004e+00
1.330061e+00,1.649360e-01,1.559258e-01,3,0,1.926551e+00,1.926551e+00
1.329323e+00,1.690800e-01,1.599789e-01,3,0,3.349810e+00,3.349813e+00
1.330339e+00,1.643530e-01,1.549721e-01,3,0,2.988791e+00,2.988791e+00
1.330915e+00,1.691770e-01,1.599789e-01,3,0,3.300426e+00,3.300427e+00
1.329848e+00,1.645720e-01,1.549721e-01,3,0,2.717241e+00,2.717241e+00
1.330122e+00,1.693490e-01,1.549721e-01,3,0,2.751167e+00,2.751167e+00
1.334873e+00,1.643930e-01,1.549721e-01,3,0,2.152551e+00,2.152551e+00
1.329487e+00,1.650860e-01,1.549721e-01,3,0,2.047357e+00,2.047357e+00
1.333913e+00,1.650040e-01,1.552105e-01,3,0,1.948476e+00,1.948476e+00
1.330755e+00,1.647060e-01,1.549721e-01,3,0,1.544941e+00,1.544941e+00
1.333870e+00,1.644130e-01,1.549721e-01,3,0,1.552074e+00,1.552074e+00
1.329823e+00,1.647130e-01,1.549721e-01,3,0,1.305194e+00,1.305194e+00
1.335331e+00,1.644660e-01,1.540184e-01,3,0,1.106919e+00,1.106919e+00
1.330592e+00,1.649190e-01,1.549721e-01,3,0,1.360833e+00,1.360834e+00
1.335184e+00,1.646930e-01,1.552105e-01,3,0,2.189533e+00,2.189535e+00
1.330199e+00,1.650820e-01,1.549721e-01,3,0,2.876868e+00,2.876869e+00
1.330860e+00,1.648900e-01,1.549721e-01,3,0,1.603567e+00,1.603567e+00
1.330639e+00,1.648030e-01,1.549721e-01,3,0,2.702155e+00,2.702157e+00
1.330634e+00,1.696120e-01,1.599789e-01,3,0,1.602116e+00,1.602115e+00
1.331926e+00,1.646540e-01,1.549721e-01,3,0,1.138911e+00,1.138911e+00
1.330478e+00,1.697670e-01,1.599789e-01,3,0,2.004422e+00,2.004424e+00
1.335952e+00,1.646850e-01,1.540184e-01,3,0,1.385264e+00,1.385264e+00
1.329838e+00,1.646530e-01,1.549721e-01,3,0,1.751699e+00,1.751700e+00
1.336678e+00,1.641420e-01,1.540184e-01,3,0,1.232253e+00,1.232254e+00
1.330568e+00,1.643700e-01,1.549721e-01,3,0,1.633015e+00,1.633016e+00
1.336169e+00,1.643870e-01,1.549721e-01,3,0,9.412960e-01,9.412964e-01
1.332078e+00,1.647400e-01,1.552105e-01,3,0,8.751964e-01,8.751969e-01
1.335256e+00,1.648570e-01,1.552105e-01,3,0,1.171621e+00,1.171622e+00
1.330873e+00,1.647090e-01,1.549721e-01,3,0,8.953361e-01,8.953362e-01

