8.959290e-01,9.496190e-01,6.980896e-01,2,0,0.000000e+00,0.000000e+00
1.329826e+00,1.662270e-01,1.552105e-01,3,0,8.193058e-02,8.193074e-02
1.334294e+00,1.641680e-01,1.540184e-01,3,0,3.339468e-01,3.339473e-01
1.380253e+00,1.628970e-01,1.540184e-01,3,0,3.143827e-01,3.143829e-01
1.338789e+00,1.650220e-01,1.549721e-01,3,0,1.234091e+00,1.234093e+00
1.334694e+00,1.636860e-01,1.549721e-01,3,0,1.820400e+00,1.820401e+00
1.345806e+00,1.631900e-01,1.540184e-01,3,0,7.904648e-01,7.904644e-01
1.333342e+00,1.634010e-01,1.540184e-01,3,0,5.548025e-01,5.548025e-01
1.350530e+00,1.630000e-01,1.530647e-01,3,0,9.098071e-01,9.098081e-01
1.333929e+00,1.626380e-01,1.530647e-01,3,0,2.643851e+00,2.643854e+00
1.333219e+00,1.683800e-01,1.580715e-01,3,0,3.521030e+00,3.521032e+00
1.339624e+00,1.629250e-01,1.540184e-01,3,0,5.401207e+00,5.401211e+00
1.334199e+00,1.673360e-01,1.580715e-01,3,0,3.906060e+00,3.906059e+00
1.332485e+00,1.631560e-01,1.540184e-01,3,0,3.821178e+00,3.821178e+00
1.332239e+00,1.689530e-01,1.599789e-01,3,0,4.130744e+00,4.130746e+00
1.338267e+00,1.633810e-01,1.540184e-01,3,0,4.555921e+00,4.555923e+00
1.334176e+00,1.626960e-01,1.530647e-01,3,0,3.081153e+00,3.081153e+00
1.337963e+00,1.627090e-01,1.530647e-01,3,0,3.042321e+00,3.042322e+00
1.332356e+00,1.629550e-01,1.540184e-01,3,0,2.053895e+00,2.053894e+00
1.337027e+00,1.634490e-01,1.540184e-01,3,0,1.648537e+00,1.648537e+00
1.332317e+00,1.629250e-01,1.540184e-01,3,0,1.779535e+00,1.779536e+00
1.337854e+00,1.634060e-01,1.540184e-01,3,0,1.995336e+00,1.995337e+00
1.332224e+00,1.637720e-01,1.540184e-01,3,0,1.562491e+00,1.562491e+00
1.337273e+00,1.626290e-01,1.530647e-01,3,0,1.361983e+00,1.361984e+00
1.332722e+00,1.631130e-01,1.537800e-01,3,0,1.246552e+00,1.246552e+00
1.331922e+00,1.634520e-01,1.540184e-01,3,0,9.682573e-01,9.682576e-01
1.333389e+00,1.634740e-01,1.540184e-01,3,0,5.351648e-01,5.351648e-01
1.333075e+00,1.675030e-01,1.580715e-01,3,0,4.425743e-01,4.425747e-01
1.332270e+00,1.628850e-01,1.540184e-01,3,0,7.187914e-01,7.187921e-01
1.332135e+00,1.679010e-01,1.578331e-01,3,0,1.231469e+00,1.231470e+00
1.332681e+00,1.634230e-01,1.540184e-01,3,0,2.266509e+00,2.266511e+00
1.334095e+00,1.674020e-01,1.540184e-01,3,0,3.080572e+00,3.080573e+00
1.337243e+00,1.635910e-01,1.540184e-01,3,0,2.726629e+00,2.726629e+00
1.333326e+00,1.633380e-01,1.540184e-01,3,0,2.680951e+00,2.680952e+00
1.338059e+00,1.630420e-01,1.530647e-01,3,0,2.526431e+00,2.526432e+00
1.361011e+00,1.633590e-01,1.540184e-01,3,0,2.456689e+00,2.456690e+00
1.337718e+00,1.645690e-01,1.549721e-01,3,0,1.966151e+00,1.966151e+00
1.330170e+00,1.637430e-01,1.540184e-01,3,0,1.697874e+00,1.697874e+00
1.334302e+00,1.633860e-01,1.530647e-01,3,0,1.579117e+00,1.579117e+00
1.328851e+00,1.628530e-01,1.540184e-01,3,0,1.330361e+00,1.330362e+00
1.334374e+00,1.628700e-01,1.530647e-01,3,0,1.225111e+00,1.225111e+00
1.329150e+00,1.625300e-01,1.530647e-01,3,0,1.379984e+00,1.379985e+00
1.329833e+00,1.777170e-01,1.690388e-01,3,0,1.043081e+00,1.043081e+00
1.329257e+00,1.634900e-01,1.540184e-01,3,0,1.137167e+00,1.137168e+00
1.329402e+00,1.671970e-01,1.571178e-01,3,0,2.400504e+00,2.400506e+00
1.347158e+00,1.627040e-01,1.540184e-01,3,0,3.588394e-01,3.588392e-01
1.330585e+00,1.698360e-01,1.599789e-01,3,0,1.063356e+00,1.063358e+00
1.347824e+00,1.631480e-01,1.540184e-01,3,0,1.252178e+00,1.252179e+00
1.331037e+00,1.640740e-01,1.549721e-01,3,0,1.927499e+00,1.927500e+00
1.335148e+00,1.631220e-01,1.540184e-01,3,0,7.858908e-01,7.858907e-01
1.340852e+00,1.636010e-01,1.549721e-01,3,0,7.365630e-01,7.365633e-01
1.334894e+00,1.648170e-01,1.559258e-01,3,0,1.026469e+00,1.026469e+00
1.329198e+00,1.631920e-01,1.540184e-01,3,0,1.191389e+00,1.191390e+00
1.334499e+00,1.631840e-01,1.540184e-01,3,0,1.770519e+00,1.770521e+00
1.330718e+00,1.634400e-01,1.540184e-01,3,0,1.910123e+00,1.910124e+00
1.334210e+00,1.629580e-01,1.540184e-01,3,0,1.242352e+00,1.242352e+00
1.329110e+00,1.630140e-01,1.540184e-01,3,0,1.233827e+00,1.233828e+00
1.328810e+00,1.634360e-01,1.540184e-01,3,0,1.059630e+00,1.059630e+00
1.328897e+00,1.632350e-01,1.530647e-01,3,0,1.094722e+00,1.094722e+00
1.329956e+00,1.677720e-01,1.590252e-01,3,0,5.186396e-01,5.186401e-01
1.329274e+00,1.625560e-01,1.540184e-01,3,0,1.721407e+00,1.721410e+00
1.329622e+00,1.671770e-01,1.580715e-01,3,0,8.180417e-01,8.180413e-01
1.329784e+00,1.624100e-01,1.530647e-01,3,0,8.089178e-01,8.089185e-01
1.327175e+00,1.677500e-01,1.578331e-01,3,0,2.286534e+00,2.286536e+00
1.333746e+00,1.633360e-01,1.540184e-01,3,0,4.104395e+00,4.104398e+00
1.330280e+00,1.631270e-01,1.540184e-01,3,0,5.186831e+00,5.186834e+00
1.335983e+00,1.631620e-01,1.540184e-01,3,0,4.646795e+00,4.646795e+00
1.330425e+00,1.632230e-01,1.540184e-01,3,0,3.276442e+00,3.276442e+00
1.335495e+00,1.633880e-01,1.540184e-01,3,0,2.759350e+00,2.759350e+00
1.330963e+00,1.624580e-01,1.540184e-01,3,0,2.116711e+00,2.116711e+00
1.333383e+00,1.627920e-01,1.530647e-01,3,0,1.593888e+00,1.593888e+00
1.328276e+00,1.627780e-01,1.530647e-01,3,0,1.984059e+00,1.984060e+00
1.333807e+00,1.629160e-01,1.540184e-01,3,0,1.746889e+00,1.746890e+00
1.328618e+00,1.630750e-01,1.540184e-01,3,0,1.560985e+00,1.560986e+00
1.333424e+00,1.629560e-01,1.540184e-01,3,0,1.489772e+00,1.489773e+00
1.330010e+00,1.632110e-01,1.540184e-01,3,0,1.267041e+00,1.267041e+00
1.328795e+00,1.628950e-01,1.528263e-01,3,0,1.290915e+00,1.290916e+00
1.329821e+00,1.630850e-01,1.537800e-01,3,0,2.093565e+00,2.093567e+00
1.329696e+00,1.679690e-01,1.590252e-01,3,0,9.930380e-01,9.930376e-01
1.327845e+00,1.633490e-01,1.540184e-01,3,0,1.440214e+00,1.440215e+00
1.330318e+00,1.674280e-01,1.580715e-01,3,0,6.168046e-01,6.168045e-01
1.327347e+00,1.632500e-01,1.537800e-01,3,0,6.486012e-01,6.486016e-01
1.328787e+00,1.698710e-01,1.611710e-01,3,0,6.458249e-01,6.458252e-01
1.332834e+00,1.635190e-01,1.549721e-01,3,0,7.233478e-01,7.233482e-01
1.328304e+00,1.632160e-01,1.540184e-01,3,0,7.478178e-01,7.478181e-01
1.333429e+00,1.633950e-01,1.540184e-01,3,0,1.064691e+00,1.064692e+00
1.330812e+00,1.634390e-01,1.540184e-01,3,0,1.177700e+00,1.177700e+00
1.335280e+00,1.632090e-01,1.540184e-01,3,0,1.874518e+00,1.874520e+00
1.328910e+00,1.633010e-01,1.540184e-01,3,0,1.928039e+00,1.928040e+00
1.334548e+00,1.626150e-01,1.530647e-01,3,0,4.589904e+00,4.589908e+00
1.330251e+00,1.624920e-01,1.530647e-01,3,0,2.356051e+00,2.356050e+00
1.333605e+00,1.628490e-01,1.540184e-01,3,0,1.821841e+00,1.821841e+00
1.330325e+00,1.629100e-01,1.530647e-01,3,0,1.550170e+00,1.550171e+00
1.333271e+00,1.626360e-01,1.528263e-01,3,0,2.494850e+00,2.494853e+00
1.329854e+00,1.629240e-01,1.540184e-01,3,0,1.447907e+00,1.447906e+00
1.329962e+00,1.672390e-01,1.568794e-01,3,0,1.382700e+00,1.382700e+00
1.330548e+00,1.634320e-01,1.540184e-01,3,0,1.329238e+00,1.329239e+00
1.329117e+00,1.673080e-01,1.580715e-01,3,0,2.078078e+00,2.078080e+00
1.330702e+00,1.629520e-01,1.530647e-01,3,0,1.100201e+00,1.100201e+00
1.329748e+00,1.679930e-01,1.590252e-01,3,0,7.328598e-01,7.328601e-01
1.328313e+00,1.633010e-01,1.540184e-01,3,0,5.909246e-01,5.909248e-01
1.329008e+00,1.629420e-01,1.540184e-01,3,0,5.329295e-01,5.329299e-01
1.346333e+00,1.637550e-01,1.549721e-01,3,0,4.186103e-01,4.186105e-01
1.329556e+00,1.639190e-01,1.540184e-01,3,0,5.654971e-01,5.654975e-01
1.333850e+00,1.635980e-01,1.549721e-01,3,0,6.360340e-01,6.360344e-01
1.348336e+00,1.633740e-01,1.540184e-01,3,0,9.161548e-01,9.161556e-01
1.335009e+00,1.633840e-01,1.540184e-01,3,0,9.592467e-01,9.592472e-01
1.340793e+00,1.630020e-01,1.528263e-01,3,0,1.151272e+00,1.151273e+00
1.333553e+00,1.634700e-01,1.540184e-01,3,0,1.214467e+00,1.214468e+00
1.329691e+00,1.633380e-01,1.540184e-01,3,0,8.427260e-01,8.427261e-01
1.333125e+00,1.630850e-01,1.540184e-01,3,0,9.681886e-01,9.681894e-01
1.328249e+00,1.631290e-01,1.540184e-01,3,0,2.104984e+00,2.104987e+00
1.329516e+00,1.679880e-01,1.580715e-01,3,0,2.405114e+00,2.405115e+00
1.331000e+00,1.632790e-01,1.537800e-01,3,0,2.321857e+00,2.321857e+00
1.328431e+00,1.674790e-01,1.580715e-01,3,0,2.050884e+00,2.050884e+00
1.328755e+00,1.633880e-01,1.540184e-01,3,0,2.237768e+00,2.237769e+00
1.330212e+00,1.681330e-01,1.590252e-01,3,0,2.562660e+00,2.562661e+00
1.333987e+00,1.630710e-01,1.528263e-01,3,0,3.365837e+00,3.365839e+00
1.330225e+00,1.635300e-01,1.540184e-01,3,0,3.916651e+00,3.916653e+00
1.335466e+00,1.624230e-01,1.530647e-01,3,0,2.482886e+00,2.482885e+00
1.330932e+00,1.634960e-01,1.540184e-01,3,0,2.297676e+00,2.297677e+00
1.333920e+00,1.633700e-01,1.540184e-01,3,0,2.507445e+00,2.507446e+00
1.329394e+00,1.628490e-01,1.530647e-01,3,0,2.183640e+00,2.183641e+00
1.334686e+00,1.633320e-01,1.540184e-01,3,0,1.852831e+00,1.852831e+00
1.330325e+00,1.635200e-01,1.540184e-01,3,0,1.642339e+00,1.642340e+00
1.335243e+00,1.630400e-01,1.530647e-01,3,0,1.893659e+00,1.893660e+00
1.329847e+00,1.630400e-01,1.540184e-01,3,0,1.000815e+00,1.000815e+00
1.333858e+00,1.633290e-01,1.540184e-01,3,0,9.230756e-01,9.230759e-01
1.328752e+00,1.633810e-01,1.540184e-01,3,0,1.134676e+00,1.134676e+00
1.337207e+00,1.629900e-01,1.540184e-01,3,0,1.568012e+00,1.568013e+00
1.329811e+00,1.634610e-01,1.537800e-01,3,0,7.417924e-01,7.417921e-01
1.328988e+00,1.680090e-01,1.590252e-01,3,0,7.612320e-01,7.612324e-01
1.328183e+00,1.635330e-01,1.540184e-01,3,0,5.615348e-01,5.615349e-01
1.328205e+00,1.676760e-01,1.590252e-01,3,0,8.570701e-01,8.570709e-01
1.329074e+00,1.627560e-01,1.540184e-01,3,0,1.368532e+00,1.368533e+00
1.330283e+00,1.670440e-01,1.580715e-01,3,0,7.834280e-01,7.834280e-01
1.333041e+00,1.634430e-01,1.540184e-01,3,0,1.324859e+00,1.324860e+00
1.329556e+00,1.627590e-01,1.530647e-01,3,0,7.983583e-01,7.983584e-01
1.334018e+00,1.635570e-01,1.540184e-01,3,0,5.720848e-01,5.720849e-01
1.329101e+00,1.632720e-01,1.540184e-01,3,0,5.424244e-01,5.424246e-01
1.333880e+00,1.631960e-01,1.540184e-01,3,0,1.136120e+00,1.136121e+00
1.329407e+00,1.629800e-01,1.540184e-01,3,0,1.483807e+00,1.483807e+00
1.334046e+00,1.630940e-01,1.540184e-01,3,0,1.145115e+00,1.145115e+00
1.330949e+00,1.630260e-01,1.540184e-01,3,0,9.960988e-01,9.960992e-01
1.333156e+00,1.629750e-01,1.530647e-01,3,0,1.536201e+00,1.536203e+00
1.330530e+00,1.631180e-01,1.537800e-01,3,0,1.339108e+00,1.339108e+00
1.333748e+00,1.634340e-01,1.540184e-01,3,0,8.963447e-01,8.963446e-01
1.329935e+00,1.624080e-01,1.530647e-01,3,0,1.530724e+00,1.530726e+00
1.329395e+00,1.672320e-01,1.580715e-01,3,0,3.120150e+00,3.120153e+00
1.329011e+00,1.635020e-01,1.540184e-01,3,0,4.061983e+00,4.061984e+00
1.329648e+00,1.681480e-01,1.578331e-01,3,0,4.688644e+00,4.688645e+00
1.329913e+00,1.629610e-01,1.540184e-01,3,0,5.882574e+00,5.882577e+00
1.330127e+00,1.682940e-01,1.590252e-01,3,0,5.767801e+00,5.767801e+00
1.333387e+00,1.630240e-01,1.528263e-01,3,0,5.693435e+00,5.693437e+00
1.330382e+00,1.627210e-01,1.528263e-01,3,0,4.718466e+00,4.718466e+00
1.333764e+00,1.623990e-01,1.530647e-01,3,0,3.273574e+00,3.273575e+00
1.329922e+00,1.633630e-01,1.540184e-01,3,0,2.651052e+00,2.651052e+00
1.333735e+00,1.623900e-01,1.530647e-01,3,0,2.531013e+00,2.531014e+00
1.329475e+00,1.633120e-01,1.540184e-01,3,0,1.523933e+00,1.523934e+00
1.332886e+00,1.631140e-01,1.540184e-01,3,0,1.709332e+00,1.709333e+00
1.330113e+00,1.633050e-01,1.540184e-01,3,0,2.275371e+00,2.275373e+00
1.334603e+00,1.636340e-01,1.537800e-01,3,0,2.183757e+00,2.183757e+00
1.328935e+00,1.630590e-01,1.540184e-01,3,0,3.177644e+00,3.177647e+00
1.335708e+00,1.629180e-01,1.540184e-01,3,0,2.200421e+00,2.200421e+00
1.329466e+00,1.629090e-01,1.530647e-01,3,0,2.128112e+00,2.128113e+00
1.335832e+00,1.629170e-01,1.537800e-01,3,0,1.654947e+00,1.654947e+00
1.328699e+00,1.632250e-01,1.540184e-01,3,0,1.361092e+00,1.361092e+00
1.327548e+00,1.680790e-01,1.590252e-01,3,0,1.290532e+00,1.290532e+00
1.329630e+00,1.628550e-01,1.530647e-01,3,0,8.311484e-01,8.311485e-01
1.328622e+00,1.672340e-01,1.580715e-01,3,0,1.269288e+00,1.269289e+00
1.329779e+00,1.629170e-01,1.540184e-01,3,0,1.211517e+00,1.211517e+00
1.329674e+00,1.677270e-01,1.580715e-01,3,0,2.390725e+00,2.390727e+00
1.333404e+00,1.627170e-01,1.530647e-01,3,0,2.705532e+00,2.705533e+00
1.330341e+00,1.629740e-01,1.540184e-01,3,0,4.124200e+00,4.124203e+00
1.329851e+00,4.625820e-01,4.489422e-01,3,1,7.090920e+00,7.095793e+00
1.333871e+00,4.225980e-01,4.131794e-01,3,1,5.152033e+00,5.152032e+00
1.329981e+00,1.632040e-01,1.530647e-01,3,0,5.249338e+00,5.249340e+00
1.334458e+00,1.627470e-01,1.530647e-01,3,0,3.411966e+00,3.411966e+00
1.330626e+00,1.628730e-01,1.530647e-01,3,0,2.851295e+00,2.851296e+00
1.334389e+00,1.633840e-01,1.540184e-01,3,0,2.997321e+00,2.997322e+00
1.329383e+00,1.634880e-01,1.540184e-01,3,0,2.532716e+00,2.532717e+00
1.334277e+00,1.634040e-01,1.540184e-01,3,0,2.023318e+00,2.023318e+00
1.329796e+00,1.630700e-01,1.540184e-01,3,0,1.649926e+00,1.649926e+00
1.328642e+00,1.675280e-01,1.580715e-01,3,0,1.317540e+00,1.317540e+00
1.329361e+00,1.620640e-01,1.521111e-01,3,0,3.917373e+00,3.917378e+00
1.330526e+00,1.678440e-01,1.580715e-01,3,0,4.539280e+00,4.539282e+00
1.329308e+00,1.629510e-01,1.537800e-01,3,0,3.118062e+00,3.118062e+00
1.329446e+00,1.679720e-01,1.580715e-01,3,0,3.063498e+00,3.063498e+00
1.332882e+00,1.636610e-01,1.549721e-01,3,0,2.505882e+00,2.505882e+00
1.365817e+00,1.625480e-01,1.530647e-01,3,0,1.081578e+00,1.081578e+00
1.334449e+00,1.648070e-01,1.549721e-01,3,0,9.461800e-01,9.461802e-01
1.329991e+00,1.638230e-01,1.540184e-01,3,0,9.267420e-01,9.267425e-01
1.333902e+00,1.628070e-01,1.530647e-01,3,0,8.546266e-01,8.546272e-01
1.328830e+00,1.626770e-01,1.530647e-01,3,0,1.786876e+00,1.786878e+00
1.334563e+00,1.626820e-01,1.530647e-01,3,0,4.375525e+00,4.375529e+00
1.331157e+00,1.629730e-01,1.530647e-01,3,0,3.852414e+00,3.852414e+00
1.333820e+00,1.633870e-01,1.540184e-01,3,0,4.967680e+00,4.967683e+00
1.329815e+00,1.625280e-01,1.530647e-01,3,0,4.752140e+00,4.752141e+00
1.330390e+00,7.306250e-01,7.209778e-01,3,2,7.301361e+00,7.311125e+00
1.331192e+00,6.671420e-01,6.580353e-01,3,2,6.164362e+00,6.164361e+00
1.328959e+00,1.678180e-01,1.580715e-01,3,0,5.613071e+00,5.613072e+00
1.330499e+00,1.629820e-01,1.540184e-01,3,0,4.507828e+00,4.507828e+00
1.329841e+00,1.677510e-01,1.580715e-01,3,0,3.561643e+00,3.561643e+00
1.334528e+00,4.443590e-01,4.348755e-01,3,1,4.183400e+00,4.192902e+00
1.344015e+00,2.117140e-01,2.019405e-01,3,0,4.457504e+00,4.460924e+00
1.336128e+00,1.060158e+00,1.050949e+00,3,3,5.971357e+00,6.021876e+00
1.331158e+00,1.166728e+00,1.157045e+00,3,4,5.125451e+00,5.125451e+00
1.333859e+00,2.369162e+00,2.359867e+00,3,8,7.679071e+00,7.721351e+00
3.099501e+00,1.458423e+00,1.449108e+00,7,5,6.231178e+00,6.241698e+00
2.668426e+00,6.621470e-01,6.530285e-01,6,2,5.614803e+00,5.595828e+00
2.661296e+00,1.282379e+00,1.273155e+00,6,4,9.423627e+00,9.400495e+00
2.690416e+00,1.108300e+00,1.098156e+00,6,4,9.696487e+00,9.672637e+00
1.774128e+00,4.083910e-01,3.969669e-01,4,1,7.977407e+00,7.977406e+00
1.338038e+00,1.660780e-01,1.571178e-01,3,0,7.652234e+00,7.652236e+00
1.332294e+00,4.511610e-01,4.417896e-01,3,1,5.970131e+00,5.974526e+00
1.334029e+00,4.188320e-01,4.088879e-01,3,1,5.148169e+00,5.148169e+00
1.335212e+00,1.638120e-01,1.540184e-01,3,0,4.307094e+00,4.307095e+00
1.355300e+00,1.632210e-01,1.537800e-01,3,0,3.647443e+00,3.647444e+00
1.329307e+00,1.641160e-01,1.540184e-01,3,0,2.862786e+00,2.862786e+00
1.330606e+00,1.632680e-01,1.530647e-01,3,0,2.617927e+00,2.617928e+00
1.330100e+00,1.677410e-01,1.590252e-01,3,0,3.287440e+00,3.287442e+00
1.330835e+00,1.635310e-01,1.540184e-01,3,0,2.645832e+00,2.645832e+00
1.329681e+00,1.681180e-01,1.578331e-01,3,0,2.698857e+00,2.698858e+00
1.329760e+00,1.633410e-01,1.540184e-01,3,0,3.205600e+00,3.205602e+00
1.330773e+00,1.681910e-01,1.590252e-01,3,0,4.098623e+00,4.098625e+00
1.334899e+00,1.635440e-01,1.537800e-01,3,0,4.298308e+00,4.298309e+00
1.330258e+00,4.627490e-01,4.529953e-01,3,1,5.786115e+00,5.788157e+00
1.330270e+00,4.184590e-01,4.088879e-01,3,1,4.825138e+00,4.825138e+00
1.339900e+00,1.631060e-01,1.540184e-01,3,0,3.861528e+00,3.861528e+00
1.331381e+00,1.630520e-01,1.537800e-01,3,0,2.853965e+00,2.853965e+00
1.336037e+00,1.623580e-01,1.530647e-01,3,0,3.012455e+00,3.012457e+00
1.335806e+00,4.630070e-01,4.529953e-01,3,1,3.491848e+00,3.491914e+00
1.331842e+00,4.166420e-01,4.081726e-01,3,1,2.126767e+00,2.126767e+00
1.342208e+00,1.819310e-01,1.718998e-01,3,0,1.614225e+00,1.614225e+00
1.329880e+00,1.643210e-01,1.540184e-01,3,0,1.203725e+00,1.203725e+00
1.329974e+00,1.672670e-01,1.580715e-01,3,0,1.313013e+00,1.313015e+00
1.329221e+00,1.634350e-01,1.540184e-01,3,0,1.043822e+00,1.043822e+00
1.331830e+00,1.677390e-01,1.537800e-01,3,0,8.750668e-01,8.750670e-01
1.334261e+00,1.634270e-01,1.540184e-01,3,0,1.230409e+00,1.230410e+00
1.330184e+00,1.635240e-01,1.537800e-01,3,0,2.064964e+00,2.064965e+00
1.334001e+00,1.632690e-01,1.540184e-01,3,0,2.105682e+00,2.105683e+00
1.331908e+00,1.629860e-01,1.540184e-01,3,0,4.169944e+00,4.169947e+00
1.335414e+00,1.636290e-01,1.540184e-01,3,0,4.855987e+00,4.855989e+00
1.330840e+00,1.631020e-01,1.540184e-01,3,0,3.188728e+00,3.188727e+00
1.333808e+00,1.633750e-01,1.540184e-01,3,0,2.400481e+00,2.400481e+00
1.331097e+00,1.636350e-01,1.540184e-01,3,0,1.928933e+00,1.928933e+00
1.333241e+00,1.632730e-01,1.528263e-01,3,0,1.782812e+00,1.782812e+00
1.328648e+00,1.636800e-01,1.552105e-01,3,0,1.222342e+00,1.222342e+00
1.332781e+00,1.634670e-01,1.540184e-01,3,0,9.575021e-01,9.575025e-01
1.328677e+00,1.638370e-01,1.540184e-01,3,0,8.569834e-01,8.569837e-01
1.330177e+00,1.679320e-01,1.590252e-01,3,0,9.137060e-01,9.137069e-01
1.329865e+00,1.630830e-01,1.540184e-01,3,0,6.362897e-01,6.362900e-01
1.327730e+00,1.676510e-01,1.580715e-01,3,0,5.140678e-01,5.140681e-01
1.329153e+00,1.636350e-01,1.540184e-01,3,0,6.127791e-01,6.127796e-01
1.329880e+00,1.682460e-01,1.590252e-01,3,0,6.496632e-01,6.496636e-01
1.333499e+00,1.634770e-01,1.549721e-01,3,0,2.191364e-01,2.191363e-01
1.328509e+00,1.637190e-01,1.549721e-01,3,0,4.652328e-01,4.652334e-01
1.333336e+00,1.632910e-01,1.540184e-01,3,0,9.324010e-01,9.324023e-01
1.330267e+00,1.634090e-01,1.537800e-01,3,0,1.166381e+00,1.166381e+00
1.336690e+00,1.632820e-01,1.540184e-01,3,0,1.537967e+00,1.537968e+00
1.332696e+00,1.633860e-01,1.537800e-01,3,0,1.236670e+00,1.236670e+00
1.334732e+00,1.637650e-01,1.552105e-01,3,0,1.013819e+00,1.013819e+00
1.329341e+00,1.635950e-01,1.540184e-01,3,0,1.009031e+00,1.009031e+00
1.333121e+00,1.638100e-01,1.540184e-01,3,0,9.552688e-01,9.552692e-01
1.330719e+00,1.634820e-01,1.540184e-01,3,0,6.556452e-01,6.556452e-01
1.334989e+00,1.635490e-01,1.540184e-01,3,0,7.550658e-01,7.550663e-01
1.330873e+00,1.635730e-01,1.540184e-01,3,0,6.056373e-01,6.056376e-01
1.330006e+00,1.682670e-01,1.540184e-01,3,0,8.640312e-01,8.640321e-01
1.329833e+00,1.641290e-01,1.549721e-01,3,0,1.099546e+00,1.099547e+00
1.328604e+00,1.680100e-01,1.578331e-01,3,0,7.859613e-01,7.859618e-01
1.330721e+00,1.633000e-01,1.537800e-01,3,0,1.500847e+00,1.500848e+00
1.330420e+00,1.691380e-01,1.599789e-01,3,0,9.907678e-01,9.907679e-01
1.334432e+00,1.634230e-01,1.540184e-01,3,0,6.487686e-01,6.487686e-01
1.329938e+00,1.633500e-01,1.540184e-01,3,0,4.171359e-01,4.171361e-01
1.332191e+00,1.637030e-01,1.549721e-01,3,0,5.311484e-01,5.311487e-01
1.329698e+00,1.634680e-01,1.540184e-01,3,0,6.231016e-01,6.231019e-01
1.334464e+00,1.635920e-01,1.540184e-01,3,0,4.719339e-01,4.719341e-01
1.330121e+00,1.629140e-01,1.530647e-01,3,0,7.192140e-01,7.192149e-01
1.335437e+00,1.632930e-01,1.540184e-01,3,0,1.117197e+00,1.117199e+00
1.329946e+00,1.630050e-01,1.540184e-01,3,0,4.565858e-01,4.565859e-01
1.333388e+00,1.633420e-01,1.540184e-01,3,0,6.631641e-01,6.631647e-01
1.330319e+00,1.634310e-01,1.540184e-01,3,0,5.918048e-01,5.918050e-01
1.335259e+00,1.635470e-01,1.537800e-01,3,0,1.272236e+00,1.272237e+00
1.330404e+00,1.635250e-01,1.540184e-01,3,0,1.049703e+00,1.049703e+00
1.329210e+00,1.637560e-01,1.540184e-01,3,0,1.560714e+00,1.560715e+00
1.329420e+00,1.637130e-01,1.540184e-01,3,0,1.822273e+00,1.822274e+00
1.328649e+00,1.688490e-01,1.590252e-01,3,0,1.809079e+00,1.809080e+00
1.328701e+00,1.637930e-01,1.540184e-01,3,0,1.719971e+00,1.719971e+00
1.330686e+00,1.673170e-01,1.571178e-01,3,0,1.105061e+00,1.105062e+00
1.328210e+00,1.635200e-01,1.540184e-01,3,0,8.229579e-01,8.229580e-01
1.328579e+00,1.678090e-01,1.590252e-01,3,0,1.278679e+00,1.278680e+00
1.333912e+00,1.632560e-01,1.530647e-01,3,0,1.222919e+00,1.222920e+00
1.330601e+00,1.628520e-01,1.530647e-01,3,0,1.040156e+00,1.040156e+00
1.335399e+00,1.631290e-01,1.540184e-01,3,0,1.622768e+00,1.622769e+00
1.331505e+00,1.633870e-01,1.540184e-01,3,0,6.134301e-01,6.134296e-01
1.334502e+00,1.632530e-01,1.540184e-01,3,0,7.538407e-01,7.538412e-01
1.330356e+00,1.632530e-01,1.540184e-01,3,0,9.963460e-01,9.963466e-01
1.334624e+00,1.631990e-01,1.528263e-01,3,0,4.041556e-01,4.041557e-01
1.328292e+00,1.635620e-01,1.549721e-01,3,0,4.361305e-01,4.361309e-01
1.333030e+00,1.632820e-01,1.540184e-01,3,0,3.864821e-01,3.864823e-01
1.328930e+00,1.626070e-01,1.530647e-01,3,0,7.715751e-01,7.715760e-01
1.334544e+00,1.634690e-01,1.540184e-01,3,0,1.218730e+00,1.218730e+00
1.330413e+00,1.628970e-01,1.528263e-01,3,0,9.607167e-01,9.607168e-01
1.329368e+00,1.677720e-01,1.580715e-01,3,0,8.557071e-01,8.557074e-01
1.329797e+00,1.633310e-01,1.540184e-01,3,0,8.167433e-01,8.167436e-01
1.329236e+00,1.680730e-01,1.578331e-01,3,0,1.188200e+00,1.188200e+00
1.328859e+00,1.630910e-01,1.540184e-01,3,0,1.239648e+00,1.239648e+00
1.329981e+00,1.673990e-01,1.578331e-01,3,0,1.409840e+00,1.409843e+00
1.333851e+00,1.632870e-01,1.540184e-01,3,0,1.931517e+00,1.931518e+00
1.330647e+00,1.633010e-01,1.530647e-01,3,0,1.394984e+00,1.394984e+00
1.360891e+00,1.632830e-01,1.540184e-01,3,0,1.050604e+00,1.050604e+00
1.330022e+00,1.641960e-01,1.540184e-01,3,0,1.106464e+00,1.106465e+00
1.333641e+00,1.633360e-01,1.540184e-01,3,0,1.399082e+00,1.399083e+00
1.330540e+00,1.633500e-01,1.540184e-01,3,0,2.325287e+00,2.325289e+00
1.334205e+00,1.639020e-01,1.549721e-01,3,0,2.051800e+00,2.051800e+00
1.331650e+00,1.631070e-01,1.540184e-01,3,0,1.501297e+00,1.501297e+00
1.333947e+00,1.632070e-01,1.540184e-01,3,0,1.105547e+00,1.105547e+00
1.328411e+00,1.632880e-01,1.540184e-01,3,0,1.374187e+00,1.374188e+00
1.333659e+00,1.635870e-01,1.540184e-01,3,0,1.192876e+00,1.192876e+00
1.329594e+00,1.633530e-01,1.540184e-01,3,0,1.076098e+00,1.076099e+00
1.329117e+00,1.678860e-01,1.578331e-01,3,0,6.866549e-01,6.866548e-01
1.331369e+00,1.634320e-01,1.540184e-01,3,0,6.316571e-01,6.316573e-01
1.329163e+00,1.679460e-01,1.580715e-01,3,0,7.236622e-01,7.236628e-01
1.329449e+00,1.634330e-01,1.537800e-01,3,0,5.884425e-01,5.884426e-01
1.329796e+00,1.683790e-01,1.590252e-01,3,0,3.525740e-01,3.525744e-01
1.327949e+00,1.632630e-01,1.540184e-01,3,0,2.784367e-01,2.784369e-01
1.328697e+00,1.632740e-01,1.540184e-01,3,0,1.721879e+00,1.721882e+00
1.333756e+00,1.630210e-01,1.540184e-01,3,0,2.467678e+00,2.467680e+00
1.330715e+00,1.631800e-01,1.530647e-01,3,0,1.502051e+00,1.502051e+00
1.335596e+00,1.630580e-01,1.528263e-01,3,0,7.734066e-01,7.734063e-01
1.329643e+00,1.634580e-01,1.540184e-01,3,0,6.911530e-01,6.911531e-01
1.334000e+00,1.636380e-01,1.540184e-01,3,0,7.695693e-01,7.695697e-01
1.329891e+00,1.633620e-01,1.540184e-01,3,0,1.093177e+00,1.093177e+00
1.335172e+00,1.631910e-01,1.540184e-01,3,0,1.392962e+00,1.392963e+00
1.329794e+00,1.632360e-01,1.540184e-01,3,0,1.493154e+00,1.493154e+00
1.334254e+00,1.628890e-01,1.540184e-01,3,0,1.138737e+00,1.138737e+00
1.329807e+00,1.630990e-01,1.540184e-01,3,0,1.393832e+00,1.393833e+00
1.329238e+00,1.636390e-01,1.540184e-01,3,0,1.754151e+00,1.754152e+00
1.330071e+00,1.634500e-01,1.540184e-01,3,0,3.178057e+00,3.178060e+00
1.328553e+00,1.688670e-01,1.590252e-01,3,0,3.522761e+00,3.522762e+00
1.330166e+00,1.634920e-01,1.540184e-01,3,0,4.234067e+00,4.234069e+00
1.330510e+00,1.673610e-01,1.578331e-01,3,0,2.355399e+00,2.355398e+00
1.330222e+00,1.629490e-01,1.530647e-01,3,0,1.225546e+00,1.225546e+00
1.331198e+00,1.682420e-01,1.590252e-01,3,0,1.188398e+00,1.188399e+00
1.334030e+00,1.637530e-01,1.549721e-01,3,0,1.271953e+00,1.271953e+00
1.329601e+00,1.634940e-01,1.540184e-01,3,0,1.032860e+00,1.032860e+00
1.334426e+00,1.632350e-01,1.540184e-01,3,0,9.463270e-01,9.463274e-01
1.329828e+00,1.631150e-01,1.540184e-01,3,0,7.797200e-01,7.797205e-01
1.334406e+00,1.631990e-01,1.540184e-01,3,0,1.290756e+00,1.290757e+00
1.330466e+00,1.631400e-01,1.530647e-01,3,0,1.122561e+00,1.122561e+00
1.334370e+00,1.636380e-01,1.540184e-01,3,0,7.305574e-01,7.305573e-01
1.329464e+00,1.629460e-01,1.540184e-01,3,0,8.839973e-01,8.839978e-01
1.334638e+00,1.634150e-01,1.540184e-01,3,0,6.189473e-01,6.189474e-01
1.329987e+00,1.626960e-01,1.530647e-01,3,0,1.294982e+00,1.294984e+00
1.363444e+00,1.639090e-01,1.540184e-01,3,0,2.521858e+00,2.521860e+00
1.356285e+00,1.691990e-01,1.599789e-01,3,0,1.288661e+00,1.288660e+00
1.330406e+00,1.696330e-01,1.599789e-01,3,0,1.170352e+00,1.170352e+00
1.349743e+00,1.635140e-01,1.540184e-01,3,0,1.262638e+00,1.262638e+00
1.332623e+00,1.827940e-01,1.718998e-01,3,0,6.376495e-01,6.376499e-01
1.334555e+00,1.671800e-01,1.578331e-01,3,0,8.868820e-01,8.868827e-01
1.334918e+00,1.661120e-01,1.568794e-01,3,0,7.493697e-01,7.493700e-01
1.335558e+00,1.649600e-01,1.559258e-01,3,0,5.648396e-01,5.648398e-01
1.329773e+00,1.629490e-01,1.528263e-01,3,0,1.895741e+00,1.895744e+00
1.339423e+00,1.633400e-01,1.540184e-01,3,0,1.293068e+00,1.293068e+00
1.331154e+00,1.643960e-01,1.549721e-01,3,0,1.885963e+00,1.885964e+00
1.347388e+00,1.632810e-01,1.540184e-01,3,0,2.430868e+00,2.430869e+00
1.331741e+00,1.643600e-01,1.549721e-01,3,0,1.867438e+00,1.867438e+00
1.335666e+00,1.630140e-01,1.540184e-01,3,0,5.467727e+00,5.467734e+00
1.331681e+00,1.634580e-01,1.540184e-01,3,0,6.218313e+00,6.218315e+00
1.331728e+00,1.734330e-01,1.640320e-01,3,0,3.933799e+00,3.933799e+00
1.331399e+00,1.638380e-01,1.552105e-01,3,0,3.426453e+00,3.426453e+00
1.330674e+00,1.673580e-01,1.580715e-01,3,0,3.126343e+00,3.126344e+00
1.330755e+00,1.638310e-01,1.540184e-01,3,0,2.314123e+00,2.314123e+00
1.331067e+00,1.689230e-01,1.599789e-01,3,0,2.262918e+00,2.262919e+00
1.335264e+00,1.630160e-01,1.540184e-01,3,0,2.001626e+00,2.001627e+00
1.330966e+00,1.634410e-01,1.540184e-01,3,0,1.482267e+00,1.482267e+00
1.333791e+00,1.636380e-01,1.549721e-01,3,0,1.181895e+00,1.181895e+00
1.329371e+00,1.635210e-01,1.549721e-01,3,0,9.729844e-01,9.729846e-01
1.334226e+00,1.634230e-01,1.540184e-01,3,0,1.012118e+00,1.012119e+00
1.331249e+00,1.634930e-01,1.537800e-01,3,0,7.815290e-01,7.815291e-01
1.334066e+00,1.635200e-01,1.540184e-01,3,0,7.117179e-01,7.117183e-01
1.330008e+00,1.624280e-01,1.530647e-01,3,0,2.308455e+00,2.308459e+00
1.335189e+00,1.628030e-01,1.540184e-01,3,0,4.698170e-01,4.698166e-01
1.330824e+00,1.635470e-01,1.540184e-01,3,0,4.057991e-01,4.057994e-01
1.333418e+00,1.635470e-01,1.540184e-01,3,0,6.685368e-01,6.685377e-01
1.330160e+00,1.634890e-01,1.540184e-01,3,0,4.014942e-01,4.014943e-01
1.327607e+00,1.635830e-01,1.540184e-01,3,0,6.127979e-01,6.127986e-01
1.329174e+00,1.635210e-01,1.540184e-01,3,0,3.929298e-01,3.929298e-01
1.329402e+00,1.681160e-01,1.590252e-01,3,0,5.881570e-01,5.881575e-01
1.359618e+00,1.630850e-01,1.540184e-01,3,0,7.699268e-01,7.699282e-01
1.330481e+00,1.691740e-01,1.599789e-01,3,0,3.470493e-01,3.470494e-01
1.334557e+00,1.636570e-01,1.540184e-01,3,0,2.500389e-01,2.500390e-01
1.328479e+00,1.631740e-01,1.540184e-01,3,0,2.803843e-01,2.803846e-01
1.334144e+00,1.635090e-01,1.537800e-01,3,0,3.988077e-01,3.988079e-01
1.328540e+00,1.631830e-01,1.540184e-01,3,0,4.718079e-01,4.718083e-01
1.334476e+00,1.635170e-01,1.540184e-01,3,0,4.443176e-01,4.443181e-01
1.331142e+00,1.635170e-01,1.540184e-01,3,0,2.363330e-01,2.363331e-01
1.331995e+00,1.631570e-01,1.537800e-01,3,0,6.573185e-01,6.573194e-01
1.329533e+00,1.629960e-01,1.530647e-01,3,0,3.454129e-01,3.454130e-01
1.333205e+00,1.636310e-01,1.537800e-01,3,0,5.493356e-01,5.493361e-01
1.330628e+00,1.637020e-01,1.540184e-01,3,0,4.623655e-01,4.623656e-01
1.333604e+00,1.630980e-01,1.540184e-01,3,0,1.886847e+00,1.886849e+00
1.331352e+00,1.635120e-01,1.540184e-01,3,0,1.972371e+00,1.972371e+00
1.329957e+00,1.633970e-01,1.540184e-01,3,0,2.867085e+00,2.867087e+00
1.329496e+00,1.630780e-01,1.540184e-01,3,0,2.191751e+00,2.191751e+00
1.330409e+00,1.695210e-01,1.599789e-01,3,0,1.795282e+00,1.795282e+00
1.329938e+00,1.630820e-01,1.530647e-01,3,0,1.553111e+00,1.553112e+00
1.331393e+00,1.678470e-01,1.578331e-01,3,0,1.789659e+00,1.789660e+00
1.330430e+00,1.630000e-01,1.530647e-01,3,0,2.589453e+00,2.589455e+00
1.330177e+00,1.675960e-01,1.540184e-01,3,0,3.192252e+00,3.192253e+00
1.340899e+00,1.630560e-01,1.540184e-01,3,0,1.627883e+00,1.627882e+00
1.330958e+00,1.632140e-01,1.540184e-01,3,0,2.363949e+00,2.363951e+00
1.335420e+00,1.633620e-01,1.537800e-01,3,0,1.257891e+00,1.257891e+00
1.330901e+00,1.630870e-01,1.530647e-01,3,0,1.706988e+00,1.706989e+00
1.334591e+00,1.636900e-01,1.537800e-01,3,0,2.079271e+00,2.079272e+00
1.332177e+00,1.631890e-01,1.540184e-01,3,0,1.310312e+00,1.310312e+00
1.334934e+00,1.633130e-01,1.528263e-01,3,0,1.209783e+00,1.209783e+00
1.329948e+00,1.634530e-01,1.540184e-01,3,0,1.237001e+00,1.237002e+00
1.334927e+00,1.637630e-01,1.540184e-01,3,0,8.829990e-01,8.829991e-01
1.329774e+00,1.637700e-01,1.540184e-01,3,0,1.146950e+00,1.146951e+00
1.329820e+00,1.635400e-01,1.540184e-01,3,0,1.607432e+00,1.607433e+00
1.329942e+00,1.633970e-01,1.540184e-01,3,0,1.285515e+00,1.285516e+00
1.329563e+00,1.677420e-01,1.580715e-01,3,0,1.363248e+00,1.363249e+00
1.331267e+00,1.636560e-01,1.540184e-01,3,0,1.352330e+00,1.352331e+00
1.329857e+00,1.676600e-01,1.590252e-01,3,0,1.074787e+00,1.074787e+00
1.329361e+00,1.638300e-01,1.540184e-01,3,0,8.070037e-01,8.070039e-01
1.330018e+00,1.687830e-01,1.590252e-01,3,0,9.129929e-01,9.129934e-01
1.333882e+00,1.632570e-01,1.540184e-01,3,0,9.631561e-01,9.631566e-01
1.331164e+00,1.631100e-01,1.540184e-01,3,0,8.499507e-01,8.499512e-01
1.358646e+00,1.633280e-01,1.540184e-01,3,0,8.217385e-01,8.217390e-01
1.370952e+00,1.698220e-01,1.599789e-01,3,0,5.434056e-01,5.434058e-01
1.372759e+00,1.690440e-01,1.587868e-01,3,0,9.735113e-01,9.735122e-01
1.369234e+00,1.685800e-01,1.578331e-01,3,0,8.362503e-01,8.362508e-01
1.368216e+00,1.739890e-01,1.649857e-01,3,0,7.677145e-01,7.677149e-01
1.367522e+00,1.687560e-01,1.590252e-01,3,0,6.435390e-01,6.435396e-01
1.369428e+00,1.736750e-01,1.640320e-01,3,0,3.702111e-01,3.702112e-01
1.373280e+00,1.685160e-01,1.590252e-01,3,0,5.555658e-01,5.555664e-01
1.368111e+00,1.686000e-01,1.590252e-01,3,0,5.796819e-01,5.796823e-01
1.372392e+00,1.684580e-01,1.580715e-01,3,0,8.328929e-01,8.328934e-01
1.370243e+00,1.684980e-01,1.590252e-01,3,0,1.108578e+00,1.108578e+00
1.396231e+00,1.765910e-01,1.671314e-01,3,0,1.200289e+00,1.200290e+00
1.330887e+00,1.644070e-01,1.549721e-01,3,0,1.503934e+00,1.503935e+00
1.331571e+00,1.936710e-01,1.840591e-01,3,0,1.244833e+00,1.244834e+00
1.387717e+00,1.639070e-01,1.540184e-01,3,0,1.143551e+00,1.143551e+00
1.354800e+00,1.640210e-01,1.540184e-01,3,0,1.696160e+00,1.696162e+00
1.359609e+00,1.646270e-01,1.549721e-01,3,0,1.332709e+00,1.332709e+00
1.358401e+00,1.644850e-01,1.552105e-01,3,0,1.429200e+00,1.429201e+00
1.359344e+00,1.642170e-01,1.549721e-01,3,0,1.277911e+00,1.277912e+00
1.354085e+00,1.642280e-01,1.549721e-01,3,0,1.028708e+00,1.028709e+00
1.355136e+00,1.944430e-01,1.840591e-01,3,0,1.665616e+00,1.665617e+00
1.334070e+00,1.639160e-01,1.540184e-01,3,0,2.118986e+00,2.118987e+00
1.331061e+00,1.773740e-01,1.668930e-01,3,0,1.484338e+00,1.484338e+00
1.358851e+00,1.636290e-01,1.540184e-01,3,0,9.790386e-01,9.790385e-01
1.355800e+00,1.640780e-01,1.549721e-01,3,0,5.021165e-01,5.021166e-01
1.360166e+00,1.644620e-01,1.552105e-01,3,0,4.537429e-01,4.537431e-01
1.329420e+00,1.640910e-01,1.540184e-01,3,0,4.085157e-01,4.085161e-01
1.360234e+00,1.631190e-01,1.540184e-01,3,0,4.124019e-01,4.124023e-01
1.355791e+00,1.638420e-01,1.540184e-01,3,0,3.364084e-01,3.364086e-01
1.353680e+00,1.688960e-01,1.590252e-01,3,0,1.115431e+00,1.115433e+00
1.330288e+00,1.639040e-01,1.549721e-01,3,0,7.087615e-01,7.087615e-01
1.330100e+00,1.929300e-01,1.828671e-01,3,0,6.960584e-01,6.960587e-01
1.358537e+00,1.640290e-01,1.549721e-01,3,0,6.777748e-01,6.777751e-01
1.356136e+00,1.638840e-01,1.549721e-01,3,0,6.473474e-01,6.473478e-01
1.360048e+00,1.640020e-01,1.549721e-01,3,0,5.170091e-01,5.170093e-01
1.330287e+00,1.642970e-01,1.549721e-01,3,0,4.919197e-01,4.919200e-01
1.359078e+00,1.633740e-01,1.540184e-01,3,0,7.238363e-01,7.238371e-01
1.355473e+00,1.635960e-01,1.540184e-01,3,0,8.296659e-01,8.296665e-01
1.384419e+00,1.638870e-01,1.549721e-01,3,0,9.120697e-01,9.120701e-01
1.329443e+00,1.642060e-01,1.552105e-01,3,0,1.228337e+00,1.228338e+00
1.331008e+00,1.931670e-01,1.840591e-01,3,0,9.737436e-01,9.737437e-01
1.359534e+00,1.635490e-01,1.540184e-01,3,0,2.484001e+00,2.484004e+00
1.355287e+00,1.637100e-01,1.540184e-01,3,0,1.926551e+00,1.926551e+00
1.359938e+00,1.641010e-01,1.549721e-01,3,0,3.349810e+00,3.349813e+00
1.329248e+00,1.633470e-01,1.537800e-01,3,0,2.988791e+00,2.988791e+00
1.360212e+00,1.629120e-01,1.540184e-01,3,0,3.300426e+00,3.300427e+00
1.356673e+00,1.635650e-01,1.549721e-01,3,0,2.717241e+00,2.717241e+00
1.360966e+00,1.643790e-01,1.549721e-01,3,0,2.751167e+00,2.751167e+00
1.330939e+00,1.637260e-01,1.540184e-01,3,0,2.152551e+00,2.152551e+00
1.368721e+00,1.685020e-01,1.549721e-01,3,0,2.047357e+00,2.047357e+00
1.355532e+00,1.641270e-01,1.549721e-01,3,0,1.948476e+00,1.948476e+00
1.355723e+00,1.696050e-01,1.599789e-01,3,0,1.544941e+00,1.544941e+00
1.347154e+00,1.637550e-01,1.540184e-01,3,0,1.552074e+00,1.552074e+00
1.330694e+00,1.755750e-01,1.540184e-01,3,0,1.305194e+00,1.305194e+00
1.361054e+00,1.632810e-01,1.540184e-01,3,0,1.106919e+00,1.106919e+00
1.355728e+00,1.641910e-01,1.549721e-01,3,0,1.360833e+00,1.360834e+00
1.361766e+00,1.640620e-01,1.540184e-01,3,0,2.189533e+00,2.189535e+00
1.330988e+00,1.644630e-01,1.552105e-01,3,0,2.876868e+00,2.876869e+00
1.362691e+00,1.635150e-01,1.540184e-01,3,0,1.603567e+00,1.603567e+00
1.356473e+00,1.639250e-01,1.540184e-01,3,0,2.702155e+00,2.702157e+00
1.355870e+00,1.940360e-01,1.850128e-01,3,0,1.602116e+00,1.602115e+00
1.347196e+00,1.639050e-01,1.540184e-01,3,0,1.138911e+00,1.138911e+00
1.330331e+00,1.769500e-01,1.680851e-01,3,0,2.004422e+00,2.004424e+00
1.360791e+00,1.634690e-01,1.540184e-01,3,0,1.385264e+00,1.385264e+00
1.357035e+00,1.641240e-01,1.549721e-01,3,0,1.751699e+00,1.751700e+00
1.359969e+00,1.637020e-01,1.549721e-01,3,0,1.232253e+00,1.232254e+00
1.329861e+00,1.639120e-01,1.549721e-01,3,0,1.633015e+00,1.633016e+00
1.361049e+00,1.635840e-01,1.540184e-01,3,0,9.412960e-01,9.412964e-01
1.355491e+00,1.643340e-01,1.549721e-01,3,0,8.751964e-01,8.751969e-01
1.354645e+00,1.824030e-01,1.730919e-01,3,0,1.171621e+00,1.171622e+00
1.330666e+00,1.644820e-01,1.549721e-01,3,0,8.953361e-01,8.953362e-01

