1.015341e+01,6.466150e+00,6,36
5.001511e+00,5.172968e+00,3,36
1.284170e+01,5.787134e+00,7,40
9.922485e+00,6.071091e+00,6,42
1.001285e+01,6.059885e+00,6,42
6.628512e+00,5.666018e+00,4,39
8.301146e+00,5.723953e+00,5,39
8.393523e+00,5.846024e+00,5,39
9.972169e+00,4.884958e+00,6,33
4.998382e+00,4.822016e+00,3,32
6.633231e+00,4.871130e+00,4,32
4.965631e+00,3.955126e+00,3,26
6.674488e+00,4.168987e+00,4,27
8.345228e+00,3.463984e+00,5,22
8.266061e+00,2.830982e+00,5,18

