1.015767e+01,6.355047e+00,6,36
5.029563e+00,5.184889e+00,3,36
1.163246e+01,5.784988e+00,7,40
9.981545e+00,6.076097e+00,6,42
9.999863e+00,6.053925e+00,6,42
6.688617e+00,5.730152e+00,4,39
8.331096e+00,5.728006e+00,5,39
8.309019e+00,5.783081e+00,5,39
1.019505e+01,4.890203e+00,6,33
5.024705e+00,4.803896e+00,3,32
6.706513e+00,4.863024e+00,4,32
5.015932e+00,3.951073e+00,3,26
6.712591e+00,4.171133e+00,4,27
8.443859e+00,3.477097e+00,5,22
8.345428e+00,2.846956e+00,5,18

