2.187697e+00,1.690149e+00,7,23
1.251036e+00,1.240015e+00,4,21
9.304580e-01,1.169920e+00,3,20
1.543740e+00,1.395941e+00,5,24
2.166901e+00,1.421928e+00,7,24
9.322900e-01,1.459122e+00,3,25
1.850584e+00,1.325846e+00,6,22
1.237109e+00,1.563072e+00,4,26
9.303960e-01,1.391172e+00,3,23
2.776775e+00,1.272917e+00,9,21
1.248151e+00,1.358986e+00,4,22
1.557060e+00,1.331091e+00,5,22
1.561130e+00,1.223087e+00,5,20
1.560573e+00,1.187801e+00,5,19
2.489622e+00,1.002789e+00,8,16

