2.195004e+00,1.720190e+00,7,23
1.247948e+00,1.267195e+00,4,21
9.369490e-01,1.192093e+00,3,20
1.558775e+00,1.407146e+00,5,24
2.177531e+00,1.420975e+00,7,24
9.525460e-01,1.471043e+00,3,25
1.851511e+00,1.322985e+00,6,22
1.244181e+00,1.557112e+00,4,26
9.248470e-01,1.379013e+00,3,23
2.770968e+00,1.294136e+00,9,21
1.231010e+00,1.340866e+00,4,22
1.537603e+00,1.344919e+00,5,22
1.728545e+00,1.238823e+00,5,20
1.535836e+00,1.201868e+00,5,19
2.464508e+00,1.000166e+00,8,16

