2.250084e+00,1.769066e+00,7,23
1.250785e+00,1.299143e+00,4,21
9.404160e-01,1.180172e+00,3,20
1.564574e+00,1.412153e+00,5,24
2.169629e+00,1.421928e+00,7,24
9.457890e-01,1.472950e+00,3,25
1.857011e+00,1.322985e+00,6,22
1.235226e+00,1.562119e+00,4,26
9.288340e-01,1.395941e+00,3,23
2.768099e+00,1.299143e+00,9,21
1.247606e+00,1.426935e+00,4,22
1.541818e+00,1.350164e+00,5,22
1.541348e+00,1.246929e+00,5,20
1.550954e+00,1.185894e+00,5,19
2.478164e+00,1.003981e+00,8,16

