5.556010e-01,2.748966e-01,6,13
6.879920e-01,1.358986e-01,8,10
3.455170e-01,1.461506e-01,4,11
5.206590e-01,1.730919e-01,6,13
3.459400e-01,1.449585e-01,4,11
6.921430e-01,1.111031e-01,8,8
1.747330e-01,1.378059e-01,2,10
1.743990e-01,1.168251e-01,2,8
1.752020e-01,8.797646e-02,2,6
2.593010e-01,7.700920e-02,3,5
1.743950e-01,5.388260e-02,2,3
6.847490e-01,5.507469e-02,8,3
1.743630e-01,5.388260e-02,2,3
1.742870e-01,5.507469e-02,2,3
1.868540e-01,4.100800e-02,2,2

