5.434600e-01,2.779961e-01,6,13
6.842930e-01,1.380444e-01,8,10
3.675820e-01,1.449585e-01,4,11
5.278100e-01,1.759529e-01,6,13
3.434750e-01,1.490116e-01,4,11
6.815870e-01,1.108646e-01,8,8
1.739790e-01,1.380444e-01,2,10
1.733890e-01,1.168251e-01,2,8
1.737250e-01,8.797646e-02,2,6
2.584290e-01,7.796288e-02,3,5
1.734550e-01,5.292892e-02,2,3
6.819450e-01,6.413460e-02,8,3
1.733770e-01,5.412102e-02,2,3
1.728920e-01,5.507469e-02,2,3
1.735120e-01,4.100800e-02,2,2

