6.414650e-01,3.449917e-01,6,13
8.143660e-01,1.628399e-01,8,10
4.113040e-01,1.738071e-01,4,11
6.083970e-01,2.050400e-01,6,13
3.835870e-01,1.630783e-01,4,11
7.511130e-01,1.239777e-01,8,8
1.965310e-01,1.530647e-01,2,10
1.914340e-01,1.289845e-01,2,8
1.916430e-01,9.703636e-02,2,6
2.847190e-01,8.511543e-02,3,5
1.924800e-01,7.510185e-02,2,3
7.503250e-01,6.103516e-02,8,3
1.915300e-01,5.912781e-02,2,3
1.915480e-01,6.103516e-02,2,3
1.915220e-01,4.506111e-02,2,2

