5.595600e-01,2.911091e-01,6,13
6.867600e-01,1.389980e-01,8,10
3.453070e-01,1.461506e-01,4,11
5.194010e-01,1.718998e-01,6,13
3.446760e-01,1.461506e-01,4,11
6.963350e-01,1.120567e-01,8,8
1.746310e-01,1.399517e-01,2,10
1.742210e-01,1.170635e-01,2,8
1.741710e-01,8.821487e-02,2,6
2.590620e-01,7.820129e-02,3,5
1.742740e-01,5.292892e-02,2,3
6.837180e-01,5.507469e-02,8,3
1.741210e-01,5.292892e-02,2,3
1.744040e-01,5.507469e-02,2,3
1.750090e-01,4.315376e-02,2,2

