5.428160e-01,2.930164e-01,6,13
6.897550e-01,1.401901e-01,8,10
3.457030e-01,1.471043e-01,4,11
5.195680e-01,1.749992e-01,6,13
3.454490e-01,1.471043e-01,4,11
6.894600e-01,1.120567e-01,8,8
1.750150e-01,1.411438e-01,2,10
1.746570e-01,1.180172e-01,2,8
1.747010e-01,8.916855e-02,2,6
2.597540e-01,7.700920e-02,3,5
1.746370e-01,5.412102e-02,2,3
6.849050e-01,5.602837e-02,8,3
1.741850e-01,5.388260e-02,2,3
1.834970e-01,5.602837e-02,2,3
1.746620e-01,4.196167e-02,2,2

