1.602857e+00,1.870121e+00,1.412153e+00,2,0,0.000000e+00,0.000000e+00
2.416034e+00,3.290970e-01,3.080368e-01,3,0,3.315893e-01,3.315899e-01
2.388692e+00,3.302370e-01,3.159046e-01,3,0,4.059191e-01,4.059194e-01
2.400945e+00,3.180320e-01,3.039837e-01,3,0,2.323801e+00,2.323804e+00
2.393172e+00,3.138090e-01,3.008842e-01,3,0,2.820931e+00,2.820932e+00
2.389236e+00,3.181570e-01,3.049374e-01,3,0,1.220069e+00,1.220068e+00
2.384422e+00,3.233160e-01,3.089905e-01,3,0,2.719600e+00,2.719603e+00
2.418683e+00,3.120950e-01,2.980232e-01,3,0,6.324966e+00,6.324973e+00
2.390715e+00,3.188350e-01,3.039837e-01,3,0,8.334160e+00,8.334165e+00
2.384765e+00,3.169150e-01,3.030300e-01,3,0,6.723256e+00,6.723255e+00
2.384303e+00,3.190360e-01,3.049374e-01,3,0,6.669468e+00,6.669469e+00
2.388650e+00,3.386150e-01,3.240108e-01,3,0,9.562289e+00,9.562295e+00
2.393408e+00,3.178610e-01,3.039837e-01,3,0,5.883870e+00,5.883867e+00
2.395030e+00,3.129420e-01,2.989769e-01,3,0,6.364405e+00,6.364408e+00
2.390972e+00,3.182480e-01,3.039837e-01,3,0,5.609461e+00,5.609461e+00
2.386684e+00,3.246050e-01,3.111362e-01,3,0,4.230754e+00,4.230754e+00
2.403713e+00,3.133600e-01,3.001690e-01,3,0,3.727917e+00,3.727917e+00
2.390233e+00,3.176470e-01,3.030300e-01,3,0,3.707853e+00,3.707854e+00
2.386525e+00,3.178080e-01,3.039837e-01,3,0,3.549993e+00,3.549994e+00
2.385104e+00,3.199000e-01,3.058910e-01,3,0,2.843593e+00,2.843593e+00
2.387536e+00,3.233010e-01,3.089905e-01,3,0,2.258201e+00,2.258202e+00
2.395098e+00,3.172590e-01,3.030300e-01,3,0,2.474902e+00,2.474903e+00
2.390932e+00,3.122430e-01,2.980232e-01,3,0,3.888220e+00,3.888224e+00
2.388808e+00,3.169020e-01,3.027916e-01,3,0,2.938814e+00,2.938813e+00
2.449766e+00,3.294910e-01,3.161430e-01,3,0,3.075866e+00,3.075867e+00
2.402610e+00,3.840600e-01,3.659725e-01,3,0,3.049354e+00,3.049355e+00
2.421413e+00,3.325120e-01,3.180504e-01,3,0,3.071081e+00,3.071082e+00
2.422658e+00,3.556130e-01,3.399849e-01,3,0,3.370696e+00,3.370697e+00
2.404845e+00,3.145100e-01,2.999306e-01,3,0,2.156159e+00,2.156159e+00
2.465163e+00,3.383700e-01,3.240108e-01,3,0,1.739160e+00,1.739160e+00
2.387959e+00,3.247520e-01,3.108978e-01,3,0,1.694933e+00,1.694934e+00
2.386155e+00,3.133710e-01,2.992153e-01,3,0,1.739656e+00,1.739656e+00
2.392082e+00,3.172010e-01,3.030300e-01,3,0,3.261300e+00,3.261303e+00
2.385658e+00,3.150860e-01,3.011227e-01,3,0,1.380465e+00,1.380465e+00
2.383879e+00,3.175600e-01,2.989769e-01,3,0,2.283544e+00,2.283547e+00
2.385547e+00,3.213050e-01,3.070831e-01,3,0,2.302007e+00,2.302008e+00
2.390822e+00,3.153180e-01,3.011227e-01,3,0,1.849779e+00,1.849780e+00
2.389143e+00,3.126800e-01,2.989769e-01,3,0,1.246086e+00,1.246086e+00
2.425047e+00,3.148180e-01,3.018379e-01,3,0,2.770789e+00,2.770792e+00
2.407059e+00,3.312290e-01,3.170967e-01,3,0,2.773689e+00,2.773689e+00
2.387689e+00,3.214730e-01,3.068447e-01,3,0,2.325328e+00,2.325328e+00
2.394402e+00,3.170890e-01,3.030300e-01,3,0,1.703123e+00,1.703124e+00
2.391400e+00,3.162070e-01,3.020763e-01,3,0,1.364157e+00,1.364157e+00
2.382901e+00,3.122780e-01,2.980232e-01,3,0,1.798208e+00,1.798210e+00
2.383788e+00,3.213200e-01,3.080368e-01,3,0,4.079402e+00,4.079407e+00
2.391086e+00,3.152290e-01,3.020763e-01,3,0,2.939449e+00,2.939449e+00
2.390175e+00,3.125210e-01,2.992153e-01,3,0,2.209560e+00,2.209561e+00
2.430029e+00,3.151890e-01,3.011227e-01,3,0,2.671103e+00,2.671105e+00
2.398795e+00,3.556240e-01,3.421307e-01,3,0,3.300983e+00,3.300985e+00
2.385220e+00,3.188420e-01,3.049374e-01,3,0,1.575832e+00,1.575831e+00
2.414044e+00,3.164920e-01,3.018379e-01,3,0,2.098935e+00,2.098937e+00
2.417299e+00,3.163100e-01,3.030300e-01,3,0,1.612968e+00,1.612968e+00
2.387264e+00,3.131630e-01,2.999306e-01,3,0,8.775018e-01,8.775020e-01
2.409987e+00,3.217020e-01,3.080368e-01,3,0,6.484824e-01,6.484826e-01
2.409737e+00,3.226670e-01,3.030300e-01,3,0,6.955568e-01,6.955576e-01
2.391882e+00,3.133700e-01,2.999306e-01,3,0,8.137690e-01,8.137695e-01
2.419649e+00,3.161970e-01,3.030300e-01,3,0,1.309711e+00,1.309712e+00
2.412729e+00,3.179870e-01,3.039837e-01,3,0,1.583722e+00,1.583723e+00
2.384653e+00,3.188170e-01,3.049374e-01,3,0,8.653573e-01,8.653573e-01
2.385853e+00,3.184430e-01,3.049374e-01,3,0,8.159814e-01,8.159816e-01
2.442011e+00,3.177260e-01,3.042221e-01,3,0,7.905834e-01,7.905837e-01
2.385906e+00,3.137340e-01,2.999306e-01,3,0,7.096209e-01,7.096213e-01
2.471347e+00,3.222760e-01,3.030300e-01,3,0,5.024010e-01,5.024013e-01
2.458767e+00,3.804830e-01,3.619194e-01,3,0,4.270654e-01,4.270656e-01
2.462740e+00,3.446530e-01,3.299713e-01,3,0,1.381819e+00,1.381821e+00
2.458444e+00,3.821150e-01,3.650188e-01,3,0,3.712925e+00,3.712929e+00
2.462342e+00,3.759230e-01,3.581047e-01,3,0,2.254793e+00,2.254793e+00
2.468783e+00,3.312320e-01,3.168583e-01,3,0,1.822695e+00,1.822695e+00
2.463878e+00,3.588680e-01,3.430843e-01,3,0,2.095429e+00,2.095431e+00
2.463995e+00,3.387780e-01,3.249645e-01,3,0,1.271289e+00,1.271289e+00
2.466585e+00,3.489790e-01,3.328323e-01,3,0,1.912820e+00,1.912822e+00
2.458360e+00,3.577480e-01,3.421307e-01,3,0,2.907623e+00,2.907625e+00
2.462464e+00,3.316920e-01,3.180504e-01,3,0,1.392073e+00,1.392072e+00
2.459139e+00,3.557150e-01,3.409386e-01,3,0,1.330522e+00,1.330523e+00
2.453867e+00,3.708290e-01,3.550053e-01,3,0,9.481404e-01,9.481407e-01
2.453820e+00,3.297930e-01,3.159046e-01,3,0,8.183494e-01,8.183497e-01
2.462922e+00,3.463770e-01,3.318787e-01,3,0,8.698682e-01,8.698687e-01
2.461258e+00,3.532230e-01,3.380775e-01,3,0,1.701426e+00,1.701428e+00
2.463274e+00,3.244890e-01,3.108978e-01,3,0,1.202154e+00,1.202154e+00
2.457971e+00,3.518150e-01,3.359318e-01,3,0,9.765751e-01,9.765752e-01
2.455232e+00,3.560800e-01,3.411770e-01,3,0,1.652122e+00,1.652124e+00
2.460857e+00,3.430830e-01,3.280640e-01,3,0,2.878935e+00,2.878937e+00
2.454520e+00,3.689580e-01,3.528595e-01,3,0,2.682559e+00,2.682560e+00
2.457419e+00,3.366390e-01,3.221035e-01,3,0,2.997878e+00,2.997879e+00
2.456772e+00,3.411290e-01,3.259182e-01,3,0,3.016421e+00,3.016422e+00
2.460724e+00,3.516900e-01,3.368855e-01,3,0,4.270214e+00,4.270217e+00
2.415455e+00,3.146170e-01,3.008842e-01,3,0,5.566241e+00,5.566244e+00
2.385628e+00,3.250630e-01,3.118515e-01,3,0,3.231953e+00,3.231952e+00
2.412411e+00,3.236630e-01,3.061295e-01,3,0,3.796088e+00,3.796090e+00
2.403750e+00,3.196240e-01,3.051758e-01,3,0,4.112416e+00,4.112418e+00
2.416042e+00,3.183350e-01,3.039837e-01,3,0,3.918174e+00,3.918175e+00
2.416025e+00,3.183070e-01,3.051758e-01,3,0,2.870485e+00,2.870485e+00
2.410055e+00,3.142260e-01,3.008842e-01,3,0,2.666581e+00,2.666582e+00
2.379906e+00,3.234230e-01,3.089905e-01,3,0,2.215232e+00,2.215232e+00
2.442936e+00,3.215090e-01,3.080368e-01,3,0,1.773941e+00,1.773941e+00
2.462400e+00,3.335840e-01,3.190041e-01,3,0,1.270667e+00,1.270667e+00
2.466048e+00,3.418440e-01,3.271103e-01,3,0,1.047578e+00,1.047579e+00
2.463298e+00,3.530380e-01,3.371239e-01,3,0,8.663743e-01,8.663747e-01
2.476887e+00,3.266830e-01,3.130436e-01,3,0,1.069438e+00,1.069439e+00
2.482295e+00,3.570700e-01,3.411770e-01,3,0,1.452641e+00,1.452643e+00
2.452483e+00,3.608460e-01,3.449917e-01,3,0,5.988365e-01,5.988364e-01
2.460090e+00,3.795460e-01,3.650188e-01,3,0,6.735787e-01,6.735791e-01
2.460461e+00,3.638010e-01,3.468990e-01,3,0,2.276516e+00,2.276519e+00
2.463980e+00,3.622970e-01,3.471375e-01,3,0,1.181550e+00,1.181550e+00
2.454374e+00,3.423750e-01,3.268719e-01,3,0,8.876462e-01,8.876464e-01
2.465788e+00,3.618900e-01,3.459454e-01,3,0,2.148135e+00,2.148137e+00
2.484473e+00,3.776560e-01,3.600121e-01,3,0,1.545761e+00,1.545761e+00
2.469021e+00,3.791440e-01,3.597736e-01,3,0,1.635745e+00,1.635746e+00
2.469977e+00,3.987280e-01,3.788471e-01,3,0,2.910151e+00,2.910154e+00
2.475996e+00,3.570250e-01,3.409386e-01,3,0,4.288398e+00,4.288400e+00
2.471217e+00,3.853210e-01,3.659725e-01,3,0,5.053373e+00,5.053375e+00
2.487590e+00,3.264637e+00,3.244162e+00,3,5,7.512299e+00,7.537217e+00
3.373343e+00,3.045542e+00,3.024101e+00,4,5,4.730196e+00,4.730194e+00
2.442812e+00,3.611160e-01,3.409386e-01,3,0,2.985225e+00,2.985225e+00
2.449268e+00,3.518600e-01,3.371239e-01,3,0,2.215941e+00,2.215941e+00
2.472902e+00,3.088810e-01,2.951622e-01,3,0,3.982269e+00,3.982273e+00
2.394685e+00,3.053450e-01,2.918243e-01,3,0,4.700463e+00,4.700466e+00
2.416460e+00,3.488720e-01,3.349781e-01,3,0,6.536991e+00,6.536995e+00
2.445465e+00,3.524570e-01,3.378391e-01,3,0,6.834616e+00,6.834618e+00
2.427052e+00,3.043340e-01,2.911091e-01,3,0,4.799036e+00,4.799035e+00
2.446861e+00,3.339400e-01,3.199577e-01,3,0,3.733320e+00,3.733320e+00
2.470307e+00,3.089780e-01,2.949238e-01,3,0,3.140682e+00,3.140683e+00
2.390637e+00,3.057100e-01,2.918243e-01,3,0,2.716969e+00,2.716970e+00
2.437916e+00,3.398410e-01,3.259182e-01,3,0,2.344847e+00,2.344848e+00
2.416242e+00,3.387180e-01,3.249645e-01,3,0,2.154840e+00,2.154840e+00
2.383901e+00,7.356310e-01,7.219315e-01,3,1,4.689188e+00,4.688851e+00
5.734819e+00,1.749703e+00,1.724720e+00,7,0,8.983265e+00,1.638721e+01
4.914299e+00,1.839607e+00,1.814842e+00,6,0,9.869417e+00,1.553812e+01
4.113822e+00,1.849582e+00,1.822233e+00,5,0,1.147345e+01,1.825150e+01
4.107168e+00,1.944486e+00,1.923084e+00,5,3,7.266611e+00,7.282148e+00
4.930923e+00,5.054550e-01,4.849434e-01,6,0,8.505866e+00,8.498623e+00
3.295398e+00,2.711833e+00,2.688169e+00,4,4,1.138075e+01,1.138546e+01
4.917993e+00,9.176890e-01,8.938313e-01,6,1,9.005011e+00,8.992162e+00
3.214857e+00,8.032790e-01,7.820129e-01,4,1,6.757087e+00,6.757086e+00
2.414140e+00,3.245440e-01,3.099442e-01,3,0,4.854188e+00,4.854191e+00
2.414317e+00,3.198280e-01,3.061295e-01,3,0,3.983411e+00,3.983411e+00
2.386884e+00,3.197260e-01,3.061295e-01,3,0,2.956899e+00,2.956899e+00
2.417208e+00,3.184340e-01,3.051758e-01,3,0,2.635145e+00,2.635146e+00
2.418902e+00,3.148410e-01,3.011227e-01,3,0,1.803269e+00,1.803270e+00
2.386699e+00,3.177390e-01,3.030300e-01,3,0,1.498090e+00,1.498090e+00
2.385946e+00,3.295050e-01,3.149509e-01,3,0,8.294472e-01,8.294479e-01
2.391121e+00,3.132800e-01,2.999306e-01,3,0,2.741377e+00,2.741381e+00
2.419229e+00,3.282130e-01,3.149509e-01,3,0,3.855782e+00,3.855784e+00
2.388437e+00,3.177230e-01,3.039837e-01,3,0,3.733857e+00,3.733857e+00
2.391004e+00,3.194310e-01,3.058910e-01,3,0,6.922108e+00,6.922114e+00
2.388758e+00,8.924300e-01,8.790493e-01,3,1,7.508745e+00,7.513456e+00
2.392536e+00,8.186160e-01,8.049011e-01,3,1,6.725755e+00,6.725722e+00
2.391529e+00,3.164740e-01,3.027916e-01,3,0,4.580566e+00,4.580564e+00
2.382579e+00,3.134130e-01,2.999306e-01,3,0,3.645186e+00,3.645188e+00
2.384930e+00,1.489199e+00,1.476049e+00,3,2,3.796973e+00,3.800885e+00
2.394384e+00,2.098943e+00,2.085209e+00,3,3,4.208252e+00,4.218970e+00
2.387935e+00,2.598620e+00,2.583981e+00,3,4,4.743009e+00,4.753960e+00
2.395993e+00,2.495019e+00,2.480030e+00,3,4,4.556242e+00,4.558006e+00
3.978950e+00,8.136137e+00,8.121967e+00,5,14,8.742128e+00,9.180282e+00
4.771460e+00,5.512667e+00,5.497932e+00,6,10,1.004012e+01,1.030074e+01
4.772586e+00,4.943345e+00,4.928827e+00,6,9,9.205832e+00,9.246618e+00
3.259843e+00,4.357493e+00,4.343033e+00,4,8,6.547046e+00,6.547044e+00
2.461374e+00,3.439050e-01,3.290176e-01,3,0,5.882107e+00,5.882107e+00
2.463547e+00,3.450220e-01,3.290176e-01,3,0,5.829356e+00,5.829357e+00
2.467476e+00,7.627010e-01,7.469654e-01,3,1,9.237394e+00,9.237230e+00
3.269079e+00,7.518210e-01,7.371902e-01,4,1,5.549951e+00,5.549948e+00
2.463468e+00,3.489390e-01,3.330708e-01,3,0,4.958711e+00,4.958712e+00
2.478389e+00,3.517740e-01,3.349781e-01,3,0,4.287613e+00,4.287614e+00
2.460785e+00,9.242170e-01,9.100437e-01,3,1,5.340037e+00,5.343125e+00
2.466055e+00,3.443908e+00,3.420115e+00,3,2,5.713857e+00,8.205162e+00
2.473915e+00,2.331199e+00,2.308607e+00,3,0,4.922923e+00,7.280761e+00
2.463464e+00,8.520320e-01,8.380413e-01,3,1,3.841114e+00,3.841114e+00
2.459415e+00,3.251220e-01,3.111362e-01,3,0,2.368959e+00,2.368959e+00
2.458630e+00,3.296670e-01,3.159046e-01,3,0,1.897097e+00,1.897098e+00
2.456116e+00,3.346340e-01,3.199577e-01,3,0,1.533396e+00,1.533396e+00
2.460989e+00,3.238090e-01,3.099442e-01,3,0,1.377774e+00,1.377775e+00
2.462602e+00,3.237660e-01,3.101826e-01,3,0,3.485356e+00,3.485360e+00
2.463562e+00,3.259910e-01,3.120899e-01,3,0,2.461305e+00,2.461305e+00
2.465799e+00,3.267380e-01,3.130436e-01,3,0,3.592909e+00,3.592911e+00
2.455226e+00,3.261350e-01,3.120899e-01,3,0,5.991820e+00,5.991824e+00
2.455254e+00,3.316080e-01,3.178120e-01,3,0,7.342261e+00,7.342264e+00
2.459491e+00,1.539548e+00,1.525164e+00,3,2,8.320823e+00,8.346191e+00
2.463362e+00,9.511150e-01,9.372234e-01,3,1,6.163680e+00,6.167487e+00
2.463552e+00,4.274910e-01,4.129410e-01,3,0,5.056225e+00,5.056235e+00
2.457219e+00,8.486240e-01,8.339882e-01,3,1,3.874969e+00,3.874969e+00
2.461742e+00,3.259030e-01,3.108978e-01,3,0,3.002114e+00,3.002115e+00
2.461165e+00,3.264760e-01,3.130436e-01,3,0,2.321023e+00,2.321023e+00
2.462989e+00,3.258450e-01,3.118515e-01,3,0,2.822663e+00,2.822666e+00
2.462358e+00,3.276460e-01,3.139973e-01,3,0,2.441626e+00,2.441627e+00
2.456936e+00,3.234100e-01,3.099442e-01,3,0,2.281377e+00,2.281378e+00
2.455344e+00,3.283110e-01,3.139973e-01,3,0,2.270469e+00,2.270469e+00
2.454854e+00,3.327480e-01,3.180504e-01,3,0,2.674354e+00,2.674356e+00
2.462691e+00,3.262350e-01,3.118515e-01,3,0,5.523656e+00,5.523657e+00
2.462773e+00,3.266150e-01,3.118515e-01,3,0,4.176037e+00,4.176028e+00
2.464771e+00,3.263980e-01,3.130436e-01,3,0,3.566134e+00,3.566135e+00
2.458220e+00,3.265150e-01,3.118515e-01,3,0,3.724974e+00,3.724975e+00
2.458228e+00,3.273340e-01,3.130436e-01,3,0,3.307641e+00,3.307641e+00
2.455556e+00,3.295010e-01,3.151894e-01,3,0,3.690193e+00,3.690194e+00
2.454861e+00,3.321130e-01,3.170967e-01,3,0,2.449500e+00,2.449499e+00
2.462714e+00,3.239510e-01,3.101826e-01,3,0,3.373984e+00,3.373987e+00
2.462769e+00,3.240880e-01,3.099442e-01,3,0,3.443481e+00,3.443483e+00
2.460990e+00,3.267310e-01,3.128052e-01,3,0,2.164066e+00,2.164066e+00
2.456980e+00,3.269490e-01,3.128052e-01,3,0,2.101758e+00,2.101759e+00
2.456731e+00,3.336140e-01,3.199577e-01,3,0,1.520444e+00,1.520444e+00
2.456032e+00,3.329370e-01,3.180504e-01,3,0,1.131902e+00,1.131902e+00
2.457048e+00,3.301910e-01,3.161430e-01,3,0,7.486384e-01,7.486385e-01
2.461206e+00,3.280940e-01,3.130436e-01,3,0,7.826828e-01,7.826832e-01
2.466067e+00,3.242060e-01,3.099442e-01,3,0,1.494533e+00,1.494535e+00
2.466842e+00,3.544210e-01,3.368855e-01,3,0,7.293106e-01,7.293107e-01
2.459551e+00,3.294880e-01,3.149509e-01,3,0,9.723865e-01,9.723872e-01
2.455973e+00,3.237590e-01,3.101826e-01,3,0,1.565314e+00,1.565315e+00
2.458118e+00,3.334680e-01,3.190041e-01,3,0,1.635994e+00,1.635995e+00
2.454951e+00,3.293950e-01,3.151894e-01,3,0,2.471946e+00,2.471947e+00
2.461007e+00,3.279450e-01,3.130436e-01,3,0,2.744022e+00,2.744023e+00
2.462146e+00,3.255960e-01,3.120899e-01,3,0,1.372732e+00,1.372732e+00
2.462980e+00,3.237380e-01,3.099442e-01,3,0,1.131755e+00,1.131755e+00
2.462370e+00,3.269010e-01,3.130436e-01,3,0,2.145690e+00,2.145693e+00
2.457000e+00,3.271650e-01,3.130436e-01,3,0,1.318245e+00,1.318244e+00
2.456568e+00,3.284070e-01,3.149509e-01,3,0,7.964799e-01,7.964803e-01
2.452964e+00,3.328630e-01,3.190041e-01,3,0,8.637918e-01,8.637926e-01
2.460683e+00,3.268410e-01,3.130436e-01,3,0,8.510405e-01,8.510409e-01
2.462927e+00,3.229830e-01,3.089905e-01,3,0,9.569682e-01,9.569691e-01
2.463075e+00,3.259670e-01,3.120899e-01,3,0,7.814349e-01,7.814353e-01
2.450659e+00,3.261150e-01,3.118515e-01,3,0,5.941561e-01,5.941563e-01
2.450102e+00,3.290180e-01,3.149509e-01,3,0,8.758101e-01,8.758109e-01
2.453045e+00,3.314150e-01,3.170967e-01,3,0,8.108613e-01,8.108616e-01
2.454232e+00,3.337100e-01,3.190041e-01,3,0,4.427250e-01,4.427251e-01
2.462474e+00,3.233410e-01,3.089905e-01,3,0,5.471381e-01,5.471385e-01
2.461527e+00,3.251820e-01,3.108978e-01,3,0,1.382190e+00,1.382192e+00
2.463401e+00,3.253670e-01,3.108978e-01,3,0,2.219059e+00,2.219061e+00
2.453713e+00,3.237920e-01,3.099442e-01,3,0,1.466667e+00,1.466667e+00
2.455820e+00,3.317570e-01,3.170967e-01,3,0,1.435794e+00,1.435795e+00
2.456420e+00,3.311800e-01,3.170967e-01,3,0,2.797023e+00,2.797025e+00
2.455970e+00,3.238210e-01,3.099442e-01,3,0,4.729784e+00,4.729788e+00
2.463792e+00,3.248410e-01,3.111362e-01,3,0,3.058121e+00,3.058121e+00
2.460888e+00,3.249190e-01,3.108978e-01,3,0,1.849958e+00,1.849958e+00
2.462306e+00,3.233270e-01,3.089905e-01,3,0,2.566486e+00,2.566487e+00
2.455527e+00,3.261980e-01,3.130436e-01,3,0,3.149707e+00,3.149708e+00
2.457658e+00,3.327690e-01,3.190041e-01,3,0,2.971299e+00,2.971299e+00
2.455582e+00,3.288650e-01,3.149509e-01,3,0,2.309453e+00,2.309453e+00
2.458311e+00,3.248890e-01,3.108978e-01,3,0,2.002156e+00,2.002156e+00
2.462022e+00,3.260890e-01,3.120899e-01,3,0,2.156854e+00,2.156855e+00
2.461466e+00,3.228570e-01,3.089905e-01,3,0,3.036351e+00,3.036353e+00
2.455246e+00,3.248590e-01,3.108978e-01,3,0,2.387340e+00,2.387341e+00
2.456243e+00,3.254370e-01,3.111362e-01,3,0,1.760713e+00,1.760713e+00
2.456037e+00,3.289340e-01,3.149509e-01,3,0,1.328494e+00,1.328494e+00
2.456743e+00,3.301170e-01,3.159046e-01,3,0,1.887019e+00,1.887020e+00
2.460102e+00,3.257420e-01,3.108978e-01,3,0,2.474017e+00,2.474019e+00
2.463396e+00,3.234500e-01,3.089905e-01,3,0,2.493486e+00,2.493487e+00
2.463417e+00,3.243590e-01,3.099442e-01,3,0,8.087459e-01,8.087455e-01
2.453704e+00,3.251830e-01,3.108978e-01,3,0,9.640367e-01,9.640375e-01
2.455291e+00,3.224640e-01,3.080368e-01,3,0,1.607790e+00,1.607791e+00
2.471572e+00,3.297110e-01,3.149509e-01,3,0,3.844383e+00,3.844386e+00
2.461959e+00,3.323090e-01,3.180504e-01,3,0,2.094886e+00,2.094886e+00
2.468186e+00,3.261030e-01,3.108978e-01,3,0,1.815378e+00,1.815379e+00
2.462367e+00,3.273240e-01,3.130436e-01,3,0,1.472446e+00,1.472446e+00
2.467941e+00,3.268180e-01,3.120899e-01,3,0,1.125215e+00,1.125215e+00
2.463462e+00,3.240530e-01,3.101826e-01,3,0,9.060876e-01,9.060879e-01
2.455632e+00,3.268060e-01,3.130436e-01,3,0,8.138765e-01,8.138772e-01
2.458524e+00,3.411390e-01,3.268719e-01,3,0,6.879688e-01,6.879691e-01
2.456599e+00,3.287520e-01,3.149509e-01,3,0,7.843077e-01,7.843083e-01
2.460657e+00,3.268240e-01,3.128052e-01,3,0,7.039832e-01,7.039836e-01
2.459864e+00,3.254010e-01,3.120899e-01,3,0,2.163696e+00,2.163699e+00
2.459502e+00,3.231590e-01,3.089905e-01,3,0,2.072314e+00,2.072315e+00
2.456778e+00,3.257400e-01,3.120899e-01,3,0,1.189988e+00,1.189988e+00
2.454516e+00,3.268250e-01,3.118515e-01,3,0,8.169324e-01,8.169329e-01
2.454323e+00,3.291300e-01,3.151894e-01,3,0,8.453878e-01,8.453883e-01
2.453145e+00,3.324480e-01,3.180504e-01,3,0,4.382079e-01,4.382082e-01
2.454576e+00,3.266260e-01,3.130436e-01,3,0,1.361324e+00,1.361326e+00
2.461524e+00,3.229790e-01,3.089905e-01,3,0,1.012626e+00,1.012626e+00
2.454445e+00,3.251450e-01,3.108978e-01,3,0,3.365036e+00,3.365040e+00
2.449070e+00,3.256450e-01,3.111362e-01,3,0,1.323109e+00,1.323108e+00
2.456464e+00,1.490699e+00,1.476049e+00,3,2,5.819377e+00,5.820325e+00
4.901130e+00,1.368024e+00,1.353025e+00,6,2,5.583694e+00,5.578436e+00
2.459434e+00,3.287000e-01,3.151894e-01,3,0,4.249984e+00,4.249967e+00
2.442182e+00,3.225430e-01,3.077984e-01,3,0,2.556103e+00,2.556102e+00
2.382863e+00,3.225850e-01,3.030300e-01,3,0,2.751939e+00,2.751940e+00
2.385603e+00,3.230040e-01,3.089905e-01,3,0,2.752407e+00,2.752408e+00
2.416745e+00,3.148020e-01,3.011227e-01,3,0,3.215560e+00,3.215561e+00
2.389258e+00,3.160610e-01,3.027916e-01,3,0,3.091633e+00,3.091634e+00
2.384070e+00,3.160310e-01,3.020763e-01,3,0,4.791321e+00,4.791324e+00
2.421322e+00,3.193480e-01,3.049374e-01,3,0,3.514561e+00,3.514560e+00
2.383740e+00,3.332320e-01,3.180504e-01,3,0,3.032248e+00,3.032250e+00
2.390678e+00,3.163350e-01,3.027916e-01,3,0,2.447803e+00,2.447804e+00
2.386884e+00,3.139740e-01,2.999306e-01,3,0,2.699189e+00,2.699190e+00
2.388173e+00,3.201390e-01,3.008842e-01,3,0,2.503395e+00,2.503396e+00
2.385687e+00,3.231100e-01,3.099442e-01,3,0,2.802548e+00,2.802549e+00
2.390610e+00,3.137710e-01,2.999306e-01,3,0,2.143659e+00,2.143659e+00
2.393460e+00,3.143040e-01,2.999306e-01,3,0,2.429116e+00,2.429118e+00
2.385780e+00,3.161340e-01,3.020763e-01,3,0,1.420168e+00,1.420168e+00
2.378835e+00,3.211160e-01,3.068447e-01,3,0,1.096071e+00,1.096071e+00
2.385273e+00,3.148780e-01,3.011227e-01,3,0,8.924362e-01,8.924365e-01
2.389568e+00,3.163510e-01,3.030300e-01,3,0,1.025130e+00,1.025130e+00
2.384269e+00,3.148720e-01,3.020763e-01,3,0,6.888230e-01,6.888231e-01
2.384293e+00,3.203090e-01,3.061295e-01,3,0,1.202166e+00,1.202168e+00
2.382971e+00,3.211290e-01,3.070831e-01,3,0,7.965801e-01,7.965804e-01
2.391478e+00,3.147060e-01,3.011227e-01,3,0,8.719186e-01,8.719191e-01
2.381503e+00,3.142820e-01,3.008842e-01,3,0,1.295890e+00,1.295891e+00
2.382705e+00,3.216210e-01,3.030300e-01,3,0,1.882741e+00,1.882742e+00
2.378266e+00,3.205200e-01,3.068447e-01,3,0,1.446095e+00,1.446095e+00
2.392488e+00,3.140190e-01,2.999306e-01,3,0,1.378978e+00,1.378978e+00
2.391156e+00,3.159590e-01,3.020763e-01,3,0,1.257611e+00,1.257612e+00
2.380458e+00,3.137740e-01,2.999306e-01,3,0,2.004234e+00,2.004236e+00
2.384659e+00,3.202380e-01,3.058910e-01,3,0,1.548540e+00,1.548540e+00
2.386737e+00,3.169190e-01,3.039837e-01,3,0,1.562205e+00,1.562206e+00
2.381184e+00,3.154200e-01,3.018379e-01,3,0,1.397081e+00,1.397082e+00
2.385876e+00,3.142460e-01,3.008842e-01,3,0,2.425418e+00,2.425420e+00
2.383921e+00,3.215620e-01,3.080368e-01,3,0,1.596150e+00,1.596150e+00
2.384838e+00,3.147100e-01,3.011227e-01,3,0,2.512593e+00,2.512595e+00
2.391262e+00,3.143310e-01,3.011227e-01,3,0,2.393243e+00,2.393244e+00
2.385163e+00,3.157880e-01,3.020763e-01,3,0,3.454062e+00,3.454064e+00
2.382688e+00,3.213830e-01,3.080368e-01,3,0,4.098273e+00,4.098274e+00
2.384076e+00,3.191220e-01,3.061295e-01,3,0,2.460889e+00,2.460888e+00
2.389557e+00,3.162270e-01,3.030300e-01,3,0,2.011107e+00,2.011108e+00
2.383727e+00,3.159260e-01,3.027916e-01,3,0,1.889725e+00,1.889725e+00
2.382395e+00,3.139450e-01,3.011227e-01,3,0,1.909150e+00,1.909151e+00
2.379455e+00,3.220340e-01,3.080368e-01,3,0,1.475803e+00,1.475804e+00
2.417314e+00,3.163020e-01,3.027916e-01,3,0,1.194458e+00,1.194459e+00
2.390701e+00,3.261830e-01,3.120899e-01,3,0,1.202800e+00,1.202801e+00
2.386726e+00,3.166390e-01,3.030300e-01,3,0,1.203928e+00,1.203929e+00
2.385445e+00,3.217930e-01,3.080368e-01,3,0,1.127188e+00,1.127188e+00
2.391619e+00,3.197730e-01,3.061295e-01,3,0,1.235545e+00,1.235546e+00
2.393236e+00,3.162580e-01,3.018379e-01,3,0,1.287932e+00,1.287933e+00
2.390698e+00,3.174520e-01,3.039837e-01,3,0,1.430369e+00,1.430370e+00
2.380676e+00,3.138550e-01,3.011227e-01,3,0,2.133869e+00,2.133871e+00
2.387717e+00,3.226640e-01,3.089905e-01,3,0,1.735907e+00,1.735907e+00
2.390390e+00,3.180440e-01,3.039837e-01,3,0,1.747573e+00,1.747574e+00
2.383488e+00,7.615760e-01,7.479191e-01,3,1,2.804320e+00,2.803982e+00
4.767452e+00,3.155570e-01,3.018379e-01,6,0,4.329104e+00,4.295249e+00
3.171540e+00,7.263780e-01,7.119179e-01,4,1,5.014864e+00,5.014901e+00
2.387609e+00,3.217460e-01,3.080368e-01,3,0,3.708113e+00,3.708112e+00
2.392502e+00,3.167990e-01,3.027916e-01,3,0,2.919415e+00,2.919415e+00
2.392899e+00,3.171330e-01,3.039837e-01,3,0,2.083457e+00,2.083457e+00
2.383949e+00,3.135940e-01,2.999306e-01,3,0,1.583925e+00,1.583925e+00
2.384680e+00,3.221360e-01,3.080368e-01,3,0,1.514766e+00,1.514767e+00
2.392861e+00,3.177180e-01,3.039837e-01,3,0,1.184251e+00,1.184251e+00
2.390361e+00,3.139610e-01,2.999306e-01,3,0,8.176444e-01,8.176446e-01
2.385065e+00,3.172430e-01,3.039837e-01,3,0,8.783531e-01,8.783539e-01
2.401506e+00,3.224330e-01,3.089905e-01,3,0,1.670238e+00,1.670239e+00
2.386953e+00,3.155400e-01,3.020763e-01,3,0,1.574528e+00,1.574528e+00
2.403992e+00,3.179550e-01,3.039837e-01,3,0,1.189392e+00,1.189392e+00
2.383822e+00,3.190400e-01,3.049374e-01,3,0,1.369703e+00,1.369704e+00
2.387188e+00,3.185140e-01,3.001690e-01,3,0,1.308154e+00,1.308155e+00
2.384997e+00,3.227760e-01,3.089905e-01,3,0,2.302180e+00,2.302182e+00
2.393547e+00,3.174460e-01,3.039837e-01,3,0,2.332789e+00,2.332790e+00
2.391676e+00,3.144150e-01,2.999306e-01,3,0,3.401555e+00,3.401557e+00
2.384042e+00,3.176190e-01,3.039837e-01,3,0,2.766088e+00,2.766088e+00
2.384296e+00,3.220240e-01,3.080368e-01,3,0,5.722838e+00,5.722844e+00
2.386335e+00,3.140120e-01,3.011227e-01,3,0,6.314562e+00,6.314565e+00
2.418756e+00,3.170360e-01,3.039837e-01,3,0,5.720757e+00,5.720757e+00
2.382767e+00,3.183110e-01,3.039837e-01,3,0,5.217524e+00,5.217525e+00
2.385076e+00,3.201960e-01,3.070831e-01,3,0,5.137312e+00,5.137313e+00
2.433314e+00,3.216540e-01,3.080368e-01,3,0,3.905971e+00,3.905971e+00
2.392045e+00,3.179490e-01,3.039837e-01,3,0,3.669484e+00,3.669485e+00
2.393439e+00,3.144000e-01,3.008842e-01,3,0,3.169469e+00,3.169470e+00
2.387145e+00,3.171390e-01,3.039837e-01,3,0,2.978950e+00,2.978950e+00
2.385902e+00,3.224660e-01,3.089905e-01,3,0,3.023044e+00,3.023045e+00
2.382988e+00,3.136840e-01,2.999306e-01,3,0,2.576474e+00,2.576475e+00
2.392892e+00,3.160740e-01,3.018379e-01,3,0,2.742128e+00,2.742129e+00
2.382203e+00,3.172160e-01,3.030300e-01,3,0,2.091929e+00,2.091929e+00
2.379962e+00,3.188750e-01,3.049374e-01,3,0,3.526192e+00,3.526194e+00
2.384543e+00,3.215560e-01,3.080368e-01,3,0,2.103999e+00,2.103999e+00
2.384177e+00,7.380270e-01,7.240772e-01,3,1,4.670946e+00,4.670742e+00
3.175034e+00,7.229280e-01,7.090569e-01,4,1,3.726183e+00,3.726183e+00
2.384286e+00,3.142340e-01,2.999306e-01,3,0,4.114070e+00,4.114072e+00
2.390958e+00,3.151810e-01,3.020763e-01,3,0,3.732190e+00,3.732190e+00
2.387817e+00,3.169530e-01,3.030300e-01,3,0,4.317454e+00,4.317456e+00
2.384249e+00,3.187930e-01,3.049374e-01,3,0,2.669399e+00,2.669399e+00
2.387152e+00,3.208790e-01,3.070831e-01,3,0,2.337322e+00,2.337323e+00
2.389042e+00,3.165650e-01,3.030300e-01,3,0,2.915420e+00,2.915423e+00
2.389253e+00,3.130780e-01,2.992153e-01,3,0,8.199257e+00,8.199268e+00
2.385217e+00,3.145130e-01,3.008842e-01,3,0,3.796450e+00,3.796447e+00
2.384527e+00,3.221090e-01,3.080368e-01,3,0,3.234307e+00,3.234307e+00
2.391572e+00,3.144930e-01,3.008842e-01,3,0,2.912599e+00,2.912600e+00
2.390398e+00,3.143960e-01,3.008842e-01,3,0,3.857026e+00,3.857028e+00
2.384912e+00,3.149660e-01,3.018379e-01,3,0,2.505140e+00,2.505140e+00
2.384485e+00,3.194740e-01,3.061295e-01,3,0,2.290924e+00,2.290924e+00
2.386129e+00,3.138470e-01,3.001690e-01,3,0,3.722180e+00,3.722184e+00
2.393377e+00,3.149580e-01,3.011227e-01,3,0,2.066385e+00,2.066385e+00
2.380342e+00,3.141110e-01,2.999306e-01,3,0,1.746254e+00,1.746255e+00
2.379718e+00,3.190630e-01,3.049374e-01,3,0,1.605677e+00,1.605678e+00
2.381114e+00,3.215340e-01,3.080368e-01,3,0,1.556801e+00,1.556802e+00
2.391429e+00,3.147410e-01,3.008842e-01,3,0,7.939601e-01,7.939603e-01
2.391899e+00,3.142350e-01,3.001690e-01,3,0,7.979303e-01,7.979306e-01
2.384447e+00,3.167640e-01,3.027916e-01,3,0,9.841524e-01,9.841530e-01
2.384318e+00,3.205640e-01,3.068447e-01,3,0,1.932935e+00,1.932938e+00
2.392734e+00,3.150530e-01,3.018379e-01,3,0,1.811579e+00,1.811580e+00
2.417102e+00,3.145440e-01,3.011227e-01,3,0,1.166903e+00,1.166903e+00
2.409951e+00,3.154520e-01,3.011227e-01,3,0,7.318115e-01,7.318118e-01
2.385534e+00,3.201390e-01,3.058910e-01,3,0,1.121097e+00,1.121098e+00
2.387296e+00,3.208630e-01,3.080368e-01,3,0,1.518811e+00,1.518812e+00
2.390126e+00,3.144330e-01,3.008842e-01,3,0,9.888541e-01,9.888544e-01
2.387533e+00,3.137280e-01,3.001690e-01,3,0,6.862529e-01,6.862535e-01
2.384951e+00,3.158580e-01,3.018379e-01,3,0,7.285549e-01,7.285556e-01
2.384523e+00,3.211900e-01,3.080368e-01,3,0,1.763027e+00,1.763029e+00
2.390213e+00,3.140660e-01,3.011227e-01,3,0,2.193103e+00,2.193104e+00
2.392652e+00,3.153780e-01,3.020763e-01,3,0,5.511443e+00,5.511449e+00
2.387616e+00,3.152820e-01,3.011227e-01,3,0,5.260013e+00,5.260014e+00
2.386548e+00,3.192670e-01,3.049374e-01,3,0,3.910411e+00,3.910410e+00
2.384711e+00,3.156300e-01,3.020763e-01,3,0,3.103839e+00,3.103839e+00
2.389393e+00,3.150140e-01,3.011227e-01,3,0,2.319808e+00,2.319808e+00
2.387827e+00,3.139880e-01,2.999306e-01,3,0,2.145551e+00,2.145551e+00
2.386715e+00,3.237160e-01,3.101826e-01,3,0,2.800693e+00,2.800695e+00
2.385518e+00,3.208640e-01,3.070831e-01,3,0,3.849292e+00,3.849294e+00
2.394050e+00,3.142620e-01,3.008842e-01,3,0,3.670379e+00,3.670380e+00
2.386805e+00,7.393230e-01,7.259846e-01,3,1,3.713469e+00,3.713241e+00
4.769175e+00,7.249310e-01,7.109642e-01,6,1,1.919844e+00,1.917371e+00
3.186529e+00,3.159540e-01,3.027916e-01,4,0,1.028888e+00,1.028888e+00
2.391652e+00,3.169010e-01,3.030300e-01,3,0,1.083579e+00,1.083579e+00
2.392596e+00,3.157990e-01,3.018379e-01,3,0,1.002398e+00,1.002398e+00
2.386281e+00,3.144290e-01,3.008842e-01,3,0,1.123590e+00,1.123590e+00
2.385095e+00,3.222460e-01,3.089905e-01,3,0,7.218355e-01,7.218356e-01
2.383134e+00,3.218620e-01,3.020763e-01,3,0,6.437501e-01,6.437506e-01
2.388868e+00,3.135340e-01,2.999306e-01,3,0,7.813613e-01,7.813625e-01
2.384097e+00,3.163230e-01,3.030300e-01,3,0,3.067379e+00,3.067383e+00
2.383142e+00,3.209520e-01,3.030300e-01,3,0,4.779950e+00,4.779953e+00
2.386507e+00,3.196610e-01,3.058910e-01,3,0,5.189733e+00,5.189735e+00
2.390512e+00,3.155390e-01,3.020763e-01,3,0,4.104630e+00,4.104630e+00
2.384657e+00,3.158570e-01,3.018379e-01,3,0,2.429930e+00,2.429929e+00
2.384267e+00,3.127500e-01,2.989769e-01,3,0,2.419881e+00,2.419883e+00
2.383383e+00,3.219100e-01,3.077984e-01,3,0,3.136720e+00,3.136721e+00
2.388305e+00,3.174760e-01,3.039837e-01,3,0,3.486766e+00,3.486767e+00
2.464434e+00,3.132570e-01,2.999306e-01,3,0,2.602247e+00,2.602247e+00
2.387559e+00,3.169352e+00,3.148317e+00,3,2,7.480125e+00,1.022280e+01
5.575425e+00,2.249531e+00,2.230167e+00,7,0,1.350448e+01,2.407830e+01
4.767479e+00,2.249786e+00,2.228975e+00,6,0,1.487790e+01,2.116264e+01
3.183234e+00,1.337350e+00,1.322985e+00,4,2,8.670936e+00,8.670920e+00
2.398368e+00,4.530219e+00,4.509211e+00,3,4,1.214119e+01,1.409585e+01
2.396905e+00,2.356535e+00,2.341986e+00,3,4,1.003770e+01,1.003766e+01
2.442200e+00,3.175890e-01,3.039837e-01,3,0,8.303380e+00,8.303380e+00
2.382341e+00,3.174160e-01,3.027916e-01,3,0,9.000887e+00,9.000891e+00
2.385315e+00,3.204760e-01,3.070831e-01,3,0,7.611157e+00,7.611158e+00
2.393005e+00,3.166280e-01,3.030300e-01,3,0,9.152893e+00,9.152898e+00
2.391241e+00,3.165600e-01,3.030300e-01,3,0,1.044262e+01,1.044262e+01
2.385652e+00,3.135520e-01,3.001690e-01,3,0,8.625241e+00,8.625241e+00
2.385285e+00,3.213440e-01,3.080368e-01,3,0,7.029813e+00,7.029813e+00
2.384120e+00,3.156330e-01,3.020763e-01,3,0,5.216881e+00,5.216881e+00
2.391432e+00,3.138560e-01,2.999306e-01,3,0,4.638580e+00,4.638581e+00
2.387094e+00,3.161950e-01,3.020763e-01,3,0,4.176994e+00,4.176995e+00
2.389242e+00,3.222960e-01,3.089905e-01,3,0,3.451561e+00,3.451562e+00
2.393564e+00,9.239630e-01,9.100437e-01,3,1,3.911846e+00,3.912213e+00
2.386901e+00,8.174030e-01,8.032322e-01,3,1,2.232875e+00,2.232874e+00
2.391496e+00,3.164650e-01,3.030300e-01,3,0,2.740720e+00,2.740721e+00
2.386612e+00,3.155340e-01,3.018379e-01,3,0,3.013615e+00,3.013617e+00
2.384033e+00,3.198620e-01,3.061295e-01,3,0,2.811686e+00,2.811687e+00
2.382633e+00,3.219770e-01,3.080368e-01,3,0,2.610583e+00,2.610584e+00
2.390225e+00,3.157960e-01,3.018379e-01,3,0,1.593610e+00,1.593609e+00
2.389868e+00,3.140280e-01,2.999306e-01,3,0,1.986646e+00,1.986647e+00
2.382864e+00,3.159640e-01,3.030300e-01,3,0,1.657397e+00,1.657397e+00
2.386027e+00,3.218310e-01,3.089905e-01,3,0,2.322942e+00,2.322944e+00
2.418769e+00,3.135280e-01,2.999306e-01,3,0,1.895679e+00,1.895679e+00
2.418263e+00,3.159040e-01,3.030300e-01,3,0,1.855987e+00,1.855988e+00
2.379953e+00,3.156720e-01,3.018379e-01,3,0,2.457567e+00,2.457569e+00
2.382646e+00,3.191680e-01,3.051758e-01,3,0,3.029763e+00,3.029765e+00
2.384357e+00,3.216220e-01,3.080368e-01,3,0,3.034590e+00,3.034591e+00
2.391561e+00,3.152940e-01,3.008842e-01,3,0,2.611538e+00,2.611540e+00
2.393369e+00,3.128720e-01,2.992153e-01,3,0,1.502266e+00,1.502266e+00
2.384525e+00,3.176830e-01,3.039837e-01,3,0,1.273839e+00,1.273840e+00
2.384670e+00,3.211820e-01,3.070831e-01,3,0,1.660781e+00,1.660783e+00
2.390133e+00,3.145800e-01,3.001690e-01,3,0,1.396966e+00,1.396966e+00
2.391553e+00,3.163680e-01,3.030300e-01,3,0,2.837424e+00,2.837427e+00
2.404989e+00,3.155970e-01,3.020763e-01,3,0,2.097694e+00,2.097694e+00
2.385363e+00,3.195730e-01,3.058910e-01,3,0,1.399185e+00,1.399185e+00
2.385216e+00,3.162500e-01,3.030300e-01,3,0,1.482505e+00,1.482506e+00
2.418102e+00,3.167490e-01,3.030300e-01,3,0,1.783034e+00,1.783035e+00
2.392773e+00,3.135460e-01,2.999306e-01,3,0,3.076535e+00,3.076537e+00
2.385494e+00,3.158850e-01,3.020763e-01,3,0,3.258853e+00,3.258854e+00
2.381749e+00,3.204200e-01,3.070831e-01,3,0,2.561865e+00,2.561866e+00
2.393597e+00,3.137420e-01,3.008842e-01,3,0,2.332237e+00,2.332237e+00
2.388862e+00,3.168980e-01,3.039837e-01,3,0,2.508198e+00,2.508199e+00
2.385782e+00,3.168260e-01,3.039837e-01,3,0,2.390608e+00,2.390609e+00
2.382379e+00,3.192580e-01,3.051758e-01,3,0,2.495596e+00,2.495597e+00
2.385332e+00,3.164330e-01,3.030300e-01,3,0,1.946908e+00,1.946908e+00
2.392227e+00,3.161920e-01,3.030300e-01,3,0,1.717526e+00,1.717527e+00
2.384877e+00,3.129640e-01,2.989769e-01,3,0,2.144053e+00,2.144056e+00
2.410729e+00,3.479100e-01,3.340244e-01,3,0,1.778863e+00,1.778864e+00
2.385322e+00,3.241740e-01,3.099442e-01,3,0,1.904177e+00,1.904178e+00
2.387146e+00,3.136940e-01,3.001690e-01,3,0,2.359027e+00,2.359028e+00
2.390170e+00,3.162700e-01,3.030300e-01,3,0,1.992574e+00,1.992574e+00
2.384976e+00,3.170860e-01,3.030300e-01,3,0,3.102532e+00,3.102535e+00
2.390732e+00,7.369090e-01,7.238388e-01,3,1,4.374253e+00,4.374148e+00
3.182348e+00,7.183140e-01,7.040501e-01,4,1,3.978003e+00,3.978004e+00
2.385410e+00,3.161720e-01,3.018379e-01,3,0,2.148328e+00,2.148328e+00
2.383081e+00,3.235010e-01,3.099442e-01,3,0,1.848492e+00,1.848492e+00
2.392903e+00,3.135130e-01,2.999306e-01,3,0,2.106950e+00,2.106951e+00
2.388258e+00,3.161680e-01,3.030300e-01,3,0,1.039208e+00,1.039208e+00
2.434525e+00,3.167470e-01,3.030300e-01,3,0,1.254401e+00,1.254403e+00
2.384775e+00,3.205510e-01,3.070831e-01,3,0,2.076407e+00,2.076409e+00
2.407271e+00,3.220210e-01,3.080368e-01,3,0,1.814611e+00,1.814612e+00
2.390908e+00,3.175740e-01,3.039837e-01,3,0,3.892947e+00,3.892951e+00
2.393138e+00,3.140880e-01,3.008842e-01,3,0,5.107181e+00,5.107183e+00
2.387149e+00,3.158360e-01,3.020763e-01,3,0,5.235730e+00,5.235731e+00
2.385342e+00,3.215620e-01,3.080368e-01,3,0,6.443180e+00,6.443183e+00
2.392406e+00,3.133310e-01,2.989769e-01,3,0,6.840720e+00,6.840702e+00
3.184237e+00,3.153040e-01,3.011227e-01,4,0,5.097764e+00,5.097764e+00
2.384174e+00,3.226650e-01,3.089905e-01,3,0,6.001260e+00,6.001263e+00
2.381700e+00,3.215590e-01,3.030300e-01,3,0,2.973896e+00,2.973895e+00
2.388741e+00,3.142120e-01,2.999306e-01,3,0,2.891233e+00,2.891234e+00
2.443741e+00,3.183590e-01,3.049374e-01,3,0,2.275263e+00,2.275263e+00
2.469715e+00,3.609220e-01,3.349781e-01,3,0,2.675934e+00,2.675935e+00
2.385793e+00,3.406820e-01,3.259182e-01,3,0,1.993424e+00,1.993424e+00
2.409518e+00,3.521720e-01,3.368855e-01,3,0,1.815288e+00,1.815289e+00
2.407242e+00,3.376690e-01,3.228188e-01,3,0,2.272379e+00,2.272381e+00
2.390399e+00,3.150690e-01,3.011227e-01,3,0,1.194667e+00,1.194667e+00
2.417942e+00,3.207500e-01,3.070831e-01,3,0,1.488778e+00,1.488779e+00

