1.634881e+00,1.867967e+00,1.379967e+00,2,0,0.000000e+00,0.000000e+00
2.470836e+00,3.333900e-01,3.139973e-01,3,0,3.315893e-01,3.315899e-01
2.459341e+00,3.165680e-01,3.020763e-01,3,0,4.059191e-01,4.059194e-01
2.433296e+00,3.271170e-01,3.130436e-01,3,0,2.323801e+00,2.323804e+00
2.434019e+00,3.332270e-01,3.080368e-01,3,0,2.820931e+00,2.820932e+00
2.442799e+00,3.130230e-01,2.992153e-01,3,0,1.220069e+00,1.220068e+00
2.388134e+00,3.330750e-01,3.190041e-01,3,0,2.719600e+00,2.719603e+00
2.389569e+00,3.138180e-01,3.001690e-01,3,0,6.324966e+00,6.324973e+00
2.379567e+00,3.138950e-01,2.999306e-01,3,0,8.334160e+00,8.334165e+00
2.382516e+00,3.175200e-01,3.039837e-01,3,0,6.723256e+00,6.723255e+00
2.386616e+00,3.150200e-01,3.011227e-01,3,0,6.669468e+00,6.669469e+00
2.386269e+00,3.142970e-01,3.008842e-01,3,0,9.562289e+00,9.562295e+00
2.382940e+00,3.136480e-01,2.999306e-01,3,0,5.883870e+00,5.883867e+00
2.379327e+00,3.188230e-01,3.049374e-01,3,0,6.364405e+00,6.364408e+00
2.379419e+00,3.145850e-01,3.008842e-01,3,0,5.609461e+00,5.609461e+00
2.389558e+00,3.130430e-01,2.989769e-01,3,0,4.230754e+00,4.230754e+00
2.381802e+00,3.152510e-01,3.018379e-01,3,0,3.727917e+00,3.727917e+00
2.381824e+00,3.193950e-01,3.051758e-01,3,0,3.707853e+00,3.707854e+00
2.376450e+00,3.203760e-01,3.068447e-01,3,0,3.549993e+00,3.549994e+00
2.388701e+00,3.136700e-01,2.999306e-01,3,0,2.843593e+00,2.843593e+00
2.382352e+00,3.142230e-01,3.008842e-01,3,0,2.258201e+00,2.258202e+00
2.385411e+00,3.187570e-01,2.999306e-01,3,0,2.474902e+00,2.474903e+00
2.380873e+00,3.202540e-01,3.070831e-01,3,0,3.888220e+00,3.888224e+00
2.385256e+00,3.141930e-01,3.011227e-01,3,0,2.938814e+00,2.938813e+00
2.388833e+00,3.136900e-01,3.001690e-01,3,0,3.075866e+00,3.075867e+00
2.381309e+00,3.137780e-01,2.999306e-01,3,0,3.049354e+00,3.049355e+00
2.381151e+00,3.195600e-01,3.061295e-01,3,0,3.071081e+00,3.071082e+00
2.413090e+00,3.148530e-01,3.011227e-01,3,0,3.370696e+00,3.370697e+00
2.386026e+00,3.146930e-01,3.011227e-01,3,0,2.156159e+00,2.156159e+00
2.382255e+00,3.144890e-01,3.008842e-01,3,0,1.739160e+00,1.739160e+00
2.378295e+00,3.175660e-01,3.039837e-01,3,0,1.694933e+00,1.694934e+00
2.381028e+00,3.150760e-01,3.020763e-01,3,0,1.739656e+00,1.739656e+00
2.384086e+00,3.133770e-01,2.999306e-01,3,0,3.261300e+00,3.261303e+00
2.383865e+00,3.140670e-01,3.008842e-01,3,0,1.380465e+00,1.380465e+00
2.380166e+00,3.190370e-01,3.051758e-01,3,0,2.283544e+00,2.283547e+00
2.383578e+00,3.190630e-01,3.049374e-01,3,0,2.302007e+00,2.302008e+00
2.386556e+00,3.136560e-01,2.999306e-01,3,0,1.849779e+00,1.849780e+00
2.387331e+00,3.138850e-01,3.001690e-01,3,0,1.246086e+00,1.246086e+00
2.380806e+00,3.138740e-01,2.999306e-01,3,0,2.770789e+00,2.770792e+00
2.427764e+00,3.194210e-01,3.058910e-01,3,0,2.773689e+00,2.773689e+00
2.419944e+00,3.163680e-01,3.030300e-01,3,0,2.325328e+00,2.325328e+00
2.423184e+00,3.137730e-01,3.001690e-01,3,0,1.703123e+00,1.703124e+00
2.382125e+00,3.162370e-01,3.018379e-01,3,0,1.364157e+00,1.364157e+00
2.418068e+00,3.191970e-01,3.061295e-01,3,0,1.798208e+00,1.798210e+00
2.425109e+00,3.204630e-01,3.070831e-01,3,0,4.079402e+00,4.079407e+00
2.412047e+00,3.160260e-01,3.030300e-01,3,0,2.939449e+00,2.939449e+00
2.414357e+00,3.135640e-01,2.999306e-01,3,0,2.209560e+00,2.209561e+00
2.381261e+00,3.136180e-01,3.001690e-01,3,0,2.671103e+00,2.671105e+00
2.380420e+00,3.188560e-01,3.058910e-01,3,0,3.300983e+00,3.300985e+00
2.383479e+00,3.145220e-01,3.008842e-01,3,0,1.575832e+00,1.575831e+00
2.386694e+00,3.135230e-01,3.001690e-01,3,0,2.098935e+00,2.098937e+00
2.382853e+00,3.135270e-01,2.999306e-01,3,0,1.612968e+00,1.612968e+00
2.382876e+00,3.197160e-01,3.068447e-01,3,0,8.775018e-01,8.775020e-01
2.380675e+00,3.193250e-01,3.049374e-01,3,0,6.484824e-01,6.484826e-01
2.385234e+00,3.144140e-01,3.008842e-01,3,0,6.955568e-01,6.955576e-01
2.383796e+00,3.148530e-01,3.008842e-01,3,0,8.137690e-01,8.137695e-01
2.381276e+00,3.157170e-01,2.989769e-01,3,0,1.309711e+00,1.309712e+00
2.380406e+00,3.197660e-01,3.061295e-01,3,0,1.583722e+00,1.583723e+00
2.381789e+00,3.150150e-01,3.008842e-01,3,0,8.653573e-01,8.653573e-01
2.387768e+00,3.147340e-01,3.008842e-01,3,0,8.159814e-01,8.159816e-01
2.380871e+00,3.140240e-01,2.999306e-01,3,0,7.905834e-01,7.905837e-01
2.381956e+00,3.196200e-01,3.058910e-01,3,0,7.096209e-01,7.096213e-01
2.383517e+00,3.152540e-01,3.020763e-01,3,0,5.024010e-01,5.024013e-01
2.383999e+00,3.158260e-01,3.020763e-01,3,0,4.270654e-01,4.270656e-01
2.373988e+00,3.143130e-01,3.011227e-01,3,0,1.381819e+00,1.381821e+00
2.377705e+00,3.173300e-01,3.039837e-01,3,0,3.712925e+00,3.712929e+00
2.381249e+00,3.139170e-01,3.001690e-01,3,0,2.254793e+00,2.254793e+00
2.386459e+00,3.147960e-01,3.008842e-01,3,0,1.822695e+00,1.822695e+00
2.377903e+00,3.138000e-01,2.999306e-01,3,0,2.095429e+00,2.095431e+00
2.381615e+00,3.188010e-01,3.049374e-01,3,0,1.271289e+00,1.271289e+00
2.380539e+00,3.181220e-01,3.049374e-01,3,0,1.912820e+00,1.912822e+00
2.383398e+00,3.131550e-01,2.989769e-01,3,0,2.907623e+00,2.907625e+00
2.410995e+00,3.132620e-01,3.001690e-01,3,0,1.392073e+00,1.392072e+00
2.380942e+00,3.144770e-01,3.011227e-01,3,0,1.330522e+00,1.330523e+00
2.374386e+00,3.190100e-01,3.049374e-01,3,0,9.481404e-01,9.481407e-01
2.444846e+00,3.139360e-01,3.011227e-01,3,0,8.183494e-01,8.183497e-01
2.383276e+00,3.150630e-01,3.011227e-01,3,0,8.698682e-01,8.698687e-01
2.377295e+00,3.142360e-01,3.008842e-01,3,0,1.701426e+00,1.701428e+00
2.380295e+00,3.184880e-01,3.039837e-01,3,0,1.202154e+00,1.202154e+00
2.378165e+00,3.145670e-01,3.011227e-01,3,0,9.765751e-01,9.765752e-01
2.383883e+00,3.147190e-01,3.008842e-01,3,0,1.652122e+00,1.652124e+00
2.374235e+00,3.135270e-01,2.999306e-01,3,0,2.878935e+00,2.878937e+00
2.381108e+00,3.173070e-01,3.039837e-01,3,0,2.682559e+00,2.682560e+00
2.379145e+00,3.140830e-01,3.011227e-01,3,0,2.997878e+00,2.997879e+00
2.384007e+00,3.148530e-01,3.011227e-01,3,0,3.016421e+00,3.016422e+00
2.379989e+00,3.143170e-01,2.999306e-01,3,0,4.270214e+00,4.270217e+00
2.379217e+00,3.184040e-01,3.039837e-01,3,0,5.566241e+00,5.566244e+00
2.378835e+00,3.176400e-01,3.039837e-01,3,0,3.231953e+00,3.231952e+00
2.387126e+00,3.138950e-01,2.999306e-01,3,0,3.796088e+00,3.796090e+00
2.387437e+00,3.141630e-01,3.011227e-01,3,0,4.112416e+00,4.112418e+00
2.377449e+00,3.139340e-01,3.001690e-01,3,0,3.918174e+00,3.918175e+00
2.379224e+00,3.199860e-01,3.058910e-01,3,0,2.870485e+00,2.870485e+00
2.385843e+00,3.139900e-01,2.999306e-01,3,0,2.666581e+00,2.666582e+00
2.385443e+00,3.138420e-01,2.999306e-01,3,0,2.215232e+00,2.215232e+00
2.378107e+00,3.138180e-01,2.999306e-01,3,0,1.773941e+00,1.773941e+00
2.380535e+00,3.187640e-01,3.049374e-01,3,0,1.270667e+00,1.270667e+00
2.384911e+00,3.142950e-01,3.011227e-01,3,0,1.047578e+00,1.047579e+00
2.385900e+00,3.140930e-01,2.999306e-01,3,0,8.663743e-01,8.663747e-01
2.405656e+00,3.139000e-01,3.001690e-01,3,0,1.069438e+00,1.069439e+00
2.380627e+00,3.194800e-01,3.051758e-01,3,0,1.452641e+00,1.452643e+00
2.381462e+00,3.128420e-01,2.989769e-01,3,0,5.988365e-01,5.988364e-01
2.385437e+00,3.140950e-01,3.008842e-01,3,0,6.735787e-01,6.735791e-01
2.379718e+00,3.139510e-01,3.008842e-01,3,0,2.276516e+00,2.276519e+00
2.380309e+00,3.178130e-01,3.049374e-01,3,0,1.181550e+00,1.181550e+00
2.378738e+00,3.182060e-01,3.051758e-01,3,0,8.876462e-01,8.876464e-01
2.384273e+00,3.134350e-01,2.999306e-01,3,0,2.148135e+00,2.148137e+00
2.375710e+00,3.139350e-01,3.008842e-01,3,0,1.545761e+00,1.545761e+00
2.382434e+00,3.183270e-01,3.049374e-01,3,0,1.635745e+00,1.635746e+00
2.382125e+00,3.189250e-01,3.049374e-01,3,0,2.910151e+00,2.910154e+00
2.385352e+00,3.129090e-01,2.989769e-01,3,0,4.288398e+00,4.288400e+00
2.386476e+00,3.137370e-01,3.011227e-01,3,0,5.053373e+00,5.053375e+00
2.384813e+00,3.093114e+00,3.078938e+00,3,5,7.512299e+00,7.537217e+00
3.173802e+00,2.843990e+00,2.829790e+00,4,5,4.730196e+00,4.730194e+00
2.381732e+00,3.149410e-01,3.011227e-01,3,0,2.985225e+00,2.985225e+00
2.387387e+00,3.138150e-01,3.011227e-01,3,0,2.215941e+00,2.215941e+00
2.382937e+00,3.135350e-01,2.999306e-01,3,0,3.982269e+00,3.982273e+00
2.383613e+00,3.195040e-01,3.061295e-01,3,0,4.700463e+00,4.700466e+00
2.380963e+00,3.198320e-01,3.068447e-01,3,0,6.536991e+00,6.536995e+00
2.387361e+00,3.159420e-01,3.011227e-01,3,0,6.834616e+00,6.834618e+00
2.387971e+00,3.134410e-01,2.999306e-01,3,0,4.799036e+00,4.799035e+00
2.382461e+00,3.145760e-01,3.011227e-01,3,0,3.733320e+00,3.733320e+00
2.383076e+00,3.195630e-01,3.058910e-01,3,0,3.140682e+00,3.140683e+00
2.384835e+00,3.152880e-01,3.018379e-01,3,0,2.716969e+00,2.716970e+00
2.385837e+00,3.148610e-01,3.008842e-01,3,0,2.344847e+00,2.344848e+00
2.384875e+00,3.140130e-01,3.011227e-01,3,0,2.154840e+00,2.154840e+00
2.383998e+00,7.325640e-01,7.190704e-01,3,1,4.689188e+00,4.688851e+00
5.575732e+00,1.747747e+00,1.719236e+00,7,0,8.983265e+00,1.638721e+01
4.753912e+00,1.740872e+00,1.720667e+00,6,0,9.869417e+00,1.553812e+01
3.975824e+00,1.730946e+00,1.708984e+00,5,0,1.147345e+01,1.825150e+01
3.967160e+00,1.818053e+00,1.803875e+00,5,3,7.266611e+00,7.282148e+00
4.752863e+00,4.211330e-01,4.069805e-01,6,0,8.505866e+00,8.498623e+00
3.177084e+00,2.520589e+00,2.507210e+00,4,4,1.138075e+01,1.138546e+01
4.755819e+00,8.179740e-01,8.039474e-01,6,1,9.005011e+00,8.992162e+00
3.168691e+00,7.167340e-01,7.028580e-01,4,1,6.757087e+00,6.757086e+00
2.382651e+00,3.138060e-01,2.999306e-01,3,0,4.854188e+00,4.854191e+00
2.382991e+00,3.193690e-01,3.058910e-01,3,0,3.983411e+00,3.983411e+00
2.412188e+00,3.203230e-01,3.058910e-01,3,0,2.956899e+00,2.956899e+00
2.386486e+00,3.141480e-01,2.999306e-01,3,0,2.635145e+00,2.635146e+00
2.384416e+00,3.143390e-01,3.011227e-01,3,0,1.803269e+00,1.803270e+00
2.382858e+00,3.143830e-01,3.001690e-01,3,0,1.498090e+00,1.498090e+00
2.377689e+00,3.183980e-01,3.049374e-01,3,0,8.294472e-01,8.294479e-01
2.381522e+00,3.142250e-01,3.001690e-01,3,0,2.741377e+00,2.741381e+00
2.376529e+00,3.141920e-01,3.008842e-01,3,0,3.855782e+00,3.855784e+00
2.380778e+00,3.149540e-01,3.020763e-01,3,0,3.733857e+00,3.733857e+00
2.374724e+00,3.181480e-01,3.039837e-01,3,0,6.922108e+00,6.922114e+00
2.380771e+00,8.872730e-01,8.740425e-01,3,1,7.508745e+00,7.513456e+00
2.386432e+00,8.195820e-01,8.058548e-01,3,1,6.725755e+00,6.725722e+00
2.383327e+00,3.134610e-01,2.989769e-01,3,0,4.580566e+00,4.580564e+00
2.380596e+00,3.194670e-01,3.058910e-01,3,0,3.645186e+00,3.645188e+00
2.380327e+00,1.459369e+00,1.445055e+00,3,2,3.796973e+00,3.800885e+00
2.387325e+00,2.092685e+00,2.078056e+00,3,3,4.208252e+00,4.218970e+00
2.389597e+00,2.592424e+00,2.578974e+00,3,4,4.743009e+00,4.753960e+00
2.387251e+00,2.466975e+00,2.452850e+00,3,4,4.556242e+00,4.558006e+00
3.965138e+00,8.131138e+00,8.118153e+00,5,14,8.742128e+00,9.180282e+00
4.760860e+00,5.524242e+00,5.509853e+00,6,10,1.004012e+01,1.030074e+01
4.766983e+00,4.935236e+00,4.920959e+00,6,9,9.205832e+00,9.246618e+00
3.174321e+00,4.314956e+00,4.299879e+00,4,8,6.547046e+00,6.547044e+00
2.384635e+00,3.193750e-01,3.061295e-01,3,0,5.882107e+00,5.882107e+00
2.378866e+00,3.204250e-01,3.068447e-01,3,0,5.829356e+00,5.829357e+00
2.382579e+00,7.374090e-01,7.238388e-01,3,1,9.237394e+00,9.237230e+00
3.169349e+00,7.204020e-01,7.069111e-01,4,1,5.549951e+00,5.549948e+00
2.383749e+00,3.153940e-01,3.020763e-01,3,0,4.958711e+00,4.958712e+00
2.388040e+00,3.137840e-01,3.001690e-01,3,0,4.287613e+00,4.287614e+00
2.382316e+00,8.892120e-01,8.749962e-01,3,1,5.340037e+00,5.343125e+00
2.467448e+00,3.327428e+00,3.308058e+00,3,2,5.713857e+00,8.205162e+00
2.387178e+00,2.285169e+00,2.263546e+00,3,0,4.922923e+00,7.280761e+00
2.381380e+00,8.156580e-01,8.020401e-01,3,1,3.841114e+00,3.841114e+00
2.387950e+00,3.140750e-01,2.999306e-01,3,0,2.368959e+00,2.368959e+00
2.382228e+00,3.144040e-01,3.011227e-01,3,0,1.897097e+00,1.897098e+00
2.383085e+00,3.199650e-01,3.058910e-01,3,0,1.533396e+00,1.533396e+00
2.381781e+00,3.274760e-01,3.139973e-01,3,0,1.377774e+00,1.377775e+00
2.388501e+00,3.130580e-01,2.989769e-01,3,0,3.485356e+00,3.485360e+00
2.381505e+00,3.137830e-01,3.001690e-01,3,0,2.461305e+00,2.461305e+00
2.388981e+00,3.188190e-01,3.011227e-01,3,0,3.592909e+00,3.592911e+00
2.382366e+00,3.191090e-01,3.051758e-01,3,0,5.991820e+00,5.991824e+00
2.388043e+00,3.144350e-01,3.008842e-01,3,0,7.342261e+00,7.342264e+00
2.386264e+00,1.487152e+00,1.472950e+00,3,2,8.320823e+00,8.346191e+00
2.383914e+00,9.205780e-01,9.069443e-01,3,1,6.163680e+00,6.167487e+00
2.381091e+00,4.207870e-01,4.069805e-01,3,0,5.056225e+00,5.056235e+00
2.378099e+00,8.288510e-01,8.151531e-01,3,1,3.874969e+00,3.874969e+00
2.407905e+00,3.196720e-01,3.058910e-01,3,0,3.002114e+00,3.002115e+00
2.386415e+00,3.143510e-01,3.008842e-01,3,0,2.321023e+00,2.321023e+00
2.388494e+00,3.130400e-01,2.999306e-01,3,0,2.822663e+00,2.822666e+00
2.384263e+00,3.145970e-01,3.011227e-01,3,0,2.441626e+00,2.441627e+00
2.382573e+00,3.195150e-01,3.061295e-01,3,0,2.281377e+00,2.281378e+00
2.396159e+00,3.151300e-01,3.020763e-01,3,0,2.270469e+00,2.270469e+00
2.386447e+00,3.136800e-01,3.001690e-01,3,0,2.674354e+00,2.674356e+00
2.384362e+00,3.145470e-01,3.011227e-01,3,0,5.523656e+00,5.523657e+00
2.382024e+00,3.192700e-01,3.061295e-01,3,0,4.176037e+00,4.176028e+00
2.382079e+00,3.145780e-01,3.008842e-01,3,0,3.566134e+00,3.566135e+00
2.389022e+00,3.152430e-01,3.020763e-01,3,0,3.724974e+00,3.724975e+00
2.383789e+00,3.148380e-01,3.020763e-01,3,0,3.307641e+00,3.307641e+00
2.400469e+00,3.189560e-01,3.061295e-01,3,0,3.690193e+00,3.690194e+00
2.383662e+00,3.200350e-01,3.061295e-01,3,0,2.449500e+00,2.449499e+00
2.418309e+00,3.149410e-01,3.011227e-01,3,0,3.373984e+00,3.373987e+00
2.398661e+00,3.162660e-01,3.020763e-01,3,0,3.443481e+00,3.443483e+00
2.384866e+00,3.155050e-01,3.011227e-01,3,0,2.164066e+00,2.164066e+00
2.391444e+00,3.179780e-01,3.049374e-01,3,0,2.101758e+00,2.101759e+00
2.408299e+00,3.161490e-01,3.020763e-01,3,0,1.520444e+00,1.520444e+00
2.390350e+00,3.404730e-01,3.268719e-01,3,0,1.131902e+00,1.131902e+00
2.380829e+00,3.149580e-01,3.008842e-01,3,0,7.486384e-01,7.486385e-01
2.384356e+00,3.198590e-01,3.020763e-01,3,0,7.826828e-01,7.826832e-01
2.379479e+00,3.203370e-01,3.061295e-01,3,0,1.494533e+00,1.494535e+00
2.384011e+00,3.133730e-01,3.001690e-01,3,0,7.293106e-01,7.293107e-01
2.384099e+00,3.146840e-01,3.008842e-01,3,0,9.723865e-01,9.723872e-01
2.380834e+00,3.149150e-01,3.008842e-01,3,0,1.565314e+00,1.565315e+00
2.382545e+00,3.197910e-01,3.061295e-01,3,0,1.635994e+00,1.635995e+00
2.387028e+00,3.149330e-01,3.008842e-01,3,0,2.471946e+00,2.471947e+00
2.386499e+00,3.145600e-01,3.011227e-01,3,0,2.744022e+00,2.744023e+00
2.380702e+00,3.141560e-01,3.011227e-01,3,0,1.372732e+00,1.372732e+00
2.381107e+00,3.188490e-01,3.049374e-01,3,0,1.131755e+00,1.131755e+00
2.381314e+00,3.149610e-01,3.018379e-01,3,0,2.145690e+00,2.145693e+00
2.386431e+00,3.149220e-01,3.011227e-01,3,0,1.318245e+00,1.318244e+00
2.382760e+00,3.140580e-01,3.008842e-01,3,0,7.964799e-01,7.964803e-01
2.378736e+00,3.186510e-01,3.051758e-01,3,0,8.637918e-01,8.637926e-01
2.381464e+00,3.190120e-01,3.008842e-01,3,0,8.510405e-01,8.510409e-01
2.412912e+00,3.149810e-01,3.011227e-01,3,0,9.569682e-01,9.569691e-01
2.386079e+00,3.158270e-01,3.018379e-01,3,0,7.814349e-01,7.814353e-01
2.379714e+00,3.154410e-01,3.020763e-01,3,0,5.941561e-01,5.941563e-01
2.379757e+00,3.188320e-01,3.051758e-01,3,0,8.758101e-01,8.758109e-01
2.385820e+00,3.150150e-01,3.011227e-01,3,0,8.108613e-01,8.108616e-01
2.387471e+00,3.158440e-01,3.018379e-01,3,0,4.427250e-01,4.427251e-01
2.381189e+00,3.153630e-01,3.018379e-01,3,0,5.471381e-01,5.471385e-01
2.380471e+00,3.193730e-01,3.061295e-01,3,0,1.382190e+00,1.382192e+00
2.381384e+00,3.147160e-01,3.011227e-01,3,0,2.219059e+00,2.219061e+00
2.386581e+00,3.143180e-01,2.999306e-01,3,0,1.466667e+00,1.466667e+00
2.381056e+00,3.154400e-01,3.020763e-01,3,0,1.435794e+00,1.435795e+00
2.378509e+00,3.193950e-01,3.049374e-01,3,0,2.797023e+00,2.797025e+00
2.380217e+00,3.163140e-01,3.020763e-01,3,0,4.729784e+00,4.729788e+00
2.387456e+00,3.146830e-01,3.008842e-01,3,0,3.058121e+00,3.058121e+00
2.382549e+00,3.134070e-01,3.001690e-01,3,0,1.849958e+00,1.849958e+00
2.380157e+00,3.195280e-01,3.058910e-01,3,0,2.566486e+00,2.566487e+00
2.380037e+00,3.198210e-01,3.058910e-01,3,0,3.149707e+00,3.149708e+00
2.385467e+00,3.154050e-01,3.011227e-01,3,0,2.971299e+00,2.971299e+00
2.383108e+00,3.153520e-01,3.011227e-01,3,0,2.309453e+00,2.309453e+00
2.407848e+00,3.441530e-01,3.259182e-01,3,0,2.002156e+00,2.002156e+00
2.382682e+00,3.196000e-01,3.049374e-01,3,0,2.156854e+00,2.156855e+00
2.389449e+00,3.140330e-01,2.999306e-01,3,0,3.036351e+00,3.036353e+00
2.387014e+00,3.136980e-01,2.999306e-01,3,0,2.387340e+00,2.387341e+00
2.382949e+00,3.144010e-01,3.011227e-01,3,0,1.760713e+00,1.760713e+00
2.377485e+00,3.202000e-01,3.058910e-01,3,0,1.328494e+00,1.328494e+00
2.377396e+00,3.144290e-01,3.011227e-01,3,0,1.887019e+00,1.887020e+00
2.388559e+00,3.148630e-01,3.011227e-01,3,0,2.474017e+00,2.474019e+00
2.383078e+00,3.140100e-01,3.008842e-01,3,0,2.493486e+00,2.493487e+00
2.378306e+00,3.184980e-01,3.051758e-01,3,0,8.087459e-01,8.087455e-01
2.380355e+00,3.144470e-01,3.008842e-01,3,0,9.640367e-01,9.640375e-01
2.384647e+00,3.147170e-01,3.008842e-01,3,0,1.607790e+00,1.607791e+00
2.382754e+00,3.135120e-01,2.999306e-01,3,0,3.844383e+00,3.844386e+00
2.382059e+00,3.205430e-01,3.070831e-01,3,0,2.094886e+00,2.094886e+00
2.375488e+00,3.190920e-01,3.049374e-01,3,0,1.815378e+00,1.815379e+00
2.384222e+00,3.150440e-01,3.020763e-01,3,0,1.472446e+00,1.472446e+00
2.386138e+00,3.148250e-01,3.008842e-01,3,0,1.125215e+00,1.125215e+00
2.382772e+00,3.139710e-01,3.011227e-01,3,0,9.060876e-01,9.060879e-01
2.381321e+00,3.322960e-01,3.180504e-01,3,0,8.138765e-01,8.138772e-01
2.382761e+00,3.154140e-01,3.020763e-01,3,0,6.879688e-01,6.879691e-01
2.387142e+00,3.137260e-01,2.999306e-01,3,0,7.843077e-01,7.843083e-01
2.380012e+00,3.148060e-01,3.018379e-01,3,0,7.039832e-01,7.039836e-01
2.378876e+00,3.184950e-01,3.049374e-01,3,0,2.163696e+00,2.163699e+00
2.380053e+00,3.139510e-01,3.001690e-01,3,0,2.072314e+00,2.072315e+00
2.385524e+00,3.142710e-01,3.011227e-01,3,0,1.189988e+00,1.189988e+00
2.419100e+00,3.215670e-01,3.070831e-01,3,0,8.169324e-01,8.169329e-01
2.378950e+00,4.076030e-01,3.921986e-01,3,0,8.453878e-01,8.453883e-01
2.410050e+00,3.200200e-01,3.061295e-01,3,0,4.382079e-01,4.382082e-01
2.410460e+00,3.646960e-01,3.480911e-01,3,0,1.361324e+00,1.361326e+00
2.389788e+00,3.501260e-01,3.340244e-01,3,0,1.012626e+00,1.012626e+00
2.413788e+00,3.277130e-01,3.139973e-01,3,0,3.365036e+00,3.365040e+00
2.381006e+00,3.581370e-01,3.409386e-01,3,0,1.323109e+00,1.323108e+00
2.383197e+00,1.476752e+00,1.461029e+00,3,2,5.819377e+00,5.820325e+00
4.793342e+00,1.332641e+00,1.318216e+00,6,2,5.583694e+00,5.578436e+00
2.432250e+00,3.183230e-01,3.039837e-01,3,0,4.249984e+00,4.249967e+00
2.384560e+00,3.219430e-01,3.070831e-01,3,0,2.556103e+00,2.556102e+00
2.377143e+00,3.171780e-01,3.030300e-01,3,0,2.751939e+00,2.751940e+00
2.388228e+00,3.166630e-01,3.027916e-01,3,0,2.752407e+00,2.752408e+00
2.381712e+00,3.141890e-01,3.008842e-01,3,0,3.215560e+00,3.215561e+00
2.384226e+00,3.203730e-01,3.061295e-01,3,0,3.091633e+00,3.091634e+00
2.379303e+00,3.205200e-01,3.070831e-01,3,0,4.791321e+00,4.791324e+00
2.382912e+00,3.151980e-01,3.018379e-01,3,0,3.514561e+00,3.514560e+00
2.387773e+00,3.148460e-01,3.008842e-01,3,0,3.032248e+00,3.032250e+00
2.383740e+00,3.129840e-01,2.989769e-01,3,0,2.447803e+00,2.447804e+00
2.416510e+00,3.195900e-01,3.058910e-01,3,0,2.699189e+00,2.699190e+00
2.402265e+00,3.475980e-01,3.299713e-01,3,0,2.503395e+00,2.503396e+00
2.410920e+00,3.289820e-01,3.139973e-01,3,0,2.802548e+00,2.802549e+00
2.415549e+00,3.387180e-01,3.230572e-01,3,0,2.143659e+00,2.143659e+00
2.413010e+00,3.174940e-01,3.042221e-01,3,0,2.429116e+00,2.429118e+00
2.381667e+00,3.249390e-01,3.111362e-01,3,0,1.420168e+00,1.420168e+00
2.393818e+00,3.167860e-01,3.027916e-01,3,0,1.096071e+00,1.096071e+00
2.399775e+00,3.186030e-01,3.049374e-01,3,0,8.924362e-01,8.924365e-01
2.411533e+00,3.188590e-01,3.049374e-01,3,0,1.025130e+00,1.025130e+00
2.382825e+00,3.162940e-01,3.030300e-01,3,0,6.888230e-01,6.888231e-01
2.379183e+00,3.191550e-01,3.061295e-01,3,0,1.202166e+00,1.202168e+00
2.385761e+00,3.161460e-01,3.020763e-01,3,0,7.965801e-01,7.965804e-01
2.386242e+00,3.307980e-01,3.170967e-01,3,0,8.719186e-01,8.719191e-01
2.386802e+00,3.162840e-01,3.018379e-01,3,0,1.295890e+00,1.295891e+00
2.379895e+00,3.224100e-01,3.089905e-01,3,0,1.882741e+00,1.882742e+00
2.381039e+00,3.146450e-01,3.011227e-01,3,0,1.446095e+00,1.446095e+00
2.385466e+00,3.161850e-01,3.030300e-01,3,0,1.378978e+00,1.378978e+00
2.382018e+00,3.160710e-01,3.030300e-01,3,0,1.257611e+00,1.257612e+00
2.381857e+00,3.209470e-01,3.077984e-01,3,0,2.004234e+00,2.004236e+00
2.379354e+00,3.215810e-01,3.080368e-01,3,0,1.548540e+00,1.548540e+00
2.386478e+00,3.148020e-01,3.008842e-01,3,0,1.562205e+00,1.562206e+00
2.381760e+00,3.144470e-01,3.011227e-01,3,0,1.397081e+00,1.397082e+00
2.382241e+00,3.213070e-01,3.030300e-01,3,0,2.425418e+00,2.425420e+00
2.380704e+00,3.212100e-01,3.068447e-01,3,0,1.596150e+00,1.596150e+00
2.387378e+00,3.166880e-01,3.030300e-01,3,0,2.512593e+00,2.512595e+00
2.388460e+00,3.181550e-01,3.039837e-01,3,0,2.393243e+00,2.393244e+00
2.433611e+00,3.138540e-01,2.999306e-01,3,0,3.454062e+00,3.454064e+00
2.382187e+00,3.217820e-01,3.080368e-01,3,0,4.098273e+00,4.098274e+00
2.381551e+00,3.162290e-01,3.030300e-01,3,0,2.460889e+00,2.460888e+00
2.386868e+00,3.166510e-01,3.030300e-01,3,0,2.011107e+00,2.011108e+00
2.382016e+00,3.171440e-01,3.030300e-01,3,0,1.889725e+00,1.889725e+00
2.381440e+00,3.186920e-01,3.049374e-01,3,0,1.909150e+00,1.909151e+00
2.380241e+00,3.196350e-01,3.061295e-01,3,0,1.475803e+00,1.475804e+00
2.386825e+00,3.165940e-01,3.030300e-01,3,0,1.194458e+00,1.194459e+00
2.385929e+00,3.167380e-01,3.039837e-01,3,0,1.202800e+00,1.202801e+00
2.381764e+00,3.161650e-01,3.030300e-01,3,0,1.203928e+00,1.203929e+00
2.382345e+00,3.212690e-01,3.070831e-01,3,0,1.127188e+00,1.127188e+00
2.385176e+00,3.140160e-01,3.008842e-01,3,0,1.235545e+00,1.235546e+00
2.385404e+00,3.154910e-01,3.018379e-01,3,0,1.287932e+00,1.287933e+00
2.382922e+00,3.165340e-01,3.030300e-01,3,0,1.430369e+00,1.430370e+00
2.376605e+00,3.218140e-01,3.080368e-01,3,0,2.133869e+00,2.133871e+00
2.387170e+00,3.174980e-01,3.039837e-01,3,0,1.735907e+00,1.735907e+00
2.387264e+00,3.145190e-01,3.011227e-01,3,0,1.747573e+00,1.747574e+00
2.386033e+00,7.312620e-01,7.178783e-01,3,1,2.804320e+00,2.803982e+00
4.784447e+00,3.151370e-01,3.011227e-01,6,0,4.329104e+00,4.295249e+00
3.170937e+00,7.252040e-01,7.119179e-01,4,1,5.014864e+00,5.014901e+00
2.387205e+00,3.143000e-01,3.011227e-01,3,0,3.708113e+00,3.708112e+00
2.384127e+00,3.157180e-01,3.020763e-01,3,0,2.919415e+00,2.919415e+00
2.382272e+00,3.197880e-01,3.061295e-01,3,0,2.083457e+00,2.083457e+00
2.383349e+00,3.192180e-01,3.049374e-01,3,0,1.583925e+00,1.583925e+00
2.386446e+00,3.150220e-01,3.020763e-01,3,0,1.514766e+00,1.514767e+00
2.385382e+00,3.148420e-01,3.008842e-01,3,0,1.184251e+00,1.184251e+00
2.382999e+00,3.170760e-01,3.039837e-01,3,0,8.176444e-01,8.176446e-01
2.380865e+00,3.224080e-01,3.077984e-01,3,0,8.783531e-01,8.783539e-01
2.386121e+00,3.140450e-01,3.001690e-01,3,0,1.670238e+00,1.670239e+00
2.386405e+00,3.161660e-01,3.020763e-01,3,0,1.574528e+00,1.574528e+00
2.382426e+00,3.168060e-01,3.039837e-01,3,0,1.189392e+00,1.189392e+00
2.379390e+00,3.207690e-01,3.070831e-01,3,0,1.369703e+00,1.369704e+00
2.375885e+00,3.164820e-01,3.030300e-01,3,0,1.308154e+00,1.308155e+00
2.385917e+00,3.162690e-01,3.030300e-01,3,0,2.302180e+00,2.302182e+00
2.382033e+00,3.135470e-01,3.001690e-01,3,0,2.332789e+00,2.332790e+00
2.431473e+00,3.208750e-01,3.070831e-01,3,0,3.401555e+00,3.401557e+00
2.408667e+00,3.221560e-01,3.089905e-01,3,0,2.766088e+00,2.766088e+00
2.385583e+00,3.170840e-01,3.030300e-01,3,0,5.722838e+00,5.722844e+00
2.385828e+00,3.170180e-01,3.039837e-01,3,0,6.314562e+00,6.314565e+00
2.383198e+00,3.139550e-01,2.999306e-01,3,0,5.720757e+00,5.720757e+00
2.381826e+00,3.217020e-01,3.080368e-01,3,0,5.217524e+00,5.217525e+00
2.384454e+00,3.175470e-01,3.039837e-01,3,0,5.137312e+00,5.137313e+00
2.389205e+00,3.172380e-01,3.039837e-01,3,0,3.905971e+00,3.905971e+00
2.380663e+00,3.171460e-01,3.039837e-01,3,0,3.669484e+00,3.669485e+00
2.380534e+00,3.194960e-01,3.058910e-01,3,0,3.169469e+00,3.169470e+00
2.381299e+00,3.151290e-01,3.011227e-01,3,0,2.978950e+00,2.978950e+00
2.387912e+00,3.156930e-01,3.020763e-01,3,0,3.023044e+00,3.023045e+00
2.381328e+00,3.166190e-01,3.039837e-01,3,0,2.576474e+00,2.576475e+00
2.377340e+00,3.211230e-01,3.070831e-01,3,0,2.742128e+00,2.742129e+00
2.381635e+00,3.219770e-01,3.080368e-01,3,0,2.091929e+00,2.091929e+00
2.386511e+00,3.132240e-01,2.999306e-01,3,0,3.526192e+00,3.526194e+00
2.386039e+00,3.156330e-01,3.020763e-01,3,0,2.103999e+00,2.103999e+00
2.384280e+00,7.303560e-01,7.159710e-01,3,1,4.670946e+00,4.670742e+00
3.177114e+00,7.420140e-01,7.281303e-01,4,1,3.726183e+00,3.726183e+00
2.383033e+00,3.155390e-01,3.018379e-01,3,0,4.114070e+00,4.114072e+00
2.381555e+00,3.209290e-01,3.077984e-01,3,0,3.732190e+00,3.732190e+00
2.382991e+00,3.210270e-01,3.080368e-01,3,0,4.317454e+00,4.317456e+00
2.383045e+00,3.165820e-01,3.018379e-01,3,0,2.669399e+00,2.669399e+00
2.386660e+00,3.140150e-01,2.999306e-01,3,0,2.337322e+00,2.337323e+00
2.376837e+00,3.151310e-01,3.018379e-01,3,0,2.915420e+00,2.915423e+00
2.384996e+00,3.198650e-01,3.061295e-01,3,0,8.199257e+00,8.199268e+00
2.386658e+00,3.162040e-01,3.027916e-01,3,0,3.796450e+00,3.796447e+00
2.388721e+00,3.171530e-01,3.039837e-01,3,0,3.234307e+00,3.234307e+00
2.383077e+00,3.149410e-01,3.008842e-01,3,0,2.912599e+00,2.912600e+00
2.410528e+00,3.190390e-01,3.049374e-01,3,0,3.857026e+00,3.857028e+00
2.383657e+00,3.167630e-01,3.030300e-01,3,0,2.505140e+00,2.505140e+00
2.391852e+00,3.169240e-01,3.027916e-01,3,0,2.290924e+00,2.290924e+00
2.408104e+00,3.176190e-01,3.039837e-01,3,0,3.722180e+00,3.722184e+00
2.461938e+00,3.322870e-01,3.130436e-01,3,0,2.066385e+00,2.066385e+00
2.454640e+00,3.510630e-01,3.361702e-01,3,0,1.746254e+00,1.746255e+00
2.452659e+00,3.428610e-01,3.278255e-01,3,0,1.605677e+00,1.605678e+00
2.456280e+00,3.312870e-01,3.168583e-01,3,0,1.556801e+00,1.556802e+00
2.462582e+00,3.330150e-01,3.190041e-01,3,0,7.939601e-01,7.939603e-01
2.484845e+00,3.352610e-01,3.199577e-01,3,0,7.979303e-01,7.979306e-01
2.426094e+00,3.316130e-01,3.168583e-01,3,0,9.841524e-01,9.841530e-01
2.436430e+00,3.296490e-01,3.161430e-01,3,0,1.932935e+00,1.932938e+00
2.434647e+00,3.602440e-01,3.468990e-01,3,0,1.811579e+00,1.811580e+00
2.443125e+00,3.372990e-01,3.230572e-01,3,0,1.166903e+00,1.166903e+00
2.436080e+00,3.180900e-01,3.049374e-01,3,0,7.318115e-01,7.318118e-01
2.437430e+00,3.192890e-01,3.058910e-01,3,0,1.121097e+00,1.121098e+00
2.461626e+00,3.192570e-01,3.049374e-01,3,0,1.518811e+00,1.518812e+00
2.405830e+00,3.139910e-01,3.011227e-01,3,0,9.888541e-01,9.888544e-01
2.430265e+00,3.451080e-01,3.309250e-01,3,0,6.862529e-01,6.862535e-01
2.432232e+00,3.221990e-01,3.080368e-01,3,0,7.285549e-01,7.285556e-01
2.412019e+00,3.178950e-01,3.039837e-01,3,0,1.763027e+00,1.763029e+00
2.411564e+00,3.168780e-01,3.030300e-01,3,0,2.193103e+00,2.193104e+00
2.435846e+00,3.144630e-01,3.011227e-01,3,0,5.511443e+00,5.511449e+00
2.434103e+00,3.208440e-01,3.070831e-01,3,0,5.260013e+00,5.260014e+00
2.407346e+00,3.447160e-01,3.309250e-01,3,0,3.910411e+00,3.910410e+00
2.437818e+00,3.165300e-01,3.018379e-01,3,0,3.103839e+00,3.103839e+00
2.437511e+00,3.157440e-01,3.020763e-01,3,0,2.319808e+00,2.319808e+00
2.412157e+00,3.162150e-01,3.020763e-01,3,0,2.145551e+00,2.145551e+00
2.432506e+00,3.283730e-01,3.139973e-01,3,0,2.800693e+00,2.800695e+00
2.433947e+00,3.193940e-01,3.061295e-01,3,0,3.849292e+00,3.849294e+00
2.419075e+00,3.190470e-01,3.049374e-01,3,0,3.670379e+00,3.670380e+00
2.380502e+00,7.663390e-01,7.529259e-01,3,1,3.713469e+00,3.713241e+00
4.837544e+00,7.472510e-01,7.331371e-01,6,1,1.919844e+00,1.917371e+00
3.230262e+00,3.156370e-01,3.020763e-01,4,0,1.028888e+00,1.028888e+00
2.381908e+00,3.482560e-01,3.340244e-01,3,0,1.083579e+00,1.083579e+00
2.407501e+00,3.441570e-01,3.299713e-01,3,0,1.002398e+00,1.002398e+00
2.437563e+00,3.168660e-01,3.030300e-01,3,0,1.123590e+00,1.123590e+00
2.438910e+00,3.172120e-01,3.039837e-01,3,0,7.218355e-01,7.218356e-01
2.435052e+00,3.176300e-01,3.039837e-01,3,0,6.437501e-01,6.437506e-01
2.433200e+00,3.160540e-01,3.020763e-01,3,0,7.813613e-01,7.813625e-01
2.434046e+00,3.432300e-01,3.299713e-01,3,0,3.067379e+00,3.067383e+00
2.435691e+00,3.332540e-01,3.190041e-01,3,0,4.779950e+00,4.779953e+00
2.438289e+00,3.175870e-01,3.042221e-01,3,0,5.189733e+00,5.189735e+00
2.440108e+00,3.176470e-01,3.039837e-01,3,0,4.104630e+00,4.104630e+00
2.409020e+00,3.172430e-01,3.039837e-01,3,0,2.429930e+00,2.429929e+00
2.404455e+00,3.444290e-01,3.299713e-01,3,0,2.419881e+00,2.419883e+00
2.431724e+00,3.207590e-01,3.068447e-01,3,0,3.136720e+00,3.136721e+00
2.407004e+00,3.169380e-01,3.030300e-01,3,0,3.486766e+00,3.486767e+00
2.436071e+00,3.175120e-01,3.039837e-01,3,0,2.602247e+00,2.602247e+00
2.407134e+00,3.247464e+00,3.226757e+00,3,2,7.480125e+00,1.022280e+01
5.651429e+00,2.297417e+00,2.275944e+00,7,0,1.350448e+01,2.407830e+01
4.857281e+00,2.270743e+00,2.249718e+00,6,0,1.487790e+01,2.116264e+01
3.195896e+00,1.351469e+00,1.337051e+00,4,2,8.670936e+00,8.670920e+00
2.406914e+00,4.617568e+00,4.596949e+00,3,4,1.214119e+01,1.409585e+01
2.408630e+00,2.413812e+00,2.399921e+00,3,4,1.003770e+01,1.003766e+01
2.407943e+00,3.348730e-01,3.209114e-01,3,0,8.303380e+00,8.303380e+00
2.435543e+00,3.143320e-01,3.008842e-01,3,0,9.000887e+00,9.000891e+00
2.438533e+00,3.164110e-01,3.030300e-01,3,0,7.611157e+00,7.611158e+00
2.383506e+00,3.164290e-01,3.030300e-01,3,0,9.152893e+00,9.152898e+00
2.408248e+00,3.478750e-01,3.340244e-01,3,0,1.044262e+01,1.044262e+01
2.433793e+00,3.467600e-01,3.330708e-01,3,0,8.625241e+00,8.625241e+00
2.409135e+00,3.147250e-01,3.020763e-01,3,0,7.029813e+00,7.029813e+00
2.410985e+00,3.156390e-01,3.020763e-01,3,0,5.216881e+00,5.216881e+00
2.430718e+00,3.171870e-01,3.039837e-01,3,0,4.638580e+00,4.638581e+00
2.432118e+00,3.165900e-01,3.030300e-01,3,0,4.176994e+00,4.176995e+00
2.408158e+00,3.476920e-01,3.340244e-01,3,0,3.451561e+00,3.451562e+00
2.433457e+00,9.513280e-01,9.381771e-01,3,1,3.911846e+00,3.912213e+00
2.437525e+00,8.170100e-01,8.039474e-01,3,1,2.232875e+00,2.232874e+00
2.459054e+00,3.165150e-01,3.030300e-01,3,0,2.740720e+00,2.740721e+00
2.398180e+00,3.144720e-01,3.011227e-01,3,0,3.013615e+00,3.013617e+00
2.405708e+00,3.284970e-01,3.139973e-01,3,0,2.811686e+00,2.811687e+00
2.431227e+00,3.457360e-01,3.321171e-01,3,0,2.610583e+00,2.610584e+00
2.406621e+00,3.218990e-01,3.039837e-01,3,0,1.593610e+00,1.593609e+00
2.408154e+00,3.180050e-01,3.039837e-01,3,0,1.986646e+00,1.986647e+00
2.436905e+00,3.142860e-01,3.001690e-01,3,0,1.657397e+00,1.657397e+00
2.432491e+00,3.162470e-01,3.030300e-01,3,0,2.322942e+00,2.322944e+00
2.405127e+00,3.464990e-01,3.330708e-01,3,0,1.895679e+00,1.895679e+00
2.431742e+00,3.350390e-01,3.209114e-01,3,0,1.855987e+00,1.855988e+00
2.438148e+00,3.167660e-01,3.030300e-01,3,0,2.457567e+00,2.457569e+00
2.408749e+00,3.165620e-01,3.030300e-01,3,0,3.029763e+00,3.029765e+00
2.434908e+00,3.141740e-01,3.008842e-01,3,0,3.034590e+00,3.034591e+00
2.435286e+00,3.210310e-01,3.070831e-01,3,0,2.611538e+00,2.611540e+00
2.442573e+00,3.218970e-01,3.080368e-01,3,0,1.502266e+00,1.502266e+00
2.398972e+00,3.183350e-01,3.051758e-01,3,0,1.273839e+00,1.273840e+00
2.436227e+00,3.169540e-01,3.030300e-01,3,0,1.660781e+00,1.660783e+00
2.434675e+00,3.142710e-01,3.008842e-01,3,0,1.396966e+00,1.396966e+00
2.432767e+00,3.168210e-01,3.030300e-01,3,0,2.837424e+00,2.837427e+00
2.439231e+00,3.473410e-01,3.340244e-01,3,0,2.097694e+00,2.097694e+00
2.433763e+00,3.222320e-01,3.089905e-01,3,0,1.399185e+00,1.399185e+00
2.437733e+00,3.185590e-01,3.049374e-01,3,0,1.482505e+00,1.482506e+00
2.438013e+00,3.157110e-01,3.020763e-01,3,0,1.783034e+00,1.783035e+00
2.437146e+00,3.151890e-01,3.008842e-01,3,0,3.076535e+00,3.076537e+00
2.410259e+00,3.163350e-01,3.030300e-01,3,0,3.258853e+00,3.258854e+00
2.406045e+00,3.466060e-01,3.330708e-01,3,0,2.561865e+00,2.561866e+00
2.418984e+00,3.179140e-01,3.039837e-01,3,0,2.332237e+00,2.332237e+00
2.436789e+00,3.173070e-01,3.030300e-01,3,0,2.508198e+00,2.508199e+00
2.398435e+00,3.142550e-01,3.008842e-01,3,0,2.390608e+00,2.390609e+00
2.407855e+00,3.292750e-01,3.151894e-01,3,0,2.495596e+00,2.495597e+00
2.431270e+00,3.466530e-01,3.330708e-01,3,0,1.946908e+00,1.946908e+00
2.432125e+00,3.355000e-01,3.209114e-01,3,0,1.717526e+00,1.717527e+00
2.459728e+00,3.170180e-01,3.030300e-01,3,0,2.144053e+00,2.144056e+00
2.436416e+00,3.158890e-01,3.030300e-01,3,0,1.778863e+00,1.778864e+00
2.406990e+00,3.156730e-01,3.020763e-01,3,0,1.904177e+00,1.904178e+00
2.381157e+00,3.466310e-01,3.159046e-01,3,0,2.359027e+00,2.359028e+00
2.415207e+00,3.472460e-01,3.328323e-01,3,0,1.992574e+00,1.992574e+00
2.445416e+00,3.183320e-01,3.049374e-01,3,0,3.102532e+00,3.102535e+00
2.407550e+00,7.389270e-01,7.250309e-01,3,1,4.374253e+00,4.374148e+00
3.196634e+00,7.485730e-01,7.338524e-01,4,1,3.978003e+00,3.978004e+00
2.408562e+00,3.349250e-01,3.209114e-01,3,0,2.148328e+00,2.148328e+00
2.462119e+00,3.148760e-01,3.011227e-01,3,0,1.848492e+00,1.848492e+00
2.437715e+00,3.141180e-01,3.011227e-01,3,0,2.106950e+00,2.106951e+00
2.406929e+00,3.163940e-01,3.018379e-01,3,0,1.039208e+00,1.039208e+00
2.405630e+00,3.464900e-01,3.330708e-01,3,0,1.254401e+00,1.254403e+00
2.432167e+00,3.221440e-01,3.080368e-01,3,0,2.076407e+00,2.076409e+00
2.405565e+00,3.187690e-01,3.051758e-01,3,0,1.814611e+00,1.814612e+00
2.435764e+00,3.137260e-01,2.999306e-01,3,0,3.892947e+00,3.892951e+00
2.443399e+00,3.163510e-01,3.030300e-01,3,0,5.107181e+00,5.107183e+00
2.408685e+00,3.169350e-01,3.030300e-01,3,0,5.235730e+00,5.235731e+00
2.382028e+00,3.466590e-01,3.321171e-01,3,0,6.443180e+00,6.443183e+00
2.420008e+00,3.160060e-01,3.020763e-01,3,0,6.840720e+00,6.840702e+00
3.283962e+00,3.148270e-01,3.008842e-01,4,0,5.097764e+00,5.097764e+00
2.406767e+00,3.424320e-01,3.280640e-01,3,0,6.001260e+00,6.001263e+00
2.408043e+00,3.443870e-01,3.309250e-01,3,0,2.973896e+00,2.973895e+00
2.409069e+00,3.467260e-01,3.330708e-01,3,0,2.891233e+00,2.891234e+00
2.439352e+00,3.163090e-01,3.030300e-01,3,0,2.275263e+00,2.275263e+00
2.415131e+00,3.178910e-01,3.039837e-01,3,0,2.675934e+00,2.675935e+00
2.404623e+00,3.180880e-01,3.039837e-01,3,0,1.993424e+00,1.993424e+00
2.433592e+00,3.429890e-01,3.290176e-01,3,0,1.815288e+00,1.815289e+00
2.407352e+00,3.223420e-01,3.089905e-01,3,0,2.272379e+00,2.272381e+00
2.409457e+00,3.174000e-01,3.039837e-01,3,0,1.194667e+00,1.194667e+00
2.435936e+00,3.176930e-01,3.039837e-01,3,0,1.488778e+00,1.488779e+00

