4.646903e+00,5.551589e+00,4.266977e+00,2,0,0.000000e+00,0.000000e+00
6.931186e+00,9.911170e-01,9.500980e-01,3,0,3.898886e-01,3.898894e-01
6.967466e+00,9.789960e-01,9.431839e-01,3,0,3.194393e+00,3.194398e+00
6.945484e+00,9.765640e-01,9.469986e-01,3,0,9.370231e-01,9.370225e-01
6.940870e+00,9.615100e-01,9.310246e-01,3,0,7.566619e+00,7.566631e+00
6.940763e+00,9.628450e-01,9.319782e-01,3,0,1.066185e+01,1.066181e+01
6.943390e+00,6.640328e+00,6.596804e+00,3,1,1.376174e+01,1.590851e+01
1.156114e+01,2.201569e+00,2.171040e+00,5,1,1.081212e+01,1.080915e+01
9.261869e+00,1.430069e+01,1.425815e+01,4,5,1.631449e+01,2.121513e+01
1.616697e+01,6.146880e+00,6.110191e+00,7,3,1.423661e+01,1.423921e+01
1.616459e+01,5.634249e+00,5.603790e+00,7,3,1.414553e+01,1.413970e+01
9.247750e+00,2.200928e+00,2.171040e+00,4,1,1.026560e+01,1.026560e+01
6.937669e+00,2.254888e+00,2.225161e+00,3,1,1.505144e+01,1.505114e+01
1.386182e+01,2.247710e+01,2.243733e+01,6,9,2.239026e+01,2.510765e+01
1.396500e+01,2.529032e+01,2.524829e+01,6,11,2.291491e+01,2.450850e+01
1.625732e+01,3.247008e+01,3.243804e+01,7,19,2.350745e+01,2.373922e+01
1.386088e+01,2.358387e+01,2.355194e+01,6,13,2.682906e+01,2.724227e+01
1.417546e+01,3.328516e+01,3.325200e+01,6,20,1.963661e+01,1.968327e+01
7.078699e+00,6.144935e+00,6.103992e+00,3,3,1.554707e+01,1.554704e+01
7.083236e+00,9.804780e-01,9.510517e-01,3,0,1.419740e+01,1.419741e+01
7.078649e+00,9.593560e-01,9.300709e-01,3,0,1.507056e+01,1.507057e+01
7.074974e+00,9.630160e-01,9.329319e-01,3,0,1.194398e+01,1.194398e+01
7.123533e+00,9.657810e-01,9.300709e-01,3,0,1.295498e+01,1.295498e+01
7.075571e+00,9.650170e-01,9.350777e-01,3,0,1.147161e+01,1.147161e+01
7.094971e+00,9.617060e-01,9.322166e-01,3,0,9.706109e+00,9.706110e+00
7.068333e+00,9.888310e-01,9.598732e-01,3,0,9.443637e+00,9.443640e+00
7.108203e+00,9.621520e-01,9.269714e-01,3,0,7.841105e+00,7.841106e+00
7.112733e+00,6.441153e+00,6.410837e+00,3,3,9.207624e+00,9.215897e+00
7.072173e+00,8.393313e+00,8.362055e+00,3,4,9.334248e+00,9.462260e+00
7.078938e+00,6.081102e+00,6.050110e+00,3,3,7.834249e+00,7.874064e+00
7.118876e+00,2.920685e+00,2.889872e+00,3,1,5.809841e+00,5.815953e+00
7.093982e+00,2.564295e+00,2.534151e+00,3,1,6.452693e+00,6.452697e+00
7.142269e+00,9.782250e-01,9.479523e-01,3,0,4.211689e+00,4.211689e+00
7.092503e+00,9.836010e-01,9.539127e-01,3,0,3.617292e+00,3.617293e+00
7.079189e+00,9.859950e-01,9.551048e-01,3,0,4.864062e+00,4.864065e+00
7.129419e+00,9.912130e-01,9.608269e-01,3,0,4.414140e+00,4.414125e+00
9.524228e+00,2.952869e+00,2.921820e+00,4,1,5.182512e+00,5.182524e+00
7.148223e+00,4.999324e+00,4.968882e+00,3,2,8.580345e+00,8.640278e+00
9.519812e+00,4.587808e+00,4.556179e+00,4,2,9.550716e+00,9.614358e+00
9.516335e+00,5.804973e+00,5.774021e+00,4,3,4.565488e+00,4.565483e+00
7.142261e+00,9.819220e-01,9.508133e-01,3,0,4.935527e+00,4.935529e+00
7.148083e+00,9.860790e-01,9.548664e-01,3,0,5.397264e+00,5.397267e+00
7.146515e+00,9.896660e-01,9.589195e-01,3,0,4.365954e+00,4.365955e+00
7.140794e+00,9.895630e-01,9.589195e-01,3,0,4.880109e+00,4.880111e+00
7.148962e+00,9.914130e-01,9.610653e-01,3,0,4.267786e+00,4.267787e+00
7.142867e+00,9.897670e-01,9.598732e-01,3,0,5.154597e+00,5.154600e+00
7.139809e+00,9.874190e-01,9.570122e-01,3,0,3.661723e+00,3.661722e+00
7.154819e+00,9.868210e-01,9.570122e-01,3,0,7.703531e+00,7.703539e+00
7.156130e+00,1.024287e+00,9.899139e-01,3,0,5.411472e+00,5.411471e+00
7.158435e+00,1.085394e+00,1.046896e+00,3,0,8.144475e+00,8.144480e+00
7.160408e+00,1.064354e+00,1.029015e+00,3,0,9.845827e+00,9.845831e+00
7.161398e+00,3.725877e+00,3.695011e+00,3,2,1.257156e+01,1.256300e+01
1.428829e+01,4.106243e+00,4.075050e+00,6,2,1.309894e+01,1.308332e+01
9.515495e+00,3.900645e+00,3.869057e+00,4,2,7.837024e+00,7.837021e+00
7.146032e+00,9.852220e-01,9.541512e-01,3,0,6.362874e+00,6.362874e+00
7.141547e+00,9.882500e-01,9.582043e-01,3,0,7.245217e+00,7.245220e+00
7.142852e+00,9.931310e-01,9.629726e-01,3,0,6.264322e+00,6.264323e+00
7.144753e+00,9.932520e-01,9.629726e-01,3,0,7.100283e+00,7.100286e+00
7.146863e+00,9.932040e-01,9.620190e-01,3,0,6.588581e+00,6.588583e+00
7.142665e+00,9.883020e-01,9.570122e-01,3,0,5.070251e+00,5.070253e+00
7.136029e+00,9.891050e-01,9.582043e-01,3,0,4.219371e+00,4.219372e+00
7.138155e+00,9.892950e-01,9.589195e-01,3,0,6.156165e+00,6.156170e+00
7.140142e+00,9.895910e-01,9.582043e-01,3,0,4.076995e+00,4.076996e+00
7.139250e+00,9.877830e-01,9.579659e-01,3,0,3.374720e+00,3.374721e+00
7.139590e+00,9.876410e-01,9.570122e-01,3,0,3.189032e+00,3.189034e+00
7.139386e+00,9.890170e-01,9.589195e-01,3,0,4.941166e+00,4.941170e+00
7.142577e+00,9.882260e-01,9.579659e-01,3,0,2.704405e+00,2.704405e+00
7.139850e+00,9.900490e-01,9.589195e-01,3,0,4.625302e+00,4.625306e+00
7.144908e+00,2.339178e+00,2.309084e+00,3,1,7.061833e+00,7.060758e+00
1.425742e+01,2.276371e+00,2.244949e+00,6,1,7.317953e+00,7.295254e+00
9.509144e+00,9.880830e-01,9.570122e-01,4,0,4.744355e+00,4.744353e+00
7.145591e+00,9.919950e-01,9.608269e-01,3,0,5.282511e+00,5.282513e+00
7.139036e+00,9.899800e-01,9.589195e-01,3,0,4.097745e+00,4.097746e+00
7.140075e+00,9.871570e-01,9.558201e-01,3,0,5.248832e+00,5.248837e+00
7.141397e+00,2.849465e+00,2.818823e+00,3,1,6.654987e+00,6.655487e+00
7.141220e+00,2.597176e+00,2.565861e+00,3,1,4.845304e+00,4.845305e+00
7.142505e+00,5.469889e+00,5.426884e+00,3,0,6.383415e+00,1.432505e+01
7.161142e+00,9.846130e-01,9.541512e-01,3,0,4.830679e+00,4.830679e+00
7.160891e+00,9.808080e-01,9.498596e-01,3,0,4.815440e+00,4.815447e+00
7.147264e+00,9.916400e-01,9.610653e-01,3,0,3.784424e+00,3.784424e+00
7.157782e+00,9.901680e-01,9.601116e-01,3,0,2.748566e+00,2.748567e+00
7.139908e+00,9.925630e-01,9.620190e-01,3,0,3.411131e+00,3.411134e+00
7.146064e+00,4.780571e+00,4.749060e+00,3,2,7.261168e+00,7.277010e+00
7.149124e+00,3.138423e+00,3.107071e+00,3,1,9.086712e+00,9.123056e+00
7.145845e+00,7.106234e+00,7.064819e+00,3,0,1.294892e+01,1.892649e+01
1.430055e+01,7.117565e+00,7.076740e+00,6,0,1.105945e+01,9.671730e+00
1.428205e+01,5.948050e+00,5.904913e+00,6,3,5.094353e+00,5.092920e+00
7.139427e+00,9.959210e-01,9.641647e-01,3,0,4.146235e+00,4.146220e+00
7.139326e+00,9.920850e-01,9.610653e-01,3,0,3.372393e+00,3.372394e+00
7.146193e+00,2.969251e+00,2.938032e+00,3,1,5.678701e+00,5.690998e+00
7.146504e+00,8.531230e+00,8.500099e+00,3,4,6.331390e+00,6.331971e+00
1.664441e+01,8.271189e+00,8.239985e+00,7,4,6.033198e+00,6.055306e+00
1.665480e+01,1.765943e+01,1.762700e+01,7,9,1.227254e+01,1.287710e+01
9.552701e+00,2.338513e+01,2.335310e+01,4,14,5.440348e+00,5.440340e+00
7.161627e+00,9.879190e-01,9.570122e-01,3,0,3.262411e+00,3.262411e+00
7.144922e+00,9.899960e-01,9.589195e-01,3,0,2.697695e+00,2.697696e+00
7.143864e+00,9.923470e-01,9.620190e-01,3,0,2.250694e+00,2.250694e+00
7.143485e+00,9.904120e-01,9.591579e-01,3,0,2.689950e+00,2.689953e+00
7.141793e+00,9.919000e-01,9.620190e-01,3,0,2.211113e+00,2.211114e+00
7.141150e+00,9.902780e-01,9.529591e-01,3,0,2.925408e+00,2.925412e+00
7.142093e+00,9.905460e-01,9.601116e-01,3,0,3.381849e+00,3.381851e+00
7.146909e+00,9.909470e-01,9.598732e-01,3,0,5.614670e+00,5.614674e+00
7.149291e+00,1.007673e+01,1.003432e+01,3,2,1.069655e+01,1.243152e+01
9.517859e+00,3.884331e+00,3.852844e+00,4,2,5.438405e+00,5.438400e+00
7.144737e+00,9.829820e-01,9.529591e-01,3,0,4.733615e+00,4.733615e+00
7.147977e+00,2.334570e+00,2.303839e+00,3,1,7.018599e+00,7.018437e+00
9.518206e+00,2.264797e+00,2.233982e+00,4,1,5.188733e+00,5.188733e+00
7.045106e+00,1.179830e+00,1.142025e+00,3,0,4.313991e+00,4.313991e+00
7.069388e+00,9.841150e-01,9.539127e-01,3,0,3.207026e+00,3.207027e+00
7.086520e+00,9.961040e-01,9.651184e-01,3,0,2.924164e+00,2.924165e+00
7.069124e+00,1.024056e+00,9.920597e-01,3,0,2.510359e+00,2.510359e+00
7.042760e+00,9.967030e-01,9.660721e-01,3,0,2.442889e+00,2.442890e+00
7.065398e+00,9.674160e-01,9.369850e-01,3,0,2.598514e+00,2.598515e+00
7.098622e+00,9.644120e-01,9.338856e-01,3,0,2.497902e+00,2.497904e+00
7.086254e+00,9.884780e-01,9.589195e-01,3,0,1.399998e+00,1.399999e+00
7.015877e+00,9.912670e-01,9.610653e-01,3,0,1.757341e+00,1.757342e+00
7.063157e+00,9.884550e-01,9.589195e-01,3,0,2.365132e+00,2.365134e+00
7.062873e+00,1.001204e+00,9.698868e-01,3,0,1.743398e+00,1.743399e+00
7.089431e+00,9.905480e-01,9.610653e-01,3,0,2.530360e+00,2.530362e+00
7.042780e+00,9.895430e-01,9.589195e-01,3,0,1.957824e+00,1.957825e+00
7.043647e+00,9.893440e-01,9.598732e-01,3,0,2.445255e+00,2.445257e+00
7.087393e+00,9.893920e-01,9.407997e-01,3,0,2.009563e+00,2.009564e+00
7.107181e+00,9.934180e-01,9.629726e-01,3,0,2.393210e+00,2.393211e+00
7.096011e+00,9.916330e-01,9.610653e-01,3,0,1.932507e+00,1.932508e+00
7.066587e+00,9.913620e-01,9.620190e-01,3,0,1.951999e+00,1.952000e+00
7.091442e+00,9.637780e-01,9.338856e-01,3,0,1.628197e+00,1.628198e+00
7.066443e+00,9.880450e-01,9.579659e-01,3,0,1.562968e+00,1.562969e+00
7.088207e+00,9.631370e-01,9.341240e-01,3,0,1.823659e+00,1.823661e+00
7.037840e+00,9.643680e-01,9.348392e-01,3,0,1.051916e+00,1.051916e+00
7.065479e+00,9.910450e-01,9.608269e-01,3,0,1.006793e+00,1.006793e+00
7.043846e+00,1.002915e+00,9.729862e-01,3,0,2.026261e+00,2.026265e+00
7.113744e+00,9.897560e-01,9.601116e-01,3,0,1.352716e+00,1.352716e+00
7.060101e+00,9.885340e-01,9.410381e-01,3,0,4.046496e+00,4.046501e+00
7.084548e+00,9.624360e-01,9.331703e-01,3,0,1.424474e+00,1.424473e+00
7.061439e+00,9.626600e-01,9.329319e-01,3,0,2.876731e+00,2.876734e+00
7.168395e+00,9.886830e-01,9.591579e-01,3,0,2.693617e+00,2.693618e+00
7.035994e+00,9.875100e-01,9.570122e-01,3,0,1.430445e+00,1.430445e+00
7.062640e+00,9.888800e-01,9.591579e-01,3,0,1.950049e+00,1.950050e+00
7.065742e+00,9.873790e-01,9.570122e-01,3,0,1.952234e+00,1.952237e+00
7.110510e+00,9.893620e-01,9.589195e-01,3,0,1.358341e+00,1.358341e+00
7.063087e+00,9.635720e-01,9.338856e-01,3,0,1.859383e+00,1.859385e+00
7.091701e+00,9.893440e-01,9.601116e-01,3,0,2.923183e+00,2.923185e+00
7.071881e+00,9.873310e-01,9.582043e-01,3,0,2.159171e+00,2.159171e+00
6.939041e+00,9.614400e-01,9.319782e-01,3,0,3.905238e+00,3.905242e+00
6.936868e+00,9.444940e-01,9.148121e-01,3,0,1.812387e+00,1.812388e+00
6.935736e+00,9.481900e-01,9.191036e-01,3,0,1.402433e+00,1.402433e+00
6.937039e+00,9.489070e-01,9.188652e-01,3,0,1.434162e+00,1.434163e+00
6.986787e+00,9.487930e-01,9.200573e-01,3,0,1.077161e+00,1.077162e+00
6.932942e+00,9.490880e-01,9.198189e-01,3,0,8.007524e-01,8.007528e-01
6.932170e+00,9.470910e-01,9.181499e-01,3,0,3.416909e+00,3.416914e+00
6.934248e+00,9.480550e-01,9.179115e-01,3,0,1.988843e+00,1.988843e+00
6.949758e+00,9.469910e-01,9.181499e-01,3,0,2.944664e+00,2.944667e+00
6.943254e+00,9.548890e-01,9.250641e-01,3,0,4.474120e+00,4.474123e+00
6.965894e+00,9.633500e-01,9.341240e-01,3,0,7.115046e+00,7.115051e+00
7.121515e+00,7.572516e+00,7.529020e+00,3,4,1.306046e+01,1.315827e+01
1.427164e+01,7.203844e+01,7.200718e+01,6,40,2.667325e+01,2.890370e+01
1.194704e+01,6.206206e+01,6.202793e+01,5,38,1.781305e+01,1.804022e+01
1.427568e+01,1.818602e+01,1.814413e+01,6,10,1.700739e+01,1.707458e+01
1.193043e+01,1.540206e+01,1.537204e+01,5,8,1.722184e+01,1.735995e+01
1.429744e+01,3.274928e+01,3.271699e+01,6,18,1.981207e+01,2.027527e+01
1.665697e+01,3.353646e+01,3.350186e+01,7,20,1.408062e+01,1.405991e+01
9.527476e+00,2.257208e+01,2.253985e+01,4,12,1.474670e+01,1.477936e+01
9.531696e+00,1.765949e+01,1.762700e+01,4,10,1.198364e+01,1.198612e+01
1.426639e+01,2.587034e+00,2.556086e+00,6,1,1.097926e+01,1.093558e+01
9.523194e+00,2.269680e+00,2.238035e+00,4,1,8.427505e+00,8.427481e+00
7.141054e+00,9.816680e-01,9.510517e-01,3,0,7.376853e+00,7.376854e+00
7.143045e+00,9.867400e-01,9.558201e-01,3,0,6.573562e+00,6.573563e+00
7.142375e+00,9.901820e-01,9.601116e-01,3,0,5.486076e+00,5.486077e+00
7.146190e+00,9.937920e-01,9.639263e-01,3,0,5.640638e+00,5.640640e+00
7.145976e+00,9.932790e-01,9.629726e-01,3,0,5.659009e+00,5.659012e+00
7.157266e+00,1.007963e+00,9.760857e-01,3,0,6.588822e+00,6.588826e+00
7.153746e+00,1.029760e+00,9.951591e-01,3,0,5.332009e+00,5.332009e+00
7.231059e+00,1.038001e+00,1.004934e+00,3,0,2.695066e+00,2.695067e+00
7.162725e+00,1.028595e+00,9.949207e-01,3,0,2.901200e+00,2.901202e+00
7.118897e+00,1.002414e+00,9.720325e-01,3,0,2.546662e+00,2.546664e+00
6.947086e+00,9.672860e-01,9.319782e-01,3,0,2.028064e+00,2.028065e+00
6.946271e+00,9.658360e-01,9.360313e-01,3,0,1.788209e+00,1.788210e+00
6.946863e+00,9.649850e-01,9.357929e-01,3,0,2.477993e+00,2.477995e+00
6.945725e+00,9.642230e-01,9.350777e-01,3,0,2.132264e+00,2.132265e+00
6.942226e+00,9.656040e-01,9.360313e-01,3,0,1.806649e+00,1.806650e+00
6.976294e+00,9.901710e-01,9.598732e-01,3,0,1.926013e+00,1.926014e+00
6.946123e+00,9.638460e-01,9.338856e-01,3,0,2.355965e+00,2.355967e+00
6.974089e+00,9.894620e-01,9.589195e-01,3,0,1.650904e+00,1.650905e+00
6.967065e+00,9.568990e-01,9.272099e-01,3,0,1.748648e+00,1.748649e+00
6.943189e+00,9.667020e-01,9.369850e-01,3,0,1.750359e+00,1.750360e+00
6.946167e+00,9.637660e-01,9.341240e-01,3,0,2.299855e+00,2.299857e+00
6.971597e+00,9.637250e-01,9.341240e-01,3,0,2.255566e+00,2.255568e+00
6.946043e+00,9.658320e-01,9.360313e-01,3,0,2.429756e+00,2.429758e+00
6.948911e+00,9.630560e-01,9.341240e-01,3,0,3.527465e+00,3.527468e+00
6.975296e+00,9.658180e-01,9.357929e-01,3,0,1.498760e+00,1.498760e+00
6.936883e+00,9.751730e-01,9.448528e-01,3,0,1.320972e+00,1.320972e+00
6.944932e+00,9.626730e-01,9.279251e-01,3,0,1.755069e+00,1.755071e+00
7.052192e+00,9.751450e-01,9.460449e-01,3,0,2.367320e+00,2.367321e+00
6.974366e+00,9.664590e-01,9.369850e-01,3,0,5.100408e+00,5.100413e+00
6.971484e+00,9.659660e-01,9.360313e-01,3,0,4.099764e+00,4.099765e+00
6.973357e+00,9.641670e-01,9.350777e-01,3,0,2.850779e+00,2.850779e+00
6.935730e+00,2.279352e+00,2.249002e+00,3,1,6.390983e+00,6.390830e+00
1.618139e+01,9.594550e-01,9.300709e-01,7,0,7.782509e+00,7.778658e+00
1.385630e+01,2.740659e+00,2.711058e+00,6,1,1.248148e+01,1.245272e+01
1.618889e+01,6.250577e+00,6.220102e+00,7,3,1.417593e+01,1.417806e+01
1.623708e+01,4.096483e+00,4.065990e+00,7,2,1.260242e+01,1.259801e+01
9.272245e+00,2.236071e+00,2.204895e+00,4,1,9.827063e+00,9.827063e+00
6.936669e+00,9.538890e-01,9.241104e-01,3,0,1.053943e+01,1.053944e+01
6.938503e+00,9.595140e-01,9.300709e-01,3,0,1.113783e+01,1.113783e+01
6.962979e+00,9.620950e-01,9.329319e-01,3,0,7.813431e+00,7.813430e+00
6.940144e+00,9.813150e-01,9.520054e-01,3,0,6.592167e+00,6.592168e+00
6.938719e+00,9.611530e-01,9.319782e-01,3,0,6.771539e+00,6.771543e+00
6.937520e+00,9.612230e-01,9.319782e-01,3,0,5.752595e+00,5.752599e+00
7.137936e+00,9.887560e-01,9.589195e-01,3,0,5.272477e+00,5.272479e+00
7.165742e+00,1.067140e+00,1.031876e+00,3,0,4.883096e+00,4.883097e+00
7.162367e+00,1.078965e+00,1.040936e+00,3,0,3.510969e+00,3.510970e+00
9.555264e+00,2.661237e+01,2.658105e+01,4,14,8.454156e+00,8.874193e+00
1.427574e+01,1.888761e+01,1.885605e+01,6,11,4.516378e+00,4.520124e+00
9.523715e+00,1.387854e+01,1.384711e+01,4,7,5.234151e+00,5.241189e+00
7.152965e+00,1.579633e+01,1.576495e+01,3,8,8.084257e+00,8.246491e+00
7.162044e+00,1.388271e+01,1.385188e+01,3,8,4.773656e+00,4.773654e+00
7.152197e+00,9.890030e-01,9.579659e-01,3,0,2.785501e+00,2.785502e+00
7.148955e+00,1.014913e+00,9.841919e-01,3,0,3.468380e+00,3.468383e+00
7.148824e+00,1.001642e+00,9.710789e-01,3,0,2.790793e+00,2.790794e+00
7.144360e+00,9.961910e-01,9.598732e-01,3,0,2.276632e+00,2.276632e+00
7.143235e+00,9.972470e-01,9.658337e-01,3,0,2.769295e+00,2.769298e+00
7.149770e+00,9.966110e-01,9.658337e-01,3,0,2.132291e+00,2.132292e+00
7.143006e+00,9.925670e-01,9.629726e-01,3,0,2.004192e+00,2.004194e+00
7.144236e+00,9.929880e-01,9.620190e-01,3,0,1.916556e+00,1.916557e+00
7.149933e+00,9.943090e-01,9.639263e-01,3,0,1.733751e+00,1.733752e+00
7.143826e+00,9.903630e-01,9.610653e-01,3,0,3.089887e+00,3.089890e+00
7.141073e+00,9.948740e-01,9.639263e-01,3,0,5.067639e+00,5.067642e+00
7.148678e+00,9.931180e-01,9.620190e-01,3,0,5.846139e+00,5.846142e+00
7.144360e+00,9.930090e-01,9.620190e-01,3,0,4.186166e+00,4.186166e+00
7.144054e+00,9.938390e-01,9.639263e-01,3,0,3.711100e+00,3.711101e+00
7.142729e+00,9.928380e-01,9.620190e-01,3,0,3.536785e+00,3.536789e+00
7.143948e+00,9.925270e-01,9.620190e-01,3,0,5.558219e+00,5.558224e+00
7.142311e+00,9.952050e-01,9.651184e-01,3,0,3.713139e+00,3.713139e+00
7.142026e+00,9.950660e-01,9.641647e-01,3,0,3.222114e+00,3.222115e+00
7.142831e+00,9.925630e-01,9.620190e-01,3,0,1.853796e+00,1.853797e+00
7.141660e+00,9.953670e-01,9.660721e-01,3,0,1.822150e+00,1.822151e+00
7.142178e+00,9.917890e-01,9.610653e-01,3,0,3.239864e+00,3.239868e+00
7.141331e+00,9.903040e-01,9.601116e-01,3,0,6.759055e+00,6.759063e+00
7.144315e+00,9.935730e-01,9.629726e-01,3,0,7.894780e+00,7.894784e+00
7.143521e+00,9.923610e-01,9.610653e-01,3,0,3.416581e+00,3.416580e+00
7.141865e+00,9.933000e-01,9.629726e-01,3,0,3.024246e+00,3.024248e+00
7.140907e+00,9.948580e-01,9.639263e-01,3,0,3.884505e+00,3.884508e+00
7.158429e+00,6.606206e+00,6.575823e+00,3,3,7.748919e+00,7.773182e+00
9.537937e+00,7.134317e+00,7.091999e+00,4,0,1.547186e+01,3.542872e+01
1.427936e+01,7.122581e+00,7.080078e+00,6,0,1.691550e+01,2.868654e+01
1.444129e+01,7.122247e+00,7.078886e+00,6,0,1.594125e+01,2.193100e+01
1.425628e+01,7.121776e+00,7.079124e+00,6,0,1.855818e+01,2.763612e+01
1.426163e+01,7.114050e+00,7.071972e+00,6,0,2.004050e+01,2.755103e+01
1.426673e+01,1.391093e+01,1.386714e+01,6,4,2.262640e+01,3.862797e+01
9.528886e+00,1.079752e+01,1.075363e+01,4,2,1.798730e+01,1.898951e+01
9.522099e+00,9.043595e+00,9.011984e+00,4,5,1.329691e+01,1.329691e+01
7.146810e+00,9.836100e-01,9.529591e-01,3,0,1.133091e+01,1.133091e+01
7.144668e+00,9.895540e-01,9.589195e-01,3,0,9.944475e+00,9.944477e+00
7.151716e+00,9.947540e-01,9.639263e-01,3,0,8.675793e+00,8.675795e+00
7.145362e+00,9.944790e-01,9.639263e-01,3,0,7.735523e+00,7.735525e+00
7.144471e+00,9.936300e-01,9.639263e-01,3,0,6.445435e+00,6.445436e+00
7.152483e+00,8.839479e+00,8.809090e+00,3,4,7.275198e+00,7.290915e+00
7.155597e+00,2.104833e+01,2.101684e+01,3,11,8.980433e+00,9.055145e+00
1.429439e+01,2.433947e+01,2.430797e+01,6,15,5.535924e+00,5.528959e+00
1.190170e+01,9.907860e-01,9.591579e-01,5,0,5.968957e+00,5.966305e+00
9.536358e+00,9.976140e-01,9.670258e-01,4,0,3.997605e+00,3.997598e+00
7.153769e+00,9.966670e-01,9.651184e-01,3,0,4.613187e+00,4.613192e+00
7.153200e+00,9.940910e-01,9.629726e-01,3,0,3.658018e+00,3.658019e+00
7.152770e+00,2.940971e+00,2.909899e+00,3,1,4.358333e+00,4.359432e+00
7.152141e+00,2.601829e+00,2.571106e+00,3,1,5.082517e+00,5.082519e+00
7.144603e+00,9.843050e-01,9.491444e-01,3,0,3.120741e+00,3.120741e+00
7.150815e+00,9.881860e-01,9.579659e-01,3,0,4.894000e+00,4.894004e+00
7.142805e+00,3.699682e+00,3.669024e+00,3,2,5.936653e+00,5.936115e+00
9.524526e+00,3.567243e+00,3.535986e+00,4,2,4.104803e+00,4.104599e+00
7.146651e+00,9.856670e-01,9.551048e-01,3,0,3.177832e+00,3.177821e+00
7.143890e+00,9.898560e-01,9.601116e-01,3,0,3.672805e+00,3.672808e+00
7.149570e+00,9.933820e-01,9.629726e-01,3,0,2.194968e+00,2.194968e+00
7.151589e+00,9.914100e-01,9.608269e-01,3,0,3.553888e+00,3.553892e+00
7.153382e+00,1.033605e+00,1.001120e+00,3,0,4.735097e+00,4.735100e+00
7.157539e+00,1.059445e+00,1.024008e+00,3,0,4.988485e+00,4.988487e+00
7.149683e+00,3.025667e+00,2.993107e+00,3,1,1.052739e+01,1.052987e+01
7.144935e+00,2.618792e+00,2.587080e+00,3,1,7.337145e+00,7.337144e+00
7.141586e+00,9.909890e-01,9.598732e-01,3,0,6.387822e+00,6.387823e+00
7.141630e+00,9.879900e-01,9.570122e-01,3,0,6.609406e+00,6.609409e+00
7.141787e+00,9.962010e-01,9.648800e-01,3,0,8.539828e+00,8.539835e+00
7.173741e+00,9.929220e-01,9.629726e-01,3,0,5.003909e+00,5.003910e+00
7.142158e+00,9.942020e-01,9.639263e-01,3,0,5.806349e+00,5.806353e+00
7.169761e+00,9.963710e-01,9.660721e-01,3,0,5.877300e+00,5.877296e+00
7.173258e+00,6.861185e+00,6.818056e+00,3,1,6.787446e+00,9.554671e+00
1.427250e+01,2.291455e+00,2.260923e+00,6,1,6.739419e+00,6.700618e+00
9.524035e+00,9.890380e-01,9.591579e-01,4,0,6.606706e+00,6.606709e+00
7.155969e+00,4.665907e+00,4.635096e+00,3,2,7.545123e+00,7.585242e+00
7.156760e+00,4.214098e+00,4.184008e+00,3,2,4.546426e+00,4.546424e+00
7.152047e+00,9.825530e-01,9.520054e-01,3,0,3.853588e+00,3.853589e+00
7.141969e+00,2.342110e+00,2.311945e+00,3,1,3.162280e+00,3.162147e+00
9.514267e+00,2.273791e+00,2.243042e+00,4,1,1.567602e+00,1.567601e+00
7.142894e+00,9.853660e-01,9.548664e-01,3,0,3.431429e+00,3.431433e+00
7.148423e+00,9.882140e-01,9.570122e-01,3,0,2.283870e+00,2.283871e+00
7.140463e+00,9.928420e-01,9.620190e-01,3,0,2.471191e+00,2.471193e+00
7.154350e+00,6.592817e+00,6.561995e+00,3,3,9.128928e+00,9.144312e+00
1.190796e+01,4.540754e+00,4.510164e+00,5,2,7.524078e+00,7.524913e+00
7.144275e+00,1.323440e+00,1.292944e+00,3,0,7.447013e+00,7.471256e+00
7.152299e+00,1.318262e+00,1.287937e+00,3,0,7.613999e+00,7.615074e+00
6.987796e+00,2.603454e+00,2.572060e+00,3,1,5.025575e+00,5.025574e+00
6.935395e+00,4.506768e+00,4.477024e+00,3,2,7.858456e+00,7.881371e+00
9.239193e+00,3.759228e+00,3.729820e+00,4,2,4.271537e+00,4.271536e+00
6.935996e+00,9.494310e-01,9.198189e-01,3,0,2.764942e+00,2.764943e+00
6.938027e+00,9.502010e-01,9.210110e-01,3,0,2.743492e+00,2.743493e+00
6.936588e+00,9.528380e-01,9.229183e-01,3,0,2.743325e+00,2.743326e+00
6.934813e+00,9.435030e-01,9.148121e-01,3,0,4.083251e+00,4.083256e+00
6.937335e+00,9.525330e-01,9.238720e-01,3,0,3.518021e+00,3.518022e+00
6.959793e+00,9.505660e-01,9.210110e-01,3,0,7.664924e+00,7.664931e+00
6.964111e+00,9.577580e-01,9.279251e-01,3,0,6.147580e+00,6.147579e+00
7.008814e+00,1.035396e+00,1.001120e+00,3,0,6.253224e+00,6.253226e+00
7.100986e+00,1.011642e+00,9.779930e-01,3,0,5.904383e+00,5.904384e+00
9.529356e+00,7.883122e+00,7.851839e+00,4,4,1.321400e+01,1.322291e+01
1.430203e+01,6.766017e+00,6.735086e+00,6,4,6.250422e+00,6.248261e+00
7.142267e+00,9.895350e-01,9.589195e-01,3,0,6.900078e+00,6.900078e+00
7.153319e+00,9.924340e-01,9.620190e-01,3,0,7.363142e+00,7.363147e+00
7.148551e+00,5.495430e+00,5.452871e+00,3,0,8.771724e+00,1.097798e+01
7.150456e+00,9.890470e-01,9.579659e-01,3,0,5.095283e+00,5.095282e+00
7.143350e+00,9.894710e-01,9.589195e-01,3,0,3.347052e+00,3.347052e+00
7.144494e+00,9.929930e-01,9.629726e-01,3,0,2.627975e+00,2.627976e+00
7.145631e+00,9.933630e-01,9.629726e-01,3,0,2.904006e+00,2.904009e+00
7.143991e+00,9.948600e-01,9.639263e-01,3,0,4.366019e+00,4.366023e+00
7.145652e+00,9.951990e-01,9.651184e-01,3,0,5.045986e+00,5.045989e+00
7.142996e+00,9.917510e-01,9.620190e-01,3,0,5.710466e+00,5.710469e+00
7.141620e+00,9.919360e-01,9.620190e-01,3,0,4.028887e+00,4.028887e+00
7.149598e+00,1.036024e+01,1.031899e+01,3,2,1.106270e+01,1.523259e+01
9.516950e+00,4.225914e+00,4.195213e+00,4,2,7.415992e+00,7.415988e+00
7.142974e+00,9.849450e-01,9.539127e-01,3,0,6.168130e+00,6.168131e+00
7.143943e+00,9.896470e-01,9.589195e-01,3,0,4.026696e+00,4.026697e+00
7.144657e+00,9.923490e-01,9.610653e-01,3,0,3.794882e+00,3.794884e+00
7.146007e+00,2.962188e+00,2.931118e+00,3,1,5.286206e+00,5.286209e+00
7.158079e+00,8.552266e+00,8.522034e+00,3,4,8.909445e+00,8.934290e+00
7.164548e+00,9.356521e+00,9.325981e+00,3,5,7.609057e+00,7.608504e+00
1.429029e+01,3.240447e+01,3.237295e+01,6,17,1.338716e+01,1.365216e+01
1.427553e+01,2.550800e+01,2.547407e+01,6,15,9.691369e+00,9.676562e+00
1.429930e+01,1.612517e+01,1.609182e+01,6,8,1.368583e+01,1.384348e+01
1.428615e+01,1.900082e+01,1.895785e+01,6,10,1.628135e+01,1.642028e+01
9.530082e+00,2.345891e+01,2.342105e+01,4,14,8.143272e+00,8.143259e+00
7.148255e+00,9.912630e-01,9.591579e-01,3,0,6.749246e+00,6.749246e+00
7.148744e+00,9.914220e-01,9.601116e-01,3,0,5.183112e+00,5.183112e+00
7.147473e+00,9.938920e-01,9.629726e-01,3,0,5.025748e+00,5.025750e+00
7.144121e+00,9.966820e-01,9.660721e-01,3,0,4.579957e+00,4.579958e+00
7.145646e+00,9.943460e-01,9.629726e-01,3,0,3.635023e+00,3.635025e+00
7.144288e+00,9.926550e-01,9.629726e-01,3,0,5.579182e+00,5.579188e+00
7.170771e+00,9.926620e-01,9.620190e-01,3,0,3.408229e+00,3.408229e+00
7.165114e+00,9.945030e-01,9.639263e-01,3,0,5.912568e+00,5.912574e+00
7.150343e+00,9.969270e-01,9.589195e-01,3,0,8.297083e+00,8.297089e+00
7.148991e+00,9.932350e-01,9.629726e-01,3,0,3.277070e+00,3.277069e+00
7.149199e+00,9.926670e-01,9.629726e-01,3,0,3.486790e+00,3.486792e+00
7.149781e+00,9.938620e-01,9.641647e-01,3,0,3.165518e+00,3.165519e+00
7.143857e+00,9.943130e-01,9.639263e-01,3,0,4.110258e+00,4.110261e+00
7.148354e+00,9.940940e-01,9.641647e-01,3,0,5.348868e+00,5.348871e+00
7.145618e+00,9.931740e-01,9.632111e-01,3,0,6.052912e+00,6.052914e+00
7.145563e+00,9.922200e-01,9.620190e-01,3,0,5.569486e+00,5.569488e+00
7.150688e+00,9.945600e-01,9.651184e-01,3,0,7.712793e+00,7.712800e+00
7.160480e+00,4.747740e+00,4.718065e+00,3,2,1.071846e+01,1.073583e+01
7.163574e+00,6.480855e+00,6.448984e+00,3,3,7.989962e+00,7.990627e+00
7.154228e+00,2.598577e+00,2.567768e+00,3,1,8.165123e+00,8.165127e+00
7.154845e+00,9.829620e-01,9.531975e-01,3,0,8.653824e+00,8.653827e+00
7.157965e+00,9.895870e-01,9.589195e-01,3,0,7.497827e+00,7.497829e+00
7.154613e+00,9.914730e-01,9.601116e-01,3,0,6.489774e+00,6.489777e+00
7.144203e+00,9.935550e-01,9.629726e-01,3,0,5.318613e+00,5.318614e+00
7.156194e+00,4.771187e+00,4.740000e+00,3,2,7.751571e+00,7.754709e+00
7.157842e+00,1.448457e+01,1.444006e+01,3,4,9.795912e+00,1.789972e+01
1.199087e+01,1.519455e+01,1.515126e+01,5,5,7.843300e+00,8.309604e+00
1.188236e+01,6.992784e+00,6.961107e+00,5,4,7.262483e+00,7.235572e+00
1.190583e+01,2.274453e+00,2.243042e+00,5,1,7.455733e+00,7.414944e+00
1.430815e+01,2.329920e+00,2.299070e+00,6,1,8.497414e+00,8.481787e+00
1.425813e+01,2.273370e+00,2.242088e+00,6,1,8.146398e+00,8.122490e+00
1.664778e+01,3.618700e+00,3.587008e+00,7,2,7.262725e+00,7.261714e+00
9.519952e+00,3.558864e+00,3.527880e+00,4,2,5.537825e+00,5.537825e+00
7.148363e+00,9.807260e-01,9.498596e-01,3,0,3.887848e+00,3.887849e+00
7.139994e+00,9.812790e-01,9.510517e-01,3,0,3.669782e+00,3.669783e+00
7.143146e+00,9.892210e-01,9.589195e-01,3,0,5.898908e+00,5.898914e+00
7.146251e+00,9.917860e-01,9.610653e-01,3,0,9.538950e+00,9.538958e+00
7.142295e+00,9.905240e-01,9.598732e-01,3,0,8.299214e+00,8.299215e+00
7.142303e+00,9.918660e-01,9.610653e-01,3,0,4.880616e+00,4.880614e+00
7.150044e+00,9.912610e-01,9.610653e-01,3,0,6.588907e+00,6.588911e+00
7.140366e+00,9.914470e-01,9.610653e-01,3,0,3.391799e+00,3.391798e+00
7.140291e+00,9.940290e-01,9.639263e-01,3,0,3.343394e+00,3.343395e+00
7.146039e+00,9.942520e-01,9.639263e-01,3,0,2.545613e+00,2.545614e+00
7.140717e+00,9.941310e-01,9.639263e-01,3,0,2.752646e+00,2.752647e+00
7.143626e+00,9.909660e-01,9.601116e-01,3,0,3.955209e+00,3.955213e+00
7.152155e+00,6.586112e+00,6.555796e+00,3,3,6.864984e+00,6.880360e+00
1.426388e+01,4.206582e+00,4.174948e+00,6,2,5.915277e+00,5.905089e+00
9.523384e+00,4.248549e+00,4.217863e+00,4,2,5.936069e+00,5.936165e+00
7.147584e+00,2.597760e+00,2.566099e+00,3,1,4.183384e+00,4.183384e+00
7.144042e+00,9.821680e-01,9.510517e-01,3,0,4.837599e+00,4.837601e+00
7.157489e+00,9.883880e-01,9.579659e-01,3,0,5.909968e+00,5.909970e+00
7.164777e+00,2.347185e+00,2.315998e+00,3,1,5.851226e+00,5.850970e+00
9.529258e+00,2.287063e+00,2.255917e+00,4,1,5.694182e+00,5.694184e+00
7.151421e+00,9.895040e-01,9.591579e-01,3,0,7.527918e+00,7.527922e+00
7.151398e+00,6.574838e+00,6.544113e+00,3,3,1.059317e+01,1.059467e+01
1.428318e+01,7.756244e+00,7.726192e+00,6,4,1.033356e+01,1.033292e+01
7.144675e+00,2.597924e+00,2.567053e+00,3,1,8.745546e+00,8.745484e+00
7.143295e+00,9.969760e-01,9.660721e-01,3,0,6.585243e+00,6.585240e+00
7.140940e+00,9.855200e-01,9.548664e-01,3,0,7.803288e+00,7.803292e+00
7.139021e+00,9.886550e-01,9.579659e-01,3,0,5.000273e+00,5.000273e+00
7.139326e+00,9.916170e-01,9.610653e-01,3,0,4.358107e+00,4.358108e+00
7.139488e+00,9.911660e-01,9.610653e-01,3,0,6.138489e+00,6.138495e+00
7.137743e+00,9.910100e-01,9.601116e-01,3,0,4.878499e+00,4.878500e+00
7.140116e+00,9.907670e-01,9.598732e-01,3,0,2.876299e+00,2.876299e+00
7.139771e+00,9.926150e-01,9.620190e-01,3,0,2.546884e+00,2.546885e+00
7.142886e+00,9.924990e-01,9.629726e-01,3,0,2.583262e+00,2.583263e+00
7.141119e+00,9.923350e-01,9.620190e-01,3,0,3.685778e+00,3.685781e+00
7.141145e+00,9.918700e-01,9.610653e-01,3,0,3.223709e+00,3.223710e+00
7.142125e+00,1.000513e+00,9.639263e-01,3,0,2.996320e+00,2.996321e+00
7.142265e+00,1.007862e+00,9.770393e-01,3,0,2.241465e+00,2.241465e+00
7.161891e+00,1.001346e+00,9.717941e-01,3,0,1.938302e+00,1.938303e+00
7.157461e+00,1.079817e+00,1.042128e+00,3,0,2.208370e+00,2.208371e+00
7.144367e+00,1.068852e+00,1.032114e+00,3,0,1.644470e+00,1.644471e+00
7.139062e+00,1.011267e+00,9.739399e-01,3,0,2.695462e+00,2.695464e+00
7.141144e+00,1.001562e+00,9.708405e-01,3,0,1.911848e+00,1.911849e+00
7.148096e+00,9.987160e-01,9.689331e-01,3,0,2.884903e+00,2.884906e+00
7.139800e+00,9.969780e-01,9.658337e-01,3,0,4.452728e+00,4.452732e+00
7.139020e+00,9.969590e-01,9.658337e-01,3,0,7.694105e+00,7.694111e+00
7.165480e+00,1.574816e+01,1.571798e+01,3,8,9.775389e+00,9.863315e+00
7.150252e+00,7.447249e+00,7.416010e+00,3,4,4.368174e+00,4.368171e+00
7.142460e+00,9.894590e-01,9.589195e-01,3,0,4.882744e+00,4.882746e+00
7.306561e+00,9.838530e-01,9.541512e-01,3,0,6.706114e+00,6.706118e+00
7.141336e+00,1.004219e+00,9.729862e-01,3,0,4.951247e+00,4.951248e+00
7.144756e+00,9.945430e-01,9.639263e-01,3,0,3.811250e+00,3.811251e+00
7.143394e+00,9.943550e-01,9.639263e-01,3,0,3.607298e+00,3.607300e+00
7.140379e+00,9.945270e-01,9.639263e-01,3,0,2.643779e+00,2.643780e+00
7.137349e+00,9.930730e-01,9.629726e-01,3,0,4.146559e+00,4.146550e+00
7.138390e+00,9.953770e-01,9.639263e-01,3,0,3.431436e+00,3.431406e+00
7.140228e+00,9.942390e-01,9.641647e-01,3,0,4.216108e+00,4.216110e+00
7.138300e+00,9.937330e-01,9.629726e-01,3,0,3.204946e+00,3.204946e+00
7.139255e+00,9.923430e-01,9.620190e-01,3,0,5.403794e+00,5.403798e+00
7.149492e+00,6.866273e+00,6.834984e+00,3,3,8.263529e+00,8.268278e+00
7.156251e+00,5.846814e+00,5.815983e+00,3,3,4.928897e+00,4.928894e+00
7.146075e+00,9.854980e-01,9.539127e-01,3,0,4.883180e+00,4.883182e+00
7.142920e+00,9.882200e-01,9.579659e-01,3,0,4.656105e+00,4.656109e+00
7.152483e+00,9.946680e-01,9.648800e-01,3,0,4.020281e+00,4.020281e+00
7.145662e+00,9.919480e-01,9.610653e-01,3,0,3.831483e+00,3.831484e+00
7.147758e+00,9.915210e-01,9.610653e-01,3,0,3.617831e+00,3.617836e+00
7.146927e+00,4.792814e+00,4.762888e+00,3,2,6.015318e+00,6.031692e+00
7.145547e+00,5.584001e+00,5.553007e+00,3,3,5.102113e+00,5.101893e+00
9.517622e+00,2.284422e+00,2.254009e+00,4,1,5.222697e+00,5.222701e+00
7.142036e+00,9.844370e-01,9.541512e-01,3,0,2.596554e+00,2.596553e+00
7.142803e+00,9.907270e-01,9.598732e-01,3,0,1.852015e+00,1.852015e+00
7.166886e+00,9.931230e-01,9.620190e-01,3,0,2.211240e+00,2.211241e+00
7.156470e+00,9.987500e-01,9.679794e-01,3,0,2.661508e+00,2.661510e+00
7.145298e+00,9.959330e-01,9.660721e-01,3,0,2.591587e+00,2.591588e+00
7.157751e+00,1.034453e+00,1.002073e+00,3,0,3.376644e+00,3.376646e+00
7.148203e+00,1.037198e+00,1.005888e+00,3,0,3.561400e+00,3.561401e+00
7.145638e+00,1.029265e+00,9.968281e-01,3,0,2.979223e+00,2.979224e+00
7.146142e+00,1.021014e+00,9.901524e-01,3,0,3.216080e+00,3.216082e+00
7.142137e+00,1.000713e+00,9.701252e-01,3,0,3.227349e+00,3.227352e+00
7.142936e+00,9.931190e-01,9.629726e-01,3,0,2.060847e+00,2.060850e+00
7.140012e+00,9.933240e-01,9.629726e-01,3,0,3.132141e+00,3.132146e+00
7.138161e+00,9.961300e-01,9.658337e-01,3,0,2.376699e+00,2.376700e+00
7.146270e+00,5.497193e+00,5.455256e+00,3,0,8.318743e+00,1.286667e+01
1.663225e+01,5.476583e+00,5.435944e+00,7,0,1.141068e+01,2.764821e+01
1.189157e+01,5.503932e+00,5.462170e+00,5,0,9.725051e+00,1.666839e+01
1.425706e+01,5.477892e+00,5.435944e+00,6,0,1.263281e+01,2.736261e+01
1.664073e+01,5.475888e+00,5.434036e+00,7,0,1.391398e+01,3.476745e+01
9.514118e+00,9.856770e-01,9.539127e-01,4,0,6.978329e+00,6.978320e+00
7.147070e+00,9.975850e-01,9.658337e-01,3,0,5.715466e+00,5.715467e+00
7.150238e+00,9.938590e-01,9.632111e-01,3,0,4.938744e+00,4.938746e+00
7.147220e+00,2.958571e+00,2.928019e+00,3,1,6.705408e+00,6.705926e+00
7.149483e+00,1.792655e+01,1.789498e+01,3,9,7.904176e+00,8.032717e+00
1.428422e+01,1.742486e+01,1.739383e+01,6,10,4.780272e+00,4.778086e+00
9.526628e+00,3.709499e+00,3.678083e+00,4,2,4.198728e+00,4.198407e+00
1.188263e+01,2.272985e+00,2.242088e+00,5,1,4.670231e+00,4.648828e+00
1.188360e+01,2.271164e+00,2.239943e+00,5,1,2.804216e+00,2.803865e+00
7.146653e+00,9.929330e-01,9.620190e-01,3,0,3.277001e+00,3.276923e+00
7.148107e+00,9.887660e-01,9.579659e-01,3,0,4.639254e+00,4.639259e+00
7.143856e+00,9.936910e-01,9.632111e-01,3,0,4.473411e+00,4.473413e+00
7.147840e+00,9.926380e-01,9.620190e-01,3,0,4.436275e+00,4.436278e+00
7.171472e+00,1.980216e+01,1.977086e+01,3,10,9.584523e+00,9.835915e+00
7.174698e+00,1.316375e+01,1.312399e+01,3,7,9.431142e+00,9.502891e+00
1.428365e+01,1.692270e+01,1.688600e+01,6,9,9.885002e+00,9.962052e+00
9.529197e+00,1.675785e+01,1.672602e+01,4,9,1.054227e+01,1.054686e+01
9.515609e+00,9.036996e+00,9.005070e+00,4,5,7.593962e+00,7.593962e+00
7.144794e+00,9.863420e-01,9.560585e-01,3,0,5.939906e+00,5.939906e+00
7.142498e+00,9.919770e-01,9.610653e-01,3,0,4.514332e+00,4.514333e+00
7.163519e+00,9.926560e-01,9.620190e-01,3,0,4.035341e+00,4.035343e+00
7.154431e+00,9.975660e-01,9.670258e-01,3,0,4.163429e+00,4.163432e+00
7.149386e+00,9.979200e-01,9.620190e-01,3,0,3.599910e+00,3.599911e+00
7.146447e+00,1.008884e+00,9.779930e-01,3,0,3.557356e+00,3.557358e+00
7.148782e+00,9.933670e-01,9.629726e-01,3,0,3.794506e+00,3.794508e+00
7.143844e+00,2.342155e+00,2.311945e+00,3,1,5.725509e+00,5.724700e+00
1.426213e+01,5.483383e+00,5.443096e+00,6,0,6.275329e+00,9.275673e+00
1.425957e+01,5.471557e+00,5.428791e+00,6,0,1.034316e+01,2.905802e+01
1.427708e+01,5.466083e+00,5.424023e+00,6,0,1.443289e+01,4.411239e+01
1.426236e+01,5.468191e+00,5.425692e+00,6,0,1.589382e+01,4.392580e+01
1.663887e+01,5.468949e+00,5.426407e+00,7,0,1.489253e+01,3.547699e+01
1.427572e+01,1.004336e+01,1.000166e+01,6,2,1.139098e+01,1.363276e+01
7.146890e+00,4.821537e+00,4.790068e+00,3,2,1.002263e+01,1.007613e+01
7.152625e+00,1.477958e+01,1.473689e+01,3,4,1.308500e+01,1.393995e+01
7.148616e+00,8.112689e+00,8.082151e+00,3,4,1.438673e+01,1.453315e+01
9.526869e+00,1.189843e+01,1.186800e+01,4,7,8.092975e+00,8.092973e+00
7.169310e+00,9.857190e-01,9.548664e-01,3,0,5.996375e+00,5.996376e+00
7.155103e+00,9.940300e-01,9.629726e-01,3,0,5.875557e+00,5.875559e+00
7.158555e+00,9.956410e-01,9.648800e-01,3,0,4.556699e+00,4.556699e+00
7.145237e+00,1.004721e+00,9.729862e-01,3,0,4.549380e+00,4.549382e+00
7.148310e+00,4.630947e+00,4.600048e+00,3,2,4.602613e+00,4.623534e+00
1.444040e+01,2.592495e+00,2.561092e+00,6,1,4.400254e+00,4.384864e+00
9.521346e+00,2.286958e+00,2.254963e+00,4,1,4.447654e+00,4.447656e+00
7.153065e+00,9.837530e-01,9.529591e-01,3,0,2.503151e+00,2.503151e+00
7.140091e+00,9.914130e-01,9.610653e-01,3,0,2.047071e+00,2.047072e+00

