2.332878e+00,2.167755e+00,2,2,0.000000e+00,0.000000e+00
3.494929e+00,3.206375e+00,3,3,7.551209e-02,7.551208e-02
3.502219e+00,3.206187e+00,3,3,1.395621e-01,1.395620e-01
3.494601e+00,3.202551e+00,3,3,2.946823e-01,2.946821e-01
3.490520e+00,3.205845e+00,3,3,2.716495e-01,2.716495e-01
3.490149e+00,3.202513e+00,3,3,1.276167e+00,1.276166e+00
3.500835e+00,3.201735e+00,3,3,1.779663e+00,1.779663e+00
3.494671e+00,3.206501e+00,3,3,2.335722e+00,2.335722e+00
3.495460e+00,3.203124e+00,3,3,1.148687e+00,1.148687e+00
3.496803e+00,3.203209e+00,3,3,1.018461e+00,1.018461e+00
3.495945e+00,3.207241e+00,3,3,8.424528e-01,8.424527e-01
3.492993e+00,3.209341e+00,3,3,9.746404e-01,9.746402e-01
3.491790e+00,3.209840e+00,3,3,1.616753e+00,1.616753e+00
3.496323e+00,3.209791e+00,3,3,2.206613e+00,2.206613e+00
3.497561e+00,3.207503e+00,3,3,2.022702e+00,2.022702e+00
3.495520e+00,3.207445e+00,3,3,2.825381e+00,2.825380e+00
3.503380e+00,3.213739e+00,3,3,2.206349e+00,2.206349e+00
3.499678e+00,3.212184e+00,3,3,1.931090e+00,1.931090e+00
3.494229e+00,3.216328e+00,3,3,1.844838e+00,1.844838e+00
3.497422e+00,3.207865e+00,3,3,1.758303e+00,1.758302e+00
3.500731e+00,3.208424e+00,3,3,1.840510e+00,1.840510e+00
3.496393e+00,3.208727e+00,3,3,1.533956e+00,1.533956e+00
3.496365e+00,3.209678e+00,3,3,1.381534e+00,1.381534e+00
3.491855e+00,3.206866e+00,3,3,1.204581e+00,1.204581e+00
3.499945e+00,3.210269e+00,3,3,1.188903e+00,1.188903e+00
3.500399e+00,3.209243e+00,3,3,1.149710e+00,1.149710e+00
3.494113e+00,3.209803e+00,3,3,9.518776e-01,9.518776e-01
3.495053e+00,3.208105e+00,3,3,6.794439e-01,6.794439e-01
3.496928e+00,3.206507e+00,3,3,3.431008e-01,3.431007e-01
3.490825e+00,3.209837e+00,3,3,2.960831e-01,2.960830e-01
3.490650e+00,3.209687e+00,3,3,5.896102e-01,5.896101e-01
3.501699e+00,3.206459e+00,3,3,6.941784e-01,6.941782e-01
3.498170e+00,3.207024e+00,3,3,5.984793e-01,5.984792e-01
3.494677e+00,3.209389e+00,3,3,9.215445e-01,9.215441e-01
3.491109e+00,3.207410e+00,3,3,7.538888e-01,7.538888e-01
3.499036e+00,3.210081e+00,3,3,5.559930e-01,5.559931e-01
3.496352e+00,3.211346e+00,3,3,4.066880e-01,4.066879e-01
3.492094e+00,3.207509e+00,3,3,3.376784e-01,3.376783e-01
3.493308e+00,3.207953e+00,3,3,8.606975e-01,8.606973e-01
3.498151e+00,3.206965e+00,3,3,9.504782e-01,9.504782e-01
3.494186e+00,3.211045e+00,3,3,2.139477e+00,2.139476e+00
3.496194e+00,3.205331e+00,3,3,2.927873e+00,2.927873e+00
3.498885e+00,3.210379e+00,3,3,1.852340e+00,1.852340e+00
3.497974e+00,3.208162e+00,3,3,2.797935e+00,2.797934e+00
3.497155e+00,3.210594e+00,3,3,2.235884e+00,2.235884e+00
3.495760e+00,3.206892e+00,3,3,1.808748e+00,1.808748e+00
3.498733e+00,3.212042e+00,3,3,1.619818e+00,1.619818e+00
3.496005e+00,3.208616e+00,3,3,1.344299e+00,1.344299e+00
3.495438e+00,3.207161e+00,3,3,1.080027e+00,1.080027e+00
3.499486e+00,3.206639e+00,3,3,6.876476e-01,6.876477e-01
3.499678e+00,3.211989e+00,3,3,6.177119e-01,6.177118e-01
3.493489e+00,3.211501e+00,3,3,9.829236e-01,9.829233e-01
3.494329e+00,3.216750e+00,3,3,7.168843e-01,7.168843e-01
3.495288e+00,3.208531e+00,3,3,6.110373e-01,6.110373e-01
3.497175e+00,3.207458e+00,3,3,8.078102e-01,8.078100e-01
3.490696e+00,3.211018e+00,3,3,1.109397e+00,1.109397e+00
3.492962e+00,3.209943e+00,3,3,5.988308e-01,5.988309e-01
3.500670e+00,3.213106e+00,3,3,9.244299e-01,9.244297e-01
3.492773e+00,3.205235e+00,3,3,1.306200e+00,1.306199e+00
3.493176e+00,3.208233e+00,3,3,1.969784e+00,1.969783e+00
3.499930e+00,3.208190e+00,3,3,8.942516e-01,8.942515e-01
3.498607e+00,3.210384e+00,3,3,1.939671e+00,1.939670e+00
3.496262e+00,3.222175e+00,3,3,3.653225e+00,3.653223e+00
3.497972e+00,3.207083e+00,3,3,1.983769e+00,1.983769e+00
3.496896e+00,3.207676e+00,3,3,2.724662e+00,2.724662e+00
3.502004e+00,3.206247e+00,3,3,1.182477e+00,1.182477e+00
3.493376e+00,3.213895e+00,3,3,1.263766e+00,1.263765e+00
3.494785e+00,3.208441e+00,3,3,9.845565e-01,9.845564e-01
3.499732e+00,3.211973e+00,3,3,7.762216e-01,7.762215e-01
3.496826e+00,3.208897e+00,3,3,5.908722e-01,5.908721e-01
3.491088e+00,3.208064e+00,3,3,8.816919e-01,8.816918e-01
3.495948e+00,3.206313e+00,3,3,9.003219e-01,9.003219e-01
3.497670e+00,3.210231e+00,3,3,9.129588e-01,9.129587e-01
3.498052e+00,3.215159e+00,3,3,1.029772e+00,1.029771e+00
3.496382e+00,3.207126e+00,3,3,1.502112e+00,1.502111e+00
3.503482e+00,3.210132e+00,3,3,2.017964e+00,2.017964e+00
3.497024e+00,3.204731e+00,3,3,1.214733e+00,1.214733e+00
3.494972e+00,3.209057e+00,3,3,1.209876e+00,1.209876e+00
3.491695e+00,3.202029e+00,3,3,8.937063e-01,8.937063e-01
3.497896e+00,3.205955e+00,3,3,4.433705e-01,4.433706e-01
3.493048e+00,3.208907e+00,3,3,1.527409e+00,1.527409e+00
3.495106e+00,3.204651e+00,3,3,1.130290e+00,1.130290e+00
3.498663e+00,3.200076e+00,3,3,1.011827e+00,1.011827e+00
3.494264e+00,3.202249e+00,3,3,9.740377e-01,9.740376e-01
3.492604e+00,3.207390e+00,3,3,1.400945e+00,1.400944e+00
3.493139e+00,3.203142e+00,3,3,2.512778e+00,2.512777e+00
3.497994e+00,3.210144e+00,3,3,3.760617e+00,3.760616e+00
3.499196e+00,3.203330e+00,3,3,5.483424e+00,5.483423e+00
3.496130e+00,3.202073e+00,3,3,4.458069e+00,4.458070e+00
3.497110e+00,3.202815e+00,3,3,3.182345e+00,3.182346e+00
3.498492e+00,3.202861e+00,3,3,2.454093e+00,2.454093e+00
3.494730e+00,3.202545e+00,3,3,1.719397e+00,1.719397e+00
3.496117e+00,3.202364e+00,3,3,2.433287e+00,2.433286e+00
3.498135e+00,3.203934e+00,3,3,1.807900e+00,1.807901e+00
3.497910e+00,3.203767e+00,3,3,2.327531e+00,2.327532e+00
3.495328e+00,3.205707e+00,3,3,2.510070e+00,2.510071e+00
3.495451e+00,3.203504e+00,3,3,1.084532e+00,1.084533e+00
3.497939e+00,3.199947e+00,3,3,9.374207e-01,9.374207e-01
3.493922e+00,3.205821e+00,3,3,1.319559e+00,1.319558e+00
3.494765e+00,3.202516e+00,3,3,1.415890e+00,1.415889e+00
3.497601e+00,3.211002e+00,3,3,1.066766e+00,1.066766e+00
3.496012e+00,3.202470e+00,3,3,1.238102e+00,1.238101e+00
3.491892e+00,3.206047e+00,3,3,7.214970e-01,7.214970e-01
3.490686e+00,3.201548e+00,3,3,6.568649e-01,6.568648e-01
3.498198e+00,3.206090e+00,3,3,5.438514e-01,5.438514e-01
3.497235e+00,3.199989e+00,3,3,5.784202e-01,5.784201e-01
3.492526e+00,3.203286e+00,3,3,8.078968e-01,8.078966e-01
3.495622e+00,3.203930e+00,3,3,8.817768e-01,8.817767e-01
3.495812e+00,3.200732e+00,3,3,5.667879e-01,5.667880e-01
3.489759e+00,3.207694e+00,3,3,5.720606e-01,5.720605e-01
3.490895e+00,3.201550e+00,3,3,5.279835e-01,5.279835e-01
3.497276e+00,3.200730e+00,3,3,4.518010e-01,4.518008e-01
3.494918e+00,3.201216e+00,3,3,3.135725e-01,3.135725e-01
3.490914e+00,3.201409e+00,3,3,5.541243e-01,5.541240e-01
3.495766e+00,3.202898e+00,3,3,2.932878e-01,2.932878e-01
3.491313e+00,3.201510e+00,3,3,3.389798e-01,3.389797e-01
3.490051e+00,3.204344e+00,3,3,8.799552e-01,8.799548e-01
3.492973e+00,3.202901e+00,3,3,6.417448e-01,6.417448e-01
3.496010e+00,3.201940e+00,3,3,2.071143e+00,2.071143e+00
3.496606e+00,3.202604e+00,3,3,1.435506e+00,1.435506e+00
3.495858e+00,3.203480e+00,3,3,1.390175e+00,1.390175e+00
3.499016e+00,3.203463e+00,3,3,1.731344e+00,1.731344e+00
3.497722e+00,3.202231e+00,3,3,1.563279e+00,1.563279e+00
3.493648e+00,3.206160e+00,3,3,1.722313e+00,1.722313e+00
3.493523e+00,3.202576e+00,3,3,3.041310e+00,3.041309e+00
3.499359e+00,3.201599e+00,3,3,1.973577e+00,1.973578e+00
3.499293e+00,3.200689e+00,3,3,1.500037e+00,1.500037e+00
3.494311e+00,3.203910e+00,3,3,1.307087e+00,1.307087e+00
3.493107e+00,3.200960e+00,3,3,7.837207e-01,7.837203e-01
3.499309e+00,3.203919e+00,3,3,8.577162e-01,8.577159e-01
3.493528e+00,3.205780e+00,3,3,5.381583e-01,5.381582e-01
3.491008e+00,3.202168e+00,3,3,7.102339e-01,7.102337e-01
3.496088e+00,3.201918e+00,3,3,3.163725e-01,3.163725e-01
3.495473e+00,3.202239e+00,3,3,2.572584e-01,2.572584e-01
3.490940e+00,3.214926e+00,3,3,2.640276e-01,2.640276e-01
3.491795e+00,3.203681e+00,3,3,5.737759e-01,5.737756e-01
3.495687e+00,3.204807e+00,3,3,5.918175e-01,5.918174e-01
3.491167e+00,3.202264e+00,3,3,5.015503e-01,5.015503e-01
3.493492e+00,3.201129e+00,3,3,5.462994e-01,5.462994e-01
3.494201e+00,3.202554e+00,3,3,4.626902e-01,4.626902e-01
3.492487e+00,3.204095e+00,3,3,8.631047e-01,8.631044e-01
3.491098e+00,3.208876e+00,3,3,1.472360e+00,1.472359e+00
3.494161e+00,3.202789e+00,3,3,1.662220e+00,1.662220e+00
3.496843e+00,3.203304e+00,3,3,1.301747e+00,1.301747e+00
3.494801e+00,3.203034e+00,3,3,1.159393e+00,1.159393e+00
3.493122e+00,3.202248e+00,3,3,1.072057e+00,1.072057e+00
3.493598e+00,3.202064e+00,3,3,7.684550e-01,7.684553e-01
3.495079e+00,3.203252e+00,3,3,6.784226e-01,6.784220e-01
3.491710e+00,3.216307e+00,3,3,1.196365e+00,1.196364e+00
3.499508e+00,3.201304e+00,3,3,1.709870e+00,1.709870e+00
3.498814e+00,3.203547e+00,3,3,1.043961e+00,1.043961e+00
3.498958e+00,3.203972e+00,3,3,9.875633e-01,9.875632e-01
3.495086e+00,3.205551e+00,3,3,8.865501e-01,8.865500e-01
3.490158e+00,3.200748e+00,3,3,8.128659e-01,8.128658e-01
3.495903e+00,3.201036e+00,3,3,6.697431e-01,6.697430e-01
3.490110e+00,3.204699e+00,3,3,7.530458e-01,7.530456e-01
3.491740e+00,3.199680e+00,3,3,1.230954e+00,1.230953e+00
3.495330e+00,3.201966e+00,3,3,1.183055e+00,1.183055e+00
3.496145e+00,3.200721e+00,3,3,1.252972e+00,1.252972e+00
3.490926e+00,3.206308e+00,3,3,1.423246e+00,1.423246e+00
3.494442e+00,3.207153e+00,3,3,6.507800e-01,6.507800e-01
3.496385e+00,3.209752e+00,3,3,5.206114e-01,5.206114e-01
3.491597e+00,3.211756e+00,3,3,5.456169e-01,5.456168e-01
3.496834e+00,3.207597e+00,3,3,2.479467e-01,2.479466e-01
3.496089e+00,3.206948e+00,3,3,2.496599e-01,2.496599e-01
3.496178e+00,3.206078e+00,3,3,4.269946e-01,4.269945e-01
3.493072e+00,3.212256e+00,3,3,3.637096e-01,3.637096e-01
3.494222e+00,3.207782e+00,3,3,9.785977e-01,9.785972e-01
3.500359e+00,3.205310e+00,3,3,7.268657e-01,7.268656e-01
3.493470e+00,3.205311e+00,3,3,5.136780e-01,5.136780e-01
3.491305e+00,3.208495e+00,3,3,4.576685e-01,4.576684e-01
3.492331e+00,3.206870e+00,3,3,4.659262e-01,4.659261e-01
3.493776e+00,3.207110e+00,3,3,4.789425e-01,4.789424e-01
3.489517e+00,3.212395e+00,3,3,3.020691e-01,3.020691e-01
3.492398e+00,3.209481e+00,3,3,3.394996e-01,3.394995e-01
3.497276e+00,3.210309e+00,3,3,2.773580e-01,2.773579e-01
3.493590e+00,3.205409e+00,3,3,2.395138e-01,2.395138e-01
3.490441e+00,3.205755e+00,3,3,6.457986e-01,6.457982e-01
3.490234e+00,3.210754e+00,3,3,4.074308e-01,4.074307e-01
3.495752e+00,3.209061e+00,3,3,6.452892e-01,6.452890e-01
3.495652e+00,3.207506e+00,3,3,1.041436e+00,1.041436e+00
3.493887e+00,3.209542e+00,3,3,8.929571e-01,8.929569e-01
3.498454e+00,3.208059e+00,3,3,1.012421e+00,1.012420e+00
3.498734e+00,3.208280e+00,3,3,7.096699e-01,7.096699e-01
3.492777e+00,3.215052e+00,3,3,7.097771e-01,7.097770e-01
3.491322e+00,3.207663e+00,3,3,8.114543e-01,8.114540e-01
3.492068e+00,3.208102e+00,3,3,1.782574e+00,1.782573e+00
3.499133e+00,3.205654e+00,3,3,2.360399e+00,2.360398e+00
3.493893e+00,3.207521e+00,3,3,2.091286e+00,2.091286e+00
3.494540e+00,3.201711e+00,3,3,1.700507e+00,1.700507e+00
3.494881e+00,3.201438e+00,3,3,1.573464e+00,1.573464e+00
3.493918e+00,3.206550e+00,3,3,1.068439e+00,1.068440e+00
3.494575e+00,3.201297e+00,3,3,1.055490e+00,1.055490e+00
3.495592e+00,3.201771e+00,3,3,1.037041e+00,1.037041e+00
3.497866e+00,3.201890e+00,3,3,7.956397e-01,7.956397e-01
3.493599e+00,3.213964e+00,3,3,7.031926e-01,7.031926e-01
3.491890e+00,3.203675e+00,3,3,1.431417e+00,1.431416e+00
3.497258e+00,3.201899e+00,3,3,2.982531e+00,2.982531e+00
3.495361e+00,3.200614e+00,3,3,3.031353e+00,3.031369e+00
3.494109e+00,3.200171e+00,3,3,3.054806e+00,3.054807e+00
3.496529e+00,3.200650e+00,3,3,3.560092e+00,3.560092e+00
3.497595e+00,3.203006e+00,3,3,5.094646e+00,5.094645e+00
3.493506e+00,3.205720e+00,3,3,3.266819e+00,3.266820e+00
3.494634e+00,3.202628e+00,3,3,3.985969e+00,3.985969e+00
3.498195e+00,3.203616e+00,3,3,3.077073e+00,3.077073e+00
3.497034e+00,3.201476e+00,3,3,2.875826e+00,2.875826e+00
3.496911e+00,3.201546e+00,3,3,1.974572e+00,1.974572e+00
3.495544e+00,3.201607e+00,3,3,2.489593e+00,2.489593e+00
3.499266e+00,3.203064e+00,3,3,1.671669e+00,1.671669e+00
3.492913e+00,3.207614e+00,3,3,2.163022e+00,2.163022e+00
3.499072e+00,3.208284e+00,3,3,7.060764e-01,7.060765e-01
3.499504e+00,3.200774e+00,3,3,9.278442e-01,9.278439e-01
3.497250e+00,3.201789e+00,3,3,1.801419e+00,1.801418e+00
3.490555e+00,3.206041e+00,3,3,1.390243e+00,1.390243e+00
3.492542e+00,3.205944e+00,3,3,2.192526e+00,2.192526e+00
3.499449e+00,3.202293e+00,3,3,1.943535e+00,1.943535e+00
3.492424e+00,3.206259e+00,3,3,3.271278e+00,3.271278e+00
3.495940e+00,3.204299e+00,3,3,1.690167e+00,1.690168e+00
3.495625e+00,3.200557e+00,3,3,1.412966e+00,1.412966e+00
3.497510e+00,3.201683e+00,3,3,1.101833e+00,1.101833e+00
3.490547e+00,3.204105e+00,3,3,1.109890e+00,1.109890e+00
3.489841e+00,3.201286e+00,3,3,1.180572e+00,1.180572e+00
3.495176e+00,3.200940e+00,3,3,1.771004e+00,1.771004e+00
3.493829e+00,3.203496e+00,3,3,7.989906e-01,7.989909e-01
3.492435e+00,3.200778e+00,3,3,5.277676e-01,5.277676e-01
3.497404e+00,3.200252e+00,3,3,5.981896e-01,5.981895e-01
3.493492e+00,3.201485e+00,3,3,5.715104e-01,5.715103e-01
3.491012e+00,3.204975e+00,3,3,4.452613e-01,4.452613e-01
3.488130e+00,3.200894e+00,3,3,7.191406e-01,7.191403e-01
3.496665e+00,3.202192e+00,3,3,1.052376e+00,1.052376e+00
3.491221e+00,3.201216e+00,3,3,1.601037e+00,1.601036e+00
3.492387e+00,3.201227e+00,3,3,3.478609e+00,3.478608e+00
3.498192e+00,3.201892e+00,3,3,4.514008e+00,4.514008e+00
3.498958e+00,3.203396e+00,3,3,3.065471e+00,3.065472e+00
3.492036e+00,3.206406e+00,3,3,3.784558e+00,3.784557e+00
3.493105e+00,3.203467e+00,3,3,2.730909e+00,2.730909e+00
3.496855e+00,3.201902e+00,3,3,2.168827e+00,2.168827e+00
3.496546e+00,3.201948e+00,3,3,2.418019e+00,2.418019e+00
3.493559e+00,3.202272e+00,3,3,1.306380e+00,1.306381e+00
3.499541e+00,3.202077e+00,3,3,9.994601e-01,9.994596e-01
3.492656e+00,3.206126e+00,3,3,7.696718e-01,7.696718e-01
3.492403e+00,3.204541e+00,3,3,7.205179e-01,7.205178e-01
3.490648e+00,3.200397e+00,3,3,6.833545e-01,6.833544e-01
3.494872e+00,3.203354e+00,3,3,1.060750e+00,1.060750e+00
3.497861e+00,3.202428e+00,3,3,3.632652e-01,3.632652e-01
3.491725e+00,3.201455e+00,3,3,1.456896e+00,1.456895e+00
3.495933e+00,3.199903e+00,3,3,3.221339e+00,3.221338e+00
3.500604e+00,3.202252e+00,3,3,1.879966e+00,1.879967e+00
3.493250e+00,3.207793e+00,3,3,1.342876e+00,1.342876e+00
3.491740e+00,3.202159e+00,3,3,1.100848e+00,1.100848e+00
3.494611e+00,3.201538e+00,3,3,9.350391e-01,9.350391e-01
3.495229e+00,3.200945e+00,3,3,8.765797e-01,8.765796e-01
3.494535e+00,3.204808e+00,3,3,1.483487e+00,1.483487e+00
3.494470e+00,3.205009e+00,3,3,1.146398e+00,1.146398e+00
3.497821e+00,3.203361e+00,3,3,8.245375e-01,8.245376e-01
3.494412e+00,3.208669e+00,3,3,9.175511e-01,9.175510e-01
3.490794e+00,3.200479e+00,3,3,1.572600e+00,1.572599e+00
3.496297e+00,3.203596e+00,3,3,2.548006e+00,2.548005e+00
3.493561e+00,3.203236e+00,3,3,4.638468e+00,4.638466e+00
3.494927e+00,3.204999e+00,3,3,5.660153e+00,5.660152e+00
3.495770e+00,3.202956e+00,3,3,5.111811e+00,5.111811e+00
3.502661e+00,3.202788e+00,3,3,5.361426e+00,5.361426e+00
3.494081e+00,3.201876e+00,3,3,4.518844e+00,4.518844e+00
3.492337e+00,3.203112e+00,3,3,4.751984e+00,4.751984e+00
3.498390e+00,3.202593e+00,3,3,4.746635e+00,4.746634e+00
3.497595e+00,3.202539e+00,3,3,3.913832e+00,3.913832e+00
3.493768e+00,3.204753e+00,3,3,3.373796e+00,3.373796e+00
3.492415e+00,3.201710e+00,3,3,2.596153e+00,2.596153e+00
3.495784e+00,3.203721e+00,3,3,2.364516e+00,2.364516e+00
3.498452e+00,3.202126e+00,3,3,2.377071e+00,2.377071e+00
3.493907e+00,3.202633e+00,3,3,3.044289e+00,3.044291e+00
3.495336e+00,3.202279e+00,3,3,5.471063e+00,5.469932e+00
6.972198e+00,6.394154e+00,6,6,5.713009e+00,5.711238e+00
5.810243e+00,5.332496e+00,5,5,6.257295e+00,6.256961e+00
4.655496e+00,4.267312e+00,4,4,5.303532e+00,5.303532e+00
3.495048e+00,3.203493e+00,3,3,5.338707e+00,5.338708e+00
3.496495e+00,3.202758e+00,3,3,6.515704e+00,6.515704e+00
3.498948e+00,3.203956e+00,3,3,6.035031e+00,6.035031e+00
3.494523e+00,3.205690e+00,3,3,5.027719e+00,5.027719e+00
3.492121e+00,3.203587e+00,3,3,4.242581e+00,4.242581e+00
3.499736e+00,3.205305e+00,3,3,3.761779e+00,3.761779e+00
3.496934e+00,3.203079e+00,3,3,3.222017e+00,3.222017e+00
3.493695e+00,3.199781e+00,3,3,2.958966e+00,2.958966e+00
3.499243e+00,3.201853e+00,3,3,3.072673e+00,3.072673e+00
3.499900e+00,3.203377e+00,3,3,1.689583e+00,1.689583e+00
3.493129e+00,3.204361e+00,3,3,1.466487e+00,1.466487e+00
3.493292e+00,3.200710e+00,3,3,1.622642e+00,1.622641e+00
3.497029e+00,3.201702e+00,3,3,1.120968e+00,1.120968e+00
3.494813e+00,3.198631e+00,3,3,9.459944e-01,9.459944e-01
3.491818e+00,3.201969e+00,3,3,7.684243e-01,7.684241e-01
3.496606e+00,3.201961e+00,3,3,4.885176e-01,4.885177e-01
3.492721e+00,3.201363e+00,3,3,3.703970e-01,3.703967e-01
3.492968e+00,3.203617e+00,3,3,2.797296e-01,2.797295e-01
3.490159e+00,3.201049e+00,3,3,3.974025e-01,3.974024e-01
3.494724e+00,3.203020e+00,3,3,5.354265e-01,5.354264e-01
3.492014e+00,3.201691e+00,3,3,3.592153e-01,3.592153e-01
3.512702e+00,3.205927e+00,3,3,4.040961e-01,4.040960e-01
3.491598e+00,3.202187e+00,3,3,1.113163e+00,1.113163e+00
3.498083e+00,3.205493e+00,3,3,2.515820e+00,2.515819e+00
3.490125e+00,3.209180e+00,3,3,3.426458e+00,3.426457e+00
3.496963e+00,3.200244e+00,3,3,2.879435e+00,2.879435e+00
3.499859e+00,3.203365e+00,3,3,3.110359e+00,3.110358e+00
3.497876e+00,3.217842e+00,3,3,3.024906e+00,3.024906e+00
3.495425e+00,3.204302e+00,3,3,2.671659e+00,2.671659e+00
3.493324e+00,3.202258e+00,3,3,2.112219e+00,2.112219e+00
3.494987e+00,3.201320e+00,3,3,2.070677e+00,2.070677e+00
3.491866e+00,3.201790e+00,3,3,3.677848e+00,3.677847e+00
3.493492e+00,3.199730e+00,3,3,4.748285e+00,4.748284e+00
3.497805e+00,3.201541e+00,3,3,5.601877e+00,5.601877e+00
3.496956e+00,3.202020e+00,3,3,4.561990e+00,4.561991e+00
3.494225e+00,3.206508e+00,3,3,3.478402e+00,3.478403e+00
3.491304e+00,3.202002e+00,3,3,2.544122e+00,2.544122e+00
3.497766e+00,3.204251e+00,3,3,2.076842e+00,2.076842e+00
3.498381e+00,3.201249e+00,3,3,2.759521e+00,2.759520e+00
3.493504e+00,3.201283e+00,3,3,2.751329e+00,2.751329e+00
3.496248e+00,3.201813e+00,3,3,2.069405e+00,2.069405e+00
3.493854e+00,3.204056e+00,3,3,2.024263e+00,2.024264e+00
3.492570e+00,3.205376e+00,3,3,2.326175e+00,2.326219e+00
3.491548e+00,3.203102e+00,3,3,2.414221e+00,2.414222e+00
3.496412e+00,3.201793e+00,3,3,2.956548e+00,2.956547e+00
3.498099e+00,3.202845e+00,3,3,2.350924e+00,2.350924e+00
3.493661e+00,3.200112e+00,3,3,3.067178e+00,3.067178e+00
3.498028e+00,3.204772e+00,3,3,3.023787e+00,3.023787e+00
3.497879e+00,3.202108e+00,3,3,2.527911e+00,2.527911e+00
3.494280e+00,3.203530e+00,3,3,2.091118e+00,2.091118e+00
3.493602e+00,3.203129e+00,3,3,2.201043e+00,2.201043e+00
3.496764e+00,3.204606e+00,3,3,2.211135e+00,2.211135e+00
3.497962e+00,3.203280e+00,3,3,1.630544e+00,1.630545e+00
3.493993e+00,3.205320e+00,3,3,1.629960e+00,1.629959e+00
3.493482e+00,3.202251e+00,3,3,1.065575e+00,1.065575e+00
3.494949e+00,3.201813e+00,3,3,8.781362e-01,8.781362e-01
3.492915e+00,3.204603e+00,3,3,5.657123e-01,5.657122e-01
3.490774e+00,3.201368e+00,3,3,3.838169e-01,3.838169e-01
3.494832e+00,3.200310e+00,3,3,2.168859e-01,2.168859e-01
3.495733e+00,3.202132e+00,3,3,4.077928e-01,4.077926e-01
3.492702e+00,3.205565e+00,3,3,2.298410e-01,2.298410e-01
3.492319e+00,3.199700e+00,3,3,2.219913e-01,2.219912e-01
3.494270e+00,3.202976e+00,3,3,1.341587e-01,1.341586e-01
3.492049e+00,3.204632e+00,3,3,1.470552e-01,1.470552e-01
3.491029e+00,3.201601e+00,3,3,1.317567e-01,1.317567e-01
3.493282e+00,3.200129e+00,3,3,3.249661e-01,3.249660e-01
3.493607e+00,3.202169e+00,3,3,2.494326e-01,2.494325e-01
3.490032e+00,3.206078e+00,3,3,2.719724e-01,2.719722e-01
3.489416e+00,3.200377e+00,3,3,5.470064e-01,5.470062e-01
3.494155e+00,3.201943e+00,3,3,2.990697e-01,2.990698e-01
3.490283e+00,3.204039e+00,3,3,4.258677e-01,4.258676e-01
3.492612e+00,3.200617e+00,3,3,4.303108e-01,4.303107e-01
3.495450e+00,3.203818e+00,3,3,7.248236e-01,7.248235e-01
3.492878e+00,3.201958e+00,3,3,5.522408e-01,5.522408e-01
3.490531e+00,3.204356e+00,3,3,3.638423e-01,3.638423e-01
3.491715e+00,3.199802e+00,3,3,2.660243e-01,2.660243e-01
3.493526e+00,3.201384e+00,3,3,3.563770e-01,3.563769e-01
3.490430e+00,3.201411e+00,3,3,3.281880e-01,3.281880e-01
3.491038e+00,3.200644e+00,3,3,2.648641e-01,2.648641e-01
3.493394e+00,3.201292e+00,3,3,4.637969e-01,4.637969e-01
3.496641e+00,3.201846e+00,3,3,3.516939e-01,3.516939e-01
3.492036e+00,3.207371e+00,3,3,5.227982e-01,5.227981e-01
3.490340e+00,3.200490e+00,3,3,9.247090e-01,9.247087e-01
3.496648e+00,3.204200e+00,3,3,8.107850e-01,8.107849e-01
3.496260e+00,3.199792e+00,3,3,7.181155e-01,7.181154e-01
3.491073e+00,3.200811e+00,3,3,1.643258e+00,1.643257e+00
3.495302e+00,3.201236e+00,3,3,1.994016e+00,1.994016e+00
3.497437e+00,3.200431e+00,3,3,1.134334e+00,1.134334e+00
3.491760e+00,3.205423e+00,3,3,8.482995e-01,8.482996e-01
3.494183e+00,3.201837e+00,3,3,6.537288e-01,6.537287e-01
3.497646e+00,3.200008e+00,3,3,4.364268e-01,4.364268e-01
3.495906e+00,3.199902e+00,3,3,3.864401e-01,3.864400e-01
3.491581e+00,3.200547e+00,3,3,5.548975e-01,5.548975e-01
3.506890e+00,3.203637e+00,3,3,5.307643e-01,5.307643e-01
3.501501e+00,3.200694e+00,3,3,2.639973e-01,2.639972e-01
3.494374e+00,3.207099e+00,3,3,7.177025e-01,7.177023e-01
3.493281e+00,3.202512e+00,3,3,3.984592e-01,3.984592e-01
3.498811e+00,3.202060e+00,3,3,3.519681e-01,3.519680e-01
3.498709e+00,3.199719e+00,3,3,4.923571e-01,4.923570e-01
3.494123e+00,3.203580e+00,3,3,4.030473e-01,4.030473e-01
3.489392e+00,3.208299e+00,3,3,4.731872e-01,4.731871e-01
3.495756e+00,3.203024e+00,3,3,6.026992e-01,6.026991e-01
3.488309e+00,3.203464e+00,3,3,4.756017e-01,4.756016e-01
3.489771e+00,3.197406e+00,3,3,4.945690e-01,4.945688e-01
3.494841e+00,3.201102e+00,3,3,6.169641e-01,6.169640e-01
3.498701e+00,3.200688e+00,3,3,7.574959e-01,7.574957e-01
3.492296e+00,3.202841e+00,3,3,1.135819e+00,1.135818e+00
3.492117e+00,3.200389e+00,3,3,7.866710e-01,7.866711e-01
3.496772e+00,3.204265e+00,3,3,7.566151e-01,7.566148e-01
3.490673e+00,3.205393e+00,3,3,7.321452e-01,7.321451e-01
3.493339e+00,3.199617e+00,3,3,7.926656e-01,7.926655e-01
3.498589e+00,3.201125e+00,3,3,6.555935e-01,6.555935e-01
3.493742e+00,3.201960e+00,3,3,1.115601e+00,1.115601e+00
3.490723e+00,3.205774e+00,3,3,8.292408e-01,8.292409e-01
3.492021e+00,3.199285e+00,3,3,7.751496e-01,7.751495e-01
3.493833e+00,3.201066e+00,3,3,7.596657e-01,7.596656e-01
3.487234e+00,3.205452e+00,3,3,6.878775e-01,6.878775e-01
3.489425e+00,3.199752e+00,3,3,4.928153e-01,4.928153e-01
3.495314e+00,3.201447e+00,3,3,6.019904e-01,6.019902e-01
3.494399e+00,3.202744e+00,3,3,6.788456e-01,6.788454e-01
3.490208e+00,3.206352e+00,3,3,4.668361e-01,4.668360e-01
3.494307e+00,3.203333e+00,3,3,8.782913e-01,8.782910e-01
3.494858e+00,3.201732e+00,3,3,6.180956e-01,6.180956e-01
3.490624e+00,3.201683e+00,3,3,5.652572e-01,5.652571e-01
3.492845e+00,3.201438e+00,3,3,5.058808e-01,5.058808e-01
3.497163e+00,3.207725e+00,3,3,3.970669e-01,3.970667e-01
3.498405e+00,3.202800e+00,3,3,2.920336e-01,2.920336e-01
3.489860e+00,3.207167e+00,3,3,5.797283e-01,5.797282e-01
3.491311e+00,3.201847e+00,3,3,4.997496e-01,4.997496e-01
3.496208e+00,3.203075e+00,3,3,5.083716e-01,5.083714e-01
3.496545e+00,3.200298e+00,3,3,4.754079e-01,4.754078e-01
3.505971e+00,3.205980e+00,3,3,3.696141e-01,3.696140e-01
3.495788e+00,3.202234e+00,3,3,4.437754e-01,4.437754e-01
3.493396e+00,3.200896e+00,3,3,3.442546e-01,3.442546e-01
3.493802e+00,3.205591e+00,3,3,1.454145e+00,1.454144e+00
3.491769e+00,3.201023e+00,3,3,3.218433e+00,3.218431e+00
3.496713e+00,3.202166e+00,3,3,2.417712e+00,2.417713e+00
3.497514e+00,3.202544e+00,3,3,1.723471e+00,1.723471e+00
3.493592e+00,3.209052e+00,3,3,1.264275e+00,1.264275e+00
3.492770e+00,3.200527e+00,3,3,1.366921e+00,1.366921e+00
3.495194e+00,3.202981e+00,3,3,1.080434e+00,1.080434e+00
3.493472e+00,3.207489e+00,3,3,1.043215e+00,1.043214e+00
3.493759e+00,3.201854e+00,3,3,1.256931e+00,1.256930e+00
3.496084e+00,3.199698e+00,3,3,1.434086e+00,1.434086e+00
3.497351e+00,3.203047e+00,3,3,1.312172e+00,1.312171e+00
3.492636e+00,3.204518e+00,3,3,1.397984e+00,1.397984e+00
3.491191e+00,3.199653e+00,3,3,1.863006e+00,1.863005e+00
3.499229e+00,3.201509e+00,3,3,1.373502e+00,1.373502e+00
3.493354e+00,3.202483e+00,3,3,9.297248e-01,9.297249e-01
3.496325e+00,3.200522e+00,3,3,5.499695e-01,5.499696e-01
3.494279e+00,3.202157e+00,3,3,3.668122e-01,3.668122e-01
3.494587e+00,3.201410e+00,3,3,2.877344e-01,2.877343e-01
3.489228e+00,3.206426e+00,3,3,3.947814e-01,3.947813e-01
3.490067e+00,3.201564e+00,3,3,2.789106e-01,2.789106e-01
3.494372e+00,3.202242e+00,3,3,4.675782e-01,4.675781e-01
3.492311e+00,3.204304e+00,3,3,4.970870e-01,4.970870e-01
3.489970e+00,3.201543e+00,3,3,4.618472e-01,4.618472e-01
3.498632e+00,3.201810e+00,3,3,5.953705e-01,5.953703e-01
3.497835e+00,3.203403e+00,3,3,3.315649e-01,3.315649e-01
3.491757e+00,3.203324e+00,3,3,2.690293e-01,2.690293e-01
3.491966e+00,3.200400e+00,3,3,1.439724e+00,1.439723e+00
3.498435e+00,3.201309e+00,3,3,1.497785e+00,1.497785e+00
3.498347e+00,3.203449e+00,3,3,7.278902e-01,7.278904e-01
3.496369e+00,3.202491e+00,3,3,7.181026e-01,7.181026e-01
3.499002e+00,3.203076e+00,3,3,6.287868e-01,6.287868e-01
3.497472e+00,3.204316e+00,3,3,6.738957e-01,6.738956e-01
3.494936e+00,3.204711e+00,3,3,3.442821e-01,3.442821e-01
3.493471e+00,3.201034e+00,3,3,2.891120e-01,2.891119e-01
3.490711e+00,3.202885e+00,3,3,5.501598e-01,5.501597e-01
3.494344e+00,3.200796e+00,3,3,6.853906e-01,6.853906e-01
3.491267e+00,3.200678e+00,3,3,8.436226e-01,8.436225e-01
3.506774e+00,3.204576e+00,3,3,5.492943e-01,5.492943e-01
3.498267e+00,3.199215e+00,3,3,5.278050e-01,5.278049e-01
3.489804e+00,3.205354e+00,3,3,7.921354e-01,7.921351e-01
3.492280e+00,3.201817e+00,3,3,1.174981e+00,1.174981e+00
3.497068e+00,3.202354e+00,3,3,1.302907e+00,1.302907e+00
3.496006e+00,3.203447e+00,3,3,1.817128e+00,1.817127e+00
3.494774e+00,3.211377e+00,3,3,1.715595e+00,1.715595e+00
3.495190e+00,3.202799e+00,3,3,2.668153e+00,2.668169e+00
3.499397e+00,3.204960e+00,3,3,1.115506e+00,1.115507e+00
3.492043e+00,3.206401e+00,3,3,9.496711e-01,9.496710e-01
3.490795e+00,3.202871e+00,3,3,1.501075e+00,1.501074e+00
3.500164e+00,3.202209e+00,3,3,7.347724e-01,7.347726e-01
3.496399e+00,3.203937e+00,3,3,6.039009e-01,6.039009e-01
3.493317e+00,3.204377e+00,3,3,4.902778e-01,4.902778e-01
3.492208e+00,3.200951e+00,3,3,3.288280e-01,3.288280e-01
3.491521e+00,3.201178e+00,3,3,6.713491e-01,6.713488e-01
3.493623e+00,3.202016e+00,3,3,4.977140e-01,4.977140e-01
3.491111e+00,3.199140e+00,3,3,2.836719e-01,2.836719e-01
3.496596e+00,3.202429e+00,3,3,6.883871e-01,6.883870e-01
3.498088e+00,3.203893e+00,3,3,4.772302e-01,4.772302e-01
3.491468e+00,3.205418e+00,3,3,2.511178e-01,2.511178e-01
3.489823e+00,3.201572e+00,3,3,2.738165e-01,2.738165e-01
3.496166e+00,3.202018e+00,3,3,3.426205e-01,3.426203e-01
3.495190e+00,3.202510e+00,3,3,5.175609e-01,5.175607e-01
3.492415e+00,3.199187e+00,3,3,1.085640e+00,1.085639e+00
3.498914e+00,3.204811e+00,3,3,7.889605e-01,7.889599e-01
3.492692e+00,3.202610e+00,3,3,1.428628e+00,1.428628e+00
3.496475e+00,3.205466e+00,3,3,6.237795e-01,6.237798e-01
3.494143e+00,3.200737e+00,3,3,4.969001e-01,4.969001e-01
3.495544e+00,3.203705e+00,3,3,3.323368e-01,3.323368e-01
3.499416e+00,3.202990e+00,3,3,3.054061e-01,3.054060e-01
3.491847e+00,3.202557e+00,3,3,8.581275e-01,8.581270e-01
3.498058e+00,3.203976e+00,3,3,8.560418e-01,8.560417e-01
3.496901e+00,3.202412e+00,3,3,1.314360e+00,1.314359e+00
3.494701e+00,3.204215e+00,3,3,1.349009e+00,1.349009e+00
3.492720e+00,3.199776e+00,3,3,1.548528e+00,1.548528e+00
3.495972e+00,3.201723e+00,3,3,2.537457e+00,2.537456e+00
3.497776e+00,3.200514e+00,3,3,2.841285e+00,2.841284e+00
3.494354e+00,3.205434e+00,3,3,2.122477e+00,2.122477e+00
3.494097e+00,3.200190e+00,3,3,1.906988e+00,1.906988e+00
3.496328e+00,3.202978e+00,3,3,2.680225e+00,2.680225e+00
3.495009e+00,3.205071e+00,3,3,1.820728e+00,1.820728e+00
3.493151e+00,3.201507e+00,3,3,1.509573e+00,1.509573e+00
3.495934e+00,3.203248e+00,3,3,1.527033e+00,1.527033e+00
3.498209e+00,3.205294e+00,3,3,1.650989e+00,1.650989e+00
3.492392e+00,3.206190e+00,3,3,1.808075e+00,1.808075e+00
3.493714e+00,3.200207e+00,3,3,1.332615e+00,1.332615e+00
3.497402e+00,3.204076e+00,3,3,1.278934e+00,1.278934e+00
3.490675e+00,3.206702e+00,3,3,1.640311e+00,1.640310e+00
3.494475e+00,3.205217e+00,3,3,1.799944e+00,1.799944e+00
3.496307e+00,3.200444e+00,3,3,1.140216e+00,1.140217e+00
3.495274e+00,3.203813e+00,3,3,1.096292e+00,1.096292e+00
3.493386e+00,3.207777e+00,3,3,6.438806e-01,6.438809e-01
3.493156e+00,3.201925e+00,3,3,6.245240e-01,6.245240e-01

