2.357536e+00,2.156149e+00,2,2,0.000000e+00,0.000000e+00
3.532573e+00,3.256306e+00,3,3,7.551209e-02,7.551208e-02
3.513053e+00,3.244098e+00,3,3,1.395621e-01,1.395620e-01
3.514216e+00,3.240539e+00,3,3,2.946823e-01,2.946821e-01
3.516020e+00,3.240452e+00,3,3,2.716495e-01,2.716495e-01
3.514415e+00,3.241645e+00,3,3,1.276167e+00,1.276166e+00
3.512695e+00,3.246511e+00,3,3,1.779663e+00,1.779663e+00
3.517924e+00,3.242184e+00,3,3,2.335722e+00,2.335722e+00
3.517135e+00,3.237338e+00,3,3,1.148687e+00,1.148687e+00
3.518246e+00,3.238920e+00,3,3,1.018461e+00,1.018461e+00
3.519962e+00,3.241304e+00,3,3,8.424528e-01,8.424527e-01
3.514385e+00,3.242792e+00,3,3,9.746404e-01,9.746402e-01
3.515919e+00,3.234733e+00,3,3,1.616753e+00,1.616753e+00
3.522960e+00,3.239036e+00,3,3,2.206613e+00,2.206613e+00
3.519726e+00,3.239630e+00,3,3,2.022702e+00,2.022702e+00
3.518844e+00,3.238865e+00,3,3,2.825381e+00,2.825380e+00
3.515580e+00,3.242989e+00,3,3,2.206349e+00,2.206349e+00
3.516937e+00,3.240043e+00,3,3,1.931090e+00,1.931090e+00
3.517843e+00,3.237649e+00,3,3,1.844838e+00,1.844838e+00
3.517215e+00,3.239562e+00,3,3,1.758303e+00,1.758302e+00
3.513615e+00,3.238436e+00,3,3,1.840510e+00,1.840510e+00
3.516179e+00,3.233117e+00,3,3,1.533956e+00,1.533956e+00
3.517805e+00,3.237379e+00,3,3,1.381534e+00,1.381534e+00
3.518872e+00,3.237750e+00,3,3,1.204581e+00,1.204581e+00
3.516040e+00,3.243113e+00,3,3,1.188903e+00,1.188903e+00
3.516232e+00,3.245220e+00,3,3,1.149710e+00,1.149710e+00
3.515210e+00,3.239251e+00,3,3,9.518776e-01,9.518776e-01
3.515245e+00,3.239957e+00,3,3,6.794439e-01,6.794439e-01
3.518569e+00,3.240758e+00,3,3,3.431008e-01,3.431007e-01
3.511005e+00,3.238944e+00,3,3,2.960831e-01,2.960830e-01
3.512790e+00,3.234412e+00,3,3,5.896102e-01,5.896101e-01
3.515824e+00,3.242210e+00,3,3,6.941784e-01,6.941782e-01
3.515053e+00,3.240518e+00,3,3,5.984793e-01,5.984792e-01
3.509917e+00,3.241773e+00,3,3,9.215445e-01,9.215441e-01
3.512797e+00,3.238084e+00,3,3,7.538888e-01,7.538888e-01
3.517447e+00,3.241345e+00,3,3,5.559930e-01,5.559931e-01
3.518041e+00,3.237678e+00,3,3,4.066880e-01,4.066879e-01
3.514713e+00,3.242429e+00,3,3,3.376784e-01,3.376783e-01
3.509854e+00,3.240909e+00,3,3,8.606975e-01,8.606973e-01
3.513784e+00,3.235346e+00,3,3,9.504782e-01,9.504782e-01
3.518155e+00,3.237237e+00,3,3,2.139477e+00,2.139476e+00
3.517789e+00,3.239436e+00,3,3,2.927873e+00,2.927873e+00
3.514962e+00,3.238604e+00,3,3,1.852340e+00,1.852340e+00
3.515692e+00,3.240014e+00,3,3,2.797935e+00,2.797934e+00
3.518497e+00,3.237811e+00,3,3,2.235884e+00,2.235884e+00
3.522477e+00,3.240888e+00,3,3,1.808748e+00,1.808748e+00
3.515011e+00,3.238458e+00,3,3,1.619818e+00,1.619818e+00
3.513359e+00,3.244160e+00,3,3,1.344299e+00,1.344299e+00
3.512865e+00,3.238957e+00,3,3,1.080027e+00,1.080027e+00
3.514519e+00,3.237050e+00,3,3,6.876476e-01,6.876477e-01
3.515232e+00,3.237160e+00,3,3,6.177119e-01,6.177118e-01
3.510801e+00,3.240748e+00,3,3,9.829236e-01,9.829233e-01
3.516457e+00,3.239952e+00,3,3,7.168843e-01,7.168843e-01
3.517339e+00,3.241847e+00,3,3,6.110373e-01,6.110373e-01
3.515983e+00,3.242315e+00,3,3,8.078102e-01,8.078100e-01
3.515452e+00,3.238377e+00,3,3,1.109397e+00,1.109397e+00
3.512119e+00,3.241954e+00,3,3,5.988308e-01,5.988309e-01
3.511701e+00,3.239752e+00,3,3,9.244299e-01,9.244297e-01
3.514048e+00,3.241490e+00,3,3,1.306200e+00,1.306199e+00
3.519046e+00,3.238840e+00,3,3,1.969784e+00,1.969783e+00
3.514248e+00,3.242225e+00,3,3,8.942516e-01,8.942515e-01
3.511663e+00,3.238318e+00,3,3,1.939671e+00,1.939670e+00
3.516821e+00,3.238774e+00,3,3,3.653225e+00,3.653223e+00
3.518995e+00,3.236148e+00,3,3,1.983769e+00,1.983769e+00
3.517448e+00,3.239351e+00,3,3,2.724662e+00,2.724662e+00
3.515483e+00,3.243666e+00,3,3,1.182477e+00,1.182477e+00
3.513528e+00,3.237164e+00,3,3,1.263766e+00,1.263765e+00
3.516029e+00,3.238977e+00,3,3,9.845565e-01,9.845564e-01
3.517335e+00,3.239169e+00,3,3,7.762216e-01,7.762215e-01
3.514532e+00,3.240907e+00,3,3,5.908722e-01,5.908721e-01
3.509720e+00,3.235045e+00,3,3,8.816919e-01,8.816918e-01
3.516403e+00,3.240090e+00,3,3,9.003219e-01,9.003219e-01
3.516043e+00,3.241067e+00,3,3,9.129588e-01,9.129587e-01
3.512695e+00,3.242270e+00,3,3,1.029772e+00,1.029771e+00
3.516454e+00,3.242096e+00,3,3,1.502112e+00,1.502111e+00
3.511493e+00,3.239709e+00,3,3,2.017964e+00,2.017964e+00
3.518627e+00,3.237068e+00,3,3,1.214733e+00,1.214733e+00
3.514801e+00,3.235258e+00,3,3,1.209876e+00,1.209876e+00
3.513682e+00,3.240336e+00,3,3,8.937063e-01,8.937063e-01
3.514027e+00,3.237932e+00,3,3,4.433705e-01,4.433706e-01
3.514899e+00,3.238981e+00,3,3,1.527409e+00,1.527409e+00
3.516685e+00,3.239018e+00,3,3,1.130290e+00,1.130290e+00
3.511557e+00,3.237236e+00,3,3,1.011827e+00,1.011827e+00
3.515688e+00,3.233779e+00,3,3,9.740377e-01,9.740376e-01
3.519250e+00,3.238793e+00,3,3,1.400945e+00,1.400944e+00
3.518325e+00,3.241875e+00,3,3,2.512778e+00,2.512777e+00
3.519326e+00,3.239207e+00,3,3,3.760617e+00,3.760616e+00
3.514616e+00,3.244272e+00,3,3,5.483424e+00,5.483423e+00
3.516219e+00,3.236472e+00,3,3,4.458069e+00,4.458070e+00
3.521453e+00,3.238440e+00,3,3,3.182345e+00,3.182346e+00
3.523337e+00,3.243232e+00,3,3,2.454093e+00,2.454093e+00
3.513125e+00,3.244947e+00,3,3,1.719397e+00,1.719397e+00
3.513845e+00,3.238147e+00,3,3,2.433287e+00,2.433286e+00
3.518236e+00,3.238929e+00,3,3,1.807900e+00,1.807901e+00
3.518681e+00,3.239343e+00,3,3,2.327531e+00,2.327532e+00
3.520293e+00,3.238130e+00,3,3,2.510070e+00,2.510071e+00
3.515451e+00,3.242334e+00,3,3,1.084532e+00,1.084533e+00
3.513937e+00,3.239756e+00,3,3,9.374207e-01,9.374207e-01
3.516808e+00,3.240879e+00,3,3,1.319559e+00,1.319558e+00
3.516359e+00,3.240163e+00,3,3,1.415890e+00,1.415889e+00
3.512825e+00,3.240288e+00,3,3,1.066766e+00,1.066766e+00
3.512542e+00,3.236334e+00,3,3,1.238102e+00,1.238101e+00
3.514824e+00,3.237475e+00,3,3,7.214970e-01,7.214970e-01
3.516186e+00,3.240933e+00,3,3,6.568649e-01,6.568648e-01
3.514227e+00,3.237157e+00,3,3,5.438514e-01,5.438514e-01
3.511895e+00,3.242333e+00,3,3,5.784202e-01,5.784201e-01
3.509384e+00,3.237967e+00,3,3,8.078968e-01,8.078966e-01
3.525931e+00,3.239574e+00,3,3,8.817768e-01,8.817767e-01
3.515632e+00,3.238749e+00,3,3,5.667879e-01,5.667880e-01
3.513492e+00,3.245359e+00,3,3,5.720606e-01,5.720605e-01
3.514695e+00,3.237858e+00,3,3,5.279835e-01,5.279835e-01
3.516934e+00,3.237284e+00,3,3,4.518010e-01,4.518008e-01
3.515965e+00,3.239129e+00,3,3,3.135725e-01,3.135725e-01
3.516495e+00,3.239293e+00,3,3,5.541243e-01,5.541240e-01
3.510970e+00,3.242049e+00,3,3,2.932878e-01,2.932878e-01
3.510661e+00,3.238145e+00,3,3,3.389798e-01,3.389797e-01
3.515721e+00,3.238620e+00,3,3,8.799552e-01,8.799548e-01
3.515465e+00,3.240090e+00,3,3,6.417448e-01,6.417448e-01
3.510091e+00,3.241852e+00,3,3,2.071143e+00,2.071143e+00
3.516006e+00,3.236262e+00,3,3,1.435506e+00,1.435506e+00
3.515807e+00,3.238882e+00,3,3,1.390175e+00,1.390175e+00
3.513785e+00,3.241391e+00,3,3,1.731344e+00,1.731344e+00
3.512447e+00,3.241556e+00,3,3,1.563279e+00,1.563279e+00
3.515783e+00,3.243985e+00,3,3,1.722313e+00,1.722313e+00
3.509900e+00,3.237146e+00,3,3,3.041310e+00,3.041309e+00
3.519253e+00,3.238696e+00,3,3,1.973577e+00,1.973578e+00
3.516180e+00,3.240429e+00,3,3,1.500037e+00,1.500037e+00
3.512762e+00,3.243390e+00,3,3,1.307087e+00,1.307087e+00
3.516357e+00,3.239947e+00,3,3,7.837207e-01,7.837203e-01
3.516305e+00,3.237708e+00,3,3,8.577162e-01,8.577159e-01
3.516578e+00,3.239615e+00,3,3,5.381583e-01,5.381582e-01
3.510780e+00,3.242068e+00,3,3,7.102339e-01,7.102337e-01
3.512197e+00,3.236964e+00,3,3,3.163725e-01,3.163725e-01
3.513710e+00,3.238087e+00,3,3,2.572584e-01,2.572584e-01
3.516267e+00,3.240113e+00,3,3,2.640276e-01,2.640276e-01
3.517619e+00,3.239010e+00,3,3,5.737759e-01,5.737756e-01
3.511681e+00,3.240110e+00,3,3,5.918175e-01,5.918174e-01
3.512238e+00,3.236620e+00,3,3,5.015503e-01,5.015503e-01
3.517506e+00,3.238045e+00,3,3,5.462994e-01,5.462994e-01
3.516108e+00,3.235783e+00,3,3,4.626902e-01,4.626902e-01
3.510397e+00,3.238880e+00,3,3,8.631047e-01,8.631044e-01
3.512388e+00,3.237774e+00,3,3,1.472360e+00,1.472359e+00
3.520307e+00,3.236513e+00,3,3,1.662220e+00,1.662220e+00
3.517527e+00,3.235922e+00,3,3,1.301747e+00,1.301747e+00
3.517098e+00,3.238176e+00,3,3,1.159393e+00,1.159393e+00
3.513700e+00,3.243131e+00,3,3,1.072057e+00,1.072057e+00
3.513862e+00,3.238216e+00,3,3,7.684550e-01,7.684553e-01
3.516822e+00,3.238858e+00,3,3,6.784226e-01,6.784220e-01
3.518221e+00,3.239404e+00,3,3,1.196365e+00,1.196364e+00
3.514765e+00,3.241623e+00,3,3,1.709870e+00,1.709870e+00
3.515554e+00,3.238168e+00,3,3,1.043961e+00,1.043961e+00
3.518495e+00,3.240624e+00,3,3,9.875633e-01,9.875632e-01
3.514877e+00,3.240287e+00,3,3,8.865501e-01,8.865500e-01
3.515427e+00,3.238923e+00,3,3,8.128659e-01,8.128658e-01
3.512658e+00,3.243155e+00,3,3,6.697431e-01,6.697430e-01
3.512340e+00,3.237949e+00,3,3,7.530458e-01,7.530456e-01
3.515896e+00,3.238308e+00,3,3,1.230954e+00,1.230953e+00
3.517426e+00,3.244123e+00,3,3,1.183055e+00,1.183055e+00
3.512385e+00,3.240145e+00,3,3,1.252972e+00,1.252972e+00
3.515045e+00,3.241470e+00,3,3,1.423246e+00,1.423246e+00
3.517993e+00,3.237110e+00,3,3,6.507800e-01,6.507800e-01
3.517805e+00,3.238350e+00,3,3,5.206114e-01,5.206114e-01
3.516635e+00,3.238960e+00,3,3,5.456169e-01,5.456168e-01
3.510842e+00,3.241797e+00,3,3,2.479467e-01,2.479466e-01
3.511092e+00,3.234634e+00,3,3,2.496599e-01,2.496599e-01
3.517635e+00,3.240146e+00,3,3,4.269946e-01,4.269945e-01
3.517025e+00,3.238858e+00,3,3,3.637096e-01,3.637096e-01
3.512545e+00,3.240503e+00,3,3,9.785977e-01,9.785972e-01
3.519617e+00,3.238881e+00,3,3,7.268657e-01,7.268656e-01
3.516781e+00,3.240192e+00,3,3,5.136780e-01,5.136780e-01
3.518246e+00,3.239223e+00,3,3,4.576685e-01,4.576684e-01
3.512923e+00,3.243487e+00,3,3,4.659262e-01,4.659261e-01
3.512020e+00,3.241825e+00,3,3,4.789425e-01,4.789424e-01
3.512058e+00,3.235735e+00,3,3,3.020691e-01,3.020691e-01
3.516851e+00,3.240255e+00,3,3,3.394996e-01,3.394995e-01
3.518794e+00,3.235694e+00,3,3,2.773580e-01,2.773579e-01
3.512073e+00,3.243093e+00,3,3,2.395138e-01,2.395138e-01
3.510951e+00,3.237083e+00,3,3,6.457986e-01,6.457982e-01
3.515271e+00,3.239533e+00,3,3,4.074308e-01,4.074307e-01
3.513828e+00,3.237660e+00,3,3,6.452892e-01,6.452890e-01
3.512369e+00,3.242972e+00,3,3,1.041436e+00,1.041436e+00
3.510702e+00,3.238099e+00,3,3,8.929571e-01,8.929569e-01
3.513804e+00,3.232692e+00,3,3,1.012421e+00,1.012420e+00
3.514748e+00,3.239877e+00,3,3,7.096699e-01,7.096699e-01
3.517218e+00,3.236643e+00,3,3,7.097771e-01,7.097770e-01
3.510780e+00,3.241861e+00,3,3,8.114543e-01,8.114540e-01
3.511067e+00,3.237399e+00,3,3,1.782574e+00,1.782573e+00
3.518778e+00,3.238560e+00,3,3,2.360399e+00,2.360398e+00
3.515613e+00,3.242314e+00,3,3,2.091286e+00,2.091286e+00
3.513337e+00,3.239488e+00,3,3,1.700507e+00,1.700507e+00
3.513367e+00,3.241485e+00,3,3,1.573464e+00,1.573464e+00
3.517755e+00,3.239710e+00,3,3,1.068439e+00,1.068440e+00
3.515229e+00,3.237257e+00,3,3,1.055490e+00,1.055490e+00
3.515090e+00,3.237797e+00,3,3,1.037041e+00,1.037041e+00
3.511507e+00,3.240160e+00,3,3,7.956397e-01,7.956397e-01
3.513156e+00,3.239072e+00,3,3,7.031926e-01,7.031926e-01
3.516557e+00,3.238609e+00,3,3,1.431417e+00,1.431416e+00
3.515064e+00,3.236879e+00,3,3,2.982531e+00,2.982531e+00
3.514598e+00,3.241181e+00,3,3,3.031353e+00,3.031369e+00
3.514551e+00,3.243362e+00,3,3,3.054806e+00,3.054807e+00
3.517526e+00,3.238426e+00,3,3,3.560092e+00,3.560092e+00
3.520649e+00,3.239299e+00,3,3,5.094646e+00,5.094645e+00
3.520691e+00,3.239814e+00,3,3,3.266819e+00,3.266820e+00
3.513942e+00,3.240899e+00,3,3,3.985969e+00,3.985969e+00
3.515867e+00,3.239955e+00,3,3,3.077073e+00,3.077073e+00
3.517626e+00,3.244237e+00,3,3,2.875826e+00,2.875826e+00
3.521309e+00,3.241415e+00,3,3,1.974572e+00,1.974572e+00
3.512866e+00,3.243206e+00,3,3,2.489593e+00,2.489593e+00
3.513440e+00,3.239095e+00,3,3,1.671669e+00,1.671669e+00
3.516310e+00,3.241593e+00,3,3,2.163022e+00,2.163022e+00
3.518899e+00,3.240215e+00,3,3,7.060764e-01,7.060765e-01
3.518220e+00,3.237847e+00,3,3,9.278442e-01,9.278439e-01
3.511775e+00,3.243337e+00,3,3,1.801419e+00,1.801418e+00
3.511343e+00,3.238660e+00,3,3,1.390243e+00,1.390243e+00
3.517896e+00,3.238913e+00,3,3,2.192526e+00,2.192526e+00
3.519431e+00,3.237455e+00,3,3,1.943535e+00,1.943535e+00
3.513651e+00,3.241614e+00,3,3,3.271278e+00,3.271278e+00
3.514561e+00,3.239239e+00,3,3,1.690167e+00,1.690168e+00
3.519031e+00,3.238910e+00,3,3,1.412966e+00,1.412966e+00
3.516457e+00,3.238026e+00,3,3,1.101833e+00,1.101833e+00
3.512702e+00,3.243793e+00,3,3,1.109890e+00,1.109890e+00
3.512748e+00,3.243763e+00,3,3,1.180572e+00,1.180572e+00
3.511760e+00,3.240274e+00,3,3,1.771004e+00,1.771004e+00
3.516447e+00,3.236805e+00,3,3,7.989906e-01,7.989909e-01
3.514071e+00,3.241247e+00,3,3,5.277676e-01,5.277676e-01
3.508736e+00,3.242313e+00,3,3,5.981896e-01,5.981895e-01
3.512119e+00,3.235614e+00,3,3,5.715104e-01,5.715103e-01
3.516156e+00,3.233653e+00,3,3,4.452613e-01,4.452613e-01
3.518119e+00,3.238230e+00,3,3,7.191406e-01,7.191403e-01
3.511331e+00,3.244673e+00,3,3,1.052376e+00,1.052376e+00
3.511654e+00,3.238281e+00,3,3,1.601037e+00,1.601036e+00
3.516930e+00,3.240081e+00,3,3,3.478609e+00,3.478608e+00
3.519323e+00,3.236978e+00,3,3,4.514008e+00,4.514008e+00
3.518338e+00,3.238152e+00,3,3,3.065471e+00,3.065472e+00
3.515081e+00,3.242662e+00,3,3,3.784558e+00,3.784557e+00
3.514748e+00,3.242665e+00,3,3,2.730909e+00,2.730909e+00
3.517624e+00,3.239519e+00,3,3,2.168827e+00,2.168827e+00
3.518166e+00,3.237072e+00,3,3,2.418019e+00,2.418019e+00
3.516254e+00,3.242781e+00,3,3,1.306380e+00,1.306381e+00
3.515058e+00,3.236530e+00,3,3,9.994601e-01,9.994596e-01
3.517263e+00,3.240911e+00,3,3,7.696718e-01,7.696718e-01
3.516921e+00,3.239576e+00,3,3,7.205179e-01,7.205178e-01
3.515880e+00,3.239328e+00,3,3,6.833545e-01,6.833544e-01
3.511951e+00,3.246401e+00,3,3,1.060750e+00,1.060750e+00
3.514411e+00,3.238809e+00,3,3,3.632652e-01,3.632652e-01
3.516381e+00,3.237012e+00,3,3,1.456896e+00,1.456895e+00
3.517497e+00,3.237261e+00,3,3,3.221339e+00,3.221338e+00
3.515702e+00,3.244659e+00,3,3,1.879966e+00,1.879967e+00
3.513799e+00,3.237895e+00,3,3,1.342876e+00,1.342876e+00
3.526364e+00,3.240554e+00,3,3,1.100848e+00,1.100848e+00
3.517975e+00,3.241517e+00,3,3,9.350391e-01,9.350391e-01
3.515394e+00,3.240406e+00,3,3,8.765797e-01,8.765796e-01
3.512856e+00,3.248117e+00,3,3,1.483487e+00,1.483487e+00
3.514982e+00,3.240872e+00,3,3,1.146398e+00,1.146398e+00
3.516382e+00,3.237464e+00,3,3,8.245375e-01,8.245376e-01
3.516328e+00,3.236754e+00,3,3,9.175511e-01,9.175510e-01
3.511479e+00,3.243968e+00,3,3,1.572600e+00,1.572599e+00
3.511454e+00,3.234078e+00,3,3,2.548006e+00,2.548005e+00
3.516947e+00,3.235894e+00,3,3,4.638468e+00,4.638466e+00
3.516776e+00,3.241164e+00,3,3,5.660153e+00,5.660152e+00
3.523002e+00,3.242192e+00,3,3,5.111811e+00,5.111811e+00
3.516846e+00,3.245847e+00,3,3,5.361426e+00,5.361426e+00
3.517159e+00,3.242751e+00,3,3,4.518844e+00,4.518844e+00
3.519960e+00,3.240166e+00,3,3,4.751984e+00,4.751984e+00
3.516005e+00,3.240058e+00,3,3,4.746635e+00,4.746634e+00
3.515049e+00,3.243300e+00,3,3,3.913832e+00,3.913832e+00
3.516706e+00,3.239055e+00,3,3,3.373796e+00,3.373796e+00
3.520811e+00,3.239012e+00,3,3,2.596153e+00,2.596153e+00
3.518258e+00,3.236522e+00,3,3,2.364516e+00,2.364516e+00
3.519247e+00,3.240225e+00,3,3,2.377071e+00,2.377071e+00
3.513614e+00,3.242330e+00,3,3,3.044289e+00,3.044291e+00
3.513051e+00,3.235682e+00,3,3,5.471063e+00,5.469932e+00
7.012846e+00,6.464129e+00,6,6,5.713009e+00,5.711238e+00
5.848509e+00,5.387812e+00,5,5,6.257295e+00,6.256961e+00
4.685014e+00,4.314189e+00,4,4,5.303532e+00,5.303532e+00
3.517163e+00,3.238514e+00,3,3,5.338707e+00,5.338708e+00
3.515548e+00,3.241059e+00,3,3,6.515704e+00,6.515704e+00
3.518281e+00,3.238359e+00,3,3,6.035031e+00,6.035031e+00
3.523013e+00,3.243393e+00,3,3,5.027719e+00,5.027719e+00
3.520388e+00,3.238973e+00,3,3,4.242581e+00,4.242581e+00
3.520031e+00,3.239628e+00,3,3,3.761779e+00,3.761779e+00
3.514538e+00,3.244300e+00,3,3,3.222017e+00,3.222017e+00
3.516138e+00,3.238066e+00,3,3,2.958966e+00,2.958966e+00
3.520493e+00,3.237524e+00,3,3,3.072673e+00,3.072673e+00
3.517354e+00,3.239016e+00,3,3,1.689583e+00,1.689583e+00
3.513902e+00,3.242010e+00,3,3,1.466487e+00,1.466487e+00
3.513133e+00,3.236703e+00,3,3,1.622642e+00,1.622641e+00
3.516115e+00,3.238438e+00,3,3,1.120968e+00,1.120968e+00
3.516380e+00,3.240471e+00,3,3,9.459944e-01,9.459944e-01
3.515618e+00,3.234150e+00,3,3,7.684243e-01,7.684241e-01
3.510406e+00,3.241234e+00,3,3,4.885176e-01,4.885177e-01
3.510516e+00,3.237346e+00,3,3,3.703970e-01,3.703967e-01
3.515411e+00,3.235111e+00,3,3,2.797296e-01,2.797295e-01
3.517280e+00,3.256905e+00,3,3,3.974025e-01,3.974024e-01
3.513775e+00,3.242320e+00,3,3,5.354265e-01,5.354264e-01
3.512587e+00,3.237907e+00,3,3,3.592153e-01,3.592153e-01
3.515994e+00,3.233743e+00,3,3,4.040961e-01,4.040960e-01
3.513764e+00,3.235245e+00,3,3,1.113163e+00,1.113163e+00
3.513170e+00,3.237743e+00,3,3,2.515820e+00,2.515819e+00
3.520369e+00,3.242338e+00,3,3,3.426458e+00,3.426457e+00
3.515878e+00,3.236868e+00,3,3,2.879435e+00,2.879435e+00
3.519832e+00,3.241640e+00,3,3,3.110359e+00,3.110358e+00
3.519830e+00,3.240963e+00,3,3,3.024906e+00,3.024906e+00
3.516195e+00,3.241581e+00,3,3,2.671659e+00,2.671659e+00
3.514280e+00,3.239199e+00,3,3,2.112219e+00,2.112219e+00
3.519794e+00,3.238930e+00,3,3,2.070677e+00,2.070677e+00
3.513891e+00,3.241870e+00,3,3,3.677848e+00,3.677847e+00
3.513692e+00,3.239198e+00,3,3,4.748285e+00,4.748284e+00
3.516421e+00,3.239626e+00,3,3,5.601877e+00,5.601877e+00
3.515061e+00,3.237155e+00,3,3,4.561990e+00,4.561991e+00
3.521185e+00,3.237237e+00,3,3,3.478402e+00,3.478403e+00
3.521970e+00,3.241848e+00,3,3,2.544122e+00,2.544122e+00
3.515128e+00,3.235942e+00,3,3,2.076842e+00,2.076842e+00
3.514326e+00,3.236754e+00,3,3,2.759521e+00,2.759520e+00
3.519235e+00,3.239795e+00,3,3,2.751329e+00,2.751329e+00
3.517186e+00,3.236219e+00,3,3,2.069405e+00,2.069405e+00
3.512983e+00,3.242466e+00,3,3,2.024263e+00,2.024264e+00
3.513887e+00,3.243041e+00,3,3,2.326175e+00,2.326219e+00
3.513139e+00,3.240798e+00,3,3,2.414221e+00,2.414222e+00
3.516561e+00,3.237739e+00,3,3,2.956548e+00,2.956547e+00
3.518608e+00,3.237760e+00,3,3,2.350924e+00,2.350924e+00
3.512710e+00,3.242113e+00,3,3,3.067178e+00,3.067178e+00
3.514414e+00,3.239120e+00,3,3,3.023787e+00,3.023787e+00
3.518059e+00,3.236079e+00,3,3,2.527911e+00,2.527911e+00
3.519318e+00,3.238549e+00,3,3,2.091118e+00,2.091118e+00
3.512808e+00,3.244054e+00,3,3,2.201043e+00,2.201043e+00
3.514258e+00,3.238083e+00,3,3,2.211135e+00,2.211135e+00
3.513285e+00,3.236445e+00,3,3,1.630544e+00,1.630545e+00
3.517344e+00,3.236713e+00,3,3,1.629960e+00,1.629959e+00
3.517809e+00,3.241461e+00,3,3,1.065575e+00,1.065575e+00
3.511279e+00,3.242992e+00,3,3,8.781362e-01,8.781362e-01
3.511182e+00,3.237116e+00,3,3,5.657123e-01,5.657122e-01
3.513468e+00,3.237879e+00,3,3,3.838169e-01,3.838169e-01
3.524625e+00,3.239338e+00,3,3,2.168859e-01,2.168859e-01
3.509281e+00,3.240459e+00,3,3,4.077928e-01,4.077926e-01
3.510961e+00,3.239740e+00,3,3,2.298410e-01,2.298410e-01
3.513556e+00,3.236319e+00,3,3,2.219913e-01,2.219912e-01
3.515050e+00,3.243494e+00,3,3,1.341587e-01,1.341586e-01
3.510937e+00,3.239390e+00,3,3,1.470552e-01,1.470552e-01
3.508297e+00,3.241712e+00,3,3,1.317567e-01,1.317567e-01
3.506188e+00,3.240134e+00,3,3,3.249661e-01,3.249660e-01
3.511263e+00,3.238603e+00,3,3,2.494326e-01,2.494325e-01
3.514174e+00,3.241212e+00,3,3,2.719724e-01,2.719722e-01
3.508285e+00,3.240677e+00,3,3,5.470064e-01,5.470062e-01
3.510706e+00,3.242059e+00,3,3,2.990697e-01,2.990698e-01
3.514049e+00,3.238159e+00,3,3,4.258677e-01,4.258676e-01
3.515062e+00,3.240200e+00,3,3,4.303108e-01,4.303107e-01
3.509687e+00,3.244073e+00,3,3,7.248236e-01,7.248235e-01
3.510953e+00,3.244490e+00,3,3,5.522408e-01,5.522408e-01
3.511305e+00,3.238822e+00,3,3,3.638423e-01,3.638423e-01
3.516001e+00,3.239386e+00,3,3,2.660243e-01,2.660243e-01
3.513447e+00,3.233306e+00,3,3,3.563770e-01,3.563769e-01
3.509914e+00,3.237258e+00,3,3,3.281880e-01,3.281880e-01
3.509370e+00,3.233287e+00,3,3,2.648641e-01,2.648641e-01
3.527665e+00,3.241052e+00,3,3,4.637969e-01,4.637969e-01
3.518681e+00,3.238145e+00,3,3,3.516939e-01,3.516939e-01
3.510233e+00,3.246631e+00,3,3,5.227982e-01,5.227981e-01
3.509657e+00,3.240843e+00,3,3,9.247090e-01,9.247087e-01
3.518621e+00,3.240704e+00,3,3,8.107850e-01,8.107849e-01
3.515402e+00,3.238404e+00,3,3,7.181155e-01,7.181154e-01
3.515138e+00,3.239813e+00,3,3,1.643258e+00,1.643257e+00
3.511464e+00,3.244243e+00,3,3,1.994016e+00,1.994016e+00
3.510657e+00,3.238052e+00,3,3,1.134334e+00,1.134334e+00
3.516455e+00,3.239215e+00,3,3,8.482995e-01,8.482996e-01
3.515459e+00,3.239787e+00,3,3,6.537288e-01,6.537287e-01
3.513297e+00,3.244315e+00,3,3,4.364268e-01,4.364268e-01
3.511486e+00,3.236869e+00,3,3,3.864401e-01,3.864400e-01
3.514829e+00,3.238026e+00,3,3,5.548975e-01,5.548975e-01
3.515928e+00,3.237935e+00,3,3,5.307643e-01,5.307643e-01
3.514747e+00,3.239609e+00,3,3,2.639973e-01,2.639972e-01
3.509722e+00,3.243122e+00,3,3,7.177025e-01,7.177023e-01
3.511270e+00,3.241381e+00,3,3,3.984592e-01,3.984592e-01
3.512580e+00,3.239922e+00,3,3,3.519681e-01,3.519680e-01
3.515505e+00,3.241278e+00,3,3,4.923571e-01,4.923570e-01
3.509241e+00,3.243100e+00,3,3,4.030473e-01,4.030473e-01
3.512325e+00,3.238908e+00,3,3,4.731872e-01,4.731871e-01
3.514933e+00,3.241701e+00,3,3,6.026992e-01,6.026991e-01
3.513097e+00,3.237628e+00,3,3,4.756017e-01,4.756016e-01
3.509962e+00,3.243472e+00,3,3,4.945690e-01,4.945688e-01
3.508545e+00,3.240849e+00,3,3,6.169641e-01,6.169640e-01
3.510003e+00,3.238737e+00,3,3,7.574959e-01,7.574957e-01
3.517091e+00,3.241887e+00,3,3,1.135819e+00,1.135818e+00
3.517995e+00,3.246464e+00,3,3,7.866710e-01,7.866711e-01
3.511789e+00,3.243724e+00,3,3,7.566151e-01,7.566148e-01
3.512361e+00,3.238425e+00,3,3,7.321452e-01,7.321451e-01
3.515775e+00,3.242379e+00,3,3,7.926656e-01,7.926655e-01
3.514232e+00,3.240709e+00,3,3,6.555935e-01,6.555935e-01
3.511361e+00,3.242209e+00,3,3,1.115601e+00,1.115601e+00
3.509558e+00,3.237259e+00,3,3,8.292408e-01,8.292409e-01
3.510113e+00,3.240848e+00,3,3,7.751496e-01,7.751495e-01
3.514408e+00,3.239253e+00,3,3,7.596657e-01,7.596656e-01
3.515915e+00,3.236813e+00,3,3,6.878775e-01,6.878775e-01
3.511787e+00,3.243124e+00,3,3,4.928153e-01,4.928153e-01
3.512597e+00,3.236079e+00,3,3,6.019904e-01,6.019902e-01
3.514794e+00,3.237545e+00,3,3,6.788456e-01,6.788454e-01
3.511903e+00,3.239540e+00,3,3,4.668361e-01,4.668360e-01
3.511692e+00,3.241683e+00,3,3,8.782913e-01,8.782910e-01
3.510596e+00,3.235140e+00,3,3,6.180956e-01,6.180956e-01
3.513554e+00,3.232786e+00,3,3,5.652572e-01,5.652571e-01
3.515303e+00,3.238693e+00,3,3,5.058808e-01,5.058808e-01
3.515683e+00,3.238032e+00,3,3,3.970669e-01,3.970667e-01
3.510663e+00,3.241503e+00,3,3,2.920336e-01,2.920336e-01
3.510198e+00,3.243783e+00,3,3,5.797283e-01,5.797282e-01
3.515768e+00,3.238451e+00,3,3,4.997496e-01,4.997496e-01
3.515732e+00,3.240071e+00,3,3,5.083716e-01,5.083714e-01
3.511451e+00,3.242658e+00,3,3,4.754079e-01,4.754078e-01
3.509925e+00,3.239945e+00,3,3,3.696141e-01,3.696140e-01
3.513827e+00,3.239341e+00,3,3,4.437754e-01,4.437754e-01
3.513803e+00,3.239901e+00,3,3,3.442546e-01,3.442546e-01
3.512655e+00,3.242783e+00,3,3,1.454145e+00,1.454144e+00
3.511376e+00,3.241861e+00,3,3,3.218433e+00,3.218431e+00
3.513590e+00,3.242737e+00,3,3,2.417712e+00,2.417713e+00
3.517840e+00,3.237467e+00,3,3,1.723471e+00,1.723471e+00
3.515434e+00,3.241936e+00,3,3,1.264275e+00,1.264275e+00
3.510535e+00,3.241031e+00,3,3,1.366921e+00,1.366921e+00
3.510586e+00,3.241048e+00,3,3,1.080434e+00,1.080434e+00
3.514742e+00,3.240880e+00,3,3,1.043215e+00,1.043214e+00
3.515649e+00,3.239971e+00,3,3,1.256931e+00,1.256930e+00
3.511307e+00,3.240655e+00,3,3,1.434086e+00,1.434086e+00
3.510865e+00,3.234063e+00,3,3,1.312172e+00,1.312171e+00
3.513059e+00,3.241367e+00,3,3,1.397984e+00,1.397984e+00
3.515927e+00,3.240718e+00,3,3,1.863006e+00,1.863005e+00
3.516626e+00,3.240826e+00,3,3,1.373502e+00,1.373502e+00
3.511154e+00,3.246390e+00,3,3,9.297248e-01,9.297249e-01
3.511934e+00,3.239288e+00,3,3,5.499695e-01,5.499696e-01
3.514060e+00,3.240475e+00,3,3,3.668122e-01,3.668122e-01
3.511929e+00,3.240186e+00,3,3,2.877344e-01,2.877343e-01
3.510902e+00,3.244109e+00,3,3,3.947814e-01,3.947813e-01
3.511558e+00,3.237141e+00,3,3,2.789106e-01,2.789106e-01
3.512961e+00,3.238147e+00,3,3,4.675782e-01,4.675781e-01
3.516169e+00,3.241247e+00,3,3,4.970870e-01,4.970870e-01
3.515681e+00,3.239304e+00,3,3,4.618472e-01,4.618472e-01
3.510656e+00,3.243809e+00,3,3,5.953705e-01,5.953703e-01
3.508301e+00,3.239094e+00,3,3,3.315649e-01,3.315649e-01
3.514578e+00,3.239082e+00,3,3,2.690293e-01,2.690293e-01
3.515697e+00,3.241453e+00,3,3,1.439724e+00,1.439723e+00
3.511266e+00,3.243177e+00,3,3,1.497785e+00,1.497785e+00
3.513157e+00,3.238875e+00,3,3,7.278902e-01,7.278904e-01
3.515801e+00,3.240314e+00,3,3,7.181026e-01,7.181026e-01
3.513772e+00,3.241811e+00,3,3,6.287868e-01,6.287868e-01
3.507924e+00,3.240781e+00,3,3,6.738957e-01,6.738956e-01
3.511743e+00,3.243507e+00,3,3,3.442821e-01,3.442821e-01
3.530478e+00,3.237399e+00,3,3,2.891120e-01,2.891119e-01
3.512789e+00,3.237076e+00,3,3,5.501598e-01,5.501597e-01
3.513064e+00,3.241304e+00,3,3,6.853906e-01,6.853906e-01
3.509710e+00,3.242321e+00,3,3,8.436226e-01,8.436225e-01
3.513140e+00,3.239747e+00,3,3,5.492943e-01,5.492943e-01
3.514474e+00,3.235772e+00,3,3,5.278050e-01,5.278049e-01
3.514243e+00,3.241012e+00,3,3,7.921354e-01,7.921351e-01
3.510442e+00,3.244578e+00,3,3,1.174981e+00,1.174981e+00
3.511923e+00,3.238125e+00,3,3,1.302907e+00,1.302907e+00
3.512271e+00,3.240817e+00,3,3,1.817128e+00,1.817127e+00
3.517798e+00,3.238808e+00,3,3,1.715595e+00,1.715595e+00
3.514122e+00,3.240401e+00,3,3,2.668153e+00,2.668169e+00
3.511718e+00,3.242768e+00,3,3,1.115506e+00,1.115507e+00
3.510932e+00,3.238507e+00,3,3,9.496711e-01,9.496710e-01
3.514637e+00,3.240572e+00,3,3,1.501075e+00,1.501074e+00
3.525886e+00,3.239187e+00,3,3,7.347724e-01,7.347726e-01
3.514159e+00,3.242646e+00,3,3,6.039009e-01,6.039009e-01
3.511751e+00,3.240384e+00,3,3,4.902778e-01,4.902778e-01
3.514051e+00,3.240026e+00,3,3,3.288280e-01,3.288280e-01
3.514022e+00,3.240425e+00,3,3,6.713491e-01,6.713488e-01
3.517224e+00,3.240477e+00,3,3,4.977140e-01,4.977140e-01
3.511440e+00,3.246231e+00,3,3,2.836719e-01,2.836719e-01
3.512950e+00,3.239526e+00,3,3,6.883871e-01,6.883870e-01
3.517508e+00,3.242391e+00,3,3,4.772302e-01,4.772302e-01
3.515702e+00,3.236857e+00,3,3,2.511178e-01,2.511178e-01
3.509320e+00,3.240180e+00,3,3,2.738165e-01,2.738165e-01
3.510586e+00,3.239323e+00,3,3,3.426205e-01,3.426203e-01
3.511698e+00,3.238815e+00,3,3,5.175609e-01,5.175607e-01
3.514873e+00,3.238294e+00,3,3,1.085640e+00,1.085639e+00
3.515038e+00,3.240658e+00,3,3,7.889605e-01,7.889599e-01
3.511552e+00,3.242299e+00,3,3,1.428628e+00,1.428628e+00
3.517288e+00,3.242145e+00,3,3,6.237795e-01,6.237798e-01
3.514356e+00,3.237428e+00,3,3,4.969001e-01,4.969001e-01
3.514492e+00,3.241230e+00,3,3,3.323368e-01,3.323368e-01
3.511225e+00,3.241595e+00,3,3,3.054061e-01,3.054060e-01
3.510027e+00,3.236665e+00,3,3,8.581275e-01,8.581270e-01
3.517989e+00,3.241639e+00,3,3,8.560418e-01,8.560417e-01
3.515986e+00,3.243291e+00,3,3,1.314360e+00,1.314359e+00
3.516540e+00,3.241626e+00,3,3,1.349009e+00,1.349009e+00
3.512384e+00,3.244988e+00,3,3,1.548528e+00,1.548528e+00
3.513307e+00,3.239495e+00,3,3,2.537457e+00,2.537456e+00
3.515920e+00,3.238825e+00,3,3,2.841285e+00,2.841284e+00
3.517160e+00,3.240641e+00,3,3,2.122477e+00,2.122477e+00
3.513686e+00,3.241928e+00,3,3,1.906988e+00,1.906988e+00
3.514268e+00,3.238233e+00,3,3,2.680225e+00,2.680225e+00
3.517975e+00,3.238745e+00,3,3,1.820728e+00,1.820728e+00
3.514611e+00,3.239695e+00,3,3,1.509573e+00,1.509573e+00
3.519056e+00,3.241975e+00,3,3,1.527033e+00,1.527033e+00
3.512622e+00,3.245056e+00,3,3,1.650989e+00,1.650989e+00
3.512716e+00,3.241836e+00,3,3,1.808075e+00,1.808075e+00
3.513955e+00,3.237457e+00,3,3,1.332615e+00,1.332615e+00
3.516172e+00,3.239124e+00,3,3,1.278934e+00,1.278934e+00
3.511203e+00,3.241528e+00,3,3,1.640311e+00,1.640310e+00
3.512806e+00,3.238918e+00,3,3,1.799944e+00,1.799944e+00
3.516918e+00,3.242094e+00,3,3,1.140216e+00,1.140217e+00
3.512953e+00,3.239516e+00,3,3,1.096292e+00,1.096292e+00
3.511799e+00,3.247337e+00,3,3,6.438806e-01,6.438809e-01
3.511604e+00,3.242229e+00,3,3,6.245240e-01,6.245240e-01

