5.288460e-01,2.339550e-01,1.480579e-01,2,0,0.000000e+00,0.000000e+00
7.784040e-01,4.538300e-02,3.814697e-02,3,0,1.224989e-01,1.224992e-01
7.607360e-01,5.633400e-02,4.982948e-02,3,0,2.345668e-01,2.345673e-01
7.680220e-01,4.340600e-02,3.695488e-02,3,0,5.258030e-01,5.258037e-01
7.665670e-01,4.322000e-02,3.695488e-02,3,0,7.144354e-01,7.144359e-01
7.675050e-01,4.311600e-02,3.695488e-02,3,0,2.321987e+00,2.321990e+00
7.979910e-01,4.367100e-02,3.790855e-02,3,0,2.937772e+00,2.937773e+00
7.612200e-01,4.342100e-02,3.790855e-02,3,0,3.999181e+00,3.999183e+00
8.130430e-01,5.918800e-02,5.316734e-02,3,0,2.330342e+00,2.330341e+00
7.686930e-01,4.382300e-02,3.695488e-02,3,0,2.421715e+00,2.421716e+00
7.964810e-01,4.365400e-02,3.719330e-02,3,0,2.576015e+00,2.576016e+00
7.673660e-01,4.371700e-02,3.695488e-02,3,0,2.770817e+00,2.770819e+00
7.802760e-01,4.295100e-02,3.695488e-02,3,0,3.514166e+00,3.514168e+00
7.613810e-01,4.359900e-02,3.790855e-02,3,0,4.290244e+00,4.290246e+00
7.615990e-01,4.871400e-02,3.695488e-02,3,0,4.242581e+00,4.242582e+00
7.668160e-01,4.328600e-02,3.719330e-02,3,0,4.933789e+00,4.933791e+00
7.675080e-01,4.321900e-02,3.695488e-02,3,0,4.664814e+00,4.664815e+00
7.808220e-01,4.284300e-02,3.695488e-02,3,0,4.266359e+00,4.266359e+00
7.675150e-01,4.346400e-02,3.695488e-02,3,0,4.241151e+00,4.241152e+00
7.613690e-01,4.306500e-02,3.695488e-02,3,0,4.176317e+00,4.176318e+00
7.676180e-01,4.306100e-02,3.695488e-02,3,0,4.275133e+00,4.275134e+00
7.674760e-01,4.363000e-02,3.719330e-02,3,0,3.953514e+00,3.953515e+00
7.739200e-01,4.322400e-02,3.695488e-02,3,0,3.785783e+00,3.785784e+00
7.673050e-01,4.339100e-02,3.719330e-02,3,0,4.242823e+00,4.242825e+00
7.619090e-01,4.319700e-02,3.695488e-02,3,0,4.919256e+00,4.919258e+00
7.614160e-01,4.860200e-02,3.695488e-02,3,0,5.450415e+00,5.450416e+00
7.674000e-01,4.329000e-02,3.814697e-02,3,0,4.905831e+00,4.905832e+00
7.688390e-01,4.315200e-02,3.719330e-02,3,0,5.165725e+00,5.165727e+00
7.676400e-01,4.318400e-02,3.695488e-02,3,0,4.807360e+00,4.807361e+00
7.677810e-01,4.309100e-02,3.695488e-02,3,0,4.213304e+00,4.213304e+00
7.614410e-01,4.316400e-02,3.695488e-02,3,0,3.640409e+00,3.640410e+00
7.668160e-01,4.271100e-02,3.695488e-02,3,0,2.976909e+00,2.976909e+00
7.676580e-01,4.296400e-02,3.695488e-02,3,0,3.285965e+00,3.285966e+00
7.680480e-01,4.352800e-02,3.695488e-02,3,0,3.891882e+00,3.891884e+00
7.680870e-01,4.314700e-02,3.695488e-02,3,0,2.783992e+00,2.783992e+00
7.607410e-01,4.322300e-02,3.695488e-02,3,0,3.172976e+00,3.172977e+00
7.616910e-01,4.788400e-02,4.196167e-02,3,0,2.862834e+00,2.862834e+00
7.666560e-01,4.284800e-02,3.695488e-02,3,0,2.874755e+00,2.874756e+00
7.678260e-01,4.278800e-02,3.600121e-02,3,0,2.953560e+00,2.953560e+00
7.670830e-01,4.302900e-02,3.695488e-02,3,0,3.031236e+00,3.031236e+00
7.678060e-01,4.314600e-02,3.600121e-02,3,0,4.966016e+00,4.966021e+00
7.608010e-01,4.352800e-02,3.695488e-02,3,0,5.958407e+00,5.958410e+00
7.663960e-01,4.266700e-02,3.600121e-02,3,0,4.229541e+00,4.229539e+00
7.675630e-01,9.150500e-02,8.583069e-02,3,1,5.751091e+00,5.750796e+00
1.275146e+00,8.484400e-02,7.891655e-02,5,1,4.315744e+00,4.315697e+00
7.678370e-01,4.335100e-02,3.719330e-02,3,0,3.748389e+00,3.748390e+00
7.674650e-01,4.326700e-02,3.814697e-02,3,0,3.764174e+00,3.764175e+00
7.686540e-01,4.326600e-02,3.695488e-02,3,0,3.906209e+00,3.906210e+00
7.678640e-01,4.299600e-02,3.695488e-02,3,0,3.175322e+00,3.175322e+00
7.614600e-01,4.308800e-02,3.695488e-02,3,0,2.389985e+00,2.389984e+00
7.619410e-01,4.868500e-02,3.695488e-02,3,0,2.663749e+00,2.663750e+00
7.680140e-01,4.258000e-02,3.600121e-02,3,0,3.366268e+00,3.366271e+00
7.682200e-01,4.311000e-02,3.695488e-02,3,0,2.986348e+00,2.986349e+00
7.689530e-01,4.322300e-02,3.695488e-02,3,0,2.554227e+00,2.554226e+00
7.680320e-01,4.323400e-02,3.695488e-02,3,0,2.876490e+00,2.876491e+00
7.620920e-01,4.350700e-02,3.695488e-02,3,0,3.497737e+00,3.497739e+00
7.671550e-01,4.273800e-02,3.695488e-02,3,0,3.093397e+00,3.093398e+00
7.678420e-01,4.331300e-02,3.695488e-02,3,0,3.630110e+00,3.630111e+00
7.685910e-01,4.327300e-02,3.719330e-02,3,0,3.957849e+00,3.957850e+00
7.696020e-01,4.270300e-02,3.719330e-02,3,0,5.245951e+00,5.245954e+00
7.610110e-01,4.264600e-02,3.719330e-02,3,0,3.105611e+00,3.105611e+00
7.620490e-01,4.843700e-02,4.196167e-02,3,0,4.925002e+00,4.925006e+00
7.678480e-01,4.253600e-02,3.600121e-02,3,0,6.905330e+00,6.905335e+00
7.703120e-01,4.273100e-02,3.719330e-02,3,0,4.927439e+00,4.927437e+00
7.682410e-01,8.525700e-02,7.891655e-02,3,1,5.868443e+00,5.868107e+00
1.019995e+00,8.357300e-02,7.796288e-02,4,1,3.290590e+00,3.290587e+00
7.948210e-01,4.341200e-02,3.814697e-02,3,0,3.410349e+00,3.410350e+00
7.811600e-01,4.363800e-02,3.790855e-02,3,0,3.693055e+00,3.693056e+00
7.851940e-01,5.590800e-02,5.006790e-02,3,0,3.613930e+00,3.613931e+00
7.675010e-01,4.297500e-02,3.695488e-02,3,0,3.306837e+00,3.306837e+00
7.668480e-01,4.273300e-02,3.600121e-02,3,0,3.656960e+00,3.656962e+00
7.674820e-01,4.306100e-02,3.719330e-02,3,0,4.036119e+00,4.036120e+00
7.685990e-01,4.277000e-02,3.600121e-02,3,0,4.515406e+00,4.515408e+00
7.668750e-01,4.295100e-02,3.695488e-02,3,0,4.495026e+00,4.495027e+00
7.606530e-01,4.314800e-02,3.600121e-02,3,0,4.608833e+00,4.608834e+00
7.672630e-01,4.269000e-02,3.600121e-02,3,0,6.091962e+00,6.091965e+00
7.676300e-01,4.324200e-02,3.695488e-02,3,0,5.238874e+00,5.238874e+00
7.670100e-01,4.294300e-02,3.719330e-02,3,0,4.539742e+00,4.539742e+00
7.675810e-01,4.313800e-02,3.695488e-02,3,0,4.691218e+00,4.691219e+00
7.609780e-01,4.300800e-02,3.695488e-02,3,0,3.049183e+00,3.049182e+00
7.665280e-01,4.231500e-02,3.719330e-02,3,0,3.586563e+00,3.586566e+00
7.674310e-01,4.294900e-02,3.695488e-02,3,0,2.657508e+00,2.657508e+00
7.674890e-01,4.319300e-02,3.695488e-02,3,0,2.038262e+00,2.038262e+00
7.671770e-01,4.270400e-02,3.600121e-02,3,0,1.909317e+00,1.909318e+00
7.603160e-01,4.245900e-02,3.600121e-02,3,0,2.474396e+00,2.474399e+00
7.609610e-01,4.920900e-02,4.291534e-02,3,0,4.020276e+00,4.020279e+00
7.663190e-01,4.269800e-02,3.719330e-02,3,0,5.641531e+00,5.641535e+00
7.686220e-01,1.050460e-01,9.894371e-02,3,1,8.107671e+00,8.108015e+00
7.944190e-01,8.933800e-02,8.296967e-02,3,1,7.597550e+00,7.597552e+00
7.682350e-01,4.336700e-02,3.695488e-02,3,0,6.220475e+00,6.220474e+00
7.668420e-01,4.326800e-02,3.695488e-02,3,0,5.031842e+00,5.031842e+00
7.611420e-01,4.307900e-02,3.695488e-02,3,0,3.857042e+00,3.857042e+00
7.669160e-01,4.246700e-02,3.600121e-02,3,0,5.029868e+00,5.029872e+00
7.675090e-01,4.303600e-02,3.695488e-02,3,0,4.082383e+00,4.082382e+00
7.661460e-01,8.533800e-02,8.010864e-02,3,1,4.847538e+00,4.845102e+00
2.036653e+00,4.305700e-02,3.695488e-02,8,0,5.342195e+00,5.341173e+00
1.018904e+00,9.158400e-02,8.487701e-02,4,1,3.879982e+00,3.879982e+00
7.672050e-01,4.352000e-02,3.695488e-02,3,0,3.188615e+00,3.188614e+00
7.672880e-01,4.311700e-02,3.695488e-02,3,0,4.499454e+00,4.499457e+00
7.604940e-01,4.317900e-02,3.695488e-02,3,0,4.902980e+00,4.902982e+00
7.607280e-01,4.850600e-02,4.315376e-02,3,0,4.148648e+00,4.148648e+00
7.666600e-01,4.309700e-02,3.695488e-02,3,0,4.344916e+00,4.344918e+00
7.669040e-01,4.302300e-02,3.695488e-02,3,0,2.848114e+00,2.848113e+00
7.660130e-01,4.296400e-02,3.695488e-02,3,0,3.154500e+00,3.154501e+00
7.732050e-01,4.301700e-02,3.695488e-02,3,0,2.823771e+00,2.823771e+00
7.615320e-01,4.302900e-02,3.695488e-02,3,0,3.404198e+00,3.404200e+00
7.671240e-01,4.247400e-02,3.600121e-02,3,0,4.637282e+00,4.637284e+00
7.677060e-01,4.312800e-02,3.695488e-02,3,0,4.650692e+00,4.650692e+00
7.670850e-01,4.316500e-02,3.695488e-02,3,0,4.863992e+00,4.863993e+00
7.677660e-01,4.323000e-02,3.719330e-02,3,0,3.918841e+00,3.918840e+00
7.606640e-01,4.286300e-02,3.695488e-02,3,0,3.581968e+00,3.581968e+00
7.661590e-01,4.266100e-02,3.695488e-02,3,0,3.721721e+00,3.721722e+00
7.663850e-01,4.312400e-02,3.695488e-02,3,0,3.969816e+00,3.969817e+00
7.668590e-01,4.301900e-02,3.600121e-02,3,0,4.270719e+00,4.270720e+00
7.674180e-01,4.273400e-02,3.695488e-02,3,0,3.022376e+00,3.022375e+00
7.675490e-01,4.292500e-02,3.600121e-02,3,0,2.310534e+00,2.310534e+00
7.610240e-01,4.316800e-02,3.695488e-02,3,0,3.590708e+00,3.590710e+00
7.665500e-01,4.294400e-02,3.695488e-02,3,0,3.056452e+00,3.056452e+00
7.669620e-01,4.278700e-02,3.695488e-02,3,0,5.508718e+00,5.508722e+00
7.667740e-01,4.297700e-02,3.600121e-02,3,0,3.626956e+00,3.626954e+00
7.667280e-01,4.281800e-02,3.600121e-02,3,0,3.748196e+00,3.748197e+00
7.600870e-01,4.287600e-02,3.719330e-02,3,0,5.171672e+00,5.171675e+00
7.666750e-01,4.271900e-02,3.695488e-02,3,0,4.663314e+00,4.663314e+00
7.669340e-01,4.289600e-02,3.695488e-02,3,0,5.159014e+00,5.159016e+00
7.670660e-01,8.479400e-02,7.891655e-02,3,1,6.505597e+00,6.505343e+00
1.018231e+00,8.476700e-02,7.796288e-02,4,1,4.665012e+00,4.664998e+00
7.683150e-01,4.325700e-02,3.695488e-02,3,0,4.107320e+00,4.107309e+00
7.664390e-01,4.326300e-02,3.695488e-02,3,0,3.843438e+00,3.843439e+00
7.608380e-01,4.301700e-02,3.600121e-02,3,0,3.133131e+00,3.133131e+00
7.607710e-01,4.797100e-02,4.196167e-02,3,0,3.433598e+00,3.433600e+00
7.739900e-01,4.299900e-02,3.695488e-02,3,0,2.842833e+00,2.842833e+00
7.686060e-01,4.312500e-02,3.695488e-02,3,0,2.327171e+00,2.327171e+00
7.665850e-01,4.298900e-02,3.695488e-02,3,0,1.844409e+00,1.844409e+00
7.659020e-01,4.263100e-02,3.695488e-02,3,0,1.889058e+00,1.889058e+00
7.604080e-01,4.278300e-02,3.695488e-02,3,0,2.071496e+00,2.071497e+00
7.657100e-01,4.264700e-02,3.695488e-02,3,0,3.282400e+00,3.282403e+00
7.664020e-01,4.310200e-02,3.695488e-02,3,0,3.590397e+00,3.590398e+00
7.668400e-01,4.312800e-02,3.695488e-02,3,0,3.297357e+00,3.297358e+00
7.670310e-01,4.288600e-02,3.719330e-02,3,0,3.819588e+00,3.819589e+00
7.604310e-01,4.342600e-02,3.695488e-02,3,0,3.522875e+00,3.522876e+00
7.734770e-01,4.294800e-02,3.695488e-02,3,0,4.999795e+00,4.999799e+00
7.665770e-01,4.280500e-02,3.719330e-02,3,0,7.111453e+00,7.111458e+00
7.670290e-01,4.334800e-02,3.695488e-02,3,0,9.592117e+00,9.592124e+00
7.695770e-01,4.353700e-02,3.695488e-02,3,0,1.009004e+01,1.009004e+01
7.680950e-01,1.433210e-01,1.368523e-01,3,2,1.010648e+01,1.011673e+01
1.521596e+00,1.859720e-01,1.800060e-01,6,3,9.769522e+00,9.752185e+00
1.525596e+00,4.714920e-01,4.651546e-01,6,9,9.304100e+00,9.377324e+00
1.783033e+00,2.386710e-01,2.319813e-01,7,4,8.912381e+00,9.367240e+00
1.025279e+00,5.623990e-01,5.531311e-01,4,7,7.681381e+00,8.099776e+00
7.727600e-01,3.252880e-01,3.180504e-01,3,6,6.171939e+00,6.193166e+00
7.670960e-01,8.955700e-02,8.296967e-02,3,1,4.715039e+00,4.715039e+00
7.673770e-01,9.479600e-02,8.916855e-02,3,1,4.832555e+00,4.834348e+00
1.017837e+00,8.906200e-02,8.296967e-02,4,1,4.085641e+00,4.085638e+00
7.672180e-01,4.347600e-02,3.719330e-02,3,0,3.587709e+00,3.587710e+00
7.663570e-01,4.384400e-02,3.814697e-02,3,0,2.943216e+00,2.943216e+00
7.609350e-01,4.406600e-02,3.790855e-02,3,0,2.591447e+00,2.591447e+00
7.651430e-01,4.306100e-02,3.695488e-02,3,0,3.605995e+00,3.605997e+00
7.745330e-01,4.324500e-02,3.695488e-02,3,0,3.044450e+00,3.044450e+00
7.662320e-01,4.349100e-02,3.719330e-02,3,0,3.021197e+00,3.021198e+00
7.665610e-01,4.315900e-02,3.695488e-02,3,0,3.088130e+00,3.088131e+00
7.603500e-01,4.318200e-02,3.695488e-02,3,0,1.384977e+00,1.384977e+00
7.657070e-01,4.321000e-02,3.695488e-02,3,0,1.211089e+00,1.211090e+00
7.667700e-01,4.336900e-02,3.814697e-02,3,0,1.379820e+00,1.379821e+00
7.672340e-01,4.296600e-02,3.695488e-02,3,0,6.631577e-01,6.631576e-01
7.665980e-01,4.370700e-02,3.695488e-02,3,0,6.292805e-01,6.292807e-01
7.668570e-01,4.336400e-02,3.695488e-02,3,0,1.261914e+00,1.261916e+00
7.610570e-01,4.371900e-02,3.790855e-02,3,0,1.415152e+00,1.415152e+00
7.667510e-01,4.271100e-02,3.695488e-02,3,0,3.073414e+00,3.073418e+00
7.671900e-01,4.373100e-02,3.814697e-02,3,0,3.307553e+00,3.307555e+00
7.667390e-01,4.337900e-02,3.695488e-02,3,0,2.823853e+00,2.823854e+00
7.673730e-01,4.338900e-02,3.695488e-02,3,0,3.182520e+00,3.182522e+00
7.602910e-01,4.353000e-02,3.790855e-02,3,0,2.916932e+00,2.916933e+00
7.660720e-01,4.284100e-02,3.600121e-02,3,0,3.052717e+00,3.052718e+00
7.665770e-01,4.317400e-02,3.719330e-02,3,0,2.662888e+00,2.662888e+00
7.670890e-01,4.345100e-02,3.790855e-02,3,0,2.319392e+00,2.319392e+00
7.658960e-01,4.320200e-02,3.695488e-02,3,0,2.400913e+00,2.400913e+00
7.653230e-01,4.324800e-02,3.719330e-02,3,0,2.629595e+00,2.629596e+00
7.608430e-01,4.336100e-02,3.790855e-02,3,0,4.219758e+00,4.219761e+00
7.670620e-01,4.287700e-02,3.695488e-02,3,0,4.647518e+00,4.647520e+00
7.679680e-01,4.355100e-02,3.790855e-02,3,0,5.469179e+00,5.469181e+00
7.674580e-01,4.386700e-02,3.695488e-02,3,0,7.294036e+00,7.294040e+00
7.678320e-01,4.354600e-02,3.790855e-02,3,0,6.393608e+00,6.393608e+00
7.607390e-01,4.325000e-02,3.695488e-02,3,0,7.184265e+00,7.184268e+00
7.669380e-01,4.318900e-02,3.790855e-02,3,0,6.633217e+00,6.633218e+00
7.715860e-01,4.356200e-02,3.790855e-02,3,0,6.700053e+00,6.700054e+00
7.676410e-01,9.682200e-02,9.107590e-02,3,1,7.488584e+00,7.496002e+00
1.020071e+00,9.953200e-02,9.298325e-02,4,1,8.768218e+00,8.836781e+00
1.025890e+00,9.325900e-02,8.678436e-02,4,1,8.565952e+00,8.591955e+00
1.019036e+00,8.901400e-02,8.296967e-02,4,1,7.780107e+00,7.780095e+00
7.669360e-01,9.532300e-02,8.893013e-02,3,1,8.207388e+00,8.216593e+00
7.674010e-01,8.869800e-02,8.296967e-02,3,1,8.199751e+00,8.199753e+00
7.677390e-01,1.459030e-01,1.401901e-01,3,2,7.485692e+00,7.511898e+00
7.684660e-01,2.422670e-01,2.360344e-01,3,4,7.979527e+00,8.120291e+00
1.527093e+00,2.837470e-01,2.770424e-01,6,5,7.711953e+00,7.710207e+00
1.537030e+00,3.075030e-01,3.020763e-01,6,6,7.215971e+00,7.184736e+00
1.522237e+00,1.664840e-01,1.599789e-01,6,3,6.260821e+00,6.254930e+00
1.273428e+00,1.257870e-01,1.189709e-01,5,2,6.919398e+00,6.912326e+00
1.017701e+00,2.769170e-01,2.682209e-01,4,2,8.756432e+00,8.958113e+00
1.527593e+00,1.358400e-01,1.289845e-01,6,2,8.773433e+00,8.765476e+00
1.017851e+00,1.668880e-01,1.609325e-01,4,3,8.631186e+00,8.631136e+00
1.270368e+00,1.901400e-01,1.840591e-01,5,3,1.085841e+01,1.085462e+01
1.025454e+00,3.746000e-01,3.659725e-01,4,3,1.461970e+01,1.534304e+01
7.668070e-01,1.359150e-01,1.289845e-01,3,2,1.082306e+01,1.085519e+01
7.671570e-01,2.196810e-01,2.119541e-01,3,0,1.331405e+01,1.419387e+01
7.672800e-01,2.187830e-01,2.107620e-01,3,0,1.257408e+01,1.466410e+01
7.733070e-01,7.105480e-01,7.050037e-01,3,15,1.162259e+01,1.000000e+20
7.653040e-01,5.059000e-03,1.000000e+06,3,1000,9.575566e+00,1.000000e+20
7.642070e-01,4.702000e-03,1.000000e+06,3,1000,1.094956e+01,1.000000e+20
1.019128e+00,4.811000e-03,1.000000e+06,4,1000,9.998065e+00,1.000000e+20
7.588930e-01,4.656000e-03,1.000000e+06,3,1000,1.003580e+01,1.000000e+20
1.014289e+00,4.556000e-03,1.000000e+06,4,1000,6.513965e+00,1.000000e+20
7.606840e-01,4.865000e-03,1.000000e+06,3,1000,6.482503e+00,1.000000e+20
7.653670e-01,4.592000e-03,1.000000e+06,3,1000,7.781928e+00,1.000000e+20
7.661320e-01,4.734000e-03,1.000000e+06,3,1000,5.684462e+00,1.000000e+20
7.648910e-01,4.771000e-03,1.000000e+06,3,1000,7.554479e+00,1.000000e+20
7.592560e-01,4.744000e-03,1.000000e+06,3,1000,7.951694e+00,1.000000e+20
7.641050e-01,4.561000e-03,1.000000e+06,3,1000,8.880719e+00,1.000000e+20
7.649810e-01,4.723000e-03,1.000000e+06,3,1000,6.754851e+00,1.000000e+20
7.650680e-01,4.666000e-03,1.000000e+06,3,1000,7.283138e+00,1.000000e+20
7.595090e-01,4.742000e-03,1.000000e+06,3,1000,6.173044e+00,1.000000e+20
7.650580e-01,4.567000e-03,1.000000e+06,3,1000,5.991360e+00,1.000000e+20
7.642130e-01,4.670000e-03,1.000000e+06,3,1000,6.113133e+00,1.000000e+20
7.649610e-01,4.703000e-03,1.000000e+06,3,1000,6.751947e+00,1.000000e+20
7.633960e-01,4.646000e-03,1.000000e+06,3,1000,5.309844e+00,1.000000e+20
7.584840e-01,4.552000e-03,1.000000e+06,3,1000,5.211995e+00,1.000000e+20
7.648660e-01,4.566000e-03,1.000000e+06,3,1000,5.341995e+00,1.000000e+20
7.649120e-01,4.625000e-03,1.000000e+06,3,1000,5.114078e+00,1.000000e+20
7.649430e-01,4.716000e-03,1.000000e+06,3,1000,4.528309e+00,1.000000e+20
7.593530e-01,4.701000e-03,1.000000e+06,3,1000,4.299301e+00,1.000000e+20
7.649270e-01,4.511000e-03,1.000000e+06,3,1000,4.876762e+00,1.000000e+20
7.648920e-01,4.650000e-03,1.000000e+06,3,1000,5.393626e+00,1.000000e+20
7.627980e-01,4.712000e-03,1.000000e+06,3,1000,7.412961e+00,1.000000e+20
7.587140e-01,4.676000e-03,1.000000e+06,3,1000,9.095599e+00,1.000000e+20
7.649430e-01,4.562000e-03,1.000000e+06,3,1000,7.674023e+00,1.000000e+20
7.652000e-01,4.622000e-03,1.000000e+06,3,1000,8.694972e+00,1.000000e+20
7.640170e-01,4.695000e-03,1.000000e+06,3,1000,7.184394e+00,1.000000e+20
7.706600e-01,4.669000e-03,1.000000e+06,3,1000,5.208353e+00,1.000000e+20
7.582740e-01,4.692000e-03,1.000000e+06,3,1000,5.588019e+00,1.000000e+20
7.647380e-01,4.546000e-03,1.000000e+06,3,1000,4.749661e+00,1.000000e+20
7.642180e-01,4.636000e-03,1.000000e+06,3,1000,4.393023e+00,1.000000e+20
7.649490e-01,4.718000e-03,1.000000e+06,3,1000,3.556991e+00,1.000000e+20
7.582730e-01,4.622000e-03,1.000000e+06,3,1000,4.059439e+00,1.000000e+20
7.695600e-01,4.535000e-03,1.000000e+06,3,1000,3.285393e+00,1.000000e+20
7.642580e-01,4.512000e-03,1.000000e+06,3,1000,3.864100e+00,1.000000e+20
7.634950e-01,4.622000e-03,1.000000e+06,3,1000,2.603132e+00,1.000000e+20
7.582080e-01,4.678000e-03,1.000000e+06,3,1000,3.837094e+00,1.000000e+20
7.592200e-01,9.163000e-03,1.000000e+06,3,1000,6.171162e+00,1.000000e+20
1.775728e+00,4.623000e-03,1.000000e+06,7,1000,3.668707e+00,1.000000e+20
1.014542e+00,4.671000e-03,1.000000e+06,4,1000,2.937758e+00,1.000000e+20
7.652150e-01,4.703000e-03,1.000000e+06,3,1000,3.311945e+00,1.000000e+20
7.642280e-01,4.591000e-03,1.000000e+06,3,1000,3.121354e+00,1.000000e+20
7.583840e-01,4.618000e-03,1.000000e+06,3,1000,3.254762e+00,1.000000e+20
7.638560e-01,4.578000e-03,1.000000e+06,3,1000,4.419438e+00,1.000000e+20
7.652350e-01,4.591000e-03,1.000000e+06,3,1000,3.981595e+00,1.000000e+20
7.644450e-01,4.702000e-03,1.000000e+06,3,1000,3.880440e+00,1.000000e+20
7.580800e-01,4.701000e-03,1.000000e+06,3,1000,4.465001e+00,1.000000e+20
7.637230e-01,4.523000e-03,1.000000e+06,3,1000,6.240132e+00,1.000000e+20
1.523221e+00,4.566000e-03,1.000000e+06,6,1000,7.707920e+00,1.000000e+20
1.777587e+00,4.764000e-03,1.000000e+06,7,1000,1.075721e+01,1.000000e+20
1.770757e+00,4.704000e-03,1.000000e+06,7,1000,1.242723e+01,1.000000e+20
1.273814e+00,4.614000e-03,1.000000e+06,5,1000,1.209265e+01,1.000000e+20
1.521719e+00,4.700000e-03,1.000000e+06,6,1000,1.237029e+01,1.000000e+20
1.525967e+00,4.694000e-03,1.000000e+06,6,1000,1.069456e+01,1.000000e+20
1.519341e+00,4.691000e-03,1.000000e+06,6,1000,1.118405e+01,1.000000e+20
1.552130e+00,4.665000e-03,1.000000e+06,6,1000,1.105800e+01,1.000000e+20
1.545682e+00,4.709000e-03,1.000000e+06,6,1000,9.749035e+00,1.000000e+20
1.271558e+00,4.773000e-03,1.000000e+06,5,1000,9.236613e+00,1.000000e+20
1.518860e+00,4.555000e-03,1.000000e+06,6,1000,7.793547e+00,1.000000e+20
1.017469e+00,4.784000e-03,1.000000e+06,4,1000,7.406152e+00,1.000000e+20
1.523231e+00,4.495000e-03,1.000000e+06,6,1000,7.478704e+00,1.000000e+20
1.518274e+00,4.602000e-03,1.000000e+06,6,1000,8.974296e+00,1.000000e+20
1.526481e+00,4.680000e-03,1.000000e+06,6,1000,1.410410e+01,1.000000e+20
1.519471e+00,4.641000e-03,1.000000e+06,6,1000,1.569475e+01,1.000000e+20
1.524225e+00,4.668000e-03,1.000000e+06,6,1000,1.771482e+01,1.000000e+20
1.516772e+00,4.694000e-03,1.000000e+06,6,1000,1.677020e+01,1.000000e+20
1.021440e+02,4.676000e-03,1.000000e+06,400,1000,2.559714e+01,1.000000e+20
1.968052e+01,5.410000e-03,1.000000e+06,77,1000,-nan,1.000000e+20
2.318940e-01,4.903000e-03,1.000000e+06,1,1000,-nan,nan
2.366780e-01,4.451000e-03,1.000000e+06,1,1000,-nan,nan
2.304170e-01,4.719000e-03,1.000000e+06,1,1000,-nan,nan
2.301870e-01,4.579000e-03,1.000000e+06,1,1000,-nan,nan
2.303190e-01,4.468000e-03,1.000000e+06,1,1000,-nan,nan
2.377390e-01,4.476000e-03,1.000000e+06,1,1000,-nan,nan
2.312910e-01,4.642000e-03,1.000000e+06,1,1000,-nan,nan
2.305770e-01,4.512000e-03,1.000000e+06,1,1000,-nan,nan
2.305240e-01,4.482000e-03,1.000000e+06,1,1000,-nan,nan
2.366400e-01,4.472000e-03,1.000000e+06,1,1000,-nan,nan
2.306550e-01,4.511000e-03,1.000000e+06,1,1000,-nan,nan
2.302760e-01,4.586000e-03,1.000000e+06,1,1000,-nan,nan
2.302830e-01,4.449000e-03,1.000000e+06,1,1000,-nan,nan
2.400890e-01,4.417000e-03,1.000000e+06,1,1000,-nan,nan
2.306740e-01,4.696000e-03,1.000000e+06,1,1000,-nan,nan
2.305010e-01,4.570000e-03,1.000000e+06,1,1000,-nan,nan
2.305720e-01,4.441000e-03,1.000000e+06,1,1000,-nan,nan
2.302920e-01,4.291000e-03,1.000000e+06,1,1000,-nan,nan
2.355340e-01,4.443000e-03,1.000000e+06,1,1000,-nan,nan
2.306740e-01,4.564000e-03,1.000000e+06,1,1000,-nan,nan
2.332460e-01,4.491000e-03,1.000000e+06,1,1000,-nan,nan
2.309460e-01,4.407000e-03,1.000000e+06,1,1000,-nan,nan
2.370840e-01,4.524000e-03,1.000000e+06,1,1000,-nan,nan
2.306210e-01,4.604000e-03,1.000000e+06,1,1000,-nan,nan
2.303220e-01,4.512000e-03,1.000000e+06,1,1000,-nan,nan
2.303550e-01,4.522000e-03,1.000000e+06,1,1000,-nan,nan
2.371990e-01,4.399000e-03,1.000000e+06,1,1000,-nan,nan
2.302440e-01,4.555000e-03,1.000000e+06,1,1000,-nan,nan
2.300090e-01,4.522000e-03,1.000000e+06,1,1000,-nan,nan
2.298440e-01,4.527000e-03,1.000000e+06,1,1000,-nan,nan
2.363470e-01,4.442000e-03,1.000000e+06,1,1000,-nan,nan
2.304910e-01,4.629000e-03,1.000000e+06,1,1000,-nan,nan
2.302680e-01,4.500000e-03,1.000000e+06,1,1000,-nan,nan
2.304550e-01,4.397000e-03,1.000000e+06,1,1000,-nan,nan
2.365400e-01,4.454000e-03,1.000000e+06,1,1000,-nan,nan
2.300900e-01,4.632000e-03,1.000000e+06,1,1000,-nan,nan
2.302570e-01,4.527000e-03,1.000000e+06,1,1000,-nan,nan
2.301000e-01,4.513000e-03,1.000000e+06,1,1000,-nan,nan
2.361680e-01,4.456000e-03,1.000000e+06,1,1000,-nan,nan
2.305570e-01,4.703000e-03,1.000000e+06,1,1000,-nan,nan
2.301100e-01,4.541000e-03,1.000000e+06,1,1000,-nan,nan
2.299020e-01,4.501000e-03,1.000000e+06,1,1000,-nan,nan
2.304160e-01,4.443000e-03,1.000000e+06,1,1000,-nan,nan
2.366630e-01,4.437000e-03,1.000000e+06,1,1000,-nan,nan
2.307270e-01,4.598000e-03,1.000000e+06,1,1000,-nan,nan
2.302430e-01,4.496000e-03,1.000000e+06,1,1000,-nan,nan
2.302580e-01,4.485000e-03,1.000000e+06,1,1000,-nan,nan
2.361800e-01,4.362000e-03,1.000000e+06,1,1000,-nan,nan
2.301260e-01,4.634000e-03,1.000000e+06,1,1000,-nan,nan
2.299580e-01,4.459000e-03,1.000000e+06,1,1000,-nan,nan
2.301660e-01,4.465000e-03,1.000000e+06,1,1000,-nan,nan
2.357850e-01,4.486000e-03,1.000000e+06,1,1000,-nan,nan
2.305460e-01,4.626000e-03,1.000000e+06,1,1000,-nan,nan
2.302330e-01,4.461000e-03,1.000000e+06,1,1000,-nan,nan
2.303260e-01,4.518000e-03,1.000000e+06,1,1000,-nan,nan
2.366150e-01,4.468000e-03,1.000000e+06,1,1000,-nan,nan
2.304340e-01,4.670000e-03,1.000000e+06,1,1000,-nan,nan
2.301240e-01,4.537000e-03,1.000000e+06,1,1000,-nan,nan
2.304310e-01,4.419000e-03,1.000000e+06,1,1000,-nan,nan
2.361910e-01,4.393000e-03,1.000000e+06,1,1000,-nan,nan
2.305840e-01,4.585000e-03,1.000000e+06,1,1000,-nan,nan
2.304870e-01,4.513000e-03,1.000000e+06,1,1000,-nan,nan
2.301920e-01,4.492000e-03,1.000000e+06,1,1000,-nan,nan
2.302850e-01,4.570000e-03,1.000000e+06,1,1000,-nan,nan
2.310050e-01,4.558000e-03,1.000000e+06,1,1000,-nan,nan
2.304480e-01,4.567000e-03,1.000000e+06,1,1000,-nan,nan
2.300090e-01,4.490000e-03,1.000000e+06,1,1000,-nan,nan
2.301080e-01,4.436000e-03,1.000000e+06,1,1000,-nan,nan
2.356980e-01,4.463000e-03,1.000000e+06,1,1000,-nan,nan
2.302210e-01,4.633000e-03,1.000000e+06,1,1000,-nan,nan
2.302290e-01,4.452000e-03,1.000000e+06,1,1000,-nan,nan
2.302390e-01,4.304000e-03,1.000000e+06,1,1000,-nan,nan
2.364230e-01,4.447000e-03,1.000000e+06,1,1000,-nan,nan
2.300120e-01,4.646000e-03,1.000000e+06,1,1000,-nan,nan
2.302520e-01,4.442000e-03,1.000000e+06,1,1000,-nan,nan
2.302880e-01,4.442000e-03,1.000000e+06,1,1000,-nan,nan
2.365430e-01,4.503000e-03,1.000000e+06,1,1000,-nan,nan
2.301160e-01,4.517000e-03,1.000000e+06,1,1000,-nan,nan
2.304930e-01,4.510000e-03,1.000000e+06,1,1000,-nan,nan
2.302310e-01,4.464000e-03,1.000000e+06,1,1000,-nan,nan
2.361010e-01,4.372000e-03,1.000000e+06,1,1000,-nan,nan
2.304620e-01,4.636000e-03,1.000000e+06,1,1000,-nan,nan
2.305090e-01,4.539000e-03,1.000000e+06,1,1000,-nan,nan
2.302900e-01,4.424000e-03,1.000000e+06,1,1000,-nan,nan
2.356550e-01,4.489000e-03,1.000000e+06,1,1000,-nan,nan
2.303390e-01,4.669000e-03,1.000000e+06,1,1000,-nan,nan
2.300980e-01,4.518000e-03,1.000000e+06,1,1000,-nan,nan
2.305310e-01,4.334000e-03,1.000000e+06,1,1000,-nan,nan
2.304220e-01,4.449000e-03,1.000000e+06,1,1000,-nan,nan
2.364070e-01,4.477000e-03,1.000000e+06,1,1000,-nan,nan
2.304990e-01,4.631000e-03,1.000000e+06,1,1000,-nan,nan
2.304550e-01,4.477000e-03,1.000000e+06,1,1000,-nan,nan
2.303190e-01,4.266000e-03,1.000000e+06,1,1000,-nan,nan
2.362660e-01,4.458000e-03,1.000000e+06,1,1000,-nan,nan
2.303390e-01,4.607000e-03,1.000000e+06,1,1000,-nan,nan
2.304790e-01,4.499000e-03,1.000000e+06,1,1000,-nan,nan
2.303580e-01,4.396000e-03,1.000000e+06,1,1000,-nan,nan
2.365270e-01,4.418000e-03,1.000000e+06,1,1000,-nan,nan
2.304760e-01,4.583000e-03,1.000000e+06,1,1000,-nan,nan
2.302800e-01,4.437000e-03,1.000000e+06,1,1000,-nan,nan
2.301520e-01,4.477000e-03,1.000000e+06,1,1000,-nan,nan
2.369140e-01,4.501000e-03,1.000000e+06,1,1000,-nan,nan
2.305200e-01,4.615000e-03,1.000000e+06,1,1000,-nan,nan
2.304040e-01,4.478000e-03,1.000000e+06,1,1000,-nan,nan
2.304530e-01,4.546000e-03,1.000000e+06,1,1000,-nan,nan
2.372650e-01,4.438000e-03,1.000000e+06,1,1000,-nan,nan
2.303840e-01,4.683000e-03,1.000000e+06,1,1000,-nan,nan
2.301290e-01,4.492000e-03,1.000000e+06,1,1000,-nan,nan
2.303330e-01,4.304000e-03,1.000000e+06,1,1000,-nan,nan
2.350040e-01,4.513000e-03,1.000000e+06,1,1000,-nan,nan
2.307350e-01,4.648000e-03,1.000000e+06,1,1000,-nan,nan
2.304400e-01,4.449000e-03,1.000000e+06,1,1000,-nan,nan
2.298850e-01,4.411000e-03,1.000000e+06,1,1000,-nan,nan
2.302900e-01,4.396000e-03,1.000000e+06,1,1000,-nan,nan
2.359100e-01,4.473000e-03,1.000000e+06,1,1000,-nan,nan
2.305190e-01,4.690000e-03,1.000000e+06,1,1000,-nan,nan
2.303020e-01,4.493000e-03,1.000000e+06,1,1000,-nan,nan
2.302620e-01,4.402000e-03,1.000000e+06,1,1000,-nan,nan
2.358340e-01,4.394000e-03,1.000000e+06,1,1000,-nan,nan
2.301490e-01,4.641000e-03,1.000000e+06,1,1000,-nan,nan
2.302460e-01,4.519000e-03,1.000000e+06,1,1000,-nan,nan
2.300310e-01,4.534000e-03,1.000000e+06,1,1000,-nan,nan
2.359820e-01,4.457000e-03,1.000000e+06,1,1000,-nan,nan
2.305020e-01,4.725000e-03,1.000000e+06,1,1000,-nan,nan
2.302000e-01,4.519000e-03,1.000000e+06,1,1000,-nan,nan
2.301490e-01,4.488000e-03,1.000000e+06,1,1000,-nan,nan
2.363030e-01,4.424000e-03,1.000000e+06,1,1000,-nan,nan
2.302010e-01,4.700000e-03,1.000000e+06,1,1000,-nan,nan
2.302830e-01,4.371000e-03,1.000000e+06,1,1000,-nan,nan
2.301430e-01,4.469000e-03,1.000000e+06,1,1000,-nan,nan
2.374460e-01,4.492000e-03,1.000000e+06,1,1000,-nan,nan
2.307480e-01,4.677000e-03,1.000000e+06,1,1000,-nan,nan
2.304640e-01,4.374000e-03,1.000000e+06,1,1000,-nan,nan
2.301280e-01,4.487000e-03,1.000000e+06,1,1000,-nan,nan
2.303670e-01,4.379000e-03,1.000000e+06,1,1000,-nan,nan
2.356890e-01,4.459000e-03,1.000000e+06,1,1000,-nan,nan
2.305660e-01,4.626000e-03,1.000000e+06,1,1000,-nan,nan
2.300230e-01,4.412000e-03,1.000000e+06,1,1000,-nan,nan
2.302370e-01,4.412000e-03,1.000000e+06,1,1000,-nan,nan
2.358990e-01,4.432000e-03,1.000000e+06,1,1000,-nan,nan
2.303060e-01,4.649000e-03,1.000000e+06,1,1000,-nan,nan
2.302520e-01,4.487000e-03,1.000000e+06,1,1000,-nan,nan
2.301500e-01,4.436000e-03,1.000000e+06,1,1000,-nan,nan
2.367980e-01,4.442000e-03,1.000000e+06,1,1000,-nan,nan
2.304950e-01,4.524000e-03,1.000000e+06,1,1000,-nan,nan
2.301830e-01,4.456000e-03,1.000000e+06,1,1000,-nan,nan
2.299990e-01,4.485000e-03,1.000000e+06,1,1000,-nan,nan
2.358560e-01,4.363000e-03,1.000000e+06,1,1000,-nan,nan
2.305540e-01,4.519000e-03,1.000000e+06,1,1000,-nan,nan
2.305460e-01,4.565000e-03,1.000000e+06,1,1000,-nan,nan
2.302740e-01,4.487000e-03,1.000000e+06,1,1000,-nan,nan
2.357580e-01,4.451000e-03,1.000000e+06,1,1000,-nan,nan
2.303950e-01,4.560000e-03,1.000000e+06,1,1000,-nan,nan
2.302290e-01,4.470000e-03,1.000000e+06,1,1000,-nan,nan
2.302740e-01,4.475000e-03,1.000000e+06,1,1000,-nan,nan
2.348980e-01,4.372000e-03,1.000000e+06,1,1000,-nan,nan
2.308560e-01,4.757000e-03,1.000000e+06,1,1000,-nan,nan
2.303170e-01,4.556000e-03,1.000000e+06,1,1000,-nan,nan
2.304410e-01,4.388000e-03,1.000000e+06,1,1000,-nan,nan
2.302360e-01,4.453000e-03,1.000000e+06,1,1000,-nan,nan
2.365640e-01,4.488000e-03,1.000000e+06,1,1000,-nan,nan
2.302680e-01,4.641000e-03,1.000000e+06,1,1000,-nan,nan
2.303920e-01,4.496000e-03,1.000000e+06,1,1000,-nan,nan
2.298210e-01,4.509000e-03,1.000000e+06,1,1000,-nan,nan
2.366150e-01,4.356000e-03,1.000000e+06,1,1000,-nan,nan
2.305070e-01,4.716000e-03,1.000000e+06,1,1000,-nan,nan
2.302440e-01,4.363000e-03,1.000000e+06,1,1000,-nan,nan
2.305120e-01,4.452000e-03,1.000000e+06,1,1000,-nan,nan
2.360550e-01,4.279000e-03,1.000000e+06,1,1000,-nan,nan
2.301780e-01,4.703000e-03,1.000000e+06,1,1000,-nan,nan
2.302390e-01,4.459000e-03,1.000000e+06,1,1000,-nan,nan
2.298470e-01,4.501000e-03,1.000000e+06,1,1000,-nan,nan
2.360280e-01,4.475000e-03,1.000000e+06,1,1000,-nan,nan
2.305730e-01,4.601000e-03,1.000000e+06,1,1000,-nan,nan
2.303110e-01,4.483000e-03,1.000000e+06,1,1000,-nan,nan
2.302850e-01,4.451000e-03,1.000000e+06,1,1000,-nan,nan
2.363780e-01,4.355000e-03,1.000000e+06,1,1000,-nan,nan
2.304790e-01,4.728000e-03,1.000000e+06,1,1000,-nan,nan
2.305880e-01,4.522000e-03,1.000000e+06,1,1000,-nan,nan
2.302480e-01,4.464000e-03,1.000000e+06,1,1000,-nan,nan
2.300010e-01,4.488000e-03,1.000000e+06,1,1000,-nan,nan
2.358120e-01,4.542000e-03,1.000000e+06,1,1000,-nan,nan
2.309570e-01,4.627000e-03,1.000000e+06,1,1000,-nan,nan
2.303070e-01,4.454000e-03,1.000000e+06,1,1000,-nan,nan
2.305870e-01,4.449000e-03,1.000000e+06,1,1000,-nan,nan
2.357950e-01,4.445000e-03,1.000000e+06,1,1000,-nan,nan
2.306380e-01,4.646000e-03,1.000000e+06,1,1000,-nan,nan
2.304230e-01,4.463000e-03,1.000000e+06,1,1000,-nan,nan
2.302350e-01,4.330000e-03,1.000000e+06,1,1000,-nan,nan
2.361690e-01,4.458000e-03,1.000000e+06,1,1000,-nan,nan
2.304630e-01,4.579000e-03,1.000000e+06,1,1000,-nan,nan
2.303010e-01,4.416000e-03,1.000000e+06,1,1000,-nan,nan
2.302820e-01,4.529000e-03,1.000000e+06,1,1000,-nan,nan
2.364580e-01,4.456000e-03,1.000000e+06,1,1000,-nan,nan
2.307970e-01,4.608000e-03,1.000000e+06,1,1000,-nan,nan
2.306340e-01,4.428000e-03,1.000000e+06,1,1000,-nan,nan
2.301240e-01,4.412000e-03,1.000000e+06,1,1000,-nan,nan
2.369310e-01,4.420000e-03,1.000000e+06,1,1000,-nan,nan
2.304420e-01,4.666000e-03,1.000000e+06,1,1000,-nan,nan
2.304720e-01,4.476000e-03,1.000000e+06,1,1000,-nan,nan
2.304680e-01,4.466000e-03,1.000000e+06,1,1000,-nan,nan
2.355690e-01,4.461000e-03,1.000000e+06,1,1000,-nan,nan
2.306310e-01,4.567000e-03,1.000000e+06,1,1000,-nan,nan
2.304370e-01,4.495000e-03,1.000000e+06,1,1000,-nan,nan
2.304570e-01,4.309000e-03,1.000000e+06,1,1000,-nan,nan
2.304730e-01,4.390000e-03,1.000000e+06,1,1000,-nan,nan
2.360960e-01,4.458000e-03,1.000000e+06,1,1000,-nan,nan
2.306190e-01,4.592000e-03,1.000000e+06,1,1000,-nan,nan
2.302480e-01,4.452000e-03,1.000000e+06,1,1000,-nan,nan
2.303550e-01,4.525000e-03,1.000000e+06,1,1000,-nan,nan
2.364780e-01,4.480000e-03,1.000000e+06,1,1000,-nan,nan
2.305080e-01,4.663000e-03,1.000000e+06,1,1000,-nan,nan
2.301540e-01,4.419000e-03,1.000000e+06,1,1000,-nan,nan
2.302870e-01,4.520000e-03,1.000000e+06,1,1000,-nan,nan
2.352990e-01,4.431000e-03,1.000000e+06,1,1000,-nan,nan
2.308330e-01,4.636000e-03,1.000000e+06,1,1000,-nan,nan
2.302610e-01,4.531000e-03,1.000000e+06,1,1000,-nan,nan
2.302040e-01,4.489000e-03,1.000000e+06,1,1000,-nan,nan
2.359340e-01,4.507000e-03,1.000000e+06,1,1000,-nan,nan
2.302980e-01,4.659000e-03,1.000000e+06,1,1000,-nan,nan
2.302900e-01,4.439000e-03,1.000000e+06,1,1000,-nan,nan
2.302470e-01,4.426000e-03,1.000000e+06,1,1000,-nan,nan
2.357040e-01,4.444000e-03,1.000000e+06,1,1000,-nan,nan

