5.268510e-01,2.345350e-01,1.459122e-01,2,0,0.000000e+00,0.000000e+00
7.577570e-01,4.517900e-02,3.790855e-02,3,0,1.224989e-01,1.224992e-01
7.907600e-01,4.366100e-02,3.695488e-02,3,0,2.345668e-01,2.345673e-01
7.647510e-01,4.378200e-02,3.790855e-02,3,0,5.258030e-01,5.258037e-01
7.654020e-01,4.297200e-02,3.695488e-02,3,0,7.144354e-01,7.144359e-01
7.808560e-01,4.280300e-02,3.695488e-02,3,0,2.321987e+00,2.321990e+00
7.795260e-01,4.417200e-02,3.790855e-02,3,0,2.937772e+00,2.937773e+00
7.605660e-01,5.601100e-02,4.911423e-02,3,0,3.999181e+00,3.999183e+00
7.915380e-01,4.279300e-02,3.695488e-02,3,0,2.330342e+00,2.330341e+00
8.250670e-01,5.665800e-02,4.982948e-02,3,0,2.421715e+00,2.421716e+00
8.284900e-01,4.424300e-02,3.814697e-02,3,0,2.576015e+00,2.576016e+00
7.671170e-01,4.373100e-02,3.695488e-02,3,0,2.770817e+00,2.770819e+00
7.663730e-01,4.315900e-02,3.695488e-02,3,0,3.514166e+00,3.514168e+00
7.598070e-01,4.317400e-02,3.695488e-02,3,0,4.290244e+00,4.290246e+00
7.733680e-01,4.292400e-02,3.695488e-02,3,0,4.242581e+00,4.242582e+00
7.669050e-01,4.392700e-02,3.695488e-02,3,0,4.933789e+00,4.933791e+00
7.921670e-01,4.302000e-02,3.695488e-02,3,0,4.664814e+00,4.664815e+00
7.670460e-01,4.349800e-02,3.814697e-02,3,0,4.266359e+00,4.266359e+00
7.648880e-01,4.316400e-02,3.695488e-02,3,0,4.241151e+00,4.241152e+00
7.601370e-01,4.324200e-02,3.814697e-02,3,0,4.176317e+00,4.176318e+00
7.654070e-01,4.572500e-02,3.981590e-02,3,0,4.275133e+00,4.275134e+00
7.968690e-01,4.302200e-02,3.695488e-02,3,0,3.953514e+00,3.953515e+00
7.722620e-01,4.383500e-02,3.695488e-02,3,0,3.785783e+00,3.785784e+00
7.663700e-01,4.315900e-02,3.695488e-02,3,0,4.242823e+00,4.242825e+00
7.599700e-01,4.316700e-02,3.719330e-02,3,0,4.919256e+00,4.919258e+00
7.670000e-01,4.363700e-02,3.790855e-02,3,0,5.450415e+00,5.450416e+00
7.911200e-01,4.320400e-02,3.695488e-02,3,0,4.905831e+00,4.905832e+00
7.663300e-01,4.352600e-02,3.695488e-02,3,0,5.165725e+00,5.165727e+00
7.659540e-01,4.292600e-02,3.695488e-02,3,0,4.807360e+00,4.807361e+00
7.659000e-01,4.278600e-02,3.695488e-02,3,0,4.213304e+00,4.213304e+00
7.873360e-01,4.272400e-02,3.695488e-02,3,0,3.640409e+00,3.640410e+00
7.649050e-01,4.345000e-02,3.695488e-02,3,0,2.976909e+00,2.976909e+00
7.655850e-01,4.281400e-02,3.600121e-02,3,0,3.285965e+00,3.285966e+00
7.663750e-01,4.348200e-02,3.695488e-02,3,0,3.891882e+00,3.891884e+00
7.663320e-01,4.321500e-02,3.695488e-02,3,0,2.783992e+00,2.783992e+00
7.603440e-01,4.299900e-02,3.600121e-02,3,0,3.172976e+00,3.172977e+00
7.648850e-01,4.237100e-02,3.719330e-02,3,0,2.862834e+00,2.862834e+00
7.649520e-01,4.294400e-02,3.695488e-02,3,0,2.874755e+00,2.874756e+00
7.658270e-01,4.285500e-02,3.600121e-02,3,0,2.953560e+00,2.953560e+00
7.660210e-01,4.266100e-02,3.600121e-02,3,0,3.031236e+00,3.031236e+00
7.663440e-01,4.296100e-02,3.695488e-02,3,0,4.966016e+00,4.966021e+00
7.600060e-01,4.335700e-02,3.695488e-02,3,0,5.958407e+00,5.958410e+00
7.652670e-01,4.264100e-02,3.695488e-02,3,0,4.229541e+00,4.229539e+00
7.660280e-01,9.700600e-02,9.107590e-02,3,1,5.751091e+00,5.750796e+00
1.271098e+00,8.506900e-02,7.891655e-02,5,1,4.315744e+00,4.315697e+00
7.658220e-01,4.326700e-02,3.695488e-02,3,0,3.748389e+00,3.748390e+00
7.668860e-01,4.305500e-02,3.695488e-02,3,0,3.764174e+00,3.764175e+00
7.669550e-01,4.285300e-02,3.695488e-02,3,0,3.906209e+00,3.906210e+00
7.662020e-01,4.326300e-02,3.695488e-02,3,0,3.175322e+00,3.175322e+00
7.606740e-01,4.342700e-02,3.695488e-02,3,0,2.389985e+00,2.389984e+00
7.603560e-01,4.730200e-02,3.600121e-02,3,0,2.663749e+00,2.663750e+00
7.662950e-01,4.305000e-02,3.695488e-02,3,0,3.366268e+00,3.366271e+00
7.668820e-01,4.337100e-02,3.719330e-02,3,0,2.986348e+00,2.986349e+00
7.666630e-01,4.370400e-02,3.814697e-02,3,0,2.554227e+00,2.554226e+00
7.651900e-01,4.325400e-02,3.695488e-02,3,0,2.876490e+00,2.876491e+00
7.606830e-01,4.331200e-02,3.719330e-02,3,0,3.497737e+00,3.497739e+00
7.659770e-01,4.301900e-02,3.695488e-02,3,0,3.093397e+00,3.093398e+00
7.668310e-01,4.310900e-02,3.719330e-02,3,0,3.630110e+00,3.630111e+00
7.668230e-01,4.308300e-02,3.695488e-02,3,0,3.957849e+00,3.957850e+00
7.669730e-01,4.253100e-02,3.695488e-02,3,0,5.245951e+00,5.245954e+00
7.605230e-01,4.223900e-02,3.695488e-02,3,0,3.105611e+00,3.105611e+00
7.660190e-01,4.257000e-02,3.600121e-02,3,0,4.925002e+00,4.925006e+00
7.665180e-01,4.282400e-02,3.695488e-02,3,0,6.905330e+00,6.905335e+00
7.667670e-01,4.274900e-02,3.695488e-02,3,0,4.927439e+00,4.927437e+00
7.663500e-01,8.527100e-02,7.891655e-02,3,1,5.868443e+00,5.868107e+00
1.016882e+00,8.374700e-02,7.700920e-02,4,1,3.290590e+00,3.290587e+00
7.779880e-01,4.351100e-02,3.695488e-02,3,0,3.410349e+00,3.410350e+00
7.606370e-01,5.571900e-02,5.006790e-02,3,0,3.693055e+00,3.693056e+00
7.598420e-01,4.808500e-02,4.196167e-02,3,0,3.613930e+00,3.613931e+00
7.652330e-01,4.236900e-02,3.600121e-02,3,0,3.306837e+00,3.306837e+00
7.664490e-01,4.289300e-02,3.719330e-02,3,0,3.656960e+00,3.656962e+00
7.662680e-01,4.264300e-02,3.695488e-02,3,0,4.036119e+00,4.036120e+00
7.657560e-01,4.262800e-02,3.600121e-02,3,0,4.515406e+00,4.515408e+00
7.606150e-01,4.275200e-02,3.695488e-02,3,0,4.495026e+00,4.495027e+00
7.658970e-01,4.264800e-02,3.695488e-02,3,0,4.608833e+00,4.608834e+00
7.656010e-01,4.286000e-02,3.695488e-02,3,0,6.091962e+00,6.091965e+00
7.664720e-01,4.326300e-02,3.695488e-02,3,0,5.238874e+00,5.238874e+00
7.654660e-01,4.268100e-02,3.695488e-02,3,0,4.539742e+00,4.539742e+00
7.600910e-01,4.311200e-02,3.695488e-02,3,0,4.691218e+00,4.691219e+00
7.644090e-01,4.332800e-02,3.695488e-02,3,0,3.049183e+00,3.049182e+00
7.728140e-01,4.259400e-02,3.600121e-02,3,0,3.586563e+00,3.586566e+00
7.669560e-01,4.303800e-02,3.695488e-02,3,0,2.657508e+00,2.657508e+00
7.660500e-01,4.308400e-02,3.695488e-02,3,0,2.038262e+00,2.038262e+00
7.650050e-01,4.249700e-02,3.695488e-02,3,0,1.909317e+00,1.909318e+00
7.600710e-01,4.235400e-02,3.600121e-02,3,0,2.474396e+00,2.474399e+00
7.662250e-01,4.271900e-02,3.600121e-02,3,0,4.020276e+00,4.020279e+00
7.675290e-01,4.290000e-02,3.695488e-02,3,0,5.641531e+00,5.641535e+00
7.673270e-01,9.684500e-02,9.107590e-02,3,1,8.107671e+00,8.108015e+00
7.665880e-01,8.955300e-02,8.392334e-02,3,1,7.597550e+00,7.597552e+00
7.660350e-01,4.300000e-02,3.695488e-02,3,0,6.220475e+00,6.220474e+00
7.737360e-01,4.353300e-02,3.719330e-02,3,0,5.031842e+00,5.031842e+00
7.659480e-01,5.607700e-02,5.006790e-02,3,0,3.857042e+00,3.857042e+00
7.663250e-01,4.291800e-02,3.695488e-02,3,0,5.029868e+00,5.029872e+00
7.659460e-01,4.311400e-02,3.695488e-02,3,0,4.082383e+00,4.082382e+00
7.649500e-01,8.497900e-02,7.915497e-02,3,1,4.847538e+00,4.845102e+00
2.030220e+00,4.319600e-02,3.695488e-02,8,0,5.342195e+00,5.341173e+00
1.016833e+00,8.354800e-02,7.700920e-02,4,1,3.879982e+00,3.879982e+00
7.663080e-01,4.610400e-02,4.005432e-02,3,0,3.188615e+00,3.188614e+00
7.592980e-01,4.580200e-02,4.005432e-02,3,0,4.499454e+00,4.499457e+00
7.599930e-01,5.020200e-02,4.410744e-02,3,0,4.902980e+00,4.902982e+00
7.655260e-01,4.302700e-02,3.695488e-02,3,0,4.148648e+00,4.148648e+00
7.663380e-01,4.278400e-02,3.600121e-02,3,0,4.344916e+00,4.344918e+00
7.655750e-01,4.291600e-02,3.695488e-02,3,0,2.848114e+00,2.848113e+00
7.658630e-01,4.290900e-02,3.600121e-02,3,0,3.154500e+00,3.154501e+00
7.600800e-01,4.304100e-02,3.695488e-02,3,0,2.823771e+00,2.823771e+00
7.653810e-01,4.268100e-02,3.600121e-02,3,0,3.404198e+00,3.404200e+00
7.664530e-01,4.266700e-02,3.695488e-02,3,0,4.637282e+00,4.637284e+00
7.665110e-01,4.281800e-02,3.695488e-02,3,0,4.650692e+00,4.650692e+00
7.723880e-01,4.349800e-02,3.719330e-02,3,0,4.863992e+00,4.863993e+00
7.599510e-01,4.291900e-02,3.695488e-02,3,0,3.918841e+00,3.918840e+00
7.647590e-01,4.262900e-02,3.600121e-02,3,0,3.581968e+00,3.581968e+00
7.666070e-01,4.280200e-02,3.719330e-02,3,0,3.721721e+00,3.721722e+00
7.667560e-01,4.290600e-02,3.600121e-02,3,0,3.969816e+00,3.969817e+00
7.656800e-01,4.281300e-02,3.600121e-02,3,0,4.270719e+00,4.270720e+00
7.649930e-01,4.313700e-02,3.695488e-02,3,0,3.022376e+00,3.022375e+00
7.607490e-01,4.303300e-02,3.719330e-02,3,0,2.310534e+00,2.310534e+00
7.658310e-01,4.283500e-02,3.695488e-02,3,0,3.590708e+00,3.590710e+00
7.657400e-01,4.296300e-02,3.695488e-02,3,0,3.056452e+00,3.056452e+00
7.656000e-01,4.298200e-02,3.600121e-02,3,0,5.508718e+00,5.508722e+00
7.668900e-01,4.278300e-02,3.600121e-02,3,0,3.626956e+00,3.626954e+00
7.594530e-01,4.303800e-02,3.695488e-02,3,0,3.748196e+00,3.748197e+00
7.656330e-01,4.277400e-02,3.695488e-02,3,0,5.171672e+00,5.171675e+00
7.653400e-01,4.274800e-02,3.695488e-02,3,0,4.663314e+00,4.663314e+00
7.664750e-01,4.301000e-02,3.695488e-02,3,0,5.159014e+00,5.159016e+00
7.667950e-01,8.496300e-02,7.891655e-02,3,1,6.505597e+00,6.505343e+00
1.016906e+00,8.467400e-02,7.891655e-02,4,1,4.665012e+00,4.664998e+00
7.673300e-01,4.307800e-02,3.719330e-02,3,0,4.107320e+00,4.107309e+00
7.596290e-01,4.333700e-02,3.695488e-02,3,0,3.843438e+00,3.843439e+00
7.651420e-01,4.283600e-02,3.695488e-02,3,0,3.133131e+00,3.133131e+00
7.657200e-01,4.298100e-02,3.695488e-02,3,0,3.433598e+00,3.433600e+00
8.039610e-01,4.293900e-02,3.695488e-02,3,0,2.842833e+00,2.842833e+00
7.670880e-01,4.387300e-02,3.790855e-02,3,0,2.327171e+00,2.327171e+00
7.663340e-01,4.330300e-02,3.695488e-02,3,0,1.844409e+00,1.844409e+00
7.602570e-01,4.226000e-02,3.600121e-02,3,0,1.889058e+00,1.889058e+00
7.655810e-01,4.249600e-02,3.600121e-02,3,0,2.071496e+00,2.071497e+00
7.660160e-01,4.327600e-02,3.695488e-02,3,0,3.282400e+00,3.282403e+00
7.663960e-01,4.292500e-02,3.695488e-02,3,0,3.590397e+00,3.590398e+00
7.660580e-01,4.317300e-02,3.695488e-02,3,0,3.297357e+00,3.297358e+00
7.602990e-01,4.296700e-02,3.600121e-02,3,0,3.819588e+00,3.819589e+00
7.781760e-01,4.298000e-02,3.695488e-02,3,0,3.522875e+00,3.522876e+00
8.279500e-01,5.613500e-02,4.982948e-02,3,0,4.999795e+00,4.999799e+00
8.110990e-01,4.350800e-02,3.790855e-02,3,0,7.111453e+00,7.111458e+00
7.807910e-01,4.518200e-02,3.910065e-02,3,0,9.592117e+00,9.592124e+00
7.665810e-01,4.361800e-02,3.695488e-02,3,0,1.009004e+01,1.009004e+01
7.671260e-01,1.437490e-01,1.380444e-01,3,2,1.010648e+01,1.011673e+01
1.521652e+00,1.864200e-01,1.800060e-01,6,3,9.769522e+00,9.752185e+00
1.522919e+00,4.714670e-01,4.651546e-01,6,9,9.304100e+00,9.377324e+00
1.775318e+00,2.899790e-01,2.830029e-01,7,4,8.912381e+00,9.367240e+00
1.024986e+00,5.626470e-01,5.528927e-01,4,7,7.681381e+00,8.099776e+00
7.963060e-01,3.251130e-01,3.190041e-01,3,6,6.171939e+00,6.193166e+00
7.670300e-01,9.062900e-02,8.416176e-02,3,1,4.715039e+00,4.715039e+00
7.665030e-01,9.549600e-02,9.012222e-02,3,1,4.832555e+00,4.834348e+00
1.017740e+00,8.933800e-02,8.296967e-02,4,1,4.085641e+00,4.085638e+00
7.920210e-01,4.350900e-02,3.719330e-02,3,0,3.587709e+00,3.587710e+00
7.668410e-01,4.424100e-02,3.790855e-02,3,0,2.943216e+00,2.943216e+00
7.596510e-01,4.394400e-02,3.790855e-02,3,0,2.591447e+00,2.591447e+00
7.655970e-01,4.334900e-02,3.695488e-02,3,0,3.605995e+00,3.605997e+00
7.662200e-01,4.324000e-02,3.790855e-02,3,0,3.044450e+00,3.044450e+00
7.667400e-01,4.355000e-02,3.814697e-02,3,0,3.021197e+00,3.021198e+00
7.668590e-01,4.342500e-02,3.814697e-02,3,0,3.088130e+00,3.088131e+00
7.596060e-01,4.326000e-02,3.790855e-02,3,0,1.384977e+00,1.384977e+00
7.612660e-01,4.843100e-02,4.196167e-02,3,0,1.211089e+00,1.211090e+00
7.647240e-01,4.306400e-02,3.695488e-02,3,0,1.379820e+00,1.379821e+00
7.670250e-01,4.302800e-02,3.695488e-02,3,0,6.631577e-01,6.631576e-01
7.656660e-01,4.394300e-02,3.790855e-02,3,0,6.292805e-01,6.292807e-01
7.662290e-01,4.331200e-02,3.719330e-02,3,0,1.261914e+00,1.261916e+00
7.604440e-01,4.337100e-02,3.695488e-02,3,0,1.415152e+00,1.415152e+00
7.654990e-01,4.304700e-02,3.719330e-02,3,0,3.073414e+00,3.073418e+00
7.666900e-01,4.349400e-02,3.695488e-02,3,0,3.307553e+00,3.307555e+00
7.661930e-01,4.352000e-02,3.695488e-02,3,0,2.823853e+00,2.823854e+00
7.666870e-01,4.366000e-02,3.695488e-02,3,0,3.182520e+00,3.182522e+00
7.600840e-01,4.330200e-02,3.695488e-02,3,0,2.916932e+00,2.916933e+00
7.605360e-01,4.874700e-02,3.600121e-02,3,0,3.052717e+00,3.052718e+00
7.656900e-01,4.319800e-02,3.695488e-02,3,0,2.662888e+00,2.662888e+00
7.669250e-01,4.352100e-02,3.814697e-02,3,0,2.319392e+00,2.319392e+00
7.659770e-01,4.356900e-02,3.790855e-02,3,0,2.400913e+00,2.400913e+00
7.651860e-01,4.334500e-02,3.695488e-02,3,0,2.629595e+00,2.629596e+00
7.603450e-01,4.328800e-02,3.695488e-02,3,0,4.219758e+00,4.219761e+00
7.650050e-01,4.324100e-02,3.719330e-02,3,0,4.647518e+00,4.647520e+00
7.659460e-01,4.364500e-02,3.695488e-02,3,0,5.469179e+00,5.469181e+00
7.906220e-01,4.389000e-02,3.814697e-02,3,0,7.294036e+00,7.294040e+00
7.663830e-01,4.373200e-02,3.790855e-02,3,0,6.393608e+00,6.393608e+00
7.595250e-01,4.324800e-02,3.719330e-02,3,0,7.184265e+00,7.184268e+00
7.653330e-01,4.335100e-02,3.790855e-02,3,0,6.633217e+00,6.633218e+00
7.661540e-01,4.365200e-02,3.790855e-02,3,0,6.700053e+00,6.700054e+00
7.665800e-01,9.647300e-02,8.988380e-02,3,1,7.488584e+00,7.496002e+00
1.018937e+00,9.998500e-02,9.393692e-02,4,1,8.768218e+00,8.836781e+00
1.020378e+00,9.375000e-02,8.797646e-02,4,1,8.565952e+00,8.591955e+00
1.016707e+00,8.967000e-02,8.296967e-02,4,1,7.780107e+00,7.780095e+00
7.656940e-01,9.549500e-02,8.916855e-02,3,1,8.207388e+00,8.216593e+00
7.665880e-01,8.875300e-02,8.201599e-02,3,1,8.199751e+00,8.199753e+00
7.661560e-01,1.455780e-01,1.389980e-01,3,2,7.485692e+00,7.511898e+00
7.922430e-01,2.410300e-01,2.350807e-01,3,4,7.979527e+00,8.120291e+00
1.526244e+00,2.822630e-01,2.751350e-01,6,5,7.711953e+00,7.710207e+00
1.529978e+00,3.053090e-01,2.989769e-01,6,6,7.215971e+00,7.184736e+00
1.520021e+00,1.664060e-01,1.599789e-01,6,3,6.260821e+00,6.254930e+00
1.270750e+00,1.251870e-01,1.189709e-01,5,2,6.919398e+00,6.912326e+00
1.016804e+00,2.752910e-01,2.672672e-01,4,2,8.756432e+00,8.958113e+00
1.557954e+00,1.352630e-01,1.289845e-01,6,2,8.773433e+00,8.765476e+00
1.016177e+00,1.667290e-01,1.609325e-01,4,3,8.631186e+00,8.631136e+00
1.276519e+00,1.898090e-01,1.831055e-01,5,3,1.085841e+01,1.085462e+01
1.025050e+00,3.749910e-01,3.666878e-01,4,3,1.461970e+01,1.534304e+01
7.662900e-01,1.359900e-01,1.299381e-01,3,2,1.082306e+01,1.085519e+01
7.675360e-01,2.205560e-01,2.126694e-01,3,0,1.331405e+01,1.419387e+01
7.659600e-01,2.188810e-01,2.110004e-01,3,0,1.257408e+01,1.466410e+01
7.730740e-01,7.106660e-01,7.059574e-01,3,15,1.162259e+01,1.000000e+20
7.644730e-01,5.000000e-03,1.000000e+06,3,1000,9.575566e+00,1.000000e+20
7.647430e-01,4.733000e-03,1.000000e+06,3,1000,1.094956e+01,1.000000e+20
1.018819e+00,4.727000e-03,1.000000e+06,4,1000,9.998065e+00,1.000000e+20
7.640100e-01,4.680000e-03,1.000000e+06,3,1000,1.003580e+01,1.000000e+20
1.013951e+00,4.690000e-03,1.000000e+06,4,1000,6.513965e+00,1.000000e+20
7.591620e-01,4.513000e-03,1.000000e+06,3,1000,6.482503e+00,1.000000e+20
7.642120e-01,4.503000e-03,1.000000e+06,3,1000,7.781928e+00,1.000000e+20
7.654630e-01,4.660000e-03,1.000000e+06,3,1000,5.684462e+00,1.000000e+20
7.641500e-01,4.646000e-03,1.000000e+06,3,1000,7.554479e+00,1.000000e+20
7.584840e-01,4.699000e-03,1.000000e+06,3,1000,7.951694e+00,1.000000e+20
7.642350e-01,4.612000e-03,1.000000e+06,3,1000,8.880719e+00,1.000000e+20
7.645370e-01,4.742000e-03,1.000000e+06,3,1000,6.754851e+00,1.000000e+20
7.648460e-01,4.491000e-03,1.000000e+06,3,1000,7.283138e+00,1.000000e+20
7.631900e-01,4.680000e-03,1.000000e+06,3,1000,6.173044e+00,1.000000e+20
7.586590e-01,4.769000e-03,1.000000e+06,3,1000,5.991360e+00,1.000000e+20
7.906120e-01,4.361000e-03,1.000000e+06,3,1000,6.113133e+00,1.000000e+20
7.637590e-01,4.818000e-03,1.000000e+06,3,1000,6.751947e+00,1.000000e+20
7.636860e-01,4.598000e-03,1.000000e+06,3,1000,5.309844e+00,1.000000e+20
7.582840e-01,4.471000e-03,1.000000e+06,3,1000,5.211995e+00,1.000000e+20
7.637860e-01,4.486000e-03,1.000000e+06,3,1000,5.341995e+00,1.000000e+20
7.641530e-01,4.614000e-03,1.000000e+06,3,1000,5.114078e+00,1.000000e+20
7.646150e-01,4.673000e-03,1.000000e+06,3,1000,4.528309e+00,1.000000e+20
7.592490e-01,4.721000e-03,1.000000e+06,3,1000,4.299301e+00,1.000000e+20
7.643980e-01,4.527000e-03,1.000000e+06,3,1000,4.876762e+00,1.000000e+20
7.644720e-01,4.603000e-03,1.000000e+06,3,1000,5.393626e+00,1.000000e+20
7.636230e-01,4.655000e-03,1.000000e+06,3,1000,7.412961e+00,1.000000e+20
7.632360e-01,4.653000e-03,1.000000e+06,3,1000,9.095599e+00,1.000000e+20
7.584480e-01,4.570000e-03,1.000000e+06,3,1000,7.674023e+00,1.000000e+20
7.640130e-01,4.486000e-03,1.000000e+06,3,1000,8.694972e+00,1.000000e+20
7.642070e-01,4.676000e-03,1.000000e+06,3,1000,7.184394e+00,1.000000e+20
7.640050e-01,4.554000e-03,1.000000e+06,3,1000,5.208353e+00,1.000000e+20
7.590050e-01,4.683000e-03,1.000000e+06,3,1000,5.588019e+00,1.000000e+20
7.631190e-01,4.429000e-03,1.000000e+06,3,1000,4.749661e+00,1.000000e+20
7.644360e-01,4.622000e-03,1.000000e+06,3,1000,4.393023e+00,1.000000e+20
7.642430e-01,4.622000e-03,1.000000e+06,3,1000,3.556991e+00,1.000000e+20
7.584690e-01,4.660000e-03,1.000000e+06,3,1000,4.059439e+00,1.000000e+20
7.644830e-01,4.497000e-03,1.000000e+06,3,1000,3.285393e+00,1.000000e+20
7.640660e-01,4.507000e-03,1.000000e+06,3,1000,3.864100e+00,1.000000e+20
7.644540e-01,4.608000e-03,1.000000e+06,3,1000,2.603132e+00,1.000000e+20
7.633880e-01,4.697000e-03,1.000000e+06,3,1000,3.837094e+00,1.000000e+20
7.570670e-01,4.663000e-03,1.000000e+06,3,1000,6.171162e+00,1.000000e+20
1.773441e+00,4.504000e-03,1.000000e+06,7,1000,3.668707e+00,1.000000e+20
1.013271e+00,4.651000e-03,1.000000e+06,4,1000,2.937758e+00,1.000000e+20
7.640440e-01,4.640000e-03,1.000000e+06,3,1000,3.311945e+00,1.000000e+20
7.647190e-01,4.659000e-03,1.000000e+06,3,1000,3.121354e+00,1.000000e+20
7.586830e-01,4.634000e-03,1.000000e+06,3,1000,3.254762e+00,1.000000e+20
7.628650e-01,4.490000e-03,1.000000e+06,3,1000,4.419438e+00,1.000000e+20
7.644560e-01,4.685000e-03,1.000000e+06,3,1000,3.981595e+00,1.000000e+20
7.644180e-01,4.649000e-03,1.000000e+06,3,1000,3.880440e+00,1.000000e+20
7.757170e-01,4.618000e-03,1.000000e+06,3,1000,4.465001e+00,1.000000e+20
7.708880e-01,4.928000e-03,1.000000e+06,3,1000,6.240132e+00,1.000000e+20
1.526762e+00,4.672000e-03,1.000000e+06,6,1000,7.707920e+00,1.000000e+20
1.775201e+00,4.640000e-03,1.000000e+06,7,1000,1.075721e+01,1.000000e+20
1.768904e+00,4.675000e-03,1.000000e+06,7,1000,1.242723e+01,1.000000e+20
1.273082e+00,4.683000e-03,1.000000e+06,5,1000,1.209265e+01,1.000000e+20
1.518414e+00,4.811000e-03,1.000000e+06,6,1000,1.237029e+01,1.000000e+20
1.523835e+00,4.632000e-03,1.000000e+06,6,1000,1.069456e+01,1.000000e+20
1.518007e+00,4.646000e-03,1.000000e+06,6,1000,1.118405e+01,1.000000e+20
1.550057e+00,4.657000e-03,1.000000e+06,6,1000,1.105800e+01,1.000000e+20
1.518861e+00,4.810000e-03,1.000000e+06,6,1000,9.749035e+00,1.000000e+20
1.296880e+00,4.766000e-03,1.000000e+06,5,1000,9.236613e+00,1.000000e+20
1.517960e+00,4.821000e-03,1.000000e+06,6,1000,7.793547e+00,1.000000e+20
1.016844e+00,4.734000e-03,1.000000e+06,4,1000,7.406152e+00,1.000000e+20
1.522311e+00,4.671000e-03,1.000000e+06,6,1000,7.478704e+00,1.000000e+20
1.518037e+00,4.520000e-03,1.000000e+06,6,1000,8.974296e+00,1.000000e+20
1.523991e+00,4.770000e-03,1.000000e+06,6,1000,1.410410e+01,1.000000e+20
1.525030e+00,4.702000e-03,1.000000e+06,6,1000,1.569475e+01,1.000000e+20
1.523411e+00,4.658000e-03,1.000000e+06,6,1000,1.771482e+01,1.000000e+20
1.516226e+00,4.651000e-03,1.000000e+06,6,1000,1.677020e+01,1.000000e+20
1.023798e+02,4.678000e-03,1.000000e+06,400,1000,2.559714e+01,1.000000e+20
2.038696e+01,6.566000e-03,1.000000e+06,77,1000,-nan,1.000000e+20
2.389750e-01,6.133000e-03,1.000000e+06,1,1000,-nan,nan
2.434900e-01,4.677000e-03,1.000000e+06,1,1000,-nan,nan
2.375240e-01,4.781000e-03,1.000000e+06,1,1000,-nan,nan
2.371350e-01,4.656000e-03,1.000000e+06,1,1000,-nan,nan
2.372240e-01,4.516000e-03,1.000000e+06,1,1000,-nan,nan
2.428690e-01,4.543000e-03,1.000000e+06,1,1000,-nan,nan
2.377170e-01,4.792000e-03,1.000000e+06,1,1000,-nan,nan
2.372160e-01,4.533000e-03,1.000000e+06,1,1000,-nan,nan
2.370260e-01,4.492000e-03,1.000000e+06,1,1000,-nan,nan
2.427670e-01,4.518000e-03,1.000000e+06,1,1000,-nan,nan
2.375950e-01,4.808000e-03,1.000000e+06,1,1000,-nan,nan
2.369910e-01,4.606000e-03,1.000000e+06,1,1000,-nan,nan
2.370960e-01,4.571000e-03,1.000000e+06,1,1000,-nan,nan
2.427910e-01,4.439000e-03,1.000000e+06,1,1000,-nan,nan
2.373260e-01,4.710000e-03,1.000000e+06,1,1000,-nan,nan
2.372410e-01,4.460000e-03,1.000000e+06,1,1000,-nan,nan
2.369910e-01,4.513000e-03,1.000000e+06,1,1000,-nan,nan
2.426720e-01,4.455000e-03,1.000000e+06,1,1000,-nan,nan
2.371190e-01,4.759000e-03,1.000000e+06,1,1000,-nan,nan
2.372320e-01,4.473000e-03,1.000000e+06,1,1000,-nan,nan
2.370960e-01,4.540000e-03,1.000000e+06,1,1000,-nan,nan
2.426270e-01,4.487000e-03,1.000000e+06,1,1000,-nan,nan
2.371610e-01,4.767000e-03,1.000000e+06,1,1000,-nan,nan
2.371590e-01,4.445000e-03,1.000000e+06,1,1000,-nan,nan
2.370700e-01,4.438000e-03,1.000000e+06,1,1000,-nan,nan
2.426550e-01,4.489000e-03,1.000000e+06,1,1000,-nan,nan
2.369680e-01,4.732000e-03,1.000000e+06,1,1000,-nan,nan
2.374070e-01,4.529000e-03,1.000000e+06,1,1000,-nan,nan
2.370960e-01,4.534000e-03,1.000000e+06,1,1000,-nan,nan
2.427830e-01,4.428000e-03,1.000000e+06,1,1000,-nan,nan
2.370260e-01,4.630000e-03,1.000000e+06,1,1000,-nan,nan
2.370150e-01,4.598000e-03,1.000000e+06,1,1000,-nan,nan
2.370540e-01,4.503000e-03,1.000000e+06,1,1000,-nan,nan
2.422340e-01,4.506000e-03,1.000000e+06,1,1000,-nan,nan
2.373090e-01,4.669000e-03,1.000000e+06,1,1000,-nan,nan
2.370440e-01,4.486000e-03,1.000000e+06,1,1000,-nan,nan
2.373000e-01,4.557000e-03,1.000000e+06,1,1000,-nan,nan
2.425030e-01,4.395000e-03,1.000000e+06,1,1000,-nan,nan
2.373710e-01,4.687000e-03,1.000000e+06,1,1000,-nan,nan
2.371800e-01,4.475000e-03,1.000000e+06,1,1000,-nan,nan
2.371050e-01,4.533000e-03,1.000000e+06,1,1000,-nan,nan
2.421290e-01,4.480000e-03,1.000000e+06,1,1000,-nan,nan
2.378620e-01,4.734000e-03,1.000000e+06,1,1000,-nan,nan
2.371410e-01,4.569000e-03,1.000000e+06,1,1000,-nan,nan
2.369170e-01,4.463000e-03,1.000000e+06,1,1000,-nan,nan
2.426500e-01,4.527000e-03,1.000000e+06,1,1000,-nan,nan
2.378870e-01,4.573000e-03,1.000000e+06,1,1000,-nan,nan
2.376630e-01,4.570000e-03,1.000000e+06,1,1000,-nan,nan
2.371630e-01,4.348000e-03,1.000000e+06,1,1000,-nan,nan
2.373700e-01,4.533000e-03,1.000000e+06,1,1000,-nan,nan
2.378630e-01,4.753000e-03,1.000000e+06,1,1000,-nan,nan
2.374470e-01,4.576000e-03,1.000000e+06,1,1000,-nan,nan
2.372430e-01,4.521000e-03,1.000000e+06,1,1000,-nan,nan
2.370800e-01,4.379000e-03,1.000000e+06,1,1000,-nan,nan
2.430320e-01,4.579000e-03,1.000000e+06,1,1000,-nan,nan
2.373160e-01,4.662000e-03,1.000000e+06,1,1000,-nan,nan
2.370400e-01,4.552000e-03,1.000000e+06,1,1000,-nan,nan
2.369690e-01,4.345000e-03,1.000000e+06,1,1000,-nan,nan
2.425090e-01,4.328000e-03,1.000000e+06,1,1000,-nan,nan
2.374330e-01,4.722000e-03,1.000000e+06,1,1000,-nan,nan
2.370950e-01,4.590000e-03,1.000000e+06,1,1000,-nan,nan
2.375260e-01,4.505000e-03,1.000000e+06,1,1000,-nan,nan
2.430570e-01,4.525000e-03,1.000000e+06,1,1000,-nan,nan
2.377160e-01,4.790000e-03,1.000000e+06,1,1000,-nan,nan
2.368020e-01,4.520000e-03,1.000000e+06,1,1000,-nan,nan
2.371410e-01,4.491000e-03,1.000000e+06,1,1000,-nan,nan
2.421940e-01,4.423000e-03,1.000000e+06,1,1000,-nan,nan
2.371840e-01,4.738000e-03,1.000000e+06,1,1000,-nan,nan
2.371540e-01,4.551000e-03,1.000000e+06,1,1000,-nan,nan
2.372360e-01,4.514000e-03,1.000000e+06,1,1000,-nan,nan
2.423750e-01,4.536000e-03,1.000000e+06,1,1000,-nan,nan
2.371940e-01,4.599000e-03,1.000000e+06,1,1000,-nan,nan
2.370380e-01,4.551000e-03,1.000000e+06,1,1000,-nan,nan
2.372390e-01,4.477000e-03,1.000000e+06,1,1000,-nan,nan
2.425110e-01,4.432000e-03,1.000000e+06,1,1000,-nan,nan
2.372960e-01,4.604000e-03,1.000000e+06,1,1000,-nan,nan
2.371600e-01,4.461000e-03,1.000000e+06,1,1000,-nan,nan
2.369940e-01,4.516000e-03,1.000000e+06,1,1000,-nan,nan
2.423970e-01,4.550000e-03,1.000000e+06,1,1000,-nan,nan
2.370820e-01,4.798000e-03,1.000000e+06,1,1000,-nan,nan
2.372020e-01,4.474000e-03,1.000000e+06,1,1000,-nan,nan
2.368670e-01,4.560000e-03,1.000000e+06,1,1000,-nan,nan
2.425240e-01,4.496000e-03,1.000000e+06,1,1000,-nan,nan
2.370500e-01,4.709000e-03,1.000000e+06,1,1000,-nan,nan
2.368490e-01,4.528000e-03,1.000000e+06,1,1000,-nan,nan
2.372280e-01,4.489000e-03,1.000000e+06,1,1000,-nan,nan
2.426270e-01,4.486000e-03,1.000000e+06,1,1000,-nan,nan
2.371300e-01,4.753000e-03,1.000000e+06,1,1000,-nan,nan
2.373010e-01,4.591000e-03,1.000000e+06,1,1000,-nan,nan
2.369640e-01,4.579000e-03,1.000000e+06,1,1000,-nan,nan
2.423200e-01,4.576000e-03,1.000000e+06,1,1000,-nan,nan
2.372740e-01,4.734000e-03,1.000000e+06,1,1000,-nan,nan
2.370440e-01,4.416000e-03,1.000000e+06,1,1000,-nan,nan
2.369570e-01,4.521000e-03,1.000000e+06,1,1000,-nan,nan
2.428220e-01,4.559000e-03,1.000000e+06,1,1000,-nan,nan
2.370230e-01,4.679000e-03,1.000000e+06,1,1000,-nan,nan
2.370060e-01,4.513000e-03,1.000000e+06,1,1000,-nan,nan
2.376100e-01,4.420000e-03,1.000000e+06,1,1000,-nan,nan
2.427320e-01,4.500000e-03,1.000000e+06,1,1000,-nan,nan
2.372050e-01,4.713000e-03,1.000000e+06,1,1000,-nan,nan
2.371420e-01,4.421000e-03,1.000000e+06,1,1000,-nan,nan
2.371770e-01,4.539000e-03,1.000000e+06,1,1000,-nan,nan
2.423390e-01,4.494000e-03,1.000000e+06,1,1000,-nan,nan
2.369810e-01,4.756000e-03,1.000000e+06,1,1000,-nan,nan
2.370500e-01,4.520000e-03,1.000000e+06,1,1000,-nan,nan
2.370990e-01,4.556000e-03,1.000000e+06,1,1000,-nan,nan
2.420610e-01,4.480000e-03,1.000000e+06,1,1000,-nan,nan
2.375510e-01,4.657000e-03,1.000000e+06,1,1000,-nan,nan
2.374060e-01,4.553000e-03,1.000000e+06,1,1000,-nan,nan
2.370780e-01,4.506000e-03,1.000000e+06,1,1000,-nan,nan
2.422280e-01,4.333000e-03,1.000000e+06,1,1000,-nan,nan
2.374160e-01,4.721000e-03,1.000000e+06,1,1000,-nan,nan
2.372020e-01,4.570000e-03,1.000000e+06,1,1000,-nan,nan
2.375590e-01,4.354000e-03,1.000000e+06,1,1000,-nan,nan
2.433170e-01,4.452000e-03,1.000000e+06,1,1000,-nan,nan
2.380530e-01,4.877000e-03,1.000000e+06,1,1000,-nan,nan
2.374060e-01,4.528000e-03,1.000000e+06,1,1000,-nan,nan
2.368020e-01,4.555000e-03,1.000000e+06,1,1000,-nan,nan
2.370620e-01,4.536000e-03,1.000000e+06,1,1000,-nan,nan
2.425330e-01,4.346000e-03,1.000000e+06,1,1000,-nan,nan
2.372360e-01,4.726000e-03,1.000000e+06,1,1000,-nan,nan
2.370000e-01,4.567000e-03,1.000000e+06,1,1000,-nan,nan
2.370630e-01,4.623000e-03,1.000000e+06,1,1000,-nan,nan
2.425040e-01,4.539000e-03,1.000000e+06,1,1000,-nan,nan
2.373350e-01,4.585000e-03,1.000000e+06,1,1000,-nan,nan
2.372540e-01,4.562000e-03,1.000000e+06,1,1000,-nan,nan
2.369880e-01,4.503000e-03,1.000000e+06,1,1000,-nan,nan
2.426220e-01,4.454000e-03,1.000000e+06,1,1000,-nan,nan
2.371000e-01,4.724000e-03,1.000000e+06,1,1000,-nan,nan
2.372960e-01,4.568000e-03,1.000000e+06,1,1000,-nan,nan
2.371100e-01,4.361000e-03,1.000000e+06,1,1000,-nan,nan
2.425920e-01,4.436000e-03,1.000000e+06,1,1000,-nan,nan
2.371360e-01,4.668000e-03,1.000000e+06,1,1000,-nan,nan
2.374070e-01,4.560000e-03,1.000000e+06,1,1000,-nan,nan
2.372580e-01,4.413000e-03,1.000000e+06,1,1000,-nan,nan
2.426290e-01,4.592000e-03,1.000000e+06,1,1000,-nan,nan
2.371760e-01,4.739000e-03,1.000000e+06,1,1000,-nan,nan
2.371310e-01,4.535000e-03,1.000000e+06,1,1000,-nan,nan
2.371300e-01,4.513000e-03,1.000000e+06,1,1000,-nan,nan
2.423580e-01,4.366000e-03,1.000000e+06,1,1000,-nan,nan
2.374590e-01,4.837000e-03,1.000000e+06,1,1000,-nan,nan
2.372020e-01,4.585000e-03,1.000000e+06,1,1000,-nan,nan
2.371580e-01,4.496000e-03,1.000000e+06,1,1000,-nan,nan
2.432120e-01,4.478000e-03,1.000000e+06,1,1000,-nan,nan
2.372670e-01,4.559000e-03,1.000000e+06,1,1000,-nan,nan
2.375650e-01,4.388000e-03,1.000000e+06,1,1000,-nan,nan
2.370840e-01,4.514000e-03,1.000000e+06,1,1000,-nan,nan
2.423830e-01,4.384000e-03,1.000000e+06,1,1000,-nan,nan
2.373110e-01,4.646000e-03,1.000000e+06,1,1000,-nan,nan
2.373600e-01,4.580000e-03,1.000000e+06,1,1000,-nan,nan
2.370810e-01,4.349000e-03,1.000000e+06,1,1000,-nan,nan
2.426250e-01,4.562000e-03,1.000000e+06,1,1000,-nan,nan
2.372930e-01,4.733000e-03,1.000000e+06,1,1000,-nan,nan
2.374610e-01,4.501000e-03,1.000000e+06,1,1000,-nan,nan
2.372180e-01,4.592000e-03,1.000000e+06,1,1000,-nan,nan
2.424880e-01,4.484000e-03,1.000000e+06,1,1000,-nan,nan
2.370950e-01,4.692000e-03,1.000000e+06,1,1000,-nan,nan
2.369530e-01,4.547000e-03,1.000000e+06,1,1000,-nan,nan
2.370260e-01,4.464000e-03,1.000000e+06,1,1000,-nan,nan
2.425180e-01,4.530000e-03,1.000000e+06,1,1000,-nan,nan
2.371740e-01,4.738000e-03,1.000000e+06,1,1000,-nan,nan
2.371770e-01,4.531000e-03,1.000000e+06,1,1000,-nan,nan
2.369950e-01,4.411000e-03,1.000000e+06,1,1000,-nan,nan
2.424720e-01,4.448000e-03,1.000000e+06,1,1000,-nan,nan
2.374360e-01,4.771000e-03,1.000000e+06,1,1000,-nan,nan
2.371420e-01,4.390000e-03,1.000000e+06,1,1000,-nan,nan
2.372900e-01,4.455000e-03,1.000000e+06,1,1000,-nan,nan
2.424300e-01,4.320000e-03,1.000000e+06,1,1000,-nan,nan
2.372780e-01,4.732000e-03,1.000000e+06,1,1000,-nan,nan
2.371320e-01,4.497000e-03,1.000000e+06,1,1000,-nan,nan
2.371370e-01,4.510000e-03,1.000000e+06,1,1000,-nan,nan
2.422810e-01,4.473000e-03,1.000000e+06,1,1000,-nan,nan
2.371760e-01,4.663000e-03,1.000000e+06,1,1000,-nan,nan
2.372030e-01,4.492000e-03,1.000000e+06,1,1000,-nan,nan
2.376760e-01,4.496000e-03,1.000000e+06,1,1000,-nan,nan
2.421130e-01,4.518000e-03,1.000000e+06,1,1000,-nan,nan
2.371330e-01,4.783000e-03,1.000000e+06,1,1000,-nan,nan
2.373130e-01,4.458000e-03,1.000000e+06,1,1000,-nan,nan
2.368760e-01,4.586000e-03,1.000000e+06,1,1000,-nan,nan
2.414600e-01,4.362000e-03,1.000000e+06,1,1000,-nan,nan
2.376690e-01,4.761000e-03,1.000000e+06,1,1000,-nan,nan
2.371830e-01,4.497000e-03,1.000000e+06,1,1000,-nan,nan
2.374020e-01,4.561000e-03,1.000000e+06,1,1000,-nan,nan
2.370940e-01,4.525000e-03,1.000000e+06,1,1000,-nan,nan
2.423710e-01,4.620000e-03,1.000000e+06,1,1000,-nan,nan
2.370980e-01,4.732000e-03,1.000000e+06,1,1000,-nan,nan
2.370410e-01,4.435000e-03,1.000000e+06,1,1000,-nan,nan
2.370840e-01,4.439000e-03,1.000000e+06,1,1000,-nan,nan
2.503280e-01,4.535000e-03,1.000000e+06,1,1000,-nan,nan
2.374050e-01,4.837000e-03,1.000000e+06,1,1000,-nan,nan
2.368930e-01,4.591000e-03,1.000000e+06,1,1000,-nan,nan
2.370290e-01,4.370000e-03,1.000000e+06,1,1000,-nan,nan
2.425540e-01,4.576000e-03,1.000000e+06,1,1000,-nan,nan
2.370880e-01,4.779000e-03,1.000000e+06,1,1000,-nan,nan
2.367820e-01,4.428000e-03,1.000000e+06,1,1000,-nan,nan
2.371180e-01,4.470000e-03,1.000000e+06,1,1000,-nan,nan
2.423390e-01,4.505000e-03,1.000000e+06,1,1000,-nan,nan
2.370320e-01,4.750000e-03,1.000000e+06,1,1000,-nan,nan
2.369030e-01,4.546000e-03,1.000000e+06,1,1000,-nan,nan
2.371140e-01,4.499000e-03,1.000000e+06,1,1000,-nan,nan
2.423990e-01,4.401000e-03,1.000000e+06,1,1000,-nan,nan
2.369950e-01,4.678000e-03,1.000000e+06,1,1000,-nan,nan
2.369320e-01,4.552000e-03,1.000000e+06,1,1000,-nan,nan
2.367070e-01,4.555000e-03,1.000000e+06,1,1000,-nan,nan
2.425940e-01,4.440000e-03,1.000000e+06,1,1000,-nan,nan
2.374030e-01,4.745000e-03,1.000000e+06,1,1000,-nan,nan
2.372760e-01,4.512000e-03,1.000000e+06,1,1000,-nan,nan
2.369670e-01,4.513000e-03,1.000000e+06,1,1000,-nan,nan
2.427240e-01,4.563000e-03,1.000000e+06,1,1000,-nan,nan
2.372750e-01,4.724000e-03,1.000000e+06,1,1000,-nan,nan
2.373570e-01,4.565000e-03,1.000000e+06,1,1000,-nan,nan
2.371790e-01,4.517000e-03,1.000000e+06,1,1000,-nan,nan
2.426750e-01,4.395000e-03,1.000000e+06,1,1000,-nan,nan
2.372320e-01,4.758000e-03,1.000000e+06,1,1000,-nan,nan
2.372080e-01,4.527000e-03,1.000000e+06,1,1000,-nan,nan
2.371420e-01,4.461000e-03,1.000000e+06,1,1000,-nan,nan
2.425500e-01,4.484000e-03,1.000000e+06,1,1000,-nan,nan
2.373350e-01,4.746000e-03,1.000000e+06,1,1000,-nan,nan
2.370860e-01,4.529000e-03,1.000000e+06,1,1000,-nan,nan
2.373470e-01,4.484000e-03,1.000000e+06,1,1000,-nan,nan
2.424520e-01,4.478000e-03,1.000000e+06,1,1000,-nan,nan
2.373210e-01,4.765000e-03,1.000000e+06,1,1000,-nan,nan
2.369360e-01,4.442000e-03,1.000000e+06,1,1000,-nan,nan

