5.401130e-01,2.203500e-01,1.389980e-01,2,0,0.000000e+00,0.000000e+00
7.713310e-01,4.493200e-02,3.790855e-02,3,0,1.224989e-01,1.224992e-01
7.472970e-01,4.286100e-02,3.600121e-02,3,0,2.345668e-01,2.345673e-01
7.392440e-01,4.241600e-02,3.695488e-02,3,0,5.258030e-01,5.258037e-01
7.464300e-01,4.153700e-02,3.480911e-02,3,0,7.144354e-01,7.144359e-01
7.727700e-01,4.169400e-02,3.600121e-02,3,0,2.321987e+00,2.321990e+00
7.726430e-01,4.235600e-02,3.600121e-02,3,0,2.937772e+00,2.937773e+00
7.731410e-01,4.243500e-02,3.600121e-02,3,0,3.999181e+00,3.999183e+00
7.400020e-01,4.207800e-02,3.600121e-02,3,0,2.330342e+00,2.330341e+00
7.461190e-01,4.147100e-02,3.504753e-02,3,0,2.421715e+00,2.421716e+00
7.708290e-01,4.184900e-02,3.600121e-02,3,0,2.576015e+00,2.576016e+00
7.973480e-01,4.213900e-02,3.600121e-02,3,0,2.770817e+00,2.770819e+00
7.730610e-01,4.260400e-02,3.600121e-02,3,0,3.514166e+00,3.514168e+00
7.457800e-01,4.230100e-02,3.600121e-02,3,0,4.290244e+00,4.290246e+00
7.405310e-01,4.156900e-02,3.504753e-02,3,0,4.242581e+00,4.242582e+00
7.712190e-01,4.186700e-02,3.600121e-02,3,0,4.933789e+00,4.933791e+00
7.721830e-01,4.219800e-02,3.600121e-02,3,0,4.664814e+00,4.664815e+00
7.719820e-01,4.208800e-02,3.600121e-02,3,0,4.266359e+00,4.266359e+00
7.707200e-01,4.207400e-02,3.600121e-02,3,0,4.241151e+00,4.241152e+00
7.398120e-01,4.234800e-02,3.600121e-02,3,0,4.176317e+00,4.176318e+00
7.704810e-01,4.172300e-02,3.504753e-02,3,0,4.275133e+00,4.275134e+00
7.794040e-01,4.249100e-02,3.695488e-02,3,0,3.953514e+00,3.953515e+00
7.737760e-01,4.222900e-02,3.600121e-02,3,0,3.785783e+00,3.785784e+00
7.470230e-01,4.213700e-02,3.600121e-02,3,0,4.242823e+00,4.242825e+00
7.404320e-01,4.207800e-02,3.600121e-02,3,0,4.919256e+00,4.919258e+00
7.701800e-01,4.210400e-02,3.600121e-02,3,0,5.450415e+00,5.450416e+00
7.472020e-01,4.235600e-02,3.600121e-02,3,0,4.905831e+00,4.905832e+00
7.729910e-01,4.167100e-02,3.600121e-02,3,0,5.165725e+00,5.165727e+00
7.467450e-01,4.210100e-02,3.600121e-02,3,0,4.807360e+00,4.807361e+00
7.398510e-01,4.146500e-02,3.504753e-02,3,0,4.213304e+00,4.213304e+00
7.763670e-01,4.131400e-02,3.600121e-02,3,0,3.640409e+00,3.640410e+00
7.790290e-01,4.202800e-02,3.600121e-02,3,0,2.976909e+00,2.976909e+00
7.720900e-01,4.215000e-02,3.600121e-02,3,0,3.285965e+00,3.285966e+00
7.471170e-01,4.235200e-02,3.600121e-02,3,0,3.891882e+00,3.891884e+00
7.572780e-01,4.146800e-02,3.600121e-02,3,0,2.783992e+00,2.783992e+00
7.520230e-01,4.318000e-02,3.695488e-02,3,0,3.172976e+00,3.172977e+00
7.467950e-01,4.162500e-02,3.504753e-02,3,0,2.862834e+00,2.862834e+00
7.715280e-01,4.172300e-02,3.504753e-02,3,0,2.874755e+00,2.874756e+00
7.458650e-01,4.193400e-02,3.504753e-02,3,0,2.953560e+00,2.953560e+00
7.584550e-01,4.151400e-02,3.480911e-02,3,0,3.031236e+00,3.031236e+00
7.402550e-01,5.425800e-02,4.816055e-02,3,0,4.966016e+00,4.966021e+00
7.475080e-01,4.210200e-02,3.600121e-02,3,0,5.958407e+00,5.958410e+00
7.717100e-01,4.149500e-02,3.480911e-02,3,0,4.229541e+00,4.229539e+00
7.473690e-01,8.938600e-02,8.296967e-02,3,1,5.751091e+00,5.750796e+00
1.263172e+00,8.219200e-02,7.605553e-02,5,1,4.315744e+00,4.315697e+00
7.478270e-01,4.235600e-02,3.600121e-02,3,0,3.748389e+00,3.748390e+00
7.725900e-01,4.183900e-02,3.600121e-02,3,0,3.764174e+00,3.764175e+00
7.463470e-01,4.205300e-02,3.600121e-02,3,0,3.906209e+00,3.906210e+00
7.409780e-01,4.137300e-02,3.504753e-02,3,0,3.175322e+00,3.175322e+00
7.714330e-01,4.158200e-02,3.600121e-02,3,0,2.389985e+00,2.389984e+00
7.461960e-01,4.224000e-02,3.600121e-02,3,0,2.663749e+00,2.663750e+00
7.724870e-01,4.171700e-02,3.504753e-02,3,0,3.366268e+00,3.366271e+00
7.464130e-01,4.225200e-02,3.600121e-02,3,0,2.986348e+00,2.986349e+00
7.405330e-01,4.181800e-02,3.600121e-02,3,0,2.554227e+00,2.554226e+00
7.713600e-01,4.153700e-02,3.504753e-02,3,0,2.876490e+00,2.876491e+00
7.464290e-01,4.474300e-02,3.886223e-02,3,0,3.497737e+00,3.497739e+00
7.705780e-01,4.434600e-02,3.790855e-02,3,0,3.093397e+00,3.093398e+00
7.704370e-01,4.498000e-02,3.910065e-02,3,0,3.630110e+00,3.630111e+00
7.401310e-01,4.494200e-02,3.910065e-02,3,0,3.957849e+00,3.957850e+00
7.943810e-01,4.363200e-02,3.695488e-02,3,0,5.245951e+00,5.245954e+00
7.706220e-01,4.440800e-02,3.814697e-02,3,0,3.105611e+00,3.105611e+00
7.708760e-01,4.447400e-02,3.790855e-02,3,0,4.925002e+00,4.925006e+00
7.466470e-01,4.466900e-02,3.886223e-02,3,0,6.905330e+00,6.905335e+00
7.833760e-01,4.417000e-02,3.790855e-02,3,0,4.927439e+00,4.927437e+00
7.407360e-01,9.503800e-02,8.893013e-02,3,1,5.868443e+00,5.868107e+00
9.889460e-01,8.056500e-02,7.414818e-02,4,1,3.290590e+00,3.290587e+00
7.532360e-01,5.853000e-02,5.221367e-02,3,0,3.410349e+00,3.410350e+00
7.462200e-01,4.182600e-02,3.600121e-02,3,0,3.693055e+00,3.693056e+00
7.712270e-01,4.154200e-02,3.504753e-02,3,0,3.613930e+00,3.613931e+00
7.954780e-01,4.174500e-02,3.600121e-02,3,0,3.306837e+00,3.306837e+00
7.583710e-01,4.194000e-02,3.600121e-02,3,0,3.656960e+00,3.656962e+00
7.405040e-01,5.426700e-02,4.792213e-02,3,0,4.036119e+00,4.036120e+00
7.460140e-01,4.131800e-02,3.480911e-02,3,0,4.515406e+00,4.515408e+00
7.707980e-01,4.144900e-02,3.600121e-02,3,0,4.495026e+00,4.495027e+00
7.464950e-01,4.190400e-02,3.504753e-02,3,0,4.608833e+00,4.608834e+00
7.590970e-01,4.145800e-02,3.600121e-02,3,0,6.091962e+00,6.091965e+00
7.407390e-01,5.424900e-02,4.816055e-02,3,0,5.238874e+00,5.238874e+00
7.459950e-01,4.151300e-02,3.600121e-02,3,0,4.539742e+00,4.539742e+00
7.708250e-01,4.174500e-02,3.600121e-02,3,0,4.691218e+00,4.691219e+00
7.712310e-01,4.239300e-02,3.719330e-02,3,0,3.049183e+00,3.049182e+00
7.722310e-01,4.192700e-02,3.504753e-02,3,0,3.586563e+00,3.586566e+00
7.397500e-01,4.230300e-02,3.600121e-02,3,0,2.657508e+00,2.657508e+00
7.459020e-01,4.147200e-02,3.480911e-02,3,0,2.038262e+00,2.038262e+00
7.710270e-01,4.110100e-02,3.480911e-02,3,0,1.909317e+00,1.909318e+00
7.463640e-01,4.156700e-02,3.600121e-02,3,0,2.474396e+00,2.474399e+00
7.707880e-01,4.148900e-02,3.600121e-02,3,0,4.020276e+00,4.020279e+00
7.403460e-01,4.198500e-02,3.600121e-02,3,0,5.641531e+00,5.641535e+00
7.405960e-01,1.018350e-01,9.608269e-02,3,1,8.107671e+00,8.108015e+00
7.712450e-01,8.683200e-02,8.106232e-02,3,1,7.597550e+00,7.597552e+00
7.473890e-01,4.230400e-02,3.600121e-02,3,0,6.220475e+00,6.220474e+00
7.717170e-01,4.225600e-02,3.600121e-02,3,0,5.031842e+00,5.031842e+00
7.453780e-01,4.266100e-02,3.600121e-02,3,0,3.857042e+00,3.857042e+00
7.401390e-01,4.125400e-02,3.600121e-02,3,0,5.029868e+00,5.029872e+00
7.700230e-01,4.160500e-02,3.600121e-02,3,0,4.082383e+00,4.082382e+00
7.709160e-01,8.299700e-02,7.605553e-02,3,1,4.847538e+00,4.845102e+00
2.027557e+00,4.236200e-02,3.600121e-02,8,0,5.342195e+00,5.341173e+00
1.015697e+00,8.130100e-02,7.486343e-02,4,1,3.879982e+00,3.879982e+00
7.711520e-01,4.254000e-02,3.600121e-02,3,0,3.188615e+00,3.188614e+00
7.716680e-01,4.218900e-02,3.600121e-02,3,0,4.499454e+00,4.499457e+00
7.466750e-01,4.236000e-02,3.600121e-02,3,0,4.902980e+00,4.902982e+00
7.395790e-01,4.165700e-02,3.504753e-02,3,0,4.148648e+00,4.148648e+00
7.698880e-01,4.159900e-02,3.600121e-02,3,0,4.344916e+00,4.344918e+00
7.470260e-01,4.204000e-02,3.600121e-02,3,0,2.848114e+00,2.848113e+00
7.707950e-01,4.164200e-02,3.600121e-02,3,0,3.154500e+00,3.154501e+00
7.465220e-01,4.219400e-02,3.600121e-02,3,0,2.823771e+00,2.823771e+00
7.397780e-01,4.167400e-02,3.600121e-02,3,0,3.404198e+00,3.404200e+00
7.698740e-01,4.139300e-02,3.600121e-02,3,0,4.637282e+00,4.637284e+00
7.724400e-01,4.229400e-02,3.600121e-02,3,0,4.650692e+00,4.650692e+00
7.713680e-01,4.232800e-02,3.600121e-02,3,0,4.863992e+00,4.863993e+00
7.468320e-01,4.220900e-02,3.600121e-02,3,0,3.918841e+00,3.918840e+00
7.398890e-01,4.137900e-02,3.504753e-02,3,0,3.581968e+00,3.581968e+00
7.521810e-01,5.906400e-02,5.292892e-02,3,0,3.721721e+00,3.721722e+00
7.466720e-01,4.197200e-02,3.600121e-02,3,0,3.969816e+00,3.969817e+00
7.719370e-01,4.160700e-02,3.504753e-02,3,0,4.270719e+00,4.270720e+00
7.459900e-01,4.218100e-02,3.600121e-02,3,0,3.022376e+00,3.022375e+00
7.402160e-01,4.151800e-02,3.600121e-02,3,0,2.310534e+00,2.310534e+00
7.525870e-01,7.739400e-02,3.790855e-02,3,0,3.590708e+00,3.590710e+00
7.472910e-01,4.207700e-02,3.600121e-02,3,0,3.056452e+00,3.056452e+00
7.725260e-01,4.135000e-02,3.600121e-02,3,0,5.508718e+00,5.508722e+00
7.464830e-01,4.235800e-02,3.600121e-02,3,0,3.626956e+00,3.626954e+00
7.579740e-01,4.154000e-02,3.600121e-02,3,0,3.748196e+00,3.748197e+00
7.403990e-01,5.391300e-02,4.792213e-02,3,0,5.171672e+00,5.171675e+00
7.471880e-01,4.158600e-02,3.504753e-02,3,0,4.663314e+00,4.663314e+00
7.722180e-01,4.144100e-02,3.504753e-02,3,0,5.159014e+00,5.159016e+00
7.465340e-01,8.290700e-02,7.700920e-02,3,1,6.505597e+00,6.505343e+00
1.015021e+00,8.213100e-02,7.605553e-02,4,1,4.665012e+00,4.664998e+00
7.470260e-01,4.217300e-02,3.600121e-02,3,0,4.107320e+00,4.107309e+00
7.393090e-01,4.215300e-02,3.600121e-02,3,0,3.843438e+00,3.843439e+00
7.534260e-01,5.940000e-02,5.412102e-02,3,0,3.133131e+00,3.133131e+00
7.458130e-01,4.206200e-02,3.600121e-02,3,0,3.433598e+00,3.433600e+00
7.709970e-01,4.156000e-02,3.504753e-02,3,0,2.842833e+00,2.842833e+00
7.471680e-01,4.217600e-02,3.600121e-02,3,0,2.327171e+00,2.327171e+00
7.565650e-01,4.163700e-02,3.504753e-02,3,0,1.844409e+00,1.844409e+00
7.528580e-01,4.276400e-02,3.695488e-02,3,0,1.889058e+00,1.889058e+00
7.712290e-01,4.171900e-02,3.600121e-02,3,0,2.071496e+00,2.071497e+00
7.709610e-01,4.239900e-02,3.600121e-02,3,0,3.282400e+00,3.282403e+00
7.709360e-01,4.212100e-02,3.600121e-02,3,0,3.590397e+00,3.590398e+00
7.723330e-01,4.215900e-02,3.600121e-02,3,0,3.297357e+00,3.297358e+00
7.408230e-01,4.196500e-02,3.576279e-02,3,0,3.819588e+00,3.819589e+00
7.461390e-01,4.157600e-02,3.600121e-02,3,0,3.522875e+00,3.522876e+00
7.708630e-01,4.172800e-02,3.600121e-02,3,0,4.999795e+00,4.999799e+00
7.461510e-01,4.199600e-02,3.504753e-02,3,0,7.111453e+00,7.111458e+00
7.719310e-01,4.201200e-02,3.600121e-02,3,0,9.592117e+00,9.592124e+00
7.409950e-01,4.219800e-02,3.600121e-02,3,0,1.009004e+01,1.009004e+01
7.404250e-01,1.445550e-01,1.389980e-01,3,2,1.010648e+01,1.011673e+01
1.536215e+00,1.806990e-01,1.749992e-01,6,3,9.769522e+00,9.752185e+00
1.515164e+00,4.514560e-01,4.448891e-01,6,9,9.304100e+00,9.377324e+00
1.761375e+00,2.265030e-01,2.200603e-01,7,4,8.912381e+00,9.367240e+00
1.009482e+00,5.592450e-01,5.500317e-01,4,7,7.681381e+00,8.099776e+00
7.771660e-01,3.142190e-01,3.080368e-01,3,6,6.171939e+00,6.193166e+00
7.584440e-01,8.701700e-02,8.082390e-02,3,1,4.715039e+00,4.715039e+00
7.406630e-01,1.051830e-01,9.918213e-02,3,1,4.832555e+00,4.834348e+00
1.015799e+00,8.635800e-02,8.106232e-02,4,1,4.085641e+00,4.085638e+00
7.396550e-01,4.784700e-02,4.220009e-02,3,0,3.587709e+00,3.587710e+00
7.701750e-01,4.196700e-02,3.600121e-02,3,0,2.943216e+00,2.943216e+00
7.476130e-01,4.300200e-02,3.695488e-02,3,0,2.591447e+00,2.591447e+00
7.716500e-01,4.192700e-02,3.600121e-02,3,0,3.605995e+00,3.605997e+00
7.456260e-01,4.183800e-02,3.600121e-02,3,0,3.044450e+00,3.044450e+00
7.408760e-01,4.198900e-02,3.600121e-02,3,0,3.021197e+00,3.021198e+00
7.712070e-01,4.144300e-02,3.600121e-02,3,0,3.088130e+00,3.088131e+00
7.463730e-01,4.201200e-02,3.600121e-02,3,0,1.384977e+00,1.384977e+00
7.718710e-01,4.206700e-02,3.719330e-02,3,0,1.211089e+00,1.211090e+00
7.462220e-01,4.222600e-02,3.600121e-02,3,0,1.379820e+00,1.379821e+00
7.399720e-01,4.129600e-02,3.504753e-02,3,0,6.631577e-01,6.631576e-01
7.699480e-01,4.213000e-02,3.600121e-02,3,0,6.292805e-01,6.292807e-01
7.713040e-01,4.228100e-02,3.719330e-02,3,0,1.261914e+00,1.261916e+00
7.720820e-01,4.232500e-02,3.600121e-02,3,0,1.415152e+00,1.415152e+00
7.716520e-01,4.206700e-02,3.600121e-02,3,0,3.073414e+00,3.073418e+00
7.406450e-01,4.225100e-02,3.600121e-02,3,0,3.307553e+00,3.307555e+00
7.711850e-01,4.165700e-02,3.504753e-02,3,0,2.823853e+00,2.823854e+00
7.709890e-01,4.225000e-02,3.600121e-02,3,0,3.182520e+00,3.182522e+00
7.726810e-01,4.207700e-02,3.600121e-02,3,0,2.916932e+00,2.916933e+00
7.461780e-01,4.191500e-02,3.600121e-02,3,0,3.052717e+00,3.052718e+00
7.406680e-01,4.170500e-02,3.504753e-02,3,0,2.662888e+00,2.662888e+00
7.955050e-01,4.166500e-02,3.600121e-02,3,0,2.319392e+00,2.319392e+00
7.452450e-01,4.208400e-02,3.600121e-02,3,0,2.400913e+00,2.400913e+00
7.713790e-01,4.176500e-02,3.600121e-02,3,0,2.629595e+00,2.629596e+00
7.459860e-01,4.227800e-02,3.600121e-02,3,0,4.219758e+00,4.219761e+00
7.398590e-01,4.181100e-02,3.504753e-02,3,0,4.647518e+00,4.647520e+00
7.532360e-01,6.083400e-02,5.412102e-02,3,0,5.469179e+00,5.469181e+00
7.454660e-01,4.258500e-02,3.600121e-02,3,0,7.294036e+00,7.294040e+00
7.707310e-01,4.169300e-02,3.600121e-02,3,0,6.393608e+00,6.393608e+00
7.463390e-01,4.240700e-02,3.695488e-02,3,0,7.184265e+00,7.184268e+00
7.398440e-01,4.208400e-02,3.719330e-02,3,0,6.633217e+00,6.633218e+00
7.771640e-01,6.773700e-02,6.198883e-02,3,0,6.700053e+00,6.700054e+00
7.454950e-01,9.372600e-02,8.797646e-02,3,1,7.488584e+00,7.496002e+00
1.016653e+00,9.665300e-02,8.988380e-02,4,1,8.768218e+00,8.836781e+00
9.937310e-01,9.052700e-02,8.416176e-02,4,1,8.565952e+00,8.591955e+00
1.021088e+00,8.603600e-02,8.010864e-02,4,1,7.780107e+00,7.780095e+00
7.406640e-01,9.292500e-02,8.583069e-02,3,1,8.207388e+00,8.216593e+00
7.721610e-01,8.559700e-02,7.891655e-02,3,1,8.199751e+00,8.199753e+00
7.462190e-01,1.423100e-01,1.358986e-01,3,2,7.485692e+00,7.511898e+00
7.960230e-01,2.378800e-01,2.319813e-01,3,4,7.979527e+00,8.120291e+00
1.510830e+00,2.744780e-01,2.679825e-01,6,5,7.711953e+00,7.710207e+00
1.516701e+00,2.975010e-01,2.911091e-01,6,6,7.215971e+00,7.184736e+00
1.480181e+00,1.620230e-01,1.559258e-01,6,3,6.260821e+00,6.254930e+00
1.245959e+00,1.410370e-01,1.351833e-01,5,2,6.919398e+00,6.912326e+00
1.016077e+00,2.677220e-01,2.584457e-01,4,2,8.756432e+00,8.958113e+00
1.510860e+00,1.315510e-01,1.258850e-01,6,2,8.773433e+00,8.765476e+00
1.015811e+00,1.620850e-01,1.559258e-01,4,3,8.631186e+00,8.631136e+00
1.261366e+00,1.842850e-01,1.778603e-01,5,3,1.085841e+01,1.085462e+01
1.024598e+00,3.885890e-01,3.798008e-01,4,3,1.461970e+01,1.534304e+01
7.471760e-01,1.322600e-01,1.258850e-01,3,2,1.082306e+01,1.085519e+01
7.725000e-01,2.125400e-01,2.048016e-01,3,0,1.331405e+01,1.419387e+01
7.722010e-01,2.123930e-01,2.045631e-01,3,0,1.257408e+01,1.466410e+01
7.780960e-01,6.902870e-01,6.861687e-01,3,15,1.162259e+01,1.000000e+20
7.460140e-01,5.140000e-03,1.000000e+06,3,1000,9.575566e+00,1.000000e+20
7.703940e-01,4.771000e-03,1.000000e+06,3,1000,1.094956e+01,1.000000e+20
1.042017e+00,4.646000e-03,1.000000e+06,4,1000,9.998065e+00,1.000000e+20
7.382290e-01,4.638000e-03,1.000000e+06,3,1000,1.003580e+01,1.000000e+20
1.012306e+00,4.310000e-03,1.000000e+06,4,1000,6.513965e+00,1.000000e+20
7.400020e-01,4.709000e-03,1.000000e+06,3,1000,6.482503e+00,1.000000e+20
7.696070e-01,4.466000e-03,1.000000e+06,3,1000,7.781928e+00,1.000000e+20
7.458430e-01,4.826000e-03,1.000000e+06,3,1000,5.684462e+00,1.000000e+20
7.558890e-01,4.621000e-03,1.000000e+06,3,1000,7.554479e+00,1.000000e+20
7.517970e-01,4.666000e-03,1.000000e+06,3,1000,7.951694e+00,1.000000e+20
7.446650e-01,4.598000e-03,1.000000e+06,3,1000,8.880719e+00,1.000000e+20
7.698900e-01,4.619000e-03,1.000000e+06,3,1000,6.754851e+00,1.000000e+20
7.707800e-01,4.765000e-03,1.000000e+06,3,1000,7.283138e+00,1.000000e+20
7.655890e-01,4.722000e-03,1.000000e+06,3,1000,6.173044e+00,1.000000e+20
7.954890e-01,4.540000e-03,1.000000e+06,3,1000,5.991360e+00,1.000000e+20
7.455220e-01,4.752000e-03,1.000000e+06,3,1000,6.113133e+00,1.000000e+20
7.696470e-01,4.600000e-03,1.000000e+06,3,1000,6.751947e+00,1.000000e+20
7.383790e-01,4.777000e-03,1.000000e+06,3,1000,5.309844e+00,1.000000e+20
7.440180e-01,4.464000e-03,1.000000e+06,3,1000,5.211995e+00,1.000000e+20
7.684580e-01,4.633000e-03,1.000000e+06,3,1000,5.341995e+00,1.000000e+20
7.460140e-01,4.629000e-03,1.000000e+06,3,1000,5.114078e+00,1.000000e+20
7.564990e-01,4.641000e-03,1.000000e+06,3,1000,4.528309e+00,1.000000e+20
7.526620e-01,4.791000e-03,1.000000e+06,3,1000,4.299301e+00,1.000000e+20
7.443640e-01,4.475000e-03,1.000000e+06,3,1000,4.876762e+00,1.000000e+20
7.694940e-01,4.440000e-03,1.000000e+06,3,1000,5.393626e+00,1.000000e+20
7.440810e-01,4.569000e-03,1.000000e+06,3,1000,7.412961e+00,1.000000e+20
7.384940e-01,4.581000e-03,1.000000e+06,3,1000,9.095599e+00,1.000000e+20
7.694950e-01,4.425000e-03,1.000000e+06,3,1000,7.674023e+00,1.000000e+20
7.704190e-01,4.737000e-03,1.000000e+06,3,1000,8.694972e+00,1.000000e+20
7.698950e-01,4.695000e-03,1.000000e+06,3,1000,7.184394e+00,1.000000e+20
7.391360e-01,4.562000e-03,1.000000e+06,3,1000,5.208353e+00,1.000000e+20
7.721120e-01,4.318000e-03,1.000000e+06,3,1000,5.588019e+00,1.000000e+20
7.702340e-01,4.764000e-03,1.000000e+06,3,1000,4.749661e+00,1.000000e+20
7.703780e-01,4.547000e-03,1.000000e+06,3,1000,4.393023e+00,1.000000e+20
7.381110e-01,4.755000e-03,1.000000e+06,3,1000,3.556991e+00,1.000000e+20
7.694730e-01,4.401000e-03,1.000000e+06,3,1000,4.059439e+00,1.000000e+20
7.449520e-01,4.548000e-03,1.000000e+06,3,1000,3.285393e+00,1.000000e+20
7.696850e-01,4.654000e-03,1.000000e+06,3,1000,3.864100e+00,1.000000e+20
7.440240e-01,4.550000e-03,1.000000e+06,3,1000,2.603132e+00,1.000000e+20
7.383000e-01,4.446000e-03,1.000000e+06,3,1000,3.837094e+00,1.000000e+20
7.678650e-01,4.440000e-03,1.000000e+06,3,1000,6.171162e+00,1.000000e+20
1.754059e+00,4.762000e-03,1.000000e+06,7,1000,3.668707e+00,1.000000e+20
9.888770e-01,4.817000e-03,1.000000e+06,4,1000,2.937758e+00,1.000000e+20
7.575310e-01,4.630000e-03,1.000000e+06,3,1000,3.311945e+00,1.000000e+20
7.512910e-01,4.879000e-03,1.000000e+06,3,1000,3.121354e+00,1.000000e+20
7.447870e-01,4.712000e-03,1.000000e+06,3,1000,3.254762e+00,1.000000e+20
7.691400e-01,4.650000e-03,1.000000e+06,3,1000,4.419438e+00,1.000000e+20
7.442570e-01,4.788000e-03,1.000000e+06,3,1000,3.981595e+00,1.000000e+20
7.387550e-01,4.609000e-03,1.000000e+06,3,1000,3.880440e+00,1.000000e+20
7.695590e-01,4.426000e-03,1.000000e+06,3,1000,4.465001e+00,1.000000e+20
7.459980e-01,4.609000e-03,1.000000e+06,3,1000,6.240132e+00,1.000000e+20
1.502235e+00,4.635000e-03,1.000000e+06,6,1000,7.707920e+00,1.000000e+20
1.756893e+00,4.740000e-03,1.000000e+06,7,1000,1.075721e+01,1.000000e+20
1.755141e+00,4.801000e-03,1.000000e+06,7,1000,1.242723e+01,1.000000e+20
1.236336e+00,4.619000e-03,1.000000e+06,5,1000,1.209265e+01,1.000000e+20
1.510205e+00,4.674000e-03,1.000000e+06,6,1000,1.237029e+01,1.000000e+20
1.506938e+00,4.594000e-03,1.000000e+06,6,1000,1.069456e+01,1.000000e+20
1.510374e+00,4.550000e-03,1.000000e+06,6,1000,1.118405e+01,1.000000e+20
1.480569e+00,4.625000e-03,1.000000e+06,6,1000,1.105800e+01,1.000000e+20
1.510497e+00,4.611000e-03,1.000000e+06,6,1000,9.749035e+00,1.000000e+20
1.282684e+00,4.635000e-03,1.000000e+06,5,1000,9.236613e+00,1.000000e+20
1.521513e+00,4.749000e-03,1.000000e+06,6,1000,7.793547e+00,1.000000e+20
1.015767e+00,4.767000e-03,1.000000e+06,4,1000,7.406152e+00,1.000000e+20
1.504231e+00,1.592000e-02,1.000000e+06,6,1000,7.478704e+00,1.000000e+20
1.511260e+00,4.754000e-03,1.000000e+06,6,1000,8.974296e+00,1.000000e+20
1.479816e+00,4.800000e-03,1.000000e+06,6,1000,1.410410e+01,1.000000e+20
1.510286e+00,4.681000e-03,1.000000e+06,6,1000,1.569475e+01,1.000000e+20
1.528510e+00,4.787000e-03,1.000000e+06,6,1000,1.771482e+01,1.000000e+20
1.509201e+00,4.723000e-03,1.000000e+06,6,1000,1.677020e+01,1.000000e+20
1.014427e+02,4.606000e-03,1.000000e+06,400,1000,2.559714e+01,1.000000e+20
2.005979e+01,5.792000e-03,1.000000e+06,77,1000,-nan,1.000000e+20
2.321180e-01,5.216000e-03,1.000000e+06,1,1000,-nan,nan
2.627280e-01,4.496000e-03,1.000000e+06,1,1000,-nan,nan
2.312890e-01,4.803000e-03,1.000000e+06,1,1000,-nan,nan
2.309820e-01,4.479000e-03,1.000000e+06,1,1000,-nan,nan
2.309980e-01,4.339000e-03,1.000000e+06,1,1000,-nan,nan
2.382040e-01,4.487000e-03,1.000000e+06,1,1000,-nan,nan
2.312260e-01,4.683000e-03,1.000000e+06,1,1000,-nan,nan
2.310430e-01,4.294000e-03,1.000000e+06,1,1000,-nan,nan
2.308430e-01,4.474000e-03,1.000000e+06,1,1000,-nan,nan
2.365850e-01,4.501000e-03,1.000000e+06,1,1000,-nan,nan
2.434840e-01,4.485000e-03,1.000000e+06,1,1000,-nan,nan
2.437410e-01,4.810000e-03,1.000000e+06,1,1000,-nan,nan
2.309540e-01,4.656000e-03,1.000000e+06,1,1000,-nan,nan
2.366150e-01,4.467000e-03,1.000000e+06,1,1000,-nan,nan
2.308370e-01,4.676000e-03,1.000000e+06,1,1000,-nan,nan
2.311570e-01,4.458000e-03,1.000000e+06,1,1000,-nan,nan
2.309550e-01,4.516000e-03,1.000000e+06,1,1000,-nan,nan
2.366730e-01,4.288000e-03,1.000000e+06,1,1000,-nan,nan
2.308230e-01,4.640000e-03,1.000000e+06,1,1000,-nan,nan
2.307570e-01,4.420000e-03,1.000000e+06,1,1000,-nan,nan
2.306710e-01,4.467000e-03,1.000000e+06,1,1000,-nan,nan
2.362290e-01,4.481000e-03,1.000000e+06,1,1000,-nan,nan
2.312220e-01,4.543000e-03,1.000000e+06,1,1000,-nan,nan
2.309820e-01,4.436000e-03,1.000000e+06,1,1000,-nan,nan
2.308930e-01,4.361000e-03,1.000000e+06,1,1000,-nan,nan
2.308030e-01,4.373000e-03,1.000000e+06,1,1000,-nan,nan
2.359540e-01,4.443000e-03,1.000000e+06,1,1000,-nan,nan
2.311960e-01,4.736000e-03,1.000000e+06,1,1000,-nan,nan
2.308900e-01,4.430000e-03,1.000000e+06,1,1000,-nan,nan
2.307550e-01,4.374000e-03,1.000000e+06,1,1000,-nan,nan
2.365350e-01,4.481000e-03,1.000000e+06,1,1000,-nan,nan
2.309350e-01,4.717000e-03,1.000000e+06,1,1000,-nan,nan
2.307480e-01,4.508000e-03,1.000000e+06,1,1000,-nan,nan
2.310000e-01,4.480000e-03,1.000000e+06,1,1000,-nan,nan
2.374100e-01,4.420000e-03,1.000000e+06,1,1000,-nan,nan
2.312160e-01,4.745000e-03,1.000000e+06,1,1000,-nan,nan
2.313750e-01,4.393000e-03,1.000000e+06,1,1000,-nan,nan
2.306310e-01,4.507000e-03,1.000000e+06,1,1000,-nan,nan
2.366570e-01,4.451000e-03,1.000000e+06,1,1000,-nan,nan
2.313640e-01,4.641000e-03,1.000000e+06,1,1000,-nan,nan
2.306850e-01,4.528000e-03,1.000000e+06,1,1000,-nan,nan
2.304880e-01,4.507000e-03,1.000000e+06,1,1000,-nan,nan
2.363100e-01,4.399000e-03,1.000000e+06,1,1000,-nan,nan
2.313320e-01,4.730000e-03,1.000000e+06,1,1000,-nan,nan
2.311840e-01,4.531000e-03,1.000000e+06,1,1000,-nan,nan
2.309750e-01,4.516000e-03,1.000000e+06,1,1000,-nan,nan
2.362460e-01,4.414000e-03,1.000000e+06,1,1000,-nan,nan
2.307000e-01,4.704000e-03,1.000000e+06,1,1000,-nan,nan
2.305990e-01,4.554000e-03,1.000000e+06,1,1000,-nan,nan
2.305410e-01,4.506000e-03,1.000000e+06,1,1000,-nan,nan
2.305280e-01,4.413000e-03,1.000000e+06,1,1000,-nan,nan
2.363300e-01,4.494000e-03,1.000000e+06,1,1000,-nan,nan
2.307990e-01,4.702000e-03,1.000000e+06,1,1000,-nan,nan
2.307940e-01,4.452000e-03,1.000000e+06,1,1000,-nan,nan
2.308570e-01,4.372000e-03,1.000000e+06,1,1000,-nan,nan
2.361750e-01,4.405000e-03,1.000000e+06,1,1000,-nan,nan
2.310560e-01,4.693000e-03,1.000000e+06,1,1000,-nan,nan
2.307030e-01,4.477000e-03,1.000000e+06,1,1000,-nan,nan
2.304810e-01,4.414000e-03,1.000000e+06,1,1000,-nan,nan
2.368800e-01,4.464000e-03,1.000000e+06,1,1000,-nan,nan
2.318170e-01,4.735000e-03,1.000000e+06,1,1000,-nan,nan
2.307200e-01,4.331000e-03,1.000000e+06,1,1000,-nan,nan
2.307520e-01,4.441000e-03,1.000000e+06,1,1000,-nan,nan
2.366020e-01,4.399000e-03,1.000000e+06,1,1000,-nan,nan
2.310360e-01,4.776000e-03,1.000000e+06,1,1000,-nan,nan
2.311460e-01,4.508000e-03,1.000000e+06,1,1000,-nan,nan
2.309670e-01,4.521000e-03,1.000000e+06,1,1000,-nan,nan
2.357390e-01,4.493000e-03,1.000000e+06,1,1000,-nan,nan
2.312150e-01,4.638000e-03,1.000000e+06,1,1000,-nan,nan
2.315210e-01,4.444000e-03,1.000000e+06,1,1000,-nan,nan
2.312040e-01,4.464000e-03,1.000000e+06,1,1000,-nan,nan
2.359190e-01,4.428000e-03,1.000000e+06,1,1000,-nan,nan
2.310220e-01,4.643000e-03,1.000000e+06,1,1000,-nan,nan
2.310010e-01,4.562000e-03,1.000000e+06,1,1000,-nan,nan
2.305900e-01,4.444000e-03,1.000000e+06,1,1000,-nan,nan
2.310740e-01,4.460000e-03,1.000000e+06,1,1000,-nan,nan
2.367640e-01,4.476000e-03,1.000000e+06,1,1000,-nan,nan
2.310950e-01,4.640000e-03,1.000000e+06,1,1000,-nan,nan
2.307980e-01,4.425000e-03,1.000000e+06,1,1000,-nan,nan
2.312300e-01,4.433000e-03,1.000000e+06,1,1000,-nan,nan
2.376940e-01,4.435000e-03,1.000000e+06,1,1000,-nan,nan
2.309850e-01,4.699000e-03,1.000000e+06,1,1000,-nan,nan
2.308620e-01,4.421000e-03,1.000000e+06,1,1000,-nan,nan
2.307780e-01,4.344000e-03,1.000000e+06,1,1000,-nan,nan
2.369030e-01,4.379000e-03,1.000000e+06,1,1000,-nan,nan
2.309470e-01,4.746000e-03,1.000000e+06,1,1000,-nan,nan
2.311060e-01,4.455000e-03,1.000000e+06,1,1000,-nan,nan
2.308010e-01,4.410000e-03,1.000000e+06,1,1000,-nan,nan
2.365690e-01,4.563000e-03,1.000000e+06,1,1000,-nan,nan
2.313270e-01,4.574000e-03,1.000000e+06,1,1000,-nan,nan
2.311220e-01,4.373000e-03,1.000000e+06,1,1000,-nan,nan
2.308060e-01,4.372000e-03,1.000000e+06,1,1000,-nan,nan
2.372520e-01,4.454000e-03,1.000000e+06,1,1000,-nan,nan
2.311460e-01,4.509000e-03,1.000000e+06,1,1000,-nan,nan
2.308140e-01,4.484000e-03,1.000000e+06,1,1000,-nan,nan
2.309300e-01,4.416000e-03,1.000000e+06,1,1000,-nan,nan
2.359470e-01,4.368000e-03,1.000000e+06,1,1000,-nan,nan
2.314820e-01,4.571000e-03,1.000000e+06,1,1000,-nan,nan
2.311410e-01,4.470000e-03,1.000000e+06,1,1000,-nan,nan
2.307230e-01,4.512000e-03,1.000000e+06,1,1000,-nan,nan
2.308070e-01,4.408000e-03,1.000000e+06,1,1000,-nan,nan
2.364390e-01,4.476000e-03,1.000000e+06,1,1000,-nan,nan
2.309140e-01,4.666000e-03,1.000000e+06,1,1000,-nan,nan
2.307000e-01,4.503000e-03,1.000000e+06,1,1000,-nan,nan
2.305720e-01,4.538000e-03,1.000000e+06,1,1000,-nan,nan
2.358870e-01,4.407000e-03,1.000000e+06,1,1000,-nan,nan
2.310630e-01,4.741000e-03,1.000000e+06,1,1000,-nan,nan
2.308980e-01,4.473000e-03,1.000000e+06,1,1000,-nan,nan
2.307760e-01,4.445000e-03,1.000000e+06,1,1000,-nan,nan
2.364320e-01,4.549000e-03,1.000000e+06,1,1000,-nan,nan
2.309310e-01,4.752000e-03,1.000000e+06,1,1000,-nan,nan
2.311670e-01,4.289000e-03,1.000000e+06,1,1000,-nan,nan
2.305660e-01,4.435000e-03,1.000000e+06,1,1000,-nan,nan
2.364300e-01,4.461000e-03,1.000000e+06,1,1000,-nan,nan
2.308110e-01,4.635000e-03,1.000000e+06,1,1000,-nan,nan
2.306260e-01,4.391000e-03,1.000000e+06,1,1000,-nan,nan
2.305000e-01,4.444000e-03,1.000000e+06,1,1000,-nan,nan
2.359910e-01,4.300000e-03,1.000000e+06,1,1000,-nan,nan
2.306860e-01,4.722000e-03,1.000000e+06,1,1000,-nan,nan
2.309380e-01,4.440000e-03,1.000000e+06,1,1000,-nan,nan
2.310060e-01,4.402000e-03,1.000000e+06,1,1000,-nan,nan
2.356180e-01,4.458000e-03,1.000000e+06,1,1000,-nan,nan
2.310770e-01,4.691000e-03,1.000000e+06,1,1000,-nan,nan
2.305850e-01,4.512000e-03,1.000000e+06,1,1000,-nan,nan
2.308860e-01,4.428000e-03,1.000000e+06,1,1000,-nan,nan
2.306380e-01,4.400000e-03,1.000000e+06,1,1000,-nan,nan
2.368330e-01,4.447000e-03,1.000000e+06,1,1000,-nan,nan
2.308990e-01,4.673000e-03,1.000000e+06,1,1000,-nan,nan
2.307040e-01,4.467000e-03,1.000000e+06,1,1000,-nan,nan
2.310480e-01,4.368000e-03,1.000000e+06,1,1000,-nan,nan
2.362310e-01,4.509000e-03,1.000000e+06,1,1000,-nan,nan
2.308230e-01,4.761000e-03,1.000000e+06,1,1000,-nan,nan
2.308430e-01,4.350000e-03,1.000000e+06,1,1000,-nan,nan
2.307760e-01,4.385000e-03,1.000000e+06,1,1000,-nan,nan
2.369740e-01,4.363000e-03,1.000000e+06,1,1000,-nan,nan
2.309840e-01,4.498000e-03,1.000000e+06,1,1000,-nan,nan
2.311220e-01,4.444000e-03,1.000000e+06,1,1000,-nan,nan
2.305040e-01,4.483000e-03,1.000000e+06,1,1000,-nan,nan
2.364000e-01,4.492000e-03,1.000000e+06,1,1000,-nan,nan
2.306440e-01,4.760000e-03,1.000000e+06,1,1000,-nan,nan
2.307580e-01,4.489000e-03,1.000000e+06,1,1000,-nan,nan
2.309160e-01,4.498000e-03,1.000000e+06,1,1000,-nan,nan
2.361260e-01,4.489000e-03,1.000000e+06,1,1000,-nan,nan
2.308870e-01,4.537000e-03,1.000000e+06,1,1000,-nan,nan
2.308800e-01,4.489000e-03,1.000000e+06,1,1000,-nan,nan
2.306440e-01,4.476000e-03,1.000000e+06,1,1000,-nan,nan
2.356110e-01,4.420000e-03,1.000000e+06,1,1000,-nan,nan
2.318660e-01,4.595000e-03,1.000000e+06,1,1000,-nan,nan
2.308760e-01,4.483000e-03,1.000000e+06,1,1000,-nan,nan
2.308340e-01,4.373000e-03,1.000000e+06,1,1000,-nan,nan
2.310320e-01,4.421000e-03,1.000000e+06,1,1000,-nan,nan
2.367080e-01,4.421000e-03,1.000000e+06,1,1000,-nan,nan
2.309200e-01,4.690000e-03,1.000000e+06,1,1000,-nan,nan
2.308050e-01,4.415000e-03,1.000000e+06,1,1000,-nan,nan
2.307760e-01,4.490000e-03,1.000000e+06,1,1000,-nan,nan
2.366980e-01,4.383000e-03,1.000000e+06,1,1000,-nan,nan
2.309520e-01,4.722000e-03,1.000000e+06,1,1000,-nan,nan
2.306430e-01,4.544000e-03,1.000000e+06,1,1000,-nan,nan
2.305640e-01,4.474000e-03,1.000000e+06,1,1000,-nan,nan
2.366570e-01,4.472000e-03,1.000000e+06,1,1000,-nan,nan
2.309160e-01,4.697000e-03,1.000000e+06,1,1000,-nan,nan
2.306080e-01,4.450000e-03,1.000000e+06,1,1000,-nan,nan
2.309560e-01,4.478000e-03,1.000000e+06,1,1000,-nan,nan
2.365910e-01,4.474000e-03,1.000000e+06,1,1000,-nan,nan
2.309740e-01,4.713000e-03,1.000000e+06,1,1000,-nan,nan
2.307840e-01,4.492000e-03,1.000000e+06,1,1000,-nan,nan
2.310120e-01,4.531000e-03,1.000000e+06,1,1000,-nan,nan
2.360580e-01,4.468000e-03,1.000000e+06,1,1000,-nan,nan
2.310720e-01,4.661000e-03,1.000000e+06,1,1000,-nan,nan
2.307230e-01,4.476000e-03,1.000000e+06,1,1000,-nan,nan
2.306040e-01,4.454000e-03,1.000000e+06,1,1000,-nan,nan
2.305480e-01,4.381000e-03,1.000000e+06,1,1000,-nan,nan
2.316810e-01,4.661000e-03,1.000000e+06,1,1000,-nan,nan
2.311570e-01,4.360000e-03,1.000000e+06,1,1000,-nan,nan
2.308450e-01,4.457000e-03,1.000000e+06,1,1000,-nan,nan
2.306990e-01,4.410000e-03,1.000000e+06,1,1000,-nan,nan
2.367800e-01,4.416000e-03,1.000000e+06,1,1000,-nan,nan
2.307950e-01,4.670000e-03,1.000000e+06,1,1000,-nan,nan
2.308380e-01,4.443000e-03,1.000000e+06,1,1000,-nan,nan
2.307800e-01,4.346000e-03,1.000000e+06,1,1000,-nan,nan
2.364890e-01,4.482000e-03,1.000000e+06,1,1000,-nan,nan
2.311540e-01,4.669000e-03,1.000000e+06,1,1000,-nan,nan
2.308580e-01,4.443000e-03,1.000000e+06,1,1000,-nan,nan
2.309610e-01,4.531000e-03,1.000000e+06,1,1000,-nan,nan
2.365080e-01,4.490000e-03,1.000000e+06,1,1000,-nan,nan
2.309910e-01,4.511000e-03,1.000000e+06,1,1000,-nan,nan
2.309950e-01,4.542000e-03,1.000000e+06,1,1000,-nan,nan
2.308950e-01,4.447000e-03,1.000000e+06,1,1000,-nan,nan
2.363040e-01,4.418000e-03,1.000000e+06,1,1000,-nan,nan
2.307690e-01,4.733000e-03,1.000000e+06,1,1000,-nan,nan
2.308740e-01,4.563000e-03,1.000000e+06,1,1000,-nan,nan
2.303710e-01,4.427000e-03,1.000000e+06,1,1000,-nan,nan
2.362910e-01,4.471000e-03,1.000000e+06,1,1000,-nan,nan
2.309520e-01,4.484000e-03,1.000000e+06,1,1000,-nan,nan
2.306460e-01,4.522000e-03,1.000000e+06,1,1000,-nan,nan
2.307820e-01,4.524000e-03,1.000000e+06,1,1000,-nan,nan
2.306120e-01,4.471000e-03,1.000000e+06,1,1000,-nan,nan
2.319260e-01,8.965000e-03,1.000000e+06,1,1000,-nan,nan
2.311060e-01,4.696000e-03,1.000000e+06,1,1000,-nan,nan
2.308440e-01,4.297000e-03,1.000000e+06,1,1000,-nan,nan
2.305110e-01,4.453000e-03,1.000000e+06,1,1000,-nan,nan
2.364620e-01,4.260000e-03,1.000000e+06,1,1000,-nan,nan
2.309320e-01,4.586000e-03,1.000000e+06,1,1000,-nan,nan
2.308660e-01,4.410000e-03,1.000000e+06,1,1000,-nan,nan
2.311280e-01,4.399000e-03,1.000000e+06,1,1000,-nan,nan
2.367030e-01,4.431000e-03,1.000000e+06,1,1000,-nan,nan
2.309130e-01,4.547000e-03,1.000000e+06,1,1000,-nan,nan
2.306600e-01,4.443000e-03,1.000000e+06,1,1000,-nan,nan
2.306330e-01,4.479000e-03,1.000000e+06,1,1000,-nan,nan
2.365010e-01,4.445000e-03,1.000000e+06,1,1000,-nan,nan
2.311460e-01,4.641000e-03,1.000000e+06,1,1000,-nan,nan
2.307950e-01,4.507000e-03,1.000000e+06,1,1000,-nan,nan
2.308350e-01,4.321000e-03,1.000000e+06,1,1000,-nan,nan
2.369340e-01,4.299000e-03,1.000000e+06,1,1000,-nan,nan
2.310260e-01,4.706000e-03,1.000000e+06,1,1000,-nan,nan
2.305780e-01,4.447000e-03,1.000000e+06,1,1000,-nan,nan
2.305320e-01,4.427000e-03,1.000000e+06,1,1000,-nan,nan
2.370420e-01,4.486000e-03,1.000000e+06,1,1000,-nan,nan
2.310360e-01,4.511000e-03,1.000000e+06,1,1000,-nan,nan
2.306550e-01,4.496000e-03,1.000000e+06,1,1000,-nan,nan
2.304290e-01,4.424000e-03,1.000000e+06,1,1000,-nan,nan
2.307900e-01,4.413000e-03,1.000000e+06,1,1000,-nan,nan
2.362610e-01,4.467000e-03,1.000000e+06,1,1000,-nan,nan

