2.884823e+00,1.512106e+03,1.511085e+03,2,1000,0.000000e+00,-3.209238e-17,0
4.273646e+00,5.069556e+01,5.064201e+01,3,41,5.640242e-01,5.640255e-01,1
4.228273e+00,2.694303e+00,2.659082e+00,3,1,2.253799e+00,2.255616e+00,1
4.219722e+00,3.889185e+00,3.855705e+00,3,2,3.538409e+00,3.538414e+00,1
4.212090e+00,3.931604e+00,3.899097e+00,3,2,3.324107e+00,3.400728e+00,1
4.210652e+00,7.961906e+00,7.922649e+00,3,3,1.265141e+01,2.289789e+01,0
8.379000e+00,4.647168e+00,4.605532e+00,6,0,1.939291e+01,3.892247e+01,0
8.372412e+00,4.686427e+00,4.647017e+00,6,0,1.869642e+01,2.864162e+01,0
8.387270e+00,4.658457e+00,4.619122e+00,6,0,2.888203e+01,6.013350e+01,0
5.611349e+00,5.965631e+00,5.932093e+00,4,4,1.506021e+01,1.512185e+01,1
4.221130e+00,5.900322e+00,5.858183e+00,3,1,1.834445e+01,2.341749e+01,0
5.622989e+00,4.887536e+00,4.854918e+00,4,3,1.344568e+01,1.345217e+01,1
4.248710e+00,5.142661e+00,5.110025e+00,3,3,1.355907e+01,1.358324e+01,1
4.165941e+00,3.387785e+00,3.354073e+00,3,2,1.089393e+01,1.089392e+01,1
4.144475e+00,2.517518e+00,2.488136e+00,3,1,9.048192e+00,9.048524e+00,1
4.163851e+00,2.415039e+00,2.384901e+00,3,1,7.661582e+00,7.661584e+00,1
4.129658e+00,1.349277e+00,1.319885e+00,3,0,6.883154e+00,6.883159e+00,1
4.154623e+00,1.300079e+00,1.271009e+00,3,0,6.766887e+00,6.766890e+00,1
4.162052e+00,1.299467e+00,1.271009e+00,3,0,7.753228e+00,7.753234e+00,1
4.134053e+00,1.324341e+00,1.295090e+00,3,0,6.673546e+00,6.673548e+00,1
4.161089e+00,1.329903e+00,1.300097e+00,3,0,7.957996e+00,7.958003e+00,1
4.188763e+00,1.351515e+00,1.323223e+00,3,0,6.259970e+00,6.259971e+00,1
4.292284e+00,6.114937e+00,6.085157e+00,3,4,6.438339e+00,6.462242e+00,1
4.192956e+00,1.164336e+01,1.161098e+01,3,9,5.969789e+00,6.003100e+00,1
4.267699e+00,1.761743e+01,1.758218e+01,3,14,5.979965e+00,6.205191e+00,1
4.197710e+00,1.114478e+01,1.111102e+01,3,8,5.298596e+00,5.339859e+00,1
5.518113e+00,3.446092e+00,3.415108e+00,4,2,4.557141e+00,4.557143e+00,1
4.134125e+00,1.333607e+00,1.303196e+00,3,0,4.265602e+00,4.265605e+00,1
4.121821e+00,2.612651e+00,2.583027e+00,3,1,8.255973e+00,8.256879e+00,1
4.192082e+00,2.345195e+00,2.315044e+00,3,1,7.971413e+00,7.970666e+00,1
4.161698e+00,1.302711e+00,1.275063e+00,3,0,3.560910e+00,3.560845e+00,1
4.166579e+00,1.342845e+00,1.302719e+00,3,0,3.844249e+00,3.844252e+00,1
4.216209e+00,3.021356e+00,2.991676e+00,3,2,1.066669e+01,1.066206e+01,1
6.976946e+00,2.986366e+00,2.957106e+00,5,2,5.809988e+00,5.809484e+00,1
4.227916e+00,3.837965e+00,3.805876e+00,3,2,5.817080e+00,5.817091e+00,1
8.535855e+00,1.764866e+01,1.761603e+01,6,14,8.013741e+00,8.109767e+00,1
5.654694e+00,1.825050e+01,1.821589e+01,4,16,4.253610e+00,4.253606e+00,1
4.213341e+00,1.345112e+00,1.314163e+00,3,0,2.236400e+00,2.236400e+00,1
4.198569e+00,1.336555e+00,1.307964e+00,3,0,2.536158e+00,2.536160e+00,1
4.216503e+00,6.423511e+00,6.395102e+00,3,4,4.532194e+00,4.590546e+00,1
6.998869e+00,4.489104e+00,4.457951e+00,5,3,3.592985e+00,3.591583e+00,1
4.210550e+00,2.716685e+00,2.686024e+00,3,1,3.256586e+00,3.257747e+00,1
4.219676e+00,4.397420e+00,4.367828e+00,3,2,4.014582e+00,4.039881e+00,1
4.216109e+00,2.715722e+00,2.683878e+00,3,1,3.394421e+00,3.394768e+00,1
4.201840e+00,2.376841e+00,2.346039e+00,3,1,2.522782e+00,2.522782e+00,1
4.208594e+00,1.341680e+00,1.310825e+00,3,0,2.155029e+00,2.155031e+00,1
4.209737e+00,1.489937e+00,1.456976e+00,3,0,2.365136e+00,2.365138e+00,1
4.218746e+00,4.025016e+00,3.993034e+00,3,2,5.291056e+00,5.316607e+00,1
5.624172e+00,8.338490e+00,8.308172e+00,4,6,4.702743e+00,4.803118e+00,1
4.211656e+00,3.772138e+00,3.741026e+00,3,2,3.324833e+00,3.474429e+00,1
4.211173e+00,4.942184e+00,4.910946e+00,3,3,2.263398e+00,2.263401e+00,1
4.197123e+00,1.337285e+00,1.307011e+00,3,0,2.696498e+00,2.696484e+00,1
4.219804e+00,2.187016e+00,2.156973e+00,3,1,3.539417e+00,3.538769e+00,1
5.616072e+00,3.809929e+00,3.779650e+00,4,2,4.080281e+00,4.082906e+00,1
4.211582e+00,3.147790e+00,3.115892e+00,3,1,3.051894e+00,3.068284e+00,1
4.203902e+00,2.406404e+00,2.376080e+00,3,1,2.569718e+00,2.569719e+00,1
4.203534e+00,1.369592e+00,1.333952e+00,3,0,2.116510e+00,2.116511e+00,1
4.203750e+00,1.354536e+00,1.323700e+00,3,0,1.877307e+00,1.877308e+00,1
4.207551e+00,1.343118e+00,1.314163e+00,3,0,1.516541e+00,1.516542e+00,1
4.226188e+00,5.189299e+00,5.160093e+00,3,3,4.679050e+00,4.691996e+00,1
4.211078e+00,4.472900e+00,4.439831e+00,3,3,5.222992e+00,5.222910e+00,1
4.205600e+00,1.338945e+00,1.307964e+00,3,0,4.278535e+00,4.278347e+00,1
4.217445e+00,4.980866e+00,4.951000e+00,3,3,9.359712e+00,9.367366e+00,1
8.421213e+00,2.698016e+01,2.694130e+01,6,20,1.670192e+01,2.111538e+01,0
8.412611e+00,2.501937e+01,2.498698e+01,6,22,1.340964e+01,1.343635e+01,1
5.623715e+00,8.268825e+00,8.234024e+00,4,6,1.282992e+01,1.282853e+01,1
7.068435e+00,1.098751e+01,1.094699e+01,5,8,1.433084e+01,1.433258e+01,1
5.617715e+00,1.327882e+01,1.323819e+01,4,8,1.043544e+01,1.158624e+01,0
4.220896e+00,7.643591e+00,7.611036e+00,3,5,8.918748e+00,8.948412e+00,1
4.207707e+00,3.934380e+00,3.902912e+00,3,2,8.058158e+00,8.319155e+00,1
4.219881e+00,5.143843e+00,5.111933e+00,3,3,6.646530e+00,6.906246e+00,1
4.216236e+00,6.583964e+00,6.552219e+00,3,4,6.425444e+00,6.618529e+00,1
4.225401e+00,7.124427e+00,7.091045e+00,3,5,5.810248e+00,5.893501e+00,1
8.428831e+00,9.762514e+00,9.728670e+00,6,7,7.727022e+00,7.863843e+00,1
8.398931e+00,7.992182e+00,7.949352e+00,6,3,7.569271e+00,9.149102e+00,0
7.001094e+00,4.643731e+00,4.604816e+00,5,0,1.498546e+01,3.815556e+01,0
5.617367e+00,1.249444e+01,1.245308e+01,4,7,8.838807e+00,9.510581e+00,0
5.621549e+00,4.670830e+00,4.631758e+00,4,0,1.625539e+01,3.980039e+01,0
5.652043e+00,9.805376e+00,9.773970e+00,4,7,1.226934e+01,1.228607e+01,1
5.652682e+00,6.492863e+00,6.458998e+00,4,4,5.726726e+00,5.789530e+00,1
4.234076e+00,5.727177e+00,5.694628e+00,3,3,5.095342e+00,5.231780e+00,1
4.220649e+00,3.727513e+00,3.694057e+00,3,2,6.758096e+00,6.977949e+00,1
4.222087e+00,9.278068e+00,9.247065e+00,3,6,9.641766e+00,9.867010e+00,1
8.416261e+00,9.444238e+00,9.412050e+00,6,7,1.308557e+01,1.326985e+01,1
7.089016e+00,8.392735e+00,8.358955e+00,5,6,1.164946e+01,1.171983e+01,1
4.226658e+00,1.702909e+01,1.699805e+01,3,13,1.105484e+01,1.123906e+01,1
4.221486e+00,6.910313e+00,6.864786e+00,3,2,1.319737e+01,3.064829e+01,0
8.415294e+00,4.673918e+00,4.635334e+00,6,0,1.498375e+01,3.828801e+01,0
8.441614e+00,4.819707e+00,4.772902e+00,6,0,1.606992e+01,3.723706e+01,0
8.406930e+00,2.089667e+01,2.084804e+01,6,15,1.165504e+01,1.754684e+01,0
7.022151e+00,4.771458e+00,4.729986e+00,5,0,1.102307e+01,1.452896e+01,0
5.683843e+00,9.377090e+00,9.345055e+00,4,7,8.549548e+00,8.558943e+00,1
4.228784e+00,5.006404e+00,4.976034e+00,3,3,6.454351e+00,6.464121e+00,1
4.222729e+00,6.957446e+00,6.916761e+00,3,2,1.112802e+01,2.746195e+01,0
8.417476e+00,4.693143e+00,4.649878e+00,6,0,1.135836e+01,3.145943e+01,0
5.648526e+00,4.720494e+00,4.678011e+00,4,0,7.655598e+00,1.162713e+01,0
8.402408e+00,4.707876e+00,4.666805e+00,6,0,2.005151e+01,5.918582e+01,0
8.401389e+00,4.678725e+00,4.641056e+00,6,0,1.490948e+01,3.045547e+01,0
8.512343e+00,1.206568e+01,1.203370e+01,6,10,1.146675e+01,1.147109e+01,1
7.000019e+00,8.422323e+00,8.389950e+00,5,7,7.007049e+00,6.987785e+00,1
5.602158e+00,2.246458e+00,2.213001e+00,4,1,5.708909e+00,5.708909e+00,1
4.208243e+00,3.976888e+00,3.944874e+00,3,2,8.973997e+00,8.982208e+00,1
4.229656e+00,5.453787e+00,5.419970e+00,3,3,5.951592e+00,5.978353e+00,1
4.267544e+00,4.012465e+00,3.978014e+00,3,2,1.426410e+01,1.429514e+01,1
5.608796e+00,8.265973e+00,8.224964e+00,4,3,1.905852e+01,2.387160e+01,0
8.465345e+00,1.598667e+01,1.594472e+01,6,10,2.085006e+01,2.554632e+01,0
5.600831e+00,4.632164e+00,4.590511e+00,4,0,2.839903e+01,4.227119e+01,0
8.413119e+00,9.116469e+00,9.069920e+00,6,4,3.398968e+01,5.182923e+01,0
5.624027e+00,1.260614e+01,1.255870e+01,4,7,2.565450e+01,2.963150e+01,0
5.623132e+00,2.375713e+01,2.372098e+01,4,19,1.730428e+01,1.812572e+01,1
8.397480e+00,4.631779e+00,4.589081e+00,6,0,1.548815e+01,2.317242e+01,0
8.396569e+00,4.618790e+00,4.581928e+00,6,0,1.563502e+01,3.927557e+01,0
8.400757e+00,4.608831e+00,4.569054e+00,6,0,2.305512e+01,8.709905e+01,0
8.391476e+00,4.610796e+00,4.572630e+00,6,0,2.565427e+01,1.021725e+02,0
8.405034e+00,4.657016e+00,4.618168e+00,6,0,2.881103e+01,1.186689e+02,0
8.416450e+00,4.635229e+00,4.593611e+00,6,0,2.928548e+01,1.134996e+02,0
7.003364e+00,4.740364e+00,4.697084e+00,5,0,3.314886e+01,1.113149e+02,0
8.458356e+00,4.696531e+00,4.652023e+00,6,0,3.977604e+01,1.215827e+02,0
5.696101e+00,4.343773e+01,4.339385e+01,4,34,2.666066e+01,5.145836e+01,0
5.648194e+00,4.937183e+01,4.933095e+01,4,43,1.631956e+01,1.673680e+01,1
5.632267e+00,1.929085e+01,1.925516e+01,4,17,1.156131e+01,1.157905e+01,1
4.237023e+00,6.055548e+00,6.022692e+00,3,4,9.339058e+00,9.345090e+00,1
4.217127e+00,3.461187e+00,3.430128e+00,3,2,9.610832e+00,9.610732e+00,1
4.210996e+00,1.356548e+00,1.325607e+00,3,0,1.064468e+01,1.064403e+01,1
5.609464e+00,2.743751e+00,2.712965e+00,4,1,7.974811e+00,7.974875e+00,1
4.221400e+00,4.162588e+00,4.132032e+00,3,2,6.494947e+00,6.499871e+00,1
4.213452e+00,4.530768e+00,4.499912e+00,3,3,5.173127e+00,5.172647e+00,1
4.235859e+00,5.054618e+00,5.023003e+00,3,3,5.694869e+00,5.724816e+00,1
5.609714e+00,5.782681e+00,5.735874e+00,4,1,8.730642e+00,1.881336e+01,0
7.006441e+00,4.734902e+00,4.693031e+00,5,0,1.904969e+01,6.376710e+01,0
6.994174e+00,4.750456e+00,4.709959e+00,5,0,9.903827e+00,2.010241e+01,0
6.996782e+00,3.431238e+00,3.398895e+00,5,2,7.411737e+00,7.411243e+00,1
5.592648e+00,1.377442e+00,1.346111e+00,4,0,7.809303e+00,7.809303e+00,1
4.194912e+00,1.348369e+00,1.319170e+00,3,0,9.023988e+00,9.023910e+00,1
4.218742e+00,5.047587e+00,5.017996e+00,3,3,6.818250e+00,6.836761e+00,1
5.601812e+00,4.183519e+00,4.147053e+00,4,2,5.488827e+00,5.505629e+00,1
4.219692e+00,3.166150e+00,3.134966e+00,3,1,4.824906e+00,4.842082e+00,1
4.210246e+00,3.435265e+00,3.402948e+00,3,2,3.140426e+00,3.140429e+00,1
4.202172e+00,1.344347e+00,1.311779e+00,3,0,2.844075e+00,2.844076e+00,1
4.216126e+00,1.390918e+00,1.358747e+00,3,0,3.407096e+00,3.407099e+00,1
4.215498e+00,1.364558e+00,1.332998e+00,3,0,3.928065e+00,3.928067e+00,1
4.209023e+00,1.352888e+00,1.322031e+00,3,0,4.249911e+00,4.249913e+00,1
4.230368e+00,3.922985e+00,3.893137e+00,3,2,4.942316e+00,4.953631e+00,1
4.218606e+00,6.202848e+00,6.173134e+00,3,4,4.957786e+00,4.963096e+00,1
4.220408e+00,3.434880e+00,3.403187e+00,3,2,2.413163e+00,2.413165e+00,1
4.208622e+00,1.356147e+00,1.325130e+00,3,0,4.151102e+00,4.151092e+00,1
4.207364e+00,2.684543e+00,2.654076e+00,3,1,4.602253e+00,4.602160e+00,1
4.256401e+00,5.028932e+00,4.998922e+00,3,3,4.868226e+00,4.877648e+00,1
4.205697e+00,3.131611e+00,3.099203e+00,3,1,4.122359e+00,4.357915e+00,1
4.215064e+00,3.113505e+00,3.084898e+00,3,1,5.706747e+00,5.914641e+00,1
4.254038e+00,4.184352e+00,4.153013e+00,3,2,4.585408e+00,4.609787e+00,1
4.263070e+00,3.840014e+00,3.806829e+00,3,2,4.607585e+00,4.607584e+00,1
4.251755e+00,1.342326e+00,1.312017e+00,3,0,4.072461e+00,4.072464e+00,1
4.225888e+00,1.385369e+00,1.352787e+00,3,0,3.873460e+00,3.873462e+00,1
4.215230e+00,1.384150e+00,1.353979e+00,3,0,2.695815e+00,2.695817e+00,1
4.207613e+00,1.367864e+00,1.338005e+00,3,0,3.072556e+00,3.072557e+00,1
4.204982e+00,1.376783e+00,1.345873e+00,3,0,2.423954e+00,2.423943e+00,1
4.204582e+00,1.344582e+00,1.315832e+00,3,0,3.667736e+00,3.667732e+00,1
4.208689e+00,1.337934e+00,1.308203e+00,3,0,3.739472e+00,3.739472e+00,1
4.191264e+00,1.350913e+00,1.321077e+00,3,0,4.073843e+00,4.073843e+00,1
4.202712e+00,1.357920e+00,1.327991e+00,3,0,3.436233e+00,3.436235e+00,1
4.201702e+00,1.365597e+00,1.336098e+00,3,0,5.305572e+00,5.305574e+00,1
4.213635e+00,1.357303e+00,1.326799e+00,3,0,3.175404e+00,3.175400e+00,1
4.220283e+00,1.346932e+00,1.317024e+00,3,0,4.273413e+00,4.273413e+00,1
4.197680e+00,1.336168e+00,1.307011e+00,3,0,3.110661e+00,3.110678e+00,1
4.207791e+00,1.347853e+00,1.318932e+00,3,0,1.740727e+00,1.740727e+00,1
4.204585e+00,2.723508e+00,2.692938e+00,3,1,2.320962e+00,2.323172e+00,1
4.212479e+00,7.842607e+00,7.812977e+00,3,5,6.236185e+00,6.239890e+00,1
4.218746e+00,5.093562e+00,5.061150e+00,3,3,4.709117e+00,4.803880e+00,1
5.620698e+00,5.627501e+00,5.593777e+00,4,4,4.375047e+00,4.374791e+00,1
5.622286e+00,2.760085e+00,2.728224e+00,4,1,5.260780e+00,5.261094e+00,1
4.200940e+00,1.677735e+00,1.646042e+00,3,0,4.252343e+00,4.253156e+00,1
4.212180e+00,3.749192e+00,3.717899e+00,3,2,2.846340e+00,2.847958e+00,1
4.211491e+00,3.111881e+00,3.081083e+00,3,1,4.076878e+00,4.091376e+00,1
4.218731e+00,2.901424e+00,2.870083e+00,3,1,3.680887e+00,3.775645e+00,1
4.220820e+00,4.216213e+00,4.184961e+00,3,2,2.930518e+00,2.936400e+00,1
4.199852e+00,1.667341e+00,1.637936e+00,3,0,2.949235e+00,2.952315e+00,1
4.199322e+00,1.705216e+00,1.674652e+00,3,0,2.891660e+00,2.892133e+00,1
4.203560e+00,2.412091e+00,2.382040e+00,3,1,2.948058e+00,2.948060e+00,1
4.217955e+00,1.364080e+00,1.333237e+00,3,0,2.841899e+00,2.841903e+00,1
4.210884e+00,1.360374e+00,1.328945e+00,3,0,3.767525e+00,3.767530e+00,1
4.211864e+00,1.357362e+00,1.329184e+00,3,0,6.440489e+00,6.440497e+00,1
4.205591e+00,1.361633e+00,1.332998e+00,3,0,3.308380e+00,3.308380e+00,1
4.217993e+00,1.361115e+00,1.331806e+00,3,0,4.130869e+00,4.130831e+00,1
4.198348e+00,1.359805e+00,1.328230e+00,3,0,2.715698e+00,2.715696e+00,1
4.206537e+00,1.364988e+00,1.332760e+00,3,0,3.532653e+00,3.532649e+00,1
4.202728e+00,1.329973e+00,1.300097e+00,3,0,3.045944e+00,3.045945e+00,1
4.193083e+00,1.332411e+00,1.302004e+00,3,0,2.778865e+00,2.778862e+00,1
4.195369e+00,1.328780e+00,1.298904e+00,3,0,3.498362e+00,3.498368e+00,1
4.208791e+00,3.885135e+00,3.854990e+00,3,2,6.527380e+00,6.528951e+00,1
4.212273e+00,4.017968e+00,3.986120e+00,3,2,3.073275e+00,3.075707e+00,1
4.206530e+00,3.150627e+00,3.120184e+00,3,1,3.899497e+00,3.903562e+00,1
4.274852e+00,5.378009e+00,5.345821e+00,3,3,5.417663e+00,5.420188e+00,1
4.267009e+00,6.369752e+00,6.337881e+00,3,4,8.675604e+00,8.682694e+00,1
4.262378e+00,5.565876e+00,5.529165e+00,3,4,6.761463e+00,6.761445e+00,1
4.224481e+00,5.234445e+00,5.198002e+00,3,3,6.836684e+00,6.938755e+00,1
5.635787e+00,2.548707e+01,2.544737e+01,4,18,2.123480e+01,4.528872e+01,0
8.412256e+00,4.620363e+00,4.576921e+00,6,0,1.756323e+01,2.147863e+01,0
7.019085e+00,2.570776e+01,2.567601e+01,5,23,1.157379e+01,1.169126e+01,1
4.217586e+00,4.011618e+00,3.978014e+00,3,2,1.275433e+01,1.291339e+01,1
4.218283e+00,4.985081e+00,4.955053e+00,3,3,1.232191e+01,1.239948e+01,1
5.608831e+00,1.699807e+00,1.667976e+00,4,0,1.186939e+01,1.189484e+01,1
4.218366e+00,8.681443e+00,8.648872e+00,3,6,1.504180e+01,1.511016e+01,1
5.690001e+00,1.287777e+01,1.284289e+01,4,10,1.184075e+01,1.190752e+01,1
5.684623e+00,1.398653e+01,1.394606e+01,4,11,1.306159e+01,1.307263e+01,1
5.638449e+00,8.165028e+00,8.131981e+00,4,6,9.325148e+00,9.337501e+00,1
4.222355e+00,5.444115e+00,5.410910e+00,3,3,1.035751e+01,1.036682e+01,1
4.246077e+00,4.808597e+00,4.777908e+00,3,3,8.100919e+00,8.101161e+00,1
4.223029e+00,2.398661e+00,2.367020e+00,3,1,8.337717e+00,8.337636e+00,1
5.598986e+00,1.342553e+00,1.313210e+00,4,0,5.955732e+00,5.955730e+00,1
4.196654e+00,1.350353e+00,1.321077e+00,3,0,4.758982e+00,4.758982e+00,1
4.206779e+00,1.339688e+00,1.312017e+00,3,0,4.840688e+00,4.840692e+00,1
4.207058e+00,1.350338e+00,1.321077e+00,3,0,4.481154e+00,4.481155e+00,1
4.202836e+00,1.367148e+00,1.335859e+00,3,0,3.336314e+00,3.336315e+00,1
4.214185e+00,4.546643e+00,4.507542e+00,3,1,6.727564e+00,7.032277e+00,0
8.387518e+00,3.652497e+00,3.611565e+00,6,0,8.238532e+00,1.466882e+01,0
5.611737e+00,2.246317e+00,2.214909e+00,4,1,4.330119e+00,4.330097e+00,1
4.208703e+00,1.354845e+00,1.325130e+00,3,0,2.373576e+00,2.373575e+00,1
4.195445e+00,1.341105e+00,1.312017e+00,3,0,2.810039e+00,2.810045e+00,1
4.205768e+00,1.334171e+00,1.307011e+00,3,0,1.703696e+00,1.703697e+00,1
4.198766e+00,1.342624e+00,1.314878e+00,3,0,2.304802e+00,2.304805e+00,1
4.201540e+00,1.349042e+00,1.319885e+00,3,0,3.411451e+00,3.411456e+00,1
4.200746e+00,1.343019e+00,1.315117e+00,3,0,4.566952e+00,4.566957e+00,1
4.202391e+00,1.331045e+00,1.302958e+00,3,0,5.155554e+00,5.155556e+00,1
4.195149e+00,2.680303e+00,2.652168e+00,3,1,7.016304e+00,7.018922e+00,1
4.205393e+00,2.396510e+00,2.368927e+00,3,1,4.505727e+00,4.505724e+00,1
4.194840e+00,1.332206e+00,1.301765e+00,3,0,3.620228e+00,3.620228e+00,1
4.207351e+00,2.714735e+00,2.686024e+00,3,1,2.828818e+00,2.830512e+00,1
4.215675e+00,2.436054e+00,2.403021e+00,3,1,2.036022e+00,2.036023e+00,1
4.227629e+00,2.722524e+00,2.691984e+00,3,1,2.165577e+00,2.167225e+00,1
4.218403e+00,3.793530e+00,3.761053e+00,3,2,2.764932e+00,2.765124e+00,1
4.210907e+00,2.420167e+00,2.385139e+00,3,1,2.048167e+00,2.048169e+00,1
4.212255e+00,5.421971e+00,5.393028e+00,3,3,1.999341e+00,2.000660e+00,1
4.325632e+00,4.907237e+00,4.874706e+00,3,3,1.408301e+00,1.408302e+00,1
4.207779e+00,1.366855e+00,1.337051e+00,3,0,3.463439e+00,3.463445e+00,1
4.208512e+00,1.340792e+00,1.309156e+00,3,0,2.767633e+00,2.767633e+00,1
4.243231e+00,2.738206e+00,2.708912e+00,3,1,3.848371e+00,3.860170e+00,1
4.210508e+00,2.897109e+00,2.867937e+00,3,1,5.836312e+00,5.861202e+00,1
4.228126e+00,4.086504e+00,4.050970e+00,3,2,8.274636e+00,8.337397e+00,1
5.697744e+00,5.667038e+00,5.630970e+00,4,4,5.555141e+00,5.555080e+00,1
4.255467e+00,1.384863e+00,1.353025e+00,3,0,3.358416e+00,3.358419e+00,1
4.275556e+00,1.356388e+00,1.327038e+00,3,0,2.672459e+00,2.672460e+00,1
4.258092e+00,1.357298e+00,1.326084e+00,3,0,2.570135e+00,2.570137e+00,1
4.264947e+00,1.356470e+00,1.327991e+00,3,0,2.699126e+00,2.699129e+00,1
4.252949e+00,1.378003e+00,1.348972e+00,3,0,3.066312e+00,3.066314e+00,1
4.239486e+00,1.326352e+00,1.296997e+00,3,0,6.105822e+00,6.105760e+00,1
4.225134e+00,1.336582e+00,1.307726e+00,3,0,5.688600e+00,5.687979e+00,1
4.228541e+00,1.329838e+00,1.299858e+00,3,0,4.881092e+00,4.881093e+00,1
4.226338e+00,1.341343e+00,1.312971e+00,3,0,4.711606e+00,4.711610e+00,1
4.221560e+00,1.342113e+00,1.315117e+00,3,0,5.169630e+00,5.169633e+00,1
4.216612e+00,1.333347e+00,1.306057e+00,3,0,5.798895e+00,5.798899e+00,1
4.222353e+00,4.540461e+00,4.503965e+00,3,1,1.008214e+01,2.087641e+01,0
8.402174e+00,3.646860e+00,3.609657e+00,6,0,1.506751e+01,4.014949e+01,0
8.405071e+00,8.205915e+00,8.164883e+00,6,3,1.656227e+01,2.731568e+01,0
8.413060e+00,1.347142e+01,1.342893e+01,6,8,1.725064e+01,1.815448e+01,0
8.405342e+00,1.194651e+01,1.190972e+01,6,9,1.572525e+01,1.575067e+01,1
6.999549e+00,3.785835e+00,3.752947e+00,5,2,1.392158e+01,1.390927e+01,1
5.610644e+00,4.256647e+00,4.225969e+00,4,2,1.424212e+01,1.424274e+01,1
4.218151e+00,3.776267e+00,3.746033e+00,3,2,1.110969e+01,1.110980e+01,1
4.263168e+00,6.818839e+00,6.787777e+00,3,4,9.370506e+00,9.432669e+00,1
4.220931e+00,5.037357e+00,5.007029e+00,3,3,8.633401e+00,8.641257e+00,1
4.227222e+00,3.761312e+00,3.728867e+00,3,2,7.688476e+00,7.705254e+00,1
4.241823e+00,1.772916e+01,1.768994e+01,3,11,8.217686e+00,1.573398e+01,0
4.227089e+00,4.697926e+00,4.657269e+00,3,0,7.568877e+00,1.588603e+01,0
5.638122e+00,1.260128e+01,1.256800e+01,4,10,5.794842e+00,5.822305e+00,1
4.277751e+00,1.030810e+01,1.026988e+01,3,7,5.834306e+00,5.877923e+00,1
4.272402e+00,7.862722e+00,7.828712e+00,3,6,3.940965e+00,3.940965e+00,1
4.262956e+00,2.618885e+01,2.615690e+01,3,21,9.090485e+00,9.413432e+00,1
8.461241e+00,1.152361e+01,1.148081e+01,6,6,1.921355e+01,4.516726e+01,0
8.423770e+00,3.894919e+01,3.890586e+01,6,31,1.342819e+01,1.534875e+01,0
8.398671e+00,4.590873e+00,4.550457e+00,6,0,1.648659e+01,1.767105e+01,0
8.409725e+00,4.606446e+00,4.566908e+00,6,0,2.468036e+01,4.218875e+01,0
8.412816e+00,3.806223e+01,3.802609e+01,6,34,1.433291e+01,1.438647e+01,1
8.301969e+00,3.168802e+01,3.165126e+01,6,26,1.841757e+01,1.918706e+01,1
8.368791e+00,3.182627e+01,3.178310e+01,6,26,1.739873e+01,1.804103e+01,0
5.631016e+00,1.722077e+01,1.718616e+01,4,15,8.181090e+00,8.181082e+00,1
4.240540e+00,1.356538e+00,1.323938e+00,3,0,6.889460e+00,6.889459e+00,1
4.177237e+00,1.397120e+00,1.354933e+00,3,0,5.683836e+00,5.683837e+00,1
4.194145e+00,1.355363e+00,1.325846e+00,3,0,5.792278e+00,5.792281e+00,1
4.205865e+00,6.888679e+00,6.851435e+00,3,2,7.402209e+00,9.970353e+00,0
4.176681e+00,3.435496e+00,3.404856e+00,3,2,6.203548e+00,6.203545e+00,1
4.134386e+00,1.304576e+00,1.273870e+00,3,0,4.439110e+00,4.439113e+00,1
4.165564e+00,1.337629e+00,1.309156e+00,3,0,5.584432e+00,5.584431e+00,1
4.209873e+00,1.361423e+00,1.331091e+00,3,0,5.287309e+00,5.287200e+00,1
4.147000e+00,2.609902e+00,2.580166e+00,3,1,7.640956e+00,7.641914e+00,1
4.172285e+00,2.891995e+00,2.864122e+00,3,1,7.403323e+00,7.403719e+00,1
4.181606e+00,3.427597e+00,3.396034e+00,3,2,6.258929e+00,6.258933e+00,1
4.182739e+00,1.437480e+01,1.434302e+01,3,11,1.077489e+01,1.084050e+01,1
5.594566e+00,1.409975e+01,1.406693e+01,4,11,8.793003e+00,8.905235e+00,1
7.028102e+00,7.915654e+00,7.880926e+00,5,6,6.172263e+00,6.170265e+00,1
5.614776e+00,3.161625e+00,3.129244e+00,4,1,4.161656e+00,4.161657e+00,1
4.247827e+00,2.441785e+00,2.411127e+00,3,1,4.152040e+00,4.152044e+00,1
4.169216e+00,3.657881e+00,3.620148e+00,3,0,8.927309e+00,1.733288e+01,0
5.503877e+00,3.674085e+00,3.636122e+00,4,0,8.218236e+00,7.614418e+00,0
4.171880e+00,1.351208e+00,1.309872e+00,3,0,6.112905e+00,6.112870e+00,1
4.128657e+00,1.341684e+00,1.312017e+00,3,0,6.334170e+00,6.334151e+00,1
4.252997e+00,2.719531e+00,2.690077e+00,3,1,7.204441e+00,7.206395e+00,1
4.184314e+00,5.382596e+00,5.349874e+00,3,3,7.112618e+00,7.133218e+00,1
4.165343e+00,3.723207e+00,3.680944e+00,3,2,4.704625e+00,4.740436e+00,1
4.225581e+00,3.958129e+00,3.927946e+00,3,2,6.259678e+00,6.273424e+00,1
5.601082e+00,2.594688e+01,2.590680e+01,4,19,1.445537e+01,1.955830e+01,0
6.988202e+00,4.578512e+00,4.538059e+00,5,0,1.969698e+01,3.184509e+01,0
8.434871e+00,4.565861e+00,4.529953e+00,6,0,2.139513e+01,3.102272e+01,0
5.627322e+00,1.879756e+01,1.876664e+01,4,17,1.060949e+01,1.060910e+01,1
4.266197e+00,1.379674e+00,1.348019e+00,3,0,6.697594e+00,6.697581e+00,1
4.221125e+00,1.324919e+00,1.296759e+00,3,0,5.772293e+00,5.772297e+00,1
4.291064e+00,1.338819e+00,1.309872e+00,3,0,4.643456e+00,4.643456e+00,1
5.599209e+00,6.911373e+00,6.872892e+00,4,2,1.884093e+01,6.791282e+01,0
8.404119e+00,4.758046e+00,4.716158e+00,6,0,2.877095e+01,1.024603e+02,0
8.377211e+00,4.723952e+00,4.685163e+00,6,0,2.604044e+01,8.241978e+01,0
8.415968e+00,8.208194e+00,8.165836e+00,6,3,2.181902e+01,6.675476e+01,0
8.394000e+00,4.733440e+00,4.692793e+00,6,0,2.039832e+01,5.832101e+01,0
8.406317e+00,4.738362e+00,4.698277e+00,6,0,3.215892e+01,9.955458e+01,0
8.384871e+00,4.761641e+00,4.718542e+00,6,0,3.647821e+01,9.968353e+01,0
8.408373e+00,6.056672e+00,6.015062e+00,6,1,4.346881e+01,1.143004e+02,0
8.405948e+00,1.117278e+01,1.112986e+01,6,6,3.272920e+01,5.940576e+01,0
8.397139e+00,4.738320e+00,4.698753e+00,6,0,3.645538e+01,6.267782e+01,0
8.398685e+00,5.840702e+00,5.800009e+00,6,2,3.221902e+01,4.236945e+01,0
8.378935e+00,3.716609e+00,3.676176e+00,6,0,2.530693e+01,2.740852e+01,0
5.662471e+00,2.021453e+01,2.018285e+01,4,16,1.826951e+01,1.838429e+01,1
5.606540e+00,1.160992e+01,1.157665e+01,4,9,1.840947e+01,1.851025e+01,1
4.223074e+00,1.219424e+01,1.215601e+01,3,9,1.286266e+01,1.292017e+01,1
4.229340e+00,1.159900e+01,1.156592e+01,3,9,1.109281e+01,1.113233e+01,1
4.234714e+00,1.907551e+01,1.904488e+01,3,15,1.016193e+01,1.055412e+01,1
7.074050e+00,1.316096e+01,1.311994e+01,5,8,8.958571e+00,8.616331e+00,0
5.554262e+00,1.361987e+01,1.358509e+01,4,11,6.131468e+00,6.168934e+00,1
4.231860e+00,1.320195e+01,1.315951e+01,3,7,8.750131e+00,2.079460e+01,0
5.528086e+00,1.131158e+01,1.128006e+01,4,9,6.073969e+00,6.198465e+00,1
6.958520e+00,1.135445e+01,1.132321e+01,5,9,5.734104e+00,5.735349e+00,1
4.142310e+00,3.431299e+00,3.400087e+00,3,2,3.730019e+00,3.729993e+00,1
4.267873e+00,3.460401e+01,3.456211e+01,3,26,1.224222e+01,2.076832e+01,0
5.689689e+00,2.465317e+01,2.461910e+01,4,22,6.016903e+00,6.016862e+00,1
4.218893e+00,1.342916e+01,1.339483e+01,3,10,9.910237e+00,9.970090e+00,1
8.444833e+00,1.138079e+01,1.134825e+01,6,9,9.719861e+00,9.724256e+00,1
7.067636e+00,2.332957e+01,2.329612e+01,5,19,1.036861e+01,1.048063e+01,1
5.636345e+00,1.722226e+01,1.718712e+01,4,15,6.599966e+00,6.600625e+00,1
4.258869e+00,2.443134e+00,2.408981e+00,3,1,8.642319e+00,8.642331e+00,1
4.214155e+00,2.728539e+00,2.696991e+00,3,1,9.704189e+00,9.704216e+00,1
4.217226e+00,5.945026e+00,5.914927e+00,3,4,1.101625e+01,1.101622e+01,1
5.634857e+00,4.286603e+00,4.256010e+00,4,3,7.383693e+00,7.383690e+00,1
4.241488e+00,5.433000e+00,5.402088e+00,3,3,7.197882e+00,7.218082e+00,1
4.207460e+00,3.140349e+00,3.109932e+00,3,1,6.333530e+00,6.424196e+00,1
4.214450e+00,2.714739e+00,2.683878e+00,3,1,6.422419e+00,6.422933e+00,1
4.259925e+00,3.915848e+00,3.886700e+00,3,2,4.796687e+00,4.796687e+00,1
4.238955e+00,4.746570e+00,4.713774e+00,3,3,7.946054e+00,7.946753e+00,1
6.993415e+00,4.512500e+00,4.480839e+00,5,3,6.789470e+00,6.780122e+00,1
5.634734e+00,2.698040e+00,2.667665e+00,4,1,7.228655e+00,7.228843e+00,1
4.247871e+00,2.413628e+00,2.382040e+00,3,1,5.551820e+00,5.551820e+00,1
4.227685e+00,2.815099e+00,2.780676e+00,3,1,1.021282e+01,1.021526e+01,1
4.285018e+00,2.981869e+00,2.948046e+00,3,1,1.069736e+01,1.071020e+01,1
4.223401e+00,2.758635e+00,2.725124e+00,3,1,6.330437e+00,6.333467e+00,1
4.188088e+00,2.463474e+00,2.433777e+00,3,1,5.822325e+00,5.822328e+00,1
4.241491e+00,1.351073e+00,1.319885e+00,3,0,5.255055e+00,5.255058e+00,1
4.211573e+00,1.335351e+00,1.306057e+00,3,0,6.208190e+00,6.207895e+00,1
5.665385e+00,3.712811e+00,3.683805e+00,4,2,5.511449e+00,5.511877e+00,1
5.696324e+00,9.354225e+00,9.315729e+00,4,4,8.482909e+00,2.149511e+01,0
5.643307e+00,6.037962e+00,5.995750e+00,4,1,8.790791e+00,2.539911e+01,0
7.005975e+00,4.738301e+00,4.695892e+00,5,0,1.019005e+01,2.963221e+01,0
8.418865e+00,4.725760e+00,4.687071e+00,6,0,1.389788e+01,4.228321e+01,0
8.481509e+00,8.301384e+00,8.258820e+00,6,3,1.045470e+01,1.890931e+01,0
8.442900e+00,5.604207e+00,5.572081e+00,6,4,4.737670e+00,4.732630e+00,1
5.611248e+00,3.830773e+00,3.798962e+00,4,2,5.466311e+00,5.471816e+00,1
6.998146e+00,3.288009e+00,3.256083e+00,5,2,5.062247e+00,5.060254e+00,1
5.605826e+00,1.364267e+00,1.335144e+00,4,0,3.959813e+00,3.959812e+00,1
4.202162e+00,1.412230e+00,1.382113e+00,3,0,3.964070e+00,3.964076e+00,1
4.233680e+00,1.396441e+00,1.365185e+00,3,0,3.070677e+00,3.070679e+00,1
4.211611e+00,1.352747e+00,1.322746e+00,3,0,2.674329e+00,2.674331e+00,1
4.212944e+00,1.346741e+00,1.317978e+00,3,0,2.831953e+00,2.831956e+00,1
4.341948e+00,1.348781e+00,1.321077e+00,3,0,1.968847e+00,1.968852e+00,1
4.208660e+00,1.363044e+00,1.328945e+00,3,0,2.662195e+00,2.662201e+00,1
4.222837e+00,1.349571e+00,1.320124e+00,3,0,2.996113e+00,2.996116e+00,1
4.198778e+00,1.351898e+00,1.322031e+00,3,0,4.318002e+00,4.318009e+00,1
5.651766e+00,2.802695e+01,2.798796e+01,4,20,1.837622e+01,4.798023e+01,0
8.425771e+00,4.667742e+00,4.625559e+00,6,0,2.561637e+01,6.987905e+01,0
7.007554e+00,4.656426e+00,4.616022e+00,5,0,1.956345e+01,3.934473e+01,0
8.401571e+00,4.799431e+00,4.754782e+00,6,0,2.324430e+01,4.250956e+01,0
8.418602e+00,1.479761e+01,1.474929e+01,6,9,2.299824e+01,3.671094e+01,0
5.628855e+00,3.028804e+01,3.024578e+01,4,23,1.820331e+01,1.855486e+01,0
5.617037e+00,1.753898e+01,1.750493e+01,4,14,1.942988e+01,1.971947e+01,1
5.691691e+00,1.273578e+01,1.269364e+01,4,7,2.740126e+01,3.718374e+01,0
7.076243e+00,3.153702e+01,3.150082e+01,5,27,1.649005e+01,1.653979e+01,1
5.672368e+00,1.368935e+01,1.365376e+01,4,11,1.113169e+01,1.113207e+01,1
4.228349e+00,2.459638e+00,2.423048e+00,3,1,1.071333e+01,1.071334e+01,1
4.222504e+00,1.382860e+00,1.352072e+00,3,0,9.124202e+00,9.124204e+00,1
4.209736e+00,2.698065e+00,2.665043e+00,3,1,8.558504e+00,8.572898e+00,1
4.218514e+00,2.411172e+00,2.374172e+00,3,1,1.091783e+01,1.091785e+01,1
4.205161e+00,1.363044e+00,1.333952e+00,3,0,8.516831e+00,8.516831e+00,1
4.220036e+00,6.480331e+00,6.451845e+00,3,4,1.547072e+01,1.547185e+01,1
4.210099e+00,6.916897e+00,6.884098e+00,3,5,1.365725e+01,1.365798e+01,1
4.202794e+00,1.679825e+00,1.649141e+00,3,0,1.205724e+01,1.206223e+01,1
4.213905e+00,4.766374e+00,4.736185e+00,3,3,1.183603e+01,1.183797e+01,1
8.390757e+00,5.034802e+00,5.003691e+00,6,3,1.418949e+01,1.419747e+01,1
8.465600e+00,2.779233e+01,2.775168e+01,6,20,2.412179e+01,3.139684e+01,0
8.408443e+00,2.129743e+01,2.126288e+01,6,18,1.901299e+01,1.912186e+01,1
5.606166e+00,1.229162e+01,1.225591e+01,4,10,1.422272e+01,1.425497e+01,1
4.221869e+00,6.064789e+00,6.032944e+00,3,4,1.060564e+01,1.060567e+01,1
4.211677e+00,4.708119e+00,4.668236e+00,3,0,1.185062e+01,2.996141e+01,0
5.610403e+00,4.661498e+00,4.622936e+00,4,0,1.302931e+01,3.766799e+01,0
5.607420e+00,4.742964e+00,4.700661e+00,4,0,1.116324e+01,3.495855e+01,0
4.263333e+00,8.080225e+00,8.040905e+00,3,3,6.528175e+00,1.101807e+01,0
4.258631e+00,3.451609e+00,3.420115e+00,3,2,5.522855e+00,5.522858e+00,1
4.208845e+00,2.734306e+00,2.704144e+00,3,1,5.399029e+00,5.402181e+00,1
4.199909e+00,2.398843e+00,2.367973e+00,3,1,8.294205e+00,8.294220e+00,1
4.203149e+00,1.369168e+00,1.338005e+00,3,0,8.417324e+00,8.417327e+00,1
4.198706e+00,2.736904e+00,2.704859e+00,3,1,7.121643e+00,7.123456e+00,1
4.216078e+00,2.906912e+00,2.878904e+00,3,1,5.024406e+00,5.024850e+00,1
4.200044e+00,2.722867e+00,2.691984e+00,3,1,4.899336e+00,4.900719e+00,1
4.219774e+00,4.747759e+00,4.710197e+00,3,1,7.802605e+00,1.457860e+01,0
6.988076e+00,1.343585e+00,1.313925e+00,5,0,6.197784e+00,6.196300e+00,1
5.627152e+00,6.941819e+00,6.903172e+00,4,2,1.761038e+01,4.935420e+01,0
5.601785e+00,4.766254e+00,4.724979e+00,4,0,1.011377e+01,1.009776e+01,0
8.453994e+00,1.469865e+01,1.466703e+01,6,12,1.132140e+01,1.134194e+01,1
5.617033e+00,1.409727e+01,1.406407e+01,4,11,8.929857e+00,8.934602e+00,1
5.602098e+00,2.740458e+00,2.706051e+00,4,1,8.139619e+00,8.137837e+00,1
5.606686e+00,2.770205e+00,2.738714e+00,4,1,9.488233e+00,9.497615e+00,1
4.202125e+00,3.153314e+00,3.122091e+00,3,1,9.220451e+00,9.223363e+00,1
4.218610e+00,6.242238e+00,6.212950e+00,3,4,7.585264e+00,7.602414e+00,1
4.222448e+00,6.601000e+00,6.569862e+00,3,4,5.801622e+00,5.811137e+00,1
4.227902e+00,3.812204e+00,3.781796e+00,3,2,4.566506e+00,4.566515e+00,1
4.235575e+00,2.449880e+01,2.445483e+01,3,17,8.498039e+00,1.430439e+01,0
4.231108e+00,1.707676e+01,1.704288e+01,3,14,5.423103e+00,5.445694e+00,1
4.214244e+00,5.565805e+00,5.532026e+00,3,4,3.310139e+00,3.310138e+00,1
4.213182e+00,7.466967e+00,7.436991e+00,3,5,5.579396e+00,5.579777e+00,1
5.620273e+00,6.043030e+00,6.010056e+00,4,4,6.683657e+00,6.687120e+00,1
4.215681e+00,1.291092e+01,1.288104e+01,3,10,6.590606e+00,6.611605e+00,1
8.384065e+00,6.313695e+00,6.278038e+00,6,4,5.002356e+00,4.995599e+00,1
8.403138e+00,3.277627e+00,3.245831e+00,6,2,3.338309e+00,3.336492e+00,1
4.208034e+00,4.028503e+00,3.996134e+00,3,2,2.906615e+00,2.907656e+00,1
4.208214e+00,1.659909e+00,1.629591e+00,3,0,3.367229e+00,3.401802e+00,1
4.222942e+00,2.728268e+00,2.698898e+00,3,1,3.240625e+00,3.274014e+00,1
4.218778e+00,2.930382e+00,2.897024e+00,3,1,7.107437e+00,7.310557e+00,1
5.603053e+00,2.739627e+00,2.707958e+00,4,1,5.230672e+00,5.253921e+00,1
4.227420e+00,5.620794e+00,5.588055e+00,3,3,1.014132e+01,1.015326e+01,1
4.215863e+00,4.526385e+00,4.487991e+00,3,3,5.414299e+00,5.414295e+00,1
4.227540e+00,1.908149e+01,1.905107e+01,3,15,1.205196e+01,1.221525e+01,1
5.686396e+00,2.096702e+01,2.093291e+01,4,18,8.810994e+00,8.810213e+00,1
5.695771e+00,6.262985e+00,6.230116e+00,4,4,8.047497e+00,8.047883e+00,1
4.279441e+00,1.242295e+01,1.238203e+01,3,7,8.365026e+00,1.021876e+01,0
8.392381e+00,8.080247e+00,8.036852e+00,6,3,9.643722e+00,1.604249e+01,0
5.608994e+00,7.317805e+00,7.284880e+00,4,5,4.845687e+00,4.863088e+00,1
4.252982e+00,5.089419e+00,5.056858e+00,3,3,6.623006e+00,6.682649e+00,1
8.465324e+00,9.158544e+00,9.119272e+00,6,4,1.000163e+01,1.784253e+01,0
8.441199e+00,4.665990e+00,4.624128e+00,6,0,1.245072e+01,2.492755e+01,0
8.450171e+00,4.658550e+00,4.611969e+00,6,0,1.581358e+01,2.930911e+01,0
6.999271e+00,8.775293e+00,8.746147e+00,5,7,8.903561e+00,8.896301e+00,1
4.214907e+00,2.690315e+00,2.657890e+00,3,1,8.093735e+00,8.094117e+00,1
4.139283e+00,2.412836e+00,2.384186e+00,3,1,7.355523e+00,7.355509e+00,1
4.180181e+00,1.241107e+01,1.236296e+01,3,9,7.530966e+00,7.550234e+00,1
4.205194e+00,1.076772e+01,1.073503e+01,3,9,5.709477e+00,5.709406e+00,1
4.163174e+00,2.912354e+01,2.908301e+01,3,21,1.045871e+01,1.464672e+01,0
5.621344e+00,2.473895e+01,2.470493e+01,4,22,7.284884e+00,7.287782e+00,1
4.187294e+00,2.900395e+00,2.866030e+00,3,1,8.753000e+00,8.759893e+00,1
4.179210e+00,4.003446e+00,3.966093e+00,3,2,5.696078e+00,5.699086e+00,1
4.181563e+00,6.355127e+00,6.324053e+00,3,4,6.325973e+00,6.364600e+00,1
4.193980e+00,4.748656e+00,4.715919e+00,3,3,4.282110e+00,4.283434e+00,1
4.150010e+00,5.032908e+00,5.001783e+00,3,3,4.588901e+00,4.589659e+00,1
8.290900e+00,6.937296e+00,6.904125e+00,6,5,7.750867e+00,7.725890e+00,1
8.258813e+00,7.929754e+00,7.872343e+00,6,3,1.264147e+01,2.335188e+01,0
8.356247e+00,7.465378e+00,7.431984e+00,6,6,6.014622e+00,6.002953e+00,1
8.301056e+00,5.329862e+00,5.294800e+00,6,3,9.793175e+00,9.796913e+00,1
6.924063e+00,8.417641e+00,8.384943e+00,5,6,9.023299e+00,9.011225e+00,1
8.323822e+00,4.734375e+00,4.695415e+00,6,0,1.321594e+01,1.664302e+01,0
8.388881e+00,1.578865e+01,1.575589e+01,6,12,1.572946e+01,1.599069e+01,1
6.966682e+00,1.088558e+01,1.085114e+01,5,8,1.360922e+01,1.376662e+01,1
5.572622e+00,6.820409e+00,6.782770e+00,4,4,1.385051e+01,1.403849e+01,1
4.192922e+00,6.980394e+00,6.946087e+00,3,5,9.019954e+00,9.027389e+00,1
4.131248e+00,2.504725e+00,2.470970e+00,3,1,7.656566e+00,7.656567e+00,1
4.157140e+00,5.461706e+00,5.428076e+00,3,3,7.416147e+00,7.420090e+00,1
4.231860e+00,1.862220e+01,1.858020e+01,3,12,1.143454e+01,2.434085e+01,0
4.218042e+00,4.711678e+00,4.670858e+00,3,0,1.126350e+01,2.938474e+01,0
5.551380e+00,1.522522e+01,1.519299e+01,4,13,4.723192e+00,4.723192e+00,1
4.168717e+00,1.341936e+00,1.308918e+00,3,0,5.085492e+00,5.085498e+00,1
4.159490e+00,1.345227e+00,1.317024e+00,3,0,4.197201e+00,4.197203e+00,1
4.166529e+00,1.338846e+00,1.309633e+00,3,0,4.202181e+00,4.202183e+00,1
4.171869e+00,1.381380e+00,1.351118e+00,3,0,3.434534e+00,3.434534e+00,1
4.210881e+00,1.398277e+00,1.357079e+00,3,0,2.586005e+00,2.586008e+00,1
4.181535e+00,2.627209e+00,2.598047e+00,3,1,3.695983e+00,3.696024e+00,1
4.209793e+00,1.566030e+01,1.562881e+01,3,12,8.689813e+00,8.799487e+00,1
5.571240e+00,1.418438e+01,1.415300e+01,4,12,5.119831e+00,5.122348e+00,1
4.184493e+00,2.410606e+00,2.378941e+00,3,1,3.153677e+00,3.153675e+00,1
4.194521e+00,2.700725e+00,2.667904e+00,3,1,2.716818e+00,2.725579e+00,1
4.163182e+00,2.386187e+00,2.354145e+00,3,1,4.143793e+00,4.143802e+00,1
4.215820e+00,1.095326e+01,1.092315e+01,3,8,8.650391e+00,8.695383e+00,1
7.018399e+00,1.305922e+01,1.302600e+01,5,11,7.828724e+00,7.825854e+00,1
5.573725e+00,2.191651e+00,2.159119e+00,4,1,4.741203e+00,4.741202e+00,1
4.179644e+00,4.001986e+00,3.972054e+00,3,2,5.196647e+00,5.200010e+00,1
4.198271e+00,2.703317e+00,2.671957e+00,3,1,3.758056e+00,3.758240e+00,1
4.195942e+00,1.697175e+00,1.668215e+00,3,0,7.533043e+00,7.533021e+00,1
5.585974e+00,2.935212e+00,2.903700e+00,4,1,5.958703e+00,5.962445e+00,1
4.196033e+00,3.952431e+00,3.921986e+00,3,2,5.939774e+00,5.973163e+00,1
4.182045e+00,3.491251e+00,3.460884e+00,3,2,4.509410e+00,4.509409e+00,1
4.171842e+00,1.351985e+00,1.320601e+00,3,0,3.347107e+00,3.347108e+00,1
4.217378e+00,1.420645e+00,1.386881e+00,3,0,3.725680e+00,3.725683e+00,1
4.223567e+00,1.387255e+00,1.351833e+00,3,0,3.121422e+00,3.121424e+00,1
4.212931e+00,1.398179e+00,1.366138e+00,3,0,3.719988e+00,3.719968e+00,1
4.215793e+00,1.420109e+00,1.387835e+00,3,0,3.402083e+00,3.402086e+00,1
4.187992e+00,1.339218e+00,1.310110e+00,3,0,5.095217e+00,5.095229e+00,1
4.193333e+00,1.304603e+00,1.276016e+00,3,0,4.125324e+00,4.125323e+00,1
4.188723e+00,1.393843e+00,1.363754e+00,3,0,4.531642e+00,4.531646e+00,1
4.161177e+00,1.317752e+00,1.288176e+00,3,0,4.440155e+00,4.440157e+00,1

