2.854979e+00,1.507427e+03,1.506397e+03,2,1000,0.000000e+00,-3.209238e-17,0
4.146056e+00,5.043351e+01,5.038190e+01,3,41,5.640242e-01,5.640255e-01,1
4.195098e+00,2.729626e+00,2.693892e+00,3,1,2.253799e+00,2.255616e+00,1
4.170963e+00,3.904361e+00,3.872156e+00,3,2,3.538409e+00,3.538414e+00,1
4.176013e+00,3.944648e+00,3.908157e+00,3,2,3.324107e+00,3.400728e+00,1
4.145963e+00,8.018649e+00,7.975101e+00,3,3,1.265141e+01,2.289789e+01,0
8.268191e+00,4.684700e+00,4.639626e+00,6,0,1.939291e+01,3.892247e+01,0
8.232448e+00,4.697902e+00,4.657030e+00,6,0,1.869642e+01,2.864162e+01,0
8.294064e+00,4.721894e+00,4.679441e+00,6,0,2.888203e+01,6.013350e+01,0
5.539351e+00,6.051726e+00,6.017923e+00,4,4,1.506021e+01,1.512185e+01,1
4.146869e+00,5.867651e+00,5.826712e+00,3,1,1.834445e+01,2.341749e+01,0
5.565911e+00,4.961882e+00,4.929066e+00,4,3,1.344568e+01,1.345217e+01,1
4.217639e+00,5.213488e+00,5.178690e+00,3,3,1.355907e+01,1.358324e+01,1
4.219388e+00,3.502180e+00,3.470182e+00,3,2,1.089393e+01,1.089392e+01,1
4.203473e+00,2.654389e+00,2.614021e+00,3,1,9.048192e+00,9.048524e+00,1
4.213071e+00,2.512017e+00,2.475023e+00,3,1,7.661582e+00,7.661584e+00,1
4.194654e+00,1.383053e+00,1.350164e+00,3,0,6.883154e+00,6.883159e+00,1
4.188330e+00,1.360140e+00,1.330137e+00,3,0,6.766887e+00,6.766890e+00,1
4.194385e+00,1.397617e+00,1.366615e+00,3,0,7.753228e+00,7.753234e+00,1
4.168889e+00,1.378154e+00,1.348019e+00,3,0,6.673546e+00,6.673548e+00,1
4.157247e+00,1.357551e+00,1.327991e+00,3,0,7.957996e+00,7.958003e+00,1
4.164326e+00,1.358419e+00,1.328230e+00,3,0,6.259970e+00,6.259971e+00,1
4.192584e+00,6.278579e+00,6.247044e+00,3,4,6.438339e+00,6.462242e+00,1
4.174802e+00,1.188985e+01,1.185703e+01,3,9,5.969789e+00,6.003100e+00,1
4.187213e+00,1.799226e+01,1.795912e+01,3,14,5.979965e+00,6.205191e+00,1
4.197188e+00,1.137894e+01,1.134396e+01,3,8,5.298596e+00,5.339859e+00,1
5.559343e+00,3.529319e+00,3.489971e+00,4,2,4.557141e+00,4.557143e+00,1
4.178843e+00,1.384056e+00,1.351118e+00,3,0,4.265602e+00,4.265605e+00,1
4.179585e+00,2.681313e+00,2.650976e+00,3,1,8.255973e+00,8.256879e+00,1
4.181549e+00,2.429017e+00,2.397060e+00,3,1,7.971413e+00,7.970666e+00,1
4.175808e+00,1.388051e+00,1.357079e+00,3,0,3.560910e+00,3.560845e+00,1
4.180771e+00,1.435492e+00,1.396179e+00,3,0,3.844249e+00,3.844252e+00,1
4.191027e+00,3.208750e+00,3.170967e+00,3,2,1.066669e+01,1.066206e+01,1
6.996268e+00,3.142909e+00,3.106833e+00,5,2,5.809988e+00,5.809484e+00,1
4.209124e+00,3.940285e+00,3.905058e+00,3,2,5.817080e+00,5.817091e+00,1
8.341381e+00,1.789877e+01,1.786494e+01,6,14,8.013741e+00,8.109767e+00,1
5.578051e+00,1.852608e+01,1.848769e+01,4,16,4.253610e+00,4.253606e+00,1
4.178153e+00,1.401005e+00,1.364946e+00,3,0,2.236400e+00,2.236400e+00,1
4.166248e+00,1.405191e+00,1.372099e+00,3,0,2.536158e+00,2.536160e+00,1
4.235072e+00,6.507912e+00,6.475925e+00,3,4,4.532194e+00,4.590546e+00,1
6.978355e+00,4.501354e+00,4.463911e+00,5,3,3.592985e+00,3.591583e+00,1
4.217327e+00,2.793559e+00,2.758741e+00,3,1,3.256586e+00,3.257747e+00,1
4.221225e+00,4.425832e+00,4.393101e+00,3,2,4.014582e+00,4.039881e+00,1
4.180738e+00,2.731891e+00,2.699852e+00,3,1,3.394421e+00,3.394768e+00,1
4.184128e+00,2.454075e+00,2.415895e+00,3,1,2.522782e+00,2.522782e+00,1
4.174106e+00,1.403350e+00,1.373053e+00,3,0,2.155029e+00,2.155031e+00,1
4.291608e+00,1.381661e+00,1.351118e+00,3,0,2.365136e+00,2.365138e+00,1
4.206303e+00,3.949419e+00,3.916979e+00,3,2,5.291056e+00,5.316607e+00,1
5.578013e+00,8.523894e+00,8.488178e+00,4,6,4.702743e+00,4.803118e+00,1
4.218296e+00,3.870540e+00,3.835201e+00,3,2,3.324833e+00,3.474429e+00,1
4.191090e+00,4.962031e+00,4.930019e+00,3,3,2.263398e+00,2.263401e+00,1
4.202287e+00,1.380456e+00,1.347065e+00,3,0,2.696498e+00,2.696484e+00,1
4.189107e+00,2.251403e+00,2.220154e+00,3,1,3.539417e+00,3.538769e+00,1
5.562905e+00,3.775588e+00,3.738165e+00,4,2,4.080281e+00,4.082906e+00,1
4.201653e+00,3.235765e+00,3.202915e+00,3,1,3.051894e+00,3.068284e+00,1
4.397230e+00,2.450485e+00,2.420187e+00,3,1,2.569718e+00,2.569719e+00,1
4.177412e+00,1.369121e+00,1.338243e+00,3,0,2.116510e+00,2.116511e+00,1
4.168898e+00,1.377527e+00,1.346111e+00,3,0,1.877307e+00,1.877308e+00,1
4.185834e+00,1.380368e+00,1.348972e+00,3,0,1.516541e+00,1.516542e+00,1
4.180531e+00,5.219119e+00,5.187035e+00,3,3,4.679050e+00,4.691996e+00,1
4.174042e+00,4.541512e+00,4.505157e+00,3,3,5.222992e+00,5.222910e+00,1
4.167332e+00,1.388696e+00,1.355886e+00,3,0,4.278535e+00,4.278347e+00,1
4.193549e+00,4.979084e+00,4.943848e+00,3,3,9.359712e+00,9.367366e+00,1
8.353667e+00,2.716748e+01,2.711725e+01,6,20,1.670192e+01,2.111538e+01,0
8.365219e+00,2.507279e+01,2.503586e+01,6,22,1.340964e+01,1.343635e+01,1
5.591110e+00,8.348098e+00,8.311987e+00,4,6,1.282992e+01,1.282853e+01,1
6.944757e+00,1.120401e+01,1.116300e+01,5,8,1.433084e+01,1.433258e+01,1
5.574968e+00,1.358524e+01,1.353693e+01,4,8,1.043544e+01,1.158624e+01,0
4.190221e+00,7.831029e+00,7.797003e+00,3,5,8.918748e+00,8.948412e+00,1
4.180165e+00,3.974725e+00,3.940105e+00,3,2,8.058158e+00,8.319155e+00,1
4.191741e+00,5.242749e+00,5.209923e+00,3,3,6.646530e+00,6.906246e+00,1
4.184232e+00,6.608198e+00,6.575108e+00,3,4,6.425444e+00,6.618529e+00,1
4.186689e+00,7.170203e+00,7.134676e+00,3,5,5.810248e+00,5.893501e+00,1
8.347641e+00,9.799535e+00,9.767056e+00,6,7,7.727022e+00,7.863843e+00,1
8.337481e+00,8.044531e+00,7.999182e+00,6,3,7.569271e+00,9.149102e+00,0
6.928114e+00,4.806899e+00,4.760742e+00,5,0,1.498546e+01,3.815556e+01,0
5.564220e+00,1.249459e+01,1.245403e+01,4,7,8.838807e+00,9.510581e+00,0
5.546736e+00,4.711266e+00,4.669189e+00,4,0,1.625539e+01,3.980039e+01,0
5.557744e+00,9.824385e+00,9.791851e+00,4,7,1.226934e+01,1.228607e+01,1
5.548276e+00,6.563144e+00,6.531239e+00,4,4,5.726726e+00,5.789530e+00,1
4.195743e+00,5.542654e+00,5.511045e+00,3,3,5.095342e+00,5.231780e+00,1
4.166961e+00,3.822405e+00,3.791094e+00,3,2,6.758096e+00,6.977949e+00,1
4.194527e+00,9.249007e+00,9.217978e+00,3,6,9.641766e+00,9.867010e+00,1
8.324786e+00,9.585123e+00,9.548187e+00,6,7,1.308557e+01,1.326985e+01,1
7.019498e+00,8.463383e+00,8.430004e+00,5,6,1.164946e+01,1.171983e+01,1
4.221496e+00,1.710782e+01,1.707506e+01,3,13,1.105484e+01,1.123906e+01,1
4.205833e+00,6.961932e+00,6.919146e+00,3,2,1.319737e+01,3.064829e+01,0
8.401764e+00,4.716723e+00,4.674673e+00,6,0,1.498375e+01,3.828801e+01,0
8.376702e+00,4.732848e+00,4.691124e+00,6,0,1.606992e+01,3.723706e+01,0
8.355416e+00,2.092682e+01,2.088308e+01,6,15,1.165504e+01,1.754684e+01,0
6.920642e+00,4.697225e+00,4.653692e+00,5,0,1.102307e+01,1.452896e+01,0
5.574221e+00,9.460599e+00,9.426832e+00,4,7,8.549548e+00,8.558943e+00,1
4.176922e+00,5.073557e+00,5.040884e+00,3,3,6.454351e+00,6.464121e+00,1
4.184382e+00,7.015003e+00,6.971836e+00,3,2,1.112802e+01,2.746195e+01,0
8.318226e+00,4.734560e+00,4.692078e+00,6,0,1.135836e+01,3.145943e+01,0
5.549499e+00,4.770219e+00,4.729033e+00,4,0,7.655598e+00,1.162713e+01,0
8.322504e+00,4.731471e+00,4.688978e+00,6,0,2.005151e+01,5.918582e+01,0
8.330393e+00,4.858698e+00,4.813194e+00,6,0,1.490948e+01,3.045547e+01,0
8.390487e+00,1.216529e+01,1.213002e+01,6,10,1.146675e+01,1.147109e+01,1
6.982158e+00,8.537720e+00,8.504629e+00,5,7,7.007049e+00,6.987785e+00,1
5.557431e+00,2.265870e+00,2.230883e+00,4,1,5.708909e+00,5.708909e+00,1
4.184250e+00,4.013856e+00,3.982067e+00,3,2,8.973997e+00,8.982208e+00,1
4.173598e+00,5.420184e+00,5.388021e+00,3,3,5.951592e+00,5.978353e+00,1
4.193242e+00,4.013499e+00,3.979683e+00,3,2,1.426410e+01,1.429514e+01,1
5.562503e+00,8.287459e+00,8.245945e+00,4,3,1.905852e+01,2.387160e+01,0
8.332374e+00,1.609878e+01,1.605487e+01,6,10,2.085006e+01,2.554632e+01,0
5.554330e+00,4.654237e+00,4.608154e+00,4,0,2.839903e+01,4.227119e+01,0
8.352178e+00,9.070653e+00,9.031057e+00,6,4,3.398968e+01,5.182923e+01,0
5.580393e+00,1.265168e+01,1.260400e+01,4,7,2.565450e+01,2.963150e+01,0
5.570908e+00,2.376449e+01,2.373028e+01,4,19,1.730428e+01,1.812572e+01,1
8.355452e+00,4.680932e+00,4.638910e+00,6,0,1.548815e+01,2.317242e+01,0
8.327074e+00,4.747829e+00,4.702568e+00,6,0,1.563502e+01,3.927557e+01,0
8.311678e+00,4.663422e+00,4.622221e+00,6,0,2.305512e+01,8.709905e+01,0
8.322747e+00,4.686499e+00,4.647017e+00,6,0,2.565427e+01,1.021725e+02,0
8.337232e+00,4.701823e+00,4.659891e+00,6,0,2.881103e+01,1.186689e+02,0
8.331531e+00,4.635401e+00,4.594088e+00,6,0,2.928548e+01,1.134996e+02,0
6.943669e+00,4.664451e+00,4.621983e+00,5,0,3.314886e+01,1.113149e+02,0
8.320115e+00,4.694382e+00,4.655361e+00,6,0,3.977604e+01,1.215827e+02,0
5.582395e+00,4.363699e+01,4.359174e+01,4,34,2.666066e+01,5.145836e+01,0
5.590618e+00,4.943067e+01,4.939389e+01,4,43,1.631956e+01,1.673680e+01,1
5.585253e+00,1.951586e+01,1.948023e+01,4,17,1.156131e+01,1.157905e+01,1
4.193649e+00,6.078209e+00,6.041050e+00,3,4,9.339058e+00,9.345090e+00,1
4.189736e+00,3.522608e+00,3.484964e+00,3,2,9.610832e+00,9.610732e+00,1
4.166842e+00,1.376414e+00,1.344204e+00,3,0,1.064468e+01,1.064403e+01,1
5.553561e+00,2.761409e+00,2.730131e+00,4,1,7.974811e+00,7.974875e+00,1
4.189999e+00,4.199399e+00,4.165173e+00,3,2,6.494947e+00,6.499871e+00,1
4.174912e+00,4.603636e+00,4.570007e+00,3,3,5.173127e+00,5.172647e+00,1
4.231627e+00,5.069075e+00,5.037069e+00,3,3,5.694869e+00,5.724816e+00,1
5.548907e+00,5.802482e+00,5.761147e+00,4,1,8.730642e+00,1.881336e+01,0
6.943311e+00,4.778954e+00,4.739285e+00,5,0,1.904969e+01,6.376710e+01,0
6.961413e+00,4.832924e+00,4.793406e+00,5,0,9.903827e+00,2.010241e+01,0
7.028241e+00,3.597476e+00,3.561020e+00,5,2,7.411737e+00,7.411243e+00,1
5.609622e+00,1.398583e+00,1.365185e+00,4,0,7.809303e+00,7.809303e+00,1
4.170714e+00,1.387639e+00,1.357794e+00,3,0,9.023988e+00,9.023910e+00,1
4.166452e+00,5.026328e+00,4.993916e+00,3,3,6.818250e+00,6.836761e+00,1
5.560121e+00,4.238691e+00,4.206896e+00,4,2,5.488827e+00,5.505629e+00,1
4.185871e+00,3.210229e+00,3.176689e+00,3,1,4.824906e+00,4.842082e+00,1
4.160791e+00,3.502096e+00,3.470898e+00,3,2,3.140426e+00,3.140429e+00,1
4.171615e+00,1.301184e+00,1.271963e+00,3,0,2.844075e+00,2.844076e+00,1
4.162432e+00,1.376230e+00,1.346111e+00,3,0,3.407096e+00,3.407099e+00,1
4.170471e+00,1.372204e+00,1.340866e+00,3,0,3.928065e+00,3.928067e+00,1
4.153457e+00,1.393440e+00,1.363039e+00,3,0,4.249911e+00,4.249913e+00,1
4.193054e+00,4.004181e+00,3.973961e+00,3,2,4.942316e+00,4.953631e+00,1
4.182030e+00,6.266782e+00,6.232977e+00,3,4,4.957786e+00,4.963096e+00,1
4.237310e+00,3.587946e+00,3.554106e+00,3,2,2.413163e+00,2.413165e+00,1
4.187289e+00,1.394595e+00,1.361847e+00,3,0,4.151102e+00,4.151092e+00,1
4.188165e+00,2.746556e+00,2.715111e+00,3,1,4.602253e+00,4.602160e+00,1
4.229966e+00,5.073955e+00,5.043983e+00,3,3,4.868226e+00,4.877648e+00,1
4.214579e+00,3.152911e+00,3.120899e+00,3,1,4.122359e+00,4.357915e+00,1
4.182737e+00,3.134562e+00,3.103018e+00,3,1,5.706747e+00,5.914641e+00,1
4.170267e+00,4.155584e+00,4.122972e+00,3,2,4.585408e+00,4.609787e+00,1
4.180297e+00,3.893410e+00,3.861189e+00,3,2,4.607585e+00,4.607584e+00,1
4.162127e+00,1.392287e+00,1.359940e+00,3,0,4.072461e+00,4.072464e+00,1
4.157650e+00,1.380953e+00,1.348972e+00,3,0,3.873460e+00,3.873462e+00,1
4.159430e+00,1.382102e+00,1.349688e+00,3,0,2.695815e+00,2.695817e+00,1
4.175589e+00,1.360249e+00,1.328945e+00,3,0,3.072556e+00,3.072557e+00,1
4.169134e+00,1.368466e+00,1.340866e+00,3,0,2.423954e+00,2.423943e+00,1
4.180961e+00,1.406539e+00,1.373053e+00,3,0,3.667736e+00,3.667732e+00,1
4.176440e+00,1.411662e+00,1.377106e+00,3,0,3.739472e+00,3.739472e+00,1
4.174659e+00,1.414542e+00,1.380682e+00,3,0,4.073843e+00,4.073843e+00,1
4.167428e+00,1.450988e+00,1.412153e+00,3,0,3.436233e+00,3.436235e+00,1
4.165157e+00,1.385468e+00,1.352787e+00,3,0,5.305572e+00,5.305574e+00,1
4.160687e+00,1.377549e+00,1.347065e+00,3,0,3.175404e+00,3.175400e+00,1
4.173756e+00,1.387581e+00,1.356125e+00,3,0,4.273413e+00,4.273413e+00,1
4.165783e+00,1.379631e+00,1.348019e+00,3,0,3.110661e+00,3.110678e+00,1
4.150667e+00,1.405661e+00,1.378059e+00,3,0,1.740727e+00,1.740727e+00,1
4.177395e+00,2.747486e+00,2.715111e+00,3,1,2.320962e+00,2.323172e+00,1
4.228184e+00,7.858052e+00,7.825136e+00,3,5,6.236185e+00,6.239890e+00,1
4.223710e+00,5.068524e+00,5.036116e+00,3,3,4.709117e+00,4.803880e+00,1
5.566332e+00,5.525609e+00,5.494118e+00,4,4,4.375047e+00,4.374791e+00,1
5.570776e+00,2.831788e+00,2.798080e+00,4,1,5.260780e+00,5.261094e+00,1
4.174331e+00,1.707335e+00,1.674891e+00,3,0,4.252343e+00,4.253156e+00,1
4.183335e+00,3.813511e+00,3.782034e+00,3,2,2.846340e+00,2.847958e+00,1
4.174054e+00,3.180736e+00,3.147840e+00,3,1,4.076878e+00,4.091376e+00,1
4.188325e+00,3.017238e+00,2.980947e+00,3,1,3.680887e+00,3.775645e+00,1
4.174071e+00,4.247566e+00,4.214048e+00,3,2,2.930518e+00,2.936400e+00,1
4.165658e+00,1.693844e+00,1.663208e+00,3,0,2.949235e+00,2.952315e+00,1
4.163881e+00,1.701204e+00,1.668930e+00,3,0,2.891660e+00,2.892133e+00,1
4.163454e+00,2.422778e+00,2.387047e+00,3,1,2.948058e+00,2.948060e+00,1
4.147913e+00,1.378326e+00,1.348019e+00,3,0,2.841899e+00,2.841903e+00,1
4.156585e+00,1.384883e+00,1.354218e+00,3,0,3.767525e+00,3.767530e+00,1
4.162562e+00,1.354603e+00,1.321793e+00,3,0,6.440489e+00,6.440497e+00,1
4.170644e+00,1.358651e+00,1.328945e+00,3,0,3.308380e+00,3.308380e+00,1
4.169264e+00,1.376822e+00,1.345634e+00,3,0,4.130869e+00,4.130831e+00,1
4.160166e+00,1.381277e+00,1.350880e+00,3,0,2.715698e+00,2.715696e+00,1
4.163772e+00,1.379032e+00,1.348019e+00,3,0,3.532653e+00,3.532649e+00,1
4.167630e+00,1.386432e+00,1.356125e+00,3,0,3.045944e+00,3.045945e+00,1
4.167613e+00,1.387485e+00,1.357079e+00,3,0,2.778865e+00,2.778862e+00,1
4.191459e+00,1.352987e+00,1.322031e+00,3,0,3.498362e+00,3.498368e+00,1
4.190007e+00,4.017093e+00,3.985882e+00,3,2,6.527380e+00,6.528951e+00,1
4.182642e+00,4.078601e+00,4.045963e+00,3,2,3.073275e+00,3.075707e+00,1
4.178326e+00,3.256015e+00,3.222942e+00,3,1,3.899497e+00,3.903562e+00,1
4.181271e+00,5.484565e+00,5.450964e+00,3,3,5.417663e+00,5.420188e+00,1
4.182176e+00,6.417522e+00,6.384134e+00,3,4,8.675604e+00,8.682694e+00,1
4.190718e+00,5.597469e+00,5.565882e+00,3,4,6.761463e+00,6.761445e+00,1
4.189814e+00,5.198490e+00,5.165100e+00,3,3,6.836684e+00,6.938755e+00,1
5.620522e+00,2.556369e+01,2.552128e+01,4,18,2.123480e+01,4.528872e+01,0
8.325109e+00,4.639342e+00,4.594326e+00,6,0,1.756323e+01,2.147863e+01,0
6.975235e+00,2.594672e+01,2.591300e+01,5,23,1.157379e+01,1.169126e+01,1
4.234533e+00,4.035610e+00,3.998995e+00,3,2,1.275433e+01,1.291339e+01,1
4.205494e+00,5.161648e+00,5.125046e+00,3,3,1.232191e+01,1.239948e+01,1
5.548608e+00,1.749800e+00,1.713991e+00,4,0,1.186939e+01,1.189484e+01,1
4.186450e+00,8.744501e+00,8.712053e+00,3,6,1.504180e+01,1.511016e+01,1
5.654976e+00,1.288985e+01,1.285720e+01,4,10,1.184075e+01,1.190752e+01,1
5.638206e+00,1.397292e+01,1.393604e+01,4,11,1.306159e+01,1.307263e+01,1
5.621836e+00,8.268375e+00,8.233070e+00,4,6,9.325148e+00,9.337501e+00,1
4.191245e+00,5.526316e+00,5.489826e+00,3,3,1.035751e+01,1.036682e+01,1
4.174280e+00,4.827573e+00,4.795074e+00,3,3,8.100919e+00,8.101161e+00,1
4.183570e+00,2.421357e+00,2.388954e+00,3,1,8.337717e+00,8.337636e+00,1
5.554025e+00,1.375159e+00,1.343966e+00,4,0,5.955732e+00,5.955730e+00,1
4.150791e+00,1.382243e+00,1.349926e+00,3,0,4.758982e+00,4.758982e+00,1
4.165122e+00,1.382064e+00,1.345873e+00,3,0,4.840688e+00,4.840692e+00,1
4.163290e+00,1.359411e+00,1.328945e+00,3,0,4.481154e+00,4.481155e+00,1
4.169526e+00,1.359845e+00,1.330137e+00,3,0,3.336314e+00,3.336315e+00,1
4.183321e+00,4.549373e+00,4.510880e+00,3,1,6.727564e+00,7.032277e+00,0
8.311588e+00,3.664884e+00,3.622770e+00,6,0,8.238532e+00,1.466882e+01,0
5.564730e+00,2.288507e+00,2.254009e+00,4,1,4.330119e+00,4.330097e+00,1
4.184781e+00,1.417367e+00,1.385689e+00,3,0,2.373576e+00,2.373575e+00,1
4.160306e+00,1.432753e+00,1.398087e+00,3,0,2.810039e+00,2.810045e+00,1
4.162083e+00,1.408503e+00,1.375198e+00,3,0,1.703696e+00,1.703697e+00,1
4.153257e+00,1.400495e+00,1.368046e+00,3,0,2.304802e+00,2.304805e+00,1
4.160208e+00,1.379838e+00,1.348972e+00,3,0,3.411451e+00,3.411456e+00,1
4.161697e+00,1.387938e+00,1.355886e+00,3,0,4.566952e+00,4.566957e+00,1
4.156089e+00,1.384124e+00,1.348972e+00,3,0,5.155554e+00,5.155556e+00,1
4.174755e+00,2.717795e+00,2.689123e+00,3,1,7.016304e+00,7.018922e+00,1
4.165395e+00,2.496073e+00,2.464771e+00,3,1,4.505727e+00,4.505724e+00,1
4.158820e+00,1.378496e+00,1.347065e+00,3,0,3.620228e+00,3.620228e+00,1
4.169461e+00,2.724794e+00,2.694130e+00,3,1,2.828818e+00,2.830512e+00,1
4.155531e+00,2.474928e+00,2.443075e+00,3,1,2.036022e+00,2.036023e+00,1
4.173175e+00,2.718382e+00,2.688885e+00,3,1,2.165577e+00,2.167225e+00,1
4.182497e+00,3.836635e+00,3.803730e+00,3,2,2.764932e+00,2.765124e+00,1
4.187020e+00,2.446623e+00,2.413988e+00,3,1,2.048167e+00,2.048169e+00,1
4.224621e+00,5.490497e+00,5.458117e+00,3,3,1.999341e+00,2.000660e+00,1
4.270543e+00,4.893609e+00,4.859209e+00,3,3,1.408301e+00,1.408302e+00,1
4.142731e+00,1.390069e+00,1.355886e+00,3,0,3.463439e+00,3.463445e+00,1
4.118874e+00,1.376454e+00,1.345873e+00,3,0,2.767633e+00,2.767633e+00,1
4.134446e+00,2.706353e+00,2.671957e+00,3,1,3.848371e+00,3.860170e+00,1
4.150569e+00,2.912388e+00,2.882004e+00,3,1,5.836312e+00,5.861202e+00,1
4.114832e+00,4.001569e+00,3.968954e+00,3,2,8.274636e+00,8.337397e+00,1
5.442748e+00,5.537779e+00,5.495071e+00,4,4,5.555141e+00,5.555080e+00,1
4.124769e+00,1.396841e+00,1.362801e+00,3,0,3.358416e+00,3.358419e+00,1
4.111048e+00,1.366381e+00,1.334906e+00,3,0,2.672459e+00,2.672460e+00,1
4.091343e+00,1.387298e+00,1.354933e+00,3,0,2.570135e+00,2.570137e+00,1
4.151799e+00,1.335120e+00,1.306057e+00,3,0,2.699126e+00,2.699129e+00,1
4.127044e+00,1.328891e+00,1.298904e+00,3,0,3.066312e+00,3.066314e+00,1
4.115499e+00,1.359313e+00,1.327038e+00,3,0,6.105822e+00,6.105760e+00,1
4.105629e+00,1.392049e+00,1.362085e+00,3,0,5.688600e+00,5.687979e+00,1
4.174659e+00,1.362688e+00,1.334190e+00,3,0,4.881092e+00,4.881093e+00,1
4.116314e+00,1.353707e+00,1.326084e+00,3,0,4.711606e+00,4.711610e+00,1
4.125057e+00,1.378500e+00,1.348734e+00,3,0,5.169630e+00,5.169633e+00,1
4.090490e+00,1.400481e+00,1.368046e+00,3,0,5.798895e+00,5.798899e+00,1
4.112643e+00,4.513035e+00,4.472017e+00,3,1,1.008214e+01,2.087641e+01,0
8.230468e+00,3.643344e+00,3.602266e+00,6,0,1.506751e+01,4.014949e+01,0
8.293530e+00,8.247722e+00,8.203983e+00,6,3,1.656227e+01,2.731568e+01,0
8.254857e+00,1.348182e+01,1.343894e+01,6,8,1.725064e+01,1.815448e+01,0
8.286422e+00,1.189129e+01,1.185799e+01,6,9,1.572525e+01,1.575067e+01,1
6.859989e+00,3.825554e+00,3.791094e+00,5,2,1.392158e+01,1.390927e+01,1
5.511203e+00,4.219900e+00,4.183054e+00,4,2,1.424212e+01,1.424274e+01,1
4.165903e+00,3.875562e+00,3.839970e+00,3,2,1.110969e+01,1.110980e+01,1
4.219310e+00,6.788498e+00,6.755114e+00,3,4,9.370506e+00,9.432669e+00,1
4.152866e+00,4.945086e+00,4.910946e+00,3,3,8.633401e+00,8.641257e+00,1
4.126493e+00,3.776128e+00,3.744841e+00,3,2,7.688476e+00,7.705254e+00,1
4.162661e+00,1.757922e+01,1.753926e+01,3,11,8.217686e+00,1.573398e+01,0
4.165929e+00,4.735179e+00,4.694223e+00,3,0,7.568877e+00,1.588603e+01,0
5.529664e+00,1.244607e+01,1.241183e+01,4,10,5.794842e+00,5.822305e+00,1
4.126793e+00,1.019583e+01,1.016212e+01,3,7,5.834306e+00,5.877923e+00,1
4.155751e+00,7.929162e+00,7.894993e+00,3,6,3.940965e+00,3.940965e+00,1
4.158079e+00,2.600244e+01,2.596712e+01,3,21,9.090485e+00,9.413432e+00,1
8.259955e+00,1.142841e+01,1.138353e+01,6,6,1.921355e+01,4.516726e+01,0
8.254446e+00,3.885115e+01,3.880978e+01,6,31,1.342819e+01,1.534875e+01,0
8.263114e+00,4.674631e+00,4.629850e+00,6,0,1.648659e+01,1.767105e+01,0
8.267513e+00,4.566601e+00,4.513741e+00,6,0,2.468036e+01,4.218875e+01,0
8.305153e+00,3.792177e+01,3.787494e+01,6,34,1.433291e+01,1.438647e+01,1
8.260060e+00,3.154594e+01,3.150702e+01,6,26,1.841757e+01,1.918706e+01,1
8.231798e+00,3.205506e+01,3.201008e+01,6,26,1.739873e+01,1.804103e+01,0
5.513461e+00,1.736586e+01,1.733088e+01,4,15,8.181090e+00,8.181082e+00,1
4.139383e+00,1.374319e+00,1.339674e+00,3,0,6.889460e+00,6.889459e+00,1
4.147855e+00,1.389915e+00,1.356840e+00,3,0,5.683836e+00,5.683837e+00,1
4.128250e+00,1.356218e+00,1.326084e+00,3,0,5.792278e+00,5.792281e+00,1
4.152303e+00,6.918876e+00,6.879330e+00,3,2,7.402209e+00,9.970353e+00,0
4.130931e+00,3.533588e+00,3.499031e+00,3,2,6.203548e+00,6.203545e+00,1
4.159225e+00,1.394188e+00,1.361132e+00,3,0,4.439110e+00,4.439113e+00,1
4.134127e+00,1.411421e+00,1.379013e+00,3,0,5.584432e+00,5.584431e+00,1
4.122460e+00,1.380950e+00,1.351118e+00,3,0,5.287309e+00,5.287200e+00,1
4.136302e+00,2.635044e+00,2.603054e+00,3,1,7.640956e+00,7.641914e+00,1
4.097093e+00,2.889873e+00,2.859116e+00,3,1,7.403323e+00,7.403719e+00,1
4.168054e+00,3.480538e+00,3.448009e+00,3,2,6.258929e+00,6.258933e+00,1
4.141481e+00,1.437853e+01,1.434708e+01,3,11,1.077489e+01,1.084050e+01,1
5.491199e+00,1.412422e+01,1.409006e+01,4,11,8.793003e+00,8.905235e+00,1
6.861786e+00,7.979970e+00,7.947683e+00,5,6,6.172263e+00,6.170265e+00,1
5.531108e+00,3.158723e+00,3.122807e+00,4,1,4.161656e+00,4.161657e+00,1
4.130045e+00,2.431918e+00,2.399921e+00,3,1,4.152040e+00,4.152044e+00,1
4.131509e+00,3.679123e+00,3.637314e+00,3,0,8.927309e+00,1.733288e+01,0
5.460525e+00,3.692089e+00,3.650904e+00,4,0,8.218236e+00,7.614418e+00,0
4.127023e+00,1.397483e+00,1.366138e+00,3,0,6.112905e+00,6.112870e+00,1
4.141170e+00,1.343426e+00,1.312733e+00,3,0,6.334170e+00,6.334151e+00,1
4.132365e+00,2.712617e+00,2.681732e+00,3,1,7.204441e+00,7.206395e+00,1
4.110942e+00,5.401947e+00,5.370140e+00,3,3,7.112618e+00,7.133218e+00,1
4.139316e+00,3.807887e+00,3.774881e+00,3,2,4.704625e+00,4.740436e+00,1
4.119505e+00,4.033766e+00,4.002094e+00,3,2,6.259678e+00,6.273424e+00,1
5.468690e+00,2.556785e+01,2.552915e+01,4,19,1.445537e+01,1.955830e+01,0
6.993183e+00,4.409303e+00,4.376650e+00,5,0,1.969698e+01,3.184509e+01,0
8.386483e+00,4.539459e+00,4.506826e+00,6,0,2.139513e+01,3.102272e+01,0
5.599031e+00,1.840188e+01,1.837826e+01,4,17,1.060949e+01,1.060910e+01,1
4.158956e+00,1.311300e+00,1.279116e+00,3,0,6.697594e+00,6.697581e+00,1
4.143592e+00,1.269681e+00,1.245975e+00,3,0,5.772293e+00,5.772297e+00,1
4.164057e+00,1.261129e+00,1.238823e+00,3,0,4.643456e+00,4.643456e+00,1
5.541858e+00,6.810865e+00,6.780624e+00,4,2,1.884093e+01,6.791282e+01,0
8.265919e+00,4.577229e+00,4.547119e+00,6,0,2.877095e+01,1.024603e+02,0
8.276861e+00,4.579575e+00,4.547119e+00,6,0,2.604044e+01,8.241978e+01,0
8.285473e+00,7.996594e+00,7.964134e+00,6,3,2.181902e+01,6.675476e+01,0
8.282792e+00,4.576072e+00,4.543543e+00,6,0,2.039832e+01,5.832101e+01,0
8.295884e+00,4.565370e+00,4.533529e+00,6,0,3.215892e+01,9.955458e+01,0
8.288149e+00,4.570138e+00,4.540443e+00,6,0,3.647821e+01,9.968353e+01,0
8.378460e+00,5.750293e+00,5.719185e+00,6,1,4.346881e+01,1.143004e+02,0
8.301041e+00,1.091408e+01,1.088309e+01,6,6,3.272920e+01,5.940576e+01,0
8.373444e+00,4.797443e+00,4.756212e+00,6,0,3.645538e+01,6.267782e+01,0
8.401928e+00,6.033030e+00,5.980253e+00,6,2,3.221902e+01,4.236945e+01,0
8.378234e+00,3.916730e+00,3.856659e+00,6,0,2.530693e+01,2.740852e+01,0
5.585825e+00,2.035089e+01,2.031016e+01,4,16,1.826951e+01,1.838429e+01,1
5.558141e+00,1.171236e+01,1.167607e+01,4,9,1.840947e+01,1.851025e+01,1
4.187354e+00,1.224781e+01,1.221395e+01,3,9,1.286266e+01,1.292017e+01,1
4.189552e+00,1.172874e+01,1.169515e+01,3,9,1.109281e+01,1.113233e+01,1
4.194944e+00,1.919663e+01,1.916075e+01,3,15,1.016193e+01,1.055412e+01,1
6.942253e+00,1.326233e+01,1.321602e+01,5,8,8.958571e+00,8.616331e+00,0
5.622119e+00,1.388041e+01,1.384497e+01,4,11,6.131468e+00,6.168934e+00,1
4.225970e+00,1.339340e+01,1.334548e+01,3,7,8.750131e+00,2.079460e+01,0
5.569075e+00,1.168351e+01,1.164699e+01,4,9,6.073969e+00,6.198465e+00,1
6.895363e+00,1.149995e+01,1.146007e+01,5,9,5.734104e+00,5.735349e+00,1
4.144577e+00,3.549182e+00,3.512859e+00,3,2,3.730019e+00,3.729993e+00,1
4.130335e+00,3.465787e+01,3.461504e+01,3,26,1.224222e+01,2.076832e+01,0
5.514586e+00,2.434779e+01,2.431297e+01,4,22,6.016903e+00,6.016862e+00,1
4.128235e+00,1.331791e+01,1.328301e+01,3,10,9.910237e+00,9.970090e+00,1
8.196844e+00,1.136002e+01,1.132417e+01,6,9,9.719861e+00,9.724256e+00,1
7.050066e+00,2.324973e+01,2.321410e+01,5,19,1.036861e+01,1.048063e+01,1
5.544193e+00,1.749411e+01,1.746106e+01,4,15,6.599966e+00,6.600625e+00,1
4.173553e+00,2.480607e+00,2.445936e+00,3,1,8.642319e+00,8.642331e+00,1
4.157186e+00,2.733821e+00,2.702951e+00,3,1,9.704189e+00,9.704216e+00,1
4.188558e+00,6.008935e+00,5.976915e+00,3,4,1.101625e+01,1.101622e+01,1
5.566843e+00,4.353142e+00,4.312754e+00,4,3,7.383693e+00,7.383690e+00,1
4.185227e+00,5.523027e+00,5.490065e+00,3,3,7.197882e+00,7.218082e+00,1
4.171387e+00,3.176677e+00,3.142118e+00,3,1,6.333530e+00,6.424196e+00,1
4.165069e+00,2.792755e+00,2.761841e+00,3,1,6.422419e+00,6.422933e+00,1
4.166727e+00,3.933879e+00,3.902197e+00,3,2,4.796687e+00,4.796687e+00,1
4.237734e+00,4.791388e+00,4.757166e+00,3,3,7.946054e+00,7.946753e+00,1
6.955144e+00,4.600692e+00,4.565954e+00,5,3,6.789470e+00,6.780122e+00,1
5.559150e+00,2.715035e+00,2.681971e+00,4,1,7.228655e+00,7.228843e+00,1
4.173138e+00,2.431142e+00,2.399921e+00,3,1,5.551820e+00,5.551820e+00,1
4.230523e+00,2.768731e+00,2.732992e+00,3,1,1.021282e+01,1.021526e+01,1
4.202907e+00,3.000853e+00,2.969027e+00,3,1,1.069736e+01,1.071020e+01,1
4.182729e+00,2.729263e+00,2.696753e+00,3,1,6.330437e+00,6.333467e+00,1
4.169963e+00,2.483260e+00,2.449036e+00,3,1,5.822325e+00,5.822328e+00,1
4.172091e+00,1.379439e+00,1.348019e+00,3,0,5.255055e+00,5.255058e+00,1
4.187279e+00,1.406076e+00,1.376152e+00,3,0,6.208190e+00,6.207895e+00,1
5.546503e+00,3.684186e+00,3.649950e+00,4,2,5.511449e+00,5.511877e+00,1
5.596911e+00,9.373050e+00,9.330034e+00,4,4,8.482909e+00,2.149511e+01,0
5.549094e+00,6.030805e+00,5.987883e+00,4,1,8.790791e+00,2.539911e+01,0
6.934233e+00,4.763308e+00,4.723549e+00,5,0,1.019005e+01,2.963221e+01,0
8.314542e+00,4.764389e+00,4.720926e+00,6,0,1.389788e+01,4.228321e+01,0
8.322684e+00,8.338284e+00,8.292675e+00,6,3,1.045470e+01,1.890931e+01,0
8.282474e+00,5.608271e+00,5.575895e+00,6,4,4.737670e+00,4.732630e+00,1
5.495089e+00,3.846127e+00,3.811836e+00,4,2,5.466311e+00,5.471816e+00,1
6.900543e+00,3.358074e+00,3.324747e+00,5,2,5.062247e+00,5.060254e+00,1
5.515254e+00,1.415523e+00,1.381874e+00,4,0,3.959813e+00,3.959812e+00,1
4.135949e+00,1.343308e+00,1.312017e+00,3,0,3.964070e+00,3.964076e+00,1
4.102655e+00,1.373582e+00,1.331091e+00,3,0,3.070677e+00,3.070679e+00,1
4.186574e+00,1.364880e+00,1.333952e+00,3,0,2.674329e+00,2.674331e+00,1
4.236520e+00,1.381524e+00,1.351118e+00,3,0,2.831953e+00,2.831956e+00,1
4.202312e+00,1.417147e+00,1.385689e+00,3,0,1.968847e+00,1.968852e+00,1
4.142503e+00,1.376672e+00,1.347065e+00,3,0,2.662195e+00,2.662201e+00,1
4.054870e+00,1.396629e+00,1.366615e+00,3,0,2.996113e+00,2.996116e+00,1
4.049398e+00,1.343146e+00,1.313925e+00,3,0,4.318002e+00,4.318009e+00,1
5.504474e+00,2.756059e+01,2.751970e+01,4,20,1.837622e+01,4.798023e+01,0
8.227546e+00,4.611705e+00,4.569769e+00,6,0,2.561637e+01,6.987905e+01,0
6.863089e+00,4.663484e+00,4.618883e+00,5,0,1.956345e+01,3.934473e+01,0
8.249129e+00,4.707352e+00,4.649162e+00,6,0,2.324430e+01,4.250956e+01,0
8.199740e+00,1.454964e+01,1.450753e+01,6,9,2.299824e+01,3.671094e+01,0
5.513991e+00,2.984085e+01,2.979684e+01,4,23,1.820331e+01,1.855486e+01,0
5.521976e+00,1.740529e+01,1.736879e+01,4,14,1.942988e+01,1.971947e+01,1
5.514190e+00,1.263186e+01,1.258826e+01,4,7,2.740126e+01,3.718374e+01,0
6.889071e+00,3.127769e+01,3.124404e+01,5,27,1.649005e+01,1.653979e+01,1
5.514954e+00,1.363223e+01,1.359701e+01,4,11,1.113169e+01,1.113207e+01,1
4.138896e+00,2.432467e+00,2.398968e+00,3,1,1.071333e+01,1.071334e+01,1
4.176443e+00,1.401974e+00,1.369953e+00,3,0,9.124202e+00,9.124204e+00,1
4.152047e+00,2.652889e+00,2.619982e+00,3,1,8.558504e+00,8.572898e+00,1
4.209883e+00,2.523324e+00,2.491713e+00,3,1,1.091783e+01,1.091785e+01,1
4.181505e+00,1.430697e+00,1.390696e+00,3,0,8.516831e+00,8.516831e+00,1
4.204972e+00,6.512964e+00,6.478071e+00,3,4,1.547072e+01,1.547185e+01,1
4.197763e+00,7.071081e+00,7.032871e+00,3,5,1.365725e+01,1.365798e+01,1
4.154211e+00,1.699288e+00,1.665115e+00,3,0,1.205724e+01,1.206223e+01,1
4.162926e+00,4.777237e+00,4.744768e+00,3,3,1.183603e+01,1.183797e+01,1
8.279372e+00,4.965490e+00,4.932880e+00,6,3,1.418949e+01,1.419747e+01,1
8.456815e+00,2.773772e+01,2.769375e+01,6,20,2.412179e+01,3.139684e+01,0
8.164647e+00,2.123037e+01,2.119493e+01,6,18,1.901299e+01,1.912186e+01,1
5.465478e+00,1.204702e+01,1.201200e+01,4,10,1.422272e+01,1.425497e+01,1
4.098063e+00,6.015519e+00,5.983114e+00,3,4,1.060564e+01,1.060567e+01,1
4.090412e+00,4.661665e+00,4.620314e+00,3,0,1.185062e+01,2.996141e+01,0
5.402941e+00,4.652100e+00,4.612923e+00,4,0,1.302931e+01,3.766799e+01,0
5.402587e+00,4.635530e+00,4.593849e+00,4,0,1.116324e+01,3.495855e+01,0
4.076748e+00,7.972069e+00,7.930994e+00,3,3,6.528175e+00,1.101807e+01,0
4.080832e+00,3.418866e+00,3.386021e+00,3,2,5.522855e+00,5.522858e+00,1
4.053974e+00,2.665370e+00,2.633810e+00,3,1,5.399029e+00,5.402181e+00,1
4.059780e+00,2.412531e+00,2.378225e+00,3,1,8.294205e+00,8.294220e+00,1
4.047347e+00,1.368287e+00,1.337051e+00,3,0,8.417324e+00,8.417327e+00,1
4.061166e+00,2.681070e+00,2.650976e+00,3,1,7.121643e+00,7.123456e+00,1
4.067550e+00,2.899234e+00,2.867937e+00,3,1,5.024406e+00,5.024850e+00,1
4.053138e+00,2.661281e+00,2.629995e+00,3,1,4.899336e+00,4.900719e+00,1
4.055229e+00,4.663840e+00,4.624844e+00,3,1,7.802605e+00,1.457860e+01,0
6.731982e+00,1.347111e+00,1.315117e+00,5,0,6.197784e+00,6.196300e+00,1
5.414875e+00,6.811064e+00,6.769896e+00,4,2,1.761038e+01,4.935420e+01,0
5.403558e+00,4.649334e+00,4.608393e+00,4,0,1.011377e+01,1.009776e+01,0
8.131013e+00,1.447415e+01,1.444221e+01,6,12,1.132140e+01,1.134194e+01,1
5.418638e+00,1.379939e+01,1.376390e+01,4,11,8.929857e+00,8.934602e+00,1
5.406801e+00,2.721372e+00,2.687693e+00,4,1,8.139619e+00,8.137837e+00,1
5.392327e+00,2.695767e+00,2.663136e+00,4,1,9.488233e+00,9.497615e+00,1
4.048867e+00,3.089286e+00,3.057957e+00,3,1,9.220451e+00,9.223363e+00,1
4.063341e+00,6.166064e+00,6.134033e+00,3,4,7.585264e+00,7.602414e+00,1
4.085432e+00,6.467115e+00,6.434202e+00,3,4,5.801622e+00,5.811137e+00,1
4.065326e+00,3.731703e+00,3.700018e+00,3,2,4.566506e+00,4.566515e+00,1
4.204129e+00,2.426853e+01,2.422476e+01,3,17,8.498039e+00,1.430439e+01,0
4.099372e+00,1.697581e+01,1.693702e+01,3,14,5.423103e+00,5.445694e+00,1
4.133241e+00,5.502136e+00,5.466223e+00,3,4,3.310139e+00,3.310138e+00,1
4.143822e+00,7.477049e+00,7.444859e+00,3,5,5.579396e+00,5.579777e+00,1
5.579345e+00,6.049565e+00,6.016016e+00,4,4,6.683657e+00,6.687120e+00,1
4.155248e+00,1.284756e+01,1.281285e+01,3,10,6.590606e+00,6.611605e+00,1
8.222121e+00,6.275500e+00,6.243944e+00,6,4,5.002356e+00,4.995599e+00,1
8.251116e+00,3.304955e+00,3.271103e+00,6,2,3.338309e+00,3.336492e+00,1
4.141297e+00,3.991498e+00,3.957033e+00,3,2,2.906615e+00,2.907656e+00,1
4.135023e+00,1.710556e+00,1.672029e+00,3,0,3.367229e+00,3.401802e+00,1
4.138908e+00,2.749758e+00,2.711058e+00,3,1,3.240625e+00,3.274014e+00,1
4.109182e+00,2.874048e+00,2.830982e+00,3,1,7.107437e+00,7.310557e+00,1
5.446500e+00,2.749765e+00,2.719879e+00,4,1,5.230672e+00,5.253921e+00,1
4.121756e+00,5.593087e+00,5.560160e+00,3,3,1.014132e+01,1.015326e+01,1
4.179473e+00,4.508548e+00,4.472017e+00,3,3,5.414299e+00,5.414295e+00,1
4.135601e+00,1.903847e+01,1.900506e+01,3,15,1.205196e+01,1.221525e+01,1
5.613151e+00,2.088734e+01,2.085400e+01,4,18,8.810994e+00,8.810213e+00,1
5.559741e+00,6.234939e+00,6.197929e+00,4,4,8.047497e+00,8.047883e+00,1
4.148305e+00,1.235296e+01,1.231003e+01,3,7,8.365026e+00,1.021876e+01,0
8.224403e+00,7.954184e+00,7.897854e+00,6,3,9.643722e+00,1.604249e+01,0
5.551353e+00,7.318814e+00,7.283926e+00,4,5,4.845687e+00,4.863088e+00,1
4.169535e+00,5.110768e+00,5.075932e+00,3,3,6.623006e+00,6.682649e+00,1
8.247213e+00,9.058792e+00,9.015083e+00,6,4,1.000163e+01,1.784253e+01,0
8.282765e+00,4.668991e+00,4.626989e+00,6,0,1.245072e+01,2.492755e+01,0
8.260486e+00,4.736246e+00,4.691839e+00,6,0,1.581358e+01,2.930911e+01,0
6.878458e+00,8.788980e+00,8.755207e+00,5,7,8.903561e+00,8.896301e+00,1
4.130203e+00,2.801926e+00,2.768040e+00,3,1,8.093735e+00,8.094117e+00,1
4.129814e+00,2.417585e+00,2.386093e+00,3,1,7.355523e+00,7.355509e+00,1
4.227780e+00,1.271240e+01,1.268005e+01,3,9,7.530966e+00,7.550234e+00,1
4.221100e+00,1.093970e+01,1.090121e+01,3,9,5.709477e+00,5.709406e+00,1
4.207000e+00,2.940645e+01,2.936316e+01,3,21,1.045871e+01,1.464672e+01,0
5.586339e+00,2.494037e+01,2.490520e+01,4,22,7.284884e+00,7.287782e+00,1
4.175408e+00,3.002791e+00,2.969027e+00,3,1,8.753000e+00,8.759893e+00,1
4.177293e+00,4.020963e+00,3.989220e+00,3,2,5.696078e+00,5.699086e+00,1
4.191737e+00,6.399081e+00,6.366968e+00,3,4,6.325973e+00,6.364600e+00,1
4.237157e+00,4.872207e+00,4.838228e+00,3,3,4.282110e+00,4.283434e+00,1
4.226335e+00,5.156696e+00,5.121946e+00,3,3,4.588901e+00,4.589659e+00,1
8.338220e+00,6.912918e+00,6.880045e+00,6,5,7.750867e+00,7.725890e+00,1
8.326778e+00,8.122404e+00,8.078814e+00,6,3,1.264147e+01,2.335188e+01,0
8.343558e+00,7.620764e+00,7.585049e+00,6,6,6.014622e+00,6.002953e+00,1
8.319724e+00,5.434679e+00,5.399942e+00,6,3,9.793175e+00,9.796913e+00,1
6.943409e+00,8.514604e+00,8.478165e+00,5,6,9.023299e+00,9.011225e+00,1
8.321610e+00,4.748011e+00,4.705906e+00,6,0,1.321594e+01,1.664302e+01,0
8.326974e+00,1.593689e+01,1.590395e+01,6,12,1.572946e+01,1.599069e+01,1
7.006929e+00,1.121590e+01,1.118302e+01,5,8,1.360922e+01,1.376662e+01,1
5.616105e+00,7.010217e+00,6.972075e+00,4,4,1.385051e+01,1.403849e+01,1
4.210150e+00,7.022954e+00,6.987810e+00,3,5,9.019954e+00,9.027389e+00,1
4.253471e+00,2.514240e+00,2.479076e+00,3,1,7.656566e+00,7.656567e+00,1
4.247270e+00,5.547393e+00,5.513668e+00,3,3,7.416147e+00,7.420090e+00,1
4.196561e+00,1.907547e+01,1.903391e+01,3,12,1.143454e+01,2.434085e+01,0
4.195207e+00,4.728191e+00,4.684925e+00,3,0,1.126350e+01,2.938474e+01,0
5.584780e+00,1.538684e+01,1.535296e+01,4,13,4.723192e+00,4.723192e+00,1
4.168358e+00,1.412236e+00,1.378059e+00,3,0,5.085492e+00,5.085498e+00,1
4.180435e+00,1.413496e+00,1.384020e+00,3,0,4.197201e+00,4.197203e+00,1
4.172079e+00,1.389571e+00,1.358032e+00,3,0,4.202181e+00,4.202183e+00,1
4.160461e+00,1.369163e+00,1.339912e+00,3,0,3.434534e+00,3.434534e+00,1
4.179870e+00,1.418453e+00,1.389027e+00,3,0,2.586005e+00,2.586008e+00,1
4.172142e+00,2.726858e+00,2.691984e+00,3,1,3.695983e+00,3.696024e+00,1
4.190309e+00,1.590731e+01,1.587510e+01,3,12,8.689813e+00,8.799487e+00,1
5.566963e+00,1.444088e+01,1.440692e+01,4,12,5.119831e+00,5.122348e+00,1
4.183311e+00,2.448776e+00,2.414942e+00,3,1,3.153677e+00,3.153675e+00,1
4.163958e+00,2.740833e+00,2.708197e+00,3,1,2.716818e+00,2.725579e+00,1
4.180468e+00,2.503468e+00,2.473116e+00,3,1,4.143793e+00,4.143802e+00,1
4.181783e+00,1.109990e+01,1.106715e+01,3,8,8.650391e+00,8.695383e+00,1
7.044264e+00,1.315948e+01,1.312304e+01,5,11,7.828724e+00,7.825854e+00,1
5.563760e+00,2.337889e+00,2.301931e+00,4,1,4.741203e+00,4.741202e+00,1
4.182545e+00,4.026622e+00,3.994226e+00,3,2,5.196647e+00,5.200010e+00,1
4.176728e+00,2.801312e+00,2.768040e+00,3,1,3.758056e+00,3.758240e+00,1
4.170889e+00,1.692537e+00,1.660585e+00,3,0,7.533043e+00,7.533021e+00,1
5.546584e+00,2.969633e+00,2.938747e+00,4,1,5.958703e+00,5.962445e+00,1
4.178895e+00,4.028148e+00,3.996134e+00,3,2,5.939774e+00,5.973163e+00,1
4.180443e+00,3.534804e+00,3.500700e+00,3,2,4.509410e+00,4.509409e+00,1
4.175588e+00,1.369373e+00,1.339197e+00,3,0,3.347107e+00,3.347108e+00,1
4.162473e+00,1.392831e+00,1.360893e+00,3,0,3.725680e+00,3.725683e+00,1
4.151329e+00,1.365659e+00,1.334667e+00,3,0,3.121422e+00,3.121424e+00,1
4.173519e+00,1.399032e+00,1.368046e+00,3,0,3.719988e+00,3.719968e+00,1
4.165260e+00,1.416812e+00,1.382828e+00,3,0,3.402083e+00,3.402086e+00,1
4.160739e+00,1.378826e+00,1.348019e+00,3,0,5.095217e+00,5.095229e+00,1
4.173095e+00,1.408728e+00,1.378059e+00,3,0,4.125324e+00,4.125323e+00,1
4.161860e+00,1.391118e+00,1.359224e+00,3,0,4.531642e+00,4.531646e+00,1
4.153591e+00,1.374289e+00,1.343250e+00,3,0,4.440155e+00,4.440157e+00,1

