3.968875e+00,1.129580e+01,6,20
6.768760e-01,7.687092e+00,1,17
6.764420e-01,6.888866e+00,1,15
6.758720e-01,7.042170e+00,1,15
6.749930e-01,4.910946e+00,1,10
6.856290e-01,2.605915e+00,1,5
6.717240e-01,1.285076e+00,1,2
6.724500e-01,3.910065e-01,1,0
6.707070e-01,3.879070e-01,1,0
6.714260e-01,3.879070e-01,1,0
6.707870e-01,3.848076e-01,1,0
6.706690e-01,3.869534e-01,1,0
6.702810e-01,3.859997e-01,1,0
6.703410e-01,3.840923e-01,1,0
6.686410e-01,3.840923e-01,1,0

