3.967996e+00,1.121712e+01,6,20
6.837000e-01,7.696867e+00,1,17
6.747950e-01,6.903172e+00,1,15
6.861570e-01,7.268906e+00,1,15
6.843240e-01,4.927158e+00,1,10
6.861950e-01,2.609015e+00,1,5
6.686440e-01,1.288176e+00,1,2
6.691830e-01,3.690720e-01,1,0
6.676530e-01,3.831387e-01,1,0
6.675440e-01,3.869534e-01,1,0
6.858800e-01,3.819466e-01,1,0
6.684140e-01,3.859997e-01,1,0
6.833720e-01,3.819466e-01,1,0
7.327920e-01,3.840923e-01,1,0
6.859110e-01,3.831387e-01,1,0

