3.969277e+00,1.150513e+01,6,20
6.749030e-01,7.686138e+00,1,17
6.891910e-01,6.889820e+00,1,15
6.737250e-01,7.051945e+00,1,15
6.743610e-01,4.930019e+00,1,10
6.711430e-01,2.618074e+00,1,5
6.702950e-01,1.299858e+00,1,2
6.680100e-01,3.650188e-01,1,0
6.670640e-01,3.819466e-01,1,0
6.681270e-01,3.809929e-01,1,0
6.688900e-01,3.829002e-01,1,0
6.670930e-01,3.809929e-01,1,0
6.677640e-01,3.829002e-01,1,0
6.665240e-01,3.790855e-01,1,0
6.679720e-01,3.840923e-01,1,0

