3.983905e+00,1.121712e+01,6,20
6.829350e-01,7.683039e+00,1,17
6.796900e-01,6.899834e+00,1,15
6.804530e-01,7.050991e+00,1,15
6.801690e-01,4.928112e+00,1,10
6.782860e-01,2.621889e+00,1,5
6.771190e-01,1.292944e+00,1,2
6.906320e-01,3.700256e-01,1,0
6.740450e-01,3.840923e-01,1,0
6.896120e-01,3.819466e-01,1,0
6.741230e-01,3.840923e-01,1,0
6.896670e-01,3.829002e-01,1,0
6.732050e-01,3.838539e-01,1,0
6.887880e-01,3.809929e-01,1,0
6.727680e-01,3.840923e-01,1,0

