3.964466e+00,1.122713e+01,6,20
6.767140e-01,7.680893e+00,1,17
6.813030e-01,6.890059e+00,1,15
6.750530e-01,7.060051e+00,1,15
6.741870e-01,4.931927e+00,1,10
6.718310e-01,2.617121e+00,1,5
6.719610e-01,1.302004e+00,1,2
6.693490e-01,3.671646e-01,1,0
6.703290e-01,3.850460e-01,1,0
6.699170e-01,3.850460e-01,1,0
6.690870e-01,3.859997e-01,1,0
6.675330e-01,3.829002e-01,1,0
6.685240e-01,3.819466e-01,1,0
6.682000e-01,3.821850e-01,1,0
6.689720e-01,3.829002e-01,1,0

