4.449674e+00,1.247811e+01,7,47
1.279564e+00,9.665012e+00,2,49
1.266367e+00,9.525061e+00,2,48
1.267340e+00,8.830070e+00,2,44
1.266974e+00,8.502007e+00,2,42
3.769491e+00,8.129835e+00,6,40
1.266419e+00,8.216858e+00,2,40
1.889145e+00,7.695913e+00,3,37
2.510312e+00,7.708073e+00,4,37
1.836076e+00,7.569075e+00,3,36
1.227043e+00,7.229090e+00,2,35
1.237038e+00,6.178141e+00,2,30
1.194806e+00,5.465984e+00,2,27
2.853592e+00,5.052090e+00,5,25
1.159025e+00,4.447937e+00,2,22

