3.299709e+00,3.691617e+00,2.841949e+00,2,0,0.000000e+00,0.000000e+00
4.941113e+00,6.830360e-01,6.470680e-01,3,0,4.036405e-01,4.036413e-01
4.940833e+00,6.632870e-01,6.401539e-01,3,0,1.986517e+00,1.986520e+00
4.945983e+00,6.622100e-01,6.389618e-01,3,0,1.528989e+00,1.528989e+00
4.936048e+00,6.567100e-01,6.339550e-01,3,0,2.553211e+00,2.553213e+00
4.947663e+00,3.061745e+00,3.039122e+00,3,2,7.791386e+00,7.797003e+00
1.151555e+01,3.307457e+00,3.283978e+00,7,2,1.091990e+01,1.098078e+01
9.870948e+00,6.979877e+00,6.946087e+00,6,2,1.213894e+01,1.223460e+01
6.597680e+00,1.078384e+01,1.076102e+01,4,8,1.451610e+01,1.502599e+01
6.622340e+00,1.199107e+01,1.196790e+01,4,10,1.479233e+01,1.484216e+01
8.226503e+00,1.209591e+01,1.207304e+01,5,10,1.238376e+01,1.240345e+01
9.877691e+00,3.240099e+00,3.216982e+00,6,2,1.260695e+01,1.260797e+01
1.151952e+01,2.808219e+00,2.786160e+00,7,2,1.259583e+01,1.259358e+01
9.867540e+00,2.387476e+00,2.365112e+00,6,2,9.316758e+00,9.308141e+00
6.596835e+00,6.625140e-01,6.401539e-01,4,0,1.139374e+01,1.139375e+01
4.971937e+00,6.575550e-01,6.351471e-01,3,0,1.271499e+01,1.271500e+01
4.969643e+00,6.580790e-01,6.349087e-01,3,0,1.258899e+01,1.258900e+01
4.942420e+00,6.641130e-01,6.418228e-01,3,0,1.254936e+01,1.254936e+01
4.941532e+00,6.634650e-01,6.408691e-01,3,0,1.098621e+01,1.098621e+01
4.938501e+00,6.627080e-01,6.399155e-01,3,0,1.131240e+01,1.131240e+01
4.941185e+00,6.572070e-01,6.349087e-01,3,0,8.854554e+00,8.854553e+00
4.963634e+00,1.883050e+00,1.861095e+00,3,1,7.272133e+00,7.272190e+00
4.949567e+00,8.261179e+00,8.237839e+00,3,6,6.903814e+00,7.032357e+00
4.944875e+00,8.245671e+00,8.223057e+00,3,7,5.314251e+00,5.314255e+00
4.942208e+00,6.630740e-01,6.399155e-01,3,0,4.345195e+00,4.345196e+00
4.945534e+00,6.564070e-01,6.339550e-01,3,0,3.906520e+00,3.906522e+00
4.941111e+00,6.634730e-01,6.408691e-01,3,0,4.294675e+00,4.294678e+00
4.950749e+00,6.626440e-01,6.399155e-01,3,0,3.523326e+00,3.523327e+00
4.940666e+00,6.628630e-01,6.408691e-01,3,0,3.017764e+00,3.017765e+00
4.942537e+00,6.572370e-01,6.351471e-01,3,0,2.190211e+00,2.190211e+00
4.944132e+00,6.614080e-01,6.389618e-01,3,0,2.891396e+00,2.891400e+00
4.969721e+00,6.618050e-01,6.399155e-01,3,0,1.798217e+00,1.798218e+00
4.941038e+00,6.620810e-01,6.389618e-01,3,0,4.253334e+00,4.253340e+00
4.947217e+00,1.968154e+00,1.945019e+00,3,1,6.284664e+00,6.284880e+00
4.945761e+00,1.743537e+00,1.719952e+00,3,1,4.470102e+00,4.470102e+00
4.945186e+00,6.566360e-01,6.341934e-01,3,0,3.270531e+00,3.270531e+00
4.964165e+00,1.571254e+00,1.549006e+00,3,1,5.814924e+00,5.812998e+00
1.151488e+01,1.530498e+00,1.507998e+00,7,1,2.721964e+00,2.721469e+00
4.943943e+00,6.646750e-01,6.420612e-01,3,0,2.419042e+00,2.419030e+00
4.940300e+00,6.635330e-01,6.411076e-01,3,0,2.866585e+00,2.866587e+00
4.944253e+00,6.579310e-01,6.361008e-01,3,0,3.801197e+00,3.801199e+00
4.943825e+00,6.633510e-01,6.411076e-01,3,0,3.168376e+00,3.168376e+00
4.940032e+00,6.641210e-01,6.408691e-01,3,0,2.918073e+00,2.918074e+00
4.940112e+00,6.633280e-01,6.411076e-01,3,0,2.917236e+00,2.917237e+00
4.946442e+00,6.569620e-01,6.349087e-01,3,0,3.656901e+00,3.656903e+00
4.941590e+00,6.627010e-01,6.401539e-01,3,0,5.343897e+00,5.343901e+00
4.941472e+00,6.627680e-01,6.408691e-01,3,0,4.511262e+00,4.511262e+00
4.942694e+00,6.622330e-01,6.401539e-01,3,0,2.357517e+00,2.357517e+00
4.940640e+00,6.574190e-01,6.349087e-01,3,0,2.346637e+00,2.346638e+00
4.941753e+00,6.624450e-01,6.399155e-01,3,0,1.907926e+00,1.907927e+00
4.940122e+00,6.635010e-01,6.411076e-01,3,0,2.544093e+00,2.544094e+00
4.940939e+00,6.580710e-01,6.358624e-01,3,0,2.193489e+00,2.193489e+00
4.941532e+00,6.577460e-01,6.358624e-01,3,0,2.165859e+00,2.165860e+00
4.942702e+00,6.637360e-01,6.420612e-01,3,0,1.337511e+00,1.337511e+00
4.940585e+00,6.633230e-01,6.411076e-01,3,0,1.516272e+00,1.516273e+00
4.944758e+00,6.567430e-01,6.339550e-01,3,0,7.295477e-01,7.295480e-01
4.941303e+00,6.559780e-01,6.330013e-01,3,0,1.843766e+00,1.843769e+00
4.941077e+00,6.651460e-01,6.430149e-01,3,0,1.410945e+00,1.410945e+00
4.944349e+00,6.625330e-01,6.399155e-01,3,0,3.091214e+00,3.091217e+00
4.941901e+00,6.577470e-01,6.349087e-01,3,0,6.662354e+00,6.662358e+00
4.965223e+00,7.271200e-01,6.968975e-01,3,0,5.060816e+00,5.060817e+00
4.978984e+00,7.119930e-01,6.880760e-01,3,0,5.253270e+00,5.253272e+00
4.957142e+00,6.930770e-01,6.690025e-01,3,0,5.509021e+00,5.509022e+00
4.944611e+00,1.890343e+00,1.868010e+00,3,1,5.288662e+00,5.288868e+00
4.948279e+00,1.752449e+00,1.729965e+00,3,1,3.832228e+00,3.832228e+00
4.948270e+00,6.582370e-01,6.358624e-01,3,0,3.788159e+00,3.788161e+00
4.943190e+00,6.587450e-01,6.361008e-01,3,0,3.120406e+00,3.120407e+00
4.944743e+00,6.623040e-01,6.401539e-01,3,0,3.466770e+00,3.466772e+00
4.939485e+00,6.632300e-01,6.411076e-01,3,0,3.015731e+00,3.015732e+00
4.966568e+00,6.577650e-01,6.349087e-01,3,0,3.325100e+00,3.325101e+00
4.939507e+00,1.573802e+00,1.550913e+00,3,1,5.229964e+00,5.225298e+00
9.889669e+00,1.534005e+00,1.512051e+00,6,1,3.994663e+00,3.991694e+00
8.259200e+00,1.565673e+00,1.543045e+00,5,1,7.354704e+00,7.352001e+00
6.583001e+00,1.526633e+00,1.503944e+00,4,1,5.547420e+00,5.547038e+00
4.935901e+00,6.628510e-01,6.401539e-01,3,0,3.630576e+00,3.630580e+00
4.941951e+00,6.575250e-01,6.349087e-01,3,0,4.095954e+00,4.095956e+00
4.941281e+00,6.638480e-01,6.418228e-01,3,0,4.925805e+00,4.925808e+00
4.946249e+00,6.626790e-01,6.399155e-01,3,0,6.592916e+00,6.592920e+00
4.943860e+00,6.626790e-01,6.399155e-01,3,0,6.370162e+00,6.370165e+00
4.943287e+00,1.884713e+00,1.862049e+00,3,1,7.230020e+00,7.238568e+00
4.948847e+00,4.558649e+00,4.534960e+00,3,3,8.198014e+00,8.292005e+00
4.946398e+00,9.182986e+00,9.160042e+00,3,7,9.843920e+00,1.002070e+01
1.151645e+01,8.779002e+00,8.756161e+00,7,7,1.035582e+01,1.041280e+01
6.577758e+00,6.441787e+00,6.418943e+00,4,5,8.791538e+00,8.795474e+00
6.592996e+00,5.375982e+00,5.352974e+00,4,4,9.683058e+00,9.686305e+00
4.944355e+00,1.752290e+00,1.730204e+00,3,1,8.047840e+00,8.047841e+00
4.952718e+00,3.697853e+00,3.665447e+00,3,0,7.138401e+00,8.479329e+00
4.944605e+00,3.688419e+00,3.656626e+00,3,0,1.218270e+01,3.444166e+01
9.871505e+00,3.685529e+00,3.652811e+00,6,0,1.164847e+01,3.400489e+01
9.933469e+00,3.697952e+00,3.666162e+00,6,0,8.546747e+00,1.638550e+01
9.906585e+00,3.700228e+00,3.667593e+00,6,0,1.439929e+01,4.286315e+01
9.872551e+00,3.693415e+00,3.660202e+00,6,0,1.095079e+01,2.337202e+01
6.601661e+00,6.573430e-01,6.339550e-01,4,0,5.660293e+00,5.660287e+00
4.989810e+00,6.646220e-01,6.420612e-01,3,0,5.917325e+00,5.917327e+00
4.945431e+00,6.620290e-01,6.389618e-01,3,0,4.178185e+00,4.178185e+00
4.950105e+00,6.672050e-01,6.399155e-01,3,0,5.346748e+00,5.346752e+00
4.953590e+00,6.663120e-01,6.439686e-01,3,0,5.341604e+00,5.341606e+00
4.952391e+00,1.889615e+00,1.867056e+00,3,1,1.201834e+01,1.201845e+01
4.955613e+00,5.721356e+00,5.698919e+00,3,4,1.452147e+01,1.454325e+01
6.659794e+00,1.683185e+01,1.680064e+01,4,10,2.256940e+01,3.183250e+01
9.885475e+00,4.735665e+00,4.699945e+00,6,0,2.443420e+01,3.253331e+01
9.880028e+00,1.637149e+01,1.634812e+01,6,14,1.760121e+01,1.768371e+01
6.585289e+00,8.253424e+00,8.229971e+00,4,7,1.040458e+01,1.040458e+01
4.940811e+00,6.600190e-01,6.370544e-01,3,0,8.660152e+00,8.660152e+00
4.954080e+00,4.570949e+00,4.548073e+00,3,3,8.239726e+00,8.248048e+00
5.001296e+00,2.161565e+01,2.159309e+01,3,17,1.047234e+01,1.113868e+01
4.951454e+00,1.318288e+01,1.315999e+01,3,11,1.065969e+01,1.145456e+01
9.956982e+00,2.479793e+01,2.477503e+01,6,21,1.097153e+01,1.161125e+01
9.874350e+00,1.832923e+01,1.830602e+01,6,16,1.038260e+01,1.104941e+01
9.871409e+00,2.198537e+01,2.196217e+01,6,18,1.284538e+01,1.447317e+01
8.500577e+00,2.752255e+01,2.749801e+01,5,24,6.915555e+00,7.047913e+00
8.478229e+00,3.165295e+00,3.134012e+00,5,2,6.614590e+00,6.630862e+00
6.778756e+00,2.930953e+00,2.907038e+00,4,2,2.673334e+00,2.673332e+00
5.089114e+00,6.843180e-01,6.611347e-01,3,0,2.114806e+00,2.114807e+00
5.087735e+00,6.855940e-01,6.620884e-01,3,0,1.634255e+00,1.634255e+00
5.088215e+00,6.847840e-01,6.618500e-01,3,0,2.465750e+00,2.465753e+00
5.093712e+00,6.797770e-01,6.558895e-01,3,0,2.153215e+00,2.153215e+00
5.093006e+00,6.791120e-01,6.570816e-01,3,0,1.446164e+00,1.446164e+00
5.095152e+00,6.785400e-01,6.558895e-01,3,0,2.126752e+00,2.126755e+00
5.087953e+00,6.785930e-01,6.551743e-01,3,0,2.499566e+00,2.499568e+00
5.085469e+00,6.837520e-01,6.611347e-01,3,0,4.671285e+00,4.671289e+00
5.093915e+00,4.561055e+00,4.538059e+00,3,3,1.003310e+01,1.006758e+01
5.089749e+00,4.047261e+00,4.023790e+00,3,3,5.065920e+00,5.065917e+00
5.088080e+00,6.852330e-01,6.620884e-01,3,0,3.654554e+00,3.654554e+00
5.089272e+00,6.845820e-01,6.618500e-01,3,0,4.530899e+00,4.530901e+00
5.084400e+00,6.841280e-01,6.611347e-01,3,0,3.297299e+00,3.297300e+00
5.084715e+00,6.857250e-01,6.628036e-01,3,0,4.031814e+00,4.031816e+00
5.088537e+00,6.853900e-01,6.618500e-01,3,0,2.731890e+00,2.731890e+00
5.086607e+00,6.856390e-01,6.620884e-01,3,0,2.371000e+00,2.371001e+00
5.088724e+00,6.841820e-01,6.608963e-01,3,0,2.386344e+00,2.386346e+00
5.089004e+00,6.854650e-01,6.620884e-01,3,0,2.501000e+00,2.501001e+00
5.085826e+00,6.791930e-01,6.558895e-01,3,0,2.189913e+00,2.189913e+00
5.098684e+00,6.795140e-01,6.558895e-01,3,0,2.217613e+00,2.217613e+00
5.023248e+00,6.786810e-01,6.558895e-01,3,0,1.689467e+00,1.689467e+00
4.944948e+00,6.668020e-01,6.439686e-01,3,0,2.688042e+00,2.688045e+00
4.955629e+00,6.676020e-01,6.451607e-01,3,0,7.988146e-01,7.988147e-01
4.944281e+00,6.664460e-01,6.430149e-01,3,0,1.283612e+00,1.283614e+00
4.939980e+00,6.608000e-01,6.389618e-01,3,0,1.486932e+00,1.486933e+00
4.938574e+00,6.658850e-01,6.430149e-01,3,0,1.659293e+00,1.659294e+00
4.939980e+00,6.640310e-01,6.408691e-01,3,0,8.682800e-01,8.682809e-01
4.940559e+00,6.657370e-01,6.430149e-01,3,0,1.436017e+00,1.436019e+00
4.939686e+00,6.592440e-01,6.370544e-01,3,0,2.324675e+00,2.324677e+00
4.939224e+00,6.652150e-01,6.430149e-01,3,0,3.937425e+00,3.937428e+00
4.942602e+00,6.666540e-01,6.449223e-01,3,0,4.609882e+00,4.609884e+00
4.941575e+00,6.643480e-01,6.420612e-01,3,0,2.007823e+00,2.007822e+00
4.944231e+00,6.596270e-01,6.368160e-01,3,0,4.154429e+00,4.154433e+00
4.945289e+00,6.659400e-01,6.430149e-01,3,0,1.809729e+00,1.809728e+00
4.944012e+00,6.657580e-01,6.439686e-01,3,0,2.143658e+00,2.143659e+00
4.939782e+00,6.654470e-01,6.420612e-01,3,0,1.808461e+00,1.808461e+00
4.943765e+00,6.596070e-01,6.368160e-01,3,0,1.858494e+00,1.858495e+00
4.994037e+00,6.665460e-01,6.439686e-01,3,0,2.382544e+00,2.382546e+00
4.945180e+00,6.656640e-01,6.430149e-01,3,0,3.465401e+00,3.465403e+00
4.939502e+00,6.651530e-01,6.418228e-01,3,0,2.134336e+00,2.134336e+00
4.944313e+00,6.599580e-01,6.380081e-01,3,0,2.932456e+00,2.932458e+00
4.943126e+00,6.636000e-01,6.420612e-01,3,0,1.947301e+00,1.947305e+00
4.967440e+00,6.646570e-01,6.420612e-01,3,0,1.142603e+00,1.142603e+00
4.939592e+00,6.658810e-01,6.427765e-01,3,0,1.499579e+00,1.499580e+00
4.965489e+00,6.584210e-01,6.358624e-01,3,0,2.846984e+00,2.846987e+00
4.939799e+00,6.649840e-01,6.420612e-01,3,0,1.135232e+00,1.135232e+00
4.940234e+00,6.656070e-01,6.430149e-01,3,0,1.836639e+00,1.836641e+00
4.940457e+00,6.663520e-01,6.430149e-01,3,0,1.798888e+00,1.798888e+00
4.939689e+00,6.592390e-01,6.370544e-01,3,0,1.437606e+00,1.437607e+00
4.942762e+00,6.649360e-01,6.420612e-01,3,0,1.803447e+00,1.803448e+00
4.943681e+00,6.648700e-01,6.420612e-01,3,0,1.552146e+00,1.552148e+00
4.943553e+00,6.650440e-01,6.418228e-01,3,0,2.413125e+00,2.413127e+00
4.945828e+00,6.599110e-01,6.370544e-01,3,0,1.569258e+00,1.569258e+00
4.941218e+00,6.649660e-01,6.420612e-01,3,0,1.255615e+00,1.255616e+00
4.964835e+00,6.659960e-01,6.430149e-01,3,0,1.677568e+00,1.677569e+00
4.967324e+00,6.636940e-01,6.408691e-01,3,0,1.776586e+00,1.776588e+00
4.941561e+00,6.604540e-01,6.380081e-01,3,0,2.933943e+00,2.933946e+00
4.941549e+00,6.657990e-01,6.439686e-01,3,0,4.452835e+00,4.452838e+00
4.940832e+00,6.643870e-01,6.420612e-01,3,0,1.538220e+00,1.538219e+00
4.947114e+00,6.662180e-01,6.439686e-01,3,0,2.361790e+00,2.361792e+00
4.942297e+00,6.592690e-01,6.370544e-01,3,0,1.289761e+00,1.289761e+00
4.941760e+00,6.643030e-01,6.420612e-01,3,0,2.841648e+00,2.841651e+00
4.938891e+00,6.645290e-01,6.420612e-01,3,0,1.499024e+00,1.499024e+00
4.942722e+00,6.595880e-01,6.370544e-01,3,0,1.308405e+00,1.308405e+00
4.960373e+00,6.575890e-01,6.351471e-01,3,0,3.130695e+00,3.130700e+00
4.950809e+00,6.652490e-01,6.420612e-01,3,0,1.381694e+00,1.381693e+00
4.955247e+00,6.658890e-01,6.430149e-01,3,0,1.121470e+00,1.121472e+00
4.943055e+00,6.598810e-01,6.370544e-01,3,0,1.657014e+00,1.657015e+00
4.941130e+00,6.591820e-01,6.358624e-01,3,0,3.330748e+00,3.330751e+00
4.944016e+00,6.656000e-01,6.427765e-01,3,0,3.447650e+00,3.447651e+00
4.940088e+00,6.644720e-01,6.420612e-01,3,0,2.662381e+00,2.662382e+00
4.945264e+00,1.979059e+00,1.955986e+00,3,1,7.263610e+00,7.264751e+00
4.969035e+00,1.780106e+00,1.745939e+00,3,1,4.569773e+00,4.569772e+00
5.000291e+00,6.597260e-01,6.370544e-01,3,0,4.104831e+00,4.104832e+00
5.079977e+00,6.861060e-01,6.639957e-01,3,0,3.809421e+00,3.809421e+00
5.047533e+00,6.912970e-01,6.680489e-01,3,0,4.491467e+00,4.491468e+00
5.069433e+00,6.928790e-01,6.589890e-01,3,0,6.503200e+00,6.502660e+00
6.620421e+00,6.905470e-01,6.680489e-01,4,0,4.049552e+00,4.049552e+00
4.945423e+00,6.593610e-01,6.370544e-01,3,0,5.247799e+00,5.247803e+00
4.942709e+00,6.641950e-01,6.411076e-01,3,0,3.524312e+00,3.524312e+00
4.939537e+00,6.643760e-01,6.418228e-01,3,0,4.547075e+00,4.547078e+00
4.944464e+00,6.642570e-01,6.420612e-01,3,0,3.293821e+00,3.293821e+00
4.941944e+00,6.588800e-01,6.370544e-01,3,0,3.026280e+00,3.026281e+00
4.943698e+00,6.647210e-01,6.420612e-01,3,0,2.254134e+00,2.254135e+00
4.940651e+00,6.647190e-01,6.420612e-01,3,0,2.280395e+00,2.280396e+00
4.940717e+00,6.664870e-01,6.430149e-01,3,0,2.544697e+00,2.544698e+00
4.942192e+00,6.591440e-01,6.368160e-01,3,0,2.115857e+00,2.115858e+00
4.940181e+00,6.653700e-01,6.430149e-01,3,0,1.795044e+00,1.795044e+00
4.967968e+00,6.650570e-01,6.430149e-01,3,0,2.804602e+00,2.804605e+00
4.943139e+00,6.649700e-01,6.420612e-01,3,0,3.812182e+00,3.812184e+00
4.941845e+00,6.598390e-01,6.370544e-01,3,0,3.208378e+00,3.208378e+00
4.944579e+00,6.653420e-01,6.430149e-01,3,0,2.346313e+00,2.346315e+00
4.942168e+00,6.646440e-01,6.420612e-01,3,0,1.794599e+00,1.794600e+00
4.940901e+00,6.663250e-01,6.439686e-01,3,0,1.958814e+00,1.958816e+00
4.940384e+00,6.591240e-01,6.368160e-01,3,0,2.004368e+00,2.004370e+00
4.940856e+00,6.653460e-01,6.430149e-01,3,0,2.112539e+00,2.112540e+00
4.942005e+00,6.667470e-01,6.442070e-01,3,0,2.936677e+00,2.936679e+00
4.943311e+00,6.642180e-01,6.420612e-01,3,0,3.472323e+00,3.472326e+00
4.942050e+00,6.598410e-01,6.380081e-01,3,0,2.782373e+00,2.782374e+00
4.943577e+00,6.662600e-01,6.430149e-01,3,0,2.377438e+00,2.377439e+00
4.944748e+00,6.647580e-01,6.430149e-01,3,0,2.048681e+00,2.048682e+00
4.942197e+00,6.593560e-01,6.370544e-01,3,0,1.786065e+00,1.786066e+00
4.945073e+00,6.594680e-01,6.370544e-01,3,0,1.570074e+00,1.570075e+00
4.943502e+00,6.656960e-01,6.439686e-01,3,0,1.168783e+00,1.168784e+00
4.939834e+00,6.659420e-01,6.439686e-01,3,0,1.308179e+00,1.308180e+00
4.939271e+00,6.592860e-01,6.368160e-01,3,0,1.061894e+00,1.061895e+00
4.982306e+00,6.590080e-01,6.370544e-01,3,0,1.255893e+00,1.255895e+00
4.949420e+00,6.676550e-01,6.449223e-01,3,0,1.248379e+00,1.248380e+00
4.951174e+00,6.664230e-01,6.439686e-01,3,0,1.432944e+00,1.432945e+00
4.963235e+00,6.660980e-01,6.370544e-01,3,0,2.878802e+00,2.878805e+00
4.941141e+00,6.608640e-01,6.389618e-01,3,0,3.331977e+00,3.331978e+00
4.943313e+00,6.655670e-01,6.430149e-01,3,0,2.624033e+00,2.624033e+00
4.950551e+00,6.642170e-01,6.420612e-01,3,0,1.375684e+00,1.375684e+00
4.941312e+00,6.747390e-01,6.520748e-01,3,0,1.457420e+00,1.457421e+00
4.943351e+00,6.596430e-01,6.370544e-01,3,0,1.310306e+00,1.310306e+00
4.943412e+00,6.658290e-01,6.439686e-01,3,0,1.500300e+00,1.500301e+00
4.965626e+00,6.648190e-01,6.430149e-01,3,0,2.819921e+00,2.819924e+00
4.942716e+00,6.645650e-01,6.420612e-01,3,0,2.099121e+00,2.099121e+00
4.947131e+00,6.644410e-01,6.420612e-01,3,0,1.706444e+00,1.706444e+00
4.944932e+00,6.661000e-01,6.439686e-01,3,0,1.898902e+00,1.898903e+00
4.940293e+00,6.644950e-01,6.418228e-01,3,0,3.354564e+00,3.354568e+00
4.939829e+00,6.660310e-01,6.430149e-01,3,0,4.714819e+00,4.714822e+00
4.940691e+00,6.594290e-01,6.368160e-01,3,0,6.450311e+00,6.450316e+00
4.966981e+00,6.660870e-01,6.442070e-01,3,0,8.813718e+00,8.813724e+00
4.942425e+00,6.657230e-01,6.430149e-01,3,0,9.852116e+00,9.852120e+00
4.947456e+00,6.656950e-01,6.370544e-01,3,0,1.001360e+01,1.001360e+01
4.943422e+00,6.588370e-01,6.368160e-01,3,0,9.493874e+00,9.493876e+00
4.941270e+00,6.652060e-01,6.430149e-01,3,0,7.787535e+00,7.787535e+00
4.940144e+00,6.660400e-01,6.439686e-01,3,0,7.116326e+00,7.116328e+00
4.940324e+00,6.587750e-01,6.361008e-01,3,0,5.481272e+00,5.481272e+00
4.939442e+00,6.582360e-01,6.358624e-01,3,0,5.087804e+00,5.087806e+00
4.983288e+00,1.893583e+00,1.871109e+00,3,1,5.197935e+00,5.204258e+00
4.945319e+00,1.756486e+00,1.733065e+00,3,1,3.940880e+00,3.940881e+00
4.946483e+00,6.650560e-01,6.420612e-01,3,0,3.936575e+00,3.936578e+00
4.939587e+00,6.646260e-01,6.420612e-01,3,0,3.002809e+00,3.002809e+00
4.940698e+00,6.588440e-01,6.370544e-01,3,0,3.809633e+00,3.809635e+00
4.940408e+00,6.648340e-01,6.430149e-01,3,0,2.022188e+00,2.022188e+00
4.942019e+00,6.652020e-01,6.430149e-01,3,0,2.913278e+00,2.913280e+00
6.594670e+00,1.245845e+01,1.243591e+01,4,10,1.003994e+01,1.010227e+01
9.869853e+00,9.052853e+00,9.029865e+00,6,8,5.362225e+00,5.317402e+00
6.581451e+00,2.414498e+00,2.392054e+00,4,2,5.893421e+00,5.893010e+00
4.944866e+00,6.649130e-01,6.420612e-01,3,0,9.593278e+00,9.592300e+00
6.590972e+00,6.652700e-01,6.430149e-01,4,0,6.059718e+00,6.059718e+00
4.941025e+00,6.654550e-01,6.430149e-01,3,0,7.987696e+00,7.987701e+00
4.959792e+00,6.666270e-01,6.439686e-01,3,0,9.723135e+00,9.723140e+00
4.947837e+00,6.659500e-01,6.430149e-01,3,0,5.780759e+00,5.780758e+00
4.957279e+00,6.635920e-01,6.408691e-01,3,0,5.723897e+00,5.723899e+00
5.009268e+00,7.095320e-01,6.830692e-01,3,0,5.487532e+00,5.487533e+00
4.979699e+00,6.943830e-01,6.690025e-01,3,0,4.027069e+00,4.027069e+00
4.942653e+00,6.794000e-01,6.561279e-01,3,0,4.266558e+00,4.266561e+00
4.946787e+00,7.940680e-01,7.719994e-01,3,0,3.977959e+00,3.977961e+00
4.938798e+00,6.624540e-01,6.401539e-01,3,0,3.353688e+00,3.353689e+00
4.940282e+00,6.649750e-01,6.370544e-01,3,0,2.780248e+00,2.780249e+00
4.939875e+00,6.659610e-01,6.430149e-01,3,0,2.870067e+00,2.870068e+00
4.937786e+00,6.651380e-01,6.430149e-01,3,0,3.412686e+00,3.412688e+00
4.939986e+00,6.598430e-01,6.380081e-01,3,0,4.448124e+00,4.448127e+00
4.943734e+00,1.583194e+00,1.559973e+00,3,1,7.357326e+00,7.357179e+00
9.865525e+00,1.539591e+00,1.517057e+00,6,1,6.284875e+00,6.271100e+00
6.588875e+00,6.603250e-01,6.368160e-01,4,0,4.486640e+00,4.486640e+00
4.940449e+00,6.657430e-01,6.430149e-01,3,0,3.435411e+00,3.435411e+00
4.944492e+00,6.592510e-01,6.370544e-01,3,0,3.464958e+00,3.464961e+00
4.937935e+00,6.590090e-01,6.361008e-01,3,0,4.752917e+00,4.752921e+00
4.942110e+00,6.656490e-01,6.430149e-01,3,0,3.707911e+00,3.707912e+00
4.943039e+00,6.667730e-01,6.439686e-01,3,0,3.133065e+00,3.133065e+00
4.944041e+00,6.605080e-01,6.380081e-01,3,0,2.881116e+00,2.881117e+00
4.939330e+00,6.599150e-01,6.380081e-01,3,0,3.018162e+00,3.018164e+00
4.938814e+00,6.660860e-01,6.439686e-01,3,0,2.549996e+00,2.549996e+00
4.942483e+00,6.660750e-01,6.430149e-01,3,0,2.136683e+00,2.136684e+00
4.965962e+00,6.594030e-01,6.370544e-01,3,0,3.197987e+00,3.197990e+00
4.944753e+00,6.597520e-01,6.380081e-01,3,0,4.445228e+00,4.445232e+00
4.944497e+00,6.729680e-01,6.508827e-01,3,0,4.837213e+00,4.837215e+00
4.940741e+00,6.631100e-01,6.408691e-01,3,0,2.706099e+00,2.706099e+00
4.938449e+00,6.596770e-01,6.368160e-01,3,0,3.089356e+00,3.089358e+00
4.944790e+00,6.601610e-01,6.380081e-01,3,0,4.405454e+00,4.405457e+00
4.946532e+00,6.659620e-01,6.430149e-01,3,0,4.012004e+00,4.012004e+00
6.594809e+00,8.278266e+00,8.244991e+00,4,3,1.379441e+01,3.498553e+01
9.873939e+00,4.815660e+00,4.782915e+00,6,0,1.520015e+01,3.989159e+01
9.865417e+00,4.807130e+00,4.775047e+00,6,0,1.785776e+01,5.374718e+01
9.894747e+00,8.244565e+00,8.210897e+00,6,3,1.547345e+01,3.341881e+01
9.884896e+00,4.825925e+00,4.794359e+00,6,0,1.608609e+01,2.756422e+01
9.876052e+00,1.534866e+01,1.531601e+01,6,9,1.501230e+01,2.057909e+01
9.877400e+00,4.764971e+00,4.733086e+00,6,0,2.270157e+01,3.812299e+01
9.876406e+00,1.044116e+01,1.040912e+01,6,5,1.878650e+01,2.076553e+01
8.255015e+00,1.665392e+01,1.662207e+01,5,10,1.823065e+01,1.978769e+01
6.596207e+00,1.013730e+01,1.011395e+01,4,8,1.505908e+01,1.506977e+01
4.973116e+00,7.425870e+00,7.403135e+00,3,6,1.157458e+01,1.157458e+01
4.949575e+00,3.251885e+00,3.229141e+00,3,2,9.166092e+00,9.182578e+00
4.947206e+00,2.847922e+00,2.825022e+00,3,2,8.084087e+00,8.084090e+00
4.949607e+00,4.366681e+00,4.343987e+00,3,3,6.796419e+00,6.809785e+00
4.941572e+00,1.752399e+00,1.729965e+00,3,1,5.387612e+00,5.387613e+00
4.944255e+00,6.650850e-01,6.420612e-01,3,0,5.583389e+00,5.583391e+00
4.957528e+00,5.875254e+00,5.852938e+00,3,4,6.149309e+00,6.156626e+00
4.947539e+00,1.073676e+01,1.071382e+01,3,8,6.278657e+00,6.330321e+00
4.943021e+00,7.441472e+00,7.417917e+00,3,6,5.230962e+00,5.239909e+00
1.153532e+01,2.850455e+00,2.828121e+00,7,2,3.355656e+00,3.353170e+00
6.588651e+00,6.750890e-01,6.518364e-01,4,0,3.344532e+00,3.344524e+00
4.944204e+00,6.660760e-01,6.430149e-01,3,0,2.542205e+00,2.542206e+00
4.944189e+00,6.655940e-01,6.430149e-01,3,0,2.472415e+00,2.472417e+00
4.943463e+00,6.664350e-01,6.439686e-01,3,0,2.185360e+00,2.185361e+00
4.939957e+00,6.596860e-01,6.368160e-01,3,0,3.572242e+00,3.572245e+00
4.957344e+00,6.648100e-01,6.430149e-01,3,0,5.416292e+00,5.416296e+00
4.947589e+00,6.693110e-01,6.468296e-01,3,0,3.304541e+00,3.304540e+00
4.944479e+00,6.657860e-01,6.430149e-01,3,0,3.626157e+00,3.626159e+00
4.949114e+00,6.610760e-01,6.380081e-01,3,0,3.683708e+00,3.683709e+00
4.942572e+00,6.672570e-01,6.449223e-01,3,0,4.172958e+00,4.172960e+00
4.939509e+00,6.649970e-01,6.418228e-01,3,0,3.081554e+00,3.081555e+00
4.941441e+00,6.667960e-01,6.449223e-01,3,0,3.007019e+00,3.007020e+00
4.941135e+00,6.592320e-01,6.370544e-01,3,0,2.674041e+00,2.674042e+00
4.968616e+00,6.663450e-01,6.439686e-01,3,0,2.339558e+00,2.339559e+00
4.939838e+00,6.660380e-01,6.442070e-01,3,0,2.369384e+00,2.369385e+00
4.969129e+00,6.663240e-01,6.430149e-01,3,0,1.822098e+00,1.822098e+00
4.941879e+00,6.607950e-01,6.392002e-01,3,0,2.367740e+00,2.367742e+00
4.939364e+00,6.659300e-01,6.430149e-01,3,0,2.918046e+00,2.918048e+00
4.941757e+00,6.657620e-01,6.430149e-01,3,0,5.556422e+00,5.556427e+00
5.096390e+00,6.956520e-01,6.730556e-01,3,0,7.212429e+00,7.212432e+00
5.092936e+00,7.177790e-01,6.918907e-01,3,0,3.580102e+00,3.580101e+00
5.088952e+00,7.015370e-01,6.768703e-01,3,0,3.017723e+00,3.017724e+00
5.086262e+00,6.970570e-01,6.737709e-01,3,0,2.779622e+00,2.779624e+00
5.096667e+00,6.805560e-01,6.577969e-01,3,0,3.312796e+00,3.312799e+00
5.088768e+00,6.796770e-01,6.558895e-01,3,0,2.260362e+00,2.260363e+00
5.085447e+00,6.841680e-01,6.561279e-01,3,0,3.576510e+00,3.576515e+00
5.088695e+00,6.858380e-01,6.630421e-01,3,0,3.288768e+00,3.288768e+00
5.085948e+00,6.858920e-01,6.630421e-01,3,0,3.651699e+00,3.651700e+00
5.087590e+00,2.036701e+00,2.013206e+00,3,1,5.054969e+00,5.065034e+00
5.088495e+00,3.402037e+00,3.379107e+00,3,2,6.126545e+00,6.190536e+00
5.091685e+00,4.051955e+00,4.027843e+00,3,3,3.315771e+00,3.315764e+00
5.087836e+00,6.862100e-01,6.630421e-01,3,0,3.682037e+00,3.682038e+00
5.089852e+00,6.848390e-01,6.620884e-01,3,0,5.040840e+00,5.040842e+00
5.085956e+00,6.842600e-01,6.608963e-01,3,0,3.079840e+00,3.079839e+00
5.085011e+00,6.862540e-01,6.628036e-01,3,0,2.699084e+00,2.699085e+00
5.085963e+00,6.860620e-01,6.618500e-01,3,0,2.182378e+00,2.182379e+00
5.087023e+00,6.853820e-01,6.618500e-01,3,0,1.888400e+00,1.888401e+00
5.084649e+00,6.849520e-01,6.618500e-01,3,0,2.358937e+00,2.358940e+00
5.087468e+00,6.843820e-01,6.561279e-01,3,0,1.375234e+00,1.375235e+00
5.088558e+00,6.796240e-01,6.558895e-01,3,0,1.515785e+00,1.515786e+00
5.093877e+00,6.782960e-01,6.549358e-01,3,0,1.594014e+00,1.594015e+00
5.091964e+00,1.123012e+01,1.120591e+01,3,8,8.737996e+00,8.783513e+00
1.018891e+01,1.002595e+01,1.000309e+01,6,8,7.678669e+00,7.679781e+00
5.093349e+00,4.528663e+00,4.504919e+00,3,3,7.524340e+00,7.524186e+00
5.104787e+00,1.814907e+00,1.791000e+00,3,1,6.615542e+00,6.615541e+00
5.092954e+00,6.879950e-01,6.649494e-01,3,0,5.855471e+00,5.855471e+00
5.086739e+00,6.855600e-01,6.630421e-01,3,0,4.262507e+00,4.262507e+00
5.085757e+00,6.849680e-01,6.620884e-01,3,0,6.501723e+00,6.501729e+00
5.083925e+00,6.845430e-01,6.608963e-01,3,0,3.558236e+00,3.558235e+00
5.093227e+00,6.844680e-01,6.611347e-01,3,0,2.665110e+00,2.665111e+00
5.087894e+00,6.796810e-01,6.570816e-01,3,0,3.034126e+00,3.034128e+00
5.088807e+00,6.800980e-01,6.558895e-01,3,0,3.442519e+00,3.442521e+00
5.092547e+00,6.796970e-01,6.570816e-01,3,0,3.708675e+00,3.708676e+00
5.089019e+00,6.786120e-01,6.549358e-01,3,0,3.621281e+00,3.621285e+00
5.092809e+00,6.852290e-01,6.620884e-01,3,0,3.134253e+00,3.134254e+00
5.087980e+00,6.852870e-01,6.620884e-01,3,0,6.409537e+00,6.409545e+00
5.087110e+00,6.857040e-01,6.618500e-01,3,0,4.876936e+00,4.876936e+00
5.057573e+00,6.867190e-01,6.630421e-01,3,0,4.784652e+00,4.784653e+00
4.943176e+00,6.661520e-01,6.430149e-01,3,0,6.420256e+00,6.420259e+00
4.942661e+00,6.596860e-01,6.370544e-01,3,0,5.206965e+00,5.206965e+00
4.947525e+00,6.443282e+00,6.419897e+00,3,5,1.079861e+01,1.079339e+01
6.585507e+00,5.872042e+00,5.848885e+00,4,5,7.114887e+00,7.114885e+00
4.945059e+00,6.598570e-01,6.370544e-01,3,0,6.898682e+00,6.898684e+00
4.946949e+00,6.634350e-01,6.408691e-01,3,0,3.868966e+00,3.868965e+00
4.941397e+00,6.660560e-01,6.439686e-01,3,0,4.377286e+00,4.377289e+00
4.943317e+00,3.709084e+00,3.677845e+00,3,0,5.185113e+00,5.814600e+00
4.937871e+00,6.595910e-01,6.370544e-01,3,0,3.051727e+00,3.051727e+00
4.943365e+00,6.655290e-01,6.430149e-01,3,0,3.643529e+00,3.643531e+00
4.943513e+00,6.650620e-01,6.430149e-01,3,0,2.926325e+00,2.926326e+00
4.943146e+00,6.636820e-01,6.408691e-01,3,0,6.474834e+00,6.474841e+00
4.940297e+00,6.601560e-01,6.380081e-01,3,0,6.119511e+00,6.119512e+00
4.939157e+00,6.641860e-01,6.418228e-01,3,0,4.954542e+00,4.954543e+00
4.945365e+00,6.654370e-01,6.430149e-01,3,0,3.723970e+00,3.723971e+00
4.942624e+00,6.650770e-01,6.420612e-01,3,0,3.189957e+00,3.189958e+00
4.940193e+00,6.595460e-01,6.370544e-01,3,0,3.224201e+00,3.224202e+00
4.946193e+00,3.706514e+00,3.675938e+00,3,0,6.198794e+00,8.756830e+00
4.965901e+00,3.713549e+00,3.681898e+00,3,0,6.284636e+00,9.034517e+00
4.946382e+00,3.705091e+00,3.674030e+00,3,0,7.135603e+00,1.452670e+01
4.944528e+00,6.598460e-01,6.368160e-01,3,0,5.504487e+00,5.504483e+00
4.944192e+00,6.593030e-01,6.361008e-01,3,0,5.639805e+00,5.639764e+00
4.969257e+00,6.651350e-01,6.430149e-01,3,0,3.308721e+00,3.308720e+00
4.945213e+00,6.700620e-01,6.468296e-01,3,0,4.457234e+00,4.457237e+00
4.954336e+00,6.610350e-01,6.377697e-01,3,0,5.513128e+00,5.513132e+00
4.943587e+00,6.599620e-01,6.370544e-01,3,0,3.875990e+00,3.875992e+00
4.944396e+00,6.647420e-01,6.420612e-01,3,0,2.685055e+00,2.685055e+00
4.938778e+00,1.576353e+00,1.553059e+00,3,1,6.384886e+00,6.384672e+00
6.702530e+00,1.534173e+00,1.512051e+00,4,1,4.288081e+00,4.288079e+00
4.968723e+00,6.670420e-01,6.449223e-01,3,0,3.760328e+00,3.760329e+00
4.941969e+00,6.662610e-01,6.430149e-01,3,0,2.664416e+00,2.664416e+00
4.943715e+00,6.593710e-01,6.370544e-01,3,0,5.360102e+00,5.360107e+00
4.943664e+00,6.645940e-01,6.420612e-01,3,0,2.240004e+00,2.240004e+00
4.943755e+00,6.667010e-01,6.439686e-01,3,0,1.735422e+00,1.735422e+00
4.943844e+00,6.653830e-01,6.418228e-01,3,0,1.440173e+00,1.440173e+00
4.942362e+00,6.602560e-01,6.380081e-01,3,0,1.715513e+00,1.715515e+00
4.942689e+00,6.668890e-01,6.439686e-01,3,0,1.642398e+00,1.642398e+00
4.948703e+00,6.650580e-01,6.420612e-01,3,0,2.812632e+00,2.812636e+00
4.946729e+00,6.668040e-01,6.439686e-01,3,0,2.552881e+00,2.552882e+00
4.943476e+00,6.590830e-01,6.368160e-01,3,0,5.059254e+00,5.059260e+00
4.941342e+00,6.651710e-01,6.430149e-01,3,0,2.860210e+00,2.860210e+00
4.940893e+00,1.576808e+00,1.554012e+00,3,1,7.010625e+00,7.010322e+00
9.872552e+00,1.934835e+00,1.912117e+00,6,1,6.791014e+00,6.773604e+00
8.228442e+00,2.619627e+00,2.597094e+00,5,2,5.817914e+00,5.813601e+00
6.591674e+00,6.603130e-01,6.380081e-01,4,0,4.156293e+00,4.156293e+00
4.943273e+00,6.650370e-01,6.420612e-01,3,0,4.325814e+00,4.325816e+00
4.945147e+00,6.596020e-01,6.368160e-01,3,0,3.076896e+00,3.076896e+00
4.939916e+00,6.597170e-01,6.370544e-01,3,0,2.717436e+00,2.717436e+00
4.938757e+00,6.655510e-01,6.430149e-01,3,0,2.885260e+00,2.885261e+00
4.942509e+00,6.644370e-01,6.420612e-01,3,0,3.564772e+00,3.564774e+00
4.937540e+00,6.604160e-01,6.380081e-01,3,0,3.172507e+00,3.172507e+00
4.939207e+00,6.597010e-01,6.368160e-01,3,0,2.183292e+00,2.183292e+00
4.939198e+00,6.647710e-01,6.430149e-01,3,0,1.947878e+00,1.947880e+00
4.941306e+00,6.640990e-01,6.420612e-01,3,0,2.237449e+00,2.237453e+00
4.937159e+00,6.594960e-01,6.370544e-01,3,0,1.717072e+00,1.717072e+00
4.942402e+00,6.640590e-01,6.361008e-01,3,0,3.765432e+00,3.765436e+00
4.940381e+00,6.656600e-01,6.439686e-01,3,0,3.099330e+00,3.099331e+00
4.943005e+00,6.647210e-01,6.430149e-01,3,0,3.858038e+00,3.858040e+00
4.939379e+00,6.588770e-01,6.368160e-01,3,0,2.186672e+00,2.186672e+00
4.941579e+00,6.647330e-01,6.430149e-01,3,0,4.143275e+00,4.143280e+00
4.940864e+00,6.649120e-01,6.420612e-01,3,0,2.587187e+00,2.587186e+00
4.944173e+00,6.645410e-01,6.418228e-01,3,0,6.197067e+00,6.197075e+00
4.961227e+00,3.103670e+00,3.081083e+00,3,2,7.757057e+00,7.758425e+00
8.241540e+00,2.856126e+00,2.832890e+00,5,2,5.463759e+00,5.462738e+00
6.620126e+00,4.006022e+00,3.983021e+00,4,3,7.457742e+00,7.462112e+00
1.150265e+01,2.614605e+00,2.590895e+00,7,2,6.403926e+00,6.388235e+00
9.861290e+00,1.963418e+00,1.940966e+00,6,1,8.149558e+00,8.129914e+00
6.588140e+00,4.151182e+00,4.128218e+00,4,3,8.218184e+00,8.219845e+00
4.946809e+00,3.060943e+00,3.037930e+00,3,2,7.480015e+00,7.480064e+00
4.946358e+00,1.759597e+00,1.735926e+00,3,1,6.579341e+00,6.579342e+00
4.944112e+00,6.809040e-01,6.580353e-01,3,0,5.035936e+00,5.035936e+00
4.937045e+00,6.598780e-01,6.380081e-01,3,0,4.074787e+00,4.074787e+00
4.942133e+00,6.652530e-01,6.380081e-01,3,0,3.997401e+00,3.997402e+00
4.949528e+00,3.289765e+00,3.267050e+00,3,2,4.865809e+00,4.881660e+00
4.943142e+00,2.841979e+00,2.818823e+00,3,2,4.285348e+00,4.285348e+00
4.946383e+00,6.590480e-01,6.361008e-01,3,0,2.258973e+00,2.258973e+00
4.948478e+00,6.646520e-01,6.420612e-01,3,0,3.060895e+00,3.060898e+00
4.943395e+00,6.670810e-01,6.439686e-01,3,0,2.657925e+00,2.657926e+00
4.941414e+00,6.598770e-01,6.380081e-01,3,0,1.557678e+00,1.557677e+00
4.939758e+00,6.594870e-01,6.370544e-01,3,0,2.603607e+00,2.603610e+00
4.943577e+00,6.657080e-01,6.430149e-01,3,0,1.790370e+00,1.790370e+00
4.943634e+00,6.740320e-01,6.508827e-01,3,0,9.990321e-01,9.990334e-01
4.934757e+00,6.601420e-01,6.370544e-01,3,0,1.323156e+00,1.323157e+00
4.945305e+00,6.607580e-01,6.380081e-01,3,0,9.461481e-01,9.461485e-01
4.940694e+00,6.659100e-01,6.430149e-01,3,0,1.086607e+00,1.086609e+00
4.940928e+00,6.654970e-01,6.430149e-01,3,0,1.690864e+00,1.690866e+00
4.936454e+00,6.597710e-01,6.380081e-01,3,0,3.059791e+00,3.059794e+00
4.940899e+00,6.659640e-01,6.380081e-01,3,0,3.379421e+00,3.379423e+00
4.945140e+00,6.648880e-01,6.430149e-01,3,0,1.610053e+00,1.610053e+00
4.934807e+00,6.655380e-01,6.430149e-01,3,0,2.596165e+00,2.596168e+00
4.936782e+00,6.591280e-01,6.370544e-01,3,0,1.487242e+00,1.487242e+00
4.967591e+00,6.655860e-01,6.430149e-01,3,0,2.506489e+00,2.506491e+00
4.952941e+00,6.673930e-01,6.449223e-01,3,0,2.281215e+00,2.281215e+00
4.939423e+00,6.658910e-01,6.439686e-01,3,0,1.581580e+00,1.581580e+00
4.965418e+00,6.609220e-01,6.389618e-01,3,0,1.388151e+00,1.388151e+00
4.946206e+00,6.745480e-01,6.470680e-01,3,0,2.149141e+00,2.149143e+00
4.940836e+00,6.660350e-01,6.439686e-01,3,0,2.224817e+00,2.224818e+00
4.943504e+00,6.656980e-01,6.430149e-01,3,0,2.003750e+00,2.003751e+00
4.936116e+00,6.596520e-01,6.370544e-01,3,0,1.484903e+00,1.484904e+00
4.963151e+00,6.646090e-01,6.370544e-01,3,0,1.971690e+00,1.971693e+00
4.944798e+00,6.681970e-01,6.461143e-01,3,0,1.271237e+00,1.271237e+00
4.954192e+00,6.672920e-01,6.449223e-01,3,0,2.315716e+00,2.315719e+00
4.933994e+00,6.609510e-01,6.380081e-01,3,0,1.199540e+00,1.199540e+00
4.947962e+00,6.604220e-01,6.380081e-01,3,0,2.155569e+00,2.155571e+00
4.945676e+00,7.364540e-01,7.119179e-01,3,0,2.414506e+00,2.414507e+00
4.979102e+00,6.866560e-01,6.639957e-01,3,0,3.024459e+00,3.024461e+00
4.946052e+00,6.822250e-01,6.580353e-01,3,0,3.230476e+00,3.230478e+00
4.941907e+00,6.612370e-01,6.389618e-01,3,0,3.368582e+00,3.368584e+00
4.941880e+00,6.649390e-01,6.430149e-01,3,0,3.232343e+00,3.232344e+00
4.943937e+00,6.949280e-01,6.718636e-01,3,0,3.655347e+00,3.655349e+00
4.943511e+00,6.667940e-01,6.439686e-01,3,0,2.275008e+00,2.275008e+00
4.945226e+00,6.591160e-01,6.370544e-01,3,0,5.522520e+00,5.522527e+00
4.943979e+00,6.654880e-01,6.430149e-01,3,0,3.743935e+00,3.743934e+00
4.944699e+00,6.651630e-01,6.430149e-01,3,0,2.485252e+00,2.485252e+00
4.940369e+00,6.664980e-01,6.442070e-01,3,0,2.052065e+00,2.052066e+00
4.940695e+00,6.605650e-01,6.380081e-01,3,0,2.058305e+00,2.058306e+00
4.940975e+00,6.656770e-01,6.430149e-01,3,0,1.744116e+00,1.744117e+00
4.943802e+00,6.651830e-01,6.430149e-01,3,0,9.332108e-01,9.332108e-01
4.938953e+00,6.659880e-01,6.430149e-01,3,0,1.048668e+00,1.048669e+00
4.941944e+00,6.597010e-01,6.368160e-01,3,0,1.434875e+00,1.434877e+00
4.942261e+00,6.660230e-01,6.439686e-01,3,0,1.276973e+00,1.276974e+00
4.940833e+00,6.656130e-01,6.430149e-01,3,0,2.788556e+00,2.788560e+00
4.941614e+00,6.653540e-01,6.430149e-01,3,0,4.245452e+00,4.245455e+00
4.942185e+00,6.597810e-01,6.370544e-01,3,0,6.061033e+00,6.061037e+00
4.952187e+00,1.896301e+00,1.873970e+00,3,1,8.669647e+00,8.691619e+00
6.581871e+00,6.129844e+00,6.097794e+00,4,1,1.229261e+01,2.014889e+01
1.151894e+01,9.074589e+00,9.052038e+00,7,7,9.157638e+00,9.272198e+00
9.874859e+00,5.879177e+00,5.855799e+00,6,5,5.564736e+00,5.503199e+00
9.867213e+00,2.843993e+00,2.820969e+00,6,2,6.398723e+00,6.387519e+00
9.872764e+00,1.747408e+00,1.724958e+00,6,1,5.297633e+00,5.277915e+00
6.588706e+00,1.542199e+00,1.518965e+00,4,1,4.532464e+00,4.532465e+00
4.944459e+00,6.610580e-01,6.389618e-01,3,0,4.598216e+00,4.598218e+00
4.945491e+00,6.665720e-01,6.439686e-01,3,0,4.966505e+00,4.966507e+00
4.942931e+00,6.658390e-01,6.430149e-01,3,0,4.478584e+00,4.478586e+00

