1.541868e+00,3.377950e+01,3.324103e+01,2,49,0.000000e+00,9.094947e-13,1
2.242055e+00,7.094120e-01,6.840229e-01,3,0,6.499147e-01,6.499162e-01,1
2.245054e+00,6.828990e-01,6.659031e-01,3,0,7.956163e-01,7.956171e-01,1
2.252989e+00,6.814660e-01,6.659031e-01,3,0,4.554839e+00,4.554849e+00,1
2.240706e+00,6.845160e-01,6.690025e-01,3,0,5.529573e+00,5.529575e+00,1
2.240101e+00,6.825000e-01,6.670952e-01,3,0,2.391730e+00,2.391723e+00,1
2.240650e+00,6.826620e-01,6.670952e-01,3,0,5.333189e+00,5.333200e+00,1
2.246573e+00,5.652424e+00,5.626678e+00,3,6,1.246881e+01,1.273417e+01,0
4.474106e+00,2.384495e+00,2.361059e+00,6,0,1.686338e+01,1.942759e+01,0
4.468947e+00,3.679322e+00,3.664017e+00,6,5,1.400958e+01,1.406674e+01,1
2.987590e+00,3.591929e+00,3.575087e+00,4,5,1.408870e+01,1.411371e+01,1
2.987375e+00,3.619904e+00,3.598690e+00,4,2,2.032495e+01,2.330005e+01,0
2.993499e+00,5.911762e+00,5.895138e+00,4,9,1.259704e+01,1.265372e+01,1
2.243215e+00,2.698814e+00,2.682209e+00,3,3,1.382238e+01,1.388348e+01,1
2.241845e+00,3.124908e+00,3.108025e+00,3,4,1.211816e+01,1.220997e+01,1
2.247095e+00,4.875508e+00,4.861116e+00,3,7,9.149540e+00,9.161276e+00,1
2.242171e+00,3.006181e+00,2.988100e+00,3,4,8.075626e+00,8.115424e+00,1
2.242406e+00,2.048683e+00,2.033949e+00,3,2,7.942129e+00,7.958789e+00,1
2.246278e+00,9.608822e+00,9.585142e+00,3,12,7.487444e+00,1.113078e+01,0
2.245603e+00,6.689531e+00,6.674051e+00,3,10,6.007562e+00,6.020455e+00,1
2.242308e+00,4.611189e+00,4.595041e+00,3,7,4.757514e+00,4.761506e+00,1
2.240598e+00,8.395140e-01,8.239746e-01,3,0,5.069449e+00,5.072222e+00,1
2.242290e+00,3.253677e+00,3.237724e+00,3,4,7.695154e+00,7.772325e+00,1
2.241567e+00,2.777437e+00,2.761841e+00,3,3,5.851214e+00,5.853680e+00,1
2.242792e+00,3.003220e+00,2.987146e+00,3,4,6.027651e+00,6.027714e+00,1
2.237040e+00,2.235076e+00,2.219200e+00,3,2,5.952605e+00,5.964941e+00,1
2.242052e+00,2.133811e+00,2.119064e+00,3,2,5.962199e+00,5.963497e+00,1
2.246388e+00,2.026506e+00,2.012014e+00,3,2,6.515605e+00,6.525360e+00,1
2.238166e+00,1.224167e+00,1.207829e+00,3,1,4.208152e+00,4.208148e+00,1
2.238669e+00,6.867980e-01,6.721020e-01,3,0,3.396426e+00,3.396426e+00,1
2.245690e+00,1.389234e+00,1.374006e+00,3,1,3.339649e+00,3.340597e+00,1
2.238724e+00,2.027585e+00,2.012968e+00,3,2,3.426686e+00,3.427477e+00,1
2.243239e+00,7.949323e+00,7.926941e+00,3,9,6.451454e+00,7.527407e+00,0
2.988518e+00,6.217650e+00,6.200790e+00,4,10,2.707217e+00,2.707216e+00,1
2.241688e+00,2.023387e+00,2.006054e+00,3,2,4.453203e+00,4.466306e+00,1
2.243892e+00,2.789153e+00,2.774000e+00,3,3,4.485407e+00,4.518931e+00,1
2.252542e+00,2.019944e+00,2.003193e+00,3,2,3.603567e+00,3.881068e+00,1
2.252641e+00,8.308620e-01,8.158684e-01,3,0,2.425182e+00,2.520086e+00,1
2.239939e+00,2.226376e+00,2.210855e+00,3,2,5.419437e+00,5.501857e+00,1
2.241058e+00,2.676940e+00,2.660990e+00,3,3,5.430475e+00,5.433180e+00,1
2.239991e+00,1.228980e+00,1.212120e+00,3,1,4.550808e+00,4.550809e+00,1
2.239261e+00,6.848480e-01,6.690025e-01,3,0,3.320043e+00,3.320045e+00,1
2.237760e+00,6.838430e-01,6.680489e-01,3,0,2.665818e+00,2.665819e+00,1
2.240210e+00,6.902990e-01,6.749630e-01,3,0,3.531948e+00,3.531953e+00,1
2.241141e+00,1.150260e+00,1.134157e+00,3,1,8.027641e+00,8.026802e+00,1
2.988427e+00,2.935844e+00,2.918959e+00,4,4,5.893200e+00,5.895189e+00,1
3.006845e+00,2.309368e+00,2.291679e+00,4,3,4.457891e+00,4.457892e+00,1
2.248754e+00,3.867762e+00,3.850937e+00,3,5,5.239231e+00,5.246007e+00,1
2.245613e+00,8.016090e+00,8.000135e+00,3,12,6.439721e+00,6.498287e+00,1
2.248205e+00,6.133932e+00,6.115913e+00,3,9,3.104598e+00,3.131191e+00,1
2.247111e+00,1.587781e+00,1.569986e+00,3,1,4.119890e+00,4.430284e+00,1
3.729849e+00,1.375786e+00,1.359940e+00,5,1,3.198933e+00,3.282658e+00,1
2.985727e+00,1.225854e+00,1.209974e+00,4,1,1.716543e+00,1.716543e+00,1
2.237448e+00,6.930640e-01,6.759167e-01,3,0,1.273914e+00,1.273914e+00,1
2.240345e+00,7.020260e-01,6.849766e-01,3,0,1.358530e+00,1.358533e+00,1
2.238072e+00,6.875200e-01,6.711483e-01,3,0,1.596316e+00,1.596317e+00,1
2.240441e+00,1.385248e+00,1.369238e+00,3,1,2.573131e+00,2.580974e+00,1
2.238378e+00,8.368860e-01,8.211136e-01,3,0,3.097826e+00,3.175318e+00,1
2.245216e+00,1.221394e+00,1.206160e+00,3,1,1.702360e+00,1.702360e+00,1
2.244656e+00,6.784730e-01,6.630421e-01,3,0,1.605653e+00,1.605654e+00,1
2.242910e+00,6.786530e-01,6.630421e-01,3,0,1.560947e+00,1.560947e+00,1
2.241754e+00,6.766650e-01,6.608963e-01,3,0,1.400957e+00,1.400958e+00,1
2.243934e+00,6.777030e-01,6.608963e-01,3,0,9.938400e-01,9.938409e-01,1
2.246251e+00,6.773440e-01,6.620884e-01,3,0,8.472653e-01,8.472658e-01,1
2.244655e+00,6.775430e-01,6.618500e-01,3,0,2.721332e+00,2.721338e+00,1
2.241586e+00,3.382672e+00,3.367901e+00,3,4,7.293733e+00,7.394641e+00,1
2.258221e+00,2.559630e+00,2.542019e+00,3,3,4.431462e+00,4.468360e+00,1
2.251709e+00,1.803551e+00,1.782656e+00,3,2,3.577783e+00,3.577784e+00,1
2.243544e+00,7.354080e-01,7.150173e-01,3,0,4.101793e+00,4.101800e+00,1
2.241280e+00,6.885120e-01,6.730556e-01,3,0,2.490684e+00,2.490683e+00,1
2.242396e+00,6.862370e-01,6.639957e-01,3,0,3.749516e+00,3.749521e+00,1
2.241859e+00,2.006290e+00,1.991987e+00,3,2,5.699441e+00,5.699883e+00,1
2.239948e+00,1.765666e+00,1.751184e+00,3,2,2.735234e+00,2.735219e+00,1
2.239289e+00,6.845690e-01,6.690025e-01,3,0,2.616352e+00,2.616344e+00,1
2.239370e+00,6.833370e-01,6.668568e-01,3,0,1.864302e+00,1.864304e+00,1
2.238110e+00,6.834710e-01,6.678104e-01,3,0,1.609027e+00,1.609027e+00,1
2.240122e+00,6.866980e-01,6.709099e-01,3,0,1.709986e+00,1.709987e+00,1
2.239864e+00,6.917810e-01,6.771088e-01,3,0,3.338149e+00,3.338153e+00,1
2.244897e+00,1.388523e+00,1.371861e+00,3,1,2.359680e+00,2.364622e+00,1
2.240601e+00,1.223758e+00,1.209021e+00,3,1,1.917473e+00,1.917473e+00,1
2.237657e+00,6.857200e-01,6.711483e-01,3,0,3.239798e+00,3.239803e+00,1
2.239163e+00,6.841030e-01,6.690025e-01,3,0,5.642573e+00,5.642579e+00,1
2.239297e+00,1.387195e+00,1.371145e+00,3,1,5.259748e+00,5.318169e+00,1
2.241690e+00,1.484455e+00,1.468897e+00,3,1,5.877602e+00,5.881119e+00,1
2.250624e+00,2.471549e+00,2.456188e+00,3,3,5.912790e+00,5.913356e+00,1
2.241580e+00,1.475129e+00,1.460075e+00,3,1,8.369969e+00,8.375450e+00,1
2.243028e+00,3.250855e+00,3.234863e+00,3,4,1.092976e+01,1.097287e+01,1
2.242481e+00,2.849287e+00,2.832890e+00,3,4,6.347782e+00,6.347645e+00,1
2.243323e+00,6.869740e-01,6.709099e-01,3,0,7.471825e+00,7.471807e+00,1
2.250498e+00,3.235836e+00,3.219843e+00,3,4,8.100549e+00,8.100679e+00,1
2.988566e+00,3.705561e+00,3.689051e+00,4,5,7.762643e+00,7.764219e+00,1
2.240693e+00,2.567530e+00,2.550840e+00,3,3,5.637920e+00,5.645189e+00,1
2.243098e+00,1.596734e+00,1.580954e+00,3,1,5.231542e+00,5.276612e+00,1
2.239627e+00,2.778223e+00,2.763033e+00,3,3,4.345114e+00,4.454946e+00,1
2.244536e+00,8.391950e-01,8.230209e-01,3,0,3.469414e+00,3.515403e+00,1
2.244430e+00,1.385571e+00,1.369953e+00,3,1,2.496714e+00,2.527491e+00,1
2.239030e+00,1.225753e+00,1.210213e+00,3,1,2.057984e+00,2.057985e+00,1
2.240319e+00,6.793550e-01,6.639957e-01,3,0,1.706993e+00,1.706994e+00,1
2.237684e+00,6.875950e-01,6.699562e-01,3,0,2.099489e+00,2.099491e+00,1
2.240826e+00,6.855140e-01,6.690025e-01,3,0,2.852470e+00,2.852474e+00,1
2.236727e+00,6.853140e-01,6.690025e-01,3,0,1.178900e+00,1.178899e+00,1
2.239908e+00,6.843880e-01,6.680489e-01,3,0,1.327081e+00,1.327082e+00,1
2.241675e+00,6.876360e-01,6.718636e-01,3,0,4.477286e+00,4.477273e+00,1
2.240129e+00,6.878220e-01,6.711483e-01,3,0,2.323114e+00,2.323111e+00,1
2.240808e+00,6.910060e-01,6.740093e-01,3,0,1.742027e+00,1.742027e+00,1
2.238943e+00,6.859570e-01,6.701946e-01,3,0,4.225650e+00,4.225659e+00,1
2.239208e+00,6.850920e-01,6.690025e-01,3,0,3.040430e+00,3.040429e+00,1
2.237494e+00,6.844810e-01,6.680489e-01,3,0,3.200104e+00,3.200109e+00,1
2.242870e+00,2.662766e+00,2.645731e+00,3,3,5.687762e+00,5.692370e+00,1
3.021368e+00,7.334334e+00,7.318020e+00,4,11,8.410856e+00,8.552524e+00,1
3.007741e+00,1.292475e+01,1.290607e+01,4,21,9.986766e+00,1.021946e+01,1
4.491989e+00,2.394846e+00,2.371788e+00,6,0,1.545964e+01,2.422607e+01,0
3.738598e+00,1.148460e+01,1.146698e+01,5,19,9.842869e+00,9.971422e+00,1
2.988815e+00,5.717322e+00,5.701065e+00,4,9,6.055565e+00,6.055765e+00,1
2.241898e+00,1.250445e+00,1.234055e+00,3,1,4.578306e+00,4.578306e+00,1
2.244430e+00,3.788287e+00,3.772259e+00,3,5,8.495863e+00,8.524781e+00,1
2.992459e+00,4.267550e+00,4.249811e+00,4,6,1.010046e+01,1.012850e+01,1
3.738197e+00,4.948240e+00,4.932165e+00,5,7,1.390769e+01,1.394237e+01,1
2.252783e+00,9.182542e+00,9.164095e+00,3,14,1.449782e+01,1.468401e+01,1
2.248451e+00,6.982455e+00,6.966114e+00,3,11,1.019566e+01,1.019809e+01,1
2.245238e+00,8.850190e-01,8.659363e-01,3,0,7.951223e+00,7.952717e+00,1
2.244309e+00,1.271371e+00,1.255035e+00,3,1,6.667438e+00,6.667438e+00,1
2.244155e+00,6.997600e-01,6.840229e-01,3,0,5.765625e+00,5.765626e+00,1
2.240382e+00,6.999750e-01,6.830692e-01,3,0,4.953338e+00,4.953340e+00,1
2.240602e+00,7.029090e-01,6.849766e-01,3,0,4.522331e+00,4.522332e+00,1
2.994564e+00,4.171826e+00,4.148483e+00,4,3,9.657169e+00,2.359204e+01,0
4.471131e+00,2.429924e+00,2.407312e+00,6,0,1.906207e+01,5.104226e+01,0
4.476916e+00,2.428976e+00,2.406359e+00,6,0,2.174124e+01,5.146951e+01,0
4.467364e+00,2.426036e+00,2.401829e+00,6,0,2.628210e+01,5.873321e+01,0
4.472935e+00,5.338357e+00,5.316257e+00,6,5,1.755567e+01,2.669655e+01,0
4.473661e+00,2.440871e+00,2.418995e+00,6,0,2.142775e+01,3.060301e+01,0
4.470689e+00,2.442790e+00,2.419949e+00,6,0,2.914821e+01,4.040728e+01,0
4.472346e+00,3.537886e+00,3.514290e+00,6,2,2.456241e+01,2.471420e+01,0
4.478301e+00,4.162866e+00,4.137754e+00,6,4,1.954273e+01,2.072061e+01,0
2.993392e+00,8.812424e+00,8.789778e+00,4,11,1.146658e+01,1.561589e+01,0
2.248557e+00,7.819290e+00,7.802963e+00,3,12,9.600596e+00,9.723365e+00,1
2.247611e+00,5.470859e+00,5.454063e+00,3,8,7.309508e+00,7.359203e+00,1
2.245093e+00,3.214476e+00,3.198147e+00,3,4,6.278449e+00,6.365758e+00,1
2.242968e+00,2.468971e+00,2.453089e+00,3,3,4.778618e+00,4.778637e+00,1
2.247471e+00,2.127842e+00,2.112865e+00,3,2,3.892656e+00,3.893712e+00,1
2.241395e+00,2.314420e+00,2.296686e+00,3,3,2.659014e+00,2.659016e+00,1
2.241485e+00,6.875300e-01,6.711483e-01,3,0,6.160887e+00,6.160899e+00,1
2.270081e+00,1.392802e+00,1.376152e+00,3,1,8.024999e+00,8.032926e+00,1
2.242546e+00,1.601345e+00,1.584768e+00,3,1,7.644922e+00,7.646403e+00,1
2.250483e+00,4.413734e+00,4.396915e+00,3,6,1.329255e+01,1.330792e+01,1
4.492550e+00,6.413716e+00,6.390810e+00,6,7,1.451573e+01,1.702213e+01,0
3.745755e+00,3.689193e+00,3.671885e+00,5,5,1.326335e+01,1.323476e+01,1
2.987545e+00,4.807188e+00,4.790068e+00,4,7,9.253187e+00,9.284995e+00,1
2.248163e+00,1.047402e+01,1.045609e+01,3,16,7.547353e+00,7.846655e+00,1
2.245567e+00,1.028248e+01,1.026607e+01,3,16,7.802431e+00,9.186647e+00,1
2.252690e+00,2.038402e+01,2.036691e+01,3,34,8.529585e+00,1.143418e+01,1
2.985575e+00,2.388165e+00,2.365112e+00,4,0,9.676027e+00,1.841265e+01,0
4.479079e+00,1.302027e+01,1.299810e+01,6,19,9.390428e+00,1.905985e+01,0
3.728620e+00,2.360235e+00,2.337694e+00,5,0,1.897559e+01,4.828638e+01,0
4.474278e+00,2.352565e+00,2.329826e+00,6,0,2.308700e+01,4.626321e+01,0
4.474677e+00,2.353141e+00,2.332926e+00,6,0,2.231657e+01,2.959173e+01,0
4.484497e+00,2.926298e+01,2.924109e+01,6,48,1.676314e+01,1.876242e+01,0
2.996955e+00,8.927761e+00,8.909941e+00,4,14,1.511065e+01,1.521028e+01,1
2.245407e+00,5.973420e+00,5.954742e+00,3,9,1.484194e+01,1.493451e+01,1
2.248163e+00,9.205261e+00,9.183168e+00,3,11,2.267198e+01,3.116465e+01,0
2.991769e+00,1.158071e+01,1.156306e+01,4,19,1.408110e+01,1.413702e+01,1
2.243673e+00,4.300180e+00,4.282951e+00,3,6,1.281697e+01,1.289062e+01,1
2.248083e+00,4.070480e+00,4.046679e+00,3,3,1.053378e+01,1.407071e+01,0
2.243217e+00,2.435455e+00,2.408981e+00,3,0,1.182073e+01,3.322887e+01,0
4.474748e+00,3.516570e+00,3.495693e+00,6,2,1.232889e+01,4.135166e+01,0
4.481700e+00,3.722594e+00,3.699780e+00,6,2,1.058737e+01,3.561808e+01,0
4.476542e+00,4.826788e+00,4.804134e+00,6,4,8.256177e+00,1.996159e+01,0
2.994694e+00,3.988451e+00,3.972054e+00,4,6,5.121931e+00,5.119469e+00,1
3.000592e+00,1.162494e+00,1.145124e+00,4,1,3.947832e+00,3.947832e+00,1
2.261030e+00,2.005516e+00,1.986027e+00,3,2,3.233841e+00,3.239134e+00,1
2.255034e+00,8.642380e-01,8.471012e-01,3,0,2.930691e+00,2.941229e+00,1
2.261802e+00,2.836905e+00,2.819061e+00,3,3,7.409518e+00,7.465134e+00,1
2.995264e+00,2.726939e+00,2.707958e+00,4,3,5.266921e+00,5.331453e+00,1
2.245755e+00,2.130470e+00,2.113819e+00,3,2,7.592293e+00,7.694337e+00,1
2.244297e+00,2.446896e+00,2.423048e+00,3,0,1.249688e+01,2.344738e+01,0
4.472009e+00,2.435427e+00,2.412081e+00,6,0,1.518557e+01,3.029645e+01,0
4.474731e+00,2.439825e+00,2.418041e+00,6,0,1.733536e+01,3.668798e+01,0
3.728182e+00,5.473086e+00,5.452394e+00,5,5,1.287044e+01,2.289465e+01,0
2.979257e+00,2.966387e+00,2.944231e+00,4,1,1.042027e+01,1.727180e+01,0
2.244596e+00,5.449409e+00,5.421877e+00,3,5,7.873730e+00,8.376458e+00,0
2.242429e+00,2.473499e+00,2.456903e+00,3,3,6.192155e+00,6.206450e+00,1
2.245331e+00,1.231437e+00,1.214981e+00,3,1,4.963476e+00,4.963477e+00,1
2.243615e+00,3.798765e+00,3.782034e+00,3,5,5.676018e+00,5.736621e+00,1
2.248726e+00,2.566922e+00,2.552032e+00,3,3,4.920594e+00,4.944156e+00,1
2.239004e+00,8.388040e-01,8.230209e-01,3,0,4.588540e+00,4.591668e+00,1
2.245116e+00,1.383231e+00,1.368046e+00,3,1,4.558681e+00,4.560368e+00,1
2.241126e+00,2.126108e+00,2.110958e+00,3,2,5.328137e+00,5.346978e+00,1
2.996221e+00,1.638211e+01,1.636100e+01,4,24,1.124538e+01,1.348078e+01,0
4.480273e+00,1.179439e+01,1.177788e+01,6,20,8.751248e+00,8.941028e+00,1
3.733470e+00,5.437386e+00,5.421162e+00,5,8,7.463312e+00,7.530460e+00,1
3.732821e+00,4.304448e+00,4.288197e+00,5,6,7.883438e+00,8.017002e+00,1
4.479592e+00,3.105917e+00,3.090143e+00,6,4,7.219645e+00,7.211205e+00,1
2.991347e+00,4.523003e+00,4.505157e+00,4,6,8.298740e+00,8.309419e+00,1
2.246219e+00,1.782983e+00,1.766205e+00,3,2,5.448074e+00,5.447877e+00,1
2.246645e+00,1.841073e+00,1.825094e+00,3,2,7.483806e+00,7.483855e+00,1
2.986494e+00,2.581329e+00,2.565861e+00,4,3,7.486153e+00,7.497446e+00,1
2.242668e+00,1.239866e+00,1.223087e+00,3,1,4.657961e+00,4.657959e+00,1
2.241575e+00,7.010380e-01,6.849766e-01,3,0,4.402581e+00,4.402583e+00,1
2.236132e+00,6.926680e-01,6.780624e-01,3,0,3.241040e+00,3.241040e+00,1
2.238893e+00,6.900940e-01,6.740093e-01,3,0,2.446886e+00,2.446886e+00,1
2.237907e+00,6.903370e-01,6.740093e-01,3,0,1.675064e+00,1.675064e+00,1
2.235344e+00,6.928030e-01,6.768703e-01,3,0,1.698600e+00,1.698601e+00,1
2.235614e+00,6.902190e-01,6.740093e-01,3,0,3.093485e+00,3.093471e+00,1
2.230473e+00,6.887930e-01,6.730556e-01,3,0,1.533679e+00,1.533679e+00,1
2.237447e+00,6.884240e-01,6.730556e-01,3,0,2.014845e+00,2.014847e+00,1
2.241166e+00,6.881390e-01,6.718636e-01,3,0,3.211057e+00,3.211061e+00,1
2.241239e+00,2.043803e+00,2.027988e+00,3,2,3.336012e+00,3.353392e+00,1
2.240531e+00,1.401177e+00,1.384020e+00,3,1,5.006627e+00,5.019896e+00,1
2.238366e+00,1.794589e+00,1.779079e+00,3,2,5.562870e+00,5.559898e+00,1
2.984158e+00,1.130846e+00,1.113892e+00,4,1,2.791612e+00,2.791606e+00,1
2.238541e+00,6.930940e-01,6.771088e-01,3,0,2.293966e+00,2.293959e+00,1
2.237599e+00,6.890000e-01,6.740093e-01,3,0,4.378232e+00,4.378241e+00,1
2.238961e+00,6.884710e-01,6.740093e-01,3,0,2.708226e+00,2.708224e+00,1
2.237470e+00,6.870860e-01,6.656647e-01,3,0,1.586784e+00,1.586785e+00,1
2.244095e+00,6.887470e-01,6.680489e-01,3,0,1.742349e+00,1.742351e+00,1
2.250605e+00,6.908600e-01,6.759167e-01,3,0,1.715660e+00,1.715661e+00,1
2.247589e+00,6.837560e-01,6.690025e-01,3,0,1.931138e+00,1.931140e+00,1
2.245199e+00,6.838070e-01,6.670952e-01,3,0,1.565087e+00,1.565088e+00,1
2.265303e+00,6.835520e-01,6.680489e-01,3,0,1.197593e+00,1.197594e+00,1
2.251316e+00,6.855610e-01,6.690025e-01,3,0,1.745063e+00,1.745065e+00,1
2.249196e+00,6.842650e-01,6.690025e-01,3,0,1.613463e+00,1.613464e+00,1
2.247287e+00,6.835770e-01,6.670952e-01,3,0,8.928255e-01,8.928256e-01,1
2.261051e+00,6.827670e-01,6.670952e-01,3,0,1.087946e+00,1.087947e+00,1
2.246110e+00,6.857610e-01,6.690025e-01,3,0,2.739243e+00,2.739249e+00,1
2.240791e+00,1.386384e+00,1.371145e+00,3,1,4.393960e+00,4.416601e+00,1
2.240634e+00,1.240659e+00,1.224995e+00,3,1,2.905899e+00,2.905898e+00,1
2.240336e+00,6.897990e-01,6.740093e-01,3,0,2.841299e+00,2.841300e+00,1
2.239952e+00,1.846080e+00,1.829624e+00,3,2,5.553307e+00,5.551979e+00,1
4.487132e+00,6.825459e+00,6.808996e+00,6,10,9.631401e+00,9.660135e+00,1
3.738784e+00,7.626179e+00,7.608891e+00,5,12,6.416548e+00,6.430421e+00,1
2.248944e+00,1.390339e+00,1.373053e+00,3,1,3.807348e+00,3.811779e+00,1
2.240169e+00,8.448080e-01,8.280277e-01,3,0,5.342259e+00,5.388505e+00,1
2.244529e+00,2.898025e+00,2.882004e+00,3,3,6.636101e+00,6.655898e+00,1
2.240713e+00,1.937504e+00,1.919985e+00,3,2,6.303191e+00,6.307958e+00,1
2.239974e+00,2.420082e+00,2.403021e+00,3,3,4.871799e+00,4.871799e+00,1
2.241984e+00,1.390905e+00,1.374960e+00,3,1,4.214367e+00,4.215693e+00,1
2.247056e+00,2.564046e+00,2.548218e+00,3,3,4.490639e+00,4.497110e+00,1
2.243419e+00,2.780407e+00,2.763987e+00,3,3,6.141922e+00,6.176741e+00,1
2.989979e+00,2.233104e+00,2.217054e+00,4,3,4.833125e+00,4.832950e+00,1
3.733228e+00,1.133273e+00,1.116991e+00,5,1,3.585086e+00,3.584510e+00,1
2.239405e+00,6.933620e-01,6.768703e-01,3,0,2.714930e+00,2.714911e+00,1
2.239084e+00,6.904050e-01,6.742477e-01,3,0,3.835049e+00,3.834901e+00,1
2.238701e+00,6.906170e-01,6.761551e-01,3,0,4.999252e+00,4.999263e+00,1
2.240532e+00,6.909340e-01,6.749630e-01,3,0,5.034242e+00,5.034246e+00,1
2.238208e+00,6.892760e-01,6.728172e-01,3,0,1.617389e+00,1.617388e+00,1
2.237471e+00,6.901830e-01,6.749630e-01,3,0,1.882113e+00,1.882115e+00,1
2.239158e+00,6.885930e-01,6.721020e-01,3,0,3.074636e+00,3.074641e+00,1
2.249193e+00,5.174473e+00,5.160093e+00,3,7,7.418392e+00,7.568432e+00,1
2.248021e+00,6.353843e+00,6.337881e+00,3,10,4.065419e+00,4.066073e+00,1
2.247019e+00,8.433950e-01,8.261204e-01,3,0,3.569636e+00,3.569675e+00,1
2.240953e+00,1.925872e+00,1.909971e+00,3,2,2.882498e+00,2.882682e+00,1
2.241702e+00,8.394380e-01,8.227825e-01,3,0,2.204722e+00,2.211888e+00,1
2.240220e+00,1.230595e+00,1.216173e+00,3,1,1.778094e+00,1.778094e+00,1
2.244709e+00,6.820310e-01,6.659031e-01,3,0,1.585935e+00,1.585937e+00,1
2.242069e+00,6.829640e-01,6.678104e-01,3,0,1.344087e+00,1.344088e+00,1
2.246316e+00,6.798800e-01,6.649494e-01,3,0,1.535736e+00,1.535738e+00,1
2.245623e+00,6.826940e-01,6.670952e-01,3,0,1.378364e+00,1.378365e+00,1
2.242257e+00,2.034601e+00,2.020121e+00,3,2,4.236673e+00,4.336781e+00,1
2.243616e+00,1.781826e+00,1.765013e+00,3,2,4.055027e+00,4.055029e+00,1
2.240271e+00,6.886520e-01,6.718636e-01,3,0,2.331263e+00,2.331261e+00,1
2.239227e+00,6.884010e-01,6.721020e-01,3,0,1.603276e+00,1.603278e+00,1
2.239031e+00,6.890290e-01,6.730556e-01,3,0,1.656818e+00,1.656819e+00,1
2.239595e+00,6.860810e-01,6.699562e-01,3,0,8.665593e-01,8.665604e-01,1
2.239145e+00,6.879050e-01,6.721020e-01,3,0,2.682258e+00,2.682264e+00,1
2.239660e+00,6.872850e-01,6.718636e-01,3,0,1.994183e+00,1.994183e+00,1
2.243232e+00,4.569277e+00,4.553080e+00,3,6,6.615273e+00,6.737038e+00,1
2.243739e+00,3.941036e+00,3.925085e+00,3,6,2.602053e+00,2.602047e+00,1
2.994730e+00,1.028943e+01,1.026726e+01,4,13,1.153677e+01,1.455426e+01,0
4.480210e+00,6.492190e+00,6.469965e+00,6,7,1.142756e+01,1.242886e+01,0
2.997957e+00,1.166249e+01,1.164508e+01,4,19,8.724230e+00,8.801062e+00,1
2.243265e+00,3.406891e+00,3.390074e+00,3,5,5.225132e+00,5.225120e+00,1
2.248808e+00,6.910520e-01,6.759167e-01,3,0,5.699443e+00,5.699446e+00,1
2.241192e+00,7.009180e-01,6.849766e-01,3,0,5.648453e+00,5.648436e+00,1
2.239649e+00,6.899170e-01,6.740093e-01,3,0,6.553725e+00,6.553393e+00,1
2.993762e+00,2.158113e+00,2.142906e+00,4,2,6.319400e+00,6.334487e+00,1
2.246910e+00,1.492524e+00,1.476049e+00,3,1,9.690278e+00,9.736610e+00,1
2.255272e+00,2.794018e+00,2.778053e+00,3,3,7.122174e+00,7.129851e+00,1
2.242361e+00,5.235676e+00,5.218983e+00,3,7,6.102224e+00,6.131461e+00,1
2.244788e+00,3.939530e+00,3.922939e+00,3,6,4.967855e+00,4.967860e+00,1
2.240353e+00,1.394014e+00,1.378059e+00,3,1,5.446997e+00,5.447097e+00,1
2.241244e+00,1.229941e+00,1.214027e+00,3,1,5.022128e+00,5.022130e+00,1
2.239981e+00,6.890150e-01,6.740093e-01,3,0,5.575741e+00,5.575745e+00,1
2.239559e+00,6.874990e-01,6.659031e-01,3,0,4.281716e+00,4.281716e+00,1
2.252430e+00,6.846630e-01,6.678104e-01,3,0,4.862459e+00,4.862461e+00,1
2.245525e+00,6.838030e-01,6.690025e-01,3,0,2.830738e+00,2.830737e+00,1
2.245982e+00,6.830320e-01,6.670952e-01,3,0,2.187031e+00,2.187032e+00,1
2.245012e+00,6.822710e-01,6.670952e-01,3,0,1.763402e+00,1.763403e+00,1
2.245412e+00,6.832280e-01,6.680489e-01,3,0,2.021535e+00,2.021537e+00,1
2.244780e+00,6.826820e-01,6.670952e-01,3,0,1.364567e+00,1.364567e+00,1
2.245729e+00,6.830950e-01,6.670952e-01,3,0,2.376367e+00,2.376354e+00,1
2.247054e+00,6.829970e-01,6.670952e-01,3,0,1.576911e+00,1.576912e+00,1
2.245346e+00,6.827170e-01,6.680489e-01,3,0,1.719411e+00,1.719412e+00,1
2.246763e+00,6.846830e-01,6.690025e-01,3,0,2.565363e+00,2.565367e+00,1
2.240555e+00,1.147374e+00,1.131058e+00,3,1,3.722303e+00,3.721988e+00,1
3.734771e+00,1.129691e+00,1.113892e+00,5,1,2.882012e+00,2.881678e+00,1
2.238946e+00,7.008790e-01,6.840229e-01,3,0,2.741233e+00,2.741235e+00,1
2.240278e+00,2.008742e+00,1.992702e+00,3,2,2.485148e+00,2.486040e+00,1
2.240352e+00,1.493198e+00,1.477242e+00,3,1,3.920542e+00,3.952474e+00,1
2.242950e+00,1.388630e+00,1.372099e+00,3,1,3.035369e+00,3.254500e+00,1
2.244224e+00,1.384925e+00,1.368999e+00,3,1,3.060742e+00,3.123122e+00,1
2.242269e+00,1.993919e+00,1.978159e+00,3,2,2.741812e+00,2.741424e+00,1
2.238535e+00,1.150615e+00,1.134157e+00,3,1,4.801571e+00,4.801492e+00,1
2.984860e+00,2.485479e+00,2.469063e+00,4,3,3.284586e+00,3.305253e+00,1
2.243651e+00,2.604373e+00,2.587080e+00,3,3,5.114893e+00,5.117310e+00,1
2.240847e+00,1.237332e+00,1.221895e+00,3,1,4.858138e+00,4.858139e+00,1
2.240004e+00,2.591356e+00,2.575159e+00,3,3,6.982727e+00,7.025246e+00,1
4.470188e+00,8.405090e-01,8.239746e-01,6,0,8.409040e+00,8.425799e+00,1
2.984006e+00,2.329225e+00,2.312899e+00,4,3,5.049692e+00,5.049689e+00,1
2.239076e+00,6.917300e-01,6.752014e-01,3,0,4.118317e+00,4.118317e+00,1
2.237522e+00,6.888450e-01,6.740093e-01,3,0,3.908272e+00,3.908274e+00,1
2.240223e+00,6.892390e-01,6.730556e-01,3,0,3.872066e+00,3.872069e+00,1
2.239310e+00,6.895610e-01,6.737709e-01,3,0,3.021869e+00,3.021870e+00,1
2.238881e+00,6.869640e-01,6.718636e-01,3,0,2.425481e+00,2.425482e+00,1
2.236903e+00,6.914170e-01,6.749630e-01,3,0,2.450190e+00,2.450193e+00,1
2.239744e+00,1.391554e+00,1.375914e+00,3,1,2.435750e+00,2.471633e+00,1
2.240744e+00,1.994450e+00,1.978159e+00,3,2,2.271017e+00,2.271018e+00,1
2.239988e+00,6.897510e-01,6.740093e-01,3,0,2.475301e+00,2.475304e+00,1
2.239067e+00,6.868360e-01,6.711483e-01,3,0,2.577053e+00,2.577055e+00,1
2.240689e+00,6.873160e-01,6.721020e-01,3,0,2.861972e+00,2.861910e+00,1
2.237098e+00,1.145454e+00,1.128912e+00,3,1,4.261808e+00,4.259443e+00,1
2.984199e+00,1.596881e+00,1.580238e+00,4,2,3.546204e+00,3.545242e+00,1
4.472899e+00,1.143374e+00,1.127958e+00,6,1,3.485851e+00,3.485715e+00,1
2.987293e+00,2.267212e+00,2.251148e+00,4,3,5.797690e+00,5.798371e+00,1
4.475215e+00,2.584351e+00,2.568245e+00,6,3,9.381192e+00,9.404636e+00,1
4.478261e+00,2.543180e+00,2.526999e+00,6,3,1.102609e+01,1.100762e+01,1
2.988770e+00,2.906524e+00,2.889872e+00,4,4,8.478675e+00,8.478465e+00,1
2.988282e+00,1.938605e+00,1.923084e+00,4,2,6.685909e+00,6.687185e+00,1
2.248955e+00,1.502320e+00,1.485109e+00,3,1,4.429379e+00,4.455775e+00,1
2.240167e+00,2.035738e+00,2.018929e+00,3,2,3.440697e+00,3.454705e+00,1
2.241657e+00,2.794210e+00,2.778053e+00,3,3,3.368911e+00,3.427014e+00,1
2.241581e+00,2.147107e+00,2.131224e+00,3,2,2.594796e+00,2.633767e+00,1
2.241887e+00,1.995059e+00,1.974106e+00,3,2,1.815637e+00,1.815637e+00,1
2.239963e+00,6.905760e-01,6.749630e-01,3,0,1.948612e+00,1.948614e+00,1
2.238775e+00,6.878620e-01,6.709099e-01,3,0,3.497957e+00,3.497963e+00,1
2.257731e+00,6.898900e-01,6.749630e-01,3,0,3.222786e+00,3.222787e+00,1
2.245869e+00,6.923690e-01,6.759167e-01,3,0,2.446012e+00,2.446012e+00,1
2.244438e+00,6.919530e-01,6.768703e-01,3,0,2.746024e+00,2.746026e+00,1
2.238871e+00,7.123380e-01,6.961823e-01,3,0,2.608753e+00,2.608755e+00,1
2.248699e+00,1.396186e+00,1.379967e+00,3,1,4.498569e+00,4.528840e+00,1
2.241794e+00,1.242544e+00,1.226187e+00,3,1,4.520745e+00,4.520746e+00,1
2.239829e+00,6.923370e-01,6.759167e-01,3,0,6.581815e+00,6.581813e+00,1
2.239135e+00,6.917630e-01,6.771088e-01,3,0,5.357149e+00,5.357148e+00,1
2.245002e+00,1.144356e+00,1.127720e+00,3,1,1.105999e+01,1.105960e+01,1
3.732206e+00,1.132088e+00,1.116037e+00,5,1,1.233368e+01,1.233327e+01,1
2.245228e+00,6.903600e-01,6.740093e-01,3,0,1.117745e+01,1.117745e+01,1
2.244026e+00,1.379766e+00,1.362801e+00,3,1,1.020878e+01,1.020894e+01,1
2.241564e+00,1.239417e+00,1.222134e+00,3,1,1.007289e+01,1.007290e+01,1
2.246967e+00,3.199676e+00,3.183842e+00,3,4,7.669536e+00,7.675639e+00,1
2.247679e+00,1.775378e+00,1.760006e+00,3,2,7.210067e+00,7.210069e+00,1
2.246028e+00,6.827530e-01,6.661415e-01,3,0,6.229724e+00,6.229725e+00,1
2.246753e+00,6.847410e-01,6.680489e-01,3,0,5.859870e+00,5.859873e+00,1
2.236564e+00,1.371206e+00,1.355886e+00,3,1,5.942654e+00,5.947082e+00,1
2.242731e+00,2.556493e+00,2.541065e+00,3,3,5.062147e+00,5.080173e+00,1
2.244994e+00,4.552960e+00,4.535913e+00,3,6,5.388061e+00,5.439652e+00,1
2.245319e+00,6.014476e+00,5.996704e+00,3,9,4.115063e+00,4.138472e+00,1
2.246482e+00,7.623898e+00,7.606983e+00,3,11,6.923410e+00,7.091155e+00,1
2.989560e+00,6.318364e+00,6.300926e+00,4,10,4.140620e+00,4.237660e+00,1
2.989900e+00,9.564954e+00,9.548187e+00,4,14,9.290345e+00,9.452598e+00,1
3.734310e+00,8.872056e+00,8.856058e+00,5,14,7.626975e+00,7.646634e+00,1
2.991909e+00,2.571969e+00,2.555847e+00,4,3,8.389914e+00,8.492341e+00,1
2.241695e+00,1.933134e+00,1.916885e+00,3,2,7.560743e+00,7.615003e+00,1
2.242079e+00,8.475040e-01,8.308887e-01,3,0,8.801655e+00,8.846802e+00,1
2.988583e+00,1.919360e+00,1.903057e+00,4,2,5.447788e+00,5.447794e+00,1
2.246779e+00,1.240929e+00,1.225948e+00,3,1,4.791441e+00,4.791442e+00,1
2.241532e+00,6.846120e-01,6.690025e-01,3,0,5.965518e+00,5.965525e+00,1
2.254318e+00,1.564457e+01,1.562333e+01,3,22,1.637180e+01,1.867968e+01,0
2.995151e+00,1.243691e+01,1.241994e+01,4,21,7.677924e+00,7.679774e+00,1
2.244671e+00,1.244228e+00,1.226187e+00,3,1,6.535729e+00,6.535729e+00,1
2.239873e+00,6.911780e-01,6.749630e-01,3,0,5.863582e+00,5.863584e+00,1
2.248558e+00,1.382145e+00,1.366138e+00,3,1,7.710517e+00,7.712717e+00,1
2.241505e+00,1.230344e+00,1.213789e+00,3,1,5.029786e+00,5.029781e+00,1
2.240147e+00,6.912260e-01,6.761551e-01,3,0,4.589328e+00,4.589329e+00,1
2.247998e+00,3.091162e+00,3.074884e+00,3,4,7.367637e+00,7.368943e+00,1
2.985513e+00,2.861384e+00,2.845049e+00,4,4,4.155024e+00,4.155024e+00,1
2.241827e+00,6.897200e-01,6.749630e-01,3,0,3.490166e+00,3.490169e+00,1
2.240216e+00,6.870350e-01,6.678104e-01,3,0,3.214663e+00,3.214667e+00,1
2.324805e+00,6.835140e-01,6.670952e-01,3,0,3.106314e+00,3.106309e+00,1
2.246716e+00,6.962750e-01,6.799698e-01,3,0,1.588833e+00,1.588833e+00,1
2.244820e+00,6.831870e-01,6.670952e-01,3,0,1.586838e+00,1.586839e+00,1
2.245039e+00,6.833380e-01,6.680489e-01,3,0,1.945203e+00,1.945205e+00,1
2.247194e+00,6.825990e-01,6.668568e-01,3,0,3.820129e+00,3.820137e+00,1
2.247965e+00,6.838410e-01,6.690025e-01,3,0,3.571943e+00,3.571945e+00,1
2.248383e+00,6.888050e-01,6.730556e-01,3,0,2.295466e+00,2.295465e+00,1
2.245462e+00,6.858030e-01,6.709099e-01,3,0,1.431590e+00,1.431591e+00,1
2.241540e+00,1.936126e+00,1.920938e+00,3,2,2.206477e+00,2.210142e+00,1
3.734219e+00,2.038303e+00,2.021074e+00,5,2,3.026871e+00,3.075768e+00,1
2.242918e+00,2.150840e+00,2.133846e+00,3,2,1.970807e+00,1.978159e+00,1
2.246235e+00,1.239178e+00,1.223087e+00,3,1,1.359984e+00,1.359986e+00,1
2.255590e+00,6.884790e-01,6.718636e-01,3,0,1.419105e+00,1.419107e+00,1
2.240251e+00,6.889860e-01,6.721020e-01,3,0,3.397000e+00,3.397007e+00,1
2.246265e+00,1.388179e+00,1.371861e+00,3,1,4.259560e+00,4.315605e+00,1
2.252221e+00,5.701830e+00,5.686045e+00,3,8,1.080258e+01,1.094625e+01,1
3.742843e+00,7.183756e+00,7.167101e+00,5,11,1.065299e+01,1.070906e+01,1
2.997835e+00,4.302166e+00,4.286051e+00,4,6,7.999749e+00,8.010320e+00,1
2.250951e+00,2.340563e+00,2.325058e+00,3,3,6.335803e+00,6.335802e+00,1
2.262624e+00,6.835240e-01,6.668568e-01,3,0,4.718418e+00,4.718417e+00,1
2.239394e+00,6.824820e-01,6.670952e-01,3,0,4.325621e+00,4.325624e+00,1
2.239330e+00,6.838190e-01,6.668568e-01,3,0,5.448381e+00,5.448388e+00,1
2.260391e+00,3.619075e+00,3.594637e+00,3,2,7.399836e+00,1.122765e+01,0
4.474907e+00,2.439396e+00,2.416134e+00,6,0,7.170552e+00,1.425075e+01,0
4.475835e+00,5.797697e+00,5.777121e+00,6,7,7.290137e+00,1.328093e+01,0
4.477204e+00,1.132983e+00,1.116037e+00,6,1,3.819931e+00,3.806364e+00,1
2.986554e+00,1.585471e+00,1.569033e+00,4,2,2.076763e+00,2.076764e+00,1
2.238511e+00,6.928240e-01,6.768703e-01,3,0,2.130541e+00,2.130543e+00,1
2.239952e+00,6.987680e-01,6.828308e-01,3,0,1.886100e+00,1.886102e+00,1
2.239571e+00,6.886570e-01,6.728172e-01,3,0,2.105135e+00,2.105136e+00,1
2.239313e+00,6.873360e-01,6.718636e-01,3,0,1.346603e+00,1.346603e+00,1
2.239488e+00,6.880350e-01,6.721020e-01,3,0,1.237825e+00,1.237826e+00,1
2.240171e+00,1.406387e+00,1.384974e+00,3,1,1.467873e+00,1.496553e+00,1
2.241513e+00,1.496533e+00,1.480103e+00,3,1,5.897044e+00,5.906083e+00,1
2.250409e+00,8.485848e+00,8.469105e+00,3,13,9.263857e+00,9.301145e+00,1
4.483167e+00,5.485895e+00,5.467892e+00,6,8,1.011731e+01,1.018775e+01,1
4.478811e+00,3.090589e+00,3.073692e+00,6,4,7.955666e+00,7.969138e+00,1
2.986835e+00,3.417017e+00,3.400087e+00,4,5,4.697341e+00,4.697339e+00,1
2.240148e+00,6.892250e-01,6.740093e-01,3,0,4.674903e+00,4.674908e+00,1
2.241240e+00,2.032045e+00,2.015829e+00,3,2,6.086501e+00,6.153929e+00,1
2.242335e+00,3.188456e+00,3.172874e+00,3,4,6.774755e+00,6.839974e+00,1
4.473534e+00,2.308439e+00,2.293110e+00,6,3,5.080141e+00,5.065564e+00,1
4.487680e+00,3.606682e+00,3.585100e+00,6,2,1.543026e+01,3.723546e+01,0
4.484570e+00,2.520884e+00,2.494812e+00,6,0,2.950655e+01,6.814249e+01,0
4.473727e+00,2.505200e+00,2.478838e+00,6,0,3.327700e+01,6.557515e+01,0
4.473599e+00,2.447783e+00,2.424002e+00,6,0,2.012147e+01,2.138059e+01,0
4.468437e+00,2.437568e+00,2.416849e+00,6,0,2.821745e+01,3.689573e+01,0
4.469842e+00,2.428157e+00,2.405882e+00,6,0,2.412090e+01,1.973448e+01,0
2.988090e+00,6.079845e+00,6.062984e+00,4,9,2.018244e+01,2.031263e+01,1
2.249004e+00,3.055019e+00,3.033161e+00,3,1,2.202466e+01,2.632164e+01,0
2.990337e+00,5.463209e+00,5.446196e+00,4,8,1.906275e+01,1.909445e+01,1
4.475897e+00,4.714918e+00,4.687309e+00,6,4,2.242726e+01,2.386781e+01,0
4.487346e+00,2.446092e+00,2.423286e+00,6,0,2.562397e+01,2.634353e+01,0
3.014480e+00,5.816410e+00,5.793095e+00,4,6,2.146410e+01,2.312112e+01,0
2.992572e+00,6.621126e+00,6.598949e+00,4,7,1.693469e+01,3.231796e+01,0
2.991404e+00,9.735918e+00,9.714365e+00,4,12,1.251819e+01,1.914813e+01,0
2.249494e+00,6.698259e+00,6.675720e+00,3,7,1.102088e+01,1.786553e+01,0
2.248636e+00,2.439194e+00,2.415657e+00,3,0,9.725859e+00,2.612070e+01,0
3.000737e+00,2.593787e+01,2.591586e+01,4,40,7.979312e+00,9.263401e+00,0
2.248389e+00,8.823842e+00,8.801222e+00,3,11,8.742754e+00,1.785814e+01,0
3.735317e+00,1.854043e+01,1.852298e+01,5,32,5.130411e+00,5.523818e+00,1
3.728548e+00,7.327016e+00,7.310867e+00,5,11,6.050066e+00,6.302240e+00,1
4.483838e+00,7.738170e+00,7.721901e+00,6,12,6.823420e+00,7.138525e+00,1
4.477190e+00,4.718612e+00,4.701138e+00,6,7,6.688298e+00,6.737738e+00,1
4.482208e+00,4.210383e+00,4.193068e+00,6,6,6.376059e+00,6.374949e+00,1
2.240165e+00,1.792952e+00,1.775980e+00,3,2,4.064825e+00,4.064808e+00,1
2.239939e+00,6.916780e-01,6.759167e-01,3,0,5.008262e+00,5.008265e+00,1
2.243052e+00,6.918770e-01,6.752014e-01,3,0,4.124833e+00,4.124833e+00,1
2.241065e+00,2.594725e+00,2.579212e+00,3,3,5.638492e+00,5.642802e+00,1
2.988783e+00,3.015780e+00,3.000021e+00,4,4,4.572928e+00,4.573634e+00,1
2.246086e+00,1.233149e+00,1.215935e+00,3,1,4.339721e+00,4.339724e+00,1
2.242966e+00,2.001976e+00,1.986027e+00,3,2,5.394402e+00,5.395047e+00,1
2.983625e+00,1.454350e+00,1.438141e+00,4,1,6.411859e+00,6.440104e+00,1
2.239833e+00,1.606346e+00,1.590014e+00,3,1,6.277444e+00,6.286861e+00,1
2.246275e+00,2.025646e+00,2.010107e+00,3,2,5.474611e+00,5.477381e+00,1
2.248797e+00,3.643920e+00,3.628969e+00,3,5,3.239047e+00,3.239888e+00,1
2.241521e+00,8.367330e-01,8.211136e-01,3,0,2.732727e+00,2.770449e+00,1
2.240898e+00,1.384726e+00,1.368999e+00,3,1,3.341341e+00,3.341547e+00,1
2.240666e+00,1.234083e+00,1.218081e+00,3,1,2.798136e+00,2.798136e+00,1
2.241372e+00,4.446107e+00,4.425049e+00,3,6,5.522548e+00,5.556450e+00,1
4.472396e+00,3.003668e+00,2.988100e+00,6,4,4.205824e+00,4.200137e+00,1
2.986631e+00,1.396924e+00,1.380920e+00,4,1,2.818305e+00,2.820633e+00,1
2.240822e+00,1.233905e+00,1.219034e+00,3,1,2.910859e+00,2.910862e+00,1
2.241474e+00,6.906400e-01,6.740093e-01,3,0,3.536086e+00,3.536089e+00,1
2.244596e+00,1.950182e+00,1.935005e+00,3,2,6.088559e+00,6.089232e+00,1
2.988560e+00,1.786477e+00,1.770020e+00,4,2,6.473301e+00,6.473304e+00,1
2.257960e+00,1.164300e+00,1.147747e+00,3,1,5.117726e+00,5.117336e+00,1
2.982379e+00,1.136915e+00,1.121998e+00,4,1,4.667451e+00,4.667451e+00,1
2.241324e+00,1.406541e+00,1.390934e+00,3,1,5.002085e+00,5.009311e+00,1
2.245696e+00,2.144861e+00,2.127886e+00,3,2,4.775671e+00,4.783153e+00,1
2.244118e+00,1.427913e+00,1.411200e+00,3,1,4.968668e+00,4.989698e+00,1
2.246016e+00,2.290004e+00,2.271891e+00,3,2,3.865346e+00,3.895512e+00,1
2.244987e+00,2.059681e+00,2.041817e+00,3,2,3.407072e+00,3.466828e+00,1
2.246349e+00,2.163190e+00,2.146006e+00,3,2,4.205020e+00,4.282855e+00,1
2.239876e+00,8.471080e-01,8.311272e-01,3,0,3.488977e+00,3.517516e+00,1
2.240431e+00,2.153176e+00,2.138138e+00,3,2,3.726625e+00,3.730263e+00,1
2.240745e+00,1.243022e+00,1.227140e+00,3,1,4.614636e+00,4.614641e+00,1
2.240684e+00,6.929640e-01,6.780624e-01,3,0,3.896783e+00,3.896784e+00,1
2.243162e+00,1.151531e+00,1.137018e+00,3,1,6.065312e+00,6.064968e+00,1
4.481049e+00,3.832299e+00,3.815889e+00,6,5,8.682594e+00,8.666840e+00,1
3.733931e+00,3.555995e+00,3.540039e+00,5,5,8.093502e+00,8.091754e+00,1
2.240383e+00,1.242839e+00,1.226902e+00,3,1,4.296265e+00,4.296251e+00,1
2.242548e+00,6.871840e-01,6.709099e-01,3,0,3.611589e+00,3.611590e+00,1
2.239573e+00,6.904480e-01,6.749630e-01,3,0,4.068560e+00,4.068564e+00,1
2.241775e+00,6.909730e-01,6.749630e-01,3,0,2.050372e+00,2.050371e+00,1
2.240204e+00,6.891310e-01,6.740093e-01,3,0,2.534017e+00,2.534021e+00,1
2.241393e+00,6.907230e-01,6.759167e-01,3,0,4.163887e+00,4.163888e+00,1
2.243188e+00,6.914290e-01,6.759167e-01,3,0,3.600879e+00,3.600856e+00,1
2.243357e+00,3.196197e+00,3.179789e+00,3,4,7.619237e+00,7.622432e+00,1
2.993699e+00,4.652276e+00,4.630089e+00,4,4,1.004602e+01,1.338741e+01,0
2.990067e+00,4.827822e+00,4.805565e+00,4,4,1.037807e+01,1.146670e+01,0
4.473087e+00,2.440976e+00,2.418518e+00,6,0,1.284121e+01,1.725693e+01,0
4.471390e+00,2.439858e+00,2.417088e+00,6,0,1.385907e+01,1.861985e+01,0
4.483959e+00,4.946199e+00,4.931211e+00,6,7,1.064971e+01,1.065684e+01,1
2.992015e+00,4.698235e+00,4.675388e+00,4,4,1.262617e+01,1.539155e+01,0
2.988985e+00,3.028822e+00,3.010988e+00,4,4,6.092533e+00,6.094310e+00,1
2.239554e+00,1.243561e+00,1.226902e+00,3,1,6.194755e+00,6.194747e+00,1
2.242127e+00,6.914680e-01,6.749630e-01,3,0,5.004486e+00,5.004486e+00,1
2.239305e+00,6.916890e-01,6.768703e-01,3,0,5.970031e+00,5.970035e+00,1
2.240642e+00,6.913510e-01,6.761551e-01,3,0,4.432966e+00,4.432966e+00,1
2.240770e+00,2.019875e+00,2.003670e+00,3,2,3.895797e+00,3.905315e+00,1
2.245445e+00,4.397203e+00,4.381895e+00,3,6,4.716435e+00,4.745931e+00,1
2.242091e+00,1.779478e+00,1.763105e+00,3,2,2.573435e+00,2.573434e+00,1
2.246077e+00,2.030194e+00,2.012968e+00,3,2,3.104309e+00,3.105967e+00,1

