1.543337e+00,3.389782e+01,3.334999e+01,2,49,0.000000e+00,9.094947e-13,1
2.245010e+00,7.017300e-01,6.740093e-01,3,0,6.499147e-01,6.499162e-01,1
2.246234e+00,6.817400e-01,6.651878e-01,3,0,7.956163e-01,7.956171e-01,1
2.244891e+00,6.870350e-01,6.721020e-01,3,0,4.554839e+00,4.554849e+00,1
2.248653e+00,6.836990e-01,6.690025e-01,3,0,5.529573e+00,5.529575e+00,1
2.245217e+00,6.816990e-01,6.668568e-01,3,0,2.391730e+00,2.391723e+00,1
2.242420e+00,6.808500e-01,6.647110e-01,3,0,5.333189e+00,5.333200e+00,1
2.251694e+00,5.660642e+00,5.636692e+00,3,6,1.246881e+01,1.273417e+01,0
4.495439e+00,2.392989e+00,2.372265e+00,6,0,1.686338e+01,1.942759e+01,0
4.484765e+00,3.697978e+00,3.681898e+00,6,5,1.400958e+01,1.406674e+01,1
2.995728e+00,3.621157e+00,3.605843e+00,4,5,1.408870e+01,1.411371e+01,1
2.997087e+00,3.632079e+00,3.609896e+00,4,2,2.032495e+01,2.330005e+01,0
3.025759e+00,5.953017e+00,5.935907e+00,4,9,1.259704e+01,1.265372e+01,1
2.267252e+00,2.721976e+00,2.707005e+00,3,3,1.382238e+01,1.388348e+01,1
2.272172e+00,3.144386e+00,3.127813e+00,3,4,1.211816e+01,1.220997e+01,1
2.269855e+00,4.888877e+00,4.873037e+00,3,7,9.149540e+00,9.161276e+00,1
2.245767e+00,3.007124e+00,2.991915e+00,3,4,8.075626e+00,8.115424e+00,1
2.248052e+00,2.060086e+00,2.044201e+00,3,2,7.942129e+00,7.958789e+00,1
2.252023e+00,9.640902e+00,9.618759e+00,3,12,7.487444e+00,1.113078e+01,0
2.275192e+00,6.864799e+00,6.846905e+00,3,10,6.007562e+00,6.020455e+00,1
2.264095e+00,4.622692e+00,4.606009e+00,3,7,4.757514e+00,4.761506e+00,1
2.242691e+00,8.357230e-01,8.187294e-01,3,0,5.069449e+00,5.072222e+00,1
2.255067e+00,3.265696e+00,3.249884e+00,3,4,7.695154e+00,7.772325e+00,1
2.252408e+00,2.789342e+00,2.773046e+00,3,3,5.851214e+00,5.853680e+00,1
2.253718e+00,3.012210e+00,2.995968e+00,3,4,6.027651e+00,6.027714e+00,1
2.245884e+00,2.255798e+00,2.240896e+00,3,2,5.952605e+00,5.964941e+00,1
2.244795e+00,2.140810e+00,2.120018e+00,3,2,5.962199e+00,5.963497e+00,1
2.245207e+00,2.029773e+00,2.013683e+00,3,2,6.515605e+00,6.525360e+00,1
2.244131e+00,1.228945e+00,1.214027e+00,3,1,4.208152e+00,4.208148e+00,1
2.243050e+00,6.860900e-01,6.711483e-01,3,0,3.396426e+00,3.396426e+00,1
2.248202e+00,1.374675e+00,1.360178e+00,3,1,3.339649e+00,3.340597e+00,1
2.245270e+00,2.024711e+00,2.009153e+00,3,2,3.426686e+00,3.427477e+00,1
2.270986e+00,7.983115e+00,7.962227e+00,3,9,6.451454e+00,7.527407e+00,0
3.024462e+00,6.220350e+00,6.204128e+00,4,10,2.707217e+00,2.707216e+00,1
2.257359e+00,2.025214e+00,2.008915e+00,3,2,4.453203e+00,4.466306e+00,1
2.248077e+00,2.783965e+00,2.768040e+00,3,3,4.485407e+00,4.518931e+00,1
2.249651e+00,2.027817e+00,2.012968e+00,3,2,3.603567e+00,3.881068e+00,1
2.254849e+00,8.564230e-01,8.411407e-01,3,0,2.425182e+00,2.520086e+00,1
2.247516e+00,2.234469e+00,2.219915e+00,3,2,5.419437e+00,5.501857e+00,1
2.248421e+00,2.683259e+00,2.667189e+00,3,3,5.430475e+00,5.433180e+00,1
2.246573e+00,1.238146e+00,1.222849e+00,3,1,4.550808e+00,4.550809e+00,1
2.245800e+00,6.882030e-01,6.721020e-01,3,0,3.320043e+00,3.320045e+00,1
2.242578e+00,6.863120e-01,6.711483e-01,3,0,2.665818e+00,2.665819e+00,1
2.256784e+00,6.852760e-01,6.699562e-01,3,0,3.531948e+00,3.531953e+00,1
2.245937e+00,1.153756e+00,1.138926e+00,3,1,8.027641e+00,8.026802e+00,1
3.005471e+00,2.945483e+00,2.928972e+00,4,4,5.893200e+00,5.895189e+00,1
2.995017e+00,2.318802e+00,2.301931e+00,4,3,4.457891e+00,4.457892e+00,1
2.248774e+00,3.882057e+00,3.866196e+00,3,5,5.239231e+00,5.246007e+00,1
2.251046e+00,8.028050e+00,8.012056e+00,3,12,6.439721e+00,6.498287e+00,1
2.248437e+00,6.145004e+00,6.129026e+00,3,9,3.104598e+00,3.131191e+00,1
2.248393e+00,1.593003e+00,1.577854e+00,3,1,4.119890e+00,4.430284e+00,1
3.737789e+00,1.382219e+00,1.367092e+00,5,1,3.198933e+00,3.282658e+00,1
2.998494e+00,1.253569e+00,1.237154e+00,4,1,1.716543e+00,1.716543e+00,1
2.247096e+00,6.938710e-01,6.780624e-01,3,0,1.273914e+00,1.273914e+00,1
2.246026e+00,6.858980e-01,6.709099e-01,3,0,1.358530e+00,1.358533e+00,1
2.249474e+00,6.865850e-01,6.699562e-01,3,0,1.596316e+00,1.596317e+00,1
2.246787e+00,1.389130e+00,1.374006e+00,3,1,2.573131e+00,2.580974e+00,1
2.238397e+00,8.470370e-01,8.318424e-01,3,0,3.097826e+00,3.175318e+00,1
2.242678e+00,1.226362e+00,1.210690e+00,3,1,1.702360e+00,1.702360e+00,1
2.244803e+00,6.844700e-01,6.690025e-01,3,0,1.605653e+00,1.605654e+00,1
2.246813e+00,6.898180e-01,6.699562e-01,3,0,1.560947e+00,1.560947e+00,1
2.244827e+00,6.971620e-01,6.821156e-01,3,0,1.400957e+00,1.400958e+00,1
2.275998e+00,6.831750e-01,6.680489e-01,3,0,9.938400e-01,9.938409e-01,1
2.242375e+00,6.875520e-01,6.721020e-01,3,0,8.472653e-01,8.472658e-01,1
2.246587e+00,6.888500e-01,6.730556e-01,3,0,2.721332e+00,2.721338e+00,1
2.268102e+00,3.399449e+00,3.385067e+00,3,4,7.293733e+00,7.394641e+00,1
2.260583e+00,2.532621e+00,2.516985e+00,3,3,4.431462e+00,4.468360e+00,1
2.252076e+00,1.767843e+00,1.752853e+00,3,2,3.577783e+00,3.577784e+00,1
2.256573e+00,6.891770e-01,6.721020e-01,3,0,4.101793e+00,4.101800e+00,1
2.250709e+00,6.813250e-01,6.656647e-01,3,0,2.490684e+00,2.490683e+00,1
2.249268e+00,6.789780e-01,6.628036e-01,3,0,3.749516e+00,3.749521e+00,1
2.246196e+00,2.011509e+00,1.995802e+00,3,2,5.699441e+00,5.699883e+00,1
2.248332e+00,1.769187e+00,1.753807e+00,3,2,2.735234e+00,2.735219e+00,1
2.245531e+00,6.873730e-01,6.721020e-01,3,0,2.616352e+00,2.616344e+00,1
2.244574e+00,6.848270e-01,6.699562e-01,3,0,1.864302e+00,1.864304e+00,1
2.243950e+00,6.867060e-01,6.711483e-01,3,0,1.609027e+00,1.609027e+00,1
2.244548e+00,6.944300e-01,6.790161e-01,3,0,1.709986e+00,1.709987e+00,1
2.243516e+00,6.848670e-01,6.692410e-01,3,0,3.338149e+00,3.338153e+00,1
2.244297e+00,1.387581e+00,1.372099e+00,3,1,2.359680e+00,2.364622e+00,1
2.248206e+00,1.225741e+00,1.209974e+00,3,1,1.917473e+00,1.917473e+00,1
2.247436e+00,6.787570e-01,6.639957e-01,3,0,3.239798e+00,3.239803e+00,1
2.254034e+00,6.776350e-01,6.630421e-01,3,0,5.642573e+00,5.642579e+00,1
2.245382e+00,1.382540e+00,1.367807e+00,3,1,5.259748e+00,5.318169e+00,1
2.245565e+00,1.490268e+00,1.475096e+00,3,1,5.877602e+00,5.881119e+00,1
2.245397e+00,2.469727e+00,2.454042e+00,3,3,5.912790e+00,5.913356e+00,1
2.251359e+00,1.469995e+00,1.453638e+00,3,1,8.369969e+00,8.375450e+00,1
2.244875e+00,3.244598e+00,3.227711e+00,3,4,1.092976e+01,1.097287e+01,1
2.246666e+00,2.854211e+00,2.838135e+00,3,4,6.347782e+00,6.347645e+00,1
2.246496e+00,6.879410e-01,6.718636e-01,3,0,7.471825e+00,7.471807e+00,1
2.248355e+00,3.258492e+00,3.242016e+00,3,4,8.100549e+00,8.100679e+00,1
3.012829e+00,3.720243e+00,3.705025e+00,4,5,7.762643e+00,7.764219e+00,1
2.248030e+00,2.581706e+00,2.567053e+00,3,3,5.637920e+00,5.645189e+00,1
2.250001e+00,1.592975e+00,1.577854e+00,3,1,5.231542e+00,5.276612e+00,1
2.246082e+00,2.788625e+00,2.772808e+00,3,3,4.345114e+00,4.454946e+00,1
2.243738e+00,8.534080e-01,8.370876e-01,3,0,3.469414e+00,3.515403e+00,1
2.248447e+00,1.379864e+00,1.364946e+00,3,1,2.496714e+00,2.527491e+00,1
2.260668e+00,1.228081e+00,1.213074e+00,3,1,2.057984e+00,2.057985e+00,1
2.244787e+00,6.847240e-01,6.692410e-01,3,0,1.706993e+00,1.706994e+00,1
2.252561e+00,6.859380e-01,6.709099e-01,3,0,2.099489e+00,2.099491e+00,1
2.243821e+00,6.850840e-01,6.699562e-01,3,0,2.852470e+00,2.852474e+00,1
2.244179e+00,6.850940e-01,6.699562e-01,3,0,1.178900e+00,1.178899e+00,1
2.244027e+00,6.868240e-01,6.721020e-01,3,0,1.327081e+00,1.327082e+00,1
2.248218e+00,6.861970e-01,6.718636e-01,3,0,4.477286e+00,4.477273e+00,1
2.243386e+00,6.939670e-01,6.790161e-01,3,0,2.323114e+00,2.323111e+00,1
2.244620e+00,6.857490e-01,6.699562e-01,3,0,1.742027e+00,1.742027e+00,1
2.238016e+00,6.848190e-01,6.687641e-01,3,0,4.225650e+00,4.225659e+00,1
2.243488e+00,6.863290e-01,6.721020e-01,3,0,3.040430e+00,3.040429e+00,1
2.241370e+00,6.839630e-01,6.680489e-01,3,0,3.200104e+00,3.200109e+00,1
2.245330e+00,2.665345e+00,2.649069e+00,3,3,5.687762e+00,5.692370e+00,1
3.004393e+00,7.349754e+00,7.333755e+00,4,11,8.410856e+00,8.552524e+00,1
3.021865e+00,1.293156e+01,1.291513e+01,4,21,9.986766e+00,1.021946e+01,1
4.487788e+00,2.409647e+00,2.386093e+00,6,0,1.545964e+01,2.422607e+01,0
3.740719e+00,1.151452e+01,1.149797e+01,5,19,9.842869e+00,9.971422e+00,1
2.998133e+00,5.733714e+00,5.717993e+00,4,9,6.055565e+00,6.055765e+00,1
2.273499e+00,1.243749e+00,1.225948e+00,3,1,4.578306e+00,4.578306e+00,1
2.252559e+00,3.819533e+00,3.802061e+00,3,5,8.495863e+00,8.524781e+00,1
3.015578e+00,4.295617e+00,4.277945e+00,4,6,1.010046e+01,1.012850e+01,1
3.745309e+00,5.004606e+00,4.987001e+00,5,7,1.390769e+01,1.394237e+01,1
2.269321e+00,9.215049e+00,9.196997e+00,3,14,1.449782e+01,1.468401e+01,1
2.250899e+00,7.014138e+00,6.996870e+00,3,11,1.019566e+01,1.019809e+01,1
2.245036e+00,8.453030e-01,8.289814e-01,3,0,7.951223e+00,7.952717e+00,1
2.246642e+00,1.271235e+00,1.255989e+00,3,1,6.667438e+00,6.667438e+00,1
2.246940e+00,6.841100e-01,6.690025e-01,3,0,5.765625e+00,5.765626e+00,1
2.245069e+00,6.853710e-01,6.699562e-01,3,0,4.953338e+00,4.953340e+00,1
2.246379e+00,6.877270e-01,6.730556e-01,3,0,4.522331e+00,4.522332e+00,1
2.997881e+00,4.185177e+00,4.164219e+00,4,3,9.657169e+00,2.359204e+01,0
4.487555e+00,2.444737e+00,2.419710e+00,6,0,1.906207e+01,5.104226e+01,0
4.485320e+00,2.440123e+00,2.417564e+00,6,0,2.174124e+01,5.146951e+01,0
4.481352e+00,2.429515e+00,2.407551e+00,6,0,2.628210e+01,5.873321e+01,0
4.486925e+00,5.346419e+00,5.319118e+00,6,5,1.755567e+01,2.669655e+01,0
4.484637e+00,2.441715e+00,2.418756e+00,6,0,2.142775e+01,3.060301e+01,0
4.486735e+00,2.446514e+00,2.421856e+00,6,0,2.914821e+01,4.040728e+01,0
4.476575e+00,3.541716e+00,3.520012e+00,6,2,2.456241e+01,2.471420e+01,0
4.488613e+00,4.165528e+00,4.141569e+00,6,4,1.954273e+01,2.072061e+01,0
3.004152e+00,8.828827e+00,8.806705e+00,4,11,1.146658e+01,1.561589e+01,0
2.252851e+00,7.869959e+00,7.853031e+00,3,12,9.600596e+00,9.723365e+00,1
2.250472e+00,5.473285e+00,5.456686e+00,3,8,7.309508e+00,7.359203e+00,1
2.248691e+00,3.219231e+00,3.204107e+00,3,4,6.278449e+00,6.365758e+00,1
2.248152e+00,2.475663e+00,2.461195e+00,3,3,4.778618e+00,4.778637e+00,1
2.255843e+00,2.133092e+00,2.117157e+00,3,2,3.892656e+00,3.893712e+00,1
2.245103e+00,2.324831e+00,2.307892e+00,3,3,2.659014e+00,2.659016e+00,1
2.244931e+00,6.902620e-01,6.740093e-01,3,0,6.160887e+00,6.160899e+00,1
2.247268e+00,1.390746e+00,1.376152e+00,3,1,8.024999e+00,8.032926e+00,1
2.245797e+00,1.603994e+00,1.589060e+00,3,1,7.644922e+00,7.646403e+00,1
2.250052e+00,4.417969e+00,4.402161e+00,3,6,1.329255e+01,1.330792e+01,1
4.491536e+00,6.417624e+00,6.395102e+00,6,7,1.451573e+01,1.702213e+01,0
3.730716e+00,3.692926e+00,3.677130e+00,5,5,1.326335e+01,1.323476e+01,1
2.994845e+00,4.827879e+00,4.805088e+00,4,7,9.253187e+00,9.284995e+00,1
2.257437e+00,1.048946e+01,1.047301e+01,3,16,7.547353e+00,7.846655e+00,1
2.257065e+00,1.030762e+01,1.029181e+01,3,16,7.802431e+00,9.186647e+00,1
2.274016e+00,2.045018e+01,2.043319e+01,3,34,8.529585e+00,1.143418e+01,1
3.000362e+00,2.402194e+00,2.379656e+00,4,0,9.676027e+00,1.841265e+01,0
4.524029e+00,1.312300e+01,1.309896e+01,6,19,9.390428e+00,1.905985e+01,0
3.740992e+00,2.372494e+00,2.348900e+00,5,0,1.897559e+01,4.828638e+01,0
4.489147e+00,2.361452e+00,2.338171e+00,6,0,2.308700e+01,4.626321e+01,0
4.489892e+00,2.359768e+00,2.339125e+00,6,0,2.231657e+01,2.959173e+01,0
4.494501e+00,2.932394e+01,2.930045e+01,6,48,1.676314e+01,1.876242e+01,0
2.994006e+00,8.924734e+00,8.908033e+00,4,14,1.511065e+01,1.521028e+01,1
2.245714e+00,5.976184e+00,5.959749e+00,3,9,1.484194e+01,1.493451e+01,1
2.247102e+00,9.212256e+00,9.191990e+00,3,11,2.267198e+01,3.116465e+01,0
2.993468e+00,1.159600e+01,1.157999e+01,4,19,1.408110e+01,1.413702e+01,1
2.252045e+00,4.300496e+00,4.283667e+00,3,6,1.281697e+01,1.289062e+01,1
2.249806e+00,4.082409e+00,4.059076e+00,3,3,1.053378e+01,1.407071e+01,0
2.246073e+00,2.449585e+00,2.426386e+00,3,0,1.182073e+01,3.322887e+01,0
4.482291e+00,3.528405e+00,3.506660e+00,6,2,1.232889e+01,4.135166e+01,0
4.481106e+00,3.719247e+00,3.696918e+00,6,2,1.058737e+01,3.561808e+01,0
4.485047e+00,4.815615e+00,4.794359e+00,6,4,8.256177e+00,1.996159e+01,0
2.993120e+00,3.968099e+00,3.952980e+00,4,6,5.121931e+00,5.119469e+00,1
2.990336e+00,1.126542e+00,1.110077e+00,4,1,3.947832e+00,3.947832e+00,1
2.248272e+00,1.957871e+00,1.941919e+00,3,2,3.233841e+00,3.239134e+00,1
2.247814e+00,8.725220e-01,8.547306e-01,3,0,2.930691e+00,2.941229e+00,1
2.277866e+00,2.816152e+00,2.799034e+00,3,3,7.409518e+00,7.465134e+00,1
3.007811e+00,2.756078e+00,2.733946e+00,4,3,5.266921e+00,5.331453e+00,1
2.253133e+00,2.222033e+00,2.200127e+00,3,2,7.592293e+00,7.694337e+00,1
2.246054e+00,2.463068e+00,2.442122e+00,3,0,1.249688e+01,2.344738e+01,0
4.485832e+00,2.438752e+00,2.416849e+00,6,0,1.518557e+01,3.029645e+01,0
4.486457e+00,2.446982e+00,2.424002e+00,6,0,1.733536e+01,3.668798e+01,0
3.731996e+00,5.472512e+00,5.451679e+00,5,5,1.287044e+01,2.289465e+01,0
2.994625e+00,2.979402e+00,2.956867e+00,4,1,1.042027e+01,1.727180e+01,0
2.247515e+00,5.463264e+00,5.442142e+00,3,5,7.873730e+00,8.376458e+00,0
2.265244e+00,2.477052e+00,2.459764e+00,3,3,6.192155e+00,6.206450e+00,1
2.245822e+00,1.231585e+00,1.215935e+00,3,1,4.963476e+00,4.963477e+00,1
2.291779e+00,3.863706e+00,3.843069e+00,3,5,5.676018e+00,5.736621e+00,1
2.267200e+00,2.593889e+00,2.578259e+00,3,3,4.920594e+00,4.944156e+00,1
2.245448e+00,8.418820e-01,8.270741e-01,3,0,4.588540e+00,4.591668e+00,1
2.259106e+00,1.393884e+00,1.379013e+00,3,1,4.558681e+00,4.560368e+00,1
2.293686e+00,2.120067e+00,2.104998e+00,3,2,5.328137e+00,5.346978e+00,1
3.020230e+00,1.643579e+01,1.641178e+01,4,24,1.124538e+01,1.348078e+01,0
4.511678e+00,1.184477e+01,1.182199e+01,6,20,8.751248e+00,8.941028e+00,1
3.752216e+00,5.562581e+00,5.537033e+00,5,8,7.463312e+00,7.530460e+00,1
3.740727e+00,4.315891e+00,4.297972e+00,5,6,7.883438e+00,8.017002e+00,1
4.484313e+00,3.113799e+00,3.096819e+00,6,4,7.219645e+00,7.211205e+00,1
2.993568e+00,4.534955e+00,4.513025e+00,4,6,8.298740e+00,8.309419e+00,1
2.245122e+00,1.780113e+00,1.764059e+00,3,2,5.448074e+00,5.447877e+00,1
2.246703e+00,1.850404e+00,1.835108e+00,3,2,7.483806e+00,7.483855e+00,1
2.993642e+00,2.592574e+00,2.577066e+00,4,3,7.486153e+00,7.497446e+00,1
2.245836e+00,1.231126e+00,1.214981e+00,3,1,4.657961e+00,4.657959e+00,1
2.245039e+00,6.877600e-01,6.718636e-01,3,0,4.402581e+00,4.402583e+00,1
2.241753e+00,6.870370e-01,6.666183e-01,3,0,3.241040e+00,3.241040e+00,1
2.251337e+00,6.815270e-01,6.668568e-01,3,0,2.446886e+00,2.446886e+00,1
2.247671e+00,6.811650e-01,6.659031e-01,3,0,1.675064e+00,1.675064e+00,1
2.247844e+00,6.814190e-01,6.649494e-01,3,0,1.698600e+00,1.698601e+00,1
2.249515e+00,6.831540e-01,6.670952e-01,3,0,3.093485e+00,3.093471e+00,1
2.249494e+00,6.814440e-01,6.659031e-01,3,0,1.533679e+00,1.533679e+00,1
2.245422e+00,6.818570e-01,6.661415e-01,3,0,2.014845e+00,2.014847e+00,1
2.244222e+00,6.825170e-01,6.668568e-01,3,0,3.211057e+00,3.211061e+00,1
2.244817e+00,2.041361e+00,2.024889e+00,3,2,3.336012e+00,3.353392e+00,1
2.249331e+00,1.386779e+00,1.371145e+00,3,1,5.006627e+00,5.019896e+00,1
2.244135e+00,1.788438e+00,1.772881e+00,3,2,5.562870e+00,5.559898e+00,1
2.989121e+00,1.130703e+00,1.115084e+00,4,1,2.791612e+00,2.791606e+00,1
2.243761e+00,6.897490e-01,6.737709e-01,3,0,2.293966e+00,2.293959e+00,1
2.243976e+00,6.878700e-01,6.718636e-01,3,0,4.378232e+00,4.378241e+00,1
2.245555e+00,6.886310e-01,6.730556e-01,3,0,2.708226e+00,2.708224e+00,1
2.243598e+00,6.887520e-01,6.730556e-01,3,0,1.586784e+00,1.586785e+00,1
2.243435e+00,7.013520e-01,6.859303e-01,3,0,1.742349e+00,1.742351e+00,1
2.242169e+00,6.873160e-01,6.718636e-01,3,0,1.715660e+00,1.715661e+00,1
2.246299e+00,6.882260e-01,6.730556e-01,3,0,1.931138e+00,1.931140e+00,1
2.245182e+00,6.871080e-01,6.709099e-01,3,0,1.565087e+00,1.565088e+00,1
2.245631e+00,6.904340e-01,6.761551e-01,3,0,1.197593e+00,1.197594e+00,1
2.245123e+00,7.023580e-01,6.861687e-01,3,0,1.745063e+00,1.745065e+00,1
2.244096e+00,6.880250e-01,6.730556e-01,3,0,1.613463e+00,1.613464e+00,1
2.244546e+00,6.894780e-01,6.749630e-01,3,0,8.928255e-01,8.928256e-01,1
2.242170e+00,6.874910e-01,6.730556e-01,3,0,1.087946e+00,1.087947e+00,1
2.244268e+00,6.878420e-01,6.721020e-01,3,0,2.739243e+00,2.739249e+00,1
2.246105e+00,1.392711e+00,1.378059e+00,3,1,4.393960e+00,4.416601e+00,1
2.249133e+00,1.231671e+00,1.216888e+00,3,1,2.905899e+00,2.905898e+00,1
2.249204e+00,6.814000e-01,6.659031e-01,3,0,2.841299e+00,2.841300e+00,1
2.250229e+00,1.839906e+00,1.825094e+00,3,2,5.553307e+00,5.551979e+00,1
4.485137e+00,6.831837e+00,6.815910e+00,6,10,9.631401e+00,9.660135e+00,1
3.742187e+00,7.637964e+00,7.621050e+00,5,12,6.416548e+00,6.430421e+00,1
2.246056e+00,1.396834e+00,1.381159e+00,3,1,3.807348e+00,3.811779e+00,1
2.245215e+00,8.442280e-01,8.289814e-01,3,0,5.342259e+00,5.388505e+00,1
2.255336e+00,2.901339e+00,2.887011e+00,3,3,6.636101e+00,6.655898e+00,1
2.249741e+00,1.966532e+00,1.950979e+00,3,2,6.303191e+00,6.307958e+00,1
2.248977e+00,2.424244e+00,2.409220e+00,3,3,4.871799e+00,4.871799e+00,1
2.245953e+00,1.393027e+00,1.377821e+00,3,1,4.214367e+00,4.215693e+00,1
2.248949e+00,2.589884e+00,2.567053e+00,3,3,4.490639e+00,4.497110e+00,1
2.255724e+00,2.793354e+00,2.777100e+00,3,3,6.141922e+00,6.176741e+00,1
2.991423e+00,2.248762e+00,2.232075e+00,4,3,4.833125e+00,4.832950e+00,1
3.739447e+00,1.134676e+00,1.118898e+00,5,1,3.585086e+00,3.584510e+00,1
2.244283e+00,6.916790e-01,6.768703e-01,3,0,2.714930e+00,2.714911e+00,1
2.244050e+00,6.978400e-01,6.828308e-01,3,0,3.835049e+00,3.834901e+00,1
2.242541e+00,6.892020e-01,6.730556e-01,3,0,4.999252e+00,4.999263e+00,1
2.244113e+00,6.897260e-01,6.740093e-01,3,0,5.034242e+00,5.034246e+00,1
2.242241e+00,6.885220e-01,6.730556e-01,3,0,1.617389e+00,1.617388e+00,1
2.243580e+00,6.879780e-01,6.730556e-01,3,0,1.882113e+00,1.882115e+00,1
2.243706e+00,6.875090e-01,6.730556e-01,3,0,3.074636e+00,3.074641e+00,1
2.247216e+00,5.180570e+00,5.164862e+00,3,7,7.418392e+00,7.568432e+00,1
2.248447e+00,6.371534e+00,6.356955e+00,3,10,4.065419e+00,4.066073e+00,1
2.245834e+00,8.437340e-01,8.268356e-01,3,0,3.569636e+00,3.569675e+00,1
2.248874e+00,1.931787e+00,1.915932e+00,3,2,2.882498e+00,2.882682e+00,1
2.243143e+00,8.374930e-01,8.211136e-01,3,0,2.204722e+00,2.211888e+00,1
2.245169e+00,1.230470e+00,1.214981e+00,3,1,1.778094e+00,1.778094e+00,1
2.243853e+00,6.874900e-01,6.709099e-01,3,0,1.585935e+00,1.585937e+00,1
2.245859e+00,6.873390e-01,6.721020e-01,3,0,1.344087e+00,1.344088e+00,1
2.244893e+00,6.868150e-01,6.706715e-01,3,0,1.535736e+00,1.535738e+00,1
2.243588e+00,6.864290e-01,6.699562e-01,3,0,1.378364e+00,1.378365e+00,1
2.250583e+00,2.035674e+00,2.021074e+00,3,2,4.236673e+00,4.336781e+00,1
2.245949e+00,1.779834e+00,1.763821e+00,3,2,4.055027e+00,4.055029e+00,1
2.245427e+00,6.878640e-01,6.718636e-01,3,0,2.331263e+00,2.331261e+00,1
2.246375e+00,6.887700e-01,6.730556e-01,3,0,1.603276e+00,1.603278e+00,1
2.242417e+00,6.876080e-01,6.721020e-01,3,0,1.656818e+00,1.656819e+00,1
2.240988e+00,6.874500e-01,6.718636e-01,3,0,8.665593e-01,8.665604e-01,1
2.242118e+00,6.881170e-01,6.721020e-01,3,0,2.682258e+00,2.682264e+00,1
2.244588e+00,6.891330e-01,6.740093e-01,3,0,1.994183e+00,1.994183e+00,1
2.249006e+00,4.590650e+00,4.574060e+00,3,6,6.615273e+00,6.737038e+00,1
2.245928e+00,3.948669e+00,3.932953e+00,3,6,2.602053e+00,2.602047e+00,1
3.019455e+00,1.031334e+01,1.029181e+01,4,13,1.153677e+01,1.455426e+01,0
4.491100e+00,6.511581e+00,6.488800e+00,6,7,1.142756e+01,1.242886e+01,0
2.996744e+00,1.165519e+01,1.163816e+01,4,19,8.724230e+00,8.801062e+00,1
2.247324e+00,3.410302e+00,3.393888e+00,3,5,5.225132e+00,5.225120e+00,1
2.244923e+00,6.901550e-01,6.749630e-01,3,0,5.699443e+00,5.699446e+00,1
2.244754e+00,6.874650e-01,6.718636e-01,3,0,5.648453e+00,5.648436e+00,1
2.245287e+00,6.883220e-01,6.718636e-01,3,0,6.553725e+00,6.553393e+00,1
2.992423e+00,2.148409e+00,2.134085e+00,4,2,6.319400e+00,6.334487e+00,1
2.243405e+00,1.488980e+00,1.471996e+00,3,1,9.690278e+00,9.736610e+00,1
2.244289e+00,2.790561e+00,2.774954e+00,3,3,7.122174e+00,7.129851e+00,1
2.246306e+00,5.241764e+00,5.226851e+00,3,7,6.102224e+00,6.131461e+00,1
2.245806e+00,3.946127e+00,3.930092e+00,3,6,4.967855e+00,4.967860e+00,1
2.245388e+00,1.395560e+00,1.379967e+00,3,1,5.446997e+00,5.447097e+00,1
2.248961e+00,1.231529e+00,1.214981e+00,3,1,5.022128e+00,5.022130e+00,1
2.246260e+00,6.945000e-01,6.790161e-01,3,0,5.575741e+00,5.575745e+00,1
2.244862e+00,6.888550e-01,6.718636e-01,3,0,4.281716e+00,4.281716e+00,1
2.249849e+00,6.806800e-01,6.651878e-01,3,0,4.862459e+00,4.862461e+00,1
2.266416e+00,6.816210e-01,6.659031e-01,3,0,2.830738e+00,2.830737e+00,1
2.249850e+00,6.901330e-01,6.740093e-01,3,0,2.187031e+00,2.187032e+00,1
2.247871e+00,6.832420e-01,6.670952e-01,3,0,1.763402e+00,1.763403e+00,1
2.253783e+00,6.819840e-01,6.659031e-01,3,0,2.021535e+00,2.021537e+00,1
2.251349e+00,6.822810e-01,6.670952e-01,3,0,1.364567e+00,1.364567e+00,1
2.265848e+00,6.828260e-01,6.670952e-01,3,0,2.376367e+00,2.376354e+00,1
2.251217e+00,6.832280e-01,6.670952e-01,3,0,1.576911e+00,1.576912e+00,1
2.255349e+00,6.824110e-01,6.670952e-01,3,0,1.719411e+00,1.719412e+00,1
2.250375e+00,6.831890e-01,6.670952e-01,3,0,2.565363e+00,2.565367e+00,1
2.256659e+00,1.148014e+00,1.132011e+00,3,1,3.722303e+00,3.721988e+00,1
3.738558e+00,1.131577e+00,1.115084e+00,5,1,2.882012e+00,2.881678e+00,1
2.243421e+00,6.903260e-01,6.699562e-01,3,0,2.741233e+00,2.741235e+00,1
2.244712e+00,2.008222e+00,1.993179e+00,3,2,2.485148e+00,2.486040e+00,1
2.245648e+00,1.490873e+00,1.471043e+00,3,1,3.920542e+00,3.952474e+00,1
2.242683e+00,1.391555e+00,1.374722e+00,3,1,3.035369e+00,3.254500e+00,1
2.248986e+00,1.385796e+00,1.370907e+00,3,1,3.060742e+00,3.123122e+00,1
2.245831e+00,1.995352e+00,1.978874e+00,3,2,2.741812e+00,2.741424e+00,1
2.248153e+00,1.150053e+00,1.133919e+00,3,1,4.801571e+00,4.801492e+00,1
2.993282e+00,2.483815e+00,2.468109e+00,4,3,3.284586e+00,3.305253e+00,1
2.248120e+00,2.589106e+00,2.573013e+00,3,3,5.114893e+00,5.117310e+00,1
2.251364e+00,1.231986e+00,1.217127e+00,3,1,4.858138e+00,4.858139e+00,1
2.251190e+00,2.583923e+00,2.568960e+00,3,3,6.982727e+00,7.025246e+00,1
4.484322e+00,8.345190e-01,8.180141e-01,6,0,8.409040e+00,8.425799e+00,1
2.991336e+00,2.325806e+00,2.310991e+00,4,3,5.049692e+00,5.049689e+00,1
2.246565e+00,6.908270e-01,6.749630e-01,3,0,4.118317e+00,4.118317e+00,1
2.244263e+00,6.977720e-01,6.809235e-01,3,0,3.908272e+00,3.908274e+00,1
2.245992e+00,6.865800e-01,6.721020e-01,3,0,3.872066e+00,3.872069e+00,1
2.245670e+00,6.887590e-01,6.721020e-01,3,0,3.021869e+00,3.021870e+00,1
2.246902e+00,6.899870e-01,6.752014e-01,3,0,2.425481e+00,2.425482e+00,1
2.244345e+00,6.897080e-01,6.740093e-01,3,0,2.450190e+00,2.450193e+00,1
2.244091e+00,1.393350e+00,1.378059e+00,3,1,2.435750e+00,2.471633e+00,1
2.246355e+00,1.993932e+00,1.979113e+00,3,2,2.271017e+00,2.271018e+00,1
2.245869e+00,6.870620e-01,6.721020e-01,3,0,2.475301e+00,2.475304e+00,1
2.244982e+00,6.877860e-01,6.670952e-01,3,0,2.577053e+00,2.577055e+00,1
2.250955e+00,6.824830e-01,6.668568e-01,3,0,2.861972e+00,2.861910e+00,1
2.242772e+00,1.144871e+00,1.128912e+00,3,1,4.261808e+00,4.259443e+00,1
2.992686e+00,1.604483e+00,1.589060e+00,4,2,3.546204e+00,3.545242e+00,1
4.479844e+00,1.131335e+00,1.115084e+00,6,1,3.485851e+00,3.485715e+00,1
2.994429e+00,2.269658e+00,2.254009e+00,4,3,5.797690e+00,5.798371e+00,1
4.485226e+00,2.581190e+00,2.566099e+00,6,3,9.381192e+00,9.404636e+00,1
4.487049e+00,2.538896e+00,2.523899e+00,6,3,1.102609e+01,1.100762e+01,1
2.996935e+00,2.909536e+00,2.892971e+00,4,4,8.478675e+00,8.478465e+00,1
3.020000e+00,1.934800e+00,1.919031e+00,4,2,6.685909e+00,6.687185e+00,1
2.245324e+00,1.487865e+00,1.472235e+00,3,1,4.429379e+00,4.455775e+00,1
2.246110e+00,2.034017e+00,2.017975e+00,3,2,3.440697e+00,3.454705e+00,1
2.247629e+00,2.794285e+00,2.779961e+00,3,3,3.368911e+00,3.427014e+00,1
2.245209e+00,2.144597e+00,2.129078e+00,3,2,2.594796e+00,2.633767e+00,1
2.244957e+00,1.992699e+00,1.977921e+00,3,2,1.815637e+00,1.815637e+00,1
2.245052e+00,6.906900e-01,6.749630e-01,3,0,1.948612e+00,1.948614e+00,1
2.245077e+00,6.965300e-01,6.802082e-01,3,0,3.497957e+00,3.497963e+00,1
2.245529e+00,6.883160e-01,6.728172e-01,3,0,3.222786e+00,3.222787e+00,1
2.243819e+00,6.895900e-01,6.737709e-01,3,0,2.446012e+00,2.446012e+00,1
2.244689e+00,6.942390e-01,6.790161e-01,3,0,2.746024e+00,2.746026e+00,1
2.244124e+00,6.878440e-01,6.721020e-01,3,0,2.608753e+00,2.608755e+00,1
2.243695e+00,1.394077e+00,1.378059e+00,3,1,4.498569e+00,4.528840e+00,1
2.245029e+00,1.231677e+00,1.216888e+00,3,1,4.520745e+00,4.520746e+00,1
2.244359e+00,6.875820e-01,6.670952e-01,3,0,6.581815e+00,6.581813e+00,1
2.249535e+00,6.814580e-01,6.659031e-01,3,0,5.357149e+00,5.357148e+00,1
2.244384e+00,1.144200e+00,1.129150e+00,3,1,1.105999e+01,1.105960e+01,1
3.743522e+00,1.137851e+00,1.121998e+00,5,1,1.233368e+01,1.233327e+01,1
2.245175e+00,6.986980e-01,6.828308e-01,3,0,1.117745e+01,1.117745e+01,1
2.251104e+00,1.374043e+00,1.358986e+00,3,1,1.020878e+01,1.020894e+01,1
2.246145e+00,1.231739e+00,1.215696e+00,3,1,1.007289e+01,1.007290e+01,1
2.245895e+00,3.201274e+00,3.185034e+00,3,4,7.669536e+00,7.675639e+00,1
2.246948e+00,1.778868e+00,1.763105e+00,3,2,7.210067e+00,7.210069e+00,1
2.245624e+00,6.884960e-01,6.740093e-01,3,0,6.229724e+00,6.229725e+00,1
2.245921e+00,6.879420e-01,6.721020e-01,3,0,5.859870e+00,5.859873e+00,1
2.250174e+00,1.375158e+00,1.359940e+00,3,1,5.942654e+00,5.947082e+00,1
2.271718e+00,2.554439e+00,2.539873e+00,3,3,5.062147e+00,5.080173e+00,1
2.252648e+00,4.572405e+00,4.555702e+00,3,6,5.388061e+00,5.439652e+00,1
2.249259e+00,6.050720e+00,6.034136e+00,3,9,4.115063e+00,4.138472e+00,1
2.246904e+00,7.634452e+00,7.617950e+00,3,11,6.923410e+00,7.091155e+00,1
2.996693e+00,6.333590e+00,6.319046e+00,4,10,4.140620e+00,4.237660e+00,1
2.999797e+00,9.603323e+00,9.588003e+00,4,14,9.290345e+00,9.452598e+00,1
3.742685e+00,8.892969e+00,8.875132e+00,5,14,7.626975e+00,7.646634e+00,1
2.994710e+00,2.570937e+00,2.556086e+00,4,3,8.389914e+00,8.492341e+00,1
2.252193e+00,1.938357e+00,1.922131e+00,3,2,7.560743e+00,7.615003e+00,1
2.251500e+00,8.399550e-01,8.249283e-01,3,0,8.801655e+00,8.846802e+00,1
2.994583e+00,1.921677e+00,1.906872e+00,4,2,5.447788e+00,5.447794e+00,1
2.245977e+00,1.237140e+00,1.222134e+00,3,1,4.791441e+00,4.791442e+00,1
2.245454e+00,6.905500e-01,6.759167e-01,3,0,5.965518e+00,5.965525e+00,1
2.260089e+00,1.567596e+01,1.565528e+01,3,22,1.637180e+01,1.867968e+01,0
2.999213e+00,1.245622e+01,1.243997e+01,4,21,7.677924e+00,7.679774e+00,1
2.248060e+00,1.238890e+00,1.223087e+00,3,1,6.535729e+00,6.535729e+00,1
2.244876e+00,6.880440e-01,6.730556e-01,3,0,5.863582e+00,5.863584e+00,1
2.246881e+00,1.387612e+00,1.372099e+00,3,1,7.710517e+00,7.712717e+00,1
2.246009e+00,1.233393e+00,1.217842e+00,3,1,5.029786e+00,5.029781e+00,1
2.249320e+00,6.850400e-01,6.690025e-01,3,0,4.589328e+00,4.589329e+00,1
2.248945e+00,3.105194e+00,3.088951e+00,3,4,7.367637e+00,7.368943e+00,1
2.991403e+00,2.878242e+00,2.861977e+00,4,4,4.155024e+00,4.155024e+00,1
2.244735e+00,6.907880e-01,6.752014e-01,3,0,3.490166e+00,3.490169e+00,1
2.325643e+00,6.881150e-01,6.718636e-01,3,0,3.214663e+00,3.214667e+00,1
2.244065e+00,6.887340e-01,6.730556e-01,3,0,3.106314e+00,3.106309e+00,1
2.243059e+00,6.877810e-01,6.721020e-01,3,0,1.588833e+00,1.588833e+00,1
2.243114e+00,6.875050e-01,6.718636e-01,3,0,1.586838e+00,1.586839e+00,1
2.242644e+00,6.942120e-01,6.799698e-01,3,0,1.945203e+00,1.945205e+00,1
2.245557e+00,6.932270e-01,6.771088e-01,3,0,3.820129e+00,3.820137e+00,1
2.245204e+00,6.886450e-01,6.730556e-01,3,0,3.571943e+00,3.571945e+00,1
2.245351e+00,6.882070e-01,6.730556e-01,3,0,2.295466e+00,2.295465e+00,1
2.243563e+00,6.878520e-01,6.730556e-01,3,0,1.431590e+00,1.431591e+00,1
2.251938e+00,1.938243e+00,1.922846e+00,3,2,2.206477e+00,2.210142e+00,1
3.739419e+00,2.029890e+00,2.013922e+00,5,2,3.026871e+00,3.075768e+00,1
2.244919e+00,2.148468e+00,2.133131e+00,3,2,1.970807e+00,1.978159e+00,1
2.249586e+00,1.233226e+00,1.218081e+00,3,1,1.359984e+00,1.359986e+00,1
2.250694e+00,6.825290e-01,6.666183e-01,3,0,1.419105e+00,1.419107e+00,1
2.259041e+00,6.835610e-01,6.690025e-01,3,0,3.397000e+00,3.397007e+00,1
2.247207e+00,1.392464e+00,1.378059e+00,3,1,4.259560e+00,4.315605e+00,1
2.246782e+00,5.712346e+00,5.696058e+00,3,8,1.080258e+01,1.094625e+01,1
3.742454e+00,7.204261e+00,7.188082e+00,5,11,1.065299e+01,1.070906e+01,1
2.994665e+00,4.308017e+00,4.291058e+00,4,6,7.999749e+00,8.010320e+00,1
2.254154e+00,2.324431e+00,2.307177e+00,3,3,6.335803e+00,6.335802e+00,1
2.246253e+00,6.959580e-01,6.790161e-01,3,0,4.718418e+00,4.718417e+00,1
2.251264e+00,6.900990e-01,6.699562e-01,3,0,4.325621e+00,4.325624e+00,1
2.250876e+00,6.975480e-01,6.821156e-01,3,0,5.448381e+00,5.448388e+00,1
2.277526e+00,3.647645e+00,3.626108e+00,3,2,7.399836e+00,1.122765e+01,0
4.510004e+00,2.464633e+00,2.439260e+00,6,0,7.170552e+00,1.425075e+01,0
4.524151e+00,5.883133e+00,5.858660e+00,6,7,7.290137e+00,1.328093e+01,0
4.483450e+00,1.136744e+00,1.118898e+00,6,1,3.819931e+00,3.806364e+00,1
2.992070e+00,1.574450e+00,1.558065e+00,4,2,2.076763e+00,2.076764e+00,1
2.245168e+00,6.891000e-01,6.701946e-01,3,0,2.130541e+00,2.130543e+00,1
2.250508e+00,6.842220e-01,6.692410e-01,3,0,1.886100e+00,1.886102e+00,1
2.249065e+00,6.843700e-01,6.690025e-01,3,0,2.105135e+00,2.105136e+00,1
2.253273e+00,6.826540e-01,6.670952e-01,3,0,1.346603e+00,1.346603e+00,1
2.252708e+00,6.827770e-01,6.668568e-01,3,0,1.237825e+00,1.237826e+00,1
2.245283e+00,1.388952e+00,1.374006e+00,3,1,1.467873e+00,1.496553e+00,1
2.245365e+00,1.491686e+00,1.476049e+00,3,1,5.897044e+00,5.906083e+00,1
2.246993e+00,8.498073e+00,8.482933e+00,3,13,9.263857e+00,9.301145e+00,1
4.485949e+00,5.504867e+00,5.490065e+00,6,8,1.011731e+01,1.018775e+01,1
4.490036e+00,3.100570e+00,3.085136e+00,6,4,7.955666e+00,7.969138e+00,1
2.995421e+00,3.415808e+00,3.400087e+00,4,5,4.697341e+00,4.697339e+00,1
2.246991e+00,6.919700e-01,6.749630e-01,3,0,4.674903e+00,4.674908e+00,1
2.254563e+00,2.052264e+00,2.036095e+00,3,2,6.086501e+00,6.153929e+00,1
2.248916e+00,3.203822e+00,3.186703e+00,3,4,6.774755e+00,6.839974e+00,1
4.483622e+00,2.314921e+00,2.298117e+00,6,3,5.080141e+00,5.065564e+00,1
4.480992e+00,3.625630e+00,3.604174e+00,6,2,1.543026e+01,3.723546e+01,0
4.481792e+00,2.462353e+00,2.439022e+00,6,0,2.950655e+01,6.814249e+01,0
4.482511e+00,2.438430e+00,2.417088e+00,6,0,3.327700e+01,6.557515e+01,0
4.480000e+00,2.446179e+00,2.424717e+00,6,0,2.012147e+01,2.138059e+01,0
4.480272e+00,2.436981e+00,2.415895e+00,6,0,2.821745e+01,3.689573e+01,0
4.480666e+00,2.436163e+00,2.413988e+00,6,0,2.412090e+01,1.973448e+01,0
2.996686e+00,6.085395e+00,6.068945e+00,4,9,2.018244e+01,2.031263e+01,1
2.246932e+00,3.062029e+00,3.041029e+00,3,1,2.202466e+01,2.632164e+01,0
2.994684e+00,5.466488e+00,5.450964e+00,4,8,1.906275e+01,1.909445e+01,1
4.487568e+00,4.726917e+00,4.705191e+00,6,4,2.242726e+01,2.386781e+01,0
4.504253e+00,2.431100e+00,2.408981e+00,6,0,2.562397e+01,2.634353e+01,0
3.014656e+00,5.838555e+00,5.817175e+00,4,6,2.146410e+01,2.312112e+01,0
2.999186e+00,6.630291e+00,6.607056e+00,4,7,1.693469e+01,3.231796e+01,0
2.994065e+00,9.750776e+00,9.729862e+00,4,12,1.251819e+01,1.914813e+01,0
2.250251e+00,6.700779e+00,6.679296e+00,3,7,1.102088e+01,1.786553e+01,0
2.246444e+00,2.454194e+00,2.433300e+00,3,0,9.725859e+00,2.612070e+01,0
3.004196e+00,2.604105e+01,2.601957e+01,4,40,7.979312e+00,9.263401e+00,0
2.250710e+00,8.851902e+00,8.829832e+00,3,11,8.742754e+00,1.785814e+01,0
3.746940e+00,1.858500e+01,1.856995e+01,5,32,5.130411e+00,5.523818e+00,1
3.741624e+00,7.363460e+00,7.344961e+00,5,11,6.050066e+00,6.302240e+00,1
4.481779e+00,7.776213e+00,7.760048e+00,6,12,6.823420e+00,7.138525e+00,1
4.486809e+00,4.731710e+00,4.715204e+00,6,7,6.688298e+00,6.737738e+00,1
4.484995e+00,4.199773e+00,4.184961e+00,6,6,6.376059e+00,6.374949e+00,1
2.245288e+00,1.790062e+00,1.774073e+00,3,2,4.064825e+00,4.064808e+00,1
2.246057e+00,6.919960e-01,6.759167e-01,3,0,5.008262e+00,5.008265e+00,1
2.245203e+00,6.908840e-01,6.749630e-01,3,0,4.124833e+00,4.124833e+00,1
2.264889e+00,2.599341e+00,2.583981e+00,3,3,5.638492e+00,5.642802e+00,1
3.016631e+00,3.019395e+00,3.003120e+00,4,4,4.572928e+00,4.573634e+00,1
2.246027e+00,1.236045e+00,1.220226e+00,3,1,4.339721e+00,4.339724e+00,1
2.246410e+00,2.003394e+00,1.987934e+00,3,2,5.394402e+00,5.395047e+00,1
2.992801e+00,1.456702e+00,1.440048e+00,4,1,6.411859e+00,6.440104e+00,1
2.246014e+00,1.607031e+00,1.593113e+00,3,1,6.277444e+00,6.286861e+00,1
2.243723e+00,2.029020e+00,2.013922e+00,3,2,5.474611e+00,5.477381e+00,1
2.253020e+00,3.657759e+00,3.642082e+00,3,5,3.239047e+00,3.239888e+00,1
2.253825e+00,9.200550e-01,8.990765e-01,3,0,2.732727e+00,2.770449e+00,1
2.245868e+00,1.389576e+00,1.373768e+00,3,1,3.341341e+00,3.341547e+00,1
2.249098e+00,1.254027e+00,1.232147e+00,3,1,2.798136e+00,2.798136e+00,1
2.267813e+00,4.493623e+00,4.476070e+00,3,6,5.522548e+00,5.556450e+00,1
4.485132e+00,3.034169e+00,3.015041e+00,6,4,4.205824e+00,4.200137e+00,1
2.994383e+00,1.441371e+00,1.424074e+00,4,1,2.818305e+00,2.820633e+00,1
2.244715e+00,1.253109e+00,1.236200e+00,3,1,2.910859e+00,2.910862e+00,1
2.245507e+00,6.966480e-01,6.809235e-01,3,0,3.536086e+00,3.536089e+00,1
2.250013e+00,1.950430e+00,1.935005e+00,3,2,6.088559e+00,6.089232e+00,1
2.993620e+00,1.781714e+00,1.766205e+00,4,2,6.473301e+00,6.473304e+00,1
2.245646e+00,1.160108e+00,1.145124e+00,3,1,5.117726e+00,5.117336e+00,1
2.991402e+00,1.135072e+00,1.120090e+00,4,1,4.667451e+00,4.667451e+00,1
2.244911e+00,1.397901e+00,1.382113e+00,3,1,5.002085e+00,5.009311e+00,1
2.245187e+00,2.140316e+00,2.123833e+00,3,2,4.775671e+00,4.783153e+00,1
2.243760e+00,1.393340e+00,1.378059e+00,3,1,4.968668e+00,4.989698e+00,1
2.245163e+00,2.253341e+00,2.238035e+00,3,2,3.865346e+00,3.895512e+00,1
2.245198e+00,2.037816e+00,2.022982e+00,3,2,3.407072e+00,3.466828e+00,1
2.251082e+00,2.149136e+00,2.134085e+00,3,2,4.205020e+00,4.282855e+00,1
2.245284e+00,8.385430e-01,8.227825e-01,3,0,3.488977e+00,3.517516e+00,1
2.247419e+00,2.153053e+00,2.138138e+00,3,2,3.726625e+00,3.730263e+00,1
2.246230e+00,1.239668e+00,1.224041e+00,3,1,4.614636e+00,4.614641e+00,1
2.244985e+00,6.907810e-01,6.752014e-01,3,0,3.896783e+00,3.896784e+00,1
2.246844e+00,1.148929e+00,1.134872e+00,3,1,6.065312e+00,6.064968e+00,1
4.487803e+00,3.835356e+00,3.820181e+00,6,5,8.682594e+00,8.666840e+00,1
3.742308e+00,3.563668e+00,3.547907e+00,5,5,8.093502e+00,8.091754e+00,1
2.252237e+00,1.252558e+00,1.236200e+00,3,1,4.296265e+00,4.296251e+00,1
2.253434e+00,6.989190e-01,6.821156e-01,3,0,3.611589e+00,3.611590e+00,1
2.249477e+00,6.903490e-01,6.730556e-01,3,0,4.068560e+00,4.068564e+00,1
2.245685e+00,6.861400e-01,6.699562e-01,3,0,2.050372e+00,2.050371e+00,1
2.246236e+00,6.918940e-01,6.749630e-01,3,0,2.534017e+00,2.534021e+00,1
2.246322e+00,6.923370e-01,6.759167e-01,3,0,4.163887e+00,4.163888e+00,1
2.243549e+00,6.889560e-01,6.740093e-01,3,0,3.600879e+00,3.600856e+00,1
2.246523e+00,3.203017e+00,3.186941e+00,3,4,7.619237e+00,7.622432e+00,1
2.995193e+00,4.662582e+00,4.641771e+00,4,4,1.004602e+01,1.338741e+01,0
2.995909e+00,4.834968e+00,4.812241e+00,4,4,1.037807e+01,1.146670e+01,0
4.488880e+00,2.456221e+00,2.433062e+00,6,0,1.284121e+01,1.725693e+01,0
4.488377e+00,2.502391e+00,2.477884e+00,6,0,1.385907e+01,1.861985e+01,0
4.494898e+00,5.002390e+00,4.983187e+00,6,7,1.064971e+01,1.065684e+01,1
2.995881e+00,4.736977e+00,4.712820e+00,4,4,1.262617e+01,1.539155e+01,0
2.993302e+00,3.024170e+00,3.008127e+00,4,4,6.092533e+00,6.094310e+00,1
2.246085e+00,1.239081e+00,1.223087e+00,3,1,6.194755e+00,6.194747e+00,1
2.243120e+00,6.917320e-01,6.749630e-01,3,0,5.004486e+00,5.004486e+00,1
2.244272e+00,6.909560e-01,6.749630e-01,3,0,5.970031e+00,5.970035e+00,1
2.242840e+00,6.899140e-01,6.749630e-01,3,0,4.432966e+00,4.432966e+00,1
2.251421e+00,2.022722e+00,2.007961e+00,3,2,3.895797e+00,3.905315e+00,1
2.251223e+00,4.401786e+00,4.386187e+00,3,6,4.716435e+00,4.745931e+00,1
2.254254e+00,1.794494e+00,1.777887e+00,3,2,2.573435e+00,2.573434e+00,1
2.247642e+00,2.042001e+00,2.025127e+00,3,2,3.104309e+00,3.105967e+00,1

