1.571422e+00,3.386067e+01,3.333616e+01,2,49,0.000000e+00,9.094947e-13,1
2.276253e+00,7.076610e-01,6.759167e-01,3,0,6.499147e-01,6.499162e-01,1
2.276506e+00,6.821420e-01,6.668568e-01,3,0,7.956163e-01,7.956171e-01,1
2.280448e+00,6.817050e-01,6.599426e-01,3,0,4.554839e+00,4.554849e+00,1
2.281906e+00,7.218010e-01,7.061958e-01,3,0,5.529573e+00,5.529575e+00,1
2.284478e+00,6.769050e-01,6.611347e-01,3,0,2.391730e+00,2.391723e+00,1
2.280639e+00,6.751220e-01,6.599426e-01,3,0,5.333189e+00,5.333200e+00,1
2.288775e+00,5.646773e+00,5.624771e+00,3,6,1.246881e+01,1.273417e+01,0
4.553125e+00,2.390783e+00,2.368212e+00,6,0,1.686338e+01,1.942759e+01,0
4.549628e+00,3.679401e+00,3.661871e+00,6,5,1.400958e+01,1.406674e+01,1
3.044388e+00,3.616440e+00,3.598928e+00,4,5,1.408870e+01,1.411371e+01,1
3.041738e+00,3.661514e+00,3.636599e+00,4,2,2.032495e+01,2.330005e+01,0
3.071752e+00,5.938325e+00,5.920887e+00,4,9,1.259704e+01,1.265372e+01,1
2.301984e+00,2.701974e+00,2.685070e+00,3,3,1.382238e+01,1.388348e+01,1
2.279538e+00,3.125485e+00,3.107786e+00,3,4,1.211816e+01,1.220997e+01,1
2.289014e+00,5.024402e+00,5.007744e+00,3,7,9.149540e+00,9.161276e+00,1
2.300130e+00,2.997741e+00,2.982140e+00,3,4,8.075626e+00,8.115424e+00,1
2.280933e+00,2.061135e+00,2.044916e+00,3,2,7.942129e+00,7.958789e+00,1
2.283501e+00,9.627358e+00,9.606123e+00,3,12,7.487444e+00,1.113078e+01,0
2.291514e+00,6.693275e+00,6.676197e+00,3,10,6.007562e+00,6.020455e+00,1
2.286647e+00,4.604805e+00,4.589081e+00,3,7,4.757514e+00,4.761506e+00,1
2.286786e+00,8.363380e-01,8.211136e-01,3,0,5.069449e+00,5.072222e+00,1
2.275875e+00,3.260310e+00,3.244162e+00,3,4,7.695154e+00,7.772325e+00,1
2.289652e+00,2.858373e+00,2.841949e+00,3,3,5.851214e+00,5.853680e+00,1
2.262880e+00,3.007928e+00,2.990007e+00,3,4,6.027651e+00,6.027714e+00,1
2.270318e+00,2.239299e+00,2.223969e+00,3,2,5.952605e+00,5.964941e+00,1
2.262891e+00,2.150541e+00,2.133131e+00,3,2,5.962199e+00,5.963497e+00,1
2.259702e+00,2.028859e+00,2.013922e+00,3,2,6.515605e+00,6.525360e+00,1
2.257969e+00,1.228064e+00,1.212835e+00,3,1,4.208152e+00,4.208148e+00,1
2.258621e+00,6.844890e-01,6.680489e-01,3,0,3.396426e+00,3.396426e+00,1
2.264152e+00,1.372014e+00,1.356840e+00,3,1,3.339649e+00,3.340597e+00,1
2.259393e+00,2.020368e+00,2.004862e+00,3,2,3.426686e+00,3.427477e+00,1
2.267758e+00,7.998522e+00,7.977009e+00,3,9,6.451454e+00,7.527407e+00,0
3.036181e+00,6.214791e+00,6.197929e+00,4,10,2.707217e+00,2.707216e+00,1
2.277182e+00,2.023155e+00,2.007008e+00,3,2,4.453203e+00,4.466306e+00,1
2.278112e+00,2.778792e+00,2.763987e+00,3,3,4.485407e+00,4.518931e+00,1
2.279700e+00,2.019263e+00,2.002716e+00,3,2,3.603567e+00,3.881068e+00,1
2.276150e+00,8.567010e-01,8.418560e-01,3,0,2.425182e+00,2.520086e+00,1
2.294969e+00,2.226164e+00,2.209902e+00,3,2,5.419437e+00,5.501857e+00,1
2.283097e+00,2.699609e+00,2.684116e+00,3,3,5.430475e+00,5.433180e+00,1
2.412390e+00,1.224642e+00,1.208067e+00,3,1,4.550808e+00,4.550809e+00,1
2.289018e+00,6.849660e-01,6.690025e-01,3,0,3.320043e+00,3.320045e+00,1
2.271481e+00,6.865870e-01,6.709099e-01,3,0,2.665818e+00,2.665819e+00,1
2.258011e+00,6.831860e-01,6.680489e-01,3,0,3.531948e+00,3.531953e+00,1
2.262224e+00,1.153928e+00,1.138210e+00,3,1,8.027641e+00,8.026802e+00,1
3.021846e+00,2.929232e+00,2.912045e+00,4,4,5.893200e+00,5.895189e+00,1
3.034348e+00,2.302065e+00,2.284050e+00,4,3,4.457891e+00,4.457892e+00,1
2.287000e+00,3.869659e+00,3.852129e+00,3,5,5.239231e+00,5.246007e+00,1
2.273234e+00,8.002651e+00,7.985830e+00,3,12,6.439721e+00,6.498287e+00,1
2.268419e+00,6.167947e+00,6.150723e+00,3,9,3.104598e+00,3.131191e+00,1
2.263430e+00,1.594009e+00,1.578093e+00,3,1,4.119890e+00,4.430284e+00,1
3.763919e+00,1.383302e+00,1.367092e+00,5,1,3.198933e+00,3.282658e+00,1
3.012292e+00,1.225973e+00,1.209021e+00,4,1,1.716543e+00,1.716543e+00,1
2.258799e+00,6.849160e-01,6.690025e-01,3,0,1.273914e+00,1.273914e+00,1
2.259700e+00,6.832130e-01,6.670952e-01,3,0,1.358530e+00,1.358533e+00,1
2.259256e+00,6.847340e-01,6.699562e-01,3,0,1.596316e+00,1.596317e+00,1
2.265810e+00,1.379054e+00,1.363993e+00,3,1,2.573131e+00,2.580974e+00,1
2.260645e+00,8.348760e-01,8.189678e-01,3,0,3.097826e+00,3.175318e+00,1
2.259531e+00,1.221755e+00,1.206160e+00,3,1,1.702360e+00,1.702360e+00,1
2.266199e+00,7.082580e-01,6.928444e-01,3,0,1.605653e+00,1.605654e+00,1
2.296052e+00,6.785540e-01,6.630421e-01,3,0,1.560947e+00,1.560947e+00,1
2.266319e+00,6.797270e-01,6.649494e-01,3,0,1.400957e+00,1.400958e+00,1
2.265220e+00,6.917730e-01,6.771088e-01,3,0,9.938400e-01,9.938409e-01,1
2.263988e+00,6.782050e-01,6.628036e-01,3,0,8.472653e-01,8.472658e-01,1
2.263852e+00,6.778830e-01,6.616116e-01,3,0,2.721332e+00,2.721338e+00,1
2.247398e+00,3.458785e+00,3.443956e+00,3,4,7.293733e+00,7.394641e+00,1
2.245283e+00,2.521126e+00,2.505064e+00,3,3,4.431462e+00,4.468360e+00,1
2.242379e+00,1.767097e+00,1.751184e+00,3,2,3.577783e+00,3.577784e+00,1
2.245988e+00,6.837840e-01,6.666183e-01,3,0,4.101793e+00,4.101800e+00,1
2.243173e+00,6.967330e-01,6.818771e-01,3,0,2.490684e+00,2.490683e+00,1
2.242962e+00,6.873440e-01,6.721020e-01,3,0,3.749516e+00,3.749521e+00,1
2.245103e+00,2.004072e+00,1.984119e+00,3,2,5.699441e+00,5.699883e+00,1
2.244249e+00,1.777530e+00,1.760960e+00,3,2,2.735234e+00,2.735219e+00,1
2.271212e+00,6.844120e-01,6.690025e-01,3,0,2.616352e+00,2.616344e+00,1
2.241975e+00,6.859930e-01,6.709099e-01,3,0,1.864302e+00,1.864304e+00,1
2.243440e+00,6.847360e-01,6.692410e-01,3,0,1.609027e+00,1.609027e+00,1
2.379407e+00,6.896990e-01,6.749630e-01,3,0,1.709986e+00,1.709987e+00,1
2.242680e+00,6.859200e-01,6.701946e-01,3,0,3.338149e+00,3.338153e+00,1
2.261050e+00,1.384201e+00,1.368046e+00,3,1,2.359680e+00,2.364622e+00,1
2.296056e+00,1.225363e+00,1.210213e+00,3,1,1.917473e+00,1.917473e+00,1
2.273393e+00,6.859440e-01,6.701946e-01,3,0,3.239798e+00,3.239803e+00,1
2.285774e+00,6.788720e-01,6.639957e-01,3,0,5.642573e+00,5.642579e+00,1
2.260182e+00,1.384686e+00,1.368999e+00,3,1,5.259748e+00,5.318169e+00,1
2.261988e+00,1.500301e+00,1.485109e+00,3,1,5.877602e+00,5.881119e+00,1
2.276165e+00,2.485544e+00,2.469063e+00,3,3,5.912790e+00,5.913356e+00,1
2.275472e+00,1.465104e+00,1.449108e+00,3,1,8.369969e+00,8.375450e+00,1
2.279058e+00,3.233519e+00,3.216982e+00,3,4,1.092976e+01,1.097287e+01,1
2.282493e+00,2.850348e+00,2.835035e+00,3,4,6.347782e+00,6.347645e+00,1
2.281598e+00,6.785940e-01,6.630421e-01,3,0,7.471825e+00,7.471807e+00,1
2.277703e+00,3.247480e+00,3.232956e+00,3,4,8.100549e+00,8.100679e+00,1
3.054809e+00,3.704589e+00,3.687859e+00,4,5,7.762643e+00,7.764219e+00,1
2.278063e+00,2.566486e+00,2.550125e+00,3,3,5.637920e+00,5.645189e+00,1
2.259465e+00,1.592442e+00,1.577139e+00,3,1,5.231542e+00,5.276612e+00,1
2.261330e+00,2.775342e+00,2.760172e+00,3,3,4.345114e+00,4.454946e+00,1
2.282577e+00,8.406330e-01,8.251667e-01,3,0,3.469414e+00,3.515403e+00,1
2.257499e+00,1.390184e+00,1.374006e+00,3,1,2.496714e+00,2.527491e+00,1
2.265220e+00,1.226675e+00,1.209974e+00,3,1,2.057984e+00,2.057985e+00,1
2.267695e+00,7.061690e-01,6.899834e-01,3,0,1.706993e+00,1.706994e+00,1
2.264332e+00,6.819290e-01,6.647110e-01,3,0,2.099489e+00,2.099491e+00,1
2.249307e+00,6.780200e-01,6.630421e-01,3,0,2.852470e+00,2.852474e+00,1
2.277714e+00,6.786170e-01,6.630421e-01,3,0,1.178900e+00,1.178899e+00,1
2.280261e+00,6.784380e-01,6.639957e-01,3,0,1.327081e+00,1.327082e+00,1
2.275394e+00,6.784440e-01,6.639957e-01,3,0,4.477286e+00,4.477273e+00,1
2.277204e+00,6.770820e-01,6.618500e-01,3,0,2.323114e+00,2.323111e+00,1
2.276381e+00,6.840830e-01,6.680489e-01,3,0,1.742027e+00,1.742027e+00,1
2.276363e+00,6.830870e-01,6.680489e-01,3,0,4.225650e+00,4.225659e+00,1
2.259132e+00,6.834590e-01,6.690025e-01,3,0,3.040430e+00,3.040429e+00,1
2.257879e+00,6.828190e-01,6.670952e-01,3,0,3.200104e+00,3.200109e+00,1
2.263136e+00,2.680157e+00,2.664089e+00,3,3,5.687762e+00,5.692370e+00,1
3.029950e+00,7.355917e+00,7.338762e+00,4,11,8.410856e+00,8.552524e+00,1
3.045672e+00,1.291455e+01,1.289797e+01,4,21,9.986766e+00,1.021946e+01,1
4.553154e+00,2.384387e+00,2.361059e+00,6,0,1.545964e+01,2.422607e+01,0
3.793416e+00,1.146124e+01,1.144409e+01,5,19,9.842869e+00,9.971422e+00,1
3.040826e+00,5.714406e+00,5.696774e+00,4,9,6.055565e+00,6.055765e+00,1
2.270773e+00,1.237047e+00,1.219988e+00,3,1,4.578306e+00,4.578306e+00,1
2.266758e+00,3.821761e+00,3.806829e+00,3,5,8.495863e+00,8.524781e+00,1
3.148755e+00,4.273018e+00,4.250050e+00,4,6,1.010046e+01,1.012850e+01,1
3.794986e+00,4.950610e+00,4.932880e+00,5,7,1.390769e+01,1.394237e+01,1
2.282464e+00,9.162693e+00,9.146929e+00,3,14,1.449782e+01,1.468401e+01,1
2.284652e+00,6.983691e+00,6.968021e+00,3,11,1.019566e+01,1.019809e+01,1
2.277264e+00,8.427680e-01,8.258820e-01,3,0,7.951223e+00,7.952717e+00,1
2.271144e+00,1.230162e+00,1.214027e+00,3,1,6.667438e+00,6.667438e+00,1
2.288107e+00,6.869630e-01,6.718636e-01,3,0,5.765625e+00,5.765626e+00,1
2.266151e+00,6.805710e-01,6.661415e-01,3,0,4.953338e+00,4.953340e+00,1
2.264039e+00,6.810140e-01,6.659031e-01,3,0,4.522331e+00,4.522332e+00,1
3.019111e+00,4.169679e+00,4.148245e+00,4,3,9.657169e+00,2.359204e+01,0
4.511153e+00,2.410052e+00,2.388239e+00,6,0,1.906207e+01,5.104226e+01,0
4.556277e+00,2.442060e+00,2.419472e+00,6,0,2.174124e+01,5.146951e+01,0
4.557979e+00,2.419667e+00,2.396107e+00,6,0,2.628210e+01,5.873321e+01,0
4.548212e+00,5.344503e+00,5.320072e+00,6,5,1.755567e+01,2.669655e+01,0
4.517957e+00,2.451944e+00,2.428293e+00,6,0,2.142775e+01,3.060301e+01,0
4.517630e+00,2.488031e+00,2.463341e+00,6,0,2.914821e+01,4.040728e+01,0
4.521345e+00,3.533913e+00,3.509998e+00,6,2,2.456241e+01,2.471420e+01,0
4.544426e+00,4.155884e+00,4.133224e+00,6,4,1.954273e+01,2.072061e+01,0
3.024976e+00,8.803306e+00,8.780956e+00,4,11,1.146658e+01,1.561589e+01,0
2.250769e+00,7.833831e+00,7.816792e+00,3,12,9.600596e+00,9.723365e+00,1
2.257571e+00,5.457089e+00,5.441904e+00,3,8,7.309508e+00,7.359203e+00,1
2.284426e+00,3.209485e+00,3.193855e+00,3,4,6.278449e+00,6.365758e+00,1
2.279334e+00,2.484152e+00,2.467155e+00,3,3,4.778618e+00,4.778637e+00,1
2.275095e+00,2.128643e+00,2.112865e+00,3,2,3.892656e+00,3.893712e+00,1
2.277488e+00,2.318028e+00,2.301693e+00,3,3,2.659014e+00,2.659016e+00,1
2.268125e+00,6.801980e-01,6.639957e-01,3,0,6.160887e+00,6.160899e+00,1
2.263183e+00,1.382020e+00,1.366854e+00,3,1,8.024999e+00,8.032926e+00,1
2.261433e+00,1.602180e+00,1.585960e+00,3,1,7.644922e+00,7.646403e+00,1
2.267678e+00,4.412869e+00,4.396915e+00,3,6,1.329255e+01,1.330792e+01,1
4.522495e+00,6.421781e+00,6.396532e+00,6,7,1.451573e+01,1.702213e+01,0
3.767356e+00,3.731874e+00,3.713846e+00,5,5,1.326335e+01,1.323476e+01,1
3.019227e+00,4.804035e+00,4.787922e+00,4,7,9.253187e+00,9.284995e+00,1
2.276700e+00,1.045813e+01,1.044106e+01,3,16,7.547353e+00,7.846655e+00,1
2.250245e+00,1.029583e+01,1.027894e+01,3,16,7.802431e+00,9.186647e+00,1
2.287476e+00,2.053237e+01,2.051592e+01,3,34,8.529585e+00,1.143418e+01,1
3.014551e+00,2.385262e+00,2.362728e+00,4,0,9.676027e+00,1.841265e+01,0
4.553148e+00,1.301896e+01,1.299596e+01,6,19,9.390428e+00,1.905985e+01,0
3.789193e+00,2.375248e+00,2.351999e+00,5,0,1.897559e+01,4.828638e+01,0
4.531431e+00,2.358934e+00,2.337694e+00,6,0,2.308700e+01,4.626321e+01,0
4.515061e+00,2.433046e+00,2.409697e+00,6,0,2.231657e+01,2.959173e+01,0
4.571949e+00,2.934277e+01,2.932000e+01,6,48,1.676314e+01,1.876242e+01,0
3.037569e+00,8.927419e+00,8.908987e+00,4,14,1.511065e+01,1.521028e+01,1
2.296439e+00,5.964157e+00,5.946875e+00,3,9,1.484194e+01,1.493451e+01,1
2.346981e+00,9.194608e+00,9.173393e+00,3,11,2.267198e+01,3.116465e+01,0
3.038128e+00,1.157609e+01,1.155972e+01,4,19,1.408110e+01,1.413702e+01,1
2.286515e+00,4.289364e+00,4.272938e+00,3,6,1.281697e+01,1.289062e+01,1
2.290233e+00,4.093169e+00,4.070997e+00,3,3,1.053378e+01,1.407071e+01,0
2.300362e+00,2.469205e+00,2.442360e+00,3,0,1.182073e+01,3.322887e+01,0
4.589333e+00,3.563385e+00,3.540993e+00,6,2,1.232889e+01,4.135166e+01,0
4.536892e+00,3.837065e+00,3.806114e+00,6,2,1.058737e+01,3.561808e+01,0
4.541964e+00,4.835129e+00,4.811049e+00,6,4,8.256177e+00,1.996159e+01,0
3.019471e+00,3.978663e+00,3.961802e+00,4,6,5.121931e+00,5.119469e+00,1
3.017882e+00,1.143317e+00,1.127005e+00,4,1,3.947832e+00,3.947832e+00,1
2.260226e+00,1.952198e+00,1.936197e+00,3,2,3.233841e+00,3.239134e+00,1
2.276750e+00,8.397610e-01,8.237362e-01,3,0,2.930691e+00,2.941229e+00,1
2.280076e+00,2.794996e+00,2.778053e+00,3,3,7.409518e+00,7.465134e+00,1
3.034036e+00,2.689239e+00,2.671957e+00,4,3,5.266921e+00,5.331453e+00,1
2.286268e+00,2.158836e+00,2.141953e+00,3,2,7.592293e+00,7.694337e+00,1
2.278595e+00,2.433830e+00,2.413034e+00,3,0,1.249688e+01,2.344738e+01,0
4.543374e+00,2.454812e+00,2.430916e+00,6,0,1.518557e+01,3.029645e+01,0
4.555835e+00,2.439943e+00,2.417803e+00,6,0,1.733536e+01,3.668798e+01,0
3.794367e+00,5.494897e+00,5.471468e+00,5,5,1.287044e+01,2.289465e+01,0
3.054578e+00,2.969018e+00,2.946615e+00,4,1,1.042027e+01,1.727180e+01,0
2.282311e+00,5.498297e+00,5.472898e+00,3,5,7.873730e+00,8.376458e+00,0
2.285511e+00,2.474588e+00,2.458096e+00,3,3,6.192155e+00,6.206450e+00,1
2.277704e+00,1.232781e+00,1.218081e+00,3,1,4.963476e+00,4.963477e+00,1
2.280507e+00,3.804631e+00,3.789186e+00,3,5,5.676018e+00,5.736621e+00,1
2.279675e+00,2.706528e+00,2.691031e+00,3,3,4.920594e+00,4.944156e+00,1
2.283200e+00,8.406940e-01,8.196831e-01,3,0,4.588540e+00,4.591668e+00,1
2.274514e+00,1.384736e+00,1.369953e+00,3,1,4.558681e+00,4.560368e+00,1
2.263388e+00,2.134312e+00,2.118111e+00,3,2,5.328137e+00,5.346978e+00,1
3.044300e+00,1.640922e+01,1.638770e+01,4,24,1.124538e+01,1.348078e+01,0
4.574168e+00,1.184499e+01,1.182675e+01,6,20,8.751248e+00,8.941028e+00,1
3.800834e+00,5.443568e+00,5.425930e+00,5,8,7.463312e+00,7.530460e+00,1
3.746393e+00,4.322937e+00,4.305840e+00,5,6,7.883438e+00,8.017002e+00,1
4.478934e+00,3.174227e+00,3.158808e+00,6,4,7.219645e+00,7.211205e+00,1
2.997601e+00,4.549679e+00,4.532099e+00,4,6,8.298740e+00,8.309419e+00,1
2.265141e+00,1.787152e+00,1.770020e+00,3,2,5.448074e+00,5.447877e+00,1
2.277302e+00,1.850596e+00,1.835108e+00,3,2,7.483806e+00,7.483855e+00,1
3.036473e+00,2.588094e+00,2.572060e+00,4,3,7.486153e+00,7.497446e+00,1
2.275959e+00,1.233189e+00,1.216888e+00,3,1,4.657961e+00,4.657959e+00,1
2.275659e+00,6.887660e-01,6.730556e-01,3,0,4.402581e+00,4.402583e+00,1
2.266798e+00,6.889980e-01,6.721020e-01,3,0,3.241040e+00,3.241040e+00,1
2.266277e+00,6.843400e-01,6.680489e-01,3,0,2.446886e+00,2.446886e+00,1
2.264855e+00,6.813810e-01,6.670952e-01,3,0,1.675064e+00,1.675064e+00,1
2.267758e+00,6.830150e-01,6.668568e-01,3,0,1.698600e+00,1.698601e+00,1
2.266522e+00,6.816180e-01,6.659031e-01,3,0,3.093485e+00,3.093471e+00,1
2.264411e+00,6.822080e-01,6.668568e-01,3,0,1.533679e+00,1.533679e+00,1
2.263464e+00,6.825280e-01,6.670952e-01,3,0,2.014845e+00,2.014847e+00,1
2.265287e+00,6.818610e-01,6.661415e-01,3,0,3.211057e+00,3.211061e+00,1
2.243256e+00,2.044235e+00,2.028704e+00,3,2,3.336012e+00,3.353392e+00,1
2.242835e+00,1.389829e+00,1.374960e+00,3,1,5.006627e+00,5.019896e+00,1
2.245558e+00,1.836530e+00,1.820803e+00,3,2,5.562870e+00,5.559898e+00,1
3.034770e+00,1.131125e+00,1.114607e+00,4,1,2.791612e+00,2.791606e+00,1
2.275544e+00,6.939890e-01,6.790161e-01,3,0,2.293966e+00,2.293959e+00,1
2.274460e+00,6.909510e-01,6.749630e-01,3,0,4.378232e+00,4.378241e+00,1
2.272549e+00,6.887040e-01,6.730556e-01,3,0,2.708226e+00,2.708224e+00,1
2.274964e+00,6.870780e-01,6.721020e-01,3,0,1.586784e+00,1.586785e+00,1
2.276389e+00,6.875130e-01,6.721020e-01,3,0,1.742349e+00,1.742351e+00,1
2.277120e+00,6.867970e-01,6.706715e-01,3,0,1.715660e+00,1.715661e+00,1
2.282410e+00,6.824270e-01,6.678104e-01,3,0,1.931138e+00,1.931140e+00,1
2.270866e+00,6.823510e-01,6.668568e-01,3,0,1.565087e+00,1.565088e+00,1
2.263569e+00,6.820710e-01,6.661415e-01,3,0,1.197593e+00,1.197594e+00,1
2.264479e+00,6.817250e-01,6.670952e-01,3,0,1.745063e+00,1.745065e+00,1
2.265025e+00,6.838710e-01,6.680489e-01,3,0,1.613463e+00,1.613464e+00,1
2.269858e+00,6.943110e-01,6.790161e-01,3,0,8.928255e-01,8.928256e-01,1
2.261236e+00,6.901060e-01,6.740093e-01,3,0,1.087946e+00,1.087947e+00,1
2.261460e+00,6.822580e-01,6.656647e-01,3,0,2.739243e+00,2.739249e+00,1
2.266816e+00,1.385060e+00,1.369953e+00,3,1,4.393960e+00,4.416601e+00,1
2.260679e+00,1.232887e+00,1.216173e+00,3,1,2.905899e+00,2.905898e+00,1
2.258103e+00,6.885440e-01,6.737709e-01,3,0,2.841299e+00,2.841300e+00,1
2.258788e+00,1.849221e+00,1.833200e+00,3,2,5.553307e+00,5.551979e+00,1
4.524849e+00,6.814943e+00,6.798983e+00,6,10,9.631401e+00,9.660135e+00,1
3.767162e+00,7.624847e+00,7.608891e+00,5,12,6.416548e+00,6.430421e+00,1
2.262039e+00,1.392038e+00,1.376152e+00,3,1,3.807348e+00,3.811779e+00,1
2.241396e+00,8.425710e-01,8.270741e-01,3,0,5.342259e+00,5.388505e+00,1
2.254150e+00,2.892463e+00,2.876043e+00,3,3,6.636101e+00,6.655898e+00,1
2.282877e+00,1.928825e+00,1.914024e+00,3,2,6.303191e+00,6.307958e+00,1
2.278408e+00,2.411152e+00,2.396107e+00,3,3,4.871799e+00,4.871799e+00,1
2.276105e+00,1.396094e+00,1.379967e+00,3,1,4.214367e+00,4.215693e+00,1
2.276341e+00,2.568561e+00,2.553225e+00,3,3,4.490639e+00,4.497110e+00,1
2.260801e+00,2.783906e+00,2.768040e+00,3,3,6.141922e+00,6.176741e+00,1
3.017432e+00,2.231325e+00,2.215862e+00,4,3,4.833125e+00,4.832950e+00,1
3.768153e+00,1.166894e+00,1.147985e+00,5,1,3.585086e+00,3.584510e+00,1
2.267054e+00,7.133430e-01,6.968975e-01,3,0,2.714930e+00,2.714911e+00,1
2.270368e+00,6.929900e-01,6.761551e-01,3,0,3.835049e+00,3.834901e+00,1
2.263003e+00,7.039110e-01,6.890297e-01,3,0,4.999252e+00,4.999263e+00,1
2.262314e+00,7.187870e-01,6.961823e-01,3,0,5.034242e+00,5.034246e+00,1
2.257624e+00,6.989610e-01,6.821156e-01,3,0,1.617389e+00,1.617388e+00,1
2.258549e+00,6.957920e-01,6.811619e-01,3,0,1.882113e+00,1.882115e+00,1
2.259168e+00,6.910270e-01,6.759167e-01,3,0,3.074636e+00,3.074641e+00,1
2.283956e+00,5.190682e+00,5.174875e+00,3,7,7.418392e+00,7.568432e+00,1
2.295484e+00,6.366352e+00,6.349802e+00,3,10,4.065419e+00,4.066073e+00,1
2.279631e+00,8.487900e-01,8.330345e-01,3,0,3.569636e+00,3.569675e+00,1
2.283609e+00,1.935237e+00,1.914263e+00,3,2,2.882498e+00,2.882682e+00,1
2.272540e+00,8.409930e-01,8.242130e-01,3,0,2.204722e+00,2.211888e+00,1
2.282083e+00,1.231312e+00,1.214981e+00,3,1,1.778094e+00,1.778094e+00,1
2.273018e+00,6.816710e-01,6.661415e-01,3,0,1.585935e+00,1.585937e+00,1
2.266021e+00,6.825820e-01,6.661415e-01,3,0,1.344087e+00,1.344088e+00,1
2.265539e+00,6.812210e-01,6.647110e-01,3,0,1.535736e+00,1.535738e+00,1
2.263198e+00,6.824180e-01,6.666183e-01,3,0,1.378364e+00,1.378365e+00,1
2.261549e+00,2.032617e+00,2.017021e+00,3,2,4.236673e+00,4.336781e+00,1
2.262636e+00,1.776457e+00,1.761198e+00,3,2,4.055027e+00,4.055029e+00,1
2.258006e+00,6.885420e-01,6.730556e-01,3,0,2.331263e+00,2.331261e+00,1
2.258131e+00,6.876200e-01,6.730556e-01,3,0,1.603276e+00,1.603278e+00,1
2.259632e+00,6.877550e-01,6.709099e-01,3,0,1.656818e+00,1.656819e+00,1
2.260655e+00,6.869930e-01,6.711483e-01,3,0,8.665593e-01,8.665604e-01,1
2.259136e+00,6.878300e-01,6.728172e-01,3,0,2.682258e+00,2.682264e+00,1
2.260025e+00,6.876380e-01,6.721020e-01,3,0,1.994183e+00,1.994183e+00,1
2.265877e+00,4.579117e+00,4.562855e+00,3,6,6.615273e+00,6.737038e+00,1
2.270107e+00,3.946192e+00,3.929853e+00,3,6,2.602053e+00,2.602047e+00,1
3.030372e+00,1.028799e+01,1.026678e+01,4,13,1.153677e+01,1.455426e+01,0
4.553082e+00,6.515808e+00,6.490469e+00,6,7,1.142756e+01,1.242886e+01,0
3.000837e+00,1.164331e+01,1.162601e+01,4,19,8.724230e+00,8.801062e+00,1
2.288552e+00,3.422922e+00,3.403664e+00,3,5,5.225132e+00,5.225120e+00,1
2.283604e+00,6.985180e-01,6.811619e-01,3,0,5.699443e+00,5.699446e+00,1
2.279150e+00,6.980380e-01,6.809235e-01,3,0,5.648453e+00,5.648436e+00,1
2.275458e+00,6.991920e-01,6.840229e-01,3,0,6.553725e+00,6.553393e+00,1
3.036528e+00,2.146825e+00,2.131939e+00,4,2,6.319400e+00,6.334487e+00,1
2.277358e+00,1.493951e+00,1.477957e+00,3,1,9.690278e+00,9.736610e+00,1
2.274841e+00,2.788682e+00,2.771854e+00,3,3,7.122174e+00,7.129851e+00,1
2.269530e+00,5.229666e+00,5.213737e+00,3,7,6.102224e+00,6.131461e+00,1
2.264885e+00,3.937914e+00,3.921032e+00,3,6,4.967855e+00,4.967860e+00,1
2.265131e+00,1.389154e+00,1.373053e+00,3,1,5.446997e+00,5.447097e+00,1
2.260116e+00,1.229083e+00,1.214027e+00,3,1,5.022128e+00,5.022130e+00,1
2.258904e+00,6.886040e-01,6.718636e-01,3,0,5.575741e+00,5.575745e+00,1
2.259479e+00,6.883170e-01,6.730556e-01,3,0,4.281716e+00,4.281716e+00,1
2.260309e+00,6.979060e-01,6.828308e-01,3,0,4.862459e+00,4.862461e+00,1
2.262078e+00,6.871250e-01,6.706715e-01,3,0,2.830738e+00,2.830737e+00,1
2.257966e+00,6.862110e-01,6.699562e-01,3,0,2.187031e+00,2.187032e+00,1
2.264670e+00,6.873880e-01,6.670952e-01,3,0,1.763402e+00,1.763403e+00,1
2.268657e+00,6.890490e-01,6.740093e-01,3,0,2.021535e+00,2.021537e+00,1
2.266447e+00,6.847730e-01,6.690025e-01,3,0,1.364567e+00,1.364567e+00,1
2.263301e+00,6.901770e-01,6.728172e-01,3,0,2.376367e+00,2.376354e+00,1
2.264847e+00,6.830390e-01,6.680489e-01,3,0,1.576911e+00,1.576912e+00,1
2.264647e+00,6.836910e-01,6.680489e-01,3,0,1.719411e+00,1.719412e+00,1
2.266031e+00,6.820510e-01,6.666183e-01,3,0,2.565363e+00,2.565367e+00,1
2.260592e+00,1.146754e+00,1.132011e+00,3,1,3.722303e+00,3.721988e+00,1
3.765036e+00,1.129217e+00,1.112938e+00,5,1,2.882012e+00,2.881678e+00,1
2.259483e+00,6.926510e-01,6.761551e-01,3,0,2.741233e+00,2.741235e+00,1
2.266329e+00,2.005660e+00,1.990080e+00,3,2,2.485148e+00,2.486040e+00,1
2.262066e+00,1.483655e+00,1.467943e+00,3,1,3.920542e+00,3.952474e+00,1
2.271097e+00,1.387036e+00,1.370907e+00,3,1,3.035369e+00,3.254500e+00,1
2.277785e+00,1.388179e+00,1.372099e+00,3,1,3.060742e+00,3.123122e+00,1
2.278528e+00,1.992849e+00,1.976967e+00,3,2,2.741812e+00,2.741424e+00,1
2.280396e+00,1.150561e+00,1.134634e+00,3,1,4.801571e+00,4.801492e+00,1
2.990074e+00,2.482358e+00,2.468109e+00,4,3,3.284586e+00,3.305253e+00,1
2.265663e+00,2.583625e+00,2.567053e+00,3,3,5.114893e+00,5.117310e+00,1
2.242520e+00,1.233334e+00,1.216888e+00,3,1,4.858138e+00,4.858139e+00,1
2.251723e+00,2.587430e+00,2.572060e+00,3,3,6.982727e+00,7.025246e+00,1
4.491361e+00,8.377500e-01,8.230209e-01,6,0,8.409040e+00,8.425799e+00,1
2.990881e+00,2.318120e+00,2.301931e+00,4,3,5.049692e+00,5.049689e+00,1
2.244761e+00,6.800210e-01,6.639957e-01,3,0,4.118317e+00,4.118317e+00,1
2.246279e+00,6.794620e-01,6.639957e-01,3,0,3.908272e+00,3.908274e+00,1
2.244229e+00,6.783730e-01,6.639957e-01,3,0,3.872066e+00,3.872069e+00,1
2.246615e+00,6.786060e-01,6.630421e-01,3,0,3.021869e+00,3.021870e+00,1
2.248464e+00,6.775320e-01,6.630421e-01,3,0,2.425481e+00,2.425482e+00,1
2.246731e+00,6.786100e-01,6.639957e-01,3,0,2.450190e+00,2.450193e+00,1
2.243263e+00,1.384383e+00,1.368999e+00,3,1,2.435750e+00,2.471633e+00,1
2.248594e+00,1.986783e+00,1.971245e+00,3,2,2.271017e+00,2.271018e+00,1
2.247480e+00,6.802720e-01,6.637573e-01,3,0,2.475301e+00,2.475304e+00,1
2.246661e+00,6.781640e-01,6.620884e-01,3,0,2.577053e+00,2.577055e+00,1
2.247498e+00,6.787970e-01,6.628036e-01,3,0,2.861972e+00,2.861910e+00,1
2.273790e+00,1.142114e+00,1.126051e+00,3,1,4.261808e+00,4.259443e+00,1
3.031478e+00,1.596868e+00,1.580715e+00,4,2,3.546204e+00,3.545242e+00,1
4.541875e+00,1.126593e+00,1.111984e+00,6,1,3.485851e+00,3.485715e+00,1
3.032838e+00,2.253800e+00,2.238989e+00,4,3,5.797690e+00,5.798371e+00,1
4.518272e+00,2.575953e+00,2.561092e+00,6,3,9.381192e+00,9.404636e+00,1
4.527246e+00,2.530969e+00,2.514839e+00,6,3,1.102609e+01,1.100762e+01,1
3.032985e+00,2.896675e+00,2.882004e+00,4,4,8.478675e+00,8.478465e+00,1
3.035912e+00,1.923774e+00,1.908064e+00,4,2,6.685909e+00,6.687185e+00,1
2.273793e+00,1.482868e+00,1.466990e+00,3,1,4.429379e+00,4.455775e+00,1
2.278318e+00,2.023272e+00,2.007008e+00,3,2,3.440697e+00,3.454705e+00,1
2.281932e+00,2.776700e+00,2.762079e+00,3,3,3.368911e+00,3.427014e+00,1
2.275867e+00,2.135913e+00,2.120018e+00,3,2,2.594796e+00,2.633767e+00,1
2.275145e+00,1.985759e+00,1.971006e+00,3,2,1.815637e+00,1.815637e+00,1
2.280272e+00,6.834940e-01,6.639957e-01,3,0,1.948612e+00,1.948614e+00,1
2.278044e+00,6.782010e-01,6.616116e-01,3,0,3.497957e+00,3.497963e+00,1
2.279808e+00,6.789920e-01,6.630421e-01,3,0,3.222786e+00,3.222787e+00,1
2.277813e+00,6.790310e-01,6.639957e-01,3,0,2.446012e+00,2.446012e+00,1
2.262368e+00,6.788570e-01,6.639957e-01,3,0,2.746024e+00,2.746026e+00,1
2.262773e+00,6.787460e-01,6.639957e-01,3,0,2.608753e+00,2.608755e+00,1
2.259314e+00,1.383227e+00,1.367092e+00,3,1,4.498569e+00,4.528840e+00,1
2.269000e+00,1.233982e+00,1.217842e+00,3,1,4.520745e+00,4.520746e+00,1
2.262037e+00,7.324640e-01,7.109642e-01,3,0,6.581815e+00,6.581813e+00,1
2.268361e+00,6.915330e-01,6.749630e-01,3,0,5.357149e+00,5.357148e+00,1
2.270936e+00,1.205796e+00,1.185656e+00,3,1,1.105999e+01,1.105960e+01,1
3.779681e+00,1.157837e+00,1.139879e+00,5,1,1.233368e+01,1.233327e+01,1
2.263862e+00,7.846010e-01,7.622242e-01,3,0,1.117745e+01,1.117745e+01,1
2.269079e+00,1.389990e+00,1.374006e+00,3,1,1.020878e+01,1.020894e+01,1
2.261186e+00,1.235425e+00,1.219988e+00,3,1,1.007289e+01,1.007290e+01,1
2.257301e+00,3.198352e+00,3.184080e+00,3,4,7.669536e+00,7.675639e+00,1
2.244711e+00,1.779352e+00,1.764059e+00,3,2,7.210067e+00,7.210069e+00,1
2.241064e+00,6.898050e-01,6.749630e-01,3,0,6.229724e+00,6.229725e+00,1
2.242646e+00,6.890090e-01,6.728172e-01,3,0,5.859870e+00,5.859873e+00,1
2.245174e+00,1.372134e+00,1.357079e+00,3,1,5.942654e+00,5.947082e+00,1
2.248963e+00,2.551672e+00,2.536058e+00,3,3,5.062147e+00,5.080173e+00,1
2.271455e+00,4.543126e+00,4.526854e+00,3,6,5.388061e+00,5.439652e+00,1
2.282433e+00,6.013315e+00,5.997896e+00,3,9,4.115063e+00,4.138472e+00,1
2.253410e+00,7.616632e+00,7.600784e+00,3,11,6.923410e+00,7.091155e+00,1
2.988338e+00,6.312957e+00,6.295919e+00,4,10,4.140620e+00,4.237660e+00,1
3.042620e+00,9.584794e+00,9.568930e+00,4,14,9.290345e+00,9.452598e+00,1
3.804440e+00,8.901936e+00,8.883953e+00,5,14,7.626975e+00,7.646634e+00,1
3.049590e+00,2.577533e+00,2.560139e+00,4,3,8.389914e+00,8.492341e+00,1
2.284662e+00,1.937431e+00,1.921177e+00,3,2,7.560743e+00,7.615003e+00,1
2.277402e+00,8.397760e-01,8.239746e-01,3,0,8.801655e+00,8.846802e+00,1
3.037503e+00,1.916716e+00,1.900911e+00,4,2,5.447788e+00,5.447794e+00,1
2.275874e+00,1.235282e+00,1.218796e+00,3,1,4.791441e+00,4.791442e+00,1
2.279425e+00,6.904770e-01,6.699562e-01,3,0,5.965518e+00,5.965525e+00,1
2.288112e+00,1.563177e+01,1.561093e+01,3,22,1.637180e+01,1.867968e+01,0
3.028482e+00,1.241971e+01,1.240301e+01,4,21,7.677924e+00,7.679774e+00,1
2.267424e+00,1.234753e+00,1.218081e+00,3,1,6.535729e+00,6.535729e+00,1
2.265810e+00,6.835300e-01,6.666183e-01,3,0,5.863582e+00,5.863584e+00,1
2.259032e+00,1.379503e+00,1.364946e+00,3,1,7.710517e+00,7.712717e+00,1
2.260341e+00,1.236004e+00,1.220942e+00,3,1,5.029786e+00,5.029781e+00,1
2.258184e+00,6.890780e-01,6.740093e-01,3,0,4.589328e+00,4.589329e+00,1
2.264012e+00,3.087593e+00,3.070831e+00,3,4,7.367637e+00,7.368943e+00,1
3.097538e+00,2.867292e+00,2.851248e+00,4,4,4.155024e+00,4.155024e+00,1
2.269020e+00,7.026030e-01,6.859303e-01,3,0,3.490166e+00,3.490169e+00,1
2.264705e+00,6.826210e-01,6.666183e-01,3,0,3.214663e+00,3.214667e+00,1
2.264762e+00,6.840130e-01,6.680489e-01,3,0,3.106314e+00,3.106309e+00,1
2.265523e+00,6.917520e-01,6.761551e-01,3,0,1.588833e+00,1.588833e+00,1
2.261785e+00,6.834620e-01,6.678104e-01,3,0,1.586838e+00,1.586839e+00,1
2.264127e+00,6.831370e-01,6.680489e-01,3,0,1.945203e+00,1.945205e+00,1
2.263628e+00,6.834640e-01,6.668568e-01,3,0,3.820129e+00,3.820137e+00,1
2.260204e+00,6.837210e-01,6.680489e-01,3,0,3.571943e+00,3.571945e+00,1
2.262643e+00,6.826430e-01,6.670952e-01,3,0,2.295466e+00,2.295465e+00,1
2.259092e+00,6.857070e-01,6.701946e-01,3,0,1.431590e+00,1.431591e+00,1
2.263112e+00,1.934410e+00,1.917839e+00,3,2,2.206477e+00,2.210142e+00,1
3.768589e+00,2.027783e+00,2.012968e+00,5,2,3.026871e+00,3.075768e+00,1
2.260939e+00,2.144412e+00,2.129078e+00,3,2,1.970807e+00,1.978159e+00,1
2.261056e+00,1.236532e+00,1.216173e+00,3,1,1.359984e+00,1.359986e+00,1
2.259365e+00,6.880790e-01,6.721020e-01,3,0,1.419105e+00,1.419107e+00,1
2.258354e+00,6.890850e-01,6.730556e-01,3,0,3.397000e+00,3.397007e+00,1
2.260395e+00,1.394554e+00,1.378059e+00,3,1,4.259560e+00,4.315605e+00,1
2.267050e+00,5.698483e+00,5.682945e+00,3,8,1.080258e+01,1.094625e+01,1
3.772173e+00,7.201277e+00,7.185936e+00,5,11,1.065299e+01,1.070906e+01,1
3.018092e+00,4.291349e+00,4.275084e+00,4,6,7.999749e+00,8.010320e+00,1
2.259353e+00,2.326117e+00,2.310038e+00,3,3,6.335803e+00,6.335802e+00,1
2.268932e+00,6.910790e-01,6.740093e-01,3,0,4.718418e+00,4.718417e+00,1
2.258280e+00,6.899020e-01,6.740093e-01,3,0,4.325621e+00,4.325624e+00,1
2.259831e+00,6.911620e-01,6.752014e-01,3,0,5.448381e+00,5.448388e+00,1
2.263175e+00,3.635028e+00,3.610849e+00,3,2,7.399836e+00,1.122765e+01,0
4.510505e+00,2.447378e+00,2.424002e+00,6,0,7.170552e+00,1.425075e+01,0
4.537013e+00,5.803656e+00,5.780220e+00,6,7,7.290137e+00,1.328093e+01,0
4.539310e+00,1.135095e+00,1.119852e+00,6,1,3.819931e+00,3.806364e+00,1
3.038382e+00,1.577224e+00,1.561880e+00,4,2,2.076763e+00,2.076764e+00,1
2.270928e+00,6.912020e-01,6.749630e-01,3,0,2.130541e+00,2.130543e+00,1
2.275361e+00,6.897990e-01,6.740093e-01,3,0,1.886100e+00,1.886102e+00,1
2.271690e+00,6.899450e-01,6.740093e-01,3,0,2.105135e+00,2.105136e+00,1
2.272931e+00,6.893300e-01,6.749630e-01,3,0,1.346603e+00,1.346603e+00,1
2.273938e+00,6.972810e-01,6.821156e-01,3,0,1.237825e+00,1.237826e+00,1
2.276437e+00,1.393133e+00,1.376867e+00,3,1,1.467873e+00,1.496553e+00,1
2.276570e+00,1.488166e+00,1.471758e+00,3,1,5.897044e+00,5.906083e+00,1
2.291506e+00,8.515181e+00,8.498907e+00,3,13,9.263857e+00,9.301145e+00,1
4.564930e+00,5.492042e+00,5.474806e+00,6,8,1.011731e+01,1.018775e+01,1
4.527575e+00,3.097321e+00,3.081083e+00,6,4,7.955666e+00,7.969138e+00,1
3.013919e+00,3.413846e+00,3.397942e+00,4,5,4.697341e+00,4.697339e+00,1
2.259437e+00,6.920500e-01,6.768703e-01,3,0,4.674903e+00,4.674908e+00,1
2.267383e+00,2.032560e+00,2.016068e+00,3,2,6.086501e+00,6.153929e+00,1
2.283776e+00,3.197040e+00,3.181934e+00,3,4,6.774755e+00,6.839974e+00,1
4.543003e+00,2.327131e+00,2.310038e+00,6,3,5.080141e+00,5.065564e+00,1
4.548778e+00,3.625610e+00,3.602982e+00,6,2,1.543026e+01,3.723546e+01,0
4.546034e+00,2.444095e+00,2.420902e+00,6,0,2.950655e+01,6.814249e+01,0
4.543656e+00,2.434318e+00,2.411842e+00,6,0,3.327700e+01,6.557515e+01,0
4.543073e+00,2.430550e+00,2.407074e+00,6,0,2.012147e+01,2.138059e+01,0
4.548910e+00,2.427047e+00,2.406120e+00,6,0,2.821745e+01,3.689573e+01,0
4.516353e+00,2.425360e+00,2.403736e+00,6,0,2.412090e+01,1.973448e+01,0
3.018031e+00,6.072471e+00,6.055832e+00,4,9,2.018244e+01,2.031263e+01,1
2.262209e+00,3.047664e+00,3.023863e+00,3,1,2.202466e+01,2.632164e+01,0
3.023168e+00,5.456627e+00,5.439997e+00,4,8,1.906275e+01,1.909445e+01,1
4.544858e+00,4.705679e+00,4.683018e+00,6,4,2.242726e+01,2.386781e+01,0
4.543777e+00,2.427656e+00,2.404213e+00,6,0,2.562397e+01,2.634353e+01,0
3.053957e+00,5.815750e+00,5.793095e+00,4,6,2.146410e+01,2.312112e+01,0
3.039459e+00,6.629840e+00,6.606340e+00,4,7,1.693469e+01,3.231796e+01,0
3.041145e+00,9.733126e+00,9.711266e+00,4,12,1.251819e+01,1.914813e+01,0
2.284086e+00,6.680758e+00,6.657839e+00,3,7,1.102088e+01,1.786553e+01,0
2.282527e+00,2.433732e+00,2.410889e+00,3,0,9.725859e+00,2.612070e+01,0
3.042136e+00,2.592058e+01,2.590084e+01,4,40,7.979312e+00,9.263401e+00,0
2.287053e+00,8.804719e+00,8.782387e+00,3,11,8.742754e+00,1.785814e+01,0
3.797970e+00,1.852235e+01,1.850486e+01,5,32,5.130411e+00,5.523818e+00,1
3.790841e+00,7.361823e+00,7.344007e+00,5,11,6.050066e+00,6.302240e+00,1
4.569536e+00,7.754085e+00,7.735968e+00,6,12,6.823420e+00,7.138525e+00,1
4.548169e+00,4.725283e+00,4.707098e+00,6,7,6.688298e+00,6.737738e+00,1
4.550665e+00,4.187507e+00,4.170895e+00,6,6,6.376059e+00,6.374949e+00,1
2.279269e+00,1.790006e+00,1.772881e+00,3,2,4.064825e+00,4.064808e+00,1
2.273882e+00,6.930720e-01,6.771088e-01,3,0,5.008262e+00,5.008265e+00,1
2.273209e+00,6.906020e-01,6.740093e-01,3,0,4.124833e+00,4.124833e+00,1
2.277811e+00,2.594256e+00,2.578974e+00,3,3,5.638492e+00,5.642802e+00,1
3.036603e+00,3.011209e+00,2.995014e+00,4,4,4.572928e+00,4.573634e+00,1
2.275675e+00,1.239142e+00,1.224041e+00,3,1,4.339721e+00,4.339724e+00,1
2.277063e+00,1.998204e+00,1.982927e+00,3,2,5.394402e+00,5.395047e+00,1
3.033124e+00,1.453671e+00,1.437902e+00,4,1,6.411859e+00,6.440104e+00,1
2.275666e+00,1.597484e+00,1.581192e+00,3,1,6.277444e+00,6.286861e+00,1
2.278499e+00,2.025631e+00,2.011061e+00,3,2,5.474611e+00,5.477381e+00,1
2.277283e+00,3.646905e+00,3.632069e+00,3,5,3.239047e+00,3.239888e+00,1
2.275913e+00,8.433810e-01,8.270741e-01,3,0,2.732727e+00,2.770449e+00,1
2.280946e+00,1.392019e+00,1.377106e+00,3,1,3.341341e+00,3.341547e+00,1
2.279593e+00,1.261199e+00,1.243114e+00,3,1,2.798136e+00,2.798136e+00,1
2.288912e+00,4.477633e+00,4.458904e+00,3,6,5.522548e+00,5.556450e+00,1
4.526734e+00,3.021754e+00,3.004074e+00,6,4,4.205824e+00,4.200137e+00,1
3.011796e+00,1.398995e+00,1.380920e+00,4,1,2.818305e+00,2.820633e+00,1
2.261895e+00,1.244033e+00,1.226902e+00,3,1,2.910859e+00,2.910862e+00,1
2.256203e+00,6.941730e-01,6.790161e-01,3,0,3.536086e+00,3.536089e+00,1
2.269838e+00,1.945936e+00,1.929998e+00,3,2,6.088559e+00,6.089232e+00,1
3.009910e+00,1.785612e+00,1.770020e+00,4,2,6.473301e+00,6.473304e+00,1
2.263129e+00,1.160631e+00,1.145124e+00,3,1,5.117726e+00,5.117336e+00,1
3.013045e+00,1.134802e+00,1.117706e+00,4,1,4.667451e+00,4.667451e+00,1
2.273922e+00,1.394789e+00,1.378775e+00,3,1,5.002085e+00,5.009311e+00,1
2.281861e+00,2.134915e+00,2.118826e+00,3,2,4.775671e+00,4.783153e+00,1
2.275361e+00,1.386265e+00,1.370907e+00,3,1,4.968668e+00,4.989698e+00,1
2.277184e+00,2.254431e+00,2.238750e+00,3,2,3.865346e+00,3.895512e+00,1
2.265291e+00,2.033513e+00,2.017975e+00,3,2,3.407072e+00,3.466828e+00,1
2.258951e+00,2.141163e+00,2.125025e+00,3,2,4.205020e+00,4.282855e+00,1
2.259606e+00,8.424460e-01,8.270741e-01,3,0,3.488977e+00,3.517516e+00,1
2.261493e+00,2.145470e+00,2.128839e+00,3,2,3.726625e+00,3.730263e+00,1
2.259361e+00,1.237830e+00,1.216888e+00,3,1,4.614636e+00,4.614641e+00,1
2.260076e+00,6.903760e-01,6.761551e-01,3,0,3.896783e+00,3.896784e+00,1
2.263982e+00,1.147707e+00,1.133204e+00,3,1,6.065312e+00,6.064968e+00,1
4.514045e+00,3.821118e+00,3.805161e+00,6,5,8.682594e+00,8.666840e+00,1
3.762415e+00,3.559599e+00,3.543139e+00,5,5,8.093502e+00,8.091754e+00,1
2.261900e+00,1.252859e+00,1.236916e+00,3,1,4.296265e+00,4.296251e+00,1
2.259806e+00,6.944350e-01,6.780624e-01,3,0,3.611589e+00,3.611590e+00,1
2.261171e+00,6.898630e-01,6.752014e-01,3,0,4.068560e+00,4.068564e+00,1
2.261478e+00,6.898400e-01,6.737709e-01,3,0,2.050372e+00,2.050371e+00,1
2.258689e+00,6.918560e-01,6.771088e-01,3,0,2.534017e+00,2.534021e+00,1
2.260104e+00,6.917480e-01,6.759167e-01,3,0,4.163887e+00,4.163888e+00,1
2.259130e+00,6.908940e-01,6.752014e-01,3,0,3.600879e+00,3.600856e+00,1
2.263790e+00,3.206480e+00,3.190041e+00,3,4,7.619237e+00,7.622432e+00,1
3.012410e+00,4.644253e+00,4.622221e+00,4,4,1.004602e+01,1.338741e+01,0
3.017483e+00,4.819385e+00,4.798174e+00,4,4,1.037807e+01,1.146670e+01,0
4.521816e+00,2.448489e+00,2.428055e+00,6,0,1.284121e+01,1.725693e+01,0
4.574402e+00,2.443304e+00,2.421618e+00,6,0,1.385907e+01,1.861985e+01,0
4.560105e+00,4.950863e+00,4.934072e+00,6,7,1.064971e+01,1.065684e+01,1
3.033748e+00,4.698982e+00,4.676580e+00,4,4,1.262617e+01,1.539155e+01,0
3.025129e+00,3.013130e+00,2.996206e+00,4,4,6.092533e+00,6.094310e+00,1
2.265211e+00,1.233329e+00,1.216888e+00,3,1,6.194755e+00,6.194747e+00,1
2.265004e+00,6.849090e-01,6.690025e-01,3,0,5.004486e+00,5.004486e+00,1
2.258943e+00,6.844210e-01,6.699562e-01,3,0,5.970031e+00,5.970035e+00,1
2.258818e+00,6.837370e-01,6.675720e-01,3,0,4.432966e+00,4.432966e+00,1
2.261044e+00,2.019028e+00,2.004147e+00,3,2,3.895797e+00,3.905315e+00,1
2.265173e+00,4.398296e+00,4.382849e+00,3,6,4.716435e+00,4.745931e+00,1
2.261436e+00,1.780420e+00,1.763105e+00,3,2,2.573435e+00,2.573434e+00,1
2.262319e+00,2.028564e+00,2.012968e+00,3,2,3.104309e+00,3.105967e+00,1

