2.363209e+00,8.151214e+00,6.263018e+00,2,0,0.000000e+00,0.000000e+00
3.537959e+00,1.592009e+00,1.547098e+00,3,0,7.551209e-02,7.551224e-02
3.533436e+00,1.551036e+00,1.520872e+00,3,0,1.395621e-01,1.395623e-01
3.529452e+00,1.542016e+00,1.513958e+00,3,0,2.946823e-01,2.946826e-01
3.532963e+00,1.545417e+00,1.516104e+00,3,0,2.716495e-01,2.716497e-01
3.533619e+00,1.532154e+00,1.503944e+00,3,0,1.276167e+00,1.276168e+00
3.543750e+00,1.654160e+00,1.621008e+00,3,0,1.779663e+00,1.779664e+00
3.538669e+00,1.658543e+00,1.626968e+00,3,0,2.335722e+00,2.335723e+00
3.540036e+00,1.632535e+00,1.600981e+00,3,0,1.148687e+00,1.148686e+00
3.531230e+00,1.554765e+00,1.525164e+00,3,0,1.018461e+00,1.018461e+00
3.528337e+00,1.540806e+00,1.513004e+00,3,0,8.424528e-01,8.424531e-01
3.537585e+00,1.543773e+00,1.517057e+00,3,0,9.746404e-01,9.746411e-01
3.526500e+00,1.534068e+00,1.506090e+00,3,0,1.616753e+00,1.616754e+00
3.533284e+00,1.537851e+00,1.509905e+00,3,0,2.206613e+00,2.206614e+00
3.531894e+00,1.534233e+00,1.506090e+00,3,0,2.022702e+00,2.022702e+00
3.529658e+00,1.543234e+00,1.515150e+00,3,0,2.825381e+00,2.825382e+00
3.535909e+00,1.545284e+00,1.516819e+00,3,0,2.206349e+00,2.206349e+00
3.546194e+00,1.537485e+00,1.508951e+00,3,0,1.931090e+00,1.931091e+00
3.535389e+00,1.533666e+00,1.505136e+00,3,0,1.844838e+00,1.844838e+00
3.539158e+00,1.530026e+00,1.502991e+00,3,0,1.758303e+00,1.758304e+00
3.527320e+00,1.553479e+00,1.524925e+00,3,0,1.840510e+00,1.840511e+00
3.530854e+00,1.534588e+00,1.507044e+00,3,0,1.533956e+00,1.533956e+00
3.526977e+00,1.536292e+00,1.507998e+00,3,0,1.381534e+00,1.381535e+00
3.537055e+00,1.534971e+00,1.505852e+00,3,0,1.204581e+00,1.204582e+00
3.533053e+00,1.540910e+00,1.513004e+00,3,0,1.188903e+00,1.188904e+00
3.527578e+00,1.528184e+00,1.500130e+00,3,0,1.149710e+00,1.149710e+00
3.532415e+00,1.534227e+00,1.505852e+00,3,0,9.518776e-01,9.518779e-01
3.525982e+00,1.547437e+00,1.520157e+00,3,0,6.794439e-01,6.794440e-01
3.535358e+00,1.542414e+00,1.513958e+00,3,0,3.431008e-01,3.431012e-01
3.527301e+00,1.534402e+00,1.505852e+00,3,0,2.960831e-01,2.960831e-01
3.532665e+00,1.519425e+00,1.492023e+00,3,0,5.896102e-01,5.896110e-01
3.537929e+00,1.532631e+00,1.505136e+00,3,0,6.941784e-01,6.941788e-01
3.526890e+00,1.557702e+00,1.529932e+00,3,0,5.984793e-01,5.984794e-01
3.524222e+00,1.536775e+00,1.510143e+00,3,0,9.215445e-01,9.215452e-01
3.531228e+00,1.535911e+00,1.501799e+00,3,0,7.538888e-01,7.538889e-01
3.524657e+00,1.549529e+00,1.522064e+00,3,0,5.559930e-01,5.559930e-01
3.531079e+00,1.555348e+00,1.527071e+00,3,0,4.066880e-01,4.066882e-01
3.537889e+00,1.537862e+00,1.510143e+00,3,0,3.376784e-01,3.376785e-01
3.533212e+00,1.525055e+00,1.497030e+00,3,0,8.606975e-01,8.606984e-01
3.548502e+00,1.543067e+00,1.515865e+00,3,0,9.504782e-01,9.504785e-01
3.520878e+00,1.527103e+00,1.499176e+00,3,0,2.139477e+00,2.139478e+00
3.532740e+00,1.535388e+00,1.507998e+00,3,0,2.927873e+00,2.927875e+00
3.534634e+00,1.532419e+00,1.505136e+00,3,0,1.852340e+00,1.852339e+00
3.527589e+00,1.543175e+00,1.512051e+00,3,0,2.797935e+00,2.797936e+00
3.535154e+00,1.535880e+00,1.507044e+00,3,0,2.235884e+00,2.235884e+00
3.536977e+00,1.533733e+00,1.505852e+00,3,0,1.808748e+00,1.808748e+00
3.532885e+00,1.537120e+00,1.509905e+00,3,0,1.619818e+00,1.619818e+00
3.533354e+00,1.526635e+00,1.500130e+00,3,0,1.344299e+00,1.344299e+00
3.524228e+00,1.533815e+00,1.506090e+00,3,0,1.080027e+00,1.080027e+00
3.532204e+00,1.540152e+00,1.512051e+00,3,0,6.876476e-01,6.876476e-01
3.524687e+00,1.529267e+00,1.501083e+00,3,0,6.177119e-01,6.177122e-01
3.531619e+00,1.538220e+00,1.509905e+00,3,0,9.829236e-01,9.829244e-01
3.536575e+00,1.527561e+00,1.499891e+00,3,0,7.168843e-01,7.168844e-01
3.524816e+00,1.529777e+00,1.502037e+00,3,0,6.110373e-01,6.110374e-01
3.530874e+00,1.532247e+00,1.504898e+00,3,0,8.078102e-01,8.078108e-01
3.524589e+00,1.527921e+00,1.499176e+00,3,0,1.109397e+00,1.109397e+00
3.526191e+00,1.525991e+00,1.497984e+00,3,0,5.988308e-01,5.988307e-01
3.529614e+00,1.528960e+00,1.501799e+00,3,0,9.244299e-01,9.244306e-01
3.524876e+00,1.526131e+00,1.497030e+00,3,0,1.306200e+00,1.306200e+00
3.532999e+00,1.528938e+00,1.502037e+00,3,0,1.969784e+00,1.969785e+00
3.535831e+00,1.520787e+00,1.492977e+00,3,0,8.942516e-01,8.942522e-01
3.525852e+00,1.517558e+00,1.489878e+00,3,0,1.939671e+00,1.939673e+00
3.533891e+00,1.527619e+00,1.498938e+00,3,0,3.653225e+00,3.653228e+00
3.529743e+00,1.542429e+00,1.514912e+00,3,0,1.983769e+00,1.983767e+00
3.526914e+00,1.536407e+00,1.509190e+00,3,0,2.724662e+00,2.724663e+00
3.535671e+00,1.534946e+00,1.507044e+00,3,0,1.182477e+00,1.182476e+00
3.528936e+00,1.524218e+00,1.496077e+00,3,0,1.263766e+00,1.263766e+00
3.534206e+00,1.527478e+00,1.498938e+00,3,0,9.845565e-01,9.845569e-01
3.531544e+00,1.523500e+00,1.493931e+00,3,0,7.762216e-01,7.762219e-01
3.524640e+00,1.535434e+00,1.506805e+00,3,0,5.908722e-01,5.908725e-01
3.529900e+00,1.548174e+00,1.520872e+00,3,0,8.816919e-01,8.816926e-01
3.524917e+00,1.524465e+00,1.497030e+00,3,0,9.003219e-01,9.003221e-01
3.533096e+00,1.542676e+00,1.515150e+00,3,0,9.129588e-01,9.129591e-01
3.541105e+00,1.516436e+00,1.488924e+00,3,0,1.029772e+00,1.029772e+00
3.522497e+00,1.521837e+00,1.494169e+00,3,0,1.502112e+00,1.502113e+00
3.527558e+00,1.491541e+00,1.464844e+00,3,0,2.017964e+00,2.017965e+00
3.531656e+00,1.507877e+00,1.480818e+00,3,0,1.214733e+00,1.214733e+00
3.523644e+00,1.516610e+00,1.490116e+00,3,0,1.209876e+00,1.209877e+00
3.530299e+00,1.533895e+00,1.505852e+00,3,0,8.937063e-01,8.937063e-01
3.524834e+00,1.521473e+00,1.494169e+00,3,0,4.433705e-01,4.433706e-01
3.534396e+00,1.525362e+00,1.497984e+00,3,0,1.527409e+00,1.527411e+00
3.560896e+00,1.537964e+00,1.510143e+00,3,0,1.130290e+00,1.130290e+00
3.529590e+00,1.527795e+00,1.499891e+00,3,0,1.011827e+00,1.011827e+00
3.547343e+00,1.528865e+00,1.501083e+00,3,0,9.740377e-01,9.740383e-01
3.526431e+00,1.532784e+00,1.504898e+00,3,0,1.400945e+00,1.400946e+00
3.529670e+00,1.538515e+00,1.509905e+00,3,0,2.512778e+00,2.512780e+00
3.536740e+00,1.524482e+00,1.497030e+00,3,0,3.760617e+00,3.760619e+00
3.539649e+00,4.117470e+00,4.090071e+00,3,1,5.483424e+00,5.483785e+00
3.532348e+00,3.778549e+00,3.749132e+00,3,1,4.458069e+00,4.458069e+00
3.533489e+00,4.020665e+00,3.991842e+00,3,1,3.182345e+00,3.182345e+00
3.538598e+00,3.801333e+00,3.772020e+00,3,1,2.454093e+00,2.454093e+00
3.528778e+00,1.495070e+00,1.466990e+00,3,0,1.719397e+00,1.719397e+00
3.535503e+00,1.524094e+00,1.496077e+00,3,0,2.433287e+00,2.433289e+00
3.536149e+00,1.511354e+00,1.482964e+00,3,0,1.807900e+00,1.807900e+00
3.526820e+00,1.518844e+00,1.491070e+00,3,0,2.327531e+00,2.327532e+00
3.532656e+00,1.519074e+00,1.491070e+00,3,0,2.510070e+00,2.510071e+00
3.532558e+00,1.509977e+00,1.482964e+00,3,0,1.084532e+00,1.084532e+00
3.526365e+00,1.521802e+00,1.495123e+00,3,0,9.374207e-01,9.374209e-01
3.538667e+00,1.495838e+00,1.468897e+00,3,0,1.319559e+00,1.319559e+00
3.427720e+00,1.471458e+00,1.445055e+00,3,0,1.415890e+00,1.415890e+00
3.532239e+00,1.479534e+00,1.453161e+00,3,0,1.066766e+00,1.066766e+00
3.534737e+00,1.601649e+00,1.573801e+00,3,0,1.238102e+00,1.238102e+00
3.528021e+00,1.572122e+00,1.543999e+00,3,0,7.214970e-01,7.214971e-01
3.531550e+00,1.590712e+00,1.560926e+00,3,0,6.568649e-01,6.568651e-01
3.530818e+00,1.522495e+00,1.494884e+00,3,0,5.438514e-01,5.438515e-01
3.523869e+00,1.507876e+00,1.480818e+00,3,0,5.784202e-01,5.784207e-01
3.528411e+00,1.510012e+00,1.483917e+00,3,0,8.078968e-01,8.078973e-01
3.530188e+00,1.509786e+00,1.482964e+00,3,0,8.817768e-01,8.817772e-01
3.525829e+00,1.527373e+00,1.500130e+00,3,0,5.667879e-01,5.667879e-01
3.534423e+00,1.523994e+00,1.497984e+00,3,0,5.720606e-01,5.720609e-01
3.526983e+00,1.490459e+00,1.463890e+00,3,0,5.279835e-01,5.279837e-01
3.524160e+00,1.496788e+00,1.470089e+00,3,0,4.518010e-01,4.518013e-01
3.530698e+00,1.490388e+00,1.463890e+00,3,0,3.135725e-01,3.135726e-01
3.518880e+00,1.493315e+00,1.466990e+00,3,0,5.541243e-01,5.541249e-01
3.526076e+00,1.527666e+00,1.501083e+00,3,0,2.932878e-01,2.932878e-01
3.526279e+00,1.536963e+00,1.509905e+00,3,0,3.389798e-01,3.389799e-01
3.522590e+00,1.526405e+00,1.498938e+00,3,0,8.799552e-01,8.799561e-01
3.536663e+00,1.537390e+00,1.509905e+00,3,0,6.417448e-01,6.417449e-01
3.533192e+00,1.564214e+00,1.534939e+00,3,0,2.071143e+00,2.071146e+00
3.531524e+00,1.574269e+00,1.545906e+00,3,0,1.435506e+00,1.435506e+00
3.536108e+00,1.580888e+00,1.551867e+00,3,0,1.390175e+00,1.390176e+00
3.527218e+00,1.566701e+00,1.538992e+00,3,0,1.731344e+00,1.731345e+00
3.538228e+00,1.774004e+00,1.744986e+00,3,0,1.563279e+00,1.563280e+00
3.529696e+00,1.550641e+00,1.522064e+00,3,0,1.722313e+00,1.722313e+00
3.534072e+00,1.550335e+00,1.523018e+00,3,0,3.041310e+00,3.041312e+00
3.523253e+00,1.544357e+00,1.517057e+00,3,0,1.973577e+00,1.973577e+00
3.528188e+00,1.531329e+00,1.502991e+00,3,0,1.500037e+00,1.500037e+00
3.531978e+00,1.526821e+00,1.499176e+00,3,0,1.307087e+00,1.307087e+00
3.540605e+00,1.530942e+00,1.502991e+00,3,0,7.837207e-01,7.837211e-01
3.538475e+00,1.551908e+00,1.525164e+00,3,0,8.577162e-01,8.577172e-01
3.539418e+00,1.547414e+00,1.518965e+00,3,0,5.381583e-01,5.381585e-01
3.532312e+00,1.580194e+00,1.550913e+00,3,0,7.102339e-01,7.102344e-01
3.529510e+00,1.579003e+00,1.549959e+00,3,0,3.163725e-01,3.163726e-01
3.530830e+00,1.570353e+00,1.542091e+00,3,0,2.572584e-01,2.572586e-01
3.532470e+00,1.576939e+00,1.546860e+00,3,0,2.640276e-01,2.640278e-01
3.525002e+00,1.571470e+00,1.543999e+00,3,0,5.737759e-01,5.737766e-01
3.531685e+00,1.544301e+00,1.516104e+00,3,0,5.918175e-01,5.918178e-01
3.526788e+00,1.541110e+00,1.513958e+00,3,0,5.015503e-01,5.015504e-01
3.531794e+00,1.544852e+00,1.517057e+00,3,0,5.462994e-01,5.462997e-01
3.528866e+00,1.530753e+00,1.502991e+00,3,0,4.626902e-01,4.626904e-01
3.523632e+00,1.531556e+00,1.503944e+00,3,0,8.631047e-01,8.631055e-01
3.531978e+00,1.540663e+00,1.513004e+00,3,0,1.472360e+00,1.472361e+00
3.530782e+00,1.529622e+00,1.501083e+00,3,0,1.662220e+00,1.662221e+00
3.527848e+00,1.540338e+00,1.513004e+00,3,0,1.301747e+00,1.301748e+00
3.530637e+00,1.534870e+00,1.501083e+00,3,0,1.159393e+00,1.159394e+00
3.524268e+00,1.527262e+00,1.500130e+00,3,0,1.072057e+00,1.072057e+00
3.528859e+00,1.537045e+00,1.508951e+00,3,0,7.684550e-01,7.684551e-01
3.528481e+00,1.523197e+00,1.496077e+00,3,0,6.784226e-01,6.784235e-01
3.525078e+00,1.531783e+00,1.503944e+00,3,0,1.196365e+00,1.196366e+00
3.530539e+00,1.539880e+00,1.511812e+00,3,0,1.709870e+00,1.709871e+00
3.527320e+00,1.534740e+00,1.505852e+00,3,0,1.043961e+00,1.043961e+00
3.531754e+00,1.539925e+00,1.510859e+00,3,0,9.875633e-01,9.875635e-01
3.530086e+00,1.523469e+00,1.495838e+00,3,0,8.865501e-01,8.865503e-01
3.526326e+00,1.529835e+00,1.502037e+00,3,0,8.128659e-01,8.128660e-01
3.534010e+00,1.545884e+00,1.518011e+00,3,0,6.697431e-01,6.697433e-01
3.522870e+00,1.567577e+00,1.539946e+00,3,0,7.530458e-01,7.530462e-01
3.532788e+00,1.538552e+00,1.511097e+00,3,0,1.230954e+00,1.230955e+00
3.535681e+00,1.533503e+00,1.505136e+00,3,0,1.183055e+00,1.183055e+00
3.529809e+00,1.529613e+00,1.502037e+00,3,0,1.252972e+00,1.252972e+00
3.531136e+00,1.534075e+00,1.507044e+00,3,0,1.423246e+00,1.423247e+00
3.523711e+00,1.530120e+00,1.502991e+00,3,0,6.507800e-01,6.507801e-01
3.535731e+00,1.534984e+00,1.507998e+00,3,0,5.206114e-01,5.206116e-01
3.539950e+00,1.540926e+00,1.513004e+00,3,0,5.456169e-01,5.456173e-01
3.536909e+00,1.526720e+00,1.498938e+00,3,0,2.479467e-01,2.479469e-01
3.533876e+00,1.559047e+00,1.531839e+00,3,0,2.496599e-01,2.496600e-01
3.537241e+00,1.527958e+00,1.500130e+00,3,0,4.269946e-01,4.269950e-01
3.527556e+00,1.543044e+00,1.514912e+00,3,0,3.637096e-01,3.637097e-01
3.529896e+00,1.575861e+00,1.548052e+00,3,0,9.785977e-01,9.785992e-01
3.524208e+00,1.529267e+00,1.501799e+00,3,0,7.268657e-01,7.268663e-01
3.529828e+00,1.537117e+00,1.509190e+00,3,0,5.136780e-01,5.136782e-01
3.532790e+00,1.537022e+00,1.508951e+00,3,0,4.576685e-01,4.576686e-01
3.528940e+00,1.539971e+00,1.512051e+00,3,0,4.659262e-01,4.659265e-01
3.541265e+00,1.558996e+00,1.530886e+00,3,0,4.789425e-01,4.789428e-01
3.523115e+00,1.535292e+00,1.507998e+00,3,0,3.020691e-01,3.020692e-01
3.535203e+00,1.533845e+00,1.506090e+00,3,0,3.394996e-01,3.394999e-01
3.534286e+00,1.550266e+00,1.523018e+00,3,0,2.773580e-01,2.773582e-01
3.523934e+00,1.532010e+00,1.504183e+00,3,0,2.395138e-01,2.395139e-01
3.537421e+00,1.550980e+00,1.523018e+00,3,0,6.457986e-01,6.457994e-01
3.525278e+00,1.519114e+00,1.492023e+00,3,0,4.074308e-01,4.074311e-01
3.528873e+00,1.528436e+00,1.499891e+00,3,0,6.452892e-01,6.452897e-01
3.530646e+00,1.550560e+00,1.522064e+00,3,0,1.041436e+00,1.041437e+00
3.524475e+00,1.523673e+00,1.495838e+00,3,0,8.929571e-01,8.929577e-01
3.530358e+00,1.553719e+00,1.527071e+00,3,0,1.012421e+00,1.012421e+00
3.532308e+00,1.534636e+00,1.507044e+00,3,0,7.096699e-01,7.096700e-01
3.540703e+00,1.529000e+00,1.501083e+00,3,0,7.097771e-01,7.097774e-01
3.532635e+00,1.526224e+00,1.498938e+00,3,0,8.114543e-01,8.114547e-01
3.531234e+00,1.531857e+00,1.504183e+00,3,0,1.782574e+00,1.782576e+00
3.533566e+00,1.546328e+00,1.518011e+00,3,0,2.360399e+00,2.360400e+00
3.525847e+00,1.530296e+00,1.502991e+00,3,0,2.091286e+00,2.091286e+00
3.526323e+00,1.539079e+00,1.511097e+00,3,0,1.700507e+00,1.700508e+00
3.531361e+00,1.537035e+00,1.502991e+00,3,0,1.573464e+00,1.573465e+00
3.565533e+00,1.526030e+00,1.497984e+00,3,0,1.068439e+00,1.068439e+00
3.533223e+00,1.545066e+00,1.516819e+00,3,0,1.055490e+00,1.055491e+00
3.524761e+00,1.523470e+00,1.496077e+00,3,0,1.037041e+00,1.037041e+00
3.526349e+00,1.531626e+00,1.503944e+00,3,0,7.956397e-01,7.956398e-01
3.530809e+00,1.534267e+00,1.507044e+00,3,0,7.031926e-01,7.031927e-01
3.525710e+00,1.531193e+00,1.503944e+00,3,0,1.431417e+00,1.431419e+00
3.528599e+00,1.531205e+00,1.503944e+00,3,0,2.982531e+00,2.982533e+00
3.536743e+00,1.527912e+00,1.500130e+00,3,0,3.031353e+00,3.031354e+00
3.539498e+00,1.540517e+00,1.507044e+00,3,0,3.054806e+00,3.054807e+00
3.533889e+00,1.529308e+00,1.501083e+00,3,0,3.560092e+00,3.560093e+00
3.537047e+00,1.526425e+00,1.498938e+00,3,0,5.094646e+00,5.094649e+00
3.534347e+00,1.540612e+00,1.513004e+00,3,0,3.266819e+00,3.266818e+00
3.538689e+00,1.528088e+00,1.501083e+00,3,0,3.985969e+00,3.985971e+00
3.530905e+00,1.532406e+00,1.504898e+00,3,0,3.077073e+00,3.077073e+00
3.533887e+00,1.533051e+00,1.504898e+00,3,0,2.875826e+00,2.875827e+00
3.527925e+00,1.532851e+00,1.505136e+00,3,0,1.974572e+00,1.974571e+00
3.524491e+00,1.532155e+00,1.504898e+00,3,0,2.489593e+00,2.489594e+00
3.531287e+00,1.532520e+00,1.505136e+00,3,0,1.671669e+00,1.671668e+00
3.526901e+00,1.528910e+00,1.502037e+00,3,0,2.163022e+00,2.163023e+00
3.533997e+00,1.529022e+00,1.501083e+00,3,0,7.060764e-01,7.060763e-01
3.530127e+00,1.526636e+00,1.499176e+00,3,0,9.278442e-01,9.278450e-01
3.525636e+00,1.533707e+00,1.504898e+00,3,0,1.801419e+00,1.801421e+00
3.534032e+00,1.529474e+00,1.501799e+00,3,0,1.390243e+00,1.390243e+00
3.521641e+00,1.525957e+00,1.497984e+00,3,0,2.192526e+00,2.192527e+00
3.527075e+00,1.537883e+00,1.510143e+00,3,0,1.943535e+00,1.943535e+00
3.531477e+00,1.535050e+00,1.501083e+00,3,0,3.271278e+00,3.271281e+00
3.529450e+00,1.526531e+00,1.498938e+00,3,0,1.690167e+00,1.690167e+00
3.532579e+00,1.536060e+00,1.508951e+00,3,0,1.412966e+00,1.412966e+00
3.523584e+00,1.536597e+00,1.508951e+00,3,0,1.101833e+00,1.101833e+00
3.527190e+00,1.532712e+00,1.504898e+00,3,0,1.109890e+00,1.109890e+00
3.534475e+00,1.549270e+00,1.520872e+00,3,0,1.180572e+00,1.180573e+00
3.526481e+00,1.529011e+00,1.502037e+00,3,0,1.771004e+00,1.771005e+00
3.552308e+00,1.536050e+00,1.509190e+00,3,0,7.989906e-01,7.989901e-01
3.533161e+00,1.528166e+00,1.501083e+00,3,0,5.277676e-01,5.277677e-01
3.523838e+00,1.535950e+00,1.507998e+00,3,0,5.981896e-01,5.981899e-01
3.526612e+00,1.530839e+00,1.502991e+00,3,0,5.715104e-01,5.715107e-01
3.523844e+00,1.526089e+00,1.497984e+00,3,0,4.452613e-01,4.452613e-01
3.530592e+00,1.544623e+00,1.516104e+00,3,0,7.191406e-01,7.191415e-01
3.534926e+00,1.522210e+00,1.494884e+00,3,0,1.052376e+00,1.052377e+00
3.525092e+00,1.527543e+00,1.499891e+00,3,0,1.601037e+00,1.601038e+00
3.528893e+00,1.535939e+00,1.508951e+00,3,0,3.478609e+00,3.478612e+00
3.526066e+00,1.535608e+00,1.507998e+00,3,0,4.514008e+00,4.514010e+00
3.529954e+00,1.545742e+00,1.517057e+00,3,0,3.065471e+00,3.065471e+00
3.535562e+00,1.529846e+00,1.502037e+00,3,0,3.784558e+00,3.784560e+00
3.528935e+00,1.526161e+00,1.497984e+00,3,0,2.730909e+00,2.730909e+00
3.530979e+00,1.611517e+00,1.583099e+00,3,0,2.168827e+00,2.168827e+00
3.539721e+00,1.525368e+00,1.497984e+00,3,0,2.418019e+00,2.418020e+00
3.530619e+00,1.547193e+00,1.518965e+00,3,0,1.306380e+00,1.306380e+00
3.561082e+00,1.544064e+00,1.515865e+00,3,0,9.994601e-01,9.994613e-01
3.527065e+00,1.532692e+00,1.505852e+00,3,0,7.696718e-01,7.696718e-01
3.532756e+00,1.545937e+00,1.518011e+00,3,0,7.205179e-01,7.205181e-01
3.533060e+00,1.526824e+00,1.499176e+00,3,0,6.833545e-01,6.833547e-01
3.525876e+00,1.534750e+00,1.505852e+00,3,0,1.060750e+00,1.060751e+00
3.531211e+00,1.528226e+00,1.501083e+00,3,0,3.632652e-01,3.632650e-01
3.525819e+00,1.527196e+00,1.500130e+00,3,0,1.456896e+00,1.456898e+00
3.528511e+00,1.539647e+00,1.510859e+00,3,0,3.221339e+00,3.221342e+00
3.541398e+00,1.539997e+00,1.513004e+00,3,0,1.879966e+00,1.879966e+00
3.527452e+00,1.529708e+00,1.501083e+00,3,0,1.342876e+00,1.342876e+00
3.538856e+00,1.531376e+00,1.502991e+00,3,0,1.100848e+00,1.100848e+00
3.526715e+00,1.549583e+00,1.521826e+00,3,0,9.350391e-01,9.350393e-01
3.531444e+00,1.542063e+00,1.514196e+00,3,0,8.765797e-01,8.765799e-01
3.533524e+00,1.524993e+00,1.498222e+00,3,0,1.483487e+00,1.483489e+00
3.525937e+00,1.532819e+00,1.504898e+00,3,0,1.146398e+00,1.146398e+00
3.530191e+00,1.529840e+00,1.502037e+00,3,0,8.245375e-01,8.245376e-01
3.523372e+00,1.528698e+00,1.501083e+00,3,0,9.175511e-01,9.175515e-01
3.521405e+00,1.532653e+00,1.503944e+00,3,0,1.572600e+00,1.572602e+00
3.532418e+00,1.534435e+00,1.507998e+00,3,0,2.548006e+00,2.548008e+00
3.524606e+00,1.526135e+00,1.498938e+00,3,0,4.638468e+00,4.638472e+00
3.531053e+00,1.540381e+00,1.511812e+00,3,0,5.660153e+00,5.660155e+00
3.531170e+00,1.533006e+00,1.504183e+00,3,0,5.111811e+00,5.111811e+00
3.523932e+00,1.525946e+00,1.497984e+00,3,0,5.361426e+00,5.361428e+00
3.532846e+00,1.528834e+00,1.501083e+00,3,0,4.518844e+00,4.518844e+00
3.525076e+00,1.534035e+00,1.506090e+00,3,0,4.751984e+00,4.751986e+00
3.528944e+00,1.534950e+00,1.506805e+00,3,0,4.746635e+00,4.746636e+00
3.531056e+00,1.527973e+00,1.500845e+00,3,0,3.913832e+00,3.913832e+00
3.527305e+00,1.532248e+00,1.503944e+00,3,0,3.373796e+00,3.373796e+00
3.538543e+00,1.553218e+00,1.525879e+00,3,0,2.596153e+00,2.596153e+00
3.535280e+00,1.524404e+00,1.496077e+00,3,0,2.364516e+00,2.364516e+00
3.530938e+00,1.526005e+00,1.498938e+00,3,0,2.377071e+00,2.377071e+00
3.535419e+00,4.140958e+00,4.112005e+00,3,1,3.044289e+00,3.045075e+00
3.538939e+00,2.206940e+01,2.203989e+01,3,8,5.471063e+00,5.477494e+00
7.044958e+00,2.027544e+01,2.024484e+01,6,8,5.713009e+00,5.704936e+00
5.879048e+00,1.152095e+01,1.148987e+01,5,4,6.257295e+00,6.259096e+00
4.713113e+00,1.322394e+01,1.319385e+01,4,5,5.303532e+00,5.303532e+00
3.548317e+00,4.284239e+00,4.254103e+00,3,1,5.338707e+00,5.339289e+00
3.536733e+00,1.943598e+00,1.914024e+00,3,0,6.515704e+00,6.516493e+00
3.542414e+00,6.471061e+00,6.440878e+00,3,2,6.035031e+00,6.036421e+00
3.539751e+00,3.864426e+00,3.834963e+00,3,1,5.027719e+00,5.027719e+00
3.533422e+00,1.518357e+00,1.487970e+00,3,0,4.242581e+00,4.242582e+00
3.532314e+00,1.543345e+00,1.515150e+00,3,0,3.761779e+00,3.761780e+00
3.533544e+00,1.555950e+00,1.523018e+00,3,0,3.222017e+00,3.222017e+00
3.531473e+00,1.526420e+00,1.499176e+00,3,0,2.958966e+00,2.958966e+00
3.537945e+00,4.190521e+00,4.161835e+00,3,1,3.072673e+00,3.075783e+00
3.544884e+00,3.800144e+00,3.771067e+00,3,1,1.689583e+00,1.689582e+00
3.532143e+00,1.500016e+00,1.471043e+00,3,0,1.466487e+00,1.466487e+00
3.531411e+00,1.544638e+00,1.516104e+00,3,0,1.622642e+00,1.622642e+00
3.530022e+00,1.547028e+00,1.518965e+00,3,0,1.120968e+00,1.120968e+00
3.530217e+00,1.539696e+00,1.512051e+00,3,0,9.459944e-01,9.459946e-01
3.531840e+00,1.524859e+00,1.497030e+00,3,0,7.684243e-01,7.684245e-01
3.526081e+00,1.526850e+00,1.499176e+00,3,0,4.885176e-01,4.885177e-01
3.532420e+00,1.532775e+00,1.504898e+00,3,0,3.703970e-01,3.703977e-01
3.528358e+00,1.525375e+00,1.496792e+00,3,0,2.797296e-01,2.797300e-01
3.526103e+00,1.541017e+00,1.513004e+00,3,0,3.974025e-01,3.974028e-01
3.529828e+00,1.532777e+00,1.505136e+00,3,0,5.354265e-01,5.354269e-01
3.527478e+00,1.528799e+00,1.501083e+00,3,0,3.592153e-01,3.592154e-01
3.532277e+00,1.542070e+00,1.514196e+00,3,0,4.040961e-01,4.040966e-01
3.531974e+00,1.525755e+00,1.498938e+00,3,0,1.113163e+00,1.113165e+00
3.526901e+00,1.524441e+00,1.496077e+00,3,0,2.515820e+00,2.515822e+00
3.533664e+00,1.541744e+00,1.513958e+00,3,0,3.426458e+00,3.426460e+00
3.529142e+00,1.533221e+00,1.505136e+00,3,0,2.879435e+00,2.879435e+00
3.529317e+00,1.531529e+00,1.504898e+00,3,0,3.110359e+00,3.110360e+00
3.536893e+00,1.526651e+00,1.498938e+00,3,0,3.024906e+00,3.024907e+00
3.529330e+00,1.535422e+00,1.507044e+00,3,0,2.671659e+00,2.671659e+00
3.530993e+00,1.531060e+00,1.502037e+00,3,0,2.112219e+00,2.112220e+00
3.533959e+00,1.520396e+00,1.492977e+00,3,0,2.070677e+00,2.070678e+00
3.529521e+00,1.547042e+00,1.518965e+00,3,0,3.677848e+00,3.677851e+00
3.541162e+00,4.362493e+00,4.334927e+00,3,1,4.748285e+00,4.749858e+00
3.542914e+00,1.992566e+01,1.989484e+01,3,7,5.601877e+00,5.606126e+00
3.552933e+00,9.100439e+00,9.068966e+00,3,3,4.561990e+00,4.563801e+00
3.541215e+00,4.002234e+00,3.968954e+00,3,1,3.478402e+00,3.478402e+00
3.537820e+00,1.559232e+00,1.528978e+00,3,0,2.544122e+00,2.544122e+00
3.535818e+00,1.539785e+00,1.510143e+00,3,0,2.076842e+00,2.076842e+00
3.530065e+00,1.551560e+00,1.523018e+00,3,0,2.759521e+00,2.759523e+00
3.536458e+00,1.537233e+00,1.509190e+00,3,0,2.751329e+00,2.751330e+00
3.529141e+00,1.533159e+00,1.505136e+00,3,0,2.069405e+00,2.069405e+00
3.534889e+00,1.543514e+00,1.515150e+00,3,0,2.024263e+00,2.024264e+00
3.534989e+00,1.534624e+00,1.507044e+00,3,0,2.326175e+00,2.326176e+00
3.537408e+00,1.536511e+00,1.507998e+00,3,0,2.414221e+00,2.414221e+00
3.533394e+00,1.544960e+00,1.515865e+00,3,0,2.956548e+00,2.956550e+00
3.547441e+00,1.529228e+00,1.500130e+00,3,0,2.350924e+00,2.350924e+00
3.533026e+00,1.555069e+00,1.526833e+00,3,0,3.067178e+00,3.067180e+00
3.536621e+00,1.522369e+00,1.494884e+00,3,0,3.023787e+00,3.023788e+00
3.557029e+00,1.508005e+00,1.480103e+00,3,0,2.527911e+00,2.527911e+00
3.531003e+00,1.529153e+00,1.501083e+00,3,0,2.091118e+00,2.091118e+00
3.526694e+00,1.519703e+00,1.492023e+00,3,0,2.201043e+00,2.201044e+00
3.529992e+00,1.518171e+00,1.490831e+00,3,0,2.211135e+00,2.211135e+00
3.535985e+00,1.526599e+00,1.498938e+00,3,0,1.630544e+00,1.630544e+00
3.527779e+00,1.531740e+00,1.501799e+00,3,0,1.629960e+00,1.629960e+00
3.531936e+00,1.541636e+00,1.513004e+00,3,0,1.065575e+00,1.065575e+00
3.535726e+00,1.531431e+00,1.502991e+00,3,0,8.781362e-01,8.781363e-01
3.525541e+00,1.526291e+00,1.497984e+00,3,0,5.657123e-01,5.657124e-01
3.533047e+00,1.554136e+00,1.526117e+00,3,0,3.838169e-01,3.838171e-01
3.524027e+00,1.532694e+00,1.505136e+00,3,0,2.168859e-01,2.168859e-01
3.532872e+00,1.542986e+00,1.514196e+00,3,0,4.077928e-01,4.077934e-01
3.532879e+00,1.530123e+00,1.502037e+00,3,0,2.298410e-01,2.298410e-01
3.524096e+00,1.531604e+00,1.502991e+00,3,0,2.219913e-01,2.219916e-01
3.544680e+00,1.576748e+00,1.547813e+00,3,0,1.341587e-01,1.341588e-01
3.526485e+00,1.521113e+00,1.492977e+00,3,0,1.470552e-01,1.470553e-01
3.525302e+00,1.553874e+00,1.525879e+00,3,0,1.317567e-01,1.317568e-01
3.527239e+00,1.535023e+00,1.500130e+00,3,0,3.249661e-01,3.249665e-01
3.546302e+00,1.523637e+00,1.494884e+00,3,0,2.494326e-01,2.494328e-01
3.531846e+00,1.538424e+00,1.510143e+00,3,0,2.719724e-01,2.719731e-01
3.526029e+00,1.738360e+00,1.709938e+00,3,0,5.470064e-01,5.470070e-01
3.532476e+00,1.564815e+00,1.536131e+00,3,0,2.990697e-01,2.990697e-01
3.526033e+00,1.541896e+00,1.513004e+00,3,0,4.258677e-01,4.258680e-01
3.523489e+00,1.551477e+00,1.523018e+00,3,0,4.303108e-01,4.303110e-01
3.529307e+00,1.557757e+00,1.523972e+00,3,0,7.248236e-01,7.248243e-01
3.530940e+00,1.527932e+00,1.500130e+00,3,0,5.522408e-01,5.522409e-01
3.535636e+00,1.535032e+00,1.507044e+00,3,0,3.638423e-01,3.638423e-01
3.526313e+00,1.566488e+00,1.538038e+00,3,0,2.660243e-01,2.660245e-01
3.525806e+00,1.534820e+00,1.506090e+00,3,0,3.563770e-01,3.563773e-01
3.528465e+00,1.537651e+00,1.508951e+00,3,0,3.281880e-01,3.281881e-01
3.526162e+00,1.531562e+00,1.502991e+00,3,0,2.648641e-01,2.648642e-01
3.529206e+00,1.528536e+00,1.500130e+00,3,0,4.637969e-01,4.637974e-01
3.531646e+00,1.531619e+00,1.502991e+00,3,0,3.516939e-01,3.516941e-01
3.526024e+00,1.534572e+00,1.506090e+00,3,0,5.227982e-01,5.227986e-01
3.531429e+00,1.541168e+00,1.513004e+00,3,0,9.247090e-01,9.247097e-01
3.527348e+00,1.530687e+00,1.502037e+00,3,0,8.107850e-01,8.107854e-01
3.531519e+00,1.534292e+00,1.507044e+00,3,0,7.181155e-01,7.181157e-01
3.536274e+00,1.558419e+00,1.529932e+00,3,0,1.643258e+00,1.643260e+00
3.528256e+00,1.609446e+00,1.579046e+00,3,0,1.994016e+00,1.994017e+00
3.540287e+00,1.619847e+00,1.589060e+00,3,0,1.134334e+00,1.134333e+00
3.526543e+00,1.604542e+00,1.573086e+00,3,0,8.482995e-01,8.482995e-01
3.535551e+00,1.555967e+00,1.525879e+00,3,0,6.537288e-01,6.537290e-01
3.524941e+00,1.555177e+00,1.527071e+00,3,0,4.364268e-01,4.364269e-01
3.533990e+00,1.544581e+00,1.515865e+00,3,0,3.864401e-01,3.864402e-01
3.533239e+00,1.552983e+00,1.523972e+00,3,0,5.548975e-01,5.548978e-01
3.525749e+00,1.541633e+00,1.513004e+00,3,0,5.307643e-01,5.307645e-01
3.531921e+00,1.548595e+00,1.519918e+00,3,0,2.639973e-01,2.639976e-01
3.525965e+00,1.534987e+00,1.506090e+00,3,0,7.177025e-01,7.177034e-01
3.529670e+00,1.540236e+00,1.512051e+00,3,0,3.984592e-01,3.984591e-01
3.529938e+00,1.526090e+00,1.497984e+00,3,0,3.519681e-01,3.519683e-01
3.523116e+00,1.532937e+00,1.504898e+00,3,0,4.923571e-01,4.923576e-01
3.530405e+00,1.536780e+00,1.508951e+00,3,0,4.030473e-01,4.030474e-01
3.526329e+00,1.525614e+00,1.496077e+00,3,0,4.731872e-01,4.731875e-01
3.525646e+00,1.533793e+00,1.506090e+00,3,0,6.026992e-01,6.026996e-01
3.527185e+00,1.530826e+00,1.497030e+00,3,0,4.756017e-01,4.756020e-01
3.523791e+00,1.527894e+00,1.500130e+00,3,0,4.945690e-01,4.945695e-01
3.529958e+00,1.559298e+00,1.531124e+00,3,0,6.169641e-01,6.169645e-01
3.525322e+00,1.568329e+00,1.538992e+00,3,0,7.574959e-01,7.574964e-01
3.538152e+00,1.640103e+00,1.608133e+00,3,0,1.135819e+00,1.135820e+00
3.545988e+00,1.696706e+00,1.665115e+00,3,0,7.866710e-01,7.866710e-01
3.815179e+00,1.719490e+00,1.684904e+00,3,0,7.566151e-01,7.566159e-01
3.539164e+00,1.636896e+00,1.605034e+00,3,0,7.321452e-01,7.321454e-01
3.536869e+00,1.562282e+00,1.533985e+00,3,0,7.926656e-01,7.926658e-01
3.525175e+00,1.565390e+00,1.537085e+00,3,0,6.555935e-01,6.555937e-01
3.534028e+00,1.565744e+00,1.522779e+00,3,0,1.115601e+00,1.115602e+00
3.525070e+00,1.538021e+00,1.508951e+00,3,0,8.292408e-01,8.292409e-01
3.530230e+00,1.545915e+00,1.517057e+00,3,0,7.751496e-01,7.751498e-01
3.525271e+00,1.532249e+00,1.503944e+00,3,0,7.596657e-01,7.596659e-01
3.542122e+00,1.538558e+00,1.510143e+00,3,0,6.878775e-01,6.878778e-01
3.535831e+00,1.595799e+00,1.561880e+00,3,0,4.928153e-01,4.928154e-01
3.528372e+00,1.576398e+00,1.548052e+00,3,0,6.019904e-01,6.019908e-01
3.534346e+00,1.570453e+00,1.541138e+00,3,0,6.788456e-01,6.788460e-01
3.527701e+00,1.580525e+00,1.551151e+00,3,0,4.668361e-01,4.668362e-01
3.531333e+00,1.585831e+00,1.557112e+00,3,0,8.782913e-01,8.782924e-01
3.525679e+00,1.549550e+00,1.521111e+00,3,0,6.180956e-01,6.180957e-01
3.530870e+00,1.538464e+00,1.510143e+00,3,0,5.652572e-01,5.652574e-01
3.528977e+00,1.531998e+00,1.503944e+00,3,0,5.058808e-01,5.058810e-01
3.525624e+00,1.535566e+00,1.507044e+00,3,0,3.970669e-01,3.970673e-01
3.529995e+00,1.532734e+00,1.505136e+00,3,0,2.920336e-01,2.920338e-01
3.524819e+00,1.525530e+00,1.497984e+00,3,0,5.797283e-01,5.797289e-01
3.524381e+00,1.538486e+00,1.509905e+00,3,0,4.997496e-01,4.997498e-01
3.526944e+00,1.535138e+00,1.507044e+00,3,0,5.083716e-01,5.083720e-01
3.528089e+00,1.525659e+00,1.497984e+00,3,0,4.754079e-01,4.754080e-01
3.529595e+00,1.548496e+00,1.519918e+00,3,0,3.696141e-01,3.696143e-01
3.530053e+00,1.530161e+00,1.503229e+00,3,0,4.437754e-01,4.437756e-01
3.525721e+00,1.522983e+00,1.496077e+00,3,0,3.442546e-01,3.442547e-01
3.529997e+00,1.541933e+00,1.513958e+00,3,0,1.454145e+00,1.454148e+00
3.525538e+00,1.527414e+00,1.498938e+00,3,0,3.218433e+00,3.218436e+00
3.533407e+00,1.549701e+00,1.521111e+00,3,0,2.417712e+00,2.417712e+00
3.535104e+00,1.548389e+00,1.519918e+00,3,0,1.723471e+00,1.723471e+00
3.529463e+00,1.530508e+00,1.502991e+00,3,0,1.264275e+00,1.264275e+00
3.530414e+00,1.547240e+00,1.518011e+00,3,0,1.366921e+00,1.366922e+00
3.526501e+00,1.522581e+00,1.495123e+00,3,0,1.080434e+00,1.080434e+00
3.528037e+00,1.537664e+00,1.509905e+00,3,0,1.043215e+00,1.043215e+00
3.528527e+00,1.531781e+00,1.504183e+00,3,0,1.256931e+00,1.256932e+00
3.525011e+00,1.524248e+00,1.495123e+00,3,0,1.434086e+00,1.434087e+00
3.534539e+00,1.542411e+00,1.513958e+00,3,0,1.312172e+00,1.312172e+00
3.537957e+00,1.531524e+00,1.502991e+00,3,0,1.397984e+00,1.397985e+00
3.526122e+00,1.569393e+00,1.542091e+00,3,0,1.863006e+00,1.863007e+00
3.544872e+00,1.555705e+00,1.526833e+00,3,0,1.373502e+00,1.373502e+00
3.525531e+00,1.530271e+00,1.502991e+00,3,0,9.297248e-01,9.297248e-01
3.532722e+00,1.537895e+00,1.509905e+00,3,0,5.499695e-01,5.499693e-01
3.522870e+00,1.532495e+00,1.504183e+00,3,0,3.668122e-01,3.668123e-01
3.526518e+00,1.538842e+00,1.510859e+00,3,0,2.877344e-01,2.877346e-01
3.529944e+00,1.530932e+00,1.502991e+00,3,0,3.947814e-01,3.947818e-01
3.527325e+00,1.524579e+00,1.497030e+00,3,0,2.789106e-01,2.789106e-01
3.527574e+00,1.539978e+00,1.512051e+00,3,0,4.675782e-01,4.675787e-01
3.531130e+00,1.532843e+00,1.503944e+00,3,0,4.970870e-01,4.970872e-01
3.538404e+00,1.526437e+00,1.497984e+00,3,0,4.618472e-01,4.618474e-01
3.532628e+00,1.552901e+00,1.523972e+00,3,0,5.953705e-01,5.953710e-01
3.527197e+00,1.542492e+00,1.514196e+00,3,0,3.315649e-01,3.315649e-01
3.529568e+00,1.537683e+00,1.510143e+00,3,0,2.690293e-01,2.690294e-01
3.528871e+00,1.529360e+00,1.502037e+00,3,0,1.439724e+00,1.439727e+00
3.524848e+00,1.528288e+00,1.499891e+00,3,0,1.497785e+00,1.497785e+00
3.528198e+00,1.536079e+00,1.507998e+00,3,0,7.278902e-01,7.278898e-01
3.526515e+00,1.527535e+00,1.498938e+00,3,0,7.181026e-01,7.181029e-01
3.528205e+00,1.533570e+00,1.505136e+00,3,0,6.287868e-01,6.287869e-01
3.528242e+00,1.537505e+00,1.508951e+00,3,0,6.738957e-01,6.738959e-01
3.527021e+00,1.525968e+00,1.497984e+00,3,0,3.442821e-01,3.442821e-01
3.531242e+00,1.535543e+00,1.507044e+00,3,0,2.891120e-01,2.891122e-01
3.537050e+00,1.536662e+00,1.508951e+00,3,0,5.501598e-01,5.501604e-01
3.526743e+00,1.528049e+00,1.500130e+00,3,0,6.853906e-01,6.853910e-01
3.529266e+00,1.533462e+00,1.506090e+00,3,0,8.436226e-01,8.436230e-01
3.527666e+00,1.538929e+00,1.510859e+00,3,0,5.492943e-01,5.492944e-01
3.530721e+00,1.534238e+00,1.507044e+00,3,0,5.278050e-01,5.278053e-01
3.535236e+00,1.548500e+00,1.512051e+00,3,0,7.921354e-01,7.921361e-01
3.526891e+00,1.526348e+00,1.498938e+00,3,0,1.174981e+00,1.174981e+00
3.530329e+00,1.535631e+00,1.507998e+00,3,0,1.302907e+00,1.302907e+00
3.520840e+00,1.529639e+00,1.502037e+00,3,0,1.817128e+00,1.817129e+00
3.531026e+00,1.552607e+00,1.524925e+00,3,0,1.715595e+00,1.715595e+00
3.531651e+00,1.532894e+00,1.498938e+00,3,0,2.668153e+00,2.668154e+00
3.523770e+00,1.523052e+00,1.495838e+00,3,0,1.115506e+00,1.115505e+00
3.529996e+00,1.540040e+00,1.513004e+00,3,0,9.496711e-01,9.496712e-01
3.533562e+00,1.535221e+00,1.506805e+00,3,0,1.501075e+00,1.501076e+00
3.544645e+00,1.532227e+00,1.504183e+00,3,0,7.347724e-01,7.347721e-01
3.531485e+00,1.553389e+00,1.524925e+00,3,0,6.039009e-01,6.039010e-01
3.524474e+00,1.534062e+00,1.506090e+00,3,0,4.902778e-01,4.902780e-01
3.529231e+00,1.512967e+00,1.486063e+00,3,0,3.288280e-01,3.288280e-01
3.532197e+00,1.519223e+00,1.491070e+00,3,0,6.713491e-01,6.713498e-01
3.526059e+00,1.524522e+00,1.494884e+00,3,0,4.977140e-01,4.977140e-01
3.530133e+00,1.530765e+00,1.502991e+00,3,0,2.836719e-01,2.836719e-01
3.522760e+00,1.513768e+00,1.487017e+00,3,0,6.883871e-01,6.883881e-01
3.524075e+00,1.532600e+00,1.504183e+00,3,0,4.772302e-01,4.772302e-01
3.534531e+00,1.533137e+00,1.506090e+00,3,0,2.511178e-01,2.511180e-01
3.521911e+00,1.531045e+00,1.502991e+00,3,0,2.738165e-01,2.738167e-01
3.531746e+00,1.520498e+00,1.492977e+00,3,0,3.426205e-01,3.426208e-01
3.529504e+00,1.532054e+00,1.505136e+00,3,0,5.175609e-01,5.175613e-01
3.525039e+00,1.521834e+00,1.494169e+00,3,0,1.085640e+00,1.085641e+00
3.530634e+00,1.524180e+00,1.495838e+00,3,0,7.889605e-01,7.889619e-01
3.524142e+00,1.521074e+00,1.493931e+00,3,0,1.428628e+00,1.428629e+00
3.526719e+00,1.522810e+00,1.495123e+00,3,0,6.237795e-01,6.237792e-01
3.529714e+00,1.528409e+00,1.499891e+00,3,0,4.969001e-01,4.969003e-01
3.526698e+00,1.492604e+00,1.466036e+00,3,0,3.323368e-01,3.323368e-01
3.524562e+00,1.521353e+00,1.494169e+00,3,0,3.054061e-01,3.054064e-01
3.529201e+00,1.513804e+00,1.479864e+00,3,0,8.581275e-01,8.581288e-01
3.528127e+00,1.529371e+00,1.502037e+00,3,0,8.560418e-01,8.560421e-01
3.537044e+00,1.541746e+00,1.513004e+00,3,0,1.314360e+00,1.314360e+00
3.533860e+00,1.520524e+00,1.492977e+00,3,0,1.349009e+00,1.349010e+00
3.527404e+00,1.527758e+00,1.499891e+00,3,0,1.548528e+00,1.548528e+00
3.532593e+00,1.537795e+00,1.508951e+00,3,0,2.537457e+00,2.537458e+00
3.525052e+00,1.525675e+00,1.497984e+00,3,0,2.841285e+00,2.841285e+00
3.530956e+00,1.535615e+00,1.506805e+00,3,0,2.122477e+00,2.122476e+00
3.534397e+00,1.527454e+00,1.499891e+00,3,0,1.906988e+00,1.906988e+00
3.535986e+00,1.524132e+00,1.497030e+00,3,0,2.680225e+00,2.680227e+00
3.536987e+00,1.553517e+00,1.525879e+00,3,0,1.820728e+00,1.820728e+00
3.529567e+00,1.521156e+00,1.492977e+00,3,0,1.509573e+00,1.509573e+00
3.528509e+00,1.530838e+00,1.502991e+00,3,0,1.527033e+00,1.527034e+00
3.534604e+00,1.533526e+00,1.506090e+00,3,0,1.650989e+00,1.650990e+00
3.526436e+00,1.512397e+00,1.484871e+00,3,0,1.808075e+00,1.808076e+00
3.532705e+00,1.529223e+00,1.502037e+00,3,0,1.332615e+00,1.332615e+00
3.529518e+00,1.526880e+00,1.499176e+00,3,0,1.278934e+00,1.278934e+00
3.526254e+00,1.525389e+00,1.497984e+00,3,0,1.640311e+00,1.640311e+00
3.531771e+00,1.531377e+00,1.504183e+00,3,0,1.799944e+00,1.799945e+00
3.528296e+00,1.524904e+00,1.497030e+00,3,0,1.140216e+00,1.140216e+00
3.524674e+00,1.521267e+00,1.494169e+00,3,0,1.096292e+00,1.096292e+00
3.531582e+00,1.525567e+00,1.497030e+00,3,0,6.438806e-01,6.438806e-01
3.524918e+00,1.515925e+00,1.487970e+00,3,0,6.245240e-01,6.245244e-01

