2.327205e+00,7.756461e+00,5.954027e+00,2,0,0.000000e+00,0.000000e+00
3.474016e+00,1.525379e+00,1.485109e+00,3,0,7.551209e-02,7.551224e-02
3.502162e+00,1.442163e+00,1.415968e+00,3,0,1.395621e-01,1.395623e-01
3.498990e+00,1.433411e+00,1.408100e+00,3,0,2.946823e-01,2.946826e-01
3.497147e+00,1.450323e+00,1.424074e+00,3,0,2.716495e-01,2.716497e-01
3.494634e+00,1.449890e+00,1.423836e+00,3,0,1.276167e+00,1.276168e+00
3.497317e+00,1.450038e+00,1.424074e+00,3,0,1.779663e+00,1.779664e+00
3.501279e+00,1.452991e+00,1.421928e+00,3,0,2.335722e+00,2.335723e+00
3.508471e+00,1.445212e+00,1.419067e+00,3,0,1.148687e+00,1.148686e+00
3.500039e+00,1.443840e+00,1.417875e+00,3,0,1.018461e+00,1.018461e+00
3.497748e+00,1.453963e+00,1.428843e+00,3,0,8.424528e-01,8.424531e-01
3.502872e+00,1.451753e+00,1.425028e+00,3,0,9.746404e-01,9.746411e-01
3.500247e+00,1.446721e+00,1.420975e+00,3,0,1.616753e+00,1.616754e+00
3.498090e+00,1.444098e+00,1.417875e+00,3,0,2.206613e+00,2.206614e+00
3.501625e+00,1.461919e+00,1.435995e+00,3,0,2.022702e+00,2.022702e+00
3.507616e+00,1.502035e+00,1.475096e+00,3,0,2.825381e+00,2.825382e+00
3.509445e+00,1.478168e+00,1.451969e+00,3,0,2.206349e+00,2.206349e+00
3.500692e+00,1.476370e+00,1.449108e+00,3,0,1.931090e+00,1.931091e+00
3.500237e+00,1.481240e+00,1.455069e+00,3,0,1.844838e+00,1.844838e+00
3.504018e+00,1.478919e+00,1.451969e+00,3,0,1.758303e+00,1.758304e+00
3.512075e+00,1.479678e+00,1.452923e+00,3,0,1.840510e+00,1.840511e+00
3.501453e+00,1.471327e+00,1.446009e+00,3,0,1.533956e+00,1.533956e+00
3.507226e+00,1.479904e+00,1.452208e+00,3,0,1.381534e+00,1.381535e+00
3.504988e+00,1.473530e+00,1.446962e+00,3,0,1.204581e+00,1.204582e+00
3.500572e+00,1.449075e+00,1.422882e+00,3,0,1.188903e+00,1.188904e+00
3.500080e+00,1.454343e+00,1.422882e+00,3,0,1.149710e+00,1.149710e+00
3.488029e+00,1.466952e+00,1.440048e+00,3,0,9.518776e-01,9.518779e-01
3.501477e+00,1.452425e+00,1.427174e+00,3,0,6.794439e-01,6.794440e-01
3.510256e+00,1.456736e+00,1.430035e+00,3,0,3.431008e-01,3.431012e-01
3.476355e+00,1.447667e+00,1.420975e+00,3,0,2.960831e-01,2.960831e-01
3.427365e+00,1.488012e+00,1.462221e+00,3,0,5.896102e-01,5.896110e-01
3.506346e+00,1.483962e+00,1.457930e+00,3,0,6.941784e-01,6.941788e-01
3.557752e+00,1.444814e+00,1.418829e+00,3,0,5.984793e-01,5.984794e-01
3.571667e+00,1.522264e+00,1.496077e+00,3,0,9.215445e-01,9.215452e-01
3.584479e+00,1.465654e+00,1.439810e+00,3,0,7.538888e-01,7.538889e-01
3.534470e+00,1.490262e+00,1.465082e+00,3,0,5.559930e-01,5.559930e-01
3.558990e+00,1.468757e+00,1.443863e+00,3,0,4.066880e-01,4.066882e-01
3.500403e+00,1.481196e+00,1.455069e+00,3,0,3.376784e-01,3.376785e-01
3.499873e+00,1.470057e+00,1.443863e+00,3,0,8.606975e-01,8.606984e-01
3.496077e+00,1.474128e+00,1.448154e+00,3,0,9.504782e-01,9.504785e-01
3.497398e+00,1.479480e+00,1.453161e+00,3,0,2.139477e+00,2.139478e+00
3.504567e+00,1.475757e+00,1.450062e+00,3,0,2.927873e+00,2.927875e+00
3.506803e+00,1.474326e+00,1.448154e+00,3,0,1.852340e+00,1.852339e+00
3.500128e+00,1.477437e+00,1.451015e+00,3,0,2.797935e+00,2.797936e+00
3.503672e+00,1.482536e+00,1.455784e+00,3,0,2.235884e+00,2.235884e+00
3.501957e+00,1.472860e+00,1.446962e+00,3,0,1.808748e+00,1.808748e+00
3.497529e+00,1.474942e+00,1.448870e+00,3,0,1.619818e+00,1.619818e+00
3.500146e+00,1.476293e+00,1.450777e+00,3,0,1.344299e+00,1.344299e+00
3.505285e+00,1.480675e+00,1.454115e+00,3,0,1.080027e+00,1.080027e+00
3.506915e+00,1.474848e+00,1.448154e+00,3,0,6.876476e-01,6.876476e-01
3.499807e+00,1.469898e+00,1.443148e+00,3,0,6.177119e-01,6.177122e-01
3.492025e+00,1.472570e+00,1.446009e+00,3,0,9.829236e-01,9.829244e-01
3.500885e+00,1.479187e+00,1.452923e+00,3,0,7.168843e-01,7.168844e-01
3.507594e+00,1.475420e+00,1.448870e+00,3,0,6.110373e-01,6.110374e-01
3.498844e+00,1.472068e+00,1.446009e+00,3,0,8.078102e-01,8.078108e-01
3.496876e+00,1.479370e+00,1.453876e+00,3,0,1.109397e+00,1.109397e+00
3.506694e+00,1.482159e+00,1.456976e+00,3,0,5.988308e-01,5.988307e-01
3.504433e+00,1.455666e+00,1.429081e+00,3,0,9.244299e-01,9.244306e-01
3.499370e+00,1.465922e+00,1.438856e+00,3,0,1.306200e+00,1.306200e+00
3.505829e+00,1.475051e+00,1.449108e+00,3,0,1.969784e+00,1.969785e+00
3.510117e+00,1.473231e+00,1.441002e+00,3,0,8.942516e-01,8.942522e-01
3.502946e+00,1.467129e+00,1.441002e+00,3,0,1.939671e+00,1.939673e+00
3.501691e+00,1.475846e+00,1.444101e+00,3,0,3.653225e+00,3.653228e+00
3.506800e+00,1.485092e+00,1.459122e+00,3,0,1.983769e+00,1.983767e+00
3.508186e+00,1.467529e+00,1.441002e+00,3,0,2.724662e+00,2.724663e+00
3.501096e+00,1.466350e+00,1.439810e+00,3,0,1.182477e+00,1.182476e+00
3.497435e+00,1.477842e+00,1.450777e+00,3,0,1.263766e+00,1.263766e+00
3.504097e+00,1.472133e+00,1.444817e+00,3,0,9.845565e-01,9.845569e-01
3.501019e+00,1.473178e+00,1.446962e+00,3,0,7.762216e-01,7.762219e-01
3.506361e+00,1.472302e+00,1.446962e+00,3,0,5.908722e-01,5.908725e-01
3.496159e+00,1.478625e+00,1.452923e+00,3,0,8.816919e-01,8.816926e-01
3.501900e+00,1.479218e+00,1.453161e+00,3,0,9.003219e-01,9.003221e-01
3.500611e+00,1.472975e+00,1.446962e+00,3,0,9.129588e-01,9.129591e-01
3.500451e+00,1.470502e+00,1.444101e+00,3,0,1.029772e+00,1.029772e+00
3.497774e+00,1.479971e+00,1.454115e+00,3,0,1.502112e+00,1.502113e+00
3.504058e+00,1.473812e+00,1.447916e+00,3,0,2.017964e+00,2.017965e+00
3.499343e+00,1.472731e+00,1.446009e+00,3,0,1.214733e+00,1.214733e+00
3.496525e+00,1.475303e+00,1.450062e+00,3,0,1.209876e+00,1.209877e+00
3.503552e+00,1.482049e+00,1.456022e+00,3,0,8.937063e-01,8.937063e-01
3.504368e+00,1.473341e+00,1.448154e+00,3,0,4.433705e-01,4.433706e-01
3.498834e+00,1.471834e+00,1.446009e+00,3,0,1.527409e+00,1.527411e+00
3.502163e+00,1.498585e+00,1.471996e+00,3,0,1.130290e+00,1.130290e+00
3.505758e+00,1.493127e+00,1.466990e+00,3,0,1.011827e+00,1.011827e+00
3.512583e+00,1.459108e+00,1.433134e+00,3,0,9.740377e-01,9.740383e-01
3.511572e+00,1.556322e+00,1.527071e+00,3,0,1.400945e+00,1.400946e+00
3.528993e+00,1.696241e+00,1.664162e+00,3,0,2.512778e+00,2.512780e+00
3.514166e+00,1.673136e+00,1.641035e+00,3,0,3.760617e+00,3.760619e+00
3.512245e+00,4.104676e+00,4.070044e+00,3,1,5.483424e+00,5.483785e+00
3.518366e+00,3.727433e+00,3.700018e+00,3,1,4.458069e+00,4.458069e+00
3.514533e+00,3.997986e+00,3.968954e+00,3,1,3.182345e+00,3.182345e+00
3.504858e+00,3.711541e+00,3.683090e+00,3,1,2.454093e+00,2.454093e+00
3.501984e+00,1.464264e+00,1.436949e+00,3,0,1.719397e+00,1.719397e+00
3.510476e+00,1.478734e+00,1.451969e+00,3,0,2.433287e+00,2.433289e+00
3.513043e+00,1.474527e+00,1.446962e+00,3,0,1.807900e+00,1.807900e+00
3.500038e+00,1.476307e+00,1.448154e+00,3,0,2.327531e+00,2.327532e+00
3.502241e+00,1.482268e+00,1.456022e+00,3,0,2.510070e+00,2.510071e+00
3.506376e+00,1.467186e+00,1.440048e+00,3,0,1.084532e+00,1.084532e+00
3.498177e+00,1.473138e+00,1.446962e+00,3,0,9.374207e-01,9.374209e-01
3.498432e+00,1.478252e+00,1.451969e+00,3,0,1.319559e+00,1.319559e+00
3.503908e+00,1.478522e+00,1.451015e+00,3,0,1.415890e+00,1.415890e+00
3.504163e+00,1.470607e+00,1.445055e+00,3,0,1.066766e+00,1.066766e+00
3.497018e+00,1.468309e+00,1.442194e+00,3,0,1.238102e+00,1.238102e+00
3.497910e+00,1.475809e+00,1.448870e+00,3,0,7.214970e-01,7.214971e-01
3.501422e+00,1.476376e+00,1.450062e+00,3,0,6.568649e-01,6.568651e-01
3.502416e+00,1.474520e+00,1.447916e+00,3,0,5.438514e-01,5.438515e-01
3.495227e+00,1.468727e+00,1.442909e+00,3,0,5.784202e-01,5.784207e-01
3.501200e+00,1.480471e+00,1.453876e+00,3,0,8.078968e-01,8.078973e-01
3.504769e+00,1.478149e+00,1.446009e+00,3,0,8.817768e-01,8.817772e-01
3.501690e+00,1.489562e+00,1.463890e+00,3,0,5.667879e-01,5.667879e-01
3.497703e+00,1.472013e+00,1.446009e+00,3,0,5.720606e-01,5.720609e-01
3.503011e+00,1.474087e+00,1.447916e+00,3,0,5.279835e-01,5.279837e-01
3.503405e+00,1.475217e+00,1.449108e+00,3,0,4.518010e-01,4.518013e-01
3.499138e+00,1.467848e+00,1.441956e+00,3,0,3.135725e-01,3.135726e-01
3.498457e+00,1.473054e+00,1.447201e+00,3,0,5.541243e-01,5.541249e-01
3.501532e+00,1.479801e+00,1.453161e+00,3,0,2.932878e-01,2.932878e-01
3.503593e+00,1.474991e+00,1.447916e+00,3,0,3.389798e-01,3.389799e-01
3.495678e+00,1.473469e+00,1.447201e+00,3,0,8.799552e-01,8.799561e-01
3.495439e+00,1.479124e+00,1.452923e+00,3,0,6.417448e-01,6.417449e-01
3.500176e+00,1.476207e+00,1.451015e+00,3,0,2.071143e+00,2.071146e+00
3.504537e+00,1.461938e+00,1.435995e+00,3,0,1.435506e+00,1.435506e+00
3.498300e+00,1.467412e+00,1.441002e+00,3,0,1.390175e+00,1.390176e+00
3.499259e+00,1.478379e+00,1.451969e+00,3,0,1.731344e+00,1.731345e+00
3.506276e+00,1.466906e+00,1.434088e+00,3,0,1.563279e+00,1.563280e+00
3.503554e+00,1.469838e+00,1.443863e+00,3,0,1.722313e+00,1.722313e+00
3.503772e+00,1.469426e+00,1.443148e+00,3,0,3.041310e+00,3.041312e+00
3.503643e+00,1.471807e+00,1.446009e+00,3,0,1.973577e+00,1.973577e+00
3.518134e+00,1.496075e+00,1.469851e+00,3,0,1.500037e+00,1.500037e+00
3.499126e+00,1.480804e+00,1.455069e+00,3,0,1.307087e+00,1.307087e+00
3.499944e+00,1.488231e+00,1.461983e+00,3,0,7.837207e-01,7.837211e-01
3.505926e+00,1.488197e+00,1.461983e+00,3,0,8.577162e-01,8.577172e-01
3.503188e+00,1.487564e+00,1.461029e+00,3,0,5.381583e-01,5.381585e-01
3.497618e+00,1.472377e+00,1.446009e+00,3,0,7.102339e-01,7.102344e-01
3.524133e+00,1.480355e+00,1.454115e+00,3,0,3.163725e-01,3.163726e-01
3.505491e+00,1.468988e+00,1.443148e+00,3,0,2.572584e-01,2.572586e-01
3.493663e+00,1.474053e+00,1.447916e+00,3,0,2.640276e-01,2.640278e-01
3.511167e+00,1.469227e+00,1.443148e+00,3,0,5.737759e-01,5.737766e-01
3.502641e+00,1.491209e+00,1.463890e+00,3,0,5.918175e-01,5.918178e-01
3.499688e+00,1.472192e+00,1.446009e+00,3,0,5.015503e-01,5.015504e-01
3.498870e+00,1.463949e+00,1.439095e+00,3,0,5.462994e-01,5.462997e-01
3.498937e+00,1.477342e+00,1.451015e+00,3,0,4.626902e-01,4.626904e-01
3.500586e+00,1.478439e+00,1.451015e+00,3,0,8.631047e-01,8.631055e-01
3.503309e+00,1.466838e+00,1.441002e+00,3,0,1.472360e+00,1.472361e+00
3.499407e+00,1.466645e+00,1.441002e+00,3,0,1.662220e+00,1.662221e+00
3.501074e+00,1.473181e+00,1.446009e+00,3,0,1.301747e+00,1.301748e+00
3.502254e+00,1.471823e+00,1.446009e+00,3,0,1.159393e+00,1.159394e+00
3.501293e+00,1.471430e+00,1.446009e+00,3,0,1.072057e+00,1.072057e+00
3.498156e+00,1.468426e+00,1.441956e+00,3,0,7.684550e-01,7.684551e-01
3.502821e+00,1.476420e+00,1.451015e+00,3,0,6.784226e-01,6.784235e-01
3.501691e+00,1.458401e+00,1.431942e+00,3,0,1.196365e+00,1.196366e+00
3.498050e+00,1.467972e+00,1.441956e+00,3,0,1.709870e+00,1.709871e+00
3.500612e+00,1.477274e+00,1.451015e+00,3,0,1.043961e+00,1.043961e+00
3.505032e+00,1.466168e+00,1.440048e+00,3,0,9.875633e-01,9.875635e-01
3.502764e+00,1.466828e+00,1.441002e+00,3,0,8.865501e-01,8.865503e-01
3.495411e+00,1.469575e+00,1.443863e+00,3,0,8.128659e-01,8.128660e-01
3.502639e+00,1.468601e+00,1.442909e+00,3,0,6.697431e-01,6.697433e-01
3.503254e+00,1.493099e+00,1.466990e+00,3,0,7.530458e-01,7.530462e-01
3.504371e+00,1.471377e+00,1.445055e+00,3,0,1.230954e+00,1.230955e+00
3.509792e+00,1.472905e+00,1.446009e+00,3,0,1.183055e+00,1.183055e+00
3.497505e+00,1.491236e+00,1.463890e+00,3,0,1.252972e+00,1.252972e+00
3.502801e+00,1.477362e+00,1.445055e+00,3,0,1.423246e+00,1.423247e+00
3.499463e+00,1.470088e+00,1.444101e+00,3,0,6.507800e-01,6.507801e-01
3.496263e+00,1.465597e+00,1.439095e+00,3,0,5.206114e-01,5.206116e-01
3.505838e+00,1.468733e+00,1.441956e+00,3,0,5.456169e-01,5.456173e-01
3.502749e+00,1.466168e+00,1.440048e+00,3,0,2.479467e-01,2.479469e-01
3.497263e+00,1.462237e+00,1.435995e+00,3,0,2.496599e-01,2.496600e-01
3.493897e+00,1.474241e+00,1.448154e+00,3,0,4.269946e-01,4.269950e-01
3.501085e+00,1.476726e+00,1.450062e+00,3,0,3.637096e-01,3.637097e-01
3.500304e+00,1.461329e+00,1.435041e+00,3,0,9.785977e-01,9.785992e-01
3.498238e+00,1.430950e+00,1.405954e+00,3,0,7.268657e-01,7.268663e-01
3.496387e+00,1.448137e+00,1.422882e+00,3,0,5.136780e-01,5.136782e-01
3.495544e+00,1.420704e+00,1.394987e+00,3,0,4.576685e-01,4.576686e-01
3.500116e+00,1.440509e+00,1.415014e+00,3,0,4.659262e-01,4.659265e-01
3.499491e+00,1.453598e+00,1.427889e+00,3,0,4.789425e-01,4.789428e-01
3.501070e+00,1.430947e+00,1.405954e+00,3,0,3.020691e-01,3.020692e-01
3.500066e+00,1.460100e+00,1.434088e+00,3,0,3.394996e-01,3.394999e-01
3.504703e+00,1.481993e+00,1.455069e+00,3,0,2.773580e-01,2.773582e-01
3.503150e+00,1.468520e+00,1.442194e+00,3,0,2.395138e-01,2.395139e-01
3.494509e+00,1.413488e+00,1.388073e+00,3,0,6.457986e-01,6.457994e-01
3.496211e+00,1.454744e+00,1.429081e+00,3,0,4.074308e-01,4.074311e-01
3.500584e+00,1.467580e+00,1.442194e+00,3,0,6.452892e-01,6.452897e-01
3.502232e+00,1.460612e+00,1.434088e+00,3,0,1.041436e+00,1.041437e+00
3.497386e+00,1.463973e+00,1.438141e+00,3,0,8.929571e-01,8.929577e-01
3.498431e+00,1.473917e+00,1.446962e+00,3,0,1.012421e+00,1.012421e+00
3.505063e+00,1.472079e+00,1.446009e+00,3,0,7.096699e-01,7.096700e-01
3.507016e+00,1.470660e+00,1.444101e+00,3,0,7.097771e-01,7.097774e-01
3.497842e+00,1.471545e+00,1.444817e+00,3,0,8.114543e-01,8.114547e-01
3.499002e+00,1.473361e+00,1.446962e+00,3,0,1.782574e+00,1.782576e+00
3.501633e+00,1.467479e+00,1.441002e+00,3,0,2.360399e+00,2.360400e+00
3.505774e+00,1.469693e+00,1.443148e+00,3,0,2.091286e+00,2.091286e+00
3.495373e+00,1.465743e+00,1.440048e+00,3,0,1.700507e+00,1.700508e+00
3.499720e+00,1.466306e+00,1.440763e+00,3,0,1.573464e+00,1.573465e+00
3.505349e+00,1.472356e+00,1.446009e+00,3,0,1.068439e+00,1.068439e+00
3.500855e+00,1.470361e+00,1.444101e+00,3,0,1.055490e+00,1.055491e+00
3.500273e+00,1.471309e+00,1.445055e+00,3,0,1.037041e+00,1.037041e+00
3.506275e+00,1.470019e+00,1.442909e+00,3,0,7.956397e-01,7.956398e-01
3.506112e+00,1.457539e+00,1.430988e+00,3,0,7.031926e-01,7.031927e-01
3.499825e+00,1.522671e+00,1.494884e+00,3,0,1.431417e+00,1.431419e+00
3.508177e+00,1.543413e+00,1.514912e+00,3,0,2.982531e+00,2.982533e+00
3.507196e+00,1.539135e+00,1.510143e+00,3,0,3.031353e+00,3.031354e+00
3.506396e+00,1.510825e+00,1.484156e+00,3,0,3.054806e+00,3.054807e+00
3.507778e+00,1.472650e+00,1.445055e+00,3,0,3.560092e+00,3.560093e+00
3.504699e+00,1.480907e+00,1.454115e+00,3,0,5.094646e+00,5.094649e+00
3.508663e+00,1.491446e+00,1.466036e+00,3,0,3.266819e+00,3.266818e+00
3.505505e+00,1.482878e+00,1.455784e+00,3,0,3.985969e+00,3.985971e+00
3.507310e+00,1.495826e+00,1.468897e+00,3,0,3.077073e+00,3.077073e+00
3.518803e+00,1.472563e+00,1.446962e+00,3,0,2.875826e+00,2.875827e+00
3.500541e+00,1.479575e+00,1.452923e+00,3,0,1.974572e+00,1.974571e+00
3.498945e+00,1.473119e+00,1.447201e+00,3,0,2.489593e+00,2.489594e+00
3.513853e+00,1.468078e+00,1.436949e+00,3,0,1.671669e+00,1.671668e+00
3.498642e+00,1.468027e+00,1.441002e+00,3,0,2.163022e+00,2.163023e+00
3.501392e+00,1.456420e+00,1.430035e+00,3,0,7.060764e-01,7.060763e-01
3.504104e+00,1.459333e+00,1.433134e+00,3,0,9.278442e-01,9.278450e-01
3.507321e+00,1.466019e+00,1.439810e+00,3,0,1.801419e+00,1.801421e+00
3.503197e+00,1.451974e+00,1.425028e+00,3,0,1.390243e+00,1.390243e+00
3.499053e+00,1.451798e+00,1.425028e+00,3,0,2.192526e+00,2.192527e+00
3.504308e+00,1.464855e+00,1.438856e+00,3,0,1.943535e+00,1.943535e+00
3.523186e+00,1.469572e+00,1.442909e+00,3,0,3.271278e+00,3.271281e+00
3.510126e+00,1.459762e+00,1.434088e+00,3,0,1.690167e+00,1.690167e+00
3.502829e+00,1.476143e+00,1.450062e+00,3,0,1.412966e+00,1.412966e+00
3.508625e+00,1.486415e+00,1.458883e+00,3,0,1.101833e+00,1.101833e+00
3.502456e+00,1.423302e+00,1.397133e+00,3,0,1.109890e+00,1.109890e+00
3.500275e+00,1.449312e+00,1.423120e+00,3,0,1.180572e+00,1.180573e+00
3.503421e+00,1.467689e+00,1.442909e+00,3,0,1.771004e+00,1.771005e+00
3.509361e+00,1.453121e+00,1.427174e+00,3,0,7.989906e-01,7.989901e-01
3.507669e+00,1.453309e+00,1.425982e+00,3,0,5.277676e-01,5.277677e-01
3.500598e+00,1.450256e+00,1.424074e+00,3,0,5.981896e-01,5.981899e-01
3.496882e+00,1.464562e+00,1.437187e+00,3,0,5.715104e-01,5.715107e-01
3.495427e+00,1.420595e+00,1.394987e+00,3,0,4.452613e-01,4.452613e-01
3.502851e+00,1.447460e+00,1.415968e+00,3,0,7.191406e-01,7.191415e-01
3.505954e+00,1.443422e+00,1.417875e+00,3,0,1.052376e+00,1.052377e+00
3.498981e+00,1.450423e+00,1.422882e+00,3,0,1.601037e+00,1.601038e+00
3.504225e+00,1.459214e+00,1.432896e+00,3,0,3.478609e+00,3.478612e+00
3.503171e+00,1.460536e+00,1.434088e+00,3,0,4.514008e+00,4.514010e+00
3.505895e+00,1.466385e+00,1.440048e+00,3,0,3.065471e+00,3.065471e+00
3.499036e+00,1.462499e+00,1.436949e+00,3,0,3.784558e+00,3.784560e+00
3.499113e+00,1.469557e+00,1.442909e+00,3,0,2.730909e+00,2.730909e+00
3.503545e+00,1.473887e+00,1.447916e+00,3,0,2.168827e+00,2.168827e+00
3.503488e+00,1.467097e+00,1.441002e+00,3,0,2.418019e+00,2.418020e+00
3.501240e+00,1.465021e+00,1.437902e+00,3,0,1.306380e+00,1.306380e+00
3.506158e+00,1.473876e+00,1.447916e+00,3,0,9.994601e-01,9.994613e-01
3.504301e+00,1.471606e+00,1.445055e+00,3,0,7.696718e-01,7.696718e-01
3.496045e+00,1.467928e+00,1.441956e+00,3,0,7.205179e-01,7.205181e-01
3.496688e+00,1.470847e+00,1.445055e+00,3,0,6.833545e-01,6.833547e-01
3.501529e+00,1.473501e+00,1.448154e+00,3,0,1.060750e+00,1.060751e+00
3.507535e+00,1.467979e+00,1.442194e+00,3,0,3.632652e-01,3.632650e-01
3.497969e+00,1.445556e+00,1.419067e+00,3,0,1.456896e+00,1.456898e+00
3.506565e+00,1.487850e+00,1.461029e+00,3,0,3.221339e+00,3.221342e+00
3.507980e+00,1.469461e+00,1.442909e+00,3,0,1.879966e+00,1.879966e+00
3.507268e+00,1.474670e+00,1.447916e+00,3,0,1.342876e+00,1.342876e+00
3.506040e+00,1.506498e+00,1.478910e+00,3,0,1.100848e+00,1.100848e+00
3.500890e+00,1.490437e+00,1.464128e+00,3,0,9.350391e-01,9.350393e-01
3.501070e+00,1.477957e+00,1.451969e+00,3,0,8.765797e-01,8.765799e-01
3.502193e+00,1.471566e+00,1.445055e+00,3,0,1.483487e+00,1.483489e+00
3.501816e+00,1.472575e+00,1.447201e+00,3,0,1.146398e+00,1.146398e+00
3.507139e+00,1.476562e+00,1.450062e+00,3,0,8.245375e-01,8.245376e-01
3.503465e+00,1.473311e+00,1.446962e+00,3,0,9.175511e-01,9.175515e-01
3.495054e+00,1.475316e+00,1.447916e+00,3,0,1.572600e+00,1.572602e+00
3.498613e+00,1.475249e+00,1.447916e+00,3,0,2.548006e+00,2.548008e+00
3.501908e+00,1.435075e+00,1.409054e+00,3,0,4.638468e+00,4.638472e+00
3.506750e+00,1.453305e+00,1.427889e+00,3,0,5.660153e+00,5.660155e+00
3.500017e+00,1.462500e+00,1.437187e+00,3,0,5.111811e+00,5.111811e+00
3.500847e+00,1.474340e+00,1.448154e+00,3,0,5.361426e+00,5.361428e+00
3.508189e+00,1.473113e+00,1.446009e+00,3,0,4.518844e+00,4.518844e+00
3.507717e+00,1.469979e+00,1.444101e+00,3,0,4.751984e+00,4.751986e+00
3.499636e+00,1.467222e+00,1.441002e+00,3,0,4.746635e+00,4.746636e+00
3.500682e+00,1.489260e+00,1.464128e+00,3,0,3.913832e+00,3.913832e+00
3.507221e+00,1.537604e+00,1.511097e+00,3,0,3.373796e+00,3.373796e+00
3.506803e+00,1.564619e+00,1.535892e+00,3,0,2.596153e+00,2.596153e+00
3.514279e+00,1.564133e+00,1.534939e+00,3,0,2.364516e+00,2.364516e+00
3.510912e+00,1.560536e+00,1.532078e+00,3,0,2.377071e+00,2.377071e+00
3.513348e+00,4.319496e+00,4.290104e+00,3,1,3.044289e+00,3.045075e+00
3.518201e+00,2.167823e+01,2.164912e+01,3,8,5.471063e+00,5.477494e+00
6.994678e+00,1.993694e+01,1.990795e+01,6,8,5.713009e+00,5.704936e+00
5.836832e+00,1.121984e+01,1.119089e+01,5,4,6.257295e+00,6.259096e+00
4.678588e+00,1.286882e+01,1.284003e+01,4,5,5.303532e+00,5.303532e+00
3.515696e+00,4.131604e+00,4.101992e+00,3,1,5.338707e+00,5.339289e+00
3.512557e+00,1.853303e+00,1.825094e+00,3,0,6.515704e+00,6.516493e+00
3.514961e+00,6.235575e+00,6.207943e+00,3,2,6.035031e+00,6.036421e+00
3.508990e+00,3.686410e+00,3.658056e+00,3,1,5.027719e+00,5.027719e+00
3.504751e+00,1.451637e+00,1.423120e+00,3,0,4.242581e+00,4.242582e+00
3.510995e+00,1.472342e+00,1.446009e+00,3,0,3.761779e+00,3.761780e+00
3.511845e+00,1.474291e+00,1.447916e+00,3,0,3.222017e+00,3.222017e+00
3.504497e+00,1.514607e+00,1.488924e+00,3,0,2.958966e+00,2.958966e+00
3.515111e+00,4.052372e+00,4.024982e+00,3,1,3.072673e+00,3.075783e+00
3.512247e+00,3.726095e+00,3.697872e+00,3,1,1.689583e+00,1.689582e+00
3.508171e+00,1.457217e+00,1.430035e+00,3,0,1.466487e+00,1.466487e+00
3.503676e+00,1.469134e+00,1.441956e+00,3,0,1.622642e+00,1.622642e+00
3.510798e+00,1.487504e+00,1.461029e+00,3,0,1.120968e+00,1.120968e+00
3.502443e+00,1.472667e+00,1.446009e+00,3,0,9.459944e-01,9.459946e-01
3.503383e+00,1.470935e+00,1.444101e+00,3,0,7.684243e-01,7.684245e-01
3.494181e+00,1.465431e+00,1.439095e+00,3,0,4.885176e-01,4.885177e-01
3.497439e+00,1.472561e+00,1.447201e+00,3,0,3.703970e-01,3.703977e-01
3.505171e+00,1.480182e+00,1.452923e+00,3,0,2.797296e-01,2.797300e-01
3.507845e+00,1.472242e+00,1.446962e+00,3,0,3.974025e-01,3.974028e-01
3.498611e+00,1.462209e+00,1.435995e+00,3,0,5.354265e-01,5.354269e-01
3.497568e+00,1.478722e+00,1.451015e+00,3,0,3.592153e-01,3.592154e-01
3.506365e+00,1.466124e+00,1.440048e+00,3,0,4.040961e-01,4.040966e-01
3.501244e+00,1.481666e+00,1.453876e+00,3,0,1.113163e+00,1.113165e+00
3.505704e+00,1.463565e+00,1.437902e+00,3,0,2.515820e+00,2.515822e+00
3.507577e+00,1.458085e+00,1.430988e+00,3,0,3.426458e+00,3.426460e+00
3.509600e+00,1.472889e+00,1.446962e+00,3,0,2.879435e+00,2.879435e+00
3.499636e+00,1.468251e+00,1.441956e+00,3,0,3.110359e+00,3.110360e+00
3.501538e+00,1.478367e+00,1.451969e+00,3,0,3.024906e+00,3.024907e+00
3.502861e+00,1.496653e+00,1.470089e+00,3,0,2.671659e+00,2.671659e+00
3.504302e+00,1.468493e+00,1.441956e+00,3,0,2.112219e+00,2.112220e+00
3.497811e+00,1.473225e+00,1.446009e+00,3,0,2.070677e+00,2.070678e+00
3.505126e+00,1.472748e+00,1.447201e+00,3,0,3.677848e+00,3.677851e+00
3.509005e+00,4.162321e+00,4.135847e+00,3,1,4.748285e+00,4.749858e+00
3.517383e+00,1.932755e+01,1.929903e+01,3,7,5.601877e+00,5.606126e+00
3.517573e+00,8.549666e+00,8.519888e+00,3,3,4.561990e+00,4.563801e+00
3.509168e+00,3.711218e+00,3.683090e+00,3,1,3.478402e+00,3.478402e+00
3.506715e+00,1.463418e+00,1.435041e+00,3,0,2.544122e+00,2.544122e+00
3.508360e+00,1.462631e+00,1.435995e+00,3,0,2.076842e+00,2.076842e+00
3.500046e+00,1.467917e+00,1.441002e+00,3,0,2.759521e+00,2.759523e+00
3.503793e+00,1.482262e+00,1.455069e+00,3,0,2.751329e+00,2.751330e+00
3.506634e+00,1.476592e+00,1.450062e+00,3,0,2.069405e+00,2.069405e+00
3.505243e+00,1.476537e+00,1.450062e+00,3,0,2.024263e+00,2.024264e+00
3.504234e+00,1.464736e+00,1.437902e+00,3,0,2.326175e+00,2.326176e+00
3.498721e+00,1.506600e+00,1.480103e+00,3,0,2.414221e+00,2.414221e+00
3.505205e+00,1.475476e+00,1.448870e+00,3,0,2.956548e+00,2.956550e+00
3.503743e+00,1.470451e+00,1.443148e+00,3,0,2.350924e+00,2.350924e+00
3.501407e+00,1.466866e+00,1.439810e+00,3,0,3.067178e+00,3.067180e+00
3.508761e+00,1.476688e+00,1.450062e+00,3,0,3.023787e+00,3.023788e+00
3.507558e+00,1.468107e+00,1.441956e+00,3,0,2.527911e+00,2.527911e+00
3.502510e+00,1.486089e+00,1.459837e+00,3,0,2.091118e+00,2.091118e+00
3.499204e+00,1.476100e+00,1.450062e+00,3,0,2.201043e+00,2.201044e+00
3.504546e+00,1.477847e+00,1.451015e+00,3,0,2.211135e+00,2.211135e+00
3.506676e+00,1.472849e+00,1.446009e+00,3,0,1.630544e+00,1.630544e+00
3.503104e+00,1.469986e+00,1.441956e+00,3,0,1.629960e+00,1.629960e+00
3.500313e+00,1.476475e+00,1.449823e+00,3,0,1.065575e+00,1.065575e+00
3.504370e+00,1.480817e+00,1.454830e+00,3,0,8.781362e-01,8.781363e-01
3.502584e+00,1.468782e+00,1.443148e+00,3,0,5.657123e-01,5.657124e-01
3.512114e+00,1.467255e+00,1.441002e+00,3,0,3.838169e-01,3.838171e-01
3.495455e+00,1.471372e+00,1.446009e+00,3,0,2.168859e-01,2.168859e-01
3.500448e+00,1.470231e+00,1.437902e+00,3,0,4.077928e-01,4.077934e-01
3.496378e+00,1.474871e+00,1.449108e+00,3,0,2.298410e-01,2.298410e-01
3.497137e+00,1.472054e+00,1.444817e+00,3,0,2.219913e-01,2.219916e-01
3.504311e+00,1.472524e+00,1.446962e+00,3,0,1.341587e-01,1.341588e-01
3.500312e+00,1.476042e+00,1.449108e+00,3,0,1.470552e-01,1.470553e-01
3.495533e+00,1.473442e+00,1.447201e+00,3,0,1.317567e-01,1.317568e-01
3.493931e+00,1.476015e+00,1.448870e+00,3,0,3.249661e-01,3.249665e-01
3.504819e+00,1.472003e+00,1.446009e+00,3,0,2.494326e-01,2.494328e-01
3.509703e+00,1.478441e+00,1.451969e+00,3,0,2.719724e-01,2.719731e-01
3.499241e+00,1.488299e+00,1.461983e+00,3,0,5.470064e-01,5.470070e-01
3.500420e+00,1.474258e+00,1.446962e+00,3,0,2.990697e-01,2.990697e-01
3.502152e+00,1.478388e+00,1.451969e+00,3,0,4.258677e-01,4.258680e-01
3.503245e+00,1.470296e+00,1.444101e+00,3,0,4.303108e-01,4.303110e-01
3.493603e+00,1.410139e+00,1.384974e+00,3,0,7.248236e-01,7.248243e-01
3.495259e+00,1.462458e+00,1.436234e+00,3,0,5.522408e-01,5.522409e-01
3.503604e+00,1.468033e+00,1.441956e+00,3,0,3.638423e-01,3.638423e-01
3.503198e+00,1.465167e+00,1.438856e+00,3,0,2.660243e-01,2.660245e-01
3.704153e+00,1.483870e+00,1.457930e+00,3,0,3.563770e-01,3.563773e-01
3.502018e+00,1.500200e+00,1.473904e+00,3,0,3.281880e-01,3.281881e-01
3.512282e+00,1.470170e+00,1.443863e+00,3,0,2.648641e-01,2.648642e-01
3.496843e+00,1.471525e+00,1.445055e+00,3,0,4.637969e-01,4.637974e-01
3.499028e+00,1.477663e+00,1.451015e+00,3,0,3.516939e-01,3.516941e-01
3.501624e+00,1.474889e+00,1.442909e+00,3,0,5.227982e-01,5.227986e-01
3.497888e+00,1.468429e+00,1.442909e+00,3,0,9.247090e-01,9.247097e-01
3.497525e+00,1.470364e+00,1.444101e+00,3,0,8.107850e-01,8.107854e-01
3.502849e+00,1.471560e+00,1.445055e+00,3,0,7.181155e-01,7.181157e-01
3.518491e+00,1.466337e+00,1.440048e+00,3,0,1.643258e+00,1.643260e+00
3.499404e+00,1.472364e+00,1.445055e+00,3,0,1.994016e+00,1.994017e+00
3.502454e+00,1.500325e+00,1.473904e+00,3,0,1.134334e+00,1.134333e+00
3.504710e+00,1.477529e+00,1.451015e+00,3,0,8.482995e-01,8.482995e-01
3.504513e+00,1.456378e+00,1.430035e+00,3,0,6.537288e-01,6.537290e-01
3.498656e+00,1.466438e+00,1.439095e+00,3,0,4.364268e-01,4.364269e-01
3.497952e+00,1.424927e+00,1.397848e+00,3,0,3.864401e-01,3.864402e-01
3.505149e+00,1.454379e+00,1.429081e+00,3,0,5.548975e-01,5.548978e-01
3.504954e+00,1.453704e+00,1.427174e+00,3,0,5.307643e-01,5.307645e-01
3.498072e+00,1.454770e+00,1.429081e+00,3,0,2.639973e-01,2.639976e-01
3.497907e+00,1.452287e+00,1.426935e+00,3,0,7.177025e-01,7.177034e-01
3.507085e+00,1.468445e+00,1.442194e+00,3,0,3.984592e-01,3.984591e-01
3.504609e+00,1.450864e+00,1.425028e+00,3,0,3.519681e-01,3.519683e-01
3.500049e+00,1.460000e+00,1.432896e+00,3,0,4.923571e-01,4.923576e-01
3.499148e+00,1.465374e+00,1.438856e+00,3,0,4.030473e-01,4.030474e-01
3.499055e+00,1.462668e+00,1.435995e+00,3,0,4.731872e-01,4.731875e-01
3.505696e+00,1.393345e+00,1.368999e+00,3,0,6.026992e-01,6.026996e-01
3.500621e+00,1.460337e+00,1.435041e+00,3,0,4.756017e-01,4.756020e-01
3.497478e+00,1.462003e+00,1.435041e+00,3,0,4.945690e-01,4.945695e-01
3.495596e+00,1.466649e+00,1.441002e+00,3,0,6.169641e-01,6.169645e-01
3.502734e+00,1.467550e+00,1.441002e+00,3,0,7.574959e-01,7.574964e-01
3.494947e+00,1.473519e+00,1.446009e+00,3,0,1.135819e+00,1.135820e+00
3.495483e+00,1.465651e+00,1.439810e+00,3,0,7.866710e-01,7.866710e-01
3.499397e+00,1.480608e+00,1.454115e+00,3,0,7.566151e-01,7.566159e-01
3.514767e+00,1.473484e+00,1.446962e+00,3,0,7.321452e-01,7.321454e-01
3.494273e+00,1.466026e+00,1.439095e+00,3,0,7.926656e-01,7.926658e-01
3.494020e+00,1.473256e+00,1.446962e+00,3,0,6.555935e-01,6.555937e-01
3.501345e+00,1.476021e+00,1.449823e+00,3,0,1.115601e+00,1.115602e+00
3.503728e+00,1.465152e+00,1.439095e+00,3,0,8.292408e-01,8.292409e-01
3.498416e+00,1.470357e+00,1.444101e+00,3,0,7.751496e-01,7.751498e-01
3.500253e+00,1.480253e+00,1.453876e+00,3,0,7.596657e-01,7.596659e-01
3.503997e+00,1.486882e+00,1.460791e+00,3,0,6.878775e-01,6.878778e-01
3.504334e+00,1.463161e+00,1.437187e+00,3,0,4.928153e-01,4.928154e-01
3.496087e+00,1.472282e+00,1.445055e+00,3,0,6.019904e-01,6.019908e-01
3.494321e+00,1.479819e+00,1.454115e+00,3,0,6.788456e-01,6.788460e-01
3.500199e+00,1.468757e+00,1.436949e+00,3,0,4.668361e-01,4.668362e-01
3.501284e+00,1.472096e+00,1.446009e+00,3,0,8.782913e-01,8.782924e-01
3.498181e+00,1.472619e+00,1.446009e+00,3,0,6.180956e-01,6.180957e-01
3.502574e+00,1.468355e+00,1.442909e+00,3,0,5.652572e-01,5.652574e-01
3.508511e+00,1.470683e+00,1.444101e+00,3,0,5.058808e-01,5.058810e-01
3.497511e+00,1.475159e+00,1.447916e+00,3,0,3.970669e-01,3.970673e-01
3.496968e+00,1.476574e+00,1.451015e+00,3,0,2.920336e-01,2.920338e-01
3.499572e+00,1.474669e+00,1.447916e+00,3,0,5.797283e-01,5.797289e-01
3.500580e+00,1.469545e+00,1.442909e+00,3,0,4.997496e-01,4.997498e-01
3.494941e+00,1.466989e+00,1.441002e+00,3,0,5.083716e-01,5.083720e-01
3.499122e+00,1.469256e+00,1.442909e+00,3,0,4.754079e-01,4.754080e-01
3.501594e+00,1.475956e+00,1.449108e+00,3,0,3.696141e-01,3.696143e-01
3.499254e+00,1.470537e+00,1.444101e+00,3,0,4.437754e-01,4.437756e-01
3.495258e+00,1.428075e+00,1.401901e+00,3,0,3.442546e-01,3.442547e-01
3.500285e+00,1.449328e+00,1.424074e+00,3,0,1.454145e+00,1.454148e+00
3.502097e+00,1.462188e+00,1.436949e+00,3,0,3.218433e+00,3.218436e+00
3.502359e+00,1.459474e+00,1.432896e+00,3,0,2.417712e+00,2.417712e+00
3.499169e+00,1.467673e+00,1.441002e+00,3,0,1.723471e+00,1.723471e+00
3.498847e+00,1.472607e+00,1.446009e+00,3,0,1.264275e+00,1.264275e+00
3.503720e+00,1.475186e+00,1.447916e+00,3,0,1.366921e+00,1.366922e+00
3.504657e+00,1.471714e+00,1.446009e+00,3,0,1.080434e+00,1.080434e+00
3.497526e+00,1.457434e+00,1.431942e+00,3,0,1.043215e+00,1.043215e+00
3.500942e+00,1.464305e+00,1.437902e+00,3,0,1.256931e+00,1.256932e+00
3.503242e+00,1.454448e+00,1.428127e+00,3,0,1.434086e+00,1.434087e+00
3.505441e+00,1.473552e+00,1.447201e+00,3,0,1.312172e+00,1.312172e+00
3.500400e+00,1.448555e+00,1.422167e+00,3,0,1.397984e+00,1.397985e+00
3.499321e+00,1.461502e+00,1.435995e+00,3,0,1.863006e+00,1.863007e+00
3.504202e+00,1.413403e+00,1.388073e+00,3,0,1.373502e+00,1.373502e+00
3.507973e+00,1.446151e+00,1.420021e+00,3,0,9.297248e-01,9.297248e-01
3.496131e+00,1.455196e+00,1.430035e+00,3,0,5.499695e-01,5.499693e-01
3.502221e+00,1.449628e+00,1.424074e+00,3,0,3.668122e-01,3.668123e-01
3.499423e+00,1.464601e+00,1.437902e+00,3,0,2.877344e-01,2.877346e-01
3.501689e+00,1.404747e+00,1.379967e+00,3,0,3.947814e-01,3.947818e-01
3.499606e+00,1.456937e+00,1.430035e+00,3,0,2.789106e-01,2.789106e-01
3.500697e+00,1.438425e+00,1.414061e+00,3,0,4.675782e-01,4.675787e-01
3.495245e+00,1.464419e+00,1.439095e+00,3,0,4.970870e-01,4.970872e-01
3.500010e+00,1.420347e+00,1.394987e+00,3,0,4.618472e-01,4.618474e-01
3.503082e+00,1.456220e+00,1.430988e+00,3,0,5.953705e-01,5.953710e-01
3.495690e+00,1.459377e+00,1.432896e+00,3,0,3.315649e-01,3.315649e-01
3.499193e+00,1.471299e+00,1.444817e+00,3,0,2.690293e-01,2.690294e-01
3.506041e+00,1.468536e+00,1.441956e+00,3,0,1.439724e+00,1.439727e+00
3.507373e+00,1.465223e+00,1.439095e+00,3,0,1.497785e+00,1.497785e+00
3.501383e+00,1.460411e+00,1.435041e+00,3,0,7.278902e-01,7.278898e-01
3.500094e+00,1.489131e+00,1.461983e+00,3,0,7.181026e-01,7.181029e-01
3.501559e+00,1.489897e+00,1.462936e+00,3,0,6.287868e-01,6.287869e-01
3.510444e+00,1.469363e+00,1.442909e+00,3,0,6.738957e-01,6.738959e-01
3.495986e+00,1.469520e+00,1.443148e+00,3,0,3.442821e-01,3.442821e-01
3.499187e+00,1.478533e+00,1.453161e+00,3,0,2.891120e-01,2.891122e-01
3.500769e+00,1.463791e+00,1.437902e+00,3,0,5.501598e-01,5.501604e-01
3.499775e+00,1.475961e+00,1.450062e+00,3,0,6.853906e-01,6.853910e-01
3.499554e+00,1.477871e+00,1.451969e+00,3,0,8.436226e-01,8.436230e-01
3.504342e+00,1.481991e+00,1.456022e+00,3,0,5.492943e-01,5.492944e-01
3.501169e+00,1.489189e+00,1.462936e+00,3,0,5.278050e-01,5.278053e-01
3.495448e+00,1.490970e+00,1.463890e+00,3,0,7.921354e-01,7.921361e-01
3.497055e+00,1.481391e+00,1.455069e+00,3,0,1.174981e+00,1.174981e+00
3.503710e+00,1.477996e+00,1.451015e+00,3,0,1.302907e+00,1.302907e+00
3.502449e+00,1.465895e+00,1.440048e+00,3,0,1.817128e+00,1.817129e+00
3.497263e+00,1.472651e+00,1.446009e+00,3,0,1.715595e+00,1.715595e+00
3.498427e+00,1.488563e+00,1.463175e+00,3,0,2.668153e+00,2.668154e+00
3.502238e+00,1.477242e+00,1.445055e+00,3,0,1.115506e+00,1.115505e+00
3.494247e+00,1.463368e+00,1.436949e+00,3,0,9.496711e-01,9.496712e-01
3.497033e+00,1.479544e+00,1.452923e+00,3,0,1.501075e+00,1.501076e+00
3.511904e+00,1.476607e+00,1.451015e+00,3,0,7.347724e-01,7.347721e-01
3.506383e+00,1.476119e+00,1.449823e+00,3,0,6.039009e-01,6.039010e-01
3.496675e+00,1.467046e+00,1.441002e+00,3,0,4.902778e-01,4.902780e-01
3.492521e+00,1.472514e+00,1.446009e+00,3,0,3.288280e-01,3.288280e-01
3.497074e+00,1.476213e+00,1.449823e+00,3,0,6.713491e-01,6.713498e-01
3.509580e+00,1.496050e+00,1.468897e+00,3,0,4.977140e-01,4.977140e-01
3.504686e+00,1.550859e+00,1.523018e+00,3,0,2.836719e-01,2.836719e-01
3.513370e+00,1.544677e+00,1.516819e+00,3,0,6.883871e-01,6.883881e-01
3.504724e+00,1.558750e+00,1.529932e+00,3,0,4.772302e-01,4.772302e-01
3.496426e+00,1.491066e+00,1.463890e+00,3,0,2.511178e-01,2.511180e-01
3.504688e+00,1.512562e+00,1.486063e+00,3,0,2.738165e-01,2.738167e-01
3.498752e+00,1.486857e+00,1.461029e+00,3,0,3.426205e-01,3.426208e-01
3.494842e+00,1.476007e+00,1.450062e+00,3,0,5.175609e-01,5.175613e-01
3.495428e+00,1.483042e+00,1.457214e+00,3,0,1.085640e+00,1.085641e+00
3.503468e+00,1.470158e+00,1.444101e+00,3,0,7.889605e-01,7.889619e-01
3.500136e+00,1.472649e+00,1.446009e+00,3,0,1.428628e+00,1.428629e+00
3.499702e+00,1.478228e+00,1.451015e+00,3,0,6.237795e-01,6.237792e-01
3.503832e+00,1.474766e+00,1.448154e+00,3,0,4.969001e-01,4.969003e-01
3.502658e+00,1.471826e+00,1.446009e+00,3,0,3.323368e-01,3.323368e-01
3.496377e+00,1.467580e+00,1.441002e+00,3,0,3.054061e-01,3.054064e-01
3.494512e+00,1.474971e+00,1.448870e+00,3,0,8.581275e-01,8.581288e-01
3.501548e+00,1.475458e+00,1.448870e+00,3,0,8.560418e-01,8.560421e-01
3.505879e+00,1.470561e+00,1.445055e+00,3,0,1.314360e+00,1.314360e+00
3.499090e+00,1.470690e+00,1.444817e+00,3,0,1.349009e+00,1.349010e+00
3.499468e+00,1.477298e+00,1.451969e+00,3,0,1.548528e+00,1.548528e+00
3.503058e+00,1.471593e+00,1.445055e+00,3,0,2.537457e+00,2.537458e+00
3.502907e+00,1.470188e+00,1.443863e+00,3,0,2.841285e+00,2.841285e+00
3.501085e+00,1.468005e+00,1.441956e+00,3,0,2.122477e+00,2.122476e+00
3.500554e+00,1.492310e+00,1.466036e+00,3,0,1.906988e+00,1.906988e+00
3.506377e+00,1.487791e+00,1.456022e+00,3,0,2.680225e+00,2.680227e+00
3.518745e+00,1.464132e+00,1.437902e+00,3,0,1.820728e+00,1.820728e+00
3.500479e+00,1.475046e+00,1.449108e+00,3,0,1.509573e+00,1.509573e+00
3.506947e+00,1.474484e+00,1.447916e+00,3,0,1.527033e+00,1.527034e+00
3.506958e+00,1.469519e+00,1.442909e+00,3,0,1.650989e+00,1.650990e+00
3.500373e+00,1.463252e+00,1.437187e+00,3,0,1.808075e+00,1.808076e+00
3.502965e+00,1.473078e+00,1.446009e+00,3,0,1.332615e+00,1.332615e+00
3.504598e+00,1.466400e+00,1.440048e+00,3,0,1.278934e+00,1.278934e+00
3.507764e+00,1.455741e+00,1.430035e+00,3,0,1.640311e+00,1.640311e+00
3.501551e+00,1.459425e+00,1.432896e+00,3,0,1.799944e+00,1.799945e+00
3.501304e+00,1.478115e+00,1.451969e+00,3,0,1.140216e+00,1.140216e+00
3.513449e+00,1.479729e+00,1.453876e+00,3,0,1.096292e+00,1.096292e+00
3.498855e+00,1.555709e+00,1.529932e+00,3,0,6.438806e-01,6.438806e-01
3.496485e+00,1.474128e+00,1.448154e+00,3,0,6.245240e-01,6.245244e-01

