2.039347e+00,1.925945e+00,6,24
8.421170e-01,9.369850e-01,3,20
5.487860e-01,8.590221e-01,2,18
1.856123e+00,1.153946e+00,7,26
7.994890e-01,1.007795e+00,3,22
5.603830e-01,9.229183e-01,2,20
7.992180e-01,8.308887e-01,3,18
7.986990e-01,7.460117e-01,3,16
7.583110e-01,6.299019e-01,3,14
1.737568e+00,7.660389e-01,9,16
3.535160e-01,5.328655e-01,2,16
3.535230e-01,4.439354e-01,2,14
3.549870e-01,4.580021e-01,2,14
3.535720e-01,4.580021e-01,2,14
3.528900e-01,3.309250e-01,2,10

