1.075796e+00,1.008034e+00,6,24
5.335370e-01,5.998611e-01,3,20
3.576790e-01,5.309582e-01,2,18
1.227560e+00,7.560253e-01,7,26
5.297630e-01,6.608963e-01,3,22
3.567300e-01,6.079674e-01,2,20
5.469750e-01,5.409718e-01,3,18
5.287500e-01,4.918575e-01,3,16
5.257550e-01,4.310608e-01,3,14
1.565532e+00,4.870892e-01,9,16
3.555140e-01,4.980564e-01,2,16
3.554930e-01,4.429817e-01,2,14
3.561160e-01,4.529953e-01,2,14
3.553770e-01,4.580021e-01,2,14
3.552730e-01,3.311634e-01,2,10

