0.000000e+00,0.000000e+00
0.000000e+00,0.000000e+00
0.000000e+00,0.000000e+00
0.000000e+00,0.000000e+00
0.000000e+00,0.000000e+00
-9.477668e-02,-9.477225e-02
-5.616102e-02,-5.615820e-02
3.974887e-02,3.974739e-02
3.932647e-02,3.932463e-02
3.942374e-02,3.942179e-02
1.102472e-01,1.102532e-01
1.268465e-01,1.268533e-01
2.958488e-02,2.958443e-02
-1.052760e-02,-1.054623e-02
-1.100406e-01,-1.100497e-01
1.584964e-01,1.584358e-01
1.901723e-01,1.901243e-01
8.491750e-03,8.473497e-03
-9.301543e-02,-9.301771e-02
-2.569065e-02,-2.568391e-02
7.594987e-02,7.589006e-02
8.604384e-03,8.576106e-03
8.427234e-02,8.424966e-02
5.423636e-02,5.423087e-02
-9.448391e-02,-9.446211e-02
3.001579e-01,3.000943e-01
2.860135e-02,2.860655e-02
-1.279014e-02,-1.281368e-02
-4.482886e-02,-4.485501e-02
-2.726341e-01,-2.725964e-01
1.507691e-01,1.507084e-01
-1.921486e-02,-1.921316e-02
-1.456791e-02,-1.456296e-02
-4.815803e-02,-4.813957e-02
-5.924842e-02,-5.919200e-02
3.106819e-02,3.106069e-02
1.436705e-02,1.438795e-02
-9.813998e-02,-9.811881e-02
-6.902749e-02,-6.903092e-02
-1.708532e-02,-1.705643e-02
2.062123e-02,2.062173e-02
-1.176610e-02,-1.171606e-02
-1.257517e-02,-1.254306e-02
-2.151201e-02,-2.151739e-02
-7.045991e-02,-7.040892e-02
1.102210e-01,1.102011e-01
3.508075e-02,3.510400e-02
-3.330942e-02,-3.329609e-02
-4.941101e-02,-4.940967e-02
-1.496643e-01,-1.495907e-01
1.365115e-01,1.364695e-01
-1.024426e-01,-1.024334e-01
-4.347450e-02,-4.346003e-02
-4.765559e-02,-4.762679e-02
-2.326967e-01,-2.325890e-01
7.257982e-02,7.256068e-02
-1.878552e-02,-1.876939e-02
-1.140884e-01,-1.140485e-01
-1.092583e-01,-1.092088e-01
-1.381423e-01,-1.380707e-01
1.090301e-01,1.090107e-01
-3.363164e-02,-3.361662e-02
-8.741172e-02,-8.736931e-02
-1.419430e-02,-1.414992e-02
-3.857617e-02,-3.854862e-02
8.974336e-02,8.971318e-02
3.078316e-02,3.079791e-02
3.997562e-02,3.998287e-02
5.826372e-02,5.826745e-02
-8.191615e-03,-8.198084e-03
-9.352252e-04,-9.707446e-04
-2.372759e-02,-2.372959e-02
2.161767e-02,2.157372e-02
2.160967e-02,2.158379e-02
7.035577e-02,7.033582e-02
1.566968e-01,1.566766e-01
8.705795e-02,8.707753e-02
1.363616e-01,1.363179e-01
-2.760827e-02,-2.761736e-02
-2.139787e-01,-2.139697e-01
2.463860e-02,2.456922e-02
4.367009e-02,4.364513e-02
2.874643e-01,2.873283e-01
5.884390e-02,5.884235e-02
-1.436941e-01,-1.436354e-01
1.610952e-01,1.610321e-01
9.587367e-03,9.537068e-03
1.140318e-01,1.139315e-01
8.619182e-02,8.617126e-02
1.854364e-02,1.854995e-02
3.995448e-02,3.992530e-02
1.424306e-01,1.423562e-01
1.136489e-01,1.136015e-01
-3.753615e-03,-3.755248e-03
8.870083e-02,8.868357e-02
1.705209e-04,1.790730e-04
1.860041e-01,1.858990e-01
-1.020504e-02,-1.023603e-02
3.818321e-03,3.828437e-03
-3.123000e-02,-3.123082e-02
-2.614580e-02,-2.612592e-02
-1.242235e-02,-1.245583e-02
-4.213127e-02,-4.214455e-02
-1.231107e-01,-1.230804e-01
2.534578e-03,2.565795e-03
-6.889068e-02,-6.884698e-02
-6.388382e-02,-6.384715e-02
-8.851897e-02,-8.848266e-02
1.067163e-01,1.067517e-01
9.382231e-02,9.387588e-02
-1.500516e-01,-1.499994e-01
-1.226901e-01,-1.226344e-01
8.730962e-03,8.738521e-03
6.740002e-03,6.743997e-03
5.022089e-02,5.024370e-02
-2.612935e-02,-2.607470e-02
-2.122362e-01,-2.121614e-01
-1.525846e-01,-1.525657e-01
-1.718559e-01,-1.718057e-01
-1.060880e-01,-1.060506e-01
8.119948e-02,8.123980e-02
-2.073311e-01,-2.072130e-01
-2.146387e-01,-2.145187e-01
-1.556197e-01,-1.554943e-01
-7.686923e-02,-7.680164e-02
-5.876568e-02,-5.874386e-02
-2.021259e-01,-2.020451e-01
-1.092111e-01,-1.091121e-01
-8.108190e-02,-8.098150e-02
2.150741e-02,2.153357e-02
-1.795445e-01,-1.795099e-01
-1.610858e-01,-1.610497e-01
-7.560863e-02,-7.555033e-02
8.728763e-02,8.731721e-02
3.483767e-01,3.482450e-01
-1.586808e-01,-1.586282e-01
8.523131e-02,8.521575e-02
1.661125e-02,1.662873e-02
7.696655e-02,7.691352e-02
2.994266e-01,2.991729e-01
-8.456052e-02,-8.452842e-02
1.019848e-01,1.019319e-01
7.610008e-03,7.593982e-03
1.964179e-02,1.958472e-02
-2.952831e-02,-2.958785e-02
-3.592953e-02,-3.591913e-02
-5.960764e-03,-5.973890e-03
2.643840e-02,2.643137e-02
1.209365e-01,1.208938e-01
-1.804285e-01,-1.803927e-01
-4.040109e-02,-4.040296e-02
-1.500249e-01,-1.500175e-01
-1.485060e-01,-1.485160e-01
9.349871e-03,9.325173e-03
-3.996361e-02,-3.993954e-02
-1.209136e-01,-1.208895e-01
-1.935724e-01,-1.935024e-01
-5.758018e-02,-5.754532e-02
1.435774e-02,1.438080e-02
1.594288e-01,1.594258e-01
-9.246798e-02,-9.243273e-02
-8.194551e-02,-8.190374e-02
8.354776e-02,8.355839e-02
1.085359e-01,1.085341e-01
1.707260e-02,1.703686e-02
-7.166469e-02,-7.165824e-02
1.009468e-01,1.009202e-01
1.793432e-01,1.792969e-01
-1.026385e-02,-1.028004e-02
5.773966e-02,5.769311e-02
-1.143015e-01,-1.143106e-01
1.329849e-01,1.328735e-01
1.171567e-01,1.171003e-01
1.400380e-01,1.400205e-01
8.858529e-02,8.853051e-02
-1.162764e-01,-1.162757e-01
1.762073e-01,1.760871e-01
8.493804e-02,8.487639e-02
1.835184e-02,1.831384e-02
1.914330e-01,1.913373e-01
-7.168145e-02,-7.167549e-02
2.055034e-01,2.054121e-01
1.565231e-01,1.564726e-01
9.385119e-02,9.381474e-02
-2.583349e-03,-2.637520e-03
6.808683e-02,6.806068e-02
4.975470e-02,4.970656e-02
3.730971e-02,3.724468e-02
9.719347e-02,9.713554e-02
-1.867156e-02,-1.869315e-02
2.480126e-01,2.479668e-01
-5.450345e-03,-5.441070e-03
1.666335e-02,1.662931e-02
-3.970945e-02,-3.974012e-02
-7.751714e-02,-7.751787e-02
3.144960e-02,3.142691e-02
-7.475179e-02,-7.472856e-02
-7.158988e-03,-7.163046e-03
-1.766247e-02,-1.766257e-02
-9.608067e-02,-9.603303e-02
1.139950e-01,1.140215e-01
-1.134597e-01,-1.133921e-01
-1.217439e-01,-1.217120e-01
-1.780050e-01,-1.779823e-01
-3.177106e-01,-3.175806e-01
2.613878e-01,2.613829e-01
9.626220e-02,9.633656e-02
-2.883680e-02,-2.874691e-02
-1.719663e-01,-1.718657e-01
-2.970191e-01,-2.968042e-01
2.401824e-01,2.400594e-01
7.257773e-02,7.255432e-02
7.573353e-03,7.602211e-03
-4.162887e-02,-4.159709e-02
-1.896833e-01,-1.895996e-01
2.536182e-01,2.534916e-01
1.348847e-01,1.348152e-01
-6.845004e-02,-6.843795e-02
-1.666029e-02,-1.665442e-02
-1.482020e-01,-1.481782e-01
1.530499e-01,1.529597e-01
2.301258e-01,2.300348e-01
1.542100e-02,1.542221e-02
-5.424752e-02,-5.423259e-02
3.714652e-02,3.715166e-02
1.820820e-05,-2.950359e-05
-6.806193e-02,-6.813066e-02
-7.358890e-02,-7.361662e-02
-3.173689e-02,-3.172667e-02
1.178919e-01,1.178884e-01
-1.771579e-01,-1.771110e-01
-6.119492e-02,-6.117976e-02
3.302758e-02,3.305005e-02
3.677456e-02,3.680248e-02
6.348970e-03,6.378126e-03
-9.159501e-02,-9.153925e-02
4.074976e-02,4.075602e-02
1.880646e-02,1.881009e-02
-1.086689e-01,-1.086464e-01
-1.025429e-01,-1.025075e-01
-5.327178e-03,-5.319716e-03
2.875095e-02,2.873307e-02
-9.357106e-02,-9.354844e-02
4.887140e-03,4.931338e-03
-2.955782e-02,-2.951702e-02
-3.507461e-02,-3.508784e-02
-6.255072e-04,-6.374204e-04
3.307529e-02,3.308431e-02
6.190277e-02,6.193427e-02
8.587910e-02,8.587446e-02
4.842607e-02,4.841070e-02
5.216506e-02,5.215510e-02
8.492043e-02,8.488461e-02
1.957065e-02,1.956847e-02
3.997274e-02,3.993166e-02
-7.982696e-02,-7.985526e-02
-2.944120e-02,-2.946092e-02
2.269742e-01,2.269008e-01
1.129317e-01,1.129206e-01
2.628988e-01,2.628383e-01
-3.656280e-02,-3.654842e-02
3.616701e-02,3.614159e-02
8.390042e-02,8.383883e-02
8.154296e-02,8.147643e-02
6.647396e-02,6.641569e-02
-7.858300e-02,-7.855813e-02
-5.921176e-02,-5.922650e-02
-6.276359e-02,-6.277112e-02
1.492435e-01,1.492011e-01
5.141615e-02,5.142061e-02
-2.564933e-01,-2.564018e-01
-1.932349e-01,-1.931940e-01
-1.022536e-01,-1.022269e-01
4.474091e-02,4.473059e-02
1.796813e-01,1.796863e-01
-3.517709e-01,-3.513659e-01
-2.834643e-01,-2.832689e-01
-1.077662e-01,-1.076704e-01
1.053332e-01,1.053704e-01
2.262228e-01,2.262374e-01
-1.020852e-01,-1.019590e-01
-1.398672e-01,-1.397500e-01
-1.484808e-01,-1.484023e-01
4.263673e-02,4.263896e-02
3.603246e-02,3.600521e-02
-1.167508e-01,-1.167174e-01
-9.915519e-02,-9.910702e-02
5.725482e-03,5.763936e-03
8.892027e-02,8.895034e-02
1.679577e-01,1.679282e-01
-1.167330e-01,-1.167191e-01
-4.372003e-03,-4.375302e-03
6.153486e-02,6.151070e-02
9.431066e-02,9.430337e-02
2.933885e-01,2.932196e-01
-7.762824e-02,-7.762564e-02
-6.937537e-02,-6.940866e-02
2.089002e-02,2.082817e-02
-1.789796e-02,-1.793319e-02
3.209939e-01,3.207062e-01
6.919591e-02,6.924422e-02
4.564771e-02,4.563911e-02
1.197582e-02,1.197022e-02
-1.027516e-01,-1.027380e-01
-6.801901e-02,-6.807077e-02
1.021774e-01,1.022129e-01
9.155635e-02,9.155400e-02
-1.193348e-01,-1.193100e-01
-2.836349e-01,-2.835914e-01
-2.673629e-01,-2.672887e-01
1.244740e-01,1.244928e-01
1.436616e-02,1.443054e-02
-1.604487e-01,-1.603420e-01
-1.926122e-01,-1.925295e-01
-3.039221e-01,-3.036649e-01
7.274138e-02,7.272764e-02
-9.175302e-02,-9.164541e-02
-8.411377e-02,-8.402225e-02
-2.431316e-02,-2.429958e-02
-2.277570e-01,-2.275894e-01
3.585536e-01,3.583894e-01
-1.336853e-02,-1.331161e-02
-1.585674e-01,-1.585152e-01
-3.753026e-02,-3.756128e-02
-2.812434e-01,-2.811328e-01
1.502612e-01,1.501411e-01
7.585915e-02,7.586959e-02
1.148101e-02,1.151431e-02
3.827822e-02,3.827415e-02
-6.070708e-02,-6.064165e-02
3.019552e-01,3.018144e-01
2.071675e-01,2.071010e-01
1.239234e-01,1.238779e-01
-3.129729e-02,-3.131669e-02
-2.778527e-01,-2.778154e-01
1.128869e-01,1.128000e-01
1.027695e-01,1.026598e-01
1.535424e-01,1.534610e-01
-6.704883e-02,-6.702693e-02
-1.832013e-01,-1.831312e-01
-1.565205e-01,-1.565221e-01
1.796196e-01,1.795279e-01
1.938038e-01,1.937493e-01
-6.662966e-03,-6.643919e-03
-3.658170e-02,-3.654236e-02
-9.229953e-02,-9.227813e-02
1.535037e-01,1.534105e-01
1.621455e-02,1.617206e-02
4.430548e-02,4.428986e-02
-1.783471e-02,-1.783781e-02
3.697666e-02,3.696934e-02
3.484161e-02,3.481575e-02
-4.499887e-02,-4.501287e-02
9.031720e-02,9.029204e-02
3.369600e-02,3.368793e-02
4.680040e-02,4.677555e-02
-1.436423e-01,-1.436143e-01
8.760743e-02,8.758388e-02
1.459902e-01,1.459586e-01
3.092953e-02,3.092056e-02
8.111203e-02,8.110892e-02
-3.629815e-02,-3.627444e-02
1.471104e-03,1.439913e-03
9.033617e-02,9.030803e-02
-9.733612e-03,-9.743188e-03
-1.268888e-01,-1.268760e-01
1.273153e-02,1.272825e-02
8.747909e-02,8.744822e-02
4.964897e-02,4.966888e-02
1.703879e-01,1.703789e-01
-1.521878e-01,-1.521354e-01
2.452308e-02,2.450659e-02
1.796758e-01,1.796124e-01
6.534288e-02,6.536825e-02
1.876208e-01,1.875767e-01
-2.327826e-01,-2.327094e-01
-6.059028e-02,-6.062040e-02
4.514856e-02,4.508243e-02
-2.540885e-02,-2.538842e-02
2.922178e-01,2.921441e-01
-1.805392e-01,-1.804220e-01
-3.450567e-02,-3.448861e-02
-8.060855e-02,-8.060368e-02
-1.628429e-01,-1.627835e-01
9.038173e-03,9.029114e-03
-1.882584e-01,-1.881695e-01
-1.031705e-01,-1.031200e-01
-1.354441e-01,-1.353880e-01
-1.155749e-01,-1.154740e-01
1.390317e-01,1.390736e-01
-1.155829e-02,-1.150751e-02
-2.075496e-01,-2.074407e-01
-1.284510e-01,-1.283884e-01
-1.062802e-01,-1.062186e-01
-2.303327e-02,-2.302040e-02
3.564724e-02,3.565461e-02
-1.189588e-01,-1.188599e-01
-3.307439e-02,-3.301457e-02
5.386947e-02,5.391083e-02
4.361837e-02,4.363378e-02
1.892588e-01,1.892225e-01
-1.171510e-01,-1.170907e-01
-5.242911e-02,-5.242628e-02
7.049004e-02,7.045847e-02
-2.057617e-02,-2.060811e-02
9.598300e-02,9.593944e-02
-1.644253e-01,-1.643565e-01
5.465749e-02,5.464900e-02
9.438556e-02,9.434647e-02
-6.269706e-03,-6.284660e-03
1.485229e-01,1.485105e-01
-3.724853e-02,-3.721705e-02
-6.409637e-02,-6.410902e-02
-9.873724e-02,-9.876099e-02
-8.980384e-02,-8.981370e-02
-7.019871e-02,-7.019423e-02
-9.351686e-02,-9.351120e-02
-1.169170e-01,-1.168854e-01
-1.903471e-01,-1.902918e-01
-5.295024e-02,-5.291273e-02
-1.942664e-01,-1.942077e-01
2.111327e-02,2.112779e-02
-3.164655e-02,-3.157923e-02
-3.441386e-02,-3.434104e-02
1.598035e-01,1.598380e-01
-1.686381e-01,-1.685987e-01
1.123686e-01,1.123228e-01
1.404794e-02,1.406127e-02
1.153553e-01,1.153621e-01
1.589903e-01,1.589631e-01
-1.266461e-01,-1.266269e-01
1.293280e-01,1.292366e-01
8.060486e-02,8.056156e-02
1.905371e-02,1.904419e-02
1.078863e-01,1.078408e-01
-2.469427e-01,-2.469090e-01
6.784908e-02,6.774767e-02
1.597158e-01,1.596519e-01
1.818209e-01,1.818413e-01
1.504962e-01,1.504662e-01
-2.300581e-01,-2.299946e-01
5.812768e-02,5.803957e-02
2.526488e-01,2.524989e-01
6.363229e-02,6.362645e-02
8.645570e-02,8.638945e-02
-1.933578e-01,-1.932894e-01
-1.874083e-02,-1.880059e-02
1.697064e-01,1.695972e-01
8.411034e-02,8.409153e-02
2.585733e-01,2.584438e-01
-8.971575e-02,-8.964315e-02
-2.047638e-02,-2.047627e-02
-1.420905e-02,-1.424548e-02
2.155025e-02,2.147838e-02
1.520219e-01,1.519046e-01
-1.330983e-01,-1.330446e-01
-2.101168e-02,-2.096769e-02
-1.045239e-01,-1.044896e-01
8.814992e-02,8.808461e-02
1.315236e-01,1.314861e-01
2.215500e-01,2.215656e-01
-1.492439e-02,-1.484222e-02
-6.863601e-02,-6.860155e-02
6.708471e-02,6.700697e-02
-1.516388e-01,-1.516402e-01
3.064439e-01,3.063171e-01
-6.474672e-02,-6.467475e-02
-4.176468e-02,-4.175698e-02
-6.660200e-04,-7.329781e-04
-1.791572e-01,-1.790977e-01
4.143375e-01,4.136614e-01
9.997459e-03,9.991334e-03
-1.155235e-01,-1.155354e-01
-1.613336e-01,-1.613985e-01
-3.099728e-01,-3.098747e-01
2.641983e-01,2.641338e-01
1.925812e-01,1.926541e-01
-5.812008e-02,-5.801076e-02
-2.260039e-01,-2.258603e-01
-3.811556e-01,-3.803818e-01
3.157469e-02,3.154947e-02
-1.136814e-01,-1.136542e-01
-1.148341e-01,-1.147893e-01
-2.011071e-01,-2.009974e-01
-2.382944e-01,-2.380036e-01
5.619050e-02,5.620466e-02
-8.492890e-02,-8.485670e-02
-9.025590e-02,-9.017540e-02
-6.615162e-02,-6.606673e-02
-1.824032e-01,-1.822660e-01
1.563532e-01,1.563244e-01
-7.618841e-02,-7.615889e-02
-1.336219e-01,-1.335740e-01
-8.176412e-02,-8.171951e-02
-2.048893e-01,-2.048293e-01
1.233832e-01,1.233345e-01
1.118102e-01,1.118088e-01
-6.032743e-02,-6.028677e-02
-2.070415e-01,-2.069524e-01
-7.418922e-02,-7.416933e-02
1.768216e-01,1.767368e-01
1.293973e-01,1.293518e-01
3.758586e-02,3.758532e-02
-4.566608e-02,-4.560758e-02
-7.624909e-03,-7.638136e-03
1.921644e-01,1.920645e-01
2.086883e-01,2.085911e-01
1.659893e-01,1.659221e-01
-3.537378e-02,-3.535887e-02
-2.393493e-02,-2.397504e-02
-5.633552e-02,-5.639399e-02
-5.227349e-02,-5.235959e-02
7.900164e-02,7.890851e-02
-6.037529e-02,-6.037515e-02
2.355127e-02,2.353221e-02
-1.138598e-01,-1.138244e-01
3.350983e-02,3.349929e-02
1.829860e-01,1.829605e-01
7.513919e-02,7.515421e-02
2.127890e-02,2.128082e-02
-2.474594e-01,-2.474100e-01
9.952260e-02,9.946529e-02
8.968475e-02,8.964012e-02
1.073162e-01,1.072849e-01
4.927602e-02,4.925586e-02
-7.736906e-02,-7.734481e-02
1.531912e-01,1.531516e-01
1.346570e-01,1.346179e-01
4.174027e-02,4.171002e-02
-8.278294e-02,-8.281563e-02
3.300879e-02,3.295631e-02
6.919490e-02,6.915108e-02
7.823027e-02,7.817671e-02
1.646596e-01,1.646307e-01
1.357930e-01,1.357578e-01
6.830710e-02,6.823191e-02
-3.629854e-02,-3.633316e-02
3.066172e-02,3.058982e-02
5.048394e-02,5.043260e-02
2.819180e-01,2.817481e-01
-5.597689e-02,-5.599491e-02
-2.146228e-01,-2.146121e-01
-5.233135e-02,-5.236168e-02
6.267684e-03,6.249332e-03
2.659184e-01,2.658009e-01
-8.295621e-02,-8.288629e-02
-2.320137e-01,-2.319139e-01
-1.436155e-01,-1.435690e-01
4.965587e-02,4.965845e-02
4.535693e-02,4.535073e-02
-1.485859e-01,-1.484824e-01
-1.363155e-01,-1.362373e-01
-7.232404e-02,-7.225990e-02
1.478165e-02,1.482101e-02
-8.791407e-03,-8.759608e-03
-9.842760e-02,-9.833352e-02
-5.472129e-03,-5.441462e-03
-2.619328e-02,-2.615787e-02
-8.463351e-02,-8.457807e-02
-8.265051e-02,-8.263903e-02
-1.452424e-01,-1.451898e-01
-4.827656e-02,-4.826947e-02
1.900915e-02,1.902393e-02
-6.360097e-02,-6.354593e-02
1.094238e-01,1.094124e-01
-2.587422e-01,-2.586821e-01
-1.162154e-01,-1.162089e-01
-7.014050e-02,-7.012670e-02
2.957904e-02,2.958622e-02
3.003086e-01,3.001934e-01
-4.229977e-02,-4.225341e-02
3.314518e-02,3.317954e-02
-7.065508e-02,-7.062312e-02
8.447955e-02,8.444833e-02
7.703259e-02,7.695206e-02
1.232394e-01,1.232061e-01
1.504319e-02,1.504159e-02
1.044814e-01,1.044621e-01
5.850820e-02,5.848893e-02
1.599571e-03,1.557811e-03
-1.496173e-04,-1.953288e-04
1.449913e-01,1.449376e-01
2.354561e-01,2.353775e-01
7.060392e-02,7.058890e-02
1.190307e-01,1.189879e-01
2.481552e-02,2.479502e-02
8.304109e-02,8.294964e-02
3.772533e-02,3.764301e-02
2.127962e-02,2.124306e-02
3.071840e-03,3.021549e-03
-2.122716e-01,-2.122449e-01
5.354835e-02,5.350217e-02
4.555446e-02,4.553258e-02
7.968197e-02,7.969744e-02
2.260828e-01,2.260625e-01
-1.722310e-01,-1.721476e-01
-1.194396e-01,-1.194566e-01
-9.578389e-02,-9.581058e-02
-1.388704e-01,-1.388543e-01
1.590033e-01,1.589412e-01
-1.031374e-01,-1.030273e-01
-1.559426e-01,-1.558625e-01
-1.573278e-01,-1.572544e-01
-2.664807e-01,-2.663733e-01
-4.390034e-02,-4.388343e-02
-1.128402e-01,-1.127516e-01
-1.491430e-01,-1.490202e-01
-2.893257e-01,-2.891066e-01
-1.890805e-01,-1.889784e-01
-6.413634e-02,-6.406072e-02
4.960466e-02,4.963658e-02
-2.196595e-01,-2.194940e-01
-1.720776e-01,-1.719182e-01
3.980788e-02,3.984729e-02
-1.497471e-01,-1.496843e-01
1.457457e-01,1.457079e-01
-2.099003e-02,-2.091536e-02
-5.814813e-02,-5.808721e-02
5.617910e-02,5.615939e-02
-1.294032e-01,-1.294005e-01
3.048742e-01,3.047094e-01
1.649595e-01,1.649612e-01
1.096169e-01,1.095908e-01
-7.407276e-02,-7.411844e-02
-1.671413e-01,-1.671932e-01
2.687582e-01,2.684903e-01
2.256777e-01,2.255849e-01
2.310553e-01,2.309383e-01
2.443963e-02,2.436484e-02
-3.851789e-02,-3.855617e-02
2.160676e-01,2.158827e-01
1.752584e-01,1.751345e-01
9.600779e-02,9.589388e-02
9.359294e-02,9.347263e-02
-1.132422e-01,-1.132610e-01
1.993114e-01,1.992362e-01
1.789084e-01,1.788496e-01
3.190918e-02,3.185983e-02
-1.249184e-01,-1.249595e-01
-3.639690e-01,-3.637459e-01
5.135848e-02,5.130448e-02
1.048676e-01,1.048291e-01
1.230456e-01,1.230202e-01
6.060359e-02,6.063634e-02
-1.313876e-01,-1.312423e-01
2.111561e-01,2.111261e-01
9.604355e-02,9.600273e-02
7.271013e-02,7.265685e-02
-1.122736e-01,-1.122642e-01
-3.332513e-01,-3.331163e-01
-1.296110e-01,-1.296368e-01
-3.061980e-03,-3.096944e-03
7.617415e-02,7.615499e-02
-6.822425e-02,-6.816614e-02
-7.346315e-02,-7.337522e-02
-1.241386e-01,-1.241109e-01
-4.379225e-02,-4.379697e-02
-3.862518e-02,-3.862015e-02
1.238099e-03,1.264701e-03
2.032580e-01,2.032547e-01
-7.974047e-02,-7.971093e-02
-1.468196e-01,-1.468090e-01
-1.207080e-01,-1.206777e-01
9.152400e-02,9.151199e-02
9.879843e-02,9.875561e-02
-2.350249e-02,-2.346911e-02
-1.004479e-01,-1.004027e-01
-1.429096e-01,-1.428642e-01
1.002181e-01,1.001994e-01
1.269260e-01,1.268960e-01
-1.479884e-01,-1.479495e-01
-1.081910e-01,-1.081550e-01
-4.023109e-02,-4.021452e-02
1.793337e-02,1.793079e-02
1.418490e-01,1.418158e-01
-1.680622e-01,-1.679904e-01
-2.081329e-01,-2.080777e-01
-1.045993e-01,-1.045931e-01
-7.315490e-02,-7.313704e-02
3.339004e-02,3.337422e-02
-8.100891e-02,-8.093776e-02
-1.584627e-01,-1.583803e-01
6.339197e-02,6.342850e-02
-6.414348e-02,-6.409023e-02
-8.179010e-02,-8.177547e-02
-5.113500e-02,-5.110516e-02
-1.169540e-02,-1.169764e-02
-5.541577e-02,-5.539750e-02
-1.601703e-03,-1.574344e-03
5.503704e-02,5.502850e-02
-9.260741e-02,-9.259159e-02
2.384411e-01,2.383819e-01
9.810264e-03,9.823155e-03
-1.073078e-01,-1.073012e-01
6.713004e-02,6.708059e-02
1.243388e-02,1.240892e-02
1.279597e-01,1.278873e-01
1.001316e-01,1.001046e-01
1.190767e-01,1.190628e-01
1.256703e-01,1.256277e-01
-2.900232e-02,-2.903833e-02
1.212273e-01,1.211656e-01
2.368175e-01,2.367156e-01
2.003704e-01,2.002644e-01
8.768168e-02,8.763205e-02
-1.414660e-01,-1.414812e-01
7.362045e-02,7.354172e-02
2.544855e-01,2.543146e-01
2.770569e-01,2.768599e-01
9.828484e-02,9.824548e-02
-1.108806e-01,-1.108689e-01
2.229980e-02,2.222219e-02
2.045009e-01,2.043276e-01
3.652687e-01,3.647979e-01
3.525972e-02,3.519904e-02
-8.599413e-02,-8.593711e-02
1.425341e-01,1.424905e-01
9.214887e-02,9.205810e-02
1.342258e-01,1.341202e-01
-1.195081e-01,-1.195197e-01
2.829470e-02,2.833230e-02
-8.864833e-02,-8.864650e-02
-4.617026e-02,-4.622389e-02
-7.721236e-02,-7.721006e-02
-5.645291e-02,-5.643198e-02
2.134582e-02,2.139316e-02
-2.076416e-01,-2.075412e-01
-6.514579e-02,-6.512388e-02
-2.181313e-01,-2.180391e-01
-4.986829e-02,-4.983110e-02
9.284422e-02,9.290720e-02
-7.955698e-02,-7.945391e-02
-1.743793e-01,-1.742659e-01
-3.312634e-01,-3.309471e-01
-4.787801e-02,-4.781018e-02
-4.577352e-02,-4.575015e-02
-5.602104e-02,-5.597688e-02
-1.900080e-01,-1.898588e-01
-1.899954e-01,-1.898396e-01
1.075979e-01,1.076463e-01
-9.870148e-02,-9.867320e-02
-1.858218e-02,-1.856951e-02
-1.761932e-01,-1.760653e-01
5.959790e-02,5.965389e-02
1.828734e-01,1.828680e-01
-1.328436e-01,-1.328206e-01
5.604793e-02,5.603289e-02
4.706035e-02,4.710130e-02
1.330360e-01,1.330333e-01
1.740906e-01,1.740348e-01
-6.953301e-02,-6.952272e-02
1.619430e-01,1.618820e-01
1.300954e-01,1.300576e-01
8.948925e-02,8.945314e-02
3.635715e-02,3.628925e-02
-6.353148e-02,-6.354852e-02
-6.695897e-02,-6.700682e-02
8.109075e-02,8.102705e-02
1.514479e-01,1.514036e-01
1.915245e-01,1.914587e-01
3.974766e-02,3.976448e-02
-4.451382e-02,-4.451012e-02
7.303738e-02,7.300552e-02
4.387898e-02,4.383187e-02
7.446709e-02,7.439997e-02
-6.275692e-02,-6.272634e-02
1.235532e-01,1.235306e-01
3.271773e-02,3.271953e-02
-2.390688e-03,-2.407094e-03
-3.276132e-02,-3.277675e-02
-1.348119e-01,-1.347811e-01
1.341500e-02,1.339188e-02
-9.264285e-02,-9.262957e-02
-5.153776e-02,-5.154356e-02
4.537993e-02,4.538067e-02
-8.591307e-03,-8.564252e-03
-1.301189e-01,-1.300782e-01
-1.535522e-01,-1.534925e-01
-5.956199e-02,-5.955181e-02
2.161648e-02,2.161733e-02
4.008020e-02,4.008988e-02
6.915235e-03,6.962501e-03
-2.137586e-01,-2.136483e-01
-5.882925e-02,-5.879936e-02
3.336727e-02,3.337207e-02
1.222507e-01,1.222290e-01
1.740776e-02,1.741957e-02
-8.817593e-02,-8.811997e-02
-6.898711e-02,-6.894393e-02
1.063239e-01,1.063061e-01
1.647518e-02,1.645885e-02
-1.021124e-01,-1.021108e-01
-4.823937e-02,-4.822608e-02
-1.003751e-01,-1.003525e-01
9.201853e-02,9.199572e-02
2.009676e-02,2.013733e-02
-3.820624e-02,-3.817798e-02
-6.993648e-02,-6.989706e-02
2.033190e-02,2.034071e-02
-1.093904e-01,-1.093743e-01
-1.780667e-01,-1.780210e-01
-6.252662e-02,-6.248725e-02
1.304623e-02,1.306875e-02
1.655144e-01,1.654823e-01
-1.209419e-02,-1.205777e-02
-4.400250e-02,-4.396162e-02
8.191237e-02,8.193516e-02
6.894864e-02,6.892771e-02
6.436859e-02,6.432727e-02
7.991689e-02,7.989798e-02
1.615706e-01,1.615585e-01
1.013346e-01,1.013205e-01
9.966169e-02,9.960742e-02
-1.403315e-01,-1.403586e-01
-1.907769e-01,-1.907888e-01
-2.294002e-02,-2.297382e-02
4.908995e-02,4.907257e-02
5.745722e-02,5.743312e-02
-6.229861e-03,-6.218338e-03
-3.300688e-02,-3.294860e-02
3.767525e-02,3.766758e-02
4.650398e-02,4.650354e-02
-4.515296e-02,-4.516553e-02
4.284621e-02,4.282806e-02
-7.843768e-02,-7.840925e-02
6.467004e-02,6.464610e-02
-4.111334e-03,-4.094804e-03
6.478817e-02,6.476957e-02
9.730042e-02,9.729764e-02
-7.553112e-02,-7.550258e-02
9.260026e-02,9.257046e-02
-2.351161e-02,-2.350812e-02
1.938368e-01,1.937615e-01
-7.972110e-02,-7.970917e-02
-1.665597e-02,-1.666005e-02
1.103587e-01,1.103450e-01
9.182011e-02,9.179773e-02
1.770621e-01,1.770113e-01
-6.785905e-02,-6.784151e-02
-1.225242e-01,-1.225202e-01
-2.043567e-01,-2.043673e-01
-1.236220e-02,-1.239537e-02
1.214809e-02,1.213178e-02
1.470234e-01,1.469970e-01
1.779804e-01,1.779937e-01
1.059345e-01,1.059648e-01
9.007083e-02,9.008577e-02
-8.069121e-02,-8.067612e-02
-3.026705e-02,-3.032607e-02
-1.304430e-01,-1.304708e-01
1.830786e-01,1.830296e-01
-3.033445e-02,-3.033025e-02
-2.117126e-01,-2.116655e-01
-1.128892e-01,-1.128732e-01
-1.581161e-01,-1.580627e-01
1.381957e-01,1.381594e-01
1.734446e-02,1.737957e-02
-1.453221e-01,-1.452418e-01
-2.615288e-01,-2.614042e-01
-1.113911e-01,-1.113290e-01
2.410477e-01,2.409815e-01
3.943555e-02,3.946377e-02
-9.726660e-02,-9.720795e-02
-2.106896e-01,-2.105806e-01
-7.256336e-02,-7.251680e-02
8.713716e-02,8.707098e-02
9.718002e-03,9.729675e-03
-9.281213e-02,-9.278098e-02
-3.986750e-02,-3.982909e-02
-3.922234e-03,-3.886690e-03
-9.629035e-02,-9.632001e-02
-1.556022e-01,-1.555588e-01
6.363883e-02,6.363459e-02
8.384638e-02,8.384449e-02
-9.472312e-03,-9.454467e-03
-2.187052e-03,-2.190869e-03
-1.596185e-01,-1.595579e-01
1.151190e-01,1.150871e-01
7.070117e-02,7.068068e-02
-8.324137e-02,-8.324796e-02
9.819825e-03,9.794295e-03
-1.113593e-01,-1.113367e-01
-2.011193e-02,-2.013308e-02
3.958200e-02,3.956346e-02
8.096261e-02,8.093558e-02
-9.243587e-02,-9.245205e-02
4.879808e-03,4.873595e-03
1.067410e-01,1.067374e-01
2.283224e-01,2.283021e-01
2.558620e-01,2.557700e-01
-1.951919e-02,-1.952772e-02
7.553102e-02,7.547163e-02
1.083307e-01,1.082559e-01
1.213799e-01,1.213035e-01
1.634583e-01,1.633173e-01
9.146499e-02,9.145606e-02
1.989349e-01,1.988704e-01
1.600670e-01,1.599939e-01
4.844277e-02,4.840162e-02
3.228116e-02,3.222032e-02
-1.236670e-01,-1.236786e-01
1.032411e-01,1.031583e-01
1.958896e-01,1.957927e-01
1.363134e-01,1.362877e-01
1.231646e-01,1.231511e-01
1.648148e-01,1.648495e-01
1.760352e-01,1.759837e-01
6.113121e-02,6.105861e-02
-1.157895e-01,-1.158151e-01
-2.420369e-01,-2.420346e-01
9.989986e-02,9.990014e-02
1.849168e-01,1.848685e-01
4.740216e-02,4.738827e-02
-1.652822e-01,-1.651972e-01
-2.445462e-01,-2.444104e-01
-5.742706e-02,-5.742064e-02
1.123994e-03,1.104306e-03
-7.995140e-02,-7.995335e-02
-2.269213e-01,-2.268060e-01
-1.371733e-02,-1.364030e-02
3.711461e-02,3.714506e-02
-1.489200e-01,-1.488600e-01
-1.889241e-01,-1.888575e-01
-1.223809e-01,-1.222918e-01
-1.879456e-02,-1.875160e-02
6.165502e-02,6.166742e-02
-1.526165e-01,-1.525008e-01
-1.891166e-01,-1.890175e-01
-2.319651e-01,-2.318782e-01
-1.744482e-03,-1.710469e-03
1.790125e-01,1.790005e-01
-2.089121e-01,-2.087658e-01
-2.008509e-01,-2.007273e-01
-1.393129e-01,-1.392449e-01
-1.516395e-01,-1.515851e-01
1.349875e-01,1.349475e-01
-2.139425e-01,-2.137954e-01
-6.795290e-02,-6.785280e-02
-1.944916e-02,-1.942024e-02
-2.027016e-01,-2.026272e-01
1.058956e-01,1.058450e-01
7.943880e-03,7.999448e-03
-8.080158e-02,-8.073990e-02
2.210615e-02,2.209006e-02
-7.335262e-02,-7.333331e-02
5.211069e-02,5.202908e-02
-1.152723e-01,-1.152769e-01
-6.509804e-02,-6.507409e-02
1.134236e-01,1.133834e-01
1.582928e-02,1.580213e-02
3.995243e-02,3.988874e-02
1.100049e-01,1.099873e-01
5.995645e-02,5.996300e-02
1.525665e-01,1.525324e-01
1.436409e-01,1.435696e-01
7.388595e-02,7.381283e-02
1.332819e-01,1.331690e-01
1.392591e-01,1.391790e-01
6.371362e-02,6.367588e-02
1.235597e-01,1.234494e-01
4.717501e-02,4.713422e-02
2.221510e-01,2.219903e-01
2.686364e-01,2.684912e-01
3.502480e-02,3.499987e-02
-1.203396e-02,-1.210124e-02
-4.403372e-03,-4.477047e-03
3.733979e-01,3.727510e-01
1.634539e-01,1.632669e-01
-1.109720e-01,-1.110294e-01
-9.751016e-02,-9.756005e-02
-1.837098e-02,-1.839190e-02
1.838097e-01,1.836475e-01
4.968976e-02,4.961985e-02
-3.102592e-02,-3.101775e-02
-1.782911e-02,-1.779817e-02
9.302898e-03,9.305906e-03
-6.941069e-02,-6.943263e-02
-1.658693e-02,-1.660793e-02
4.561050e-02,4.560361e-02
1.886884e-02,1.890463e-02
-3.588520e-01,-3.586885e-01
-3.380582e-01,-3.379324e-01
-1.166184e-01,-1.165757e-01
1.191263e-01,1.191314e-01
1.363195e-01,1.363781e-01
-3.946655e-01,-3.935145e-01
-3.493675e-01,-3.487761e-01
-1.341990e-01,-1.339833e-01
1.776834e-01,1.777881e-01
3.196658e-01,3.197576e-01
-4.258567e-01,-4.228708e-01
-1.827440e-01,-1.822394e-01
-6.909633e-03,-6.610187e-03
1.770166e-01,1.772193e-01
3.415043e-01,3.415199e-01
-3.121984e-01,-3.111522e-01
-1.101097e-01,-1.099462e-01
-4.986984e-02,-4.977634e-02
1.555114e-01,1.555346e-01
3.036072e-01,3.034200e-01
-2.491621e-01,-2.490485e-01
-1.465199e-01,-1.465185e-01
-1.118131e-01,-1.118176e-01
1.365432e-02,1.360277e-02
3.564958e-01,3.560240e-01
-2.233655e-01,-2.232715e-01
-1.378910e-01,-1.378539e-01
-1.705226e-01,-1.704756e-01
-6.707919e-02,-6.707144e-02
2.964244e-01,2.961833e-01
-1.356145e-01,-1.355278e-01
-7.968091e-02,-7.963080e-02
3.941729e-02,3.947518e-02
-1.640803e-02,-1.636240e-02
1.273970e-01,1.273124e-01
-1.660734e-01,-1.660235e-01
5.684104e-02,5.685214e-02
2.485086e-02,2.485565e-02
8.351950e-02,8.349374e-02
1.172664e-01,1.172049e-01
1.833194e-02,1.835151e-02
1.759860e-02,1.758848e-02
4.590291e-02,4.587732e-02
-3.920626e-02,-3.924909e-02
-1.181702e-01,-1.182344e-01
1.674328e-01,1.674000e-01
7.074711e-02,7.075171e-02
7.835245e-02,7.833818e-02
1.014175e-01,1.013843e-01
-4.404257e-02,-4.405507e-02
-1.437929e-02,-1.443087e-02
-6.160899e-02,-6.161711e-02
1.922551e-03,1.880038e-03
6.807634e-03,6.718725e-03
4.090584e-02,4.087589e-02
1.524036e-01,1.523941e-01
1.648419e-01,1.648889e-01
1.552056e-01,1.552131e-01
7.031317e-02,7.023916e-02
-2.161316e-01,-2.161294e-01
1.755319e-01,1.754639e-01
2.051685e-01,2.051285e-01
7.473766e-02,7.468691e-02
8.325472e-03,8.219106e-03
-1.484998e-01,-1.484735e-01
3.641294e-01,3.638426e-01
1.242028e-01,1.241679e-01
6.682230e-03,6.672884e-03
-7.516425e-02,-7.521385e-02
-3.996648e-01,-3.992918e-01
8.096898e-02,8.088415e-02
4.931068e-03,4.905765e-03
-1.326833e-01,-1.326484e-01
-3.009520e-02,-3.009703e-02
-1.576203e-01,-1.574800e-01
8.212929e-02,8.211030e-02
-9.693296e-02,-9.692339e-02
-1.985556e-01,-1.984790e-01
-1.304388e-01,-1.304054e-01
-1.398767e-01,-1.398069e-01
2.314268e-02,2.314778e-02
7.084291e-02,7.085066e-02
-2.551050e-01,-2.549564e-01
-2.065981e-01,-2.064774e-01
-2.749755e-02,-2.744255e-02
-2.063473e-02,-2.063912e-02
1.282770e-01,1.282382e-01
-2.158634e-02,-2.152018e-02
-5.062220e-02,-5.050333e-02
1.202001e-01,1.202054e-01
-1.141618e-01,-1.141719e-01
-4.812546e-02,-4.818156e-02
3.947946e-02,3.944321e-02
-4.681327e-02,-4.678149e-02
2.654552e-01,2.653654e-01
-2.727578e-01,-2.726736e-01
-9.512168e-02,-9.513424e-02
1.253020e-02,1.251221e-02
8.554204e-02,8.555058e-02
2.497453e-01,2.496637e-01
-4.012043e-01,-4.003267e-01
-1.712020e-02,-1.700038e-02
2.408245e-01,2.408422e-01
1.698040e-01,1.698153e-01
2.517806e-01,2.517679e-01
-1.763873e-01,-1.762327e-01
2.094902e-02,2.094337e-02
6.775513e-02,6.768654e-02
1.715240e-01,1.714108e-01
-3.242167e-03,-3.292682e-03
4.293427e-02,4.296875e-02
7.685221e-02,7.686158e-02
7.019205e-02,7.015864e-02
1.145377e-01,1.144606e-01
-1.918818e-01,-1.918743e-01
2.712530e-02,2.710612e-02
-1.013363e-01,-1.013301e-01
-6.951713e-03,-6.991844e-03
-1.346770e-02,-1.349948e-02
-4.818577e-02,-4.816853e-02
3.249609e-02,3.250443e-02
-1.660178e-02,-1.655842e-02
-4.111903e-02,-4.110959e-02
-1.430566e-01,-1.430449e-01
-1.173742e-02,-1.173535e-02
1.293431e-01,1.293324e-01
-1.028924e-01,-1.028399e-01
-7.253642e-02,-7.250617e-02
-1.096101e-01,-1.096051e-01
-8.971420e-02,-8.969212e-02
1.849067e-01,1.848905e-01
1.024124e-01,1.024689e-01
-1.055969e-01,-1.055289e-01
-1.690617e-01,-1.690605e-01
-3.293108e-01,-3.291769e-01
2.297234e-01,2.296303e-01
7.230781e-02,7.232272e-02
-1.256144e-01,-1.255602e-01
-5.297767e-03,-5.296261e-03
-1.491236e-01,-1.490208e-01
1.509612e-01,1.508691e-01
8.835523e-02,8.835643e-02
4.966286e-02,4.966928e-02
1.577880e-01,1.577537e-01
-1.297315e-01,-1.296830e-01
1.162642e-01,1.161825e-01
4.566851e-02,4.564576e-02
2.214785e-01,2.213751e-01
8.365162e-02,8.360376e-02
-1.565089e-01,-1.564957e-01
8.543724e-02,8.537524e-02
1.719266e-02,1.716480e-02
1.456179e-01,1.455047e-01
3.610977e-02,3.608367e-02
-1.223717e-02,-1.223412e-02
1.500263e-01,1.499889e-01
1.217072e-01,1.216856e-01
1.157912e-01,1.157196e-01
-1.104159e-01,-1.104183e-01
-8.691081e-02,-8.691204e-02
1.792519e-01,1.792133e-01
3.712514e-02,3.708396e-02
-6.495058e-02,-6.498525e-02
-1.351645e-01,-1.351222e-01
-1.796570e-01,-1.796081e-01
1.080367e-01,1.080299e-01
9.837283e-02,9.837668e-02
4.356731e-02,4.357916e-02
-1.938602e-01,-1.937676e-01
-1.862264e-01,-1.861375e-01
7.987160e-02,7.985937e-02
5.086641e-02,5.086197e-02
6.918534e-02,6.917952e-02
-1.757324e-01,-1.756631e-01
-1.802403e-01,-1.801560e-01
1.962414e-01,1.962120e-01
-1.825838e-02,-1.824644e-02
-1.033133e-01,-1.032921e-01
-1.492640e-01,-1.492334e-01
-2.581668e-01,-2.580562e-01
2.761123e-01,2.760416e-01
1.000987e-01,1.001458e-01
-1.025400e-01,-1.024478e-01
-9.869307e-02,-9.864741e-02
-3.424504e-01,-3.421504e-01
2.479904e-01,2.478271e-01
9.435274e-02,9.434242e-02
-9.881987e-02,-9.877497e-02
5.339784e-02,5.340505e-02
-1.823635e-01,-1.822451e-01
3.259601e-01,3.256813e-01
4.149035e-02,4.144813e-02
3.082202e-02,3.079480e-02
-1.015199e-02,-1.015626e-02
-2.072312e-01,-2.071986e-01
7.583408e-02,7.573030e-02
2.941816e-02,2.938224e-02
1.863444e-01,1.862772e-01
5.994483e-03,6.027090e-03
2.745146e-02,2.747976e-02
-4.762907e-02,-4.764701e-02
-1.713819e-02,-1.719218e-02
4.692653e-02,4.685311e-02
-1.302646e-02,-1.300805e-02
5.136280e-02,5.134717e-02
-2.872924e-01,-2.872338e-01
-1.402765e-01,-1.403014e-01
-2.528954e-02,-2.530909e-02
1.020032e-02,1.024891e-02
3.234004e-01,3.233561e-01
-2.476083e-01,-2.474488e-01
-1.082895e-01,-1.082626e-01
-4.422410e-02,-4.420611e-02
7.509831e-02,7.513584e-02
1.825712e-01,1.825155e-01
-7.772987e-02,-7.765083e-02
-1.998931e-02,-1.996095e-02
2.336924e-02,2.336852e-02
-1.195083e-01,-1.194776e-01
-1.513998e-01,-1.514234e-01
-7.817964e-02,-7.816592e-02
-3.320078e-02,-3.318447e-02
1.073942e-01,1.073898e-01
-7.760961e-02,-7.754845e-02
1.411876e-01,1.411992e-01
-8.997379e-02,-8.997515e-02
-3.101848e-03,-3.106758e-03
-1.096593e-02,-1.097082e-02
2.155808e-02,2.154221e-02
1.707559e-01,1.707106e-01
2.115003e-02,2.114049e-02
-7.420881e-03,-7.419269e-03
-4.412428e-02,-4.410964e-02
2.183332e-01,2.182630e-01
4.246580e-02,4.244157e-02
-6.674987e-02,-6.676858e-02
7.018302e-05,5.934870e-05
7.027941e-02,7.025502e-02
2.583657e-01,2.582752e-01
1.141013e-01,1.140770e-01
-3.352591e-02,-3.351838e-02
-8.491179e-02,-8.492218e-02
7.468090e-02,7.461210e-02
6.286352e-02,6.282025e-02
4.125298e-03,4.083437e-03
-2.851000e-01,-2.850364e-01
-1.135746e-01,-1.135486e-01
7.167973e-02,7.164582e-02
1.006841e-02,1.008397e-02
2.710915e-01,2.710630e-01
-3.378389e-01,-3.375860e-01
-1.831795e-01,-1.831246e-01
-2.484479e-02,-2.484704e-02
7.829005e-02,7.830477e-02
3.240277e-01,3.238971e-01
-2.252908e-01,-2.251359e-01
-9.294886e-02,-9.289152e-02
3.430381e-02,3.432293e-02
1.863895e-02,1.865399e-02
6.703920e-02,6.697887e-02
-7.672874e-02,-7.667899e-02
-1.778725e-01,-1.778333e-01
-1.336268e-01,-1.336126e-01
-2.822185e-02,-2.821371e-02
2.158308e-01,2.157727e-01
-3.578089e-02,-3.574226e-02
-5.828671e-02,-5.822374e-02
-7.833879e-02,-7.827980e-02
-1.157082e-02,-1.157559e-02
1.876069e-01,1.875433e-01
2.036227e-02,2.038226e-02
-1.551598e-02,-1.548267e-02
-5.133408e-02,-5.130145e-02
9.734591e-02,9.730295e-02
6.695565e-02,6.693137e-02
-8.261178e-02,-8.259489e-02
2.260533e-02,2.262985e-02
3.182997e-03,3.184984e-03
2.265494e-01,2.264556e-01
-2.118447e-02,-2.117307e-02
7.953169e-02,7.954310e-02
-3.519362e-02,-3.515086e-02
4.596613e-02,4.591868e-02
1.141971e-01,1.141209e-01
-1.921408e-01,-1.921181e-01
9.212707e-02,9.210279e-02
-7.595230e-02,-7.588366e-02
2.191299e-01,2.190440e-01
-2.737946e-05,-4.902750e-05
-1.159943e-01,-1.159519e-01
1.623511e-01,1.623147e-01
3.859613e-02,3.862213e-02
2.194642e-01,2.193706e-01
-4.700471e-02,-4.701771e-02
-1.099840e-01,-1.099570e-01
2.605115e-01,2.604435e-01
1.821998e-01,1.821514e-01
9.689644e-02,9.685197e-02
-1.317805e-01,-1.317828e-01
-2.598729e-01,-2.598113e-01
3.047969e-01,3.046893e-01
2.185646e-01,2.184575e-01
-1.204653e-01,-1.204525e-01
-2.488934e-01,-2.488397e-01
-2.969407e-01,-2.967734e-01
3.141242e-01,3.140351e-01
1.698297e-01,1.697797e-01
-1.730199e-01,-1.729199e-01
-2.238813e-01,-2.237714e-01
-3.019599e-01,-3.016834e-01
2.759958e-01,2.759647e-01
1.537548e-01,1.537629e-01
-1.917584e-01,-1.916144e-01
-1.624073e-01,-1.622935e-01
-3.468952e-01,-3.463953e-01
1.685287e-01,1.684955e-01
6.548313e-02,6.552486e-02
-1.211522e-01,-1.210553e-01
-1.750417e-02,-1.744209e-02
-2.945904e-01,-2.942328e-01
1.487079e-01,1.486484e-01
-1.698341e-01,-1.697445e-01
-7.608325e-02,-7.606053e-02
3.336667e-03,3.349749e-03
-2.332459e-01,-2.330715e-01
3.325030e-01,3.323539e-01
-2.609055e-02,-2.600201e-02
1.674508e-01,1.674475e-01
-7.796707e-02,-7.792352e-02
-2.943765e-01,-2.942173e-01
1.595385e-01,1.594033e-01
5.027935e-02,5.024184e-02
1.344710e-01,1.344093e-01
-5.488207e-02,-5.483779e-02
-1.722968e-01,-1.722061e-01
1.591949e-01,1.591133e-01
1.108361e-01,1.107516e-01
-7.670095e-02,-7.672844e-02
-1.325358e-01,-1.324809e-01
-1.058983e-01,-1.058644e-01
5.492987e-02,5.486718e-02
1.193906e-01,1.193185e-01
7.262982e-02,7.264399e-02
-1.228872e-01,-1.227903e-01
-5.008640e-02,-5.006000e-02
-1.816525e-01,-1.817007e-01
-1.175061e-02,-1.182016e-02
3.938017e-02,3.936299e-02
2.403195e-02,2.408364e-02
1.404306e-01,1.404256e-01
-3.963358e-02,-3.964201e-02
6.924595e-02,6.920047e-02
1.127908e-01,1.127818e-01
1.402931e-01,1.403031e-01
1.612812e-01,1.612114e-01
6.885580e-02,6.881432e-02
6.675168e-02,6.666019e-02
-9.348005e-02,-9.351943e-02
5.792957e-02,5.789469e-02
1.863348e-01,1.862396e-01
-2.013446e-02,-2.013287e-02
-9.025911e-02,-9.031986e-02
-1.534185e-01,-1.534112e-01
-5.459589e-02,-5.457118e-02
2.016087e-01,2.015569e-01
-1.213609e-01,-1.212833e-01
-4.133334e-02,-4.138289e-02
-1.240798e-01,-1.240271e-01
-1.177904e-01,-1.176830e-01
1.088270e-01,1.088379e-01
-3.797634e-01,-3.796074e-01
-1.846944e-01,-1.847453e-01
-8.688908e-02,-8.678642e-02
-3.969501e-04,-1.918925e-04
2.207504e-01,2.208651e-01
-4.985390e-01,-4.993022e-01
-3.285564e-01,-3.277307e-01
-3.082548e-02,-3.064749e-02
1.214363e-01,1.217824e-01
4.718274e-01,4.775938e-01
-4.606627e-01,-4.656411e-01
-4.364653e-01,-4.367868e-01
2.423336e-03,2.297034e-03
1.690599e-01,1.688479e-01
4.931464e-01,4.911793e-01
-4.956461e-01,-4.912282e-01
-2.804577e-01,-2.820521e-01
-6.556884e-02,-7.030222e-02
1.508678e-01,1.437250e-01
4.477949e-01,4.075828e-01
-2.956594e-01,-2.956657e-01
-1.270111e-01,-1.269800e-01
-1.499416e-01,-1.498378e-01
1.227077e-01,1.227266e-01
3.197278e-01,3.195789e-01
-4.050632e-01,-4.041408e-01
-2.325995e-02,-2.313362e-02
-1.179060e-03,-1.072121e-03
2.095300e-01,2.095332e-01
2.548255e-01,2.547327e-01
-3.862585e-01,-3.852939e-01
-4.759336e-02,-4.745332e-02
2.221050e-01,2.221039e-01
2.744620e-01,2.743852e-01
2.222875e-01,2.221897e-01
-1.003161e-01,-1.002523e-01
9.255359e-02,9.250860e-02
3.648696e-01,3.643231e-01
1.822999e-01,1.820949e-01
2.358218e-01,2.355672e-01
-5.653992e-02,-5.655323e-02
8.226713e-02,8.217524e-02
2.754621e-01,2.751106e-01
2.794990e-01,2.791953e-01
1.341172e-01,1.339616e-01
1.052224e-01,1.052347e-01
8.832548e-02,8.829378e-02
1.714596e-01,1.713020e-01
1.195460e-01,1.193541e-01
-8.761078e-02,-8.766054e-02
-9.004868e-02,-9.002887e-02
-5.451934e-03,-5.472028e-03
-1.035255e-01,-1.035685e-01
4.677874e-02,4.669917e-02
-1.920668e-02,-1.917713e-02
3.546500e-02,3.552752e-02
5.230204e-02,5.235155e-02
-1.527507e-01,-1.527059e-01
-9.047423e-02,-9.048003e-02
-1.189260e-01,-1.188884e-01
1.802297e-01,1.802363e-01
-7.927851e-03,-7.860136e-03
-1.580002e-01,-1.579516e-01
-2.678084e-01,-2.677283e-01
-2.361975e-01,-2.361167e-01
2.619163e-01,2.618713e-01
-8.011105e-02,-7.998070e-02
-1.179098e-01,-1.178043e-01
-3.603354e-01,-3.598911e-01
-2.929350e-01,-2.927362e-01
2.026348e-01,2.025440e-01
-4.805267e-02,-4.794546e-02
8.606288e-02,8.612086e-02
-1.729619e-01,-1.728429e-01
-1.443645e-01,-1.442776e-01
1.784747e-01,1.783692e-01
-6.696046e-02,-6.692746e-02
9.846487e-03,9.854112e-03
1.131318e-02,1.129465e-02
-1.003300e-01,-1.003212e-01
3.283527e-01,3.281412e-01
4.852418e-02,4.851763e-02
-1.877114e-01,-1.876833e-01
5.851306e-02,5.843368e-02
-2.093597e-02,-2.095749e-02
2.698950e-01,2.697503e-01
8.703879e-02,8.701998e-02
-9.427914e-02,-9.424993e-02
-7.915659e-02,-7.921219e-02
-1.160621e-01,-1.160625e-01
2.250969e-01,2.250464e-01
2.573625e-01,2.573286e-01
3.091892e-02,3.094129e-02
-4.865200e-02,-4.863259e-02
-3.461955e-01,-3.459722e-01
2.200707e-01,2.199976e-01
1.717903e-01,1.717147e-01
1.617015e-02,1.612483e-02
-1.787074e-01,-1.786637e-01
-2.417772e-01,-2.416307e-01
8.515251e-02,8.512544e-02
1.491847e-01,1.491495e-01
1.711338e-01,1.710960e-01
-1.191555e-01,-1.190830e-01
-2.478842e-01,-2.477358e-01
-2.709167e-01,-2.709170e-01
-3.285511e-02,-3.289076e-02
1.633197e-01,1.632532e-01
3.346352e-02,3.349216e-02
4.029936e-02,4.036226e-02
-9.721851e-03,-9.680001e-03
-9.067211e-02,-9.065468e-02
-5.108107e-02,-5.110722e-02
-1.219058e-01,-1.219174e-01
-7.791882e-02,-7.792134e-02
5.492687e-03,5.499078e-03
-7.116934e-02,-7.113799e-02
-1.535326e-01,-1.534716e-01
-1.695285e-02,-1.692300e-02
-1.128445e-01,-1.128062e-01
3.661263e-02,3.659552e-02
-2.564168e-02,-2.561012e-02
1.660685e-02,1.665029e-02
6.421255e-02,6.422737e-02
-1.327525e-02,-1.327407e-02
4.367550e-02,4.362303e-02
4.796467e-03,4.793192e-03
4.785678e-02,4.783721e-02
8.280168e-02,8.276081e-02
2.486413e-01,2.485558e-01
1.232084e-01,1.231636e-01
1.898563e-01,1.898228e-01
1.218381e-01,1.218008e-01
4.026985e-02,4.020430e-02
-1.043530e-01,-1.044182e-01
2.150089e-01,2.149063e-01
2.502056e-01,2.501096e-01
2.583631e-01,2.582628e-01
1.036713e-01,1.036166e-01
-1.713932e-01,-1.713865e-01
2.935309e-01,2.933337e-01
2.566039e-01,2.564379e-01
2.295199e-01,2.293595e-01
1.045186e-01,1.044302e-01
-1.635785e-01,-1.635797e-01
1.800980e-01,1.799974e-01
6.547462e-02,6.539014e-02
3.674406e-02,3.665076e-02
1.914582e-02,1.907405e-02
-8.132200e-02,-8.129764e-02
2.591056e-02,2.590920e-02
-1.851915e-01,-1.851634e-01
-1.664669e-01,-1.664659e-01
-1.985038e-02,-1.988181e-02
-2.689405e-02,-2.683212e-02
1.831349e-01,1.832154e-01
-2.237329e-02,-2.225443e-02
-1.757275e-01,-1.756059e-01
-1.221882e-01,-1.221368e-01
-3.274522e-01,-3.271948e-01
5.192296e-02,5.193453e-02
-1.104430e-01,-1.103787e-01
-2.165240e-01,-2.164099e-01
-1.012319e-01,-1.011316e-01
-1.706426e-01,-1.704512e-01
5.785866e-02,5.787883e-02
-1.457135e-01,-1.456212e-01
-1.693860e-01,-1.692951e-01
-1.646171e-01,-1.645034e-01
-1.531172e-01,-1.530166e-01
-8.820155e-02,-8.820031e-02
-1.267611e-01,-1.267028e-01
3.718691e-02,3.723901e-02
-6.898959e-02,-6.884752e-02
1.881516e-01,1.881808e-01
-1.874467e-01,-1.874261e-01
-7.456118e-02,-7.457605e-02
6.909485e-02,6.908223e-02
-5.600229e-02,-5.593597e-02
2.513525e-01,2.512489e-01
-3.259072e-01,-3.258462e-01
-2.103155e-02,-2.111431e-02
1.523470e-02,1.520005e-02
3.481083e-02,3.479987e-02
3.992780e-01,3.987055e-01
-2.302750e-01,-2.301550e-01
-7.954024e-02,-7.965806e-02
-2.081389e-02,-2.081901e-02
1.578102e-01,1.578298e-01
2.816395e-01,2.813716e-01
-3.721322e-01,-3.718466e-01
1.095889e-01,1.094484e-01
1.401518e-01,1.401364e-01
1.434573e-01,1.434596e-01
3.843342e-01,3.838137e-01
-3.113478e-01,-3.111735e-01
1.846283e-01,1.844243e-01
8.650059e-02,8.639395e-02
2.825232e-01,2.823703e-01
3.631723e-01,3.624478e-01
-3.768503e-01,-3.763940e-01
-2.514532e-02,-2.520693e-02
1.836017e-01,1.834727e-01
2.690064e-01,2.688334e-01
3.231525e-01,3.226993e-01
-1.825731e-01,-1.824282e-01
-1.644226e-01,-1.643885e-01
5.896893e-02,5.887341e-02
2.061171e-01,2.059923e-01
2.222435e-01,2.220857e-01
-8.479807e-02,-8.469790e-02
-2.756275e-01,-2.754734e-01
-8.897507e-02,-8.899581e-02
1.051702e-03,1.008000e-03
8.656929e-02,8.652247e-02
1.181791e-01,1.182473e-01
-1.222683e-01,-1.220995e-01
-1.631923e-01,-1.631228e-01
-2.278338e-01,-2.278076e-01
-2.074095e-01,-2.073879e-01
2.067169e-01,2.067080e-01
-1.213625e-01,-1.212193e-01
-2.043288e-01,-2.042058e-01
-1.984630e-01,-1.983734e-01
-1.924942e-01,-1.923967e-01
2.378301e-01,2.378098e-01
9.427359e-03,9.529649e-03
-2.301131e-01,-2.299678e-01
-3.410488e-01,-3.408255e-01
-1.989169e-01,-1.988218e-01
3.956488e-01,3.951744e-01
1.631375e-01,1.631535e-01
-8.525617e-02,-8.513742e-02
-3.700901e-01,-3.695729e-01
-2.857841e-01,-2.856270e-01
4.569106e-01,4.523497e-01
2.070218e-01,2.064549e-01
-7.044494e-03,-7.263226e-03
-1.762811e-01,-1.763697e-01
-4.066711e-01,-4.060084e-01
2.481889e-01,2.466836e-01
2.395788e-01,2.391586e-01
5.385401e-02,5.373540e-02
-3.353625e-02,-3.356519e-02
-3.244815e-01,-3.240720e-01
1.888045e-01,1.886361e-01
2.612137e-02,2.605361e-02
1.476372e-01,1.475638e-01
1.202653e-01,1.202450e-01
-1.382155e-01,-1.381569e-01
8.259361e-03,8.187492e-03
3.499909e-03,3.468764e-03
2.253020e-01,2.251875e-01
1.313335e-01,1.312734e-01
9.105737e-02,9.104666e-02
2.021893e-01,2.021618e-01
1.538988e-01,1.538441e-01
7.676303e-02,7.668318e-02
-6.274669e-03,-6.332353e-03
-1.636692e-01,-1.636879e-01
7.138582e-02,7.134792e-02
1.304098e-01,1.303357e-01
1.259487e-01,1.259061e-01
-7.775190e-02,-7.773957e-02
-2.066837e-01,-2.065975e-01
5.734176e-02,5.733164e-02
1.762747e-01,1.761939e-01
2.027640e-02,2.025790e-02
-2.849888e-02,-2.847094e-02
-8.435544e-02,-8.426844e-02
-5.841650e-02,-5.841388e-02
-1.384615e-02,-1.391412e-02
-5.749258e-02,-5.749223e-02
6.169768e-02,6.172357e-02
-8.254175e-02,-8.247878e-02
-1.739930e-01,-1.739442e-01
-1.289606e-02,-1.292959e-02
1.647858e-02,1.649981e-02
-2.311273e-02,-2.303416e-02
3.965036e-02,3.966002e-02
-2.192028e-01,-2.191391e-01
-1.414900e-02,-1.421013e-02
-7.622990e-02,-7.621980e-02
-5.241408e-02,-5.231017e-02
3.284047e-01,3.283338e-01
-2.115133e-01,-2.114431e-01
-6.788752e-03,-6.842560e-03
-7.324598e-02,-7.323198e-02
-5.721429e-03,-5.678406e-03
3.477631e-01,3.474295e-01
-2.481636e-01,-2.480678e-01
-8.998466e-02,-8.999644e-02
-7.658154e-02,-7.656974e-02
6.232325e-02,6.234667e-02
2.805615e-01,2.804001e-01
-1.483426e-01,-1.482573e-01
-1.207031e-01,-1.206703e-01
-6.663213e-02,-6.662824e-02
6.985055e-02,6.987190e-02
2.315012e-01,2.314081e-01
-2.622130e-01,-2.620902e-01
-2.206285e-01,-2.205519e-01
-6.035711e-02,-6.036753e-02
-2.764475e-03,-2.740436e-03
2.865326e-01,2.864290e-01
-1.118624e-01,-1.117373e-01
-2.672897e-01,-2.670739e-01
8.891700e-03,8.902661e-03
-3.418199e-02,-3.415237e-02
1.570412e-01,1.569994e-01
1.376291e-02,1.383676e-02
-1.407482e-01,-1.406265e-01
-9.312269e-03,-9.301709e-03
3.196989e-02,3.197260e-02
-6.222341e-02,-6.221099e-02
-5.446975e-02,-5.443052e-02
-2.425862e-03,-2.378553e-03
7.466614e-02,7.465903e-02
4.259950e-02,4.260577e-02
-1.238233e-01,-1.237796e-01
-1.614142e-01,-1.613835e-01
-3.941279e-02,-3.940615e-02
-2.112615e-02,-2.116271e-02
-1.507708e-01,-1.507438e-01
-1.263435e-02,-1.261506e-02
4.164722e-02,4.167096e-02
-3.810982e-02,-3.807155e-02
7.286422e-02,7.286299e-02
-1.416109e-02,-1.410138e-02
1.564301e-03,1.571955e-03
1.256731e-01,1.256469e-01
4.690645e-02,4.689696e-02
4.268458e-02,4.264918e-02
-1.871712e-01,-1.871439e-01
-8.444139e-03,-8.465922e-03
-2.589315e-02,-2.591457e-02
-1.010168e-02,-1.011781e-02
9.876264e-03,9.871944e-03
-3.147320e-02,-3.144895e-02
5.822277e-02,5.823472e-02
6.675283e-02,6.676310e-02
3.179135e-02,3.178621e-02
3.042643e-02,3.043092e-02
8.520654e-02,8.518950e-02
-1.425798e-01,-1.425632e-01
-7.396989e-03,-7.398129e-03
7.779439e-02,7.776121e-02
-4.415740e-02,-4.416877e-02
5.154560e-02,5.152915e-02
-6.714187e-02,-6.711592e-02
6.132531e-02,6.133442e-02
1.648799e-01,1.648502e-01
1.496277e-01,1.496008e-01
-4.311232e-02,-4.309395e-02
-7.917282e-02,-7.916859e-02
2.304864e-02,2.303603e-02
8.524278e-03,8.476961e-03
-2.781080e-02,-2.786813e-02
-1.270550e-01,-1.270392e-01
-4.402364e-02,-4.401884e-02
-1.677507e-01,-1.677192e-01
-1.170387e-01,-1.170155e-01
4.123897e-02,4.124250e-02
-5.874208e-03,-5.831479e-03
1.912891e-01,1.913079e-01
-2.037796e-01,-2.036932e-01
4.295988e-03,4.323955e-03
-3.365981e-02,-3.365234e-02
1.492281e-02,1.491731e-02
1.154873e-01,1.154710e-01
-2.694510e-02,-2.690033e-02
-3.717003e-02,-3.714602e-02
2.138527e-02,2.138880e-02
-4.340369e-02,-4.340618e-02
-1.089441e-01,-1.089319e-01
-1.026564e-01,-1.026462e-01
-9.252023e-02,-9.249865e-02
2.207437e-02,2.208292e-02
1.255486e-01,1.255522e-01
-5.751712e-02,-5.747538e-02
-1.072294e-03,-1.064084e-03
-7.724288e-02,-7.722452e-02
-8.904794e-02,-8.904952e-02
-4.464937e-02,-4.466065e-02
3.231582e-02,3.229721e-02
-3.644610e-02,-3.644697e-02
-4.327004e-02,-4.325311e-02
2.376074e-02,2.378325e-02
1.140241e-01,1.140436e-01
1.427252e-01,1.426914e-01
-3.497098e-02,-3.496912e-02
1.098059e-01,1.097782e-01
9.258345e-02,9.254905e-02
6.212115e-02,6.209975e-02
1.559426e-01,1.558483e-01
-2.279580e-02,-2.280039e-02
4.602471e-02,4.598884e-02
9.090831e-02,9.084308e-02
-4.808301e-02,-4.810982e-02
6.939255e-02,6.932386e-02
1.733946e-02,1.734294e-02
2.253981e-03,2.258563e-03
-7.338859e-02,-7.341357e-02
-7.802242e-02,-7.803278e-02
1.783256e-03,1.774334e-03
-1.698713e-02,-1.698065e-02
-2.015084e-02,-2.011600e-02
9.663620e-02,9.664180e-02
-4.351816e-02,-4.349850e-02
4.837976e-02,4.840426e-02
-3.823866e-03,-3.817869e-03
-4.109542e-02,-4.107631e-02
6.154178e-02,6.152775e-02
1.528854e-01,1.528500e-01
-9.380833e-02,-9.377772e-02
-1.228660e-02,-1.228186e-02
5.871780e-03,5.881771e-03
-1.665494e-02,-1.667078e-02
1.220290e-01,1.219805e-01
-2.441051e-02,-2.438595e-02
9.492007e-02,9.491968e-02
7.323770e-02,7.325104e-02
1.068425e-01,1.068197e-01
7.952683e-02,7.950470e-02
-4.540821e-02,-4.540043e-02
-6.509591e-03,-6.527886e-03
2.115796e-03,2.105776e-03
2.812877e-02,2.807343e-02
-3.008952e-02,-3.010325e-02
3.330771e-02,3.331322e-02
-2.697477e-02,-2.695462e-02
-2.865184e-02,-2.862644e-02
1.518648e-02,1.517003e-02
-2.400064e-01,-2.399596e-01
-8.985272e-02,-8.982734e-02
2.455085e-02,2.457234e-02
-1.720247e-01,-1.719704e-01
-1.100956e-01,-1.100534e-01
-2.396110e-01,-2.395048e-01
-1.190844e-01,-1.190056e-01
4.540600e-02,4.542907e-02
-1.089889e-01,-1.089235e-01
-2.031951e-01,-2.030551e-01
-1.253747e-01,-1.252956e-01
-9.515184e-02,-9.507542e-02
1.233432e-01,1.233367e-01
5.450804e-02,5.454733e-02
-1.581502e-01,-1.580160e-01
1.618251e-02,1.619554e-02
-1.208299e-01,-1.207900e-01
2.287762e-01,2.287028e-01
2.189587e-01,2.189360e-01
-3.545385e-02,-3.541108e-02
2.147573e-02,2.144236e-02
-1.739985e-01,-1.739950e-01
2.947268e-01,2.945075e-01
1.236751e-01,1.236185e-01
-6.483924e-03,-6.521898e-03
1.340442e-01,1.339686e-01
-5.050540e-02,-5.051855e-02
1.094147e-01,1.093155e-01
-1.062911e-01,-1.062947e-01
2.578359e-02,2.571333e-02
2.571976e-02,2.565406e-02
-7.767666e-03,-7.777487e-03
9.784952e-02,9.784430e-02
-6.343168e-02,-6.337784e-02
3.811804e-02,3.808196e-02
-1.302388e-01,-1.302372e-01
-1.539193e-01,-1.538814e-01
-8.485764e-02,-8.484250e-02
-1.077118e-01,-1.076768e-01
1.082839e-01,1.082688e-01
-9.936809e-02,-9.931229e-02
-8.496496e-02,-8.487855e-02
-8.093503e-02,-8.088888e-02
4.604707e-02,4.605207e-02
8.757770e-02,8.758123e-02
9.445119e-02,9.447482e-02
-1.538558e-01,-1.537869e-01
-4.523431e-02,-4.522526e-02
8.341282e-02,8.336535e-02
-2.391321e-02,-2.393334e-02
-5.283351e-03,-5.288503e-03
3.166040e-02,3.167098e-02
-1.315757e-01,-1.315650e-01
7.313254e-02,7.308894e-02
2.116445e-02,2.115888e-02
-4.153049e-03,-4.132650e-03
2.805614e-02,2.804024e-02
-1.465007e-01,-1.464893e-01
5.952707e-02,5.949854e-02
1.594508e-01,1.594198e-01
6.783311e-02,6.785245e-02
9.234896e-02,9.231452e-02
1.714504e-02,1.712868e-02
-1.033462e-01,-1.033662e-01
-2.622922e-02,-2.628539e-02
-7.416963e-02,-7.418989e-02
4.875555e-02,4.868722e-02
8.487097e-02,8.485453e-02
-1.560034e-01,-1.559633e-01
-1.577153e-01,-1.576853e-01
-1.610082e-01,-1.609876e-01
6.994434e-02,6.991172e-02
5.513732e-02,5.513100e-02
-3.319882e-02,-3.314206e-02
-1.836953e-01,-1.835991e-01
1.511807e-02,1.513450e-02
2.543056e-02,2.543025e-02
-7.263677e-02,-7.264952e-02
-1.232063e-02,-1.229447e-02
-1.810896e-02,-1.807752e-02
-2.552959e-02,-2.553673e-02
2.506616e-02,2.505961e-02
4.724918e-02,4.723449e-02
-1.261260e-01,-1.260986e-01
3.456822e-02,3.456072e-02
5.554711e-02,5.552939e-02
-9.682532e-02,-9.682645e-02
-5.811107e-02,-5.813531e-02
-2.298812e-02,-2.296562e-02
6.159078e-02,6.157956e-02
1.135326e-01,1.134961e-01
-6.117636e-02,-6.117408e-02
-2.462331e-02,-2.465554e-02
-7.242947e-02,-7.243432e-02
5.454828e-02,5.451141e-02
1.157283e-01,1.156859e-01
1.149095e-01,1.148649e-01
1.215505e-01,1.215135e-01
5.194456e-03,5.187048e-03
8.225629e-02,8.221901e-02
1.149877e-01,1.149359e-01
1.829128e-02,1.822413e-02
-4.290405e-02,-4.294192e-02
-1.160186e-02,-1.164397e-02
9.421606e-02,9.416384e-02
2.811902e-02,2.808699e-02
6.556811e-02,6.552337e-02
7.351750e-02,7.352648e-02
1.834113e-01,1.833506e-01
9.288388e-02,9.285568e-02
-7.176260e-02,-7.175980e-02
-9.855250e-02,-9.858141e-02
1.383605e-01,1.383240e-01
2.935085e-01,2.933127e-01
7.171447e-03,7.136602e-03
-1.844827e-01,-1.844642e-01
-1.298207e-01,-1.298121e-01
1.821763e-02,1.817755e-02
2.742135e-01,2.740455e-01
4.650004e-02,4.648502e-02
-8.651122e-02,-8.647938e-02
-1.049827e-01,-1.049378e-01
1.036230e-01,1.035871e-01
1.124948e-01,1.124495e-01
-1.090369e-02,-1.092853e-02
6.474571e-02,6.472936e-02
-1.963811e-01,-1.963237e-01
9.256515e-02,9.251055e-02
-2.033049e-01,-2.032717e-01
1.114027e-02,1.110571e-02
-5.774277e-02,-5.775531e-02
-7.408332e-02,-7.403528e-02
-1.128229e-01,-1.128243e-01
-1.865928e-01,-1.865095e-01
-1.653517e-03,-1.634351e-03
1.007973e-01,1.008119e-01
1.707774e-01,1.708139e-01
-6.774329e-02,-6.770880e-02
-1.296733e-01,-1.296336e-01
3.111925e-02,3.112889e-02
3.600535e-02,3.598785e-02
-1.563370e-02,-1.564845e-02
-1.264491e-01,-1.264149e-01
-3.596223e-02,-3.597473e-02
2.693673e-02,2.695948e-02
1.380136e-01,1.380230e-01
2.134474e-02,2.134793e-02
-5.006606e-02,-5.003647e-02
2.023404e-01,2.022624e-01
2.859627e-02,2.859916e-02
7.522622e-02,7.522141e-02
1.586473e-01,1.585896e-01
4.882323e-02,4.877378e-02
3.788620e-01,3.783550e-01
1.284404e-01,1.283481e-01
2.207530e-02,2.203284e-02
1.048926e-01,1.047745e-01
6.420148e-02,6.416148e-02
1.046650e-01,1.045492e-01
6.475833e-02,6.466777e-02
1.017139e-02,1.013253e-02
2.659643e-02,2.655759e-02
-8.177350e-02,-8.175890e-02
-3.753130e-02,-3.753279e-02
4.558410e-02,4.554695e-02
1.095758e-01,1.095633e-01
4.657329e-02,4.659301e-02
-1.568186e-01,-1.567546e-01
-1.482809e-01,-1.482299e-01
3.398122e-02,3.395494e-02
3.811229e-02,3.810467e-02
1.389629e-01,1.389737e-01
-1.269340e-01,-1.268356e-01
-2.768998e-01,-2.767574e-01
-1.634387e-01,-1.634167e-01
-5.646595e-02,-5.645273e-02
1.234965e-02,1.237215e-02
-1.335551e-02,-1.326288e-02
-1.735718e-01,-1.734000e-01
-1.684272e-01,-1.683176e-01
-1.880746e-01,-1.879948e-01
-3.841560e-02,-3.835669e-02
1.441729e-01,1.442057e-01
-1.385106e-01,-1.383936e-01
-2.368826e-01,-2.367420e-01
-2.023781e-01,-2.022860e-01
-1.356452e-01,-1.355692e-01
1.600375e-01,1.600311e-01
-8.506509e-02,-8.499415e-02
-2.107576e-01,-2.106194e-01
-8.292144e-02,-8.283627e-02
-1.798899e-01,-1.798006e-01
-2.473300e-02,-2.474424e-02
-2.260613e-02,-2.257812e-02
-1.257550e-01,-1.256948e-01
-7.241267e-02,-7.235107e-02
1.247659e-01,1.247901e-01
3.065872e-02,3.066823e-02
-2.435130e-02,-2.432892e-02
8.653989e-02,8.654253e-02
-9.808135e-02,-9.805539e-02
-3.458414e-02,-3.460871e-02
-1.655840e-01,-1.655837e-01
-4.397924e-02,-4.396644e-02
9.312430e-02,9.310166e-02
1.832923e-02,1.831190e-02
-2.279796e-02,-2.278288e-02
-6.418121e-02,-6.417592e-02
-5.307214e-02,-5.305583e-02
7.491527e-02,7.489957e-02
1.728486e-01,1.727850e-01
1.967666e-02,1.967875e-02
6.986517e-02,6.983487e-02
1.071473e-01,1.071226e-01
1.215363e-01,1.215048e-01
2.103016e-01,2.101944e-01
-3.193539e-02,-3.195971e-02
1.857472e-01,1.856801e-01
1.538912e-01,1.538014e-01
5.774432e-02,5.768174e-02
5.090705e-02,5.082974e-02
-1.186762e-01,-1.186961e-01
6.699924e-02,6.696003e-02
1.107644e-01,1.106901e-01
-9.118619e-02,-9.121681e-02
-4.993757e-02,-4.995424e-02
-7.590523e-02,-7.587980e-02
4.621350e-02,4.622324e-02
8.896879e-02,8.895480e-02
1.808878e-02,1.808741e-02
-1.122851e-01,-1.122450e-01
-1.350979e-01,-1.350479e-01
-1.477305e-01,-1.477159e-01
-1.252472e-01,-1.252330e-01
6.848603e-02,6.846386e-02
1.252514e-02,1.255780e-02
-4.612300e-02,-4.606339e-02
-1.243000e-01,-1.242554e-01
-9.628716e-02,-9.623190e-02
-5.787448e-02,-5.788261e-02
-2.605350e-02,-2.604711e-02
5.266821e-02,5.268871e-02
-2.265334e-02,-2.263731e-02
-4.981090e-03,-4.939034e-03
6.899851e-02,6.900311e-02
2.137496e-02,2.139929e-02
-7.117119e-02,-7.116361e-02
7.013323e-02,7.009766e-02
-2.280897e-02,-2.281236e-02
7.619450e-03,7.580793e-03
-1.662289e-01,-1.662004e-01
-5.129184e-02,-5.130096e-02
8.015192e-02,8.010786e-02
-6.720693e-02,-6.719893e-02
-1.751559e-03,-1.753214e-03
-1.034509e-01,-1.033949e-01
-1.290446e-02,-1.290589e-02
5.978644e-02,5.975275e-02
-4.207769e-02,-4.208032e-02
-1.929404e-02,-1.928709e-02
-4.098355e-02,-4.095416e-02
1.606581e-01,1.606272e-01
-3.551606e-01,-3.551438e-01
-1.391814e-01,-1.391912e-01
4.742356e-03,4.746094e-03
1.818187e-01,1.817806e-01
3.527472e-01,3.526167e-01
-3.528392e-01,-3.525426e-01
-7.740750e-02,-7.736046e-02
-5.391996e-03,-5.381517e-03
2.130497e-01,2.129555e-01
2.689242e-01,2.688055e-01
-2.188137e-01,-2.187149e-01
-1.597557e-03,-1.587300e-03
8.523810e-02,8.522056e-02
1.530733e-01,1.530115e-01
2.086515e-02,2.080812e-02
-1.210362e-01,-1.210161e-01
-1.814619e-01,-1.814627e-01
5.122018e-02,5.117416e-02
8.286500e-02,8.283247e-02
1.597217e-01,1.596732e-01
-9.375937e-03,-9.344622e-03
-1.016500e-01,-1.016208e-01
-1.200538e-01,-1.200493e-01
8.465229e-03,8.436667e-03
2.235835e-02,2.230226e-02
-6.791868e-02,-6.789476e-02
-4.715851e-02,-4.713107e-02
-1.087562e-01,-1.087194e-01
5.466093e-03,5.473487e-03
1.215315e-01,1.215002e-01
-4.113694e-02,-4.110858e-02
1.107354e-01,1.107491e-01
1.155352e-01,1.155384e-01
1.657040e-03,1.664123e-03
4.623986e-02,4.619429e-02
-1.015809e-01,-1.015922e-01
9.914265e-02,9.911615e-02
2.819457e-01,2.818225e-01
3.707697e-02,3.703409e-02
-1.028967e-02,-1.032340e-02
-1.132552e-01,-1.132744e-01
2.968881e-02,2.965558e-02
1.443381e-01,1.442410e-01
1.461297e-01,1.460504e-01
1.006233e-01,1.005950e-01
8.491215e-02,8.488998e-02
4.086071e-02,4.085140e-02
-3.555157e-02,-3.559722e-02
1.170756e-01,1.169858e-01
-1.155137e-02,-1.158625e-02
1.329566e-01,1.329139e-01
7.607119e-02,7.606489e-02
3.511039e-02,3.508609e-02
-2.901793e-02,-2.903484e-02
-5.707162e-02,-5.707557e-02
2.665915e-01,2.665347e-01
4.102240e-02,4.101522e-02
-1.178258e-02,-1.181520e-02
-2.496410e-01,-2.496080e-01
-1.187844e-01,-1.187672e-01
1.569250e-01,1.569017e-01
4.171895e-02,4.174438e-02
3.572962e-02,3.574915e-02
-1.082827e-01,-1.082337e-01
-2.478393e-01,-2.477248e-01
9.127731e-02,9.126827e-02
5.006701e-02,5.010600e-02
3.977536e-02,3.978972e-02
-2.907421e-03,-2.911858e-03
-2.667287e-01,-2.665782e-01
1.031820e-01,1.031517e-01
-5.855010e-02,-5.851639e-02
-1.588322e-01,-1.588218e-01
-6.221551e-02,-6.224099e-02
-1.421925e-01,-1.421192e-01
1.028604e-01,1.028319e-01
-1.067334e-01,-1.066529e-01
9.188896e-03,9.236197e-03
-4.245270e-02,-4.244192e-02
-1.174538e-01,-1.173970e-01
2.301548e-01,2.300951e-01
6.408380e-02,6.411473e-02
-1.254194e-02,-1.251920e-02
-8.865779e-02,-8.866876e-02
-1.503583e-01,-1.503210e-01
2.112430e-01,2.111431e-01
1.138722e-01,1.138322e-01
-7.452196e-03,-7.432117e-03
8.252216e-02,8.250948e-02
-6.505142e-02,-6.501251e-02
3.695938e-02,3.690814e-02
1.635966e-01,1.635264e-01
6.251919e-02,6.250694e-02
8.505427e-02,8.501377e-02
-5.517507e-02,-5.516179e-02
-1.262871e-02,-1.264637e-02
9.415682e-02,9.411487e-02
6.820523e-02,6.817125e-02
4.139548e-02,4.135353e-02
-1.268059e-01,-1.267856e-01
1.697096e-01,1.696875e-01
-2.036268e-02,-2.037171e-02
-6.981997e-02,-6.983854e-02
2.136640e-02,2.135401e-02
-5.187597e-02,-5.184969e-02
5.241392e-02,5.239891e-02
-6.599986e-02,-6.598047e-02
-1.292721e-01,-1.292593e-01
-7.136004e-02,-7.134551e-02
7.496211e-02,7.498372e-02
1.263894e-02,1.267078e-02
-5.784115e-02,-5.778901e-02
-6.054284e-02,-6.051235e-02
-1.417656e-01,-1.417222e-01
-3.597519e-02,-3.593740e-02
-1.794435e-01,-1.793897e-01
-9.562526e-02,-9.557085e-02
6.247538e-02,6.250181e-02
-9.834403e-02,-9.829008e-02
-1.066694e-01,-1.065835e-01
-1.030230e-02,-1.025711e-02
-1.421334e-02,-1.417777e-02
3.529514e-02,3.532056e-02
2.805319e-02,2.807669e-02
-1.816217e-01,-1.815427e-01
-5.247034e-02,-5.248292e-02
5.246508e-02,5.245314e-02
-6.149702e-02,-6.148051e-02
7.915758e-02,7.914654e-02
-2.427134e-02,-2.424702e-02
2.339549e-01,2.339031e-01
2.198228e-02,2.198489e-02
-6.066247e-03,-6.067815e-03
-3.068883e-03,-3.092715e-03
-5.562621e-02,-5.565865e-02
2.298037e-01,2.296818e-01
9.365253e-02,9.365237e-02
9.779943e-02,9.777666e-02
9.346121e-02,9.341816e-02
1.188826e-02,1.186730e-02
5.746904e-02,5.739047e-02
3.033560e-02,3.031138e-02
2.763482e-03,2.704576e-03
8.996979e-02,8.989753e-02
-1.572633e-03,-1.588611e-03
3.198045e-02,3.195618e-02
-2.393599e-02,-2.391637e-02
7.623150e-02,7.618947e-02
1.062654e-01,1.062455e-01
1.535033e-02,1.536051e-02
-3.418736e-02,-3.419285e-02
-1.444569e-01,-1.444280e-01
1.438060e-02,1.432007e-02
-3.887311e-02,-3.886648e-02
8.050152e-02,8.050430e-02
-9.712866e-02,-9.708608e-02
-2.303866e-01,-2.302930e-01
2.035750e-02,2.034444e-02
-1.022464e-01,-1.021887e-01
5.127086e-02,5.129245e-02
1.403768e-02,1.409525e-02
-4.516357e-02,-4.510227e-02
-1.715605e-02,-1.713301e-02
-1.203575e-01,-1.202852e-01
-1.222296e-01,-1.221928e-01
7.736263e-03,7.752407e-03
4.730357e-02,4.730766e-02
-1.239788e-02,-1.237598e-02
-1.525933e-01,-1.525124e-01
-6.361223e-02,-6.357596e-02
-2.025224e-02,-2.025536e-02
-7.175798e-02,-7.175898e-02
-3.092741e-03,-3.077612e-03
-6.755062e-03,-6.716284e-03
-4.669608e-02,-4.668534e-02
2.638567e-02,2.637914e-02
1.010860e-02,1.012682e-02
-1.006240e-01,-1.006044e-01
-1.274524e-01,-1.274512e-01
-8.415019e-03,-8.433749e-03
8.319951e-02,8.316447e-02
-1.196587e-01,-1.196318e-01
-2.174637e-01,-2.174110e-01
-8.203790e-02,-8.202172e-02
4.863657e-02,4.862567e-02
3.267110e-02,3.264083e-02
6.931938e-03,6.981736e-03
1.277980e-01,1.278482e-01
8.447815e-02,8.448890e-02
5.154146e-03,5.147182e-03
-7.032540e-02,-7.037720e-02
-5.740491e-02,-5.742730e-02
4.686231e-02,4.681503e-02
1.867998e-01,1.867194e-01
1.558048e-01,1.557610e-01
-1.362838e-02,-1.364337e-02
-4.730375e-02,-4.731057e-02
2.911480e-02,2.908159e-02
6.563155e-02,6.556208e-02
8.250821e-02,8.245355e-02
-2.585072e-02,-2.584764e-02
1.673627e-01,1.673212e-01
6.287500e-02,6.286227e-02
1.414322e-01,1.414109e-01
-1.894031e-02,-1.895308e-02
-1.184782e-01,-1.184877e-01
1.326814e-01,1.325923e-01
2.320785e-01,2.319814e-01
8.747439e-02,8.746028e-02
4.256193e-02,4.253358e-02
-2.772016e-01,-2.771756e-01
-7.787023e-02,-7.793199e-02
1.500662e-01,1.499557e-01
1.400736e-01,1.400504e-01
2.301968e-01,2.301314e-01
-1.388028e-01,-1.387367e-01
-1.046013e-01,-1.046005e-01
-5.369349e-02,-5.374234e-02
4.746872e-02,4.743819e-02
2.613433e-01,2.611913e-01
-4.394068e-01,-4.382549e-01
-2.286750e-01,-2.286378e-01
-2.185448e-02,-2.193657e-02
1.042592e-01,1.040483e-01
4.574383e-01,4.549279e-01
-1.718950e-01,-1.716141e-01
-9.189992e-02,-9.177649e-02
5.507102e-02,5.507820e-02
5.256976e-02,5.250641e-02
8.570488e-02,8.541554e-02
2.156804e-03,2.182362e-03
-1.126360e-01,-1.125732e-01
-8.919982e-02,-8.919984e-02
3.262356e-02,3.258775e-02
8.373567e-02,8.370143e-02
3.105844e-01,3.105459e-01
-3.708745e-02,-3.701745e-02
-8.008750e-02,-8.006186e-02
-1.574872e-01,-1.575076e-01
-2.625250e-01,-2.625294e-01
1.560526e-01,1.559781e-01
4.750721e-02,4.754052e-02
3.795655e-02,3.799386e-02
-3.584864e-02,-3.581596e-02
-2.280202e-01,-2.279234e-01
2.468900e-01,2.467884e-01
1.745422e-01,1.745157e-01
6.816457e-03,6.805878e-03
-9.736758e-03,-9.738984e-03
-1.095025e-01,-1.094853e-01
2.170732e-01,2.169447e-01
3.396650e-02,3.391423e-02
-5.655157e-02,-5.658957e-02
-7.686109e-02,-7.686123e-02
6.206036e-02,6.203978e-02
1.345838e-01,1.345433e-01
2.053997e-02,2.053927e-02
1.260849e-02,1.259802e-02
-1.566495e-01,-1.566219e-01
-1.013961e-01,-1.013912e-01
8.754103e-02,8.753455e-02
1.492676e-01,1.492638e-01
1.290820e-01,1.290773e-01
-1.085438e-01,-1.084926e-01
-2.129611e-01,-2.128865e-01
1.858579e-02,1.855760e-02
1.495772e-01,1.495399e-01
1.460251e-01,1.459867e-01
-1.018274e-02,-1.017448e-02
-1.501986e-01,-1.501315e-01
4.213289e-02,4.209258e-02
-1.264259e-02,-1.267004e-02
-5.069829e-02,-5.073145e-02
-1.058498e-02,-1.060594e-02
6.644119e-03,6.669825e-03
-1.751171e-02,-1.753151e-02
-1.067424e-01,-1.067167e-01
-1.359773e-01,-1.359523e-01
3.227906e-02,3.227410e-02
1.063034e-01,1.063185e-01
9.091162e-02,9.091586e-02
-8.882451e-02,-8.878388e-02
-1.144288e-02,-1.141322e-02
6.048468e-02,6.049863e-02
-3.776562e-02,-3.775631e-02
-2.989863e-02,-2.989383e-02
-1.231574e-02,-1.231899e-02
1.185006e-01,1.184916e-01
-2.611200e-02,-2.608589e-02
-1.017492e-01,-1.017364e-01
-1.529317e-01,-1.529047e-01
8.635239e-02,8.632219e-02
8.231399e-02,8.229872e-02
-1.214866e-02,-1.212499e-02
7.500370e-02,7.499707e-02
9.392172e-03,9.402062e-03
1.354325e-01,1.353940e-01
3.430220e-02,3.428963e-02
5.165502e-02,5.164135e-02
1.379207e-01,1.378623e-01
-3.658443e-03,-3.687319e-03
1.731675e-02,1.728598e-02
9.929486e-02,9.926683e-02
2.088063e-01,2.087422e-01
1.333901e-01,1.333305e-01
-1.736834e-01,-1.736945e-01
-1.179058e-01,-1.179199e-01
-9.332012e-04,-9.832340e-04
2.195780e-01,2.194672e-01
3.350821e-01,3.349402e-01
1.587364e-01,1.587887e-01
-2.731299e-02,-2.727268e-02
-6.108328e-02,-6.109028e-02
-5.315758e-02,-5.320744e-02
-1.237620e-01,-1.238076e-01
1.901324e-01,1.901501e-01
1.205755e-02,1.210562e-02
-1.202995e-01,-1.202499e-01
-2.721153e-01,-2.720368e-01
-3.290327e-01,-3.288222e-01
-1.857078e-02,-1.856537e-02
-3.539160e-02,-3.534462e-02
-1.141105e-01,-1.140233e-01
-9.392181e-02,-9.381519e-02
-1.136727e-01,-1.135217e-01
-3.687140e-03,-3.680448e-03
-8.124142e-02,-8.118884e-02
-1.549385e-01,-1.548811e-01
-1.031494e-01,-1.031026e-01
-1.335045e-02,-1.330337e-02
7.272450e-02,7.270880e-02
-4.364001e-02,-4.359226e-02
3.463967e-03,3.507261e-03
-5.288887e-02,-5.283674e-02
-3.188214e-02,-3.186348e-02
1.075185e-01,1.074693e-01
7.104004e-02,7.103394e-02
1.667615e-01,1.667530e-01
4.367687e-02,4.369730e-02
-1.625937e-02,-1.626719e-02
-1.677060e-01,-1.677609e-01
-9.581486e-03,-9.641901e-03
5.232728e-02,5.227776e-02
1.449447e-01,1.449093e-01
1.820134e-01,1.819658e-01
-1.064450e-01,-1.064396e-01
-1.368004e-01,-1.368242e-01
-7.513623e-02,-7.515907e-02
1.063924e-01,1.063589e-01
2.268337e-01,2.267172e-01
-1.212116e-01,-1.211893e-01
-8.612589e-02,-8.612498e-02
3.340984e-02,3.341046e-02
8.105774e-02,8.104737e-02
3.262228e-01,3.259931e-01
-1.868773e-01,-1.868161e-01
3.753257e-02,3.750216e-02
4.064766e-02,4.063550e-02
-2.224541e-02,-2.225446e-02
2.160238e-01,2.158946e-01
-1.844816e-01,-1.844042e-01
7.723362e-02,7.719706e-02
-7.806437e-02,-7.805479e-02
3.358509e-02,3.358833e-02
1.026411e-01,1.025964e-01
-2.448508e-01,-2.447772e-01
-8.856799e-03,-8.863032e-03
9.307056e-02,9.307289e-02
2.040776e-01,2.040836e-01
2.402364e-01,2.401900e-01
-1.742417e-01,-1.741827e-01
9.296713e-03,9.292690e-03
1.043441e-01,1.042741e-01
1.387437e-02,1.382860e-02
2.245910e-01,2.244612e-01
-6.469835e-02,-6.466156e-02
-2.691925e-03,-2.682754e-03
6.219472e-02,6.215126e-02
1.025010e-01,1.024806e-01
1.414609e-01,1.413934e-01
2.155807e-02,2.156688e-02
-1.109274e-01,-1.108847e-01
9.102433e-02,9.097758e-02
9.443329e-02,9.438971e-02
6.243311e-02,6.239321e-02
-1.518222e-01,-1.518012e-01
-1.986130e-01,-1.985451e-01
8.609713e-03,8.582362e-03
9.343252e-02,9.340008e-02
1.723091e-01,1.722843e-01
6.236654e-02,6.242624e-02
-2.145031e-02,-2.138617e-02
-7.054879e-02,-7.053577e-02
-1.690024e-01,-1.690006e-01
-8.925436e-02,-8.928575e-02
1.354318e-01,1.354293e-01
1.247635e-01,1.247943e-01
-5.837213e-02,-5.832214e-02
-1.504629e-01,-1.504031e-01
-3.802471e-02,-3.799701e-02
5.127669e-02,5.123623e-02
3.604766e-02,3.605214e-02
3.341906e-02,3.343695e-02
-3.733661e-02,-3.732088e-02
9.105543e-02,9.106523e-02
2.325136e-02,2.323198e-02
-5.196313e-02,-5.195233e-02
-1.168352e-01,-1.168240e-01
-5.042462e-02,-5.045160e-02
-3.346012e-04,-3.356338e-04
-5.403732e-02,-5.402853e-02
-2.146403e-01,-2.145664e-01
-1.878903e-01,-1.878139e-01
2.250874e-03,2.250140e-03
4.430891e-02,4.434202e-02
2.053882e-01,2.054142e-01
-1.113293e-03,-1.021514e-03
-9.422818e-02,-9.413513e-02
-9.720262e-03,-9.724231e-03
-2.165750e-01,-2.165381e-01
9.841077e-02,9.836532e-02
-4.133195e-02,-4.131246e-02
-1.001197e-01,-1.000839e-01
5.475505e-03,5.471720e-03
-1.485624e-01,-1.485129e-01
9.723587e-02,9.720521e-02
-8.511051e-03,-8.467771e-03
-1.011841e-01,-1.011579e-01
-1.791820e-01,-1.791752e-01
-1.069489e-01,-1.069367e-01
2.016477e-01,2.016023e-01
6.210405e-02,6.216711e-02
-5.062815e-02,-5.059598e-02
-2.266662e-01,-2.266366e-01
-1.655598e-01,-1.655366e-01
1.834008e-01,1.833169e-01
4.492499e-02,4.496506e-02
2.427043e-02,2.428433e-02
-9.954680e-02,-9.954760e-02
-1.480161e-01,-1.479703e-01
2.488992e-01,2.487656e-01
7.632487e-02,7.634208e-02
1.086062e-01,1.085982e-01
6.479997e-02,6.475671e-02
-3.434024e-01,-3.432368e-01
2.885929e-01,2.882708e-01
6.830867e-02,6.824809e-02
7.043724e-02,7.037630e-02
1.826326e-01,1.825383e-01
-1.446737e-01,-1.446456e-01
3.273442e-01,3.269747e-01
1.707798e-01,1.706630e-01
3.818196e-02,3.809798e-02
-2.202746e-02,-2.209766e-02
-1.214483e-01,-1.214948e-01

