2.918264e+00,2.695987e+00,2,2,0.000000e+00,0.000000e+00
4.378518e+00,4.019378e+00,3,3,7.551209e-02,7.551208e-02
4.373446e+00,4.009017e+00,3,3,1.395621e-01,1.395620e-01
4.373115e+00,4.006083e+00,3,3,2.946823e-01,2.946821e-01
4.380378e+00,4.008428e+00,3,3,2.716495e-01,2.716495e-01
4.373867e+00,4.010719e+00,3,3,1.276167e+00,1.276166e+00
4.382549e+00,4.008219e+00,3,3,1.779663e+00,1.779663e+00
4.377043e+00,4.010089e+00,3,3,2.335722e+00,2.335722e+00
4.377493e+00,4.008157e+00,3,3,1.148687e+00,1.148687e+00
4.384019e+00,4.009479e+00,3,3,1.018461e+00,1.018461e+00
4.385821e+00,4.009176e+00,3,3,8.424528e-01,8.424527e-01
4.377947e+00,4.007585e+00,3,3,9.746404e-01,9.746402e-01
4.372418e+00,4.005103e+00,3,3,1.616753e+00,1.616753e+00
4.375190e+00,4.009714e+00,3,3,2.206613e+00,2.206613e+00
4.378907e+00,4.008947e+00,3,3,2.022702e+00,2.022702e+00
4.376498e+00,4.008261e+00,3,3,2.825381e+00,2.825380e+00
4.384792e+00,4.008426e+00,3,3,2.206349e+00,2.206349e+00
4.375628e+00,4.008245e+00,3,3,1.931090e+00,1.931090e+00
4.375540e+00,4.018746e+00,3,3,1.844838e+00,1.844838e+00
4.384724e+00,4.023946e+00,3,3,1.758303e+00,1.758302e+00
4.383407e+00,4.018232e+00,3,3,1.840510e+00,1.840510e+00
4.383561e+00,4.014334e+00,3,3,1.533956e+00,1.533956e+00
4.378019e+00,4.012156e+00,3,3,1.381534e+00,1.381534e+00
4.379497e+00,4.011917e+00,3,3,1.204581e+00,1.204581e+00
4.377059e+00,4.010608e+00,3,3,1.188903e+00,1.188903e+00
4.373716e+00,4.014983e+00,3,3,1.149710e+00,1.149710e+00
4.381383e+00,4.011358e+00,3,3,9.518776e-01,9.518776e-01
4.372080e+00,4.011074e+00,3,3,6.794439e-01,6.794439e-01
4.378692e+00,4.010890e+00,3,3,3.431008e-01,3.431007e-01
4.373412e+00,4.008072e+00,3,3,2.960831e-01,2.960831e-01
4.370423e+00,4.009485e+00,3,3,5.896103e-01,5.896101e-01
4.378451e+00,4.008095e+00,3,3,6.941784e-01,6.941783e-01
4.374218e+00,4.005392e+00,3,3,5.984793e-01,5.984793e-01
4.379223e+00,4.008028e+00,3,3,9.215445e-01,9.215442e-01
4.378609e+00,4.007660e+00,3,3,7.538888e-01,7.538888e-01
4.379326e+00,4.007868e+00,3,3,5.559930e-01,5.559931e-01
4.374307e+00,4.008345e+00,3,3,4.066880e-01,4.066879e-01
4.371555e+00,4.009309e+00,3,3,3.376784e-01,3.376783e-01
4.377548e+00,4.007496e+00,3,3,8.606976e-01,8.606974e-01
4.375464e+00,4.010512e+00,3,3,9.504783e-01,9.504782e-01
4.378673e+00,4.009461e+00,3,3,2.139477e+00,2.139476e+00
4.377470e+00,4.009106e+00,3,3,2.927873e+00,2.927873e+00
4.376241e+00,4.010133e+00,3,3,1.852340e+00,1.852340e+00
4.379813e+00,4.006743e+00,3,3,2.797935e+00,2.797934e+00
4.376041e+00,4.006103e+00,3,3,2.235884e+00,2.235884e+00
4.381791e+00,4.006989e+00,3,3,1.808748e+00,1.808748e+00
4.374140e+00,4.011076e+00,3,3,1.619818e+00,1.619818e+00
4.378062e+00,4.007791e+00,3,3,1.344299e+00,1.344299e+00
4.377754e+00,4.009700e+00,3,3,1.080027e+00,1.080027e+00
4.378467e+00,4.008189e+00,3,3,6.876476e-01,6.876476e-01
4.377378e+00,4.005578e+00,3,3,6.177118e-01,6.177118e-01
4.376467e+00,4.007229e+00,3,3,9.829236e-01,9.829233e-01
4.380665e+00,4.006973e+00,3,3,7.168842e-01,7.168842e-01
4.372597e+00,4.006824e+00,3,3,6.110373e-01,6.110373e-01
4.372188e+00,4.008578e+00,3,3,8.078102e-01,8.078100e-01
4.379381e+00,4.007135e+00,3,3,1.109397e+00,1.109397e+00
4.377217e+00,4.004540e+00,3,3,5.988307e-01,5.988309e-01
4.379062e+00,4.008587e+00,3,3,9.244299e-01,9.244297e-01
4.372882e+00,4.005593e+00,3,3,1.306199e+00,1.306199e+00
4.371386e+00,4.008547e+00,3,3,1.969784e+00,1.969783e+00
4.380736e+00,4.006653e+00,3,3,8.942516e-01,8.942515e-01
4.377459e+00,4.009485e+00,3,3,1.939671e+00,1.939670e+00
4.380763e+00,4.008656e+00,3,3,3.653225e+00,3.653224e+00
4.375080e+00,4.006630e+00,3,3,1.983769e+00,1.983770e+00
4.375914e+00,4.007989e+00,3,3,2.724662e+00,2.724662e+00
4.384499e+00,4.008960e+00,3,3,1.182477e+00,1.182477e+00
4.385811e+00,4.008064e+00,3,3,1.263766e+00,1.263765e+00
4.379697e+00,4.009924e+00,3,3,9.845565e-01,9.845564e-01
4.373997e+00,4.008162e+00,3,3,7.762216e-01,7.762215e-01
4.381160e+00,4.005600e+00,3,3,5.908721e-01,5.908720e-01
4.376363e+00,4.009122e+00,3,3,8.816919e-01,8.816918e-01
4.375190e+00,4.005552e+00,3,3,9.003219e-01,9.003218e-01
4.378232e+00,4.007026e+00,3,3,9.129587e-01,9.129587e-01
4.376017e+00,4.008471e+00,3,3,1.029772e+00,1.029771e+00
4.378776e+00,4.007216e+00,3,3,1.502112e+00,1.502111e+00
4.377416e+00,4.009139e+00,3,3,2.017964e+00,2.017964e+00
4.374807e+00,4.006650e+00,3,3,1.214733e+00,1.214733e+00
4.380275e+00,4.005252e+00,3,3,1.209876e+00,1.209876e+00
4.375255e+00,4.006052e+00,3,3,8.937062e-01,8.937063e-01
4.380653e+00,4.008643e+00,3,3,4.433706e-01,4.433706e-01
4.374074e+00,4.009461e+00,3,3,1.527410e+00,1.527409e+00
4.375769e+00,4.007533e+00,3,3,1.130290e+00,1.130290e+00
4.380237e+00,4.008569e+00,3,3,1.011827e+00,1.011827e+00
4.373930e+00,4.008031e+00,3,3,9.740378e-01,9.740376e-01
4.381350e+00,4.007371e+00,3,3,1.400945e+00,1.400944e+00
4.375476e+00,4.007450e+00,3,3,2.512778e+00,2.512777e+00
4.376505e+00,4.008114e+00,3,3,3.760617e+00,3.760616e+00
4.377311e+00,4.010180e+00,3,3,5.483424e+00,5.483423e+00
4.378231e+00,4.008005e+00,3,3,4.458069e+00,4.458070e+00
4.384306e+00,4.007265e+00,3,3,3.182345e+00,3.182346e+00
4.377860e+00,4.008130e+00,3,3,2.454093e+00,2.454093e+00
4.383561e+00,4.006740e+00,3,3,1.719397e+00,1.719397e+00
4.377925e+00,4.007798e+00,3,3,2.433287e+00,2.433286e+00
4.376130e+00,4.009205e+00,3,3,1.807901e+00,1.807901e+00
4.377767e+00,4.009720e+00,3,3,2.327531e+00,2.327532e+00
4.375566e+00,4.011100e+00,3,3,2.510070e+00,2.510071e+00
4.383586e+00,4.009906e+00,3,3,1.084532e+00,1.084533e+00
4.375691e+00,4.007056e+00,3,3,9.374207e-01,9.374206e-01
4.373392e+00,4.008346e+00,3,3,1.319558e+00,1.319558e+00
4.376921e+00,4.008119e+00,3,3,1.415889e+00,1.415889e+00
4.378341e+00,4.005335e+00,3,3,1.066766e+00,1.066766e+00
4.381011e+00,4.009839e+00,3,3,1.238101e+00,1.238101e+00
4.375587e+00,4.007539e+00,3,3,7.214969e-01,7.214969e-01
4.375603e+00,4.008529e+00,3,3,6.568648e-01,6.568648e-01
4.371336e+00,4.005106e+00,3,3,5.438513e-01,5.438513e-01
4.373811e+00,4.005240e+00,3,3,5.784202e-01,5.784201e-01
4.379062e+00,4.006315e+00,3,3,8.078967e-01,8.078965e-01
4.372002e+00,4.015034e+00,3,3,8.817768e-01,8.817767e-01
4.379765e+00,4.007653e+00,3,3,5.667879e-01,5.667880e-01
4.373073e+00,4.007522e+00,3,3,5.720606e-01,5.720605e-01
4.374933e+00,4.008739e+00,3,3,5.279835e-01,5.279834e-01
4.377083e+00,4.006162e+00,3,3,4.518010e-01,4.518009e-01
4.371787e+00,4.008935e+00,3,3,3.135725e-01,3.135725e-01
4.375990e+00,4.005955e+00,3,3,5.541243e-01,5.541240e-01
4.372923e+00,4.010144e+00,3,3,2.932877e-01,2.932877e-01
4.371854e+00,4.006808e+00,3,3,3.389797e-01,3.389797e-01
4.379819e+00,4.006649e+00,3,3,8.799552e-01,8.799548e-01
4.373670e+00,4.007237e+00,3,3,6.417448e-01,6.417448e-01
4.379696e+00,4.007743e+00,3,3,2.071143e+00,2.071143e+00
4.376009e+00,4.007240e+00,3,3,1.435506e+00,1.435506e+00
4.375616e+00,4.008240e+00,3,3,1.390175e+00,1.390175e+00
4.379880e+00,4.006922e+00,3,3,1.731344e+00,1.731344e+00
4.373010e+00,4.010853e+00,3,3,1.563279e+00,1.563279e+00
4.377731e+00,4.009206e+00,3,3,1.722313e+00,1.722313e+00
4.372443e+00,4.010651e+00,3,3,3.041310e+00,3.041309e+00
4.375288e+00,4.011620e+00,3,3,1.973577e+00,1.973578e+00
4.374421e+00,4.010944e+00,3,3,1.500037e+00,1.500037e+00
4.374295e+00,4.005947e+00,3,3,1.307087e+00,1.307087e+00
4.380026e+00,4.008948e+00,3,3,7.837207e-01,7.837203e-01
4.376315e+00,4.007275e+00,3,3,8.577162e-01,8.577159e-01
4.379715e+00,4.006936e+00,3,3,5.381583e-01,5.381582e-01
4.373597e+00,4.007783e+00,3,3,7.102339e-01,7.102337e-01
4.377241e+00,4.005140e+00,3,3,3.163725e-01,3.163725e-01
4.378008e+00,4.005511e+00,3,3,2.572584e-01,2.572584e-01
4.369515e+00,4.006652e+00,3,3,2.640276e-01,2.640276e-01
4.376738e+00,4.007746e+00,3,3,5.737759e-01,5.737756e-01
4.373789e+00,4.007820e+00,3,3,5.918175e-01,5.918174e-01
4.375878e+00,4.004964e+00,3,3,5.015503e-01,5.015503e-01
4.381624e+00,4.008454e+00,3,3,5.462994e-01,5.462994e-01
4.371875e+00,4.006789e+00,3,3,4.626902e-01,4.626902e-01
4.377544e+00,4.007169e+00,3,3,8.631047e-01,8.631044e-01
4.373168e+00,4.005938e+00,3,3,1.472360e+00,1.472359e+00
4.374263e+00,4.007514e+00,3,3,1.662220e+00,1.662220e+00
4.378316e+00,4.007385e+00,3,3,1.301747e+00,1.301747e+00
4.377394e+00,4.009615e+00,3,3,1.159393e+00,1.159393e+00
4.377233e+00,4.008370e+00,3,3,1.072057e+00,1.072057e+00
4.377488e+00,4.007404e+00,3,3,7.684550e-01,7.684553e-01
4.377263e+00,4.007109e+00,3,3,6.784226e-01,6.784221e-01
4.373085e+00,4.007831e+00,3,3,1.196365e+00,1.196364e+00
4.373661e+00,4.010507e+00,3,3,1.709870e+00,1.709870e+00
4.381503e+00,4.005805e+00,3,3,1.043961e+00,1.043961e+00
4.374804e+00,4.007307e+00,3,3,9.875633e-01,9.875632e-01
4.379407e+00,4.008978e+00,3,3,8.865501e-01,8.865500e-01
4.376062e+00,4.008273e+00,3,3,8.128659e-01,8.128659e-01
4.376992e+00,4.007432e+00,3,3,6.697431e-01,6.697431e-01
4.378706e+00,4.007577e+00,3,3,7.530458e-01,7.530456e-01
4.373332e+00,4.009151e+00,3,3,1.230954e+00,1.230953e+00
4.378797e+00,4.009484e+00,3,3,1.183055e+00,1.183055e+00
4.375190e+00,4.008586e+00,3,3,1.252972e+00,1.252972e+00
4.374539e+00,4.009454e+00,3,3,1.423246e+00,1.423246e+00
4.379027e+00,4.007725e+00,3,3,6.507800e-01,6.507800e-01
4.374079e+00,4.006996e+00,3,3,5.206114e-01,5.206114e-01
4.380305e+00,4.005884e+00,3,3,5.456169e-01,5.456168e-01
4.374264e+00,4.005354e+00,3,3,2.479467e-01,2.479466e-01
4.372875e+00,4.007442e+00,3,3,2.496599e-01,2.496599e-01
4.375772e+00,4.008089e+00,3,3,4.269947e-01,4.269946e-01
4.371569e+00,4.011391e+00,3,3,3.637096e-01,3.637096e-01
4.375429e+00,4.007329e+00,3,3,9.785977e-01,9.785973e-01
4.377719e+00,4.010864e+00,3,3,7.268657e-01,7.268656e-01
4.373662e+00,4.007095e+00,3,3,5.136781e-01,5.136780e-01
4.375480e+00,4.010572e+00,3,3,4.576685e-01,4.576684e-01
4.374611e+00,4.008692e+00,3,3,4.659262e-01,4.659261e-01
4.377259e+00,4.006644e+00,3,3,4.789425e-01,4.789424e-01
4.376677e+00,4.008227e+00,3,3,3.020691e-01,3.020691e-01
4.377850e+00,4.008397e+00,3,3,3.394996e-01,3.394995e-01
4.374527e+00,4.006154e+00,3,3,2.773580e-01,2.773579e-01
4.376806e+00,4.006557e+00,3,3,2.395138e-01,2.395138e-01
4.375931e+00,4.008984e+00,3,3,6.457986e-01,6.457982e-01
4.373518e+00,4.006056e+00,3,3,4.074308e-01,4.074307e-01
4.381370e+00,4.006390e+00,3,3,6.452892e-01,6.452890e-01
4.384191e+00,4.010641e+00,3,3,1.041436e+00,1.041436e+00
4.374902e+00,4.009366e+00,3,3,8.929571e-01,8.929569e-01
4.379316e+00,4.007387e+00,3,3,1.012421e+00,1.012420e+00
4.375479e+00,4.010123e+00,3,3,7.096699e-01,7.096699e-01
4.378189e+00,4.007685e+00,3,3,7.097771e-01,7.097770e-01
4.374077e+00,4.007477e+00,3,3,8.114543e-01,8.114541e-01
4.374599e+00,4.007928e+00,3,3,1.782574e+00,1.782573e+00
4.378796e+00,4.007575e+00,3,3,2.360399e+00,2.360398e+00
4.377907e+00,4.006781e+00,3,3,2.091286e+00,2.091286e+00
4.381229e+00,4.009977e+00,3,3,1.700508e+00,1.700507e+00
4.376129e+00,4.007000e+00,3,3,1.573464e+00,1.573464e+00
4.378626e+00,4.007224e+00,3,3,1.068439e+00,1.068440e+00
4.376254e+00,4.008960e+00,3,3,1.055490e+00,1.055490e+00
4.372758e+00,4.008250e+00,3,3,1.037041e+00,1.037041e+00
4.378734e+00,4.006095e+00,3,3,7.956397e-01,7.956397e-01
4.372641e+00,4.006996e+00,3,3,7.031926e-01,7.031926e-01
4.379204e+00,4.007010e+00,3,3,1.431417e+00,1.431416e+00
4.371976e+00,4.007907e+00,3,3,2.982531e+00,2.982531e+00
4.378298e+00,4.009925e+00,3,3,3.031353e+00,3.031369e+00
4.386685e+00,4.020035e+00,3,3,3.054806e+00,3.054807e+00
4.382259e+00,4.015929e+00,3,3,3.560092e+00,3.560092e+00
4.391015e+00,4.007702e+00,3,3,5.094646e+00,5.094645e+00
4.377222e+00,4.007727e+00,3,3,3.266819e+00,3.266820e+00
4.377912e+00,4.007906e+00,3,3,3.985969e+00,3.985968e+00
4.376336e+00,4.010476e+00,3,3,3.077072e+00,3.077072e+00
4.380859e+00,4.008937e+00,3,3,2.875826e+00,2.875826e+00
4.384311e+00,4.013356e+00,3,3,1.974571e+00,1.974572e+00
4.376203e+00,4.013816e+00,3,3,2.489593e+00,2.489592e+00
4.382123e+00,4.019784e+00,3,3,1.671669e+00,1.671669e+00
4.386972e+00,4.018504e+00,3,3,2.163022e+00,2.163022e+00
4.379103e+00,4.009506e+00,3,3,7.060763e-01,7.060765e-01
4.377718e+00,4.008409e+00,3,3,9.278443e-01,9.278439e-01
4.373275e+00,4.008232e+00,3,3,1.801419e+00,1.801419e+00
4.378755e+00,4.007362e+00,3,3,1.390243e+00,1.390243e+00
4.376473e+00,4.007622e+00,3,3,2.192526e+00,2.192526e+00
4.374992e+00,4.006688e+00,3,3,1.943535e+00,1.943535e+00
4.377580e+00,4.007922e+00,3,3,3.271278e+00,3.271278e+00
4.376457e+00,4.008103e+00,3,3,1.690168e+00,1.690168e+00
4.380171e+00,4.006334e+00,3,3,1.412966e+00,1.412966e+00
4.375594e+00,4.008854e+00,3,3,1.101833e+00,1.101833e+00
4.386285e+00,4.010017e+00,3,3,1.109890e+00,1.109890e+00
4.376902e+00,4.006557e+00,3,3,1.180572e+00,1.180572e+00
4.374828e+00,4.016272e+00,3,3,1.771004e+00,1.771004e+00
4.383240e+00,4.006089e+00,3,3,7.989906e-01,7.989910e-01
4.372325e+00,4.005989e+00,3,3,5.277676e-01,5.277676e-01
4.372745e+00,4.008414e+00,3,3,5.981896e-01,5.981894e-01
4.373740e+00,4.008625e+00,3,3,5.715104e-01,5.715102e-01
4.374374e+00,4.007109e+00,3,3,4.452613e-01,4.452613e-01
4.378271e+00,4.005858e+00,3,3,7.191406e-01,7.191403e-01
4.379099e+00,4.009477e+00,3,3,1.052376e+00,1.052376e+00
4.380037e+00,4.006228e+00,3,3,1.601037e+00,1.601036e+00
4.377171e+00,4.007199e+00,3,3,3.478609e+00,3.478608e+00
4.377023e+00,4.006503e+00,3,3,4.514009e+00,4.514008e+00
4.382094e+00,4.008973e+00,3,3,3.065471e+00,3.065472e+00
4.377572e+00,4.006636e+00,3,3,3.784558e+00,3.784557e+00
4.381664e+00,4.008329e+00,3,3,2.730909e+00,2.730909e+00
4.376164e+00,4.010584e+00,3,3,2.168827e+00,2.168827e+00
4.382111e+00,4.007605e+00,3,3,2.418019e+00,2.418019e+00
4.409153e+00,4.009694e+00,3,3,1.306380e+00,1.306381e+00
4.377819e+00,4.006853e+00,3,3,9.994601e-01,9.994596e-01
4.375122e+00,4.008469e+00,3,3,7.696718e-01,7.696718e-01
4.370789e+00,4.007719e+00,3,3,7.205178e-01,7.205178e-01
4.377162e+00,4.009226e+00,3,3,6.833545e-01,6.833544e-01
4.374381e+00,4.009165e+00,3,3,1.060750e+00,1.060750e+00
4.375374e+00,4.012191e+00,3,3,3.632652e-01,3.632652e-01
4.378389e+00,4.009655e+00,3,3,1.456896e+00,1.456895e+00
4.376005e+00,4.008634e+00,3,3,3.221339e+00,3.221338e+00
4.383372e+00,4.029028e+00,3,3,1.879966e+00,1.879967e+00
4.379561e+00,4.008335e+00,3,3,1.342876e+00,1.342876e+00
4.375674e+00,4.012528e+00,3,3,1.100848e+00,1.100848e+00
4.372997e+00,4.008126e+00,3,3,9.350391e-01,9.350391e-01
4.374296e+00,4.005703e+00,3,3,8.765797e-01,8.765796e-01
4.377187e+00,4.006767e+00,3,3,1.483488e+00,1.483487e+00
4.377094e+00,4.010131e+00,3,3,1.146398e+00,1.146398e+00
4.380105e+00,4.007554e+00,3,3,8.245375e-01,8.245376e-01
4.374359e+00,4.008505e+00,3,3,9.175511e-01,9.175510e-01
4.373277e+00,4.004790e+00,3,3,1.572600e+00,1.572599e+00
4.379286e+00,4.010090e+00,3,3,2.548006e+00,2.548005e+00
4.377850e+00,4.008682e+00,3,3,4.638468e+00,4.638466e+00
4.382731e+00,4.008580e+00,3,3,5.660153e+00,5.660151e+00
4.377862e+00,4.008406e+00,3,3,5.111811e+00,5.111811e+00
4.375385e+00,4.011108e+00,3,3,5.361426e+00,5.361426e+00
4.381273e+00,4.009397e+00,3,3,4.518844e+00,4.518844e+00
4.374108e+00,4.008810e+00,3,3,4.751984e+00,4.751984e+00
4.382812e+00,4.009035e+00,3,3,4.746634e+00,4.746634e+00
4.378553e+00,4.007569e+00,3,3,3.913832e+00,3.913832e+00
4.374082e+00,4.008729e+00,3,3,3.373795e+00,3.373795e+00
4.377286e+00,4.006792e+00,3,3,2.596153e+00,2.596153e+00
4.374225e+00,4.007465e+00,3,3,2.364516e+00,2.364516e+00
4.380532e+00,4.007994e+00,3,3,2.377071e+00,2.377071e+00
4.375424e+00,4.008324e+00,3,3,3.044289e+00,3.044291e+00
4.381889e+00,4.008665e+00,3,3,5.471063e+00,5.469932e+00
8.730263e+00,7.996348e+00,6,6,5.713012e+00,5.711240e+00
7.287456e+00,6.670118e+00,5,5,6.257297e+00,6.256972e+00
5.833231e+00,5.343650e+00,4,4,5.303546e+00,5.303546e+00
4.382200e+00,4.009846e+00,3,3,5.338722e+00,5.338723e+00
4.377358e+00,4.009079e+00,3,3,6.515728e+00,6.515727e+00
4.381210e+00,4.008702e+00,3,3,6.035056e+00,6.035057e+00
4.375307e+00,4.008263e+00,3,3,5.027739e+00,5.027739e+00
4.381017e+00,4.010700e+00,3,3,4.242600e+00,4.242600e+00
4.376315e+00,4.008306e+00,3,3,3.761797e+00,3.761796e+00
4.379645e+00,4.007339e+00,3,3,3.222031e+00,3.222031e+00
4.382072e+00,4.011261e+00,3,3,2.958978e+00,2.958978e+00
4.377400e+00,4.009360e+00,3,3,3.072684e+00,3.072684e+00
4.381332e+00,4.008419e+00,3,3,1.689590e+00,1.689590e+00
4.376615e+00,4.007544e+00,3,3,1.466493e+00,1.466493e+00
4.376081e+00,4.007506e+00,3,3,1.622647e+00,1.622647e+00
4.384536e+00,4.006874e+00,3,3,1.120972e+00,1.120972e+00
4.376884e+00,4.008824e+00,3,3,9.459976e-01,9.459977e-01
4.380195e+00,4.007288e+00,3,3,7.684265e-01,7.684264e-01
4.374224e+00,4.008236e+00,3,3,4.885190e-01,4.885190e-01
4.373314e+00,4.008678e+00,3,3,3.703970e-01,3.703967e-01
4.373793e+00,4.008607e+00,3,3,2.797297e-01,2.797297e-01
4.374069e+00,4.009507e+00,3,3,3.974026e-01,3.974026e-01
4.376515e+00,4.008754e+00,3,3,5.354266e-01,5.354265e-01
4.371959e+00,4.011569e+00,3,3,3.592155e-01,3.592155e-01
4.380966e+00,4.007517e+00,3,3,4.040960e-01,4.040959e-01
4.373121e+00,4.008736e+00,3,3,1.113163e+00,1.113163e+00
4.375195e+00,4.007156e+00,3,3,2.515819e+00,2.515818e+00
4.381062e+00,4.008544e+00,3,3,3.426457e+00,3.426456e+00
4.379686e+00,4.010586e+00,3,3,2.879434e+00,2.879434e+00
4.383268e+00,4.007158e+00,3,3,3.110357e+00,3.110357e+00
4.379108e+00,4.007005e+00,3,3,3.024905e+00,3.024905e+00
4.378540e+00,4.010914e+00,3,3,2.671658e+00,2.671658e+00
4.380416e+00,4.008148e+00,3,3,2.112219e+00,2.112218e+00
4.376833e+00,4.007388e+00,3,3,2.070677e+00,2.070677e+00
4.379650e+00,4.008614e+00,3,3,3.677848e+00,3.677847e+00
4.374096e+00,4.010023e+00,3,3,4.748285e+00,4.748283e+00
4.377069e+00,4.007449e+00,3,3,5.601877e+00,5.601877e+00
4.382740e+00,4.005709e+00,3,3,4.561990e+00,4.561991e+00
4.374512e+00,4.007584e+00,3,3,3.478402e+00,3.478403e+00
4.380384e+00,4.008546e+00,3,3,2.544122e+00,2.544122e+00
4.375566e+00,4.007338e+00,3,3,2.076842e+00,2.076842e+00
4.382427e+00,4.006735e+00,3,3,2.759522e+00,2.759521e+00
4.376285e+00,4.009498e+00,3,3,2.751330e+00,2.751329e+00
4.376502e+00,4.008584e+00,3,3,2.069405e+00,2.069405e+00
4.380688e+00,4.010113e+00,3,3,2.024263e+00,2.024264e+00
4.377851e+00,4.010726e+00,3,3,2.326175e+00,2.326219e+00
4.381297e+00,4.011012e+00,3,3,2.414221e+00,2.414222e+00
4.377408e+00,4.008405e+00,3,3,2.956548e+00,2.956547e+00
4.382207e+00,4.005674e+00,3,3,2.350924e+00,2.350924e+00
4.378613e+00,4.006750e+00,3,3,3.067178e+00,3.067178e+00
4.378131e+00,4.007540e+00,3,3,3.023787e+00,3.023787e+00
4.381142e+00,4.008779e+00,3,3,2.527911e+00,2.527911e+00
4.376191e+00,4.009168e+00,3,3,2.091117e+00,2.091117e+00
4.379736e+00,4.006579e+00,3,3,2.201043e+00,2.201043e+00
4.383608e+00,4.005932e+00,3,3,2.211135e+00,2.211135e+00
4.379181e+00,4.010634e+00,3,3,1.630544e+00,1.630545e+00
4.380780e+00,4.006937e+00,3,3,1.629960e+00,1.629959e+00
4.377426e+00,4.007510e+00,3,3,1.065575e+00,1.065575e+00
4.381278e+00,4.008827e+00,3,3,8.781361e-01,8.781361e-01
4.376929e+00,4.006463e+00,3,3,5.657123e-01,5.657123e-01
4.376310e+00,4.007647e+00,3,3,3.838170e-01,3.838169e-01
4.376481e+00,4.008705e+00,3,3,2.168859e-01,2.168859e-01
4.373128e+00,4.008558e+00,3,3,4.077928e-01,4.077926e-01
4.378802e+00,4.007379e+00,3,3,2.298410e-01,2.298409e-01
4.370673e+00,4.006872e+00,3,3,2.219913e-01,2.219912e-01
4.374330e+00,4.007359e+00,3,3,1.341587e-01,1.341586e-01
4.377874e+00,4.004245e+00,3,3,1.470552e-01,1.470552e-01
4.376215e+00,4.006828e+00,3,3,1.317567e-01,1.317567e-01
4.376271e+00,4.007953e+00,3,3,3.249661e-01,3.249660e-01
4.377232e+00,4.008249e+00,3,3,2.494326e-01,2.494325e-01
4.376143e+00,4.006979e+00,3,3,2.719725e-01,2.719723e-01
4.376347e+00,4.005277e+00,3,3,5.470065e-01,5.470063e-01
4.374659e+00,4.007238e+00,3,3,2.990698e-01,2.990698e-01
4.375893e+00,4.008153e+00,3,3,4.258677e-01,4.258677e-01
4.374436e+00,4.008112e+00,3,3,4.303108e-01,4.303107e-01
4.374831e+00,4.005458e+00,3,3,7.248237e-01,7.248235e-01
4.372389e+00,4.008720e+00,3,3,5.522409e-01,5.522408e-01
4.379897e+00,4.007397e+00,3,3,3.638423e-01,3.638423e-01
4.380752e+00,4.009811e+00,3,3,2.660243e-01,2.660243e-01
4.377211e+00,4.008087e+00,3,3,3.563770e-01,3.563769e-01
4.379806e+00,4.007390e+00,3,3,3.281880e-01,3.281880e-01
4.371648e+00,4.009559e+00,3,3,2.648641e-01,2.648641e-01
4.375426e+00,4.007787e+00,3,3,4.637969e-01,4.637969e-01
4.382658e+00,4.032231e+00,3,3,3.516939e-01,3.516939e-01
4.375205e+00,4.007159e+00,3,3,5.227982e-01,5.227981e-01
4.377463e+00,4.006121e+00,3,3,9.247090e-01,9.247087e-01
4.374332e+00,4.007669e+00,3,3,8.107850e-01,8.107849e-01
4.375009e+00,4.006657e+00,3,3,7.181155e-01,7.181154e-01
4.384514e+00,4.008296e+00,3,3,1.643258e+00,1.643258e+00
4.376492e+00,4.007083e+00,3,3,1.994016e+00,1.994016e+00
4.386482e+00,4.008508e+00,3,3,1.134334e+00,1.134334e+00
4.375389e+00,4.006747e+00,3,3,8.482995e-01,8.482996e-01
4.378357e+00,4.007561e+00,3,3,6.537288e-01,6.537287e-01
4.377122e+00,4.007413e+00,3,3,4.364268e-01,4.364268e-01
4.376605e+00,4.009112e+00,3,3,3.864401e-01,3.864400e-01
4.376051e+00,4.005283e+00,3,3,5.548976e-01,5.548975e-01
4.376007e+00,4.009467e+00,3,3,5.307643e-01,5.307643e-01
4.375473e+00,4.007988e+00,3,3,2.639973e-01,2.639972e-01
4.370964e+00,4.008494e+00,3,3,7.177026e-01,7.177024e-01
4.369903e+00,4.006850e+00,3,3,3.984592e-01,3.984592e-01
4.378702e+00,4.005957e+00,3,3,3.519681e-01,3.519680e-01
4.375221e+00,4.007771e+00,3,3,4.923571e-01,4.923570e-01
4.374226e+00,4.007045e+00,3,3,4.030473e-01,4.030473e-01
4.375300e+00,4.006681e+00,3,3,4.731872e-01,4.731871e-01
4.376828e+00,4.007414e+00,3,3,6.026992e-01,6.026991e-01
4.381534e+00,4.022145e+00,3,3,4.756017e-01,4.756016e-01
4.385756e+00,4.018811e+00,3,3,4.945690e-01,4.945688e-01
4.383653e+00,4.010532e+00,3,3,6.169641e-01,6.169640e-01
4.372438e+00,4.010276e+00,3,3,7.574959e-01,7.574957e-01
4.375683e+00,4.014734e+00,3,3,1.135819e+00,1.135819e+00
4.386144e+00,4.010927e+00,3,3,7.866710e-01,7.866711e-01
4.373467e+00,4.008966e+00,3,3,7.566152e-01,7.566149e-01
4.379519e+00,4.008051e+00,3,3,7.321452e-01,7.321452e-01
4.375121e+00,4.007731e+00,3,3,7.926656e-01,7.926656e-01
4.381883e+00,4.007353e+00,3,3,6.555935e-01,6.555935e-01
4.377111e+00,4.009698e+00,3,3,1.115601e+00,1.115601e+00
4.375557e+00,4.008121e+00,3,3,8.292409e-01,8.292409e-01
4.377672e+00,4.005479e+00,3,3,7.751496e-01,7.751495e-01
4.377896e+00,4.007452e+00,3,3,7.596656e-01,7.596656e-01
4.377190e+00,4.008832e+00,3,3,6.878775e-01,6.878775e-01
4.375768e+00,4.006172e+00,3,3,4.928153e-01,4.928153e-01
4.383546e+00,4.006168e+00,3,3,6.019904e-01,6.019902e-01
4.378405e+00,4.010239e+00,3,3,6.788456e-01,6.788454e-01
4.372451e+00,4.010300e+00,3,3,4.668361e-01,4.668360e-01
4.377126e+00,4.006618e+00,3,3,8.782914e-01,8.782911e-01
4.374990e+00,4.005086e+00,3,3,6.180956e-01,6.180956e-01
4.376443e+00,4.007480e+00,3,3,5.652572e-01,5.652571e-01
4.374979e+00,4.008501e+00,3,3,5.058808e-01,5.058808e-01
4.376644e+00,4.009072e+00,3,3,3.970669e-01,3.970667e-01
4.377841e+00,4.004094e+00,3,3,2.920336e-01,2.920335e-01
4.372343e+00,4.005433e+00,3,3,5.797284e-01,5.797282e-01
4.377768e+00,4.007095e+00,3,3,4.997496e-01,4.997496e-01
4.373942e+00,4.009615e+00,3,3,5.083716e-01,5.083715e-01
4.374126e+00,4.005808e+00,3,3,4.754079e-01,4.754078e-01
4.378963e+00,4.004950e+00,3,3,3.696141e-01,3.696140e-01
4.375327e+00,4.009756e+00,3,3,4.437754e-01,4.437754e-01
4.380129e+00,4.008427e+00,3,3,3.442546e-01,3.442546e-01
4.374218e+00,4.007414e+00,3,3,1.454145e+00,1.454144e+00
4.376206e+00,4.005544e+00,3,3,3.218433e+00,3.218432e+00
4.376900e+00,4.007747e+00,3,3,2.417712e+00,2.417713e+00
4.373782e+00,4.009360e+00,3,3,1.723471e+00,1.723471e+00
4.376989e+00,4.008714e+00,3,3,1.264275e+00,1.264274e+00
4.373133e+00,4.008822e+00,3,3,1.366921e+00,1.366921e+00
4.376900e+00,4.006350e+00,3,3,1.080434e+00,1.080434e+00
4.380038e+00,4.007829e+00,3,3,1.043215e+00,1.043214e+00
4.375316e+00,4.008666e+00,3,3,1.256931e+00,1.256930e+00
4.380810e+00,4.007914e+00,3,3,1.434086e+00,1.434086e+00
4.378048e+00,4.009098e+00,3,3,1.312171e+00,1.312171e+00
4.377595e+00,4.008296e+00,3,3,1.397984e+00,1.397984e+00
4.375925e+00,4.009391e+00,3,3,1.863006e+00,1.863005e+00
4.375307e+00,4.012935e+00,3,3,1.373502e+00,1.373502e+00
4.381655e+00,4.011868e+00,3,3,9.297248e-01,9.297249e-01
4.378403e+00,4.011315e+00,3,3,5.499694e-01,5.499695e-01
4.378501e+00,4.007858e+00,3,3,3.668122e-01,3.668122e-01
4.373282e+00,4.006228e+00,3,3,2.877344e-01,2.877343e-01
4.374210e+00,4.004588e+00,3,3,3.947813e-01,3.947812e-01
4.378685e+00,4.007090e+00,3,3,2.789106e-01,2.789106e-01
4.374648e+00,4.006786e+00,3,3,4.675782e-01,4.675781e-01
4.378655e+00,4.009859e+00,3,3,4.970870e-01,4.970870e-01
4.372956e+00,4.005430e+00,3,3,4.618472e-01,4.618472e-01
4.375439e+00,4.007058e+00,3,3,5.953705e-01,5.953702e-01
4.378432e+00,4.006375e+00,3,3,3.315649e-01,3.315649e-01
4.377041e+00,4.007284e+00,3,3,2.690293e-01,2.690293e-01
4.378831e+00,4.007389e+00,3,3,1.439724e+00,1.439723e+00
4.375617e+00,4.010224e+00,3,3,1.497785e+00,1.497785e+00
4.379914e+00,4.008527e+00,3,3,7.278902e-01,7.278904e-01
4.378579e+00,4.007700e+00,3,3,7.181027e-01,7.181026e-01
4.378093e+00,4.008515e+00,3,3,6.287868e-01,6.287868e-01
4.379560e+00,4.011850e+00,3,3,6.738957e-01,6.738956e-01
4.378249e+00,4.006187e+00,3,3,3.442821e-01,3.442821e-01
4.379356e+00,4.007856e+00,3,3,2.891120e-01,2.891119e-01
4.373225e+00,4.009227e+00,3,3,5.501599e-01,5.501598e-01
4.375822e+00,4.007632e+00,3,3,6.853907e-01,6.853906e-01
4.381081e+00,4.008894e+00,3,3,8.436226e-01,8.436225e-01
4.377592e+00,4.008002e+00,3,3,5.492943e-01,5.492943e-01
4.377224e+00,4.004563e+00,3,3,5.278050e-01,5.278049e-01
4.375300e+00,4.010280e+00,3,3,7.921355e-01,7.921352e-01
4.374610e+00,4.010461e+00,3,3,1.174981e+00,1.174981e+00
4.379914e+00,4.010941e+00,3,3,1.302907e+00,1.302907e+00
4.375880e+00,4.009974e+00,3,3,1.817128e+00,1.817128e+00
4.384680e+00,4.007646e+00,3,3,1.715595e+00,1.715595e+00
4.374641e+00,4.009780e+00,3,3,2.668153e+00,2.668169e+00
4.376389e+00,4.008833e+00,3,3,1.115506e+00,1.115507e+00
4.382982e+00,4.010700e+00,3,3,9.496711e-01,9.496710e-01
4.388097e+00,4.007834e+00,3,3,1.501075e+00,1.501074e+00
4.378347e+00,4.009942e+00,3,3,7.347724e-01,7.347726e-01
4.376055e+00,4.008791e+00,3,3,6.039009e-01,6.039009e-01
4.380590e+00,4.007138e+00,3,3,4.902778e-01,4.902778e-01
4.375145e+00,4.008721e+00,3,3,3.288280e-01,3.288280e-01
4.372557e+00,4.005974e+00,3,3,6.713491e-01,6.713488e-01
4.379962e+00,4.007793e+00,3,3,4.977139e-01,4.977139e-01
4.373349e+00,4.008014e+00,3,3,2.836719e-01,2.836719e-01
4.380750e+00,4.009465e+00,3,3,6.883872e-01,6.883870e-01
4.390239e+00,4.008571e+00,3,3,4.772303e-01,4.772303e-01
4.375321e+00,4.007135e+00,3,3,2.511179e-01,2.511178e-01
4.378455e+00,4.007522e+00,3,3,2.738165e-01,2.738165e-01
4.374103e+00,4.009555e+00,3,3,3.426205e-01,3.426204e-01
4.379361e+00,4.006813e+00,3,3,5.175609e-01,5.175607e-01
4.374237e+00,4.008814e+00,3,3,1.085640e+00,1.085639e+00
4.376436e+00,4.007942e+00,3,3,7.889606e-01,7.889600e-01
4.373718e+00,4.008282e+00,3,3,1.428628e+00,1.428628e+00
4.372583e+00,4.005780e+00,3,3,6.237796e-01,6.237799e-01
4.379426e+00,4.010089e+00,3,3,4.969001e-01,4.969001e-01
4.403808e+00,4.008405e+00,3,3,3.323368e-01,3.323369e-01
4.378435e+00,4.007712e+00,3,3,3.054061e-01,3.054060e-01
4.373870e+00,4.004082e+00,3,3,8.581275e-01,8.581271e-01
4.377391e+00,4.009992e+00,3,3,8.560419e-01,8.560418e-01
4.380287e+00,4.009558e+00,3,3,1.314360e+00,1.314359e+00
4.373799e+00,4.009035e+00,3,3,1.349009e+00,1.349009e+00
4.379917e+00,4.006935e+00,3,3,1.548528e+00,1.548528e+00
4.375098e+00,4.008695e+00,3,3,2.537457e+00,2.537456e+00
4.379833e+00,4.016641e+00,3,3,2.841284e+00,2.841284e+00
4.384670e+00,4.009206e+00,3,3,2.122476e+00,2.122477e+00
4.375556e+00,4.005702e+00,3,3,1.906988e+00,1.906988e+00
4.381586e+00,4.007501e+00,3,3,2.680225e+00,2.680224e+00
4.379297e+00,4.006122e+00,3,3,1.820728e+00,1.820728e+00
4.377671e+00,4.012175e+00,3,3,1.509573e+00,1.509573e+00
4.375264e+00,4.006929e+00,3,3,1.527033e+00,1.527033e+00
4.377461e+00,4.007231e+00,3,3,1.650989e+00,1.650989e+00
4.384413e+00,4.006771e+00,3,3,1.808075e+00,1.808075e+00
4.376514e+00,4.008613e+00,3,3,1.332615e+00,1.332615e+00
4.375958e+00,4.005651e+00,3,3,1.278934e+00,1.278934e+00
4.374987e+00,4.009423e+00,3,3,1.640311e+00,1.640310e+00
4.374591e+00,4.007532e+00,3,3,1.799944e+00,1.799944e+00
4.377848e+00,4.006332e+00,3,3,1.140216e+00,1.140216e+00
4.375910e+00,4.008108e+00,3,3,1.096292e+00,1.096292e+00
4.381044e+00,4.008740e+00,3,3,6.438806e-01,6.438808e-01
4.374433e+00,4.012789e+00,3,3,6.245239e-01,6.245239e-01

