5.205781e+00,1.192970e+02,1.177399e+02,2,50,0.000000e+00,-9.094947e-13,1
7.713493e+00,2.469828e+00,2.400160e+00,3,0,7.978115e-01,7.978133e-01,1
7.695884e+00,2.447708e+00,2.397060e+00,3,0,6.710085e+00,6.710100e+00,1
7.708402e+00,4.919687e+00,4.871607e+00,3,1,2.859673e+00,2.868171e+00,1
7.743661e+00,1.016551e+01,1.010036e+01,3,2,1.436476e+01,3.047391e+01,0
1.536598e+01,6.568070e+00,6.503582e+00,6,0,2.089539e+01,4.911757e+01,0
1.534237e+01,6.597626e+00,6.536961e+00,6,0,3.512171e+01,9.262652e+01,0
1.535783e+01,6.591975e+00,6.531239e+00,6,0,2.403002e+01,3.973490e+01,0
1.543548e+01,6.622310e+00,6.561995e+00,6,0,2.291998e+01,3.166375e+01,0
1.549117e+01,6.924368e+00,6.858826e+00,6,0,2.601244e+01,4.046538e+01,0
1.794556e+01,1.152681e+01,1.147103e+01,7,4,1.956028e+01,1.957708e+01,1
7.742951e+00,1.049515e+01,1.042891e+01,3,1,2.288957e+01,3.251200e+01,0
1.535904e+01,8.369738e+00,8.309364e+00,6,0,2.842498e+01,4.391452e+01,0
1.538275e+01,8.454335e+00,8.392096e+00,6,0,3.131872e+01,4.423520e+01,0
1.539895e+01,1.428295e+01,1.421905e+01,6,3,2.811391e+01,3.524161e+01,0
1.541257e+01,8.440736e+00,8.378983e+00,6,0,3.332741e+01,4.999891e+01,0
1.535435e+01,8.544957e+00,8.484602e+00,6,1,2.519308e+01,2.571372e+01,0
1.540330e+01,8.227287e+00,8.164883e+00,6,1,2.149485e+01,2.286826e+01,0
1.027043e+01,2.247574e+01,2.241135e+01,4,6,2.134912e+01,2.437103e+01,0
1.025997e+01,8.738165e+00,8.687019e+00,4,3,2.000714e+01,2.005206e+01,1
1.029257e+01,4.374156e+00,4.326105e+00,4,1,1.606527e+01,1.606521e+01,1
7.700725e+00,6.597201e+00,6.536722e+00,3,0,1.910353e+01,2.102767e+01,0
7.709558e+00,2.455844e+00,2.403021e+00,3,0,1.583279e+01,1.583279e+01,1
7.693374e+00,4.912337e+00,4.863024e+00,3,1,1.489751e+01,1.489816e+01,1
7.712545e+00,1.208384e+01,1.203585e+01,3,4,1.959023e+01,1.964811e+01,1
1.026409e+01,6.763143e+00,6.712675e+00,4,2,1.475480e+01,1.479570e+01,1
7.727512e+00,3.645395e+01,3.638911e+01,3,13,1.763445e+01,3.259975e+01,0
1.536820e+01,8.390547e+00,8.321762e+00,6,0,1.366315e+01,1.268676e+01,0
7.703814e+00,8.371207e+00,8.307695e+00,3,0,1.292695e+01,1.109311e+01,0
7.707211e+00,8.302893e+00,8.244038e+00,3,0,1.130691e+01,2.195371e+01,0
7.733579e+00,3.188018e+01,3.182864e+01,3,15,8.739898e+00,8.740638e+00,1
7.726648e+00,1.153821e+01,1.147699e+01,3,4,7.568143e+00,7.584863e+00,1
7.716111e+00,1.110930e+01,1.105595e+01,3,4,8.160168e+00,8.198351e+00,1
1.537495e+01,1.274748e+01,1.269603e+01,6,5,6.775296e+00,6.781902e+00,1
7.714548e+00,2.165465e+01,2.160215e+01,3,9,8.004958e+00,8.030560e+00,1
1.537934e+01,3.033655e+01,3.027391e+01,6,10,1.461095e+01,2.341361e+01,0
1.025649e+01,8.389251e+00,8.325815e+00,4,0,1.444613e+01,2.703766e+01,0
1.285428e+01,4.227091e+01,4.221892e+01,5,20,6.599783e+00,6.616271e+00,1
7.731095e+00,2.146033e+01,2.140379e+01,3,9,8.494259e+00,8.491809e+00,1
1.027361e+01,1.881942e+01,1.876807e+01,4,8,9.181164e+00,9.182148e+00,1
1.027425e+01,1.103578e+01,1.098299e+01,4,4,6.805420e+00,6.810379e+00,1
7.731474e+00,7.916310e+00,7.864714e+00,3,2,7.553726e+00,7.571334e+00,1
7.792580e+00,9.389076e+00,9.331942e+00,3,3,9.037346e+00,9.060026e+00,1
1.285828e+01,1.207615e+01,1.201797e+01,5,4,7.061594e+00,7.154102e+00,1
7.740660e+00,3.097102e+00,3.041029e+00,3,0,7.094846e+00,7.101983e+00,1
7.722596e+00,1.228511e+01,1.223612e+01,3,4,1.072170e+01,1.081622e+01,1
7.731481e+00,1.509353e+01,1.504111e+01,3,6,1.094551e+01,1.096480e+01,1
1.028004e+01,2.515269e+01,2.508616e+01,4,8,1.956154e+01,3.408920e+01,0
1.537158e+01,3.585088e+01,3.579593e+01,6,16,1.644112e+01,1.647062e+01,1
1.537795e+01,2.948821e+01,2.941895e+01,6,10,1.889582e+01,2.252324e+01,0
1.027729e+01,1.856977e+01,1.851511e+01,4,8,1.504910e+01,1.514477e+01,1
1.029608e+01,3.035517e+01,3.030181e+01,4,13,1.622504e+01,1.639099e+01,1
1.028724e+01,2.576841e+01,2.571297e+01,4,12,1.155933e+01,1.155928e+01,1
7.701580e+00,2.475653e+00,2.424002e+00,3,0,8.656414e+00,8.656415e+00,1
7.750874e+00,7.111080e+00,7.061958e+00,3,2,8.764170e+00,8.788597e+00,1
7.724803e+00,1.038655e+01,1.032495e+01,3,1,1.027243e+01,1.518789e+01,0
1.538682e+01,1.065837e+01,1.059580e+01,6,1,1.233746e+01,2.536703e+01,0
1.027051e+01,1.301760e+01,1.295090e+01,4,2,1.103657e+01,1.834349e+01,0
1.537279e+01,8.464832e+00,8.402824e+00,6,0,1.962290e+01,5.603842e+01,0
1.536943e+01,1.235733e+01,1.229596e+01,6,2,1.315779e+01,2.268882e+01,0
1.539628e+01,8.834787e+00,8.782148e+00,6,3,9.752898e+00,9.739266e+00,1
1.026209e+01,6.810598e+00,6.756067e+00,4,2,1.139989e+01,1.139986e+01,1
7.709732e+00,7.597643e+00,7.546902e+00,3,3,1.058539e+01,1.058281e+01,1
1.025058e+01,5.567897e+00,5.517006e+00,4,2,8.187660e+00,8.187662e+00,1
7.698052e+00,4.939325e+00,4.889011e+00,3,1,1.085070e+01,1.085079e+01,1
7.732850e+00,4.639811e+01,4.634809e+01,3,20,1.427358e+01,1.460167e+01,1
1.283497e+01,4.038503e+01,4.032993e+01,5,19,1.192855e+01,1.199634e+01,1
1.036270e+01,1.412001e+01,1.406407e+01,4,6,9.091205e+00,9.091204e+00,1
7.796220e+00,2.644113e+00,2.587080e+00,3,0,6.890469e+00,6.890470e+00,1
7.783698e+00,6.737353e+00,6.673098e+00,3,0,7.559484e+00,1.339107e+01,0
1.025614e+01,6.607169e+00,6.545305e+00,4,0,1.288336e+01,3.107107e+01,0
1.025997e+01,7.221852e+00,7.169008e+00,4,2,7.466225e+00,7.470639e+00,1
1.026470e+01,1.075046e+01,1.068473e+01,4,1,2.132841e+01,6.271830e+01,0
1.282982e+01,2.122539e+01,2.116179e+01,5,6,1.328163e+01,1.758612e+01,0
1.029214e+01,1.858053e+01,1.852202e+01,4,7,6.689665e+00,6.691599e+00,1
7.707663e+00,7.693163e+00,7.640123e+00,3,2,6.231598e+00,6.233887e+00,1
7.712153e+00,7.642152e+00,7.591009e+00,3,2,7.162114e+00,7.163495e+00,1
7.725762e+00,7.575349e+00,7.522821e+00,3,2,1.014568e+01,1.026693e+01,1
7.719023e+00,1.090238e+01,1.084113e+01,3,1,2.068398e+01,4.804337e+01,0
1.537603e+01,8.452976e+00,8.387804e+00,6,0,3.272012e+01,8.047876e+01,0
1.281944e+01,8.512299e+00,8.443832e+00,5,0,4.096647e+01,1.067594e+02,0
1.281519e+01,8.500809e+00,8.438110e+00,5,0,2.434444e+01,4.259349e+01,0
1.027857e+01,2.394085e+01,2.387762e+01,4,7,1.502135e+01,1.794927e+01,0
1.538030e+01,2.267494e+01,2.261806e+01,6,9,1.154805e+01,1.160042e+01,1
1.029042e+01,5.388591e+01,5.383205e+01,4,24,1.297429e+01,1.360968e+01,1
1.537465e+01,2.066394e+01,2.059460e+01,6,6,1.237235e+01,1.871859e+01,0
1.535768e+01,8.361576e+00,8.292913e+00,6,0,1.429475e+01,2.477993e+01,0
1.538303e+01,8.334658e+00,8.264780e+00,6,0,1.590990e+01,3.254337e+01,0
1.536692e+01,8.323647e+00,8.256674e+00,6,0,1.759291e+01,3.006850e+01,0
1.539945e+01,5.768701e+01,5.761933e+01,6,25,1.613299e+01,2.987656e+01,0
1.027635e+01,1.963358e+01,1.957703e+01,4,8,9.422966e+00,9.645730e+00,1
7.700948e+00,3.061455e+00,3.008842e+00,3,0,7.935292e+00,7.964696e+00,1
7.726217e+00,1.368082e+01,1.363015e+01,3,5,8.750429e+00,8.753143e+00,1
7.707798e+00,8.747308e+00,8.694887e+00,3,3,7.214477e+00,7.225710e+00,1
7.700020e+00,4.353768e+00,4.297972e+00,3,1,5.969605e+00,5.969617e+00,1
7.688740e+00,2.425850e+00,2.377033e+00,3,0,6.095708e+00,6.095710e+00,1
7.703616e+00,6.584243e+00,6.526232e+00,3,0,8.366476e+00,1.360251e+01,0
7.702483e+00,6.629714e+00,6.568909e+00,3,0,1.613529e+01,5.199937e+01,0
1.540215e+01,6.601220e+00,6.541252e+00,6,0,8.283317e+00,1.205530e+01,0
1.024268e+01,2.500202e+00,2.448082e+00,4,0,7.048214e+00,7.047019e+00,1
1.023370e+01,2.444556e+00,2.396107e+00,4,0,7.448125e+00,7.448102e+00,1
1.026339e+01,5.624485e+00,5.577087e+00,4,2,1.006575e+01,1.006538e+01,1
1.535357e+01,4.032325e+00,3.981829e+00,6,1,9.749238e+00,9.735736e+00,1
1.031543e+01,6.651218e+00,6.596804e+00,4,2,7.584951e+00,7.590075e+00,1
7.751353e+00,7.148887e+00,7.092237e+00,3,2,6.991975e+00,6.991855e+00,1
7.732438e+00,4.506306e+00,4.454851e+00,3,1,6.705584e+00,6.705577e+00,1
7.721966e+00,1.271545e+01,1.266384e+01,3,4,5.182801e+00,5.195775e+00,1
7.765255e+00,3.927045e+01,3.921723e+01,3,17,1.032671e+01,1.068502e+01,1
1.029380e+01,3.739760e+01,3.734112e+01,4,18,2.934419e+00,2.936145e+00,1
7.732008e+00,9.661389e+00,9.605169e+00,3,3,4.509526e+00,4.512837e+00,1
7.704225e+00,4.382960e+00,4.330873e+00,3,1,4.812253e+00,4.812242e+00,1
7.708664e+00,7.673185e+00,7.623911e+00,3,2,2.649067e+00,2.669431e+00,1
7.713538e+00,5.346818e+00,5.295038e+00,3,1,5.688839e+00,5.744350e+00,1
7.701069e+00,7.647134e+00,7.596970e+00,3,2,3.862594e+00,3.862633e+00,1
7.985084e+00,4.516349e+00,4.463911e+00,3,1,4.320958e+00,4.320967e+00,1
7.955838e+00,4.015049e+00,3.908157e+00,3,0,3.140738e+00,3.140742e+00,1
7.719356e+00,2.897074e+00,2.802134e+00,3,0,4.973952e+00,4.973961e+00,1
7.711987e+00,2.553011e+00,2.499104e+00,3,0,1.961276e+00,1.961276e+00,1
7.693788e+00,2.480846e+00,2.429962e+00,3,0,2.563982e+00,2.563985e+00,1
7.688765e+00,2.468493e+00,2.420187e+00,3,0,2.438113e+00,2.438114e+00,1
7.693716e+00,2.470032e+00,2.423048e+00,3,0,2.964106e+00,2.964111e+00,1
7.687576e+00,2.515742e+00,2.465010e+00,3,0,4.627840e+00,4.627846e+00,1
7.697122e+00,2.486481e+00,2.422810e+00,3,0,3.343502e+00,3.343502e+00,1
7.683204e+00,2.446600e+00,2.399921e+00,3,0,3.708116e+00,3.708129e+00,1
7.695484e+00,2.469813e+00,2.422094e+00,3,0,2.301340e+00,2.301342e+00,1
7.683164e+00,2.474834e+00,2.423763e+00,3,0,4.778526e+00,4.778533e+00,1
7.682380e+00,2.442416e+00,2.395153e+00,3,0,3.191468e+00,3.191470e+00,1
7.678604e+00,2.461304e+00,2.413034e+00,3,0,5.474387e+00,5.474394e+00,1
7.689423e+00,2.613604e+00,2.567053e+00,3,0,5.516014e+00,5.515974e+00,1
7.703109e+00,4.981103e+00,4.932165e+00,3,1,2.723647e+00,2.726633e+00,1
7.696288e+00,3.060371e+00,3.010988e+00,3,0,4.038826e+00,4.048905e+00,1
7.698119e+00,4.421476e+00,4.372120e+00,3,1,3.897559e+00,3.897574e+00,1
7.697261e+00,2.489949e+00,2.438068e+00,3,0,2.805174e+00,2.805175e+00,1
7.699487e+00,4.936224e+00,4.885912e+00,3,1,4.296407e+00,4.296416e+00,1
7.708376e+00,7.278305e+00,7.226944e+00,3,2,6.548949e+00,6.551493e+00,1
1.026925e+01,9.172319e+00,9.119272e+00,4,3,5.019610e+00,5.029716e+00,1
7.730963e+00,1.005745e+01,1.000118e+01,3,3,5.987707e+00,5.991912e+00,1
7.722440e+00,3.156791e+00,3.100157e+00,3,0,3.307392e+00,3.327601e+00,1
7.718982e+00,9.987768e+00,9.936094e+00,3,3,2.921454e+00,2.953044e+00,1
7.704010e+00,6.340049e+00,6.284952e+00,3,2,2.456579e+00,2.456581e+00,1
7.721787e+00,7.296793e+00,7.242918e+00,3,2,2.221959e+00,2.234693e+00,1
7.734171e+00,6.331240e+00,6.278992e+00,3,2,2.354003e+00,2.354007e+00,1
7.694672e+00,2.479790e+00,2.427101e+00,3,0,6.328469e+00,6.328488e+00,1
7.691022e+00,2.480503e+00,2.429008e+00,3,0,6.979165e+00,6.979168e+00,1
7.709056e+00,4.953005e+00,4.906178e+00,3,1,6.460509e+00,6.460627e+00,1
7.697942e+00,4.439195e+00,4.386902e+00,3,1,6.598642e+00,6.598567e+00,1
7.785818e+00,4.484491e+01,4.478192e+01,3,17,1.471603e+01,1.599027e+01,0
1.543268e+01,8.449126e+00,8.380413e+00,6,0,3.615390e+01,9.608553e+01,0
1.539506e+01,8.704604e+00,8.620024e+00,6,0,2.659656e+01,4.337308e+01,0
1.542049e+01,4.355250e+01,4.347897e+01,6,17,2.426858e+01,3.111513e+01,0
1.032089e+01,7.902706e+01,7.896495e+01,4,37,2.309804e+01,2.333798e+01,1
1.544755e+01,9.213218e+01,9.206796e+01,6,43,2.742752e+01,2.852845e+01,1
1.542310e+01,8.835447e+01,8.829069e+01,6,45,1.832158e+01,1.833809e+01,1
1.540442e+01,3.033345e+01,3.027201e+01,6,13,2.294500e+01,2.297556e+01,1
1.540433e+01,2.444720e+01,2.438664e+01,6,10,2.071231e+01,2.078653e+01,1
1.029636e+01,2.992074e+01,2.985787e+01,4,13,1.634414e+01,1.634882e+01,1
7.726173e+00,7.700585e+00,7.637978e+00,3,2,1.467613e+01,1.468013e+01,1
7.723681e+00,9.215051e+00,9.156704e+00,3,3,1.326747e+01,1.329058e+01,1
7.717983e+00,7.254687e+00,7.197857e+00,3,2,1.375017e+01,1.375995e+01,1
7.743110e+00,2.106275e+01,2.100706e+01,3,8,1.175680e+01,1.177337e+01,1
7.718251e+00,6.847528e+00,6.790161e+00,3,2,1.083547e+01,1.088434e+01,1
7.766622e+00,1.704630e+01,1.697993e+01,3,4,1.079576e+01,1.195703e+01,0
7.722325e+00,7.234821e+00,7.176161e+00,3,2,9.005362e+00,9.005774e+00,1
7.724379e+00,1.001342e+01,9.958029e+00,3,3,7.002679e+00,7.006517e+00,1
7.738411e+00,8.043557e+00,7.987022e+00,3,2,6.917480e+00,7.070276e+00,1
7.882982e+00,4.937883e+00,4.883766e+00,3,1,4.717721e+00,4.784154e+00,1
7.712667e+00,3.060595e+00,3.006935e+00,3,0,5.150934e+00,5.290896e+00,1
7.760278e+00,5.763144e+00,5.711079e+00,3,1,7.147990e+00,7.210919e+00,1
7.735555e+00,2.927890e+01,2.922297e+01,3,12,1.407293e+01,1.416332e+01,1
1.029756e+01,3.320506e+01,3.314304e+01,4,15,9.630637e+00,9.650444e+00,1
7.722583e+00,6.362482e+00,6.303072e+00,3,2,8.225456e+00,8.225456e+00,1
7.840205e+00,2.485727e+00,2.426147e+00,3,0,7.528993e+00,7.528996e+00,1
7.873157e+00,2.615061e+00,2.558947e+00,3,0,7.365687e+00,7.365575e+00,1
7.855267e+00,5.214688e+00,5.157709e+00,3,1,5.412636e+00,5.412674e+00,1
7.774673e+00,8.929001e+00,8.870602e+00,3,2,6.331190e+00,6.338518e+00,1
7.692558e+00,7.528011e+00,7.463932e+00,3,2,4.441814e+00,4.446232e+00,1
7.678042e+00,4.212490e+00,4.175901e+00,3,1,3.805326e+00,3.805328e+00,1
7.698999e+00,2.305175e+00,2.269030e+00,3,0,5.681424e+00,5.681430e+00,1
7.671123e+00,2.306074e+00,2.271175e+00,3,0,5.311227e+00,5.311230e+00,1
7.676039e+00,6.486341e+00,6.436825e+00,3,0,6.269532e+00,9.693290e+00,0
1.023063e+01,2.333129e+00,2.294064e+00,4,0,3.096155e+00,3.096157e+00,1
7.671047e+00,3.892714e+00,3.854990e+00,3,1,3.680410e+00,3.680198e+00,1
1.027796e+01,3.907275e+00,3.865004e+00,4,1,2.758698e+00,2.758677e+00,1
7.740086e+00,2.306462e+00,2.270937e+00,3,0,4.081869e+00,4.081877e+00,1
7.668167e+00,2.302163e+00,2.266169e+00,3,0,6.073619e+00,6.073626e+00,1
7.671074e+00,2.301918e+00,2.265930e+00,3,0,5.302050e+00,5.302053e+00,1
7.674113e+00,9.619921e+00,9.574890e+00,3,2,8.998646e+00,9.792356e+00,0
1.532820e+01,8.019946e+00,7.972240e+00,6,1,1.108380e+01,1.241244e+01,0
1.532226e+01,6.465773e+00,6.415844e+00,6,0,1.499386e+01,2.614739e+01,0
1.533142e+01,6.484195e+00,6.433964e+00,6,0,2.001791e+01,5.012025e+01,0
1.534864e+01,6.435079e+00,6.389618e+00,6,0,2.097315e+01,4.663476e+01,0
1.022654e+01,1.650291e+01,1.645398e+01,4,4,1.818728e+01,2.308110e+01,0
1.023555e+01,1.430872e+01,1.425695e+01,4,3,1.848652e+01,2.313185e+01,0
1.534509e+01,8.260302e+00,8.206844e+00,6,0,1.942351e+01,2.381548e+01,0
1.022803e+01,9.530584e+00,9.493113e+00,4,4,1.438596e+01,1.438591e+01,1
7.728369e+00,6.775141e+00,6.739140e+00,3,2,1.349444e+01,1.349372e+01,1
1.277981e+01,1.094184e+01,1.090002e+01,5,4,1.871062e+01,1.871249e+01,1
1.278766e+01,1.109304e+01,1.105499e+01,5,4,1.489412e+01,1.494683e+01,1
1.023658e+01,1.434673e+01,1.430678e+01,4,5,1.287302e+01,1.297378e+01,1
7.703429e+00,7.454217e+00,7.417679e+00,3,2,1.584143e+01,1.636813e+01,1
1.022564e+01,2.839270e+00,2.801895e+00,4,0,1.139913e+01,1.156378e+01,1
1.025498e+01,3.971854e+01,3.966880e+01,4,14,1.908106e+01,5.513027e+01,0
1.532740e+01,8.158698e+00,8.106232e+00,6,0,1.332379e+01,3.096892e+01,0
1.025180e+01,8.152518e+00,8.105278e+00,4,0,1.372024e+01,3.407219e+01,0
1.029851e+01,4.895724e+01,4.891896e+01,4,23,7.742509e+00,7.755700e+00,1
7.707091e+00,2.409716e+01,2.405286e+01,3,10,7.731876e+00,7.809388e+00,1
1.029079e+01,5.725682e+01,5.721474e+01,4,26,1.144452e+01,1.173132e+01,1
1.556502e+01,2.936445e+01,2.931213e+01,6,14,8.701946e+00,8.744389e+00,1
1.282118e+01,1.954505e+01,1.950574e+01,5,8,8.110958e+00,8.138175e+00,1
7.686594e+00,1.274681e+01,1.270390e+01,3,5,6.121247e+00,6.174300e+00,1
7.697926e+00,4.215506e+00,4.177809e+00,3,1,5.040411e+00,5.040412e+00,1
7.856956e+00,1.054510e+01,1.050806e+01,3,4,9.112300e+00,9.113876e+00,1
1.285769e+01,6.108515e+00,6.070137e+00,5,2,9.007416e+00,8.929071e+00,1
1.026621e+01,1.082439e+01,1.078701e+01,4,4,9.943144e+00,9.943717e+00,1
1.279088e+01,6.727174e+01,6.721902e+01,5,28,1.877047e+01,2.404176e+01,0
1.280556e+01,8.024301e+00,7.971764e+00,5,0,2.766092e+01,4.903818e+01,0
1.533506e+01,8.018663e+00,7.968187e+00,6,0,2.275646e+01,3.299453e+01,0
1.285276e+01,8.725529e+01,8.720589e+01,5,40,1.970496e+01,2.234927e+01,0
1.535277e+01,5.668209e+01,5.664015e+01,6,28,1.439397e+01,1.453179e+01,1
1.024169e+01,1.382873e+01,1.378608e+01,4,6,1.241716e+01,1.241669e+01,1
7.703075e+00,4.747351e+00,4.709005e+00,3,1,1.233106e+01,1.232909e+01,1
7.690846e+00,5.158708e+00,5.122662e+00,3,1,7.942265e+00,7.942588e+00,1
7.673755e+00,8.592048e+00,8.554935e+00,3,3,9.205427e+00,9.205438e+00,1
7.676428e+00,6.794179e+00,6.752014e+00,3,2,5.620200e+00,5.621676e+00,1
7.693181e+00,7.852612e+00,7.816076e+00,3,2,7.588139e+00,7.594845e+00,1
7.733626e+00,2.896704e+00,2.856016e+00,3,0,1.048207e+01,1.048672e+01,1
7.715441e+00,1.614428e+01,1.610684e+01,3,6,1.117593e+01,1.118763e+01,1
1.031285e+01,1.355179e+01,1.351500e+01,4,5,5.972888e+00,6.007450e+00,1
7.751676e+00,8.318724e+00,8.270025e+00,3,0,7.326417e+00,1.203387e+01,0
7.728360e+00,8.306591e+00,8.258104e+00,3,0,8.973129e+00,2.011643e+01,0
1.032980e+01,8.268906e+00,8.222342e+00,4,0,2.369992e+01,8.657539e+01,0
1.535368e+01,8.260622e+00,8.209229e+00,6,0,3.999442e+01,1.367366e+02,0
1.562473e+01,8.259898e+00,8.212090e+00,6,0,4.578699e+01,1.529445e+02,0
1.535572e+01,1.742293e+01,1.737189e+01,6,4,4.477001e+01,1.236769e+02,0
1.822437e+01,8.244159e+00,8.193016e+00,7,0,6.298401e+01,1.751109e+02,0
1.852821e+01,8.662238e+00,8.596897e+00,7,0,8.779282e+01,2.314851e+02,0
1.841945e+01,8.642712e+00,8.585215e+00,7,0,8.792063e+01,2.013203e+02,0
1.565981e+01,1.274690e+01,1.269484e+01,6,2,8.231446e+01,1.795834e+02,0
1.790876e+01,8.269198e+00,8.218050e+00,7,0,7.634001e+01,1.554102e+02,0
1.534083e+01,8.246541e+00,8.198738e+00,6,0,6.251454e+01,1.088104e+02,0
1.532564e+01,8.229919e+00,8.181810e+00,6,0,7.704045e+01,1.380252e+02,0
1.538109e+01,1.804687e+01,1.799941e+01,6,5,6.040881e+01,7.748006e+01,0
2.044377e+01,8.198383e+00,8.147001e+00,8,0,6.012987e+01,8.594968e+01,0
1.279881e+01,8.184669e+00,8.133888e+00,5,0,5.281505e+01,6.574959e+01,0
1.532348e+01,8.171389e+00,8.122683e+00,6,0,4.583369e+01,5.002140e+01,0
1.534504e+01,3.975380e+01,3.970504e+01,6,15,3.941141e+01,4.724641e+01,0
1.026515e+01,1.428136e+01,1.422930e+01,4,3,3.615289e+01,4.619119e+01,0
1.541799e+01,8.413970e+00,8.366108e+00,6,0,3.187663e+01,3.657260e+01,0
1.025726e+01,4.156203e+01,4.151106e+01,4,16,2.688030e+01,4.615435e+01,0
1.026256e+01,1.886543e+01,1.881146e+01,4,5,2.311885e+01,5.333651e+01,0
1.535497e+01,8.212381e+00,8.163929e+00,6,0,2.343176e+01,6.929895e+01,0
1.537506e+01,8.258740e+00,8.209229e+00,6,0,1.547269e+01,4.282176e+01,0
7.692039e+00,1.840526e+01,1.835465e+01,3,5,1.831260e+01,6.698469e+01,0
1.535084e+01,8.230270e+00,8.181810e+00,6,0,2.188730e+01,9.430517e+01,0
1.532724e+01,8.203535e+00,8.154631e+00,6,0,1.637435e+01,7.048142e+01,0
1.026277e+01,8.253139e+00,8.201838e+00,4,0,1.481445e+01,6.787366e+01,0
1.033818e+01,6.448637e+01,6.443501e+01,4,27,9.528407e+00,2.130600e+01,0
7.908482e+00,8.562656e+00,8.507013e+00,3,0,1.057094e+01,2.983611e+01,0
1.534386e+01,8.372923e+00,8.312702e+00,6,0,1.541595e+01,5.009935e+01,0
1.534293e+01,8.272151e+00,8.221149e+00,6,0,1.590751e+01,4.171201e+01,0
1.284165e+01,1.134290e+02,1.133766e+02,5,51,1.833318e+01,2.459386e+01,0
1.535110e+01,8.031077e+00,7.975578e+00,6,0,3.116621e+01,6.550936e+01,0
1.534971e+01,7.678565e+01,7.673311e+01,6,35,2.554775e+01,3.692195e+01,0
1.280247e+01,7.901555e+01,7.897210e+01,5,39,1.721849e+01,1.724552e+01,1
1.279904e+01,1.562822e+01,1.558495e+01,5,6,1.671030e+01,1.687321e+01,1
7.685471e+00,4.257082e+01,4.253006e+01,3,19,1.870383e+01,1.876314e+01,1
1.024551e+01,2.543864e+01,2.539921e+01,4,12,1.226725e+01,1.229463e+01,1
7.677211e+00,8.304983e+00,8.250952e+00,3,0,1.445288e+01,2.071623e+01,0
1.532380e+01,8.252195e+00,8.205414e+00,6,0,1.504942e+01,3.319644e+01,0
1.533283e+01,8.284293e+00,8.237123e+00,6,0,1.829122e+01,4.688528e+01,0
1.534178e+01,2.466024e+01,2.461314e+01,6,8,1.634191e+01,2.825848e+01,0
1.533974e+01,8.225155e+00,8.172274e+00,6,0,1.909475e+01,4.267451e+01,0
1.534438e+01,8.173012e+00,8.125067e+00,6,0,2.259415e+01,6.007837e+01,0
1.542606e+01,2.562654e+01,2.557826e+01,6,8,1.448723e+01,1.747002e+01,0
1.533519e+01,8.220638e+00,8.168936e+00,6,0,1.599290e+01,2.846713e+01,0
1.024569e+01,2.123421e+01,2.118301e+01,4,6,1.410568e+01,1.551911e+01,0
7.678931e+00,8.252211e+00,8.205175e+00,3,0,1.482232e+01,2.791910e+01,0
1.023582e+01,1.082276e+01,1.078582e+01,4,4,7.866062e+00,8.005914e+00,1
1.023249e+01,5.587268e+00,5.548000e+00,4,1,5.106499e+00,5.116393e+00,1
7.946337e+00,4.303384e+01,4.298186e+01,3,16,1.295825e+01,2.053566e+01,0
1.579634e+01,8.543362e+00,8.480787e+00,6,0,1.332448e+01,3.197253e+01,0
1.578262e+01,8.499696e+00,8.447647e+00,6,0,1.386125e+01,3.018448e+01,0
1.534596e+01,7.356924e+01,7.351613e+01,6,31,1.216748e+01,2.006194e+01,0
1.536648e+01,4.459989e+01,4.455709e+01,6,21,8.123739e+00,8.197601e+00,1
1.534730e+01,2.498184e+01,2.492905e+01,6,8,1.575516e+01,3.181782e+01,0
1.535139e+01,3.053110e+01,3.048992e+01,6,15,8.508070e+00,8.491113e+00,1
1.022785e+01,6.949911e+00,6.910086e+00,4,3,4.362722e+00,4.362714e+00,1
7.670700e+00,3.913180e+00,3.870964e+00,3,1,5.893897e+00,5.893632e+00,1
1.028697e+01,6.361339e+00,6.324053e+00,4,2,5.597295e+00,5.597334e+00,1
7.689528e+00,1.679002e+01,1.675105e+01,3,6,1.026419e+01,1.027715e+01,1
7.681423e+00,3.333845e+01,3.328800e+01,3,12,1.417377e+01,1.653081e+01,0
1.534091e+01,4.105882e+01,4.102111e+01,6,18,1.883442e+01,1.936310e+01,1
1.534324e+01,3.833780e+01,3.829503e+01,6,18,1.874272e+01,1.904987e+01,1
1.535213e+01,4.607396e+01,4.602194e+01,6,18,2.865910e+01,4.799572e+01,0
1.543367e+01,8.091152e+00,8.039951e+00,6,0,4.680917e+01,1.045986e+02,0
1.277763e+01,8.100432e+00,8.052111e+00,5,0,2.815979e+01,3.722994e+01,0
1.583261e+01,8.645654e+01,8.640218e+01,6,38,3.205095e+01,5.108717e+01,0
1.048247e+01,1.027284e+02,1.026750e+02,4,49,1.940961e+01,1.946917e+01,1
1.024284e+01,2.597061e+01,2.592587e+01,4,12,1.348076e+01,1.348080e+01,1
7.676496e+00,7.335811e+00,7.294893e+00,3,2,1.469410e+01,1.470224e+01,1
7.685899e+00,1.109787e+01,1.106215e+01,3,4,1.665107e+01,1.672085e+01,1
1.023885e+01,1.960571e+01,1.956820e+01,4,8,1.378551e+01,1.381360e+01,1
7.705551e+00,3.727385e+01,3.723288e+01,3,16,2.130291e+01,2.188936e+01,1
1.024137e+01,4.588382e+01,4.584217e+01,4,21,1.636615e+01,1.689986e+01,1
1.023819e+01,2.639504e+01,2.635407e+01,4,11,1.671271e+01,1.724926e+01,1
1.279867e+01,5.290886e+01,5.286789e+01,5,24,2.034570e+01,2.097496e+01,1
1.279350e+01,2.548380e+01,2.544212e+01,5,11,1.756892e+01,1.790829e+01,1
1.023662e+01,3.090394e+01,3.085208e+01,4,11,1.923659e+01,4.465289e+01,0
1.533809e+01,8.159113e+00,8.109093e+00,6,0,1.885077e+01,3.705618e+01,0
1.534617e+01,3.399071e+01,3.395319e+01,6,16,1.305184e+01,1.304246e+01,1
1.278548e+01,7.024817e+00,6.984234e+00,5,2,1.055878e+01,1.056532e+01,1
1.023751e+01,1.313133e+01,1.309299e+01,4,5,1.093071e+01,1.096813e+01,1
7.677017e+00,5.128016e+00,5.090952e+00,3,1,1.398532e+01,1.414412e+01,1
1.024672e+01,3.111514e+01,3.108001e+01,4,13,1.826472e+01,1.857150e+01,1
7.700912e+00,3.630544e+01,3.626490e+01,3,16,1.592787e+01,1.626792e+01,1
7.690416e+00,2.289059e+01,2.284980e+01,3,10,1.819251e+01,1.852677e+01,1
1.024812e+01,1.832842e+01,1.828790e+01,4,8,1.321550e+01,1.342338e+01,1
7.886602e+00,1.324275e+01,1.319003e+01,3,5,1.342701e+01,1.359755e+01,1
7.737712e+00,1.908845e+01,1.903701e+01,3,7,1.494455e+01,1.511496e+01,1
1.024708e+01,1.811861e+01,1.807308e+01,4,8,1.130227e+01,1.130486e+01,1
1.028683e+01,8.058019e+00,8.017063e+00,4,3,7.692141e+00,7.692141e+00,1
7.675204e+00,2.351895e+00,2.314806e+00,3,0,8.339354e+00,8.339360e+00,1
7.688352e+00,4.763383e+00,4.722118e+00,3,1,7.996091e+00,7.996603e+00,1
7.670421e+00,4.224751e+00,4.186153e+00,3,1,4.855120e+00,4.855121e+00,1
7.680196e+00,1.156937e+01,1.153278e+01,3,4,8.609403e+00,8.679995e+00,1
7.688824e+00,2.366795e+01,2.363110e+01,3,10,9.962898e+00,1.005274e+01,1
1.023122e+01,1.746076e+01,1.742005e+01,4,8,4.719492e+00,4.719492e+00,1
7.679848e+00,4.786084e+00,4.747152e+00,3,1,8.300548e+00,8.301450e+00,1
1.022347e+01,4.212925e+00,4.178047e+00,4,1,4.313894e+00,4.313896e+00,1
7.683092e+00,2.306282e+00,2.270222e+00,3,0,5.336347e+00,5.336354e+00,1
7.669022e+00,2.301200e+00,2.266884e+00,3,0,6.164099e+00,6.164093e+00,1
7.679817e+00,3.906197e+00,3.870964e+00,3,1,8.440240e+00,8.439436e+00,1
1.532250e+01,1.009291e+01,1.004314e+01,6,1,1.468722e+01,3.034637e+01,0
1.534050e+01,8.262062e+00,8.207798e+00,6,0,1.335669e+01,1.404609e+01,0
1.279370e+01,2.866475e+01,2.861428e+01,5,10,1.382095e+01,1.501983e+01,0
1.534518e+01,3.753273e+01,3.747988e+01,6,13,2.200383e+01,2.481118e+01,0
1.024245e+01,4.445700e+01,4.441619e+01,4,21,1.856059e+01,1.866575e+01,1
1.024884e+01,4.060565e+01,4.056001e+01,4,18,1.518876e+01,1.555970e+01,1
7.683578e+00,3.773273e+01,3.768229e+01,3,14,1.151476e+01,1.435889e+01,0
7.677172e+00,8.223817e+00,8.172035e+00,3,0,1.175628e+01,2.294850e+01,0
1.024235e+01,2.681964e+01,2.678204e+01,4,12,6.879305e+00,7.082963e+00,1
7.680616e+00,8.919477e+00,8.879900e+00,3,3,6.141731e+00,6.227726e+00,1
7.682274e+00,6.630533e+00,6.594896e+00,3,2,6.637586e+00,6.638641e+00,1
7.834358e+00,2.245424e+01,2.240491e+01,3,7,9.899965e+00,1.231722e+01,0
1.539074e+01,8.423093e+00,8.362055e+00,6,0,1.229280e+01,1.770985e+01,0
1.534055e+01,1.841460e+01,1.835775e+01,6,5,1.181364e+01,1.426192e+01,0
1.278716e+01,1.294808e+01,1.290798e+01,5,6,8.256051e+00,8.256029e+00,1
7.681162e+00,2.338730e+00,2.299070e+00,3,0,8.984664e+00,8.984513e+00,1
7.671456e+00,3.892912e+00,3.856897e+00,3,1,9.553455e+00,9.550805e+00,1
1.023343e+01,3.860960e+00,3.826141e+00,4,1,6.296488e+00,6.296488e+00,1
7.673651e+00,2.323104e+00,2.285004e+00,3,0,4.934163e+00,4.934166e+00,1
7.680542e+00,1.352375e+01,1.348805e+01,3,5,8.947017e+00,9.018245e+00,1
7.673670e+00,1.644225e+01,1.640511e+01,3,6,9.471702e+00,9.599680e+00,1
7.698638e+00,1.942024e+01,1.938391e+01,3,9,5.653557e+00,5.653505e+00,1
7.676681e+00,3.935142e+00,3.895998e+00,3,1,7.896388e+00,7.896316e+00,1
1.023201e+01,8.988772e+00,8.949041e+00,4,3,9.729433e+00,9.731033e+00,1
1.023305e+01,7.030768e+00,6.994963e+00,4,2,5.333283e+00,5.335982e+00,1
7.671107e+00,2.844093e+00,2.809048e+00,3,0,7.627605e+00,7.628864e+00,1
7.680204e+00,7.833103e+00,7.796764e+00,3,2,9.752051e+00,9.768115e+00,1
7.676708e+00,8.283708e+00,8.246183e+00,3,2,6.807654e+00,6.876028e+00,1
7.691017e+00,1.244868e+01,1.241112e+01,3,4,5.928495e+00,6.085009e+00,1
7.685989e+00,1.389505e+01,1.385713e+01,3,5,9.637621e+00,9.831133e+00,1
1.533629e+01,4.604265e+01,4.599476e+01,6,18,1.663636e+01,2.776810e+01,0
1.534315e+01,4.195768e+01,4.191518e+01,6,19,1.484871e+01,1.601041e+01,1
1.536405e+01,5.866205e+01,5.862212e+01,6,28,1.747536e+01,1.800664e+01,1
1.279869e+01,5.401681e+01,5.397367e+01,5,26,1.856337e+01,1.864309e+01,1
1.024389e+01,3.286861e+01,3.282809e+01,4,16,1.415544e+01,1.415244e+01,1
1.023186e+01,4.753730e+00,4.713774e+00,4,1,1.140493e+01,1.141869e+01,1
7.884815e+00,5.086921e+00,5.050182e+00,3,1,1.203629e+01,1.204062e+01,1
7.690656e+00,1.126502e+01,1.122665e+01,3,4,1.193565e+01,1.193747e+01,1
1.534116e+01,7.801509e+00,7.762194e+00,6,2,1.349818e+01,1.354544e+01,1
1.533223e+01,1.271494e+01,1.267505e+01,6,4,1.684272e+01,1.697601e+01,1
1.022987e+01,1.903131e+01,1.899409e+01,4,8,1.730314e+01,1.745400e+01,1
1.024002e+01,1.955403e+01,1.951504e+01,4,8,1.314575e+01,1.317315e+01,1
7.691258e+00,1.843614e+01,1.838684e+01,3,5,1.286996e+01,1.324834e+01,0
7.673459e+00,6.642919e+00,6.603003e+00,3,2,1.152702e+01,1.158708e+01,1
7.843795e+00,9.275613e+00,9.239912e+00,3,3,1.012270e+01,1.014016e+01,1
1.039202e+01,1.085857e+01,1.080298e+01,4,1,1.479535e+01,2.977032e+01,0
1.533433e+01,8.372083e+00,8.314133e+00,6,0,1.153163e+01,1.989784e+01,0
1.534787e+01,1.247813e+01,1.243615e+01,6,5,6.486283e+00,6.477291e+00,1
1.022602e+01,5.755694e+00,5.717993e+00,4,2,4.877222e+00,4.877220e+00,1
1.023467e+01,3.892063e+00,3.856897e+00,4,1,6.150304e+00,6.150187e+00,1
1.022349e+01,3.859043e+00,3.823996e+00,4,1,4.246395e+00,4.246396e+00,1
7.677111e+00,2.319255e+00,2.281904e+00,3,0,4.208467e+00,4.208470e+00,1
7.673332e+00,2.329448e+00,2.293110e+00,3,0,5.580577e+00,5.580584e+00,1
7.677948e+00,2.316858e+00,2.280951e+00,3,0,4.799636e+00,4.799639e+00,1
7.680709e+00,2.324719e+00,2.286911e+00,3,0,4.409393e+00,4.409395e+00,1
7.675258e+00,2.312635e+00,2.276897e+00,3,0,4.168266e+00,4.168265e+00,1
7.675650e+00,9.778545e+00,9.742737e+00,3,3,6.335494e+00,6.392754e+00,1
7.675992e+00,1.099120e+01,1.095510e+01,3,3,4.828207e+00,4.913475e+00,1
7.680050e+00,7.476253e+00,7.439137e+00,3,2,6.538720e+00,6.543770e+00,1
7.681780e+00,1.348063e+01,1.342821e+01,3,4,1.374825e+01,1.665725e+01,0
1.024034e+01,9.561151e+00,9.511709e+00,4,2,1.973182e+01,3.315477e+01,0
1.532691e+01,6.459428e+00,6.409883e+00,6,0,3.267756e+01,6.738689e+01,0
1.280072e+01,1.016390e+01,1.012802e+01,5,5,1.522006e+01,1.519026e+01,1
1.535783e+01,8.525967e+00,8.487940e+00,6,3,1.510475e+01,1.512333e+01,1
1.024978e+01,1.839315e+01,1.834393e+01,4,5,1.762350e+01,2.114160e+01,0
1.022942e+01,1.289844e+01,1.285911e+01,4,5,1.508415e+01,1.518753e+01,1
1.023784e+01,9.350824e+00,9.314060e+00,4,3,1.210547e+01,1.211208e+01,1
7.673126e+00,6.642840e+00,6.606102e+00,3,2,9.870688e+00,9.870694e+00,1
7.681421e+00,7.317771e+00,7.281065e+00,3,2,8.501662e+00,8.514827e+00,1
7.686414e+00,3.392827e+01,3.387284e+01,3,12,1.122663e+01,2.057471e+01,0
1.022330e+01,8.179613e+00,8.128881e+00,4,0,1.032261e+01,1.859427e+01,0
1.022928e+01,8.185419e+00,8.136749e+00,4,0,1.552615e+01,4.249849e+01,0
1.533233e+01,8.168232e+00,8.120775e+00,6,0,1.984959e+01,5.150717e+01,0
1.542108e+01,8.218977e+00,8.167267e+00,6,0,2.383369e+01,6.075165e+01,0
1.532353e+01,8.171749e+00,8.124113e+00,6,0,3.985056e+01,1.168806e+02,0
1.543208e+01,8.288721e+01,8.283591e+01,6,36,1.968151e+01,2.589762e+01,0
1.535109e+01,4.561833e+01,4.556870e+01,6,22,1.115571e+01,1.113342e+01,1
1.027322e+01,8.987937e+00,8.944988e+00,4,3,1.131958e+01,1.131778e+01,1
7.682568e+00,5.098574e+00,5.062103e+00,3,1,1.034516e+01,1.034739e+01,1
1.041542e+01,3.120998e+01,3.116894e+01,4,13,1.655695e+01,1.663379e+01,1
1.534913e+01,5.728566e+01,5.723286e+01,6,23,2.264721e+01,2.329997e+01,0
1.537445e+01,5.889549e+01,5.885196e+01,6,29,1.775824e+01,1.779445e+01,1
1.023817e+01,1.338369e+01,1.334119e+01,4,5,1.592153e+01,1.595318e+01,1
7.682468e+00,1.798347e+01,1.794696e+01,3,7,1.218705e+01,1.230836e+01,1
7.688934e+00,8.526999e+00,8.490086e+00,3,3,8.673641e+00,8.707878e+00,1
7.690226e+00,1.396922e+01,1.392722e+01,3,5,8.881847e+00,8.902238e+00,1
1.534822e+01,1.608532e+01,1.604795e+01,6,6,1.101834e+01,1.142910e+01,1
1.277574e+01,1.831664e+01,1.827979e+01,5,8,9.463830e+00,9.574982e+00,1
7.692706e+00,1.163523e+01,1.159811e+01,3,4,1.047252e+01,1.058164e+01,1
7.673090e+00,4.752243e+00,4.709721e+00,3,1,1.051568e+01,1.056170e+01,1
7.680076e+00,1.026098e+01,1.022410e+01,3,4,9.306199e+00,9.306147e+00,1
7.672784e+00,3.912327e+00,3.875732e+00,3,1,9.391619e+00,9.390266e+00,1
1.022452e+01,3.852028e+00,3.814936e+00,4,1,7.150882e+00,7.150716e+00,1
7.686404e+00,2.306740e+00,2.271175e+00,3,0,7.077561e+00,7.077579e+00,1
7.673626e+00,2.299532e+00,2.262831e+00,3,0,5.512009e+00,5.511971e+00,1
1.024543e+01,8.118631e+00,8.069754e+00,4,1,9.410880e+00,2.175444e+01,0
1.533920e+01,6.482242e+00,6.429195e+00,6,0,3.229673e+01,1.236666e+02,0
1.532084e+01,6.474304e+00,6.425858e+00,6,0,2.846129e+01,9.051617e+01,0
1.535190e+01,6.438284e+00,6.392002e+00,6,0,5.267278e+01,1.659764e+02,0
1.532493e+01,6.483586e+00,6.435394e+00,6,0,6.614737e+01,1.895129e+02,0
1.534436e+01,1.178880e+01,1.174116e+01,6,2,3.492361e+01,7.129803e+01,0
1.533745e+01,8.241476e+00,8.189201e+00,6,0,3.247887e+01,6.694935e+01,0
1.276983e+01,8.346613e+00,8.299351e+00,5,1,2.288574e+01,2.983603e+01,0
1.532352e+01,3.854569e+00,3.818035e+00,6,1,1.634651e+01,1.633102e+01,1
1.022607e+01,3.854934e+00,3.818035e+00,4,1,1.116478e+01,1.116478e+01,1
7.685250e+00,4.696441e+00,4.655838e+00,3,1,1.505649e+01,1.506210e+01,1
7.674786e+00,4.213781e+00,4.177094e+00,3,1,1.167201e+01,1.167201e+01,1
7.699353e+00,4.774617e+00,4.739046e+00,3,1,8.663571e+00,8.665195e+00,1
7.672402e+00,6.686167e+00,6.650925e+00,3,2,9.569842e+00,9.569885e+00,1
7.677093e+00,4.223495e+00,4.180670e+00,3,1,8.526226e+00,8.526229e+00,1
7.668382e+00,2.297728e+00,2.262115e+00,3,0,8.579072e+00,8.579077e+00,1
7.678524e+00,4.779644e+00,4.745960e+00,3,1,9.350380e+00,9.350512e+00,1
1.051303e+01,2.402397e+01,2.397394e+01,4,7,1.634168e+01,3.265647e+01,0
1.536868e+01,8.280705e+00,8.216858e+00,6,0,2.644795e+01,7.609050e+01,0
1.532297e+01,8.201510e+00,8.152962e+00,6,0,2.598403e+01,7.433077e+01,0
1.533207e+01,8.220644e+00,8.170843e+00,6,0,1.907265e+01,4.129935e+01,0
1.535660e+01,8.240151e+00,8.188963e+00,6,0,4.079627e+01,1.264628e+02,0
1.279359e+01,8.220292e+00,8.169174e+00,5,0,2.831318e+01,7.866834e+01,0
1.537305e+01,8.446506e+01,8.442807e+01,6,39,1.540010e+01,1.574738e+01,1
1.026006e+01,6.250449e+01,6.245899e+01,4,31,9.921454e+00,1.001071e+01,1
7.751437e+00,7.308843e+01,7.303309e+01,3,30,2.805010e+01,5.745170e+01,0
1.536366e+01,8.073887e+00,8.020163e+00,6,0,2.973259e+01,5.468171e+01,0
1.534213e+01,8.014391e+00,7.964849e+00,6,0,2.342541e+01,2.223057e+01,0
1.537735e+01,7.494395e+01,7.490206e+01,6,37,1.542699e+01,1.546480e+01,1
1.023411e+01,1.649794e+01,1.645327e+01,4,7,1.504767e+01,1.504737e+01,1
1.278622e+01,1.422883e+01,1.419091e+01,5,6,1.243304e+01,1.250997e+01,1
1.024111e+01,8.273049e+00,8.223057e+00,4,0,1.334457e+01,3.325531e+01,0
1.023447e+01,8.282555e+00,8.230209e+00,4,0,2.195177e+01,8.490855e+01,0
1.552125e+01,8.250571e+00,8.202553e+00,6,0,2.667630e+01,1.029563e+02,0
1.535458e+01,8.590766e+00,8.522987e+00,6,0,1.664202e+01,6.232341e+01,0
1.278902e+01,8.410907e+00,8.358955e+00,5,0,1.859486e+01,6.643126e+01,0
1.278850e+01,1.661567e+01,1.656508e+01,5,4,1.399035e+01,3.684902e+01,0
1.533952e+01,8.256812e+00,8.207798e+00,6,0,1.390997e+01,3.724594e+01,0
1.537517e+01,8.282647e+00,8.234024e+00,6,0,2.207128e+01,7.782548e+01,0
1.279557e+01,1.351285e+01,1.346397e+01,5,4,1.288467e+01,1.419661e+01,0
1.023427e+01,1.018603e+01,1.014590e+01,4,4,8.291513e+00,8.299805e+00,1
1.028789e+01,1.027117e+01,1.023221e+01,4,4,6.209604e+00,6.209590e+00,1
7.702947e+00,7.046161e+00,7.010937e+00,3,2,6.526591e+00,6.530574e+00,1
7.699695e+00,4.743204e+00,4.708052e+00,3,1,7.102123e+00,7.128493e+00,1
7.676418e+00,6.692731e+00,6.655931e+00,3,2,4.901959e+00,4.903012e+00,1
7.680413e+00,6.653240e+00,6.610870e+00,3,2,5.845067e+00,5.845351e+00,1
7.701412e+00,4.220750e+00,4.184961e+00,3,1,3.588011e+00,3.588007e+00,1
7.669722e+00,2.336007e+00,2.297163e+00,3,0,3.486016e+00,3.486001e+00,1
7.670145e+00,2.310294e+00,2.274036e+00,3,0,6.467382e+00,6.467400e+00,1
7.688819e+00,2.301150e+00,2.265930e+00,3,0,5.958122e+00,5.958129e+00,1
7.707977e+00,7.065221e+00,7.029772e+00,3,2,6.838243e+00,6.840688e+00,1
7.705536e+00,7.837887e+00,7.802010e+00,3,2,4.780167e+00,4.802342e+00,1
7.684688e+00,9.709562e+00,9.673119e+00,3,3,6.650426e+00,6.842353e+00,1
7.719736e+00,5.685380e+01,5.680299e+01,3,23,1.242128e+01,1.643594e+01,0
1.282953e+01,4.846674e+01,4.842496e+01,5,23,4.764206e+00,4.767635e+00,1
7.679408e+00,4.250491e+00,4.207134e+00,3,1,4.768086e+00,4.768055e+00,1
7.680632e+00,2.311326e+00,2.273798e+00,3,0,4.715596e+00,4.715508e+00,1
7.671628e+00,2.314556e+00,2.278090e+00,3,0,4.852009e+00,4.849183e+00,1
1.024887e+01,2.303356e+00,2.266884e+00,4,0,3.390635e+00,3.390638e+00,1
7.677409e+00,4.808898e+00,4.772186e+00,3,1,3.135395e+00,3.136972e+00,1
7.678376e+00,4.228069e+00,4.192114e+00,3,1,5.265619e+00,5.265640e+00,1
7.674166e+00,2.347209e+00,2.308846e+00,3,0,3.108838e+00,3.108835e+00,1
7.704711e+00,2.308976e+00,2.274036e+00,3,0,2.259841e+00,2.259846e+00,1
7.674797e+00,2.328222e+00,2.290010e+00,3,0,3.625889e+00,3.625894e+00,1
7.690188e+00,1.622779e+01,1.619101e+01,3,6,9.665460e+00,9.724540e+00,1
1.281572e+01,1.042896e+01,1.039290e+01,5,4,5.322610e+00,5.322674e+00,1
7.745540e+00,1.411603e+01,1.407504e+01,3,5,6.013878e+00,6.041688e+00,1
7.842758e+00,5.560915e+00,5.520821e+00,3,1,5.904600e+00,5.908012e+00,1
7.679249e+00,4.805798e+00,4.767895e+00,3,1,5.184602e+00,5.189928e+00,1
7.676571e+00,1.204064e+01,1.200223e+01,3,4,9.085293e+00,9.247178e+00,1
1.025222e+01,1.125971e+01,1.122308e+01,4,4,7.472290e+00,7.484313e+00,1
7.704554e+00,8.824754e+00,8.787870e+00,3,3,5.805201e+00,5.805201e+00,1
7.706198e+00,2.307661e+00,2.269983e+00,3,0,5.488955e+00,5.488958e+00,1

