1.848309e+00,1.054049e+00,6,20
9.090530e-01,8.168221e-01,3,20
2.109813e+00,7.300377e-01,7,18
1.190770e+00,8.778572e-01,4,22
1.486836e+00,9.531975e-01,5,24
9.066890e-01,8.690357e-01,3,22
2.673657e+00,8.718967e-01,9,22
8.971550e-01,9.489059e-01,3,24
8.958190e-01,8.769035e-01,3,22
1.496234e+00,7.920265e-01,5,20
2.082291e+00,9.369850e-01,7,24
2.072435e+00,7.901192e-01,7,20
8.943720e-01,8.740425e-01,3,22
1.494907e+00,7.870197e-01,5,20
2.098922e+00,8.831024e-01,7,22

