1.845286e+00,1.060963e+00,6,20
9.251450e-01,8.220673e-01,3,20
2.087591e+00,7.331371e-01,7,18
1.193016e+00,8.840561e-01,4,22
1.569492e+00,9.489059e-01,5,24
9.098660e-01,8.800030e-01,3,22
2.682872e+00,8.780956e-01,9,22
8.984050e-01,9.579659e-01,3,24
8.972090e-01,8.850098e-01,3,22
1.498460e+00,7.958412e-01,5,20
2.090033e+00,9.460449e-01,7,24
2.076093e+00,7.948875e-01,7,20
8.964990e-01,8.847713e-01,3,22
2.004751e+00,7.939339e-01,5,20
2.088743e+00,8.900166e-01,7,22

