1.826062e+00,1.051903e+00,6,20
8.982070e-01,8.208752e-01,3,20
2.085276e+00,7.460117e-01,7,18
1.203581e+00,8.828640e-01,4,22
1.491736e+00,9.520054e-01,5,24
8.960980e-01,8.749962e-01,3,22
2.681088e+00,8.788109e-01,9,22
8.983150e-01,9.720325e-01,3,24
8.951370e-01,8.690357e-01,3,22
1.486126e+00,7.967949e-01,5,20
2.077471e+00,9.560585e-01,7,24
2.080918e+00,8.599758e-01,7,20
9.139050e-01,9.379387e-01,3,22
1.484376e+00,7.929802e-01,5,20
2.142924e+00,8.931160e-01,7,22

