1.869088e+00,1.122952e+00,6,20
9.247920e-01,8.490086e-01,3,20
2.074355e+00,7.770061e-01,7,18
1.208137e+00,8.847713e-01,4,22
1.497744e+00,9.529591e-01,5,24
8.948390e-01,8.771420e-01,3,22
2.662533e+00,8.862019e-01,9,22
8.963930e-01,9.889603e-01,3,24
8.942730e-01,8.709431e-01,3,22
1.489480e+00,7.991791e-01,5,20
2.073235e+00,9.579659e-01,7,24
2.079387e+00,7.958412e-01,7,20
9.093870e-01,8.709431e-01,3,22
1.481929e+00,7.948875e-01,5,20
2.072200e+00,8.969307e-01,7,22

