1.811818e+00,1.053095e+00,6,20
9.073140e-01,8.220673e-01,3,20
2.083269e+00,7.309914e-01,7,18
1.235265e+00,8.819103e-01,4,22
1.483751e+00,9.520054e-01,5,24
8.955060e-01,8.890629e-01,3,22
2.673171e+00,8.778572e-01,9,22
9.006510e-01,9.579659e-01,3,24
8.931770e-01,8.838177e-01,3,22
1.485212e+00,8.108616e-01,5,20
2.086578e+00,9.448528e-01,7,24
2.092202e+00,7.958412e-01,7,20
8.929780e-01,8.850098e-01,3,22
1.488137e+00,8.699894e-01,5,20
2.085932e+00,9.629726e-01,7,22

