2.569661e+00,2.364846e+00,2,2,0.000000e+00,0.000000e+00
3.840991e+00,3.568829e+00,3,3,7.551209e-02,7.551208e-02
3.843891e+00,3.566610e+00,3,3,1.395621e-01,1.395620e-01
3.850341e+00,3.522498e+00,3,3,2.946823e-01,2.946821e-01
3.848691e+00,3.547935e+00,3,3,2.716495e-01,2.716495e-01
3.873050e+00,3.515335e+00,3,3,1.276167e+00,1.276166e+00
3.824979e+00,3.522358e+00,3,3,1.779663e+00,1.779663e+00
3.820665e+00,3.543584e+00,3,3,2.335722e+00,2.335722e+00
3.825596e+00,3.510431e+00,3,3,1.148687e+00,1.148687e+00
3.824831e+00,3.515897e+00,3,3,1.018461e+00,1.018461e+00
3.822018e+00,3.509513e+00,3,3,8.424528e-01,8.424527e-01
3.821655e+00,3.535333e+00,3,3,9.746404e-01,9.746402e-01
3.846337e+00,3.516171e+00,3,3,1.616753e+00,1.616753e+00
3.821260e+00,3.513025e+00,3,3,2.206613e+00,2.206613e+00
3.824385e+00,3.520892e+00,3,3,2.022702e+00,2.022702e+00
3.821432e+00,3.518419e+00,3,3,2.825381e+00,2.825380e+00
3.825930e+00,3.511908e+00,3,3,2.206349e+00,2.206349e+00
3.822964e+00,3.515092e+00,3,3,1.931090e+00,1.931090e+00
3.847853e+00,3.537401e+00,3,3,1.844838e+00,1.844838e+00
3.850952e+00,3.510621e+00,3,3,1.758303e+00,1.758302e+00
3.825081e+00,3.514524e+00,3,3,1.840510e+00,1.840510e+00
3.820792e+00,3.512628e+00,3,3,1.533956e+00,1.533956e+00
3.821493e+00,3.515456e+00,3,3,1.381534e+00,1.381534e+00
3.819217e+00,3.515777e+00,3,3,1.204581e+00,1.204581e+00
3.821337e+00,3.509243e+00,3,3,1.188903e+00,1.188903e+00
3.844702e+00,3.543031e+00,3,3,1.149710e+00,1.149710e+00
3.884330e+00,3.617519e+00,3,3,9.518776e-01,9.518776e-01
3.936641e+00,3.619508e+00,3,3,6.794439e-01,6.794439e-01
3.936367e+00,3.615493e+00,3,3,3.431008e-01,3.431007e-01
3.934593e+00,3.620065e+00,3,3,2.960831e-01,2.960830e-01
3.934626e+00,3.616535e+00,3,3,5.896103e-01,5.896101e-01
3.935615e+00,3.618685e+00,3,3,6.941784e-01,6.941783e-01
3.935692e+00,3.618105e+00,3,3,5.984793e-01,5.984793e-01
3.932388e+00,3.612481e+00,3,3,9.215445e-01,9.215442e-01
3.931742e+00,3.618864e+00,3,3,7.538888e-01,7.538888e-01
3.934530e+00,3.613893e+00,3,3,5.559930e-01,5.559931e-01
3.932707e+00,3.619697e+00,3,3,4.066880e-01,4.066879e-01
3.932420e+00,3.613928e+00,3,3,3.376784e-01,3.376783e-01
3.929226e+00,3.618789e+00,3,3,8.606976e-01,8.606974e-01
3.860334e+00,3.512293e+00,3,3,9.504783e-01,9.504782e-01
3.822622e+00,3.515774e+00,3,3,2.139477e+00,2.139476e+00
3.824235e+00,3.509546e+00,3,3,2.927873e+00,2.927873e+00
3.826619e+00,3.515247e+00,3,3,1.852340e+00,1.852340e+00
3.817320e+00,3.516554e+00,3,3,2.797935e+00,2.797934e+00
3.821301e+00,3.511547e+00,3,3,2.235884e+00,2.235884e+00
3.877750e+00,3.571251e+00,3,3,1.808748e+00,1.808748e+00
3.822775e+00,3.511699e+00,3,3,1.619818e+00,1.619818e+00
3.821812e+00,3.509795e+00,3,3,1.344299e+00,1.344299e+00
3.823728e+00,3.516488e+00,3,3,1.080027e+00,1.080027e+00
3.824122e+00,3.510267e+00,3,3,6.876476e-01,6.876476e-01
3.818609e+00,3.513646e+00,3,3,6.177118e-01,6.177118e-01
3.815424e+00,3.541432e+00,3,3,9.829236e-01,9.829233e-01
3.822207e+00,3.534840e+00,3,3,7.168843e-01,7.168842e-01
3.821219e+00,3.515040e+00,3,3,6.110373e-01,6.110373e-01
3.842786e+00,3.538706e+00,3,3,8.078102e-01,8.078100e-01
3.821395e+00,3.510102e+00,3,3,1.109397e+00,1.109397e+00
3.820982e+00,3.512883e+00,3,3,5.988308e-01,5.988309e-01
3.821645e+00,3.510890e+00,3,3,9.244299e-01,9.244297e-01
3.822355e+00,3.538185e+00,3,3,1.306199e+00,1.306199e+00
3.899781e+00,3.519084e+00,3,3,1.969784e+00,1.969783e+00
3.824132e+00,3.541134e+00,3,3,8.942516e-01,8.942515e-01
3.821160e+00,3.521565e+00,3,3,1.939671e+00,1.939670e+00
3.820750e+00,3.510993e+00,3,3,3.653225e+00,3.653224e+00
3.823664e+00,3.563185e+00,3,3,1.983769e+00,1.983770e+00
3.821427e+00,3.515537e+00,3,3,2.724662e+00,2.724662e+00
3.838770e+00,3.524448e+00,3,3,1.182477e+00,1.182477e+00
3.845009e+00,3.515592e+00,3,3,1.263766e+00,1.263765e+00
3.818635e+00,3.516588e+00,3,3,9.845565e-01,9.845564e-01
3.820898e+00,3.537130e+00,3,3,7.762216e-01,7.762215e-01
3.848945e+00,3.542523e+00,3,3,5.908721e-01,5.908720e-01
3.848359e+00,3.510100e+00,3,3,8.816919e-01,8.816918e-01
3.819767e+00,3.508383e+00,3,3,9.003219e-01,9.003218e-01
3.847928e+00,3.539551e+00,3,3,9.129588e-01,9.129587e-01
3.849002e+00,3.509745e+00,3,3,1.029772e+00,1.029771e+00
3.822535e+00,3.516315e+00,3,3,1.502112e+00,1.502111e+00
3.818972e+00,3.518676e+00,3,3,2.017964e+00,2.017964e+00
3.824540e+00,3.511983e+00,3,3,1.214733e+00,1.214733e+00
3.819961e+00,3.513541e+00,3,3,1.209876e+00,1.209876e+00
3.821563e+00,3.511095e+00,3,3,8.937062e-01,8.937063e-01
3.847017e+00,3.536610e+00,3,3,4.433706e-01,4.433706e-01
3.848211e+00,3.539521e+00,3,3,1.527410e+00,1.527409e+00
3.820938e+00,3.512191e+00,3,3,1.130290e+00,1.130290e+00
3.821756e+00,3.515742e+00,3,3,1.011827e+00,1.011827e+00
3.817622e+00,3.518311e+00,3,3,9.740378e-01,9.740376e-01
3.823492e+00,3.509537e+00,3,3,1.400945e+00,1.400944e+00
3.820327e+00,3.541860e+00,3,3,2.512778e+00,2.512777e+00
3.846692e+00,3.538488e+00,3,3,3.760617e+00,3.760616e+00
3.821487e+00,3.511040e+00,3,3,5.483424e+00,5.483423e+00
3.823681e+00,3.517858e+00,3,3,4.458069e+00,4.458070e+00
3.824518e+00,3.513367e+00,3,3,3.182345e+00,3.182346e+00
3.823847e+00,3.514071e+00,3,3,2.454093e+00,2.454093e+00
3.818785e+00,3.515471e+00,3,3,1.719397e+00,1.719397e+00
3.847760e+00,3.535927e+00,3,3,2.433287e+00,2.433286e+00
3.850405e+00,3.513570e+00,3,3,1.807901e+00,1.807901e+00
3.816999e+00,3.512735e+00,3,3,2.327531e+00,2.327532e+00
3.820994e+00,3.537769e+00,3,3,2.510070e+00,2.510071e+00
3.820687e+00,3.514850e+00,3,3,1.084532e+00,1.084533e+00
3.821648e+00,3.512554e+00,3,3,9.374207e-01,9.374206e-01
3.819529e+00,3.510884e+00,3,3,1.319558e+00,1.319558e+00
3.843527e+00,3.541643e+00,3,3,1.415889e+00,1.415889e+00
3.845719e+00,3.514268e+00,3,3,1.066766e+00,1.066766e+00
3.821708e+00,3.516509e+00,3,3,1.238101e+00,1.238101e+00
3.841969e+00,3.540414e+00,3,3,7.214969e-01,7.214969e-01
3.847481e+00,3.511548e+00,3,3,6.568648e-01,6.568648e-01
3.844528e+00,3.542774e+00,3,3,5.438513e-01,5.438513e-01
3.822173e+00,3.511366e+00,3,3,5.784202e-01,5.784201e-01
3.845900e+00,3.516842e+00,3,3,8.078967e-01,8.078965e-01
3.830396e+00,3.517801e+00,3,3,8.817768e-01,8.817767e-01
3.824789e+00,3.511038e+00,3,3,5.667879e-01,5.667880e-01
3.819437e+00,3.516447e+00,3,3,5.720606e-01,5.720605e-01
3.817067e+00,3.515401e+00,3,3,5.279835e-01,5.279834e-01
3.820527e+00,3.510956e+00,3,3,4.518010e-01,4.518009e-01
3.819507e+00,3.514146e+00,3,3,3.135725e-01,3.135725e-01
3.871613e+00,3.535348e+00,3,3,5.541243e-01,5.541240e-01
3.818341e+00,3.549004e+00,3,3,2.932877e-01,2.932877e-01
3.817507e+00,3.513738e+00,3,3,3.389797e-01,3.389797e-01
3.818734e+00,3.510069e+00,3,3,8.799552e-01,8.799548e-01
3.820065e+00,3.513450e+00,3,3,6.417448e-01,6.417448e-01
3.815303e+00,3.517716e+00,3,3,2.071143e+00,2.071143e+00
3.823824e+00,3.537314e+00,3,3,1.435506e+00,1.435506e+00
3.850207e+00,3.540915e+00,3,3,1.390175e+00,1.390175e+00
3.821496e+00,3.511436e+00,3,3,1.731344e+00,1.731344e+00
3.823078e+00,3.510286e+00,3,3,1.563279e+00,1.563279e+00
3.821383e+00,3.515938e+00,3,3,1.722313e+00,1.722313e+00
3.824824e+00,3.512704e+00,3,3,3.041310e+00,3.041309e+00
3.825694e+00,3.513954e+00,3,3,1.973577e+00,1.973578e+00
3.818639e+00,3.541897e+00,3,3,1.500037e+00,1.500037e+00
3.874995e+00,3.512516e+00,3,3,1.307087e+00,1.307087e+00
3.821235e+00,3.514790e+00,3,3,7.837207e-01,7.837203e-01
3.821432e+00,3.510988e+00,3,3,8.577162e-01,8.577159e-01
3.819515e+00,3.511485e+00,3,3,5.381583e-01,5.381582e-01
3.817061e+00,3.515491e+00,3,3,7.102339e-01,7.102337e-01
3.823136e+00,3.510608e+00,3,3,3.163725e-01,3.163725e-01
3.846184e+00,3.511759e+00,3,3,2.572584e-01,2.572584e-01
3.844912e+00,3.514952e+00,3,3,2.640276e-01,2.640276e-01
3.819285e+00,3.511780e+00,3,3,5.737759e-01,5.737756e-01
3.846933e+00,3.514735e+00,3,3,5.918175e-01,5.918174e-01
3.844581e+00,3.539418e+00,3,3,5.015503e-01,5.015503e-01
3.849092e+00,3.511493e+00,3,3,5.462994e-01,5.462994e-01
3.820154e+00,3.514835e+00,3,3,4.626902e-01,4.626902e-01
3.845552e+00,3.561199e+00,3,3,8.631047e-01,8.631044e-01
3.820013e+00,3.515242e+00,3,3,1.472360e+00,1.472359e+00
3.818605e+00,3.517642e+00,3,3,1.662220e+00,1.662220e+00
3.848044e+00,3.511143e+00,3,3,1.301747e+00,1.301747e+00
3.822225e+00,3.512677e+00,3,3,1.159393e+00,1.159393e+00
3.817483e+00,3.511787e+00,3,3,1.072057e+00,1.072057e+00
3.844816e+00,3.509328e+00,3,3,7.684550e-01,7.684553e-01
3.846344e+00,3.541969e+00,3,3,6.784226e-01,6.784221e-01
3.844497e+00,3.514937e+00,3,3,1.196365e+00,1.196364e+00
3.823730e+00,3.520153e+00,3,3,1.709870e+00,1.709870e+00
3.817638e+00,3.514234e+00,3,3,1.043961e+00,1.043961e+00
3.823102e+00,3.511026e+00,3,3,9.875633e-01,9.875632e-01
3.823403e+00,3.515545e+00,3,3,8.865501e-01,8.865500e-01
3.820083e+00,3.541155e+00,3,3,8.128659e-01,8.128659e-01
3.845750e+00,3.538326e+00,3,3,6.697431e-01,6.697431e-01
3.822828e+00,3.515391e+00,3,3,7.530458e-01,7.530456e-01
3.820952e+00,3.512596e+00,3,3,1.230954e+00,1.230953e+00
3.821669e+00,3.513916e+00,3,3,1.183055e+00,1.183055e+00
3.823269e+00,3.514273e+00,3,3,1.252972e+00,1.252972e+00
3.819765e+00,3.509390e+00,3,3,1.423246e+00,1.423246e+00
3.823438e+00,3.539805e+00,3,3,6.507800e-01,6.507800e-01
3.843973e+00,3.518133e+00,3,3,5.206114e-01,5.206114e-01
3.821550e+00,3.518410e+00,3,3,5.456169e-01,5.456168e-01
3.822326e+00,3.521835e+00,3,3,2.479467e-01,2.479466e-01
3.823568e+00,3.670988e+00,3,3,2.496599e-01,2.496599e-01
3.825544e+00,3.544485e+00,3,3,4.269946e-01,4.269946e-01
3.843102e+00,3.542431e+00,3,3,3.637096e-01,3.637096e-01
3.848916e+00,3.537864e+00,3,3,9.785977e-01,9.785973e-01
3.849119e+00,3.514958e+00,3,3,7.268657e-01,7.268656e-01
3.822102e+00,3.510840e+00,3,3,5.136781e-01,5.136780e-01
3.848532e+00,3.515159e+00,3,3,4.576685e-01,4.576684e-01
3.842959e+00,3.544657e+00,3,3,4.659262e-01,4.659261e-01
3.848612e+00,3.512337e+00,3,3,4.789425e-01,4.789424e-01
3.820427e+00,3.516504e+00,3,3,3.020691e-01,3.020691e-01
3.843871e+00,3.536959e+00,3,3,3.394996e-01,3.394995e-01
3.822236e+00,3.509730e+00,3,3,2.773580e-01,2.773579e-01
3.820907e+00,3.541552e+00,3,3,2.395138e-01,2.395138e-01
3.821075e+00,3.513346e+00,3,3,6.457986e-01,6.457982e-01
3.824316e+00,3.516306e+00,3,3,4.074308e-01,4.074307e-01
3.816959e+00,3.515324e+00,3,3,6.452892e-01,6.452890e-01
3.821234e+00,3.535744e+00,3,3,1.041436e+00,1.041436e+00
3.848597e+00,3.539850e+00,3,3,8.929571e-01,8.929569e-01
3.826459e+00,3.513075e+00,3,3,1.012421e+00,1.012420e+00
3.822041e+00,3.509688e+00,3,3,7.096699e-01,7.096699e-01
3.819137e+00,3.517472e+00,3,3,7.097771e-01,7.097770e-01
3.821326e+00,3.514093e+00,3,3,8.114543e-01,8.114541e-01
3.819518e+00,3.510418e+00,3,3,1.782574e+00,1.782573e+00
3.823214e+00,3.540878e+00,3,3,2.360399e+00,2.360398e+00
3.850751e+00,3.512768e+00,3,3,2.091286e+00,2.091286e+00
3.823239e+00,3.540382e+00,3,3,1.700507e+00,1.700507e+00
3.817414e+00,3.521084e+00,3,3,1.573464e+00,1.573464e+00
3.822216e+00,3.517043e+00,3,3,1.068439e+00,1.068440e+00
3.820673e+00,3.515639e+00,3,3,1.055490e+00,1.055490e+00
3.821016e+00,3.510249e+00,3,3,1.037041e+00,1.037041e+00
3.833337e+00,3.579992e+00,3,3,7.956397e-01,7.956397e-01
3.842144e+00,3.516300e+00,3,3,7.031926e-01,7.031926e-01
3.820475e+00,3.509901e+00,3,3,1.431417e+00,1.431416e+00
3.820645e+00,3.514570e+00,3,3,2.982531e+00,2.982531e+00
3.817281e+00,3.513557e+00,3,3,3.031353e+00,3.031369e+00
3.821082e+00,3.511893e+00,3,3,3.054806e+00,3.054807e+00
3.822263e+00,3.514279e+00,3,3,3.560092e+00,3.560092e+00
3.848526e+00,3.514830e+00,3,3,5.094646e+00,5.094644e+00
3.850563e+00,3.512884e+00,3,3,3.266819e+00,3.266820e+00
3.820474e+00,3.516230e+00,3,3,3.985969e+00,3.985968e+00
3.849261e+00,3.538731e+00,3,3,3.077072e+00,3.077072e+00
3.853939e+00,3.547032e+00,3,3,2.875826e+00,2.875826e+00
3.820922e+00,3.518606e+00,3,3,1.974571e+00,1.974572e+00
3.822829e+00,3.511806e+00,3,3,2.489593e+00,2.489592e+00
3.875097e+00,3.543091e+00,3,3,1.671669e+00,1.671669e+00
3.822942e+00,3.511487e+00,3,3,2.163022e+00,2.163022e+00
3.824085e+00,3.521796e+00,3,3,7.060763e-01,7.060765e-01
3.815802e+00,3.518203e+00,3,3,9.278443e-01,9.278439e-01
3.823661e+00,3.512200e+00,3,3,1.801419e+00,1.801419e+00
3.823385e+00,3.513138e+00,3,3,1.390243e+00,1.390243e+00
3.816849e+00,3.542781e+00,3,3,2.192526e+00,2.192526e+00
3.823683e+00,3.537593e+00,3,3,1.943535e+00,1.943535e+00
3.822759e+00,3.516188e+00,3,3,3.271278e+00,3.271278e+00
3.824102e+00,3.519517e+00,3,3,1.690168e+00,1.690168e+00
3.822120e+00,3.510852e+00,3,3,1.412966e+00,1.412966e+00
3.820118e+00,3.517369e+00,3,3,1.101833e+00,1.101833e+00
3.822616e+00,3.519357e+00,3,3,1.109890e+00,1.109890e+00
3.822903e+00,3.544214e+00,3,3,1.180572e+00,1.180572e+00
3.867685e+00,3.518614e+00,3,3,1.771004e+00,1.771004e+00
3.823701e+00,3.511277e+00,3,3,7.989906e-01,7.989910e-01
3.823871e+00,3.514547e+00,3,3,5.277676e-01,5.277676e-01
3.821750e+00,3.512218e+00,3,3,5.981896e-01,5.981894e-01
3.820274e+00,3.511344e+00,3,3,5.715104e-01,5.715102e-01
3.819939e+00,3.513073e+00,3,3,4.452613e-01,4.452613e-01
3.846782e+00,3.510279e+00,3,3,7.191406e-01,7.191403e-01
3.845061e+00,3.514128e+00,3,3,1.052376e+00,1.052376e+00
3.818084e+00,3.514480e+00,3,3,1.601037e+00,1.601036e+00
3.846034e+00,3.618610e+00,3,3,3.478609e+00,3.478608e+00
3.935677e+00,3.620581e+00,3,3,4.514009e+00,4.514008e+00
3.938606e+00,3.619559e+00,3,3,3.065471e+00,3.065472e+00
3.931214e+00,3.619638e+00,3,3,3.784558e+00,3.784557e+00
3.936500e+00,3.618255e+00,3,3,2.730909e+00,2.730909e+00
3.938691e+00,3.614425e+00,3,3,2.168827e+00,2.168827e+00
3.935473e+00,3.618431e+00,3,3,2.418019e+00,2.418019e+00
3.935978e+00,3.615465e+00,3,3,1.306380e+00,1.306381e+00
3.934861e+00,3.621054e+00,3,3,9.994601e-01,9.994596e-01
3.936614e+00,3.619294e+00,3,3,7.696718e-01,7.696718e-01
3.929004e+00,3.580854e+00,3,3,7.205179e-01,7.205178e-01
3.823953e+00,3.536844e+00,3,3,6.833545e-01,6.833544e-01
3.821266e+00,3.513949e+00,3,3,1.060750e+00,1.060750e+00
3.823632e+00,3.517242e+00,3,3,3.632652e-01,3.632652e-01
3.821366e+00,3.514447e+00,3,3,1.456896e+00,1.456895e+00
3.817468e+00,3.513507e+00,3,3,3.221339e+00,3.221338e+00
3.823308e+00,3.511429e+00,3,3,1.879966e+00,1.879967e+00
3.822734e+00,3.565054e+00,3,3,1.342876e+00,1.342876e+00
3.854486e+00,3.512361e+00,3,3,1.100848e+00,1.100848e+00
3.822939e+00,3.511472e+00,3,3,9.350391e-01,9.350391e-01
3.820484e+00,3.513096e+00,3,3,8.765797e-01,8.765796e-01
3.820261e+00,3.509508e+00,3,3,1.483488e+00,1.483487e+00
3.822568e+00,3.520127e+00,3,3,1.146398e+00,1.146398e+00
3.824025e+00,3.516431e+00,3,3,8.245375e-01,8.245376e-01
3.849687e+00,3.511700e+00,3,3,9.175511e-01,9.175510e-01
3.845120e+00,3.516144e+00,3,3,1.572600e+00,1.572599e+00
3.819910e+00,3.514815e+00,3,3,2.548006e+00,2.548005e+00
3.826003e+00,3.511155e+00,3,3,4.638468e+00,4.638466e+00
3.825536e+00,3.519274e+00,3,3,5.660153e+00,5.660151e+00
3.825989e+00,3.512855e+00,3,3,5.111811e+00,5.111811e+00
3.852861e+00,3.510278e+00,3,3,5.361426e+00,5.361426e+00
3.874797e+00,3.541506e+00,3,3,4.518844e+00,4.518844e+00
3.822823e+00,3.510784e+00,3,3,4.751984e+00,4.751984e+00
3.825274e+00,3.519635e+00,3,3,4.746634e+00,4.746634e+00
3.827352e+00,3.517094e+00,3,3,3.913832e+00,3.913832e+00
3.824962e+00,3.514218e+00,3,3,3.373795e+00,3.373795e+00
3.827259e+00,3.514514e+00,3,3,2.596153e+00,2.596153e+00
3.825464e+00,3.536941e+00,3,3,2.364516e+00,2.364516e+00
3.825843e+00,3.538646e+00,3,3,2.377071e+00,2.377071e+00
3.823266e+00,3.516575e+00,3,3,3.044289e+00,3.044291e+00
3.847332e+00,3.542989e+00,3,3,5.471063e+00,5.469932e+00
7.679261e+00,7.038489e+00,6,6,5.713010e+00,5.711239e+00
6.358281e+00,5.845883e+00,5,5,6.257296e+00,6.256967e+00
5.141124e+00,4.708879e+00,4,4,5.303539e+00,5.303540e+00
3.826509e+00,3.515292e+00,3,3,5.338715e+00,5.338716e+00
3.825577e+00,3.517505e+00,3,3,6.515717e+00,6.515717e+00
3.824480e+00,3.516668e+00,3,3,6.035045e+00,6.035045e+00
3.826110e+00,3.519068e+00,3,3,5.027730e+00,5.027730e+00
3.818341e+00,3.520527e+00,3,3,4.242592e+00,4.242592e+00
3.822864e+00,3.527132e+00,3,3,3.761789e+00,3.761788e+00
3.852146e+00,3.518884e+00,3,3,3.222025e+00,3.222025e+00
3.823098e+00,3.513349e+00,3,3,2.958972e+00,2.958972e+00
3.821741e+00,3.513947e+00,3,3,3.072679e+00,3.072679e+00
3.822095e+00,3.519866e+00,3,3,1.689586e+00,1.689587e+00
3.825286e+00,3.510568e+00,3,3,1.466490e+00,1.466490e+00
3.823608e+00,3.512539e+00,3,3,1.622645e+00,1.622644e+00
3.874786e+00,3.547281e+00,3,3,1.120970e+00,1.120970e+00
3.847216e+00,3.511335e+00,3,3,9.459962e-01,9.459962e-01
3.822410e+00,3.518167e+00,3,3,7.684255e-01,7.684254e-01
3.818664e+00,3.515682e+00,3,3,4.885183e-01,4.885184e-01
3.822948e+00,3.509736e+00,3,3,3.703970e-01,3.703967e-01
3.820166e+00,3.514882e+00,3,3,2.797297e-01,2.797296e-01
3.820395e+00,3.510425e+00,3,3,3.974026e-01,3.974025e-01
3.846836e+00,3.539193e+00,3,3,5.354265e-01,5.354264e-01
3.825223e+00,3.514645e+00,3,3,3.592154e-01,3.592154e-01
3.820760e+00,3.510877e+00,3,3,4.040961e-01,4.040959e-01
3.820301e+00,3.515902e+00,3,3,1.113163e+00,1.113163e+00
3.829841e+00,3.514276e+00,3,3,2.515820e+00,2.515818e+00
3.850330e+00,3.511421e+00,3,3,3.426457e+00,3.426456e+00
3.824239e+00,3.567613e+00,3,3,2.879434e+00,2.879434e+00
3.848409e+00,3.535980e+00,3,3,3.110358e+00,3.110358e+00
3.825966e+00,3.517815e+00,3,3,3.024905e+00,3.024905e+00
3.819086e+00,3.541098e+00,3,3,2.671658e+00,2.671658e+00
3.821997e+00,3.537413e+00,3,3,2.112219e+00,2.112219e+00
3.851832e+00,3.543813e+00,3,3,2.070677e+00,2.070677e+00
3.822146e+00,3.514175e+00,3,3,3.677848e+00,3.677847e+00
3.824822e+00,3.538907e+00,3,3,4.748285e+00,4.748284e+00
3.848362e+00,3.516899e+00,3,3,5.601877e+00,5.601877e+00
3.824803e+00,3.511847e+00,3,3,4.561990e+00,4.561991e+00
3.826121e+00,3.516244e+00,3,3,3.478402e+00,3.478403e+00
3.821752e+00,3.516838e+00,3,3,2.544122e+00,2.544122e+00
3.822849e+00,3.513272e+00,3,3,2.076842e+00,2.076842e+00
3.821681e+00,3.513999e+00,3,3,2.759522e+00,2.759520e+00
3.849727e+00,3.535281e+00,3,3,2.751329e+00,2.751329e+00
3.876783e+00,3.510434e+00,3,3,2.069405e+00,2.069405e+00
3.822016e+00,3.516359e+00,3,3,2.024263e+00,2.024264e+00
3.820187e+00,3.511904e+00,3,3,2.326175e+00,2.326219e+00
3.822983e+00,3.516475e+00,3,3,2.414221e+00,2.414222e+00
3.818039e+00,3.515478e+00,3,3,2.956548e+00,2.956547e+00
3.824145e+00,3.511671e+00,3,3,2.350924e+00,2.350924e+00
3.848440e+00,3.515120e+00,3,3,3.067178e+00,3.067178e+00
3.844678e+00,3.511481e+00,3,3,3.023787e+00,3.023787e+00
3.847628e+00,3.510545e+00,3,3,2.527911e+00,2.527911e+00
3.822544e+00,3.516540e+00,3,3,2.091117e+00,2.091117e+00
3.822821e+00,3.510001e+00,3,3,2.201043e+00,2.201043e+00
3.837614e+00,3.513923e+00,3,3,2.211135e+00,2.211135e+00
3.821866e+00,3.519105e+00,3,3,1.630544e+00,1.630545e+00
3.875476e+00,3.545690e+00,3,3,1.629960e+00,1.629959e+00
3.848419e+00,3.517796e+00,3,3,1.065575e+00,1.065575e+00
3.847580e+00,3.515941e+00,3,3,8.781361e-01,8.781361e-01
3.823518e+00,3.538065e+00,3,3,5.657123e-01,5.657123e-01
3.820252e+00,3.517111e+00,3,3,3.838170e-01,3.838169e-01
3.821134e+00,3.511852e+00,3,3,2.168859e-01,2.168859e-01
3.821165e+00,3.539968e+00,3,3,4.077928e-01,4.077926e-01
3.816099e+00,3.541242e+00,3,3,2.298410e-01,2.298409e-01
3.821453e+00,3.508902e+00,3,3,2.219913e-01,2.219912e-01
3.822692e+00,3.538620e+00,3,3,1.341587e-01,1.341586e-01
3.847370e+00,3.544400e+00,3,3,1.470552e-01,1.470552e-01
3.848371e+00,3.509519e+00,3,3,1.317567e-01,1.317567e-01
3.818768e+00,3.515564e+00,3,3,3.249661e-01,3.249660e-01
3.821172e+00,3.562335e+00,3,3,2.494326e-01,2.494325e-01
3.847900e+00,3.514708e+00,3,3,2.719725e-01,2.719723e-01
3.816643e+00,3.542043e+00,3,3,5.470065e-01,5.470063e-01
3.826798e+00,3.513169e+00,3,3,2.990698e-01,2.990698e-01
3.975814e+00,3.618729e+00,3,3,4.258677e-01,4.258677e-01
3.922139e+00,3.604970e+00,3,3,4.303108e-01,4.303107e-01
3.917892e+00,3.589973e+00,3,3,7.248237e-01,7.248235e-01
3.948231e+00,3.590696e+00,3,3,5.522409e-01,5.522408e-01
3.926435e+00,3.588470e+00,3,3,3.638423e-01,3.638423e-01
3.928005e+00,3.617471e+00,3,3,2.660243e-01,2.660243e-01
3.930385e+00,3.614390e+00,3,3,3.563770e-01,3.563769e-01
3.933802e+00,3.615271e+00,3,3,3.281880e-01,3.281880e-01
3.934617e+00,3.613466e+00,3,3,2.648641e-01,2.648641e-01
3.931393e+00,3.622039e+00,3,3,4.637969e-01,4.637969e-01
3.934630e+00,3.618536e+00,3,3,3.516939e-01,3.516939e-01
3.931401e+00,3.614054e+00,3,3,5.227982e-01,5.227981e-01
3.934206e+00,3.618560e+00,3,3,9.247090e-01,9.247087e-01
3.932644e+00,3.613976e+00,3,3,8.107850e-01,8.107849e-01
3.934398e+00,3.617924e+00,3,3,7.181155e-01,7.181154e-01
3.931983e+00,3.614366e+00,3,3,1.643258e+00,1.643257e+00
3.935092e+00,3.619789e+00,3,3,1.994016e+00,1.994016e+00
3.935274e+00,3.618580e+00,3,3,1.134334e+00,1.134334e+00
3.933515e+00,3.614546e+00,3,3,8.482995e-01,8.482996e-01
3.935748e+00,3.619157e+00,3,3,6.537288e-01,6.537287e-01
3.935005e+00,3.611102e+00,3,3,4.364268e-01,4.364268e-01
3.930960e+00,3.616951e+00,3,3,3.864401e-01,3.864400e-01
3.934797e+00,3.613520e+00,3,3,5.548976e-01,5.548975e-01
3.934965e+00,3.615862e+00,3,3,5.307643e-01,5.307643e-01
3.935925e+00,3.617335e+00,3,3,2.639973e-01,2.639972e-01
3.932549e+00,3.613256e+00,3,3,7.177026e-01,7.177024e-01
3.934037e+00,3.617944e+00,3,3,3.984592e-01,3.984592e-01
3.932914e+00,3.615423e+00,3,3,3.519681e-01,3.519680e-01
3.933674e+00,3.619662e+00,3,3,4.923571e-01,4.923570e-01
3.933975e+00,3.613607e+00,3,3,4.030473e-01,4.030473e-01
3.932011e+00,3.620043e+00,3,3,4.731872e-01,4.731871e-01
3.932938e+00,3.617720e+00,3,3,6.026992e-01,6.026991e-01
3.936363e+00,3.615128e+00,3,3,4.756017e-01,4.756016e-01
3.932381e+00,3.618231e+00,3,3,4.945690e-01,4.945688e-01
3.933609e+00,3.613747e+00,3,3,6.169641e-01,6.169640e-01
3.932547e+00,3.616545e+00,3,3,7.574959e-01,7.574957e-01
3.932660e+00,3.614792e+00,3,3,1.135819e+00,1.135819e+00
3.929329e+00,3.617017e+00,3,3,7.866710e-01,7.866711e-01
3.933632e+00,3.618434e+00,3,3,7.566152e-01,7.566149e-01
3.936356e+00,3.614848e+00,3,3,7.321452e-01,7.321452e-01
3.933922e+00,3.619746e+00,3,3,7.926656e-01,7.926655e-01
3.934620e+00,3.613151e+00,3,3,6.555935e-01,6.555935e-01
3.934221e+00,3.625715e+00,3,3,1.115601e+00,1.115601e+00
3.934934e+00,3.617205e+00,3,3,8.292409e-01,8.292409e-01
3.929219e+00,3.616714e+00,3,3,7.751496e-01,7.751495e-01
3.932194e+00,3.618275e+00,3,3,7.596656e-01,7.596656e-01
3.933490e+00,3.615899e+00,3,3,6.878775e-01,6.878775e-01
3.936107e+00,3.616625e+00,3,3,4.928153e-01,4.928153e-01
3.932570e+00,3.613106e+00,3,3,6.019904e-01,6.019902e-01
3.932178e+00,3.624924e+00,3,3,6.788456e-01,6.788454e-01
3.932275e+00,3.615829e+00,3,3,4.668361e-01,4.668360e-01
3.928795e+00,3.616688e+00,3,3,8.782914e-01,8.782911e-01
3.933527e+00,3.619997e+00,3,3,6.180956e-01,6.180956e-01
3.935655e+00,3.613966e+00,3,3,5.652572e-01,5.652571e-01
3.934929e+00,3.616790e+00,3,3,5.058808e-01,5.058808e-01
3.933147e+00,3.612182e+00,3,3,3.970669e-01,3.970667e-01
3.932430e+00,3.618851e+00,3,3,2.920336e-01,2.920335e-01
3.931831e+00,3.619536e+00,3,3,5.797284e-01,5.797282e-01
3.928922e+00,3.616416e+00,3,3,4.997496e-01,4.997496e-01
3.944508e+00,3.618398e+00,3,3,5.083716e-01,5.083715e-01
3.937135e+00,3.617056e+00,3,3,4.754079e-01,4.754078e-01
3.934425e+00,3.616963e+00,3,3,3.696141e-01,3.696140e-01
3.930952e+00,3.611692e+00,3,3,4.437754e-01,4.437754e-01
3.932409e+00,3.617486e+00,3,3,3.442546e-01,3.442546e-01
3.935242e+00,3.625227e+00,3,3,1.454145e+00,1.454144e+00
3.933555e+00,3.615548e+00,3,3,3.218433e+00,3.218432e+00
3.935266e+00,3.619760e+00,3,3,2.417712e+00,2.417713e+00
3.939279e+00,3.618366e+00,3,3,1.723471e+00,1.723471e+00
3.936149e+00,3.619996e+00,3,3,1.264275e+00,1.264274e+00
3.935286e+00,3.617831e+00,3,3,1.366921e+00,1.366921e+00
3.937925e+00,3.617663e+00,3,3,1.080434e+00,1.080434e+00
3.934233e+00,3.619549e+00,3,3,1.043215e+00,1.043214e+00
3.933981e+00,3.616783e+00,3,3,1.256931e+00,1.256930e+00
3.935225e+00,3.620038e+00,3,3,1.434086e+00,1.434086e+00
3.935634e+00,3.616471e+00,3,3,1.312171e+00,1.312171e+00
3.936256e+00,3.618307e+00,3,3,1.397984e+00,1.397984e+00
3.933612e+00,3.614095e+00,3,3,1.863006e+00,1.863005e+00
3.930872e+00,3.621863e+00,3,3,1.373502e+00,1.373502e+00
3.933728e+00,3.618731e+00,3,3,9.297248e-01,9.297249e-01
3.936707e+00,3.619966e+00,3,3,5.499694e-01,5.499695e-01
3.932078e+00,3.619895e+00,3,3,3.668122e-01,3.668122e-01
3.931318e+00,3.617265e+00,3,3,2.877344e-01,2.877343e-01
3.930928e+00,3.619727e+00,3,3,3.947813e-01,3.947812e-01
3.933111e+00,3.617780e+00,3,3,2.789106e-01,2.789106e-01
3.928114e+00,3.617821e+00,3,3,4.675782e-01,4.675781e-01
3.934416e+00,3.616854e+00,3,3,4.970870e-01,4.970870e-01
3.932955e+00,3.614595e+00,3,3,4.618472e-01,4.618472e-01
3.933610e+00,3.621937e+00,3,3,5.953705e-01,5.953702e-01
3.934273e+00,3.621324e+00,3,3,3.315649e-01,3.315649e-01
3.932216e+00,3.622943e+00,3,3,2.690293e-01,2.690293e-01
3.935977e+00,3.626758e+00,3,3,1.439724e+00,1.439723e+00
3.929728e+00,3.620022e+00,3,3,1.497785e+00,1.497785e+00
3.938783e+00,3.622274e+00,3,3,7.278902e-01,7.278904e-01
3.945384e+00,3.621362e+00,3,3,7.181027e-01,7.181026e-01
3.935614e+00,3.615894e+00,3,3,6.287868e-01,6.287868e-01
3.936697e+00,3.635346e+00,3,3,6.738957e-01,6.738956e-01
3.896683e+00,3.641703e+00,3,3,3.442821e-01,3.442821e-01
3.896050e+00,3.618544e+00,3,3,2.891120e-01,2.891119e-01
3.925347e+00,3.596563e+00,3,3,5.501599e-01,5.501598e-01
3.934350e+00,3.619254e+00,3,3,6.853907e-01,6.853906e-01
3.934755e+00,3.613726e+00,3,3,8.436226e-01,8.436225e-01
3.933300e+00,3.619059e+00,3,3,5.492943e-01,5.492943e-01
3.933294e+00,3.613245e+00,3,3,5.278050e-01,5.278049e-01
3.932961e+00,3.619637e+00,3,3,7.921355e-01,7.921352e-01
3.934824e+00,3.619970e+00,3,3,1.174981e+00,1.174981e+00
3.934655e+00,3.614316e+00,3,3,1.302907e+00,1.302907e+00
3.933607e+00,3.618812e+00,3,3,1.817128e+00,1.817128e+00
3.935550e+00,3.614986e+00,3,3,1.715595e+00,1.715595e+00
3.934995e+00,3.619662e+00,3,3,2.668153e+00,2.668169e+00
3.938824e+00,3.615663e+00,3,3,1.115506e+00,1.115507e+00
3.935386e+00,3.618207e+00,3,3,9.496711e-01,9.496710e-01
3.935188e+00,3.619280e+00,3,3,1.501075e+00,1.501074e+00
3.935867e+00,3.615086e+00,3,3,7.347724e-01,7.347726e-01
3.934692e+00,3.620044e+00,3,3,6.039009e-01,6.039009e-01
3.933158e+00,3.613917e+00,3,3,4.902778e-01,4.902778e-01
3.937974e+00,3.618447e+00,3,3,3.288280e-01,3.288280e-01
3.934991e+00,3.616338e+00,3,3,6.713491e-01,6.713488e-01
3.935875e+00,3.619675e+00,3,3,4.977139e-01,4.977139e-01
3.935938e+00,3.615226e+00,3,3,2.836719e-01,2.836719e-01
3.935195e+00,3.616059e+00,3,3,6.883872e-01,6.883870e-01
3.939123e+00,3.619024e+00,3,3,4.772303e-01,4.772303e-01
3.934261e+00,3.614578e+00,3,3,2.511179e-01,2.511178e-01
3.932928e+00,3.619487e+00,3,3,2.738165e-01,2.738165e-01
3.931128e+00,3.614389e+00,3,3,3.426205e-01,3.426204e-01
3.930065e+00,3.617709e+00,3,3,5.175609e-01,5.175607e-01
3.934525e+00,3.617941e+00,3,3,1.085640e+00,1.085639e+00
3.936931e+00,3.613698e+00,3,3,7.889606e-01,7.889600e-01
3.936713e+00,3.619716e+00,3,3,1.428628e+00,1.428628e+00
3.938160e+00,3.615844e+00,3,3,6.237796e-01,6.237799e-01
3.932823e+00,3.615826e+00,3,3,4.969001e-01,4.969001e-01
3.933294e+00,3.620130e+00,3,3,3.323368e-01,3.323369e-01
3.932148e+00,3.619864e+00,3,3,3.054061e-01,3.054060e-01
3.937065e+00,3.617735e+00,3,3,8.581275e-01,8.581271e-01
3.936543e+00,3.614980e+00,3,3,8.560419e-01,8.560418e-01
3.935874e+00,3.619464e+00,3,3,1.314360e+00,1.314359e+00
3.936006e+00,3.613063e+00,3,3,1.349009e+00,1.349009e+00
3.933833e+00,3.618668e+00,3,3,1.548528e+00,1.548528e+00
3.935885e+00,3.620571e+00,3,3,2.537457e+00,2.537456e+00
3.940217e+00,3.613652e+00,3,3,2.841284e+00,2.841284e+00
3.937746e+00,3.618220e+00,3,3,2.122476e+00,2.122477e+00
3.934582e+00,3.615699e+00,3,3,1.906988e+00,1.906988e+00
3.940038e+00,3.617713e+00,3,3,2.680225e+00,2.680224e+00
3.934617e+00,3.616149e+00,3,3,1.820728e+00,1.820728e+00
3.936741e+00,3.616993e+00,3,3,1.509573e+00,1.509573e+00
3.938693e+00,3.618424e+00,3,3,1.527033e+00,1.527033e+00
3.936473e+00,3.615457e+00,3,3,1.650989e+00,1.650989e+00
3.937708e+00,3.620512e+00,3,3,1.808075e+00,1.808075e+00
3.934997e+00,3.614596e+00,3,3,1.332615e+00,1.332615e+00
3.935874e+00,3.620332e+00,3,3,1.278934e+00,1.278934e+00
3.934990e+00,3.615366e+00,3,3,1.640311e+00,1.640310e+00
3.937639e+00,3.617834e+00,3,3,1.799944e+00,1.799944e+00
3.935870e+00,3.619203e+00,3,3,1.140216e+00,1.140216e+00
3.934479e+00,3.613978e+00,3,3,1.096292e+00,1.096292e+00
3.932593e+00,3.619750e+00,3,3,6.438806e-01,6.438808e-01
3.931924e+00,3.613023e+00,3,3,6.245239e-01,6.245239e-01

