2.559168e+00,2.366336e+00,2,2,0.000000e+00,0.000000e+00
3.871263e+00,3.571315e+00,3,3,7.551209e-02,7.551208e-02
3.864585e+00,3.547266e+00,3,3,1.395621e-01,1.395620e-01
3.825155e+00,3.519787e+00,3,3,2.946823e-01,2.946821e-01
3.822230e+00,3.513056e+00,3,3,2.716495e-01,2.716495e-01
3.826179e+00,3.532017e+00,3,3,1.276167e+00,1.276166e+00
3.853154e+00,3.547075e+00,3,3,1.779663e+00,1.779663e+00
3.880754e+00,3.565619e+00,3,3,2.335722e+00,2.335722e+00
3.831462e+00,3.539737e+00,3,3,1.148687e+00,1.148687e+00
3.852044e+00,3.507660e+00,3,3,1.018461e+00,1.018461e+00
3.827966e+00,3.508296e+00,3,3,8.424528e-01,8.424527e-01
3.828064e+00,3.512744e+00,3,3,9.746404e-01,9.746402e-01
3.832158e+00,3.508406e+00,3,3,1.616753e+00,1.616753e+00
3.828463e+00,3.514643e+00,3,3,2.206613e+00,2.206613e+00
3.828153e+00,3.510313e+00,3,3,2.022702e+00,2.022702e+00
3.853033e+00,3.507744e+00,3,3,2.825381e+00,2.825380e+00
3.856563e+00,3.510855e+00,3,3,2.206349e+00,2.206349e+00
3.823578e+00,3.513766e+00,3,3,1.931090e+00,1.931090e+00
3.827677e+00,3.508357e+00,3,3,1.844838e+00,1.844838e+00
3.829516e+00,3.514362e+00,3,3,1.758303e+00,1.758302e+00
3.826907e+00,3.538386e+00,3,3,1.840510e+00,1.840510e+00
3.827382e+00,3.507527e+00,3,3,1.533956e+00,1.533956e+00
3.855482e+00,3.518715e+00,3,3,1.381534e+00,1.381534e+00
3.853919e+00,3.513747e+00,3,3,1.204581e+00,1.204581e+00
3.826715e+00,3.511250e+00,3,3,1.188903e+00,1.188903e+00
3.822511e+00,3.511802e+00,3,3,1.149710e+00,1.149710e+00
3.827836e+00,3.507727e+00,3,3,9.518776e-01,9.518776e-01
3.825488e+00,3.513973e+00,3,3,6.794439e-01,6.794439e-01
3.826076e+00,3.533654e+00,3,3,3.431008e-01,3.431007e-01
3.829971e+00,3.533104e+00,3,3,2.960831e-01,2.960830e-01
3.828736e+00,3.514845e+00,3,3,5.896103e-01,5.896101e-01
3.829283e+00,3.514510e+00,3,3,6.941784e-01,6.941783e-01
3.826339e+00,3.562594e+00,3,3,5.984793e-01,5.984793e-01
3.824938e+00,3.540066e+00,3,3,9.215445e-01,9.215442e-01
3.852261e+00,3.510287e+00,3,3,7.538888e-01,7.538888e-01
3.828518e+00,3.538652e+00,3,3,5.559930e-01,5.559931e-01
3.828287e+00,3.541139e+00,3,3,4.066880e-01,4.066879e-01
3.826923e+00,3.514085e+00,3,3,3.376784e-01,3.376783e-01
3.824517e+00,3.516035e+00,3,3,8.606976e-01,8.606974e-01
3.829168e+00,3.510270e+00,3,3,9.504783e-01,9.504782e-01
3.880356e+00,3.541075e+00,3,3,2.139477e+00,2.139476e+00
3.856301e+00,3.539812e+00,3,3,2.927873e+00,2.927873e+00
3.918818e+00,3.607811e+00,3,3,1.852340e+00,1.852340e+00
3.942066e+00,3.599283e+00,3,3,2.797935e+00,2.797934e+00
3.937551e+00,3.594463e+00,3,3,2.235884e+00,2.235884e+00
3.931126e+00,3.588532e+00,3,3,1.808748e+00,1.808748e+00
3.931465e+00,3.593397e+00,3,3,1.619818e+00,1.619818e+00
3.929445e+00,3.584510e+00,3,3,1.344299e+00,1.344299e+00
3.949517e+00,3.616091e+00,3,3,1.080027e+00,1.080027e+00
3.941595e+00,3.615246e+00,3,3,6.876476e-01,6.876476e-01
3.939028e+00,3.611981e+00,3,3,6.177118e-01,6.177118e-01
3.939065e+00,3.614837e+00,3,3,9.829236e-01,9.829233e-01
3.940618e+00,3.608087e+00,3,3,7.168843e-01,7.168842e-01
3.938679e+00,3.616905e+00,3,3,6.110373e-01,6.110373e-01
3.940826e+00,3.610070e+00,3,3,8.078102e-01,8.078100e-01
3.938642e+00,3.614197e+00,3,3,1.109397e+00,1.109397e+00
3.940717e+00,3.615752e+00,3,3,5.988308e-01,5.988309e-01
3.938262e+00,3.610148e+00,3,3,9.244299e-01,9.244297e-01
3.940640e+00,3.615439e+00,3,3,1.306199e+00,1.306199e+00
3.939152e+00,3.610737e+00,3,3,1.969784e+00,1.969783e+00
3.941035e+00,3.617441e+00,3,3,8.942516e-01,8.942515e-01
3.940801e+00,3.612250e+00,3,3,1.939671e+00,1.939670e+00
3.942508e+00,3.622019e+00,3,3,3.653225e+00,3.653224e+00
3.940173e+00,3.617233e+00,3,3,1.983769e+00,1.983770e+00
3.939338e+00,3.610179e+00,3,3,2.724662e+00,2.724662e+00
3.941109e+00,3.614428e+00,3,3,1.182477e+00,1.182477e+00
3.940734e+00,3.610263e+00,3,3,1.263766e+00,1.263765e+00
3.938026e+00,3.613161e+00,3,3,9.845565e-01,9.845564e-01
3.940508e+00,3.616547e+00,3,3,7.762216e-01,7.762215e-01
3.935794e+00,3.617201e+00,3,3,5.908721e-01,5.908720e-01
3.940090e+00,3.614600e+00,3,3,8.816919e-01,8.816918e-01
3.940021e+00,3.614287e+00,3,3,9.003219e-01,9.003218e-01
3.940559e+00,3.617389e+00,3,3,9.129588e-01,9.129587e-01
3.941306e+00,3.612294e+00,3,3,1.029772e+00,1.029771e+00
3.942096e+00,3.617036e+00,3,3,1.502112e+00,1.502111e+00
3.942072e+00,3.616152e+00,3,3,2.017964e+00,2.017964e+00
3.940067e+00,3.612059e+00,3,3,1.214733e+00,1.214733e+00
3.940433e+00,3.616542e+00,3,3,1.209876e+00,1.209876e+00
3.941491e+00,3.612250e+00,3,3,8.937062e-01,8.937063e-01
3.939625e+00,3.616605e+00,3,3,4.433706e-01,4.433706e-01
3.924105e+00,3.585566e+00,3,3,1.527410e+00,1.527409e+00
3.906920e+00,3.617560e+00,3,3,1.130290e+00,1.130290e+00
3.905701e+00,3.565649e+00,3,3,1.011827e+00,1.011827e+00
3.904615e+00,3.594406e+00,3,3,9.740378e-01,9.740376e-01
3.905951e+00,3.561812e+00,3,3,1.400945e+00,1.400944e+00
3.902639e+00,3.590605e+00,3,3,2.512778e+00,2.512777e+00
3.906835e+00,3.565595e+00,3,3,3.760617e+00,3.760616e+00
3.905364e+00,3.612691e+00,3,3,5.483424e+00,5.483423e+00
3.909603e+00,3.593394e+00,3,3,4.458069e+00,4.458070e+00
3.901744e+00,3.589845e+00,3,3,3.182345e+00,3.182346e+00
3.906024e+00,3.579619e+00,3,3,2.454093e+00,2.454093e+00
3.877704e+00,3.592881e+00,3,3,1.719397e+00,1.719397e+00
3.901223e+00,3.592377e+00,3,3,2.433287e+00,2.433286e+00
3.875713e+00,3.591598e+00,3,3,1.807901e+00,1.807901e+00
3.904313e+00,3.592980e+00,3,3,2.327531e+00,2.327532e+00
3.915491e+00,3.572335e+00,3,3,2.510070e+00,2.510071e+00
3.903595e+00,3.588400e+00,3,3,1.084532e+00,1.084533e+00
3.905472e+00,3.585446e+00,3,3,9.374207e-01,9.374206e-01
3.907361e+00,3.591776e+00,3,3,1.319558e+00,1.319558e+00
3.893923e+00,3.561362e+00,3,3,1.415889e+00,1.415889e+00
3.904217e+00,3.622122e+00,3,3,1.066766e+00,1.066766e+00
3.904880e+00,3.561106e+00,3,3,1.238101e+00,1.238101e+00
3.903152e+00,3.588277e+00,3,3,7.214969e-01,7.214969e-01
3.903734e+00,3.561122e+00,3,3,6.568648e-01,6.568648e-01
3.904458e+00,3.588215e+00,3,3,5.438513e-01,5.438513e-01
3.903151e+00,3.582000e+00,3,3,5.784202e-01,5.784201e-01
3.899746e+00,3.613096e+00,3,3,8.078967e-01,8.078965e-01
3.932612e+00,3.584226e+00,3,3,8.817768e-01,8.817767e-01
3.954813e+00,3.636070e+00,3,3,5.667879e-01,5.667880e-01
3.976226e+00,3.675588e+00,3,3,5.720606e-01,5.720605e-01
3.991256e+00,3.608514e+00,3,3,5.279835e-01,5.279834e-01
4.001149e+00,3.512384e+00,3,3,4.518010e-01,4.518009e-01
3.828573e+00,3.510268e+00,3,3,3.135725e-01,3.135725e-01
3.829751e+00,3.505822e+00,3,3,5.541243e-01,5.541240e-01
3.826104e+00,3.567103e+00,3,3,2.932877e-01,2.932877e-01
3.922794e+00,3.557534e+00,3,3,3.389797e-01,3.389797e-01
3.926816e+00,3.613261e+00,3,3,8.799552e-01,8.799548e-01
3.902949e+00,3.558409e+00,3,3,6.417448e-01,6.417448e-01
3.901470e+00,3.585226e+00,3,3,2.071143e+00,2.071143e+00
3.904306e+00,3.557096e+00,3,3,1.435506e+00,1.435506e+00
3.902594e+00,3.585418e+00,3,3,1.390175e+00,1.390175e+00
3.903298e+00,3.608297e+00,3,3,1.731344e+00,1.731344e+00
3.926189e+00,3.611956e+00,3,3,1.563279e+00,1.563279e+00
3.903697e+00,3.574826e+00,3,3,1.722313e+00,1.722313e+00
3.884366e+00,3.587430e+00,3,3,3.041310e+00,3.041309e+00
3.903599e+00,3.571971e+00,3,3,1.973577e+00,1.973578e+00
3.886175e+00,3.586458e+00,3,3,1.500037e+00,1.500037e+00
3.927077e+00,3.575086e+00,3,3,1.307087e+00,1.307087e+00
3.884270e+00,3.616136e+00,3,3,7.837207e-01,7.837203e-01
3.904350e+00,3.611063e+00,3,3,8.577162e-01,8.577159e-01
3.903184e+00,3.583484e+00,3,3,5.381583e-01,5.381582e-01
3.910440e+00,3.587101e+00,3,3,7.102339e-01,7.102337e-01
3.890746e+00,3.570753e+00,3,3,3.163725e-01,3.163725e-01
3.908234e+00,3.587883e+00,3,3,2.572584e-01,2.572584e-01
3.887029e+00,3.567873e+00,3,3,2.640276e-01,2.640276e-01
3.949148e+00,3.600824e+00,3,3,5.737759e-01,5.737756e-01
3.927519e+00,3.556661e+00,3,3,5.918175e-01,5.918174e-01
3.901596e+00,3.587659e+00,3,3,5.015503e-01,5.015503e-01
3.906917e+00,3.583947e+00,3,3,5.462994e-01,5.462994e-01
3.903480e+00,3.615939e+00,3,3,4.626902e-01,4.626902e-01
3.901055e+00,3.585187e+00,3,3,8.631047e-01,8.631044e-01
3.956083e+00,3.625485e+00,3,3,1.472360e+00,1.472359e+00
3.955767e+00,3.609525e+00,3,3,1.662220e+00,1.662220e+00
3.903415e+00,3.589436e+00,3,3,1.301747e+00,1.301747e+00
3.927736e+00,3.559186e+00,3,3,1.159393e+00,1.159393e+00
3.886612e+00,3.590565e+00,3,3,1.072057e+00,1.072057e+00
3.905703e+00,3.587246e+00,3,3,7.684550e-01,7.684553e-01
3.900972e+00,3.623808e+00,3,3,6.784226e-01,6.784221e-01
3.929312e+00,3.637458e+00,3,3,1.196365e+00,1.196364e+00
3.889261e+00,3.587535e+00,3,3,1.709870e+00,1.709870e+00
3.908745e+00,3.587744e+00,3,3,1.043961e+00,1.043961e+00
3.906205e+00,3.558377e+00,3,3,9.875633e-01,9.875632e-01
3.902641e+00,3.590985e+00,3,3,8.865501e-01,8.865500e-01
3.901802e+00,3.557749e+00,3,3,8.128659e-01,8.128659e-01
3.902675e+00,3.586146e+00,3,3,6.697431e-01,6.697431e-01
3.928878e+00,3.585207e+00,3,3,7.530458e-01,7.530456e-01
3.925623e+00,3.586310e+00,3,3,1.230954e+00,1.230953e+00
3.902900e+00,3.558583e+00,3,3,1.183055e+00,1.183055e+00
3.899192e+00,3.584417e+00,3,3,1.252972e+00,1.252972e+00
3.902033e+00,3.556164e+00,3,3,1.423246e+00,1.423246e+00
3.937394e+00,3.587095e+00,3,3,6.507800e-01,6.507800e-01
3.901501e+00,3.557778e+00,3,3,5.206114e-01,5.206114e-01
3.904108e+00,3.615991e+00,3,3,5.456169e-01,5.456168e-01
3.906376e+00,3.558809e+00,3,3,2.479467e-01,2.479466e-01
3.903112e+00,3.586714e+00,3,3,2.496599e-01,2.496599e-01
3.905324e+00,3.556511e+00,3,3,4.269946e-01,4.269946e-01
3.877318e+00,3.586476e+00,3,3,3.637096e-01,3.637096e-01
3.900295e+00,3.532444e+00,3,3,9.785977e-01,9.785973e-01
3.905025e+00,3.612973e+00,3,3,7.268657e-01,7.268656e-01
3.903003e+00,3.582885e+00,3,3,5.136781e-01,5.136780e-01
3.901681e+00,3.562553e+00,3,3,4.576685e-01,4.576684e-01
3.876599e+00,3.583489e+00,3,3,4.659262e-01,4.659261e-01
3.902136e+00,3.592114e+00,3,3,4.789425e-01,4.789424e-01
3.931130e+00,3.582960e+00,3,3,3.020691e-01,3.020691e-01
3.927087e+00,3.611538e+00,3,3,3.394996e-01,3.394995e-01
3.928313e+00,3.557437e+00,3,3,2.773580e-01,2.773579e-01
3.901123e+00,3.586922e+00,3,3,2.395138e-01,2.395138e-01
3.900112e+00,3.557843e+00,3,3,6.457986e-01,6.457982e-01
3.903647e+00,3.588528e+00,3,3,4.074308e-01,4.074307e-01
3.880382e+00,3.559565e+00,3,3,6.452892e-01,6.452890e-01
3.903408e+00,3.563983e+00,3,3,1.041436e+00,1.041436e+00
3.905916e+00,3.558622e+00,3,3,8.929571e-01,8.929569e-01
3.928476e+00,3.586239e+00,3,3,1.012421e+00,1.012420e+00
3.880084e+00,3.559291e+00,3,3,7.096699e-01,7.096699e-01
3.903512e+00,3.560114e+00,3,3,7.097771e-01,7.097770e-01
3.902804e+00,3.559945e+00,3,3,8.114543e-01,8.114541e-01
3.899379e+00,3.589059e+00,3,3,1.782574e+00,1.782573e+00
3.903518e+00,3.557152e+00,3,3,2.360399e+00,2.360398e+00
3.905624e+00,3.614316e+00,3,3,2.091286e+00,2.091286e+00
3.879112e+00,3.584571e+00,3,3,1.700507e+00,1.700507e+00
3.905804e+00,3.586740e+00,3,3,1.573464e+00,1.573464e+00
3.908431e+00,3.559491e+00,3,3,1.068439e+00,1.068440e+00
3.904335e+00,3.587921e+00,3,3,1.055490e+00,1.055490e+00
3.904931e+00,3.558265e+00,3,3,1.037041e+00,1.037041e+00
3.900885e+00,3.587572e+00,3,3,7.956397e-01,7.956397e-01
3.929637e+00,3.582676e+00,3,3,7.031926e-01,7.031926e-01
3.927160e+00,3.587652e+00,3,3,1.431417e+00,1.431416e+00
3.901597e+00,3.558436e+00,3,3,2.982531e+00,2.982531e+00
3.899406e+00,3.586897e+00,3,3,3.031353e+00,3.031369e+00
3.904041e+00,3.584541e+00,3,3,3.054806e+00,3.054807e+00
3.907254e+00,3.589467e+00,3,3,3.560092e+00,3.560092e+00
3.905799e+00,3.581804e+00,3,3,5.094646e+00,5.094644e+00
3.943132e+00,3.614602e+00,3,3,3.266819e+00,3.266820e+00
3.905434e+00,3.588812e+00,3,3,3.985969e+00,3.985968e+00
3.902329e+00,3.586849e+00,3,3,3.077072e+00,3.077072e+00
3.904462e+00,3.575976e+00,3,3,2.875826e+00,2.875826e+00
3.913570e+00,3.593207e+00,3,3,1.974571e+00,1.974572e+00
3.929927e+00,3.614879e+00,3,3,2.489593e+00,2.489592e+00
3.929711e+00,3.583462e+00,3,3,1.671669e+00,1.671669e+00
3.901403e+00,3.612096e+00,3,3,2.163022e+00,2.163022e+00
3.905187e+00,3.556328e+00,3,3,7.060763e-01,7.060765e-01
3.903583e+00,3.588212e+00,3,3,9.278443e-01,9.278439e-01
3.903023e+00,3.585436e+00,3,3,1.801419e+00,1.801419e+00
3.906042e+00,3.589663e+00,3,3,1.390243e+00,1.390243e+00
3.905053e+00,3.583156e+00,3,3,2.192526e+00,2.192526e+00
3.929224e+00,3.588630e+00,3,3,1.943535e+00,1.943535e+00
3.928200e+00,3.556999e+00,3,3,3.271278e+00,3.271278e+00
3.904630e+00,3.587350e+00,3,3,1.690168e+00,1.690168e+00
3.908479e+00,3.557477e+00,3,3,1.412966e+00,1.412966e+00
3.903098e+00,3.615319e+00,3,3,1.101833e+00,1.101833e+00
3.927358e+00,3.582959e+00,3,3,1.109890e+00,1.109890e+00
3.902584e+00,3.589178e+00,3,3,1.180572e+00,1.180572e+00
3.927907e+00,3.584479e+00,3,3,1.771004e+00,1.771004e+00
3.902945e+00,3.588651e+00,3,3,7.989906e-01,7.989910e-01
3.902791e+00,3.556559e+00,3,3,5.277676e-01,5.277676e-01
3.899914e+00,3.588212e+00,3,3,5.981896e-01,5.981894e-01
3.929936e+00,3.559242e+00,3,3,5.715104e-01,5.715102e-01
3.927407e+00,3.589973e+00,3,3,4.452613e-01,4.452613e-01
3.928282e+00,3.613002e+00,3,3,7.191406e-01,7.191403e-01
3.899334e+00,3.612221e+00,3,3,1.052376e+00,1.052376e+00
3.904300e+00,3.588095e+00,3,3,1.601037e+00,1.601036e+00
3.876062e+00,3.590316e+00,3,3,3.478609e+00,3.478608e+00
3.902523e+00,3.587266e+00,3,3,4.514009e+00,4.514008e+00
3.947387e+00,3.647258e+00,3,3,3.065471e+00,3.065472e+00
3.982740e+00,3.664379e+00,3,3,3.784558e+00,3.784557e+00
4.031851e+00,3.677666e+00,3,3,2.730909e+00,2.730909e+00
3.852200e+00,3.511929e+00,3,3,2.168827e+00,2.168827e+00
3.830424e+00,3.513087e+00,3,3,2.418019e+00,2.418019e+00
3.828239e+00,3.514158e+00,3,3,1.306380e+00,1.306381e+00
3.878327e+00,3.560901e+00,3,3,9.994601e-01,9.994596e-01
3.900689e+00,3.590744e+00,3,3,7.696718e-01,7.696718e-01
3.904440e+00,3.581820e+00,3,3,7.205179e-01,7.205178e-01
3.928729e+00,3.612375e+00,3,3,6.833545e-01,6.833544e-01
3.902339e+00,3.558727e+00,3,3,1.060750e+00,1.060750e+00
3.903040e+00,3.586449e+00,3,3,3.632652e-01,3.632652e-01
3.903380e+00,3.580775e+00,3,3,1.456896e+00,1.456895e+00
3.903693e+00,3.589581e+00,3,3,3.221339e+00,3.221338e+00
3.934386e+00,3.557618e+00,3,3,1.879966e+00,1.879967e+00
3.907222e+00,3.610099e+00,3,3,1.342876e+00,1.342876e+00
3.905845e+00,3.584014e+00,3,3,1.100848e+00,1.100848e+00
3.902604e+00,3.589529e+00,3,3,9.350391e-01,9.350391e-01
3.903865e+00,3.557318e+00,3,3,8.765797e-01,8.765796e-01
3.901403e+00,3.588181e+00,3,3,1.483488e+00,1.483487e+00
3.902452e+00,3.582326e+00,3,3,1.146398e+00,1.146398e+00
3.902299e+00,3.610301e+00,3,3,8.245375e-01,8.245376e-01
3.948967e+00,3.558105e+00,3,3,9.175511e-01,9.175510e-01
3.927412e+00,3.586795e+00,3,3,1.572600e+00,1.572599e+00
3.902216e+00,3.560492e+00,3,3,2.548006e+00,2.548005e+00
3.901047e+00,3.588108e+00,3,3,4.638468e+00,4.638466e+00
3.903521e+00,3.559587e+00,3,3,5.660153e+00,5.660151e+00
3.908417e+00,3.641845e+00,3,3,5.111811e+00,5.111811e+00
3.908853e+00,3.587410e+00,3,3,5.361426e+00,5.361426e+00
3.933156e+00,3.611394e+00,3,3,4.518844e+00,4.518844e+00
3.945527e+00,3.666211e+00,3,3,4.751984e+00,4.751984e+00
3.957365e+00,3.614671e+00,3,3,4.746634e+00,4.746634e+00
3.944282e+00,3.617394e+00,3,3,3.913832e+00,3.913832e+00
3.941195e+00,3.619753e+00,3,3,3.373795e+00,3.373795e+00
3.965432e+00,3.609606e+00,3,3,2.596153e+00,2.596153e+00
3.938386e+00,3.616375e+00,3,3,2.364516e+00,2.364516e+00
3.939219e+00,3.612013e+00,3,3,2.377071e+00,2.377071e+00
3.940704e+00,3.616513e+00,3,3,3.044289e+00,3.044291e+00
3.939932e+00,3.610719e+00,3,3,5.471063e+00,5.469932e+00
7.859499e+00,7.218616e+00,6,6,5.713010e+00,5.711239e+00
6.478543e+00,5.895674e+00,5,5,6.257296e+00,6.256967e+00
5.122513e+00,4.675411e+00,4,4,5.303539e+00,5.303540e+00
3.830345e+00,3.509443e+00,3,3,5.338715e+00,5.338716e+00
3.830919e+00,3.511398e+00,3,3,6.515717e+00,6.515717e+00
3.825830e+00,3.511257e+00,3,3,6.035045e+00,6.035045e+00
3.833033e+00,3.508106e+00,3,3,5.027730e+00,5.027730e+00
3.828997e+00,3.512195e+00,3,3,4.242592e+00,4.242592e+00
3.853664e+00,3.563133e+00,3,3,3.761789e+00,3.761788e+00
3.833446e+00,3.514489e+00,3,3,3.222025e+00,3.222025e+00
3.833366e+00,3.514968e+00,3,3,2.958972e+00,2.958972e+00
3.827857e+00,3.508032e+00,3,3,3.072679e+00,3.072679e+00
3.830640e+00,3.506866e+00,3,3,1.689586e+00,1.689587e+00
3.852107e+00,3.515815e+00,3,3,1.466490e+00,1.466490e+00
3.826476e+00,3.533570e+00,3,3,1.622645e+00,1.622644e+00
3.827903e+00,3.544656e+00,3,3,1.120970e+00,1.120970e+00
3.821892e+00,3.518170e+00,3,3,9.459962e-01,9.459962e-01
3.826052e+00,3.514124e+00,3,3,7.684255e-01,7.684254e-01
3.828566e+00,3.514997e+00,3,3,4.885183e-01,4.885184e-01
3.825736e+00,3.506734e+00,3,3,3.703970e-01,3.703967e-01
3.825238e+00,3.505972e+00,3,3,2.797297e-01,2.797296e-01
3.822761e+00,3.537783e+00,3,3,3.974026e-01,3.974025e-01
3.850672e+00,3.534966e+00,3,3,5.354265e-01,5.354264e-01
3.826320e+00,3.514372e+00,3,3,3.592154e-01,3.592154e-01
3.823029e+00,3.513336e+00,3,3,4.040961e-01,4.040959e-01
3.826119e+00,3.508489e+00,3,3,1.113163e+00,1.113163e+00
3.826074e+00,3.523905e+00,3,3,2.515820e+00,2.515818e+00
3.830119e+00,3.515020e+00,3,3,3.426457e+00,3.426456e+00
3.857431e+00,3.514316e+00,3,3,2.879434e+00,2.879434e+00
3.856322e+00,3.513486e+00,3,3,3.110358e+00,3.110358e+00
3.892427e+00,3.514231e+00,3,3,3.024905e+00,3.024905e+00
3.856966e+00,3.544755e+00,3,3,2.671658e+00,2.671658e+00
3.858242e+00,3.536150e+00,3,3,2.112219e+00,2.112219e+00
3.827402e+00,3.539392e+00,3,3,2.070677e+00,2.070677e+00
3.849848e+00,3.547266e+00,3,3,3.677848e+00,3.677847e+00
3.856724e+00,3.508575e+00,3,3,4.748285e+00,4.748284e+00
3.854078e+00,3.544063e+00,3,3,5.601877e+00,5.601877e+00
3.830835e+00,3.513015e+00,3,3,4.561990e+00,4.561991e+00
3.833211e+00,3.508776e+00,3,3,3.478402e+00,3.478403e+00
3.829366e+00,3.517576e+00,3,3,2.544122e+00,2.544122e+00
3.829877e+00,3.537056e+00,3,3,2.076842e+00,2.076842e+00
3.852481e+00,3.512493e+00,3,3,2.759522e+00,2.759520e+00
3.847999e+00,3.540852e+00,3,3,2.751329e+00,2.751329e+00
3.830157e+00,3.507373e+00,3,3,2.069405e+00,2.069405e+00
3.826572e+00,3.509730e+00,3,3,2.024263e+00,2.024264e+00
3.828060e+00,3.507815e+00,3,3,2.326175e+00,2.326219e+00
3.827265e+00,3.508221e+00,3,3,2.414221e+00,2.414222e+00
3.828597e+00,3.517546e+00,3,3,2.956548e+00,2.956547e+00
3.830323e+00,3.536138e+00,3,3,2.350924e+00,2.350924e+00
3.827823e+00,3.542245e+00,3,3,3.067178e+00,3.067178e+00
3.826833e+00,3.517465e+00,3,3,3.023787e+00,3.023787e+00
3.831239e+00,3.511136e+00,3,3,2.527911e+00,2.527911e+00
3.828542e+00,3.520120e+00,3,3,2.091117e+00,2.091117e+00
3.827494e+00,3.512946e+00,3,3,2.201043e+00,2.201043e+00
3.854209e+00,3.510023e+00,3,3,2.211135e+00,2.211135e+00
3.829257e+00,3.545189e+00,3,3,1.630544e+00,1.630545e+00
3.852730e+00,3.516069e+00,3,3,1.629960e+00,1.629959e+00
3.828673e+00,3.516189e+00,3,3,1.065575e+00,1.065575e+00
3.817710e+00,3.517132e+00,3,3,8.781361e-01,8.781361e-01
3.824833e+00,3.512387e+00,3,3,5.657123e-01,5.657123e-01
3.828355e+00,3.515237e+00,3,3,3.838170e-01,3.838169e-01
3.827898e+00,3.512738e+00,3,3,2.168859e-01,2.168859e-01
3.851516e+00,3.511069e+00,3,3,4.077928e-01,4.077926e-01
3.849612e+00,3.515657e+00,3,3,2.298410e-01,2.298409e-01
3.824016e+00,3.507958e+00,3,3,2.219913e-01,2.219912e-01
3.851313e+00,3.512512e+00,3,3,1.341587e-01,1.341586e-01
3.822779e+00,3.577102e+00,3,3,1.470552e-01,1.470552e-01
3.850356e+00,3.564498e+00,3,3,1.317567e-01,1.317567e-01
3.850759e+00,3.515305e+00,3,3,3.249661e-01,3.249660e-01
3.878074e+00,3.537423e+00,3,3,2.494326e-01,2.494325e-01
3.828695e+00,3.541563e+00,3,3,2.719725e-01,2.719723e-01
3.821905e+00,3.510937e+00,3,3,5.470065e-01,5.470063e-01
3.852298e+00,3.513666e+00,3,3,2.990698e-01,2.990698e-01
3.826053e+00,3.513005e+00,3,3,4.258677e-01,4.258677e-01
3.827103e+00,3.515305e+00,3,3,4.303108e-01,4.303107e-01
3.826873e+00,3.539550e+00,3,3,7.248237e-01,7.248235e-01
3.822759e+00,3.540628e+00,3,3,5.522409e-01,5.522408e-01
3.825728e+00,3.510795e+00,3,3,3.638423e-01,3.638423e-01
3.826872e+00,3.510733e+00,3,3,2.660243e-01,2.660243e-01
3.820749e+00,3.513549e+00,3,3,3.563770e-01,3.563769e-01
3.826571e+00,3.514576e+00,3,3,3.281880e-01,3.281880e-01
3.850655e+00,3.516941e+00,3,3,2.648641e-01,2.648641e-01
3.824060e+00,3.542933e+00,3,3,4.637969e-01,4.637969e-01
3.827169e+00,3.536052e+00,3,3,3.516939e-01,3.516939e-01
3.821058e+00,3.513373e+00,3,3,5.227982e-01,5.227981e-01
3.826008e+00,3.509393e+00,3,3,9.247090e-01,9.247087e-01
3.829237e+00,3.540578e+00,3,3,8.107850e-01,8.107849e-01
3.826958e+00,3.516391e+00,3,3,7.181155e-01,7.181154e-01
3.827840e+00,3.507722e+00,3,3,1.643258e+00,1.643257e+00
3.827886e+00,3.540475e+00,3,3,1.994016e+00,1.994016e+00
3.856054e+00,3.512205e+00,3,3,1.134334e+00,1.134334e+00
3.826608e+00,3.512555e+00,3,3,8.482995e-01,8.482996e-01
3.829278e+00,3.519852e+00,3,3,6.537288e-01,6.537287e-01
3.853600e+00,3.512671e+00,3,3,4.364268e-01,4.364268e-01
3.853961e+00,3.543739e+00,3,3,3.864401e-01,3.864400e-01
3.822695e+00,3.510916e+00,3,3,5.548976e-01,5.548975e-01
3.854280e+00,3.512876e+00,3,3,5.307643e-01,5.307643e-01
3.849334e+00,3.527341e+00,3,3,2.639973e-01,2.639972e-01
3.826914e+00,3.510727e+00,3,3,7.177026e-01,7.177024e-01
3.824657e+00,3.512586e+00,3,3,3.984592e-01,3.984592e-01
3.851104e+00,3.543473e+00,3,3,3.519681e-01,3.519680e-01
3.851679e+00,3.538537e+00,3,3,4.923571e-01,4.923570e-01
3.855292e+00,3.539311e+00,3,3,4.030473e-01,4.030473e-01
3.878927e+00,3.539859e+00,3,3,4.731872e-01,4.731871e-01
3.828419e+00,3.514882e+00,3,3,6.026992e-01,6.026991e-01
3.824432e+00,3.516168e+00,3,3,4.756017e-01,4.756016e-01
3.824447e+00,3.511386e+00,3,3,4.945690e-01,4.945688e-01
3.829553e+00,3.511216e+00,3,3,6.169641e-01,6.169640e-01
3.849191e+00,3.510749e+00,3,3,7.574959e-01,7.574957e-01
3.825021e+00,3.537061e+00,3,3,1.135819e+00,1.135819e+00
3.824685e+00,3.538425e+00,3,3,7.866710e-01,7.866711e-01
3.825707e+00,3.511837e+00,3,3,7.566152e-01,7.566149e-01
3.825518e+00,3.515733e+00,3,3,7.321452e-01,7.321452e-01
3.822194e+00,3.515269e+00,3,3,7.926656e-01,7.926655e-01
3.828388e+00,3.511656e+00,3,3,6.555935e-01,6.555935e-01
3.828183e+00,3.514237e+00,3,3,1.115601e+00,1.115601e+00
3.822356e+00,3.540860e+00,3,3,8.292409e-01,8.292409e-01
3.852057e+00,3.510794e+00,3,3,7.751496e-01,7.751495e-01
3.827995e+00,3.517861e+00,3,3,7.596656e-01,7.596656e-01
3.829154e+00,3.511312e+00,3,3,6.878775e-01,6.878775e-01
3.826225e+00,3.511812e+00,3,3,4.928153e-01,4.928153e-01
3.823740e+00,3.566757e+00,3,3,6.019904e-01,6.019902e-01
3.825273e+00,3.512761e+00,3,3,6.788456e-01,6.788454e-01
3.849904e+00,3.515219e+00,3,3,4.668361e-01,4.668360e-01
3.852619e+00,3.509859e+00,3,3,8.782914e-01,8.782911e-01
3.827836e+00,3.513027e+00,3,3,6.180956e-01,6.180956e-01
3.826830e+00,3.515402e+00,3,3,5.652572e-01,5.652571e-01
3.827355e+00,3.508840e+00,3,3,5.058808e-01,5.058808e-01
3.828185e+00,3.508982e+00,3,3,3.970669e-01,3.970667e-01
3.842119e+00,3.510913e+00,3,3,2.920336e-01,2.920335e-01
3.849793e+00,3.505196e+00,3,3,5.797284e-01,5.797282e-01
3.850446e+00,3.519738e+00,3,3,4.997496e-01,4.997496e-01
3.819906e+00,3.515330e+00,3,3,5.083716e-01,5.083715e-01
3.826250e+00,3.512065e+00,3,3,4.754079e-01,4.754078e-01
3.825744e+00,3.542083e+00,3,3,3.696141e-01,3.696140e-01
3.877559e+00,3.566958e+00,3,3,4.437754e-01,4.437754e-01
3.852164e+00,3.515935e+00,3,3,3.442546e-01,3.442546e-01
3.848679e+00,3.539626e+00,3,3,1.454145e+00,1.454144e+00
3.827781e+00,3.508942e+00,3,3,3.218433e+00,3.218432e+00
3.830367e+00,3.516616e+00,3,3,2.417712e+00,2.417713e+00
3.827205e+00,3.513338e+00,3,3,1.723471e+00,1.723471e+00
3.827452e+00,3.511468e+00,3,3,1.264275e+00,1.264274e+00
3.829055e+00,3.513634e+00,3,3,1.366921e+00,1.366921e+00
3.828658e+00,3.532042e+00,3,3,1.080434e+00,1.080434e+00
3.827346e+00,3.534225e+00,3,3,1.043215e+00,1.043214e+00
3.822272e+00,3.511224e+00,3,3,1.256931e+00,1.256930e+00
3.826180e+00,3.508571e+00,3,3,1.434086e+00,1.434086e+00
3.827070e+00,3.511185e+00,3,3,1.312171e+00,1.312171e+00
3.826537e+00,3.509191e+00,3,3,1.397984e+00,1.397984e+00
3.853017e+00,3.537718e+00,3,3,1.863006e+00,1.863005e+00
3.826575e+00,3.539558e+00,3,3,1.373502e+00,1.373502e+00
3.852889e+00,3.510899e+00,3,3,9.297248e-01,9.297249e-01
3.826053e+00,3.517808e+00,3,3,5.499694e-01,5.499695e-01
3.821657e+00,3.509908e+00,3,3,3.668122e-01,3.668122e-01
3.851306e+00,3.509356e+00,3,3,2.877344e-01,2.877343e-01
3.825074e+00,3.509809e+00,3,3,3.947813e-01,3.947812e-01
3.825474e+00,3.508878e+00,3,3,2.789106e-01,2.789106e-01
3.851740e+00,3.508109e+00,3,3,4.675782e-01,4.675781e-01
3.875335e+00,3.514486e+00,3,3,4.970870e-01,4.970870e-01
3.824248e+00,3.507564e+00,3,3,4.618472e-01,4.618472e-01
3.825804e+00,3.510832e+00,3,3,5.953705e-01,5.953702e-01
3.819574e+00,3.511270e+00,3,3,3.315649e-01,3.315649e-01
3.824121e+00,3.535792e+00,3,3,2.690293e-01,2.690293e-01
3.827134e+00,3.510679e+00,3,3,1.439724e+00,1.439723e+00
3.852274e+00,3.507640e+00,3,3,1.497785e+00,1.497785e+00
3.856363e+00,3.507397e+00,3,3,7.278902e-01,7.278904e-01
3.827436e+00,3.512515e+00,3,3,7.181027e-01,7.181026e-01
3.826462e+00,3.509955e+00,3,3,6.287868e-01,6.287868e-01
3.828499e+00,3.539253e+00,3,3,6.738957e-01,6.738956e-01
3.851741e+00,3.541512e+00,3,3,3.442821e-01,3.442821e-01
3.851583e+00,3.538009e+00,3,3,2.891120e-01,2.891119e-01
3.824751e+00,3.542931e+00,3,3,5.501599e-01,5.501598e-01
3.824827e+00,3.506720e+00,3,3,6.853907e-01,6.853906e-01
3.826247e+00,3.507616e+00,3,3,8.436226e-01,8.436225e-01
3.827058e+00,3.511006e+00,3,3,5.492943e-01,5.492943e-01
3.826857e+00,3.508522e+00,3,3,5.278050e-01,5.278049e-01
3.852329e+00,3.516102e+00,3,3,7.921355e-01,7.921352e-01
3.822016e+00,3.562992e+00,3,3,1.174981e+00,1.174981e+00
3.828564e+00,3.534238e+00,3,3,1.302907e+00,1.302907e+00
3.825703e+00,3.509836e+00,3,3,1.817128e+00,1.817128e+00
3.826197e+00,3.509242e+00,3,3,1.715595e+00,1.715595e+00
3.828040e+00,3.507843e+00,3,3,2.668153e+00,2.668169e+00
3.826807e+00,3.509773e+00,3,3,1.115506e+00,1.115507e+00
3.825088e+00,3.507854e+00,3,3,9.496711e-01,9.496710e-01
3.828360e+00,3.536112e+00,3,3,1.501075e+00,1.501074e+00
3.849734e+00,3.513147e+00,3,3,7.347724e-01,7.347726e-01
3.824130e+00,3.506729e+00,3,3,6.039009e-01,6.039009e-01
3.825431e+00,3.537943e+00,3,3,4.902778e-01,4.902778e-01
3.821717e+00,3.510643e+00,3,3,3.288280e-01,3.288280e-01
3.823140e+00,3.532207e+00,3,3,6.713491e-01,6.713488e-01
3.828955e+00,3.511350e+00,3,3,4.977139e-01,4.977139e-01
3.853873e+00,3.508259e+00,3,3,2.836719e-01,2.836719e-01
3.852977e+00,3.512126e+00,3,3,6.883872e-01,6.883870e-01
3.823682e+00,3.514617e+00,3,3,4.772303e-01,4.772303e-01
3.845902e+00,3.610660e+00,3,3,2.511179e-01,2.511178e-01
3.940247e+00,3.615935e+00,3,3,2.738165e-01,2.738165e-01
3.937060e+00,3.619751e+00,3,3,3.426205e-01,3.426204e-01
3.935278e+00,3.622505e+00,3,3,5.175609e-01,5.175607e-01
3.939519e+00,3.618524e+00,3,3,1.085640e+00,1.085639e+00
3.939885e+00,3.619361e+00,3,3,7.889606e-01,7.889600e-01
3.940188e+00,3.621509e+00,3,3,1.428628e+00,1.428628e+00
3.941734e+00,3.616288e+00,3,3,6.237796e-01,6.237799e-01
3.937520e+00,3.626874e+00,3,3,4.969001e-01,4.969001e-01
3.940207e+00,3.622126e+00,3,3,3.323368e-01,3.323369e-01
3.935987e+00,3.610973e+00,3,3,3.054061e-01,3.054060e-01
3.937023e+00,3.615259e+00,3,3,8.581275e-01,8.581271e-01
3.939271e+00,3.609485e+00,3,3,8.560419e-01,8.560418e-01
3.936713e+00,3.615047e+00,3,3,1.314360e+00,1.314359e+00
3.941813e+00,3.610512e+00,3,3,1.349009e+00,1.349009e+00
3.938703e+00,3.617177e+00,3,3,1.548528e+00,1.548528e+00
3.941036e+00,3.617161e+00,3,3,2.537457e+00,2.537456e+00
3.940886e+00,3.611389e+00,3,3,2.841284e+00,2.841284e+00
3.945276e+00,3.616213e+00,3,3,2.122476e+00,2.122477e+00
3.941612e+00,3.612114e+00,3,3,1.906988e+00,1.906988e+00
3.941227e+00,3.615296e+00,3,3,2.680225e+00,2.680224e+00
3.940688e+00,3.615311e+00,3,3,1.820728e+00,1.820728e+00
3.937794e+00,3.614419e+00,3,3,1.509573e+00,1.509573e+00
3.942699e+00,3.616312e+00,3,3,1.527033e+00,1.527033e+00
3.940325e+00,3.609771e+00,3,3,1.650989e+00,1.650989e+00
3.940929e+00,3.615876e+00,3,3,1.808075e+00,1.808075e+00
3.941064e+00,3.609167e+00,3,3,1.332615e+00,1.332615e+00
3.940874e+00,3.617926e+00,3,3,1.278934e+00,1.278934e+00
3.940680e+00,3.620152e+00,3,3,1.640311e+00,1.640310e+00
3.940593e+00,3.613836e+00,3,3,1.799944e+00,1.799944e+00
3.937653e+00,3.615405e+00,3,3,1.140216e+00,1.140216e+00
3.940548e+00,3.609493e+00,3,3,1.096292e+00,1.096292e+00
3.939963e+00,3.613525e+00,3,3,6.438806e-01,6.438808e-01
3.938088e+00,3.611941e+00,3,3,6.245239e-01,6.245239e-01

