6.810820e-01,6.111560e-01,2,2,0.000000e+00,0.000000e+00
9.856910e-01,9.052530e-01,3,3,5.321986e-02,5.321966e-02
9.790440e-01,9.250230e-01,3,3,6.159864e-02,6.159722e-02
9.804040e-01,8.993880e-01,3,3,1.569301e-01,1.569099e-01
1.630405e+00,1.515290e+00,5,5,9.117295e-02,9.124246e-02
1.306851e+00,9.064780e-01,4,3,2.575829e-01,2.620746e-01
2.279670e+00,2.097135e+00,7,7,2.642301e-01,2.649203e-01
2.271817e+00,2.100242e+00,7,7,3.331320e-01,3.334326e-01
1.956675e+00,2.395980e+00,6,8,1.663230e-01,1.650216e-01
2.284429e+00,1.799094e+00,7,6,2.054691e-01,2.037846e-01
2.268210e+00,2.095149e+00,7,7,1.234625e-01,1.236211e-01
1.630277e+00,1.504570e+00,5,5,1.438479e-01,1.438797e-01
2.272094e+00,2.095958e+00,7,7,2.815121e-01,2.821330e-01
2.273945e+00,2.096431e+00,7,7,3.639028e-01,3.642253e-01
2.269732e+00,2.093721e+00,7,7,2.898551e-01,2.899830e-01
3.583445e+00,3.299208e+00,11,11,4.117022e-01,4.117086e-01
1.950593e+00,2.098050e+00,6,7,3.375594e-01,3.369822e-01
3.250301e+00,2.993802e+00,10,10,2.325501e-01,2.327126e-01
2.267744e+00,2.094642e+00,7,7,2.492023e-01,2.491572e-01
3.261891e+00,2.395239e+00,10,8,2.646199e-01,2.609685e-01
1.623610e+00,1.200880e+00,5,4,2.921734e-01,2.917522e-01
1.297040e+00,1.199673e+00,4,4,2.271318e-01,2.281825e-01
2.602262e+00,1.798641e+00,8,6,1.953549e-01,1.954632e-01
1.951850e+00,2.095515e+00,6,7,2.580992e-01,2.542654e-01
1.950727e+00,2.098367e+00,6,7,3.216790e-01,3.189459e-01
2.265233e+00,2.095129e+00,7,7,3.323307e-01,3.322530e-01
3.575273e+00,2.992517e+00,11,10,2.636758e-01,2.662437e-01
1.950374e+00,1.793531e+00,6,6,2.043743e-01,2.033472e-01
3.576227e+00,2.991810e+00,11,10,1.940524e-01,1.874689e-01
3.242869e+00,2.992533e+00,10,10,1.321489e-01,1.295924e-01
1.633984e+00,1.497358e+00,5,5,2.595039e-01,2.580916e-01
1.623384e+00,1.199883e+00,5,4,2.866532e-01,2.878072e-01
1.953508e+00,1.199744e+00,6,4,2.328194e-01,2.340151e-01
1.304317e+00,1.200810e+00,4,4,2.633879e-01,2.649236e-01
2.267776e+00,2.095582e+00,7,7,1.513973e-01,1.514497e-01
1.950832e+00,2.097123e+00,6,7,9.821962e-02,9.727991e-02
2.597659e+00,2.391672e+00,8,8,1.486089e-01,1.489989e-01
2.270924e+00,2.093159e+00,7,7,1.286271e-01,1.286391e-01
2.604105e+00,2.096516e+00,8,7,2.184417e-01,2.189194e-01
1.944793e+00,2.093143e+00,6,7,1.362509e-01,1.341625e-01
2.271047e+00,1.497670e+00,7,5,3.839342e-01,3.860169e-01
2.272443e+00,2.093902e+00,7,7,3.763655e-01,3.811122e-01
3.248144e+00,2.696429e+00,10,9,2.447463e-01,2.458103e-01
1.303520e+00,3.296684e+00,4,11,2.926823e-01,2.932390e-01
1.950319e+00,2.095548e+00,6,7,2.456365e-01,2.447028e-01
3.576174e+00,2.993137e+00,11,10,2.078885e-01,2.093560e-01
3.243413e+00,2.094809e+00,10,7,2.355777e-01,2.262912e-01
1.946688e+00,2.094603e+00,6,7,1.857569e-01,1.860841e-01
2.594256e+00,2.094599e+00,8,7,1.294378e-01,1.293966e-01
1.301296e+00,1.199801e+00,4,4,7.303353e-02,7.286313e-02
1.307265e+00,9.023860e-01,4,3,1.533438e-01,1.547116e-01
2.605500e+00,1.199113e+00,8,4,2.443331e-01,2.444769e-01
2.270035e+00,2.094215e+00,7,7,2.570964e-01,2.575332e-01
1.303561e+00,1.501840e+00,4,5,2.083740e-01,2.076043e-01
2.921790e+00,1.200561e+00,9,4,1.944048e-01,1.803031e-01
1.950389e+00,2.094278e+00,6,7,2.216235e-01,2.225084e-01
1.947942e+00,2.093772e+00,6,7,8.029807e-02,7.958536e-02
1.299717e+00,9.032240e-01,4,3,1.232633e-01,1.227118e-01
1.947749e+00,2.999686e+00,6,10,2.287897e-01,2.182821e-01
2.267007e+00,2.092492e+00,7,7,2.853285e-01,2.824487e-01
1.627262e+00,1.504170e+00,5,5,1.961506e-01,1.965784e-01
2.267581e+00,2.095751e+00,7,7,5.131862e-01,5.141791e-01
2.268417e+00,2.095912e+00,7,7,9.395201e-01,9.419536e-01
2.272061e+00,2.095834e+00,7,7,4.936565e-01,4.894748e-01
2.275469e+00,2.393412e+00,7,8,5.610441e-01,5.614650e-01
1.303967e+00,1.201639e+00,4,4,3.046766e-01,3.068933e-01
1.950585e+00,2.095556e+00,6,7,2.712945e-01,2.659728e-01
3.576600e+00,2.986186e+00,11,10,1.562806e-01,1.750757e-01
1.299628e+00,1.500725e+00,4,5,1.795310e-01,1.765049e-01
3.243719e+00,2.995518e+00,10,10,8.835925e-02,8.812614e-02
9.781480e-01,8.976690e-01,3,3,1.745038e-01,1.738657e-01
2.596550e+00,2.395125e+00,8,8,1.894674e-01,1.896972e-01
3.591565e+00,2.996299e+00,11,10,2.155061e-01,2.304061e-01
3.250450e+00,1.804932e+00,10,6,2.691615e-01,2.526824e-01
2.268324e+00,2.095001e+00,7,7,3.648815e-01,3.654217e-01
2.276544e+00,2.095599e+00,7,7,3.745483e-01,3.752097e-01
1.621475e+00,1.204642e+00,5,4,2.347342e-01,2.380634e-01
2.268375e+00,2.094448e+00,7,7,2.245534e-01,2.246452e-01
1.303305e+00,2.996475e+00,4,10,2.033034e-01,2.153931e-01
2.271836e+00,2.091440e+00,7,7,1.128057e-01,1.127764e-01
1.951599e+00,1.495591e+00,6,5,4.287271e-01,4.296356e-01
1.949462e+00,2.096213e+00,6,7,3.152170e-01,3.105215e-01
1.947938e+00,2.993191e+00,6,10,2.698827e-01,2.832222e-01
1.949056e+00,2.999996e+00,6,10,3.641935e-01,3.823950e-01
2.266505e+00,2.098853e+00,7,7,4.443293e-01,4.455716e-01
2.268933e+00,2.095898e+00,7,7,7.024380e-01,7.030091e-01
2.267771e+00,2.095104e+00,7,7,9.201492e-01,9.205136e-01
2.271888e+00,2.095427e+00,7,7,1.333787e+00,1.331585e+00
1.950753e+00,2.097343e+00,6,7,1.021772e+00,1.009117e+00
1.624366e+00,1.502916e+00,5,5,6.563713e-01,6.564908e-01
2.266153e+00,2.094739e+00,7,7,4.038474e-01,4.040695e-01
1.626977e+00,2.702976e+00,5,9,2.303971e-01,2.340963e-01
1.620452e+00,2.097306e+00,5,7,3.278767e-01,3.318171e-01
2.598479e+00,2.096085e+00,8,7,1.834914e-01,1.842684e-01
2.270512e+00,2.095339e+00,7,7,2.712300e-01,2.724554e-01
2.273497e+00,2.095727e+00,7,7,2.725458e-01,2.729808e-01
1.299245e+00,2.397285e+00,4,8,2.366145e-01,2.358894e-01
3.264969e+00,2.994287e+00,10,10,1.665837e-01,1.641873e-01
2.265189e+00,2.094428e+00,7,7,2.805383e-01,2.804722e-01
3.906433e+00,3.592642e+00,12,12,2.542931e-01,2.542934e-01
1.952245e+00,1.201366e+00,6,4,2.082731e-01,2.088360e-01
1.949876e+00,2.094517e+00,6,7,2.304945e-01,2.286772e-01
2.928848e+00,2.393914e+00,9,8,1.264849e-01,1.091589e-01
3.921761e+00,1.201271e+00,12,4,9.583228e-02,8.505879e-02
3.266763e+00,8.982610e-01,10,3,1.051862e-01,8.995212e-02
3.575407e+00,3.000712e+00,11,10,2.218053e-01,2.249078e-01
1.628691e+00,2.394400e+00,5,8,2.803702e-01,2.801918e-01
1.949581e+00,2.096360e+00,6,7,2.613959e-01,2.590950e-01
3.582661e+00,2.996482e+00,11,10,1.571530e-01,1.629089e-01
1.301030e+00,2.995799e+00,4,10,1.452247e-01,1.467940e-01
1.945028e+00,1.494178e+00,6,5,1.562945e-01,1.544110e-01
1.945829e+00,1.499984e+00,6,5,1.966238e-01,1.975199e-01
3.247128e+00,2.993937e+00,10,10,1.362837e-01,1.360175e-01
1.627012e+00,1.498678e+00,5,5,2.033152e-01,2.032157e-01
3.570245e+00,2.991901e+00,11,10,1.033449e-01,1.091829e-01
1.945578e+00,1.202421e+00,6,4,9.107998e-02,9.099451e-02
2.272890e+00,1.501892e+00,7,5,2.245385e-01,2.257391e-01
1.945245e+00,2.094497e+00,6,7,1.276579e-01,1.274496e-01
2.268212e+00,1.503052e+00,7,5,3.781432e-01,3.766978e-01
1.298380e+00,1.497334e+00,4,5,2.556667e-01,2.554181e-01
1.951960e+00,2.098403e+00,6,7,3.746772e-01,3.699155e-01
2.280860e+00,2.095476e+00,7,7,5.702046e-01,5.716888e-01
1.950605e+00,2.094440e+00,6,7,4.987894e-01,4.893690e-01
2.922970e+00,2.096341e+00,9,7,4.317598e-01,4.340624e-01
2.265744e+00,2.094736e+00,7,7,5.712838e-01,5.701551e-01
2.273841e+00,2.095695e+00,7,7,3.974306e-01,3.972707e-01
1.944072e+00,2.093907e+00,6,7,2.243400e-01,2.214714e-01
1.301015e+00,2.998707e+00,4,10,2.087155e-01,2.182705e-01
2.267527e+00,2.093978e+00,7,7,1.801881e-01,1.806108e-01
3.249888e+00,2.991560e+00,10,10,1.222836e-01,1.222354e-01
1.304888e+00,1.201943e+00,4,4,1.269197e-01,1.268380e-01
3.581480e+00,2.995277e+00,11,10,1.407435e-01,1.546783e-01
2.602964e+00,2.992741e+00,8,10,1.031945e-01,1.211261e-01
3.255053e+00,1.199617e+00,10,4,1.157788e-01,9.998016e-02
3.917993e+00,3.002693e+00,12,10,7.338107e-02,7.449429e-02
1.304991e+00,1.202126e+00,4,4,2.244988e-01,2.246805e-01
1.624393e+00,1.199962e+00,5,4,2.558351e-01,2.593059e-01
1.302020e+00,1.205632e+00,4,4,2.104491e-01,2.104929e-01
3.582661e+00,3.000308e+00,11,10,2.397473e-01,2.524124e-01
2.923878e+00,2.093728e+00,9,7,1.622803e-01,1.603091e-01
2.595551e+00,2.393138e+00,8,8,2.691317e-01,2.689953e-01
2.268218e+00,2.099673e+00,7,7,4.116098e-01,4.119036e-01
2.271229e+00,2.094911e+00,7,7,5.307510e-01,5.311011e-01
1.628826e+00,2.997461e+00,5,10,4.538413e-01,4.535126e-01
3.248760e+00,2.700035e+00,10,9,3.664430e-01,3.640893e-01
2.270579e+00,2.095723e+00,7,7,3.221868e-01,3.227232e-01
1.947099e+00,2.095520e+00,6,7,2.537543e-01,2.466616e-01
2.267597e+00,2.094778e+00,7,7,3.006805e-01,2.999870e-01
2.272538e+00,2.094701e+00,7,7,3.579552e-01,3.587086e-01
2.594471e+00,2.397665e+00,8,8,4.501159e-01,4.497397e-01
1.952485e+00,2.099927e+00,6,7,3.387422e-01,3.372717e-01
1.299596e+00,1.199296e+00,4,4,3.045302e-01,3.045926e-01
1.635374e+00,1.499196e+00,5,5,2.702445e-01,2.710465e-01
2.277221e+00,2.097279e+00,7,7,2.296700e-01,2.290595e-01
1.625650e+00,2.996456e+00,5,10,1.749642e-01,1.749280e-01
3.591801e+00,2.102603e+00,11,7,1.918926e-01,1.900541e-01
2.266491e+00,2.098811e+00,7,7,3.326745e-01,3.328626e-01
1.943909e+00,2.098083e+00,6,7,2.908994e-01,2.872250e-01
1.618469e+00,1.505528e+00,5,5,2.767385e-01,2.750660e-01
1.298820e+00,2.097785e+00,4,7,3.774098e-01,3.715130e-01
2.262976e+00,2.092406e+00,7,7,1.489305e-01,1.486133e-01
1.630852e+00,1.504102e+00,5,5,1.033346e-01,1.026620e-01
1.630137e+00,1.803610e+00,5,6,8.064028e-02,8.099664e-02
3.578649e+00,2.992494e+00,11,10,6.625268e-02,7.825304e-02
2.594958e+00,3.001720e+00,8,10,8.432505e-02,8.460022e-02
2.929030e+00,2.697109e+00,9,9,1.865045e-01,1.832008e-01
1.945196e+00,1.797500e+00,6,6,1.232551e-01,1.236355e-01
1.959584e+00,1.501207e+00,6,5,2.659533e-01,2.677457e-01
1.623384e+00,1.200304e+00,5,4,3.319503e-01,3.350104e-01
1.629635e+00,1.199993e+00,5,4,2.022319e-01,2.037924e-01
1.302811e+00,1.799328e+00,4,6,1.906907e-01,1.895822e-01
1.945069e+00,2.095522e+00,6,7,1.657024e-01,1.627018e-01
3.249761e+00,1.796691e+00,10,6,1.754284e-01,1.615554e-01
2.611943e+00,2.995407e+00,8,10,1.681273e-01,1.779587e-01
2.605815e+00,1.200463e+00,8,4,1.735661e-01,1.728001e-01
1.944080e+00,1.799644e+00,6,6,1.530109e-01,1.530645e-01
2.924522e+00,1.803136e+00,9,6,1.112928e-01,1.068338e-01
2.272581e+00,9.043990e-01,7,3,2.105015e-01,2.088294e-01
2.267576e+00,2.096492e+00,7,7,2.564971e-01,2.563110e-01
2.274769e+00,2.095197e+00,7,7,3.152913e-01,3.156817e-01
1.946695e+00,1.200912e+00,6,4,3.855739e-01,3.882913e-01
1.628832e+00,2.393810e+00,5,8,3.617356e-01,3.624592e-01
2.266489e+00,2.094614e+00,7,7,3.799611e-01,3.799397e-01
1.628804e+00,1.199512e+00,5,4,2.944095e-01,3.007814e-01
3.579691e+00,1.200904e+00,11,4,2.094011e-01,2.111067e-01
2.266302e+00,2.093164e+00,7,7,2.503206e-01,2.503821e-01
2.272476e+00,2.096563e+00,7,7,3.903503e-01,3.906264e-01
2.276789e+00,2.095027e+00,7,7,4.984880e-01,4.996140e-01
2.270240e+00,2.097849e+00,7,7,3.480721e-01,3.468046e-01
1.944075e+00,1.499434e+00,6,5,3.690084e-01,3.695422e-01
2.269315e+00,2.096046e+00,7,7,3.423479e-01,3.426194e-01
2.269556e+00,2.094453e+00,7,7,1.861740e-01,1.862427e-01
3.244652e+00,2.993425e+00,10,10,2.655687e-01,2.655464e-01
1.299832e+00,2.994679e+00,4,10,2.672264e-01,2.867050e-01
2.594370e+00,2.393519e+00,8,8,1.884249e-01,1.884772e-01
1.304829e+00,1.500920e+00,4,5,1.884048e-01,1.872118e-01
3.259234e+00,2.997995e+00,10,10,3.225182e-01,3.220669e-01
2.271261e+00,2.096876e+00,7,7,5.370669e-01,5.381782e-01
2.268298e+00,2.106370e+00,7,7,5.372540e-01,5.383586e-01
2.277568e+00,2.094012e+00,7,7,4.885923e-01,4.893339e-01
1.948418e+00,2.099287e+00,6,7,4.922025e-01,4.846688e-01
2.268426e+00,2.095425e+00,7,7,6.884029e-01,6.890360e-01
1.629438e+00,3.294683e+00,5,11,3.207462e-01,3.261690e-01
9.796700e-01,2.097730e+00,3,7,3.645053e-01,3.641965e-01
3.260053e+00,2.400720e+00,10,8,3.150528e-01,2.925521e-01
2.268698e+00,2.096115e+00,7,7,2.819072e-01,2.818107e-01
2.265879e+00,2.091680e+00,7,7,1.357109e-01,1.356854e-01
3.247878e+00,2.992740e+00,10,10,2.275735e-01,2.253355e-01
2.587015e+00,2.397335e+00,8,8,1.562884e-01,1.555765e-01
3.892094e+00,3.595465e+00,12,12,1.702975e-01,1.666389e-01
1.302312e+00,1.205784e+00,4,4,1.898637e-01,1.892117e-01
2.269706e+00,2.094897e+00,7,7,4.365967e-01,4.371704e-01
2.267775e+00,2.097299e+00,7,7,8.104995e-01,8.112193e-01
2.274994e+00,2.094125e+00,7,7,5.342794e-01,5.350222e-01
2.271546e+00,2.096536e+00,7,7,6.161230e-01,6.167875e-01
1.948983e+00,2.094333e+00,6,7,5.018466e-01,4.969790e-01
3.249016e+00,2.093919e+00,10,7,6.296967e-01,6.331066e-01
1.948221e+00,2.991921e+00,6,10,2.778157e-01,2.891863e-01
1.947890e+00,1.801877e+00,6,6,2.343900e-01,2.351270e-01
1.627923e+00,1.801971e+00,5,6,1.337658e-01,1.337249e-01
1.951907e+00,1.200056e+00,6,4,1.370622e-01,1.373018e-01
1.616362e+00,2.097572e+00,5,7,1.547379e-01,1.549893e-01
2.271718e+00,2.093721e+00,7,7,2.667714e-01,2.671545e-01
3.579745e+00,2.991660e+00,11,10,1.631599e-01,1.748928e-01
2.285986e+00,1.495178e+00,7,5,1.916886e-01,1.924352e-01
2.601354e+00,1.199305e+00,8,4,1.731011e-01,1.756906e-01
2.267067e+00,1.203383e+00,7,4,1.999667e-01,1.950264e-01
1.625660e+00,2.702476e+00,5,9,1.141334e-01,1.138000e-01
1.631550e+00,1.501417e+00,5,5,1.389287e-01,1.381347e-01
2.265223e+00,2.091911e+00,7,7,1.477230e-01,1.437861e-01
2.276639e+00,2.095448e+00,7,7,2.241225e-01,2.243648e-01
2.267244e+00,2.095494e+00,7,7,5.208846e-01,5.216294e-01
2.265564e+00,2.100531e+00,7,7,6.605093e-01,6.611929e-01
3.243486e+00,2.994032e+00,10,10,4.495140e-01,4.484345e-01
2.267417e+00,2.094229e+00,7,7,4.747206e-01,4.739112e-01
1.300441e+00,3.599932e+00,4,12,3.238910e-01,3.377793e-01
2.272816e+00,1.502732e+00,7,5,1.785216e-01,1.766792e-01
1.621587e+00,1.205181e+00,5,4,2.509395e-01,2.481618e-01
2.592969e+00,2.095121e+00,8,7,1.555015e-01,1.541273e-01
1.306130e+00,1.496002e+00,4,5,2.781915e-01,2.772866e-01
1.949295e+00,2.697152e+00,6,9,1.774099e-01,1.940089e-01
3.245678e+00,1.800407e+00,10,6,1.755950e-01,1.768793e-01
1.301892e+00,1.502943e+00,4,5,1.884215e-01,1.879918e-01
2.273529e+00,2.096463e+00,7,7,2.632685e-01,2.636481e-01
2.929449e+00,2.395613e+00,9,8,1.607882e-01,1.453990e-01
3.251583e+00,1.201083e+00,10,4,2.405303e-01,2.326007e-01
2.264992e+00,2.094908e+00,7,7,4.539977e-01,4.545357e-01
3.241085e+00,2.993241e+00,10,10,2.510252e-01,2.509160e-01
1.305786e+00,1.201788e+00,4,4,1.986151e-01,1.968749e-01
3.246067e+00,2.990867e+00,10,10,1.227574e-01,1.227378e-01
1.305757e+00,8.970830e-01,4,3,1.476947e-01,1.480330e-01
1.304583e+00,2.395413e+00,4,8,1.747438e-01,1.747639e-01
1.952822e+00,1.505216e+00,6,5,3.403290e-01,3.331906e-01
3.242568e+00,2.992277e+00,10,10,2.502597e-01,2.500671e-01
2.601269e+00,2.399669e+00,8,8,2.092580e-01,2.092201e-01
1.949707e+00,2.395088e+00,6,8,2.037326e-01,2.039398e-01
1.630921e+00,1.500864e+00,5,5,2.474543e-01,2.471859e-01
2.275637e+00,2.094811e+00,7,7,3.653503e-01,3.664395e-01
2.265936e+00,2.095159e+00,7,7,6.315473e-01,6.333209e-01
2.271871e+00,2.094450e+00,7,7,7.434257e-01,7.452856e-01
2.595635e+00,2.391879e+00,8,8,6.286807e-01,6.288522e-01
1.627027e+00,1.503427e+00,5,5,5.496232e-01,5.489443e-01
2.266358e+00,2.094168e+00,7,7,3.838090e-01,3.830845e-01
3.253196e+00,2.993929e+00,10,10,3.885240e-01,3.827835e-01
2.608445e+00,1.499225e+00,8,5,4.251094e-01,4.212852e-01
1.630457e+00,1.201186e+00,5,4,3.368625e-01,3.396067e-01
2.275749e+00,2.102390e+00,7,7,3.717362e-01,3.725293e-01
2.266462e+00,2.995345e+00,7,10,2.886796e-01,2.884522e-01
1.303951e+00,1.200931e+00,4,4,2.420800e-01,2.409062e-01
2.269991e+00,2.095019e+00,7,7,3.510697e-01,3.482683e-01
2.275548e+00,2.102850e+00,7,7,4.003663e-01,4.011573e-01
2.268237e+00,2.094519e+00,7,7,7.161071e-01,7.176546e-01
2.266860e+00,2.094606e+00,7,7,8.370393e-01,8.369341e-01
2.265021e+00,2.094346e+00,7,7,7.687569e-01,7.690818e-01
3.245096e+00,2.992699e+00,10,10,6.648557e-01,6.617307e-01
2.594704e+00,2.393996e+00,8,8,5.361553e-01,5.359648e-01
2.273152e+00,2.095297e+00,7,7,5.932805e-01,5.940081e-01
1.950942e+00,2.096511e+00,6,7,6.046114e-01,5.987411e-01
1.949962e+00,2.095787e+00,6,7,5.071803e-01,5.013878e-01
3.246340e+00,2.993998e+00,10,10,3.679040e-01,3.670133e-01
1.307320e+00,1.201886e+00,4,4,3.128361e-01,3.120608e-01
2.264937e+00,2.094399e+00,7,7,2.508721e-01,2.508013e-01
1.951076e+00,1.798630e+00,6,6,3.004937e-01,2.951432e-01
1.619808e+00,1.205662e+00,5,4,3.654970e-01,3.662454e-01
1.621304e+00,1.203587e+00,5,4,2.132903e-01,2.159822e-01
1.943659e+00,2.394203e+00,6,8,2.095991e-01,2.080046e-01
2.586979e+00,2.394114e+00,8,8,2.305621e-01,2.307249e-01
3.241973e+00,2.990456e+00,10,10,1.310147e-01,1.308933e-01
1.634196e+00,1.201266e+00,5,4,1.387130e-01,1.387594e-01
9.789350e-01,9.040580e-01,3,3,1.502383e-01,1.506820e-01
9.776860e-01,1.499846e+00,3,5,1.738829e-01,1.735963e-01
1.308225e+00,9.022860e-01,4,3,2.459601e-01,2.461796e-01
2.275180e+00,2.396428e+00,7,8,1.593350e-01,1.620173e-01
2.615868e+00,1.500053e+00,8,5,1.966525e-01,1.911962e-01
2.596822e+00,2.392824e+00,8,8,2.079268e-01,2.070302e-01
1.947883e+00,2.095434e+00,6,7,1.516924e-01,1.494776e-01
3.247664e+00,2.994167e+00,10,10,1.577450e-01,1.575007e-01
2.268488e+00,2.095363e+00,7,7,4.347120e-01,4.350333e-01
2.268312e+00,2.094301e+00,7,7,7.841855e-01,7.849634e-01
2.270778e+00,2.095319e+00,7,7,8.413608e-01,8.420317e-01
1.620892e+00,2.999186e+00,5,10,6.436682e-01,6.558646e-01
2.275763e+00,2.095155e+00,7,7,4.997890e-01,4.999643e-01
1.948483e+00,2.095492e+00,6,7,4.459662e-01,4.390636e-01
2.275366e+00,2.093888e+00,7,7,4.008150e-01,4.010317e-01
3.245680e+00,2.992656e+00,10,10,2.882037e-01,2.871019e-01
2.271508e+00,2.096519e+00,7,7,2.591627e-01,2.595881e-01
2.268069e+00,2.097204e+00,7,7,5.220404e-01,5.217800e-01
2.268381e+00,2.109654e+00,7,7,6.985780e-01,6.991666e-01
2.266766e+00,2.096693e+00,7,7,8.591095e-01,8.598964e-01
2.267434e+00,2.095390e+00,7,7,7.874734e-01,7.865052e-01
2.278160e+00,2.095675e+00,7,7,5.930523e-01,5.932832e-01
1.300977e+00,1.801334e+00,4,6,4.400847e-01,4.393067e-01
1.619936e+00,2.098401e+00,5,7,4.405293e-01,4.426527e-01
2.268121e+00,2.096271e+00,7,7,7.431228e-01,7.428577e-01
2.268370e+00,2.094337e+00,7,7,6.755693e-01,6.753584e-01
2.277231e+00,2.093806e+00,7,7,5.646713e-01,5.652458e-01
2.268633e+00,2.092527e+00,7,7,4.875380e-01,4.888707e-01
2.269802e+00,2.093779e+00,7,7,4.083280e-01,4.085826e-01
3.246828e+00,2.992430e+00,10,10,3.438817e-01,3.437872e-01
1.950505e+00,2.096582e+00,6,7,4.452382e-01,4.412127e-01
1.619079e+00,1.501666e+00,5,5,4.345849e-01,4.314109e-01
2.267351e+00,2.093881e+00,7,7,3.965936e-01,3.968183e-01
2.265231e+00,2.096570e+00,7,7,3.757559e-01,3.756732e-01
2.275175e+00,2.096221e+00,7,7,2.876799e-01,2.878771e-01
2.276628e+00,2.095901e+00,7,7,2.303113e-01,2.307147e-01
2.277604e+00,2.095734e+00,7,7,2.920130e-01,2.926537e-01
2.591439e+00,2.399057e+00,8,8,2.187693e-01,2.181414e-01
1.945376e+00,2.097116e+00,6,7,1.164414e-01,1.152420e-01
3.241535e+00,2.702974e+00,10,9,1.028211e-01,1.185240e-01
1.302093e+00,2.993180e+00,4,10,1.625500e-01,1.624970e-01
2.935809e+00,1.200780e+00,9,4,2.195211e-01,2.176403e-01
2.271487e+00,2.098232e+00,7,7,2.396813e-01,2.398796e-01
2.916290e+00,2.694966e+00,9,9,1.975046e-01,1.980907e-01
1.630551e+00,1.806036e+00,5,6,1.538099e-01,1.537781e-01
1.303785e+00,9.028410e-01,4,3,2.143668e-01,2.153036e-01
3.242040e+00,2.992538e+00,10,10,8.285155e-02,8.082528e-02
2.940458e+00,2.705201e+00,9,9,7.645709e-02,7.660577e-02
1.302194e+00,2.992475e+00,4,10,7.224021e-02,7.336880e-02
1.302876e+00,1.205799e+00,4,4,7.937957e-02,7.943352e-02
9.769020e-01,2.997755e+00,3,10,9.744010e-02,1.109270e-01
9.734000e-01,1.199867e+00,3,4,1.396845e-01,1.402011e-01
3.899067e+00,1.199380e+00,12,4,1.121616e-01,1.096607e-01
1.301064e+00,2.996864e+00,4,10,1.508698e-01,1.683599e-01
2.265812e+00,2.092275e+00,7,7,1.972219e-01,1.970772e-01
1.945982e+00,1.500230e+00,6,5,1.072948e-01,1.083934e-01
1.302605e+00,2.994992e+00,4,10,1.223792e-01,1.408016e-01
1.306437e+00,3.293256e+00,4,11,9.361934e-02,9.339334e-02
1.305160e+00,1.801226e+00,4,6,1.592596e-01,1.592362e-01
3.255075e+00,2.995534e+00,10,10,1.687901e-01,1.651663e-01
2.265006e+00,2.097404e+00,7,7,7.094570e-02,6.995218e-02
1.629515e+00,1.201651e+00,5,4,8.019509e-02,8.118049e-02
3.586960e+00,2.993645e+00,11,10,1.445233e-01,1.470812e-01
3.573317e+00,1.201989e+00,11,4,1.120429e-01,1.062980e-01
3.240878e+00,1.505174e+00,10,5,9.459303e-02,8.902829e-02
1.304288e+00,9.030520e-01,4,3,1.505139e-01,1.504474e-01
1.627187e+00,1.504478e+00,5,5,1.156593e-01,1.146567e-01
1.304422e+00,1.207190e+00,4,4,2.190710e-01,2.184838e-01
1.949320e+00,2.095148e+00,6,7,4.193282e-01,4.133000e-01
3.252832e+00,2.994358e+00,10,10,3.426209e-01,3.434808e-01
3.247696e+00,2.994510e+00,10,10,2.300043e-01,2.299747e-01
1.950669e+00,1.499414e+00,6,5,3.357529e-01,3.426618e-01
2.272739e+00,2.096410e+00,7,7,4.485791e-01,4.494843e-01
2.587967e+00,1.501436e+00,8,5,2.202137e-01,2.208927e-01
1.303481e+00,1.200498e+00,4,4,1.810723e-01,1.791341e-01
1.948007e+00,1.502366e+00,6,5,1.999753e-01,2.013576e-01
1.948259e+00,1.497823e+00,6,5,8.312021e-02,8.282238e-02
3.919622e+00,1.200980e+00,12,4,4.332379e-02,3.705593e-02
1.306494e+00,9.027280e-01,4,3,7.257275e-02,7.250170e-02
1.304307e+00,1.200674e+00,4,4,1.266557e-01,1.278735e-01
1.305174e+00,1.200904e+00,4,4,1.583463e-01,1.582148e-01
2.272059e+00,2.094377e+00,7,7,3.598625e-01,3.607507e-01
1.947135e+00,2.093301e+00,6,7,2.369426e-01,2.348617e-01
3.583387e+00,2.994028e+00,11,10,2.156530e-01,2.234995e-01
1.302981e+00,1.200751e+00,4,4,1.948198e-01,1.949518e-01
1.306813e+00,1.501076e+00,4,5,1.667154e-01,1.667782e-01
1.633334e+00,1.202196e+00,5,4,2.069761e-01,2.067889e-01
1.944609e+00,2.092456e+00,6,7,2.408125e-01,2.392113e-01
3.577472e+00,2.992051e+00,11,10,2.156724e-01,2.253324e-01
2.922827e+00,2.400678e+00,9,8,2.222806e-01,2.060837e-01
1.617914e+00,1.499404e+00,5,5,2.365092e-01,2.364149e-01
2.268735e+00,2.093959e+00,7,7,2.342833e-01,2.342806e-01
2.271183e+00,2.092609e+00,7,7,2.649754e-01,2.646881e-01
3.574958e+00,2.993737e+00,11,10,1.706649e-01,1.826553e-01
2.272045e+00,1.200466e+00,7,4,1.239255e-01,1.238425e-01
2.263818e+00,2.094413e+00,7,7,1.194785e-01,1.194872e-01
2.266483e+00,2.097613e+00,7,7,1.630741e-01,1.631081e-01
3.262194e+00,2.999099e+00,10,10,1.833557e-01,1.832716e-01
1.297980e+00,1.199204e+00,4,4,4.593704e-01,4.607165e-01
3.247079e+00,2.993231e+00,10,10,3.173575e-01,3.169110e-01
1.944742e+00,2.099296e+00,6,7,3.019837e-01,2.988228e-01
1.950749e+00,2.099864e+00,6,7,2.630346e-01,2.609851e-01
1.946523e+00,1.201214e+00,6,4,2.452999e-01,2.440016e-01
1.948204e+00,2.097361e+00,6,7,1.669689e-01,1.620453e-01
3.244801e+00,2.992178e+00,10,10,2.095838e-01,2.095195e-01
1.949761e+00,2.094842e+00,6,7,2.591630e-01,2.563531e-01
1.626775e+00,2.991558e+00,5,10,2.140106e-01,2.278961e-01
1.303857e+00,1.201158e+00,4,4,2.356195e-01,2.362835e-01
2.272075e+00,2.093289e+00,7,7,1.984684e-01,1.985197e-01
3.253897e+00,2.394890e+00,10,8,1.691482e-01,1.588584e-01
2.269383e+00,2.993832e+00,7,10,1.408730e-01,1.428123e-01
1.297909e+00,1.497025e+00,4,5,9.697603e-02,9.620668e-02
1.307880e+00,2.998994e+00,4,10,1.254789e-01,1.344782e-01
1.620971e+00,2.093783e+00,5,7,1.515300e-01,1.503789e-01
1.307574e+00,2.998381e+00,4,10,1.465788e-01,1.582083e-01
1.299768e+00,3.294401e+00,4,11,1.536759e-01,1.662848e-01
3.900945e+00,2.093260e+00,12,7,1.587005e-01,1.489947e-01
3.256263e+00,3.291475e+00,10,11,1.606444e-01,1.392871e-01
3.252754e+00,1.504743e+00,10,5,1.687351e-01,1.499399e-01
1.304296e+00,1.200952e+00,4,4,1.347940e-01,1.341496e-01
1.632479e+00,1.201702e+00,5,4,2.645162e-01,2.643195e-01
2.268169e+00,2.095737e+00,7,7,5.431507e-01,5.435738e-01
2.275476e+00,2.094825e+00,7,7,3.725597e-01,3.729813e-01
3.573158e+00,2.992182e+00,11,10,2.391645e-01,2.557439e-01
2.273498e+00,1.198864e+00,7,4,2.264540e-01,2.280337e-01
3.241079e+00,2.992317e+00,10,10,2.319979e-01,2.307641e-01
1.302296e+00,1.205850e+00,4,4,1.624994e-01,1.625521e-01
3.256737e+00,1.801947e+00,10,6,2.180990e-01,2.021415e-01
2.270704e+00,2.095855e+00,7,7,2.251769e-01,2.253889e-01
2.267407e+00,2.092253e+00,7,7,2.544196e-01,2.537036e-01
2.269737e+00,2.094510e+00,7,7,2.055422e-01,2.056636e-01
1.304094e+00,1.202080e+00,4,4,2.474896e-01,2.473397e-01
2.274594e+00,2.096163e+00,7,7,2.570453e-01,2.575456e-01
2.590960e+00,2.407125e+00,8,8,1.685213e-01,1.683463e-01
3.576094e+00,2.991795e+00,11,10,1.217160e-01,1.335451e-01
1.624397e+00,2.998858e+00,5,10,6.888802e-02,8.074631e-02
9.762990e-01,1.499059e+00,3,5,1.200642e-01,1.199004e-01
1.308185e+00,1.200685e+00,4,4,1.690446e-01,1.684335e-01
1.302803e+00,1.501807e+00,4,5,1.766216e-01,1.766228e-01
3.572121e+00,2.990931e+00,11,10,1.174706e-01,1.207746e-01
2.602945e+00,9.031770e-01,8,3,1.297855e-01,1.304740e-01
2.266692e+00,2.093839e+00,7,7,1.622153e-01,1.622391e-01
1.947221e+00,1.500265e+00,6,5,1.681075e-01,1.685736e-01
1.621087e+00,1.798970e+00,5,6,2.514383e-01,2.488384e-01
2.263606e+00,2.092277e+00,7,7,1.448135e-01,1.448200e-01
1.306254e+00,1.202559e+00,4,4,1.442995e-01,1.443309e-01
1.304205e+00,1.201909e+00,4,4,4.110159e-01,4.095242e-01
2.280648e+00,2.095188e+00,7,7,4.042412e-01,4.053336e-01
1.948204e+00,1.497990e+00,6,5,1.868237e-01,1.866157e-01
3.273939e+00,8.978160e-01,10,3,2.406192e-01,2.290559e-01
1.951173e+00,2.102358e+00,6,7,2.063965e-01,2.073743e-01
2.605886e+00,2.400448e+00,8,8,1.751170e-01,1.737653e-01
3.574859e+00,2.991880e+00,11,10,7.340244e-02,6.817689e-02
1.297642e+00,2.993524e+00,4,10,5.954110e-02,8.066597e-02
2.606377e+00,1.201363e+00,8,4,1.404886e-01,1.415139e-01
1.626299e+00,1.495586e+00,5,5,1.954831e-01,1.994991e-01
2.592425e+00,2.092276e+00,8,7,2.964865e-01,2.975068e-01
1.299601e+00,1.205348e+00,4,4,1.559738e-01,1.553620e-01
3.256414e+00,2.995124e+00,10,10,1.414258e-01,1.415059e-01
1.303874e+00,1.202423e+00,4,4,1.538124e-01,1.535106e-01
1.950727e+00,2.094155e+00,6,7,2.470013e-01,2.467019e-01
2.271666e+00,2.096416e+00,7,7,2.707664e-01,2.711187e-01
2.267629e+00,2.093559e+00,7,7,2.880686e-01,2.882639e-01
3.247148e+00,2.991727e+00,10,10,2.395071e-01,2.373495e-01
1.308211e+00,1.201607e+00,4,4,3.346869e-01,3.342403e-01
3.243441e+00,2.993165e+00,10,10,1.999313e-01,1.997858e-01
2.595780e+00,2.391302e+00,8,8,2.047070e-01,2.035101e-01
2.269847e+00,2.098399e+00,7,7,3.650097e-01,3.605421e-01
3.241745e+00,2.992365e+00,10,10,1.764307e-01,1.763402e-01
3.243921e+00,2.993795e+00,10,10,1.899300e-01,1.898858e-01
1.622755e+00,1.793384e+00,5,6,1.467983e-01,1.457955e-01
1.303065e+00,1.801042e+00,4,6,6.310887e-02,6.274831e-02
1.627501e+00,1.202279e+00,5,4,8.208066e-02,8.225907e-02
2.942409e+00,2.699747e+00,9,9,1.302894e-01,1.287282e-01
3.257465e+00,2.999588e+00,10,10,8.817572e-02,8.810299e-02
1.305376e+00,1.200911e+00,4,4,2.121835e-01,2.121520e-01
3.242718e+00,2.995484e+00,10,10,1.368012e-01,1.362518e-01
1.632321e+00,1.201636e+00,5,4,1.132879e-01,1.126687e-01
3.604945e+00,2.996894e+00,11,10,1.167530e-01,1.301735e-01
2.598613e+00,2.700048e+00,8,9,1.589937e-01,1.718507e-01
2.267564e+00,2.097479e+00,7,7,2.131107e-01,2.131279e-01
2.596119e+00,2.391239e+00,8,8,3.202424e-01,3.197659e-01
1.298569e+00,1.799257e+00,4,6,3.215405e-01,3.219568e-01
2.269535e+00,2.094773e+00,7,7,4.412138e-01,4.415806e-01
2.268244e+00,2.093426e+00,7,7,1.521381e-01,1.511553e-01
1.632747e+00,1.800532e+00,5,6,1.353866e-01,1.351051e-01
2.593712e+00,2.392672e+00,8,8,7.653310e-02,7.535808e-02
1.306618e+00,1.201736e+00,4,4,1.316981e-01,1.315208e-01
2.606484e+00,1.495330e+00,8,5,2.123227e-01,2.182355e-01
2.265425e+00,2.092742e+00,7,7,2.150806e-01,2.149189e-01
2.273147e+00,2.095489e+00,7,7,2.432811e-01,2.433777e-01
1.620483e+00,1.206016e+00,5,4,1.736605e-01,1.738557e-01
3.259496e+00,2.696088e+00,10,9,1.617988e-01,1.759320e-01
1.628445e+00,3.597662e+00,5,12,2.855809e-01,2.959192e-01
1.948514e+00,2.095605e+00,6,7,3.220072e-01,3.181802e-01
1.947787e+00,1.496048e+00,6,5,2.703685e-01,2.718257e-01
1.949061e+00,1.798392e+00,6,6,2.336990e-01,2.338922e-01
9.797730e-01,3.000210e+00,3,10,3.395514e-01,3.565589e-01
2.605731e+00,2.395875e+00,8,8,1.836666e-01,1.827449e-01
1.304521e+00,9.020740e-01,4,3,1.611054e-01,1.601048e-01
1.633211e+00,3.006666e+00,5,10,3.152694e-01,3.249216e-01
1.297353e+00,1.502238e+00,4,5,3.366710e-01,3.304457e-01
2.270292e+00,1.796385e+00,7,6,3.888091e-01,3.940134e-01
1.298801e+00,2.402608e+00,4,8,1.354187e-01,1.348463e-01
2.604187e+00,1.200115e+00,8,4,1.450327e-01,1.451596e-01
2.273615e+00,2.094688e+00,7,7,2.137282e-01,2.141299e-01
2.268589e+00,2.093728e+00,7,7,2.663734e-01,2.679525e-01
1.299758e+00,2.993386e+00,4,10,2.478366e-01,2.536128e-01
1.949173e+00,1.500933e+00,6,5,2.488678e-01,2.503300e-01
1.623911e+00,2.094129e+00,5,7,1.973836e-01,1.959807e-01
2.266329e+00,2.094239e+00,7,7,1.459080e-01,1.459111e-01

