6.846070e-01,6.027230e-01,2,2,0.000000e+00,0.000000e+00
9.816260e-01,9.023070e-01,3,3,5.321986e-02,5.321966e-02
9.744840e-01,9.078850e-01,3,3,6.159864e-02,6.159722e-02
9.766700e-01,9.016740e-01,3,3,1.569301e-01,1.569099e-01
1.636286e+00,1.498310e+00,5,5,9.117295e-02,9.124246e-02
1.321473e+00,9.088060e-01,4,3,2.575829e-01,2.620746e-01
2.282977e+00,2.090955e+00,7,7,2.642301e-01,2.649203e-01
2.270734e+00,2.087384e+00,7,7,3.331320e-01,3.334326e-01
1.956646e+00,2.402337e+00,6,8,1.663230e-01,1.650216e-01
2.268099e+00,1.803108e+00,7,6,2.054691e-01,2.037846e-01
2.258224e+00,2.096263e+00,7,7,1.234625e-01,1.236211e-01
1.626986e+00,1.494381e+00,5,5,1.438479e-01,1.438797e-01
2.277189e+00,2.098078e+00,7,7,2.815121e-01,2.821330e-01
2.266121e+00,2.089067e+00,7,7,3.639028e-01,3.642253e-01
2.261260e+00,2.089090e+00,7,7,2.898551e-01,2.899830e-01
3.575904e+00,3.287000e+00,11,11,4.117022e-01,4.117086e-01
1.943197e+00,2.092280e+00,6,7,3.375594e-01,3.369822e-01
3.240845e+00,2.976987e+00,10,10,2.325501e-01,2.327126e-01
2.263003e+00,2.088691e+00,7,7,2.492023e-01,2.491572e-01
3.246409e+00,2.386701e+00,10,8,2.646199e-01,2.609685e-01
1.616868e+00,1.198215e+00,5,4,2.921734e-01,2.917522e-01
1.296960e+00,1.195982e+00,4,4,2.271318e-01,2.281825e-01
2.587979e+00,1.792630e+00,8,6,1.953549e-01,1.954632e-01
1.942913e+00,2.089313e+00,6,7,2.580992e-01,2.542654e-01
1.943651e+00,2.092069e+00,6,7,3.216790e-01,3.189459e-01
2.261117e+00,2.088670e+00,7,7,3.323307e-01,3.322530e-01
3.559072e+00,2.985887e+00,11,10,2.636758e-01,2.662437e-01
1.941256e+00,1.791406e+00,6,6,2.043743e-01,2.033472e-01
3.563337e+00,2.976707e+00,11,10,1.940524e-01,1.874689e-01
3.233704e+00,2.984088e+00,10,10,1.321489e-01,1.295924e-01
1.624102e+00,1.498863e+00,5,5,2.595039e-01,2.580916e-01
1.613549e+00,1.200619e+00,5,4,2.866532e-01,2.878072e-01
1.946992e+00,1.197118e+00,6,4,2.328194e-01,2.340151e-01
1.295960e+00,1.196737e+00,4,4,2.633879e-01,2.649236e-01
2.263987e+00,2.090231e+00,7,7,1.513973e-01,1.514497e-01
1.943163e+00,2.091463e+00,6,7,9.821962e-02,9.727991e-02
2.584320e+00,2.391050e+00,8,8,1.486089e-01,1.489989e-01
2.257086e+00,2.087904e+00,7,7,1.286271e-01,1.286391e-01
2.597214e+00,2.091374e+00,8,7,2.184417e-01,2.189194e-01
1.939175e+00,2.090141e+00,6,7,1.362509e-01,1.341625e-01
2.259131e+00,1.498140e+00,7,5,3.839342e-01,3.860169e-01
2.260189e+00,2.088953e+00,7,7,3.763655e-01,3.811122e-01
3.234306e+00,2.690824e+00,10,9,2.447463e-01,2.458103e-01
1.298763e+00,3.290725e+00,4,11,2.926823e-01,2.932390e-01
1.945697e+00,2.087422e+00,6,7,2.456365e-01,2.447028e-01
3.565671e+00,2.983883e+00,11,10,2.078885e-01,2.093560e-01
3.229754e+00,2.087637e+00,10,7,2.355777e-01,2.262912e-01
1.940566e+00,2.087219e+00,6,7,1.857569e-01,1.860841e-01
2.587965e+00,2.089914e+00,8,7,1.294378e-01,1.293966e-01
1.297185e+00,1.201737e+00,4,4,7.303353e-02,7.286313e-02
1.298301e+00,9.013010e-01,4,3,1.533438e-01,1.547116e-01
2.596711e+00,1.200405e+00,8,4,2.443331e-01,2.444769e-01
2.257265e+00,2.090153e+00,7,7,2.570964e-01,2.575332e-01
1.301471e+00,1.502408e+00,4,5,2.083740e-01,2.076043e-01
2.913053e+00,1.197957e+00,9,4,1.944048e-01,1.803031e-01
1.943915e+00,2.087914e+00,6,7,2.216235e-01,2.225084e-01
1.943509e+00,2.089307e+00,6,7,8.029807e-02,7.958536e-02
1.295252e+00,8.998320e-01,4,3,1.232633e-01,1.227118e-01
1.941606e+00,2.991598e+00,6,10,2.287897e-01,2.182821e-01
2.260497e+00,2.087397e+00,7,7,2.853285e-01,2.824487e-01
1.620928e+00,1.499533e+00,5,5,1.961506e-01,1.965784e-01
2.259004e+00,2.088662e+00,7,7,5.131862e-01,5.141791e-01
2.259722e+00,2.087742e+00,7,7,9.395201e-01,9.419536e-01
2.263884e+00,2.090196e+00,7,7,4.936565e-01,4.894748e-01
2.266842e+00,2.385880e+00,7,8,5.610441e-01,5.614650e-01
1.300518e+00,1.198543e+00,4,4,3.046766e-01,3.068933e-01
1.942074e+00,2.088442e+00,6,7,2.712945e-01,2.659728e-01
3.558929e+00,2.983119e+00,11,10,1.562806e-01,1.750757e-01
1.300734e+00,1.496439e+00,4,5,1.795310e-01,1.765049e-01
3.229708e+00,2.980907e+00,10,10,8.835925e-02,8.812614e-02
9.733520e-01,8.996040e-01,3,3,1.745038e-01,1.738657e-01
2.586569e+00,2.384954e+00,8,8,1.894674e-01,1.896972e-01
3.574944e+00,2.986310e+00,11,10,2.155061e-01,2.304061e-01
3.239642e+00,1.800808e+00,10,6,2.691615e-01,2.526824e-01
2.259135e+00,2.089382e+00,7,7,3.648815e-01,3.654217e-01
2.269199e+00,2.089224e+00,7,7,3.745483e-01,3.752097e-01
1.613548e+00,1.195458e+00,5,4,2.347342e-01,2.380634e-01
2.259185e+00,2.088190e+00,7,7,2.245534e-01,2.246452e-01
1.297502e+00,2.989637e+00,4,10,2.033034e-01,2.153931e-01
2.259147e+00,2.090928e+00,7,7,1.128057e-01,1.127764e-01
1.941898e+00,1.496112e+00,6,5,4.287271e-01,4.296356e-01
1.942176e+00,2.090351e+00,6,7,3.152170e-01,3.105215e-01
1.941645e+00,2.984801e+00,6,10,2.698827e-01,2.832222e-01
1.943007e+00,2.991412e+00,6,10,3.641935e-01,3.823950e-01
2.259054e+00,2.090136e+00,7,7,4.443293e-01,4.455716e-01
2.258174e+00,2.089119e+00,7,7,7.024380e-01,7.030091e-01
2.259300e+00,2.091177e+00,7,7,9.201492e-01,9.205136e-01
2.259476e+00,2.090153e+00,7,7,1.333787e+00,1.331585e+00
1.944329e+00,2.089182e+00,6,7,1.021772e+00,1.009117e+00
1.622428e+00,1.493605e+00,5,5,6.563713e-01,6.564908e-01
2.265112e+00,2.089310e+00,7,7,4.038474e-01,4.040695e-01
1.618242e+00,2.693939e+00,5,9,2.303971e-01,2.340963e-01
1.619672e+00,2.089017e+00,5,7,3.278767e-01,3.318171e-01
2.585495e+00,2.093903e+00,8,7,1.834914e-01,1.842684e-01
2.262121e+00,2.089431e+00,7,7,2.712300e-01,2.724554e-01
2.259053e+00,2.089410e+00,7,7,2.725458e-01,2.729808e-01
1.299003e+00,2.389836e+00,4,8,2.366145e-01,2.358894e-01
3.231988e+00,2.987429e+00,10,10,1.665837e-01,1.641873e-01
2.258271e+00,2.092584e+00,7,7,2.805383e-01,2.804722e-01
3.884727e+00,3.582132e+00,12,12,2.542931e-01,2.542934e-01
1.946077e+00,1.196819e+00,6,4,2.082731e-01,2.088360e-01
1.943780e+00,2.088813e+00,6,7,2.304945e-01,2.286772e-01
2.919003e+00,2.392779e+00,9,8,1.264849e-01,1.091589e-01
3.905925e+00,1.204708e+00,12,4,9.583228e-02,8.505879e-02
3.256066e+00,9.014100e-01,10,3,1.051862e-01,8.995212e-02
3.559768e+00,2.993442e+00,11,10,2.218053e-01,2.249078e-01
1.630377e+00,2.388749e+00,5,8,2.803702e-01,2.801918e-01
1.943861e+00,2.090949e+00,6,7,2.613959e-01,2.590950e-01
3.572346e+00,2.987778e+00,11,10,1.571530e-01,1.629089e-01
1.295474e+00,2.987724e+00,4,10,1.452247e-01,1.467940e-01
1.939447e+00,1.494295e+00,6,5,1.562945e-01,1.544110e-01
1.941947e+00,1.490874e+00,6,5,1.966238e-01,1.975199e-01
3.236500e+00,2.982838e+00,10,10,1.362837e-01,1.360175e-01
1.619689e+00,1.498638e+00,5,5,2.033152e-01,2.032157e-01
3.553994e+00,2.987118e+00,11,10,1.033449e-01,1.091829e-01
1.945221e+00,1.199040e+00,6,4,9.107998e-02,9.099451e-02
2.269455e+00,1.492980e+00,7,5,2.245385e-01,2.257391e-01
1.938231e+00,2.087874e+00,6,7,1.276579e-01,1.274496e-01
2.260939e+00,1.497833e+00,7,5,3.781432e-01,3.766978e-01
1.295339e+00,1.498341e+00,4,5,2.556667e-01,2.554181e-01
1.945546e+00,2.092477e+00,6,7,3.746772e-01,3.699155e-01
2.268905e+00,2.088428e+00,7,7,5.702046e-01,5.716888e-01
1.943563e+00,2.088760e+00,6,7,4.987894e-01,4.893690e-01
2.919067e+00,2.091713e+00,9,7,4.317598e-01,4.340624e-01
2.270619e+00,2.093272e+00,7,7,5.712838e-01,5.701551e-01
2.274120e+00,2.091415e+00,7,7,3.974306e-01,3.972707e-01
1.936514e+00,2.088644e+00,6,7,2.243400e-01,2.214714e-01
1.294020e+00,2.988914e+00,4,10,2.087155e-01,2.182705e-01
2.258336e+00,2.093017e+00,7,7,1.801881e-01,1.806108e-01
3.239190e+00,2.983969e+00,10,10,1.222836e-01,1.222354e-01
1.300149e+00,1.206018e+00,4,4,1.269197e-01,1.268380e-01
3.582783e+00,2.987940e+00,11,10,1.407435e-01,1.546783e-01
2.599595e+00,2.996323e+00,8,10,1.031945e-01,1.211261e-01
3.254408e+00,1.197369e+00,10,4,1.157788e-01,9.998016e-02
3.905360e+00,2.992143e+00,12,10,7.338107e-02,7.449429e-02
1.300266e+00,1.198898e+00,4,4,2.244988e-01,2.246805e-01
1.620364e+00,1.204162e+00,5,4,2.558351e-01,2.593059e-01
1.299140e+00,1.204076e+00,4,4,2.104491e-01,2.104929e-01
3.581853e+00,3.000883e+00,11,10,2.397473e-01,2.524124e-01
2.921048e+00,2.089168e+00,9,7,1.622803e-01,1.603091e-01
2.597205e+00,2.397153e+00,8,8,2.691317e-01,2.689953e-01
2.273162e+00,2.090603e+00,7,7,4.116098e-01,4.119036e-01
2.265680e+00,2.090231e+00,7,7,5.307510e-01,5.311011e-01
1.622298e+00,2.993580e+00,5,10,4.538413e-01,4.535126e-01
3.236436e+00,2.692823e+00,10,9,3.664430e-01,3.640893e-01
2.264849e+00,2.089044e+00,7,7,3.221868e-01,3.227232e-01
1.941734e+00,2.088663e+00,6,7,2.537543e-01,2.466616e-01
2.258613e+00,2.089137e+00,7,7,3.006805e-01,2.999870e-01
2.263963e+00,2.090342e+00,7,7,3.579552e-01,3.587086e-01
2.584975e+00,2.390843e+00,8,8,4.501159e-01,4.497397e-01
1.946658e+00,2.094522e+00,6,7,3.387422e-01,3.372717e-01
1.295477e+00,1.195789e+00,4,4,3.045302e-01,3.045926e-01
1.627127e+00,1.493922e+00,5,5,2.702445e-01,2.710465e-01
2.272036e+00,2.091312e+00,7,7,2.296700e-01,2.290595e-01
1.620689e+00,2.988356e+00,5,10,1.749642e-01,1.749280e-01
3.580299e+00,2.096521e+00,11,7,1.918926e-01,1.900541e-01
2.260021e+00,2.088139e+00,7,7,3.326745e-01,3.328626e-01
1.940460e+00,2.088111e+00,6,7,2.908994e-01,2.872250e-01
1.616771e+00,1.502002e+00,5,5,2.767385e-01,2.750660e-01
1.295626e+00,2.094113e+00,4,7,3.774098e-01,3.715130e-01
2.254824e+00,2.086737e+00,7,7,1.489305e-01,1.486133e-01
1.625802e+00,1.495806e+00,5,5,1.033346e-01,1.026620e-01
1.628009e+00,1.799320e+00,5,6,8.064028e-02,8.099664e-02
3.558853e+00,2.984300e+00,11,10,6.625268e-02,7.825304e-02
2.588990e+00,2.992137e+00,8,10,8.432505e-02,8.460022e-02
2.919374e+00,2.688869e+00,9,9,1.865045e-01,1.832008e-01
1.938765e+00,1.786865e+00,6,6,1.232551e-01,1.236355e-01
1.951879e+00,1.500584e+00,6,5,2.659533e-01,2.677457e-01
1.612536e+00,1.200864e+00,5,4,3.319503e-01,3.350104e-01
1.619766e+00,1.201865e+00,5,4,2.022319e-01,2.037924e-01
1.297144e+00,1.794482e+00,4,6,1.906907e-01,1.895822e-01
1.938598e+00,2.087946e+00,6,7,1.657024e-01,1.627018e-01
3.238939e+00,1.791411e+00,10,6,1.754284e-01,1.615554e-01
2.598630e+00,2.985806e+00,8,10,1.681273e-01,1.779587e-01
2.602425e+00,1.197301e+00,8,4,1.735661e-01,1.728001e-01
1.937194e+00,1.795372e+00,6,6,1.530109e-01,1.530645e-01
2.916114e+00,1.794936e+00,9,6,1.112928e-01,1.068338e-01
2.264833e+00,9.010230e-01,7,3,2.105015e-01,2.088294e-01
2.259352e+00,2.088508e+00,7,7,2.564971e-01,2.563110e-01
2.264223e+00,2.087822e+00,7,7,3.152913e-01,3.156817e-01
1.939658e+00,1.202227e+00,6,4,3.855739e-01,3.882913e-01
1.617915e+00,2.390602e+00,5,8,3.617356e-01,3.624592e-01
2.258580e+00,2.089272e+00,7,7,3.799611e-01,3.799397e-01
1.621619e+00,1.195237e+00,5,4,2.944095e-01,3.007814e-01
3.561991e+00,1.202435e+00,11,4,2.094011e-01,2.111067e-01
2.257346e+00,2.087790e+00,7,7,2.503206e-01,2.503821e-01
2.258706e+00,2.086989e+00,7,7,3.903503e-01,3.906264e-01
2.272227e+00,2.088701e+00,7,7,4.984880e-01,4.996140e-01
2.263328e+00,2.089528e+00,7,7,3.480721e-01,3.468046e-01
1.942186e+00,1.492045e+00,6,5,3.690084e-01,3.695422e-01
2.264704e+00,2.089196e+00,7,7,3.423479e-01,3.426194e-01
2.256792e+00,2.087443e+00,7,7,1.861740e-01,1.862427e-01
3.230913e+00,2.982029e+00,10,10,2.655687e-01,2.655464e-01
1.299370e+00,2.984755e+00,4,10,2.672264e-01,2.867050e-01
2.581296e+00,2.390558e+00,8,8,1.884249e-01,1.884772e-01
1.295913e+00,1.496541e+00,4,5,1.884048e-01,1.872118e-01
3.252591e+00,2.989326e+00,10,10,3.225182e-01,3.220669e-01
2.260086e+00,2.089572e+00,7,7,5.370669e-01,5.381782e-01
2.260070e+00,2.088234e+00,7,7,5.372540e-01,5.383586e-01
2.274825e+00,2.090540e+00,7,7,4.885923e-01,4.893339e-01
1.945437e+00,2.091056e+00,6,7,4.922025e-01,4.846688e-01
2.263079e+00,2.089711e+00,7,7,6.884029e-01,6.890360e-01
1.624922e+00,3.286358e+00,5,11,3.207462e-01,3.261690e-01
9.770550e-01,2.095051e+00,3,7,3.645053e-01,3.641965e-01
3.250008e+00,2.394076e+00,10,8,3.150528e-01,2.925521e-01
2.260028e+00,2.089116e+00,7,7,2.819072e-01,2.818107e-01
2.256919e+00,2.091643e+00,7,7,1.357109e-01,1.356854e-01
3.232696e+00,2.984012e+00,10,10,2.275735e-01,2.253355e-01
2.576047e+00,2.389808e+00,8,8,1.562884e-01,1.555765e-01
3.896382e+00,3.589259e+00,12,12,1.702975e-01,1.666389e-01
1.302374e+00,1.196548e+00,4,4,1.898637e-01,1.892117e-01
2.259597e+00,2.089797e+00,7,7,4.365967e-01,4.371704e-01
2.258666e+00,2.088213e+00,7,7,8.104995e-01,8.112193e-01
2.267215e+00,2.089643e+00,7,7,5.342794e-01,5.350222e-01
2.261471e+00,2.089996e+00,7,7,6.161230e-01,6.167875e-01
1.943384e+00,2.089210e+00,6,7,5.018466e-01,4.969790e-01
3.235217e+00,2.095918e+00,10,7,6.296967e-01,6.331066e-01
1.942867e+00,2.984610e+00,6,10,2.778157e-01,2.891863e-01
1.936393e+00,1.796536e+00,6,6,2.343900e-01,2.351270e-01
1.622045e+00,1.796298e+00,5,6,1.337658e-01,1.337249e-01
1.946405e+00,1.197566e+00,6,4,1.370622e-01,1.373018e-01
1.611186e+00,2.091891e+00,5,7,1.547379e-01,1.549893e-01
2.263433e+00,2.090281e+00,7,7,2.667714e-01,2.671545e-01
3.567668e+00,2.984952e+00,11,10,1.631599e-01,1.748928e-01
2.279854e+00,1.491806e+00,7,5,1.916886e-01,1.924352e-01
2.594481e+00,1.196476e+00,8,4,1.731011e-01,1.756906e-01
2.258608e+00,1.199690e+00,7,4,1.999667e-01,1.950264e-01
1.619985e+00,2.696415e+00,5,9,1.141334e-01,1.138000e-01
1.621760e+00,1.500600e+00,5,5,1.389287e-01,1.381347e-01
2.257993e+00,2.087554e+00,7,7,1.477230e-01,1.437861e-01
2.266784e+00,2.088680e+00,7,7,2.241225e-01,2.243648e-01
2.259928e+00,2.088952e+00,7,7,5.208846e-01,5.216294e-01
2.261361e+00,2.088488e+00,7,7,6.605093e-01,6.611929e-01
3.241027e+00,2.985267e+00,10,10,4.495140e-01,4.484345e-01
2.258876e+00,2.102320e+00,7,7,4.747206e-01,4.739112e-01
1.296027e+00,3.591721e+00,4,12,3.238910e-01,3.377793e-01
2.265902e+00,1.499373e+00,7,5,1.785216e-01,1.766792e-01
1.615415e+00,1.198572e+00,5,4,2.509395e-01,2.481618e-01
2.584153e+00,2.091188e+00,8,7,1.555015e-01,1.541273e-01
1.297741e+00,1.496764e+00,4,5,2.781915e-01,2.772866e-01
1.943919e+00,2.691126e+00,6,9,1.774099e-01,1.940089e-01
3.230760e+00,1.793968e+00,10,6,1.755950e-01,1.768793e-01
1.298315e+00,1.494035e+00,4,5,1.884215e-01,1.879918e-01
2.271948e+00,2.090329e+00,7,7,2.632685e-01,2.636481e-01
2.923533e+00,2.389010e+00,9,8,1.607882e-01,1.453990e-01
3.240659e+00,1.204270e+00,10,4,2.405303e-01,2.326007e-01
2.259003e+00,2.090636e+00,7,7,4.539977e-01,4.545357e-01
3.231153e+00,2.984742e+00,10,10,2.510252e-01,2.509160e-01
1.297464e+00,1.198597e+00,4,4,1.986151e-01,1.968749e-01
3.234583e+00,2.985388e+00,10,10,1.227574e-01,1.227378e-01
1.297633e+00,9.004110e-01,4,3,1.476947e-01,1.480330e-01
1.297082e+00,2.393718e+00,4,8,1.747438e-01,1.747639e-01
1.957116e+00,1.495979e+00,6,5,3.403290e-01,3.331906e-01
3.248707e+00,2.995197e+00,10,10,2.502597e-01,2.500671e-01
2.592665e+00,2.402292e+00,8,8,2.092580e-01,2.092201e-01
1.939058e+00,2.395919e+00,6,8,2.037326e-01,2.039398e-01
1.625803e+00,1.496773e+00,5,5,2.474543e-01,2.471859e-01
2.263323e+00,2.088031e+00,7,7,3.653503e-01,3.664395e-01
2.263164e+00,2.090399e+00,7,7,6.315473e-01,6.333209e-01
2.263878e+00,2.089026e+00,7,7,7.434257e-01,7.452856e-01
2.587138e+00,2.385462e+00,8,8,6.286807e-01,6.288522e-01
1.624980e+00,1.494170e+00,5,5,5.496232e-01,5.489443e-01
2.257705e+00,2.093583e+00,7,7,3.838090e-01,3.830845e-01
3.240104e+00,2.984587e+00,10,10,3.885240e-01,3.827835e-01
2.597265e+00,1.499321e+00,8,5,4.251094e-01,4.212852e-01
1.625961e+00,1.196840e+00,5,4,3.368625e-01,3.396067e-01
2.267891e+00,2.090109e+00,7,7,3.717362e-01,3.725293e-01
2.259047e+00,2.985345e+00,7,10,2.886796e-01,2.884522e-01
1.303288e+00,1.197539e+00,4,4,2.420800e-01,2.409062e-01
2.255932e+00,2.089260e+00,7,7,3.510697e-01,3.482683e-01
2.271129e+00,2.090447e+00,7,7,4.003663e-01,4.011573e-01
2.258112e+00,2.088900e+00,7,7,7.161071e-01,7.176546e-01
2.259408e+00,2.089036e+00,7,7,8.370393e-01,8.369341e-01
2.263841e+00,2.088699e+00,7,7,7.687569e-01,7.690818e-01
3.237181e+00,2.984196e+00,10,10,6.648557e-01,6.617307e-01
2.580150e+00,2.389227e+00,8,8,5.361553e-01,5.359648e-01
2.261925e+00,2.088807e+00,7,7,5.932805e-01,5.940081e-01
1.944441e+00,2.089765e+00,6,7,6.046114e-01,5.987411e-01
1.943608e+00,2.088243e+00,6,7,5.071803e-01,5.013878e-01
3.237946e+00,2.982197e+00,10,10,3.679040e-01,3.670133e-01
1.298091e+00,1.198083e+00,4,4,3.128361e-01,3.120608e-01
2.257927e+00,2.086927e+00,7,7,2.508721e-01,2.508013e-01
1.944157e+00,1.792367e+00,6,6,3.004937e-01,2.951432e-01
1.619161e+00,1.196954e+00,5,4,3.654970e-01,3.662454e-01
1.621577e+00,1.196419e+00,5,4,2.132903e-01,2.159822e-01
1.941934e+00,2.385368e+00,6,8,2.095991e-01,2.080046e-01
2.583225e+00,2.383055e+00,8,8,2.305621e-01,2.307249e-01
3.229258e+00,2.981992e+00,10,10,1.310147e-01,1.308933e-01
1.626880e+00,1.198328e+00,5,4,1.387130e-01,1.387594e-01
9.748680e-01,8.997470e-01,3,3,1.502383e-01,1.506820e-01
9.741160e-01,1.500396e+00,3,5,1.738829e-01,1.735963e-01
1.299854e+00,8.996820e-01,4,3,2.459601e-01,2.461796e-01
2.266543e+00,2.387406e+00,7,8,1.593350e-01,1.620173e-01
2.605847e+00,1.499346e+00,8,5,1.966525e-01,1.911962e-01
2.584675e+00,2.389507e+00,8,8,2.079268e-01,2.070302e-01
1.937922e+00,2.095860e+00,6,7,1.516924e-01,1.494776e-01
3.231808e+00,2.985063e+00,10,10,1.577450e-01,1.575007e-01
2.260699e+00,2.088144e+00,7,7,4.347120e-01,4.350333e-01
2.259866e+00,2.088182e+00,7,7,7.841855e-01,7.849634e-01
2.261683e+00,2.088913e+00,7,7,8.413608e-01,8.420317e-01
1.613730e+00,2.986108e+00,5,10,6.436682e-01,6.558646e-01
2.264789e+00,2.089086e+00,7,7,4.997890e-01,4.999643e-01
1.944225e+00,2.090506e+00,6,7,4.459662e-01,4.390636e-01
2.264610e+00,2.088666e+00,7,7,4.008150e-01,4.010317e-01
3.234141e+00,2.983260e+00,10,10,2.882037e-01,2.871019e-01
2.262330e+00,2.088819e+00,7,7,2.591627e-01,2.595881e-01
2.257812e+00,2.089894e+00,7,7,5.220404e-01,5.217800e-01
2.261134e+00,2.092565e+00,7,7,6.985780e-01,6.991666e-01
2.260421e+00,2.088276e+00,7,7,8.591095e-01,8.598964e-01
2.258797e+00,2.090138e+00,7,7,7.874734e-01,7.865052e-01
2.267939e+00,2.090062e+00,7,7,5.930523e-01,5.932832e-01
1.295504e+00,1.797190e+00,4,6,4.400847e-01,4.393067e-01
1.613984e+00,2.089930e+00,5,7,4.405293e-01,4.426527e-01
2.264222e+00,2.089607e+00,7,7,7.431228e-01,7.428577e-01
2.259477e+00,2.089531e+00,7,7,6.755693e-01,6.753584e-01
2.265350e+00,2.091693e+00,7,7,5.646713e-01,5.652458e-01
2.260335e+00,2.090038e+00,7,7,4.875380e-01,4.888707e-01
2.262140e+00,2.089349e+00,7,7,4.083280e-01,4.085826e-01
3.231520e+00,2.982065e+00,10,10,3.438817e-01,3.437872e-01
1.945494e+00,2.090095e+00,6,7,4.452382e-01,4.412127e-01
1.618163e+00,1.496733e+00,5,5,4.345849e-01,4.314109e-01
2.258450e+00,2.087213e+00,7,7,3.965936e-01,3.968183e-01
2.258233e+00,2.087110e+00,7,7,3.757559e-01,3.756732e-01
2.274255e+00,2.089851e+00,7,7,2.876799e-01,2.878771e-01
2.259818e+00,2.089209e+00,7,7,2.303113e-01,2.307147e-01
2.265601e+00,2.088295e+00,7,7,2.920130e-01,2.926537e-01
2.587472e+00,2.384562e+00,8,8,2.187693e-01,2.181414e-01
1.939935e+00,2.089183e+00,6,7,1.164414e-01,1.152420e-01
3.235106e+00,2.692347e+00,10,9,1.028211e-01,1.185240e-01
1.302797e+00,2.987647e+00,4,10,1.625500e-01,1.624970e-01
2.922474e+00,1.196555e+00,9,4,2.195211e-01,2.176403e-01
2.262545e+00,2.090088e+00,7,7,2.396813e-01,2.398796e-01
2.908847e+00,2.688166e+00,9,9,1.975046e-01,1.980907e-01
1.620418e+00,1.798590e+00,5,6,1.538099e-01,1.537781e-01
1.298304e+00,8.988880e-01,4,3,2.143668e-01,2.153036e-01
3.234109e+00,2.983405e+00,10,10,8.285155e-02,8.082528e-02
2.928688e+00,2.689104e+00,9,9,7.645709e-02,7.660577e-02
1.300941e+00,2.984272e+00,4,10,7.224021e-02,7.336880e-02
1.298502e+00,1.197258e+00,4,4,7.937957e-02,7.943352e-02
9.751150e-01,2.989910e+00,3,10,9.744010e-02,1.109270e-01
9.757450e-01,1.197610e+00,3,4,1.396845e-01,1.402011e-01
3.883223e+00,1.197483e+00,12,4,1.121616e-01,1.096607e-01
1.299569e+00,2.990080e+00,4,10,1.508698e-01,1.683599e-01
2.260003e+00,2.089497e+00,7,7,1.972219e-01,1.970772e-01
1.940267e+00,1.492043e+00,6,5,1.072948e-01,1.083934e-01
1.300556e+00,2.986661e+00,4,10,1.223792e-01,1.408016e-01
1.298713e+00,3.283225e+00,4,11,9.361934e-02,9.339334e-02
1.304462e+00,1.793003e+00,4,6,1.592596e-01,1.592362e-01
3.248603e+00,2.986819e+00,10,10,1.687901e-01,1.651663e-01
2.256862e+00,2.087771e+00,7,7,7.094570e-02,6.995218e-02
1.627297e+00,1.197898e+00,5,4,8.019509e-02,8.118049e-02
3.570896e+00,2.987223e+00,11,10,1.445233e-01,1.470812e-01
3.563369e+00,1.200442e+00,11,4,1.120429e-01,1.062980e-01
3.230227e+00,1.500977e+00,10,5,9.459303e-02,8.902829e-02
1.298464e+00,9.005450e-01,4,3,1.505139e-01,1.504474e-01
1.627833e+00,1.496479e+00,5,5,1.156593e-01,1.146567e-01
1.302897e+00,1.197595e+00,4,4,2.190710e-01,2.184838e-01
1.940472e+00,2.089689e+00,6,7,4.193282e-01,4.133000e-01
3.236767e+00,2.984412e+00,10,10,3.426209e-01,3.434808e-01
3.236640e+00,2.984020e+00,10,10,2.300043e-01,2.299747e-01
1.941087e+00,1.497662e+00,6,5,3.357529e-01,3.426618e-01
2.259351e+00,2.089656e+00,7,7,4.485791e-01,4.494843e-01
2.587561e+00,1.492260e+00,8,5,2.202137e-01,2.208927e-01
1.298031e+00,1.204010e+00,4,4,1.810723e-01,1.791341e-01
1.942238e+00,1.493387e+00,6,5,1.999753e-01,2.013576e-01
1.943869e+00,1.500392e+00,6,5,8.312021e-02,8.282238e-02
3.902181e+00,1.202562e+00,12,4,4.332379e-02,3.705593e-02
1.299412e+00,9.005120e-01,4,3,7.257275e-02,7.250170e-02
1.299379e+00,1.197807e+00,4,4,1.266557e-01,1.278735e-01
1.300976e+00,1.197883e+00,4,4,1.583463e-01,1.582148e-01
2.263272e+00,2.090483e+00,7,7,3.598625e-01,3.607507e-01
1.939910e+00,2.089001e+00,6,7,2.369426e-01,2.348617e-01
3.571390e+00,2.985228e+00,11,10,2.156530e-01,2.234995e-01
1.300320e+00,1.198898e+00,4,4,1.948198e-01,1.949518e-01
1.301789e+00,1.495658e+00,4,5,1.667154e-01,1.667782e-01
1.627645e+00,1.198270e+00,5,4,2.069761e-01,2.067889e-01
1.940082e+00,2.088147e+00,6,7,2.408125e-01,2.392113e-01
3.564662e+00,2.982615e+00,11,10,2.156724e-01,2.253324e-01
2.910049e+00,2.394996e+00,9,8,2.222806e-01,2.060837e-01
1.616976e+00,1.491181e+00,5,5,2.365092e-01,2.364149e-01
2.259879e+00,2.087273e+00,7,7,2.342833e-01,2.342806e-01
2.262103e+00,2.086398e+00,7,7,2.649754e-01,2.646881e-01
3.561863e+00,2.983950e+00,11,10,1.706649e-01,1.826553e-01
2.263979e+00,1.196138e+00,7,4,1.239255e-01,1.238425e-01
2.258094e+00,2.088656e+00,7,7,1.194785e-01,1.194872e-01
2.259485e+00,2.087730e+00,7,7,1.630741e-01,1.631081e-01
3.254358e+00,2.989939e+00,10,10,1.833557e-01,1.832716e-01
1.293211e+00,1.196114e+00,4,4,4.593704e-01,4.607165e-01
3.234757e+00,2.984666e+00,10,10,3.173575e-01,3.169110e-01
1.942185e+00,2.091358e+00,6,7,3.019837e-01,2.988228e-01
1.945468e+00,2.099466e+00,6,7,2.630346e-01,2.609851e-01
1.935974e+00,1.202146e+00,6,4,2.452999e-01,2.440016e-01
1.942666e+00,2.089819e+00,6,7,1.669689e-01,1.620453e-01
3.234292e+00,2.984939e+00,10,10,2.095838e-01,2.095195e-01
1.943944e+00,2.090938e+00,6,7,2.591630e-01,2.563531e-01
1.620502e+00,2.984372e+00,5,10,2.140106e-01,2.278961e-01
1.299291e+00,1.197989e+00,4,4,2.356195e-01,2.362835e-01
2.262475e+00,2.085815e+00,7,7,1.984684e-01,1.985197e-01
3.249001e+00,2.388116e+00,10,8,1.691482e-01,1.588584e-01
2.257562e+00,2.984742e+00,7,10,1.408730e-01,1.428123e-01
1.298781e+00,1.493872e+00,4,5,9.697603e-02,9.620668e-02
1.299040e+00,2.989857e+00,4,10,1.254789e-01,1.344782e-01
1.619788e+00,2.086395e+00,5,7,1.515300e-01,1.503789e-01
1.299220e+00,2.989618e+00,4,10,1.465788e-01,1.582083e-01
1.299633e+00,3.281652e+00,4,11,1.536759e-01,1.662848e-01
3.888730e+00,2.090140e+00,12,7,1.587005e-01,1.489947e-01
3.241777e+00,3.285642e+00,10,11,1.606444e-01,1.392871e-01
3.242725e+00,1.497159e+00,10,5,1.687351e-01,1.499399e-01
1.303819e+00,1.197647e+00,4,4,1.347940e-01,1.341496e-01
1.621345e+00,1.202239e+00,5,4,2.645162e-01,2.643195e-01
2.259469e+00,2.089189e+00,7,7,5.431507e-01,5.435738e-01
2.263130e+00,2.091168e+00,7,7,3.725597e-01,3.729813e-01
3.569043e+00,2.986293e+00,11,10,2.391645e-01,2.557439e-01
2.264085e+00,1.194970e+00,7,4,2.264540e-01,2.280337e-01
3.235044e+00,2.983493e+00,10,10,2.319979e-01,2.307641e-01
1.299049e+00,1.198004e+00,4,4,1.624994e-01,1.625521e-01
3.246123e+00,1.796898e+00,10,6,2.180990e-01,2.021415e-01
2.260939e+00,2.108195e+00,7,7,2.251769e-01,2.253889e-01
2.258635e+00,2.088296e+00,7,7,2.544196e-01,2.537036e-01
2.258128e+00,2.087369e+00,7,7,2.055422e-01,2.056636e-01
1.304160e+00,1.197854e+00,4,4,2.474896e-01,2.473397e-01
2.259765e+00,2.090764e+00,7,7,2.570453e-01,2.575456e-01
2.587615e+00,2.387635e+00,8,8,1.685213e-01,1.683463e-01
3.563687e+00,2.983277e+00,11,10,1.217160e-01,1.335451e-01
1.613740e+00,2.988075e+00,5,10,6.888802e-02,8.074631e-02
9.723540e-01,1.499702e+00,3,5,1.200642e-01,1.199004e-01
1.298126e+00,1.197092e+00,4,4,1.690446e-01,1.684335e-01
1.302155e+00,1.492452e+00,4,5,1.766216e-01,1.766228e-01
3.564626e+00,2.983020e+00,11,10,1.174706e-01,1.207746e-01
2.591861e+00,8.998950e-01,8,3,1.297855e-01,1.304740e-01
2.258758e+00,2.093119e+00,7,7,1.622153e-01,1.622391e-01
1.935813e+00,1.496517e+00,6,5,1.681075e-01,1.685736e-01
1.618855e+00,1.787655e+00,5,6,2.514383e-01,2.488384e-01
2.260996e+00,2.087631e+00,7,7,1.448135e-01,1.448200e-01
1.296935e+00,1.199270e+00,4,4,1.442995e-01,1.443309e-01
1.302852e+00,1.198588e+00,4,4,4.110159e-01,4.095242e-01
2.268870e+00,2.089141e+00,7,7,4.042412e-01,4.053336e-01
1.943462e+00,1.499265e+00,6,5,1.868237e-01,1.866157e-01
3.258404e+00,9.014000e-01,10,3,2.406192e-01,2.290559e-01
1.944075e+00,2.093999e+00,6,7,2.063965e-01,2.073743e-01
2.595304e+00,2.390820e+00,8,8,1.751170e-01,1.737653e-01
3.562387e+00,2.983746e+00,11,10,7.340244e-02,6.817689e-02
1.297883e+00,2.985179e+00,4,10,5.954110e-02,8.066597e-02
2.594041e+00,1.198140e+00,8,4,1.404886e-01,1.415139e-01
1.623781e+00,1.497457e+00,5,5,1.954831e-01,1.994991e-01
2.580710e+00,2.087987e+00,8,7,2.964865e-01,2.975068e-01
1.298851e+00,1.196993e+00,4,4,1.559738e-01,1.553620e-01
3.245810e+00,2.986899e+00,10,10,1.414258e-01,1.415059e-01
1.298588e+00,1.197542e+00,4,4,1.538124e-01,1.535106e-01
1.944167e+00,2.092574e+00,6,7,2.470013e-01,2.467019e-01
2.258644e+00,2.089739e+00,7,7,2.707664e-01,2.711187e-01
2.258784e+00,2.100115e+00,7,7,2.880686e-01,2.882639e-01
3.231679e+00,2.983461e+00,10,10,2.395071e-01,2.373495e-01
1.303465e+00,1.198305e+00,4,4,3.346869e-01,3.342403e-01
3.233119e+00,2.984675e+00,10,10,1.999313e-01,1.997858e-01
2.585763e+00,2.386348e+00,8,8,2.047070e-01,2.035101e-01
2.260773e+00,2.094022e+00,7,7,3.650097e-01,3.605421e-01
3.232760e+00,2.984542e+00,10,10,1.764307e-01,1.763402e-01
3.233797e+00,2.986718e+00,10,10,1.899300e-01,1.898858e-01
1.619419e+00,1.787758e+00,5,6,1.467983e-01,1.457955e-01
1.299695e+00,1.796613e+00,4,6,6.310887e-02,6.274831e-02
1.623023e+00,1.198817e+00,5,4,8.208066e-02,8.225907e-02
2.933177e+00,2.693486e+00,9,9,1.302894e-01,1.287282e-01
3.247752e+00,2.991008e+00,10,10,8.817572e-02,8.810299e-02
1.301445e+00,1.196718e+00,4,4,2.121835e-01,2.121520e-01
3.232306e+00,2.986911e+00,10,10,1.368012e-01,1.362518e-01
1.625974e+00,1.198322e+00,5,4,1.132879e-01,1.126687e-01
3.570211e+00,2.989041e+00,11,10,1.167530e-01,1.301735e-01
2.612549e+00,2.692256e+00,8,9,1.589937e-01,1.718507e-01
2.261636e+00,2.092209e+00,7,7,2.131107e-01,2.131279e-01
2.587182e+00,2.386125e+00,8,8,3.202424e-01,3.197659e-01
1.294737e+00,1.795531e+00,4,6,3.215405e-01,3.219568e-01
2.259696e+00,2.091643e+00,7,7,4.412138e-01,4.415806e-01
2.265212e+00,2.088943e+00,7,7,1.521381e-01,1.511553e-01
1.623150e+00,1.800363e+00,5,6,1.353866e-01,1.351051e-01
2.587781e+00,2.386806e+00,8,8,7.653310e-02,7.535808e-02
1.303283e+00,1.198657e+00,4,4,1.316981e-01,1.315208e-01
2.590428e+00,1.497556e+00,8,5,2.123227e-01,2.182355e-01
2.256661e+00,2.087654e+00,7,7,2.150806e-01,2.149189e-01
2.258235e+00,2.097002e+00,7,7,2.432811e-01,2.433777e-01
1.616370e+00,1.196903e+00,5,4,1.736605e-01,1.738557e-01
3.251940e+00,2.686777e+00,10,9,1.617988e-01,1.759320e-01
1.625867e+00,3.590385e+00,5,12,2.855809e-01,2.959192e-01
1.942390e+00,2.088878e+00,6,7,3.220072e-01,3.181802e-01
1.942025e+00,1.491499e+00,6,5,2.703685e-01,2.718257e-01
1.943746e+00,1.794479e+00,6,6,2.336990e-01,2.338922e-01
9.758430e-01,2.991497e+00,3,10,3.395514e-01,3.565589e-01
2.592229e+00,2.393522e+00,8,8,1.836666e-01,1.827449e-01
1.299539e+00,9.022530e-01,4,3,1.611054e-01,1.601048e-01
1.628262e+00,2.996255e+00,5,10,3.152694e-01,3.249216e-01
1.292255e+00,1.493093e+00,4,5,3.366710e-01,3.304457e-01
2.267631e+00,1.786870e+00,7,6,3.888091e-01,3.940134e-01
1.301725e+00,2.388637e+00,4,8,1.354187e-01,1.348463e-01
2.600310e+00,1.196945e+00,8,4,1.450327e-01,1.451596e-01
2.262170e+00,2.087282e+00,7,7,2.137282e-01,2.141299e-01
2.263857e+00,2.088094e+00,7,7,2.663734e-01,2.679525e-01
1.294964e+00,2.985817e+00,4,10,2.478366e-01,2.536128e-01
1.942643e+00,1.491217e+00,6,5,2.488678e-01,2.503300e-01
1.618291e+00,2.087740e+00,5,7,1.973836e-01,1.959807e-01
2.259464e+00,2.086933e+00,7,7,1.459080e-01,1.459111e-01

