1.311805e+00,2.200361e+01,2.159309e+01,2,40,0.000000e+00,7.751955e-23,1
1.892317e+00,5.970720e-01,5.700588e-01,3,0,5.833781e-01,5.833794e-01,1
1.899913e+00,5.863330e-01,5.679131e-01,3,0,9.188099e-01,9.188110e-01,1
1.897241e+00,1.169344e+00,1.152992e+00,3,1,2.671725e+00,2.683491e+00,1
1.895450e+00,1.015320e+00,1.001120e+00,3,1,4.040680e+00,4.040685e+00,1
1.895482e+00,5.673840e-01,5.531311e-01,3,0,1.258647e+00,1.258646e+00,1
1.895557e+00,5.603790e-01,5.466938e-01,3,0,1.557683e+00,1.557685e+00,1
1.894783e+00,5.670900e-01,5.540848e-01,3,0,4.181278e+00,4.181286e+00,1
1.895086e+00,5.604730e-01,5.459785e-01,3,0,7.144829e+00,7.144813e+00,1
1.896040e+00,3.300564e+00,3.279924e+00,3,3,1.207962e+01,1.393033e+01,0
3.781976e+00,2.595432e+00,2.580881e+00,6,4,9.601567e+00,9.602420e+00,1
2.522825e+00,2.555850e+00,2.542019e+00,4,4,9.373716e+00,9.376975e+00,1
1.895205e+00,1.216881e+00,1.202106e+00,3,1,1.346294e+01,1.349018e+01,1
1.894069e+00,2.102922e+00,2.089024e+00,3,3,1.025856e+01,1.026113e+01,1
1.895171e+00,1.016248e+00,1.001835e+00,3,1,8.943262e+00,8.943264e+00,1
1.894068e+00,5.682320e-01,5.550385e-01,3,0,8.115749e+00,8.115750e+00,1
1.895697e+00,2.161175e+00,2.147913e+00,3,3,6.374100e+00,6.376475e+00,1
1.916228e+00,2.102980e+00,2.089024e+00,3,3,6.518177e+00,6.531311e+00,1
1.915099e+00,1.836181e+00,1.821995e+00,3,2,5.660561e+00,5.673723e+00,1
1.902529e+00,2.732706e+00,2.718925e+00,3,4,5.432906e+00,5.449873e+00,1
1.900443e+00,4.684171e+00,4.669905e+00,3,8,5.536605e+00,5.593123e+00,1
1.897168e+00,3.957627e+00,3.944159e+00,3,7,4.653193e+00,4.656702e+00,1
1.895941e+00,1.917252e+00,1.903057e+00,3,3,2.635145e+00,2.635144e+00,1
1.894908e+00,5.664190e-01,5.517006e-01,3,0,2.187858e+00,2.187860e+00,1
1.894142e+00,5.641260e-01,5.500317e-01,3,0,2.277437e+00,2.277440e+00,1
1.895817e+00,5.686570e-01,5.550385e-01,3,0,3.608017e+00,3.608021e+00,1
1.896071e+00,5.634110e-01,5.500317e-01,3,0,5.195116e+00,5.195123e+00,1
1.895248e+00,5.766380e-01,5.629063e-01,3,0,3.716678e+00,3.716679e+00,1
1.893635e+00,5.640930e-01,5.509853e-01,3,0,4.104788e+00,4.104791e+00,1
1.890031e+00,1.154759e+00,1.141071e+00,3,1,4.475272e+00,4.477707e+00,1
1.893930e+00,1.016989e+00,1.003981e+00,3,1,4.755424e+00,4.755426e+00,1
1.900803e+00,5.666270e-01,5.517006e-01,3,0,3.363996e+00,3.363997e+00,1
1.888682e+00,5.635140e-01,5.500317e-01,3,0,3.103045e+00,3.103046e+00,1
1.894891e+00,5.663660e-01,5.517006e-01,3,0,3.122108e+00,3.122109e+00,1
1.894101e+00,5.681670e-01,5.540848e-01,3,0,2.959948e+00,2.959949e+00,1
1.895077e+00,2.699659e+00,2.685070e+00,3,4,5.041534e+00,5.055001e+00,1
1.895357e+00,2.941541e+00,2.927065e+00,3,5,2.132423e+00,2.132473e+00,1
1.895147e+00,6.994580e-01,6.861687e-01,3,0,4.053737e+00,4.054318e+00,1
1.895067e+00,1.015578e+00,1.001120e+00,3,1,2.770911e+00,2.770911e+00,1
1.894263e+00,5.615590e-01,5.488396e-01,3,0,2.542854e+00,2.542855e+00,1
1.900870e+00,5.693340e-01,5.550385e-01,3,0,2.965259e+00,2.965260e+00,1
1.895094e+00,5.680860e-01,5.550385e-01,3,0,3.817125e+00,3.817128e+00,1
1.890618e+00,1.145511e+00,1.131058e+00,3,1,5.959378e+00,5.959615e+00,1
1.895493e+00,7.010300e-01,6.880760e-01,3,0,5.977481e+00,5.983236e+00,1
1.895873e+00,1.596865e+00,1.583099e+00,3,2,4.574430e+00,4.576143e+00,1
1.902676e+00,2.137260e+00,2.123117e+00,3,3,4.229214e+00,4.229964e+00,1
1.894693e+00,1.147219e+00,1.132011e+00,3,1,3.286191e+00,3.288723e+00,1
1.894792e+00,6.985450e-01,6.852150e-01,3,0,3.984263e+00,4.063326e+00,1
1.894362e+00,2.029575e+00,2.010107e+00,3,0,6.878143e+00,7.822138e+00,0
3.162075e+00,1.014394e+00,1.000166e+00,5,1,4.033544e+00,4.033232e+00,1
1.892394e+00,1.493732e+00,1.479864e+00,3,2,4.741240e+00,4.739992e+00,1
3.779321e+00,1.008890e+00,9.961128e-01,6,1,5.983633e+00,5.980203e+00,1
2.529670e+00,8.640760e+00,8.620977e+00,4,13,9.265217e+00,9.500781e+00,0
1.897259e+00,6.884153e+00,6.870031e+00,3,13,7.691716e+00,7.733235e+00,1
2.519891e+00,2.671077e+00,2.655745e+00,4,4,5.528638e+00,5.532955e+00,1
1.895327e+00,7.012610e-01,6.859303e-01,3,0,5.677275e+00,5.702749e+00,1
1.894991e+00,1.474629e+00,1.459837e+00,3,2,4.572528e+00,4.572525e+00,1
1.894551e+00,5.635360e-01,5.490780e-01,3,0,3.538105e+00,3.538106e+00,1
1.895750e+00,5.694730e-01,5.550385e-01,3,0,2.328387e+00,2.328389e+00,1
1.905994e+00,5.623380e-01,5.481243e-01,3,0,2.428242e+00,2.428245e+00,1
1.900457e+00,5.708740e-01,5.581379e-01,3,0,3.026885e+00,3.026887e+00,1
1.894279e+00,9.598890e-01,9.469986e-01,3,1,3.445671e+00,3.445435e+00,1
3.786702e+00,2.171597e+00,2.157927e+00,6,3,5.881192e+00,5.860642e+00,1
2.521863e+00,3.202091e+00,3.187895e+00,4,5,4.573166e+00,4.574478e+00,1
1.895854e+00,1.780302e+00,1.765966e+00,3,2,3.335202e+00,3.335322e+00,1
1.894620e+00,6.992020e-01,6.840229e-01,3,0,2.369575e+00,2.372145e+00,1
1.891160e+00,1.687001e+00,1.672745e+00,3,2,2.365753e+00,2.371163e+00,1
1.890190e+00,1.022605e+00,1.003981e+00,3,1,2.207570e+00,2.207571e+00,1
1.893332e+00,5.700640e-01,5.571842e-01,3,0,1.788854e+00,1.788855e+00,1
1.893882e+00,5.685060e-01,5.538464e-01,3,0,1.522833e+00,1.522834e+00,1
1.889091e+00,9.391800e-01,9.250641e-01,3,1,3.722629e+00,3.722121e+00,1
3.786083e+00,6.029461e+00,6.015062e+00,6,11,1.075957e+01,1.105940e+01,1
2.532445e+00,6.968534e+00,6.953955e+00,4,14,4.590814e+00,4.590806e+00,1
1.906581e+00,1.151774e+00,1.137018e+00,3,1,3.809450e+00,3.810729e+00,1
1.895789e+00,7.007790e-01,6.866455e-01,3,0,2.082984e+00,2.086186e+00,1
1.897222e+00,1.024709e+00,1.009941e+00,3,1,2.041460e+00,2.041462e+00,1
1.894593e+00,5.636760e-01,5.500317e-01,3,0,1.826404e+00,1.826405e+00,1
1.898154e+00,5.691370e-01,5.540848e-01,3,0,2.462077e+00,2.462081e+00,1
1.896028e+00,2.225312e+00,2.211094e+00,3,3,3.859310e+00,3.868242e+00,1
1.894751e+00,1.599673e+00,1.584768e+00,3,2,3.046395e+00,3.056894e+00,1
1.899107e+00,1.776299e+00,1.762867e+00,3,2,3.454231e+00,3.485777e+00,1
1.896165e+00,1.779656e+00,1.765966e+00,3,2,2.671870e+00,2.686035e+00,1
1.896555e+00,2.057789e+00,2.043724e+00,3,3,2.524509e+00,2.524592e+00,1
1.895127e+00,1.245649e+00,1.230001e+00,3,1,2.254069e+00,2.278332e+00,1
1.911858e+00,1.148191e+00,1.133919e+00,3,1,2.441611e+00,2.441614e+00,1
1.895852e+00,1.877028e+00,1.862049e+00,3,2,2.740482e+00,2.745031e+00,1
1.897354e+00,1.795079e+00,1.781225e+00,3,2,1.927370e+00,1.942971e+00,1
1.897181e+00,7.047210e-01,6.902218e-01,3,0,1.785659e+00,1.797893e+00,1
1.914676e+00,1.016264e+00,1.003027e+00,3,1,1.188417e+00,1.188418e+00,1
1.893773e+00,5.643250e-01,5.509853e-01,3,0,2.541061e+00,2.541065e+00,1
1.895275e+00,5.706970e-01,5.557537e-01,3,0,2.535834e+00,2.535836e+00,1
1.894064e+00,5.630060e-01,5.490780e-01,3,0,2.701511e+00,2.701512e+00,1
1.898269e+00,5.702250e-01,5.559921e-01,3,0,2.885077e+00,2.885079e+00,1
1.893930e+00,5.722790e-01,5.581379e-01,3,0,4.184420e+00,4.184424e+00,1
1.889275e+00,1.153758e+00,1.138687e+00,3,1,6.366969e+00,6.367428e+00,1
1.894801e+00,7.024990e-01,6.880760e-01,3,0,6.725849e+00,6.816002e+00,1
1.896049e+00,1.654831e+00,1.640081e+00,3,2,6.163545e+00,6.163527e+00,1
1.894067e+00,5.635550e-01,5.490780e-01,3,0,6.594265e+00,6.594265e+00,1
1.892535e+00,1.140177e+00,1.126051e+00,3,1,7.681908e+00,7.682475e+00,1
1.894599e+00,1.017570e+00,1.003027e+00,3,1,7.144755e+00,7.144188e+00,1
1.893457e+00,5.689390e-01,5.550385e-01,3,0,4.326314e+00,4.326310e+00,1
1.893040e+00,5.626840e-01,5.490780e-01,3,0,4.746520e+00,4.746524e+00,1
1.892739e+00,5.696260e-01,5.559921e-01,3,0,4.651283e+00,4.651285e+00,1
1.888622e+00,5.625830e-01,5.481243e-01,3,0,3.989067e+00,3.989069e+00,1
1.893426e+00,5.690970e-01,5.559921e-01,3,0,2.980713e+00,2.980713e+00,1
1.894312e+00,1.152565e+00,1.137972e+00,3,1,3.173391e+00,3.188108e+00,1
1.894184e+00,7.013000e-01,6.871223e-01,3,0,3.672844e+00,3.675826e+00,1
2.519755e+00,2.103870e+00,2.089977e+00,4,3,6.012193e+00,6.052198e+00,1
2.519830e+00,2.273085e+00,2.259016e+00,4,4,2.544476e+00,2.544473e+00,1
1.896216e+00,5.713230e-01,5.559921e-01,3,0,5.104104e+00,5.104109e+00,1
1.894507e+00,5.654180e-01,5.509853e-01,3,0,2.582985e+00,2.582982e+00,1
1.893188e+00,5.699020e-01,5.550385e-01,3,0,2.887360e+00,2.887361e+00,1
1.894796e+00,9.475210e-01,9.341240e-01,3,1,6.098078e+00,6.097789e+00,1
2.519432e+00,9.328660e-01,9.179115e-01,4,1,6.459026e+00,6.459031e+00,1
1.894521e+00,5.702730e-01,5.578995e-01,3,0,4.562859e+00,4.562856e+00,1
1.893761e+00,9.462840e-01,9.319782e-01,3,1,8.252391e+00,8.252175e+00,1
2.522003e+00,9.686640e-01,9.541512e-01,4,1,7.279382e+00,7.279383e+00,1
1.896113e+00,5.740630e-01,5.600452e-01,3,0,6.047691e+00,6.047690e+00,1
1.894513e+00,1.695219e+00,1.681805e+00,3,2,4.337381e+00,4.340260e+00,1
1.895422e+00,2.828839e+00,2.815008e+00,3,4,4.168391e+00,4.190061e+00,1
1.898201e+00,4.718059e+00,4.703045e+00,3,8,5.535921e+00,5.611511e+00,1
1.898377e+00,6.267644e+00,6.252766e+00,3,11,6.964143e+00,7.258373e+00,1
3.782581e+00,8.056873e+00,8.033752e+00,6,12,1.087393e+01,1.841086e+01,0
3.790965e+00,1.010015e+01,1.008582e+01,6,21,3.869167e+00,3.868394e+00,1
1.895348e+00,5.713090e-01,5.569458e-01,3,0,3.285539e+00,3.285538e+00,1
1.894009e+00,5.648630e-01,5.519390e-01,3,0,3.038121e+00,3.038122e+00,1
1.894801e+00,9.507400e-01,9.379387e-01,3,1,3.909475e+00,3.909278e+00,1
3.779239e+00,1.668436e+00,1.655102e+00,6,2,6.697726e+00,6.689671e+00,1
2.524807e+00,2.665852e+00,2.651930e+00,4,4,8.601990e+00,8.607063e+00,1
1.896710e+00,3.125763e+00,3.112078e+00,3,5,8.232404e+00,8.251795e+00,1
1.895899e+00,2.289960e+00,2.275944e+00,3,3,1.118000e+01,1.137611e+01,1
1.895614e+00,3.031167e+00,3.017187e+00,3,5,9.333743e+00,9.342280e+00,1
1.895696e+00,1.471296e+00,1.456022e+00,3,2,6.505141e+00,6.505127e+00,1
1.893311e+00,5.640480e-01,5.509853e-01,3,0,5.015823e+00,5.015823e+00,1
1.894853e+00,5.698730e-01,5.559921e-01,3,0,4.635365e+00,4.635367e+00,1
1.894491e+00,1.149657e+00,1.136065e+00,3,1,4.231640e+00,4.233674e+00,1
1.896043e+00,1.019977e+00,1.005173e+00,3,1,3.918330e+00,3.918331e+00,1
1.893330e+00,1.594916e+00,1.574755e+00,3,0,5.499043e+00,1.568923e+01,0
3.777143e+00,2.500058e+00,2.480030e+00,6,1,6.669616e+00,1.585947e+01,0
3.781671e+00,2.035616e+00,2.017021e+00,6,0,1.631173e+01,4.281913e+01,0
3.150072e+00,2.037945e+00,2.017975e+00,5,0,1.126707e+01,1.928633e+01,0
3.779281e+00,2.031310e+00,2.011538e+00,6,0,9.976830e+00,1.273253e+01,0
2.521442e+00,1.987659e+00,1.972914e+00,4,3,7.078816e+00,7.078901e+00,1
3.149497e+00,1.622717e+00,1.607895e+00,5,2,9.239308e+00,9.233610e+00,1
3.784071e+00,3.951930e+00,3.931999e+00,6,4,1.586021e+01,2.023208e+01,0
2.525413e+00,3.115127e+00,3.099918e+00,4,5,1.240144e+01,1.246686e+01,1
1.896344e+00,1.598912e+00,1.585960e+00,3,2,8.136571e+00,8.142168e+00,1
1.899898e+00,8.556910e+00,8.542061e+00,3,15,8.221752e+00,8.364563e+00,1
1.902167e+00,1.256291e+01,1.254797e+01,3,24,7.169162e+00,7.606180e+00,1
3.153270e+00,8.923270e+00,8.908987e+00,5,18,5.134307e+00,5.165990e+00,1
3.788238e+00,5.487614e+00,5.473137e+00,6,10,4.840100e+00,4.923897e+00,1
3.784181e+00,4.648096e+00,4.632950e+00,6,8,3.740586e+00,3.868189e+00,1
3.781424e+00,2.946823e+00,2.932072e+00,6,5,1.722289e+00,1.719237e+00,1
1.896210e+00,2.339744e+00,2.326012e+00,3,3,2.238079e+00,2.261611e+00,1
2.526309e+00,2.859860e+00,2.845049e+00,4,4,1.342538e+00,1.375005e+00,1
1.890485e+00,7.023720e-01,6.880760e-01,3,0,5.773117e+00,5.828841e+00,1
1.894956e+00,7.001140e-01,6.818771e-01,3,0,5.821002e+00,5.825179e+00,1
1.894647e+00,1.020267e+00,1.006126e+00,3,1,6.657443e+00,6.656398e+00,1
2.520395e+00,1.595583e+00,1.576424e+00,4,0,1.313146e+01,2.050976e+01,0
2.520552e+00,2.216796e+00,2.202034e+00,4,3,9.971932e+00,9.980770e+00,1
1.895038e+00,2.039497e+00,2.020359e+00,3,0,1.284293e+01,1.462787e+01,0
1.897313e+00,3.122687e+00,3.109932e+00,3,5,1.019193e+01,1.020046e+01,1
1.891182e+00,3.260629e+00,3.245831e+00,3,5,8.455646e+00,8.494264e+00,1
1.912596e+00,1.655411e+01,1.653576e+01,3,29,1.130250e+01,1.472980e+01,0
3.775968e+00,1.968525e+00,1.946449e+00,6,0,1.249779e+01,2.272084e+01,0
3.791288e+00,3.233837e+01,3.231812e+01,6,65,1.223832e+01,1.962753e+01,0
3.776467e+00,1.949838e+00,1.931190e+00,6,0,1.366157e+01,2.357946e+01,0
3.790360e+00,1.945956e+00,1.925945e+00,6,0,1.460981e+01,2.353332e+01,0
3.777468e+00,1.951921e+00,1.933336e+00,6,0,2.584143e+01,4.809261e+01,0
3.782660e+00,1.950219e+00,1.932144e+00,6,0,2.932277e+01,4.503703e+01,0
3.789041e+00,2.506178e+01,2.504444e+01,6,51,2.386019e+01,3.161273e+01,0
3.783175e+00,2.002020e+00,1.982689e+00,6,0,2.939801e+01,3.651660e+01,0
3.786844e+00,1.467601e+01,1.465750e+01,6,26,2.711912e+01,3.221681e+01,0
2.552193e+00,9.826036e+00,9.811163e+00,4,19,2.558592e+01,2.718238e+01,1
2.525936e+00,4.877587e+00,4.857063e+00,4,6,2.315910e+01,2.914944e+01,0
3.784291e+00,8.748046e+00,8.729219e+00,6,14,2.531322e+01,2.894982e+01,0
2.530064e+00,1.789330e+01,1.787400e+01,4,33,1.752810e+01,2.001453e+01,0
1.896427e+00,2.026063e+00,2.006769e+00,3,0,1.451137e+01,1.929838e+01,0
1.894323e+00,2.026028e+00,2.006769e+00,3,0,1.290840e+01,3.218223e+01,0
1.890434e+00,2.017684e+00,1.997948e+00,3,0,1.400038e+01,4.936678e+01,0
3.778918e+00,3.834142e+00,3.815413e+00,6,4,1.498326e+01,5.241520e+01,0
3.150105e+00,2.028494e+00,2.010822e+00,5,0,1.795174e+01,6.222788e+01,0
3.782742e+00,5.821033e+00,5.801916e+00,6,8,1.976003e+01,6.026509e+01,0
3.775771e+00,3.420274e+00,3.401041e+00,6,4,1.046856e+01,2.513044e+01,0
2.519754e+00,1.151652e+00,1.137972e+00,4,1,4.580077e+00,4.579621e+00,1
1.894476e+00,1.029620e+00,1.015902e+00,3,1,3.348739e+00,3.348713e+00,1
1.894320e+00,1.163973e+00,1.149178e+00,3,1,2.860987e+00,2.861071e+00,1
1.896298e+00,1.026175e+00,1.012087e+00,3,1,2.138833e+00,2.138833e+00,1
1.893920e+00,5.790380e-01,5.660057e-01,3,0,5.096444e+00,5.096304e+00,1
1.893008e+00,5.727560e-01,5.590916e-01,3,0,2.847034e+00,2.846974e+00,1
1.894608e+00,5.752800e-01,5.612373e-01,3,0,3.924682e+00,3.924639e+00,1
1.893053e+00,5.697080e-01,5.559921e-01,3,0,7.608631e+00,7.608647e+00,1
1.893811e+00,5.750540e-01,5.609989e-01,3,0,6.514528e+00,6.514480e+00,1
1.894133e+00,1.919206e+00,1.904964e+00,3,3,1.122269e+01,1.122168e+01,1
3.148304e+00,2.485630e+00,2.471924e+00,5,4,1.106132e+01,1.106144e+01,1
2.525945e+00,7.067330e-01,6.880760e-01,4,0,7.264760e+00,7.265671e+00,1
1.894932e+00,1.613551e+00,1.599073e+00,3,2,5.662850e+00,5.663645e+00,1
1.894135e+00,1.024779e+00,1.009941e+00,3,1,4.419663e+00,4.419663e+00,1
1.894710e+00,5.747570e-01,5.600452e-01,3,0,3.685913e+00,3.685913e+00,1
1.889211e+00,5.686560e-01,5.540848e-01,3,0,2.857901e+00,2.857901e+00,1
1.894259e+00,1.156980e+00,1.144171e+00,3,1,3.953513e+00,3.968720e+00,1
1.894579e+00,1.026340e+00,1.011848e+00,3,1,3.102638e+00,3.102639e+00,1
1.894216e+00,5.702230e-01,5.557537e-01,3,0,3.252062e+00,3.252064e+00,1
1.894050e+00,5.771930e-01,5.640984e-01,3,0,2.910454e+00,2.910455e+00,1
1.893765e+00,5.697930e-01,5.569458e-01,3,0,2.614420e+00,2.614421e+00,1
1.894732e+00,5.750430e-01,5.609989e-01,3,0,2.864270e+00,2.864272e+00,1
1.894677e+00,5.689530e-01,5.559921e-01,3,0,3.369989e+00,3.369992e+00,1
1.894878e+00,5.764380e-01,5.619526e-01,3,0,2.917023e+00,2.917024e+00,1
1.901053e+00,5.682040e-01,5.540848e-01,3,0,2.086525e+00,2.086525e+00,1
1.894428e+00,5.754850e-01,5.609989e-01,3,0,1.756422e+00,1.756422e+00,1
1.893805e+00,5.687740e-01,5.559921e-01,3,0,2.136295e+00,2.136297e+00,1
1.894390e+00,5.750660e-01,5.619526e-01,3,0,2.621961e+00,2.621962e+00,1
1.894178e+00,1.160273e+00,1.147032e+00,3,1,2.027478e+00,2.037040e+00,1
1.893796e+00,1.027167e+00,1.013994e+00,3,1,2.868961e+00,2.868941e+00,1
1.893651e+00,5.751670e-01,5.619526e-01,3,0,4.114911e+00,4.114918e+00,1
1.893143e+00,5.689010e-01,5.550385e-01,3,0,1.449104e+00,1.449102e+00,1
1.894613e+00,5.736420e-01,5.600452e-01,3,0,1.776705e+00,1.776708e+00,1
1.893025e+00,5.685550e-01,5.559921e-01,3,0,1.264551e+00,1.264553e+00,1
1.894802e+00,5.744280e-01,5.619526e-01,3,0,1.533675e+00,1.533676e+00,1
1.893854e+00,5.688670e-01,5.559921e-01,3,0,1.571152e+00,1.571152e+00,1
1.893916e+00,5.752140e-01,5.609989e-01,3,0,1.522941e+00,1.522943e+00,1
1.894081e+00,5.698890e-01,5.559921e-01,3,0,2.042481e+00,2.042483e+00,1
1.895161e+00,5.742040e-01,5.600452e-01,3,0,2.941326e+00,2.941107e+00,1
2.522022e+00,5.684920e-01,5.548000e-01,4,0,2.082650e+00,2.082650e+00,1
1.895659e+00,5.741720e-01,5.600452e-01,3,0,2.044217e+00,2.044218e+00,1
1.898863e+00,5.722560e-01,5.569458e-01,3,0,2.195681e+00,2.195682e+00,1
1.895139e+00,1.166983e+00,1.152992e+00,3,1,2.002985e+00,2.003000e+00,1
1.896421e+00,1.618850e+00,1.605988e+00,3,2,4.389532e+00,4.389661e+00,1
1.888505e+00,7.006790e-01,6.871223e-01,3,0,6.638221e+00,6.643627e+00,1
2.525638e+00,7.064600e-01,6.918907e-01,4,0,6.491718e+00,6.493633e+00,1
1.893564e+00,1.247291e+00,1.234055e+00,3,1,5.230513e+00,5.239160e+00,1
1.895403e+00,1.685814e+00,1.672029e+00,3,2,4.744162e+00,4.752833e+00,1
1.895151e+00,1.699311e+00,1.685143e+00,3,2,5.037262e+00,5.078869e+00,1
1.888300e+00,1.241933e+00,1.227856e+00,3,1,3.970117e+00,4.163659e+00,1
1.895460e+00,2.149657e+00,2.135038e+00,3,3,4.096678e+00,4.168033e+00,1
1.894045e+00,1.156788e+00,1.142979e+00,3,1,3.537362e+00,3.606258e+00,1
1.897378e+00,1.247611e+00,1.233816e+00,3,1,4.215675e+00,4.236799e+00,1
1.898481e+00,1.168448e+00,1.152992e+00,3,1,3.241134e+00,3.241769e+00,1
1.898477e+00,1.033669e+00,1.019001e+00,3,1,1.986163e+00,1.986163e+00,1
1.894657e+00,5.915470e-01,5.760193e-01,3,0,1.691910e+00,1.691910e+00,1
1.911744e+00,5.729520e-01,5.600452e-01,3,0,1.242600e+00,1.242601e+00,1
1.898532e+00,5.820540e-01,5.681515e-01,3,0,1.617089e+00,1.617091e+00,1
1.893976e+00,5.742170e-01,5.600452e-01,3,0,1.313948e+00,1.313948e+00,1
1.900511e+00,5.800890e-01,5.657673e-01,3,0,9.875851e-01,9.875853e-01,1
1.895278e+00,5.689740e-01,5.548000e-01,3,0,1.112523e+00,1.112524e+00,1
1.897281e+00,5.873920e-01,5.729198e-01,3,0,1.353308e+00,1.353309e+00,1
1.902849e+00,5.679390e-01,5.550385e-01,3,0,2.236134e+00,2.236142e+00,1
1.894642e+00,5.764630e-01,5.619526e-01,3,0,2.175578e+00,2.175579e+00,1
1.893696e+00,5.757540e-01,5.621910e-01,3,0,1.747413e+00,1.747414e+00,1
1.894766e+00,5.715730e-01,5.578995e-01,3,0,1.731721e+00,1.731722e+00,1
1.894980e+00,5.742330e-01,5.600452e-01,3,0,2.120160e+00,2.120164e+00,1
1.892895e+00,5.686550e-01,5.550385e-01,3,0,3.279783e+00,3.279787e+00,1
1.889610e+00,2.342699e+00,2.330065e+00,3,3,1.949514e+00,1.955358e+00,1
1.894062e+00,1.479288e+00,1.466036e+00,3,2,1.440055e+00,1.440051e+00,1
1.894774e+00,1.161547e+00,1.147985e+00,3,1,1.380657e+00,1.398235e+00,1
1.895725e+00,7.054970e-01,6.918907e-01,3,0,1.861235e+00,1.861239e+00,1
1.894880e+00,1.975983e+00,1.961946e+00,3,2,1.780101e+00,1.785510e+00,1
1.894040e+00,6.994300e-01,6.849766e-01,3,0,1.840634e+00,1.860625e+00,1
1.897213e+00,1.663561e+00,1.649141e+00,3,2,1.730960e+00,1.730961e+00,1
1.889601e+00,5.716120e-01,5.569458e-01,3,0,1.673700e+00,1.673701e+00,1
1.894154e+00,5.734770e-01,5.588531e-01,3,0,1.403933e+00,1.403933e+00,1
1.893587e+00,5.749850e-01,5.609989e-01,3,0,5.504326e+00,5.504340e+00,1
1.893854e+00,5.680760e-01,5.550385e-01,3,0,3.112235e+00,3.112234e+00,1
1.890467e+00,5.735100e-01,5.609989e-01,3,0,1.848370e+00,1.848369e+00,1
1.893007e+00,5.676850e-01,5.538464e-01,3,0,1.768032e+00,1.768033e+00,1
1.893838e+00,5.735630e-01,5.600452e-01,3,0,2.492553e+00,2.492556e+00,1
1.895069e+00,1.160519e+00,1.147032e+00,3,1,3.216952e+00,3.216875e+00,1
1.894589e+00,1.026901e+00,1.013041e+00,3,1,3.156179e+00,3.156181e+00,1
1.895990e+00,1.160493e+00,1.147032e+00,3,1,3.407604e+00,3.408855e+00,1
1.894742e+00,7.048170e-01,6.909370e-01,3,0,3.226698e+00,3.226735e+00,1
1.891094e+00,1.878890e+00,1.865149e+00,3,2,4.186607e+00,4.191008e+00,1
1.899565e+00,9.654920e+00,9.639978e+00,3,17,7.069277e+00,7.128241e+00,1
2.526458e+00,1.286350e+01,1.284790e+01,4,25,9.862402e+00,1.044085e+01,1
3.785409e+00,8.506155e+00,8.486986e+00,6,17,5.522427e+00,5.535845e+00,1
2.525791e+00,2.386109e+00,2.372026e+00,4,4,2.854178e+00,2.854176e+00,1
1.895940e+00,5.714080e-01,5.581379e-01,3,0,3.249149e+00,3.249151e+00,1
1.894357e+00,5.747970e-01,5.609989e-01,3,0,2.982513e+00,2.982513e+00,1
1.886909e+00,5.684280e-01,5.550385e-01,3,0,2.549282e+00,2.549283e+00,1
1.893947e+00,5.745210e-01,5.598068e-01,3,0,1.826210e+00,1.826210e+00,1
1.888363e+00,5.749660e-01,5.612373e-01,3,0,1.306154e+00,1.306153e+00,1
1.893265e+00,5.672690e-01,5.531311e-01,3,0,1.683461e+00,1.683464e+00,1
1.892823e+00,5.742790e-01,5.598068e-01,3,0,2.313361e+00,2.313363e+00,1
1.892865e+00,5.676270e-01,5.538464e-01,3,0,1.239815e+00,1.239816e+00,1
1.894885e+00,5.748050e-01,5.609989e-01,3,0,4.549368e+00,4.549380e+00,1
1.893254e+00,5.722360e-01,5.569458e-01,3,0,3.656563e+00,3.656562e+00,1
1.894140e+00,5.763800e-01,5.609989e-01,3,0,2.469635e+00,2.469634e+00,1
1.894647e+00,1.692301e+00,1.678944e+00,3,2,3.552382e+00,3.572967e+00,1
1.896461e+00,2.338345e+00,2.324104e+00,3,3,2.441953e+00,2.449681e+00,1
1.897607e+00,1.337794e+00,1.323223e+00,3,1,2.385117e+00,2.411324e+00,1
1.897194e+00,2.969516e+00,2.957106e+00,3,4,2.692730e+00,2.732258e+00,1
1.896005e+00,1.336325e+00,1.321793e+00,3,1,4.321569e+00,4.611661e+00,1
1.893895e+00,2.332974e+00,2.319098e+00,3,3,3.687353e+00,3.774291e+00,1
1.897087e+00,3.212947e+00,3.199100e+00,3,5,8.703186e+00,9.230426e+00,1
3.151598e+00,4.079486e+00,4.065990e+00,5,7,6.776326e+00,6.789060e+00,1
3.785418e+00,1.302647e+01,1.300693e+01,6,22,1.663004e+01,2.022942e+01,0
3.783902e+00,8.099137e+00,8.084059e+00,6,16,1.424430e+01,1.438325e+01,1
2.524030e+00,3.034102e+00,3.020048e+00,4,5,1.372391e+01,1.377957e+01,1
2.526975e+00,3.599749e+00,3.585815e+00,4,6,9.168593e+00,9.176324e+00,1
1.892923e+00,7.021270e-01,6.871223e-01,3,0,8.665089e+00,8.666769e+00,1
1.894136e+00,1.026313e+00,1.013041e+00,3,1,8.247126e+00,8.247127e+00,1
1.896951e+00,1.647941e+00,1.633167e+00,3,2,7.697248e+00,7.720973e+00,1
1.895682e+00,1.477133e+00,1.463175e+00,3,2,7.057689e+00,7.057233e+00,1
1.908970e+00,1.163327e+00,1.149893e+00,3,1,8.333054e+00,8.333288e+00,1
1.890530e+00,1.030810e+00,1.016140e+00,3,1,6.288107e+00,6.288075e+00,1
1.900377e+00,5.770010e-01,5.569458e-01,3,0,4.098182e+00,4.098180e+00,1
1.898734e+00,3.510108e+00,3.490448e+00,3,3,6.029480e+00,7.604834e+00,0
2.521913e+00,1.949379e+00,1.935005e+00,4,3,2.823319e+00,2.823318e+00,1
1.894217e+00,1.162690e+00,1.148224e+00,3,1,2.784364e+00,2.784945e+00,1
1.895089e+00,1.026811e+00,1.013041e+00,3,1,1.466084e+00,1.466084e+00,1
1.895552e+00,1.162870e+00,1.149178e+00,3,1,1.769434e+00,1.776744e+00,1
1.894363e+00,7.048680e-01,6.906986e-01,3,0,1.869005e+00,1.877862e+00,1
1.893334e+00,7.061320e-01,6.940365e-01,3,0,4.020752e+00,4.096507e+00,1
1.893856e+00,1.026324e+00,1.013994e+00,3,1,2.106605e+00,2.106597e+00,1
1.893754e+00,5.691830e-01,5.559921e-01,3,0,1.606065e+00,1.606066e+00,1
1.894414e+00,5.747460e-01,5.600452e-01,3,0,1.130740e+00,1.130741e+00,1
1.893673e+00,5.677330e-01,5.540848e-01,3,0,8.522920e-01,8.522924e-01,1
1.894810e+00,5.730750e-01,5.588531e-01,3,0,1.410858e+00,1.410861e+00,1
1.893630e+00,5.683920e-01,5.540848e-01,3,0,1.151937e+00,1.151938e+00,1
1.893730e+00,5.745100e-01,5.609989e-01,3,0,1.798510e+00,1.798512e+00,1
1.893967e+00,5.687590e-01,5.550385e-01,3,0,7.363808e-01,7.363807e-01,1
1.894523e+00,5.759730e-01,5.619526e-01,3,0,8.788645e-01,8.788654e-01,1
1.888060e+00,5.679830e-01,5.550385e-01,3,0,2.168518e+00,2.168523e+00,1
1.893948e+00,5.737910e-01,5.600452e-01,3,0,1.854972e+00,1.854973e+00,1
1.892482e+00,5.751680e-01,5.619526e-01,3,0,2.845767e+00,2.845768e+00,1
1.895318e+00,5.694140e-01,5.550385e-01,3,0,1.792045e+00,1.792044e+00,1
1.893458e+00,5.736470e-01,5.600452e-01,3,0,1.533845e+00,1.533846e+00,1
1.894050e+00,5.675930e-01,5.540848e-01,3,0,1.157289e+00,1.157289e+00,1
1.894057e+00,1.164223e+00,1.149893e+00,3,1,2.347749e+00,2.359370e+00,1
1.894410e+00,1.343611e+00,1.330137e+00,3,1,1.746448e+00,1.752684e+00,1
1.893964e+00,6.998400e-01,6.868839e-01,3,0,2.553913e+00,2.571523e+00,1
1.893973e+00,1.026185e+00,1.012087e+00,3,1,2.031953e+00,2.031954e+00,1
1.895049e+00,9.546560e-01,9.410381e-01,3,1,2.227014e+00,2.226850e+00,1
2.524096e+00,9.414440e-01,9.279251e-01,4,1,1.699050e+00,1.699051e+00,1
1.892841e+00,5.694200e-01,5.559921e-01,3,0,2.511140e+00,2.511143e+00,1
1.895429e+00,5.752080e-01,5.600452e-01,3,0,2.121481e+00,2.121481e+00,1
1.894939e+00,5.694520e-01,5.562305e-01,3,0,4.824629e+00,4.824636e+00,1
1.897726e+00,2.753196e+00,2.739906e+00,3,4,7.250000e+00,7.283796e+00,1
1.892247e+00,2.977133e+00,2.964020e+00,3,5,5.645272e+00,5.645583e+00,1
1.893929e+00,1.029403e+00,1.014948e+00,3,1,3.745653e+00,3.745652e+00,1
1.889769e+00,5.685180e-01,5.550385e-01,3,0,3.351010e+00,3.351011e+00,1
1.893663e+00,5.740240e-01,5.590916e-01,3,0,3.352029e+00,3.352032e+00,1
1.892886e+00,5.741380e-01,5.598068e-01,3,0,2.932110e+00,2.932111e+00,1
1.914162e+00,5.681860e-01,5.538464e-01,3,0,2.331890e+00,2.331892e+00,1
1.895179e+00,5.769250e-01,5.638599e-01,3,0,2.234880e+00,2.234881e+00,1
1.896031e+00,5.683860e-01,5.559921e-01,3,0,2.726226e+00,2.726229e+00,1
1.893718e+00,1.163466e+00,1.148939e+00,3,1,3.230319e+00,3.231076e+00,1
1.895687e+00,1.026337e+00,1.011848e+00,3,1,2.070050e+00,2.070051e+00,1
1.893447e+00,5.752750e-01,5.619526e-01,3,0,2.089506e+00,2.089509e+00,1
1.894949e+00,5.682040e-01,5.550385e-01,3,0,1.796849e+00,1.796850e+00,1
1.894201e+00,5.738830e-01,5.600452e-01,3,0,1.830414e+00,1.830416e+00,1
1.894706e+00,5.688660e-01,5.548000e-01,3,0,2.941673e+00,2.941677e+00,1
1.894553e+00,5.743120e-01,5.609989e-01,3,0,4.487530e+00,4.487534e+00,1
1.889191e+00,5.733600e-01,5.600452e-01,3,0,2.725171e+00,2.725159e+00,1
1.894142e+00,1.158005e+00,1.143932e+00,3,1,2.958625e+00,2.959457e+00,1
1.894311e+00,1.027007e+00,1.013994e+00,3,1,4.834668e+00,4.834653e+00,1
1.896504e+00,2.170862e+00,2.156973e+00,3,3,5.754124e+00,5.765508e+00,1
2.525523e+00,1.610034e+00,1.596212e+00,4,2,4.452735e+00,4.465450e+00,1
1.894480e+00,1.026729e+00,1.011848e+00,3,1,4.858894e+00,4.858896e+00,1
1.892948e+00,1.163154e+00,1.150131e+00,3,1,4.263164e+00,4.263761e+00,1
1.894939e+00,1.025110e+00,1.010895e+00,3,1,3.177851e+00,3.177852e+00,1
1.895436e+00,1.698132e+00,1.684189e+00,3,2,3.982978e+00,3.982996e+00,1
1.894243e+00,1.477565e+00,1.462936e+00,3,2,2.970902e+00,2.970901e+00,1
1.894977e+00,5.751380e-01,5.609989e-01,3,0,2.752963e+00,2.752966e+00,1
1.895003e+00,5.697990e-01,5.571842e-01,3,0,2.086692e+00,2.086691e+00,1
1.894552e+00,5.747230e-01,5.619526e-01,3,0,1.665098e+00,1.665099e+00,1
1.893248e+00,5.688590e-01,5.548000e-01,3,0,1.882833e+00,1.882836e+00,1
1.893266e+00,1.161781e+00,1.147985e+00,3,1,1.804575e+00,1.814314e+00,1
1.895292e+00,1.412094e+00,1.398087e+00,3,2,3.948113e+00,3.947884e+00,1
2.519479e+00,9.407190e-01,9.267330e-01,4,1,2.557274e+00,2.553259e+00,1
1.893008e+00,5.761560e-01,5.621910e-01,3,0,2.157014e+00,2.157007e+00,1
1.893531e+00,5.674160e-01,5.550385e-01,3,0,2.134426e+00,2.134428e+00,1
1.893167e+00,5.745040e-01,5.619526e-01,3,0,1.619044e+00,1.619045e+00,1
1.887485e+00,5.684730e-01,5.559921e-01,3,0,2.523821e+00,2.523825e+00,1
1.893823e+00,5.775600e-01,5.640984e-01,3,0,3.032065e+00,3.032068e+00,1
1.892104e+00,5.750720e-01,5.621910e-01,3,0,4.100321e+00,4.100325e+00,1
1.893951e+00,5.694440e-01,5.562305e-01,3,0,3.783457e+00,3.783458e+00,1
1.893980e+00,2.517264e+00,2.496243e+00,3,1,7.095423e+00,7.169142e+00,0
1.892324e+00,1.027578e+00,1.013994e+00,3,1,5.294861e+00,5.294857e+00,1
1.893243e+00,5.689180e-01,5.548000e-01,3,0,6.170269e+00,6.170268e+00,1
1.893775e+00,5.753130e-01,5.619526e-01,3,0,7.203692e+00,7.203662e+00,1
1.895349e+00,1.161873e+00,1.147985e+00,3,1,6.386065e+00,6.386525e+00,1
1.894373e+00,1.889568e+00,1.876116e+00,3,2,6.462814e+00,6.474119e+00,1
1.895738e+00,2.337696e+00,2.323866e+00,3,3,4.991333e+00,5.002112e+00,1
1.893830e+00,7.056690e-01,6.918907e-01,3,0,4.760158e+00,4.792016e+00,1
1.893357e+00,1.157332e+00,1.142740e+00,3,1,3.583229e+00,3.584025e+00,1
1.894181e+00,1.027418e+00,1.014948e+00,3,1,3.132034e+00,3.132035e+00,1
1.895262e+00,5.701020e-01,5.559921e-01,3,0,2.742228e+00,2.742230e+00,1
1.914318e+00,1.159392e+00,1.146078e+00,3,1,3.419773e+00,3.421063e+00,1
1.896222e+00,2.956388e+00,2.940893e+00,3,4,4.496432e+00,4.518545e+00,1
1.898408e+00,4.848568e+00,4.832983e+00,3,8,4.444529e+00,4.465007e+00,1
1.900263e+00,4.615736e+00,4.601002e+00,3,8,5.646940e+00,5.704034e+00,1
2.521969e+00,4.056290e+00,4.041910e+00,4,7,3.856793e+00,3.857840e+00,1
1.894869e+00,2.070554e+00,2.055645e+00,3,3,2.927055e+00,2.927578e+00,1
1.897805e+00,3.766469e+00,3.753185e+00,3,6,6.628289e+00,6.642012e+00,1
1.896229e+00,3.059024e+00,3.045082e+00,3,5,5.330278e+00,5.336343e+00,1
1.896275e+00,2.895430e+00,2.882957e+00,3,4,3.369869e+00,3.376306e+00,1
1.895258e+00,1.156186e+00,1.142979e+00,3,1,3.914267e+00,4.128533e+00,1
1.911082e+00,1.336630e+00,1.324177e+00,3,1,5.396256e+00,5.773758e+00,1
2.518249e+00,1.161813e+00,1.147985e+00,4,1,5.323789e+00,5.690571e+00,1
1.895531e+00,7.071480e-01,6.930828e-01,3,0,4.840515e+00,4.950120e+00,1
1.895455e+00,1.026292e+00,1.013041e+00,3,1,4.350863e+00,4.350842e+00,1
1.893053e+00,5.687340e-01,5.559921e-01,3,0,9.856656e+00,9.856566e+00,1
1.893467e+00,5.744230e-01,5.609989e-01,3,0,7.170398e+00,7.170361e+00,1
1.890911e+00,5.689630e-01,5.550385e-01,3,0,5.658261e+00,5.658259e+00,1
1.895762e+00,5.737080e-01,5.609989e-01,3,0,6.178357e+00,6.178360e+00,1
1.889386e+00,5.690550e-01,5.559921e-01,3,0,5.247534e+00,5.247535e+00,1
1.894795e+00,1.159985e+00,1.146078e+00,3,1,7.387950e+00,7.396491e+00,1
1.893548e+00,1.025391e+00,1.012087e+00,3,1,4.599669e+00,4.599666e+00,1
1.893122e+00,5.678710e-01,5.550385e-01,3,0,4.179788e+00,4.179789e+00,1
1.895773e+00,2.231267e+00,2.218008e+00,3,3,7.343703e+00,7.367821e+00,1
1.894516e+00,1.611268e+00,1.597166e+00,3,2,5.535892e+00,5.540838e+00,1
1.912521e+00,1.245026e+00,1.231194e+00,3,1,5.422930e+00,5.429977e+00,1
1.894334e+00,1.702764e+00,1.689196e+00,3,2,4.468441e+00,4.507136e+00,1
1.889804e+00,6.988570e-01,6.859303e-01,3,0,4.721516e+00,4.833606e+00,1
1.893996e+00,7.043400e-01,6.921291e-01,3,0,4.160154e+00,4.252775e+00,1
1.894881e+00,7.051480e-01,6.909370e-01,3,0,4.271169e+00,4.425889e+00,1
1.899623e+00,1.158942e+00,1.144886e+00,3,1,2.887938e+00,2.924903e+00,1
1.896460e+00,1.056683e+00,1.039028e+00,3,1,1.742589e+00,1.742587e+00,1
1.891152e+00,5.745220e-01,5.600452e-01,3,0,3.598449e+00,3.598430e+00,1
1.897437e+00,5.963960e-01,5.819798e-01,3,0,2.547696e+00,2.547680e+00,1
1.896794e+00,5.763370e-01,5.619526e-01,3,0,2.137972e+00,2.137973e+00,1
1.894959e+00,5.671580e-01,5.531311e-01,3,0,1.161706e+00,1.161707e+00,1
1.894550e+00,5.739570e-01,5.609989e-01,3,0,1.951974e+00,1.951978e+00,1
1.920760e+00,5.686940e-01,5.550385e-01,3,0,3.163724e+00,3.163727e+00,1
1.894691e+00,5.771230e-01,5.629063e-01,3,0,3.214422e+00,3.214424e+00,1
1.894158e+00,5.686340e-01,5.538464e-01,3,0,2.707398e+00,2.707399e+00,1
1.894464e+00,1.160146e+00,1.146078e+00,3,1,4.982625e+00,4.991755e+00,1
1.894313e+00,1.191105e+00,1.178026e+00,3,1,6.531016e+00,6.541215e+00,1
3.780573e+00,4.337437e+00,4.323959e+00,6,7,9.264318e+00,9.371994e+00,1
2.536473e+00,5.549791e+00,5.536079e+00,4,10,7.971883e+00,8.136044e+00,1
3.782706e+00,8.104589e+00,8.090973e+00,6,15,1.574282e+01,1.651560e+01,1
2.519870e+00,9.021998e+00,9.006977e+00,4,18,1.530432e+01,1.563639e+01,1
2.527366e+00,9.840148e+00,9.827137e+00,4,19,1.181680e+01,1.191875e+01,1
1.915301e+00,3.418465e+00,3.403664e+00,3,6,8.630696e+00,8.630785e+00,1
1.895855e+00,1.025034e+00,1.012087e+00,3,1,7.335510e+00,7.335510e+00,1
1.893819e+00,1.143341e+00,1.130104e+00,3,1,6.413083e+00,6.439659e+00,1
1.895935e+00,2.589929e+00,2.571344e+00,3,1,7.425730e+00,1.590102e+01,0
1.889620e+00,2.573199e+00,2.553940e+00,3,1,1.335559e+01,3.984657e+01,0
3.773741e+00,3.011356e+00,2.992868e+00,6,2,1.976190e+01,5.024743e+01,0
3.777443e+00,2.035715e+00,2.017260e+00,6,0,2.012801e+01,4.461362e+01,0
3.789068e+00,2.044546e+00,2.024651e+00,6,0,2.194044e+01,4.459466e+01,0
3.170896e+00,5.940234e+00,5.919456e+00,5,8,1.525323e+01,1.986229e+01,0
2.522489e+00,3.437283e+00,3.418207e+00,4,6,1.045177e+01,1.045124e+01,1
1.890977e+00,2.181666e+00,2.166986e+00,3,3,1.068312e+01,1.068554e+01,1
1.897434e+00,1.508051e+00,1.488209e+00,3,2,7.132125e+00,7.132117e+00,1
1.903345e+00,1.156810e+00,1.142979e+00,3,1,5.731491e+00,5.731778e+00,1
1.900513e+00,1.028472e+00,1.014709e+00,3,1,4.839724e+00,4.839724e+00,1
1.897140e+00,1.164476e+00,1.151085e+00,3,1,4.705227e+00,4.708493e+00,1
1.895039e+00,1.057690e+00,1.043797e+00,3,1,3.897127e+00,3.897129e+00,1
1.908612e+00,5.752500e-01,5.609989e-01,3,0,3.663112e+00,3.663050e+00,1
2.526997e+00,1.003664e+01,1.002169e+01,4,19,7.402935e+00,7.754721e+00,1
3.783788e+00,2.528277e+00,2.508640e+00,6,1,1.135222e+01,1.773982e+01,0
4.408587e+00,2.453657e+00,2.434731e+00,7,1,1.149427e+01,1.522622e+01,0
3.276001e+00,1.079642e+01,1.077843e+01,5,18,1.183168e+01,1.258003e+01,0
3.782991e+00,6.508098e+00,6.492138e+00,6,13,5.408135e+00,5.395730e+00,1
2.526541e+00,9.421940e-01,9.267330e-01,4,1,3.781228e+00,3.781227e+00,1
1.894114e+00,5.686830e-01,5.559921e-01,3,0,4.091364e+00,4.091369e+00,1
1.895369e+00,5.746860e-01,5.600452e-01,3,0,5.198463e+00,5.198464e+00,1
1.888762e+00,1.606945e+00,1.587868e+00,3,0,6.425192e+00,9.565266e+00,0
1.894969e+00,5.746850e-01,5.600452e-01,3,0,4.981270e+00,4.981260e+00,1
2.528259e+00,1.987435e+00,1.968145e+00,4,1,1.338292e+01,2.633587e+01,0
3.781191e+00,1.587989e+00,1.562834e+00,6,0,2.320591e+01,4.570346e+01,0
3.791679e+00,1.599634e+00,1.580238e+00,6,0,2.518123e+01,4.551831e+01,0
2.524621e+00,3.955993e+00,3.936768e+00,4,4,1.605308e+01,2.179702e+01,0
3.792218e+00,2.045022e+00,2.024174e+00,6,0,2.150095e+01,3.406765e+01,0
2.528133e+00,4.030546e+00,4.010916e+00,4,4,1.742063e+01,2.250353e+01,0
3.776507e+00,2.044535e+00,2.023935e+00,6,0,1.651561e+01,1.680810e+01,0
2.523996e+00,6.127388e+00,6.114006e+00,4,11,1.311718e+01,1.314379e+01,1
1.895661e+00,2.060087e+00,2.037764e+00,3,0,1.317042e+01,1.296312e+01,0
2.526775e+00,4.590460e+00,4.578114e+00,4,8,1.078014e+01,1.078979e+01,1
1.890095e+00,2.128253e+00,2.115011e+00,3,3,1.091512e+01,1.092958e+01,1
1.895429e+00,1.184380e+00,1.169920e+00,3,1,1.160761e+01,1.161891e+01,1
2.521652e+00,2.229414e+00,2.215147e+00,4,3,9.651545e+00,9.660512e+00,1
1.896944e+00,3.781154e+00,3.767967e+00,3,6,7.523639e+00,7.558336e+00,1
1.897811e+00,4.196331e+00,4.180908e+00,3,7,6.189991e+00,6.261120e+00,1
1.901887e+00,2.684490e+00,2.670050e+00,3,4,5.735710e+00,5.809965e+00,1
1.912466e+00,3.679159e+00,3.664017e+00,3,6,4.774953e+00,4.882089e+00,1
1.894785e+00,1.155978e+00,1.142025e+00,3,1,3.844601e+00,3.874998e+00,1
1.890899e+00,4.713133e+00,4.699945e+00,3,8,6.250704e+00,6.433823e+00,1
3.780546e+00,5.785225e+00,5.769968e+00,6,11,4.643916e+00,4.623808e+00,1
2.524134e+00,1.977686e+00,1.963854e+00,4,3,2.501292e+00,2.506185e+00,1
1.890426e+00,1.872565e+00,1.858950e+00,3,2,3.465697e+00,3.474464e+00,1
1.891165e+00,1.974905e+00,1.960993e+00,3,2,4.447636e+00,4.535255e+00,1
1.894440e+00,1.161619e+00,1.148224e+00,3,1,4.985633e+00,5.161715e+00,1
1.894162e+00,1.028725e+00,1.014233e+00,3,1,3.339986e+00,3.339983e+00,1
1.895077e+00,5.678280e-01,5.540848e-01,3,0,3.057614e+00,3.057616e+00,1
1.893459e+00,5.738610e-01,5.600452e-01,3,0,2.451586e+00,2.451587e+00,1
1.893479e+00,5.678040e-01,5.540848e-01,3,0,1.904069e+00,1.904069e+00,1
1.894338e+00,5.734730e-01,5.598068e-01,3,0,2.917708e+00,2.917712e+00,1
1.894491e+00,5.680940e-01,5.550385e-01,3,0,3.371882e+00,3.371885e+00,1
1.894538e+00,5.739120e-01,5.609989e-01,3,0,1.772747e+00,1.772746e+00,1
1.894290e+00,1.161793e+00,1.147985e+00,3,1,1.571506e+00,1.590923e+00,1
1.893156e+00,7.056330e-01,6.911755e-01,3,0,3.115526e+00,3.176466e+00,1
1.888580e+00,1.025255e+00,1.011848e+00,3,1,2.967526e+00,2.967526e+00,1
1.891451e+00,5.712310e-01,5.528927e-01,3,0,1.819146e+00,1.819148e+00,1
1.892471e+00,5.735580e-01,5.590916e-01,3,0,5.450985e+00,5.451000e+00,1
1.892543e+00,5.674300e-01,5.540848e-01,3,0,2.570023e+00,2.570020e+00,1
1.895142e+00,5.742980e-01,5.609989e-01,3,0,2.203690e+00,2.203690e+00,1
1.912394e+00,5.678180e-01,5.538464e-01,3,0,4.550283e+00,4.550289e+00,1
1.894295e+00,5.769480e-01,5.626678e-01,3,0,4.888453e+00,4.888455e+00,1

