1.066426e+00,8.008480e-01,6,19
3.559890e-01,4.999638e-01,2,16
3.546450e-01,5.319118e-01,2,17
3.542240e-01,5.719662e-01,2,18
3.547600e-01,5.049706e-01,2,15
3.530910e-01,3.981590e-01,2,12
3.499200e-01,4.060268e-01,2,12
3.485170e-01,3.499985e-01,2,10
3.636330e-01,2.861023e-01,2,8
3.526070e-01,2.908707e-01,2,8
3.482550e-01,2.610683e-01,2,7
5.162730e-01,1.978874e-01,3,5
5.165550e-01,1.299381e-01,3,3
3.546440e-01,1.339912e-01,2,3
3.476030e-01,1.010895e-01,2,2

