1.269633e+00,8.168221e-01,6,19
3.583490e-01,5.009174e-01,2,16
3.566020e-01,5.350113e-01,2,17
3.569620e-01,5.738735e-01,2,18
3.570060e-01,5.021095e-01,2,15
3.559750e-01,4.000664e-01,2,12
3.524580e-01,4.041195e-01,2,12
3.508990e-01,3.480911e-01,2,10
3.645750e-01,2.868176e-01,2,8
3.558630e-01,2.920628e-01,2,8
3.507600e-01,2.629757e-01,2,7
5.202130e-01,1.959801e-01,3,5
5.202250e-01,1.299381e-01,3,3
3.576210e-01,1.351833e-01,2,3
3.505350e-01,1.020432e-01,2,2

