1.087284e+00,8.089542e-01,6,19
3.592470e-01,5.009174e-01,2,16
3.583450e-01,5.331039e-01,2,17
3.685600e-01,5.729198e-01,2,18
3.575980e-01,4.830360e-01,2,15
3.572860e-01,4.000664e-01,2,12
3.538350e-01,4.060268e-01,2,12
3.639240e-01,3.519058e-01,2,10
3.573710e-01,2.880096e-01,2,8
3.567750e-01,2.908707e-01,2,8
3.515220e-01,2.620220e-01,2,7
5.206270e-01,1.978874e-01,3,5
5.316880e-01,1.320839e-01,3,3
3.513500e-01,1.351833e-01,2,3
3.521910e-01,1.020432e-01,2,2

