1.066636e+00,8.101463e-01,6,19
3.576820e-01,4.999638e-01,2,16
3.576850e-01,5.421638e-01,2,17
3.566790e-01,5.722046e-01,2,18
3.565130e-01,4.818439e-01,2,15
3.631260e-01,3.998280e-01,2,12
3.524740e-01,4.050732e-01,2,12
3.499190e-01,3.490448e-01,2,10
3.553460e-01,2.861023e-01,2,8
3.554060e-01,2.889633e-01,2,8
3.571790e-01,2.658367e-01,2,7
5.193620e-01,1.969337e-01,3,5
5.195020e-01,1.299381e-01,3,3
3.503390e-01,1.330376e-01,2,3
3.502850e-01,1.008511e-01,2,2

