1.136440e+00,8.618832e-01,6,19
3.815300e-01,5.338192e-01,2,16
3.656750e-01,5.800724e-01,2,17
3.639720e-01,5.931854e-01,2,18
3.634630e-01,4.999638e-01,2,15
3.718360e-01,4.119873e-01,2,12
3.600130e-01,4.200935e-01,2,12
3.589300e-01,3.619194e-01,2,10
3.630880e-01,2.961159e-01,2,8
3.695110e-01,2.999306e-01,2,8
3.517370e-01,2.632141e-01,2,7
5.205970e-01,1.969337e-01,3,5
5.208610e-01,1.311302e-01,3,3
3.511310e-01,1.339912e-01,2,3
3.506800e-01,1.008511e-01,2,2

