5.520360e-01,2.449889e+02,2.447312e+02,2,1000,0.000000e+00,-1.843144e-18,0
7.865470e-01,8.645527e+00,8.634806e+00,3,43,1.477751e-01,1.477754e-01,1
7.829520e-01,2.154250e-01,2.071857e-01,3,0,2.697547e-01,2.697553e-01,1
7.829860e-01,2.148130e-01,2.059937e-01,3,0,5.751734e-01,5.751744e-01,1
7.835320e-01,2.138020e-01,2.059937e-01,3,0,5.282505e-01,5.282509e-01,1
7.838500e-01,2.140460e-01,2.059937e-01,3,0,2.459757e+00,2.459761e+00,1
7.842500e-01,2.144750e-01,2.069473e-01,3,0,3.443760e+00,3.443762e+00,1
7.843640e-01,2.192700e-01,2.110004e-01,3,0,4.529692e+00,4.529694e+00,1
7.842770e-01,2.147330e-01,2.069473e-01,3,0,2.216738e+00,2.216737e+00,1
7.829730e-01,2.139550e-01,2.059937e-01,3,0,1.963306e+00,1.963307e+00,1
7.819870e-01,2.143830e-01,2.069473e-01,3,0,1.634474e+00,1.634475e+00,1
7.819990e-01,2.145450e-01,2.069473e-01,3,0,1.888457e+00,1.888459e+00,1
7.835770e-01,2.151920e-01,2.081394e-01,3,0,3.113620e+00,3.113623e+00,1
7.827150e-01,2.147730e-01,2.069473e-01,3,0,4.240895e+00,4.240898e+00,1
7.775540e-01,4.123050e-01,4.029274e-01,3,1,3.884715e+00,3.887958e+00,1
7.842000e-01,4.362830e-01,4.289150e-01,3,1,5.420458e+00,5.428553e+00,1
7.839380e-01,4.118390e-01,4.029274e-01,3,1,4.235205e+00,4.235399e+00,1
7.852690e-01,3.714900e-01,3.628731e-01,3,1,3.702471e+00,3.702472e+00,1
7.781990e-01,6.063890e-01,5.979538e-01,3,2,3.546971e+00,3.557237e+00,1
7.776370e-01,2.589170e-01,2.510548e-01,3,0,3.362838e+00,3.374992e+00,1
7.861620e-01,6.035520e-01,5.900860e-01,3,2,3.502663e+00,3.524048e+00,1
7.834170e-01,4.088580e-01,4.019737e-01,3,1,2.920580e+00,2.921994e+00,1
7.827570e-01,2.530160e-01,2.448559e-01,3,0,2.647642e+00,2.654071e+00,1
7.845280e-01,6.008930e-01,5.929470e-01,3,2,2.317108e+00,2.433269e+00,1
7.838770e-01,4.695260e-01,4.618168e-01,3,1,2.280358e+00,2.322225e+00,1
7.837960e-01,2.532010e-01,2.458096e-01,3,0,2.200572e+00,2.200711e+00,1
7.834450e-01,3.693050e-01,3.609657e-01,3,1,1.829212e+00,1.829152e+00,1
7.829190e-01,2.135420e-01,2.050400e-01,3,0,1.319248e+00,1.318786e+00,1
7.833440e-01,2.137660e-01,2.069473e-01,3,0,6.534984e-01,6.535009e-01,1
7.817020e-01,2.131360e-01,2.050400e-01,3,0,5.567998e-01,5.568000e-01,1
7.826700e-01,2.135120e-01,2.062321e-01,3,0,1.120268e+00,1.120270e+00,1
7.819050e-01,2.130260e-01,2.050400e-01,3,0,1.325162e+00,1.325163e+00,1
7.821710e-01,2.139080e-01,2.059937e-01,3,0,1.150528e+00,1.150528e+00,1
7.768240e-01,2.139760e-01,2.069473e-01,3,0,1.774555e+00,1.774557e+00,1
7.766690e-01,2.204790e-01,2.129078e-01,3,0,1.456476e+00,1.456476e+00,1
7.775870e-01,2.185740e-01,2.100468e-01,3,0,1.080970e+00,1.080970e+00,1
7.778330e-01,2.190370e-01,2.119541e-01,3,0,7.962757e-01,7.962763e-01,1
7.777790e-01,2.198590e-01,2.129078e-01,3,0,6.548356e-01,6.548361e-01,1
7.829920e-01,4.183200e-01,4.100800e-01,3,1,1.660106e+00,1.660411e+00,1
7.834970e-01,3.698790e-01,3.609657e-01,3,1,1.837470e+00,1.837471e+00,1
7.772220e-01,7.712660e-01,7.631779e-01,3,3,4.150749e+00,4.239557e+00,1
7.856630e-01,7.536470e-01,7.460117e-01,3,3,5.688163e+00,5.694845e+00,1
7.822860e-01,5.258350e-01,5.180836e-01,3,2,3.619173e+00,3.619169e+00,1
7.777710e-01,4.195370e-01,4.110336e-01,3,1,5.472907e+00,5.473067e+00,1
7.829290e-01,3.704540e-01,3.631115e-01,3,1,4.375941e+00,4.375941e+00,1
7.831520e-01,2.140040e-01,2.059937e-01,3,0,3.528658e+00,3.528658e+00,1
7.819400e-01,2.138400e-01,2.062321e-01,3,0,3.170248e+00,3.170249e+00,1
7.826800e-01,2.142790e-01,2.059937e-01,3,0,2.643302e+00,2.643303e+00,1
7.831970e-01,2.150850e-01,2.069473e-01,3,0,2.127032e+00,2.127032e+00,1
7.831730e-01,2.132860e-01,2.059937e-01,3,0,1.353564e+00,1.353564e+00,1
7.831570e-01,2.131040e-01,2.040863e-01,3,0,1.201780e+00,1.201781e+00,1
7.823200e-01,4.042540e-01,3.969669e-01,3,1,1.935873e+00,1.938873e+00,1
7.846780e-01,3.702720e-01,3.631115e-01,3,1,1.424564e+00,1.424564e+00,1
7.778640e-01,4.186680e-01,4.110336e-01,3,1,1.217132e+00,1.217591e+00,1
7.835670e-01,9.752100e-01,9.670258e-01,3,4,1.612301e+00,1.637165e+00,1
7.779420e-01,4.153840e-01,4.060268e-01,3,1,2.205653e+00,2.234093e+00,1
1.041251e+00,3.754180e-01,3.678799e-01,4,1,1.214929e+00,1.214929e+00,1
7.822590e-01,2.143410e-01,2.069473e-01,3,0,1.850409e+00,1.850411e+00,1
7.828150e-01,2.140170e-01,2.059937e-01,3,0,2.592462e+00,2.592461e+00,1
7.820260e-01,4.056960e-01,3.969669e-01,3,1,3.880669e+00,3.882258e+00,1
7.770320e-01,3.811500e-01,3.690720e-01,3,1,1.751065e+00,1.751069e+00,1
7.823580e-01,4.205590e-01,4.119873e-01,3,1,3.743403e+00,3.798252e+00,1
7.793300e-01,2.006068e+00,1.995087e+00,3,7,7.061598e+00,7.328098e+00,0
7.836920e-01,1.316291e+00,1.308203e+00,3,7,3.868531e+00,3.868520e+00,1
7.799410e-01,1.064756e+00,1.054049e+00,3,2,5.336208e+00,5.750018e+00,0
1.039974e+00,8.715690e-01,8.640289e-01,4,4,2.285561e+00,2.285560e+00,1
7.768470e-01,2.194160e-01,2.110004e-01,3,0,2.476828e+00,2.476827e+00,1
7.769460e-01,2.193730e-01,2.112389e-01,3,0,1.966015e+00,1.966016e+00,1
7.770060e-01,2.189730e-01,2.119541e-01,3,0,1.518141e+00,1.518141e+00,1
7.761390e-01,2.195820e-01,2.119541e-01,3,0,1.185555e+00,1.185556e+00,1
7.764870e-01,2.233440e-01,2.160072e-01,3,0,1.750564e+00,1.750565e+00,1
7.767050e-01,2.197760e-01,2.119541e-01,3,0,1.779765e+00,1.779766e+00,1
7.771170e-01,2.191790e-01,2.110004e-01,3,0,1.799250e+00,1.799251e+00,1
7.839180e-01,4.110690e-01,4.029274e-01,3,1,2.027236e+00,2.028424e+00,1
7.837580e-01,6.136840e-01,6.051064e-01,3,2,2.953748e+00,2.982704e+00,1
7.790230e-01,4.350330e-01,4.281998e-01,3,1,3.972893e+00,4.030506e+00,1
7.844160e-01,9.278210e-01,9.200573e-01,3,4,2.419968e+00,2.463277e+00,1
7.853220e-01,6.302990e-01,6.229877e-01,3,2,2.421935e+00,2.437840e+00,1
7.829310e-01,2.530940e-01,2.448559e-01,3,0,1.788399e+00,1.804446e+00,1
7.826060e-01,3.700060e-01,3.619194e-01,3,1,8.657456e-01,8.657455e-01,1
7.830880e-01,2.138890e-01,2.059937e-01,3,0,2.874666e+00,2.874671e+00,1
7.830220e-01,2.139800e-01,2.050400e-01,3,0,2.140292e+00,2.140292e+00,1
7.834410e-01,2.133860e-01,2.059937e-01,3,0,1.924900e+00,1.924901e+00,1
7.830020e-01,4.134770e-01,4.060268e-01,3,1,1.857077e+00,1.884809e+00,1
7.793000e-01,3.698110e-01,3.619194e-01,3,1,2.627106e+00,2.627111e+00,1
7.823460e-01,4.107520e-01,4.019737e-01,3,1,4.756818e+00,4.760565e+00,1
7.835440e-01,6.211240e-01,6.139278e-01,3,2,7.169829e+00,7.245884e+00,1
7.847870e-01,2.287432e+00,2.274990e+00,3,9,1.051339e+01,1.376895e+01,0
7.877730e-01,1.735690e+00,1.728058e+00,3,9,8.572963e+00,8.894003e+00,1
7.804770e-01,1.065686e+00,1.055956e+00,3,5,6.102340e+00,6.115956e+00,1
7.881230e-01,5.311060e-01,5.240440e-01,3,2,4.694680e+00,4.694680e+00,1
7.829280e-01,2.147130e-01,2.069473e-01,3,0,3.311402e+00,3.311402e+00,1
7.851480e-01,5.949030e-01,5.869865e-01,3,2,4.676176e+00,4.680937e+00,1
7.854130e-01,6.018940e-01,5.939007e-01,3,2,3.504615e+00,3.516836e+00,1
7.833570e-01,7.849150e-01,7.770061e-01,3,3,4.557084e+00,4.644140e+00,1
1.041723e+00,2.085900e+00,2.078056e+00,4,11,5.036996e+00,5.142376e+00,1
1.040687e+00,1.718154e+00,1.710176e+00,4,9,2.185318e+00,2.256323e+00,1
7.774960e-01,3.766390e-01,3.690720e-01,3,1,1.915967e+00,1.915968e+00,1
7.776070e-01,2.194880e-01,2.121925e-01,3,0,2.722432e+00,2.722435e+00,1
7.838730e-01,4.158590e-01,4.072189e-01,3,1,2.949001e+00,2.954722e+00,1
7.838780e-01,3.715400e-01,3.640652e-01,3,1,2.228318e+00,2.228318e+00,1
7.839080e-01,2.136340e-01,2.059937e-01,3,0,2.545234e+00,2.545236e+00,1
7.831280e-01,2.132340e-01,2.050400e-01,3,0,1.502043e+00,1.502044e+00,1
7.834660e-01,2.136270e-01,2.062321e-01,3,0,1.371448e+00,1.371448e+00,1
7.828760e-01,2.144330e-01,2.059937e-01,3,0,1.136427e+00,1.136427e+00,1
7.833320e-01,2.139440e-01,2.059937e-01,3,0,1.174077e+00,1.174078e+00,1
7.835460e-01,4.131150e-01,4.050732e-01,3,1,1.642144e+00,1.642347e+00,1
7.824760e-01,5.763320e-01,5.681515e-01,3,2,1.794969e+00,1.799210e+00,1
7.836100e-01,4.671220e-01,4.589558e-01,3,1,1.165205e+00,1.168311e+00,1
7.780080e-01,8.118540e-01,8.029938e-01,3,3,1.172119e+00,1.225554e+00,1
7.822080e-01,2.596100e-01,2.520084e-01,3,0,1.083212e+00,1.105672e+00,1
7.830000e-01,2.527130e-01,2.439022e-01,3,0,8.886640e-01,8.886668e-01,1
7.845010e-01,3.703290e-01,3.631115e-01,3,1,6.353263e-01,6.353264e-01,1
7.823200e-01,2.131370e-01,2.059937e-01,3,0,1.101719e+00,1.101720e+00,1
7.827130e-01,2.141690e-01,2.059937e-01,3,0,5.897289e-01,5.897290e-01,1
7.945590e-01,2.137660e-01,2.050400e-01,3,0,6.727555e-01,6.727560e-01,1
7.843270e-01,2.159730e-01,2.079010e-01,3,0,1.712291e+00,1.712294e+00,1
7.839370e-01,2.145540e-01,2.071857e-01,3,0,1.244475e+00,1.244475e+00,1
7.850080e-01,4.124320e-01,4.048347e-01,3,1,3.965856e+00,3.971743e+00,1
7.854430e-01,5.751180e-01,5.679131e-01,3,2,2.759459e+00,2.801875e+00,1
7.826800e-01,2.535820e-01,2.460480e-01,3,0,2.685961e+00,2.877987e+00,1
7.853330e-01,4.671840e-01,4.599094e-01,3,1,3.361085e+00,3.472358e+00,1
7.849750e-01,3.701500e-01,3.619194e-01,3,1,3.043491e+00,3.043491e+00,1
7.824990e-01,2.136880e-01,2.059937e-01,3,0,3.359707e+00,3.359709e+00,1
7.860790e-01,1.068128e+00,1.058340e+00,3,2,5.926757e+00,6.852260e+00,0
7.835690e-01,9.153100e-01,9.071827e-01,3,4,3.879667e+00,3.879931e+00,1
7.833540e-01,4.101880e-01,4.010201e-01,3,1,2.958350e+00,2.958369e+00,1
7.831180e-01,5.682080e-01,5.609989e-01,3,2,2.584689e+00,2.590235e+00,1
1.039139e+00,3.750730e-01,3.678799e-01,4,1,1.524175e+00,1.524177e+00,1
7.836250e-01,2.142150e-01,2.050400e-01,3,0,1.693966e+00,1.693958e+00,1
7.821130e-01,2.134350e-01,2.059937e-01,3,0,1.059656e+00,1.059657e+00,1
7.822820e-01,2.133780e-01,2.059937e-01,3,0,1.377541e+00,1.377543e+00,1
7.818470e-01,2.129870e-01,2.050400e-01,3,0,6.229854e-01,6.229856e-01,1
7.829430e-01,2.136230e-01,2.050400e-01,3,0,5.073364e-01,5.073367e-01,1
7.827210e-01,2.134310e-01,2.059937e-01,3,0,5.285171e-01,5.285175e-01,1
7.849910e-01,4.138850e-01,4.050732e-01,3,1,1.134791e+00,1.144313e+00,1
7.786000e-01,5.908040e-01,5.838871e-01,3,2,1.174135e+00,1.174136e+00,1
7.813470e-01,2.188750e-01,2.100468e-01,3,0,9.917023e-01,9.917025e-01,1
7.815940e-01,2.147360e-01,2.057552e-01,3,0,1.082230e+00,1.082231e+00,1
7.830000e-01,2.135330e-01,2.062321e-01,3,0,9.188136e-01,9.188141e-01,1
7.828090e-01,2.137470e-01,2.050400e-01,3,0,1.703315e+00,1.703317e+00,1
7.840150e-01,4.124380e-01,4.050732e-01,3,1,2.887266e+00,2.888965e+00,1
7.833060e-01,6.033190e-01,5.941391e-01,3,2,3.270435e+00,3.317183e+00,1
1.039249e+00,6.289820e-01,6.198883e-01,4,2,2.575823e+00,2.650428e+00,1
7.825100e-01,4.381700e-01,4.289150e-01,3,1,2.284671e+00,2.377443e+00,1
7.837940e-01,6.297920e-01,6.220341e-01,3,2,2.114043e+00,2.262669e+00,1
7.837700e-01,4.092640e-01,4.010201e-01,3,1,1.525459e+00,1.651589e+00,1
7.820230e-01,2.530760e-01,2.448559e-01,3,0,1.312818e+00,1.323701e+00,1
7.826530e-01,3.708440e-01,3.640652e-01,3,1,2.265458e+00,2.265462e+00,1
7.817430e-01,2.144190e-01,2.059937e-01,3,0,3.244754e+00,3.244757e+00,1
7.815710e-01,2.138960e-01,2.059937e-01,3,0,1.985182e+00,1.985181e+00,1
7.824780e-01,2.145180e-01,2.069473e-01,3,0,1.886946e+00,1.886947e+00,1
7.816730e-01,2.134840e-01,2.050400e-01,3,0,1.696303e+00,1.696304e+00,1
7.826410e-01,2.135910e-01,2.059937e-01,3,0,1.557803e+00,1.557803e+00,1
7.820360e-01,2.143030e-01,2.069473e-01,3,0,1.282779e+00,1.282780e+00,1
7.778830e-01,4.207060e-01,4.119873e-01,3,1,1.440062e+00,1.440373e+00,1
7.827630e-01,3.746080e-01,3.669262e-01,3,1,2.354947e+00,2.354950e+00,1
7.817970e-01,2.138200e-01,2.059937e-01,3,0,2.261473e+00,2.261473e+00,1
7.829100e-01,2.142410e-01,2.062321e-01,3,0,2.397506e+00,2.397507e+00,1
7.837150e-01,2.135810e-01,2.059937e-01,3,0,2.726403e+00,2.726406e+00,1
7.826730e-01,2.127570e-01,2.050400e-01,3,0,1.245363e+00,1.245363e+00,1
7.832820e-01,2.140650e-01,2.050400e-01,3,0,9.887013e-01,9.887019e-01,1
7.827970e-01,2.131460e-01,2.050400e-01,3,0,1.044758e+00,1.044759e+00,1
7.821840e-01,2.130170e-01,2.059937e-01,3,0,4.640929e-01,4.640938e-01,1
7.821030e-01,2.136740e-01,2.059937e-01,3,0,4.688404e-01,4.688407e-01,1
7.822860e-01,2.134170e-01,2.050400e-01,3,0,8.076118e-01,8.076128e-01,1
7.820780e-01,2.132300e-01,2.050400e-01,3,0,6.890079e-01,6.890080e-01,1
7.832150e-01,2.141800e-01,2.071857e-01,3,0,1.878360e+00,1.878364e+00,1
7.833170e-01,2.140950e-01,2.059937e-01,3,0,1.407735e+00,1.407737e+00,1
7.826900e-01,2.132700e-01,2.059937e-01,3,0,9.991587e-01,9.991590e-01,1
7.833320e-01,4.133550e-01,4.060268e-01,3,1,8.932517e-01,8.941772e-01,1
7.766720e-01,3.750070e-01,3.659725e-01,3,1,9.106466e-01,9.106471e-01,1
7.763970e-01,2.190840e-01,2.100468e-01,3,0,9.353766e-01,9.353773e-01,1
7.769540e-01,2.186920e-01,2.100468e-01,3,0,5.963682e-01,5.963684e-01,1
7.761620e-01,2.194250e-01,2.121925e-01,3,0,6.619421e-01,6.619430e-01,1
7.771740e-01,2.192930e-01,2.110004e-01,3,0,5.469526e-01,5.469532e-01,1
7.754880e-01,2.181170e-01,2.090931e-01,3,0,4.720932e-01,4.720936e-01,1
7.760790e-01,2.190260e-01,2.110004e-01,3,0,1.262910e+00,1.262913e+00,1
7.773010e-01,2.188110e-01,2.110004e-01,3,0,8.033939e-01,8.033948e-01,1
7.846150e-01,4.205620e-01,4.129410e-01,3,1,1.262700e+00,1.263467e+00,1
7.831630e-01,4.390850e-01,4.308224e-01,3,1,2.039534e+00,2.050020e+00,1
7.845280e-01,4.662760e-01,4.570484e-01,3,1,1.740741e+00,1.780507e+00,1
7.829680e-01,4.716090e-01,4.630089e-01,3,1,1.973091e+00,1.989840e+00,1
7.859270e-01,5.951370e-01,5.860329e-01,3,2,1.397186e+00,1.441107e+00,1
7.826400e-01,4.093420e-01,4.019737e-01,3,1,1.389499e+00,1.410118e+00,1
7.767290e-01,4.739440e-01,4.661083e-01,3,1,1.588936e+00,1.621988e+00,1
7.772520e-01,2.581880e-01,2.501011e-01,3,0,3.464564e+00,3.476235e+00,1
7.835340e-01,3.751590e-01,3.671646e-01,3,1,4.592461e+00,4.592464e+00,1
7.850360e-01,2.143130e-01,2.069473e-01,3,0,4.075414e+00,4.075414e+00,1
7.837500e-01,2.133290e-01,2.059937e-01,3,0,3.306959e+00,3.306960e+00,1
7.828860e-01,2.138250e-01,2.059937e-01,3,0,3.037190e+00,3.037191e+00,1
7.831680e-01,2.146980e-01,2.069473e-01,3,0,2.082030e+00,2.082030e+00,1
7.826710e-01,2.133130e-01,2.059937e-01,3,0,2.064062e+00,2.064063e+00,1
7.828580e-01,5.778430e-01,5.710125e-01,3,2,2.031354e+00,2.031201e+00,1
1.040043e+00,5.333590e-01,5.249977e-01,4,2,1.582963e+00,1.582963e+00,1
7.840240e-01,6.284210e-01,6.210804e-01,3,2,1.397065e+00,1.404070e+00,1
7.841810e-01,8.139440e-01,8.051395e-01,3,3,2.794303e+00,2.939548e+00,1
1.296753e+00,8.079840e-01,8.010864e-01,5,3,5.814700e+00,5.853380e+00,1
1.554934e+00,8.897540e-01,8.819103e-01,6,4,6.067264e+00,6.046262e+00,1
1.308244e+00,4.164700e-01,4.091263e-01,5,1,6.359437e+00,6.358846e+00,1
1.040768e+00,4.269290e-01,4.189014e-01,4,1,7.386813e+00,7.395420e+00,1
1.298152e+00,9.677400e-01,9.601116e-01,5,4,1.049895e+01,1.058962e+01,1
7.832890e-01,8.446770e-01,8.370876e-01,3,4,6.789607e+00,6.789584e+00,1
7.834940e-01,4.152990e-01,4.079342e-01,3,1,8.302639e+00,8.305092e+00,1
7.833630e-01,3.704240e-01,3.621578e-01,3,1,6.378506e+00,6.378505e+00,1
7.837810e-01,2.143860e-01,2.050400e-01,3,0,5.885419e+00,5.885400e+00,1
7.797370e-01,4.109340e-01,4.029274e-01,3,1,4.120540e+00,4.123720e+00,1
7.774900e-01,1.244039e+00,1.231670e+00,3,3,5.102275e+00,5.337154e+00,0
7.833640e-01,4.160660e-01,4.079342e-01,3,1,3.483355e+00,3.504124e+00,1
7.864140e-01,1.452183e+00,1.444817e+00,3,7,4.505625e+00,4.629853e+00,1
1.041243e+00,1.661500e+00,1.651764e+00,4,9,1.476639e+00,1.476892e+00,1
7.834390e-01,2.540800e-01,2.470016e-01,3,0,1.749115e+00,1.788277e+00,1
7.844580e-01,3.709740e-01,3.628731e-01,3,1,3.253409e+00,3.253414e+00,1
7.835070e-01,2.147680e-01,2.069473e-01,3,0,2.445909e+00,2.445909e+00,1
7.851110e-01,4.138180e-01,4.060268e-01,3,1,3.937491e+00,3.959709e+00,1
7.828400e-01,2.540090e-01,2.460480e-01,3,0,3.508867e+00,3.508906e+00,1
7.832500e-01,1.061886e+00,1.050949e+00,3,2,6.102961e+00,6.200395e+00,0
1.039900e+00,6.633530e-01,6.539822e-01,4,3,3.111345e+00,3.111343e+00,1
7.834540e-01,2.144620e-01,2.069473e-01,3,0,2.559139e+00,2.559139e+00,1
7.830250e-01,2.141950e-01,2.069473e-01,3,0,2.030544e+00,2.030545e+00,1
7.832790e-01,2.136780e-01,2.048016e-01,3,0,2.029548e+00,2.029549e+00,1
7.836320e-01,2.139210e-01,2.069473e-01,3,0,2.181584e+00,2.181585e+00,1
7.832850e-01,4.143580e-01,4.069805e-01,3,1,3.319721e+00,3.321892e+00,1
7.832920e-01,3.723550e-01,3.650188e-01,3,1,1.511241e+00,1.511238e+00,1
7.822440e-01,2.140440e-01,2.057552e-01,3,0,1.011055e+00,1.011055e+00,1
7.763940e-01,2.144680e-01,2.059937e-01,3,0,1.167476e+00,1.167477e+00,1
7.763610e-01,2.186220e-01,2.110004e-01,3,0,1.131952e+00,1.131953e+00,1
7.763720e-01,2.186770e-01,2.110004e-01,3,0,8.765723e-01,8.765724e-01,1
7.765370e-01,2.183530e-01,2.100468e-01,3,0,1.412698e+00,1.412701e+00,1
7.767920e-01,2.191040e-01,2.110004e-01,3,0,2.056964e+00,2.056966e+00,1
7.764900e-01,2.205340e-01,2.131462e-01,3,0,3.116109e+00,3.116112e+00,1
7.844450e-01,5.984330e-01,5.900860e-01,3,2,6.740493e+00,6.745076e+00,1
7.872120e-01,9.874640e-01,9.791851e-01,3,4,8.750713e+00,8.803520e+00,1
7.877000e-01,1.562961e+00,1.554966e+00,3,8,5.960113e+00,5.968440e+00,1
7.831410e-01,2.540690e-01,2.470016e-01,3,0,7.358279e+00,7.385679e+00,1
7.778460e-01,6.022200e-01,5.948544e-01,3,2,5.301867e+00,5.308961e+00,1
7.857650e-01,4.159120e-01,4.081726e-01,3,1,4.201623e+00,4.203380e+00,1
7.837440e-01,5.957870e-01,5.879402e-01,3,2,4.668147e+00,4.696684e+00,1
7.779890e-01,3.707870e-01,3.628731e-01,3,1,2.559425e+00,2.559422e+00,1
7.770860e-01,2.196300e-01,2.121925e-01,3,0,1.912133e+00,1.912137e+00,1
7.774710e-01,2.190930e-01,2.119541e-01,3,0,1.470410e+00,1.470411e+00,1
7.766030e-01,2.189990e-01,2.110004e-01,3,0,1.392732e+00,1.392733e+00,1
7.769250e-01,2.193120e-01,2.121925e-01,3,0,1.343528e+00,1.343529e+00,1
7.764360e-01,2.195890e-01,2.110004e-01,3,0,2.104442e+00,2.104444e+00,1
7.775400e-01,2.191630e-01,2.110004e-01,3,0,7.177930e-01,7.177924e-01,1
7.774900e-01,2.199440e-01,2.131462e-01,3,0,2.874755e+00,2.874762e+00,1
7.858610e-01,7.883310e-01,7.810593e-01,3,3,6.304743e+00,6.404735e+00,1
7.854600e-01,6.891790e-01,6.818771e-01,3,3,3.721556e+00,3.721512e+00,1
7.838220e-01,2.143080e-01,2.069473e-01,3,0,2.658603e+00,2.658603e+00,1
7.831830e-01,2.140680e-01,2.069473e-01,3,0,2.180672e+00,2.180673e+00,1
7.831900e-01,2.133370e-01,2.052784e-01,3,0,1.855125e+00,1.855126e+00,1
7.820600e-01,2.147840e-01,2.081394e-01,3,0,1.736404e+00,1.736405e+00,1
7.833980e-01,2.133860e-01,2.059937e-01,3,0,2.910387e+00,2.910391e+00,1
7.839260e-01,4.118820e-01,4.026890e-01,3,1,2.265315e+00,2.265337e+00,1
7.836340e-01,2.533530e-01,2.450943e-01,3,0,1.629329e+00,1.629336e+00,1
7.831110e-01,3.704780e-01,3.631115e-01,3,1,1.821676e+00,1.821677e+00,1
7.835280e-01,6.040310e-01,5.950928e-01,3,2,3.123181e+00,3.154689e+00,1
7.839240e-01,2.534240e-01,2.448559e-01,3,0,5.047766e+00,5.104388e+00,1
7.844480e-01,1.314464e+00,1.307011e+00,3,6,9.141304e+00,9.303219e+00,1
1.041578e+00,1.610100e+00,1.602888e+00,4,8,1.117011e+01,1.160567e+01,1
7.840240e-01,1.758175e+00,1.747847e+00,3,6,1.009095e+01,1.105260e+01,0
7.849210e-01,2.424899e+00,2.413988e+00,3,10,1.058302e+01,1.129736e+01,0
7.843680e-01,1.753108e+00,1.744986e+00,3,9,8.923972e+00,8.999852e+00,1
7.834380e-01,9.050600e-01,8.959770e-01,3,4,9.367430e+00,9.444522e+00,1
7.841890e-01,2.543160e-01,2.470016e-01,3,0,9.324215e+00,9.379099e+00,1
7.861500e-01,1.283439e+00,1.274824e+00,3,6,7.680179e+00,7.708571e+00,1
7.825880e-01,7.544210e-01,7.472038e-01,3,3,6.624371e+00,6.672389e+00,1
7.846370e-01,6.022970e-01,5.941391e-01,3,2,5.080024e+00,5.080126e+00,1
7.828740e-01,5.948770e-01,5.869865e-01,3,2,4.652110e+00,4.659974e+00,1
7.839930e-01,1.144851e+00,1.137018e+00,3,5,4.714276e+00,4.748794e+00,1
1.562322e+00,1.985301e+00,1.976967e+00,6,10,6.101089e+00,6.448312e+00,1
1.555632e+00,1.055923e+00,1.045227e+00,6,2,1.135291e+01,1.823608e+01,0
1.556227e+00,7.078990e-01,6.976128e-01,6,0,1.286436e+01,1.868269e+01,0
1.557916e+00,7.003080e-01,6.897449e-01,6,0,1.464135e+01,1.634294e+01,0
1.295572e+00,7.069350e-01,6.971359e-01,5,0,1.295802e+01,1.036279e+01,0
1.039401e+00,7.058140e-01,6.942749e-01,4,0,1.319905e+01,1.017760e+01,0
1.299678e+00,7.009760e-01,6.911755e-01,5,0,1.619020e+01,1.556068e+01,0
1.043240e+00,4.747386e+00,4.735947e+00,4,24,1.507478e+01,1.794082e+01,0
1.041154e+00,1.542918e+00,1.533270e+00,4,5,1.252192e+01,1.474802e+01,0
7.852810e-01,2.739444e+00,2.728701e+00,3,12,1.068193e+01,1.109767e+01,0
7.848240e-01,1.746448e+00,1.739025e+00,3,9,9.375000e+00,9.425519e+00,1
7.860760e-01,1.217784e+00,1.206636e+00,3,3,7.960185e+00,8.355074e+00,0
7.843700e-01,7.173500e-01,7.061958e-01,3,0,7.132835e+00,8.591097e+00,0
7.811160e-01,1.883711e+00,1.872063e+00,3,7,7.279126e+00,1.166721e+01,0
1.041540e+00,7.482980e-01,7.379055e-01,4,1,4.157511e+00,4.165330e+00,0
7.770250e-01,2.158700e-01,2.081394e-01,3,0,3.598931e+00,3.598909e+00,1
7.828720e-01,5.918560e-01,5.810261e-01,3,0,3.904977e+00,6.038164e+00,0
1.299351e+00,4.121100e-01,4.029274e-01,5,1,2.784785e+00,2.786234e+00,1
7.838250e-01,9.247310e-01,9.169579e-01,3,4,2.346019e+00,2.352452e+00,1
1.041572e+00,6.928360e-01,6.849766e-01,4,3,1.932852e+00,1.932678e+00,1
7.833500e-01,2.152990e-01,2.081394e-01,3,0,1.237885e+00,1.237847e+00,1
7.828120e-01,2.136900e-01,2.059937e-01,3,0,7.578909e-01,7.578935e-01,1
7.822140e-01,2.150470e-01,2.071857e-01,3,0,5.986300e-01,5.986311e-01,1
7.830980e-01,2.144730e-01,2.069473e-01,3,0,8.249606e-01,8.249615e-01,1
7.833230e-01,2.145130e-01,2.069473e-01,3,0,1.063487e+00,1.063489e+00,1
7.825030e-01,2.138240e-01,2.059937e-01,3,0,7.600052e-01,7.600053e-01,1
7.823290e-01,2.154230e-01,2.079010e-01,3,0,7.740733e-01,7.740748e-01,1
7.768210e-01,4.201950e-01,4.119873e-01,3,1,2.118585e+00,2.123219e+00,1
7.844540e-01,6.301430e-01,6.229877e-01,3,2,4.703750e+00,4.743935e+00,1
7.833670e-01,1.024872e+00,1.016140e+00,3,4,6.371638e+00,6.414147e+00,1
7.841250e-01,5.953160e-01,5.881786e-01,3,2,5.376119e+00,5.500410e+00,1
7.857810e-01,8.136770e-01,8.051395e-01,3,3,5.760829e+00,5.831103e+00,1
7.823850e-01,5.947680e-01,5.869865e-01,3,2,5.636319e+00,5.700103e+00,1
7.832470e-01,4.103060e-01,4.019737e-01,3,1,4.992246e+00,5.028665e+00,1
7.827460e-01,7.577470e-01,7.507801e-01,3,3,3.945144e+00,3.993454e+00,1
7.836850e-01,2.545120e-01,2.460480e-01,3,0,3.906544e+00,3.912073e+00,1
7.794860e-01,1.672154e+00,1.664162e+00,3,8,7.055665e+00,7.208118e+00,1
1.042537e+00,2.091882e+00,2.081394e+00,4,8,9.262721e+00,9.954340e+00,0
1.558902e+00,7.129050e-01,7.021427e-01,6,0,1.101488e+01,1.636484e+01,0
1.294979e+00,7.159520e-01,7.061958e-01,5,0,9.082830e+00,1.280962e+01,0
1.305142e+00,3.297298e+00,3.289938e+00,5,18,6.961363e+00,7.117433e+00,1
1.041793e+00,1.409326e+00,1.400948e+00,4,7,5.172029e+00,5.250534e+00,1
7.853060e-01,7.548850e-01,7.460117e-01,3,3,4.140247e+00,4.293844e+00,1
7.866470e-01,1.364491e+00,1.356840e+00,3,6,5.307000e+00,5.575239e+00,1
7.846690e-01,1.084321e+00,1.076937e+00,3,5,5.291941e+00,5.472298e+00,1
7.862950e-01,1.559165e+00,1.550913e+00,3,8,4.015618e+00,4.077974e+00,1
1.043186e+00,1.264346e+00,1.255989e+00,4,6,3.969793e+00,3.970956e+00,1
1.557753e+00,8.211760e-01,8.130074e-01,6,4,4.787301e+00,4.762144e+00,1
1.557673e+00,5.428330e-01,5.340576e-01,6,2,5.275127e+00,5.261678e+00,1
1.046183e+00,5.308740e-01,5.228519e-01,4,2,6.418349e+00,6.418354e+00,1
7.974590e-01,2.158460e-01,2.088547e-01,3,0,5.004629e+00,5.004628e+00,1
7.831460e-01,4.152090e-01,4.069805e-01,3,1,6.693354e+00,6.737448e+00,1
7.836180e-01,6.215580e-01,6.141663e-01,3,2,6.643806e+00,6.706269e+00,1
7.856180e-01,7.588000e-01,7.519722e-01,3,3,5.565141e+00,5.565425e+00,1
7.845130e-01,5.277640e-01,5.202293e-01,3,2,4.571018e+00,4.571018e+00,1
7.837080e-01,1.645518e+00,1.637936e+00,3,8,4.690842e+00,4.705233e+00,1
7.837240e-01,1.465221e+00,1.457930e+00,3,7,4.670039e+00,4.740641e+00,1
1.299383e+00,1.224833e+00,1.216888e+00,5,6,3.520077e+00,3.538576e+00,1
1.555594e+00,4.172120e-01,4.088879e-01,6,1,3.492198e+00,3.511306e+00,1
1.040933e+00,4.158030e-01,4.079342e-01,4,1,2.318386e+00,2.322394e+00,1
7.815260e-01,5.691280e-01,5.619526e-01,3,2,1.877163e+00,1.890549e+00,1
7.760900e-01,2.592660e-01,2.510548e-01,3,0,1.134988e+00,1.137731e+00,1
7.818310e-01,3.757060e-01,3.671646e-01,3,1,7.149030e-01,7.149034e-01,1
7.827950e-01,2.137600e-01,2.050400e-01,3,0,4.305170e-01,4.305171e-01,1
7.815950e-01,2.143790e-01,2.069473e-01,3,0,8.423595e-01,8.423612e-01,1
7.819160e-01,2.136930e-01,2.059937e-01,3,0,4.883783e-01,4.883785e-01,1
7.829880e-01,2.136500e-01,2.050400e-01,3,0,4.539481e-01,4.539488e-01,1
7.820880e-01,2.138110e-01,2.050400e-01,3,0,2.837925e-01,2.837929e-01,1
7.817860e-01,2.134090e-01,2.059937e-01,3,0,3.137920e-01,3.137924e-01,1
7.823590e-01,2.133510e-01,2.050400e-01,3,0,2.700686e-01,2.700689e-01,1
7.818510e-01,2.140780e-01,2.057552e-01,3,0,6.614335e-01,6.614346e-01,1
7.826020e-01,2.138960e-01,2.059937e-01,3,0,5.131234e-01,5.131241e-01,1
7.821960e-01,2.133810e-01,2.050400e-01,3,0,4.811902e-01,4.811919e-01,1
7.820050e-01,2.134390e-01,2.048016e-01,3,0,9.972128e-01,9.972144e-01,1
7.820450e-01,2.138590e-01,2.071857e-01,3,0,5.504026e-01,5.504024e-01,1
7.827680e-01,2.138210e-01,2.050400e-01,3,0,7.856635e-01,7.856643e-01,1
7.819300e-01,2.141520e-01,2.069473e-01,3,0,8.021382e-01,8.021387e-01,1
7.826450e-01,2.136990e-01,2.059937e-01,3,0,1.366197e+00,1.366199e+00,1
7.830380e-01,2.142560e-01,2.059937e-01,3,0,1.043040e+00,1.043040e+00,1
7.825640e-01,2.138330e-01,2.048016e-01,3,0,6.769789e-01,6.769789e-01,1
7.820950e-01,2.133440e-01,2.050400e-01,3,0,4.991544e-01,4.991550e-01,1
7.826070e-01,2.136760e-01,2.069473e-01,3,0,6.798405e-01,6.798413e-01,1
7.817320e-01,2.132770e-01,2.059937e-01,3,0,6.270691e-01,6.270693e-01,1
7.828750e-01,2.132910e-01,2.059937e-01,3,0,5.073503e-01,5.073505e-01,1
7.820980e-01,2.145080e-01,2.069473e-01,3,0,8.943777e-01,8.943789e-01,1
7.817900e-01,2.140320e-01,2.048016e-01,3,0,6.805199e-01,6.805204e-01,1
7.813180e-01,4.149300e-01,4.057884e-01,3,1,1.012277e+00,1.012335e+00,1
7.827850e-01,4.764090e-01,4.680157e-01,3,1,1.796149e+00,1.874364e+00,1
8.140640e-01,2.532630e-01,2.448559e-01,3,0,1.574355e+00,1.594197e+00,1
7.864870e-01,3.872140e-01,3.800392e-01,3,1,1.390542e+00,1.390543e+00,1
7.862290e-01,2.090930e-01,2.009869e-01,3,0,3.171552e+00,3.171556e+00,1
7.863800e-01,2.091650e-01,2.019405e-01,3,0,3.876013e+00,3.876010e+00,1
7.862270e-01,2.090360e-01,2.009869e-01,3,0,2.218522e+00,2.218520e+00,1
7.855410e-01,2.087910e-01,2.019405e-01,3,0,1.662187e+00,1.662186e+00,1
7.862360e-01,2.089860e-01,2.009869e-01,3,0,1.263089e+00,1.263089e+00,1
7.861360e-01,2.087430e-01,2.009869e-01,3,0,8.519731e-01,8.519732e-01,1
7.855150e-01,2.078990e-01,2.000332e-01,3,0,7.455627e-01,7.455631e-01,1
7.824540e-01,2.144950e-01,2.057552e-01,3,0,1.072886e+00,1.072887e+00,1
7.853410e-01,2.089840e-01,2.019405e-01,3,0,1.035071e+00,1.035072e+00,1
7.859530e-01,2.079760e-01,2.009869e-01,3,0,5.051728e-01,5.051738e-01,1
7.852640e-01,2.080780e-01,2.009869e-01,3,0,1.366075e+00,1.366078e+00,1
7.853260e-01,2.084890e-01,2.000332e-01,3,0,7.684837e-01,7.684836e-01,1
7.595760e-01,2.080710e-01,1.990795e-01,3,0,6.926982e-01,6.926988e-01,1
7.598380e-01,2.077720e-01,1.990795e-01,3,0,9.510765e-01,9.510777e-01,1
7.592880e-01,2.083370e-01,2.009869e-01,3,0,7.843147e-01,7.843150e-01,1
7.601120e-01,2.075310e-01,1.990795e-01,3,0,9.241724e-01,9.241731e-01,1
7.586810e-01,2.072670e-01,2.000332e-01,3,0,1.174144e+00,1.174145e+00,1
7.600270e-01,2.076680e-01,2.000332e-01,3,0,9.244205e-01,9.244212e-01,1
7.595520e-01,2.072560e-01,1.997948e-01,3,0,9.614435e-01,9.614449e-01,1
7.595660e-01,2.079320e-01,1.990795e-01,3,0,1.197063e+00,1.197060e+00,1
7.590580e-01,2.081480e-01,2.000332e-01,3,0,1.465391e+00,1.465387e+00,1
7.590990e-01,2.084120e-01,2.009869e-01,3,0,2.193731e+00,2.193734e+00,1
7.587320e-01,2.074730e-01,2.009869e-01,3,0,1.517709e+00,1.517709e+00,1
7.599060e-01,2.077460e-01,2.000332e-01,3,0,1.427008e+00,1.427010e+00,1
7.603680e-01,2.079440e-01,2.000332e-01,3,0,1.394852e+00,1.394853e+00,1
7.598640e-01,2.076260e-01,1.990795e-01,3,0,1.524729e+00,1.524730e+00,1
7.604400e-01,2.085840e-01,2.009869e-01,3,0,1.267355e+00,1.267355e+00,1
7.596480e-01,7.437290e-01,7.369518e-01,3,3,2.152223e+00,2.170430e+00,1
1.009690e+00,9.416150e-01,9.341240e-01,4,4,1.631715e+00,1.656249e+00,1
7.594080e-01,2.454320e-01,2.379417e-01,3,0,1.541825e+00,1.565690e+00,1
7.596960e-01,7.856920e-01,7.779598e-01,3,3,1.512230e+00,1.546144e+00,1
7.558260e-01,4.601220e-01,4.520416e-01,3,1,1.368450e+00,1.542714e+00,1
7.884830e-01,6.364060e-01,6.289482e-01,3,2,9.764712e-01,1.031068e+00,1
7.612880e-01,4.543690e-01,4.467964e-01,3,1,1.184139e+00,1.217280e+00,1
7.553620e-01,5.732700e-01,5.660057e-01,3,2,1.333735e+00,1.333736e+00,1
7.544270e-01,2.397320e-01,2.319813e-01,3,0,9.206006e-01,9.206008e-01,1
7.806810e-01,2.399740e-01,2.319813e-01,3,0,1.716627e+00,1.716629e+00,1
7.545580e-01,2.142810e-01,2.059937e-01,3,0,1.214090e+00,1.214090e+00,1
7.553320e-01,2.127150e-01,2.050400e-01,3,0,1.096866e+00,1.096867e+00,1
7.545760e-01,2.376580e-01,2.300739e-01,3,0,9.923311e-01,9.923314e-01,1
7.546610e-01,2.377360e-01,2.300739e-01,3,0,7.774961e-01,7.774974e-01,1
7.541540e-01,2.128100e-01,2.009869e-01,3,0,5.710486e-01,5.710491e-01,1
7.547960e-01,2.124130e-01,2.050400e-01,3,0,1.121347e+00,1.121349e+00,1
7.968080e-01,2.382220e-01,2.310276e-01,3,0,9.649002e-01,9.649008e-01,1
7.611650e-01,2.213130e-01,2.140999e-01,3,0,9.757279e-01,9.757291e-01,1
7.732760e-01,2.076460e-01,2.000332e-01,3,0,9.184279e-01,9.184282e-01,1
8.117240e-01,2.203730e-01,2.129078e-01,3,0,7.198569e-01,7.198575e-01,1
7.964760e-01,2.078610e-01,2.009869e-01,3,0,8.669969e-01,8.669975e-01,1
7.860650e-01,2.093330e-01,2.012253e-01,3,0,6.692728e-01,6.692730e-01,1
7.770690e-01,2.085680e-01,2.009869e-01,3,0,2.812092e+00,2.812025e+00,1
7.807020e-01,5.971930e-01,5.891323e-01,3,2,6.252122e+00,6.250521e+00,1
1.037498e+00,8.766000e-01,8.687973e-01,4,4,4.778860e+00,4.778860e+00,1
7.867870e-01,2.086530e-01,2.009869e-01,3,0,3.421406e+00,3.421405e+00,1
7.860900e-01,2.082170e-01,2.000332e-01,3,0,2.483568e+00,2.483568e+00,1
7.866600e-01,2.092890e-01,2.009869e-01,3,0,2.719384e+00,2.719386e+00,1
7.858140e-01,2.087500e-01,2.009869e-01,3,0,2.138911e+00,2.138911e+00,1
7.866740e-01,2.087760e-01,2.009869e-01,3,0,2.075938e+00,2.075939e+00,1
7.864940e-01,2.088470e-01,2.009869e-01,3,0,2.464893e+00,2.464896e+00,1
7.855610e-01,2.090740e-01,2.019405e-01,3,0,2.778302e+00,2.778304e+00,1
7.859140e-01,2.081430e-01,1.997948e-01,3,0,2.534843e+00,2.534843e+00,1
7.551770e-01,4.078720e-01,3.998280e-01,3,1,2.713012e+00,2.713670e+00,1
7.869600e-01,3.921860e-01,3.840923e-01,3,1,3.638477e+00,3.638480e+00,1
7.872630e-01,2.087850e-01,2.012253e-01,3,0,2.717860e+00,2.717857e+00,1
7.616560e-01,2.085940e-01,2.009869e-01,3,0,1.865109e+00,1.865108e+00,1
7.862550e-01,2.082030e-01,2.021790e-01,3,0,1.118547e+00,1.118547e+00,1
7.867030e-01,2.082240e-01,2.000332e-01,3,0,7.524168e-01,7.524169e-01,1
7.863720e-01,2.085910e-01,2.009869e-01,3,0,5.861015e-01,5.861019e-01,1
7.606310e-01,2.087080e-01,2.009869e-01,3,0,8.102396e-01,8.102407e-01,1
7.864150e-01,2.079410e-01,2.009869e-01,3,0,5.755474e-01,5.755475e-01,1
7.866190e-01,2.080750e-01,2.009869e-01,3,0,9.391565e-01,9.391577e-01,1
7.609170e-01,2.081910e-01,2.000332e-01,3,0,9.928145e-01,9.928150e-01,1
7.601750e-01,4.017750e-01,3.941059e-01,3,1,9.225296e-01,9.228622e-01,1
7.894380e-01,4.538560e-01,4.460812e-01,3,1,1.185544e+00,1.189099e+00,1
7.670220e-01,3.781090e-01,3.700256e-01,3,1,6.645029e-01,6.645028e-01,1
7.545610e-01,2.145210e-01,2.059937e-01,3,0,5.330671e-01,5.330675e-01,1
7.552350e-01,2.252020e-01,2.167225e-01,3,0,2.707671e+00,2.707678e+00,1
7.550320e-01,2.383230e-01,2.291203e-01,3,0,2.841113e+00,2.841114e+00,1
7.544550e-01,2.397570e-01,2.319813e-01,3,0,1.376632e+00,1.376631e+00,1
7.547650e-01,2.391980e-01,2.319813e-01,3,0,1.368063e+00,1.368064e+00,1
7.542510e-01,2.136700e-01,2.069473e-01,3,0,1.202553e+00,1.202554e+00,1
7.855620e-01,4.318010e-01,4.241467e-01,3,1,1.297007e+00,1.297244e+00,1
7.604140e-01,3.604730e-01,3.528595e-01,3,1,6.570838e-01,6.570836e-01,1
7.859800e-01,2.073000e-01,2.000332e-01,3,0,5.401839e-01,5.401844e-01,1
8.108170e-01,2.082540e-01,2.000332e-01,3,0,1.034198e+00,1.034199e+00,1
7.828360e-01,2.089740e-01,2.019405e-01,3,0,1.306494e+00,1.306495e+00,1
7.844310e-01,2.148120e-01,2.069473e-01,3,0,1.625038e+00,1.625039e+00,1
7.609630e-01,2.082330e-01,2.009869e-01,3,0,1.053127e+00,1.053127e+00,1
7.846780e-01,2.070290e-01,1.990795e-01,3,0,1.004465e+00,1.004466e+00,1
7.858450e-01,2.087200e-01,2.000332e-01,3,0,1.505983e+00,1.505986e+00,1
7.609780e-01,2.087380e-01,2.012253e-01,3,0,2.257561e+00,2.257563e+00,1
7.864600e-01,2.077010e-01,2.000332e-01,3,0,2.515954e+00,2.515955e+00,1
7.869330e-01,4.038150e-01,3.969669e-01,3,1,3.514011e+00,3.521366e+00,1
7.859260e-01,2.471210e-01,2.398491e-01,3,0,3.331659e+00,3.343823e+00,1
7.621910e-01,6.787790e-01,6.711483e-01,3,3,5.239641e+00,5.238739e+00,1
1.034269e+00,4.614080e-01,4.539490e-01,4,2,2.319730e+00,2.319728e+00,1
7.854450e-01,2.086650e-01,2.009869e-01,3,0,1.922216e+00,1.922217e+00,1
7.558200e-01,4.056690e-01,3.979206e-01,3,1,2.797239e+00,2.797275e+00,1
7.866570e-01,3.653230e-01,3.578663e-01,3,1,1.389003e+00,1.389001e+00,1
8.055740e-01,2.353280e-01,2.269745e-01,3,0,1.155720e+00,1.155720e+00,1
8.089680e-01,2.280450e-01,2.186298e-01,3,0,9.296065e-01,9.296068e-01,1
7.623340e-01,2.213500e-01,2.140999e-01,3,0,6.205235e-01,6.205233e-01,1
7.872010e-01,2.082560e-01,2.009869e-01,3,0,1.320994e+00,1.320996e+00,1
7.859520e-01,2.087640e-01,2.009869e-01,3,0,9.903784e-01,9.903785e-01,1
7.618770e-01,2.085950e-01,2.009869e-01,3,0,5.586414e-01,5.586414e-01,1
7.856400e-01,2.113370e-01,2.038479e-01,3,0,1.249720e+00,1.249722e+00,1
7.871520e-01,2.093210e-01,2.019405e-01,3,0,8.726678e-01,8.726678e-01,1
7.866970e-01,2.083690e-01,1.997948e-01,3,0,4.713378e-01,4.713381e-01,1
7.618570e-01,2.086540e-01,2.009869e-01,3,0,5.132423e-01,5.132427e-01,1
7.873310e-01,2.078560e-01,2.009869e-01,3,0,6.622897e-01,6.622906e-01,1
7.883280e-01,4.012630e-01,3.938675e-01,3,1,1.001999e+00,1.002496e+00,1
7.549480e-01,4.459050e-01,4.372597e-01,3,1,2.086643e+00,2.087102e+00,1
7.937260e-01,4.246940e-01,4.169941e-01,3,1,1.512769e+00,1.528143e+00,1
7.913600e-01,6.066040e-01,5.989075e-01,3,2,2.737894e+00,2.831896e+00,1
7.547400e-01,5.821380e-01,5.738735e-01,3,2,1.205496e+00,1.205635e+00,1
7.861020e-01,3.923640e-01,3.838539e-01,3,1,9.613929e-01,9.613935e-01,1
7.869500e-01,2.088090e-01,2.000332e-01,3,0,6.414082e-01,6.414081e-01,1
7.863880e-01,2.089750e-01,2.019405e-01,3,0,5.920689e-01,5.920696e-01,1
7.855810e-01,2.084410e-01,2.000332e-01,3,0,1.661641e+00,1.661645e+00,1
7.863230e-01,2.088930e-01,2.009869e-01,3,0,1.672177e+00,1.672178e+00,1
7.862180e-01,2.083940e-01,2.012253e-01,3,0,2.572674e+00,2.572648e+00,1
7.865590e-01,2.087220e-01,2.009869e-01,3,0,2.653660e+00,2.653656e+00,1
7.861660e-01,2.349860e-01,2.160072e-01,3,0,3.049365e+00,3.049366e+00,1
7.861710e-01,4.028140e-01,3.957748e-01,3,1,4.979113e+00,4.985933e+00,1
7.859160e-01,2.472640e-01,2.391338e-01,3,0,5.577266e+00,5.580801e+00,1
7.572120e-01,5.858500e-01,5.788803e-01,3,2,4.167758e+00,4.177750e+00,1
7.880750e-01,4.592940e-01,4.510880e-01,3,1,3.740126e+00,3.751028e+00,1
7.881860e-01,5.765540e-01,5.688667e-01,3,2,5.220948e+00,5.232045e+00,1
7.878900e-01,7.388970e-01,7.309914e-01,3,3,3.549991e+00,3.552225e+00,1
7.867190e-01,3.616860e-01,3.540516e-01,3,1,2.943434e+00,2.943435e+00,1
7.869900e-01,2.084140e-01,2.009869e-01,3,0,2.946009e+00,2.946013e+00,1
7.871460e-01,2.090960e-01,2.009869e-01,3,0,3.158371e+00,3.158373e+00,1
7.612870e-01,4.029790e-01,3.960133e-01,3,1,3.444558e+00,3.458881e+00,1
7.857770e-01,3.595320e-01,3.519058e-01,3,1,2.542775e+00,2.542776e+00,1
7.857220e-01,2.082410e-01,2.009869e-01,3,0,2.465111e+00,2.465112e+00,1
7.972850e-01,2.211840e-01,2.140999e-01,3,0,3.193802e+00,3.193804e+00,1
7.548950e-01,4.047520e-01,3.969669e-01,3,1,3.530768e+00,3.530821e+00,1
8.136310e-01,3.912440e-01,3.840923e-01,3,1,2.250885e+00,2.250861e+00,1
7.977990e-01,2.091260e-01,2.019405e-01,3,0,2.172056e+00,2.171848e+00,1
7.608520e-01,2.092570e-01,2.009869e-01,3,0,1.285225e+00,1.285204e+00,1
7.855520e-01,2.082730e-01,2.000332e-01,3,0,1.246174e+00,1.246134e+00,1

