5.499090e-01,2.447200e+02,2.444558e+02,2,1000,0.000000e+00,-1.843144e-18,0
7.904400e-01,8.530592e+00,8.518934e+00,3,43,1.477751e-01,1.477754e-01,1
7.612570e-01,2.096340e-01,2.021790e-01,3,0,2.697547e-01,2.697553e-01,1
7.864070e-01,2.089760e-01,2.019405e-01,3,0,5.751734e-01,5.751744e-01,1
7.862980e-01,2.080810e-01,1.997948e-01,3,0,5.282505e-01,5.282509e-01,1
7.865150e-01,2.084570e-01,2.009869e-01,3,0,2.459757e+00,2.459761e+00,1
7.611680e-01,2.088380e-01,2.019405e-01,3,0,3.443760e+00,3.443762e+00,1
7.856310e-01,2.093830e-01,2.019405e-01,3,0,4.529692e+00,4.529694e+00,1
7.615630e-01,2.085220e-01,2.000332e-01,3,0,2.216738e+00,2.216737e+00,1
7.854340e-01,2.074820e-01,2.000332e-01,3,0,1.963306e+00,1.963307e+00,1
7.866250e-01,2.083230e-01,2.009869e-01,3,0,1.634474e+00,1.634475e+00,1
7.851720e-01,2.082350e-01,2.000332e-01,3,0,1.888457e+00,1.888459e+00,1
7.608870e-01,2.086920e-01,2.009869e-01,3,0,3.113620e+00,3.113623e+00,1
7.856150e-01,2.076680e-01,2.000332e-01,3,0,4.240895e+00,4.240898e+00,1
7.821990e-01,3.962360e-01,3.890991e-01,3,1,3.884715e+00,3.887958e+00,1
7.618680e-01,4.511560e-01,4.439354e-01,3,1,5.420458e+00,5.428553e+00,1
7.867340e-01,3.988650e-01,3.900528e-01,3,1,4.235205e+00,4.235399e+00,1
7.630560e-01,3.610020e-01,3.530979e-01,3,1,3.702471e+00,3.702472e+00,1
7.810840e-01,5.822970e-01,5.750656e-01,3,2,3.546971e+00,3.557237e+00,1
7.563020e-01,2.514300e-01,2.439022e-01,3,0,3.362838e+00,3.374992e+00,1
7.873610e-01,6.110900e-01,6.029606e-01,3,2,3.502663e+00,3.524048e+00,1
7.880800e-01,3.979710e-01,3.890991e-01,3,1,2.920580e+00,2.921994e+00,1
7.613330e-01,2.463870e-01,2.388954e-01,3,0,2.647642e+00,2.654071e+00,1
7.843920e-01,6.093770e-01,6.020069e-01,3,2,2.317108e+00,2.433269e+00,1
7.873660e-01,4.878010e-01,4.789829e-01,3,1,2.280358e+00,2.322225e+00,1
7.626100e-01,2.713200e-01,2.629757e-01,3,0,2.200572e+00,2.200711e+00,1
7.864890e-01,3.590490e-01,3.507137e-01,3,1,1.829212e+00,1.829152e+00,1
7.864050e-01,2.089990e-01,2.009869e-01,3,0,1.319248e+00,1.318786e+00,1
7.859440e-01,2.081740e-01,2.009869e-01,3,0,6.534984e-01,6.535009e-01,1
7.613500e-01,2.074020e-01,2.000332e-01,3,0,5.567998e-01,5.568000e-01,1
7.859990e-01,2.086200e-01,2.009869e-01,3,0,1.120268e+00,1.120270e+00,1
8.116380e-01,2.081350e-01,2.012253e-01,3,0,1.325162e+00,1.325163e+00,1
7.852320e-01,2.082770e-01,2.009869e-01,3,0,1.150528e+00,1.150528e+00,1
7.605650e-01,2.085200e-01,2.000332e-01,3,0,1.774555e+00,1.774557e+00,1
7.852330e-01,2.080910e-01,2.000332e-01,3,0,1.456476e+00,1.456476e+00,1
7.867050e-01,2.075750e-01,1.990795e-01,3,0,1.080970e+00,1.080970e+00,1
7.859150e-01,2.081820e-01,2.009869e-01,3,0,7.962757e-01,7.962763e-01,1
7.602450e-01,2.084720e-01,2.009869e-01,3,0,6.548356e-01,6.548361e-01,1
7.679980e-01,4.190300e-01,4.100800e-01,3,1,1.660106e+00,1.660411e+00,1
7.729230e-01,3.911400e-01,3.840923e-01,3,1,1.837470e+00,1.837471e+00,1
7.859690e-01,7.581910e-01,7.510185e-01,3,3,4.150749e+00,4.239557e+00,1
7.868630e-01,7.515200e-01,7.431507e-01,3,3,5.688163e+00,5.694845e+00,1
7.869860e-01,5.369260e-01,5.290508e-01,3,2,3.619173e+00,3.619169e+00,1
7.598190e-01,4.034060e-01,3.950596e-01,3,1,5.472907e+00,5.473067e+00,1
7.568570e-01,3.907250e-01,3.819466e-01,3,1,4.375941e+00,4.375941e+00,1
7.550000e-01,2.135930e-01,2.059937e-01,3,0,3.528658e+00,3.528658e+00,1
7.561960e-01,2.377210e-01,2.300739e-01,3,0,3.170248e+00,3.170249e+00,1
7.549710e-01,2.141040e-01,2.069473e-01,3,0,2.643302e+00,2.643303e+00,1
7.560740e-01,2.389090e-01,2.307892e-01,3,0,2.127032e+00,2.127032e+00,1
7.554860e-01,2.391350e-01,2.319813e-01,3,0,1.353564e+00,1.353564e+00,1
7.545920e-01,2.385140e-01,2.310276e-01,3,0,1.201780e+00,1.201781e+00,1
7.888470e-01,3.977800e-01,3.900528e-01,3,1,1.935873e+00,1.938873e+00,1
7.611480e-01,3.607640e-01,3.540516e-01,3,1,1.424564e+00,1.424564e+00,1
7.871730e-01,4.013870e-01,3.941059e-01,3,1,1.217132e+00,1.217591e+00,1
7.863390e-01,9.488580e-01,9.410381e-01,3,4,1.612301e+00,1.637165e+00,1
7.608990e-01,3.979970e-01,3.888607e-01,3,1,2.205653e+00,2.234093e+00,1
1.037798e+00,3.590010e-01,3.521442e-01,4,1,1.214929e+00,1.214929e+00,1
7.549310e-01,2.142080e-01,2.059937e-01,3,0,1.850409e+00,1.850411e+00,1
7.551630e-01,2.393440e-01,2.322197e-01,3,0,2.592462e+00,2.592461e+00,1
7.865210e-01,3.994540e-01,3.919601e-01,3,1,3.880669e+00,3.882258e+00,1
7.867520e-01,3.603210e-01,3.528595e-01,3,1,1.751065e+00,1.751069e+00,1
8.126650e-01,4.022050e-01,3.950596e-01,3,1,3.743403e+00,3.798252e+00,1
7.630980e-01,1.975796e+00,1.965046e+00,3,7,7.061598e+00,7.328098e+00,0
7.885810e-01,1.299280e+00,1.291037e+00,3,7,3.868531e+00,3.868520e+00,1
7.620290e-01,1.060512e+00,1.050234e+00,3,2,5.336208e+00,5.750018e+00,0
1.061912e+00,8.725830e-01,8.640289e-01,4,4,2.285561e+00,2.285560e+00,1
7.861920e-01,2.082320e-01,2.009869e-01,3,0,2.476828e+00,2.476827e+00,1
7.604210e-01,2.089680e-01,2.009869e-01,3,0,1.966015e+00,1.966016e+00,1
7.852910e-01,2.074000e-01,1.997948e-01,3,0,1.518141e+00,1.518141e+00,1
7.611570e-01,2.084910e-01,2.009869e-01,3,0,1.185555e+00,1.185556e+00,1
7.861560e-01,2.081940e-01,2.009869e-01,3,0,1.750564e+00,1.750565e+00,1
7.609480e-01,2.087030e-01,2.009869e-01,3,0,1.779765e+00,1.779766e+00,1
7.871530e-01,2.326730e-01,2.250671e-01,3,0,1.799250e+00,1.799251e+00,1
7.958040e-01,4.000140e-01,3.931522e-01,3,1,2.027236e+00,2.028424e+00,1
7.555200e-01,6.299610e-01,6.229877e-01,3,2,2.953748e+00,2.982704e+00,1
7.871250e-01,4.227560e-01,4.148483e-01,3,1,3.972893e+00,4.030506e+00,1
7.551970e-01,9.131730e-01,9.050369e-01,3,4,2.419968e+00,2.463277e+00,1
7.626710e-01,6.358170e-01,6.270409e-01,3,2,2.421935e+00,2.437840e+00,1
7.858280e-01,2.459410e-01,2.369881e-01,3,0,1.788399e+00,1.804446e+00,1
7.862150e-01,3.596900e-01,3.521442e-01,3,1,8.657456e-01,8.657455e-01,1
7.855730e-01,2.085460e-01,2.000332e-01,3,0,2.874666e+00,2.874671e+00,1
7.602610e-01,2.087200e-01,2.000332e-01,3,0,2.140292e+00,2.140292e+00,1
7.874160e-01,2.069350e-01,1.988411e-01,3,0,1.924900e+00,1.924901e+00,1
7.758780e-01,4.203470e-01,4.119873e-01,3,1,1.857077e+00,1.884809e+00,1
7.595710e-01,3.907630e-01,3.819466e-01,3,1,2.627106e+00,2.627111e+00,1
7.861400e-01,4.081080e-01,4.000664e-01,3,1,4.756818e+00,4.760565e+00,1
7.859120e-01,6.048970e-01,5.960464e-01,3,2,7.169829e+00,7.245884e+00,1
7.868660e-01,2.249131e+00,2.239227e+00,3,9,1.051339e+01,1.376895e+01,0
7.874490e-01,1.739387e+00,1.731873e+00,3,9,8.572963e+00,8.894003e+00,1
7.893420e-01,1.064461e+00,1.052856e+00,3,5,6.102340e+00,6.115956e+00,1
7.879060e-01,5.120890e-01,5.030632e-01,3,2,4.694680e+00,4.694680e+00,1
7.606890e-01,2.092940e-01,2.019405e-01,3,0,3.311402e+00,3.311402e+00,1
7.555290e-01,6.079420e-01,6.000996e-01,3,2,4.676176e+00,4.680937e+00,1
7.887900e-01,6.104410e-01,6.017685e-01,3,2,3.504615e+00,3.516836e+00,1
7.557690e-01,7.694350e-01,7.619858e-01,3,3,4.557084e+00,4.644140e+00,1
1.041348e+00,2.077167e+00,2.068043e+00,4,11,5.036996e+00,5.142376e+00,1
1.037475e+00,1.693187e+00,1.685143e+00,4,9,2.185318e+00,2.256323e+00,1
7.563390e-01,3.928840e-01,3.850460e-01,3,1,1.915967e+00,1.915968e+00,1
7.553950e-01,2.385590e-01,2.310276e-01,3,0,2.722432e+00,2.722435e+00,1
7.869330e-01,4.300770e-01,4.220009e-01,3,1,2.949001e+00,2.954722e+00,1
7.856500e-01,3.614400e-01,3.530979e-01,3,1,2.228318e+00,2.228318e+00,1
7.862030e-01,2.336650e-01,2.260208e-01,3,0,2.545234e+00,2.545236e+00,1
7.868700e-01,2.081750e-01,2.000332e-01,3,0,1.502043e+00,1.502044e+00,1
7.870810e-01,2.088660e-01,2.009869e-01,3,0,1.371448e+00,1.371448e+00,1
7.865850e-01,2.087540e-01,2.009869e-01,3,0,1.136427e+00,1.136427e+00,1
7.863810e-01,2.090360e-01,2.021790e-01,3,0,1.174077e+00,1.174078e+00,1
7.858120e-01,4.025090e-01,3.950596e-01,3,1,1.642144e+00,1.642347e+00,1
8.125290e-01,5.863950e-01,5.791187e-01,3,2,1.794969e+00,1.799210e+00,1
7.625010e-01,4.555950e-01,4.479885e-01,3,1,1.165205e+00,1.168311e+00,1
7.612560e-01,8.168850e-01,8.089542e-01,3,3,1.172119e+00,1.225554e+00,1
7.861820e-01,2.602180e-01,2.517700e-01,3,0,1.083212e+00,1.105672e+00,1
7.613470e-01,2.457140e-01,2.391338e-01,3,0,8.886640e-01,8.886668e-01,1
7.894010e-01,3.599940e-01,3.530979e-01,3,1,6.353263e-01,6.353264e-01,1
7.865290e-01,2.085520e-01,2.009869e-01,3,0,1.101719e+00,1.101720e+00,1
7.863660e-01,2.087310e-01,2.009869e-01,3,0,5.897289e-01,5.897290e-01,1
7.606520e-01,2.085520e-01,2.009869e-01,3,0,6.727555e-01,6.727560e-01,1
7.857110e-01,2.084220e-01,2.000332e-01,3,0,1.712291e+00,1.712294e+00,1
7.866170e-01,2.092130e-01,2.009869e-01,3,0,1.244475e+00,1.244475e+00,1
7.859940e-01,4.011070e-01,3.919601e-01,3,1,3.965856e+00,3.971743e+00,1
7.571690e-01,5.597170e-01,5.519390e-01,3,2,2.759459e+00,2.801875e+00,1
7.608120e-01,2.773810e-01,2.698898e-01,3,0,2.685961e+00,2.877987e+00,1
7.872210e-01,4.688760e-01,4.611015e-01,3,1,3.361085e+00,3.472358e+00,1
7.607200e-01,3.598880e-01,3.519058e-01,3,1,3.043491e+00,3.043491e+00,1
7.870800e-01,2.083030e-01,2.009869e-01,3,0,3.359707e+00,3.359709e+00,1
7.873690e-01,1.063530e+00,1.051188e+00,3,2,5.926757e+00,6.852260e+00,0
7.738430e-01,8.901010e-01,8.819103e-01,3,4,3.879667e+00,3.879931e+00,1
7.857720e-01,4.118430e-01,4.029274e-01,3,1,2.958350e+00,2.958369e+00,1
7.864080e-01,5.521690e-01,5.428791e-01,3,2,2.584689e+00,2.590235e+00,1
1.021913e+00,3.598650e-01,3.509521e-01,4,1,1.524175e+00,1.524177e+00,1
7.751290e-01,2.219070e-01,2.140999e-01,3,0,1.693966e+00,1.693958e+00,1
7.857770e-01,2.080570e-01,1.990795e-01,3,0,1.059656e+00,1.059657e+00,1
7.609350e-01,2.082850e-01,2.000332e-01,3,0,1.377541e+00,1.377543e+00,1
7.858170e-01,2.065720e-01,2.000332e-01,3,0,6.229854e-01,6.229856e-01,1
7.854440e-01,2.079460e-01,2.000332e-01,3,0,5.073364e-01,5.073367e-01,1
7.859870e-01,2.078830e-01,2.012253e-01,3,0,5.285171e-01,5.285175e-01,1
7.628790e-01,4.031270e-01,3.948212e-01,3,1,1.134791e+00,1.144313e+00,1
7.866790e-01,5.692280e-01,5.600452e-01,3,2,1.174135e+00,1.174136e+00,1
7.854930e-01,2.078420e-01,2.009869e-01,3,0,9.917023e-01,9.917025e-01,1
7.849480e-01,2.088700e-01,2.021790e-01,3,0,1.082230e+00,1.082231e+00,1
7.802160e-01,2.082800e-01,2.009869e-01,3,0,9.188136e-01,9.188141e-01,1
7.684550e-01,2.134460e-01,2.059937e-01,3,0,1.703315e+00,1.703317e+00,1
7.730300e-01,4.328620e-01,4.251003e-01,3,1,2.887266e+00,2.888965e+00,1
7.616730e-01,5.999030e-01,5.929470e-01,3,2,3.270435e+00,3.317183e+00,1
1.062189e+00,6.249410e-01,6.167889e-01,4,2,2.575823e+00,2.650428e+00,1
7.870390e-01,4.268420e-01,4.200935e-01,3,1,2.284671e+00,2.377443e+00,1
7.556770e-01,6.121790e-01,6.048679e-01,3,2,2.114043e+00,2.262669e+00,1
7.743580e-01,4.293650e-01,4.220009e-01,3,1,1.525459e+00,1.651589e+00,1
7.852760e-01,2.595530e-01,2.510548e-01,3,0,1.312818e+00,1.323701e+00,1
7.632080e-01,3.612810e-01,3.521442e-01,3,1,2.265458e+00,2.265462e+00,1
8.363830e-01,2.080500e-01,1.990795e-01,3,0,3.244754e+00,3.244757e+00,1
7.971160e-01,2.084180e-01,2.009869e-01,3,0,1.985182e+00,1.985181e+00,1
7.867470e-01,2.093300e-01,2.019405e-01,3,0,1.886946e+00,1.886947e+00,1
7.612890e-01,2.082980e-01,2.009869e-01,3,0,1.696303e+00,1.696304e+00,1
7.869320e-01,2.077410e-01,1.997948e-01,3,0,1.557803e+00,1.557803e+00,1
7.871950e-01,2.085500e-01,2.009869e-01,3,0,1.282779e+00,1.282780e+00,1
7.858180e-01,4.040230e-01,3.972054e-01,3,1,1.440062e+00,1.440373e+00,1
7.549230e-01,3.603250e-01,3.530979e-01,3,1,2.354947e+00,2.354950e+00,1
7.683240e-01,2.081740e-01,2.000332e-01,3,0,2.261473e+00,2.261473e+00,1
7.680010e-01,2.270000e-01,2.200603e-01,3,0,2.397506e+00,2.397507e+00,1
7.675220e-01,2.361020e-01,2.279282e-01,3,0,2.726403e+00,2.726406e+00,1
7.554190e-01,2.384320e-01,2.291203e-01,3,0,1.245363e+00,1.245363e+00,1
7.551070e-01,2.392570e-01,2.319813e-01,3,0,9.887013e-01,9.887019e-01,1
7.556180e-01,2.386550e-01,2.310276e-01,3,0,1.044758e+00,1.044759e+00,1
7.546080e-01,2.382870e-01,2.298355e-01,3,0,4.640929e-01,4.640938e-01,1
7.546770e-01,2.387990e-01,2.310276e-01,3,0,4.688404e-01,4.688407e-01,1
7.550880e-01,2.383550e-01,2.310276e-01,3,0,8.076118e-01,8.076128e-01,1
7.543410e-01,2.379830e-01,2.310276e-01,3,0,6.890079e-01,6.890080e-01,1
7.732220e-01,2.393290e-01,2.269745e-01,3,0,1.878360e+00,1.878364e+00,1
7.842750e-01,2.154290e-01,2.079010e-01,3,0,1.407735e+00,1.407737e+00,1
7.829710e-01,2.138140e-01,2.069473e-01,3,0,9.991587e-01,9.991590e-01,1
7.824680e-01,4.133900e-01,4.050732e-01,3,1,8.932517e-01,8.941772e-01,1
7.834510e-01,3.709990e-01,3.616810e-01,3,1,9.106466e-01,9.106471e-01,1
7.829690e-01,2.139600e-01,2.059937e-01,3,0,9.353766e-01,9.353773e-01,1
7.831950e-01,2.132930e-01,2.059937e-01,3,0,5.963682e-01,5.963684e-01,1
7.823480e-01,2.136630e-01,2.059937e-01,3,0,6.619421e-01,6.619430e-01,1
7.822770e-01,2.133490e-01,2.059937e-01,3,0,5.469526e-01,5.469532e-01,1
7.838600e-01,2.133090e-01,2.050400e-01,3,0,4.720932e-01,4.720936e-01,1
7.825030e-01,2.140250e-01,2.059937e-01,3,0,1.262910e+00,1.262913e+00,1
7.823690e-01,2.136170e-01,2.050400e-01,3,0,8.033939e-01,8.033948e-01,1
7.775210e-01,4.213940e-01,4.131794e-01,3,1,1.262700e+00,1.263467e+00,1
7.826300e-01,4.446910e-01,4.370213e-01,3,1,2.039534e+00,2.050020e+00,1
7.853830e-01,4.666840e-01,4.589558e-01,3,1,1.740741e+00,1.780507e+00,1
7.853400e-01,4.662410e-01,4.589558e-01,3,1,1.973091e+00,1.989840e+00,1
7.827550e-01,6.014560e-01,5.929470e-01,3,2,1.397186e+00,1.441107e+00,1
7.836490e-01,4.096590e-01,4.029274e-01,3,1,1.389499e+00,1.410118e+00,1
7.849300e-01,4.695350e-01,4.608631e-01,3,1,1.588936e+00,1.621988e+00,1
7.855070e-01,2.524770e-01,2.441406e-01,3,0,3.464564e+00,3.476235e+00,1
7.792910e-01,3.757100e-01,3.666878e-01,3,1,4.592461e+00,4.592464e+00,1
7.776680e-01,2.204270e-01,2.110004e-01,3,0,4.075414e+00,4.075414e+00,1
7.774640e-01,2.191310e-01,2.119541e-01,3,0,3.306959e+00,3.306960e+00,1
7.771060e-01,2.193000e-01,2.110004e-01,3,0,3.037190e+00,3.037191e+00,1
7.765050e-01,2.195210e-01,2.121925e-01,3,0,2.082030e+00,2.082030e+00,1
7.775730e-01,2.188910e-01,2.110004e-01,3,0,2.064062e+00,2.064063e+00,1
7.853010e-01,5.850670e-01,5.769730e-01,3,2,2.031354e+00,2.031201e+00,1
1.038826e+00,5.270160e-01,5.190372e-01,4,2,1.582963e+00,1.582963e+00,1
7.840670e-01,6.334860e-01,6.251335e-01,3,2,1.397065e+00,1.404070e+00,1
7.840410e-01,8.152100e-01,8.070469e-01,3,3,2.794303e+00,2.939548e+00,1
1.303019e+00,7.987640e-01,7.908344e-01,5,3,5.814700e+00,5.853380e+00,1
1.554441e+00,8.894410e-01,8.809566e-01,6,4,6.067264e+00,6.046262e+00,1
1.296224e+00,4.163550e-01,4.079342e-01,5,1,6.359437e+00,6.358846e+00,1
1.040679e+00,4.169240e-01,4.076958e-01,4,1,7.386813e+00,7.395420e+00,1
1.303444e+00,9.593490e-01,9.520054e-01,5,4,1.049895e+01,1.058962e+01,1
7.786320e-01,8.378180e-01,8.289814e-01,3,4,6.789607e+00,6.789584e+00,1
7.840230e-01,4.209600e-01,4.141331e-01,3,1,8.302639e+00,8.305092e+00,1
7.840000e-01,3.698060e-01,3.612041e-01,3,1,6.378506e+00,6.378505e+00,1
7.842520e-01,2.139710e-01,2.069473e-01,3,0,5.885419e+00,5.885400e+00,1
7.840020e-01,4.113670e-01,4.029274e-01,3,1,4.120540e+00,4.123720e+00,1
7.844460e-01,1.240833e+00,1.228809e+00,3,3,5.102275e+00,5.337154e+00,0
7.834810e-01,4.109170e-01,4.038811e-01,3,1,3.483355e+00,3.504124e+00,1
7.840420e-01,1.459295e+00,1.452208e+00,3,7,4.505625e+00,4.629853e+00,1
1.039587e+00,1.656556e+00,1.647949e+00,4,9,1.476639e+00,1.476892e+00,1
7.777680e-01,2.591350e-01,2.520084e-01,3,0,1.749115e+00,1.788277e+00,1
7.776020e-01,3.771940e-01,3.690720e-01,3,1,3.253409e+00,3.253414e+00,1
7.825130e-01,2.206060e-01,2.057552e-01,3,0,2.445909e+00,2.445909e+00,1
7.833880e-01,4.147830e-01,4.060268e-01,3,1,3.937491e+00,3.959709e+00,1
7.828460e-01,2.540920e-01,2.460480e-01,3,0,3.508867e+00,3.508906e+00,1
7.848030e-01,1.063713e+00,1.051903e+00,3,2,6.102961e+00,6.200395e+00,0
1.040165e+00,6.573470e-01,6.492138e-01,4,3,3.111345e+00,3.111343e+00,1
7.771100e-01,2.189320e-01,2.119541e-01,3,0,2.559139e+00,2.559139e+00,1
7.774680e-01,2.200430e-01,2.119541e-01,3,0,2.030544e+00,2.030545e+00,1
7.776110e-01,2.195440e-01,2.119541e-01,3,0,2.029548e+00,2.029549e+00,1
7.822880e-01,2.196810e-01,2.119541e-01,3,0,2.181584e+00,2.181585e+00,1
7.826040e-01,4.149010e-01,4.069805e-01,3,1,3.319721e+00,3.321892e+00,1
7.835350e-01,3.722140e-01,3.638268e-01,3,1,1.511241e+00,1.511238e+00,1
7.835070e-01,2.144310e-01,2.069473e-01,3,0,1.011055e+00,1.011055e+00,1
7.834260e-01,2.143340e-01,2.069473e-01,3,0,1.167476e+00,1.167477e+00,1
7.835990e-01,2.145690e-01,2.059937e-01,3,0,1.131952e+00,1.131953e+00,1
7.832380e-01,2.138250e-01,2.069473e-01,3,0,8.765723e-01,8.765724e-01,1
7.826700e-01,2.134700e-01,2.059937e-01,3,0,1.412698e+00,1.412701e+00,1
7.826760e-01,2.139510e-01,2.059937e-01,3,0,2.056964e+00,2.056966e+00,1
7.827640e-01,2.145570e-01,2.069473e-01,3,0,3.116109e+00,3.116112e+00,1
7.788390e-01,6.064020e-01,5.991459e-01,3,2,6.740493e+00,6.745076e+00,1
7.790470e-01,9.837180e-01,9.760857e-01,3,4,8.750713e+00,8.803520e+00,1
7.849850e-01,1.570273e+00,1.563072e+00,3,8,5.960113e+00,5.968440e+00,1
7.825550e-01,2.540210e-01,2.460480e-01,3,0,7.358279e+00,7.385679e+00,1
7.852570e-01,5.960400e-01,5.879402e-01,3,2,5.301867e+00,5.308961e+00,1
7.785080e-01,4.171060e-01,4.081726e-01,3,1,4.201623e+00,4.203380e+00,1
7.835240e-01,6.017520e-01,5.939007e-01,3,2,4.668147e+00,4.696684e+00,1
7.827510e-01,3.705800e-01,3.631115e-01,3,1,2.559425e+00,2.559422e+00,1
7.824350e-01,2.137360e-01,2.059937e-01,3,0,1.912133e+00,1.912137e+00,1
7.831680e-01,2.142420e-01,2.069473e-01,3,0,1.470410e+00,1.470411e+00,1
7.825220e-01,2.138770e-01,2.059937e-01,3,0,1.392732e+00,1.392733e+00,1
7.832430e-01,2.142800e-01,2.062321e-01,3,0,1.343528e+00,1.343529e+00,1
7.829060e-01,2.142490e-01,2.059937e-01,3,0,2.104442e+00,2.104444e+00,1
7.831150e-01,2.138880e-01,2.069473e-01,3,0,7.177930e-01,7.177924e-01,1
7.823410e-01,2.142690e-01,2.059937e-01,3,0,2.874755e+00,2.874762e+00,1
7.849710e-01,7.906420e-01,7.829666e-01,3,3,6.304743e+00,6.404735e+00,1
7.823570e-01,6.828070e-01,6.740093e-01,3,3,3.721556e+00,3.721512e+00,1
7.820210e-01,2.141320e-01,2.059937e-01,3,0,2.658603e+00,2.658603e+00,1
7.770810e-01,2.140960e-01,2.062321e-01,3,0,2.180672e+00,2.180673e+00,1
7.774190e-01,2.135430e-01,2.059937e-01,3,0,1.855125e+00,1.855126e+00,1
7.768030e-01,2.206180e-01,2.140999e-01,3,0,1.736404e+00,1.736405e+00,1
7.766670e-01,2.191300e-01,2.100468e-01,3,0,2.910387e+00,2.910391e+00,1
7.858910e-01,4.169680e-01,4.091263e-01,3,1,2.265315e+00,2.265337e+00,1
7.830230e-01,2.531130e-01,2.460480e-01,3,0,1.629329e+00,1.629336e+00,1
7.837740e-01,3.704530e-01,3.628731e-01,3,1,1.821676e+00,1.821677e+00,1
7.835750e-01,5.976250e-01,5.888939e-01,3,2,3.123181e+00,3.154689e+00,1
7.775180e-01,2.536360e-01,2.450943e-01,3,0,5.047766e+00,5.104388e+00,1
7.798920e-01,1.321498e+00,1.312971e+00,3,6,9.141304e+00,9.303219e+00,1
1.042220e+00,1.613622e+00,1.605988e+00,4,8,1.117011e+01,1.160567e+01,1
7.863740e-01,1.759823e+00,1.749039e+00,3,6,1.009095e+01,1.105260e+01,0
7.848040e-01,2.429101e+00,2.417088e+00,3,10,1.058302e+01,1.129736e+01,0
7.803690e-01,1.755012e+00,1.745939e+00,3,9,8.923972e+00,8.999852e+00,1
7.867460e-01,8.998760e-01,8.919239e-01,3,4,9.367430e+00,9.444522e+00,1
7.835830e-01,2.541020e-01,2.450943e-01,3,0,9.324215e+00,9.379099e+00,1
7.789550e-01,1.290777e+00,1.281977e+00,3,6,7.680179e+00,7.708571e+00,1
7.837350e-01,7.608510e-01,7.529259e-01,3,3,6.624371e+00,6.672389e+00,1
7.785330e-01,6.034990e-01,5.960464e-01,3,2,5.080024e+00,5.080126e+00,1
7.836340e-01,6.005390e-01,5.931854e-01,3,2,4.652110e+00,4.659974e+00,1
7.838420e-01,1.147283e+00,1.139879e+00,3,5,4.714276e+00,4.748794e+00,1
1.556717e+00,1.974080e+00,1.966000e+00,6,10,6.101089e+00,6.448312e+00,1
1.560157e+00,1.056375e+00,1.044273e+00,6,2,1.135291e+01,1.823608e+01,0
1.554523e+00,7.088230e-01,6.971359e-01,6,0,1.286436e+01,1.868269e+01,0
1.560551e+00,7.057010e-01,6.952286e-01,6,0,1.464135e+01,1.634294e+01,0
1.301260e+00,7.011150e-01,6.911755e-01,5,0,1.295802e+01,1.036279e+01,0
1.039408e+00,7.006380e-01,6.899834e-01,4,0,1.319905e+01,1.017760e+01,0
1.296499e+00,7.075670e-01,6.952286e-01,5,0,1.619020e+01,1.556068e+01,0
1.042836e+00,4.758110e+00,4.748106e+00,4,24,1.507478e+01,1.794082e+01,0
1.041848e+00,1.544748e+00,1.531839e+00,4,5,1.252192e+01,1.474802e+01,0
7.796780e-01,2.741503e+00,2.729893e+00,3,12,1.068193e+01,1.109767e+01,0
7.859430e-01,1.750645e+00,1.743078e+00,3,9,9.375000e+00,9.425519e+00,1
7.854690e-01,1.218311e+00,1.208067e+00,3,3,7.960185e+00,8.355074e+00,0
7.792180e-01,7.183190e-01,7.078648e-01,3,0,7.132835e+00,8.591097e+00,0
7.844510e-01,1.884073e+00,1.873016e+00,3,7,7.279126e+00,1.166721e+01,0
1.041860e+00,7.494260e-01,7.400513e-01,4,1,4.157511e+00,4.165330e+00,0
7.834850e-01,2.149140e-01,2.079010e-01,3,0,3.598931e+00,3.598909e+00,1
7.781220e-01,5.916180e-01,5.810261e-01,3,0,3.904977e+00,6.038164e+00,0
1.308237e+00,4.177990e-01,4.098415e-01,5,1,2.784785e+00,2.786234e+00,1
7.844810e-01,9.284650e-01,9.198189e-01,3,4,2.346019e+00,2.352452e+00,1
1.040193e+00,6.921010e-01,6.840229e-01,4,3,1.932852e+00,1.932678e+00,1
7.830410e-01,2.148320e-01,2.069473e-01,3,0,1.237885e+00,1.237847e+00,1
7.825250e-01,2.139710e-01,2.059937e-01,3,0,7.578909e-01,7.578935e-01,1
7.821220e-01,2.140020e-01,2.069473e-01,3,0,5.986300e-01,5.986311e-01,1
7.832610e-01,2.145960e-01,2.059937e-01,3,0,8.249606e-01,8.249615e-01,1
7.827240e-01,2.146360e-01,2.062321e-01,3,0,1.063487e+00,1.063489e+00,1
7.825700e-01,2.136200e-01,2.050400e-01,3,0,7.600052e-01,7.600053e-01,1
7.837890e-01,2.145010e-01,2.069473e-01,3,0,7.740733e-01,7.740748e-01,1
7.829350e-01,4.152170e-01,4.069805e-01,3,1,2.118585e+00,2.123219e+00,1
7.768880e-01,6.305860e-01,6.229877e-01,3,2,4.703750e+00,4.743935e+00,1
7.780760e-01,1.030351e+00,1.023054e+00,3,4,6.371638e+00,6.414147e+00,1
7.837520e-01,6.015900e-01,5.941391e-01,3,2,5.376119e+00,5.500410e+00,1
7.779280e-01,8.121640e-01,8.039474e-01,3,3,5.760829e+00,5.831103e+00,1
7.839300e-01,6.004260e-01,5.919933e-01,3,2,5.636319e+00,5.700103e+00,1
7.843410e-01,4.104440e-01,4.029274e-01,3,1,4.992246e+00,5.028665e+00,1
7.835560e-01,7.565930e-01,7.500648e-01,3,3,3.945144e+00,3.993454e+00,1
7.829870e-01,2.541920e-01,2.470016e-01,3,0,3.906544e+00,3.912073e+00,1
7.843060e-01,1.668784e+00,1.661062e+00,3,8,7.055665e+00,7.208118e+00,1
1.041492e+00,2.092545e+00,2.080917e+00,4,8,9.262721e+00,9.954340e+00,0
1.559573e+00,7.178270e-01,7.081032e-01,6,0,1.101488e+01,1.636484e+01,0
1.303193e+00,7.109180e-01,6.999969e-01,5,0,9.082830e+00,1.280962e+01,0
1.302354e+00,3.300514e+00,3.293037e+00,5,18,6.961363e+00,7.117433e+00,1
1.040477e+00,1.415465e+00,1.406908e+00,4,7,5.172029e+00,5.250534e+00,1
7.778380e-01,7.499940e-01,7.410049e-01,3,3,4.140247e+00,4.293844e+00,1
7.780960e-01,1.371403e+00,1.363993e+00,3,6,5.307000e+00,5.575239e+00,1
7.785300e-01,1.087253e+00,1.079082e+00,3,5,5.291941e+00,5.472298e+00,1
7.842820e-01,1.564850e+00,1.555920e+00,3,8,4.015618e+00,4.077974e+00,1
1.045441e+00,1.266291e+00,1.256704e+00,4,6,3.969793e+00,3.970956e+00,1
1.555364e+00,8.214230e-01,8.130074e-01,6,4,4.787301e+00,4.762144e+00,1
1.559398e+00,5.462340e-01,5.340576e-01,6,2,5.275127e+00,5.261678e+00,1
1.040714e+00,5.308960e-01,5.240440e-01,4,2,6.418349e+00,6.418354e+00,1
7.829310e-01,2.146070e-01,2.079010e-01,3,0,5.004629e+00,5.004628e+00,1
7.774860e-01,4.192300e-01,4.119873e-01,3,1,6.693354e+00,6.737448e+00,1
7.839630e-01,6.272930e-01,6.198883e-01,3,2,6.643806e+00,6.706269e+00,1
7.785150e-01,7.570290e-01,7.500648e-01,3,3,5.565141e+00,5.565425e+00,1
7.842870e-01,5.327750e-01,5.249977e-01,3,2,4.571018e+00,4.571018e+00,1
7.860760e-01,1.643646e+00,1.635790e+00,3,8,4.690842e+00,4.705233e+00,1
7.844300e-01,1.472178e+00,1.464128e+00,3,7,4.670039e+00,4.740641e+00,1
1.298853e+00,1.226670e+00,1.219034e+00,5,6,3.520077e+00,3.538576e+00,1
1.555913e+00,4.181550e-01,4.088879e-01,6,1,3.492198e+00,3.511306e+00,1
1.041422e+00,4.173830e-01,4.088879e-01,4,1,2.318386e+00,2.322394e+00,1
7.855360e-01,5.692740e-01,5.609989e-01,3,2,1.877163e+00,1.890549e+00,1
7.818160e-01,2.536260e-01,2.460480e-01,3,0,1.134988e+00,1.137731e+00,1
7.830770e-01,3.699000e-01,3.607273e-01,3,1,7.149030e-01,7.149034e-01,1
7.821200e-01,2.135020e-01,2.059937e-01,3,0,4.305170e-01,4.305171e-01,1
7.772920e-01,2.148260e-01,2.069473e-01,3,0,8.423595e-01,8.423612e-01,1
7.767490e-01,2.186150e-01,2.098083e-01,3,0,4.883783e-01,4.883785e-01,1
7.771740e-01,2.199300e-01,2.129078e-01,3,0,4.539481e-01,4.539488e-01,1
7.770050e-01,2.191730e-01,2.110004e-01,3,0,2.837925e-01,2.837929e-01,1
7.768670e-01,2.196320e-01,2.119541e-01,3,0,3.137920e-01,3.137924e-01,1
7.770490e-01,2.192090e-01,2.119541e-01,3,0,2.700686e-01,2.700689e-01,1
7.769600e-01,2.189020e-01,2.110004e-01,3,0,6.614335e-01,6.614346e-01,1
7.770260e-01,2.196800e-01,2.121925e-01,3,0,5.131234e-01,5.131241e-01,1
7.772320e-01,2.188170e-01,2.110004e-01,3,0,4.811902e-01,4.811919e-01,1
7.775350e-01,2.188190e-01,2.110004e-01,3,0,9.972128e-01,9.972144e-01,1
7.825450e-01,2.188160e-01,2.069473e-01,3,0,5.504026e-01,5.504024e-01,1
7.823440e-01,2.139030e-01,2.062321e-01,3,0,7.856635e-01,7.856643e-01,1
7.829530e-01,2.139480e-01,2.050400e-01,3,0,8.021382e-01,8.021387e-01,1
7.829890e-01,2.141290e-01,2.057552e-01,3,0,1.366197e+00,1.366199e+00,1
7.843370e-01,2.138840e-01,2.048016e-01,3,0,1.043040e+00,1.043040e+00,1
7.831320e-01,2.134510e-01,2.048016e-01,3,0,6.769789e-01,6.769789e-01,1
7.834340e-01,2.139710e-01,2.048016e-01,3,0,4.991544e-01,4.991550e-01,1
7.825700e-01,2.136140e-01,2.059937e-01,3,0,6.798405e-01,6.798413e-01,1
7.830670e-01,2.129070e-01,2.052784e-01,3,0,6.270691e-01,6.270693e-01,1
7.928950e-01,2.141680e-01,2.050400e-01,3,0,5.073503e-01,5.073505e-01,1
7.850840e-01,2.157370e-01,2.081394e-01,3,0,8.943777e-01,8.943789e-01,1
7.836560e-01,2.141950e-01,2.059937e-01,3,0,6.805199e-01,6.805204e-01,1
7.825480e-01,4.148400e-01,4.069805e-01,3,1,1.012277e+00,1.012335e+00,1
7.771480e-01,4.705990e-01,4.630089e-01,3,1,1.796149e+00,1.874364e+00,1
7.771530e-01,2.589480e-01,2.510548e-01,3,0,1.574355e+00,1.594197e+00,1
7.831750e-01,3.759070e-01,3.678799e-01,3,1,1.390542e+00,1.390543e+00,1
7.827200e-01,2.143190e-01,2.057552e-01,3,0,3.171552e+00,3.171556e+00,1
7.838600e-01,2.146230e-01,2.057552e-01,3,0,3.876013e+00,3.876010e+00,1
7.834490e-01,2.142510e-01,2.050400e-01,3,0,2.218522e+00,2.218520e+00,1
7.830840e-01,2.139550e-01,2.059937e-01,3,0,1.662187e+00,1.662186e+00,1
7.823840e-01,2.141900e-01,2.059937e-01,3,0,1.263089e+00,1.263089e+00,1
7.832860e-01,2.137780e-01,2.059937e-01,3,0,8.519731e-01,8.519732e-01,1
7.826870e-01,2.142840e-01,2.050400e-01,3,0,7.455627e-01,7.455631e-01,1
7.835550e-01,2.139210e-01,2.069473e-01,3,0,1.072886e+00,1.072887e+00,1
7.831090e-01,2.145440e-01,2.069473e-01,3,0,1.035071e+00,1.035072e+00,1
7.830850e-01,2.132430e-01,2.062321e-01,3,0,5.051728e-01,5.051738e-01,1
7.824430e-01,2.138360e-01,2.059937e-01,3,0,1.366075e+00,1.366078e+00,1
7.834060e-01,2.140650e-01,2.069473e-01,3,0,7.684837e-01,7.684836e-01,1
7.828880e-01,2.136380e-01,2.050400e-01,3,0,6.926982e-01,6.926988e-01,1
7.822960e-01,2.134170e-01,2.050400e-01,3,0,9.510765e-01,9.510777e-01,1
7.824480e-01,2.143220e-01,2.059937e-01,3,0,7.843147e-01,7.843150e-01,1
7.824860e-01,2.137220e-01,2.059937e-01,3,0,9.241724e-01,9.241731e-01,1
7.844010e-01,2.136700e-01,2.059937e-01,3,0,1.174144e+00,1.174145e+00,1
7.829380e-01,2.140500e-01,2.069473e-01,3,0,9.244205e-01,9.244212e-01,1
7.827980e-01,2.138970e-01,2.050400e-01,3,0,9.614435e-01,9.614449e-01,1
7.824080e-01,2.141110e-01,2.062321e-01,3,0,1.197063e+00,1.197060e+00,1
7.830730e-01,2.144900e-01,2.069473e-01,3,0,1.465391e+00,1.465387e+00,1
7.824720e-01,2.144280e-01,2.069473e-01,3,0,2.193731e+00,2.193734e+00,1
7.822960e-01,2.138890e-01,2.057552e-01,3,0,1.517709e+00,1.517709e+00,1
7.818150e-01,2.138540e-01,2.050400e-01,3,0,1.427008e+00,1.427010e+00,1
7.830330e-01,2.143810e-01,2.062321e-01,3,0,1.394852e+00,1.394853e+00,1
7.828680e-01,2.135480e-01,2.059937e-01,3,0,1.524729e+00,1.524730e+00,1
7.837070e-01,2.143620e-01,2.069473e-01,3,0,1.267355e+00,1.267355e+00,1
7.832810e-01,7.658750e-01,7.567406e-01,3,3,2.152223e+00,2.170430e+00,1
1.040168e+00,9.759670e-01,9.689331e-01,4,4,1.631715e+00,1.656249e+00,1
7.834550e-01,2.528610e-01,2.460480e-01,3,0,1.541825e+00,1.565690e+00,1
7.774820e-01,8.160420e-01,8.091927e-01,3,3,1.512230e+00,1.546144e+00,1
7.825800e-01,4.731390e-01,4.649162e-01,3,1,1.368450e+00,1.542714e+00,1
7.841560e-01,6.233740e-01,6.160736e-01,3,2,9.764712e-01,1.031068e+00,1
7.778790e-01,4.726670e-01,4.651546e-01,3,1,1.184139e+00,1.217280e+00,1
7.837170e-01,5.910400e-01,5.829334e-01,3,2,1.333735e+00,1.333736e+00,1
7.832880e-01,2.141340e-01,2.050400e-01,3,0,9.206006e-01,9.206008e-01,1
7.832130e-01,2.139020e-01,2.059937e-01,3,0,1.716627e+00,1.716629e+00,1
7.839620e-01,2.137410e-01,2.048016e-01,3,0,1.214090e+00,1.214090e+00,1
7.839280e-01,2.136500e-01,2.069473e-01,3,0,1.096866e+00,1.096867e+00,1
7.832200e-01,2.138470e-01,2.059937e-01,3,0,9.923311e-01,9.923314e-01,1
7.824190e-01,2.140400e-01,2.069473e-01,3,0,7.774961e-01,7.774974e-01,1
7.821810e-01,2.140590e-01,2.059937e-01,3,0,5.710486e-01,5.710491e-01,1
7.828940e-01,2.140790e-01,2.062321e-01,3,0,1.121347e+00,1.121349e+00,1
7.826690e-01,2.134090e-01,2.059937e-01,3,0,9.649002e-01,9.649008e-01,1
7.830240e-01,2.135090e-01,2.059937e-01,3,0,9.757279e-01,9.757291e-01,1
7.830350e-01,2.140560e-01,2.059937e-01,3,0,9.184279e-01,9.184282e-01,1
7.827740e-01,2.137110e-01,2.059937e-01,3,0,7.198569e-01,7.198575e-01,1
7.822540e-01,2.137060e-01,2.059937e-01,3,0,8.669969e-01,8.669975e-01,1
7.824370e-01,2.138370e-01,2.059937e-01,3,0,6.692728e-01,6.692730e-01,1
7.820410e-01,2.133110e-01,2.052784e-01,3,0,2.812092e+00,2.812025e+00,1
7.844080e-01,6.023320e-01,5.950928e-01,3,2,6.252122e+00,6.250521e+00,1
1.041171e+00,8.741620e-01,8.659363e-01,4,4,4.778860e+00,4.778860e+00,1
7.837060e-01,2.142650e-01,2.059937e-01,3,0,3.421406e+00,3.421405e+00,1
7.831250e-01,2.133300e-01,2.059937e-01,3,0,2.483568e+00,2.483568e+00,1
7.840680e-01,2.147670e-01,2.069473e-01,3,0,2.719384e+00,2.719386e+00,1
7.838810e-01,2.142790e-01,2.069473e-01,3,0,2.138911e+00,2.138911e+00,1
7.826120e-01,2.142860e-01,2.057552e-01,3,0,2.075938e+00,2.075939e+00,1
7.822760e-01,2.142320e-01,2.057552e-01,3,0,2.464893e+00,2.464896e+00,1
7.828800e-01,2.146860e-01,2.069473e-01,3,0,2.778302e+00,2.778304e+00,1
7.838980e-01,2.137420e-01,2.050400e-01,3,0,2.534843e+00,2.534843e+00,1
7.834990e-01,4.130660e-01,4.038811e-01,3,1,2.713012e+00,2.713670e+00,1
7.827480e-01,3.708900e-01,3.638268e-01,3,1,3.638477e+00,3.638480e+00,1
7.824290e-01,2.146620e-01,2.062321e-01,3,0,2.717860e+00,2.717857e+00,1
7.827000e-01,2.146330e-01,2.069473e-01,3,0,1.865109e+00,1.865108e+00,1
7.820430e-01,2.139800e-01,2.059937e-01,3,0,1.118547e+00,1.118547e+00,1
7.767980e-01,2.137910e-01,2.069473e-01,3,0,7.524168e-01,7.524169e-01,1
7.761730e-01,2.189400e-01,2.110004e-01,3,0,5.861015e-01,5.861019e-01,1
7.769330e-01,2.199930e-01,2.110004e-01,3,0,8.102396e-01,8.102407e-01,1
7.762070e-01,2.191640e-01,2.110004e-01,3,0,5.755474e-01,5.755475e-01,1
7.767000e-01,2.196680e-01,2.107620e-01,3,0,9.391565e-01,9.391577e-01,1
7.764440e-01,2.200990e-01,2.119541e-01,3,0,9.928145e-01,9.928150e-01,1
7.851980e-01,4.176630e-01,4.098415e-01,3,1,9.225296e-01,9.228622e-01,1
7.837870e-01,4.676090e-01,4.599094e-01,3,1,1.185544e+00,1.189099e+00,1
7.841590e-01,3.696020e-01,3.619194e-01,3,1,6.645029e-01,6.645028e-01,1
7.826490e-01,2.142210e-01,2.071857e-01,3,0,5.330671e-01,5.330675e-01,1
7.833610e-01,2.136740e-01,2.059937e-01,3,0,2.707671e+00,2.707678e+00,1
7.826410e-01,2.141820e-01,2.059937e-01,3,0,2.841113e+00,2.841114e+00,1
7.829440e-01,2.140620e-01,2.069473e-01,3,0,1.376632e+00,1.376631e+00,1
7.830190e-01,2.139090e-01,2.059937e-01,3,0,1.368063e+00,1.368064e+00,1
7.832350e-01,2.146070e-01,2.071857e-01,3,0,1.202553e+00,1.202554e+00,1
7.785810e-01,4.190240e-01,4.119873e-01,3,1,1.297007e+00,1.297244e+00,1
7.826080e-01,3.758220e-01,3.678799e-01,3,1,6.570838e-01,6.570836e-01,1
7.827850e-01,2.134470e-01,2.059937e-01,3,0,5.401839e-01,5.401844e-01,1
7.829630e-01,2.134590e-01,2.050400e-01,3,0,1.034198e+00,1.034199e+00,1
7.931560e-01,2.145360e-01,2.059937e-01,3,0,1.306494e+00,1.306495e+00,1
7.838610e-01,2.150160e-01,2.071857e-01,3,0,1.625038e+00,1.625039e+00,1
7.830700e-01,2.138400e-01,2.069473e-01,3,0,1.053127e+00,1.053127e+00,1
7.832860e-01,2.133470e-01,2.059937e-01,3,0,1.004465e+00,1.004466e+00,1
7.841100e-01,2.140380e-01,2.071857e-01,3,0,1.505983e+00,1.505986e+00,1
7.836470e-01,2.143970e-01,2.071857e-01,3,0,2.257561e+00,2.257563e+00,1
7.824820e-01,2.144160e-01,2.062321e-01,3,0,2.515954e+00,2.515955e+00,1
7.834290e-01,4.155060e-01,4.072189e-01,3,1,3.514011e+00,3.521366e+00,1
7.828890e-01,2.532750e-01,2.458096e-01,3,0,3.331659e+00,3.343823e+00,1
7.845540e-01,6.983870e-01,6.909370e-01,3,3,5.239641e+00,5.238739e+00,1
1.041174e+00,4.752470e-01,4.680157e-01,4,2,2.319730e+00,2.319728e+00,1
7.826060e-01,2.145380e-01,2.059937e-01,3,0,1.922216e+00,1.922217e+00,1
7.790340e-01,4.163520e-01,4.088879e-01,3,1,2.797239e+00,2.797275e+00,1
7.843260e-01,3.759260e-01,3.678799e-01,3,1,1.389003e+00,1.389001e+00,1
7.832080e-01,2.144430e-01,2.059937e-01,3,0,1.155720e+00,1.155720e+00,1
7.822380e-01,2.136760e-01,2.050400e-01,3,0,9.296065e-01,9.296068e-01,1
7.824770e-01,2.128550e-01,2.050400e-01,3,0,6.205235e-01,6.205233e-01,1
7.825320e-01,2.142680e-01,2.069473e-01,3,0,1.320994e+00,1.320996e+00,1
7.827220e-01,2.140010e-01,2.069473e-01,3,0,9.903784e-01,9.903785e-01,1
7.828700e-01,2.136890e-01,2.059937e-01,3,0,5.586414e-01,5.586414e-01,1
7.831900e-01,2.145260e-01,2.081394e-01,3,0,1.249720e+00,1.249722e+00,1
7.856230e-01,2.143170e-01,2.069473e-01,3,0,8.726678e-01,8.726678e-01,1
7.838230e-01,2.134460e-01,2.059937e-01,3,0,4.713378e-01,4.713381e-01,1
7.825950e-01,2.137130e-01,2.059937e-01,3,0,5.132423e-01,5.132427e-01,1
7.832480e-01,2.141450e-01,2.062321e-01,3,0,6.622897e-01,6.622906e-01,1
7.823910e-01,4.127240e-01,4.050732e-01,3,1,1.001999e+00,1.002496e+00,1
7.788520e-01,4.451290e-01,4.370213e-01,3,1,2.086643e+00,2.087102e+00,1
7.834100e-01,4.142320e-01,4.060268e-01,3,1,1.512769e+00,1.528143e+00,1
7.835180e-01,6.237770e-01,6.151199e-01,3,2,2.737894e+00,2.831896e+00,1
7.792250e-01,5.727520e-01,5.638599e-01,3,2,1.205496e+00,1.205635e+00,1
7.847910e-01,3.764300e-01,3.681183e-01,3,1,9.613929e-01,9.613935e-01,1
7.834290e-01,2.140140e-01,2.050400e-01,3,0,6.414082e-01,6.414081e-01,1
7.827070e-01,2.140140e-01,2.071857e-01,3,0,5.920689e-01,5.920696e-01,1
7.827320e-01,2.140610e-01,2.059937e-01,3,0,1.661641e+00,1.661645e+00,1
7.826770e-01,2.146380e-01,2.057552e-01,3,0,1.672177e+00,1.672178e+00,1
7.833270e-01,2.141630e-01,2.059937e-01,3,0,2.572674e+00,2.572648e+00,1
7.824460e-01,2.141080e-01,2.069473e-01,3,0,2.653660e+00,2.653656e+00,1
7.819040e-01,2.142920e-01,2.069473e-01,3,0,3.049365e+00,3.049366e+00,1
7.837880e-01,4.147650e-01,4.079342e-01,3,1,4.979113e+00,4.985933e+00,1
7.827880e-01,2.543480e-01,2.460480e-01,3,0,5.577266e+00,5.580801e+00,1
7.776750e-01,5.745710e-01,5.671978e-01,3,2,4.167758e+00,4.177750e+00,1
7.832200e-01,4.448820e-01,4.370213e-01,3,1,3.740126e+00,3.751028e+00,1
7.838840e-01,5.930980e-01,5.848408e-01,3,2,5.220948e+00,5.232045e+00,1
7.844410e-01,7.330980e-01,7.259846e-01,3,3,3.549991e+00,3.552225e+00,1
7.857060e-01,3.717860e-01,3.640652e-01,3,1,2.943434e+00,2.943435e+00,1
7.845990e-01,2.147610e-01,2.069473e-01,3,0,2.946009e+00,2.946013e+00,1
7.868400e-01,2.148670e-01,2.069473e-01,3,0,3.158371e+00,3.158373e+00,1
7.837710e-01,4.223120e-01,4.141331e-01,3,1,3.444558e+00,3.458881e+00,1
7.779340e-01,3.776230e-01,3.697872e-01,3,1,2.542775e+00,2.542776e+00,1
7.776260e-01,2.199140e-01,2.129078e-01,3,0,2.465111e+00,2.465112e+00,1
7.778390e-01,2.209840e-01,2.129078e-01,3,0,3.193802e+00,3.193804e+00,1
7.849940e-01,4.208450e-01,4.119873e-01,3,1,3.530768e+00,3.530821e+00,1
7.846730e-01,3.714200e-01,3.631115e-01,3,1,2.250885e+00,2.250861e+00,1
7.838330e-01,2.152470e-01,2.071857e-01,3,0,2.172056e+00,2.171848e+00,1
7.848310e-01,2.140150e-01,2.059937e-01,3,0,1.285225e+00,1.285204e+00,1
7.831470e-01,2.157970e-01,2.069473e-01,3,0,1.246174e+00,1.246134e+00,1

