1.121280e+00,9.642336e+02,9.636381e+02,2,1000,0.000000e+00,-2.992398e-17,0
1.592532e+00,6.304027e+01,6.300902e+01,3,84,1.480019e-01,1.480022e-01,1
1.598369e+00,7.887840e-01,7.729530e-01,3,0,2.734686e-01,2.734692e-01,1
1.591146e+00,7.834850e-01,7.686615e-01,3,0,5.775033e-01,5.775043e-01,1
1.592618e+00,7.866510e-01,7.729530e-01,3,0,5.324023e-01,5.324027e-01,1
1.586391e+00,7.758790e-01,7.619858e-01,3,0,2.500737e+00,2.500741e+00,1
1.589358e+00,7.827540e-01,7.677078e-01,3,0,3.488243e+00,3.488246e+00,1
1.586028e+00,7.756210e-01,7.619858e-01,3,0,4.578263e+00,4.578265e+00,1
1.598473e+00,7.831260e-01,7.681847e-01,3,0,2.251456e+00,2.251455e+00,1
1.593755e+00,7.754940e-01,7.607937e-01,3,0,1.996105e+00,1.996106e+00,1
1.597559e+00,7.826880e-01,7.691383e-01,3,0,1.651919e+00,1.651920e+00,1
1.596646e+00,7.760010e-01,7.629395e-01,3,0,1.911565e+00,1.911567e+00,1
1.586098e+00,7.854410e-01,7.700920e-01,3,0,3.170072e+00,3.170075e+00,1
1.590574e+00,7.805370e-01,7.669926e-01,3,0,4.325964e+00,4.325967e+00,1
1.587026e+00,7.830210e-01,7.688999e-01,3,0,3.965659e+00,3.965659e+00,1
1.590252e+00,7.810560e-01,7.669926e-01,3,0,5.538358e+00,5.538363e+00,1
1.598253e+00,1.506068e+00,1.491785e+00,3,1,4.325693e+00,4.325694e+00,1
1.593304e+00,2.144979e+00,2.131224e+00,3,2,3.786638e+00,3.786641e+00,1
1.586537e+00,1.652075e+00,1.637220e+00,3,1,3.617861e+00,3.628845e+00,1
1.592187e+00,9.373670e-01,9.241104e-01,3,0,3.447923e+00,3.460870e+00,1
1.594231e+00,2.260180e+00,2.245903e+00,3,2,3.608374e+00,3.630537e+00,1
1.592081e+00,2.210935e+00,2.197027e+00,3,2,3.007801e+00,3.009362e+00,1
1.595432e+00,1.537942e+00,1.523972e+00,3,1,2.708845e+00,2.715347e+00,1
1.596543e+00,2.248750e+00,2.236128e+00,3,2,2.362088e+00,2.478881e+00,1
1.591679e+00,1.773725e+00,1.759052e+00,3,1,2.330965e+00,2.373431e+00,1
1.595802e+00,9.401550e-01,9.269714e-01,3,0,2.254305e+00,2.254459e+00,1
1.601566e+00,1.384243e+00,1.370192e+00,3,1,1.866685e+00,1.866605e+00,1
1.612840e+00,7.834880e-01,7.691383e-01,3,0,1.339175e+00,1.338741e+00,1
1.597816e+00,8.124260e-01,7.948875e-01,3,0,6.752135e-01,6.752161e-01,1
1.593121e+00,7.883770e-01,7.731915e-01,3,0,5.786067e-01,5.786070e-01,1
1.598718e+00,8.128970e-01,7.989407e-01,3,0,1.148938e+00,1.148940e+00,1
1.601564e+00,7.910730e-01,7.781982e-01,3,0,1.355318e+00,1.355319e+00,1
1.598213e+00,7.769380e-01,7.627010e-01,3,0,1.169297e+00,1.169297e+00,1
1.601436e+00,7.844100e-01,7.700920e-01,3,0,1.806925e+00,1.806928e+00,1
1.601770e+00,7.775750e-01,7.638931e-01,3,0,1.478040e+00,1.478040e+00,1
1.593946e+00,7.868970e-01,7.729530e-01,3,0,1.090921e+00,1.090920e+00,1
1.596071e+00,7.820610e-01,7.681847e-01,3,0,7.992201e-01,7.992207e-01,1
1.584955e+00,7.838140e-01,7.700920e-01,3,0,6.653635e-01,6.653640e-01,1
1.592185e+00,1.555807e+00,1.543045e+00,3,1,1.691954e+00,1.692216e+00,1
1.591535e+00,1.382989e+00,1.369953e+00,3,1,1.867668e+00,1.867668e+00,1
1.595849e+00,2.223022e+00,2.209187e+00,3,2,4.200475e+00,4.289162e+00,1
1.594869e+00,2.212724e+00,2.198935e+00,3,2,5.749549e+00,5.761039e+00,1
1.585177e+00,1.987565e+00,1.973867e+00,3,2,3.642870e+00,3.642865e+00,1
1.582891e+00,1.509274e+00,1.494884e+00,3,1,5.500896e+00,5.500903e+00,1
1.593236e+00,1.388371e+00,1.374722e+00,3,1,4.396324e+00,4.396324e+00,1
1.591394e+00,7.834820e-01,7.710457e-01,3,0,3.556130e+00,3.556131e+00,1
1.587176e+00,1.559022e+00,1.543999e+00,3,1,3.185377e+00,3.185395e+00,1
1.584907e+00,1.387627e+00,1.374006e+00,3,1,2.644300e+00,2.644301e+00,1
1.592358e+00,7.815400e-01,7.691383e-01,3,0,2.124596e+00,2.124596e+00,1
1.588136e+00,7.820420e-01,7.679462e-01,3,0,1.354071e+00,1.354071e+00,1
1.594485e+00,7.814220e-01,7.667542e-01,3,0,1.215382e+00,1.215383e+00,1
1.584625e+00,7.767620e-01,7.641315e-01,3,0,1.931529e+00,1.931531e+00,1
1.591290e+00,7.817110e-01,7.688999e-01,3,0,1.409136e+00,1.409136e+00,1
1.589891e+00,1.544669e+00,1.532078e+00,3,1,1.200978e+00,1.201480e+00,1
1.589762e+00,3.695566e+00,3.681898e+00,3,4,1.587467e+00,1.612225e+00,1
1.586890e+00,1.544036e+00,1.530886e+00,3,1,2.179337e+00,2.207597e+00,1
2.111406e+00,1.392218e+00,1.377821e+00,4,1,1.184762e+00,1.184762e+00,1
1.588283e+00,7.828020e-01,7.698536e-01,3,0,1.825948e+00,1.825950e+00,1
1.591147e+00,7.765750e-01,7.622242e-01,3,0,2.575426e+00,2.575426e+00,1
1.585773e+00,7.830050e-01,7.700920e-01,3,0,3.881754e+00,3.881695e+00,1
1.589770e+00,7.805230e-01,7.681847e-01,3,0,1.759235e+00,1.759239e+00,1
1.585037e+00,1.544454e+00,1.529932e+00,3,1,3.798186e+00,3.854106e+00,1
1.592152e+00,6.228249e+00,6.205797e+00,3,5,7.149731e+00,7.354653e+00,0
1.595626e+00,5.060164e+00,5.045891e+00,3,7,3.882859e+00,3.882848e+00,1
1.589773e+00,4.744983e+00,4.724026e+00,3,3,5.335781e+00,6.044769e+00,0
2.119894e+00,2.586369e+00,2.572060e+00,4,3,2.310084e+00,2.310083e+00,1
1.591538e+00,7.838480e-01,7.686615e-01,3,0,2.476786e+00,2.476785e+00,1
1.589407e+00,7.770250e-01,7.638931e-01,3,0,1.938521e+00,1.938522e+00,1
1.591998e+00,7.832070e-01,7.691383e-01,3,0,1.521344e+00,1.521345e+00,1
1.593678e+00,7.818370e-01,7.681847e-01,3,0,1.165803e+00,1.165804e+00,1
1.584730e+00,7.829610e-01,7.686615e-01,3,0,1.740214e+00,1.740216e+00,1
1.591562e+00,7.817840e-01,7.681847e-01,3,0,1.775949e+00,1.775950e+00,1
1.586501e+00,7.833480e-01,7.691383e-01,3,0,1.800148e+00,1.800148e+00,1
1.592448e+00,1.544065e+00,1.528978e+00,3,1,2.026564e+00,2.027747e+00,1
1.592492e+00,1.648215e+00,1.634121e+00,3,1,2.951238e+00,2.980744e+00,1
1.588690e+00,1.610817e+00,1.596928e+00,3,1,3.962029e+00,4.012773e+00,1
1.592584e+00,2.856666e+00,2.843142e+00,3,3,2.386103e+00,2.430630e+00,1
1.595722e+00,3.084768e+00,3.072023e+00,3,3,2.377187e+00,2.394359e+00,1
1.591802e+00,1.539243e+00,1.524925e+00,3,1,1.755185e+00,1.771350e+00,1
1.608379e+00,1.379187e+00,1.365900e+00,3,1,8.689992e-01,8.689991e-01,1
1.599360e+00,8.087570e-01,7.939339e-01,3,0,2.986529e+00,2.986535e+00,1
1.593107e+00,7.959290e-01,7.810593e-01,3,0,2.210145e+00,2.210145e+00,1
1.591651e+00,7.893200e-01,7.746220e-01,3,0,1.978522e+00,1.978523e+00,1
1.592079e+00,1.555206e+00,1.540899e+00,3,1,1.906597e+00,1.935164e+00,1
1.591901e+00,2.208178e+00,2.194166e+00,3,2,2.744008e+00,2.744013e+00,1
1.590923e+00,3.492368e+00,3.478050e+00,3,4,4.922581e+00,4.948981e+00,1
1.594163e+00,9.433950e-01,9.298325e-01,3,0,7.367683e+00,7.589571e+00,1
1.591706e+00,1.328246e+01,1.326251e+01,3,16,1.074368e+01,1.810494e+01,0
1.595010e+00,1.488978e+01,1.486897e+01,3,19,8.736157e+00,9.422054e+00,0
1.588579e+00,1.473397e+01,1.471281e+01,3,19,6.237551e+00,6.527385e+00,0
1.590972e+00,7.275361e+00,7.261038e+00,3,10,4.811188e+00,4.818931e+00,1
1.591488e+00,1.547727e+00,1.533031e+00,3,1,3.371521e+00,3.373024e+00,1
1.596132e+00,3.770313e+00,3.755808e+00,3,4,4.770059e+00,4.774146e+00,1
1.591727e+00,5.368547e+00,5.353928e+00,3,7,3.544281e+00,3.553521e+00,1
1.595448e+00,4.365411e+00,4.351139e+00,3,5,4.577336e+00,4.615870e+00,1
3.170445e+00,4.666530e+00,4.652023e+00,6,6,5.026672e+00,5.047344e+00,1
2.117394e+00,5.844435e+00,5.831003e+00,4,8,2.153411e+00,2.225754e+00,1
1.593865e+00,1.384712e+00,1.370907e+00,3,1,1.869297e+00,1.869297e+00,1
1.595048e+00,7.850390e-01,7.719994e-01,3,0,2.663309e+00,2.663312e+00,1
1.595690e+00,7.790520e-01,7.650852e-01,3,0,2.891328e+00,2.891329e+00,1
1.594699e+00,7.850300e-01,7.719994e-01,3,0,2.180932e+00,2.180932e+00,1
1.588995e+00,7.787900e-01,7.660389e-01,3,0,2.512754e+00,2.512756e+00,1
1.588464e+00,7.841480e-01,7.710457e-01,3,0,1.480640e+00,1.480640e+00,1
1.598944e+00,7.842180e-01,7.700920e-01,3,0,1.351014e+00,1.351014e+00,1
1.588506e+00,7.845000e-01,7.700920e-01,3,0,1.117513e+00,1.117513e+00,1
1.589414e+00,7.836620e-01,7.688999e-01,3,0,1.167853e+00,1.167854e+00,1
1.589817e+00,1.546806e+00,1.532078e+00,3,1,1.623495e+00,1.623764e+00,1
1.593546e+00,2.148921e+00,2.133846e+00,3,2,1.768875e+00,1.773205e+00,1
1.593487e+00,1.770792e+00,1.755953e+00,3,1,1.140631e+00,1.143700e+00,1
1.589444e+00,3.078372e+00,3.063917e+00,3,3,1.145563e+00,1.199234e+00,1
1.593615e+00,9.445110e-01,9.298325e-01,3,0,1.055217e+00,1.077532e+00,1
1.593026e+00,9.408220e-01,9.269714e-01,3,0,8.890279e-01,8.890291e-01,1
1.588482e+00,1.388562e+00,1.374006e+00,3,1,6.224102e-01,6.224104e-01,1
1.592563e+00,7.773500e-01,7.627010e-01,3,0,1.095564e+00,1.095564e+00,1
1.594020e+00,7.845910e-01,7.710457e-01,3,0,5.823320e-01,5.823321e-01,1
1.592500e+00,7.836640e-01,7.710457e-01,3,0,6.708311e-01,6.708315e-01,1
1.586750e+00,7.849890e-01,7.710457e-01,3,0,1.729647e+00,1.729650e+00,1
1.591513e+00,7.841660e-01,7.710457e-01,3,0,1.261823e+00,1.261823e+00,1
1.588062e+00,1.540771e+00,1.527071e+00,3,1,4.054738e+00,4.058018e+00,1
1.598703e+00,2.149300e+00,2.134800e+00,3,2,2.811766e+00,2.855630e+00,1
1.591308e+00,9.435560e-01,9.310246e-01,3,0,2.727453e+00,2.922754e+00,1
1.598989e+00,1.764493e+00,1.749992e+00,3,1,3.396969e+00,3.510182e+00,1
1.601292e+00,1.383859e+00,1.368999e+00,3,1,3.069272e+00,3.069272e+00,1
1.594969e+00,7.864300e-01,7.731915e-01,3,0,3.383188e+00,3.383190e+00,1
1.591165e+00,3.317882e+00,3.296137e+00,3,1,5.971128e+00,9.309160e+00,0
1.593727e+00,2.145623e+00,2.132177e+00,3,2,3.875806e+00,3.875949e+00,1
1.595010e+00,9.424230e-01,9.288788e-01,3,0,2.947036e+00,2.947079e+00,1
1.598293e+00,1.894025e+00,1.879215e+00,3,2,2.568644e+00,2.568259e+00,1
2.116250e+00,1.280451e+00,1.266956e+00,4,1,1.535223e+00,1.535224e+00,1
1.606262e+00,7.839540e-01,7.700920e-01,3,0,1.689872e+00,1.689860e+00,1
1.589664e+00,7.776390e-01,7.631779e-01,3,0,1.059114e+00,1.059115e+00,1
1.594246e+00,7.834290e-01,7.691383e-01,3,0,1.391144e+00,1.391146e+00,1
1.586226e+00,7.773830e-01,7.627010e-01,3,0,6.225031e-01,6.225033e-01,1
1.586402e+00,7.844010e-01,7.698536e-01,3,0,5.061755e-01,5.061759e-01,1
1.589681e+00,7.825870e-01,7.638931e-01,3,0,5.185907e-01,5.185911e-01,1
1.586030e+00,1.546931e+00,1.528978e+00,3,1,1.126190e+00,1.135839e+00,1
1.591865e+00,2.209923e+00,2.196074e+00,3,2,1.162377e+00,1.162378e+00,1
1.587488e+00,7.830020e-01,7.688999e-01,3,0,9.841105e-01,9.841108e-01,1
1.590857e+00,7.789130e-01,7.660389e-01,3,0,1.072921e+00,1.072922e+00,1
1.587798e+00,7.846200e-01,7.700920e-01,3,0,9.087148e-01,9.087153e-01,1
1.596448e+00,7.841510e-01,7.698536e-01,3,0,1.695441e+00,1.695444e+00,1
1.588685e+00,1.548077e+00,1.534939e+00,3,1,2.891696e+00,2.893486e+00,1
1.595021e+00,2.983422e+00,2.968788e+00,3,3,3.266120e+00,3.314204e+00,1
2.117413e+00,3.678011e+00,3.663778e+00,4,4,2.575561e+00,2.655764e+00,1
1.597482e+00,2.252961e+00,2.238989e+00,3,2,2.289203e+00,2.382642e+00,1
1.599285e+00,2.366896e+00,2.352953e+00,3,2,2.113345e+00,2.261695e+00,1
1.592040e+00,1.543457e+00,1.531124e+00,3,1,1.516435e+00,1.641976e+00,1
1.589718e+00,9.423720e-01,9.291172e-01,3,0,1.344389e+00,1.354985e+00,1
1.593795e+00,1.383624e+00,1.369953e+00,3,1,2.350396e+00,2.350401e+00,1
1.586758e+00,7.786310e-01,7.648468e-01,3,0,3.349243e+00,3.349246e+00,1
1.589549e+00,7.850630e-01,7.710457e-01,3,0,2.045183e+00,2.045183e+00,1
1.583434e+00,7.788290e-01,7.650852e-01,3,0,1.936384e+00,1.936385e+00,1
1.595033e+00,7.853890e-01,7.719994e-01,3,0,1.736799e+00,1.736800e+00,1
1.599363e+00,7.788280e-01,7.660389e-01,3,0,1.592137e+00,1.592137e+00,1
1.596688e+00,7.854470e-01,7.710457e-01,3,0,1.309646e+00,1.309647e+00,1
1.590295e+00,1.545358e+00,1.531124e+00,3,1,1.471450e+00,1.471827e+00,1
1.592238e+00,1.386318e+00,1.371861e+00,3,1,2.408397e+00,2.408400e+00,1
1.583817e+00,7.838190e-01,7.710457e-01,3,0,2.315943e+00,2.315944e+00,1
1.598800e+00,7.848340e-01,7.710457e-01,3,0,2.453165e+00,2.453166e+00,1
1.587538e+00,7.843830e-01,7.700920e-01,3,0,2.787320e+00,2.787323e+00,1
1.589839e+00,7.842130e-01,7.710457e-01,3,0,1.273869e+00,1.273869e+00,1
1.586308e+00,7.841520e-01,7.710457e-01,3,0,1.018639e+00,1.018640e+00,1
1.589019e+00,7.836020e-01,7.710457e-01,3,0,1.067799e+00,1.067800e+00,1
1.583346e+00,7.769990e-01,7.629395e-01,3,0,4.853803e-01,4.853811e-01,1
1.586872e+00,7.831640e-01,7.700920e-01,3,0,4.889370e-01,4.889373e-01,1
1.591878e+00,7.784830e-01,7.660389e-01,3,0,8.366392e-01,8.366402e-01,1
1.589899e+00,7.845290e-01,7.708073e-01,3,0,7.127134e-01,7.127136e-01,1
1.598109e+00,7.791800e-01,7.648468e-01,3,0,1.917084e+00,1.917088e+00,1
1.582515e+00,7.847370e-01,7.710457e-01,3,0,1.424438e+00,1.424440e+00,1
1.588806e+00,7.837000e-01,7.691383e-01,3,0,1.006577e+00,1.006577e+00,1
1.587469e+00,1.546903e+00,1.532078e+00,3,1,8.967595e-01,8.977687e-01,1
1.586800e+00,1.389532e+00,1.374960e+00,3,1,9.130926e-01,9.130931e-01,1
1.590069e+00,7.844590e-01,7.708073e-01,3,0,9.391228e-01,9.391235e-01,1
1.586952e+00,7.780700e-01,7.636547e-01,3,0,5.925039e-01,5.925042e-01,1
1.592840e+00,7.842590e-01,7.700920e-01,3,0,6.652400e-01,6.652409e-01,1
1.585499e+00,7.781800e-01,7.638931e-01,3,0,5.440825e-01,5.440830e-01,1
1.590788e+00,7.839890e-01,7.698536e-01,3,0,4.697783e-01,4.697786e-01,1
1.590659e+00,7.786420e-01,7.660389e-01,3,0,1.265850e+00,1.265853e+00,1
1.592450e+00,7.840930e-01,7.700920e-01,3,0,7.993198e-01,7.993208e-01,1
1.592683e+00,1.546039e+00,1.533031e+00,3,1,1.265630e+00,1.266477e+00,1
1.586990e+00,1.652166e+00,1.637936e+00,3,1,2.042449e+00,2.053368e+00,1
1.588855e+00,1.769931e+00,1.755238e+00,3,1,1.751065e+00,1.791816e+00,1
1.594700e+00,1.764680e+00,1.749992e+00,3,1,1.985072e+00,2.002229e+00,1
1.592542e+00,2.254758e+00,2.242088e+00,3,2,1.392186e+00,1.436065e+00,1
1.590577e+00,2.369258e+00,2.355814e+00,3,2,1.392219e+00,1.412840e+00,1
1.589199e+00,9.428140e-01,9.288788e-01,3,0,1.591638e+00,1.624748e+00,1
1.589972e+00,9.418120e-01,9.279251e-01,3,0,3.494961e+00,3.506684e+00,1
1.586596e+00,1.387956e+00,1.374006e+00,3,1,4.627717e+00,4.627721e+00,1
1.590925e+00,7.842240e-01,7.708073e-01,3,0,4.100455e+00,4.100455e+00,1
1.584785e+00,7.837820e-01,7.710457e-01,3,0,3.334881e+00,3.334882e+00,1
1.600228e+00,7.843540e-01,7.708073e-01,3,0,3.084954e+00,3.084955e+00,1
1.598428e+00,7.854450e-01,7.719994e-01,3,0,2.095474e+00,2.095473e+00,1
1.595161e+00,7.858310e-01,7.719994e-01,3,0,2.070309e+00,2.070311e+00,1
1.595438e+00,2.172208e+00,2.159119e+00,3,2,2.036060e+00,2.035895e+00,1
2.114405e+00,1.988902e+00,1.975060e+00,4,2,1.588675e+00,1.588675e+00,1
1.592913e+00,2.376826e+00,2.362013e+00,3,2,1.398761e+00,1.405682e+00,1
1.587394e+00,3.796585e+00,3.782034e+00,3,4,2.810256e+00,2.968685e+00,1
3.168762e+00,7.600736e+00,7.587194e+00,6,10,5.873996e+00,6.052150e+00,1
3.182793e+00,5.920201e+00,5.907059e+00,6,8,6.168566e+00,6.215566e+00,1
2.648526e+00,4.141205e+00,4.124880e+00,5,5,6.470164e+00,6.496202e+00,1
2.127253e+00,2.168071e+00,2.153873e+00,4,2,7.590350e+00,7.647959e+00,1
2.651382e+00,4.837469e+00,4.823923e+00,5,6,1.076339e+01,1.107190e+01,1
1.599255e+00,9.862449e+00,9.847879e+00,3,14,6.977181e+00,7.012004e+00,1
1.600155e+00,3.029506e+00,3.015041e+00,3,3,8.560260e+00,8.612821e+00,1
1.589640e+00,3.952084e+00,3.938198e+00,3,5,6.579295e+00,6.581951e+00,1
1.590123e+00,4.350005e+00,4.336834e+00,3,5,6.045914e+00,6.055279e+00,1
1.587866e+00,3.196555e+00,3.182888e+00,3,4,4.242108e+00,4.242068e+00,1
1.589149e+00,8.662147e+00,8.639812e+00,3,9,5.189433e+00,5.768952e+00,0
1.594597e+00,5.376168e+00,5.357027e+00,3,7,3.527146e+00,3.531749e+00,1
2.119289e+00,8.197795e+00,8.183956e+00,4,11,4.525145e+00,4.675740e+00,1
2.122998e+00,8.111412e+00,8.097172e+00,4,12,1.486560e+00,1.486890e+00,1
1.593938e+00,9.446370e-01,9.310246e-01,3,0,1.788445e+00,1.828389e+00,1
1.594745e+00,1.385521e+00,1.371861e+00,3,1,3.355447e+00,3.355451e+00,1
1.588755e+00,7.863220e-01,7.717609e-01,3,0,2.534404e+00,2.534404e+00,1
1.589070e+00,2.967375e+00,2.948046e+00,3,3,4.039047e+00,4.050010e+00,1
1.602044e+00,2.858454e+00,2.845049e+00,3,3,3.583347e+00,3.589788e+00,1
1.595829e+00,1.561755e+00,1.547098e+00,3,1,6.180830e+00,6.276721e+00,1
2.120676e+00,3.905683e+00,3.890753e+00,4,5,3.169988e+00,3.169986e+00,1
1.594111e+00,7.862690e-01,7.719994e-01,3,0,2.632592e+00,2.632593e+00,1
1.589737e+00,7.801610e-01,7.660389e-01,3,0,2.062492e+00,2.062492e+00,1
1.591096e+00,7.864160e-01,7.719994e-01,3,0,2.073208e+00,2.073208e+00,1
1.594369e+00,7.805190e-01,7.669926e-01,3,0,2.218527e+00,2.218528e+00,1
1.595772e+00,7.857150e-01,7.710457e-01,3,0,3.363031e+00,3.363025e+00,1
1.596630e+00,7.851790e-01,7.708073e-01,3,0,1.507010e+00,1.507007e+00,1
1.588089e+00,7.852500e-01,7.719994e-01,3,0,1.004967e+00,1.004967e+00,1
1.594625e+00,7.851220e-01,7.710457e-01,3,0,1.145228e+00,1.145229e+00,1
1.589662e+00,7.847340e-01,7.696152e-01,3,0,1.099087e+00,1.099088e+00,1
1.598019e+00,7.849090e-01,7.710457e-01,3,0,8.552711e-01,8.552713e-01,1
1.588889e+00,7.854770e-01,7.708073e-01,3,0,1.390468e+00,1.390470e+00,1
1.596424e+00,7.854340e-01,7.710457e-01,3,0,2.045459e+00,2.045461e+00,1
1.593654e+00,7.854130e-01,7.719994e-01,3,0,3.124390e+00,3.124393e+00,1
1.589342e+00,2.230321e+00,2.217054e+00,3,2,6.812440e+00,6.816657e+00,1
1.592861e+00,2.359010e+00,2.344847e+00,3,2,8.850732e+00,8.883894e+00,1
1.596090e+00,5.445401e+00,5.431890e+00,3,7,6.013964e+00,6.020544e+00,1
1.601831e+00,4.882169e+00,4.868984e+00,3,6,7.441927e+00,7.447950e+00,1
1.588119e+00,3.354041e+00,3.340006e+00,3,4,5.366265e+00,5.367500e+00,1
1.591795e+00,1.386688e+00,1.372099e+00,3,1,4.260616e+00,4.260616e+00,1
1.600976e+00,4.279675e+00,4.266977e+00,3,5,4.734123e+00,4.896859e+00,1
1.600536e+00,3.908783e+00,3.895998e+00,3,5,2.568427e+00,2.568424e+00,1
1.585100e+00,7.805490e-01,7.650852e-01,3,0,1.976037e+00,1.976041e+00,1
1.593428e+00,7.854520e-01,7.710457e-01,3,0,1.521816e+00,1.521816e+00,1
1.589031e+00,7.796590e-01,7.660389e-01,3,0,1.423900e+00,1.423901e+00,1
1.594305e+00,7.863380e-01,7.719994e-01,3,0,1.350567e+00,1.350567e+00,1
1.592956e+00,7.803440e-01,7.669926e-01,3,0,2.090925e+00,2.090927e+00,1
1.590632e+00,7.854660e-01,7.708073e-01,3,0,7.174586e-01,7.174581e-01,1
1.589502e+00,2.964290e+00,2.950907e+00,3,3,2.868861e+00,2.869111e+00,1
1.601480e+00,4.974238e+00,4.960060e+00,3,6,6.331026e+00,6.522755e+00,1
1.602274e+00,6.406389e+00,6.391764e+00,3,9,3.701093e+00,3.701039e+00,1
1.597311e+00,7.863250e-01,7.719994e-01,3,0,2.640685e+00,2.640684e+00,1
1.599118e+00,7.860770e-01,7.731915e-01,3,0,2.166119e+00,2.166119e+00,1
1.586721e+00,7.857910e-01,7.719994e-01,3,0,1.840996e+00,1.840996e+00,1
1.602113e+00,7.859400e-01,7.719994e-01,3,0,1.726107e+00,1.726108e+00,1
1.589570e+00,7.853180e-01,7.710457e-01,3,0,2.906458e+00,2.906463e+00,1
1.587641e+00,1.538099e+00,1.525164e+00,3,1,2.246874e+00,2.246896e+00,1
1.587029e+00,9.384390e-01,9.250641e-01,3,0,1.616666e+00,1.616673e+00,1
1.591018e+00,1.390443e+00,1.377106e+00,3,1,1.799603e+00,1.799604e+00,1
1.591251e+00,2.252836e+00,2.238989e+00,3,2,3.086812e+00,3.096688e+00,1
1.584450e+00,1.655177e+00,1.641035e+00,3,1,5.005722e+00,5.020034e+00,1
1.594696e+00,5.061438e+00,5.043030e+00,3,6,9.121460e+00,9.167251e+00,1
1.594685e+00,1.118894e+01,1.116896e+01,3,13,1.115442e+01,1.409539e+01,0
1.601351e+00,7.202469e+00,7.183075e+00,3,7,1.007161e+01,1.414120e+01,0
1.594126e+00,1.726756e+01,1.724815e+01,3,22,1.057687e+01,1.115360e+01,0
1.596311e+00,9.634323e+00,9.619951e+00,3,14,8.925388e+00,9.018661e+00,1
1.600024e+00,6.014261e+00,6.000042e+00,3,8,9.395292e+00,9.536615e+00,1
1.597108e+00,4.231958e+00,4.218102e+00,3,5,9.384597e+00,9.478774e+00,1
1.598911e+00,1.052432e+01,1.050282e+01,3,12,7.735473e+00,9.408643e+00,0
1.594687e+00,3.458306e+00,3.443003e+00,3,4,6.669326e+00,6.732383e+00,1
1.603077e+00,2.855289e+00,2.841234e+00,3,3,5.134502e+00,5.140699e+00,1
1.593850e+00,4.983265e+00,4.968882e+00,3,6,4.675014e+00,4.762066e+00,1
1.596257e+00,8.162553e+00,8.149147e+00,3,11,4.697607e+00,4.842410e+00,1
3.179948e+00,9.994128e+00,9.971857e+00,6,11,6.046910e+00,8.988685e+00,0
3.188352e+00,2.670943e+00,2.648115e+00,6,0,1.130420e+01,3.349635e+01,0
3.183831e+00,2.675297e+00,2.654791e+00,6,0,1.277422e+01,3.088004e+01,0
3.170401e+00,2.656747e+00,2.636909e+00,6,0,1.451831e+01,2.309439e+01,0
3.173797e+00,1.692641e+01,1.690459e+01,6,22,1.278724e+01,2.116605e+01,0
2.117554e+00,7.809863e+00,7.791519e+00,4,8,1.298186e+01,2.172349e+01,0
2.639655e+00,2.691810e+00,2.669573e+00,5,0,1.601435e+01,3.123973e+01,0
2.117919e+00,2.275645e+01,2.273631e+01,4,31,1.494788e+01,2.306500e+01,0
2.648092e+00,1.020300e+01,1.018238e+01,5,12,1.242135e+01,1.920211e+01,0
2.129875e+00,1.551563e+01,1.549530e+01,4,20,1.068932e+01,1.265968e+01,0
1.592284e+00,1.295535e+01,1.294184e+01,3,19,9.403368e+00,9.545681e+00,1
1.593769e+00,8.502168e+00,8.481979e+00,3,9,8.006471e+00,9.448517e+00,0
1.592625e+00,2.680919e+00,2.661943e+00,3,0,7.175376e+00,1.166746e+01,0
1.599493e+00,1.020724e+01,1.018858e+01,3,12,7.273008e+00,1.796323e+01,0
2.129567e+00,5.376586e+00,5.362988e+00,4,7,4.132500e+00,4.134396e+00,1
1.603565e+00,3.561282e+00,3.546953e+00,3,4,3.550691e+00,3.551389e+00,1
1.594667e+00,3.394176e+00,3.372908e+00,3,2,3.819084e+00,7.392747e+00,0
2.647799e+00,7.875990e-01,7.739067e-01,5,0,2.697916e+00,2.696401e+00,1
1.587309e+00,1.311342e+00,1.296997e+00,3,1,2.268982e+00,2.268532e+00,1
2.114408e+00,1.286470e+00,1.272917e+00,4,1,1.858041e+00,1.857035e+00,1
1.586485e+00,7.859060e-01,7.729530e-01,3,0,1.184192e+00,1.184070e+00,1
1.597968e+00,7.855070e-01,7.719994e-01,3,0,7.353048e-01,7.353081e-01,1
1.583925e+00,7.857850e-01,7.729530e-01,3,0,5.692635e-01,5.692646e-01,1
1.594968e+00,7.850520e-01,7.700920e-01,3,0,8.108009e-01,8.108018e-01,1
1.588460e+00,7.859960e-01,7.717609e-01,3,0,1.087322e+00,1.087324e+00,1
1.590865e+00,7.854580e-01,7.710457e-01,3,0,7.564016e-01,7.564017e-01,1
1.584760e+00,7.853840e-01,7.710457e-01,3,0,8.005065e-01,8.005080e-01,1
1.589956e+00,1.552425e+00,1.538038e+00,3,1,2.163853e+00,2.169211e+00,1
1.605602e+00,2.387576e+00,2.370119e+00,3,2,4.824300e+00,4.867269e+00,1
1.604109e+00,5.296811e+00,5.282879e+00,3,6,6.546185e+00,6.604986e+00,1
1.588695e+00,6.140642e+00,6.125927e+00,3,8,5.511860e+00,5.641121e+00,1
1.586581e+00,4.384884e+00,4.370213e+00,3,5,5.912291e+00,5.984997e+00,1
1.596319e+00,3.468668e+00,3.448725e+00,3,4,5.771075e+00,5.812623e+00,1
1.589839e+00,2.962155e+00,2.948046e+00,3,3,5.108995e+00,5.121559e+00,1
1.586572e+00,4.177262e+00,4.162788e+00,3,5,4.067180e+00,4.106182e+00,1
1.593146e+00,2.856324e+00,2.842188e+00,3,3,4.004511e+00,4.149454e+00,1
1.587567e+00,6.817918e+00,6.798029e+00,3,6,7.180356e+00,1.122370e+01,0
3.697832e+00,1.238191e+01,1.236176e+01,7,15,9.364281e+00,1.916692e+01,0
3.174052e+00,2.692309e+00,2.672195e+00,6,0,1.106856e+01,2.946451e+01,0
2.118184e+00,2.615843e+01,2.613783e+01,4,36,9.068676e+00,1.418263e+01,0
2.654217e+00,1.284256e+01,1.282787e+01,5,19,6.953013e+00,7.205572e+00,1
2.133068e+00,7.959737e+00,7.945061e+00,4,11,5.140085e+00,5.225302e+00,1
1.609880e+00,4.875728e+00,4.860878e+00,3,6,4.146413e+00,4.305088e+00,1
1.599809e+00,1.047567e+01,1.045799e+01,3,14,5.393052e+00,5.623436e+00,1
1.593779e+00,1.044805e+01,1.043487e+01,3,15,5.352825e+00,5.529302e+00,1
1.590881e+00,7.042108e+00,7.028103e+00,3,10,4.029129e+00,4.100763e+00,1
2.124469e+00,4.093928e+00,4.079103e+00,4,5,3.962786e+00,3.971985e+00,1
3.179513e+00,2.758417e+00,2.745152e+00,6,3,4.762833e+00,4.740056e+00,1
3.185491e+00,1.875809e+00,1.862049e+00,6,2,5.217127e+00,5.211333e+00,1
2.125810e+00,1.282173e+00,1.268148e+00,4,1,6.314492e+00,6.314497e+00,1
1.593940e+00,1.555170e+00,1.541138e+00,3,1,4.942769e+00,4.943327e+00,1
1.590343e+00,1.664791e+00,1.649857e+00,3,1,6.592813e+00,6.593493e+00,1
1.592666e+00,2.980167e+00,2.965927e+00,3,3,6.554383e+00,6.560278e+00,1
1.593126e+00,2.949993e+00,2.937078e+00,3,3,5.494705e+00,5.495915e+00,1
1.595683e+00,4.169313e+00,4.154921e+00,3,5,4.531375e+00,4.549536e+00,1
1.588383e+00,5.574506e+00,5.559921e+00,3,7,4.666469e+00,4.780899e+00,1
1.596179e+00,5.778975e+00,5.763769e+00,3,7,4.637351e+00,4.865075e+00,1
2.644199e+00,7.161686e+00,7.147074e+00,5,10,3.471796e+00,3.513972e+00,1
3.173433e+00,4.177954e+00,4.163027e+00,6,5,3.413436e+00,3.452149e+00,1
1.595797e+00,4.062324e+00,4.047871e+00,3,5,2.250492e+00,2.250615e+00,1
1.591068e+00,1.650567e+00,1.635790e+00,3,1,1.831644e+00,1.846325e+00,1
1.589112e+00,1.548066e+00,1.533985e+00,3,1,1.130805e+00,1.133844e+00,1
1.589232e+00,1.392940e+00,1.378775e+00,3,1,7.295230e-01,7.295234e-01,1
1.605601e+00,7.857990e-01,7.729530e-01,3,0,4.260608e-01,4.260609e-01,1
1.589207e+00,7.878400e-01,7.731915e-01,3,0,8.370439e-01,8.370457e-01,1
1.597208e+00,7.848160e-01,7.700920e-01,3,0,4.819047e-01,4.819048e-01,1
1.589276e+00,7.849510e-01,7.719994e-01,3,0,4.461700e-01,4.461707e-01,1
1.592018e+00,7.846080e-01,7.719994e-01,3,0,2.803452e-01,2.803456e-01,1
1.588791e+00,7.851380e-01,7.708073e-01,3,0,3.034575e-01,3.034578e-01,1
1.594624e+00,7.837330e-01,7.700920e-01,3,0,2.670295e-01,2.670298e-01,1
1.588931e+00,7.854530e-01,7.708073e-01,3,0,6.526717e-01,6.526728e-01,1
1.594786e+00,7.842630e-01,7.710457e-01,3,0,5.020420e-01,5.020426e-01,1
1.592262e+00,7.786670e-01,7.658005e-01,3,0,5.133402e-01,5.133420e-01,1
1.597799e+00,7.851990e-01,7.710457e-01,3,0,1.044731e+00,1.044733e+00,1
1.586662e+00,7.799100e-01,7.669926e-01,3,0,5.738380e-01,5.738379e-01,1
1.589118e+00,7.854500e-01,7.719994e-01,3,0,8.138985e-01,8.138993e-01,1
1.599158e+00,7.810990e-01,7.669926e-01,3,0,8.277922e-01,8.277928e-01,1
1.589869e+00,7.851790e-01,7.708073e-01,3,0,1.396829e+00,1.396831e+00,1
1.595516e+00,7.805470e-01,7.669926e-01,3,0,1.066691e+00,1.066691e+00,1
1.586168e+00,7.860330e-01,7.717609e-01,3,0,7.026190e-01,7.026190e-01,1
1.589085e+00,7.820170e-01,7.669926e-01,3,0,5.117899e-01,5.117904e-01,1
1.590115e+00,7.871510e-01,7.729530e-01,3,0,6.908271e-01,6.908280e-01,1
1.591029e+00,7.847100e-01,7.719994e-01,3,0,6.371595e-01,6.371598e-01,1
1.586726e+00,7.859300e-01,7.719994e-01,3,0,5.140164e-01,5.140166e-01,1
1.594947e+00,7.855590e-01,7.719994e-01,3,0,9.032020e-01,9.032032e-01,1
1.585603e+00,7.850460e-01,7.710457e-01,3,0,6.887975e-01,6.887980e-01,1
1.593619e+00,1.555828e+00,1.542807e+00,3,1,1.025865e+00,1.025934e+00,1
1.595799e+00,1.767989e+00,1.754045e+00,3,1,1.815806e+00,1.894919e+00,1
1.598094e+00,9.437860e-01,9.298325e-01,3,0,1.589256e+00,1.609334e+00,1
1.596111e+00,1.385435e+00,1.372099e+00,3,1,1.406135e+00,1.406136e+00,1
1.588566e+00,7.866670e-01,7.719994e-01,3,0,3.215384e+00,3.215388e+00,1
1.594878e+00,7.859340e-01,7.719994e-01,3,0,3.903443e+00,3.903441e+00,1
1.591485e+00,7.802710e-01,7.660389e-01,3,0,2.221170e+00,2.221168e+00,1
1.596289e+00,7.855030e-01,7.710457e-01,3,0,1.660954e+00,1.660954e+00,1
1.597505e+00,7.800140e-01,7.669926e-01,3,0,1.278938e+00,1.278938e+00,1
1.589183e+00,7.850470e-01,7.710457e-01,3,0,8.539627e-01,8.539628e-01,1
1.588722e+00,7.796370e-01,7.669926e-01,3,0,7.550199e-01,7.550203e-01,1
1.595791e+00,7.856700e-01,7.722378e-01,3,0,1.084833e+00,1.084834e+00,1
1.594011e+00,7.802370e-01,7.669926e-01,3,0,1.038310e+00,1.038311e+00,1
1.597557e+00,7.915340e-01,7.770061e-01,3,0,5.168207e-01,5.168218e-01,1
1.588788e+00,7.801600e-01,7.669926e-01,3,0,1.406464e+00,1.406466e+00,1
1.587928e+00,7.859090e-01,7.729530e-01,3,0,7.810507e-01,7.810505e-01,1
1.593805e+00,7.853480e-01,7.708073e-01,3,0,6.899701e-01,6.899707e-01,1
1.587742e+00,7.867430e-01,7.741451e-01,3,0,9.651706e-01,9.651719e-01,1
1.593157e+00,7.940530e-01,7.808208e-01,3,0,7.902877e-01,7.902879e-01,1
1.589685e+00,7.849120e-01,7.696152e-01,3,0,9.278023e-01,9.278030e-01,1
1.593361e+00,7.854150e-01,7.719994e-01,3,0,1.181378e+00,1.181379e+00,1
1.594990e+00,7.846130e-01,7.710457e-01,3,0,9.325492e-01,9.325499e-01,1
1.595506e+00,7.857970e-01,7.729530e-01,3,0,9.691404e-01,9.691419e-01,1
1.588598e+00,7.843860e-01,7.719994e-01,3,0,1.208826e+00,1.208824e+00,1
1.589744e+00,7.855490e-01,7.719994e-01,3,0,1.485562e+00,1.485559e+00,1
1.584661e+00,7.847150e-01,7.710457e-01,3,0,2.227998e+00,2.228001e+00,1
1.595452e+00,7.856930e-01,7.719994e-01,3,0,1.542630e+00,1.542630e+00,1
1.592061e+00,7.794780e-01,7.660389e-01,3,0,1.481908e+00,1.481910e+00,1
1.596679e+00,7.858650e-01,7.731915e-01,3,0,1.433838e+00,1.433839e+00,1
1.595411e+00,7.799150e-01,7.660389e-01,3,0,1.552584e+00,1.552585e+00,1
1.593371e+00,7.869000e-01,7.729530e-01,3,0,1.283525e+00,1.283526e+00,1
1.595100e+00,2.865052e+00,2.852201e+00,3,3,2.186432e+00,2.206076e+00,1
2.120435e+00,3.695248e+00,3.680944e+00,4,4,1.654745e+00,1.680040e+00,1
1.598621e+00,9.470190e-01,9.329319e-01,3,0,1.545923e+00,1.570862e+00,1
1.584420e+00,3.088139e+00,3.073931e+00,3,3,1.510825e+00,1.544880e+00,1
1.595190e+00,1.769510e+00,1.754999e+00,3,1,1.365967e+00,1.541360e+00,1
1.592145e+00,2.372434e+00,2.357960e+00,3,2,9.769118e-01,1.031656e+00,1
1.590197e+00,1.768254e+00,1.754045e+00,3,1,1.186136e+00,1.219882e+00,1
1.591296e+00,2.218199e+00,2.203941e+00,3,2,1.335666e+00,1.335667e+00,1
1.596747e+00,7.851730e-01,7.710457e-01,3,0,9.194024e-01,9.194027e-01,1
1.588065e+00,7.902950e-01,7.760525e-01,3,0,1.723592e+00,1.723595e+00,1
1.594099e+00,7.845130e-01,7.719994e-01,3,0,1.214743e+00,1.214743e+00,1
1.589708e+00,7.863910e-01,7.719994e-01,3,0,1.111852e+00,1.111852e+00,1
1.590061e+00,7.871740e-01,7.729530e-01,3,0,9.949775e-01,9.949778e-01,1
1.589430e+00,7.843260e-01,7.650852e-01,3,0,7.780960e-01,7.780973e-01,1
1.595172e+00,7.868720e-01,7.739067e-01,3,0,5.708981e-01,5.708986e-01,1
1.590207e+00,7.801810e-01,7.669926e-01,3,0,1.134068e+00,1.134070e+00,1
1.594901e+00,7.847210e-01,7.719994e-01,3,0,9.784542e-01,9.784547e-01,1
1.602332e+00,7.806190e-01,7.669926e-01,3,0,9.954297e-01,9.954309e-01,1
1.596098e+00,7.862200e-01,7.719994e-01,3,0,9.310012e-01,9.310015e-01,1
1.595971e+00,7.808460e-01,7.669926e-01,3,0,7.240539e-01,7.240544e-01,1
1.596870e+00,7.855180e-01,7.710457e-01,3,0,8.697293e-01,8.697299e-01,1
1.594326e+00,7.800800e-01,7.669926e-01,3,0,6.746866e-01,6.746868e-01,1
1.596409e+00,7.869520e-01,7.741451e-01,3,0,2.848965e+00,2.848815e+00,1
2.115895e+00,3.679250e+00,3.664970e+00,4,4,6.328234e+00,6.496444e+00,1
1.596777e+00,3.459629e+00,3.445148e+00,3,4,4.753621e+00,4.763174e+00,1
1.595094e+00,1.995716e+00,1.981974e+00,3,2,3.391700e+00,3.391699e+00,1
1.607696e+00,7.849060e-01,7.708073e-01,3,0,2.486412e+00,2.486412e+00,1
1.587446e+00,7.808490e-01,7.669926e-01,3,0,2.692150e+00,2.692152e+00,1
1.590133e+00,7.856690e-01,7.710457e-01,3,0,2.127267e+00,2.127267e+00,1
1.590310e+00,7.806210e-01,7.660389e-01,3,0,2.054730e+00,2.054731e+00,1
1.598876e+00,7.860360e-01,7.729530e-01,3,0,2.472890e+00,2.472893e+00,1
1.590378e+00,7.814560e-01,7.669926e-01,3,0,2.817289e+00,2.817291e+00,1
1.591589e+00,7.864490e-01,7.722378e-01,3,0,2.577076e+00,2.577076e+00,1
1.601482e+00,1.547996e+00,1.533985e+00,3,1,2.745970e+00,2.746643e+00,1
1.594644e+00,1.386176e+00,1.371861e+00,3,1,3.658285e+00,3.658288e+00,1
1.591471e+00,7.878270e-01,7.741451e-01,3,0,2.698068e+00,2.698066e+00,1
1.593848e+00,7.857050e-01,7.729530e-01,3,0,1.827512e+00,1.827512e+00,1
1.593211e+00,7.882460e-01,7.750988e-01,3,0,1.081634e+00,1.081633e+00,1
1.598892e+00,7.858130e-01,7.719994e-01,3,0,7.217619e-01,7.217620e-01,1
1.588135e+00,7.857170e-01,7.719994e-01,3,0,5.656010e-01,5.656015e-01,1
1.593764e+00,7.859440e-01,7.719994e-01,3,0,7.763945e-01,7.763956e-01,1
1.587225e+00,7.850850e-01,7.710457e-01,3,0,5.486686e-01,5.486686e-01,1
1.592863e+00,7.861450e-01,7.729530e-01,3,0,9.187079e-01,9.187091e-01,1
1.591663e+00,7.803800e-01,7.660389e-01,3,0,9.761710e-01,9.761715e-01,1
1.588057e+00,1.551305e+00,1.538038e+00,3,1,9.069085e-01,9.072716e-01,1
1.600641e+00,1.769959e+00,1.756191e+00,3,1,1.168596e+00,1.171999e+00,1
1.588078e+00,1.384325e+00,1.370907e+00,3,1,6.511090e-01,6.511089e-01,1
1.587434e+00,7.859990e-01,7.717609e-01,3,0,5.281497e-01,5.281501e-01,1
1.591205e+00,7.852550e-01,7.719994e-01,3,0,2.819104e+00,2.819111e+00,1
1.592140e+00,7.863240e-01,7.739067e-01,3,0,2.933416e+00,2.933418e+00,1
1.592814e+00,7.847580e-01,7.710457e-01,3,0,1.425870e+00,1.425869e+00,1
1.592121e+00,7.863300e-01,7.729530e-01,3,0,1.407196e+00,1.407196e+00,1
1.593691e+00,7.852990e-01,7.710457e-01,3,0,1.232224e+00,1.232224e+00,1
1.589575e+00,1.550205e+00,1.535892e+00,3,1,1.320703e+00,1.320978e+00,1
1.591825e+00,1.384388e+00,1.369953e+00,3,1,6.745263e-01,6.745262e-01,1
1.586995e+00,7.856620e-01,7.719994e-01,3,0,5.661622e-01,5.661628e-01,1
1.590848e+00,7.798450e-01,7.660389e-01,3,0,1.077528e+00,1.077530e+00,1
1.587339e+00,7.876940e-01,7.739067e-01,3,0,1.342903e+00,1.342904e+00,1
1.598933e+00,7.860700e-01,7.669926e-01,3,0,1.653338e+00,1.653340e+00,1
1.586996e+00,7.861340e-01,7.719994e-01,3,0,1.076404e+00,1.076404e+00,1
1.596637e+00,7.859730e-01,7.731915e-01,3,0,1.034086e+00,1.034087e+00,1
1.586697e+00,7.861330e-01,7.719994e-01,3,0,1.551620e+00,1.551623e+00,1
1.596615e+00,7.860940e-01,7.729530e-01,3,0,2.301937e+00,2.301939e+00,1
1.591013e+00,7.862610e-01,7.719994e-01,3,0,2.552897e+00,2.552898e+00,1
1.606447e+00,2.966929e+00,2.953053e+00,3,3,3.560501e+00,3.574567e+00,1
1.588970e+00,3.482993e+00,3.463984e+00,3,4,3.361811e+00,3.362473e+00,1
1.591216e+00,5.596446e+00,5.583048e+00,3,7,5.296644e+00,5.344791e+00,1
2.113198e+00,4.397985e+00,4.384041e+00,4,6,2.343204e+00,2.343203e+00,1
1.589389e+00,7.868030e-01,7.729530e-01,3,0,1.947133e+00,1.947133e+00,1
1.599072e+00,7.807930e-01,7.658005e-01,3,0,2.857731e+00,2.857732e+00,1
1.590003e+00,7.855740e-01,7.731915e-01,3,0,1.397980e+00,1.397978e+00,1
1.597454e+00,7.824230e-01,7.681847e-01,3,0,1.151323e+00,1.151324e+00,1
1.589685e+00,7.864940e-01,7.729530e-01,3,0,9.152875e-01,9.152879e-01,1
1.591631e+00,7.853350e-01,7.719994e-01,3,0,6.048685e-01,6.048684e-01,1
1.591426e+00,7.864180e-01,7.739067e-01,3,0,1.294143e+00,1.294145e+00,1
1.591274e+00,7.856650e-01,7.719994e-01,3,0,9.618746e-01,9.618748e-01,1
1.586466e+00,7.850420e-01,7.710457e-01,3,0,5.408686e-01,5.408686e-01,1
1.597609e+00,7.848760e-01,7.710457e-01,3,0,1.285713e+00,1.285715e+00,1
1.585006e+00,7.854260e-01,7.710457e-01,3,0,8.897738e-01,8.897737e-01,1
1.595582e+00,7.848530e-01,7.719994e-01,3,0,4.807412e-01,4.807416e-01,1
1.587908e+00,7.853550e-01,7.719994e-01,3,0,5.195187e-01,5.195190e-01,1
1.593539e+00,7.855280e-01,7.719994e-01,3,0,6.732759e-01,6.732768e-01,1
1.590426e+00,1.544012e+00,1.530170e+00,3,1,1.009575e+00,1.010282e+00,1
1.588387e+00,1.657012e+00,1.643896e+00,3,1,2.100970e+00,2.101614e+00,1
1.595025e+00,1.546383e+00,1.531839e+00,3,1,1.560267e+00,1.576376e+00,1
1.597849e+00,1.651526e+00,1.637220e+00,3,1,2.817036e+00,2.910391e+00,1
1.585778e+00,1.542417e+00,1.529932e+00,3,1,1.237780e+00,1.237936e+00,1
1.586927e+00,1.390016e+00,1.376867e+00,3,1,9.867747e-01,9.867753e-01,1
1.588968e+00,7.857150e-01,7.719994e-01,3,0,6.627208e-01,6.627207e-01,1
1.586544e+00,7.810950e-01,7.679462e-01,3,0,6.058618e-01,6.058626e-01,1
1.593000e+00,7.857260e-01,7.710457e-01,3,0,1.698693e+00,1.698697e+00,1
1.596249e+00,7.815140e-01,7.669926e-01,3,0,1.692712e+00,1.692712e+00,1
1.598672e+00,7.857280e-01,7.719994e-01,3,0,2.593926e+00,2.593896e+00,1
1.594120e+00,7.805540e-01,7.679462e-01,3,0,2.664439e+00,2.664432e+00,1
1.588276e+00,1.555117e+00,1.541138e+00,3,1,3.056654e+00,3.056808e+00,1
1.592520e+00,2.977666e+00,2.964020e+00,3,3,5.001965e+00,5.025722e+00,1
1.600912e+00,2.259111e+00,2.246141e+00,3,2,5.598468e+00,5.605847e+00,1
1.592220e+00,2.867741e+00,2.852917e+00,3,3,4.182473e+00,4.192764e+00,1
1.593499e+00,1.660720e+00,1.646042e+00,3,1,3.757435e+00,3.768737e+00,1
1.595234e+00,2.250598e+00,2.235889e+00,3,2,5.274214e+00,5.277669e+00,1
1.591993e+00,2.747971e+00,2.733707e+00,3,3,3.585680e+00,3.587974e+00,1
1.588310e+00,1.392783e+00,1.379013e+00,3,1,2.972940e+00,2.972941e+00,1
1.597005e+00,7.855150e-01,7.710457e-01,3,0,3.001726e+00,3.001730e+00,1
1.589360e+00,7.863740e-01,7.719994e-01,3,0,3.240949e+00,3.240951e+00,1
1.591498e+00,1.552610e+00,1.538038e+00,3,1,3.545525e+00,3.560242e+00,1
1.597578e+00,1.393909e+00,1.379967e+00,3,1,2.617147e+00,2.617148e+00,1
1.593338e+00,7.805540e-01,7.667542e-01,3,0,2.511679e+00,2.511680e+00,1
1.592412e+00,7.868090e-01,7.741451e-01,3,0,3.220686e+00,3.220688e+00,1
1.592367e+00,7.850520e-01,7.669926e-01,3,0,3.533598e+00,3.533590e+00,1
1.680328e+00,7.861840e-01,7.729530e-01,3,0,2.238144e+00,2.238117e+00,1
1.589551e+00,7.829440e-01,7.700920e-01,3,0,2.151497e+00,2.151262e+00,1
1.585273e+00,7.864680e-01,7.729530e-01,3,0,1.265972e+00,1.265941e+00,1
1.601790e+00,7.855740e-01,7.719994e-01,3,0,1.227356e+00,1.227316e+00,1

