5.203770e+00,6.121805e+00,4.782200e+00,2,0,0.000000e+00,0.000000e+00
7.803574e+00,1.091274e+00,1.046896e+00,3,0,4.070468e-01,4.070476e-01
7.788316e+00,1.066269e+00,1.032114e+00,3,0,3.423504e+00,3.423509e+00
7.784447e+00,1.069809e+00,1.035929e+00,3,0,1.458942e+00,1.458942e+00
7.783631e+00,1.063051e+00,1.029968e+00,3,0,7.285963e+00,7.285975e+00
7.786333e+00,2.570439e+00,2.537012e+00,3,1,1.023676e+01,1.023646e+01
1.297723e+01,5.827041e+00,5.780935e+00,5,0,1.619528e+01,2.692435e+01
1.597721e+01,4.243224e+00,4.200935e+00,6,2,1.075716e+01,1.074528e+01
1.344638e+01,2.515399e+00,2.477884e+00,5,1,1.013614e+01,1.013444e+01
1.039145e+01,2.502651e+00,2.467871e+00,4,1,1.118375e+01,1.118373e+01
1.037415e+01,2.455561e+00,2.421141e+00,4,1,8.311259e+00,8.311258e+00
7.815179e+00,1.070428e+00,1.035929e+00,3,0,9.693764e+00,9.693769e+00
7.786741e+00,1.080357e+00,1.044989e+00,3,0,1.172259e+01,1.172260e+01
7.788224e+00,2.538550e+00,2.503872e+00,3,1,1.252468e+01,1.252445e+01
1.558122e+01,2.439555e+00,2.404928e+00,6,1,1.107911e+01,1.107080e+01
1.043517e+01,4.468749e+00,4.432917e+00,4,2,1.326566e+01,1.326566e+01
1.299822e+01,4.162611e+00,4.126072e+00,5,2,9.825205e+00,9.824888e+00
7.817165e+00,1.055449e+00,1.019955e+00,3,0,8.319787e+00,8.319784e+00
7.802767e+00,1.109590e+00,1.075029e+00,3,0,8.560873e+00,8.560878e+00
7.833522e+00,1.090321e+00,1.054049e+00,3,0,7.809423e+00,7.809427e+00
7.789114e+00,1.089532e+00,1.055002e+00,3,0,6.359344e+00,6.359345e+00
7.793134e+00,3.033464e+00,2.999067e+00,3,1,7.887366e+00,7.887474e+00
7.794805e+00,2.798892e+00,2.763987e+00,3,1,6.505523e+00,6.505523e+00
7.795262e+00,1.085497e+00,1.051188e+00,3,0,6.303463e+00,6.303465e+00
7.850129e+00,1.081002e+00,1.045942e+00,3,0,8.750322e+00,8.750331e+00
7.790813e+00,1.081745e+00,1.046896e+00,3,0,6.507523e+00,6.507524e+00
7.817237e+00,3.087235e+00,3.052950e+00,3,1,8.068922e+00,8.073124e+00
7.792600e+00,2.818800e+00,2.783060e+00,3,1,6.168495e+00,6.168495e+00
7.814286e+00,1.055641e+00,1.019955e+00,3,0,5.925116e+00,5.925118e+00
7.818563e+00,3.024012e+00,2.990007e+00,3,1,5.186350e+00,5.186468e+00
7.791533e+00,2.788204e+00,2.752781e+00,3,1,4.127045e+00,4.127046e+00
7.793523e+00,1.055407e+00,1.020908e+00,3,0,3.584474e+00,3.584475e+00
7.789556e+00,1.075383e+00,1.039982e+00,3,0,3.904179e+00,3.904181e+00
7.813984e+00,1.084497e+00,1.049995e+00,3,0,3.161355e+00,3.161356e+00
7.821235e+00,1.085447e+00,1.050949e+00,3,0,3.745596e+00,3.745598e+00
7.793775e+00,1.131076e+00,1.091003e+00,3,0,6.812573e+00,6.812565e+00
1.041055e+01,4.985409e+00,4.950047e+00,4,2,6.558680e+00,6.573602e+00
7.822114e+00,4.524542e+00,4.489899e+00,3,2,2.900726e+00,2.900724e+00
7.789987e+00,1.060033e+00,1.024961e+00,3,0,3.771141e+00,3.771144e+00
7.816117e+00,1.080392e+00,1.045942e+00,3,0,4.001110e+00,4.001112e+00
7.787864e+00,1.084970e+00,1.049995e+00,3,0,2.935218e+00,2.935219e+00
7.787405e+00,1.082199e+00,1.047134e+00,3,0,3.376089e+00,3.376091e+00
7.799811e+00,1.082654e+00,1.047850e+00,3,0,4.069921e+00,4.069923e+00
7.825944e+00,1.105248e+00,1.070976e+00,3,0,3.231136e+00,3.231136e+00
7.866388e+00,1.089890e+00,1.049995e+00,3,0,3.185887e+00,3.185888e+00
7.790601e+00,1.120979e+00,1.085997e+00,3,0,4.980608e+00,4.980611e+00
7.814450e+00,1.101109e+00,1.066923e+00,3,0,5.143606e+00,5.143608e+00
7.791725e+00,4.828218e+00,4.794121e+00,3,2,9.389155e+00,9.391782e+00
1.299721e+01,4.207376e+00,4.172087e+00,5,2,7.706337e+00,7.705916e+00
1.038401e+01,1.064835e+00,1.030207e+00,4,0,8.761847e+00,8.761842e+00
7.792291e+00,1.084347e+00,1.049995e+00,3,0,6.864850e+00,6.864851e+00
7.793231e+00,1.085555e+00,1.052141e+00,3,0,7.522539e+00,7.522542e+00
7.816540e+00,1.084480e+00,1.049995e+00,3,0,5.318289e+00,5.318289e+00
7.782658e+00,1.086198e+00,1.052141e+00,3,0,3.926172e+00,3.926172e+00
7.808045e+00,1.107815e+00,1.074076e+00,3,0,4.170482e+00,4.170484e+00
7.791684e+00,1.089773e+00,1.048803e+00,3,0,5.029899e+00,5.029902e+00
7.821241e+00,1.082503e+00,1.046896e+00,3,0,6.099540e+00,6.099544e+00
7.792324e+00,1.085068e+00,1.050949e+00,3,0,5.314061e+00,5.314062e+00
7.807088e+00,5.884564e+00,5.837917e+00,3,0,9.450452e+00,1.517699e+01
1.038143e+01,1.080692e+00,1.044989e+00,4,0,6.439910e+00,6.439798e+00
7.791728e+00,1.086709e+00,1.052141e+00,3,0,4.789646e+00,4.789645e+00
7.793014e+00,1.083174e+00,1.048088e+00,3,0,5.770274e+00,5.770278e+00
7.819242e+00,1.082143e+00,1.048088e+00,3,0,5.213998e+00,5.214001e+00
7.793724e+00,1.084736e+00,1.049995e+00,3,0,3.990134e+00,3.990135e+00
7.841607e+00,1.082635e+00,1.047850e+00,3,0,5.576593e+00,5.576597e+00
7.791212e+00,1.085304e+00,1.049995e+00,3,0,7.378293e+00,7.378297e+00
7.817235e+00,1.082559e+00,1.049042e+00,3,0,6.111471e+00,6.111471e+00
7.798641e+00,1.084853e+00,1.050949e+00,3,0,4.640739e+00,4.640740e+00
7.822620e+00,1.083424e+00,1.049042e+00,3,0,3.509947e+00,3.509947e+00
7.824706e+00,1.099653e+00,1.057863e+00,3,0,3.778879e+00,3.778883e+00
7.790212e+00,1.085633e+00,1.050949e+00,3,0,6.434913e+00,6.434919e+00
7.785081e+00,1.080973e+00,1.047134e+00,3,0,3.741071e+00,3.741071e+00
7.832771e+00,1.107151e+01,1.102543e+01,3,2,1.043546e+01,1.237431e+01
1.045786e+01,4.523177e+00,4.487038e+00,4,2,6.312153e+00,6.312137e+00
7.829690e+00,1.061777e+00,1.026869e+00,3,0,3.409840e+00,3.409844e+00
7.812814e+00,1.082842e+00,1.048088e+00,3,0,3.090529e+00,3.090530e+00
7.792107e+00,1.092523e+00,1.051903e+00,3,0,3.327250e+00,3.327253e+00
7.815897e+00,1.081536e+00,1.047134e+00,3,0,4.711013e+00,4.711016e+00
7.819468e+00,5.853099e+00,5.806923e+00,3,0,9.787892e+00,1.096392e+01
7.791079e+00,5.835534e+00,5.788088e+00,3,0,1.505501e+01,2.632400e+01
1.557720e+01,5.835255e+00,5.789042e+00,6,0,1.845766e+01,3.915802e+01
1.589347e+01,5.478054e+00,5.441904e+00,6,3,1.086966e+01,1.084094e+01
1.337331e+01,5.517944e+00,5.470991e+00,5,3,7.168128e+00,7.167465e+00
8.022468e+00,1.115580e+00,1.077890e+00,3,0,5.721198e+00,5.721201e+00
8.025477e+00,3.125552e+00,3.088951e+00,3,1,7.331471e+00,7.333655e+00
8.022866e+00,4.878970e+00,4.843950e+00,3,2,7.004662e+00,7.018339e+00
8.059023e+00,1.733716e+01,1.730013e+01,3,8,7.962024e+00,8.065009e+00
1.572223e+01,1.525647e+01,1.521897e+01,6,7,8.753766e+00,9.041197e+00
1.040062e+01,1.549986e+01,1.546407e+01,4,8,9.156999e+00,9.301491e+00
1.556024e+01,1.710558e+01,1.706886e+01,6,9,8.170865e+00,8.199936e+00
1.038364e+01,6.258514e+00,6.222963e+00,4,3,4.648765e+00,4.648765e+00
7.850340e+00,1.055069e+00,1.019955e+00,3,0,4.025562e+00,4.025563e+00
7.799552e+00,1.081161e+00,1.044989e+00,3,0,4.224130e+00,4.224135e+00
7.821693e+00,1.087136e+00,1.052856e+00,3,0,3.485613e+00,3.485613e+00
7.791462e+00,1.084449e+00,1.049042e+00,3,0,3.054360e+00,3.054363e+00
7.818156e+00,1.090157e+00,1.056194e+00,3,0,3.120946e+00,3.120947e+00
7.818306e+00,1.086783e+00,1.051903e+00,3,0,4.386915e+00,4.386919e+00
7.793587e+00,9.237791e+00,9.192944e+00,3,1,8.367602e+00,1.133388e+01
7.793572e+00,2.797531e+00,2.761841e+00,3,1,4.316527e+00,4.316522e+00
7.813220e+00,1.057313e+00,1.022100e+00,3,0,3.701703e+00,3.701703e+00
7.787263e+00,1.081165e+00,1.045942e+00,3,0,3.814980e+00,3.814982e+00
7.816066e+00,2.557932e+00,2.522945e+00,3,1,5.102444e+00,5.102174e+00
1.298725e+01,2.451213e+00,2.416134e+00,5,1,4.802891e+00,4.801687e+00
7.815908e+00,1.066916e+00,1.030922e+00,3,0,3.627008e+00,3.627002e+00
7.828321e+00,1.099379e+00,1.064062e+00,3,0,3.355713e+00,3.355714e+00
7.838609e+00,1.098440e+00,1.063108e+00,3,0,3.231239e+00,3.231240e+00
7.818877e+00,1.162180e+00,1.121998e+00,3,0,2.504124e+00,2.504124e+00
7.807088e+00,2.755364e+00,2.713919e+00,3,1,5.121914e+00,5.121740e+00
1.040283e+01,2.479194e+00,2.440929e+00,4,1,1.345103e+00,1.345101e+00
7.798834e+00,1.103379e+00,1.067877e+00,3,0,2.157579e+00,2.157581e+00
7.867419e+00,1.113771e+00,1.071930e+00,3,0,2.293964e+00,2.293965e+00
7.790040e+00,1.108481e+00,1.073122e+00,3,0,1.289935e+00,1.289936e+00
7.813135e+00,1.095038e+00,1.052141e+00,3,0,2.829945e+00,2.829948e+00
7.795060e+00,1.086128e+00,1.051903e+00,3,0,1.905405e+00,1.905405e+00
7.816012e+00,1.084831e+00,1.051188e+00,3,0,2.224197e+00,2.224200e+00
7.788442e+00,1.085335e+00,1.050949e+00,3,0,1.612458e+00,1.612459e+00
7.783377e+00,1.109949e+00,1.075983e+00,3,0,2.582753e+00,2.582756e+00
7.786299e+00,1.081291e+00,1.047134e+00,3,0,1.012870e+00,1.012870e+00
7.788127e+00,1.104851e+00,1.070976e+00,3,0,1.336611e+00,1.336612e+00
7.796141e+00,1.086102e+00,1.050949e+00,3,0,1.263732e+00,1.263733e+00
7.797590e+00,1.111000e+00,1.075983e+00,3,0,1.518464e+00,1.518465e+00
7.891727e+00,1.085867e+00,1.051903e+00,3,0,2.380322e+00,2.380324e+00
7.793141e+00,1.103770e+00,1.068830e+00,3,0,1.718206e+00,1.718206e+00
7.814612e+00,1.089035e+00,1.055002e+00,3,0,1.908265e+00,1.908269e+00
7.783667e+00,1.096201e+00,1.061916e+00,3,0,1.182769e+00,1.182769e+00
7.816262e+00,1.085971e+00,1.052141e+00,3,0,2.453155e+00,2.453158e+00
7.788984e+00,1.087098e+00,1.052856e+00,3,0,1.637074e+00,1.637075e+00
7.785780e+00,1.109945e+00,1.076221e+00,3,0,2.801304e+00,2.801306e+00
7.786278e+00,1.085008e+00,1.050949e+00,3,0,2.823111e+00,2.823112e+00
7.786956e+00,1.102486e+00,1.067877e+00,3,0,1.393169e+00,1.393169e+00
7.819665e+00,1.083501e+00,1.048803e+00,3,0,2.063328e+00,2.063330e+00
7.799803e+00,1.121059e+00,1.085997e+00,3,0,1.982568e+00,1.982572e+00
7.849890e+00,1.085686e+00,1.051188e+00,3,0,1.427875e+00,1.427876e+00
7.790206e+00,1.086583e+00,1.052141e+00,3,0,2.184846e+00,2.184848e+00
7.817808e+00,1.108154e+00,1.068115e+00,3,0,3.328849e+00,3.328852e+00
7.792280e+00,1.085840e+00,1.050949e+00,3,0,2.513959e+00,2.513960e+00
7.817907e+00,1.085327e+00,1.050949e+00,3,0,3.022914e+00,3.022917e+00
7.804925e+00,1.084590e+00,1.049995e+00,3,0,1.655121e+00,1.655122e+00
7.789017e+00,1.098855e+00,1.053095e+00,3,0,1.475160e+00,1.475161e+00
7.785758e+00,1.083070e+00,1.047850e+00,3,0,1.245425e+00,1.245426e+00
7.789788e+00,1.081324e+00,1.048088e+00,3,0,1.129816e+00,1.129816e+00
7.785466e+00,1.085265e+00,1.051188e+00,3,0,1.194333e+00,1.194334e+00
7.820953e+00,1.117094e+00,1.081944e+00,3,0,3.216322e+00,3.216328e+00
7.831287e+00,1.158066e+00,1.118898e+00,3,0,3.552636e+00,3.552638e+00
7.793958e+00,1.123117e+00,1.087189e+00,3,0,3.289432e+00,3.289433e+00
7.792872e+00,1.073829e+00,1.040220e+00,3,0,3.362077e+00,3.362080e+00
7.854736e+00,1.070678e+00,1.038074e+00,3,0,7.487700e+00,7.487708e+00
1.046231e+01,6.095319e+01,6.090665e+01,4,28,1.773469e+01,2.006762e+01
1.302958e+01,4.459017e+01,4.455209e+01,5,25,1.242521e+01,1.247008e+01
7.795737e+00,6.602458e+00,6.564856e+00,3,3,1.109375e+01,1.110178e+01
7.825394e+00,4.515068e+00,4.480124e+00,3,2,1.051437e+01,1.051436e+01
7.857706e+00,7.462152e+00,7.426977e+00,3,4,1.240660e+01,1.240198e+01
1.040551e+01,5.862576e+00,5.825996e+00,4,3,8.204367e+00,8.203150e+00
1.819327e+01,1.067988e+00,1.031876e+00,7,0,1.004536e+01,1.004127e+01
1.564461e+01,2.484493e+00,2.449036e+00,6,1,8.798899e+00,8.780186e+00
1.037488e+01,1.066409e+00,1.031160e+00,4,0,6.911465e+00,6.911465e+00
7.792455e+00,1.079702e+00,1.044035e+00,3,0,6.219436e+00,6.219438e+00
7.826772e+00,1.089723e+00,1.055956e+00,3,0,5.562947e+00,5.562948e+00
7.824172e+00,1.089066e+00,1.054049e+00,3,0,5.757912e+00,5.757914e+00
7.843563e+00,1.089284e+00,1.053810e+00,3,0,5.017952e+00,5.017954e+00
7.789543e+00,1.085717e+00,1.050949e+00,3,0,4.717320e+00,4.717322e+00
7.817569e+00,1.086007e+00,1.050949e+00,3,0,4.952129e+00,4.952132e+00
7.797740e+00,1.087551e+00,1.052856e+00,3,0,4.122417e+00,4.122418e+00
7.810900e+00,1.084670e+00,1.049995e+00,3,0,3.172286e+00,3.172287e+00
7.844446e+00,1.101593e+00,1.066923e+00,3,0,3.122303e+00,3.122305e+00
7.791912e+00,1.086700e+00,1.051903e+00,3,0,2.117210e+00,2.117210e+00
7.790771e+00,1.085071e+00,1.049995e+00,3,0,2.362493e+00,2.362495e+00
7.792168e+00,1.084399e+00,1.049042e+00,3,0,3.441558e+00,3.441560e+00
7.822657e+00,1.084581e+00,1.049995e+00,3,0,7.060754e+00,7.060761e+00
7.988261e+00,1.076321e+00,1.042128e+00,3,0,4.654707e+00,4.654707e+00
7.782847e+00,1.091001e+00,1.056910e+00,3,0,4.036364e+00,4.036365e+00
7.779456e+00,1.065792e+00,1.031876e+00,3,0,3.752037e+00,3.752038e+00
7.787087e+00,1.062027e+00,1.027822e+00,3,0,3.719243e+00,3.719244e+00
7.789161e+00,1.059261e+00,1.025915e+00,3,0,2.645465e+00,2.645466e+00
7.797270e+00,1.067449e+00,1.034021e+00,3,0,3.141928e+00,3.141930e+00
7.788187e+00,1.059171e+00,1.025915e+00,3,0,2.165333e+00,2.165333e+00
7.786595e+00,1.059552e+00,1.025915e+00,3,0,1.852774e+00,1.852775e+00
7.794821e+00,1.056712e+00,1.024008e+00,3,0,2.807660e+00,2.807663e+00
7.787473e+00,1.059912e+00,1.027107e+00,3,0,2.617049e+00,2.617050e+00
7.816081e+00,1.058866e+00,1.024961e+00,3,0,3.110075e+00,3.110077e+00
7.787348e+00,1.072121e+00,1.038074e+00,3,0,1.571120e+00,1.571122e+00
7.843323e+00,1.080491e+00,1.046181e+00,3,0,1.840887e+00,1.840889e+00
7.786226e+00,1.084800e+00,1.050949e+00,3,0,1.360518e+00,1.360518e+00
7.816940e+00,1.092666e+00,1.057863e+00,3,0,2.018465e+00,2.018467e+00
7.787647e+00,1.085646e+00,1.050949e+00,3,0,3.031602e+00,3.031605e+00
7.817550e+00,1.086364e+00,1.052141e+00,3,0,2.660980e+00,2.660981e+00
7.819806e+00,1.084574e+00,1.049995e+00,3,0,4.484069e+00,4.484073e+00
7.794356e+00,1.089295e+00,1.053810e+00,3,0,5.399773e+00,5.399773e+00
7.790129e+00,1.085729e+00,1.050949e+00,3,0,7.257499e+00,7.257504e+00
7.789069e+00,1.086205e+00,1.051903e+00,3,0,9.576979e+00,9.576984e+00
7.814027e+00,1.086189e+00,1.051903e+00,3,0,9.792848e+00,9.792851e+00
7.786202e+00,1.087713e+00,1.053095e+00,3,0,8.357609e+00,8.357609e+00
7.837977e+00,1.090964e+00,1.055956e+00,3,0,8.488799e+00,8.488801e+00
7.786551e+00,1.086292e+00,1.052141e+00,3,0,8.890579e+00,8.890581e+00
7.813067e+00,1.083672e+00,1.049042e+00,3,0,6.513690e+00,6.513689e+00
7.807888e+00,1.085593e+00,1.051188e+00,3,0,6.257120e+00,6.257122e+00
7.834754e+00,1.086042e+00,1.050949e+00,3,0,8.769458e+00,8.769464e+00
7.842616e+00,1.089281e+00,1.055002e+00,3,0,6.989170e+00,6.989172e+00
7.789172e+00,1.086859e+00,1.053095e+00,3,0,5.992672e+00,5.992673e+00
7.786933e+00,1.087302e+00,1.051903e+00,3,0,7.584101e+00,7.584105e+00
7.823746e+00,1.090204e+00,1.056910e+00,3,0,5.442398e+00,5.442398e+00
7.836887e+00,1.317401e+01,1.313901e+01,3,6,9.580337e+00,9.692056e+00
1.301610e+01,1.523085e+01,1.519513e+01,5,8,6.550942e+00,6.548090e+00
1.041879e+01,3.153112e+00,3.118038e+00,4,1,6.732998e+00,6.733275e+00
7.824248e+00,2.797550e+00,2.762079e+00,3,1,3.758397e+00,3.758396e+00
7.792795e+00,1.055534e+00,1.019955e+00,3,0,3.783983e+00,3.783986e+00
7.795074e+00,1.081792e+00,1.046896e+00,3,0,5.603585e+00,5.603590e+00
7.794560e+00,1.086872e+00,1.051903e+00,3,0,4.120781e+00,4.120782e+00
7.813606e+00,1.086123e+00,1.050949e+00,3,0,3.792775e+00,3.792776e+00
7.791323e+00,1.085106e+00,1.050949e+00,3,0,2.960068e+00,2.960070e+00
7.823573e+00,1.113490e+00,1.079082e+00,3,0,2.420607e+00,2.420608e+00
7.803586e+00,1.137945e+00,1.100063e+00,3,0,4.355132e+00,4.355136e+00
8.010769e+00,1.192881e+00,1.152992e+00,3,0,4.227228e+00,4.227229e+00
8.053010e+00,1.164054e+00,1.127005e+00,3,0,4.558848e+00,4.558851e+00
8.023164e+00,3.303447e+00,3.268003e+00,3,1,8.705135e+00,8.705211e+00
1.072344e+01,2.480389e+01,2.476811e+01,4,12,1.260189e+01,1.264884e+01
1.040639e+01,2.287778e+01,2.284002e+01,4,12,1.034829e+01,1.035462e+01
1.038744e+01,2.827392e+00,2.791166e+00,4,1,8.934704e+00,8.934700e+00
7.818206e+00,1.053314e+00,1.018047e+00,3,0,6.426256e+00,6.426255e+00
7.803405e+00,1.083940e+00,1.047850e+00,3,0,6.109816e+00,6.109821e+00
7.788391e+00,1.103507e+00,1.068115e+00,3,0,6.040341e+00,6.040343e+00
7.787161e+00,1.092714e+00,1.058102e+00,3,0,3.643158e+00,3.643157e+00
7.794115e+00,1.095486e+00,1.060963e+00,3,0,4.239351e+00,4.239354e+00
7.792210e+00,1.085679e+00,1.050949e+00,3,0,2.521096e+00,2.521095e+00
7.815079e+00,1.087871e+00,1.054049e+00,3,0,3.602924e+00,3.602927e+00
7.843028e+00,1.085192e+00,1.050949e+00,3,0,5.002873e+00,5.002878e+00
7.793344e+00,1.085862e+00,1.051903e+00,3,0,5.410984e+00,5.410987e+00
7.822629e+00,1.087948e+00,1.054049e+00,3,0,2.855058e+00,2.855058e+00
7.783193e+00,1.083860e+00,1.049042e+00,3,0,3.584300e+00,3.584303e+00
7.810865e+00,1.088787e+00,1.054049e+00,3,0,4.440618e+00,4.440620e+00
7.798376e+00,1.483881e+01,1.479220e+01,3,4,1.137566e+01,2.078283e+01
1.556517e+01,7.579161e+00,7.530928e+00,6,0,1.848038e+01,4.505038e+01
1.562064e+01,7.592903e+00,7.546425e+00,6,0,2.053787e+01,5.142852e+01
1.559420e+01,7.575134e+00,7.528067e+00,6,0,1.955666e+01,3.995700e+01
1.560069e+01,7.607748e+00,7.552147e+00,6,0,2.668536e+01,6.365804e+01
1.567361e+01,7.577995e+00,7.530928e+00,6,0,3.513574e+01,8.440891e+01
1.603972e+01,1.419018e+01,1.413107e+01,6,5,3.354108e+01,6.033454e+01
1.558667e+01,1.505020e+01,1.500201e+01,6,4,3.010417e+01,4.376968e+01
1.298038e+01,9.316135e+00,9.270430e+00,5,1,2.705755e+01,2.853058e+01
1.559730e+01,1.669178e+01,1.665592e+01,6,9,2.087356e+01,2.085027e+01
1.297381e+01,6.991286e+00,6.955147e+00,5,3,2.548040e+01,2.553289e+01
1.300718e+01,1.035187e+01,1.031613e+01,5,5,1.911248e+01,1.910143e+01
1.042540e+01,3.536459e+00,3.499985e+00,4,1,1.863627e+01,1.863771e+01
7.794881e+00,4.526256e+00,4.489899e+00,3,2,1.607243e+01,1.607243e+01
7.786272e+00,1.057437e+00,1.022100e+00,3,0,1.400962e+01,1.400962e+01
7.806073e+00,1.081745e+00,1.046896e+00,3,0,1.152863e+01,1.152863e+01
7.828336e+00,1.096747e+00,1.060963e+00,3,0,1.103142e+01,1.103143e+01
8.038477e+00,1.093727e+00,1.059055e+00,3,0,9.618647e+00,9.618649e+00
7.787281e+00,1.104572e+00,1.068830e+00,3,0,9.389752e+00,9.389757e+00
7.794316e+00,9.394782e+00,9.360075e+00,3,4,8.640542e+00,8.672324e+00
7.828743e+00,1.764843e+01,1.760125e+01,3,5,9.502618e+00,1.349931e+01
7.862307e+00,1.317886e+01,1.314306e+01,3,7,5.817836e+00,5.817835e+00
7.800620e+00,1.309585e+01,1.305389e+01,3,6,7.572778e+00,7.603685e+00
8.049653e+00,2.831105e+01,2.826214e+01,3,10,9.432679e+00,1.479248e+01
1.069675e+01,1.956315e+01,1.951504e+01,4,10,6.946953e+00,7.018696e+00
8.031733e+00,1.236130e+01,1.232481e+01,3,6,6.361363e+00,6.383517e+00
8.028100e+00,4.653570e+00,4.616976e+00,3,2,3.983902e+00,3.983901e+00
7.846461e+00,1.086705e+00,1.050949e+00,3,0,4.487847e+00,4.487850e+00
7.822471e+00,7.042715e+00,7.007122e+00,3,3,6.516197e+00,6.533843e+00
7.851791e+00,8.731873e+00,8.690119e+00,3,4,6.422544e+00,6.424538e+00
1.819577e+01,4.548116e+00,4.511833e+00,7,2,7.120249e+00,7.115230e+00
1.299607e+01,1.704606e+01,1.700997e+01,5,8,1.224714e+01,1.232313e+01
1.045099e+01,1.766276e+01,1.761794e+01,4,9,9.744015e+00,9.777753e+00
7.861495e+00,4.517315e+00,4.482031e+00,3,2,6.285179e+00,6.285179e+00
7.818800e+00,1.066724e+00,1.025915e+00,3,0,6.481942e+00,6.481945e+00
7.819860e+00,1.081831e+00,1.046896e+00,3,0,6.906937e+00,6.906940e+00
7.801984e+00,1.089221e+00,1.054049e+00,3,0,5.182012e+00,5.182014e+00
7.799066e+00,1.088284e+00,1.054049e+00,3,0,7.229290e+00,7.229296e+00
7.792680e+00,1.086035e+00,1.052141e+00,3,0,7.783311e+00,7.783314e+00
7.823468e+00,5.896594e+00,5.852222e+00,3,0,9.611301e+00,1.276930e+01
1.561893e+01,3.976866e+00,3.941059e+00,6,2,8.347257e+00,8.343884e+00
1.562701e+01,3.018640e+00,2.984047e+00,6,1,9.763705e+00,9.759178e+00
1.562920e+01,5.117375e+00,5.080938e+00,6,2,1.149424e+01,1.148539e+01
1.558433e+01,5.910289e+00,5.874872e+00,6,3,7.354399e+00,7.349934e+00
7.808757e+00,2.564950e+00,2.530098e+00,3,1,7.987555e+00,7.987306e+00
1.039793e+01,2.460478e+00,2.424955e+00,4,1,6.967029e+00,6.967030e+00
7.842391e+00,1.058947e+00,1.024008e+00,3,0,7.219024e+00,7.219028e+00
7.797712e+00,1.086841e+00,1.050949e+00,3,0,3.901266e+00,3.901265e+00
7.813276e+00,1.085923e+00,1.050949e+00,3,0,2.647027e+00,2.647027e+00
7.794076e+00,1.091032e+00,1.056910e+00,3,0,7.090244e+00,7.090254e+00
7.848426e+00,1.335901e+01,1.332402e+01,3,6,7.185023e+00,7.378555e+00
7.806509e+00,1.431916e+01,1.428413e+01,3,7,7.497579e+00,7.640804e+00
7.829703e+00,4.875195e+00,4.839182e+00,3,2,6.614800e+00,6.674422e+00
7.830332e+00,8.661379e+00,8.625984e+00,3,4,4.405262e+00,4.405616e+00
7.806822e+00,1.309252e+01,1.305604e+01,3,6,8.238786e+00,8.269102e+00
1.560401e+01,1.315377e+01,1.311803e+01,6,7,4.218592e+00,4.214464e+00
7.797533e+00,1.067100e+00,1.031160e+00,3,0,2.093816e+00,2.093769e+00
7.795593e+00,1.091896e+00,1.057148e+00,3,0,2.871366e+00,2.871368e+00
7.855179e+00,1.088514e+00,1.054049e+00,3,0,2.642895e+00,2.642896e+00
7.856431e+00,1.085248e+00,1.049995e+00,3,0,5.001376e+00,5.001382e+00
7.848711e+00,1.070398e+00,1.035929e+00,3,0,6.997792e+00,6.997797e+00
7.787543e+00,1.067774e+00,1.034975e+00,3,0,9.294704e+00,9.294709e+00
7.789313e+00,1.065327e+00,1.031876e+00,3,0,9.177838e+00,9.177840e+00
7.808076e+00,8.711235e+00,8.677959e+00,3,4,1.393316e+01,1.393679e+01
1.817534e+01,3.726895e+01,3.722239e+01,7,15,2.204738e+01,3.223604e+01
1.041411e+01,3.737964e+01,3.734398e+01,4,21,1.317813e+01,1.317812e+01
7.799463e+00,1.708902e+01,1.705194e+01,3,8,1.495938e+01,1.499934e+01
1.041726e+01,1.859474e+01,1.855898e+01,4,10,9.200939e+00,9.200937e+00
7.848415e+00,1.066516e+00,1.030922e+00,3,0,6.582210e+00,6.582210e+00
7.792924e+00,1.089744e+00,1.053810e+00,3,0,6.926063e+00,6.926067e+00
7.832219e+00,1.092846e+00,1.058102e+00,3,0,7.765247e+00,7.765252e+00
7.812730e+00,1.159236e+00,1.120090e+00,3,0,6.440277e+00,6.440278e+00
8.045344e+00,1.188136e+00,1.147032e+00,3,0,1.020339e+01,1.020340e+01
8.054486e+00,1.164686e+00,1.126051e+00,3,0,7.979184e+00,7.979185e+00
8.029023e+00,1.156185e+00,1.121044e+00,3,0,8.212308e+00,8.212310e+00
8.016820e+00,1.131893e+00,1.096010e+00,3,0,1.001648e+01,1.001649e+01
8.021479e+00,1.124356e+00,1.088858e+00,3,0,8.569782e+00,8.569783e+00
8.045563e+00,6.066470e+00,6.018877e+00,3,0,9.403364e+00,1.445357e+01
1.088881e+01,6.848890e+00,6.811857e+00,4,3,9.170144e+00,9.189712e+00
1.069155e+01,6.466332e+00,6.428957e+00,4,3,6.433836e+00,6.433680e+00
8.018832e+00,1.095701e+00,1.059055e+00,3,0,5.174740e+00,5.174741e+00
8.021467e+00,1.135340e+00,1.094103e+00,3,0,5.371955e+00,5.371959e+00
8.026439e+00,1.125045e+00,1.088858e+00,3,0,6.927135e+00,6.927139e+00
8.021734e+00,1.116865e+00,1.080990e+00,3,0,9.229749e+00,9.229756e+00
8.023364e+00,1.120767e+00,1.084805e+00,3,0,8.118245e+00,8.118247e+00
8.017557e+00,1.119014e+00,1.083136e+00,3,0,9.262127e+00,9.262132e+00
8.020464e+00,1.117131e+00,1.082182e+00,3,0,6.691085e+00,6.691084e+00
7.946455e+00,1.120807e+00,1.085997e+00,3,0,6.799885e+00,6.799887e+00
7.791324e+00,1.107390e+00,1.073122e+00,3,0,7.600898e+00,7.600902e+00
7.817909e+00,1.086245e+00,1.051903e+00,3,0,5.741466e+00,5.741466e+00
7.784250e+00,1.086178e+00,1.052141e+00,3,0,3.875195e+00,3.875195e+00
7.813269e+00,1.093450e+00,1.059055e+00,3,0,4.244615e+00,4.244617e+00
7.793521e+00,1.101057e+00,1.065969e+00,3,0,4.071279e+00,4.071280e+00
7.791084e+00,1.111590e+00,1.076937e+00,3,0,2.455370e+00,2.455371e+00
7.786735e+00,1.086451e+00,1.053095e+00,3,0,4.407979e+00,4.407985e+00
7.785864e+00,1.086119e+00,1.052141e+00,3,0,5.069102e+00,5.069105e+00
7.787358e+00,1.082837e+00,1.049042e+00,3,0,2.417163e+00,2.417164e+00
7.787771e+00,1.087771e+00,1.054049e+00,3,0,4.262123e+00,4.262127e+00
7.830883e+00,1.086219e+00,1.051903e+00,3,0,2.212952e+00,2.212954e+00
7.783792e+00,1.089199e+00,1.054049e+00,3,0,2.714099e+00,2.714101e+00
7.814119e+00,1.092793e+00,1.059055e+00,3,0,3.141100e+00,3.141102e+00
7.787192e+00,1.089001e+00,1.055002e+00,3,0,4.291631e+00,4.291634e+00
7.838895e+00,1.086998e+00,1.051903e+00,3,0,7.380135e+00,7.380141e+00
7.819550e+00,1.091032e+00,1.057148e+00,3,0,6.560962e+00,6.560963e+00
7.793385e+00,1.113423e+00,1.078844e+00,3,0,6.755941e+00,6.755946e+00
7.792118e+00,1.091868e+00,1.056910e+00,3,0,1.076825e+01,1.076826e+01
7.811928e+00,1.088509e+00,1.054049e+00,3,0,8.786407e+00,8.786408e+00
7.825704e+00,1.102432e+00,1.067877e+00,3,0,7.296689e+00,7.296691e+00
8.090503e+00,5.439593e+00,5.398035e+00,3,2,5.654985e+00,5.657056e+00
8.051418e+00,1.356332e+01,1.352310e+01,3,6,5.915976e+00,5.965073e+00
8.029483e+00,8.220687e+00,8.183002e+00,3,4,3.405842e+00,3.405843e+00
8.019989e+00,1.104868e+00,1.060009e+00,3,0,3.080670e+00,3.080671e+00
8.023267e+00,1.117701e+00,1.081228e+00,3,0,3.297949e+00,3.297953e+00
8.019014e+00,1.126718e+00,1.091003e+00,3,0,4.960459e+00,4.960463e+00
8.022414e+00,4.129248e+00,4.092932e+00,3,2,5.988361e+00,5.984841e+00
1.601015e+01,2.543131e+00,2.506971e+00,6,1,5.584094e+00,5.568227e+00
1.040202e+01,2.524626e+00,2.488136e+00,4,1,4.057078e+00,4.057080e+00
7.817764e+00,1.070286e+00,1.034975e+00,3,0,4.466083e+00,4.466085e+00
7.785605e+00,1.089323e+00,1.054049e+00,3,0,4.647781e+00,4.647783e+00
7.811500e+00,1.084445e+00,1.049995e+00,3,0,3.007960e+00,3.007960e+00
7.789808e+00,1.094264e+00,1.059055e+00,3,0,2.441618e+00,2.441620e+00
7.815485e+00,1.085432e+00,1.050949e+00,3,0,4.552666e+00,4.552671e+00
7.786847e+00,1.093127e+00,1.058102e+00,3,0,4.818522e+00,4.818524e+00
7.787019e+00,1.085812e+00,1.050949e+00,3,0,2.830220e+00,2.830220e+00
7.810943e+00,1.089980e+00,1.055956e+00,3,0,3.958707e+00,3.958711e+00
7.826971e+00,1.097849e+00,1.064062e+00,3,0,4.867339e+00,4.867342e+00
7.860045e+00,1.087719e+00,1.052856e+00,3,0,2.630573e+00,2.630573e+00
7.811937e+00,1.089868e+00,1.055002e+00,3,0,3.787288e+00,3.787291e+00
7.814579e+00,1.092614e+00,1.057863e+00,3,0,4.885635e+00,4.885638e+00
7.791472e+00,1.086975e+00,1.053095e+00,3,0,3.415063e+00,3.415063e+00
7.816832e+00,1.089778e+00,1.055002e+00,3,0,2.990535e+00,2.990536e+00
7.792119e+00,1.104920e+00,1.070023e+00,3,0,4.854352e+00,4.854357e+00
7.797226e+00,9.330096e+00,9.296179e+00,3,4,8.145144e+00,8.147471e+00
7.798880e+00,1.088093e+01,1.084590e+01,3,6,6.913028e+00,6.912453e+00
1.562571e+01,2.508833e+00,2.473116e+00,6,1,7.708126e+00,7.701455e+00
1.299685e+01,5.190959e+00,5.156040e+00,5,3,7.889297e+00,7.878896e+00
1.050407e+01,1.168227e+00,1.127958e+00,4,0,5.641474e+00,5.641472e+00
8.050896e+00,1.225401e+00,1.184940e+00,3,0,4.508966e+00,4.508967e+00
8.018916e+00,1.165198e+00,1.127958e+00,3,0,4.883436e+00,4.883438e+00
8.024713e+00,1.128963e+00,1.092911e+00,3,0,4.896720e+00,4.896722e+00
8.016516e+00,1.127226e+00,1.091957e+00,3,0,5.510781e+00,5.510784e+00
8.016421e+00,1.128096e+00,1.092911e+00,3,0,7.073906e+00,7.073910e+00
8.018053e+00,1.123936e+00,1.089096e+00,3,0,7.777408e+00,7.777413e+00
8.016983e+00,1.120007e+00,1.085043e+00,3,0,5.735569e+00,5.735569e+00
8.017008e+00,1.116992e+00,1.081944e+00,3,0,6.048980e+00,6.048983e+00
8.017554e+00,1.121778e+00,1.087189e+00,3,0,5.241553e+00,5.241554e+00
8.017692e+00,1.127976e+00,1.086950e+00,3,0,4.759398e+00,4.759400e+00
8.034970e+00,1.119857e+00,1.084805e+00,3,0,7.158670e+00,7.158675e+00
8.031468e+00,1.126114e+00,1.091003e+00,3,0,5.511499e+00,5.511499e+00
8.031886e+00,1.120712e+00,1.084805e+00,3,0,2.933416e+00,2.933415e+00
8.022111e+00,1.135988e+00,1.101017e+00,3,0,2.212940e+00,2.212940e+00
8.020407e+00,2.618831e+00,2.583981e+00,3,1,2.848507e+00,2.848458e+00
1.068372e+01,2.530122e+00,2.494097e+00,4,1,1.978365e+00,1.978367e+00
8.021945e+00,1.098858e+00,1.063824e+00,3,0,1.913224e+00,1.913225e+00
7.865443e+00,1.117490e+00,1.081944e+00,3,0,2.512312e+00,2.512314e+00
7.784100e+00,1.091024e+00,1.055956e+00,3,0,2.102711e+00,2.102712e+00
7.813508e+00,1.084901e+00,1.050949e+00,3,0,1.944869e+00,1.944870e+00
7.786906e+00,1.090806e+00,1.055956e+00,3,0,1.854182e+00,1.854183e+00
7.833500e+00,1.085924e+00,1.051903e+00,3,0,2.988472e+00,2.988475e+00
7.845104e+00,1.160836e+00,1.126051e+00,3,0,2.367161e+00,2.367162e+00
7.844263e+00,1.088945e+00,1.055002e+00,3,0,3.098663e+00,3.098667e+00
7.788778e+00,1.093690e+00,1.059055e+00,3,0,6.685355e+00,6.685362e+00
7.783160e+00,1.091175e+00,1.056910e+00,3,0,9.523960e+00,9.523966e+00
7.808463e+00,1.137498e+01,1.133990e+01,3,6,1.532926e+01,1.532593e+01
1.041679e+01,1.040177e+01,1.036596e+01,4,6,7.101859e+00,7.101625e+00
7.796403e+00,1.074411e+00,1.039028e+00,3,0,7.057865e+00,7.057778e+00
7.816476e+00,1.091189e+00,1.055956e+00,3,0,8.305964e+00,8.305971e+00
7.796664e+00,1.110127e+00,1.075029e+00,3,0,7.063375e+00,7.063375e+00
7.829561e+00,1.088401e+00,1.054049e+00,3,0,5.613420e+00,5.613420e+00
7.792392e+00,1.092900e+00,1.057863e+00,3,0,4.718602e+00,4.718604e+00
7.792767e+00,1.129997e+00,1.096010e+00,3,0,4.100934e+00,4.100936e+00
7.805896e+00,1.088326e+00,1.055002e+00,3,0,5.575218e+00,5.575222e+00
7.815690e+00,5.306036e+00,5.270958e+00,3,2,5.111929e+00,5.111971e+00
7.978842e+00,9.782993e+00,9.747982e+00,3,4,7.745328e+00,7.801025e+00
7.806683e+00,2.237055e+01,2.233481e+01,3,11,9.535125e+00,9.619812e+00
1.556123e+01,1.681387e+01,1.676583e+01,6,5,1.101009e+01,1.287166e+01
1.562429e+01,7.553022e+00,7.504940e+00,6,0,1.764770e+01,3.864522e+01
1.050867e+01,2.548658e+01,2.545118e+01,4,14,8.107387e+00,8.107221e+00
7.811917e+00,1.089408e+00,1.053095e+00,3,0,4.451933e+00,4.451928e+00
7.835246e+00,1.091629e+00,1.057148e+00,3,0,4.536685e+00,4.536687e+00
7.797454e+00,1.093360e+00,1.057863e+00,3,0,4.335615e+00,4.335616e+00
7.800193e+00,1.091103e+00,1.056194e+00,3,0,6.871785e+00,6.871793e+00
7.791308e+00,3.160220e+00,3.126144e+00,3,1,9.516263e+00,9.516610e+00
7.796647e+00,2.842529e+00,2.808094e+00,3,1,7.249638e+00,7.249637e+00
7.836619e+00,1.064115e+00,1.030207e+00,3,0,6.653027e+00,6.653028e+00
7.789216e+00,1.088316e+00,1.052856e+00,3,0,5.247216e+00,5.247217e+00
7.815849e+00,1.095829e+00,1.060963e+00,3,0,3.680022e+00,3.680022e+00
7.792662e+00,1.092783e+00,1.057863e+00,3,0,3.703218e+00,3.703219e+00
7.832318e+00,1.097972e+00,1.062870e+00,3,0,4.883065e+00,4.883068e+00
7.809599e+00,1.109493e+00,1.074076e+00,3,0,4.000490e+00,4.000491e+00
7.798477e+00,1.118479e+00,1.083851e+00,3,0,4.548399e+00,4.548401e+00
7.801426e+00,1.092626e+00,1.058102e+00,3,0,4.658742e+00,4.658744e+00
7.810053e+00,1.092517e+00,1.057863e+00,3,0,4.194560e+00,4.194562e+00
7.801528e+00,1.102047e+00,1.066923e+00,3,0,4.365926e+00,4.365928e+00
7.795801e+00,1.114984e+00,1.080036e+00,3,0,3.330965e+00,3.330966e+00
7.848551e+00,1.092884e+00,1.057863e+00,3,0,3.225918e+00,3.225921e+00
7.786564e+00,1.090790e+00,1.055956e+00,3,0,2.671924e+00,2.671927e+00
7.814896e+00,1.089087e+00,1.055002e+00,3,0,4.634295e+00,4.634300e+00
1.050856e+01,1.896982e+01,1.892328e+01,4,6,1.535115e+01,3.334146e+01
1.815088e+01,9.387544e+00,9.339094e+00,7,1,1.278495e+01,1.361181e+01
1.561542e+01,7.643295e+00,7.595062e+00,6,0,2.214686e+01,4.791088e+01
1.558530e+01,7.617577e+00,7.570267e+00,6,0,2.611427e+01,5.460607e+01
1.580991e+01,1.332726e+01,1.329088e+01,6,7,1.339432e+01,1.340180e+01
1.566105e+01,4.308742e+00,4.261017e+00,6,2,1.209188e+01,1.207341e+01
1.567279e+01,1.092172e+00,1.055956e+00,6,0,8.164860e+00,8.152890e+00
1.044465e+01,2.495855e+00,2.460003e+00,4,1,5.703573e+00,5.702761e+00
1.039931e+01,2.465530e+00,2.431154e+00,4,1,4.251629e+00,4.251630e+00
7.782741e+00,1.067155e+00,1.033068e+00,3,0,5.041462e+00,5.041466e+00
7.809652e+00,1.085716e+00,1.050949e+00,3,0,3.726082e+00,3.726082e+00
7.795048e+00,1.099118e+00,1.059055e+00,3,0,3.116317e+00,3.116318e+00
7.823226e+00,1.091159e+00,1.055956e+00,3,0,2.956812e+00,2.956814e+00
7.789758e+00,1.093681e+00,1.059055e+00,3,0,2.877767e+00,2.877768e+00
7.789540e+00,1.094587e+00,1.059055e+00,3,0,3.314253e+00,3.314255e+00
7.786051e+00,1.089634e+00,1.055002e+00,3,0,3.936226e+00,3.936228e+00
7.816160e+00,2.546693e+00,2.511978e+00,3,1,7.575895e+00,7.575419e+00
1.561903e+01,4.063574e+01,4.060197e+01,6,20,1.206664e+01,1.220993e+01
1.555836e+01,1.937781e+01,1.934099e+01,6,10,1.166996e+01,1.179364e+01
1.557860e+01,2.202810e+01,2.199292e+01,6,12,8.084121e+00,8.071357e+00
1.306913e+01,6.196730e+01,6.191945e+01,5,28,1.704283e+01,2.465991e+01
1.604952e+01,4.633843e+01,4.629397e+01,6,25,1.137514e+01,1.144311e+01
1.334833e+01,1.534713e+01,1.530385e+01,5,8,5.776824e+00,5.775746e+00
8.017919e+00,1.105690e+00,1.069069e+00,3,0,3.724281e+00,3.724265e+00
7.898529e+00,1.587663e+01,1.584196e+01,3,7,1.140462e+01,1.149756e+01
7.793943e+00,1.423126e+01,1.419687e+01,3,7,1.162762e+01,1.164781e+01
7.795863e+00,8.004133e+00,7.970095e+00,3,4,9.078850e+00,9.078812e+00
7.790202e+00,1.051280e+00,1.016855e+00,3,0,6.010389e+00,6.010387e+00
7.792137e+00,1.056015e+00,1.023054e+00,3,0,6.449567e+00,6.449571e+00
7.849127e+00,1.072038e+00,1.037836e+00,3,0,5.618141e+00,5.618143e+00
7.866545e+00,5.915035e+00,5.868196e+00,3,0,6.900947e+00,1.473081e+01
8.025442e+00,6.014262e+00,5.964756e+00,3,0,1.171582e+01,4.249177e+01
1.559627e+01,5.928894e+00,5.873680e+00,6,0,1.385079e+01,5.016484e+01
1.556404e+01,1.155091e+01,1.149797e+01,6,2,8.651129e+00,1.155082e+01
7.799072e+00,3.472142e+00,3.435850e+00,3,1,9.516345e+00,9.549528e+00
7.823302e+00,6.258767e+00,6.222963e+00,3,3,6.931728e+00,6.931720e+00
7.846046e+00,1.063077e+00,1.027822e+00,3,0,6.733144e+00,6.733146e+00
7.829677e+00,8.772900e+00,8.736849e+00,3,4,1.050765e+01,1.053288e+01
1.302130e+01,7.991523e+00,7.956028e+00,5,4,6.117892e+00,6.115732e+00
8.019461e+00,1.207504e+00,1.163006e+00,3,0,4.070419e+00,4.070398e+00
8.018514e+00,1.185040e+00,1.145124e+00,3,0,2.944983e+00,2.944984e+00
8.045183e+00,1.140422e+00,1.104116e+00,3,0,3.304479e+00,3.304481e+00
8.018598e+00,1.136160e+00,1.100063e+00,3,0,3.910182e+00,3.910184e+00
8.016494e+00,1.128783e+00,1.093149e+00,3,0,2.725244e+00,2.725244e+00
8.018175e+00,1.129298e+00,1.093864e+00,3,0,3.295763e+00,3.295765e+00
8.015680e+00,1.121727e+00,1.086950e+00,3,0,1.949308e+00,1.949308e+00
8.015236e+00,1.124557e+00,1.089096e+00,3,0,1.871252e+00,1.871253e+00
8.015604e+00,1.123497e+00,1.087904e+00,3,0,3.378211e+00,3.378215e+00
8.037319e+00,1.123792e+00,1.087904e+00,3,0,2.906296e+00,2.906298e+00
8.034360e+00,1.124112e+00,1.087904e+00,3,0,3.290384e+00,3.290386e+00
8.037980e+00,1.122497e+00,1.085997e+00,3,0,2.348667e+00,2.348668e+00
8.016828e+00,1.124004e+00,1.087904e+00,3,0,3.430990e+00,3.430995e+00
7.933495e+00,5.354521e+00,5.315065e+00,3,2,6.385357e+00,6.398628e+00
7.835502e+00,4.554012e+00,4.518032e+00,3,2,2.455818e+00,2.455816e+00
7.801335e+00,1.090908e+00,1.055002e+00,3,0,2.481490e+00,2.481491e+00
7.847759e+00,1.087454e+00,1.052856e+00,3,0,2.436728e+00,2.436729e+00
7.791074e+00,1.094674e+00,1.060009e+00,3,0,2.487337e+00,2.487338e+00
7.814729e+00,1.091709e+00,1.057148e+00,3,0,1.736922e+00,1.736923e+00
7.791091e+00,1.094097e+00,1.060009e+00,3,0,1.592218e+00,1.592219e+00
7.811566e+00,1.090368e+00,1.056194e+00,3,0,2.755153e+00,2.755159e+00
7.810000e+00,1.093022e+00,1.058102e+00,3,0,1.625784e+00,1.625784e+00
7.791177e+00,1.096968e+00,1.055956e+00,3,0,1.145442e+00,1.145444e+00
7.790229e+00,1.092515e+00,1.058102e+00,3,0,1.845580e+00,1.845582e+00
7.788280e+00,1.090422e+00,1.056194e+00,3,0,4.866204e+00,4.866210e+00
7.818633e+00,1.089770e+00,1.055002e+00,3,0,2.666829e+00,2.666829e+00
7.826260e+00,1.096894e+00,1.061916e+00,3,0,3.032124e+00,3.032127e+00
7.841325e+00,1.093681e+00,1.058817e+00,3,0,3.018364e+00,3.018366e+00
7.784333e+00,1.094324e+00,1.060009e+00,3,0,2.646868e+00,2.646869e+00
7.782340e+00,1.087621e+00,1.051903e+00,3,0,4.586368e+00,4.586374e+00
7.790106e+00,1.096512e+00,1.056194e+00,3,0,3.756391e+00,3.756392e+00
7.814950e+00,1.088862e+00,1.054049e+00,3,0,2.931946e+00,2.931947e+00
7.815146e+00,1.092840e+00,1.059055e+00,3,0,2.783699e+00,2.783700e+00

