4.176269e+00,4.850188e+00,3.771067e+00,2,0,0.000000e+00,0.000000e+00
6.243546e+00,9.591080e-01,9.238720e-01,3,0,4.087661e-01,4.087670e-01
6.268274e+00,9.425460e-01,9.150505e-01,3,0,2.504695e+00,2.504699e+00
6.234368e+00,9.389320e-01,9.121895e-01,3,0,1.309156e+00,1.309156e+00
6.232891e+00,9.436830e-01,9.160042e-01,3,0,4.079359e+00,4.079364e+00
6.262241e+00,9.446080e-01,9.169579e-01,3,0,6.878809e+00,6.878814e+00
6.258805e+00,9.537170e-01,9.260178e-01,3,0,7.776623e+00,7.776622e+00
6.295129e+00,9.455662e+00,9.428024e+00,3,5,1.227831e+01,1.238054e+01
1.046475e+01,8.552542e+00,8.524179e+00,5,5,7.605678e+00,7.605652e+00
6.277101e+00,9.439080e-01,9.160042e-01,3,0,9.055331e+00,9.055330e+00
6.273913e+00,9.425890e-01,9.140968e-01,3,0,8.287322e+00,8.287323e+00
6.293311e+00,9.512810e-01,9.241104e-01,3,0,7.254214e+00,7.254215e+00
6.296208e+00,9.498190e-01,9.222031e-01,3,0,4.800588e+00,4.800588e+00
6.291271e+00,9.493350e-01,9.210110e-01,3,0,5.297160e+00,5.297162e+00
6.329552e+00,9.517170e-01,9.238720e-01,3,0,5.265046e+00,5.265048e+00
6.292140e+00,9.576450e-01,9.288788e-01,3,0,6.270095e+00,6.270098e+00
6.313268e+00,9.543490e-01,9.269714e-01,3,0,6.517665e+00,6.517668e+00
6.240873e+00,9.521100e-01,9.238720e-01,3,0,6.387956e+00,6.387958e+00
6.237711e+00,9.456550e-01,9.179115e-01,3,0,6.646388e+00,6.646390e+00
6.250615e+00,9.462250e-01,9.191036e-01,3,0,5.534216e+00,5.534217e+00
6.270734e+00,9.520520e-01,9.250641e-01,3,0,4.580708e+00,4.580708e+00
6.269984e+00,9.490470e-01,9.210110e-01,3,0,3.575494e+00,3.575495e+00
6.274069e+00,9.363410e-01,9.090900e-01,3,0,4.200307e+00,4.200312e+00
6.264440e+00,9.435590e-01,9.160042e-01,3,0,3.705817e+00,3.705818e+00
6.267947e+00,9.480370e-01,9.210110e-01,3,0,3.807167e+00,3.807169e+00
6.261169e+00,9.534670e-01,9.260178e-01,3,0,6.360196e+00,6.360202e+00
6.238360e+00,9.517350e-01,9.241104e-01,3,0,4.714039e+00,4.714039e+00
6.238787e+00,9.515330e-01,9.191036e-01,3,0,3.440040e+00,3.440040e+00
6.262102e+00,9.451800e-01,9.171963e-01,3,0,5.724549e+00,5.724554e+00
6.275236e+00,9.545510e-01,9.269714e-01,3,0,4.492685e+00,4.492685e+00
6.270739e+00,9.540850e-01,9.260178e-01,3,0,2.754647e+00,2.754648e+00
6.266388e+00,9.525920e-01,9.248257e-01,3,0,4.189859e+00,4.189862e+00
6.255943e+00,9.573340e-01,9.291172e-01,3,0,2.257506e+00,2.257505e+00
6.261056e+00,9.568980e-01,9.291172e-01,3,0,1.849664e+00,1.849665e+00
6.262611e+00,9.479520e-01,9.200573e-01,3,0,3.316973e+00,3.316976e+00
6.232175e+00,9.449960e-01,9.169579e-01,3,0,1.570906e+00,1.570906e+00
6.240459e+00,9.446600e-01,9.169579e-01,3,0,2.128037e+00,2.128038e+00
6.268290e+00,9.560250e-01,9.281635e-01,3,0,1.821784e+00,1.821785e+00
6.266540e+00,9.507990e-01,9.231567e-01,3,0,2.769307e+00,2.769309e+00
6.280086e+00,9.570110e-01,9.298325e-01,3,0,2.893553e+00,2.893554e+00
6.260814e+00,9.550090e-01,9.269714e-01,3,0,3.748850e+00,3.748852e+00
6.251423e+00,9.542270e-01,9.260178e-01,3,0,6.154654e+00,6.154658e+00
6.266682e+00,7.599345e+00,7.571936e+00,3,4,1.041084e+01,1.046141e+01
8.330649e+00,7.053683e+00,7.025957e+00,4,4,6.886053e+00,6.886035e+00
6.268029e+00,9.555340e-01,9.269714e-01,3,0,2.788647e+00,2.788646e+00
6.255981e+00,9.539840e-01,9.260178e-01,3,0,2.971390e+00,2.971391e+00
6.278053e+00,9.590520e-01,9.310246e-01,3,0,3.274975e+00,3.274977e+00
6.307620e+00,9.488610e-01,9.210110e-01,3,0,3.253645e+00,3.253647e+00
6.266005e+00,9.506290e-01,9.219646e-01,3,0,3.018839e+00,3.018840e+00
6.278276e+00,9.574040e-01,9.300709e-01,3,0,2.772937e+00,2.772938e+00
6.244094e+00,9.416310e-01,9.138584e-01,3,0,2.388740e+00,2.388741e+00
6.238088e+00,1.003454e+00,9.729862e-01,3,0,2.170193e+00,2.170194e+00
6.247496e+00,9.974300e-01,9.679794e-01,3,0,1.616611e+00,1.616613e+00
6.263323e+00,9.842570e-01,9.548664e-01,3,0,1.962494e+00,1.962496e+00
6.285376e+00,9.578380e-01,9.310246e-01,3,0,1.712973e+00,1.712974e+00
6.254127e+00,9.486790e-01,9.210110e-01,3,0,3.890135e+00,3.890139e+00
6.239704e+00,9.365130e-01,9.090900e-01,3,0,4.548388e+00,4.548390e+00
6.250099e+00,9.365910e-01,9.088516e-01,3,0,7.122569e+00,7.122574e+00
6.252920e+00,9.502140e-01,9.219646e-01,3,0,8.185076e+00,8.185079e+00
6.238978e+00,9.424350e-01,9.148121e-01,3,0,4.833564e+00,4.833564e+00
6.245161e+00,9.376040e-01,9.100437e-01,3,0,5.945172e+00,5.945175e+00
6.263960e+00,9.432010e-01,9.150505e-01,3,0,4.006300e+00,4.006299e+00
6.270342e+00,9.475210e-01,9.200573e-01,3,0,3.948666e+00,3.948667e+00
6.256903e+00,9.501710e-01,9.219646e-01,3,0,3.580226e+00,3.580228e+00
6.253296e+00,9.559000e-01,9.279251e-01,3,0,3.773123e+00,3.773125e+00
6.264941e+00,9.553910e-01,9.269714e-01,3,0,3.796249e+00,3.796250e+00
6.259610e+00,9.519580e-01,9.250641e-01,3,0,5.003918e+00,5.003922e+00
6.245778e+00,9.542400e-01,9.260178e-01,3,0,3.425633e+00,3.425633e+00
6.239914e+00,9.469030e-01,9.191036e-01,3,0,5.952866e+00,5.952872e+00
6.245625e+00,9.449420e-01,9.181499e-01,3,0,3.152552e+00,3.152551e+00
6.260681e+00,9.527520e-01,9.250641e-01,3,0,1.577541e+00,1.577541e+00
6.260775e+00,9.488910e-01,9.210110e-01,3,0,2.291311e+00,2.291314e+00
6.279432e+00,9.515500e-01,9.229183e-01,3,0,3.559311e+00,3.559314e+00
6.259833e+00,9.573920e-01,9.300709e-01,3,0,3.107568e+00,3.107569e+00
6.274511e+00,9.459590e-01,9.181499e-01,3,0,3.008507e+00,3.008508e+00
6.270432e+00,9.542100e-01,9.260178e-01,3,0,5.407372e+00,5.407377e+00
6.236397e+00,9.521550e-01,9.238720e-01,3,0,7.877126e+00,7.877130e+00
6.244953e+00,2.234442e+00,2.207041e+00,3,1,7.360203e+00,7.359269e+00
8.365883e+00,2.202334e+00,2.175093e+00,4,1,5.809914e+00,5.809913e+00
6.290934e+00,9.493900e-01,9.219646e-01,3,0,4.927896e+00,4.927897e+00
6.274815e+00,9.596850e-01,9.310246e-01,3,0,3.608671e+00,3.608671e+00
6.275675e+00,9.441670e-01,9.100437e-01,3,0,4.732200e+00,4.732204e+00
6.276090e+00,5.220549e+00,5.177975e+00,3,0,1.047608e+01,3.233485e+01
1.246527e+01,5.200340e+00,5.160093e+00,6,0,9.670575e+00,2.936719e+01
1.252060e+01,5.214950e+00,5.174875e+00,6,0,7.771657e+00,1.455946e+01
1.252450e+01,5.213312e+00,5.173922e+00,6,0,1.282742e+01,3.169985e+01
1.245599e+01,1.075536e+01,1.071644e+01,6,3,9.206446e+00,1.087411e+01
8.344634e+00,4.944388e+00,4.915953e+00,4,3,4.498974e+00,4.498979e+00
6.282845e+00,9.475750e-01,9.200573e-01,3,0,3.891306e+00,3.891307e+00
6.268537e+00,9.380970e-01,9.109974e-01,3,0,3.576416e+00,3.576418e+00
6.268163e+00,9.562330e-01,9.291172e-01,3,0,2.766291e+00,2.766291e+00
6.284420e+00,2.817996e+00,2.790928e+00,3,1,5.856835e+00,5.858518e+00
6.270419e+00,1.231819e+00,1.204014e+00,3,0,9.264242e+00,9.268085e+00
6.240752e+00,8.378788e+00,8.341074e+00,3,1,1.524391e+01,2.513870e+01
1.249823e+01,6.623258e+00,6.583929e+00,6,0,1.709453e+01,2.980537e+01
1.458588e+01,7.806902e+00,7.777929e+00,7,4,1.254686e+01,1.254516e+01
6.267201e+00,4.001385e+00,3.973961e+00,3,2,7.667278e+00,7.667250e+00
6.252501e+00,2.743830e+00,2.715826e+00,3,1,6.965102e+00,6.965676e+00
6.273465e+00,4.757551e+00,4.729986e+00,3,2,7.166302e+00,7.186452e+00
6.289800e+00,2.322632e+01,2.319789e+01,3,13,9.719563e+00,1.019181e+01
1.246669e+01,1.528299e+01,1.525497e+01,6,9,9.158605e+00,9.505852e+00
1.251488e+01,1.099437e+01,1.096606e+01,6,6,9.820621e+00,1.019523e+01
1.044250e+01,1.413232e+01,1.410413e+01,5,8,9.682207e+00,9.998520e+00
1.258508e+01,6.885984e+01,6.883097e+01,6,42,1.498778e+01,1.754372e+01
1.044919e+01,7.293415e+01,7.290602e+01,5,48,8.109662e+00,8.139990e+00
8.360195e+00,8.625090e+00,8.597136e+00,4,5,5.497557e+00,5.497523e+00
6.284861e+00,9.496090e-01,9.210110e-01,3,0,3.881302e+00,3.881302e+00
6.243142e+00,9.380890e-01,9.109974e-01,3,0,3.490087e+00,3.490088e+00
6.249929e+00,9.862550e-01,9.560585e-01,3,0,4.020144e+00,4.020147e+00
6.260362e+00,9.656810e-01,9.369850e-01,3,0,3.636317e+00,3.636318e+00
6.267662e+00,9.639440e-01,9.348392e-01,3,0,2.694789e+00,2.694789e+00
6.275600e+00,9.516620e-01,9.238720e-01,3,0,3.848003e+00,3.848007e+00
6.269896e+00,9.472990e-01,9.188652e-01,3,0,4.156236e+00,4.156238e+00
6.273734e+00,9.537680e-01,9.257793e-01,3,0,6.648973e+00,6.648978e+00
8.347684e+00,7.780539e+00,7.743120e+00,4,2,1.161815e+01,2.007841e+01
1.246652e+01,2.193084e+00,2.165079e+00,6,1,6.885643e+00,6.855789e+00
1.250665e+01,9.404180e-01,9.129047e-01,6,0,5.711663e+00,5.696719e+00
1.251771e+01,3.507123e+00,3.479004e+00,6,2,6.869261e+00,6.865405e+00
8.344123e+00,2.203132e+00,2.175093e+00,4,1,4.561661e+00,4.561661e+00
6.276696e+00,9.466970e-01,9.188652e-01,3,0,3.630131e+00,3.630132e+00
6.245902e+00,9.485220e-01,9.200573e-01,3,0,3.135753e+00,3.135754e+00
6.239465e+00,9.502970e-01,9.229183e-01,3,0,2.293072e+00,2.293074e+00
6.265827e+00,9.613030e-01,9.341240e-01,3,0,2.265456e+00,2.265456e+00
6.251888e+00,9.577880e-01,9.298325e-01,3,0,1.983507e+00,1.983508e+00
6.272332e+00,9.533940e-01,9.260178e-01,3,0,2.628639e+00,2.628641e+00
6.255848e+00,9.518070e-01,9.241104e-01,3,0,2.059046e+00,2.059047e+00
6.268947e+00,9.569400e-01,9.288788e-01,3,0,4.168020e+00,4.168024e+00
6.271012e+00,9.605080e-01,9.200573e-01,3,0,1.389332e+00,1.389331e+00
6.256439e+00,9.543880e-01,9.269714e-01,3,0,1.634399e+00,1.634400e+00
6.267362e+00,9.491580e-01,9.210110e-01,3,0,2.099869e+00,2.099871e+00
6.260783e+00,9.715260e-01,9.429455e-01,3,0,2.682249e+00,2.682251e+00
6.309502e+00,9.593260e-01,9.310246e-01,3,0,1.701003e+00,1.701004e+00
6.258746e+00,9.600800e-01,9.319782e-01,3,0,1.507741e+00,1.507742e+00
6.272214e+00,9.465430e-01,9.188652e-01,3,0,2.154891e+00,2.154893e+00
6.259528e+00,9.579280e-01,9.298325e-01,3,0,3.601919e+00,3.601923e+00
6.264371e+00,9.560210e-01,9.279251e-01,3,0,3.986972e+00,3.986973e+00
6.277506e+00,9.593580e-01,9.319782e-01,3,0,2.375940e+00,2.375939e+00
6.246332e+00,9.498580e-01,9.219646e-01,3,0,2.953981e+00,2.953983e+00
6.244513e+00,9.491180e-01,9.210110e-01,3,0,1.962108e+00,1.962108e+00
6.261708e+00,9.540710e-01,9.260178e-01,3,0,1.913176e+00,1.913177e+00
6.273389e+00,9.583390e-01,9.298325e-01,3,0,1.280660e+00,1.280660e+00
6.280137e+00,9.578010e-01,9.300709e-01,3,0,1.362405e+00,1.362405e+00
6.260131e+00,9.469750e-01,9.188652e-01,3,0,2.552948e+00,2.552950e+00
6.274648e+00,9.568780e-01,9.300709e-01,3,0,1.656187e+00,1.656188e+00
6.257781e+00,9.591670e-01,9.310246e-01,3,0,2.033765e+00,2.033766e+00
6.269341e+00,9.611530e-01,9.341240e-01,3,0,2.853264e+00,2.853269e+00
6.249191e+00,9.506410e-01,9.231567e-01,3,0,1.784270e+00,1.784270e+00
6.243092e+00,9.503350e-01,9.219646e-01,3,0,2.173741e+00,2.173743e+00
6.262668e+00,9.614510e-01,9.319782e-01,3,0,3.819935e+00,3.819938e+00
6.265684e+00,9.582130e-01,9.300709e-01,3,0,2.454217e+00,2.454218e+00
6.270632e+00,9.606020e-01,9.331703e-01,3,0,3.212566e+00,3.212568e+00
6.282784e+00,9.487940e-01,9.210110e-01,3,0,2.841800e+00,2.841801e+00
6.279153e+00,9.556510e-01,9.281635e-01,3,0,2.330512e+00,2.330512e+00
6.269271e+00,9.549550e-01,9.269714e-01,3,0,1.598284e+00,1.598284e+00
6.253129e+00,9.394740e-01,9.119511e-01,3,0,3.321471e+00,3.321477e+00
6.268111e+00,9.497330e-01,9.219646e-01,3,0,1.892429e+00,1.892429e+00
6.272403e+00,9.486680e-01,9.200573e-01,3,0,2.219421e+00,2.219422e+00
6.261331e+00,1.023553e+00,9.911060e-01,3,0,2.537547e+00,2.537549e+00
6.240952e+00,1.001886e+00,9.710789e-01,3,0,1.815944e+00,1.815945e+00
6.253088e+00,9.807010e-01,9.520054e-01,3,0,2.031591e+00,2.031593e+00
6.281737e+00,9.854870e-01,9.560585e-01,3,0,2.855317e+00,2.855320e+00
6.260458e+00,9.477080e-01,9.198189e-01,3,0,1.394708e+00,1.394709e+00
6.256472e+00,9.527460e-01,9.241104e-01,3,0,1.425076e+00,1.425077e+00
6.262007e+00,9.436500e-01,9.160042e-01,3,0,1.046359e+00,1.046360e+00
6.251740e+00,9.447130e-01,9.160042e-01,3,0,1.498502e+00,1.498504e+00
6.285725e+00,9.580530e-01,9.300709e-01,3,0,1.000646e+00,1.000647e+00
6.267475e+00,9.465500e-01,9.188652e-01,3,0,1.734549e+00,1.734551e+00
6.250202e+00,9.529040e-01,9.250641e-01,3,0,1.265318e+00,1.265319e+00
6.283136e+00,9.526800e-01,9.241104e-01,3,0,8.045737e-01,8.045739e-01
6.265181e+00,9.527150e-01,9.250641e-01,3,0,1.165436e+00,1.165437e+00
6.278462e+00,9.467020e-01,9.191036e-01,3,0,1.590682e+00,1.590683e+00
6.256090e+00,9.399450e-01,9.119511e-01,3,0,2.335114e+00,2.335116e+00
6.242102e+00,4.441613e+00,4.414082e+00,3,2,5.933914e+00,5.935940e+00
8.377039e+00,2.870288e+01,2.867413e+01,4,16,1.266738e+01,1.295858e+01
1.248059e+01,2.064983e+01,2.062082e+01,6,13,8.407648e+00,8.402854e+00
8.342566e+00,2.215694e+00,2.187014e+00,4,1,6.036286e+00,6.036286e+00
6.262113e+00,9.447890e-01,9.160042e-01,3,0,5.561379e+00,5.561380e+00
6.267541e+00,9.328390e-01,9.050369e-01,3,0,7.123585e+00,7.123589e+00
6.270762e+00,2.240169e+00,2.211094e+00,3,1,9.716064e+00,9.715810e+00
8.331218e+00,2.207816e+00,2.180099e+00,4,1,5.271212e+00,5.271208e+00
6.245235e+00,9.463780e-01,9.179115e-01,3,0,8.814879e+00,8.814867e+00
8.333837e+00,9.427670e-01,9.150505e-01,4,0,6.280269e+00,6.280269e+00
6.307367e+00,9.497620e-01,9.222031e-01,3,0,6.532963e+00,6.532965e+00
6.260959e+00,1.015243e+00,9.829998e-01,3,0,4.559675e+00,4.559675e+00
6.269088e+00,9.524580e-01,9.250641e-01,3,0,5.075760e+00,5.075763e+00
6.255989e+00,9.565940e-01,9.279251e-01,3,0,4.381486e+00,4.381487e+00
6.262840e+00,9.537360e-01,9.257793e-01,3,0,5.087322e+00,5.087324e+00
6.281988e+00,9.547310e-01,9.269714e-01,3,0,4.161200e+00,4.161201e+00
6.255771e+00,9.561490e-01,9.291172e-01,3,0,3.434790e+00,3.434790e+00
6.252374e+00,9.445350e-01,9.160042e-01,3,0,4.432481e+00,4.432485e+00
6.273771e+00,9.514460e-01,9.241104e-01,3,0,6.068026e+00,6.068030e+00
6.260806e+00,9.550410e-01,9.260178e-01,3,0,4.515264e+00,4.515264e+00
6.272360e+00,9.499640e-01,9.219646e-01,3,0,2.572835e+00,2.572836e+00
6.267810e+00,9.548750e-01,9.269714e-01,3,0,2.444018e+00,2.444019e+00
6.277551e+00,9.533710e-01,9.260178e-01,3,0,2.747460e+00,2.747461e+00
6.235099e+00,9.753670e-01,9.410381e-01,3,0,2.025137e+00,2.025138e+00
6.237961e+00,9.863110e-01,9.560585e-01,3,0,1.674369e+00,1.674370e+00
6.243973e+00,1.008170e+00,9.779930e-01,3,0,1.566185e+00,1.566186e+00
6.234298e+00,9.639150e-01,9.357929e-01,3,0,1.879681e+00,1.879682e+00
6.244493e+00,9.563380e-01,9.279251e-01,3,0,1.289448e+00,1.289448e+00
6.231712e+00,9.328870e-01,9.050369e-01,3,0,1.523360e+00,1.523361e+00
6.254134e+00,9.500690e-01,9.219646e-01,3,0,1.399685e+00,1.399686e+00
6.265381e+00,9.540310e-01,9.248257e-01,3,0,1.312094e+00,1.312095e+00
6.263461e+00,9.538820e-01,9.260178e-01,3,0,2.001976e+00,2.001978e+00
6.423347e+00,9.502810e-01,9.222031e-01,3,0,1.200496e+00,1.200496e+00
6.248494e+00,9.569530e-01,9.281635e-01,3,0,1.422310e+00,1.422311e+00
6.270588e+00,9.490670e-01,9.210110e-01,3,0,2.261238e+00,2.261240e+00
6.253543e+00,9.515690e-01,9.229183e-01,3,0,1.992419e+00,1.992419e+00
6.255705e+00,9.570240e-01,9.291172e-01,3,0,2.136504e+00,2.136505e+00
6.283196e+00,9.482300e-01,9.210110e-01,3,0,3.643976e+00,3.643979e+00
6.267082e+00,9.434360e-01,9.160042e-01,3,0,4.960801e+00,4.960804e+00
6.258921e+00,9.465200e-01,9.179115e-01,3,0,2.907523e+00,2.907523e+00
6.269519e+00,9.522890e-01,9.238720e-01,3,0,2.076657e+00,2.076657e+00
6.264288e+00,9.523740e-01,9.238720e-01,3,0,2.608887e+00,2.608889e+00
6.237979e+00,9.548580e-01,9.269714e-01,3,0,2.688811e+00,2.688812e+00
6.237605e+00,9.502090e-01,9.219646e-01,3,0,3.022142e+00,3.022144e+00
6.254088e+00,9.410970e-01,9.129047e-01,3,0,6.288345e+00,6.288352e+00
6.278003e+00,9.531770e-01,9.250641e-01,3,0,5.473696e+00,5.473697e+00
6.254496e+00,9.537150e-01,9.260178e-01,3,0,3.081917e+00,3.081916e+00
6.275707e+00,9.507340e-01,9.222031e-01,3,0,6.402770e+00,6.402776e+00
6.261283e+00,9.423710e-01,9.140968e-01,3,0,7.592459e+00,7.592462e+00
6.268218e+00,9.564530e-01,9.288788e-01,3,0,8.211309e+00,8.211311e+00
6.282441e+00,9.614030e-01,9.319782e-01,3,0,1.073431e+01,1.073431e+01
6.254483e+00,9.519350e-01,9.238720e-01,3,0,1.061264e+01,1.061242e+01
8.332434e+00,2.718513e+00,2.690077e+00,4,1,1.010189e+01,1.010197e+01
6.289946e+00,2.836705e+00,2.808094e+00,3,1,9.608122e+00,9.607921e+00
1.042025e+01,3.729977e+00,3.701925e+00,5,2,7.986777e+00,7.980797e+00
8.394409e+00,9.426460e-01,9.148121e-01,4,0,7.362221e+00,7.362221e+00
6.272569e+00,9.543670e-01,9.260178e-01,3,0,6.027778e+00,6.027779e+00
6.253406e+00,9.611570e-01,9.329319e-01,3,0,5.189534e+00,5.189535e+00
6.236335e+00,9.538820e-01,9.260178e-01,3,0,5.150385e+00,5.150387e+00
6.250748e+00,9.506710e-01,9.219646e-01,3,0,4.991104e+00,4.991107e+00
6.277104e+00,9.564110e-01,9.288788e-01,3,0,4.929215e+00,4.929217e+00
6.275417e+00,9.635820e-01,9.350777e-01,3,0,3.222962e+00,3.222962e+00
6.260030e+00,9.569440e-01,9.291172e-01,3,0,2.181992e+00,2.181993e+00
6.247869e+00,9.415800e-01,9.131432e-01,3,0,1.315061e+00,1.315061e+00
8.332780e+00,1.453602e+01,1.450896e+01,4,8,8.244294e+00,8.305079e+00
8.357628e+00,1.285431e+01,1.282501e+01,4,8,3.926504e+00,3.926499e+00
6.287778e+00,9.535930e-01,9.250641e-01,3,0,4.563137e+00,4.563139e+00
6.280334e+00,6.149931e+00,6.122112e+00,3,3,8.014675e+00,8.020001e+00
8.348865e+00,5.551577e+00,5.522966e+00,4,3,5.541490e+00,5.541490e+00
6.246174e+00,9.539000e-01,9.248257e-01,3,0,6.423692e+00,6.423692e+00
6.245200e+00,2.249821e+00,2.221823e+00,3,1,9.228301e+00,9.227406e+00
8.359786e+00,2.209582e+00,2.182007e+00,4,1,6.667159e+00,6.667042e+00
6.276439e+00,9.462440e-01,9.181499e-01,3,0,6.484219e+00,6.484222e+00
6.267722e+00,9.406170e-01,9.119511e-01,3,0,5.963820e+00,5.963821e+00
6.262222e+00,9.536280e-01,9.260178e-01,3,0,4.356064e+00,4.356067e+00
6.298222e+00,9.546230e-01,9.260178e-01,3,0,2.961091e+00,2.961091e+00
6.273764e+00,9.568590e-01,9.288788e-01,3,0,3.228161e+00,3.228164e+00
6.264695e+00,9.600710e-01,9.319782e-01,3,0,2.122579e+00,2.122579e+00
6.240426e+00,9.538100e-01,9.248257e-01,3,0,2.486062e+00,2.486063e+00
6.259395e+00,9.478490e-01,9.200573e-01,3,0,4.178895e+00,4.178900e+00
6.269217e+00,2.253130e+00,2.225161e+00,3,1,8.120613e+00,8.120097e+00
1.043778e+01,2.210608e+00,2.182961e+00,5,1,9.726985e+00,9.726400e+00
6.263092e+00,9.541820e-01,9.248257e-01,3,0,8.880337e+00,8.880326e+00
6.277932e+00,9.492760e-01,9.210110e-01,3,0,7.167483e+00,7.167483e+00
6.267024e+00,9.453380e-01,9.169579e-01,3,0,6.569898e+00,6.569899e+00
6.240113e+00,9.505460e-01,9.229183e-01,3,0,3.977614e+00,3.977614e+00
6.237088e+00,9.442200e-01,9.100437e-01,3,0,4.995101e+00,4.995104e+00
6.261104e+00,9.572540e-01,9.288788e-01,3,0,3.614482e+00,3.614483e+00
6.285727e+00,9.561530e-01,9.281635e-01,3,0,2.493876e+00,2.493876e+00
6.265821e+00,9.533300e-01,9.250641e-01,3,0,2.489594e+00,2.489596e+00
6.273392e+00,9.564980e-01,9.288788e-01,3,0,1.976036e+00,1.976036e+00
6.271836e+00,9.605880e-01,9.210110e-01,3,0,2.327354e+00,2.327356e+00
6.263067e+00,9.443780e-01,9.160042e-01,3,0,1.622235e+00,1.622236e+00
6.270405e+00,9.438740e-01,9.160042e-01,3,0,3.611582e+00,3.611588e+00
6.244110e+00,9.505170e-01,9.222031e-01,3,0,4.513307e+00,4.513309e+00
6.248976e+00,9.467950e-01,9.188652e-01,3,0,1.852596e+00,1.852596e+00
6.277128e+00,9.469530e-01,9.181499e-01,3,0,2.068475e+00,2.068477e+00
6.286225e+00,9.489760e-01,9.198189e-01,3,0,2.634956e+00,2.634957e+00
6.274951e+00,9.609230e-01,9.329319e-01,3,0,2.118660e+00,2.118660e+00
6.316075e+00,9.977584e+00,9.937048e+00,3,2,1.056125e+01,2.241180e+01
1.252238e+01,6.654192e+00,6.613970e+00,6,0,1.323209e+01,2.938887e+01
1.259143e+01,6.628765e+00,6.590128e+00,6,0,1.661716e+01,4.325062e+01
1.256066e+01,1.510667e+01,1.506591e+01,6,5,1.393979e+01,2.090857e+01
1.040333e+01,6.560341e+00,6.520510e+00,5,0,1.574142e+01,2.144725e+01
1.252833e+01,6.562177e+00,6.521702e+00,6,0,1.567215e+01,1.400371e+01
1.249662e+01,6.573155e+00,6.535292e+00,6,0,2.129163e+01,3.071754e+01
8.365358e+00,1.070126e+01,1.066303e+01,4,6,1.486504e+01,1.489044e+01
6.252436e+00,1.283630e+01,1.280284e+01,3,7,1.297745e+01,1.305757e+01
6.293927e+00,9.222979e+00,9.194136e+00,3,5,1.230611e+01,1.233294e+01
6.282280e+00,1.228256e+00,1.199007e+00,3,0,1.045746e+01,1.045880e+01
6.288302e+00,2.488517e+00,2.460003e+00,3,1,8.921636e+00,8.921637e+00
6.270818e+00,9.415230e-01,9.131432e-01,3,0,8.472620e+00,8.472623e+00
6.242808e+00,9.436500e-01,9.150505e-01,3,0,7.381704e+00,7.381705e+00
6.238332e+00,9.538050e-01,9.250641e-01,3,0,7.373443e+00,7.373446e+00
6.268587e+00,9.575830e-01,9.160042e-01,3,0,7.263353e+00,7.263355e+00
6.263637e+00,9.555190e-01,9.269714e-01,3,0,6.819191e+00,6.819192e+00
6.268640e+00,9.547890e-01,9.260178e-01,3,0,4.984013e+00,4.984013e+00
6.274418e+00,9.578430e-01,9.298325e-01,3,0,4.975678e+00,4.975681e+00
6.273201e+00,9.517200e-01,9.241104e-01,3,0,3.640362e+00,3.640363e+00
6.252862e+00,9.411810e-01,9.129047e-01,3,0,3.672625e+00,3.672628e+00
6.261074e+00,9.534190e-01,9.248257e-01,3,0,2.369900e+00,2.369900e+00
6.244861e+00,9.488230e-01,9.210110e-01,3,0,3.091301e+00,3.091304e+00
6.250757e+00,9.464420e-01,9.181499e-01,3,0,3.001545e+00,3.001546e+00
6.276994e+00,9.567560e-01,9.288788e-01,3,0,2.960299e+00,2.960300e+00
6.264261e+00,9.484600e-01,9.150505e-01,3,0,1.969163e+00,1.969164e+00
6.272086e+00,9.478200e-01,9.198189e-01,3,0,3.451674e+00,3.451678e+00
6.267503e+00,4.706115e+00,4.678011e+00,3,2,5.193544e+00,5.200156e+00
6.274062e+00,4.058190e+00,4.029036e+00,3,2,4.257343e+00,4.257344e+00
6.247898e+00,9.488550e-01,9.210110e-01,3,0,4.011880e+00,4.011881e+00
6.250197e+00,9.469320e-01,9.191036e-01,3,0,3.385428e+00,3.385428e+00
6.268473e+00,9.481360e-01,9.200573e-01,3,0,4.454203e+00,4.454205e+00
6.259512e+00,9.608630e-01,9.329319e-01,3,0,2.748295e+00,2.748295e+00
6.261504e+00,9.400180e-01,9.131432e-01,3,0,4.020142e+00,4.020146e+00
6.251077e+00,9.512220e-01,9.219646e-01,3,0,4.651399e+00,4.651401e+00
6.282974e+00,9.475430e-01,9.191036e-01,3,0,6.299206e+00,6.299209e+00
6.267545e+00,9.530120e-01,9.250641e-01,3,0,9.880085e+00,9.880092e+00
6.269663e+00,9.601540e-01,9.331703e-01,3,0,9.961800e+00,9.961802e+00
6.263961e+00,9.611590e-01,9.329319e-01,3,0,4.604280e+00,4.604277e+00
6.244023e+00,9.537650e-01,9.260178e-01,3,0,4.600243e+00,4.600245e+00
6.282443e+00,9.497910e-01,9.222031e-01,3,0,5.145418e+00,5.145420e+00
6.269523e+00,9.539390e-01,9.260178e-01,3,0,4.944900e+00,4.944902e+00
6.266762e+00,9.497040e-01,9.219646e-01,3,0,3.870627e+00,3.870629e+00
6.420568e+00,9.636530e-01,9.348392e-01,3,0,4.758043e+00,4.758046e+00
6.267203e+00,2.725997e+00,2.696991e+00,3,1,5.471335e+00,5.476520e+00
6.246688e+00,8.543566e+00,8.504391e+00,3,1,6.526563e+00,1.444370e+01
6.249726e+00,6.619391e+00,6.581068e+00,3,0,7.045644e+00,1.450118e+01
1.044444e+01,4.038300e+00,4.009962e+00,5,2,4.599824e+00,4.580582e+00
8.370485e+00,9.455880e-01,9.179115e-01,4,0,4.635128e+00,4.635128e+00
6.276495e+00,4.122837e+00,4.095078e+00,3,2,5.039222e+00,5.039202e+00
8.362393e+00,4.035756e+00,4.008055e+00,4,2,2.816403e+00,2.816402e+00
6.246644e+00,9.416030e-01,9.140968e-01,3,0,2.872339e+00,2.872341e+00
6.231826e+00,9.359560e-01,9.088516e-01,3,0,2.173478e+00,2.173478e+00
6.251152e+00,9.447930e-01,9.169579e-01,3,0,1.817580e+00,1.817581e+00
6.280335e+00,9.505980e-01,9.231567e-01,3,0,3.056219e+00,3.056222e+00
6.303633e+00,9.577630e-01,9.300709e-01,3,0,1.640141e+00,1.640142e+00
6.262066e+00,9.499610e-01,9.219646e-01,3,0,2.392934e+00,2.392936e+00
6.279880e+00,2.256149e+00,2.228022e+00,3,1,6.646867e+00,6.645945e+00
1.249306e+01,1.549913e+01,1.547098e+01,6,8,1.062597e+01,1.060233e+01
1.045693e+01,1.437786e+01,1.434898e+01,5,9,7.531420e+00,7.530189e+00
8.343093e+00,4.699303e+00,4.671097e+00,4,2,7.086226e+00,7.090997e+00
6.264030e+00,2.769562e+00,2.741098e+00,3,1,6.513736e+00,6.519605e+00
6.244723e+00,2.476109e+00,2.448082e+00,3,1,4.115153e+00,4.115152e+00
6.276684e+00,4.089596e+00,4.060984e+00,3,2,7.173492e+00,7.172987e+00
8.339851e+00,7.116274e+00,7.087946e+00,4,4,4.111175e+00,4.111173e+00
6.278814e+00,9.329020e-01,9.038448e-01,3,0,2.710622e+00,2.710622e+00
6.260502e+00,9.530520e-01,9.238720e-01,3,0,2.474527e+00,2.474528e+00
6.277394e+00,9.577930e-01,9.291172e-01,3,0,2.367786e+00,2.367787e+00
6.245555e+00,9.578800e-01,9.288788e-01,3,0,2.263449e+00,2.263450e+00
6.233149e+00,9.489760e-01,9.219646e-01,3,0,3.237912e+00,3.237916e+00
6.250497e+00,9.493510e-01,9.148121e-01,3,0,4.746980e+00,4.746984e+00
6.254742e+00,9.590370e-01,9.310246e-01,3,0,7.917618e+00,7.917623e+00
6.287225e+00,9.480270e-01,9.200573e-01,3,0,6.194719e+00,6.194719e+00
6.274226e+00,9.491650e-01,9.210110e-01,3,0,5.878982e+00,5.878983e+00
6.275896e+00,2.236450e+00,2.208948e+00,3,1,8.120863e+00,8.120303e+00
1.254244e+01,3.696180e+01,3.693318e+01,6,21,1.508725e+01,1.541247e+01
8.349139e+00,3.159253e+01,3.154612e+01,4,20,9.272871e+00,9.272864e+00
6.253901e+00,9.513580e-01,9.219646e-01,3,0,9.209160e+00,9.209160e+00
6.272393e+00,9.604160e-01,9.319782e-01,3,0,4.847439e+00,4.847437e+00
6.258530e+00,9.547680e-01,9.269714e-01,3,0,6.203348e+00,6.203353e+00
6.251128e+00,9.673990e-01,9.381771e-01,3,0,8.136280e+00,8.136285e+00
6.250544e+00,9.788500e-01,9.481907e-01,3,0,4.860574e+00,4.860574e+00
6.267802e+00,9.917020e-01,9.598732e-01,3,0,4.010258e+00,4.010259e+00
6.274839e+00,9.659490e-01,9.369850e-01,3,0,2.806445e+00,2.806445e+00
6.237186e+00,9.328880e-01,9.050369e-01,3,0,4.270436e+00,4.270442e+00
6.235122e+00,9.466170e-01,9.181499e-01,3,0,4.366897e+00,4.366899e+00
6.259927e+00,9.479310e-01,9.200573e-01,3,0,2.967366e+00,2.967366e+00
6.254714e+00,9.578180e-01,9.300709e-01,3,0,2.156445e+00,2.156446e+00
6.265996e+00,9.524220e-01,9.250641e-01,3,0,3.070251e+00,3.070254e+00
6.240495e+00,9.547110e-01,9.260178e-01,3,0,2.302021e+00,2.302021e+00
6.267067e+00,9.552390e-01,9.281635e-01,3,0,6.718820e+00,6.718829e+00
6.261183e+00,9.528850e-01,9.241104e-01,3,0,3.370457e+00,3.370456e+00
6.255494e+00,9.572440e-01,9.291172e-01,3,0,2.332479e+00,2.332479e+00
6.250001e+00,9.486420e-01,9.210110e-01,3,0,3.263858e+00,3.263861e+00
6.240739e+00,9.497420e-01,9.210110e-01,3,0,1.747025e+00,1.747025e+00
6.272159e+00,9.513070e-01,9.231567e-01,3,0,2.768925e+00,2.768928e+00
6.274195e+00,2.813640e+00,2.785921e+00,3,1,4.011144e+00,4.011547e+00
6.258815e+00,2.486819e+00,2.459049e+00,3,1,5.385739e+00,5.385736e+00
6.276277e+00,9.445540e-01,9.160042e-01,3,0,3.561035e+00,3.560955e+00
6.259434e+00,2.230606e+00,2.202988e+00,3,1,8.270400e+00,8.269786e+00
8.342599e+00,2.212384e+00,2.185106e+00,4,1,6.423442e+00,6.423404e+00
6.250809e+00,9.473780e-01,9.188652e-01,3,0,7.778224e+00,7.778189e+00
8.345113e+00,9.439100e-01,9.160042e-01,4,0,6.063104e+00,6.063104e+00
6.274348e+00,9.608960e-01,9.319782e-01,3,0,7.247372e+00,7.247376e+00
6.284499e+00,9.557320e-01,9.279251e-01,3,0,5.245532e+00,5.245532e+00
6.279538e+00,9.549490e-01,9.269714e-01,3,0,4.006917e+00,4.006917e+00
6.263476e+00,9.486410e-01,9.200573e-01,3,0,3.643758e+00,3.643759e+00
6.276446e+00,9.555870e-01,9.269714e-01,3,0,2.393529e+00,2.393529e+00
6.264288e+00,9.566490e-01,9.269714e-01,3,0,2.290422e+00,2.290424e+00
6.237085e+00,9.468310e-01,9.179115e-01,3,0,2.764933e+00,2.764936e+00
6.239029e+00,9.472200e-01,9.191036e-01,3,0,3.350514e+00,3.350519e+00
6.260018e+00,9.575870e-01,9.298325e-01,3,0,2.468079e+00,2.468080e+00
6.269778e+00,9.515550e-01,9.231567e-01,3,0,4.336311e+00,4.336317e+00
6.267657e+00,9.569500e-01,9.288788e-01,3,0,4.460823e+00,4.460826e+00
6.257373e+00,9.590580e-01,9.181499e-01,3,0,3.081200e+00,3.081200e+00
6.269539e+00,9.559410e-01,9.279251e-01,3,0,2.742514e+00,2.742515e+00
6.258840e+00,9.546300e-01,9.269714e-01,3,0,3.722352e+00,3.722354e+00
6.247773e+00,9.450510e-01,9.160042e-01,3,0,3.759091e+00,3.759092e+00
6.242056e+00,9.518440e-01,9.241104e-01,3,0,4.296888e+00,4.296890e+00
6.243205e+00,9.501760e-01,9.219646e-01,3,0,5.309811e+00,5.309814e+00
6.247830e+00,9.570180e-01,9.288788e-01,3,0,6.211942e+00,6.211942e+00
6.243971e+00,9.415170e-01,9.131432e-01,3,0,3.614864e+00,3.614840e+00
6.258064e+00,9.415090e-01,9.131432e-01,3,0,3.285194e+00,3.285198e+00
6.274218e+00,9.535300e-01,9.250641e-01,3,0,2.226608e+00,2.226609e+00
6.249494e+00,9.442980e-01,9.169579e-01,3,0,2.453815e+00,2.453816e+00
6.268408e+00,9.592660e-01,9.310246e-01,3,0,4.060112e+00,4.060114e+00
6.245504e+00,9.493360e-01,9.210110e-01,3,0,2.617963e+00,2.617964e+00
6.232541e+00,9.532750e-01,9.250641e-01,3,0,4.652530e+00,4.652534e+00
6.268065e+00,9.507830e-01,9.229183e-01,3,0,3.246135e+00,3.246136e+00
6.272442e+00,9.541360e-01,9.260178e-01,3,0,5.466380e+00,5.466385e+00
6.260879e+00,9.543410e-01,9.260178e-01,3,0,3.298347e+00,3.298346e+00
6.269962e+00,9.479510e-01,9.191036e-01,3,0,8.001377e+00,8.001386e+00
6.300538e+00,6.651216e+00,6.623030e+00,3,4,1.025881e+01,1.025661e+01
1.039312e+01,4.971889e+00,4.943132e+00,5,3,6.584596e+00,6.580411e+00
1.255148e+01,8.420524e+00,8.391142e+00,6,5,9.223152e+00,9.226767e+00
1.252538e+01,6.766375e+00,6.736994e+00,6,4,8.385861e+00,8.369325e+00
1.046624e+01,3.435206e+00,3.407001e+00,5,2,6.774237e+00,6.774153e+00
6.251360e+00,6.378181e+00,6.350040e+00,3,3,8.747213e+00,8.756279e+00
6.287117e+00,5.535671e+00,5.507946e+00,3,3,8.143688e+00,8.143690e+00
6.276094e+00,2.690363e+00,2.662182e+00,3,1,8.652998e+00,8.653082e+00
6.267464e+00,2.474430e+00,2.445936e+00,3,1,6.645617e+00,6.645616e+00
6.276599e+00,9.450810e-01,9.171963e-01,3,0,4.277070e+00,4.277069e+00
6.273188e+00,9.441670e-01,9.160042e-01,3,0,4.373110e+00,4.373113e+00
6.274460e+00,9.453860e-01,9.179115e-01,3,0,4.621537e+00,4.621539e+00
6.283729e+00,9.462650e-01,9.181499e-01,3,0,1.855843e+00,1.855843e+00
6.258168e+00,9.487780e-01,9.200573e-01,3,0,2.372668e+00,2.372671e+00
6.266128e+00,9.539040e-01,9.272099e-01,3,0,2.441406e+00,2.441408e+00
6.284320e+00,9.504280e-01,9.231567e-01,3,0,2.232353e+00,2.232354e+00
6.268667e+00,1.093017e+00,1.065016e+00,3,0,2.826114e+00,2.826117e+00
6.284586e+00,9.650120e-01,9.360313e-01,3,0,2.893240e+00,2.893242e+00
6.267200e+00,9.626370e-01,9.350777e-01,3,0,3.808417e+00,3.808420e+00
6.265660e+00,9.504300e-01,9.219646e-01,3,0,3.094471e+00,3.094471e+00
6.253023e+00,9.491100e-01,9.207726e-01,3,0,3.429737e+00,3.429739e+00
6.238872e+00,9.518640e-01,9.231567e-01,3,0,2.399659e+00,2.399659e+00
6.267871e+00,9.500110e-01,9.219646e-01,3,0,3.265366e+00,3.265369e+00
6.249779e+00,9.532600e-01,9.250641e-01,3,0,3.478625e+00,3.478626e+00
6.277997e+00,9.546390e-01,9.260178e-01,3,0,3.315806e+00,3.315807e+00
6.257567e+00,9.541850e-01,9.260178e-01,3,0,2.362101e+00,2.362101e+00
6.266296e+00,9.573010e-01,9.291172e-01,3,0,2.216874e+00,2.216875e+00
6.279450e+00,2.264152e+00,2.236128e+00,3,1,4.368857e+00,4.368717e+00
8.333519e+00,2.199859e+00,2.172232e+00,4,1,2.502945e+00,2.502945e+00
6.244413e+00,9.572120e-01,9.279251e-01,3,0,1.778594e+00,1.778595e+00
6.257348e+00,9.547520e-01,9.269714e-01,3,0,2.209986e+00,2.209988e+00
6.282638e+00,9.538170e-01,9.250641e-01,3,0,2.970055e+00,2.970057e+00
6.289189e+00,9.489360e-01,9.198189e-01,3,0,3.406088e+00,3.406090e+00
6.256904e+00,9.558900e-01,9.269714e-01,3,0,3.587664e+00,3.587665e+00
6.270920e+00,9.616640e-01,9.341240e-01,3,0,3.510941e+00,3.510942e+00
6.273438e+00,9.554120e-01,9.279251e-01,3,0,2.682903e+00,2.682905e+00
6.268484e+00,9.486080e-01,9.138584e-01,3,0,2.253304e+00,2.253305e+00
6.244909e+00,9.565710e-01,9.291172e-01,3,0,3.244246e+00,3.244249e+00
6.251423e+00,9.477570e-01,9.188652e-01,3,0,1.207315e+00,1.207315e+00
6.268546e+00,9.572780e-01,9.288788e-01,3,0,3.281035e+00,3.281039e+00
6.271916e+00,9.531190e-01,9.250641e-01,3,0,3.734755e+00,3.734756e+00
6.241705e+00,2.242642e+00,2.213955e+00,3,1,7.953306e+00,7.953169e+00
8.338372e+00,2.219867e+00,2.189159e+00,4,1,7.020367e+00,7.020368e+00
6.256341e+00,9.730550e-01,9.419918e-01,3,0,4.511462e+00,4.511462e+00
6.270278e+00,9.538570e-01,9.250641e-01,3,0,3.487181e+00,3.487182e+00
6.238868e+00,9.461440e-01,9.179115e-01,3,0,3.790114e+00,3.790116e+00
6.243170e+00,9.466140e-01,9.191036e-01,3,0,2.873121e+00,2.873124e+00
6.256809e+00,9.608520e-01,9.329319e-01,3,0,2.090328e+00,2.090328e+00
6.269340e+00,9.516960e-01,9.238720e-01,3,0,2.515106e+00,2.515108e+00
6.279643e+00,9.567980e-01,9.300709e-01,3,0,2.038095e+00,2.038096e+00
6.268864e+00,9.416380e-01,9.140968e-01,3,0,2.510057e+00,2.510058e+00
6.270756e+00,9.571920e-01,9.298325e-01,3,0,2.566159e+00,2.566160e+00
6.257648e+00,9.508270e-01,9.229183e-01,3,0,2.071899e+00,2.071899e+00
6.245663e+00,9.477320e-01,9.200573e-01,3,0,2.075268e+00,2.075269e+00
6.242740e+00,9.493990e-01,9.219646e-01,3,0,2.125789e+00,2.125790e+00
6.236442e+00,9.490430e-01,9.210110e-01,3,0,2.259399e+00,2.259400e+00
6.245953e+00,9.529610e-01,9.248257e-01,3,0,1.197678e+00,1.197678e+00
6.261015e+00,9.539940e-01,9.260178e-01,3,0,1.292533e+00,1.292535e+00
6.247488e+00,9.527240e-01,9.250641e-01,3,0,2.755014e+00,2.755017e+00
6.277144e+00,9.420300e-01,9.140968e-01,3,0,4.918349e+00,4.918353e+00
6.257166e+00,2.243674e+00,2.215147e+00,3,1,3.939565e+00,3.939391e+00
8.332626e+00,2.195614e+00,2.167940e+00,4,1,2.084354e+00,2.084354e+00
6.255005e+00,9.455480e-01,9.169579e-01,3,0,3.436024e+00,3.436027e+00
6.247807e+00,9.459670e-01,9.179115e-01,3,0,2.985680e+00,2.985682e+00
6.285318e+00,9.522290e-01,9.238720e-01,3,0,2.226109e+00,2.226109e+00
6.268656e+00,9.488740e-01,9.200573e-01,3,0,3.008351e+00,3.008353e+00
6.268166e+00,9.576060e-01,9.291172e-01,3,0,3.961941e+00,3.961944e+00
6.254573e+00,9.536520e-01,9.260178e-01,3,0,3.508352e+00,3.508354e+00
6.254549e+00,9.532350e-01,9.260178e-01,3,0,5.043758e+00,5.043763e+00
6.263471e+00,9.471740e-01,9.191036e-01,3,0,4.496435e+00,4.496437e+00
6.258648e+00,9.552050e-01,9.269714e-01,3,0,2.748110e+00,2.748109e+00
6.236660e+00,9.510900e-01,9.231567e-01,3,0,1.951312e+00,1.951313e+00
6.246310e+00,9.455390e-01,9.179115e-01,3,0,1.249719e+00,1.249720e+00
6.239566e+00,9.486430e-01,9.210110e-01,3,0,1.377922e+00,1.377924e+00
6.265543e+00,9.475820e-01,9.200573e-01,3,0,1.398272e+00,1.398273e+00
6.270498e+00,9.518940e-01,9.238720e-01,3,0,2.843497e+00,2.843500e+00
6.248510e+00,9.494050e-01,9.200573e-01,3,0,1.813523e+00,1.813524e+00
6.267178e+00,9.518020e-01,9.241104e-01,3,0,2.649012e+00,2.649014e+00
6.269736e+00,9.601270e-01,9.319782e-01,3,0,3.373143e+00,3.373145e+00
6.235525e+00,9.489720e-01,9.210110e-01,3,0,4.556059e+00,4.556061e+00
6.238600e+00,9.464760e-01,9.188652e-01,3,0,4.016188e+00,4.016188e+00
6.241405e+00,9.368630e-01,9.090900e-01,3,0,2.094681e+00,2.094684e+00
6.268625e+00,9.570300e-01,9.291172e-01,3,0,4.128027e+00,4.128031e+00
6.271732e+00,9.537260e-01,9.248257e-01,3,0,3.851147e+00,3.851148e+00
6.267491e+00,9.481810e-01,9.191036e-01,3,0,4.869917e+00,4.869920e+00
6.263990e+00,9.532140e-01,9.250641e-01,3,0,4.450315e+00,4.450317e+00
6.268252e+00,9.467160e-01,9.119511e-01,3,0,3.205502e+00,3.205502e+00
6.259699e+00,9.488100e-01,9.210110e-01,3,0,3.462635e+00,3.462636e+00
6.243347e+00,9.455780e-01,9.179115e-01,3,0,5.649401e+00,5.649406e+00
6.241725e+00,9.483910e-01,9.210110e-01,3,0,3.430046e+00,3.430045e+00
6.255177e+00,9.504470e-01,9.229183e-01,3,0,5.065708e+00,5.065711e+00
6.255070e+00,9.579020e-01,9.291172e-01,3,0,5.490503e+00,5.490505e+00
6.256399e+00,9.525250e-01,9.250641e-01,3,0,5.129279e+00,5.129281e+00
6.283499e+00,9.558080e-01,9.269714e-01,3,0,3.760759e+00,3.760759e+00
6.242158e+00,9.542250e-01,9.260178e-01,3,0,2.912920e+00,2.912921e+00
6.244700e+00,9.376560e-01,9.100437e-01,3,0,2.902347e+00,2.902349e+00
6.250579e+00,9.400930e-01,9.119511e-01,3,0,2.072873e+00,2.072874e+00

