2.866046e+00,2.693606e+00,2,2,0.000000e+00,0.000000e+00
4.298526e+00,4.040926e+00,3,3,2.877675e-01,2.877675e-01
4.286003e+00,4.047485e+00,3,3,1.149897e+00,1.149896e+00
4.289764e+00,4.041117e+00,3,3,1.805039e+00,1.805038e+00
4.283905e+00,4.039037e+00,3,3,1.695570e+00,1.695570e+00
4.283609e+00,4.040678e+00,3,3,6.381753e+00,6.381810e+00
5.713347e+00,5.380673e+00,4,4,9.328769e+00,9.329141e+00
8.568063e+00,8.077383e+00,6,6,8.776535e+00,8.777524e+00
4.275173e+00,4.040738e+00,3,3,1.332061e+01,1.331618e+01
5.705642e+00,5.388752e+00,4,4,6.882619e+00,6.882619e+00
4.277840e+00,4.037411e+00,3,3,8.204821e+00,8.204822e+00
4.283595e+00,4.037743e+00,3,3,5.896646e+00,5.896647e+00
4.276035e+00,4.049534e+00,3,3,5.863548e+00,5.863547e+00
4.295561e+00,4.042951e+00,3,3,4.709561e+00,4.709561e+00
4.286871e+00,4.040348e+00,3,3,3.937031e+00,3.937031e+00
4.277503e+00,4.046329e+00,3,3,3.238447e+00,3.238447e+00
4.286304e+00,4.038090e+00,3,3,2.980193e+00,2.980192e+00
4.273110e+00,4.038927e+00,3,3,3.056542e+00,3.056541e+00
4.273980e+00,4.047126e+00,3,3,3.672491e+00,3.672490e+00
4.279733e+00,4.039642e+00,3,3,3.158291e+00,3.158291e+00
4.279853e+00,4.037339e+00,3,3,3.880065e+00,3.880064e+00
4.287850e+00,4.046665e+00,3,3,3.021760e+00,3.021760e+00
4.284845e+00,4.041002e+00,3,3,3.099939e+00,3.099939e+00
4.287141e+00,4.038745e+00,3,3,2.878245e+00,2.878245e+00
4.277124e+00,4.042570e+00,3,3,2.938538e+00,2.938537e+00
4.286720e+00,4.046127e+00,3,3,2.709263e+00,2.709265e+00
4.272454e+00,4.037185e+00,3,3,2.259110e+00,2.259109e+00
4.276163e+00,4.044257e+00,3,3,2.144198e+00,2.144198e+00
4.277037e+00,4.039068e+00,3,3,4.240202e+00,4.240201e+00
4.299960e+00,4.039322e+00,3,3,4.096076e+00,4.096077e+00
4.283557e+00,4.037459e+00,3,3,1.801881e+00,1.801881e+00
4.274161e+00,4.037663e+00,3,3,1.970566e+00,1.970565e+00
4.274230e+00,4.042811e+00,3,3,5.458832e+00,5.458951e+00
4.279640e+00,4.057991e+00,3,3,2.884130e+00,2.884133e+00
4.276584e+00,4.039503e+00,3,3,2.911835e+00,2.911834e+00
4.280159e+00,4.034830e+00,3,3,4.063762e+00,4.063760e+00
4.275835e+00,4.070124e+00,3,3,2.107541e+00,2.107542e+00
4.299358e+00,4.037771e+00,3,3,1.118663e+00,1.118663e+00
4.278100e+00,4.041654e+00,3,3,1.283402e+00,1.283402e+00
4.282885e+00,4.042106e+00,3,3,2.295971e+00,2.296007e+00
4.289534e+00,4.029918e+00,3,3,1.731670e+00,1.731681e+00
4.260520e+00,4.027993e+00,3,3,1.632713e+00,1.632712e+00
4.259167e+00,4.001112e+00,3,3,1.993576e+00,1.993575e+00
4.320543e+00,4.024944e+00,3,3,1.705694e+00,1.705693e+00
4.277039e+00,4.036459e+00,3,3,1.280208e+00,1.280208e+00
4.282148e+00,4.037683e+00,3,3,1.107832e+00,1.107832e+00
4.277361e+00,4.037347e+00,3,3,1.216361e+00,1.216360e+00
4.277071e+00,4.036219e+00,3,3,2.701269e+00,2.701267e+00
4.280627e+00,4.040652e+00,3,3,2.407812e+00,2.407812e+00
4.283430e+00,4.036852e+00,3,3,1.712870e+00,1.712869e+00
4.282838e+00,4.043513e+00,3,3,1.171116e+00,1.171116e+00
4.276887e+00,4.039933e+00,3,3,1.386089e+00,1.386089e+00
4.282554e+00,4.037294e+00,3,3,1.816017e+00,1.816018e+00
4.280372e+00,4.041667e+00,3,3,2.059409e+00,2.059408e+00
4.274517e+00,4.036127e+00,3,3,1.542317e+00,1.542316e+00
4.283003e+00,4.037461e+00,3,3,1.299499e+00,1.299499e+00
4.286256e+00,4.042909e+00,3,3,1.068207e+00,1.068207e+00
4.284838e+00,4.039980e+00,3,3,9.492725e-01,9.492723e-01
4.291137e+00,4.065357e+00,3,3,7.665667e-01,7.665666e-01
4.282449e+00,4.099168e+00,3,3,2.378952e+00,2.378950e+00
4.321134e+00,4.078174e+00,3,3,2.660224e+00,2.660224e+00
4.287394e+00,4.042163e+00,3,3,2.174518e+00,2.174518e+00
4.312921e+00,4.040784e+00,3,3,4.756840e+00,4.756838e+00
4.284869e+00,4.038852e+00,3,3,8.382338e+00,8.382619e+00
5.694928e+00,5.514016e+00,4,4,6.585372e+00,6.585352e+00
4.401537e+00,4.115803e+00,3,3,6.262353e+00,6.262355e+00
4.418118e+00,4.065384e+00,3,3,6.913314e+00,6.913314e+00
4.285331e+00,4.039830e+00,3,3,5.109028e+00,5.109028e+00
4.284947e+00,4.037692e+00,3,3,4.314284e+00,4.314284e+00
4.280900e+00,4.036335e+00,3,3,3.938571e+00,3.938570e+00
4.281037e+00,4.035589e+00,3,3,3.251402e+00,3.251402e+00
4.280729e+00,4.042281e+00,3,3,3.180122e+00,3.180122e+00
4.287867e+00,4.034951e+00,3,3,2.904319e+00,2.904318e+00
4.280681e+00,4.040120e+00,3,3,3.861223e+00,3.861456e+00
5.702809e+00,5.380987e+00,4,4,3.670350e+00,3.670350e+00
4.278736e+00,4.039885e+00,3,3,7.138998e+00,7.139270e+00
5.692864e+00,5.386892e+00,4,4,4.023121e+00,4.023122e+00
4.273884e+00,4.046666e+00,3,3,7.536327e+00,7.536361e+00
4.278521e+00,4.038098e+00,3,3,5.537219e+00,5.537228e+00
4.285891e+00,4.038565e+00,3,3,2.683682e+00,2.683682e+00
4.276436e+00,4.037134e+00,3,3,2.590010e+00,2.590010e+00
4.278665e+00,4.043148e+00,3,3,3.525559e+00,3.525558e+00
4.289077e+00,4.038458e+00,3,3,4.871460e+00,4.871458e+00
4.283063e+00,4.047758e+00,3,3,6.481578e+00,6.481615e+00
4.277925e+00,4.035559e+00,3,3,5.641787e+00,5.641794e+00
4.281922e+00,4.037822e+00,3,3,5.451702e+00,5.451700e+00
4.300041e+00,4.040954e+00,3,3,6.635949e+00,6.635948e+00
4.276247e+00,4.036546e+00,3,3,7.492082e+00,7.492081e+00
4.288074e+00,4.038616e+00,3,3,7.900681e+00,7.900988e+00
5.696632e+00,5.386611e+00,4,4,5.566796e+00,5.566833e+00
4.278797e+00,4.039322e+00,3,3,5.185596e+00,5.185605e+00
4.276472e+00,4.041871e+00,3,3,3.961889e+00,3.961890e+00
4.280574e+00,4.036349e+00,3,3,3.198564e+00,3.198563e+00
4.285159e+00,4.064701e+00,3,3,5.791041e+00,5.791046e+00
4.285459e+00,4.037574e+00,3,3,5.864206e+00,5.863918e+00
5.696812e+00,6.721173e+00,4,5,4.024112e+00,4.024440e+00
8.555800e+00,8.063109e+00,6,6,9.985021e+00,9.980283e+00
8.539100e+00,8.064122e+00,6,6,7.252998e+00,7.252436e+00
9.985710e+00,5.383063e+00,7,4,5.461992e+00,5.464618e+00
5.706216e+00,5.383605e+00,4,4,3.277623e+00,3.277624e+00
4.281940e+00,4.036136e+00,3,3,2.558316e+00,2.558315e+00
4.279939e+00,4.036865e+00,3,3,4.196629e+00,4.196627e+00
4.288988e+00,4.038399e+00,3,3,2.807628e+00,2.807628e+00
4.282793e+00,4.042892e+00,3,3,6.901929e+00,6.901925e+00
4.277945e+00,4.036702e+00,3,3,9.269228e+00,9.269227e+00
4.282122e+00,4.041282e+00,3,3,1.008790e+01,1.008797e+01
4.283398e+00,4.040918e+00,3,3,1.354712e+01,1.354934e+01
9.970583e+00,8.066563e+00,7,6,1.590127e+01,1.590132e+01
5.704715e+00,5.391914e+00,4,4,1.199204e+01,1.199204e+01
4.287581e+00,4.046760e+00,3,3,8.618522e+00,8.618525e+00
4.284091e+00,4.039303e+00,3,3,7.904420e+00,7.904430e+00
4.283899e+00,4.038546e+00,3,3,8.105933e+00,8.106534e+00
8.556135e+00,8.065615e+00,6,6,1.173461e+01,1.174931e+01
8.551419e+00,8.067051e+00,6,6,1.252895e+01,1.252537e+01
8.543540e+00,8.066214e+00,6,6,1.333726e+01,1.333046e+01
8.541722e+00,8.066290e+00,6,6,1.302878e+01,1.302056e+01
8.547052e+00,8.073784e+00,6,6,1.416739e+01,1.415827e+01
8.564841e+00,8.068042e+00,6,6,1.665549e+01,1.665346e+01
5.696199e+00,6.721123e+00,4,5,1.064513e+01,1.066449e+01
4.287120e+00,4.037877e+00,3,3,6.483636e+00,6.483963e+00
4.278613e+00,4.038602e+00,3,3,4.742873e+00,4.742875e+00
4.277937e+00,4.036008e+00,3,3,4.073993e+00,4.073993e+00
4.279920e+00,4.041276e+00,3,3,4.073980e+00,4.073979e+00
4.280644e+00,4.041896e+00,3,3,4.341672e+00,4.341670e+00
4.275740e+00,4.042846e+00,3,3,3.206437e+00,3.206437e+00
4.278897e+00,4.038819e+00,3,3,2.751437e+00,2.751436e+00
4.281347e+00,4.041477e+00,3,3,2.185941e+00,2.185941e+00
4.277802e+00,4.037254e+00,3,3,2.631400e+00,2.631400e+00
4.276506e+00,4.041637e+00,3,3,4.316449e+00,4.316447e+00
4.278048e+00,4.038174e+00,3,3,9.334594e+00,9.333961e+00
5.716220e+00,5.375347e+00,4,4,4.830615e+00,4.830618e+00
4.294234e+00,4.045165e+00,3,3,3.666020e+00,3.666021e+00
4.284323e+00,4.036973e+00,3,3,3.821217e+00,3.821217e+00
4.287953e+00,4.038073e+00,3,3,4.339129e+00,4.339128e+00
4.277066e+00,4.041873e+00,3,3,3.315136e+00,3.315136e+00
4.283590e+00,4.038112e+00,3,3,2.603087e+00,2.603087e+00
4.280088e+00,4.037951e+00,3,3,2.293165e+00,2.293165e+00
4.283508e+00,4.040688e+00,3,3,1.596506e+00,1.596505e+00
4.375310e+00,4.038120e+00,3,3,1.468291e+00,1.468291e+00
4.283270e+00,4.038910e+00,3,3,1.781042e+00,1.781042e+00
4.282004e+00,4.099562e+00,3,3,2.077096e+00,2.077096e+00
4.281103e+00,4.040306e+00,3,3,2.263173e+00,2.263172e+00
4.279170e+00,4.042328e+00,3,3,2.620312e+00,2.620311e+00
4.283177e+00,4.036890e+00,3,3,2.634755e+00,2.634754e+00
4.280350e+00,4.041510e+00,3,3,1.262106e+00,1.262106e+00
4.273241e+00,4.036135e+00,3,3,2.173786e+00,2.173785e+00
4.284064e+00,4.036280e+00,3,3,2.392816e+00,2.392815e+00
4.273528e+00,4.038697e+00,3,3,2.515635e+00,2.515635e+00
4.291755e+00,4.054534e+00,3,3,2.121153e+00,2.121152e+00
4.282219e+00,4.052050e+00,3,3,2.918018e+00,2.918017e+00
4.319344e+00,4.040656e+00,3,3,2.348262e+00,2.348262e+00
4.283799e+00,4.038625e+00,3,3,2.359238e+00,2.359238e+00
4.291145e+00,4.035689e+00,3,3,2.100942e+00,2.100941e+00
4.282025e+00,4.047041e+00,3,3,2.000149e+00,2.000149e+00
4.290695e+00,4.046813e+00,3,3,1.382458e+00,1.382457e+00
4.295135e+00,4.035405e+00,3,3,1.587459e+00,1.587459e+00
4.278688e+00,4.045448e+00,3,3,1.231490e+00,1.231490e+00
4.282485e+00,4.040506e+00,3,3,1.871236e+00,1.871235e+00
4.286116e+00,4.041031e+00,3,3,1.898636e+00,1.898635e+00
4.283362e+00,4.045191e+00,3,3,2.072293e+00,2.072293e+00
4.281987e+00,4.051576e+00,3,3,1.759460e+00,1.759460e+00
4.290731e+00,4.057741e+00,3,3,2.723050e+00,2.723049e+00
4.282327e+00,4.036989e+00,3,3,1.628160e+00,1.628160e+00
4.276388e+00,4.041771e+00,3,3,2.190583e+00,2.190582e+00
4.289139e+00,4.042540e+00,3,3,1.581958e+00,1.581956e+00
4.294954e+00,4.043652e+00,3,3,8.861871e-01,8.861871e-01
4.273609e+00,4.050089e+00,3,3,1.182340e+00,1.182340e+00
4.284188e+00,4.044313e+00,3,3,3.177072e+00,3.177070e+00
4.284139e+00,4.033859e+00,3,3,2.396651e+00,2.396651e+00
4.275906e+00,4.041615e+00,3,3,2.220925e+00,2.220925e+00
4.279596e+00,4.047221e+00,3,3,2.668529e+00,2.668528e+00
4.282098e+00,4.037759e+00,3,3,2.156816e+00,2.156817e+00
4.278857e+00,4.055778e+00,3,3,1.442302e+00,1.442302e+00
4.290929e+00,4.040978e+00,3,3,2.067483e+00,2.067482e+00
4.292251e+00,4.044246e+00,3,3,1.875084e+00,1.875082e+00
4.288211e+00,4.037115e+00,3,3,1.489662e+00,1.489661e+00
4.288202e+00,4.036246e+00,3,3,1.498650e+00,1.498650e+00
4.298157e+00,4.039075e+00,3,3,1.472832e+00,1.472831e+00
4.286880e+00,4.035466e+00,3,3,1.502032e+00,1.502031e+00
4.277507e+00,4.037647e+00,3,3,1.447534e+00,1.447533e+00
4.276871e+00,4.035434e+00,3,3,1.920544e+00,1.920543e+00
4.281391e+00,4.039414e+00,3,3,3.285209e+00,3.285207e+00
4.285773e+00,4.039581e+00,3,3,1.686596e+00,1.686596e+00
4.287535e+00,4.039855e+00,3,3,2.106364e+00,2.106364e+00
4.289352e+00,4.036334e+00,3,3,1.383636e+00,1.383636e+00
4.280756e+00,4.037205e+00,3,3,1.800713e+00,1.800712e+00
4.282519e+00,4.038633e+00,3,3,1.554119e+00,1.554118e+00
4.282574e+00,4.039558e+00,3,3,1.415657e+00,1.415657e+00
4.278135e+00,4.038148e+00,3,3,1.783252e+00,1.783251e+00
4.273899e+00,4.035252e+00,3,3,3.325259e+00,3.325256e+00
4.282835e+00,4.035941e+00,3,3,1.564671e+00,1.564672e+00
4.279046e+00,4.039921e+00,3,3,1.986674e+00,1.986673e+00
4.285532e+00,4.038292e+00,3,3,2.761433e+00,2.761432e+00
4.279131e+00,4.042953e+00,3,3,4.424166e+00,4.424164e+00
4.288624e+00,4.043126e+00,3,3,3.444279e+00,3.444279e+00
4.281987e+00,4.037955e+00,3,3,3.484845e+00,3.484844e+00
5.712432e+00,4.037594e+00,4,3,1.051444e+01,1.051865e+01
9.954092e+00,8.062960e+00,7,6,8.500174e+00,8.509316e+00
5.694583e+00,5.376943e+00,4,4,5.540815e+00,5.540815e+00
4.279638e+00,4.039601e+00,3,3,6.114128e+00,6.114128e+00
4.287794e+00,4.036063e+00,3,3,5.847419e+00,5.847420e+00
4.280920e+00,4.037449e+00,3,3,5.562384e+00,5.562384e+00
4.283954e+00,4.040084e+00,3,3,7.086398e+00,7.086404e+00
4.290787e+00,4.037355e+00,3,3,5.608347e+00,5.608346e+00
4.286349e+00,4.037485e+00,3,3,6.153202e+00,6.153200e+00
4.278662e+00,4.042895e+00,3,3,4.375254e+00,4.375254e+00
4.299226e+00,4.039860e+00,3,3,4.880407e+00,4.880406e+00
4.279164e+00,4.041515e+00,3,3,3.820981e+00,3.820981e+00
4.277994e+00,4.040153e+00,3,3,4.009807e+00,4.009806e+00
4.282783e+00,4.036460e+00,3,3,2.835223e+00,2.835224e+00
4.281203e+00,4.034243e+00,3,3,2.259986e+00,2.259986e+00
4.284369e+00,4.036729e+00,3,3,2.327772e+00,2.327772e+00
4.282820e+00,4.038440e+00,3,3,2.166730e+00,2.166730e+00
4.274070e+00,4.037027e+00,3,3,1.614806e+00,1.614805e+00
4.280615e+00,4.045754e+00,3,3,3.344454e+00,3.344452e+00
4.280017e+00,4.045585e+00,3,3,4.110259e+00,4.110258e+00
4.280172e+00,4.038639e+00,3,3,2.145495e+00,2.145496e+00
4.275689e+00,4.043659e+00,3,3,1.182124e+00,1.182124e+00
4.280707e+00,4.038805e+00,3,3,1.474438e+00,1.474437e+00
4.280836e+00,4.037780e+00,3,3,8.633242e-01,8.633241e-01
4.276794e+00,4.037078e+00,3,3,1.175360e+00,1.175359e+00
4.282773e+00,4.040976e+00,3,3,1.768188e+00,1.768187e+00
4.291581e+00,4.037007e+00,3,3,2.350507e+00,2.350507e+00
4.276573e+00,4.036357e+00,3,3,2.655237e+00,2.655237e+00
4.308133e+00,4.038995e+00,3,3,3.631769e+00,3.631768e+00
4.285553e+00,4.040936e+00,3,3,2.335914e+00,2.335914e+00
4.316617e+00,4.070376e+00,3,3,1.872912e+00,1.872912e+00
4.342052e+00,4.087828e+00,3,3,1.459647e+00,1.459647e+00
4.300462e+00,4.059870e+00,3,3,1.053733e+00,1.053733e+00
4.310593e+00,4.043109e+00,3,3,1.116194e+00,1.116194e+00
4.275291e+00,4.040270e+00,3,3,1.423746e+00,1.423746e+00
4.285357e+00,4.036612e+00,3,3,1.054562e+00,1.054562e+00
4.307318e+00,4.038809e+00,3,3,1.026268e+00,1.026267e+00
4.276195e+00,4.038920e+00,3,3,7.254665e-01,7.254663e-01
4.277101e+00,4.037716e+00,3,3,1.774499e+00,1.774498e+00
4.283561e+00,4.039278e+00,3,3,1.418052e+00,1.418052e+00
4.287095e+00,4.039715e+00,3,3,1.968336e+00,1.968335e+00
4.285229e+00,4.039771e+00,3,3,2.983692e+00,2.983691e+00
4.282671e+00,4.039320e+00,3,3,4.221665e+00,4.221664e+00
4.281347e+00,4.042958e+00,3,3,2.792423e+00,2.792424e+00
4.274610e+00,4.035761e+00,3,3,1.694129e+00,1.694129e+00
4.282178e+00,4.035970e+00,3,3,1.342082e+00,1.342082e+00
4.279783e+00,4.038670e+00,3,3,1.299672e+00,1.299671e+00
4.275404e+00,4.036695e+00,3,3,1.366795e+00,1.366794e+00
4.283990e+00,4.044298e+00,3,3,1.553345e+00,1.553345e+00
4.278874e+00,4.036287e+00,3,3,3.101066e+00,3.101064e+00
4.279392e+00,4.039147e+00,3,3,2.886133e+00,2.886133e+00
4.283403e+00,4.042981e+00,3,3,2.469134e+00,2.469134e+00
4.284030e+00,4.037999e+00,3,3,2.389870e+00,2.389870e+00
4.284753e+00,4.036506e+00,3,3,2.621808e+00,2.621808e+00
4.281023e+00,4.039188e+00,3,3,2.942850e+00,2.942850e+00
4.280012e+00,4.040865e+00,3,3,5.094118e+00,5.094306e+00
8.553143e+00,5.376827e+00,6,4,7.342800e+00,7.335239e+00
5.702637e+00,5.381684e+00,4,4,7.743673e+00,7.743905e+00
7.124619e+00,6.723990e+00,5,5,7.799993e+00,7.810348e+00
5.708822e+00,5.379524e+00,4,4,6.905393e+00,6.905419e+00
4.276596e+00,4.037027e+00,3,3,5.981832e+00,5.981834e+00
4.320123e+00,4.045082e+00,3,3,6.191696e+00,6.191695e+00
4.279673e+00,4.043372e+00,3,3,4.905466e+00,4.905466e+00
4.277451e+00,4.038624e+00,3,3,4.393127e+00,4.393126e+00
4.286228e+00,4.038464e+00,3,3,4.124036e+00,4.124036e+00
4.282009e+00,4.038308e+00,3,3,3.519908e+00,3.519908e+00
4.278427e+00,4.039866e+00,3,3,4.161150e+00,4.161146e+00
4.290574e+00,4.040031e+00,3,3,3.831550e+00,3.831556e+00
4.279947e+00,4.037284e+00,3,3,2.872684e+00,2.872684e+00
4.286888e+00,4.040529e+00,3,3,2.890232e+00,2.890231e+00
4.286765e+00,4.039026e+00,3,3,1.951319e+00,1.951319e+00
4.277546e+00,4.038076e+00,3,3,4.531961e+00,4.531959e+00
4.271617e+00,4.038151e+00,3,3,9.408595e+00,9.407911e+00
1.141801e+01,8.069193e+00,8,6,6.314950e+00,6.314208e+00
5.717832e+00,5.379189e+00,4,4,7.453724e+00,7.453528e+00
5.708687e+00,5.377727e+00,4,4,1.075198e+01,1.075143e+01
7.127108e+00,6.724927e+00,5,5,6.088082e+00,6.088531e+00
5.716441e+00,4.038719e+00,4,3,7.886411e+00,7.889200e+00
5.702808e+00,5.384074e+00,4,4,7.414184e+00,7.414115e+00
4.279786e+00,4.037737e+00,3,3,3.504105e+00,3.504107e+00
4.280321e+00,4.039228e+00,3,3,2.925703e+00,2.925703e+00
4.285204e+00,4.040011e+00,3,3,2.240473e+00,2.240473e+00
4.277770e+00,4.037339e+00,3,3,2.261361e+00,2.261360e+00
4.277015e+00,4.041733e+00,3,3,3.651248e+00,3.651246e+00
4.278501e+00,4.039844e+00,3,3,3.020237e+00,3.020237e+00
4.286654e+00,4.037204e+00,3,3,2.000391e+00,2.000390e+00
4.281212e+00,4.036979e+00,3,3,2.622959e+00,2.622958e+00
4.283919e+00,4.038051e+00,3,3,2.427858e+00,2.427858e+00
4.284706e+00,4.040095e+00,3,3,3.611715e+00,3.611714e+00
4.279244e+00,4.038418e+00,3,3,3.565535e+00,3.565534e+00
4.285639e+00,4.038576e+00,3,3,3.064416e+00,3.064416e+00
4.281747e+00,4.039191e+00,3,3,5.501719e+00,5.501739e+00
4.279899e+00,4.038492e+00,3,3,4.372132e+00,4.372134e+00
4.289479e+00,4.038557e+00,3,3,2.999405e+00,2.999406e+00
4.289834e+00,4.042037e+00,3,3,1.969576e+00,1.969576e+00
4.284848e+00,4.039670e+00,3,3,1.954011e+00,1.954011e+00
4.282223e+00,4.038104e+00,3,3,4.386153e+00,4.386151e+00
4.289626e+00,4.037276e+00,3,3,4.072331e+00,4.072330e+00
4.278849e+00,4.039117e+00,3,3,3.068664e+00,3.068665e+00
4.287403e+00,4.040528e+00,3,3,3.224495e+00,3.224494e+00
4.285858e+00,4.038988e+00,3,3,3.707625e+00,3.707624e+00
4.279677e+00,4.036495e+00,3,3,3.669581e+00,3.669581e+00
4.291262e+00,4.037795e+00,3,3,2.399692e+00,2.399692e+00
4.281046e+00,4.039311e+00,3,3,3.251933e+00,3.251932e+00
4.276080e+00,4.036894e+00,3,3,7.293376e+00,7.293122e+00
5.700825e+00,5.380082e+00,4,4,9.374862e+00,9.372611e+00
9.970786e+00,8.067853e+00,7,6,9.928174e+00,9.947850e+00
5.700876e+00,5.393317e+00,4,4,4.824499e+00,4.824497e+00
4.278051e+00,4.037658e+00,3,3,3.218359e+00,3.218359e+00
4.287763e+00,4.039014e+00,3,3,3.057132e+00,3.057131e+00
4.290215e+00,4.043874e+00,3,3,2.348565e+00,2.348565e+00
4.285763e+00,4.041905e+00,3,3,1.005406e+01,1.005415e+01
8.565472e+00,8.066383e+00,6,6,1.454033e+01,1.454624e+01
8.548836e+00,8.067137e+00,6,6,1.281813e+01,1.281956e+01
8.546543e+00,8.070489e+00,6,6,1.076619e+01,1.076608e+01
8.543944e+00,8.069692e+00,6,6,9.827180e+00,9.823414e+00
8.546328e+00,8.070824e+00,6,6,1.444147e+01,1.444029e+01
9.972223e+00,8.067630e+00,7,6,1.562321e+01,1.564791e+01
8.545922e+00,5.381200e+00,6,4,1.769952e+01,1.768711e+01
8.548641e+00,5.379451e+00,6,4,1.268314e+01,1.267598e+01
5.721373e+00,5.380610e+00,4,4,1.356595e+01,1.356664e+01
7.129882e+00,6.730993e+00,5,5,1.109959e+01,1.110017e+01
4.277745e+00,4.040256e+00,3,3,8.293752e+00,8.293774e+00
4.288569e+00,4.039380e+00,3,3,6.426932e+00,6.426932e+00
4.278455e+00,4.041383e+00,3,3,5.964759e+00,5.964757e+00
4.282548e+00,4.035239e+00,3,3,4.592455e+00,4.592455e+00
4.279860e+00,4.037275e+00,3,3,3.864624e+00,3.864624e+00
4.281529e+00,4.036608e+00,3,3,3.966680e+00,3.966679e+00
4.275564e+00,4.037553e+00,3,3,3.531483e+00,3.531484e+00
4.283791e+00,4.039006e+00,3,3,2.200551e+00,2.200552e+00
4.278881e+00,4.042037e+00,3,3,3.840356e+00,3.840355e+00
4.287603e+00,4.061299e+00,3,3,2.553661e+00,2.553670e+00
4.303221e+00,4.053018e+00,3,3,2.441829e+00,2.441828e+00
4.299165e+00,4.040215e+00,3,3,1.500988e+00,1.500988e+00
4.278995e+00,4.041360e+00,3,3,5.613612e+00,5.613608e+00
4.277483e+00,4.036136e+00,3,3,2.634544e+00,2.634545e+00
4.284115e+00,4.043876e+00,3,3,4.433227e+00,4.433230e+00
4.278891e+00,4.049761e+00,3,3,4.232768e+00,4.232772e+00
4.273818e+00,4.037526e+00,3,3,4.480600e+00,4.480608e+00
4.280974e+00,4.041523e+00,3,3,2.839419e+00,2.839420e+00
4.278862e+00,4.042888e+00,3,3,3.558699e+00,3.558698e+00
4.275108e+00,4.040792e+00,3,3,4.042154e+00,4.042154e+00
4.283683e+00,4.038942e+00,3,3,4.646804e+00,4.646936e+00
4.282171e+00,4.043929e+00,3,3,3.081846e+00,3.081849e+00
4.279737e+00,4.038156e+00,3,3,2.986914e+00,2.986914e+00
4.271736e+00,4.037846e+00,3,3,2.695569e+00,2.695569e+00
4.279729e+00,4.035818e+00,3,3,2.678527e+00,2.678526e+00
4.284329e+00,4.038003e+00,3,3,2.025052e+00,2.025052e+00
4.288685e+00,4.036507e+00,3,3,3.536750e+00,3.536750e+00
4.276456e+00,4.043522e+00,3,3,2.986092e+00,2.986092e+00
4.282621e+00,4.042671e+00,3,3,3.241187e+00,3.241186e+00
4.279629e+00,4.039561e+00,3,3,2.509942e+00,2.509942e+00
4.278927e+00,4.045775e+00,3,3,4.950565e+00,4.950563e+00
4.280763e+00,4.035825e+00,3,3,5.264211e+00,5.264210e+00
4.286656e+00,4.040806e+00,3,3,3.035999e+00,3.035999e+00
4.279997e+00,4.042524e+00,3,3,2.832081e+00,2.832080e+00
4.282577e+00,4.035694e+00,3,3,2.564080e+00,2.564080e+00
4.283747e+00,4.036317e+00,3,3,3.118748e+00,3.118747e+00
4.281488e+00,4.043704e+00,3,3,2.723381e+00,2.723468e+00
4.279692e+00,4.033765e+00,3,3,4.100128e+00,4.100112e+00
4.286859e+00,4.035730e+00,3,3,4.311732e+00,4.311731e+00
4.272464e+00,4.040198e+00,3,3,5.018941e+00,5.018941e+00
4.277745e+00,4.038294e+00,3,3,6.895627e+00,6.895629e+00
4.273768e+00,4.038759e+00,3,3,5.216503e+00,5.216531e+00
4.280063e+00,4.040964e+00,3,3,2.364610e+00,2.364612e+00
4.285446e+00,4.036227e+00,3,3,2.741696e+00,2.741700e+00
4.278717e+00,4.037002e+00,3,3,2.502678e+00,2.502680e+00
4.281453e+00,4.038548e+00,3,3,1.954938e+00,1.954938e+00
4.308735e+00,4.035534e+00,3,3,2.011510e+00,2.011509e+00
4.283772e+00,4.040200e+00,3,3,1.556719e+00,1.556719e+00
4.291132e+00,4.055294e+00,3,3,1.364546e+00,1.364545e+00
4.284486e+00,4.038513e+00,3,3,1.453513e+00,1.453513e+00
4.273546e+00,4.039968e+00,3,3,9.969628e-01,9.969622e-01
4.276545e+00,4.039869e+00,3,3,1.366015e+00,1.366015e+00
4.277218e+00,4.036204e+00,3,3,1.532287e+00,1.532286e+00
4.274557e+00,4.035956e+00,3,3,2.217009e+00,2.217008e+00
4.277042e+00,4.053116e+00,3,3,9.281567e+00,9.281340e+00
5.701978e+00,5.381020e+00,4,4,1.241105e+01,1.240926e+01
5.711260e+00,5.386196e+00,4,4,9.118168e+00,9.118123e+00
4.280474e+00,4.039108e+00,3,3,1.044800e+01,1.044308e+01
8.538016e+00,8.063590e+00,6,6,1.008574e+01,1.008855e+01
7.114437e+00,6.722107e+00,5,5,7.576152e+00,7.575157e+00
5.710891e+00,4.039241e+00,4,3,7.988328e+00,7.988326e+00
4.280012e+00,4.036519e+00,3,3,1.162566e+01,1.162568e+01
4.283449e+00,4.040402e+00,3,3,6.673472e+00,6.673485e+00
4.282584e+00,4.035219e+00,3,3,4.597812e+00,4.597812e+00
4.280555e+00,4.039783e+00,3,3,4.508617e+00,4.508616e+00
4.274953e+00,4.036714e+00,3,3,3.809911e+00,3.809911e+00
4.277051e+00,4.034891e+00,3,3,3.670195e+00,3.670195e+00
4.284791e+00,4.039143e+00,3,3,4.765433e+00,4.765431e+00
4.283445e+00,4.040047e+00,3,3,3.714939e+00,3.714939e+00
4.277240e+00,4.042651e+00,3,3,7.307895e+00,7.307892e+00
4.288576e+00,4.038256e+00,3,3,6.484933e+00,6.484933e+00
4.302908e+00,4.044933e+00,3,3,5.775220e+00,5.775220e+00
4.339487e+00,4.064619e+00,3,3,5.739001e+00,5.739003e+00
4.311430e+00,4.066213e+00,3,3,7.027995e+00,7.028022e+00
4.287671e+00,4.037165e+00,3,3,1.194737e+01,1.194542e+01
5.695796e+00,5.374400e+00,4,4,9.212563e+00,9.211848e+00
4.309367e+00,4.040948e+00,3,3,6.871159e+00,6.871149e+00
4.274619e+00,4.039384e+00,3,3,5.146061e+00,5.146061e+00
4.285343e+00,4.038721e+00,3,3,6.026973e+00,6.026972e+00
4.277786e+00,4.041172e+00,3,3,6.690534e+00,6.690534e+00
4.284476e+00,4.037142e+00,3,3,5.754537e+00,5.754537e+00
4.277569e+00,4.042060e+00,3,3,3.365672e+00,3.365672e+00
4.272965e+00,4.039078e+00,3,3,2.830105e+00,2.830104e+00
4.307504e+00,4.037625e+00,3,3,2.756888e+00,2.756888e+00
4.282513e+00,4.039628e+00,3,3,4.263953e+00,4.263950e+00
4.285172e+00,4.042125e+00,3,3,4.337530e+00,4.337530e+00
4.290138e+00,4.038753e+00,3,3,3.623706e+00,3.623705e+00
4.284501e+00,4.036418e+00,3,3,2.558038e+00,2.558038e+00
4.286134e+00,4.038906e+00,3,3,2.501338e+00,2.501338e+00
4.279967e+00,4.037604e+00,3,3,3.918150e+00,3.918147e+00
4.276082e+00,4.065202e+00,3,3,3.091484e+00,3.091485e+00
4.295935e+00,4.039479e+00,3,3,8.753294e+00,8.753303e+00
4.298412e+00,4.042154e+00,3,3,4.942960e+00,4.942973e+00
4.287780e+00,4.029650e+00,3,3,5.525932e+00,5.525952e+00
4.284845e+00,4.044082e+00,3,3,4.410974e+00,4.410993e+00
4.278276e+00,4.036993e+00,3,3,4.027185e+00,4.027186e+00
4.275684e+00,4.037425e+00,3,3,4.683813e+00,4.683812e+00
4.284664e+00,4.037711e+00,3,3,4.539381e+00,4.539381e+00
4.287284e+00,4.039387e+00,3,3,3.755540e+00,3.755539e+00
4.286330e+00,4.040386e+00,3,3,2.984540e+00,2.984539e+00
4.303760e+00,4.029775e+00,3,3,2.317980e+00,2.317980e+00
4.269142e+00,4.052976e+00,3,3,4.394508e+00,4.394506e+00
4.297466e+00,4.038146e+00,3,3,2.784212e+00,2.784212e+00
4.284554e+00,4.038769e+00,3,3,1.688609e+00,1.688610e+00
4.277155e+00,4.038912e+00,3,3,2.849514e+00,2.849513e+00
4.276494e+00,4.036307e+00,3,3,3.414395e+00,3.414394e+00
4.291325e+00,4.038935e+00,3,3,3.349399e+00,3.349399e+00
4.277777e+00,4.037595e+00,3,3,2.538747e+00,2.538749e+00
4.280962e+00,4.035884e+00,3,3,1.653139e+00,1.653139e+00
4.282754e+00,4.035630e+00,3,3,1.503953e+00,1.503953e+00
4.273691e+00,4.035641e+00,3,3,1.694909e+00,1.694909e+00
4.275493e+00,4.036352e+00,3,3,1.648079e+00,1.648079e+00
4.282032e+00,4.034576e+00,3,3,3.559686e+00,3.559684e+00
4.280922e+00,4.036494e+00,3,3,2.607606e+00,2.607606e+00
4.283230e+00,4.036332e+00,3,3,5.042117e+00,5.042114e+00
4.285462e+00,4.037695e+00,3,3,2.688877e+00,2.688878e+00
4.278710e+00,4.041653e+00,3,3,5.974294e+00,5.974349e+00
4.279575e+00,4.039481e+00,3,3,4.412753e+00,4.412752e+00
4.284454e+00,4.038862e+00,3,3,3.973620e+00,3.973619e+00
4.276778e+00,4.037787e+00,3,3,4.249246e+00,4.249246e+00
4.275515e+00,4.038897e+00,3,3,4.934552e+00,4.934550e+00
4.283943e+00,4.039074e+00,3,3,2.442666e+00,2.442667e+00
4.281247e+00,4.040165e+00,3,3,3.365112e+00,3.365111e+00
4.278208e+00,4.039335e+00,3,3,4.998364e+00,4.998224e+00
8.539683e+00,8.066385e+00,6,6,6.009187e+00,6.007035e+00
9.979301e+00,6.725899e+00,7,5,7.489944e+00,7.490532e+00
5.703398e+00,5.401555e+00,4,4,4.027311e+00,4.027310e+00
4.285177e+00,4.042047e+00,3,3,3.791068e+00,3.791067e+00
4.281768e+00,4.039993e+00,3,3,3.410389e+00,3.410389e+00
4.285458e+00,4.050782e+00,3,3,3.985083e+00,3.985079e+00
4.286075e+00,4.041370e+00,3,3,2.979816e+00,2.979816e+00
4.276275e+00,4.038379e+00,3,3,5.580451e+00,5.580450e+00
4.286309e+00,4.039943e+00,3,3,3.787880e+00,3.787879e+00
4.281729e+00,4.039871e+00,3,3,4.454223e+00,4.454222e+00
4.292895e+00,4.039585e+00,3,3,2.908308e+00,2.908309e+00
4.283215e+00,4.043226e+00,3,3,3.192256e+00,3.192255e+00
4.284292e+00,4.036249e+00,3,3,2.163687e+00,2.163687e+00
4.272674e+00,4.037637e+00,3,3,2.332568e+00,2.332567e+00
4.284873e+00,4.038293e+00,3,3,3.938125e+00,3.938133e+00
4.275891e+00,4.040183e+00,3,3,6.221874e+00,6.215089e+00
5.703607e+00,5.380713e+00,4,4,2.969349e+00,2.969822e+00
4.285453e+00,4.036065e+00,3,3,4.795123e+00,4.795454e+00
4.289074e+00,4.036205e+00,3,3,4.309134e+00,4.309247e+00
4.283100e+00,4.042938e+00,3,3,6.157459e+00,6.158242e+00
4.277834e+00,5.384472e+00,3,4,7.130789e+00,7.131011e+00
4.274281e+00,4.037844e+00,3,3,5.975839e+00,5.975860e+00
4.272900e+00,4.036407e+00,3,3,6.075397e+00,6.075406e+00
4.289181e+00,4.036742e+00,3,3,3.941362e+00,3.941363e+00
4.276357e+00,4.036821e+00,3,3,3.321477e+00,3.321477e+00
4.273745e+00,4.037823e+00,3,3,3.319365e+00,3.319364e+00
4.283820e+00,4.042069e+00,3,3,5.539778e+00,5.539776e+00
4.284404e+00,4.047927e+00,3,3,5.552298e+00,5.552298e+00
4.277885e+00,4.037382e+00,3,3,2.145002e+00,2.145002e+00
4.283728e+00,4.041878e+00,3,3,2.386840e+00,2.386839e+00
4.279466e+00,4.037231e+00,3,3,1.954959e+00,1.954959e+00
4.273826e+00,4.037185e+00,3,3,1.973994e+00,1.973994e+00
4.295737e+00,4.036342e+00,3,3,1.640074e+00,1.640074e+00
4.279086e+00,4.037331e+00,3,3,1.249765e+00,1.249765e+00
4.299198e+00,4.038951e+00,3,3,1.763821e+00,1.763820e+00
4.287274e+00,4.043664e+00,3,3,4.214644e+00,4.214766e+00
5.703070e+00,5.385841e+00,4,4,2.410281e+00,2.410281e+00
4.279633e+00,4.039282e+00,3,3,1.509658e+00,1.509658e+00
4.289463e+00,4.038267e+00,3,3,1.343179e+00,1.343178e+00
4.282766e+00,4.039465e+00,3,3,1.940919e+00,1.940918e+00
4.281146e+00,4.038202e+00,3,3,4.151531e+00,4.151529e+00
4.288469e+00,4.042207e+00,3,3,3.729680e+00,3.729681e+00
4.276561e+00,4.041248e+00,3,3,2.234692e+00,2.234693e+00
4.273535e+00,4.035959e+00,3,3,2.499456e+00,2.499456e+00
4.280156e+00,4.037001e+00,3,3,1.804452e+00,1.804452e+00
4.285676e+00,4.038321e+00,3,3,3.671479e+00,3.671478e+00
4.273133e+00,4.038276e+00,3,3,2.906733e+00,2.906733e+00
4.280109e+00,4.043677e+00,3,3,2.905303e+00,2.905303e+00
4.280690e+00,4.038177e+00,3,3,2.200713e+00,2.200713e+00
4.279602e+00,4.041884e+00,3,3,1.637120e+00,1.637119e+00
4.277949e+00,4.040607e+00,3,3,1.852548e+00,1.852548e+00
4.278378e+00,4.040312e+00,3,3,1.547174e+00,1.547174e+00
4.277467e+00,4.039460e+00,3,3,1.862384e+00,1.862383e+00
4.273273e+00,4.041858e+00,3,3,1.705595e+00,1.705595e+00
4.273244e+00,4.037392e+00,3,3,2.564202e+00,2.564200e+00
4.275700e+00,4.038176e+00,3,3,2.078875e+00,2.078875e+00
4.274946e+00,4.041226e+00,3,3,2.283765e+00,2.283764e+00
4.274911e+00,4.037437e+00,3,3,2.243678e+00,2.243678e+00

