2.961220e+00,2.769061e+00,2,2,0.000000e+00,0.000000e+00
4.425251e+00,4.165840e+00,3,3,2.877675e-01,2.877675e-01
4.433709e+00,4.160133e+00,3,3,1.149897e+00,1.149896e+00
4.419353e+00,4.161759e+00,3,3,1.805039e+00,1.805038e+00
4.420339e+00,4.162209e+00,3,3,1.695570e+00,1.695570e+00
4.409526e+00,4.161849e+00,3,3,6.381753e+00,6.381810e+00
5.896648e+00,5.553606e+00,4,4,9.328769e+00,9.329141e+00
8.822101e+00,8.320008e+00,6,6,8.776535e+00,8.777524e+00
4.406874e+00,4.165143e+00,3,3,1.332061e+01,1.331618e+01
5.881516e+00,5.545107e+00,4,4,6.882619e+00,6.882619e+00
4.419029e+00,4.161364e+00,3,3,8.204821e+00,8.204822e+00
4.411629e+00,4.168104e+00,3,3,5.896646e+00,5.896647e+00
4.419203e+00,4.162021e+00,3,3,5.863548e+00,5.863547e+00
4.410396e+00,4.161682e+00,3,3,4.709561e+00,4.709561e+00
4.411855e+00,4.162461e+00,3,3,3.937031e+00,3.937031e+00
4.413531e+00,4.165435e+00,3,3,3.238447e+00,3.238447e+00
4.406984e+00,4.162850e+00,3,3,2.980193e+00,2.980192e+00
4.412461e+00,4.162202e+00,3,3,3.056542e+00,3.056541e+00
4.416132e+00,4.159588e+00,3,3,3.672491e+00,3.672490e+00
4.422278e+00,4.163290e+00,3,3,3.158291e+00,3.158291e+00
4.412129e+00,4.168746e+00,3,3,3.880065e+00,3.880064e+00
4.417653e+00,4.165544e+00,3,3,3.021760e+00,3.021760e+00
4.410770e+00,4.164657e+00,3,3,3.099939e+00,3.099939e+00
4.416550e+00,4.161391e+00,3,3,2.878245e+00,2.878245e+00
4.421562e+00,4.162675e+00,3,3,2.938538e+00,2.938537e+00
4.416518e+00,4.166272e+00,3,3,2.709263e+00,2.709265e+00
4.415331e+00,4.160559e+00,3,3,2.259110e+00,2.259109e+00
4.415826e+00,4.164750e+00,3,3,2.144198e+00,2.144198e+00
4.407163e+00,4.161508e+00,3,3,4.240202e+00,4.240201e+00
4.420834e+00,4.165215e+00,3,3,4.096076e+00,4.096077e+00
4.410154e+00,4.163803e+00,3,3,1.801881e+00,1.801881e+00
4.410570e+00,4.160800e+00,3,3,1.970566e+00,1.970565e+00
4.421065e+00,4.162078e+00,3,3,5.458832e+00,5.458951e+00
4.414840e+00,4.160871e+00,3,3,2.884130e+00,2.884133e+00
4.414422e+00,4.167173e+00,3,3,2.911835e+00,2.911834e+00
4.418689e+00,4.163311e+00,3,3,4.063762e+00,4.063760e+00
4.427911e+00,4.162906e+00,3,3,2.107541e+00,2.107542e+00
4.414303e+00,4.167771e+00,3,3,1.118663e+00,1.118663e+00
4.421386e+00,4.160805e+00,3,3,1.283402e+00,1.283402e+00
4.414907e+00,4.162666e+00,3,3,2.295971e+00,2.296007e+00
4.416389e+00,4.164372e+00,3,3,1.731670e+00,1.731681e+00
4.419818e+00,4.160943e+00,3,3,1.632713e+00,1.632712e+00
4.418150e+00,4.167209e+00,3,3,1.993576e+00,1.993575e+00
4.415001e+00,4.161447e+00,3,3,1.705694e+00,1.705693e+00
4.414681e+00,4.161924e+00,3,3,1.280208e+00,1.280208e+00
4.409052e+00,4.164806e+00,3,3,1.107832e+00,1.107832e+00
4.417320e+00,4.163621e+00,3,3,1.216361e+00,1.216360e+00
4.407042e+00,4.165876e+00,3,3,2.701269e+00,2.701267e+00
4.407883e+00,4.161319e+00,3,3,2.407812e+00,2.407812e+00
4.417177e+00,4.173146e+00,3,3,1.712870e+00,1.712869e+00
4.414912e+00,4.157692e+00,3,3,1.171116e+00,1.171116e+00
4.417168e+00,4.163542e+00,3,3,1.386089e+00,1.386089e+00
4.412817e+00,4.168434e+00,3,3,1.816017e+00,1.816018e+00
4.422316e+00,4.183985e+00,3,3,2.059409e+00,2.059408e+00
4.440474e+00,4.161784e+00,3,3,1.542317e+00,1.542316e+00
4.422828e+00,4.163400e+00,3,3,1.299499e+00,1.299499e+00
4.419529e+00,4.178150e+00,3,3,1.068207e+00,1.068207e+00
4.434770e+00,4.168747e+00,3,3,9.492725e-01,9.492723e-01
4.419293e+00,4.184038e+00,3,3,7.665667e-01,7.665666e-01
4.429419e+00,4.169913e+00,3,3,2.378952e+00,2.378950e+00
4.413956e+00,4.166805e+00,3,3,2.660224e+00,2.660224e+00
4.411711e+00,4.169606e+00,3,3,2.174518e+00,2.174518e+00
4.416463e+00,4.175895e+00,3,3,4.756840e+00,4.756838e+00
4.418123e+00,4.162704e+00,3,3,8.382338e+00,8.382619e+00
5.889907e+00,5.550424e+00,4,4,6.585372e+00,6.585352e+00
4.415682e+00,4.179433e+00,3,3,6.262353e+00,6.262355e+00
4.459065e+00,4.167376e+00,3,3,6.913314e+00,6.913314e+00
4.416020e+00,4.162964e+00,3,3,5.109028e+00,5.109028e+00
4.413479e+00,4.162847e+00,3,3,4.314284e+00,4.314284e+00
4.413117e+00,4.174955e+00,3,3,3.938571e+00,3.938570e+00
4.419006e+00,4.161137e+00,3,3,3.251402e+00,3.251402e+00
4.418269e+00,4.160280e+00,3,3,3.180122e+00,3.180122e+00
4.413730e+00,4.160930e+00,3,3,2.904319e+00,2.904318e+00
4.422556e+00,4.159118e+00,3,3,3.861223e+00,3.861456e+00
5.878098e+00,5.544515e+00,4,4,3.670350e+00,3.670350e+00
4.416330e+00,4.160631e+00,3,3,7.138998e+00,7.139270e+00
5.885546e+00,5.543318e+00,4,4,4.023121e+00,4.023122e+00
4.414533e+00,4.158631e+00,3,3,7.536327e+00,7.536361e+00
4.416317e+00,4.167297e+00,3,3,5.537219e+00,5.537228e+00
4.411719e+00,4.161904e+00,3,3,2.683682e+00,2.683682e+00
4.415985e+00,4.166519e+00,3,3,2.590010e+00,2.590010e+00
4.411827e+00,4.161327e+00,3,3,3.525559e+00,3.525558e+00
4.424019e+00,4.162465e+00,3,3,4.871460e+00,4.871458e+00
4.411307e+00,4.168125e+00,3,3,6.481578e+00,6.481615e+00
4.413059e+00,4.160874e+00,3,3,5.641787e+00,5.641794e+00
4.417315e+00,4.167977e+00,3,3,5.451702e+00,5.451700e+00
4.414442e+00,4.166060e+00,3,3,6.635949e+00,6.635948e+00
4.427781e+00,4.160566e+00,3,3,7.492082e+00,7.492081e+00
4.405388e+00,4.165796e+00,3,3,7.900681e+00,7.900988e+00
5.872489e+00,5.542677e+00,4,4,5.566796e+00,5.566833e+00
4.416749e+00,4.164263e+00,3,3,5.185596e+00,5.185605e+00
4.411368e+00,4.161336e+00,3,3,3.961889e+00,3.961890e+00
4.419237e+00,4.162068e+00,3,3,3.198564e+00,3.198563e+00
4.416701e+00,4.164430e+00,3,3,5.791041e+00,5.791046e+00
4.426137e+00,4.166218e+00,3,3,5.864206e+00,5.863918e+00
5.878006e+00,6.930561e+00,4,5,4.024112e+00,4.024440e+00
8.822516e+00,8.313770e+00,6,6,9.985021e+00,9.980283e+00
8.822719e+00,8.312189e+00,6,6,7.252998e+00,7.252436e+00
1.030487e+01,5.546678e+00,7,4,5.461992e+00,5.464618e+00
5.875849e+00,5.542191e+00,4,4,3.277623e+00,3.277624e+00
4.414624e+00,4.164263e+00,3,3,2.558316e+00,2.558315e+00
4.422283e+00,4.168998e+00,3,3,4.196629e+00,4.196627e+00
4.411994e+00,4.162914e+00,3,3,2.807628e+00,2.807628e+00
4.422059e+00,4.162222e+00,3,3,6.901929e+00,6.901925e+00
4.413741e+00,4.159979e+00,3,3,9.269228e+00,9.269227e+00
4.413438e+00,4.162103e+00,3,3,1.008790e+01,1.008797e+01
4.410460e+00,4.169384e+00,3,3,1.354712e+01,1.354934e+01
1.027933e+01,8.311378e+00,7,6,1.590127e+01,1.590132e+01
5.879584e+00,5.552788e+00,4,4,1.199204e+01,1.199204e+01
4.420468e+00,4.166384e+00,3,3,8.618522e+00,8.618525e+00
4.426950e+00,4.164751e+00,3,3,7.904420e+00,7.904430e+00
4.413898e+00,4.160582e+00,3,3,8.105933e+00,8.106534e+00
8.821388e+00,8.307756e+00,6,6,1.173461e+01,1.174931e+01
8.812872e+00,8.311257e+00,6,6,1.252895e+01,1.252537e+01
8.820298e+00,8.313845e+00,6,6,1.333726e+01,1.333046e+01
8.823375e+00,8.309105e+00,6,6,1.302878e+01,1.302056e+01
8.808385e+00,8.310391e+00,6,6,1.416739e+01,1.415827e+01
8.817984e+00,8.315881e+00,6,6,1.665549e+01,1.665346e+01
5.869616e+00,6.926689e+00,4,5,1.064513e+01,1.066449e+01
4.408265e+00,4.166316e+00,3,3,6.483636e+00,6.483963e+00
4.412230e+00,4.162083e+00,3,3,4.742873e+00,4.742875e+00
4.417209e+00,4.161591e+00,3,3,4.073993e+00,4.073993e+00
4.414374e+00,4.157522e+00,3,3,4.073980e+00,4.073979e+00
4.422391e+00,4.159699e+00,3,3,4.341672e+00,4.341670e+00
4.418903e+00,4.172122e+00,3,3,3.206437e+00,3.206437e+00
4.416367e+00,4.165429e+00,3,3,2.751437e+00,2.751436e+00
4.424241e+00,4.159143e+00,3,3,2.185941e+00,2.185941e+00
4.413419e+00,4.164497e+00,3,3,2.631400e+00,2.631400e+00
4.420156e+00,4.161913e+00,3,3,4.316449e+00,4.316447e+00
4.411011e+00,4.169051e+00,3,3,9.334594e+00,9.333961e+00
5.872133e+00,5.547548e+00,4,4,4.830615e+00,4.830618e+00
4.416972e+00,4.172991e+00,3,3,3.666020e+00,3.666021e+00
4.410783e+00,4.164166e+00,3,3,3.821217e+00,3.821217e+00
4.424727e+00,4.165130e+00,3,3,4.339129e+00,4.339128e+00
4.410119e+00,4.163812e+00,3,3,3.315136e+00,3.315136e+00
4.421054e+00,4.159668e+00,3,3,2.603087e+00,2.603087e+00
4.416106e+00,4.166456e+00,3,3,2.293165e+00,2.293165e+00
4.414413e+00,4.161733e+00,3,3,1.596506e+00,1.596505e+00
4.413139e+00,4.162573e+00,3,3,1.468291e+00,1.468291e+00
4.408189e+00,4.162172e+00,3,3,1.781042e+00,1.781042e+00
4.415563e+00,4.159150e+00,3,3,2.077096e+00,2.077096e+00
4.409952e+00,4.158053e+00,3,3,2.263173e+00,2.263172e+00
4.422147e+00,4.165066e+00,3,3,2.620312e+00,2.620311e+00
4.411373e+00,4.167580e+00,3,3,2.634755e+00,2.634754e+00
4.416558e+00,4.162062e+00,3,3,1.262106e+00,1.262106e+00
4.414546e+00,4.158482e+00,3,3,2.173786e+00,2.173785e+00
4.420613e+00,4.159426e+00,3,3,2.392816e+00,2.392815e+00
4.414543e+00,4.162496e+00,3,3,2.515635e+00,2.515635e+00
4.414241e+00,4.166418e+00,3,3,2.121153e+00,2.121152e+00
4.407502e+00,4.161675e+00,3,3,2.918018e+00,2.918017e+00
4.419206e+00,4.160840e+00,3,3,2.348262e+00,2.348262e+00
4.408443e+00,4.161767e+00,3,3,2.359238e+00,2.359238e+00
4.415872e+00,4.157522e+00,3,3,2.100942e+00,2.100941e+00
4.411927e+00,4.163478e+00,3,3,2.000149e+00,2.000149e+00
4.413668e+00,4.165960e+00,3,3,1.382458e+00,1.382457e+00
4.420388e+00,4.162094e+00,3,3,1.587459e+00,1.587459e+00
4.411036e+00,4.160697e+00,3,3,1.231490e+00,1.231490e+00
4.418633e+00,4.160966e+00,3,3,1.871236e+00,1.871235e+00
4.409851e+00,4.158737e+00,3,3,1.898636e+00,1.898635e+00
4.414142e+00,4.160666e+00,3,3,2.072293e+00,2.072293e+00
4.421256e+00,4.167752e+00,3,3,1.759460e+00,1.759460e+00
4.412708e+00,4.162129e+00,3,3,2.723050e+00,2.723049e+00
4.422913e+00,4.161861e+00,3,3,1.628160e+00,1.628160e+00
4.412943e+00,4.175040e+00,3,3,2.190583e+00,2.190582e+00
4.409291e+00,4.163102e+00,3,3,1.581958e+00,1.581956e+00
4.444670e+00,4.165209e+00,3,3,8.861871e-01,8.861871e-01
4.412943e+00,4.158972e+00,3,3,1.182340e+00,1.182340e+00
4.416210e+00,4.163692e+00,3,3,3.177072e+00,3.177070e+00
4.409271e+00,4.159587e+00,3,3,2.396651e+00,2.396651e+00
4.414616e+00,4.159365e+00,3,3,2.220925e+00,2.220925e+00
4.411633e+00,4.162522e+00,3,3,2.668529e+00,2.668528e+00
4.411198e+00,4.158707e+00,3,3,2.156816e+00,2.156817e+00
4.424785e+00,4.161580e+00,3,3,1.442302e+00,1.442302e+00
4.415900e+00,4.168277e+00,3,3,2.067483e+00,2.067482e+00
4.426859e+00,4.158990e+00,3,3,1.875084e+00,1.875082e+00
4.407202e+00,4.166064e+00,3,3,1.489662e+00,1.489661e+00
4.414391e+00,4.161564e+00,3,3,1.498650e+00,1.498650e+00
4.416923e+00,4.160243e+00,3,3,1.472832e+00,1.472831e+00
4.409682e+00,4.158848e+00,3,3,1.502032e+00,1.502031e+00
4.416338e+00,4.158165e+00,3,3,1.447534e+00,1.447533e+00
4.408523e+00,4.160346e+00,3,3,1.920544e+00,1.920543e+00
4.411657e+00,4.160238e+00,3,3,3.285209e+00,3.285207e+00
4.406612e+00,4.166882e+00,3,3,1.686596e+00,1.686596e+00
4.414315e+00,4.157814e+00,3,3,2.106364e+00,2.106364e+00
4.410248e+00,4.163871e+00,3,3,1.383636e+00,1.383636e+00
4.404317e+00,4.160112e+00,3,3,1.800713e+00,1.800712e+00
4.417811e+00,4.157486e+00,3,3,1.554119e+00,1.554118e+00
4.411619e+00,4.166264e+00,3,3,1.415657e+00,1.415657e+00
4.406809e+00,4.160204e+00,3,3,1.783252e+00,1.783251e+00
4.416998e+00,4.164328e+00,3,3,3.325259e+00,3.325256e+00
4.410025e+00,4.159075e+00,3,3,1.564671e+00,1.564672e+00
4.423591e+00,4.160926e+00,3,3,1.986674e+00,1.986673e+00
4.417956e+00,4.160174e+00,3,3,2.761433e+00,2.761432e+00
4.411978e+00,4.159207e+00,3,3,4.424166e+00,4.424164e+00
4.424111e+00,4.165083e+00,3,3,3.444279e+00,3.444279e+00
4.407960e+00,4.156492e+00,3,3,3.484845e+00,3.484844e+00
5.884040e+00,4.158199e+00,4,3,1.051444e+01,1.051865e+01
1.026141e+01,8.302075e+00,7,6,8.500174e+00,8.509316e+00
5.872419e+00,5.538913e+00,4,4,5.540815e+00,5.540815e+00
4.419999e+00,4.163091e+00,3,3,6.114128e+00,6.114128e+00
4.414696e+00,4.160503e+00,3,3,5.847419e+00,5.847420e+00
4.417865e+00,4.158972e+00,3,3,5.562384e+00,5.562384e+00
4.414229e+00,4.163176e+00,3,3,7.086398e+00,7.086404e+00
4.408027e+00,4.158300e+00,3,3,5.608347e+00,5.608346e+00
4.408384e+00,4.159689e+00,3,3,6.153202e+00,6.153200e+00
4.410464e+00,4.163331e+00,3,3,4.375254e+00,4.375254e+00
4.413944e+00,4.158816e+00,3,3,4.880407e+00,4.880406e+00
4.413163e+00,4.163787e+00,3,3,3.820981e+00,3.820981e+00
4.407133e+00,4.159129e+00,3,3,4.009807e+00,4.009806e+00
4.412648e+00,4.162384e+00,3,3,2.835223e+00,2.835224e+00
4.403713e+00,4.158656e+00,3,3,2.259986e+00,2.259986e+00
4.416425e+00,4.159492e+00,3,3,2.327772e+00,2.327772e+00
4.422217e+00,4.159627e+00,3,3,2.166730e+00,2.166730e+00
4.420593e+00,4.163601e+00,3,3,1.614806e+00,1.614805e+00
4.416308e+00,4.160236e+00,3,3,3.344454e+00,3.344452e+00
4.410256e+00,4.158643e+00,3,3,4.110259e+00,4.110258e+00
4.412756e+00,4.160869e+00,3,3,2.145495e+00,2.145496e+00
4.432422e+00,4.158387e+00,3,3,1.182124e+00,1.182124e+00
4.422735e+00,4.163513e+00,3,3,1.474438e+00,1.474437e+00
4.421299e+00,4.167036e+00,3,3,8.633242e-01,8.633241e-01
4.414719e+00,4.159086e+00,3,3,1.175360e+00,1.175359e+00
4.415977e+00,4.162507e+00,3,3,1.768188e+00,1.768187e+00
4.403731e+00,4.161226e+00,3,3,2.350507e+00,2.350507e+00
4.415937e+00,4.161684e+00,3,3,2.655237e+00,2.655237e+00
4.412081e+00,4.165854e+00,3,3,3.631769e+00,3.631768e+00
4.409110e+00,4.158247e+00,3,3,2.335914e+00,2.335914e+00
4.416622e+00,4.158009e+00,3,3,1.872912e+00,1.872912e+00
4.408705e+00,4.162167e+00,3,3,1.459647e+00,1.459647e+00
4.412075e+00,4.160622e+00,3,3,1.053733e+00,1.053733e+00
4.421592e+00,4.158150e+00,3,3,1.116194e+00,1.116194e+00
4.409575e+00,4.157558e+00,3,3,1.423746e+00,1.423746e+00
4.420634e+00,4.159860e+00,3,3,1.054562e+00,1.054562e+00
4.413478e+00,4.160385e+00,3,3,1.026268e+00,1.026267e+00
4.409408e+00,4.162697e+00,3,3,7.254665e-01,7.254663e-01
4.410785e+00,4.157380e+00,3,3,1.774499e+00,1.774498e+00
4.412720e+00,4.161605e+00,3,3,1.418052e+00,1.418052e+00
4.408608e+00,4.164211e+00,3,3,1.968336e+00,1.968335e+00
4.409186e+00,4.160029e+00,3,3,2.983692e+00,2.983691e+00
4.412014e+00,4.160654e+00,3,3,4.221665e+00,4.221664e+00
4.412607e+00,4.158182e+00,3,3,2.792423e+00,2.792424e+00
4.422962e+00,4.156678e+00,3,3,1.694129e+00,1.694129e+00
4.404713e+00,4.166924e+00,3,3,1.342082e+00,1.342082e+00
4.411094e+00,4.163578e+00,3,3,1.299672e+00,1.299671e+00
4.415743e+00,4.158910e+00,3,3,1.366795e+00,1.366794e+00
4.410211e+00,4.161348e+00,3,3,1.553345e+00,1.553345e+00
4.420595e+00,4.163309e+00,3,3,3.101066e+00,3.101064e+00
4.407246e+00,4.166267e+00,3,3,2.886133e+00,2.886133e+00
4.420424e+00,4.163153e+00,3,3,2.469134e+00,2.469134e+00
4.415373e+00,4.165394e+00,3,3,2.389870e+00,2.389870e+00
4.412187e+00,4.160075e+00,3,3,2.621808e+00,2.621808e+00
4.417132e+00,4.159701e+00,3,3,2.942850e+00,2.942850e+00
4.410646e+00,4.159125e+00,3,3,5.094118e+00,5.094306e+00
8.809468e+00,5.544797e+00,6,4,7.342800e+00,7.335239e+00
5.877593e+00,5.543470e+00,4,4,7.743673e+00,7.743905e+00
7.338349e+00,6.926258e+00,5,5,7.799993e+00,7.810348e+00
5.891583e+00,5.553257e+00,4,4,6.905393e+00,6.905419e+00
4.414699e+00,4.167236e+00,3,3,5.981832e+00,5.981834e+00
4.409348e+00,4.162838e+00,3,3,6.191696e+00,6.191695e+00
4.417189e+00,4.164152e+00,3,3,4.905466e+00,4.905466e+00
4.412240e+00,4.160095e+00,3,3,4.393127e+00,4.393126e+00
4.419347e+00,4.163144e+00,3,3,4.124036e+00,4.124036e+00
4.412369e+00,4.162116e+00,3,3,3.519908e+00,3.519908e+00
4.411589e+00,4.161536e+00,3,3,4.161150e+00,4.161146e+00
4.409805e+00,4.168536e+00,3,3,3.831550e+00,3.831556e+00
4.409221e+00,4.163013e+00,3,3,2.872684e+00,2.872684e+00
4.417744e+00,4.160463e+00,3,3,2.890232e+00,2.890231e+00
4.406388e+00,4.160548e+00,3,3,1.951319e+00,1.951319e+00
4.413498e+00,4.163547e+00,3,3,4.531961e+00,4.531959e+00
4.408340e+00,4.165610e+00,3,3,9.408595e+00,9.407911e+00
1.176436e+01,8.332972e+00,8,6,6.314950e+00,6.314208e+00
5.880489e+00,5.541308e+00,4,4,7.453724e+00,7.453528e+00
5.884996e+00,5.552531e+00,4,4,1.075198e+01,1.075143e+01
7.348295e+00,6.929153e+00,5,5,6.088082e+00,6.088531e+00
5.876780e+00,4.160865e+00,4,3,7.886411e+00,7.889200e+00
5.870636e+00,5.541237e+00,4,4,7.414184e+00,7.414115e+00
4.411839e+00,4.156983e+00,3,3,3.504105e+00,3.504107e+00
4.407110e+00,4.160433e+00,3,3,2.925703e+00,2.925703e+00
4.420455e+00,4.184532e+00,3,3,2.240473e+00,2.240473e+00
4.409475e+00,4.159310e+00,3,3,2.261361e+00,2.261360e+00
4.416132e+00,4.161597e+00,3,3,3.651248e+00,3.651246e+00
4.408677e+00,4.159930e+00,3,3,3.020237e+00,3.020237e+00
4.409703e+00,4.161377e+00,3,3,2.000391e+00,2.000390e+00
4.410733e+00,4.161677e+00,3,3,2.622959e+00,2.622958e+00
4.412784e+00,4.162327e+00,3,3,2.427858e+00,2.427858e+00
4.410617e+00,4.159340e+00,3,3,3.611715e+00,3.611714e+00
4.414112e+00,4.162054e+00,3,3,3.565535e+00,3.565534e+00
4.409999e+00,4.159746e+00,3,3,3.064416e+00,3.064416e+00
4.413214e+00,4.164748e+00,3,3,5.501719e+00,5.501739e+00
4.415159e+00,4.162938e+00,3,3,4.372132e+00,4.372134e+00
4.405862e+00,4.159491e+00,3,3,2.999405e+00,2.999406e+00
4.412004e+00,4.160757e+00,3,3,1.969576e+00,1.969576e+00
4.408719e+00,4.159888e+00,3,3,1.954011e+00,1.954011e+00
4.413063e+00,4.160017e+00,3,3,4.386153e+00,4.386151e+00
4.408288e+00,4.159598e+00,3,3,4.072331e+00,4.072330e+00
4.415917e+00,4.159683e+00,3,3,3.068664e+00,3.068665e+00
4.407252e+00,4.168231e+00,3,3,3.224495e+00,3.224494e+00
4.411415e+00,4.160543e+00,3,3,3.707625e+00,3.707624e+00
4.419843e+00,4.163166e+00,3,3,3.669581e+00,3.669581e+00
4.415145e+00,4.157847e+00,3,3,2.399692e+00,2.399692e+00
4.412962e+00,4.163925e+00,3,3,3.251933e+00,3.251932e+00
4.407143e+00,4.165398e+00,3,3,7.293376e+00,7.293122e+00
5.874444e+00,5.541395e+00,4,4,9.374862e+00,9.372611e+00
1.028445e+01,8.311869e+00,7,6,9.928174e+00,9.947850e+00
5.863754e+00,5.544708e+00,4,4,4.824499e+00,4.824497e+00
4.410773e+00,4.163091e+00,3,3,3.218359e+00,3.218359e+00
4.413914e+00,4.156225e+00,3,3,3.057132e+00,3.057131e+00
4.414928e+00,4.160211e+00,3,3,2.348565e+00,2.348565e+00
4.405650e+00,4.157029e+00,3,3,1.005406e+01,1.005415e+01
8.799595e+00,8.309788e+00,6,6,1.454033e+01,1.454624e+01
8.812152e+00,8.313745e+00,6,6,1.281813e+01,1.281956e+01
8.808944e+00,8.319031e+00,6,6,1.076619e+01,1.076608e+01
8.805121e+00,8.311442e+00,6,6,9.827180e+00,9.823414e+00
8.802870e+00,8.304511e+00,6,6,1.444147e+01,1.444029e+01
1.026822e+01,8.312079e+00,7,6,1.562321e+01,1.564791e+01
8.811897e+00,5.539544e+00,6,4,1.769952e+01,1.768711e+01
8.810835e+00,5.538285e+00,6,4,1.268314e+01,1.267598e+01
5.884892e+00,5.546214e+00,4,4,1.356595e+01,1.356664e+01
7.351017e+00,6.924792e+00,5,5,1.109959e+01,1.110017e+01
4.408149e+00,4.192745e+00,3,3,8.293752e+00,8.293774e+00
4.405952e+00,4.161896e+00,3,3,6.426932e+00,6.426932e+00
4.415360e+00,4.160929e+00,3,3,5.964759e+00,5.964757e+00
4.401569e+00,4.159312e+00,3,3,4.592455e+00,4.592455e+00
4.414424e+00,4.159513e+00,3,3,3.864624e+00,3.864624e+00
4.403839e+00,4.164678e+00,3,3,3.966680e+00,3.966679e+00
4.403461e+00,4.159962e+00,3,3,3.531483e+00,3.531484e+00
4.415203e+00,4.162141e+00,3,3,2.200551e+00,2.200552e+00
4.412535e+00,4.158847e+00,3,3,3.840356e+00,3.840355e+00
4.416527e+00,4.159739e+00,3,3,2.553661e+00,2.553670e+00
4.405184e+00,4.160134e+00,3,3,2.441829e+00,2.441828e+00
4.407320e+00,4.158899e+00,3,3,1.500988e+00,1.500988e+00
4.417466e+00,4.165072e+00,3,3,5.613612e+00,5.613608e+00
4.409768e+00,4.160390e+00,3,3,2.634544e+00,2.634545e+00
4.409420e+00,4.161403e+00,3,3,4.433227e+00,4.433230e+00
4.403175e+00,4.158428e+00,3,3,4.232768e+00,4.232772e+00
4.410300e+00,4.162508e+00,3,3,4.480600e+00,4.480608e+00
4.407461e+00,4.167232e+00,3,3,2.839419e+00,2.839420e+00
4.413445e+00,4.161814e+00,3,3,3.558699e+00,3.558698e+00
4.406084e+00,4.161151e+00,3,3,4.042154e+00,4.042154e+00
4.409733e+00,4.157875e+00,3,3,4.646804e+00,4.646936e+00
4.412570e+00,4.157960e+00,3,3,3.081846e+00,3.081849e+00
4.404915e+00,4.157250e+00,3,3,2.986914e+00,2.986914e+00
4.405982e+00,4.158186e+00,3,3,2.695569e+00,2.695569e+00
4.402243e+00,4.167355e+00,3,3,2.678527e+00,2.678526e+00
4.409543e+00,4.162846e+00,3,3,2.025052e+00,2.025052e+00
4.414503e+00,4.160269e+00,3,3,3.536750e+00,3.536750e+00
4.411413e+00,4.162653e+00,3,3,2.986092e+00,2.986092e+00
4.420244e+00,4.161078e+00,3,3,3.241187e+00,3.241186e+00
4.409739e+00,4.168360e+00,3,3,2.509942e+00,2.509942e+00
4.410181e+00,4.164249e+00,3,3,4.950565e+00,4.950563e+00
4.416483e+00,4.165383e+00,3,3,5.264211e+00,5.264210e+00
4.409487e+00,4.159061e+00,3,3,3.035999e+00,3.035999e+00
4.416664e+00,4.161666e+00,3,3,2.832081e+00,2.832080e+00
4.403515e+00,4.158119e+00,3,3,2.564080e+00,2.564080e+00
4.409840e+00,4.162377e+00,3,3,3.118748e+00,3.118747e+00
4.415841e+00,4.162136e+00,3,3,2.723381e+00,2.723468e+00
4.411664e+00,4.156566e+00,3,3,4.100128e+00,4.100112e+00
4.412981e+00,4.157312e+00,3,3,4.311732e+00,4.311731e+00
4.408966e+00,4.161313e+00,3,3,5.018941e+00,5.018941e+00
4.409536e+00,4.161051e+00,3,3,6.895627e+00,6.895629e+00
4.417366e+00,4.165915e+00,3,3,5.216503e+00,5.216531e+00
4.416594e+00,4.160453e+00,3,3,2.364610e+00,2.364612e+00
4.409966e+00,4.159519e+00,3,3,2.741696e+00,2.741700e+00
4.410136e+00,4.158991e+00,3,3,2.502678e+00,2.502680e+00
4.417442e+00,4.159374e+00,3,3,1.954938e+00,1.954938e+00
4.415582e+00,4.161042e+00,3,3,2.011510e+00,2.011509e+00
4.411292e+00,4.161170e+00,3,3,1.556719e+00,1.556719e+00
4.410906e+00,4.161945e+00,3,3,1.364546e+00,1.364545e+00
4.407483e+00,4.158658e+00,3,3,1.453513e+00,1.453513e+00
4.416170e+00,4.159652e+00,3,3,9.969628e-01,9.969622e-01
4.405455e+00,4.158115e+00,3,3,1.366015e+00,1.366015e+00
4.417140e+00,4.158183e+00,3,3,1.532287e+00,1.532286e+00
4.408168e+00,4.166489e+00,3,3,2.217009e+00,2.217008e+00
4.436992e+00,4.167198e+00,3,3,9.281567e+00,9.281340e+00
5.872256e+00,5.540817e+00,4,4,1.241105e+01,1.240926e+01
5.883690e+00,5.541447e+00,4,4,9.118168e+00,9.118123e+00
4.419141e+00,4.167858e+00,3,3,1.044800e+01,1.044308e+01
8.808908e+00,8.332048e+00,6,6,1.008574e+01,1.008855e+01
7.337853e+00,6.929821e+00,5,5,7.576152e+00,7.575157e+00
5.912915e+00,4.180225e+00,4,3,7.988328e+00,7.988326e+00
4.435733e+00,4.173705e+00,3,3,1.162566e+01,1.162568e+01
4.413202e+00,4.161857e+00,3,3,6.673472e+00,6.673485e+00
4.412295e+00,4.179871e+00,3,3,4.597812e+00,4.597812e+00
4.407765e+00,4.165658e+00,3,3,4.508617e+00,4.508616e+00
4.407612e+00,4.158796e+00,3,3,3.809911e+00,3.809911e+00
4.443672e+00,4.163260e+00,3,3,3.670195e+00,3.670195e+00
4.405273e+00,4.183478e+00,3,3,4.765433e+00,4.765431e+00
4.412931e+00,4.160919e+00,3,3,3.714939e+00,3.714939e+00
4.424280e+00,4.165625e+00,3,3,7.307895e+00,7.307892e+00
4.408953e+00,4.161720e+00,3,3,6.484933e+00,6.484933e+00
4.421031e+00,4.169242e+00,3,3,5.775220e+00,5.775220e+00
4.410984e+00,4.191563e+00,3,3,5.739001e+00,5.739003e+00
4.416164e+00,4.165096e+00,3,3,7.027995e+00,7.028022e+00
4.413275e+00,4.166349e+00,3,3,1.194737e+01,1.194542e+01
5.866403e+00,5.543483e+00,4,4,9.212563e+00,9.211848e+00
4.410031e+00,4.164942e+00,3,3,6.871159e+00,6.871149e+00
4.411352e+00,4.158897e+00,3,3,5.146061e+00,5.146061e+00
4.416799e+00,4.159562e+00,3,3,6.026973e+00,6.026972e+00
4.403573e+00,4.159672e+00,3,3,6.690534e+00,6.690534e+00
4.418182e+00,4.162314e+00,3,3,5.754537e+00,5.754537e+00
4.411093e+00,4.160695e+00,3,3,3.365672e+00,3.365672e+00
4.420782e+00,4.160285e+00,3,3,2.830105e+00,2.830104e+00
4.423102e+00,4.159446e+00,3,3,2.756888e+00,2.756888e+00
4.407770e+00,4.158946e+00,3,3,4.263953e+00,4.263950e+00
4.412196e+00,4.163250e+00,3,3,4.337530e+00,4.337530e+00
4.411062e+00,4.159378e+00,3,3,3.623706e+00,3.623705e+00
4.415655e+00,4.158611e+00,3,3,2.558038e+00,2.558038e+00
4.418564e+00,4.165011e+00,3,3,2.501338e+00,2.501338e+00
4.412401e+00,4.160102e+00,3,3,3.918150e+00,3.918147e+00
4.410267e+00,4.163974e+00,3,3,3.091484e+00,3.091485e+00
4.412092e+00,4.160960e+00,3,3,8.753294e+00,8.753303e+00
4.412121e+00,4.161284e+00,3,3,4.942960e+00,4.942973e+00
4.416329e+00,4.163018e+00,3,3,5.525932e+00,5.525952e+00
4.411427e+00,4.161475e+00,3,3,4.410974e+00,4.410993e+00
4.413631e+00,4.162748e+00,3,3,4.027185e+00,4.027186e+00
4.408555e+00,4.161757e+00,3,3,4.683813e+00,4.683812e+00
4.425469e+00,4.165008e+00,3,3,4.539381e+00,4.539381e+00
4.426970e+00,4.077186e+00,3,3,3.755540e+00,3.755539e+00
4.315935e+00,4.068412e+00,3,3,2.984540e+00,2.984539e+00
4.312915e+00,4.095721e+00,3,3,2.317980e+00,2.317980e+00
4.326023e+00,4.041609e+00,3,3,4.394508e+00,4.394506e+00
4.281300e+00,4.040574e+00,3,3,2.784212e+00,2.784212e+00
4.277228e+00,4.041532e+00,3,3,1.688609e+00,1.688610e+00
4.288991e+00,4.043547e+00,3,3,2.849514e+00,2.849513e+00
4.289317e+00,4.042571e+00,3,3,3.414395e+00,3.414394e+00
4.282230e+00,4.040705e+00,3,3,3.349399e+00,3.349399e+00
4.332082e+00,4.044016e+00,3,3,2.538747e+00,2.538749e+00
4.284370e+00,4.043038e+00,3,3,1.653139e+00,1.653139e+00
4.309189e+00,4.066281e+00,3,3,1.503953e+00,1.503953e+00
4.315100e+00,4.070017e+00,3,3,1.694909e+00,1.694909e+00
4.317004e+00,4.042918e+00,3,3,1.648079e+00,1.648079e+00
4.286793e+00,4.070812e+00,3,3,3.559686e+00,3.559684e+00
4.289226e+00,4.043070e+00,3,3,2.607606e+00,2.607606e+00
4.284734e+00,4.044819e+00,3,3,5.042117e+00,5.042114e+00
4.322770e+00,4.045562e+00,3,3,2.688877e+00,2.688878e+00
4.281840e+00,4.044547e+00,3,3,5.974294e+00,5.974349e+00
4.281435e+00,4.040985e+00,3,3,4.412753e+00,4.412752e+00
4.288706e+00,4.040601e+00,3,3,3.973620e+00,3.973619e+00
4.316354e+00,4.042858e+00,3,3,4.249246e+00,4.249246e+00
4.287014e+00,4.041016e+00,3,3,4.934552e+00,4.934550e+00
4.291742e+00,4.042763e+00,3,3,2.442666e+00,2.442667e+00
4.283555e+00,4.040085e+00,3,3,3.365112e+00,3.365111e+00
4.276918e+00,4.040447e+00,3,3,4.998364e+00,4.998224e+00
8.581580e+00,8.069299e+00,6,6,6.009187e+00,6.007035e+00
9.979179e+00,6.729442e+00,7,5,7.489944e+00,7.490532e+00
5.706477e+00,5.388446e+00,4,4,4.027311e+00,4.027310e+00
4.284982e+00,4.043136e+00,3,3,3.791068e+00,3.791067e+00
4.290724e+00,4.044120e+00,3,3,3.410389e+00,3.410389e+00
4.309970e+00,4.039855e+00,3,3,3.985083e+00,3.985079e+00
4.287522e+00,4.039679e+00,3,3,2.979816e+00,2.979816e+00
4.294011e+00,4.041508e+00,3,3,5.580451e+00,5.580450e+00
4.279863e+00,4.044081e+00,3,3,3.787880e+00,3.787879e+00
4.286157e+00,4.040798e+00,3,3,4.454223e+00,4.454222e+00
4.318083e+00,4.043148e+00,3,3,2.908308e+00,2.908309e+00
4.282476e+00,4.041367e+00,3,3,3.192256e+00,3.192255e+00
4.282517e+00,4.068075e+00,3,3,2.163687e+00,2.163687e+00
4.288164e+00,4.066703e+00,3,3,2.332568e+00,2.332567e+00
4.311334e+00,4.069454e+00,3,3,3.938125e+00,3.938133e+00
4.286771e+00,4.044380e+00,3,3,6.221874e+00,6.215089e+00
5.707865e+00,5.409742e+00,4,4,2.969349e+00,2.969822e+00
4.284277e+00,4.041379e+00,3,3,4.795123e+00,4.795454e+00
4.286339e+00,4.038463e+00,3,3,4.309134e+00,4.309247e+00
4.310853e+00,4.159241e+00,3,3,6.157459e+00,6.158242e+00
4.280187e+00,5.397471e+00,3,4,7.130789e+00,7.131011e+00
4.289471e+00,4.064353e+00,3,3,5.975839e+00,5.975860e+00
4.288068e+00,4.042929e+00,3,3,6.075397e+00,6.075406e+00
4.285845e+00,4.040785e+00,3,3,3.941362e+00,3.941363e+00
4.289414e+00,4.040379e+00,3,3,3.321477e+00,3.321477e+00
4.290258e+00,4.042499e+00,3,3,3.319365e+00,3.319364e+00
4.281963e+00,4.042147e+00,3,3,5.539778e+00,5.539776e+00
4.286576e+00,4.039596e+00,3,3,5.552298e+00,5.552298e+00
4.284244e+00,4.064714e+00,3,3,2.145002e+00,2.145002e+00
4.281729e+00,4.042157e+00,3,3,2.386840e+00,2.386839e+00
4.281040e+00,4.038481e+00,3,3,1.954959e+00,1.954959e+00
4.281854e+00,4.041274e+00,3,3,1.973994e+00,1.973994e+00
4.286976e+00,4.042374e+00,3,3,1.640074e+00,1.640074e+00
4.285186e+00,4.069368e+00,3,3,1.249765e+00,1.249765e+00
4.275401e+00,4.043253e+00,3,3,1.763821e+00,1.763820e+00
4.286251e+00,4.075455e+00,3,3,4.214644e+00,4.214766e+00
5.713071e+00,5.389181e+00,4,4,2.410281e+00,2.410281e+00
4.279015e+00,4.044602e+00,3,3,1.509658e+00,1.509658e+00
4.278402e+00,4.041356e+00,3,3,1.343179e+00,1.343178e+00
4.286386e+00,4.040044e+00,3,3,1.940919e+00,1.940918e+00
4.304536e+00,4.042108e+00,3,3,4.151531e+00,4.151529e+00
4.286475e+00,4.042412e+00,3,3,3.729680e+00,3.729681e+00
4.312744e+00,4.068368e+00,3,3,2.234692e+00,2.234693e+00
4.302713e+00,4.067999e+00,3,3,2.499456e+00,2.499456e+00
4.286853e+00,4.046137e+00,3,3,1.804452e+00,1.804452e+00
4.312782e+00,4.040833e+00,3,3,3.671479e+00,3.671478e+00
4.291088e+00,4.043039e+00,3,3,2.906733e+00,2.906733e+00
4.290578e+00,4.042551e+00,3,3,2.905303e+00,2.905303e+00
4.284438e+00,4.044322e+00,3,3,2.200713e+00,2.200713e+00
4.273209e+00,4.040455e+00,3,3,1.637120e+00,1.637119e+00
4.282721e+00,4.038964e+00,3,3,1.852548e+00,1.852548e+00
4.276015e+00,4.042023e+00,3,3,1.547174e+00,1.547174e+00
4.307233e+00,4.093446e+00,3,3,1.862384e+00,1.862383e+00
4.296951e+00,4.042313e+00,3,3,1.705595e+00,1.705595e+00
4.284758e+00,4.046438e+00,3,3,2.564202e+00,2.564200e+00
4.281237e+00,4.040903e+00,3,3,2.078875e+00,2.078875e+00
4.282006e+00,4.044480e+00,3,3,2.283765e+00,2.283764e+00
4.303328e+00,4.043634e+00,3,3,2.243678e+00,2.243678e+00

