t,mehrotra,qpoases
10,0.005941367024717192,0.6695651190467905
20,0.005282704596921071,0.6077810761224046
30,0.005508554016847758,1.2196334914062772
40,0.00574047358327686,1.9659585960189845
50,0.005786451355950588,2.613916479164951
60,0.005799053233530326,4.9493500065083476
70,0.005807471349248138,6.050427869613111
80,0.005814288514847287,7.22821090661153
90,0.0058197529927614565,7.898349884664597
100,0.005823834928995762,8.740718701795958
