2.674984e+00,9.610688e+03,9.607729e+03,2,1000,0.000000e+00,-3.963843e-15,0
3.935971e+00,1.292727e+03,1.292662e+03,3,203,1.480037e-01,1.480040e-01,1
3.927010e+00,6.862722e+00,6.815672e+00,3,0,2.735375e-01,2.735381e-01,1
3.927074e+00,6.847535e+00,6.801128e+00,3,0,5.775486e-01,5.775495e-01,1
4.008004e+00,6.899901e+00,6.856203e+00,3,0,5.324881e-01,5.324885e-01,1
3.962789e+00,6.807157e+00,6.761074e+00,3,0,2.501616e+00,2.501620e+00,1
3.907761e+00,6.905999e+00,6.860971e+00,3,0,3.489176e+00,3.489179e+00,1
3.953476e+00,6.653028e+00,6.602764e+00,3,0,4.579118e+00,4.579120e+00,1
3.931628e+00,6.862228e+00,6.816626e+00,3,0,2.251728e+00,2.251727e+00,1
4.183067e+00,6.850037e+00,6.803751e+00,3,0,1.996338e+00,1.996339e+00,1
3.928313e+00,6.868858e+00,6.824970e+00,3,0,1.651813e+00,1.651814e+00,1
3.920945e+00,6.692551e+00,6.649017e+00,3,0,1.911418e+00,1.911420e+00,1
3.913437e+00,6.861710e+00,6.819010e+00,3,0,3.170327e+00,3.170331e+00,1
3.925835e+00,6.861579e+00,6.819010e+00,3,0,4.326501e+00,4.326504e+00,1
3.921173e+00,6.871238e+00,6.819248e+00,3,0,3.965860e+00,3.965860e+00,1
3.934900e+00,2.415020e+01,2.410603e+01,3,3,5.539052e+00,5.542504e+00,1
3.925024e+00,2.271087e+01,2.266526e+01,3,3,4.325644e+00,4.325642e+00,1
3.930412e+00,1.866071e+01,1.861620e+01,3,2,3.786474e+00,3.787383e+00,1
3.936137e+00,2.461181e+01,2.456498e+01,3,3,3.617639e+00,3.629880e+00,1
3.932688e+00,1.283710e+01,1.279020e+01,3,1,3.447922e+00,3.460870e+00,1
3.937617e+00,2.472869e+01,2.468419e+01,3,3,3.608669e+00,3.630843e+00,1
3.961530e+00,2.351182e+01,2.346611e+01,3,3,3.007787e+00,3.010063e+00,1
3.943199e+00,1.892844e+01,1.888514e+01,3,2,2.708777e+00,2.715307e+00,1
4.049695e+00,2.435407e+01,2.430987e+01,3,3,2.361958e+00,2.478741e+00,1
3.918934e+00,1.520144e+01,1.515388e+01,3,1,2.331080e+00,2.373549e+00,1
3.922945e+00,7.662255e+00,7.618904e+00,3,0,2.254560e+00,2.254714e+00,1
3.943188e+00,1.205106e+01,1.200700e+01,3,1,1.866745e+00,1.866666e+00,1
3.919402e+00,6.788706e+00,6.738186e+00,3,0,1.339154e+00,1.338720e+00,1
3.934188e+00,6.621060e+00,6.576777e+00,3,0,6.754215e-01,6.754241e-01,1
3.946692e+00,6.704723e+00,6.660938e+00,3,0,5.788427e-01,5.788430e-01,1
3.924988e+00,6.764302e+00,6.722212e+00,3,0,1.149249e+00,1.149251e+00,1
3.915864e+00,6.730804e+00,6.686926e+00,3,0,1.355593e+00,1.355594e+00,1
3.936858e+00,6.891007e+00,6.849051e+00,3,0,1.169482e+00,1.169482e+00,1
3.915335e+00,6.734760e+00,6.690741e+00,3,0,1.807410e+00,1.807412e+00,1
3.943397e+00,6.853242e+00,6.812096e+00,3,0,1.478380e+00,1.478380e+00,1
3.998678e+00,6.927120e+00,6.882191e+00,3,0,1.091073e+00,1.091073e+00,1
3.967186e+00,6.804502e+00,6.760836e+00,3,0,7.992440e-01,7.992446e-01,1
3.948005e+00,6.897258e+00,6.851196e+00,3,0,6.656008e-01,6.656013e-01,1
3.916006e+00,1.310400e+01,1.305985e+01,3,1,1.692769e+00,1.693031e+00,1
3.919806e+00,1.205738e+01,1.200771e+01,3,1,1.868498e+00,1.868499e+00,1
3.929017e+00,2.932873e+01,2.928472e+01,3,4,4.201813e+00,4.294241e+00,1
3.937779e+00,4.600236e+01,4.596019e+01,3,7,5.751160e+00,5.779658e+00,1
3.937613e+00,4.424590e+01,4.419875e+01,3,7,3.643255e+00,3.643325e+00,1
3.937965e+00,1.890761e+01,1.886082e+01,3,2,5.501139e+00,5.505634e+00,1
3.925469e+00,1.876127e+01,1.871610e+01,3,2,4.395935e+00,4.397178e+00,1
3.921059e+00,2.434477e+01,2.430081e+01,3,3,3.555652e+00,3.556398e+00,1
3.922662e+00,1.877784e+01,1.873517e+01,3,2,3.184696e+00,3.184811e+00,1
3.924644e+00,1.205442e+01,1.200914e+01,3,1,2.643504e+00,2.643505e+00,1
3.924428e+00,6.872618e+00,6.828070e+00,3,0,2.123928e+00,2.123927e+00,1
3.931197e+00,6.868421e+00,6.823778e+00,3,0,1.353443e+00,1.353443e+00,1
3.935330e+00,6.920262e+00,6.873846e+00,3,0,1.214989e+00,1.214989e+00,1
3.937779e+00,6.834794e+00,6.789684e+00,3,0,1.931047e+00,1.931049e+00,1
3.943638e+00,6.771562e+00,6.728172e+00,3,0,1.408604e+00,1.408604e+00,1
3.935249e+00,1.313365e+01,1.308799e+01,3,1,1.200526e+00,1.201028e+00,1
3.930466e+00,3.077060e+01,3.072596e+01,3,4,1.587002e+00,1.611748e+00,1
3.955275e+00,1.273355e+01,1.268816e+01,3,1,2.178950e+00,2.207199e+00,1
5.273541e+00,1.195161e+01,1.190615e+01,4,1,1.184302e+00,1.184302e+00,1
3.931256e+00,6.800002e+00,6.752968e+00,3,0,1.825493e+00,1.825495e+00,1
3.923465e+00,6.645019e+00,6.601810e+00,3,0,2.574940e+00,2.574940e+00,1
3.920539e+00,6.833862e+00,6.790161e+00,3,0,3.881358e+00,3.881300e+00,1
3.991507e+00,6.933922e+00,6.889105e+00,3,0,1.759177e+00,1.759181e+00,1
3.929757e+00,2.478248e+01,2.473807e+01,3,3,3.799612e+00,3.857173e+00,1
3.935202e+00,1.118472e+02,1.117778e+02,3,16,7.152725e+00,7.672551e+00,0
3.961898e+00,8.509073e+01,8.504319e+01,3,15,3.884095e+00,3.893566e+00,1
3.944846e+00,4.960869e+01,4.953861e+01,3,5,5.336958e+00,7.257609e+00,0
5.231764e+00,4.880871e+01,4.876304e+01,4,8,2.310961e+00,2.310960e+00,1
3.939048e+00,6.827622e+00,6.783009e+00,3,0,2.477131e+00,2.477130e+00,1
3.927290e+00,6.767764e+00,6.723881e+00,3,0,1.938170e+00,1.938171e+00,1
3.917594e+00,6.920919e+00,6.878138e+00,3,0,1.521451e+00,1.521452e+00,1
3.915616e+00,6.851440e+00,6.808996e+00,3,0,1.165283e+00,1.165284e+00,1
3.947205e+00,6.840639e+00,6.798029e+00,3,0,1.739596e+00,1.739598e+00,1
3.923115e+00,6.763719e+00,6.720066e+00,3,0,1.775319e+00,1.775320e+00,1
3.918364e+00,6.763557e+00,6.711006e+00,3,0,1.799510e+00,1.799510e+00,1
3.928992e+00,1.297677e+01,1.293325e+01,3,1,2.026183e+00,2.027364e+00,1
3.927958e+00,1.348897e+01,1.344275e+01,3,1,2.951177e+00,2.980672e+00,1
3.918671e+00,1.368566e+01,1.364112e+01,3,1,3.962333e+00,4.012632e+00,1
3.963444e+00,2.986724e+01,2.982426e+01,3,4,2.385907e+00,2.430449e+00,1
3.919809e+00,2.498259e+01,2.494025e+01,3,3,2.376830e+00,2.392614e+00,1
3.955208e+00,7.805947e+00,7.764101e+00,3,0,1.754872e+00,1.771033e+00,1
3.952066e+00,1.179316e+01,1.174808e+01,3,1,8.692662e-01,8.692661e-01,1
3.918805e+00,6.937269e+00,6.893873e+00,3,0,2.989081e+00,2.989087e+00,1
3.929597e+00,6.907096e+00,6.862879e+00,3,0,2.211869e+00,2.211869e+00,1
3.945298e+00,6.940962e+00,6.897211e+00,3,0,1.979913e+00,1.979913e+00,1
3.919838e+00,1.316693e+01,1.312399e+01,3,1,1.907545e+00,1.936120e+00,1
3.936491e+00,1.891861e+01,1.886773e+01,3,2,2.746019e+00,2.746024e+00,1
3.931882e+00,1.315113e+01,1.310492e+01,3,1,4.925673e+00,4.928954e+00,1
3.930864e+00,4.157997e+01,4.153585e+01,3,6,7.371518e+00,7.401632e+00,1
3.934266e+00,1.276409e+02,1.275620e+02,3,20,1.074810e+01,2.987614e+01,0
3.958298e+00,1.046790e+02,1.046090e+02,3,16,8.738750e+00,2.457341e+01,0
3.932084e+00,1.574070e+02,1.573377e+02,3,26,6.239178e+00,1.104576e+01,0
3.938784e+00,6.461334e+01,6.456614e+01,3,11,4.812481e+00,4.813670e+00,1
3.999710e+00,1.711452e+01,1.707101e+01,3,2,3.371773e+00,3.371773e+00,1
3.951129e+00,5.271659e+01,5.267167e+01,3,8,4.771566e+00,4.796935e+00,1
3.953655e+00,6.618558e+01,6.614208e+01,3,11,3.545160e+00,3.567497e+00,1
3.934434e+00,5.643986e+01,5.639505e+01,3,9,4.578382e+00,4.668204e+00,1
7.807673e+00,9.004102e+01,8.999491e+01,6,16,5.027781e+00,5.083851e+00,1
5.224370e+00,7.401344e+01,7.396913e+01,4,13,2.153347e+00,2.225759e+00,1
3.939226e+00,1.202517e+01,1.197886e+01,3,1,1.868691e+00,1.868692e+00,1
3.918457e+00,6.713620e+00,6.671190e+00,3,0,2.663394e+00,2.663396e+00,1
3.954738e+00,1.314152e+01,1.309919e+01,3,1,2.892448e+00,2.893127e+00,1
3.931592e+00,1.172757e+01,1.168299e+01,3,1,2.181492e+00,2.181492e+00,1
3.917937e+00,6.896334e+00,6.851912e+00,3,0,2.513414e+00,2.513416e+00,1
3.948354e+00,6.519625e+00,6.477118e+00,3,0,1.481216e+00,1.481216e+00,1
3.917110e+00,6.799695e+00,6.758213e+00,3,0,1.351647e+00,1.351648e+00,1
3.927653e+00,6.516133e+00,6.474018e+00,3,0,1.117994e+00,1.117994e+00,1
3.922149e+00,6.849672e+00,6.807089e+00,3,0,1.168145e+00,1.168146e+00,1
3.921217e+00,1.273001e+01,1.268601e+01,3,1,1.623950e+00,1.624219e+00,1
3.930325e+00,1.791632e+01,1.786780e+01,3,2,1.769445e+00,1.773776e+00,1
3.962878e+00,1.450640e+01,1.446009e+01,3,1,1.140948e+00,1.144020e+00,1
3.954059e+00,2.559878e+01,2.555323e+01,3,3,1.145770e+00,1.199456e+00,1
3.945429e+00,7.803319e+00,7.758141e+00,3,0,1.055308e+00,1.077631e+00,1
3.994880e+00,7.870170e+00,7.826090e+00,3,0,8.892371e-01,8.892383e-01,1
4.053617e+00,1.215353e+01,1.211023e+01,3,1,6.224216e-01,6.224217e-01,1
4.071946e+00,6.996416e+00,6.950855e+00,3,0,1.095672e+00,1.095672e+00,1
4.057374e+00,7.129557e+00,7.083178e+00,3,0,5.823417e-01,5.823418e-01,1
4.055759e+00,6.867188e+00,6.822824e+00,3,0,6.708514e-01,6.708518e-01,1
4.057678e+00,7.033026e+00,6.984949e+00,3,0,1.729821e+00,1.729823e+00,1
4.061978e+00,6.927714e+00,6.882906e+00,3,0,1.261932e+00,1.261932e+00,1
4.033768e+00,6.862307e+00,6.813049e+00,3,0,4.055816e+00,4.055822e+00,1
3.925360e+00,1.317158e+01,1.312613e+01,3,1,2.812028e+00,2.855903e+00,1
3.919458e+00,7.922615e+00,7.879972e+00,3,0,2.727546e+00,2.922877e+00,1
3.922960e+00,2.082304e+01,2.077985e+01,3,2,3.397045e+00,3.510294e+00,1
3.938903e+00,1.726953e+01,1.722312e+01,3,2,3.069377e+00,3.069377e+00,1
3.920179e+00,6.705093e+00,6.660938e+00,3,0,3.383668e+00,3.383669e+00,1
3.945450e+00,4.934903e+01,4.928303e+01,3,5,5.972705e+00,1.500422e+01,0
3.931781e+00,6.179739e+01,6.175089e+01,3,10,3.876288e+00,3.886367e+00,1
3.940629e+00,2.292261e+01,2.287817e+01,3,3,2.947302e+00,2.947849e+00,1
3.967812e+00,2.138565e+01,2.134013e+01,3,3,2.568669e+00,2.568285e+00,1
5.214930e+00,1.132869e+01,1.128411e+01,4,1,1.535647e+00,1.535648e+00,1
3.921507e+00,6.851389e+00,6.809950e+00,3,0,1.689787e+00,1.689775e+00,1
3.928194e+00,6.859827e+00,6.808043e+00,3,0,1.059146e+00,1.059147e+00,1
3.986231e+00,6.879309e+00,6.836176e+00,3,0,1.391712e+00,1.391714e+00,1
3.925328e+00,6.567189e+00,6.524801e+00,3,0,6.224927e-01,6.224929e-01,1
3.923602e+00,6.831544e+00,6.787062e+00,3,0,5.061464e-01,5.061467e-01,1
3.927703e+00,6.920302e+00,6.874800e+00,3,0,5.185269e-01,5.185273e-01,1
4.016731e+00,1.320306e+01,1.315880e+01,3,1,1.126094e+00,1.135745e+00,1
3.940533e+00,1.879501e+01,1.875091e+01,3,2,1.162249e+00,1.162250e+00,1
3.926164e+00,6.904170e+00,6.860018e+00,3,0,9.840372e-01,9.840374e-01,1
3.948731e+00,6.706007e+00,6.662846e+00,3,0,1.072808e+00,1.072809e+00,1
3.910086e+00,6.901581e+00,6.857872e+00,3,0,9.085804e-01,9.085809e-01,1
3.924753e+00,6.614914e+00,6.573200e+00,3,0,1.695305e+00,1.695307e+00,1
3.933706e+00,1.267789e+01,1.263309e+01,3,1,2.891740e+00,2.893529e+00,1
3.970922e+00,2.444231e+01,2.439594e+01,3,3,3.265935e+00,3.314419e+00,1
5.243517e+00,3.149607e+01,3.144908e+01,4,4,2.575524e+00,2.651255e+00,1
3.932950e+00,1.855380e+01,1.850986e+01,3,2,2.289388e+00,2.382822e+00,1
3.958124e+00,1.981610e+01,1.976991e+01,3,2,2.113492e+00,2.261823e+00,1
3.930041e+00,1.317982e+01,1.313519e+01,3,1,1.516396e+00,1.641923e+00,1
3.945096e+00,7.780506e+00,7.735014e+00,3,0,1.344865e+00,1.355458e+00,1
4.000236e+00,1.220638e+01,1.216006e+01,3,1,2.351816e+00,2.351820e+00,1
3.967900e+00,6.816860e+00,6.760120e+00,3,0,3.350947e+00,3.350949e+00,1
3.945701e+00,6.811603e+00,6.767035e+00,3,0,2.045846e+00,2.045845e+00,1
3.965165e+00,6.859904e+00,6.814957e+00,3,0,1.936818e+00,1.936819e+00,1
3.933286e+00,6.724896e+00,6.682873e+00,3,0,1.737009e+00,1.737010e+00,1
3.914251e+00,6.926482e+00,6.882191e+00,3,0,1.592267e+00,1.592268e+00,1
3.934154e+00,6.926917e+00,6.883144e+00,3,0,1.309680e+00,1.309680e+00,1
3.928847e+00,1.300043e+01,1.295424e+01,3,1,1.471518e+00,1.471895e+00,1
3.952429e+00,1.190822e+01,1.186419e+01,3,1,2.408783e+00,2.408787e+00,1
3.925111e+00,6.712218e+00,6.669044e+00,3,0,2.316246e+00,2.316247e+00,1
3.915484e+00,6.857238e+00,6.813049e+00,3,0,2.453430e+00,2.453431e+00,1
3.919497e+00,6.886587e+00,6.844997e+00,3,0,2.787905e+00,2.787909e+00,1
3.916029e+00,6.827943e+00,6.784201e+00,3,0,1.273916e+00,1.273917e+00,1
3.924891e+00,6.674114e+00,6.631851e+00,3,0,1.018706e+00,1.018707e+00,1
3.919582e+00,6.918413e+00,6.875277e+00,3,0,1.067858e+00,1.067859e+00,1
3.929949e+00,6.844654e+00,6.802082e+00,3,0,4.854902e-01,4.854911e-01,1
3.912614e+00,6.859323e+00,6.816864e+00,3,0,4.890555e-01,4.890558e-01,1
3.914004e+00,6.928752e+00,6.885767e+00,3,0,8.369503e-01,8.369513e-01,1
3.925252e+00,6.743678e+00,6.702185e+00,3,0,7.129200e-01,7.129201e-01,1
3.925790e+00,6.630761e+00,6.588936e+00,3,0,1.917661e+00,1.917666e+00,1
3.921668e+00,6.783187e+00,6.738901e+00,3,0,1.424675e+00,1.424676e+00,1
4.013537e+00,6.858032e+00,6.811857e+00,3,0,1.006635e+00,1.006635e+00,1
3.937154e+00,1.290404e+01,1.286006e+01,3,1,8.967763e-01,8.977854e-01,1
3.952469e+00,1.181935e+01,1.177621e+01,3,1,9.131064e-01,9.131069e-01,1
3.915217e+00,6.882701e+00,6.838083e+00,3,0,9.391669e-01,9.391676e-01,1
3.928065e+00,6.585187e+00,6.543159e+00,3,0,5.924108e-01,5.924110e-01,1
3.917902e+00,6.863459e+00,6.820202e+00,3,0,6.653455e-01,6.653465e-01,1
3.924754e+00,6.738294e+00,6.693840e+00,3,0,5.440110e-01,5.440116e-01,1
3.923643e+00,6.755681e+00,6.711006e+00,3,0,4.697491e-01,4.697495e-01,1
3.979102e+00,6.664883e+00,6.618738e+00,3,0,1.266003e+00,1.266005e+00,1
3.930525e+00,6.728940e+00,6.685972e+00,3,0,7.992273e-01,7.992282e-01,1
3.932020e+00,1.272677e+01,1.268387e+01,3,1,1.265643e+00,1.266490e+00,1
3.944718e+00,1.347105e+01,1.342559e+01,3,1,2.042498e+00,2.053415e+00,1
3.936360e+00,1.458509e+01,1.454186e+01,3,1,1.751242e+00,1.791994e+00,1
3.931568e+00,1.469971e+01,1.465297e+01,3,1,1.985310e+00,2.002464e+00,1
3.932875e+00,1.855736e+01,1.851201e+01,3,2,1.392088e+00,1.435957e+00,1
3.921956e+00,1.982859e+01,1.978397e+01,3,2,1.392299e+00,1.412918e+00,1
3.967620e+00,7.832566e+00,7.788897e+00,3,0,1.591716e+00,1.624824e+00,1
3.953613e+00,8.085369e+00,8.027077e+00,3,0,3.495685e+00,3.507408e+00,1
3.924128e+00,1.203719e+01,1.199412e+01,3,1,4.628517e+00,4.628521e+00,1
3.934849e+00,6.959079e+00,6.914854e+00,3,0,4.100854e+00,4.100854e+00,1
3.955703e+00,6.863225e+00,6.820202e+00,3,0,3.335047e+00,3.335047e+00,1
3.944311e+00,6.818807e+00,6.776094e+00,3,0,3.085547e+00,3.085548e+00,1
3.942479e+00,6.585787e+00,6.542206e+00,3,0,2.095509e+00,2.095508e+00,1
3.923610e+00,7.118071e+00,7.070065e+00,3,0,2.070092e+00,2.070094e+00,1
3.933002e+00,1.761850e+01,1.757407e+01,3,2,2.035866e+00,2.035701e+00,1
5.210620e+00,1.701450e+01,1.696897e+01,4,2,1.588496e+00,1.588496e+00,1
3.942219e+00,1.999393e+01,1.994896e+01,3,2,1.398559e+00,1.405478e+00,1
3.933133e+00,4.866407e+01,4.861903e+01,3,7,2.810601e+00,2.959087e+00,1
8.033017e+00,1.211342e+02,1.210868e+02,6,21,5.875779e+00,5.956408e+00,1
8.035151e+00,1.034504e+02,1.034021e+02,6,18,6.171939e+00,6.165657e+00,1
6.527306e+00,3.900370e+01,3.895617e+01,5,6,6.476783e+00,6.462466e+00,1
5.225409e+00,6.616204e+01,6.611776e+01,4,11,7.603107e+00,7.632649e+00,1
6.501564e+00,8.705006e+01,8.700490e+01,5,15,1.077630e+01,1.093399e+01,1
3.934513e+00,1.930572e+02,1.930130e+02,3,36,6.982595e+00,7.000484e+00,1
3.932401e+00,6.208352e+01,6.203723e+01,3,10,8.567031e+00,8.598385e+00,1
3.960482e+00,8.662225e+01,8.657598e+01,3,15,6.584833e+00,6.604050e+00,1
3.926312e+00,6.764013e+01,6.759477e+01,3,11,6.052461e+00,6.111599e+00,1
3.932536e+00,9.064332e+01,9.059787e+01,3,16,4.245984e+00,4.255921e+00,1
3.946068e+00,1.131048e+02,1.130362e+02,3,17,5.194284e+00,6.821905e+00,0
5.226318e+00,7.869215e+01,7.864690e+01,4,14,3.529474e+00,3.550051e+00,1
3.919971e+00,6.857153e+01,6.852603e+01,3,12,4.532320e+00,4.677599e+00,1
5.273808e+00,8.716036e+01,8.711600e+01,4,16,1.486848e+00,1.487159e+00,1
3.915831e+00,7.877689e+00,7.834911e+00,3,0,1.786166e+00,1.826225e+00,1
3.924166e+00,1.854122e+01,1.849699e+01,3,2,3.351655e+00,3.352814e+00,1
3.975667e+00,1.176201e+01,1.171422e+01,3,1,2.530559e+00,2.530559e+00,1
3.954170e+00,2.458727e+01,2.454400e+01,3,3,4.034563e+00,4.036443e+00,1
3.929362e+00,1.842389e+01,1.837611e+01,3,2,3.579267e+00,3.580070e+00,1
3.937901e+00,5.077405e+01,5.072808e+01,3,8,6.177819e+00,6.192400e+00,1
5.216192e+00,5.335053e+01,5.330515e+01,4,9,3.166733e+00,3.166731e+00,1
3.917645e+00,6.532901e+00,6.490231e+00,3,0,2.630315e+00,2.630315e+00,1
3.917801e+00,6.413737e+00,6.372213e+00,3,0,2.060716e+00,2.060716e+00,1
3.971849e+00,6.367953e+00,6.326914e+00,3,0,2.071746e+00,2.071747e+00,1
3.927794e+00,1.227431e+01,1.223278e+01,3,1,2.217179e+00,2.217249e+00,1
4.051186e+00,2.877843e+01,2.873611e+01,3,4,3.361749e+00,3.369032e+00,1
4.048573e+00,2.180139e+01,2.175498e+01,3,3,1.505999e+00,1.505996e+00,1
4.034648e+00,6.557433e+00,6.514072e+00,3,0,1.004526e+00,1.004526e+00,1
4.033122e+00,6.519452e+00,6.477833e+00,3,0,1.144413e+00,1.144414e+00,1
4.029231e+00,6.513357e+00,6.470203e+00,3,0,1.098097e+00,1.098097e+00,1
4.032149e+00,6.511963e+00,6.469965e+00,3,0,8.546032e-01,8.546033e-01,1
4.035246e+00,6.530154e+00,6.490231e+00,3,0,1.389627e+00,1.389630e+00,1
4.052140e+00,6.694691e+00,6.651163e+00,3,0,2.044764e+00,2.044766e+00,1
3.986123e+00,7.375158e+00,7.328987e+00,3,0,3.124001e+00,3.124003e+00,1
3.956107e+00,4.243215e+01,4.238296e+01,3,6,6.813264e+00,6.826733e+00,1
3.941104e+00,7.772354e+01,7.767725e+01,3,13,8.851841e+00,8.936789e+00,1
3.942822e+00,5.637664e+01,5.633307e+01,3,9,6.013438e+00,6.029286e+00,1
3.955354e+00,4.009443e+01,4.004812e+01,3,6,7.441726e+00,7.492442e+00,1
3.954609e+00,4.043933e+01,4.039216e+01,3,6,5.365207e+00,5.370602e+00,1
3.954526e+00,6.256509e+01,6.251884e+01,3,10,4.259570e+00,4.263874e+00,1
3.961812e+00,7.901205e+01,7.896495e+01,3,13,4.733787e+00,4.794604e+00,1
3.930377e+00,5.012339e+01,5.007672e+01,3,8,2.567460e+00,2.570173e+00,1
3.930570e+00,1.209471e+01,1.204991e+01,3,1,1.976097e+00,1.976101e+00,1
3.945262e+00,6.917391e+00,6.871939e+00,3,0,1.521717e+00,1.521717e+00,1
3.932300e+00,6.931405e+00,6.886244e+00,3,0,1.423655e+00,1.423655e+00,1
3.958234e+00,6.920921e+00,6.875992e+00,3,0,1.350150e+00,1.350151e+00,1
3.960696e+00,7.033870e+00,6.989002e+00,3,0,2.090410e+00,2.090412e+00,1
3.939403e+00,6.986145e+00,6.942034e+00,3,0,7.172687e-01,7.172682e-01,1
3.934870e+00,1.318008e+01,1.313591e+01,3,1,2.868754e+00,2.868982e+00,1
3.938558e+00,5.299448e+01,5.294800e+01,3,8,6.331755e+00,6.378305e+00,1
3.933991e+00,6.418286e+01,6.413603e+01,3,11,3.700707e+00,3.700654e+00,1
3.927036e+00,6.887602e+00,6.834030e+00,3,0,2.640181e+00,2.640181e+00,1
3.929142e+00,6.867587e+00,6.816864e+00,3,0,2.165546e+00,2.165547e+00,1
3.929787e+00,6.933655e+00,6.890059e+00,3,0,1.840381e+00,1.840382e+00,1
3.927532e+00,7.017944e+00,6.970167e+00,3,0,1.725523e+00,1.725523e+00,1
3.926694e+00,2.434059e+01,2.429605e+01,3,3,2.906655e+00,2.945484e+00,1
3.942697e+00,2.976821e+01,2.972317e+01,3,4,2.246863e+00,2.251506e+00,1
3.946201e+00,1.827405e+01,1.822901e+01,3,2,1.616614e+00,1.616621e+00,1
3.938277e+00,1.839675e+01,1.835179e+01,3,2,1.799486e+00,1.799606e+00,1
3.957968e+00,2.969702e+01,2.964997e+01,3,4,3.086724e+00,3.099386e+00,1
3.936715e+00,1.941472e+01,1.936817e+01,3,2,5.005683e+00,5.030477e+00,1
3.931873e+00,8.384393e+01,8.379579e+01,3,14,9.121834e+00,9.204655e+00,1
3.933777e+00,1.586540e+02,1.585810e+02,3,26,1.115427e+01,1.942523e+01,0
3.988524e+00,9.966229e+01,9.958863e+01,3,15,1.007043e+01,2.087813e+01,0
3.971676e+00,1.576508e+02,1.575749e+02,3,26,1.057506e+01,1.851828e+01,0
3.940750e+00,1.414618e+02,1.414139e+02,3,26,8.922954e+00,9.137567e+00,1
3.963596e+00,5.746282e+01,5.738997e+01,3,7,9.392490e+00,1.134642e+01,0
3.934154e+00,2.896006e+01,2.891397e+01,3,4,9.381630e+00,9.508530e+00,1
3.962124e+00,1.060149e+02,1.059439e+02,3,16,7.732729e+00,1.667126e+01,0
3.935458e+00,7.139989e+01,7.135201e+01,3,12,6.666585e+00,6.720310e+00,1
3.938465e+00,5.024010e+01,5.019403e+01,3,8,5.132126e+00,5.170783e+00,1
4.035128e+00,4.930609e+01,4.923701e+01,3,5,4.672918e+00,1.066975e+01,0
3.930544e+00,3.752447e+01,3.745031e+01,3,3,4.695730e+00,2.342333e+01,0
7.884095e+00,2.126162e+01,2.119279e+01,6,0,6.045495e+00,5.235296e+01,0
7.842531e+00,2.150758e+01,2.143598e+01,6,0,1.130371e+01,1.100033e+02,0
7.815992e+00,1.445822e+02,1.445131e+02,6,23,1.277317e+01,9.252231e+01,0
7.896318e+00,5.848148e+01,5.840588e+01,6,7,1.451731e+01,7.182692e+01,0
7.807763e+00,1.398838e+02,1.398096e+02,6,23,1.278523e+01,4.609243e+01,0
5.225918e+00,9.451632e+01,9.444070e+01,4,14,1.298039e+01,4.591551e+01,0
6.515303e+00,2.085293e+01,2.078485e+01,5,0,1.601434e+01,7.062031e+01,0
5.226745e+00,2.554405e+02,2.553728e+02,4,46,1.494789e+01,4.436532e+01,0
6.522343e+00,1.982114e+01,1.975632e+01,5,0,1.242847e+01,3.825944e+01,0
5.249608e+00,1.974504e+01,1.967573e+01,4,0,1.070130e+01,2.482671e+01,0
3.939765e+00,2.539396e+02,2.538681e+02,3,45,9.413503e+00,2.533152e+01,0
3.913590e+00,2.074862e+01,2.068305e+01,3,0,8.011598e+00,2.347325e+01,0
3.993263e+00,1.250274e+02,1.249609e+02,3,20,7.180368e+00,3.028163e+01,0
3.921358e+00,2.117519e+01,2.110195e+01,3,0,7.275159e+00,4.265298e+01,0
5.218672e+00,9.651409e+01,9.647107e+01,4,17,4.136763e+00,4.164077e+00,1
4.023402e+00,4.332738e+01,4.328203e+01,3,7,3.550248e+00,3.577305e+00,1
3.928571e+00,4.371876e+01,4.364920e+01,3,4,3.816872e+00,1.286203e+01,0
6.615899e+00,1.862028e+01,1.857305e+01,5,2,2.696763e+00,2.703741e+00,1
3.925163e+00,3.472210e+01,3.466797e+01,3,5,2.275618e+00,2.279493e+00,1
5.252653e+00,2.729916e+01,2.725387e+01,4,4,1.864529e+00,1.863267e+00,1
3.943596e+00,6.845081e+00,6.801128e+00,3,0,1.189093e+00,1.188952e+00,1
3.946956e+00,6.811937e+00,6.767988e+00,3,0,7.330628e-01,7.330662e-01,1
3.932256e+00,6.773549e+00,6.730080e+00,3,0,5.693690e-01,5.693701e-01,1
3.924943e+00,6.817053e+00,6.774187e+00,3,0,8.128091e-01,8.128101e-01,1
3.926181e+00,6.723660e+00,6.680012e+00,3,0,1.091046e+00,1.091048e+00,1
3.922416e+00,6.891057e+00,6.849051e+00,3,0,7.585834e-01,7.585835e-01,1
3.947934e+00,6.918224e+00,6.874800e+00,3,0,8.034144e-01,8.034159e-01,1
3.938276e+00,1.311052e+01,1.306415e+01,3,1,2.166615e+00,2.171961e+00,1
3.927234e+00,1.926644e+01,1.922083e+01,3,2,4.826711e+00,4.869637e+00,1
3.985270e+00,4.921634e+01,4.916573e+01,3,7,6.547698e+00,6.612930e+00,1
3.934812e+00,5.590827e+01,5.586195e+01,3,9,5.512694e+00,5.645579e+00,1
3.940340e+00,3.094080e+01,3.089309e+01,3,4,5.911359e+00,5.988779e+00,1
3.948959e+00,2.346577e+01,2.341914e+01,3,3,5.769723e+00,5.812570e+00,1
3.962183e+00,5.033185e+01,5.028987e+01,3,8,5.107622e+00,5.120383e+00,1
3.980715e+00,7.171770e+01,7.167101e+01,3,12,4.067955e+00,4.081923e+00,1
3.938155e+00,6.711093e+01,6.706500e+01,3,11,4.005884e+00,4.025162e+00,1
3.919154e+00,7.552745e+01,7.545567e+01,3,10,7.184583e+00,1.706209e+01,0
9.124967e+00,5.682796e+01,5.675507e+01,7,7,9.369502e+00,3.896197e+01,0
7.812875e+00,2.079880e+01,2.073097e+01,6,0,1.107334e+01,6.405656e+01,0
5.209888e+00,3.081723e+02,3.081019e+02,4,55,9.071480e+00,2.141347e+01,0
6.514169e+00,1.065347e+02,1.064911e+02,5,20,6.955243e+00,7.099497e+00,1
5.223227e+00,1.101044e+02,1.100602e+02,4,20,5.142252e+00,5.221440e+00,1
3.937163e+00,4.504036e+01,4.499292e+01,3,7,4.147817e+00,4.300729e+00,1
3.926271e+00,1.131071e+02,1.130357e+02,3,17,5.395527e+00,1.076450e+01,0
3.932124e+00,1.995687e+01,1.989198e+01,3,0,5.354888e+00,1.427684e+01,0
3.946282e+00,1.314429e+02,1.313980e+02,3,24,4.030232e+00,4.107069e+00,1
5.233700e+00,5.380214e+01,5.375791e+01,4,9,3.963725e+00,3.987286e+00,1
7.806691e+00,5.410413e+01,5.405998e+01,6,9,4.764250e+00,4.753718e+00,1
7.792189e+00,4.952123e+01,4.947710e+01,6,8,5.219109e+00,5.224888e+00,1
5.241395e+00,5.541103e+01,5.536604e+01,4,9,6.318527e+00,6.319571e+00,1
3.946969e+00,3.862986e+01,3.858566e+01,3,6,4.943666e+00,4.944108e+00,1
3.943653e+00,4.667666e+01,4.663110e+01,3,7,6.595877e+00,6.608261e+00,1
3.957070e+00,3.985811e+01,3.981495e+01,3,6,6.557887e+00,6.580589e+00,1
3.924191e+00,5.582927e+01,5.578470e+01,3,9,5.498146e+00,5.519842e+00,1
3.931986e+00,4.550024e+01,4.545403e+01,3,7,4.534114e+00,4.568086e+00,1
3.956591e+00,1.135971e+02,1.135528e+02,3,20,4.668987e+00,4.748317e+00,1
3.948987e+00,7.671948e+01,7.667494e+01,3,13,4.639718e+00,4.727137e+00,1
6.503238e+00,1.055885e+02,1.055441e+02,5,19,3.473852e+00,3.470308e+00,1
7.796549e+00,4.500764e+01,4.496408e+01,6,7,3.414979e+00,3.421184e+00,1
3.973544e+00,3.855048e+01,3.850412e+01,3,6,2.251530e+00,2.252604e+00,1
3.933959e+00,2.408720e+01,2.404189e+01,3,3,1.832268e+00,1.846529e+00,1
3.925397e+00,7.948827e+00,7.903099e+00,3,0,1.131164e+00,1.134220e+00,1
3.913647e+00,1.207284e+01,1.202893e+01,3,1,7.298157e-01,7.298161e-01,1
3.924834e+00,6.679539e+00,6.635904e+00,3,0,4.261534e-01,4.261535e-01,1
3.925695e+00,6.883427e+00,6.837130e+00,3,0,8.372718e-01,8.372736e-01,1
3.949454e+00,7.163688e+00,7.119179e+00,3,0,4.820633e-01,4.820634e-01,1
3.932284e+00,6.893533e+00,6.848812e+00,3,0,4.462228e-01,4.462235e-01,1
3.927115e+00,6.885778e+00,6.840944e+00,3,0,2.803916e-01,2.803920e-01,1
3.920440e+00,6.962816e+00,6.920099e+00,3,0,3.034310e-01,3.034313e-01,1
3.928227e+00,6.689233e+00,6.644964e+00,3,0,2.670284e-01,2.670287e-01,1
3.914402e+00,6.726695e+00,6.682158e+00,3,0,6.527033e-01,6.527044e-01,1
3.924802e+00,6.680249e+00,6.639004e+00,3,0,5.020494e-01,5.020500e-01,1
3.935682e+00,6.937584e+00,6.893873e+00,3,0,5.137244e-01,5.137263e-01,1
3.950233e+00,6.896617e+00,6.851673e+00,3,0,1.045355e+00,1.045357e+00,1
3.934098e+00,6.988598e+00,6.943941e+00,3,0,5.740907e-01,5.740905e-01,1
3.930382e+00,6.927324e+00,6.882191e+00,3,0,8.141806e-01,8.141814e-01,1
3.920456e+00,6.725028e+00,6.679058e+00,3,0,8.280193e-01,8.280199e-01,1
3.926492e+00,6.963605e+00,6.917715e+00,3,0,1.397115e+00,1.397116e+00,1
3.917799e+00,6.936048e+00,6.891966e+00,3,0,1.066797e+00,1.066797e+00,1
3.927975e+00,6.707052e+00,6.664753e+00,3,0,7.028100e-01,7.028100e-01,1
3.938017e+00,6.691804e+00,6.646156e+00,3,0,5.117486e-01,5.117492e-01,1
3.918657e+00,6.806443e+00,6.762266e+00,3,0,6.907936e-01,6.907945e-01,1
3.913435e+00,6.946973e+00,6.901026e+00,3,0,6.371131e-01,6.371133e-01,1
3.925819e+00,6.876879e+00,6.834269e+00,3,0,5.139258e-01,5.139260e-01,1
3.929946e+00,6.861342e+00,6.818771e+00,3,0,9.031610e-01,9.031621e-01,1
3.914432e+00,6.846333e+00,6.803036e+00,3,0,6.888049e-01,6.888054e-01,1
3.920263e+00,1.299003e+01,1.294708e+01,3,1,1.025958e+00,1.026027e+00,1
3.916585e+00,1.464386e+01,1.459908e+01,3,1,1.815995e+00,1.895115e+00,1
3.922509e+00,7.792372e+00,7.747889e+00,3,0,1.589366e+00,1.609447e+00,1
3.915635e+00,1.208676e+01,1.204085e+01,3,1,1.406358e+00,1.406358e+00,1
3.920876e+00,6.843797e+00,6.799936e+00,3,0,3.216356e+00,3.216361e+00,1
3.921577e+00,1.284948e+01,1.280522e+01,3,1,3.904242e+00,3.904590e+00,1
3.934141e+00,1.190510e+01,1.186109e+01,3,1,2.221346e+00,2.221344e+00,1
3.976988e+00,6.797514e+00,6.751776e+00,3,0,1.660902e+00,1.660902e+00,1
3.922040e+00,6.847987e+00,6.803036e+00,3,0,1.279154e+00,1.279155e+00,1
3.940271e+00,6.801490e+00,6.755829e+00,3,0,8.539410e-01,8.539410e-01,1
3.947498e+00,6.828002e+00,6.783962e+00,3,0,7.552329e-01,7.552333e-01,1
3.924969e+00,6.765605e+00,6.721258e+00,3,0,1.085235e+00,1.085235e+00,1
3.959267e+00,6.731823e+00,6.687880e+00,3,0,1.038543e+00,1.038543e+00,1
3.929296e+00,6.854454e+00,6.810904e+00,3,0,5.170587e-01,5.170598e-01,1
3.915750e+00,6.778015e+00,6.735086e+00,3,0,1.407129e+00,1.407131e+00,1
3.922143e+00,6.822321e+00,6.778002e+00,3,0,7.812432e-01,7.812430e-01,1
3.914639e+00,6.912412e+00,6.864786e+00,3,0,6.898948e-01,6.898955e-01,1
3.918656e+00,6.842595e+00,6.796122e+00,3,0,9.654243e-01,9.654256e-01,1
3.953184e+00,6.762864e+00,6.721020e+00,3,0,7.903663e-01,7.903666e-01,1
3.919006e+00,6.709055e+00,6.664038e+00,3,0,9.278467e-01,9.278473e-01,1
3.930927e+00,6.617080e+00,6.571770e+00,3,0,1.181538e+00,1.181539e+00,1
3.929406e+00,6.752763e+00,6.706953e+00,3,0,9.326568e-01,9.326575e-01,1
3.924274e+00,6.826752e+00,6.781816e+00,3,0,9.693113e-01,9.693128e-01,1
3.927410e+00,6.862293e+00,6.818056e+00,3,0,1.209063e+00,1.209060e+00,1
3.931146e+00,6.718781e+00,6.673813e+00,3,0,1.485909e+00,1.485906e+00,1
3.926462e+00,6.982385e+00,6.936789e+00,3,0,2.228569e+00,2.228571e+00,1
3.921538e+00,6.760419e+00,6.718159e+00,3,0,1.542833e+00,1.542833e+00,1
3.922276e+00,6.853009e+00,6.812096e+00,3,0,1.482659e+00,1.482661e+00,1
3.914727e+00,6.719816e+00,6.675005e+00,3,0,1.434519e+00,1.434519e+00,1
3.952908e+00,6.791143e+00,6.751060e+00,3,0,1.553204e+00,1.553204e+00,1
3.915763e+00,6.764825e+00,6.721020e+00,3,0,1.283908e+00,1.283908e+00,1
3.943218e+00,2.296937e+01,2.292705e+01,3,3,2.186985e+00,2.206634e+00,1
5.223930e+00,3.070120e+01,3.065515e+01,4,4,1.655152e+00,1.680447e+00,1
3.933292e+00,7.906213e+00,7.861853e+00,3,0,1.546005e+00,1.570950e+00,1
3.931695e+00,2.546526e+01,2.541876e+01,3,3,1.510829e+00,1.544874e+00,1
3.956284e+00,1.455193e+01,1.450706e+01,3,1,1.365929e+00,1.541317e+00,1
3.953018e+00,1.983444e+01,1.979017e+01,3,2,9.769545e-01,1.031692e+00,1
3.962897e+00,1.454551e+01,1.450109e+01,3,1,1.186194e+00,1.219948e+00,1
3.942015e+00,1.856705e+01,1.852202e+01,3,2,1.335772e+00,1.335773e+00,1
3.950312e+00,6.827733e+00,6.784201e+00,3,0,9.193940e-01,9.193943e-01,1
3.944929e+00,6.882562e+00,6.839037e+00,3,0,1.723914e+00,1.723917e+00,1
3.939794e+00,6.878701e+00,6.834030e+00,3,0,1.214820e+00,1.214820e+00,1
3.983103e+00,6.821679e+00,6.778955e+00,3,0,1.112151e+00,1.112151e+00,1
3.940361e+00,6.961415e+00,6.918192e+00,3,0,9.950771e-01,9.950774e-01,1
3.966316e+00,6.904519e+00,6.860971e+00,3,0,7.781696e-01,7.781709e-01,1
3.960783e+00,6.849889e+00,6.805897e+00,3,0,5.708918e-01,5.708923e-01,1
3.951171e+00,6.906616e+00,6.861925e+00,3,0,1.134289e+00,1.134291e+00,1
3.971691e+00,6.926679e+00,6.884098e+00,3,0,9.785759e-01,9.785764e-01,1
3.951612e+00,6.609282e+00,6.566763e+00,3,0,9.957048e-01,9.957060e-01,1
3.930987e+00,6.874756e+00,6.831169e+00,3,0,9.312338e-01,9.312342e-01,1
3.943114e+00,6.609805e+00,6.568193e+00,3,0,7.241155e-01,7.241160e-01,1
3.933580e+00,6.880277e+00,6.837130e+00,3,0,8.698008e-01,8.698014e-01,1
3.940880e+00,6.561853e+00,6.520033e+00,3,0,6.747750e-01,6.747752e-01,1
3.933790e+00,6.882514e+00,6.836891e+00,3,0,2.849904e+00,2.849753e+00,1
5.259850e+00,4.112592e+01,4.108405e+01,4,6,6.330301e+00,6.359308e+00,1
3.947284e+00,3.375025e+01,3.370500e+01,3,5,4.754231e+00,4.754223e+00,1
3.951514e+00,1.209110e+01,1.204610e+01,3,1,3.391448e+00,3.391447e+00,1
3.932789e+00,6.758292e+00,6.714821e+00,3,0,2.486304e+00,2.486304e+00,1
3.966199e+00,6.839202e+00,6.792068e+00,3,0,2.691499e+00,2.691501e+00,1
3.943442e+00,6.569818e+00,6.526232e+00,3,0,2.126832e+00,2.126832e+00,1
3.944586e+00,6.797388e+00,6.752014e+00,3,0,2.053939e+00,2.053939e+00,1
3.944751e+00,6.838810e+00,6.793976e+00,3,0,2.472414e+00,2.472417e+00,1
3.942241e+00,6.934303e+00,6.883144e+00,3,0,2.817041e+00,2.817043e+00,1
3.945923e+00,6.933475e+00,6.891966e+00,3,0,2.576727e+00,2.576727e+00,1
3.960546e+00,1.292697e+01,1.288509e+01,3,1,2.745806e+00,2.746479e+00,1
3.941523e+00,1.185946e+01,1.181602e+01,3,1,3.658616e+00,3.658619e+00,1
3.944541e+00,6.809704e+00,6.766081e+00,3,0,2.697956e+00,2.697954e+00,1
3.956966e+00,6.812889e+00,6.766796e+00,3,0,1.827135e+00,1.827134e+00,1
3.946941e+00,6.830388e+00,6.785154e+00,3,0,1.081240e+00,1.081240e+00,1
3.947539e+00,6.882989e+00,6.840229e+00,3,0,7.213907e-01,7.213908e-01,1
3.922571e+00,6.907099e+00,6.864071e+00,3,0,5.653586e-01,5.653590e-01,1
3.931913e+00,6.905757e+00,6.860971e+00,3,0,7.758424e-01,7.758435e-01,1
3.930654e+00,6.886724e+00,6.842136e+00,3,0,5.482206e-01,5.482206e-01,1
3.923582e+00,6.775403e+00,6.731033e+00,3,0,9.182354e-01,9.182365e-01,1
3.924745e+00,6.705857e+00,6.661892e+00,3,0,9.757146e-01,9.757151e-01,1
3.950069e+00,1.299395e+01,1.294613e+01,3,1,9.064541e-01,9.068174e-01,1
4.013585e+00,1.475708e+01,1.471090e+01,3,1,1.168356e+00,1.171758e+00,1
3.944743e+00,1.173050e+01,1.168394e+01,3,1,6.508454e-01,6.508453e-01,1
3.942419e+00,6.848585e+00,6.804228e+00,3,0,5.279664e-01,5.279668e-01,1
3.943112e+00,6.844417e+00,6.799936e+00,3,0,2.820806e+00,2.820813e+00,1
3.967098e+00,6.803454e+00,6.755114e+00,3,0,2.934670e+00,2.934672e+00,1
3.975877e+00,6.959420e+00,6.917000e+00,3,0,1.426255e+00,1.426254e+00,1
3.955193e+00,6.937507e+00,6.893158e+00,3,0,1.407421e+00,1.407422e+00,1
3.935362e+00,6.934952e+00,6.891012e+00,3,0,1.232366e+00,1.232366e+00,1
3.960240e+00,1.298587e+01,1.294208e+01,3,1,1.320887e+00,1.321161e+00,1
3.965712e+00,1.203564e+01,1.199079e+01,3,1,6.746930e-01,6.746929e-01,1
3.938861e+00,6.887183e+00,6.843090e+00,3,0,5.664931e-01,5.664937e-01,1
3.941810e+00,6.734876e+00,6.690979e+00,3,0,1.078177e+00,1.078178e+00,1
3.950123e+00,6.913292e+00,6.866217e+00,3,0,1.343451e+00,1.343452e+00,1
3.946538e+00,6.880925e+00,6.834984e+00,3,0,1.653656e+00,1.653657e+00,1
3.942261e+00,6.747986e+00,6.704092e+00,3,0,1.076626e+00,1.076626e+00,1
3.940607e+00,6.807740e+00,6.764174e+00,3,0,1.034409e+00,1.034409e+00,1
3.946085e+00,6.861869e+00,6.809235e+00,3,0,1.552396e+00,1.552398e+00,1
3.948266e+00,6.803161e+00,6.758690e+00,3,0,2.302813e+00,2.302815e+00,1
3.935256e+00,6.787583e+00,6.743193e+00,3,0,2.553651e+00,2.553652e+00,1
3.936133e+00,1.844801e+01,1.840377e+01,3,2,3.561506e+00,3.561960e+00,1
3.918252e+00,1.309664e+01,1.305366e+01,3,1,3.362413e+00,3.363294e+00,1
3.921709e+00,3.437398e+01,3.433204e+01,3,5,5.297659e+00,5.322644e+00,1
5.221204e+00,4.657880e+01,4.653597e+01,4,8,2.343240e+00,2.343239e+00,1
3.918025e+00,6.734704e+00,6.690025e+00,3,0,1.947129e+00,1.947129e+00,1
3.922404e+00,1.862027e+01,1.857805e+01,3,2,2.858715e+00,2.860282e+00,1
3.930468e+00,1.682008e+01,1.677608e+01,3,2,1.398132e+00,1.398130e+00,1
3.919296e+00,6.903842e+00,6.860733e+00,3,0,1.151306e+00,1.151306e+00,1
3.928775e+00,6.803952e+00,6.762266e+00,3,0,9.152027e-01,9.152030e-01,1
3.923448e+00,6.768715e+00,6.725788e+00,3,0,6.047514e-01,6.047513e-01,1
3.922025e+00,6.911399e+00,6.865978e+00,3,0,1.293956e+00,1.293958e+00,1
3.921295e+00,6.973862e+00,6.921053e+00,3,0,9.615447e-01,9.615449e-01,1
3.924247e+00,6.824163e+00,6.776094e+00,3,0,5.406527e-01,5.406528e-01,1
3.926077e+00,6.835086e+00,6.790161e+00,3,0,1.286582e+00,1.286585e+00,1
3.929105e+00,6.864762e+00,6.819010e+00,3,0,8.903102e-01,8.903102e-01,1
3.929601e+00,6.755972e+00,6.712198e+00,3,0,4.809728e-01,4.809731e-01,1
3.926740e+00,6.886411e+00,6.842136e+00,3,0,5.197167e-01,5.197170e-01,1
3.919584e+00,6.987832e+00,6.944895e+00,3,0,6.734622e-01,6.734631e-01,1
3.965291e+00,1.310764e+01,1.306200e+01,3,1,1.009694e+00,1.010403e+00,1
3.930839e+00,1.387868e+01,1.383209e+01,3,1,2.101388e+00,2.102034e+00,1
3.929146e+00,1.268501e+01,1.264310e+01,3,1,1.561054e+00,1.577170e+00,1
3.935799e+00,1.884163e+01,1.879811e+01,3,2,2.818469e+00,2.912421e+00,1
3.935334e+00,1.758607e+01,1.754117e+01,3,2,1.238298e+00,1.238454e+00,1
3.950510e+00,1.209585e+01,1.204991e+01,3,1,9.871147e-01,9.871152e-01,1
3.953673e+00,6.937728e+00,6.893158e+00,3,0,6.630299e-01,6.630299e-01,1
3.936595e+00,7.293342e+00,7.241249e+00,3,0,6.060089e-01,6.060098e-01,1
3.927438e+00,6.888171e+00,6.843090e+00,3,0,1.699433e+00,1.699437e+00,1
3.921353e+00,6.795540e+00,6.752968e+00,3,0,1.693248e+00,1.693249e+00,1
3.927844e+00,6.571426e+00,6.529093e+00,3,0,2.594568e+00,2.594539e+00,1
3.929850e+00,6.895194e+00,6.848812e+00,3,0,2.664810e+00,2.664803e+00,1
3.932855e+00,6.873605e+00,6.829262e+00,3,0,3.056805e+00,3.056806e+00,1
3.948170e+00,1.841915e+01,1.837587e+01,3,2,5.002223e+00,5.002383e+00,1
3.950786e+00,1.729905e+01,1.725292e+01,3,2,5.598307e+00,5.598310e+00,1
3.946510e+00,1.290227e+01,1.285696e+01,3,1,4.181825e+00,4.192116e+00,1
3.953244e+00,1.354962e+01,1.350713e+01,3,1,3.756681e+00,3.767982e+00,1
3.940168e+00,2.440793e+01,2.436304e+01,3,3,5.273752e+00,5.276123e+00,1
3.949979e+00,2.824565e+01,2.820086e+01,3,4,3.584809e+00,3.587102e+00,1
3.930739e+00,1.177719e+01,1.173186e+01,3,1,2.972100e+00,2.972101e+00,1
3.926418e+00,6.883915e+00,6.839037e+00,3,0,3.001142e+00,3.001146e+00,1
3.929503e+00,6.897767e+00,6.853104e+00,3,0,3.240728e+00,3.240730e+00,1
3.925512e+00,1.301506e+01,1.297116e+01,3,1,3.545594e+00,3.560315e+00,1
3.929038e+00,1.167632e+01,1.163101e+01,3,1,2.616920e+00,2.616921e+00,1
3.930885e+00,6.892474e+00,6.848097e+00,3,0,2.511459e+00,2.511460e+00,1
3.933650e+00,1.882519e+01,1.878119e+01,3,2,3.220633e+00,3.222769e+00,1
3.952620e+00,2.996796e+01,2.992201e+01,3,4,3.533525e+00,3.536663e+00,1
3.952882e+00,3.955204e+01,3.950715e+01,3,6,2.237913e+00,2.242990e+00,1
3.940787e+00,1.282464e+01,1.278114e+01,3,1,2.151198e+00,2.151266e+00,1
3.965733e+00,1.211507e+01,1.207066e+01,3,1,1.265726e+00,1.265694e+00,1
3.948601e+00,6.940720e+00,6.895065e+00,3,0,1.227043e+00,1.227003e+00,1

