2.159557e+00,2.091151e+00,2,2,0.000000e+00,0.000000e+00
3.224494e+00,3.087955e+00,3,3,2.780999e-01,2.780999e-01
3.228283e+00,3.094625e+00,3,3,4.335423e-01,4.335422e-01
3.242497e+00,3.078689e+00,3,3,2.064624e+00,2.064623e+00
3.205066e+00,3.093952e+00,3,3,1.207167e+00,1.207167e+00
3.213479e+00,3.097066e+00,3,3,1.508180e+00,1.508180e+00
3.210256e+00,3.069216e+00,3,3,4.950216e+00,4.950214e+00
3.209544e+00,3.068370e+00,3,3,7.501612e+00,7.501612e+00
3.232300e+00,3.067913e+00,3,3,6.487639e+00,6.487641e+00
3.206197e+00,3.067808e+00,3,3,9.730804e+00,9.730810e+00
3.212354e+00,3.065233e+00,3,3,7.389137e+00,7.389267e+00
3.224536e+00,4.090208e+00,3,4,8.594062e+00,8.594073e+00
3.254611e+00,3.089344e+00,3,3,7.075190e+00,7.075411e+00
3.247665e+00,3.103152e+00,3,3,6.296874e+00,6.296980e+00
3.209481e+00,3.066186e+00,3,3,6.745199e+00,6.745213e+00
3.200286e+00,3.067239e+00,3,3,5.124966e+00,5.124967e+00
3.214414e+00,3.065114e+00,3,3,4.367107e+00,4.367107e+00
3.234427e+00,3.066639e+00,3,3,4.528331e+00,4.528330e+00
3.199356e+00,3.064472e+00,3,3,5.009768e+00,5.009767e+00
3.206736e+00,3.063854e+00,3,3,8.263416e+00,8.263413e+00
3.228673e+00,3.063048e+00,3,3,8.860282e+00,8.860304e+00
3.202781e+00,3.090259e+00,3,3,7.051269e+00,7.051273e+00
3.200243e+00,3.061578e+00,3,3,6.877213e+00,6.877212e+00
3.207869e+00,3.063275e+00,3,3,7.947380e+00,7.947387e+00
3.225392e+00,3.066220e+00,3,3,5.972283e+00,5.972285e+00
3.200486e+00,3.066054e+00,3,3,4.886824e+00,4.886824e+00
3.205549e+00,3.066455e+00,3,3,4.224952e+00,4.224952e+00
3.207545e+00,3.068398e+00,3,3,5.013456e+00,5.013455e+00
3.245591e+00,3.076077e+00,3,3,2.963086e+00,2.963086e+00
3.205987e+00,3.091855e+00,3,3,3.051931e+00,3.051930e+00
3.222541e+00,3.068611e+00,3,3,4.026151e+00,4.026151e+00
3.210660e+00,3.066689e+00,3,3,3.184201e+00,3.184201e+00
3.204266e+00,3.065717e+00,3,3,2.405278e+00,2.405278e+00
3.224580e+00,3.065865e+00,3,3,2.869164e+00,2.869164e+00
3.200140e+00,3.062719e+00,3,3,2.431543e+00,2.431543e+00
3.207221e+00,3.065152e+00,3,3,2.037118e+00,2.037118e+00
3.233111e+00,3.065131e+00,3,3,1.997947e+00,1.997947e+00
3.216518e+00,3.078341e+00,3,3,2.862443e+00,2.862442e+00
3.210516e+00,3.097249e+00,3,3,1.920824e+00,1.920824e+00
3.206658e+00,3.090703e+00,3,3,1.815063e+00,1.815063e+00
3.207814e+00,3.067078e+00,3,3,3.943885e+00,3.943884e+00
3.203141e+00,3.067151e+00,3,3,2.914754e+00,2.914754e+00
3.200909e+00,3.064762e+00,3,3,3.387402e+00,3.387401e+00
3.217192e+00,3.082246e+00,3,3,1.979524e+00,1.979524e+00
3.238616e+00,3.068434e+00,3,3,2.683418e+00,2.683417e+00
3.231661e+00,3.065054e+00,3,3,2.212040e+00,2.212040e+00
3.201227e+00,3.060553e+00,3,3,3.095385e+00,3.095384e+00
3.206733e+00,3.061087e+00,3,3,2.876892e+00,2.876892e+00
3.202812e+00,3.088381e+00,3,3,2.913503e+00,2.913503e+00
3.201999e+00,3.064361e+00,3,3,3.196935e+00,3.196934e+00
3.198027e+00,3.067861e+00,3,3,2.291772e+00,2.291773e+00
3.230290e+00,3.068424e+00,3,3,1.929253e+00,1.929253e+00
3.263948e+00,3.103760e+00,3,3,1.998780e+00,1.998779e+00
3.256286e+00,3.069696e+00,3,3,1.679528e+00,1.679528e+00
3.200537e+00,3.068015e+00,3,3,2.899055e+00,2.899053e+00
3.203338e+00,3.091084e+00,3,3,6.323097e+00,6.322829e+00
4.266359e+00,4.082538e+00,4,4,3.756151e+00,3.756153e+00
3.205934e+00,3.071032e+00,3,3,2.959545e+00,2.959545e+00
3.204886e+00,3.067803e+00,3,3,2.010168e+00,2.010168e+00
3.206634e+00,3.088697e+00,3,3,1.565419e+00,1.565419e+00
3.210779e+00,3.062039e+00,3,3,1.353211e+00,1.353210e+00
3.237012e+00,3.094103e+00,3,3,9.245139e-01,9.245137e-01
3.203896e+00,3.068986e+00,3,3,5.974359e-01,5.974358e-01
3.212651e+00,3.065052e+00,3,3,8.849277e-01,8.849276e-01
3.226662e+00,3.064925e+00,3,3,1.040718e+00,1.040717e+00
3.208384e+00,3.069811e+00,3,3,1.064409e+00,1.064408e+00
3.210077e+00,3.070670e+00,3,3,1.018346e+00,1.018346e+00
3.207944e+00,3.092331e+00,3,3,9.814003e-01,9.814002e-01
3.206443e+00,3.092160e+00,3,3,1.434207e+00,1.434207e+00
3.202717e+00,3.068513e+00,3,3,2.273170e+00,2.273171e+00
3.205072e+00,3.064860e+00,3,3,1.891870e+00,1.891870e+00
3.251422e+00,3.063903e+00,3,3,2.699509e+00,2.699509e+00
3.195122e+00,3.063616e+00,3,3,5.702551e+00,5.702548e+00
3.197726e+00,3.066784e+00,3,3,6.332234e+00,6.332233e+00
3.203079e+00,3.067183e+00,3,3,6.445369e+00,6.445368e+00
3.197665e+00,3.090624e+00,3,3,5.625913e+00,5.625914e+00
3.201521e+00,3.091843e+00,3,3,5.338419e+00,5.338419e+00
3.205434e+00,3.063009e+00,3,3,3.824074e+00,3.824074e+00
3.196341e+00,3.065697e+00,3,3,4.145315e+00,4.145314e+00
3.194460e+00,3.062639e+00,3,3,3.684086e+00,3.684086e+00
3.234672e+00,3.067659e+00,3,3,2.675141e+00,2.675141e+00
3.199778e+00,3.065824e+00,3,3,2.201098e+00,2.201098e+00
3.205763e+00,3.088515e+00,3,3,2.175749e+00,2.175749e+00
3.199778e+00,3.091373e+00,3,3,2.448743e+00,2.448743e+00
3.203790e+00,3.087631e+00,3,3,3.884251e+00,3.884250e+00
3.201739e+00,3.063775e+00,3,3,2.973795e+00,2.973795e+00
3.193316e+00,3.063034e+00,3,3,5.481224e+00,5.480109e+00
5.354767e+00,5.107784e+00,5,5,5.019970e+00,5.030788e+00
4.276949e+00,3.068636e+00,4,3,4.020965e+00,4.021009e+00
3.202491e+00,3.090788e+00,3,3,7.901790e+00,7.902011e+00
3.238150e+00,3.116342e+00,3,3,6.246689e+00,6.246759e+00
3.204452e+00,3.092904e+00,3,3,3.153933e+00,3.153934e+00
3.259044e+00,3.069471e+00,3,3,2.699179e+00,2.699179e+00
3.203970e+00,3.065149e+00,3,3,2.605156e+00,2.605156e+00
3.202496e+00,3.066834e+00,3,3,4.429311e+00,4.429317e+00
3.230942e+00,3.067321e+00,3,3,4.023856e+00,4.023863e+00
3.207755e+00,3.068531e+00,3,3,3.847464e+00,3.847464e+00
3.198674e+00,3.069361e+00,3,3,5.736016e+00,5.736015e+00
3.209070e+00,3.089469e+00,3,3,6.460208e+00,6.460434e+00
3.204932e+00,3.088572e+00,3,3,9.338650e+00,9.340522e+00
6.395723e+00,6.123112e+00,6,6,1.071690e+01,1.070832e+01
4.291409e+00,4.082711e+00,4,4,1.040228e+01,1.040208e+01
5.370333e+00,4.083107e+00,5,4,7.389688e+00,7.389680e+00
3.209326e+00,3.069094e+00,3,3,6.502898e+00,6.502898e+00
3.200017e+00,3.089646e+00,3,3,4.992730e+00,4.992731e+00
3.208328e+00,3.065650e+00,3,3,4.271854e+00,4.271854e+00
3.230845e+00,3.066302e+00,3,3,3.910948e+00,3.910948e+00
3.206451e+00,3.064515e+00,3,3,8.273175e+00,8.273241e+00
6.400863e+00,6.146044e+00,6,6,8.268200e+00,8.265449e+00
5.326039e+00,5.095963e+00,5,5,5.970342e+00,5.964479e+00
6.392853e+00,6.148980e+00,6,6,6.680854e+00,6.676968e+00
6.423336e+00,6.121426e+00,6,6,6.673479e+00,6.674339e+00
4.262605e+00,5.124622e+00,4,5,4.772891e+00,4.826881e+00
4.294087e+00,4.208162e+00,4,4,3.726947e+00,3.722608e+00
4.389982e+00,3.156875e+00,4,3,2.044833e+00,2.044835e+00
3.299514e+00,3.156994e+00,3,3,1.918082e+00,1.918082e+00
3.302092e+00,3.147569e+00,3,3,1.219466e+00,1.219466e+00
3.258772e+00,3.067990e+00,3,3,1.459083e+00,1.459083e+00
3.228837e+00,3.091565e+00,3,3,1.245452e+00,1.245452e+00
3.203760e+00,3.066737e+00,3,3,3.877840e+00,3.877838e+00
3.195711e+00,3.090500e+00,3,3,5.352243e+00,5.352242e+00
3.202653e+00,3.064916e+00,3,3,6.649924e+00,6.649924e+00
3.199660e+00,3.092312e+00,3,3,1.114844e+01,1.114864e+01
6.419195e+00,6.175768e+00,6,6,1.249791e+01,1.249652e+01
6.454776e+00,5.099096e+00,6,5,9.853386e+00,9.854939e+00
4.260013e+00,4.119015e+00,4,4,5.800067e+00,5.800067e+00
3.222781e+00,3.060537e+00,3,3,5.179197e+00,5.179197e+00
3.207051e+00,3.092814e+00,3,3,5.288972e+00,5.288972e+00
3.199650e+00,3.067065e+00,3,3,5.369979e+00,5.369982e+00
3.211274e+00,3.091479e+00,3,3,8.413029e+00,8.411191e+00
6.404679e+00,6.116525e+00,6,6,9.419539e+00,9.414857e+00
4.255635e+00,5.118755e+00,4,5,8.364074e+00,8.364524e+00
3.192389e+00,3.114702e+00,3,3,6.586392e+00,6.586421e+00
3.209292e+00,3.068594e+00,3,3,6.337003e+00,6.337050e+00
3.207738e+00,3.090849e+00,3,3,6.335927e+00,6.335927e+00
3.203346e+00,3.063031e+00,3,3,6.282090e+00,6.282090e+00
3.238222e+00,3.065818e+00,3,3,3.710693e+00,3.710693e+00
3.228924e+00,3.062594e+00,3,3,3.345244e+00,3.345243e+00
3.210462e+00,3.063411e+00,3,3,5.180826e+00,5.180824e+00
3.204313e+00,3.091056e+00,3,3,6.235558e+00,6.235781e+00
4.267333e+00,6.124370e+00,4,6,7.068220e+00,7.069889e+00
5.334478e+00,4.081676e+00,5,4,3.684485e+00,3.687152e+00
4.279675e+00,3.092079e+00,4,3,2.832349e+00,2.832917e+00
3.206476e+00,3.065540e+00,3,3,2.524232e+00,2.524262e+00
3.229738e+00,3.062728e+00,3,3,2.451325e+00,2.451324e+00
3.223271e+00,3.070417e+00,3,3,4.437675e+00,4.437674e+00
3.205986e+00,3.068114e+00,3,3,4.514960e+00,4.514959e+00
3.227529e+00,3.063220e+00,3,3,7.078575e+00,7.078573e+00
3.210602e+00,3.065556e+00,3,3,8.096995e+00,8.096999e+00
3.198249e+00,3.067258e+00,3,3,1.056014e+01,1.056015e+01
3.204204e+00,3.094218e+00,3,3,6.674515e+00,6.674521e+00
3.207683e+00,3.068532e+00,3,3,5.354694e+00,5.354695e+00
3.227515e+00,3.064654e+00,3,3,4.823356e+00,4.823356e+00
3.204148e+00,3.067427e+00,3,3,5.602276e+00,5.602287e+00
3.220718e+00,3.068714e+00,3,3,3.742822e+00,3.742821e+00
3.211119e+00,3.068322e+00,3,3,3.031221e+00,3.031221e+00
3.202128e+00,3.067171e+00,3,3,2.304906e+00,2.304906e+00
3.203905e+00,3.090818e+00,3,3,1.961501e+00,1.961501e+00
3.252530e+00,3.120060e+00,3,3,2.680720e+00,2.680719e+00
3.229271e+00,3.119039e+00,3,3,2.080034e+00,2.080034e+00
3.235396e+00,3.064587e+00,3,3,2.246746e+00,2.246746e+00
3.198378e+00,3.062093e+00,3,3,1.826720e+00,1.826720e+00
3.203949e+00,3.065580e+00,3,3,2.609932e+00,2.609931e+00
3.230968e+00,3.067160e+00,3,3,1.893218e+00,1.893218e+00
3.207549e+00,3.062446e+00,3,3,3.750089e+00,3.750087e+00
3.201039e+00,3.068152e+00,3,3,3.624295e+00,3.624296e+00
3.232732e+00,3.093873e+00,3,3,1.423283e+00,1.423284e+00
3.206535e+00,3.088336e+00,3,3,1.713180e+00,1.713179e+00
3.235212e+00,3.063100e+00,3,3,2.330888e+00,2.330888e+00
3.208498e+00,3.094079e+00,3,3,2.673331e+00,2.673330e+00
3.230989e+00,3.065995e+00,3,3,2.688012e+00,2.688012e+00
3.209987e+00,3.063004e+00,3,3,2.223359e+00,2.223359e+00
3.205071e+00,3.067498e+00,3,3,1.757777e+00,1.757777e+00
3.206157e+00,3.065460e+00,3,3,1.851301e+00,1.851300e+00
3.206557e+00,3.091922e+00,3,3,2.045765e+00,2.045765e+00
3.209605e+00,3.091551e+00,3,3,2.556057e+00,2.556056e+00
3.207778e+00,3.069747e+00,3,3,3.076692e+00,3.076692e+00
3.208791e+00,3.062182e+00,3,3,2.104272e+00,2.104272e+00
3.207581e+00,3.060065e+00,3,3,2.059823e+00,2.059823e+00
3.223684e+00,3.062931e+00,3,3,2.769439e+00,2.769439e+00
3.196163e+00,3.061175e+00,3,3,1.538268e+00,1.538268e+00
3.192737e+00,3.060322e+00,3,3,1.707018e+00,1.707018e+00
3.199339e+00,3.091293e+00,3,3,1.567502e+00,1.567502e+00
3.200734e+00,3.094941e+00,3,3,2.216600e+00,2.216599e+00
3.205863e+00,3.061222e+00,3,3,1.544087e+00,1.544087e+00
3.198662e+00,3.061527e+00,3,3,2.092528e+00,2.092527e+00
3.233111e+00,3.068948e+00,3,3,2.813592e+00,2.813591e+00
3.202969e+00,3.065394e+00,3,3,1.731855e+00,1.731855e+00
3.204159e+00,3.062654e+00,3,3,2.006196e+00,2.006196e+00
3.208165e+00,3.067062e+00,3,3,1.718952e+00,1.718950e+00
3.204587e+00,3.119352e+00,3,3,1.606232e+00,1.606232e+00
3.226432e+00,3.092479e+00,3,3,1.024687e+00,1.024687e+00
3.206491e+00,3.064482e+00,3,3,1.958023e+00,1.958023e+00
3.206597e+00,3.066108e+00,3,3,3.737293e+00,3.737292e+00
3.203463e+00,3.062804e+00,3,3,1.667019e+00,1.667019e+00
3.250605e+00,3.067101e+00,3,3,2.524663e+00,2.524662e+00
3.207611e+00,3.067898e+00,3,3,2.541439e+00,2.541439e+00
3.227583e+00,3.068868e+00,3,3,2.310854e+00,2.310853e+00
3.232358e+00,3.121543e+00,3,3,1.597294e+00,1.597295e+00
3.243181e+00,3.099254e+00,3,3,1.466397e+00,1.466396e+00
3.201989e+00,3.064713e+00,3,3,1.304236e+00,1.304236e+00
3.202781e+00,3.063618e+00,3,3,3.700356e+00,3.700354e+00
3.234501e+00,3.065980e+00,3,3,2.372578e+00,2.372578e+00
3.208049e+00,3.064982e+00,3,3,2.026523e+00,2.026523e+00
3.205997e+00,3.066983e+00,3,3,2.390961e+00,2.390961e+00
3.206766e+00,3.067584e+00,3,3,2.702310e+00,2.702528e+00
3.218963e+00,3.078977e+00,3,3,2.743448e+00,2.743505e+00
3.201585e+00,3.096528e+00,3,3,1.050333e+00,1.050334e+00
3.224147e+00,3.067306e+00,3,3,8.480498e-01,8.480495e-01
3.207760e+00,3.066225e+00,3,3,2.322018e+00,2.322017e+00
3.206887e+00,3.068257e+00,3,3,1.545718e+00,1.545718e+00
3.217017e+00,3.062510e+00,3,3,2.867931e+00,2.867930e+00
3.203027e+00,3.062681e+00,3,3,2.065949e+00,2.065949e+00
3.205837e+00,3.065757e+00,3,3,2.116454e+00,2.116454e+00
3.230828e+00,3.068356e+00,3,3,1.571087e+00,1.571086e+00
3.199411e+00,3.092893e+00,3,3,1.226992e+00,1.226992e+00
3.202469e+00,3.065085e+00,3,3,1.130290e+00,1.130290e+00
3.205729e+00,3.091718e+00,3,3,1.095527e+00,1.095527e+00
3.206228e+00,3.066659e+00,3,3,2.095710e+00,2.095708e+00
3.201997e+00,3.066124e+00,3,3,1.271021e+00,1.271021e+00
3.212509e+00,3.065271e+00,3,3,7.582546e-01,7.582545e-01
3.204028e+00,3.062796e+00,3,3,6.116687e-01,6.116686e-01
3.235668e+00,3.062480e+00,3,3,9.485538e-01,9.485536e-01
3.199106e+00,3.091301e+00,3,3,2.734208e+00,2.734207e+00
3.238639e+00,3.066822e+00,3,3,3.004080e+00,3.004094e+00
3.207168e+00,3.066261e+00,3,3,3.192325e+00,3.192330e+00
3.212115e+00,3.092148e+00,3,3,9.778263e+00,9.776722e+00
7.483382e+00,4.085839e+00,7,4,7.848479e+00,7.850100e+00
3.212066e+00,3.064378e+00,3,3,6.684894e+00,6.684906e+00
3.204876e+00,3.096011e+00,3,3,6.329979e+00,6.329979e+00
3.206472e+00,3.093706e+00,3,3,5.632840e+00,5.632841e+00
3.217332e+00,3.064739e+00,3,3,5.478581e+00,5.478581e+00
3.293355e+00,3.093886e+00,3,3,4.341811e+00,4.341811e+00
3.208913e+00,3.067014e+00,3,3,4.919815e+00,4.919814e+00
3.240681e+00,3.204454e+00,3,3,3.324622e+00,3.324622e+00
3.229026e+00,3.070353e+00,3,3,3.754332e+00,3.754331e+00
3.256815e+00,3.091825e+00,3,3,3.183004e+00,3.183004e+00
3.266203e+00,3.093468e+00,3,3,3.943704e+00,3.943703e+00
3.205203e+00,3.119546e+00,3,3,3.504594e+00,3.504594e+00
3.204885e+00,3.066983e+00,3,3,3.411940e+00,3.411940e+00
3.210115e+00,3.062012e+00,3,3,3.820917e+00,3.820916e+00
3.202279e+00,3.091299e+00,3,3,3.181152e+00,3.181152e+00
3.202229e+00,3.064660e+00,3,3,3.207801e+00,3.207801e+00
3.208404e+00,3.065130e+00,3,3,3.498743e+00,3.498743e+00
3.202378e+00,3.062738e+00,3,3,2.342555e+00,2.342555e+00
3.227981e+00,3.062969e+00,3,3,2.201619e+00,2.201619e+00
3.195956e+00,3.088385e+00,3,3,1.809809e+00,1.809809e+00
3.202644e+00,3.059862e+00,3,3,2.955234e+00,2.955233e+00
3.200682e+00,3.088136e+00,3,3,3.752555e+00,3.752554e+00
3.201268e+00,3.062909e+00,3,3,2.198162e+00,2.198163e+00
3.195293e+00,3.064032e+00,3,3,1.714198e+00,1.714198e+00
3.209657e+00,3.065271e+00,3,3,7.714776e-01,7.714773e-01
3.201141e+00,3.069258e+00,3,3,7.810450e-01,7.810449e-01
3.229247e+00,3.063484e+00,3,3,8.637933e-01,8.637931e-01
3.223997e+00,3.062083e+00,3,3,1.235205e+00,1.235205e+00
3.196353e+00,3.067713e+00,3,3,1.894050e+00,1.894050e+00
3.228967e+00,3.066491e+00,3,3,1.888119e+00,1.888118e+00
3.198946e+00,3.093544e+00,3,3,2.096806e+00,2.096805e+00
3.206694e+00,3.067396e+00,3,3,3.950879e+00,3.950877e+00
3.206000e+00,3.064710e+00,3,3,4.258111e+00,4.258114e+00
3.207880e+00,3.066059e+00,3,3,2.889602e+00,2.889602e+00
3.230453e+00,3.064784e+00,3,3,2.103198e+00,2.103198e+00
3.222054e+00,3.063730e+00,3,3,2.350537e+00,2.350536e+00
3.205812e+00,3.064579e+00,3,3,2.016204e+00,2.016203e+00
3.209306e+00,3.090293e+00,3,3,2.065690e+00,2.065690e+00
3.207618e+00,3.063962e+00,3,3,1.518012e+00,1.518011e+00
3.203604e+00,3.065534e+00,3,3,1.323313e+00,1.323313e+00
3.208390e+00,3.065174e+00,3,3,1.477485e+00,1.477484e+00
3.206943e+00,3.066909e+00,3,3,1.408082e+00,1.408082e+00
3.231869e+00,3.063384e+00,3,3,1.855079e+00,1.855079e+00
3.229970e+00,3.065192e+00,3,3,2.334201e+00,2.334201e+00
3.203280e+00,3.064126e+00,3,3,1.875423e+00,1.875423e+00
3.202031e+00,3.071369e+00,3,3,1.816860e+00,1.816860e+00
3.203053e+00,3.090034e+00,3,3,2.677909e+00,2.677908e+00
3.202585e+00,3.063850e+00,3,3,2.499424e+00,2.499424e+00
3.204837e+00,3.090087e+00,3,3,2.276919e+00,2.276919e+00
3.203618e+00,3.086959e+00,3,3,2.100208e+00,2.100208e+00
3.264461e+00,3.066436e+00,3,3,2.769871e+00,2.769870e+00
3.254303e+00,3.069498e+00,3,3,2.264850e+00,2.264850e+00
3.200677e+00,3.067265e+00,3,3,1.600442e+00,1.600442e+00
3.210281e+00,3.092825e+00,3,3,2.021265e+00,2.021265e+00
3.205620e+00,3.065339e+00,3,3,2.557932e+00,2.557933e+00
3.233087e+00,3.065588e+00,3,3,4.006120e+00,4.006116e+00
3.205353e+00,3.068093e+00,3,3,2.271603e+00,2.271604e+00
3.195225e+00,3.065631e+00,3,3,2.673185e+00,2.673185e+00
3.220822e+00,3.066057e+00,3,3,2.416562e+00,2.416562e+00
3.229815e+00,3.063674e+00,3,3,3.489160e+00,3.489158e+00
3.206647e+00,3.063402e+00,3,3,3.081687e+00,3.081687e+00
3.202369e+00,3.063640e+00,3,3,3.914034e+00,3.914034e+00
3.226140e+00,3.091345e+00,3,3,4.309000e+00,4.308999e+00
3.201587e+00,3.058230e+00,3,3,4.099862e+00,4.099862e+00
3.203637e+00,3.072314e+00,3,3,5.123026e+00,5.123025e+00
3.199917e+00,3.065021e+00,3,3,5.036900e+00,5.036900e+00
3.223257e+00,3.066197e+00,3,3,5.011083e+00,5.011083e+00
3.232134e+00,3.061749e+00,3,3,3.558911e+00,3.558912e+00
3.203461e+00,3.064577e+00,3,3,3.462581e+00,3.462580e+00
3.206717e+00,3.090767e+00,3,3,3.412714e+00,3.412714e+00
3.206265e+00,3.064738e+00,3,3,3.406073e+00,3.406073e+00
3.209273e+00,3.061479e+00,3,3,2.237666e+00,2.237667e+00
3.205174e+00,3.065987e+00,3,3,2.430955e+00,2.430954e+00
3.204375e+00,3.065178e+00,3,3,2.223187e+00,2.223186e+00
3.225369e+00,3.064664e+00,3,3,1.414604e+00,1.414604e+00
3.227276e+00,3.070774e+00,3,3,2.066779e+00,2.066778e+00
3.201228e+00,3.064653e+00,3,3,1.297161e+00,1.297161e+00
3.203713e+00,3.089407e+00,3,3,1.100635e+00,1.100635e+00
3.222329e+00,3.075471e+00,3,3,1.251420e+00,1.251419e+00
3.205639e+00,3.065839e+00,3,3,1.941210e+00,1.941209e+00
3.224712e+00,3.069668e+00,3,3,1.904748e+00,1.904748e+00
3.205236e+00,3.067547e+00,3,3,2.392300e+00,2.392299e+00
3.235669e+00,3.118865e+00,3,3,8.192775e+00,8.192777e+00
3.231530e+00,3.067609e+00,3,3,4.041801e+00,4.041806e+00
3.205426e+00,3.063816e+00,3,3,5.098495e+00,5.098494e+00
3.245715e+00,3.067667e+00,3,3,5.422347e+00,5.422350e+00
3.210106e+00,3.070014e+00,3,3,4.059284e+00,4.059290e+00
3.206740e+00,3.065411e+00,3,3,3.042993e+00,3.042994e+00
3.200079e+00,3.092324e+00,3,3,4.428300e+00,4.428307e+00
3.211428e+00,3.117862e+00,3,3,3.627582e+00,3.627645e+00
3.228496e+00,3.092409e+00,3,3,1.855121e+00,1.855121e+00
3.260190e+00,3.068349e+00,3,3,1.569260e+00,1.569260e+00
3.212840e+00,3.066370e+00,3,3,1.383774e+00,1.383774e+00
3.207950e+00,3.063565e+00,3,3,1.438507e+00,1.438506e+00
3.231562e+00,3.067141e+00,3,3,1.365768e+00,1.365768e+00
3.233934e+00,3.065628e+00,3,3,3.120978e+00,3.120976e+00
3.203839e+00,3.072439e+00,3,3,2.580656e+00,2.580656e+00
3.208874e+00,3.089801e+00,3,3,9.866242e-01,9.866245e-01
3.201421e+00,3.066986e+00,3,3,1.835514e+00,1.835513e+00
3.227966e+00,3.068475e+00,3,3,2.169334e+00,2.169334e+00
3.203773e+00,3.064920e+00,3,3,1.764436e+00,1.764436e+00
3.232013e+00,3.065882e+00,3,3,9.090421e-01,9.090420e-01
3.205014e+00,3.059909e+00,3,3,1.375931e+00,1.375931e+00
3.199490e+00,3.061030e+00,3,3,2.649486e+00,2.649485e+00
3.196253e+00,3.066261e+00,3,3,6.231698e+00,6.232021e+00
4.273798e+00,4.110599e+00,4,4,5.172166e+00,5.172168e+00
3.206277e+00,3.090367e+00,3,3,2.592356e+00,2.592357e+00
3.200306e+00,3.063180e+00,3,3,2.338192e+00,2.338192e+00
3.212987e+00,3.063014e+00,3,3,2.123888e+00,2.123888e+00
3.200509e+00,3.091161e+00,3,3,2.857389e+00,2.857387e+00
3.200732e+00,3.063919e+00,3,3,3.114860e+00,3.114859e+00
3.205630e+00,3.062707e+00,3,3,2.577055e+00,2.577055e+00
3.198119e+00,3.066163e+00,3,3,2.332458e+00,2.332458e+00
3.225105e+00,3.063714e+00,3,3,2.338026e+00,2.338025e+00
3.208034e+00,3.091586e+00,3,3,2.935814e+00,2.935813e+00
3.205523e+00,3.068063e+00,3,3,2.759030e+00,2.759030e+00
3.203813e+00,3.093076e+00,3,3,2.153617e+00,2.153617e+00
3.209505e+00,3.063475e+00,3,3,2.193526e+00,2.193525e+00
3.208063e+00,3.063559e+00,3,3,1.769559e+00,1.769558e+00
3.207908e+00,3.068733e+00,3,3,3.484363e+00,3.484362e+00
3.205321e+00,3.151774e+00,3,3,5.049597e+00,5.049599e+00
3.302512e+00,3.158457e+00,3,3,5.896471e+00,5.896563e+00
3.302032e+00,3.156448e+00,3,3,2.875119e+00,2.875128e+00
3.308260e+00,3.154681e+00,3,3,2.080950e+00,2.080950e+00
3.296701e+00,3.159171e+00,3,3,2.391950e+00,2.391950e+00
3.300916e+00,3.157437e+00,3,3,3.221085e+00,3.221084e+00
3.303357e+00,3.155910e+00,3,3,2.672125e+00,2.672125e+00
3.296118e+00,3.159372e+00,3,3,1.015898e+01,1.015559e+01
6.580123e+00,6.314456e+00,6,6,1.457383e+01,1.457213e+01
6.506847e+00,6.125996e+00,6,6,1.129087e+01,1.128855e+01
5.353436e+00,6.120583e+00,5,6,1.563129e+01,1.563604e+01
6.393085e+00,6.123667e+00,6,6,1.336811e+01,1.336445e+01
6.404421e+00,4.107269e+00,6,4,1.026060e+01,1.024003e+01
6.429102e+00,6.149694e+00,6,6,1.383386e+01,1.381179e+01
4.277096e+00,4.080993e+00,4,4,1.251692e+01,1.251835e+01
6.423222e+00,6.128362e+00,6,6,1.649504e+01,1.647677e+01
4.268024e+00,4.093787e+00,4,4,1.402526e+01,1.402581e+01
3.206471e+00,3.092770e+00,3,3,1.215595e+01,1.215596e+01
3.203290e+00,3.067643e+00,3,3,8.897735e+00,8.897737e+00
3.237511e+00,3.070590e+00,3,3,7.046171e+00,7.046172e+00
3.204239e+00,3.066708e+00,3,3,5.881157e+00,5.881157e+00
3.231014e+00,3.067768e+00,3,3,6.500687e+00,6.500687e+00
3.203561e+00,3.065720e+00,3,3,3.978574e+00,3.978576e+00
3.206634e+00,3.061818e+00,3,3,3.472821e+00,3.472821e+00
3.205572e+00,3.066565e+00,3,3,2.948730e+00,2.948730e+00
3.202092e+00,3.092858e+00,3,3,1.687980e+00,1.687980e+00
3.201733e+00,3.063447e+00,3,3,1.473788e+00,1.473787e+00
3.237146e+00,3.070373e+00,3,3,1.459411e+00,1.459411e+00
3.200727e+00,3.069645e+00,3,3,8.713421e-01,8.713421e-01
3.210184e+00,3.068039e+00,3,3,2.398214e+00,2.398213e+00
3.235226e+00,3.065323e+00,3,3,9.230805e-01,9.230807e-01
3.203921e+00,3.067118e+00,3,3,9.093331e-01,9.093326e-01
3.204343e+00,3.065923e+00,3,3,1.293396e+00,1.293396e+00
3.206700e+00,3.097884e+00,3,3,1.891532e+00,1.891531e+00
3.208536e+00,3.090085e+00,3,3,2.383833e+00,2.383831e+00
3.206546e+00,3.069371e+00,3,3,1.220489e+00,1.220489e+00
3.202178e+00,3.065094e+00,3,3,1.509568e+00,1.509567e+00
3.236964e+00,3.068364e+00,3,3,1.221614e+00,1.221614e+00
3.201017e+00,3.065858e+00,3,3,2.847058e+00,2.847057e+00
3.207320e+00,3.070855e+00,3,3,1.915531e+00,1.915532e+00
3.237442e+00,3.089028e+00,3,3,9.227497e-01,9.227499e-01
3.230367e+00,3.095914e+00,3,3,3.167633e+00,3.167631e+00
3.232358e+00,3.115963e+00,3,3,3.403664e+00,3.403663e+00
3.256773e+00,3.064219e+00,3,3,3.736317e+00,3.736317e+00
3.204623e+00,3.067821e+00,3,3,2.813529e+00,2.813529e+00
3.215546e+00,3.065707e+00,3,3,2.493451e+00,2.493451e+00
3.231950e+00,3.068129e+00,3,3,2.220625e+00,2.220624e+00
3.204674e+00,3.070231e+00,3,3,2.057445e+00,2.057445e+00
3.207808e+00,3.067453e+00,3,3,2.213468e+00,2.213467e+00
3.235209e+00,3.087418e+00,3,3,1.548877e+00,1.548877e+00
3.206109e+00,3.091824e+00,3,3,2.811106e+00,2.811105e+00
3.204174e+00,3.066878e+00,3,3,2.454164e+00,2.454164e+00
3.201446e+00,3.062871e+00,3,3,3.287026e+00,3.287025e+00
3.232851e+00,3.061650e+00,3,3,3.956946e+00,3.956945e+00
3.205721e+00,3.064785e+00,3,3,5.027360e+00,5.027358e+00
3.205885e+00,3.068507e+00,3,3,7.766175e+00,7.766173e+00
3.200992e+00,3.065665e+00,3,3,6.172427e+00,6.172428e+00
3.205851e+00,3.095095e+00,3,3,4.020708e+00,4.020708e+00
3.206956e+00,3.091159e+00,3,3,3.927852e+00,3.927852e+00
3.205157e+00,3.065580e+00,3,3,3.433091e+00,3.433090e+00
3.208504e+00,3.061933e+00,3,3,3.616756e+00,3.616754e+00
3.209147e+00,3.065394e+00,3,3,3.590288e+00,3.590288e+00
3.232758e+00,3.063759e+00,3,3,2.996930e+00,2.996930e+00
3.204547e+00,3.061150e+00,3,3,4.287775e+00,4.287773e+00
3.210519e+00,3.066961e+00,3,3,3.987988e+00,3.987989e+00
3.203628e+00,3.093238e+00,3,3,4.749953e+00,4.749953e+00
3.201499e+00,3.116909e+00,3,3,5.554570e+00,5.554572e+00
3.208041e+00,3.065482e+00,3,3,3.627295e+00,3.627300e+00
3.201352e+00,3.088035e+00,3,3,3.156390e+00,3.156399e+00
3.200729e+00,3.062702e+00,3,3,2.415935e+00,2.415961e+00
3.197538e+00,3.067176e+00,3,3,1.641448e+00,1.641459e+00
3.205909e+00,3.068331e+00,3,3,2.384357e+00,2.384355e+00
3.201494e+00,3.079218e+00,3,3,1.726604e+00,1.726604e+00
3.205360e+00,3.088996e+00,3,3,1.141801e+00,1.141801e+00
3.196957e+00,3.092708e+00,3,3,9.280126e-01,9.280125e-01
3.203958e+00,3.064050e+00,3,3,9.107827e-01,9.107825e-01
3.202851e+00,3.064863e+00,3,3,1.046670e+00,1.046669e+00
3.194432e+00,3.091534e+00,3,3,1.097928e+00,1.097928e+00
3.194412e+00,3.066375e+00,3,3,1.985252e+00,1.985252e+00
3.208959e+00,3.076784e+00,3,3,3.124845e+00,3.124842e+00
3.231779e+00,3.087660e+00,3,3,3.135626e+00,3.135626e+00
3.273159e+00,3.081090e+00,3,3,4.440786e+00,4.440784e+00
3.229196e+00,3.090793e+00,3,3,1.135519e+01,1.135541e+01
5.346779e+00,8.188070e+00,5,8,1.456969e+01,1.457068e+01
4.264353e+00,4.084810e+00,4,4,1.051802e+01,1.051802e+01
3.202345e+00,3.066357e+00,3,3,1.015626e+01,1.015628e+01
3.214455e+00,3.064015e+00,3,3,8.325944e+00,8.325959e+00
3.202621e+00,3.094167e+00,3,3,7.629315e+00,7.629315e+00
3.206210e+00,3.063516e+00,3,3,5.904609e+00,5.904610e+00
3.226704e+00,3.068906e+00,3,3,4.974284e+00,4.974285e+00
3.201549e+00,3.063881e+00,3,3,6.168145e+00,6.168183e+00
3.196462e+00,3.064147e+00,3,3,4.606558e+00,4.606563e+00
3.226554e+00,3.064511e+00,3,3,3.901018e+00,3.901017e+00
3.210082e+00,3.066796e+00,3,3,4.554882e+00,4.554886e+00
3.203005e+00,3.067753e+00,3,3,4.893827e+00,4.894568e+00
4.266091e+00,4.108904e+00,4,4,2.644037e+00,2.644037e+00
3.204806e+00,3.092736e+00,3,3,2.464487e+00,2.464487e+00
3.207083e+00,3.065243e+00,3,3,1.521168e+00,1.521167e+00
3.229515e+00,3.090034e+00,3,3,1.116692e+00,1.116692e+00
3.228898e+00,3.066696e+00,3,3,2.444246e+00,2.444245e+00
3.202454e+00,3.067958e+00,3,3,3.933665e+00,3.933664e+00
3.202963e+00,3.064975e+00,3,3,3.445286e+00,3.445286e+00
3.198228e+00,3.063552e+00,3,3,3.550759e+00,3.550759e+00
3.212114e+00,3.091154e+00,3,3,3.429446e+00,3.429446e+00
3.200387e+00,3.093006e+00,3,3,4.540598e+00,4.540615e+00
3.201158e+00,3.065333e+00,3,3,5.890329e+00,5.890682e+00
3.210534e+00,3.063925e+00,3,3,5.544456e+00,5.544457e+00
3.198550e+00,3.113548e+00,3,3,3.516405e+00,3.516405e+00
3.201951e+00,3.068992e+00,3,3,3.162909e+00,3.162909e+00
3.201969e+00,3.065799e+00,3,3,3.149013e+00,3.149012e+00
3.208864e+00,3.066822e+00,3,3,6.071040e+00,6.071046e+00
3.204220e+00,3.091534e+00,3,3,6.830946e+00,6.831010e+00
3.203981e+00,3.091518e+00,3,3,5.648003e+00,5.648140e+00
3.202006e+00,3.066571e+00,3,3,3.704079e+00,3.704089e+00
3.205331e+00,3.091691e+00,3,3,3.079183e+00,3.079183e+00
3.196441e+00,3.064219e+00,3,3,2.940391e+00,2.940391e+00
3.202589e+00,3.062350e+00,3,3,2.220319e+00,2.220319e+00
3.201071e+00,3.067557e+00,3,3,2.969262e+00,2.969258e+00
3.237854e+00,3.065915e+00,3,3,2.753254e+00,2.753254e+00
3.253696e+00,3.114704e+00,3,3,1.631887e+00,1.631887e+00
3.234276e+00,3.119380e+00,3,3,1.130161e+00,1.130161e+00
3.204408e+00,3.068277e+00,3,3,1.094200e+00,1.094200e+00
3.206099e+00,3.064095e+00,3,3,7.411166e-01,7.411163e-01
3.202639e+00,3.089520e+00,3,3,7.771763e-01,7.771761e-01
3.201040e+00,3.069192e+00,3,3,1.608148e+00,1.608148e+00
3.202454e+00,3.069252e+00,3,3,4.026555e+00,4.026554e+00
3.208455e+00,3.069212e+00,3,3,1.897440e+00,1.897441e+00
3.230744e+00,3.070512e+00,3,3,2.527168e+00,2.527167e+00
3.202306e+00,3.092089e+00,3,3,1.642199e+00,1.642200e+00
3.201096e+00,3.060895e+00,3,3,2.482687e+00,2.482685e+00
3.204119e+00,3.092562e+00,3,3,3.595901e+00,3.595900e+00
3.229011e+00,3.066759e+00,3,3,5.525649e+00,5.525646e+00
3.203786e+00,3.065660e+00,3,3,3.845862e+00,3.845863e+00
3.208109e+00,3.065717e+00,3,3,2.630666e+00,2.630667e+00
3.204913e+00,3.065945e+00,3,3,4.901967e+00,4.901967e+00
3.230951e+00,3.065162e+00,3,3,2.952794e+00,2.952799e+00
3.202020e+00,3.091052e+00,3,3,3.278339e+00,3.278340e+00
3.207389e+00,3.066149e+00,3,3,4.634639e+00,4.634673e+00
3.198768e+00,3.060947e+00,3,3,3.050508e+00,3.050513e+00
3.203474e+00,3.087481e+00,3,3,2.722059e+00,2.722059e+00
3.205792e+00,3.062029e+00,3,3,2.487606e+00,2.487605e+00
3.196548e+00,3.061415e+00,3,3,2.772309e+00,2.772309e+00
3.201601e+00,3.064620e+00,3,3,2.960709e+00,2.960709e+00
3.248292e+00,3.059190e+00,3,3,2.420687e+00,2.420686e+00
3.224137e+00,3.063911e+00,3,3,2.240812e+00,2.240812e+00
3.194773e+00,3.066132e+00,3,3,2.083120e+00,2.083120e+00
3.194771e+00,3.086524e+00,3,3,2.951875e+00,2.951874e+00
3.225041e+00,3.063459e+00,3,3,2.199450e+00,2.199450e+00
3.202937e+00,3.063063e+00,3,3,1.756518e+00,1.756518e+00
3.206677e+00,3.066958e+00,3,3,1.653497e+00,1.653496e+00
3.203244e+00,3.064911e+00,3,3,1.186007e+00,1.186006e+00
3.229109e+00,3.063705e+00,3,3,1.546437e+00,1.546436e+00
3.228185e+00,3.066336e+00,3,3,1.098048e+00,1.098048e+00

