2.193187e+00,2.112447e+00,2,2,0.000000e+00,0.000000e+00
3.273113e+00,3.124639e+00,3,3,2.780999e-01,2.780999e-01
3.289532e+00,3.125353e+00,3,3,4.335423e-01,4.335422e-01
3.271388e+00,3.126491e+00,3,3,2.064624e+00,2.064623e+00
3.281633e+00,3.126404e+00,3,3,1.207167e+00,1.207167e+00
3.271369e+00,3.127265e+00,3,3,1.508180e+00,1.508180e+00
3.280664e+00,3.124091e+00,3,3,4.950216e+00,4.950214e+00
3.275564e+00,3.124884e+00,3,3,7.501612e+00,7.501612e+00
3.268227e+00,3.124255e+00,3,3,6.487639e+00,6.487641e+00
3.273439e+00,3.124978e+00,3,3,9.730804e+00,9.730810e+00
3.272902e+00,3.126042e+00,3,3,7.389137e+00,7.389267e+00
3.272465e+00,4.164125e+00,3,4,8.594062e+00,8.594073e+00
3.269023e+00,3.125312e+00,3,3,7.075190e+00,7.075411e+00
3.272795e+00,3.122044e+00,3,3,6.296874e+00,6.296980e+00
3.277164e+00,3.124269e+00,3,3,6.745199e+00,6.745213e+00
3.275167e+00,3.126638e+00,3,3,5.124966e+00,5.124967e+00
3.268627e+00,3.127776e+00,3,3,4.367107e+00,4.367107e+00
3.267511e+00,3.126353e+00,3,3,4.528331e+00,4.528330e+00
3.269765e+00,3.124000e+00,3,3,5.009768e+00,5.009767e+00
3.281308e+00,3.125587e+00,3,3,8.263416e+00,8.263413e+00
3.275442e+00,3.125070e+00,3,3,8.860282e+00,8.860304e+00
3.271602e+00,3.122114e+00,3,3,7.051269e+00,7.051273e+00
3.269257e+00,3.128328e+00,3,3,6.877213e+00,6.877212e+00
3.276248e+00,3.123098e+00,3,3,7.947380e+00,7.947387e+00
3.275607e+00,3.123131e+00,3,3,5.972283e+00,5.972285e+00
3.277015e+00,3.123326e+00,3,3,4.886824e+00,4.886824e+00
3.275131e+00,3.124770e+00,3,3,4.224952e+00,4.224952e+00
3.267818e+00,3.125383e+00,3,3,5.013456e+00,5.013455e+00
3.271461e+00,3.128272e+00,3,3,2.963086e+00,2.963086e+00
3.267882e+00,3.125467e+00,3,3,3.051931e+00,3.051930e+00
3.277825e+00,3.121386e+00,3,3,4.026151e+00,4.026151e+00
3.272890e+00,3.126557e+00,3,3,3.184201e+00,3.184201e+00
3.271825e+00,3.124403e+00,3,3,2.405278e+00,2.405278e+00
3.273982e+00,3.128065e+00,3,3,2.869164e+00,2.869164e+00
3.270291e+00,3.125960e+00,3,3,2.431543e+00,2.431543e+00
3.272923e+00,3.124996e+00,3,3,2.037118e+00,2.037118e+00
3.274976e+00,3.124296e+00,3,3,1.997947e+00,1.997947e+00
3.267109e+00,3.121337e+00,3,3,2.862443e+00,2.862442e+00
3.269198e+00,3.128009e+00,3,3,1.920824e+00,1.920824e+00
3.270561e+00,3.126397e+00,3,3,1.815063e+00,1.815063e+00
3.279696e+00,3.124368e+00,3,3,3.943885e+00,3.943884e+00
3.273137e+00,3.127453e+00,3,3,2.914754e+00,2.914754e+00
3.273454e+00,3.123216e+00,3,3,3.387402e+00,3.387401e+00
3.280419e+00,3.124283e+00,3,3,1.979524e+00,1.979524e+00
3.272686e+00,3.123920e+00,3,3,2.683418e+00,2.683417e+00
3.270910e+00,3.121267e+00,3,3,2.212040e+00,2.212040e+00
3.278837e+00,3.124865e+00,3,3,3.095385e+00,3.095384e+00
3.268643e+00,3.125201e+00,3,3,2.876892e+00,2.876892e+00
3.279829e+00,3.125354e+00,3,3,2.913503e+00,2.913503e+00
3.274217e+00,3.125633e+00,3,3,3.196935e+00,3.196934e+00
3.270695e+00,3.129935e+00,3,3,2.291772e+00,2.291773e+00
3.272964e+00,3.124843e+00,3,3,1.929253e+00,1.929253e+00
3.269616e+00,3.123761e+00,3,3,1.998780e+00,1.998779e+00
3.273995e+00,3.123092e+00,3,3,1.679528e+00,1.679528e+00
3.271738e+00,3.125079e+00,3,3,2.899055e+00,2.899053e+00
3.268578e+00,3.126981e+00,3,3,6.323097e+00,6.322829e+00
4.352245e+00,4.166672e+00,4,4,3.756151e+00,3.756153e+00
3.273295e+00,3.122947e+00,3,3,2.959545e+00,2.959545e+00
3.274928e+00,3.124044e+00,3,3,2.010168e+00,2.010168e+00
3.275496e+00,3.123317e+00,3,3,1.565419e+00,1.565419e+00
3.277351e+00,3.126077e+00,3,3,1.353211e+00,1.353210e+00
3.271790e+00,3.125016e+00,3,3,9.245139e-01,9.245137e-01
3.272654e+00,3.128832e+00,3,3,5.974359e-01,5.974358e-01
3.274985e+00,3.123493e+00,3,3,8.849277e-01,8.849276e-01
3.276104e+00,3.124496e+00,3,3,1.040718e+00,1.040717e+00
3.276615e+00,3.124312e+00,3,3,1.064409e+00,1.064408e+00
3.269922e+00,3.124534e+00,3,3,1.018346e+00,1.018346e+00
3.268813e+00,3.125052e+00,3,3,9.814003e-01,9.814002e-01
3.268206e+00,3.124524e+00,3,3,1.434207e+00,1.434207e+00
3.274746e+00,3.123344e+00,3,3,2.273170e+00,2.273171e+00
3.274757e+00,3.127573e+00,3,3,1.891870e+00,1.891870e+00
3.272228e+00,3.126092e+00,3,3,2.699509e+00,2.699509e+00
3.271049e+00,3.126541e+00,3,3,5.702551e+00,5.702548e+00
3.266779e+00,3.124142e+00,3,3,6.332234e+00,6.332233e+00
3.270201e+00,3.123041e+00,3,3,6.445369e+00,6.445368e+00
3.273318e+00,3.123457e+00,3,3,5.625913e+00,5.625914e+00
3.275900e+00,3.124582e+00,3,3,5.338419e+00,5.338419e+00
3.273393e+00,3.125798e+00,3,3,3.824074e+00,3.824074e+00
3.275237e+00,3.126736e+00,3,3,4.145315e+00,4.145314e+00
3.271738e+00,3.124115e+00,3,3,3.684086e+00,3.684086e+00
3.277913e+00,3.125082e+00,3,3,2.675141e+00,2.675141e+00
3.273317e+00,3.121529e+00,3,3,2.201098e+00,2.201098e+00
3.275425e+00,3.126592e+00,3,3,2.175749e+00,2.175749e+00
3.268665e+00,3.123363e+00,3,3,2.448743e+00,2.448743e+00
3.270939e+00,3.125431e+00,3,3,3.884251e+00,3.884250e+00
3.271665e+00,3.123724e+00,3,3,2.973795e+00,2.973795e+00
3.269505e+00,3.121826e+00,3,3,5.481224e+00,5.480109e+00
5.450564e+00,5.198764e+00,5,5,5.019970e+00,5.030788e+00
4.357830e+00,3.122516e+00,4,3,4.020965e+00,4.021009e+00
3.273656e+00,3.122375e+00,3,3,7.901790e+00,7.902011e+00
3.274948e+00,3.123083e+00,3,3,6.246689e+00,6.246759e+00
3.275012e+00,3.126337e+00,3,3,3.153933e+00,3.153934e+00
3.272163e+00,3.125635e+00,3,3,2.699179e+00,2.699179e+00
3.279849e+00,3.127185e+00,3,3,2.605156e+00,2.605156e+00
3.272158e+00,3.125864e+00,3,3,4.429311e+00,4.429317e+00
3.271571e+00,3.123090e+00,3,3,4.023856e+00,4.023863e+00
3.278376e+00,3.124677e+00,3,3,3.847464e+00,3.847464e+00
3.268955e+00,3.124207e+00,3,3,5.736016e+00,5.736015e+00
3.268054e+00,3.128796e+00,3,3,6.460208e+00,6.460434e+00
3.268184e+00,3.123366e+00,3,3,9.338650e+00,9.340522e+00
6.533309e+00,6.238782e+00,6,6,1.071690e+01,1.070832e+01
4.354923e+00,4.163502e+00,4,4,1.040228e+01,1.040208e+01
5.452824e+00,4.163637e+00,5,4,7.389688e+00,7.389680e+00
3.270784e+00,3.123764e+00,3,3,6.502898e+00,6.502898e+00
3.272066e+00,3.125462e+00,3,3,4.992730e+00,4.992731e+00
3.270694e+00,3.124339e+00,3,3,4.271854e+00,4.271854e+00
3.272908e+00,3.127609e+00,3,3,3.910948e+00,3.910948e+00
3.283161e+00,3.125621e+00,3,3,8.273175e+00,8.273241e+00
6.543580e+00,6.236464e+00,6,6,8.268200e+00,8.265449e+00
5.442966e+00,5.196567e+00,5,5,5.970342e+00,5.964479e+00
6.528022e+00,6.237544e+00,6,6,6.680854e+00,6.676968e+00
6.546524e+00,6.243510e+00,6,6,6.673479e+00,6.674339e+00
4.354795e+00,5.198362e+00,4,5,4.772891e+00,4.826881e+00
4.349149e+00,4.161803e+00,4,4,3.726947e+00,3.722608e+00
4.348486e+00,3.127118e+00,4,3,2.044833e+00,2.044835e+00
3.269122e+00,3.124161e+00,3,3,1.918082e+00,1.918082e+00
3.268224e+00,3.122583e+00,3,3,1.219466e+00,1.219466e+00
3.272926e+00,3.146894e+00,3,3,1.459083e+00,1.459083e+00
3.269637e+00,3.122512e+00,3,3,1.245452e+00,1.245452e+00
3.269936e+00,3.125224e+00,3,3,3.877840e+00,3.877838e+00
3.269665e+00,3.123522e+00,3,3,5.352243e+00,5.352242e+00
3.266508e+00,3.124779e+00,3,3,6.649924e+00,6.649924e+00
3.272526e+00,3.124550e+00,3,3,1.114844e+01,1.114864e+01
6.520506e+00,6.239004e+00,6,6,1.249791e+01,1.249652e+01
6.521630e+00,5.202586e+00,6,5,9.853386e+00,9.854939e+00
4.355248e+00,4.166601e+00,4,4,5.800067e+00,5.800067e+00
3.270424e+00,3.123984e+00,3,3,5.179197e+00,5.179197e+00
3.271715e+00,3.124279e+00,3,3,5.288972e+00,5.288972e+00
3.268334e+00,3.123762e+00,3,3,5.369979e+00,5.369982e+00
3.265466e+00,3.122056e+00,3,3,8.413029e+00,8.411191e+00
6.523149e+00,6.238312e+00,6,6,9.419539e+00,9.414857e+00
4.354863e+00,5.198197e+00,4,5,8.364074e+00,8.364524e+00
3.266158e+00,3.122798e+00,3,3,6.586392e+00,6.586421e+00
3.269612e+00,3.126166e+00,3,3,6.337003e+00,6.337050e+00
3.266958e+00,3.124044e+00,3,3,6.335927e+00,6.335927e+00
3.267493e+00,3.123693e+00,3,3,6.282090e+00,6.282090e+00
3.272860e+00,3.123739e+00,3,3,3.710693e+00,3.710693e+00
3.268977e+00,3.125089e+00,3,3,3.345244e+00,3.345243e+00
3.271927e+00,3.130745e+00,3,3,5.180826e+00,5.180824e+00
3.270961e+00,3.124442e+00,3,3,6.235558e+00,6.235781e+00
4.354737e+00,6.242302e+00,4,6,7.068220e+00,7.069889e+00
5.442541e+00,4.163685e+00,5,4,3.684485e+00,3.687152e+00
4.370277e+00,3.125260e+00,4,3,2.832349e+00,2.832917e+00
3.269918e+00,3.124319e+00,3,3,2.524232e+00,2.524262e+00
3.268732e+00,3.126335e+00,3,3,2.451325e+00,2.451324e+00
3.270933e+00,3.124204e+00,3,3,4.437675e+00,4.437674e+00
3.268512e+00,3.122203e+00,3,3,4.514960e+00,4.514959e+00
3.274949e+00,3.125085e+00,3,3,7.078575e+00,7.078573e+00
3.271019e+00,3.122849e+00,3,3,8.096995e+00,8.096999e+00
3.269782e+00,3.126350e+00,3,3,1.056014e+01,1.056015e+01
3.271424e+00,3.126849e+00,3,3,6.674515e+00,6.674521e+00
3.269458e+00,3.125951e+00,3,3,5.354694e+00,5.354695e+00
3.279317e+00,3.127935e+00,3,3,4.823356e+00,4.823356e+00
3.268439e+00,3.125090e+00,3,3,5.602276e+00,5.602287e+00
3.274044e+00,3.122311e+00,3,3,3.742822e+00,3.742821e+00
3.268107e+00,3.126772e+00,3,3,3.031221e+00,3.031221e+00
3.271375e+00,3.121699e+00,3,3,2.304906e+00,2.304906e+00
3.272785e+00,3.126355e+00,3,3,1.961501e+00,1.961501e+00
3.270561e+00,3.124919e+00,3,3,2.680720e+00,2.680719e+00
3.272762e+00,3.123332e+00,3,3,2.080034e+00,2.080034e+00
3.269813e+00,3.123209e+00,3,3,2.246746e+00,2.246746e+00
3.269709e+00,3.121875e+00,3,3,1.826720e+00,1.826720e+00
3.275010e+00,3.122796e+00,3,3,2.609932e+00,2.609931e+00
3.267171e+00,3.121600e+00,3,3,1.893218e+00,1.893218e+00
3.272750e+00,3.122261e+00,3,3,3.750089e+00,3.750087e+00
3.267738e+00,3.121901e+00,3,3,3.624295e+00,3.624296e+00
3.269661e+00,3.125680e+00,3,3,1.423283e+00,1.423284e+00
3.268421e+00,3.123370e+00,3,3,1.713180e+00,1.713179e+00
3.266972e+00,3.121528e+00,3,3,2.330888e+00,2.330888e+00
3.271492e+00,3.122925e+00,3,3,2.673331e+00,2.673330e+00
3.269377e+00,3.123027e+00,3,3,2.688012e+00,2.688012e+00
3.265127e+00,3.126532e+00,3,3,2.223359e+00,2.223359e+00
3.267467e+00,3.126075e+00,3,3,1.757777e+00,1.757777e+00
3.267742e+00,3.123571e+00,3,3,1.851301e+00,1.851300e+00
3.269893e+00,3.124939e+00,3,3,2.045765e+00,2.045765e+00
3.269659e+00,3.124381e+00,3,3,2.556057e+00,2.556056e+00
3.267960e+00,3.128685e+00,3,3,3.076692e+00,3.076692e+00
3.269931e+00,3.125539e+00,3,3,2.104272e+00,2.104272e+00
3.266762e+00,3.123802e+00,3,3,2.059823e+00,2.059823e+00
3.270730e+00,3.124538e+00,3,3,2.769439e+00,2.769439e+00
3.272329e+00,3.122440e+00,3,3,1.538268e+00,1.538268e+00
3.267081e+00,3.126980e+00,3,3,1.707018e+00,1.707018e+00
3.269277e+00,3.124860e+00,3,3,1.567502e+00,1.567502e+00
3.268481e+00,3.121370e+00,3,3,2.216600e+00,2.216599e+00
3.269507e+00,3.123549e+00,3,3,1.544087e+00,1.544087e+00
3.268131e+00,3.122115e+00,3,3,2.092528e+00,2.092527e+00
3.266727e+00,3.125877e+00,3,3,2.813592e+00,2.813591e+00
3.269238e+00,3.126356e+00,3,3,1.731855e+00,1.731855e+00
3.268488e+00,3.122198e+00,3,3,2.006196e+00,2.006196e+00
3.268397e+00,3.124503e+00,3,3,1.718952e+00,1.718950e+00
3.268110e+00,3.125546e+00,3,3,1.606232e+00,1.606232e+00
3.267452e+00,3.124535e+00,3,3,1.024687e+00,1.024687e+00
3.265986e+00,3.124244e+00,3,3,1.958023e+00,1.958023e+00
3.269011e+00,3.122347e+00,3,3,3.737293e+00,3.737292e+00
3.271077e+00,3.125303e+00,3,3,1.667019e+00,1.667019e+00
3.268724e+00,3.123817e+00,3,3,2.524663e+00,2.524662e+00
3.266892e+00,3.126192e+00,3,3,2.541439e+00,2.541439e+00
3.267144e+00,3.124519e+00,3,3,2.310854e+00,2.310853e+00
3.270446e+00,3.122874e+00,3,3,1.597294e+00,1.597295e+00
3.272254e+00,3.126249e+00,3,3,1.466397e+00,1.466396e+00
3.273158e+00,3.124635e+00,3,3,1.304236e+00,1.304236e+00
3.273754e+00,3.123097e+00,3,3,3.700356e+00,3.700354e+00
3.270753e+00,3.124970e+00,3,3,2.372578e+00,2.372578e+00
3.267500e+00,3.122176e+00,3,3,2.026523e+00,2.026523e+00
3.274178e+00,3.125143e+00,3,3,2.390961e+00,2.390961e+00
3.268702e+00,3.122345e+00,3,3,2.702310e+00,2.702528e+00
3.271389e+00,3.122437e+00,3,3,2.743448e+00,2.743505e+00
3.268488e+00,3.123019e+00,3,3,1.050333e+00,1.050334e+00
3.266382e+00,3.121714e+00,3,3,8.480498e-01,8.480495e-01
3.269578e+00,3.124437e+00,3,3,2.322018e+00,2.322017e+00
3.270162e+00,3.122449e+00,3,3,1.545718e+00,1.545718e+00
3.273371e+00,3.122675e+00,3,3,2.867931e+00,2.867930e+00
3.270789e+00,3.124327e+00,3,3,2.065949e+00,2.065949e+00
3.270097e+00,3.122779e+00,3,3,2.116454e+00,2.116454e+00
3.268029e+00,3.128119e+00,3,3,1.571087e+00,1.571086e+00
3.269987e+00,3.123224e+00,3,3,1.226992e+00,1.226992e+00
3.273917e+00,3.122720e+00,3,3,1.130290e+00,1.130290e+00
3.268589e+00,3.122626e+00,3,3,1.095527e+00,1.095527e+00
3.269767e+00,3.125334e+00,3,3,2.095710e+00,2.095708e+00
3.283722e+00,3.126073e+00,3,3,1.271021e+00,1.271021e+00
3.270153e+00,3.132862e+00,3,3,7.582546e-01,7.582545e-01
3.271916e+00,3.126698e+00,3,3,6.116687e-01,6.116686e-01
3.268666e+00,3.125378e+00,3,3,9.485538e-01,9.485536e-01
3.268759e+00,3.125553e+00,3,3,2.734208e+00,2.734207e+00
3.267243e+00,3.123397e+00,3,3,3.004080e+00,3.004094e+00
3.268286e+00,3.123296e+00,3,3,3.192325e+00,3.192330e+00
3.269527e+00,3.125297e+00,3,3,9.778263e+00,9.776722e+00
7.622514e+00,4.164012e+00,7,4,7.848479e+00,7.850100e+00
3.268019e+00,3.124352e+00,3,3,6.684894e+00,6.684906e+00
3.270727e+00,3.124299e+00,3,3,6.329979e+00,6.329979e+00
3.269177e+00,3.124492e+00,3,3,5.632840e+00,5.632841e+00
3.267644e+00,3.125466e+00,3,3,5.478581e+00,5.478581e+00
3.267832e+00,3.126463e+00,3,3,4.341811e+00,4.341811e+00
3.268888e+00,3.124795e+00,3,3,4.919815e+00,4.919814e+00
3.269110e+00,3.122335e+00,3,3,3.324622e+00,3.324622e+00
3.272062e+00,3.123481e+00,3,3,3.754332e+00,3.754331e+00
3.271159e+00,3.124479e+00,3,3,3.183004e+00,3.183004e+00
3.265027e+00,3.123254e+00,3,3,3.943704e+00,3.943703e+00
3.268278e+00,3.123931e+00,3,3,3.504594e+00,3.504594e+00
3.267070e+00,3.121779e+00,3,3,3.411940e+00,3.411940e+00
3.273526e+00,3.122740e+00,3,3,3.820917e+00,3.820916e+00
3.270041e+00,3.121548e+00,3,3,3.181152e+00,3.181152e+00
3.271455e+00,3.124316e+00,3,3,3.207801e+00,3.207801e+00
3.266690e+00,3.122863e+00,3,3,3.498743e+00,3.498743e+00
3.269332e+00,3.122324e+00,3,3,2.342555e+00,2.342555e+00
3.273324e+00,3.123439e+00,3,3,2.201619e+00,2.201619e+00
3.268281e+00,3.123692e+00,3,3,1.809809e+00,1.809809e+00
3.271362e+00,3.121539e+00,3,3,2.955234e+00,2.955233e+00
3.269261e+00,3.124196e+00,3,3,3.752555e+00,3.752554e+00
3.267153e+00,3.123239e+00,3,3,2.198162e+00,2.198163e+00
3.274234e+00,3.124429e+00,3,3,1.714198e+00,1.714198e+00
3.268337e+00,3.124002e+00,3,3,7.714776e-01,7.714773e-01
3.274917e+00,3.124174e+00,3,3,7.810450e-01,7.810449e-01
3.268909e+00,3.122769e+00,3,3,8.637933e-01,8.637931e-01
3.268130e+00,3.125332e+00,3,3,1.235205e+00,1.235205e+00
3.269455e+00,3.124660e+00,3,3,1.894050e+00,1.894050e+00
3.265929e+00,3.123207e+00,3,3,1.888119e+00,1.888118e+00
3.273047e+00,3.123973e+00,3,3,2.096806e+00,2.096805e+00
3.265150e+00,3.124369e+00,3,3,3.950879e+00,3.950877e+00
3.269393e+00,3.128170e+00,3,3,4.258111e+00,4.258114e+00
3.269316e+00,3.125353e+00,3,3,2.889602e+00,2.889602e+00
3.270096e+00,3.153592e+00,3,3,2.103198e+00,2.103198e+00
3.273726e+00,3.123875e+00,3,3,2.350537e+00,2.350536e+00
3.269896e+00,3.123537e+00,3,3,2.016204e+00,2.016203e+00
3.274464e+00,3.125607e+00,3,3,2.065690e+00,2.065690e+00
3.268299e+00,3.124068e+00,3,3,1.518012e+00,1.518011e+00
3.269998e+00,3.122307e+00,3,3,1.323313e+00,1.323313e+00
3.269415e+00,3.124855e+00,3,3,1.477485e+00,1.477484e+00
3.266135e+00,3.126662e+00,3,3,1.408082e+00,1.408082e+00
3.267444e+00,3.127401e+00,3,3,1.855079e+00,1.855079e+00
3.268621e+00,3.127039e+00,3,3,2.334201e+00,2.334201e+00
3.270134e+00,3.124489e+00,3,3,1.875423e+00,1.875423e+00
3.273920e+00,3.126197e+00,3,3,1.816860e+00,1.816860e+00
3.270471e+00,3.123769e+00,3,3,2.677909e+00,2.677908e+00
3.274844e+00,3.125280e+00,3,3,2.499424e+00,2.499424e+00
3.268858e+00,3.125049e+00,3,3,2.276919e+00,2.276919e+00
3.267417e+00,3.122740e+00,3,3,2.100208e+00,2.100208e+00
3.274755e+00,3.126405e+00,3,3,2.769871e+00,2.769870e+00
3.271661e+00,3.126664e+00,3,3,2.264850e+00,2.264850e+00
3.272229e+00,3.123596e+00,3,3,1.600442e+00,1.600442e+00
3.270375e+00,3.126497e+00,3,3,2.021265e+00,2.021265e+00
3.270150e+00,3.122877e+00,3,3,2.557932e+00,2.557933e+00
3.271190e+00,3.125103e+00,3,3,4.006120e+00,4.006116e+00
3.267151e+00,3.123065e+00,3,3,2.271603e+00,2.271604e+00
3.271814e+00,3.123853e+00,3,3,2.673185e+00,2.673185e+00
3.269812e+00,3.123684e+00,3,3,2.416562e+00,2.416562e+00
3.265821e+00,3.126508e+00,3,3,3.489160e+00,3.489158e+00
3.268954e+00,3.124623e+00,3,3,3.081687e+00,3.081687e+00
3.268869e+00,3.121164e+00,3,3,3.914034e+00,3.914034e+00
3.272200e+00,3.125363e+00,3,3,4.309000e+00,4.308999e+00
3.267504e+00,3.123718e+00,3,3,4.099862e+00,4.099862e+00
3.270185e+00,3.127993e+00,3,3,5.123026e+00,5.123025e+00
3.273514e+00,3.125734e+00,3,3,5.036900e+00,5.036900e+00
3.271042e+00,3.123219e+00,3,3,5.011083e+00,5.011083e+00
3.277839e+00,3.123143e+00,3,3,3.558911e+00,3.558912e+00
3.268902e+00,3.124171e+00,3,3,3.462581e+00,3.462580e+00
3.267732e+00,3.127234e+00,3,3,3.412714e+00,3.412714e+00
3.266559e+00,3.124226e+00,3,3,3.406073e+00,3.406073e+00
3.267930e+00,3.123825e+00,3,3,2.237666e+00,2.237667e+00
3.293464e+00,3.125095e+00,3,3,2.430955e+00,2.430954e+00
3.271752e+00,3.122043e+00,3,3,2.223187e+00,2.223186e+00
3.266823e+00,3.129820e+00,3,3,1.414604e+00,1.414604e+00
3.267093e+00,3.125186e+00,3,3,2.066779e+00,2.066778e+00
3.266527e+00,3.123977e+00,3,3,1.297161e+00,1.297161e+00
3.269804e+00,3.123283e+00,3,3,1.100635e+00,1.100635e+00
3.266903e+00,3.124685e+00,3,3,1.251420e+00,1.251419e+00
3.265620e+00,3.123803e+00,3,3,1.941210e+00,1.941209e+00
3.267606e+00,3.125581e+00,3,3,1.904748e+00,1.904748e+00
3.270528e+00,3.122818e+00,3,3,2.392300e+00,2.392299e+00
3.273457e+00,3.125455e+00,3,3,8.192775e+00,8.192777e+00
3.270961e+00,3.125245e+00,3,3,4.041801e+00,4.041806e+00
3.271673e+00,3.124260e+00,3,3,5.098495e+00,5.098494e+00
3.270114e+00,3.122954e+00,3,3,5.422347e+00,5.422350e+00
3.275186e+00,3.124366e+00,3,3,4.059284e+00,4.059290e+00
3.273343e+00,3.124509e+00,3,3,3.042993e+00,3.042994e+00
3.269427e+00,3.124989e+00,3,3,4.428300e+00,4.428307e+00
3.272413e+00,3.124692e+00,3,3,3.627582e+00,3.627645e+00
3.268361e+00,3.123032e+00,3,3,1.855121e+00,1.855121e+00
3.268653e+00,3.120126e+00,3,3,1.569260e+00,1.569260e+00
3.265196e+00,3.123589e+00,3,3,1.383774e+00,1.383774e+00
3.270191e+00,3.125156e+00,3,3,1.438507e+00,1.438506e+00
3.272915e+00,3.122384e+00,3,3,1.365768e+00,1.365768e+00
3.268233e+00,3.123801e+00,3,3,3.120978e+00,3.120976e+00
3.267419e+00,3.125427e+00,3,3,2.580656e+00,2.580656e+00
3.270255e+00,3.123369e+00,3,3,9.866242e-01,9.866245e-01
3.267307e+00,3.124599e+00,3,3,1.835514e+00,1.835513e+00
3.271405e+00,3.129425e+00,3,3,2.169334e+00,2.169334e+00
3.268871e+00,3.123824e+00,3,3,1.764436e+00,1.764436e+00
3.280879e+00,3.126397e+00,3,3,9.090421e-01,9.090420e-01
3.269551e+00,3.135741e+00,3,3,1.375931e+00,1.375931e+00
3.270011e+00,3.123535e+00,3,3,2.649486e+00,2.649485e+00
3.270646e+00,3.126554e+00,3,3,6.231698e+00,6.232021e+00
4.356123e+00,4.162298e+00,4,4,5.172166e+00,5.172168e+00
3.272113e+00,3.124687e+00,3,3,2.592356e+00,2.592357e+00
3.269703e+00,3.124860e+00,3,3,2.338192e+00,2.338192e+00
3.272627e+00,3.127368e+00,3,3,2.123888e+00,2.123888e+00
3.269309e+00,3.123920e+00,3,3,2.857389e+00,2.857387e+00
3.274181e+00,3.123795e+00,3,3,3.114860e+00,3.114859e+00
3.275331e+00,3.127592e+00,3,3,2.577055e+00,2.577055e+00
3.270279e+00,3.125751e+00,3,3,2.332458e+00,2.332458e+00
3.268301e+00,3.126846e+00,3,3,2.338026e+00,2.338025e+00
3.268666e+00,3.123346e+00,3,3,2.935814e+00,2.935813e+00
3.267077e+00,3.121770e+00,3,3,2.759030e+00,2.759030e+00
3.269702e+00,3.124064e+00,3,3,2.153617e+00,2.153617e+00
3.269615e+00,3.123904e+00,3,3,2.193526e+00,2.193525e+00
3.268199e+00,3.126344e+00,3,3,1.769559e+00,1.769558e+00
3.270141e+00,3.122771e+00,3,3,3.484363e+00,3.484362e+00
3.269132e+00,3.122437e+00,3,3,5.049597e+00,5.049599e+00
3.270567e+00,3.123650e+00,3,3,5.896471e+00,5.896563e+00
3.272188e+00,3.132919e+00,3,3,2.875119e+00,2.875128e+00
3.270182e+00,3.123337e+00,3,3,2.080950e+00,2.080950e+00
3.269747e+00,3.126214e+00,3,3,2.391950e+00,2.391950e+00
3.268836e+00,3.124271e+00,3,3,3.221085e+00,3.221084e+00
3.274555e+00,3.125936e+00,3,3,2.672125e+00,2.672125e+00
3.266350e+00,3.124485e+00,3,3,1.015898e+01,1.015559e+01
6.525967e+00,6.243032e+00,6,6,1.457383e+01,1.457213e+01
6.530032e+00,6.244862e+00,6,6,1.129087e+01,1.128855e+01
5.441614e+00,6.241659e+00,5,6,1.563129e+01,1.563604e+01
6.519726e+00,6.234160e+00,6,6,1.336811e+01,1.336445e+01
6.528635e+00,4.163872e+00,6,4,1.026060e+01,1.024003e+01
6.533825e+00,6.237116e+00,6,6,1.383386e+01,1.381179e+01
4.355934e+00,4.160629e+00,4,4,1.251692e+01,1.251835e+01
6.536024e+00,6.241514e+00,6,6,1.649504e+01,1.647677e+01
4.348271e+00,4.164339e+00,4,4,1.402526e+01,1.402581e+01
3.270892e+00,3.123662e+00,3,3,1.215595e+01,1.215596e+01
3.266781e+00,3.122548e+00,3,3,8.897735e+00,8.897737e+00
3.272384e+00,3.126269e+00,3,3,7.046171e+00,7.046172e+00
3.268183e+00,3.124716e+00,3,3,5.881157e+00,5.881157e+00
3.276100e+00,3.121452e+00,3,3,6.500687e+00,6.500687e+00
3.270960e+00,3.128150e+00,3,3,3.978574e+00,3.978576e+00
3.267492e+00,3.123986e+00,3,3,3.472821e+00,3.472821e+00
3.274081e+00,3.124668e+00,3,3,2.948730e+00,2.948730e+00
3.267297e+00,3.125544e+00,3,3,1.687980e+00,1.687980e+00
3.271065e+00,3.121501e+00,3,3,1.473788e+00,1.473787e+00
3.268764e+00,3.126790e+00,3,3,1.459411e+00,1.459411e+00
3.269521e+00,3.124798e+00,3,3,8.713421e-01,8.713421e-01
3.271724e+00,3.124975e+00,3,3,2.398214e+00,2.398213e+00
3.269074e+00,3.123469e+00,3,3,9.230805e-01,9.230807e-01
3.270951e+00,3.123298e+00,3,3,9.093331e-01,9.093326e-01
3.270430e+00,3.123568e+00,3,3,1.293396e+00,1.293396e+00
3.266441e+00,3.120674e+00,3,3,1.891532e+00,1.891531e+00
3.286208e+00,3.131678e+00,3,3,2.383833e+00,2.383831e+00
3.267495e+00,3.125611e+00,3,3,1.220489e+00,1.220489e+00
3.273515e+00,3.127618e+00,3,3,1.509568e+00,1.509567e+00
3.272433e+00,3.123900e+00,3,3,1.221614e+00,1.221614e+00
3.270789e+00,3.126611e+00,3,3,2.847058e+00,2.847057e+00
3.269221e+00,3.125628e+00,3,3,1.915531e+00,1.915532e+00
3.266596e+00,3.124017e+00,3,3,9.227497e-01,9.227499e-01
3.271746e+00,3.124820e+00,3,3,3.167633e+00,3.167631e+00
3.270707e+00,3.125678e+00,3,3,3.403664e+00,3.403663e+00
3.265121e+00,3.126365e+00,3,3,3.736317e+00,3.736317e+00
3.269594e+00,3.123986e+00,3,3,2.813529e+00,2.813529e+00
3.271402e+00,3.124958e+00,3,3,2.493451e+00,2.493451e+00
3.273564e+00,3.127792e+00,3,3,2.220625e+00,2.220624e+00
3.267659e+00,3.122554e+00,3,3,2.057445e+00,2.057445e+00
3.270278e+00,3.126767e+00,3,3,2.213468e+00,2.213467e+00
3.271241e+00,3.126710e+00,3,3,1.548877e+00,1.548877e+00
3.268280e+00,3.121799e+00,3,3,2.811106e+00,2.811105e+00
3.272394e+00,3.126684e+00,3,3,2.454164e+00,2.454164e+00
3.268267e+00,3.124960e+00,3,3,3.287026e+00,3.287025e+00
3.271343e+00,3.123524e+00,3,3,3.956946e+00,3.956945e+00
3.269521e+00,3.126787e+00,3,3,5.027360e+00,5.027358e+00
3.267975e+00,3.126034e+00,3,3,7.766175e+00,7.766173e+00
3.273490e+00,3.126107e+00,3,3,6.172427e+00,6.172428e+00
3.269816e+00,3.125741e+00,3,3,4.020708e+00,4.020708e+00
3.272203e+00,3.123449e+00,3,3,3.927852e+00,3.927852e+00
3.270366e+00,3.125358e+00,3,3,3.433091e+00,3.433090e+00
3.269320e+00,3.120720e+00,3,3,3.616756e+00,3.616754e+00
3.277725e+00,3.131814e+00,3,3,3.590288e+00,3.590288e+00
3.270556e+00,3.123668e+00,3,3,2.996930e+00,2.996930e+00
3.275670e+00,3.124089e+00,3,3,4.287775e+00,4.287773e+00
3.271920e+00,3.127569e+00,3,3,3.987988e+00,3.987989e+00
3.269821e+00,3.128669e+00,3,3,4.749953e+00,4.749953e+00
3.267620e+00,3.125139e+00,3,3,5.554570e+00,5.554572e+00
3.299712e+00,3.124447e+00,3,3,3.627295e+00,3.627300e+00
3.273712e+00,3.122758e+00,3,3,3.156390e+00,3.156399e+00
3.272199e+00,3.124053e+00,3,3,2.415935e+00,2.415961e+00
3.269403e+00,3.126737e+00,3,3,1.641448e+00,1.641459e+00
3.267306e+00,3.123118e+00,3,3,2.384357e+00,2.384355e+00
3.270626e+00,3.122539e+00,3,3,1.726604e+00,1.726604e+00
3.272640e+00,3.124214e+00,3,3,1.141801e+00,1.141801e+00
3.268162e+00,3.125380e+00,3,3,9.280126e-01,9.280125e-01
3.269346e+00,3.126781e+00,3,3,9.107827e-01,9.107825e-01
3.267534e+00,3.122831e+00,3,3,1.046670e+00,1.046669e+00
3.266808e+00,3.122920e+00,3,3,1.097928e+00,1.097928e+00
3.270175e+00,3.125398e+00,3,3,1.985252e+00,1.985252e+00
3.268463e+00,3.125315e+00,3,3,3.124845e+00,3.124842e+00
3.273977e+00,3.123588e+00,3,3,3.135626e+00,3.135626e+00
3.269303e+00,3.123585e+00,3,3,4.440786e+00,4.440784e+00
3.267765e+00,3.125211e+00,3,3,1.135519e+01,1.135541e+01
5.454140e+00,8.323190e+00,5,8,1.456969e+01,1.457068e+01
4.355822e+00,4.162668e+00,4,4,1.051802e+01,1.051802e+01
3.270814e+00,3.124597e+00,3,3,1.015626e+01,1.015628e+01
3.268716e+00,3.127293e+00,3,3,8.325944e+00,8.325959e+00
3.267669e+00,3.125147e+00,3,3,7.629315e+00,7.629315e+00
3.265324e+00,3.124314e+00,3,3,5.904609e+00,5.904610e+00
3.271165e+00,3.125801e+00,3,3,4.974284e+00,4.974285e+00
3.270216e+00,3.123198e+00,3,3,6.168145e+00,6.168183e+00
3.268821e+00,3.126236e+00,3,3,4.606558e+00,4.606563e+00
3.268226e+00,3.125264e+00,3,3,3.901018e+00,3.901017e+00
3.271433e+00,3.124503e+00,3,3,4.554882e+00,4.554886e+00
3.271033e+00,3.123197e+00,3,3,4.893827e+00,4.894568e+00
4.349999e+00,4.160643e+00,4,4,2.644037e+00,2.644037e+00
3.269400e+00,3.123449e+00,3,3,2.464487e+00,2.464487e+00
3.267998e+00,3.124193e+00,3,3,1.521168e+00,1.521167e+00
3.266325e+00,3.129158e+00,3,3,1.116692e+00,1.116692e+00
3.267687e+00,3.125889e+00,3,3,2.444246e+00,2.444245e+00
3.285354e+00,3.124866e+00,3,3,3.933665e+00,3.933664e+00
3.271040e+00,3.124187e+00,3,3,3.445286e+00,3.445286e+00
3.270023e+00,3.125552e+00,3,3,3.550759e+00,3.550759e+00
3.268233e+00,3.127594e+00,3,3,3.429446e+00,3.429446e+00
3.268253e+00,3.123981e+00,3,3,4.540598e+00,4.540615e+00
3.268300e+00,3.123499e+00,3,3,5.890329e+00,5.890682e+00
3.272721e+00,3.124670e+00,3,3,5.544456e+00,5.544457e+00
3.269171e+00,3.123418e+00,3,3,3.516405e+00,3.516405e+00
3.270850e+00,3.126757e+00,3,3,3.162909e+00,3.162909e+00
3.270446e+00,3.123701e+00,3,3,3.149013e+00,3.149012e+00
3.268366e+00,3.122785e+00,3,3,6.071040e+00,6.071046e+00
3.271781e+00,3.124840e+00,3,3,6.830946e+00,6.831010e+00
3.268512e+00,3.121333e+00,3,3,5.648003e+00,5.648140e+00
3.277107e+00,3.123354e+00,3,3,3.704079e+00,3.704089e+00
3.269530e+00,3.122621e+00,3,3,3.079183e+00,3.079183e+00
3.267294e+00,3.123214e+00,3,3,2.940391e+00,2.940391e+00
3.273736e+00,3.123803e+00,3,3,2.220319e+00,2.220319e+00
3.272140e+00,3.122581e+00,3,3,2.969262e+00,2.969258e+00
3.272256e+00,3.123306e+00,3,3,2.753254e+00,2.753254e+00
3.270833e+00,3.123432e+00,3,3,1.631887e+00,1.631887e+00
3.267883e+00,3.122305e+00,3,3,1.130161e+00,1.130161e+00
3.271316e+00,3.125202e+00,3,3,1.094200e+00,1.094200e+00
3.270997e+00,3.122721e+00,3,3,7.411166e-01,7.411163e-01
3.272684e+00,3.122434e+00,3,3,7.771763e-01,7.771761e-01
3.268530e+00,3.123557e+00,3,3,1.608148e+00,1.608148e+00
3.269329e+00,3.124161e+00,3,3,4.026555e+00,4.026554e+00
3.270562e+00,3.124376e+00,3,3,1.897440e+00,1.897441e+00
3.267908e+00,3.122699e+00,3,3,2.527168e+00,2.527167e+00
3.269592e+00,3.124475e+00,3,3,1.642199e+00,1.642200e+00
3.269042e+00,3.122504e+00,3,3,2.482687e+00,2.482685e+00
3.267352e+00,3.125406e+00,3,3,3.595901e+00,3.595900e+00
3.269295e+00,3.125614e+00,3,3,5.525649e+00,5.525646e+00
3.272099e+00,3.123743e+00,3,3,3.845862e+00,3.845863e+00
3.272918e+00,3.125572e+00,3,3,2.630666e+00,2.630667e+00
3.272870e+00,3.122628e+00,3,3,4.901967e+00,4.901967e+00
3.268373e+00,3.127195e+00,3,3,2.952794e+00,2.952799e+00
3.267118e+00,3.124131e+00,3,3,3.278339e+00,3.278340e+00
3.269715e+00,3.122823e+00,3,3,4.634639e+00,4.634673e+00
3.274757e+00,3.123595e+00,3,3,3.050508e+00,3.050513e+00
3.274933e+00,3.128088e+00,3,3,2.722059e+00,2.722059e+00
3.270867e+00,3.129522e+00,3,3,2.487606e+00,2.487605e+00
3.270821e+00,3.122989e+00,3,3,2.772309e+00,2.772309e+00
3.267608e+00,3.121777e+00,3,3,2.960709e+00,2.960709e+00
3.271533e+00,3.124831e+00,3,3,2.420687e+00,2.420686e+00
3.267664e+00,3.123196e+00,3,3,2.240812e+00,2.240812e+00
3.270685e+00,3.127453e+00,3,3,2.083120e+00,2.083120e+00
3.266880e+00,3.122573e+00,3,3,2.951875e+00,2.951874e+00
3.269480e+00,3.122806e+00,3,3,2.199450e+00,2.199450e+00
3.271029e+00,3.126573e+00,3,3,1.756518e+00,1.756518e+00
3.267314e+00,3.124786e+00,3,3,1.653497e+00,1.653496e+00
3.266294e+00,3.125795e+00,3,3,1.186007e+00,1.186006e+00
3.268043e+00,3.125908e+00,3,3,1.546437e+00,1.546436e+00
3.270210e+00,3.123042e+00,3,3,1.098048e+00,1.098048e+00

