2.217963e+00,2.108573e+00,2,2,0.000000e+00,0.000000e+00
3.305644e+00,3.159247e+00,3,3,2.780999e-01,2.780999e-01
3.328461e+00,3.170151e+00,3,3,4.335423e-01,4.335422e-01
3.302669e+00,3.158857e+00,3,3,2.064624e+00,2.064623e+00
3.305451e+00,3.159469e+00,3,3,1.207167e+00,1.207167e+00
3.303093e+00,3.157332e+00,3,3,1.508180e+00,1.508180e+00
3.301683e+00,3.160752e+00,3,3,4.950216e+00,4.950214e+00
3.303415e+00,3.157014e+00,3,3,7.501612e+00,7.501612e+00
3.299164e+00,3.155104e+00,3,3,6.487639e+00,6.487641e+00
3.305286e+00,3.156909e+00,3,3,9.730804e+00,9.730810e+00
3.301441e+00,3.153470e+00,3,3,7.389137e+00,7.389267e+00
3.313033e+00,4.213212e+00,3,4,8.594062e+00,8.594073e+00
3.304621e+00,3.156356e+00,3,3,7.075190e+00,7.075411e+00
3.307986e+00,3.159781e+00,3,3,6.296874e+00,6.296980e+00
3.300228e+00,3.155072e+00,3,3,6.745199e+00,6.745213e+00
3.304416e+00,3.161929e+00,3,3,5.124966e+00,5.124967e+00
3.305616e+00,3.156732e+00,3,3,4.367107e+00,4.367107e+00
3.305550e+00,3.157593e+00,3,3,4.528331e+00,4.528330e+00
3.304806e+00,3.152854e+00,3,3,5.009768e+00,5.009767e+00
3.310088e+00,3.162945e+00,3,3,8.263416e+00,8.263413e+00
3.306844e+00,3.155051e+00,3,3,8.860282e+00,8.860304e+00
3.309848e+00,3.162782e+00,3,3,7.051269e+00,7.051273e+00
3.306823e+00,3.158877e+00,3,3,6.877213e+00,6.877212e+00
3.304875e+00,3.155654e+00,3,3,7.947380e+00,7.947387e+00
3.297550e+00,3.160111e+00,3,3,5.972283e+00,5.972285e+00
3.302299e+00,3.159039e+00,3,3,4.886824e+00,4.886824e+00
3.300971e+00,3.159970e+00,3,3,4.224952e+00,4.224952e+00
3.303916e+00,3.160643e+00,3,3,5.013456e+00,5.013455e+00
3.310962e+00,3.165022e+00,3,3,2.963086e+00,2.963086e+00
3.305848e+00,3.161768e+00,3,3,3.051931e+00,3.051930e+00
3.301669e+00,3.160008e+00,3,3,4.026151e+00,4.026151e+00
3.298752e+00,3.150801e+00,3,3,3.184201e+00,3.184201e+00
3.302575e+00,3.158664e+00,3,3,2.405278e+00,2.405278e+00
3.301697e+00,3.156967e+00,3,3,2.869164e+00,2.869164e+00
3.306762e+00,3.158385e+00,3,3,2.431543e+00,2.431543e+00
3.302885e+00,3.157317e+00,3,3,2.037118e+00,2.037118e+00
3.303735e+00,3.152992e+00,3,3,1.997947e+00,1.997947e+00
3.297875e+00,3.154277e+00,3,3,2.862443e+00,2.862442e+00
3.306083e+00,3.155538e+00,3,3,1.920824e+00,1.920824e+00
3.298972e+00,3.156168e+00,3,3,1.815063e+00,1.815063e+00
3.308795e+00,3.160835e+00,3,3,3.943885e+00,3.943884e+00
3.306668e+00,3.161125e+00,3,3,2.914754e+00,2.914754e+00
3.299572e+00,3.155239e+00,3,3,3.387402e+00,3.387401e+00
3.301484e+00,3.152196e+00,3,3,1.979524e+00,1.979524e+00
3.300513e+00,3.157058e+00,3,3,2.683418e+00,2.683417e+00
3.302226e+00,3.161439e+00,3,3,2.212040e+00,2.212040e+00
3.300942e+00,3.157379e+00,3,3,3.095385e+00,3.095384e+00
3.300941e+00,3.158863e+00,3,3,2.876892e+00,2.876892e+00
3.305916e+00,3.158306e+00,3,3,2.913503e+00,2.913503e+00
3.310104e+00,3.158668e+00,3,3,3.196935e+00,3.196934e+00
3.298554e+00,3.154386e+00,3,3,2.291772e+00,2.291773e+00
3.307537e+00,3.163216e+00,3,3,1.929253e+00,1.929253e+00
3.305217e+00,3.158284e+00,3,3,1.998780e+00,1.998779e+00
3.312312e+00,3.161333e+00,3,3,1.679528e+00,1.679528e+00
3.304222e+00,3.158372e+00,3,3,2.899055e+00,2.899053e+00
3.302499e+00,3.162498e+00,3,3,6.323097e+00,6.322829e+00
4.395018e+00,4.217682e+00,4,4,3.756151e+00,3.756153e+00
3.302960e+00,3.155219e+00,3,3,2.959545e+00,2.959545e+00
3.299015e+00,3.151964e+00,3,3,2.010168e+00,2.010168e+00
3.305147e+00,3.151703e+00,3,3,1.565419e+00,1.565419e+00
3.299404e+00,3.150773e+00,3,3,1.353211e+00,1.353210e+00
3.300862e+00,3.153654e+00,3,3,9.245139e-01,9.245137e-01
3.303821e+00,3.148833e+00,3,3,5.974359e-01,5.974358e-01
3.301348e+00,3.150341e+00,3,3,8.849277e-01,8.849276e-01
3.300056e+00,3.158921e+00,3,3,1.040718e+00,1.040717e+00
3.301192e+00,3.156027e+00,3,3,1.064409e+00,1.064408e+00
3.300184e+00,3.155708e+00,3,3,1.018346e+00,1.018346e+00
3.304860e+00,3.179265e+00,3,3,9.814003e-01,9.814002e-01
3.313947e+00,3.156352e+00,3,3,1.434207e+00,1.434207e+00
3.297970e+00,3.160422e+00,3,3,2.273170e+00,2.273171e+00
3.302085e+00,3.155783e+00,3,3,1.891870e+00,1.891870e+00
3.298019e+00,3.153872e+00,3,3,2.699509e+00,2.699509e+00
3.302776e+00,3.152284e+00,3,3,5.702551e+00,5.702548e+00
3.298379e+00,3.153707e+00,3,3,6.332234e+00,6.332233e+00
3.300369e+00,3.155142e+00,3,3,6.445369e+00,6.445368e+00
3.301583e+00,3.153046e+00,3,3,5.625913e+00,5.625914e+00
3.301423e+00,3.152638e+00,3,3,5.338419e+00,5.338419e+00
3.299087e+00,3.152938e+00,3,3,3.824074e+00,3.824074e+00
3.304747e+00,3.153240e+00,3,3,4.145315e+00,4.145314e+00
3.303804e+00,3.155873e+00,3,3,3.684086e+00,3.684086e+00
3.300982e+00,3.157823e+00,3,3,2.675141e+00,2.675141e+00
3.302196e+00,3.156350e+00,3,3,2.201098e+00,2.201098e+00
3.300123e+00,3.155738e+00,3,3,2.175749e+00,2.175749e+00
3.299980e+00,3.154649e+00,3,3,2.448743e+00,2.448743e+00
3.301397e+00,3.161410e+00,3,3,3.884251e+00,3.884250e+00
3.308733e+00,3.161761e+00,3,3,2.973795e+00,2.973795e+00
3.299571e+00,3.158654e+00,3,3,5.481224e+00,5.480109e+00
5.494748e+00,5.259160e+00,5,5,5.019970e+00,5.030788e+00
4.410899e+00,3.156718e+00,4,3,4.020965e+00,4.021009e+00
3.301345e+00,3.159153e+00,3,3,7.901790e+00,7.902011e+00
3.306236e+00,3.155380e+00,3,3,6.246689e+00,6.246759e+00
3.300049e+00,3.159638e+00,3,3,3.153933e+00,3.153934e+00
3.304442e+00,3.161651e+00,3,3,2.699179e+00,2.699179e+00
3.303434e+00,3.159708e+00,3,3,2.605156e+00,2.605156e+00
3.306242e+00,3.160967e+00,3,3,4.429311e+00,4.429317e+00
3.301932e+00,3.161181e+00,3,3,4.023856e+00,4.023863e+00
3.302882e+00,3.159079e+00,3,3,3.847464e+00,3.847464e+00
3.304845e+00,3.165974e+00,3,3,5.736016e+00,5.736015e+00
3.305619e+00,3.164731e+00,3,3,6.460208e+00,6.460434e+00
3.304359e+00,3.160620e+00,3,3,9.338650e+00,9.340522e+00
6.593231e+00,6.313840e+00,6,6,1.071690e+01,1.070832e+01
4.392391e+00,4.209026e+00,4,4,1.040228e+01,1.040208e+01
5.502190e+00,4.208516e+00,5,4,7.389688e+00,7.389680e+00
3.307804e+00,3.158844e+00,3,3,6.502898e+00,6.502898e+00
3.303991e+00,3.158796e+00,3,3,4.992730e+00,4.992731e+00
3.311763e+00,3.156922e+00,3,3,4.271854e+00,4.271854e+00
3.302323e+00,3.159519e+00,3,3,3.910948e+00,3.910948e+00
3.301137e+00,3.159323e+00,3,3,8.273175e+00,8.273241e+00
6.599391e+00,6.304320e+00,6,6,8.268200e+00,8.265449e+00
5.488644e+00,5.248858e+00,5,5,5.970342e+00,5.964479e+00
6.594573e+00,6.298732e+00,6,6,6.680854e+00,6.676968e+00
6.594099e+00,6.303206e+00,6,6,6.673479e+00,6.674339e+00
4.399867e+00,5.248800e+00,4,5,4.772891e+00,4.826881e+00
4.390194e+00,4.212262e+00,4,4,3.726947e+00,3.722608e+00
4.396376e+00,3.160672e+00,4,3,2.044833e+00,2.044835e+00
3.303462e+00,3.152344e+00,3,3,1.918082e+00,1.918082e+00
3.303671e+00,3.150674e+00,3,3,1.219466e+00,1.219466e+00
3.300534e+00,3.158718e+00,3,3,1.459083e+00,1.459083e+00
3.302254e+00,3.153268e+00,3,3,1.245452e+00,1.245452e+00
3.302907e+00,3.159889e+00,3,3,3.877840e+00,3.877838e+00
3.302764e+00,3.160611e+00,3,3,5.352243e+00,5.352242e+00
3.301831e+00,3.161928e+00,3,3,6.649924e+00,6.649924e+00
3.307414e+00,3.163193e+00,3,3,1.114844e+01,1.114864e+01
6.589581e+00,6.302910e+00,6,6,1.249791e+01,1.249652e+01
6.592907e+00,5.268543e+00,6,5,9.853386e+00,9.854939e+00
4.395133e+00,4.210862e+00,4,4,5.800067e+00,5.800067e+00
3.304398e+00,3.165291e+00,3,3,5.179197e+00,5.179197e+00
3.304195e+00,3.158123e+00,3,3,5.288972e+00,5.288972e+00
3.301469e+00,3.163702e+00,3,3,5.369979e+00,5.369982e+00
3.299018e+00,3.158251e+00,3,3,8.413029e+00,8.411191e+00
6.585165e+00,6.301950e+00,6,6,9.419539e+00,9.414857e+00
4.392449e+00,5.245593e+00,4,5,8.364074e+00,8.364524e+00
3.299470e+00,3.150091e+00,3,3,6.586392e+00,6.586421e+00
3.301131e+00,3.156502e+00,3,3,6.337003e+00,6.337050e+00
3.301723e+00,3.163503e+00,3,3,6.335927e+00,6.335927e+00
3.300816e+00,3.154129e+00,3,3,6.282090e+00,6.282090e+00
3.305370e+00,3.151579e+00,3,3,3.710693e+00,3.710693e+00
3.305704e+00,3.154806e+00,3,3,3.345244e+00,3.345243e+00
3.304954e+00,3.160783e+00,3,3,5.180826e+00,5.180824e+00
3.299982e+00,3.151828e+00,3,3,6.235558e+00,6.235781e+00
4.401556e+00,6.299750e+00,4,6,7.068220e+00,7.069889e+00
5.499802e+00,4.201639e+00,5,4,3.684485e+00,3.687152e+00
4.403808e+00,3.156364e+00,4,3,2.832349e+00,2.832917e+00
3.309636e+00,3.159473e+00,3,3,2.524232e+00,2.524262e+00
3.309944e+00,3.158056e+00,3,3,2.451325e+00,2.451324e+00
3.305127e+00,3.157764e+00,3,3,4.437675e+00,4.437674e+00
3.303540e+00,3.164531e+00,3,3,4.514960e+00,4.514959e+00
3.307244e+00,3.156409e+00,3,3,7.078575e+00,7.078573e+00
3.297890e+00,3.153915e+00,3,3,8.096995e+00,8.096999e+00
3.305137e+00,3.157415e+00,3,3,1.056014e+01,1.056015e+01
3.297099e+00,3.159740e+00,3,3,6.674515e+00,6.674521e+00
3.298067e+00,3.156854e+00,3,3,5.354694e+00,5.354695e+00
3.300813e+00,3.155849e+00,3,3,4.823356e+00,4.823356e+00
3.303038e+00,3.161029e+00,3,3,5.602276e+00,5.602287e+00
3.321173e+00,3.156706e+00,3,3,3.742822e+00,3.742821e+00
3.305055e+00,3.157133e+00,3,3,3.031221e+00,3.031221e+00
3.311211e+00,3.158567e+00,3,3,2.304906e+00,2.304906e+00
3.299888e+00,3.160667e+00,3,3,1.961501e+00,1.961501e+00
3.305447e+00,3.157072e+00,3,3,2.680720e+00,2.680719e+00
3.302850e+00,3.154879e+00,3,3,2.080034e+00,2.080034e+00
3.303315e+00,3.152797e+00,3,3,2.246746e+00,2.246746e+00
3.300256e+00,3.164407e+00,3,3,1.826720e+00,1.826720e+00
3.300034e+00,3.158727e+00,3,3,2.609932e+00,2.609931e+00
3.298658e+00,3.151532e+00,3,3,1.893218e+00,1.893218e+00
3.304880e+00,3.155939e+00,3,3,3.750089e+00,3.750087e+00
3.308201e+00,3.152026e+00,3,3,3.624295e+00,3.624296e+00
3.299148e+00,3.156408e+00,3,3,1.423283e+00,1.423284e+00
3.298702e+00,3.151636e+00,3,3,1.713180e+00,1.713179e+00
3.300397e+00,3.154778e+00,3,3,2.330888e+00,2.330888e+00
3.298456e+00,3.153590e+00,3,3,2.673331e+00,2.673330e+00
3.303910e+00,3.159493e+00,3,3,2.688012e+00,2.688012e+00
3.300872e+00,3.161655e+00,3,3,2.223359e+00,2.223359e+00
3.299515e+00,3.158403e+00,3,3,1.757777e+00,1.757777e+00
3.306351e+00,3.159418e+00,3,3,1.851301e+00,1.851300e+00
3.300481e+00,3.159638e+00,3,3,2.045765e+00,2.045765e+00
3.305348e+00,3.152990e+00,3,3,2.556057e+00,2.556056e+00
3.308370e+00,3.160260e+00,3,3,3.076692e+00,3.076692e+00
3.307249e+00,3.159964e+00,3,3,2.104272e+00,2.104272e+00
3.305577e+00,3.159844e+00,3,3,2.059823e+00,2.059823e+00
3.306598e+00,3.189936e+00,3,3,2.769439e+00,2.769439e+00
3.303860e+00,3.155587e+00,3,3,1.538268e+00,1.538268e+00
3.312695e+00,3.156989e+00,3,3,1.707018e+00,1.707018e+00
3.301786e+00,3.185971e+00,3,3,1.567502e+00,1.567502e+00
3.304674e+00,3.174057e+00,3,3,2.216600e+00,2.216599e+00
3.304767e+00,3.160946e+00,3,3,1.544087e+00,1.544087e+00
3.307443e+00,3.161366e+00,3,3,2.092528e+00,2.092527e+00
3.300534e+00,3.159902e+00,3,3,2.813592e+00,2.813591e+00
3.306200e+00,3.186938e+00,3,3,1.731855e+00,1.731855e+00
3.304348e+00,3.162335e+00,3,3,2.006196e+00,2.006196e+00
3.302158e+00,3.163792e+00,3,3,1.718952e+00,1.718950e+00
3.307826e+00,3.156281e+00,3,3,1.606232e+00,1.606232e+00
3.300016e+00,3.177705e+00,3,3,1.024687e+00,1.024687e+00
3.303533e+00,3.158719e+00,3,3,1.958023e+00,1.958023e+00
3.304873e+00,3.159559e+00,3,3,3.737293e+00,3.737292e+00
3.300720e+00,3.154217e+00,3,3,1.667019e+00,1.667019e+00
3.299340e+00,3.187199e+00,3,3,2.524663e+00,2.524662e+00
3.304087e+00,3.158253e+00,3,3,2.541439e+00,2.541439e+00
3.297599e+00,3.148480e+00,3,3,2.310854e+00,2.310853e+00
3.307471e+00,3.154966e+00,3,3,1.597294e+00,1.597295e+00
3.297645e+00,3.153664e+00,3,3,1.466397e+00,1.466396e+00
3.303707e+00,3.178040e+00,3,3,1.304236e+00,1.304236e+00
3.305017e+00,3.162224e+00,3,3,3.700356e+00,3.700354e+00
3.307011e+00,3.158684e+00,3,3,2.372578e+00,2.372578e+00
3.303037e+00,3.206059e+00,3,3,2.026523e+00,2.026523e+00
3.305059e+00,3.158104e+00,3,3,2.390961e+00,2.390961e+00
3.307857e+00,3.157777e+00,3,3,2.702310e+00,2.702528e+00
3.305367e+00,3.160375e+00,3,3,2.743448e+00,2.743505e+00
3.301853e+00,3.156992e+00,3,3,1.050333e+00,1.050334e+00
3.306993e+00,3.189403e+00,3,3,8.480498e-01,8.480495e-01
3.303592e+00,3.164955e+00,3,3,2.322018e+00,2.322017e+00
3.335079e+00,3.164118e+00,3,3,1.545718e+00,1.545718e+00
3.307133e+00,3.157315e+00,3,3,2.867931e+00,2.867930e+00
3.305871e+00,3.155791e+00,3,3,2.065949e+00,2.065949e+00
3.303959e+00,3.159537e+00,3,3,2.116454e+00,2.116454e+00
3.302154e+00,3.162846e+00,3,3,1.571087e+00,1.571086e+00
3.300400e+00,3.156754e+00,3,3,1.226992e+00,1.226992e+00
3.303732e+00,3.182778e+00,3,3,1.130290e+00,1.130290e+00
3.307009e+00,3.159366e+00,3,3,1.095527e+00,1.095527e+00
3.303539e+00,3.164137e+00,3,3,2.095710e+00,2.095708e+00
3.326994e+00,3.153683e+00,3,3,1.271021e+00,1.271021e+00
3.301300e+00,3.155596e+00,3,3,7.582546e-01,7.582545e-01
3.297417e+00,3.156407e+00,3,3,6.116687e-01,6.116686e-01
3.299815e+00,3.155212e+00,3,3,9.485538e-01,9.485536e-01
3.302482e+00,3.156653e+00,3,3,2.734208e+00,2.734207e+00
3.302865e+00,3.151660e+00,3,3,3.004080e+00,3.004094e+00
3.304355e+00,3.188238e+00,3,3,3.192325e+00,3.192330e+00
3.294958e+00,3.149606e+00,3,3,9.778263e+00,9.776722e+00
7.701440e+00,4.202651e+00,7,4,7.848479e+00,7.850100e+00
3.310164e+00,3.154655e+00,3,3,6.684894e+00,6.684906e+00
3.304597e+00,3.154491e+00,3,3,6.329979e+00,6.329979e+00
3.302619e+00,3.151107e+00,3,3,5.632840e+00,5.632841e+00
3.326755e+00,3.159727e+00,3,3,5.478581e+00,5.478581e+00
3.306765e+00,3.192880e+00,3,3,4.341811e+00,4.341811e+00
3.300184e+00,3.153885e+00,3,3,4.919815e+00,4.919814e+00
3.300322e+00,3.154210e+00,3,3,3.324622e+00,3.324622e+00
3.310595e+00,3.160392e+00,3,3,3.754332e+00,3.754331e+00
3.300298e+00,3.203414e+00,3,3,3.183004e+00,3.183004e+00
3.301244e+00,3.157194e+00,3,3,3.943704e+00,3.943703e+00
3.299235e+00,3.155638e+00,3,3,3.504594e+00,3.504594e+00
3.300748e+00,3.162450e+00,3,3,3.411940e+00,3.411940e+00
3.303473e+00,3.156457e+00,3,3,3.820917e+00,3.820916e+00
3.307729e+00,3.155426e+00,3,3,3.181152e+00,3.181152e+00
3.298312e+00,3.160582e+00,3,3,3.207801e+00,3.207801e+00
3.304744e+00,3.161503e+00,3,3,3.498743e+00,3.498743e+00
3.302184e+00,3.158467e+00,3,3,2.342555e+00,2.342555e+00
3.305788e+00,3.163729e+00,3,3,2.201619e+00,2.201619e+00
3.305393e+00,3.156149e+00,3,3,1.809809e+00,1.809809e+00
3.305119e+00,3.159978e+00,3,3,2.955234e+00,2.955233e+00
3.302365e+00,3.151161e+00,3,3,3.752555e+00,3.752554e+00
3.303231e+00,3.153820e+00,3,3,2.198162e+00,2.198163e+00
3.302927e+00,3.158778e+00,3,3,1.714198e+00,1.714198e+00
3.307468e+00,3.151294e+00,3,3,7.714776e-01,7.714773e-01
3.300194e+00,3.163668e+00,3,3,7.810450e-01,7.810449e-01
3.306280e+00,3.166933e+00,3,3,8.637933e-01,8.637931e-01
3.302264e+00,3.157470e+00,3,3,1.235205e+00,1.235205e+00
3.298389e+00,3.157285e+00,3,3,1.894050e+00,1.894050e+00
3.303308e+00,3.158869e+00,3,3,1.888119e+00,1.888118e+00
3.297775e+00,3.161049e+00,3,3,2.096806e+00,2.096805e+00
3.306635e+00,3.156845e+00,3,3,3.950879e+00,3.950877e+00
3.299604e+00,3.161637e+00,3,3,4.258111e+00,4.258114e+00
3.305926e+00,3.157844e+00,3,3,2.889602e+00,2.889602e+00
3.301831e+00,3.154656e+00,3,3,2.103198e+00,2.103198e+00
3.307086e+00,3.160159e+00,3,3,2.350537e+00,2.350536e+00
3.301936e+00,3.158523e+00,3,3,2.016204e+00,2.016203e+00
3.304359e+00,3.161003e+00,3,3,2.065690e+00,2.065690e+00
3.298179e+00,3.153612e+00,3,3,1.518012e+00,1.518011e+00
3.314451e+00,3.158825e+00,3,3,1.323313e+00,1.323313e+00
3.301429e+00,3.159516e+00,3,3,1.477485e+00,1.477484e+00
3.304536e+00,3.152833e+00,3,3,1.408082e+00,1.408082e+00
3.315728e+00,3.157739e+00,3,3,1.855079e+00,1.855079e+00
3.307553e+00,3.155603e+00,3,3,2.334201e+00,2.334201e+00
3.300746e+00,3.156805e+00,3,3,1.875423e+00,1.875423e+00
3.300285e+00,3.158470e+00,3,3,1.816860e+00,1.816860e+00
3.299334e+00,3.160754e+00,3,3,2.677909e+00,2.677908e+00
3.304522e+00,3.156983e+00,3,3,2.499424e+00,2.499424e+00
3.302356e+00,3.159258e+00,3,3,2.276919e+00,2.276919e+00
3.300529e+00,3.148123e+00,3,3,2.100208e+00,2.100208e+00
3.301546e+00,3.154862e+00,3,3,2.769871e+00,2.769870e+00
3.298265e+00,3.154403e+00,3,3,2.264850e+00,2.264850e+00
3.305410e+00,3.150836e+00,3,3,1.600442e+00,1.600442e+00
3.302552e+00,3.153357e+00,3,3,2.021265e+00,2.021265e+00
3.304558e+00,3.152204e+00,3,3,2.557932e+00,2.557933e+00
3.298841e+00,3.152306e+00,3,3,4.006120e+00,4.006116e+00
3.301955e+00,3.154049e+00,3,3,2.271603e+00,2.271604e+00
3.299969e+00,3.154199e+00,3,3,2.673185e+00,2.673185e+00
3.301749e+00,3.150299e+00,3,3,2.416562e+00,2.416562e+00
3.299561e+00,3.156822e+00,3,3,3.489160e+00,3.489158e+00
3.303173e+00,3.156517e+00,3,3,3.081687e+00,3.081687e+00
3.301078e+00,3.159174e+00,3,3,3.914034e+00,3.914034e+00
3.298140e+00,3.153654e+00,3,3,4.309000e+00,4.308999e+00
3.297700e+00,3.162396e+00,3,3,4.099862e+00,4.099862e+00
3.300327e+00,3.151271e+00,3,3,5.123026e+00,5.123025e+00
3.302225e+00,3.155048e+00,3,3,5.036900e+00,5.036900e+00
3.298334e+00,3.151288e+00,3,3,5.011083e+00,5.011083e+00
3.303239e+00,3.159823e+00,3,3,3.558911e+00,3.558912e+00
3.307523e+00,3.158911e+00,3,3,3.462581e+00,3.462580e+00
3.332009e+00,3.161423e+00,3,3,3.412714e+00,3.412714e+00
3.303608e+00,3.155435e+00,3,3,3.406073e+00,3.406073e+00
3.305352e+00,3.151728e+00,3,3,2.237666e+00,2.237667e+00
3.300955e+00,3.157140e+00,3,3,2.430955e+00,2.430954e+00
3.307123e+00,3.162358e+00,3,3,2.223187e+00,2.223186e+00
3.301292e+00,3.163411e+00,3,3,1.414604e+00,1.414604e+00
3.305941e+00,3.155950e+00,3,3,2.066779e+00,2.066778e+00
3.303955e+00,3.159820e+00,3,3,1.297161e+00,1.297161e+00
3.301868e+00,3.158417e+00,3,3,1.100635e+00,1.100635e+00
3.307553e+00,3.159679e+00,3,3,1.251420e+00,1.251419e+00
3.302169e+00,3.159007e+00,3,3,1.941210e+00,1.941209e+00
3.303945e+00,3.166241e+00,3,3,1.904748e+00,1.904748e+00
3.302692e+00,3.161737e+00,3,3,2.392300e+00,2.392299e+00
3.304286e+00,3.161050e+00,3,3,8.192775e+00,8.192777e+00
3.303732e+00,3.160831e+00,3,3,4.041801e+00,4.041806e+00
3.301256e+00,3.163504e+00,3,3,5.098495e+00,5.098494e+00
3.300823e+00,3.154571e+00,3,3,5.422347e+00,5.422350e+00
3.306210e+00,3.160087e+00,3,3,4.059284e+00,4.059290e+00
3.303132e+00,3.151637e+00,3,3,3.042993e+00,3.042994e+00
3.305791e+00,3.157219e+00,3,3,4.428300e+00,4.428307e+00
3.303692e+00,3.160183e+00,3,3,3.627582e+00,3.627645e+00
3.305904e+00,3.154612e+00,3,3,1.855121e+00,1.855121e+00
3.298646e+00,3.155815e+00,3,3,1.569260e+00,1.569260e+00
3.306008e+00,3.153234e+00,3,3,1.383774e+00,1.383774e+00
3.298458e+00,3.150174e+00,3,3,1.438507e+00,1.438506e+00
3.305658e+00,3.150461e+00,3,3,1.365768e+00,1.365768e+00
3.302821e+00,3.154194e+00,3,3,3.120978e+00,3.120976e+00
3.300714e+00,3.156160e+00,3,3,2.580656e+00,2.580656e+00
3.299332e+00,3.154967e+00,3,3,9.866242e-01,9.866245e-01
3.295479e+00,3.154226e+00,3,3,1.835514e+00,1.835513e+00
3.298076e+00,3.154477e+00,3,3,2.169334e+00,2.169334e+00
3.299322e+00,3.152678e+00,3,3,1.764436e+00,1.764436e+00
3.307916e+00,3.155537e+00,3,3,9.090421e-01,9.090420e-01
3.298276e+00,3.150310e+00,3,3,1.375931e+00,1.375931e+00
3.301024e+00,3.153669e+00,3,3,2.649486e+00,2.649485e+00
3.299608e+00,3.152969e+00,3,3,6.231698e+00,6.232021e+00
4.396824e+00,4.205820e+00,4,4,5.172166e+00,5.172168e+00
3.301958e+00,3.155336e+00,3,3,2.592356e+00,2.592357e+00
3.304102e+00,3.156778e+00,3,3,2.338192e+00,2.338192e+00
3.303767e+00,3.160988e+00,3,3,2.123888e+00,2.123888e+00
3.309395e+00,3.160980e+00,3,3,2.857389e+00,2.857387e+00
3.304086e+00,3.160121e+00,3,3,3.114860e+00,3.114859e+00
3.306981e+00,3.161650e+00,3,3,2.577055e+00,2.577055e+00
3.303542e+00,3.157886e+00,3,3,2.332458e+00,2.332458e+00
3.304061e+00,3.159542e+00,3,3,2.338026e+00,2.338025e+00
3.302611e+00,3.159756e+00,3,3,2.935814e+00,2.935813e+00
3.306334e+00,3.156599e+00,3,3,2.759030e+00,2.759030e+00
3.302961e+00,3.158433e+00,3,3,2.153617e+00,2.153617e+00
3.304118e+00,3.158854e+00,3,3,2.193526e+00,2.193525e+00
3.300037e+00,3.156296e+00,3,3,1.769559e+00,1.769558e+00
3.300371e+00,3.158592e+00,3,3,3.484363e+00,3.484362e+00
3.303700e+00,3.161412e+00,3,3,5.049597e+00,5.049599e+00
3.316288e+00,3.156627e+00,3,3,5.896471e+00,5.896563e+00
3.300614e+00,3.159952e+00,3,3,2.875119e+00,2.875128e+00
3.309938e+00,3.163415e+00,3,3,2.080950e+00,2.080950e+00
3.305934e+00,3.159200e+00,3,3,2.391950e+00,2.391950e+00
3.301548e+00,3.156944e+00,3,3,3.221085e+00,3.221084e+00
3.302700e+00,3.174375e+00,3,3,2.672125e+00,2.672125e+00
3.301071e+00,3.150423e+00,3,3,1.015898e+01,1.015559e+01
6.584821e+00,6.303228e+00,6,6,1.457383e+01,1.457213e+01
6.584917e+00,6.296179e+00,6,6,1.129087e+01,1.128855e+01
5.490900e+00,6.316437e+00,5,6,1.563129e+01,1.563604e+01
6.587770e+00,6.299020e+00,6,6,1.336811e+01,1.336445e+01
6.585275e+00,4.205372e+00,6,4,1.026060e+01,1.024003e+01
6.596612e+00,6.294308e+00,6,6,1.383386e+01,1.381179e+01
4.396085e+00,4.205122e+00,4,4,1.251692e+01,1.251835e+01
6.596630e+00,6.306510e+00,6,6,1.649504e+01,1.647677e+01
4.402949e+00,4.195740e+00,4,4,1.402526e+01,1.402581e+01
3.301218e+00,3.159208e+00,3,3,1.215595e+01,1.215596e+01
3.301443e+00,3.163290e+00,3,3,8.897735e+00,8.897737e+00
3.301714e+00,3.160057e+00,3,3,7.046171e+00,7.046172e+00
3.301823e+00,3.165412e+00,3,3,5.881157e+00,5.881157e+00
3.300676e+00,3.156162e+00,3,3,6.500687e+00,6.500687e+00
3.299143e+00,3.155209e+00,3,3,3.978574e+00,3.978576e+00
3.299103e+00,3.157104e+00,3,3,3.472821e+00,3.472821e+00
3.298761e+00,3.156745e+00,3,3,2.948730e+00,2.948730e+00
3.303164e+00,3.152723e+00,3,3,1.687980e+00,1.687980e+00
3.297726e+00,3.151616e+00,3,3,1.473788e+00,1.473787e+00
3.302528e+00,3.150084e+00,3,3,1.459411e+00,1.459411e+00
3.296043e+00,3.155440e+00,3,3,8.713421e-01,8.713421e-01
3.304346e+00,3.152050e+00,3,3,2.398214e+00,2.398213e+00
3.298574e+00,3.158546e+00,3,3,9.230805e-01,9.230807e-01
3.307435e+00,3.156890e+00,3,3,9.093331e-01,9.093326e-01
3.298931e+00,3.161939e+00,3,3,1.293396e+00,1.293396e+00
3.304859e+00,3.156083e+00,3,3,1.891532e+00,1.891531e+00
3.304492e+00,3.164970e+00,3,3,2.383833e+00,2.383831e+00
3.299239e+00,3.155244e+00,3,3,1.220489e+00,1.220489e+00
3.298736e+00,3.151703e+00,3,3,1.509568e+00,1.509567e+00
3.299518e+00,3.157740e+00,3,3,1.221614e+00,1.221614e+00
3.299284e+00,3.158034e+00,3,3,2.847058e+00,2.847057e+00
3.306054e+00,3.152726e+00,3,3,1.915531e+00,1.915532e+00
3.301220e+00,3.157258e+00,3,3,9.227497e-01,9.227499e-01
3.297940e+00,3.154562e+00,3,3,3.167633e+00,3.167631e+00
3.304027e+00,3.151281e+00,3,3,3.403664e+00,3.403663e+00
3.299336e+00,3.160063e+00,3,3,3.736317e+00,3.736317e+00
3.305817e+00,3.159999e+00,3,3,2.813529e+00,2.813529e+00
3.301099e+00,3.150596e+00,3,3,2.493451e+00,2.493451e+00
3.303379e+00,3.152304e+00,3,3,2.220625e+00,2.220624e+00
3.298429e+00,3.156896e+00,3,3,2.057445e+00,2.057445e+00
3.304436e+00,3.150140e+00,3,3,2.213468e+00,2.213467e+00
3.299346e+00,3.156836e+00,3,3,1.548877e+00,1.548877e+00
3.301729e+00,3.157378e+00,3,3,2.811106e+00,2.811105e+00
3.301491e+00,3.163157e+00,3,3,2.454164e+00,2.454164e+00
3.307960e+00,3.160818e+00,3,3,3.287026e+00,3.287025e+00
3.299753e+00,3.155994e+00,3,3,3.956946e+00,3.956945e+00
3.301217e+00,3.156173e+00,3,3,5.027360e+00,5.027358e+00
3.298708e+00,3.155879e+00,3,3,7.766175e+00,7.766173e+00
3.302890e+00,3.153960e+00,3,3,6.172427e+00,6.172428e+00
3.309058e+00,3.162331e+00,3,3,4.020708e+00,4.020708e+00
3.302309e+00,3.162029e+00,3,3,3.927852e+00,3.927852e+00
3.305567e+00,3.159911e+00,3,3,3.433091e+00,3.433090e+00
3.302300e+00,3.154681e+00,3,3,3.616756e+00,3.616754e+00
3.302657e+00,3.157311e+00,3,3,3.590288e+00,3.590288e+00
3.329715e+00,3.157354e+00,3,3,2.996930e+00,2.996930e+00
3.312165e+00,3.188190e+00,3,3,4.287775e+00,4.287773e+00
3.303182e+00,3.157529e+00,3,3,3.987988e+00,3.987989e+00
3.304720e+00,3.159690e+00,3,3,4.749953e+00,4.749953e+00
3.306040e+00,3.165733e+00,3,3,5.554570e+00,5.554572e+00
3.306389e+00,3.155202e+00,3,3,3.627295e+00,3.627300e+00
3.303541e+00,3.160417e+00,3,3,3.156390e+00,3.156399e+00
3.305240e+00,3.154625e+00,3,3,2.415935e+00,2.415961e+00
3.298148e+00,3.152961e+00,3,3,1.641448e+00,1.641459e+00
3.299722e+00,3.161365e+00,3,3,2.384357e+00,2.384355e+00
3.300839e+00,3.156373e+00,3,3,1.726604e+00,1.726604e+00
3.301380e+00,3.154555e+00,3,3,1.141801e+00,1.141801e+00
3.301485e+00,3.155415e+00,3,3,9.280126e-01,9.280125e-01
3.298078e+00,3.156485e+00,3,3,9.107827e-01,9.107825e-01
3.297390e+00,3.151999e+00,3,3,1.046670e+00,1.046669e+00
3.299979e+00,3.157983e+00,3,3,1.097928e+00,1.097928e+00
3.309163e+00,3.161839e+00,3,3,1.985252e+00,1.985252e+00
3.304709e+00,3.150472e+00,3,3,3.124845e+00,3.124842e+00
3.301910e+00,3.156171e+00,3,3,3.135626e+00,3.135626e+00
3.302567e+00,3.156471e+00,3,3,4.440786e+00,4.440784e+00
3.304168e+00,3.162028e+00,3,3,1.135519e+01,1.135541e+01
5.509285e+00,8.419377e+00,5,8,1.456969e+01,1.457068e+01
4.396580e+00,4.205849e+00,4,4,1.051802e+01,1.051802e+01
3.308010e+00,3.158379e+00,3,3,1.015626e+01,1.015628e+01
3.302640e+00,3.159840e+00,3,3,8.325944e+00,8.325959e+00
3.316852e+00,3.163456e+00,3,3,7.629315e+00,7.629315e+00
3.304641e+00,3.159325e+00,3,3,5.904609e+00,5.904610e+00
3.304660e+00,3.158803e+00,3,3,4.974284e+00,4.974285e+00
3.303282e+00,3.162777e+00,3,3,6.168145e+00,6.168183e+00
3.305996e+00,3.154165e+00,3,3,4.606558e+00,4.606563e+00
3.301938e+00,3.162989e+00,3,3,3.901018e+00,3.901017e+00
3.304402e+00,3.158367e+00,3,3,4.554882e+00,4.554886e+00
3.304011e+00,3.163950e+00,3,3,4.893827e+00,4.894568e+00
4.426194e+00,4.204150e+00,4,4,2.644037e+00,2.644037e+00
3.302115e+00,3.160593e+00,3,3,2.464487e+00,2.464487e+00
3.305420e+00,3.154435e+00,3,3,1.521168e+00,1.521167e+00
3.304650e+00,3.160759e+00,3,3,1.116692e+00,1.116692e+00
3.307628e+00,3.159376e+00,3,3,2.444246e+00,2.444245e+00
3.302346e+00,3.153684e+00,3,3,3.933665e+00,3.933664e+00
3.299876e+00,3.157282e+00,3,3,3.445286e+00,3.445286e+00
3.303774e+00,3.157204e+00,3,3,3.550759e+00,3.550759e+00
3.299314e+00,3.161853e+00,3,3,3.429446e+00,3.429446e+00
3.301840e+00,3.160005e+00,3,3,4.540598e+00,4.540615e+00
3.303841e+00,3.157705e+00,3,3,5.890329e+00,5.890682e+00
3.307740e+00,3.158414e+00,3,3,5.544456e+00,5.544457e+00
3.304127e+00,3.157321e+00,3,3,3.516405e+00,3.516405e+00
3.308776e+00,3.162633e+00,3,3,3.162909e+00,3.162909e+00
3.303247e+00,3.157591e+00,3,3,3.149013e+00,3.149012e+00
3.308437e+00,3.161206e+00,3,3,6.071040e+00,6.071046e+00
3.319992e+00,3.153313e+00,3,3,6.830946e+00,6.831010e+00
3.303302e+00,3.171530e+00,3,3,5.648003e+00,5.648140e+00
3.302334e+00,3.156377e+00,3,3,3.704079e+00,3.704089e+00
3.307339e+00,3.157639e+00,3,3,3.079183e+00,3.079183e+00
3.305757e+00,3.159802e+00,3,3,2.940391e+00,2.940391e+00
3.307619e+00,3.154370e+00,3,3,2.220319e+00,2.220319e+00
3.298536e+00,3.152660e+00,3,3,2.969262e+00,2.969258e+00
3.298393e+00,3.155480e+00,3,3,2.753254e+00,2.753254e+00
3.298000e+00,3.155356e+00,3,3,1.631887e+00,1.631887e+00
3.299687e+00,3.155662e+00,3,3,1.130161e+00,1.130161e+00
3.298747e+00,3.159608e+00,3,3,1.094200e+00,1.094200e+00
3.302572e+00,3.163996e+00,3,3,7.411166e-01,7.411163e-01
3.296345e+00,3.156999e+00,3,3,7.771763e-01,7.771761e-01
3.305197e+00,3.163468e+00,3,3,1.608148e+00,1.608148e+00
3.305565e+00,3.160898e+00,3,3,4.026555e+00,4.026554e+00
3.302352e+00,3.155990e+00,3,3,1.897440e+00,1.897441e+00
3.306353e+00,3.158605e+00,3,3,2.527168e+00,2.527167e+00
3.306119e+00,3.157221e+00,3,3,1.642199e+00,1.642200e+00
3.302957e+00,3.156482e+00,3,3,2.482687e+00,2.482685e+00
3.304931e+00,3.155409e+00,3,3,3.595901e+00,3.595900e+00
3.303982e+00,3.156407e+00,3,3,5.525649e+00,5.525646e+00
3.299543e+00,3.149334e+00,3,3,3.845862e+00,3.845863e+00
3.302535e+00,3.157754e+00,3,3,2.630666e+00,2.630667e+00
3.298763e+00,3.157387e+00,3,3,4.901967e+00,4.901967e+00
3.299316e+00,3.154620e+00,3,3,2.952794e+00,2.952799e+00
3.299625e+00,3.150639e+00,3,3,3.278339e+00,3.278340e+00
3.301673e+00,3.155082e+00,3,3,4.634639e+00,4.634673e+00
3.301201e+00,3.152269e+00,3,3,3.050508e+00,3.050513e+00
3.298791e+00,3.150860e+00,3,3,2.722059e+00,2.722059e+00
3.302603e+00,3.150461e+00,3,3,2.487606e+00,2.487605e+00
3.304486e+00,3.148392e+00,3,3,2.772309e+00,2.772309e+00
3.305188e+00,3.160531e+00,3,3,2.960709e+00,2.960709e+00
3.298421e+00,3.152505e+00,3,3,2.420687e+00,2.420686e+00
3.302392e+00,3.156788e+00,3,3,2.240812e+00,2.240812e+00
3.299833e+00,3.158875e+00,3,3,2.083120e+00,2.083120e+00
3.304073e+00,3.162057e+00,3,3,2.951875e+00,2.951874e+00
3.305375e+00,3.162555e+00,3,3,2.199450e+00,2.199450e+00
3.307977e+00,3.159003e+00,3,3,1.756518e+00,1.756518e+00
3.297878e+00,3.153486e+00,3,3,1.653497e+00,1.653496e+00
3.297310e+00,3.152352e+00,3,3,1.186007e+00,1.186006e+00
3.298764e+00,3.155599e+00,3,3,1.546437e+00,1.546436e+00
3.299140e+00,3.155806e+00,3,3,1.098048e+00,1.098048e+00

