2.515666e+00,5.801453e+03,5.799024e+03,2,1000,0.000000e+00,-1.058181e-16,0
3.673861e+00,8.124075e+02,8.123460e+02,3,191,1.480037e-01,1.480040e-01,1
3.667824e+00,4.599597e+00,4.552841e+00,3,0,2.735375e-01,2.735381e-01,1
3.676454e+00,4.602731e+00,4.562855e+00,3,0,5.775486e-01,5.775495e-01,1
3.677357e+00,4.489829e+00,4.450083e+00,3,0,5.324881e-01,5.324885e-01,1
3.670483e+00,4.489784e+00,4.447937e+00,3,0,2.501616e+00,2.501620e+00,1
3.659677e+00,4.627376e+00,4.584789e+00,3,0,3.489176e+00,3.489179e+00,1
3.668495e+00,8.561625e+00,8.522034e+00,3,1,4.579118e+00,4.579745e+00,1
3.673197e+00,7.984607e+00,7.942915e+00,3,1,2.251728e+00,2.251727e+00,1
3.679530e+00,4.475949e+00,4.435062e+00,3,0,1.996338e+00,1.996339e+00,1
3.671017e+00,4.639132e+00,4.597902e+00,3,0,1.651813e+00,1.651814e+00,1
3.664120e+00,4.461188e+00,4.420042e+00,3,0,1.911418e+00,1.911420e+00,1
3.667660e+00,4.445918e+00,4.400969e+00,3,0,3.170327e+00,3.170331e+00,1
3.682417e+00,4.534371e+00,4.494905e+00,3,0,4.326501e+00,4.326504e+00,1
3.673738e+00,4.477832e+00,4.436731e+00,3,0,3.965860e+00,3.965860e+00,1
3.684248e+00,1.237737e+01,1.233721e+01,3,2,5.539052e+00,5.539192e+00,1
3.678533e+00,1.122316e+01,1.118207e+01,3,2,4.325644e+00,4.325642e+00,1
3.679249e+00,1.267989e+01,1.263905e+01,3,2,3.786474e+00,3.786504e+00,1
3.674715e+00,1.280097e+01,1.275897e+01,3,2,3.617639e+00,3.628623e+00,1
3.686230e+00,5.535604e+00,5.488157e+00,3,0,3.447922e+00,3.460870e+00,1
3.679547e+00,1.276128e+01,1.271915e+01,3,2,3.608669e+00,3.630833e+00,1
3.667637e+00,8.874812e+00,8.834124e+00,3,1,3.007787e+00,3.009279e+00,1
3.671272e+00,5.205435e+00,5.165100e+00,3,0,2.708777e+00,2.715275e+00,1
3.681757e+00,1.288241e+01,1.284027e+01,3,2,2.361958e+00,2.478741e+00,1
3.686617e+00,1.390951e+01,1.386881e+01,3,2,2.331080e+00,2.373583e+00,1
3.684545e+00,9.066085e+00,9.023190e+00,3,1,2.254560e+00,2.254714e+00,1
3.675237e+00,8.107172e+00,8.066893e+00,3,1,1.866745e+00,1.866666e+00,1
3.686472e+00,4.457642e+00,4.411221e+00,3,0,1.339154e+00,1.338720e+00,1
3.681888e+00,4.598680e+00,4.556179e+00,3,0,6.754214e-01,6.754240e-01,1
3.647812e+00,4.649990e+00,4.603148e+00,3,0,5.788428e-01,5.788430e-01,1
3.612191e+00,4.444059e+00,4.405022e+00,3,0,1.149249e+00,1.149251e+00,1
3.660530e+00,4.602695e+00,4.561186e+00,3,0,1.355593e+00,1.355594e+00,1
3.670657e+00,4.430317e+00,4.390955e+00,3,0,1.169482e+00,1.169482e+00,1
3.611742e+00,4.433109e+00,4.393101e+00,3,0,1.807410e+00,1.807412e+00,1
3.638907e+00,4.362486e+00,4.322290e+00,3,0,1.478380e+00,1.478380e+00,1
3.862430e+00,4.537035e+00,4.497051e+00,3,0,1.091073e+00,1.091073e+00,1
3.621971e+00,4.577036e+00,4.537106e+00,3,0,7.992440e-01,7.992446e-01,1
3.644890e+00,4.572288e+00,4.528999e+00,3,0,6.656007e-01,6.656012e-01,1
3.618337e+00,8.922553e+00,8.882761e+00,3,1,1.692769e+00,1.693031e+00,1
3.662755e+00,8.090157e+00,8.048058e+00,3,1,1.868498e+00,1.868499e+00,1
3.656444e+00,1.589464e+01,1.584411e+01,3,3,4.201813e+00,4.292417e+00,1
3.681266e+00,1.693485e+01,1.689196e+01,3,3,5.751160e+00,5.780631e+00,1
3.680041e+00,2.495856e+01,2.491784e+01,3,6,3.643254e+00,3.643250e+00,1
3.676352e+00,1.242537e+01,1.238275e+01,3,2,5.501139e+00,5.501161e+00,1
3.669889e+00,1.156868e+01,1.152706e+01,3,2,4.395935e+00,4.395935e+00,1
3.659748e+00,4.616347e+00,4.575968e+00,3,0,3.555652e+00,3.555652e+00,1
3.676422e+00,4.341044e+00,4.301071e+00,3,0,3.184696e+00,3.184696e+00,1
3.669820e+00,4.530590e+00,4.488707e+00,3,0,2.643504e+00,2.643504e+00,1
3.668832e+00,4.604550e+00,4.564047e+00,3,0,2.123927e+00,2.123927e+00,1
3.669901e+00,4.605545e+00,4.564285e+00,3,0,1.353443e+00,1.353443e+00,1
3.666434e+00,4.601996e+00,4.561186e+00,3,0,1.214989e+00,1.214989e+00,1
3.671922e+00,4.422921e+00,4.383087e+00,3,0,1.931047e+00,1.931049e+00,1
3.670395e+00,4.593621e+00,4.552126e+00,3,0,1.408604e+00,1.408604e+00,1
3.677888e+00,8.964937e+00,8.924007e+00,3,1,1.200526e+00,1.201028e+00,1
3.681157e+00,2.059676e+01,2.055430e+01,3,4,1.587002e+00,1.611748e+00,1
3.681606e+00,8.541388e+00,8.501291e+00,3,1,2.178950e+00,2.207199e+00,1
4.882958e+00,8.041250e+00,8.000135e+00,4,1,1.184302e+00,1.184302e+00,1
3.664551e+00,4.487328e+00,4.447222e+00,3,0,1.825493e+00,1.825495e+00,1
3.678983e+00,4.565909e+00,4.525185e+00,3,0,2.574940e+00,2.574940e+00,1
3.698019e+00,1.965696e+01,1.961279e+01,3,4,3.881358e+00,3.882573e+00,1
3.680127e+00,1.136064e+01,1.131916e+01,3,2,1.759177e+00,1.759181e+00,1
3.659851e+00,1.668150e+01,1.664209e+01,3,3,3.799612e+00,3.857208e+00,1
3.683352e+00,8.641287e+01,8.635068e+01,3,19,7.152725e+00,7.728814e+00,0
3.673994e+00,5.567309e+01,5.563188e+01,3,15,3.884095e+00,3.895576e+00,1
3.679409e+00,4.086025e+01,4.080415e+01,3,7,5.336958e+00,7.075913e+00,0
4.879224e+00,3.436770e+01,3.432798e+01,4,9,2.310961e+00,2.310960e+00,1
3.670540e+00,4.588461e+00,4.544973e+00,3,0,2.477131e+00,2.477130e+00,1
3.662390e+00,4.587289e+00,4.545212e+00,3,0,1.938170e+00,1.938171e+00,1
3.675788e+00,4.604595e+00,4.562855e+00,3,0,1.521451e+00,1.521452e+00,1
3.670385e+00,4.620715e+00,4.580021e+00,3,0,1.165283e+00,1.165284e+00,1
3.669670e+00,4.625451e+00,4.586220e+00,3,0,1.739596e+00,1.739598e+00,1
3.668966e+00,4.626910e+00,4.585028e+00,3,0,1.775319e+00,1.775320e+00,1
3.672844e+00,4.638338e+00,4.595995e+00,3,0,1.799510e+00,1.799510e+00,1
3.673079e+00,8.727017e+00,8.685112e+00,3,1,2.026183e+00,2.027364e+00,1
3.679998e+00,1.325076e+01,1.321006e+01,3,2,2.951177e+00,2.980931e+00,1
3.666649e+00,5.271969e+00,5.230904e+00,3,0,3.962333e+00,4.015102e+00,1
3.662733e+00,1.595693e+01,1.591611e+01,3,3,2.385907e+00,2.430444e+00,1
3.674201e+00,1.317233e+01,1.313114e+01,3,2,2.376830e+00,2.392614e+00,1
3.679100e+00,5.303395e+00,5.261898e+00,3,0,1.754872e+00,1.771033e+00,1
3.669774e+00,7.764824e+00,7.724047e+00,3,1,8.692662e-01,8.692661e-01,1
3.669637e+00,8.950094e+00,8.903980e+00,3,1,2.989081e+00,2.989764e+00,1
3.676189e+00,8.169634e+00,8.128166e+00,3,1,2.211869e+00,2.211869e+00,1
3.674154e+00,4.614723e+00,4.572153e+00,3,0,1.979913e+00,1.979913e+00,1
3.684910e+00,8.942962e+00,8.902073e+00,3,1,1.907545e+00,1.936120e+00,1
3.674537e+00,1.235185e+01,1.231313e+01,3,2,2.746018e+00,2.746024e+00,1
3.662871e+00,2.769758e+01,2.765703e+01,3,6,4.925673e+00,4.932201e+00,1
3.680060e+00,2.813103e+01,2.808905e+01,3,6,7.371518e+00,7.409694e+00,1
3.683092e+00,1.088798e+02,1.088200e+02,3,26,1.074810e+01,2.824944e+01,0
3.708673e+00,6.591202e+01,6.585312e+01,3,16,8.738750e+00,2.311320e+01,0
3.700806e+00,1.315968e+02,1.315341e+02,3,34,6.239178e+00,1.053741e+01,0
3.675355e+00,4.462217e+01,4.457712e+01,3,11,4.812480e+00,4.854417e+00,1
3.668950e+00,1.636639e+01,1.631904e+01,3,3,3.371773e+00,3.376668e+00,1
3.680908e+00,6.434808e+01,6.430507e+01,3,16,4.771566e+00,4.871594e+00,1
3.669354e+00,4.876062e+01,4.872203e+01,3,13,3.545160e+00,3.590370e+00,1
3.666277e+00,4.505384e+01,4.501510e+01,3,11,4.578382e+00,4.653061e+00,1
7.252659e+00,6.341851e+01,6.337786e+01,6,17,5.027764e+00,5.065784e+00,1
4.833964e+00,5.971058e+01,5.966830e+01,4,16,2.153350e+00,2.225759e+00,1
3.747255e+00,8.052724e+00,8.012056e+00,3,1,1.868705e+00,1.868705e+00,1
3.688621e+00,4.629472e+00,4.587889e+00,3,0,2.663337e+00,2.663339e+00,1
3.595682e+00,4.266886e+00,4.229069e+00,3,0,2.892310e+00,2.892312e+00,1
3.562355e+00,4.624686e+00,4.584074e+00,3,0,2.181393e+00,2.181393e+00,1
3.568099e+00,4.439075e+00,4.400015e+00,3,0,2.513310e+00,2.513312e+00,1
3.608431e+00,4.264007e+00,4.225016e+00,3,0,1.481124e+00,1.481125e+00,1
3.646619e+00,4.664740e+00,4.625082e+00,3,0,1.351560e+00,1.351560e+00,1
3.668696e+00,4.601499e+00,4.560947e+00,3,0,1.117923e+00,1.117923e+00,1
3.620578e+00,4.630199e+00,4.590034e+00,3,0,1.168096e+00,1.168097e+00,1
3.611036e+00,8.444328e+00,8.406162e+00,3,1,1.623891e+00,1.624160e+00,1
3.624361e+00,1.225169e+01,1.221299e+01,3,2,1.769384e+00,1.773714e+00,1
3.650523e+00,1.001420e+01,9.974003e+00,3,1,1.140904e+00,1.143975e+00,1
3.623887e+00,1.703973e+01,1.700020e+01,3,3,1.145735e+00,1.199420e+00,1
3.652545e+00,5.526062e+00,5.485058e+00,3,0,1.055280e+00,1.077602e+00,1
3.592532e+00,5.537206e+00,5.496025e+00,3,0,8.892335e-01,8.892347e-01,1
3.573058e+00,7.855029e+00,7.816076e+00,3,1,6.224112e-01,6.224113e-01,1
3.642701e+00,4.579576e+00,4.537106e+00,3,0,1.095658e+00,1.095658e+00,1
3.640524e+00,4.630319e+00,4.593134e+00,3,0,5.823319e-01,5.823320e-01,1
3.615503e+00,4.351578e+00,4.312992e+00,3,0,6.708428e-01,6.708433e-01,1
3.590196e+00,4.558593e+00,4.513979e+00,3,0,1.729814e+00,1.729817e+00,1
3.671628e+00,4.554405e+00,4.516125e+00,3,0,1.261927e+00,1.261927e+00,1
3.626904e+00,8.853582e+00,8.814812e+00,3,1,4.055821e+00,4.058475e+00,1
3.654214e+00,1.942563e+01,1.938486e+01,3,4,2.812029e+00,2.855905e+00,1
3.637835e+00,9.266425e+00,9.226084e+00,3,1,2.727542e+00,2.922875e+00,1
3.637343e+00,1.341163e+01,1.336980e+01,3,2,3.397041e+00,3.510269e+00,1
3.619970e+00,1.284142e+01,1.280093e+01,3,2,3.069372e+00,3.069523e+00,1
3.625635e+00,1.625002e+01,1.621079e+01,3,3,3.383660e+00,3.387692e+00,1
3.684451e+00,4.475786e+01,4.469633e+01,3,8,5.972691e+00,1.417983e+01,0
3.672283e+00,5.257812e+01,5.253410e+01,3,13,3.876279e+00,3.894089e+00,1
3.677064e+00,3.374576e+01,3.370595e+01,3,8,2.947295e+00,2.948316e+00,1
3.688967e+00,1.736758e+01,1.732802e+01,3,4,2.568663e+00,2.568278e+00,1
4.873885e+00,7.516340e+00,7.474184e+00,4,1,1.535642e+00,1.535643e+00,1
3.679733e+00,4.686904e+00,4.647017e+00,3,0,1.689784e+00,1.689771e+00,1
3.674129e+00,4.638309e+00,4.595995e+00,3,0,1.059142e+00,1.059143e+00,1
3.673539e+00,4.478253e+00,4.438162e+00,3,0,1.391708e+00,1.391710e+00,1
3.664523e+00,4.612038e+00,4.571676e+00,3,0,6.224910e-01,6.224912e-01,1
3.670239e+00,4.651767e+00,4.611731e+00,3,0,5.061454e-01,5.061457e-01,1
3.674152e+00,4.632378e+00,4.592180e+00,3,0,5.185254e-01,5.185259e-01,1
3.680636e+00,8.879587e+00,8.839846e+00,3,1,1.126094e+00,1.135744e+00,1
3.680543e+00,1.211236e+01,1.207304e+01,3,2,1.162248e+00,1.162249e+00,1
3.655047e+00,4.629142e+00,4.580975e+00,3,0,9.840368e-01,9.840370e-01,1
3.665753e+00,4.250813e+00,4.211187e+00,3,0,1.072808e+00,1.072809e+00,1
3.669137e+00,4.584132e+00,4.543066e+00,3,0,9.085799e-01,9.085804e-01,1
3.670843e+00,4.612620e+00,4.571676e+00,3,0,1.695304e+00,1.695307e+00,1
3.670471e+00,1.274430e+01,1.270294e+01,3,2,2.891740e+00,2.894766e+00,1
3.682924e+00,1.951339e+01,1.947308e+01,3,4,3.265934e+00,3.316498e+00,1
4.876414e+00,1.702418e+01,1.698184e+01,4,3,2.575524e+00,2.651219e+00,1
3.676559e+00,9.272355e+00,9.225130e+00,3,1,2.289388e+00,2.382821e+00,1
3.664428e+00,1.325778e+01,1.321697e+01,3,2,2.113491e+00,2.261823e+00,1
3.677904e+00,8.492562e+00,8.452177e+00,3,1,1.516396e+00,1.641922e+00,1
3.670720e+00,5.535926e+00,5.495071e+00,3,0,1.344865e+00,1.355459e+00,1
3.666031e+00,7.815998e+00,7.776022e+00,3,1,2.351817e+00,2.351821e+00,1
3.672914e+00,8.787040e+00,8.745909e+00,3,1,3.350948e+00,3.351124e+00,1
3.673196e+00,8.116431e+00,8.074045e+00,3,1,2.045846e+00,2.045845e+00,1
3.680846e+00,4.482686e+00,4.441977e+00,3,0,1.936819e+00,1.936819e+00,1
3.680937e+00,4.676462e+00,4.636049e+00,3,0,1.737010e+00,1.737010e+00,1
3.674114e+00,4.707707e+00,4.664183e+00,3,0,1.592268e+00,1.592268e+00,1
3.666704e+00,4.616946e+00,4.576921e+00,3,0,1.309680e+00,1.309680e+00,1
3.703861e+00,8.475473e+00,8.435011e+00,3,1,1.471518e+00,1.471896e+00,1
3.622174e+00,8.037167e+00,7.994890e+00,3,1,2.408784e+00,2.408787e+00,1
3.672703e+00,4.594424e+00,4.554987e+00,3,0,2.316246e+00,2.316247e+00,1
3.634114e+00,4.507016e+00,4.467010e+00,3,0,2.453430e+00,2.453431e+00,1
3.626271e+00,8.813533e+00,8.774996e+00,3,1,2.787905e+00,2.787939e+00,1
3.647459e+00,8.135408e+00,8.095026e+00,3,1,1.273916e+00,1.273917e+00,1
3.691599e+00,4.778245e+00,4.737854e+00,3,0,1.018706e+00,1.018707e+00,1
3.677088e+00,4.730643e+00,4.690170e+00,3,0,1.067858e+00,1.067859e+00,1
3.674684e+00,4.456551e+00,4.417181e+00,3,0,4.854902e-01,4.854911e-01,1
3.611496e+00,4.562917e+00,4.522085e+00,3,0,4.890555e-01,4.890558e-01,1
3.677139e+00,4.654783e+00,4.613876e+00,3,0,8.369502e-01,8.369513e-01,1
3.672445e+00,4.634049e+00,4.591703e+00,3,0,7.129199e-01,7.129201e-01,1
3.652556e+00,4.530325e+00,4.489899e+00,3,0,1.917661e+00,1.917666e+00,1
3.668219e+00,4.268174e+00,4.231215e+00,3,0,1.424675e+00,1.424676e+00,1
3.682715e+00,4.645659e+00,4.605055e+00,3,0,1.006635e+00,1.006635e+00,1
3.670758e+00,8.905036e+00,8.863926e+00,3,1,8.967762e-01,8.977854e-01,1
3.667603e+00,7.700087e+00,7.660151e+00,3,1,9.131064e-01,9.131069e-01,1
3.679779e+00,4.623981e+00,4.580975e+00,3,0,9.391669e-01,9.391676e-01,1
3.677714e+00,4.677934e+00,4.635811e+00,3,0,5.924107e-01,5.924110e-01,1
3.683851e+00,4.685605e+00,4.646063e+00,3,0,6.653456e-01,6.653465e-01,1
3.673160e+00,4.657331e+00,4.616737e+00,3,0,5.440110e-01,5.440116e-01,1
3.653622e+00,4.482258e+00,4.441738e+00,3,0,4.697491e-01,4.697495e-01,1
3.676542e+00,4.548013e+00,4.509926e+00,3,0,1.266003e+00,1.266005e+00,1
3.674283e+00,4.613496e+00,4.574776e+00,3,0,7.992273e-01,7.992282e-01,1
3.678807e+00,8.880841e+00,8.839846e+00,3,1,1.265643e+00,1.266490e+00,1
3.678444e+00,9.611104e+00,9.569883e+00,3,1,2.042498e+00,2.053415e+00,1
3.669762e+00,1.009943e+01,1.006103e+01,3,1,1.751242e+00,1.791994e+00,1
3.674801e+00,9.951073e+00,9.910107e+00,3,1,1.985310e+00,2.002464e+00,1
3.597558e+00,1.302263e+01,1.298022e+01,3,2,1.392088e+00,1.435957e+00,1
3.628064e+00,1.348948e+01,1.344705e+01,3,2,1.392299e+00,1.412918e+00,1
3.694219e+00,5.373215e+00,5.332947e+00,3,0,1.591716e+00,1.624824e+00,1
3.643357e+00,5.385526e+00,5.347013e+00,3,0,3.495685e+00,3.507408e+00,1
3.644865e+00,8.014484e+00,7.974148e+00,3,1,4.628517e+00,4.628521e+00,1
3.683109e+00,4.633788e+00,4.593134e+00,3,0,4.100854e+00,4.100854e+00,1
3.646990e+00,4.618791e+00,4.577160e+00,3,0,3.335047e+00,3.335047e+00,1
3.647845e+00,8.846895e+00,8.806944e+00,3,1,3.085547e+00,3.085864e+00,1
3.680587e+00,7.809944e+00,7.770061e+00,3,1,2.095509e+00,2.095508e+00,1
3.654339e+00,4.680396e+00,4.638910e+00,3,0,2.070092e+00,2.070094e+00,1
3.621908e+00,1.231314e+01,1.227093e+01,3,2,2.035866e+00,2.035701e+00,1
4.877268e+00,1.160137e+01,1.155996e+01,4,2,1.588496e+00,1.588496e+00,1
3.627912e+00,1.302693e+01,1.298714e+01,3,2,1.398559e+00,1.405478e+00,1
3.620386e+00,2.472330e+01,2.467203e+01,3,5,2.810601e+00,2.958842e+00,1
7.237298e+00,3.126706e+01,3.122711e+01,6,7,5.875778e+00,5.941006e+00,1
7.243045e+00,3.943328e+01,3.936505e+01,6,10,6.171900e+00,6.189089e+00,1
6.047084e+00,4.282719e+01,4.278803e+01,5,11,6.476589e+00,6.489372e+00,1
4.811040e+00,1.659854e+01,1.655793e+01,4,3,7.602692e+00,7.646453e+00,1
6.037253e+00,4.140749e+01,4.136920e+01,5,10,1.077588e+01,1.096063e+01,1
3.588987e+00,9.423791e+01,9.419513e+01,3,25,6.982380e+00,7.013353e+00,1
3.678870e+00,5.244194e+01,5.240178e+01,3,13,8.566748e+00,8.634423e+00,1
3.625845e+00,8.147942e+01,8.143711e+01,3,22,6.584596e+00,6.652938e+00,1
3.597676e+00,6.223939e+01,6.219816e+01,3,16,6.052217e+00,6.151011e+00,1
3.669192e+00,5.299293e+01,5.295229e+01,3,14,4.245815e+00,4.287071e+00,1
3.671992e+00,9.498957e+01,9.493303e+01,3,22,5.194111e+00,6.694900e+00,0
4.880617e+00,1.029102e+02,1.028669e+02,4,28,3.529349e+00,3.590027e+00,1
3.670834e+00,8.435460e+01,8.431220e+01,3,22,4.532171e+00,4.763146e+00,1
4.881467e+00,8.149950e+01,8.145881e+01,4,23,1.486786e+00,1.487096e+00,1
3.662075e+00,5.423380e+00,5.379915e+00,3,0,1.786141e+00,1.826197e+00,1
3.675584e+00,8.115902e+00,8.077145e+00,3,1,3.351663e+00,3.351668e+00,1
3.682320e+00,4.683476e+00,4.642963e+00,3,0,2.530584e+00,2.530584e+00,1
3.697668e+00,9.126689e+00,9.081125e+00,3,1,4.034600e+00,4.034614e+00,1
3.643429e+00,8.013569e+00,7.972240e+00,3,1,3.579299e+00,3.579299e+00,1
3.620103e+00,3.093019e+01,3.088903e+01,3,7,6.177846e+00,6.191026e+00,1
4.845151e+00,2.749078e+01,2.744865e+01,4,7,3.166762e+00,3.166760e+00,1
3.614793e+00,4.452563e+00,4.411697e+00,3,0,2.630344e+00,2.630345e+00,1
3.631631e+00,4.452070e+00,4.411936e+00,3,0,2.060737e+00,2.060737e+00,1
3.614629e+00,8.596264e+00,8.556843e+00,3,1,2.071769e+00,2.071842e+00,1
3.626846e+00,1.247747e+01,1.243782e+01,3,2,2.217201e+00,2.217596e+00,1
3.582103e+00,3.511753e+01,3.507900e+01,3,8,3.361775e+00,3.368598e+00,1
3.622750e+00,2.098154e+01,2.094173e+01,3,5,1.506013e+00,1.506010e+00,1
3.673204e+00,4.710108e+00,4.670143e+00,3,0,1.004534e+00,1.004534e+00,1
3.642185e+00,4.531088e+00,4.490852e+00,3,0,1.144421e+00,1.144422e+00,1
3.651948e+00,4.625590e+00,4.588127e+00,3,0,1.098104e+00,1.098104e+00,1
3.617668e+00,4.554748e+00,4.515886e+00,3,0,8.546088e-01,8.546089e-01,1
3.642471e+00,4.568863e+00,4.528046e+00,3,0,1.389632e+00,1.389635e+00,1
3.671917e+00,4.605236e+00,4.565239e+00,3,0,2.044769e+00,2.044771e+00,1
3.672052e+00,4.481804e+00,4.443645e+00,3,0,3.124003e+00,3.124006e+00,1
3.680167e+00,2.424964e+01,2.420807e+01,3,5,6.813263e+00,6.829993e+00,1
3.669546e+00,2.411034e+01,2.406812e+01,3,5,8.851838e+00,8.921534e+00,1
3.674507e+00,6.547007e+01,6.542897e+01,3,17,6.013437e+00,6.034190e+00,1
3.681288e+00,1.300823e+01,1.296711e+01,3,2,7.441722e+00,7.460848e+00,1
3.667294e+00,3.679196e+01,3.675103e+01,3,9,5.365206e+00,5.370102e+00,1
3.672937e+00,1.254087e+01,1.250219e+01,3,2,4.259569e+00,4.261252e+00,1
3.667632e+00,3.885530e+01,3.881598e+01,3,9,4.733789e+00,4.755211e+00,1
3.683977e+00,3.295321e+01,3.291202e+01,3,8,2.567459e+00,2.567507e+00,1
3.673175e+00,8.164435e+00,8.124113e+00,3,1,1.976094e+00,1.976098e+00,1
3.662037e+00,4.679256e+00,4.640102e+00,3,0,1.521715e+00,1.521715e+00,1
3.674872e+00,4.631456e+00,4.592180e+00,3,0,1.423653e+00,1.423653e+00,1
3.672266e+00,4.498825e+00,4.458904e+00,3,0,1.350149e+00,1.350149e+00,1
3.674327e+00,4.454549e+00,4.417181e+00,3,0,2.090408e+00,2.090410e+00,1
3.667617e+00,4.633919e+00,4.586935e+00,3,0,7.172679e-01,7.172675e-01,1
3.672808e+00,8.919545e+00,8.877993e+00,3,1,2.868752e+00,2.868761e+00,1
3.682628e+00,3.640935e+01,3.636789e+01,3,8,6.331752e+00,6.361417e+00,1
3.675383e+00,4.321348e+01,4.317188e+01,3,11,3.700706e+00,3.702053e+00,1
3.663854e+00,1.149781e+01,1.145697e+01,3,2,2.640180e+00,2.640180e+00,1
3.678029e+00,4.282469e+00,4.244089e+00,3,0,2.165545e+00,2.165546e+00,1
3.673082e+00,4.599620e+00,4.560232e+00,3,0,1.840381e+00,1.840381e+00,1
3.673758e+00,4.660408e+00,4.620075e+00,3,0,1.725522e+00,1.725523e+00,1
3.673915e+00,3.179861e+01,3.175616e+01,3,7,2.906655e+00,2.912418e+00,1
3.689162e+00,2.637048e+01,2.632904e+01,3,6,2.246863e+00,2.248911e+00,1
3.680300e+00,1.238967e+01,1.234913e+01,3,2,1.616614e+00,1.616621e+00,1
3.680933e+00,1.191919e+01,1.187682e+01,3,2,1.799486e+00,1.799507e+00,1
3.674249e+00,1.991755e+01,1.987600e+01,3,4,3.086724e+00,3.095310e+00,1
3.621167e+00,8.543783e+00,8.504152e+00,3,1,5.005682e+00,5.020890e+00,1
3.631760e+00,4.579876e+01,4.575777e+01,3,11,9.121833e+00,9.182879e+00,1
3.682615e+00,5.390683e+01,5.384803e+01,3,11,1.115427e+01,1.854611e+01,0
3.677782e+00,5.612849e+01,5.606794e+01,3,12,1.007043e+01,1.954634e+01,0
3.683542e+00,8.687663e+01,8.681417e+01,3,20,1.057506e+01,1.756773e+01,0
3.673218e+00,9.921608e+01,9.917498e+01,3,27,8.922952e+00,9.015107e+00,1
3.682361e+00,5.710594e+01,5.704308e+01,3,12,9.392487e+00,1.109072e+01,0
3.665548e+00,3.081899e+01,3.077722e+01,3,7,9.381626e+00,9.487959e+00,1
3.681318e+00,3.547848e+01,3.541827e+01,3,6,7.732726e+00,1.488849e+01,0
3.674743e+00,3.693431e+01,3.689075e+01,3,9,6.666582e+00,6.684583e+00,1
3.679336e+00,3.998179e+01,3.993273e+01,3,10,5.132124e+00,5.148093e+00,1
3.671462e+00,3.738754e+01,3.732467e+01,3,6,4.672916e+00,9.900960e+00,0
3.660750e+00,1.823942e+01,1.817894e+01,3,1,4.695729e+00,2.151058e+01,0
7.234806e+00,1.462628e+01,1.456809e+01,6,0,6.045490e+00,4.772538e+01,0
7.301937e+00,1.458062e+01,1.452208e+01,6,0,1.130372e+01,1.004904e+02,0
7.324111e+00,7.611141e+01,7.605004e+01,6,17,1.277322e+01,8.552699e+01,0
7.291871e+00,3.680773e+01,3.674579e+01,6,6,1.451734e+01,6.783930e+01,0
7.249224e+00,4.542981e+01,4.536986e+01,6,9,1.278526e+01,4.402605e+01,0
4.893276e+00,5.845112e+01,5.837464e+01,4,12,1.298039e+01,4.277288e+01,0
6.050701e+00,1.433192e+01,1.427293e+01,5,0,1.601431e+01,6.535771e+01,0
4.820447e+00,2.153115e+02,2.152431e+02,4,56,1.494784e+01,3.677469e+01,0
6.029962e+00,5.622095e+01,5.615878e+01,5,12,1.242839e+01,2.988985e+01,0
4.901594e+00,1.488853e+02,1.488211e+02,4,38,1.070114e+01,2.016838e+01,0
3.683656e+00,1.484818e+01,1.478481e+01,3,0,9.413395e+00,2.915718e+00,0
3.676241e+00,1.124659e+02,1.124034e+02,3,28,8.011501e+00,1.474891e+01,0
3.684778e+00,4.628037e+01,4.621983e+01,3,9,7.180288e+00,2.174626e+01,0
3.671098e+00,1.494969e+01,1.488686e+01,3,0,7.275090e+00,3.256340e+01,0
4.870725e+00,1.066911e+02,1.066468e+02,4,29,4.136719e+00,4.189773e+00,1
3.670477e+00,3.072397e+01,3.068304e+01,3,7,3.550207e+00,3.591049e+00,1
3.666628e+00,4.270539e+01,4.264784e+01,3,8,3.816836e+00,1.206245e+01,0
6.083074e+00,2.640766e+01,2.636719e+01,5,6,2.696734e+00,2.700242e+00,1
3.669112e+00,2.598997e+01,2.594829e+01,3,6,2.275617e+00,2.275252e+00,1
4.875780e+00,1.422769e+01,1.418686e+01,4,3,1.864526e+00,1.863265e+00,1
3.673598e+00,4.642141e+00,4.601002e+00,3,0,1.189082e+00,1.188941e+00,1
3.665220e+00,4.692729e+00,4.652739e+00,3,0,7.330731e-01,7.330764e-01,1
3.664558e+00,4.458688e+00,4.419088e+00,3,0,5.693770e-01,5.693781e-01,1
3.675335e+00,4.635345e+00,4.593134e+00,3,0,8.128153e-01,8.128162e-01,1
3.686287e+00,4.612100e+00,4.571199e+00,3,0,1.091043e+00,1.091045e+00,1
3.675283e+00,4.674365e+00,4.635096e+00,3,0,7.585822e-01,7.585823e-01,1
3.671646e+00,4.515171e+00,4.477024e+00,3,0,8.034108e-01,8.034123e-01,1
3.664560e+00,8.784639e+00,8.744717e+00,3,1,2.166613e+00,2.171958e+00,1
3.676736e+00,1.330375e+01,1.325893e+01,3,2,4.826710e+00,4.869636e+00,1
3.679060e+00,2.563585e+01,2.559304e+01,3,5,6.547698e+00,6.592852e+00,1
3.675680e+00,2.339542e+01,2.335525e+01,3,5,5.512693e+00,5.638306e+00,1
3.679279e+00,2.865938e+01,2.861214e+01,3,6,5.911360e+00,5.979826e+00,1
3.657885e+00,1.569322e+01,1.565289e+01,3,3,5.769724e+00,5.810993e+00,1
3.686737e+00,1.610774e+01,1.606798e+01,3,3,5.107623e+00,5.124426e+00,1
3.673538e+00,3.080728e+01,3.076506e+01,3,7,4.067953e+00,4.075662e+00,1
3.653261e+00,1.284411e+01,1.279402e+01,3,2,4.005881e+00,4.009466e+00,1
3.651466e+00,4.807089e+01,4.799795e+01,3,9,7.184578e+00,1.594576e+01,0
8.375159e+00,4.301793e+01,4.296231e+01,7,8,9.369497e+00,3.629683e+01,0
7.199793e+00,1.465714e+01,1.459622e+01,6,0,1.107333e+01,5.987133e+01,0
4.820503e+00,1.595257e+02,1.594632e+02,4,40,9.071471e+00,2.070385e+01,0
6.048056e+00,1.408509e+02,1.408081e+02,5,39,6.955208e+00,7.191919e+00,1
4.899757e+00,1.036029e+02,1.035619e+02,4,28,5.142208e+00,5.244527e+00,1
3.673215e+00,2.765088e+01,2.760816e+01,3,6,4.147817e+00,4.316478e+00,1
3.686270e+00,7.343335e+01,7.337809e+01,3,16,5.395577e+00,1.024136e+01,0
3.673626e+00,1.438337e+01,1.432467e+01,3,0,5.354947e+00,1.393788e+01,0
3.679718e+00,8.251143e+01,8.246899e+01,3,22,4.030277e+00,4.146895e+00,1
4.887691e+00,5.400302e+01,5.395985e+01,4,14,3.963768e+00,3.999289e+00,1
7.300683e+00,5.112689e+01,5.107713e+01,6,13,4.764282e+00,4.759016e+00,1
7.295298e+00,4.030316e+01,4.026318e+01,6,10,5.219058e+00,5.213347e+00,1
4.885973e+00,1.497493e+01,1.492596e+01,4,3,6.318214e+00,6.318219e+00,1
3.673789e+00,4.679293e+00,4.637241e+00,3,0,4.943589e+00,4.943588e+00,1
3.663023e+00,1.238607e+01,1.234579e+01,3,2,6.595577e+00,6.597977e+00,1
3.668491e+00,2.416352e+01,2.412391e+01,3,5,6.557511e+00,6.562130e+00,1
3.659736e+00,3.420819e+01,3.416705e+01,3,8,5.497747e+00,5.501003e+00,1
3.666986e+00,2.754880e+01,2.750802e+01,3,6,4.533802e+00,4.539688e+00,1
3.659019e+00,4.572160e+01,4.567909e+01,3,11,4.668757e+00,4.716894e+00,1
3.686471e+00,6.314165e+01,6.309676e+01,3,16,4.639538e+00,4.721035e+00,1
6.088955e+00,2.935203e+01,2.931213e+01,5,7,3.473682e+00,3.467519e+00,1
7.315485e+00,2.283246e+01,2.278900e+01,6,5,3.414839e+00,3.418178e+00,1
3.672909e+00,1.154748e+01,1.150584e+01,3,2,2.251420e+00,2.251329e+00,1
3.682630e+00,8.921137e+00,8.872986e+00,3,1,1.832193e+00,1.846453e+00,1
3.669817e+00,5.513241e+00,5.473614e+00,3,0,1.131149e+00,1.134205e+00,1
3.668433e+00,8.141341e+00,8.101940e+00,3,1,7.298305e-01,7.298309e-01,1
3.652803e+00,4.423987e+00,4.384041e+00,3,0,4.261488e-01,4.261489e-01,1
3.680344e+00,4.611854e+00,4.572868e+00,3,0,8.372420e-01,8.372437e-01,1
3.679932e+00,4.706464e+00,4.665852e+00,3,0,4.820380e-01,4.820381e-01,1
3.673386e+00,4.669356e+00,4.627228e+00,3,0,4.462188e-01,4.462195e-01,1
3.679083e+00,4.707821e+00,4.667044e+00,3,0,2.803777e-01,2.803781e-01,1
3.677694e+00,4.667114e+00,4.626036e+00,3,0,3.034212e-01,3.034215e-01,1
3.667522e+00,4.640895e+00,4.601002e+00,3,0,2.670210e-01,2.670213e-01,1
3.663696e+00,4.619821e+00,4.579067e+00,3,0,6.526929e-01,6.526940e-01,1
3.660251e+00,4.647118e+00,4.606724e+00,3,0,5.020400e-01,5.020407e-01,1
3.664533e+00,4.386052e+00,4.346848e+00,3,0,5.137367e-01,5.137385e-01,1
3.673016e+00,4.604812e+00,4.562855e+00,3,0,1.045373e+00,1.045375e+00,1
3.657184e+00,4.506894e+00,4.466057e+00,3,0,5.740980e-01,5.740979e-01,1
3.671254e+00,4.301783e+00,4.266024e+00,3,0,8.141947e-01,8.141954e-01,1
3.672335e+00,4.645959e+00,4.605055e+00,3,0,8.280298e-01,8.280303e-01,1
3.663501e+00,4.685321e+00,4.645109e+00,3,0,1.397132e+00,1.397134e+00,1
3.655221e+00,4.442598e+00,4.402876e+00,3,0,1.066808e+00,1.066808e+00,1
3.683744e+00,4.641150e+00,4.601002e+00,3,0,7.028165e-01,7.028165e-01,1
3.665374e+00,4.657348e+00,4.615068e+00,3,0,5.117558e-01,5.117563e-01,1
3.672355e+00,4.556093e+00,4.514694e+00,3,0,6.908000e-01,6.908009e-01,1
3.669634e+00,4.650545e+00,4.611015e+00,3,0,6.371184e-01,6.371186e-01,1
3.685487e+00,4.504812e+00,4.465103e+00,3,0,5.139302e-01,5.139304e-01,1
3.682465e+00,4.645646e+00,4.607677e+00,3,0,9.031656e-01,9.031668e-01,1
3.675346e+00,4.593162e+00,4.552126e+00,3,0,6.888059e-01,6.888064e-01,1
3.678129e+00,9.006802e+00,8.964062e+00,3,1,1.025958e+00,1.026027e+00,1
3.674487e+00,1.019434e+01,1.015210e+01,3,1,1.815993e+00,1.895112e+00,1
3.610884e+00,5.612181e+00,5.572081e+00,3,0,1.589367e+00,1.609447e+00,1
3.646132e+00,8.106364e+00,8.065939e+00,3,1,1.406360e+00,1.406360e+00,1
3.644000e+00,4.673675e+00,4.632950e+00,3,0,3.216361e+00,3.216366e+00,1
3.642417e+00,1.957868e+01,1.953697e+01,3,4,3.904246e+00,3.904653e+00,1
3.620145e+00,1.149891e+01,1.145124e+01,3,2,2.221349e+00,2.221347e+00,1
3.643568e+00,4.614568e+00,4.574776e+00,3,0,1.660905e+00,1.660905e+00,1
3.667257e+00,4.658813e+00,4.617691e+00,3,0,1.279156e+00,1.279157e+00,1
3.579298e+00,4.579294e+00,4.538774e+00,3,0,8.539426e-01,8.539427e-01,1
3.606640e+00,4.227905e+00,4.190207e+00,3,0,7.552345e-01,7.552349e-01,1
3.641971e+00,4.606760e+00,4.567862e+00,3,0,1.085236e+00,1.085237e+00,1
3.639226e+00,4.693407e+00,4.633904e+00,3,0,1.038544e+00,1.038545e+00,1
3.632956e+00,4.520006e+00,4.479170e+00,3,0,5.170589e-01,5.170600e-01,1
3.616974e+00,4.551329e+00,4.513979e+00,3,0,1.407128e+00,1.407131e+00,1
3.605591e+00,4.522876e+00,4.483938e+00,3,0,7.812430e-01,7.812428e-01,1
3.636504e+00,4.507033e+00,4.469156e+00,3,0,6.898950e-01,6.898956e-01,1
3.675294e+00,4.604246e+00,4.566193e+00,3,0,9.654239e-01,9.654252e-01,1
3.685631e+00,4.611161e+00,4.570961e+00,3,0,7.903661e-01,7.903664e-01,1
3.643669e+00,4.682536e+00,4.631996e+00,3,0,9.278464e-01,9.278471e-01,1
3.637255e+00,4.513068e+00,4.473209e+00,3,0,1.181538e+00,1.181539e+00,1
3.639354e+00,4.633172e+00,4.595041e+00,3,0,9.326566e-01,9.326573e-01,1
3.606633e+00,4.285130e+00,4.247904e+00,3,0,9.693112e-01,9.693126e-01,1
3.615892e+00,4.631407e+00,4.576921e+00,3,0,1.209063e+00,1.209060e+00,1
3.668204e+00,4.794919e+00,4.755020e+00,3,0,1.485909e+00,1.485906e+00,1
3.669503e+00,4.447736e+00,4.406929e+00,3,0,2.228569e+00,2.228571e+00,1
3.675956e+00,4.740013e+00,4.698992e+00,3,0,1.542833e+00,1.542833e+00,1
3.675970e+00,4.498735e+00,4.458666e+00,3,0,1.482659e+00,1.482661e+00,1
3.674104e+00,4.641779e+00,4.601717e+00,3,0,1.434518e+00,1.434519e+00,1
3.661384e+00,4.613137e+00,4.573822e+00,3,0,1.553203e+00,1.553204e+00,1
3.611670e+00,4.598060e+00,4.558802e+00,3,0,1.283908e+00,1.283908e+00,1
3.680700e+00,1.572158e+01,1.568317e+01,3,3,2.186985e+00,2.206634e+00,1
4.827159e+00,2.009886e+01,2.005601e+01,4,4,1.655152e+00,1.680447e+00,1
3.643069e+00,5.316887e+00,5.258799e+00,3,0,1.546005e+00,1.570950e+00,1
3.587282e+00,1.714793e+01,1.710796e+01,3,3,1.510829e+00,1.544874e+00,1
3.635336e+00,1.005593e+01,1.001501e+01,3,1,1.365929e+00,1.541317e+00,1
3.656916e+00,1.319796e+01,1.315784e+01,3,2,9.769544e-01,1.031691e+00,1
3.652435e+00,9.881172e+00,9.838104e+00,3,1,1.186194e+00,1.219948e+00,1
3.610649e+00,1.241903e+01,1.237893e+01,3,2,1.335772e+00,1.335773e+00,1
3.672864e+00,4.326603e+00,4.287720e+00,3,0,9.193940e-01,9.193943e-01,1
3.661092e+00,4.640085e+00,4.601002e+00,3,0,1.723914e+00,1.723917e+00,1
3.611484e+00,4.550181e+00,4.511118e+00,3,0,1.214820e+00,1.214820e+00,1
3.560772e+00,4.633770e+00,4.594803e+00,3,0,1.112151e+00,1.112151e+00,1
3.637658e+00,4.653170e+00,4.613876e+00,3,0,9.950771e-01,9.950774e-01,1
3.651757e+00,4.607157e+00,4.567146e+00,3,0,7.781696e-01,7.781709e-01,1
3.617343e+00,4.585672e+00,4.545212e+00,3,0,5.708918e-01,5.708922e-01,1
3.596800e+00,4.507643e+00,4.467964e+00,3,0,1.134289e+00,1.134291e+00,1
3.673955e+00,4.656953e+00,4.616022e+00,3,0,9.785758e-01,9.785764e-01,1
3.600977e+00,4.643213e+00,4.603148e+00,3,0,9.957048e-01,9.957060e-01,1
3.609702e+00,4.493238e+00,4.453182e+00,3,0,9.312338e-01,9.312341e-01,1
3.609604e+00,4.504569e+00,4.449129e+00,3,0,7.241155e-01,7.241160e-01,1
3.635225e+00,4.605519e+00,4.565001e+00,3,0,8.698008e-01,8.698014e-01,1
3.582768e+00,4.513736e+00,4.474163e+00,3,0,6.747750e-01,6.747752e-01,1
3.638717e+00,1.239780e+01,1.234198e+01,3,2,2.849904e+00,2.854025e+00,1
4.870331e+00,2.004049e+01,1.999998e+01,4,4,6.330301e+00,6.378635e+00,1
3.614983e+00,3.042925e+01,3.038311e+01,3,7,4.754230e+00,4.759158e+00,1
3.615183e+00,1.500027e+01,1.495790e+01,3,3,3.391445e+00,3.391444e+00,1
3.658007e+00,4.527791e+00,4.487038e+00,3,0,2.486303e+00,2.486304e+00,1
3.624285e+00,4.577423e+00,4.537106e+00,3,0,2.691497e+00,2.691498e+00,1
3.620752e+00,4.625287e+00,4.585981e+00,3,0,2.126830e+00,2.126830e+00,1
3.636605e+00,4.619518e+00,4.577160e+00,3,0,2.053936e+00,2.053937e+00,1
3.647600e+00,4.498578e+00,4.460096e+00,3,0,2.472411e+00,2.472414e+00,1
3.684515e+00,4.569320e+00,4.529715e+00,3,0,2.817038e+00,2.817040e+00,1
3.654781e+00,4.658326e+00,4.617929e+00,3,0,2.576724e+00,2.576725e+00,1
3.631653e+00,8.467763e+00,8.428097e+00,3,1,2.745804e+00,2.746477e+00,1
3.702908e+00,1.222911e+01,1.218724e+01,3,2,3.658614e+00,3.660584e+00,1
3.677009e+00,5.452510e+00,5.411148e+00,3,0,2.697954e+00,2.697995e+00,1
3.678881e+00,8.420031e+00,8.376837e+00,3,1,1.827133e+00,1.827133e+00,1
3.676371e+00,4.529910e+00,4.487991e+00,3,0,1.081239e+00,1.081239e+00,1
3.678750e+00,4.676168e+00,4.635096e+00,3,0,7.213900e-01,7.213901e-01,1
3.664683e+00,4.537740e+00,4.496098e+00,3,0,5.653582e-01,5.653587e-01,1
3.671310e+00,4.654714e+00,4.613876e+00,3,0,7.758419e-01,7.758430e-01,1
3.665492e+00,4.577973e+00,4.539013e+00,3,0,5.482202e-01,5.482203e-01,1
3.674814e+00,4.499007e+00,4.459143e+00,3,0,9.182349e-01,9.182361e-01,1
3.666888e+00,4.495734e+00,4.456043e+00,3,0,9.757143e-01,9.757148e-01,1
3.662677e+00,8.741634e+00,8.702278e+00,3,1,9.064538e-01,9.068171e-01,1
3.669023e+00,9.706425e+00,9.668112e+00,3,1,1.168356e+00,1.171757e+00,1
3.667732e+00,7.764421e+00,7.725000e+00,3,1,6.508452e-01,6.508451e-01,1
3.637929e+00,4.691100e+00,4.650831e+00,3,0,5.279663e-01,5.279667e-01,1
3.632518e+00,4.458876e+00,4.401207e+00,3,0,2.820806e+00,2.820813e+00,1
3.623394e+00,4.504893e+00,4.467964e+00,3,0,2.934671e+00,2.934672e+00,1
3.660895e+00,4.555066e+00,4.514933e+00,3,0,1.426255e+00,1.426254e+00,1
3.670547e+00,4.236453e+00,4.202127e+00,3,0,1.407421e+00,1.407422e+00,1
3.579750e+00,4.598360e+00,4.559994e+00,3,0,1.232366e+00,1.232366e+00,1
3.649721e+00,8.398520e+00,8.359909e+00,3,1,1.320887e+00,1.321161e+00,1
3.628317e+00,7.926052e+00,7.887125e+00,3,1,6.746930e-01,6.746929e-01,1
3.595932e+00,4.402262e+00,4.362822e+00,3,0,5.664931e-01,5.664937e-01,1
3.673054e+00,4.480061e+00,4.441977e+00,3,0,1.078177e+00,1.078178e+00,1
3.627620e+00,4.522164e+00,4.485130e+00,3,0,1.343451e+00,1.343452e+00,1
3.628063e+00,4.691517e+00,4.652023e+00,3,0,1.653656e+00,1.653657e+00,1
3.592305e+00,4.583971e+00,4.543066e+00,3,0,1.076626e+00,1.076626e+00,1
3.658463e+00,4.423588e+00,4.385948e+00,3,0,1.034409e+00,1.034410e+00,1
3.642199e+00,4.696739e+00,4.659176e+00,3,0,1.552396e+00,1.552398e+00,1
3.690007e+00,4.603594e+00,4.561901e+00,3,0,2.302813e+00,2.302815e+00,1
3.637088e+00,8.429939e+00,8.390903e+00,3,1,2.553651e+00,2.553654e+00,1
3.651983e+00,9.383715e+00,9.342909e+00,3,1,3.561506e+00,3.571209e+00,1
3.603026e+00,8.943127e+00,8.903027e+00,3,1,3.362413e+00,3.363134e+00,1
3.629550e+00,4.121012e+01,4.116893e+01,3,10,5.297659e+00,5.305356e+00,1
4.892669e+00,2.117085e+01,2.112818e+01,4,5,2.343240e+00,2.343239e+00,1
3.698959e+00,4.781526e+00,4.738092e+00,3,0,1.947129e+00,1.947129e+00,1
3.682133e+00,2.370213e+01,2.365899e+01,3,5,2.858715e+00,2.877276e+00,1
3.667343e+00,1.462410e+01,1.458383e+01,3,3,1.398132e+00,1.398130e+00,1
3.662898e+00,4.598928e+00,4.556179e+00,3,0,1.151306e+00,1.151306e+00,1
3.664270e+00,4.589278e+00,4.550219e+00,3,0,9.152027e-01,9.152030e-01,1
3.676943e+00,4.517698e+00,4.478216e+00,3,0,6.047515e-01,6.047514e-01,1
3.672924e+00,4.751600e+00,4.711151e+00,3,0,1.293956e+00,1.293958e+00,1
3.668304e+00,4.517536e+00,4.477024e+00,3,0,9.615447e-01,9.615449e-01,1
3.667564e+00,4.604967e+00,4.565001e+00,3,0,5.406527e-01,5.406528e-01,1
3.666546e+00,4.630709e+00,4.590988e+00,3,0,1.286582e+00,1.286585e+00,1
3.667510e+00,4.522993e+00,4.483938e+00,3,0,8.903102e-01,8.903102e-01,1
3.667199e+00,4.286918e+00,4.250050e+00,3,0,4.809728e-01,4.809731e-01,1
3.662429e+00,4.664394e+00,4.619122e+00,3,0,5.197167e-01,5.197170e-01,1
3.664345e+00,4.617399e+00,4.579067e+00,3,0,6.734622e-01,6.734631e-01,1
3.670275e+00,8.782979e+00,8.744955e+00,3,1,1.009694e+00,1.010403e+00,1
3.680955e+00,9.473202e+00,9.432077e+00,3,1,2.101388e+00,2.102034e+00,1
3.676223e+00,8.968077e+00,8.927107e+00,3,1,1.561054e+00,1.577170e+00,1
3.676047e+00,9.457351e+00,9.417057e+00,3,1,2.818469e+00,2.911838e+00,1
3.668212e+00,8.941299e+00,8.897066e+00,3,1,1.238298e+00,1.238454e+00,1
3.678727e+00,7.679558e+00,7.639170e+00,3,1,9.871147e-01,9.871152e-01,1
3.653263e+00,4.517013e+00,4.478931e+00,3,0,6.630299e-01,6.630299e-01,1
3.676620e+00,4.368169e+00,4.332066e+00,3,0,6.060089e-01,6.060098e-01,1
3.677097e+00,4.642515e+00,4.601717e+00,3,0,1.699433e+00,1.699437e+00,1
3.673465e+00,4.656200e+00,4.613876e+00,3,0,1.693248e+00,1.693249e+00,1
3.669505e+00,4.634718e+00,4.595041e+00,3,0,2.594568e+00,2.594539e+00,1
3.656858e+00,4.702751e+00,4.657984e+00,3,0,2.664810e+00,2.664803e+00,1
3.676597e+00,4.472162e+00,4.431963e+00,3,0,3.056805e+00,3.056806e+00,1
3.670818e+00,1.681176e+01,1.677203e+01,3,3,5.002223e+00,5.013682e+00,1
3.672773e+00,2.004285e+01,2.000093e+01,3,4,5.598307e+00,5.613791e+00,1
3.675422e+00,1.293821e+01,1.289701e+01,3,2,4.181825e+00,4.192291e+00,1
3.684645e+00,2.413500e+01,2.409220e+01,3,5,3.756681e+00,3.768145e+00,1
3.558760e+00,2.763273e+01,2.759004e+01,3,6,5.273752e+00,5.288253e+00,1
3.560912e+00,3.689954e+01,3.685784e+01,3,9,3.584809e+00,3.589659e+00,1
3.575806e+00,1.216926e+01,1.212716e+01,3,2,2.972100e+00,2.972264e+00,1
3.580565e+00,7.526419e+00,7.488012e+00,3,1,3.001142e+00,3.001146e+00,1
3.621847e+00,4.656570e+00,4.613161e+00,3,0,3.240728e+00,3.240730e+00,1
3.590466e+00,8.352701e+00,8.312941e+00,3,1,3.545594e+00,3.560315e+00,1
3.591410e+00,1.217559e+01,1.213384e+01,3,2,2.616920e+00,2.617063e+00,1
3.575065e+00,9.176340e+00,9.135723e+00,3,1,2.511459e+00,2.515551e+00,1
3.571981e+00,1.981186e+01,1.977110e+01,3,4,3.220633e+00,3.234496e+00,1
3.643613e+00,1.606722e+01,1.602817e+01,3,3,3.533525e+00,3.570071e+00,1
3.651535e+00,1.887414e+01,1.883292e+01,3,4,2.237913e+00,2.239580e+00,1
3.665677e+00,1.299767e+01,1.295805e+01,3,2,2.151198e+00,2.155143e+00,1
3.678683e+00,8.151031e+00,8.109808e+00,3,1,1.265726e+00,1.265694e+00,1
3.682716e+00,4.549200e+00,4.502058e+00,3,0,1.227043e+00,1.227003e+00,1

