2.440468e+00,5.717232e+03,5.714654e+03,2,1000,0.000000e+00,-1.058181e-16,0
3.540658e+00,7.896750e+02,7.896132e+02,3,191,1.480037e-01,1.480040e-01,1
3.549623e+00,4.457988e+00,4.417181e+00,3,0,2.735375e-01,2.735381e-01,1
3.555433e+00,4.469990e+00,4.431963e+00,3,0,5.775486e-01,5.775495e-01,1
3.523173e+00,4.376209e+00,4.338026e+00,3,0,5.324881e-01,5.324885e-01,1
3.528081e+00,4.432541e+00,4.395008e+00,3,0,2.501616e+00,2.501620e+00,1
3.550301e+00,4.436427e+00,4.398108e+00,3,0,3.489176e+00,3.489179e+00,1
3.560974e+00,8.156443e+00,8.116961e+00,3,1,4.579118e+00,4.579745e+00,1
3.535918e+00,7.717845e+00,7.679701e+00,3,1,2.251728e+00,2.251727e+00,1
3.534647e+00,4.427778e+00,4.384995e+00,3,0,1.996338e+00,1.996339e+00,1
3.524716e+00,4.316018e+00,4.277945e+00,3,0,1.651813e+00,1.651814e+00,1
3.525369e+00,4.330413e+00,4.293919e+00,3,0,1.911418e+00,1.911420e+00,1
3.525544e+00,4.394235e+00,4.355907e+00,3,0,3.170327e+00,3.170331e+00,1
3.543084e+00,4.269560e+00,4.230976e+00,3,0,4.326501e+00,4.326504e+00,1
3.548961e+00,4.419821e+00,4.383087e+00,3,0,3.965860e+00,3.965860e+00,1
3.539936e+00,1.187405e+01,1.183677e+01,3,2,5.539052e+00,5.539192e+00,1
3.541945e+00,1.095699e+01,1.091790e+01,3,2,4.325644e+00,4.325642e+00,1
3.633198e+00,1.215365e+01,1.211214e+01,3,2,3.786474e+00,3.786504e+00,1
3.638308e+00,1.272858e+01,1.268578e+01,3,2,3.617639e+00,3.628623e+00,1
3.633494e+00,5.474085e+00,5.433798e+00,3,0,3.447922e+00,3.460870e+00,1
3.631320e+00,1.257470e+01,1.253629e+01,3,2,3.608669e+00,3.630833e+00,1
3.620736e+00,8.849839e+00,8.810043e+00,3,1,3.007787e+00,3.009279e+00,1
3.635952e+00,5.451406e+00,5.412102e+00,3,0,2.708777e+00,2.715275e+00,1
3.640944e+00,1.282914e+01,1.278710e+01,3,2,2.361958e+00,2.478741e+00,1
3.639609e+00,1.357903e+01,1.353812e+01,3,2,2.331080e+00,2.373583e+00,1
3.634587e+00,8.590743e+00,8.550882e+00,3,1,2.254560e+00,2.254714e+00,1
3.631727e+00,7.843770e+00,7.797003e+00,3,1,1.866745e+00,1.866666e+00,1
3.637854e+00,4.544425e+00,4.507065e+00,3,0,1.339154e+00,1.338720e+00,1
3.627875e+00,4.429237e+00,4.390955e+00,3,0,6.754214e-01,6.754240e-01,1
3.626250e+00,4.476271e+00,4.438162e+00,3,0,5.788428e-01,5.788430e-01,1
3.623766e+00,4.579193e+00,4.542112e+00,3,0,1.149249e+00,1.149251e+00,1
3.637913e+00,4.603676e+00,4.565001e+00,3,0,1.355593e+00,1.355594e+00,1
3.629327e+00,4.520389e+00,4.479647e+00,3,0,1.169482e+00,1.169482e+00,1
3.629325e+00,4.592484e+00,4.555225e+00,3,0,1.807410e+00,1.807412e+00,1
3.634544e+00,4.566123e+00,4.520655e+00,3,0,1.478380e+00,1.478380e+00,1
3.625763e+00,4.597655e+00,4.559040e+00,3,0,1.091073e+00,1.091073e+00,1
3.622973e+00,4.247708e+00,4.210949e+00,3,0,7.992440e-01,7.992446e-01,1
3.621687e+00,4.508563e+00,4.469156e+00,3,0,6.656007e-01,6.656012e-01,1
3.648279e+00,8.732798e+00,8.694887e+00,3,1,1.692769e+00,1.693031e+00,1
3.638733e+00,7.730944e+00,7.690907e+00,3,1,1.868498e+00,1.868499e+00,1
3.636668e+00,1.600402e+01,1.596498e+01,3,3,4.201813e+00,4.292417e+00,1
3.641370e+00,1.577464e+01,1.573515e+01,3,3,5.751160e+00,5.780631e+00,1
3.899384e+00,2.438060e+01,2.434015e+01,3,6,3.643254e+00,3.643250e+00,1
3.634921e+00,1.226787e+01,1.222610e+01,3,2,5.501139e+00,5.501161e+00,1
3.641903e+00,1.129580e+01,1.125669e+01,3,2,4.395935e+00,4.395935e+00,1
3.625174e+00,4.478952e+00,4.437923e+00,3,0,3.555652e+00,3.555652e+00,1
3.639212e+00,4.611372e+00,4.574776e+00,3,0,3.184696e+00,3.184696e+00,1
3.628142e+00,4.545494e+00,4.507065e+00,3,0,2.643504e+00,2.643504e+00,1
3.622510e+00,4.539523e+00,4.501104e+00,3,0,2.123927e+00,2.123927e+00,1
3.632020e+00,4.478508e+00,4.440784e+00,3,0,1.353443e+00,1.353443e+00,1
3.631249e+00,4.457410e+00,4.419088e+00,3,0,1.214989e+00,1.214989e+00,1
3.623428e+00,4.560832e+00,4.522800e+00,3,0,1.931047e+00,1.931049e+00,1
3.630078e+00,4.436712e+00,4.401207e+00,3,0,1.408604e+00,1.408604e+00,1
3.635174e+00,8.785262e+00,8.745909e+00,3,1,1.200526e+00,1.201028e+00,1
3.633145e+00,2.009072e+01,2.005291e+01,3,4,1.587002e+00,1.611748e+00,1
3.637791e+00,8.711951e+00,8.670807e+00,3,1,2.178950e+00,2.207199e+00,1
4.818984e+00,7.886414e+00,7.847071e+00,4,1,1.184302e+00,1.184302e+00,1
3.630128e+00,4.570641e+00,4.530668e+00,3,0,1.825493e+00,1.825495e+00,1
3.638753e+00,4.549650e+00,4.510880e+00,3,0,2.574940e+00,2.574940e+00,1
3.625613e+00,1.972403e+01,1.968312e+01,3,4,3.881358e+00,3.882573e+00,1
3.637797e+00,1.098680e+01,1.094675e+01,3,2,1.759177e+00,1.759181e+00,1
3.643283e+00,1.656895e+01,1.652813e+01,3,3,3.799612e+00,3.857208e+00,1
3.619709e+00,8.489427e+01,8.483386e+01,3,19,7.152725e+00,7.728814e+00,0
3.562079e+00,5.550902e+01,5.546904e+01,3,15,3.884095e+00,3.895576e+00,1
3.636733e+00,4.076533e+01,4.070830e+01,3,7,5.336958e+00,7.075913e+00,0
4.690588e+00,3.429607e+01,3.425503e+01,4,9,2.310961e+00,2.310960e+00,1
3.561020e+00,4.431664e+00,4.392147e+00,3,0,2.477131e+00,2.477130e+00,1
3.531498e+00,4.452958e+00,4.415035e+00,3,0,1.938170e+00,1.938171e+00,1
3.523705e+00,4.444251e+00,4.405022e+00,3,0,1.521451e+00,1.521452e+00,1
3.522007e+00,4.594433e+00,4.553795e+00,3,0,1.165283e+00,1.165284e+00,1
3.518540e+00,4.216801e+00,4.178286e+00,3,0,1.739596e+00,1.739598e+00,1
3.530719e+00,4.446698e+00,4.400969e+00,3,0,1.775319e+00,1.775320e+00,1
3.565848e+00,4.427234e+00,4.389048e+00,3,0,1.799510e+00,1.799510e+00,1
3.625847e+00,8.841845e+00,8.801937e+00,3,1,2.026183e+00,2.027364e+00,1
3.550299e+00,1.314819e+01,1.310706e+01,3,2,2.951177e+00,2.980931e+00,1
3.534208e+00,5.153890e+00,5.110264e+00,3,0,3.962333e+00,4.015102e+00,1
3.531502e+00,1.564319e+01,1.560402e+01,3,3,2.385907e+00,2.430444e+00,1
3.530404e+00,1.306527e+01,1.302600e+01,3,2,2.376830e+00,2.392614e+00,1
3.533256e+00,5.361266e+00,5.319834e+00,3,0,1.754872e+00,1.771033e+00,1
3.523882e+00,7.764907e+00,7.727146e+00,3,1,8.692662e-01,8.692661e-01,1
3.516120e+00,8.624610e+00,8.585215e+00,3,1,2.989081e+00,2.989764e+00,1
3.534127e+00,7.483062e+00,7.445097e+00,3,1,2.211869e+00,2.211869e+00,1
3.528399e+00,4.426597e+00,4.388094e+00,3,0,1.979913e+00,1.979913e+00,1
3.523192e+00,8.365863e+00,8.328199e+00,3,1,1.907545e+00,1.936120e+00,1
3.535944e+00,1.208935e+01,1.205087e+01,3,2,2.746018e+00,2.746024e+00,1
3.535848e+00,2.706484e+01,2.702379e+01,3,6,4.925673e+00,4.932201e+00,1
3.532252e+00,2.708558e+01,2.704501e+01,3,6,7.371518e+00,7.409694e+00,1
3.544206e+00,1.057618e+02,1.057038e+02,3,26,1.074810e+01,2.824944e+01,0
3.533324e+00,6.763322e+01,6.757402e+01,3,16,8.738750e+00,2.311320e+01,0
3.528785e+00,1.310454e+02,1.309857e+02,3,34,6.239178e+00,1.053741e+01,0
3.526633e+00,4.202703e+01,4.198575e+01,3,11,4.812480e+00,4.854417e+00,1
3.533331e+00,1.551902e+01,1.548076e+01,3,3,3.371773e+00,3.376668e+00,1
3.637960e+00,6.166344e+01,6.162310e+01,3,16,4.771566e+00,4.871594e+00,1
3.629345e+00,4.918664e+01,4.914713e+01,3,13,3.545160e+00,3.590370e+00,1
3.633998e+00,4.553493e+01,4.549599e+01,3,11,4.578382e+00,4.653061e+00,1
7.229252e+00,6.416689e+01,6.412792e+01,6,17,5.027764e+00,5.065784e+00,1
4.834391e+00,5.995815e+01,5.991626e+01,4,16,2.153350e+00,2.225759e+00,1
3.642808e+00,8.084287e+00,8.043051e+00,3,1,1.868705e+00,1.868705e+00,1
3.633984e+00,4.590426e+00,4.551172e+00,3,0,2.663337e+00,2.663339e+00,1
3.633827e+00,4.540977e+00,4.501820e+00,3,0,2.892310e+00,2.892312e+00,1
3.635189e+00,4.430140e+00,4.392862e+00,3,0,2.181393e+00,2.181393e+00,1
3.628763e+00,4.518392e+00,4.482031e+00,3,0,2.513310e+00,2.513312e+00,1
3.633563e+00,4.421671e+00,4.382849e+00,3,0,1.481124e+00,1.481125e+00,1
3.634517e+00,4.512922e+00,4.473925e+00,3,0,1.351560e+00,1.351560e+00,1
3.629656e+00,4.420878e+00,4.381895e+00,3,0,1.117923e+00,1.117923e+00,1
3.635803e+00,4.338714e+00,4.299164e+00,3,0,1.168096e+00,1.168097e+00,1
3.641249e+00,8.700332e+00,8.661032e+00,3,1,1.623891e+00,1.624160e+00,1
3.636525e+00,1.242202e+01,1.238108e+01,3,2,1.769384e+00,1.773714e+00,1
3.635438e+00,9.712834e+00,9.672880e+00,3,1,1.140904e+00,1.143975e+00,1
3.634623e+00,1.710913e+01,1.706719e+01,3,3,1.145735e+00,1.199420e+00,1
3.626684e+00,5.322157e+00,5.282164e+00,3,0,1.055280e+00,1.077602e+00,1
3.638548e+00,5.431909e+00,5.396128e+00,3,0,8.892335e-01,8.892347e-01,1
3.629336e+00,7.765907e+00,7.726908e+00,3,1,6.224112e-01,6.224113e-01,1
3.621956e+00,4.490348e+00,4.451036e+00,3,0,1.095658e+00,1.095658e+00,1
3.599387e+00,4.490284e+00,4.450083e+00,3,0,5.823319e-01,5.823320e-01,1
3.587660e+00,4.545691e+00,4.491091e+00,3,0,6.708428e-01,6.708433e-01,1
3.581925e+00,4.459008e+00,4.420042e+00,3,0,1.729814e+00,1.729817e+00,1
3.549565e+00,4.593938e+00,4.555225e+00,3,0,1.261927e+00,1.261927e+00,1
3.605631e+00,8.806901e+00,8.766890e+00,3,1,4.055821e+00,4.058475e+00,1
3.601367e+00,1.913233e+01,1.909113e+01,3,4,2.812029e+00,2.855905e+00,1
3.588781e+00,9.229637e+00,9.191036e+00,3,1,2.727542e+00,2.922875e+00,1
3.598722e+00,1.312157e+01,1.308107e+01,3,2,3.397041e+00,3.510269e+00,1
3.611593e+00,1.247848e+01,1.243925e+01,3,2,3.069372e+00,3.069523e+00,1
3.579303e+00,1.636759e+01,1.632690e+01,3,3,3.383660e+00,3.387692e+00,1
3.582969e+00,4.451941e+01,4.446268e+01,3,8,5.972691e+00,1.417983e+01,0
3.585292e+00,5.049985e+01,5.046105e+01,3,13,3.876279e+00,3.894089e+00,1
3.619230e+00,3.240257e+01,3.236103e+01,3,8,2.947295e+00,2.948316e+00,1
3.596983e+00,1.711378e+01,1.707578e+01,3,4,2.568663e+00,2.568278e+00,1
4.770256e+00,7.058763e+00,7.020950e+00,4,1,1.535642e+00,1.535643e+00,1
3.568154e+00,4.355620e+00,4.317045e+00,3,0,1.689784e+00,1.689771e+00,1
3.636156e+00,4.471102e+00,4.433870e+00,3,0,1.059142e+00,1.059143e+00,1
3.564336e+00,4.400156e+00,4.362106e+00,3,0,1.391708e+00,1.391710e+00,1
3.586526e+00,4.494916e+00,4.458904e+00,3,0,6.224910e-01,6.224912e-01,1
3.592650e+00,4.415704e+00,4.376173e+00,3,0,5.061454e-01,5.061457e-01,1
3.611934e+00,4.501695e+00,4.462004e+00,3,0,5.185254e-01,5.185259e-01,1
3.586024e+00,8.669389e+00,8.628845e+00,3,1,1.126094e+00,1.135744e+00,1
3.608325e+00,1.223998e+01,1.220083e+01,3,2,1.162248e+00,1.162249e+00,1
3.597705e+00,4.569306e+00,4.529953e+00,3,0,9.840368e-01,9.840370e-01,1
3.584440e+00,4.625986e+00,4.587889e+00,3,0,1.072808e+00,1.072809e+00,1
3.548671e+00,4.523904e+00,4.483938e+00,3,0,9.085799e-01,9.085804e-01,1
3.636793e+00,4.573119e+00,4.535913e+00,3,0,1.695304e+00,1.695307e+00,1
3.577233e+00,1.277598e+01,1.273394e+01,3,2,2.891740e+00,2.894766e+00,1
3.529366e+00,1.909689e+01,1.905918e+01,3,4,3.265934e+00,3.316498e+00,1
4.679176e+00,1.612545e+01,1.608515e+01,4,3,2.575524e+00,2.651219e+00,1
3.530411e+00,8.950426e+00,8.912086e+00,3,1,2.289388e+00,2.382821e+00,1
3.526678e+00,1.292784e+01,1.288891e+01,3,2,2.113491e+00,2.261823e+00,1
3.527202e+00,8.539252e+00,8.501053e+00,3,1,1.516396e+00,1.641922e+00,1
3.520373e+00,5.309229e+00,5.270958e+00,3,0,1.344865e+00,1.355459e+00,1
3.523800e+00,7.774952e+00,7.735729e+00,3,1,2.351817e+00,2.351821e+00,1
3.529152e+00,8.629587e+00,8.589745e+00,3,1,3.350948e+00,3.351124e+00,1
3.526331e+00,7.852276e+00,7.813215e+00,3,1,2.045846e+00,2.045845e+00,1
3.530081e+00,4.247871e+00,4.210711e+00,3,0,1.936819e+00,1.936819e+00,1
3.519827e+00,4.419768e+00,4.380941e+00,3,0,1.737010e+00,1.737010e+00,1
3.537005e+00,4.469834e+00,4.430294e+00,3,0,1.592268e+00,1.592268e+00,1
3.523389e+00,4.432766e+00,4.395008e+00,3,0,1.309680e+00,1.309680e+00,1
3.538423e+00,8.582218e+00,8.545160e+00,3,1,1.471518e+00,1.471896e+00,1
3.527710e+00,7.792639e+00,7.754087e+00,3,1,2.408784e+00,2.408787e+00,1
3.545391e+00,4.457939e+00,4.420042e+00,3,0,2.316246e+00,2.316247e+00,1
3.524693e+00,4.330557e+00,4.293919e+00,3,0,2.453430e+00,2.453431e+00,1
3.549370e+00,8.664690e+00,8.625031e+00,3,1,2.787905e+00,2.787939e+00,1
3.541355e+00,7.883921e+00,7.844925e+00,3,1,1.273916e+00,1.273917e+00,1
3.535065e+00,4.362155e+00,4.323959e+00,3,0,1.018706e+00,1.018707e+00,1
3.550417e+00,4.323716e+00,4.286051e+00,3,0,1.067858e+00,1.067859e+00,1
3.542195e+00,4.313352e+00,4.276037e+00,3,0,4.854902e-01,4.854911e-01,1
3.551668e+00,4.270718e+00,4.232883e+00,3,0,4.890555e-01,4.890558e-01,1
3.521169e+00,4.221458e+00,4.184961e+00,3,0,8.369502e-01,8.369513e-01,1
3.524496e+00,4.208528e+00,4.170895e+00,3,0,7.129199e-01,7.129201e-01,1
3.540387e+00,4.362650e+00,4.323244e+00,3,0,1.917661e+00,1.917666e+00,1
3.552060e+00,4.444668e+00,4.406929e+00,3,0,1.424675e+00,1.424676e+00,1
3.519158e+00,4.457169e+00,4.418850e+00,3,0,1.006635e+00,1.006635e+00,1
3.528513e+00,8.622092e+00,8.583069e+00,3,1,8.967762e-01,8.977854e-01,1
3.531377e+00,7.603922e+00,7.562876e+00,3,1,9.131064e-01,9.131069e-01,1
3.535818e+00,4.537278e+00,4.496813e+00,3,0,9.391669e-01,9.391676e-01,1
3.549072e+00,4.477113e+00,4.438877e+00,3,0,5.924107e-01,5.924110e-01,1
3.551437e+00,4.460331e+00,4.423141e+00,3,0,6.653456e-01,6.653465e-01,1
3.524014e+00,4.522968e+00,4.485846e+00,3,0,5.440110e-01,5.440116e-01,1
3.554366e+00,4.404175e+00,4.369020e+00,3,0,4.697491e-01,4.697495e-01,1
3.560094e+00,4.461866e+00,4.421949e+00,3,0,1.266003e+00,1.266005e+00,1
3.524167e+00,4.435246e+00,4.398108e+00,3,0,7.992273e-01,7.992282e-01,1
3.531401e+00,8.534067e+00,8.494139e+00,3,1,1.265643e+00,1.266490e+00,1
3.531545e+00,9.103582e+00,9.065151e+00,3,1,2.042498e+00,2.053415e+00,1
3.529692e+00,9.518755e+00,9.480715e+00,3,1,1.751242e+00,1.791994e+00,1
3.542816e+00,9.738301e+00,9.693861e+00,3,1,1.985310e+00,2.002464e+00,1
3.531480e+00,1.233988e+01,1.229906e+01,3,2,1.392088e+00,1.435957e+00,1
3.534411e+00,1.299452e+01,1.294303e+01,3,2,1.392299e+00,1.412918e+00,1
3.533478e+00,5.301705e+00,5.262852e+00,3,0,1.591716e+00,1.624824e+00,1
3.528310e+00,5.291155e+00,5.253077e+00,3,0,3.495685e+00,3.507408e+00,1
3.526709e+00,7.529425e+00,7.490873e+00,3,1,4.628517e+00,4.628521e+00,1
3.529874e+00,4.456770e+00,4.417896e+00,3,0,4.100854e+00,4.100854e+00,1
3.534455e+00,4.456513e+00,4.413128e+00,3,0,3.335047e+00,3.335047e+00,1
3.541739e+00,8.566490e+00,8.526802e+00,3,1,3.085547e+00,3.085864e+00,1
3.519050e+00,7.673211e+00,7.632971e+00,3,1,2.095509e+00,2.095508e+00,1
3.563253e+00,4.331996e+00,4.294157e+00,3,0,2.070092e+00,2.070094e+00,1
3.536714e+00,1.191695e+01,1.187682e+01,3,2,2.035866e+00,2.035701e+00,1
4.691468e+00,1.092042e+01,1.087904e+01,4,2,1.588496e+00,1.588496e+00,1
3.533578e+00,1.301092e+01,1.296997e+01,3,2,1.398559e+00,1.405478e+00,1
3.550594e+00,2.441488e+01,2.437592e+01,3,5,2.810601e+00,2.958842e+00,1
7.227248e+00,3.098161e+01,3.094006e+01,6,7,5.875778e+00,5.941006e+00,1
7.225805e+00,3.957547e+01,3.953314e+01,6,10,6.171900e+00,6.189089e+00,1
6.011878e+00,4.293750e+01,4.289412e+01,5,11,6.476589e+00,6.489372e+00,1
4.838052e+00,1.597504e+01,1.593423e+01,4,3,7.602692e+00,7.646453e+00,1
6.032775e+00,4.169552e+01,4.165411e+01,5,10,1.077588e+01,1.096063e+01,1
3.639328e+00,9.208831e+01,9.204006e+01,3,25,6.982380e+00,7.013353e+00,1
3.642184e+00,5.295064e+01,5.290675e+01,3,13,8.566748e+00,8.634423e+00,1
3.638757e+00,8.256562e+01,8.252406e+01,3,22,6.584596e+00,6.652938e+00,1
3.613504e+00,6.188887e+01,6.184292e+01,3,16,6.052217e+00,6.151011e+00,1
3.610300e+00,5.274390e+01,5.270100e+01,3,14,4.245815e+00,4.287071e+00,1
3.613425e+00,9.237056e+01,9.230590e+01,3,22,5.194111e+00,6.694900e+00,0
4.797370e+00,1.005754e+02,1.005330e+02,4,28,3.529349e+00,3.590027e+00,1
3.607250e+00,8.257559e+01,8.253074e+01,3,22,4.532171e+00,4.763146e+00,1
4.703311e+00,7.987158e+01,7.983279e+01,4,23,1.486786e+00,1.487096e+00,1
3.529750e+00,5.125717e+00,5.084991e+00,3,0,1.786141e+00,1.826197e+00,1
3.522717e+00,7.749856e+00,7.712126e+00,3,1,3.351663e+00,3.351668e+00,1
3.529232e+00,4.109365e+00,4.071712e+00,3,0,2.530584e+00,2.530584e+00,1
3.528586e+00,8.606994e+00,8.566856e+00,3,1,4.034600e+00,4.034614e+00,1
3.554176e+00,7.697911e+00,7.657051e+00,3,1,3.579299e+00,3.579299e+00,1
3.590996e+00,3.029670e+01,3.025699e+01,3,7,6.177846e+00,6.191026e+00,1
4.699888e+00,2.688262e+01,2.684116e+01,4,7,3.166762e+00,3.166760e+00,1
3.531637e+00,4.511761e+00,4.470825e+00,3,0,2.630344e+00,2.630345e+00,1
3.534970e+00,4.471127e+00,4.432917e+00,3,0,2.060737e+00,2.060737e+00,1
3.518786e+00,8.605943e+00,8.565903e+00,3,1,2.071769e+00,2.071842e+00,1
3.537668e+00,1.207168e+01,1.202703e+01,3,2,2.217201e+00,2.217596e+00,1
3.542341e+00,3.408858e+01,3.404880e+01,3,8,3.361775e+00,3.368598e+00,1
3.541780e+00,2.089484e+01,2.085519e+01,3,5,1.506013e+00,1.506010e+00,1
3.531793e+00,4.439831e+00,4.401207e+00,3,0,1.004534e+00,1.004534e+00,1
3.531304e+00,4.520797e+00,4.481077e+00,3,0,1.144421e+00,1.144422e+00,1
3.519385e+00,4.344865e+00,4.302740e+00,3,0,1.098104e+00,1.098104e+00,1
3.537207e+00,4.442496e+00,4.404068e+00,3,0,8.546088e-01,8.546089e-01,1
3.524590e+00,4.444475e+00,4.406214e+00,3,0,1.389632e+00,1.389635e+00,1
3.520063e+00,4.333412e+00,4.294157e+00,3,0,2.044769e+00,2.044771e+00,1
3.536359e+00,4.430106e+00,4.390955e+00,3,0,3.124003e+00,3.124006e+00,1
3.520783e+00,2.330208e+01,2.326417e+01,3,5,6.813263e+00,6.829993e+00,1
3.546324e+00,2.251990e+01,2.248192e+01,3,5,8.851838e+00,8.921534e+00,1
3.537135e+00,6.358048e+01,6.353903e+01,3,17,6.013437e+00,6.034190e+00,1
3.529715e+00,1.280686e+01,1.276398e+01,3,2,7.441722e+00,7.460848e+00,1
3.533207e+00,3.589627e+01,3.585505e+01,3,9,5.365206e+00,5.370102e+00,1
3.539364e+00,1.218303e+01,1.214194e+01,3,2,4.259569e+00,4.261252e+00,1
3.532176e+00,3.743302e+01,3.739214e+01,3,9,4.733789e+00,4.755211e+00,1
3.535963e+00,3.152975e+01,3.149009e+01,3,8,2.567459e+00,2.567507e+00,1
3.530106e+00,7.711131e+00,7.672071e+00,3,1,1.976094e+00,1.976098e+00,1
3.552953e+00,4.319123e+00,4.281998e+00,3,0,1.521715e+00,1.521715e+00,1
3.586555e+00,4.637076e+00,4.598856e+00,3,0,1.423653e+00,1.423653e+00,1
3.624677e+00,4.501549e+00,4.461288e+00,3,0,1.350149e+00,1.350149e+00,1
3.584602e+00,4.283682e+00,4.246950e+00,3,0,2.090408e+00,2.090410e+00,1
3.581538e+00,4.554086e+00,4.500866e+00,3,0,7.172679e-01,7.172675e-01,1
3.582618e+00,8.408371e+00,8.369923e+00,3,1,2.868752e+00,2.868761e+00,1
3.615623e+00,3.547180e+01,3.543186e+01,3,8,6.331752e+00,6.361417e+00,1
3.629725e+00,4.224166e+01,4.220200e+01,3,11,3.700706e+00,3.702053e+00,1
3.611434e+00,1.106833e+01,1.102996e+01,3,2,2.640180e+00,2.640180e+00,1
3.631865e+00,4.424742e+00,4.383087e+00,3,0,2.165545e+00,2.165546e+00,1
3.617969e+00,4.356384e+00,4.317999e+00,3,0,1.840381e+00,1.840381e+00,1
3.548223e+00,4.328319e+00,4.287243e+00,3,0,1.725522e+00,1.725523e+00,1
3.636567e+00,3.050896e+01,3.047109e+01,3,7,2.906655e+00,2.912418e+00,1
3.587756e+00,2.574771e+01,2.570796e+01,3,6,2.246863e+00,2.248911e+00,1
3.584885e+00,1.172946e+01,1.168895e+01,3,2,1.616614e+00,1.616621e+00,1
3.617247e+00,1.201013e+01,1.196885e+01,3,2,1.799486e+00,1.799507e+00,1
3.601162e+00,1.957523e+01,1.953506e+01,3,4,3.086724e+00,3.095310e+00,1
3.630090e+00,8.487583e+00,8.446932e+00,3,1,5.005682e+00,5.020890e+00,1
3.612842e+00,4.568406e+01,4.564381e+01,3,11,9.121833e+00,9.182879e+00,1
3.560049e+00,5.325725e+01,5.319381e+01,3,11,1.115427e+01,1.854611e+01,0
3.590994e+00,5.480722e+01,5.474591e+01,3,12,1.007043e+01,1.954634e+01,0
3.554960e+00,8.574680e+01,8.568597e+01,3,20,1.057506e+01,1.756773e+01,0
3.588983e+00,9.824422e+01,9.820104e+01,3,27,8.922952e+00,9.015107e+00,1
3.617606e+00,5.642034e+01,5.635810e+01,3,12,9.392487e+00,1.109072e+01,0
3.654508e+00,3.009391e+01,3.005219e+01,3,7,9.381626e+00,9.487959e+00,1
3.867213e+00,3.310704e+01,3.304911e+01,3,6,7.732726e+00,1.488849e+01,0
3.541133e+00,3.436391e+01,3.432369e+01,3,9,6.666582e+00,6.684583e+00,1
3.564161e+00,3.693187e+01,3.689098e+01,3,10,5.132124e+00,5.148093e+00,1
3.533253e+00,3.384445e+01,3.379011e+01,3,6,4.672916e+00,9.900960e+00,0
3.549172e+00,1.861043e+01,1.854825e+01,3,1,4.695729e+00,2.151058e+01,0
7.015792e+00,1.472094e+01,1.465726e+01,6,0,6.045490e+00,4.772538e+01,0
7.021475e+00,1.444923e+01,1.439214e+01,6,0,1.130372e+01,1.004904e+02,0
7.023649e+00,7.381739e+01,7.376075e+01,6,17,1.277322e+01,8.552699e+01,0
7.010986e+00,3.517482e+01,3.511691e+01,6,6,1.451734e+01,6.783930e+01,0
7.019163e+00,4.331176e+01,4.325318e+01,6,9,1.278526e+01,4.402605e+01,0
4.702152e+00,5.467473e+01,5.461359e+01,4,12,1.298039e+01,4.277288e+01,0
5.847595e+00,1.436229e+01,1.430416e+01,5,0,1.601431e+01,6.535771e+01,0
4.692458e+00,2.085825e+02,2.085166e+02,4,56,1.494784e+01,3.677469e+01,0
5.862496e+00,5.440091e+01,5.433607e+01,5,12,1.242839e+01,2.988985e+01,0
4.770760e+00,1.461456e+02,1.460848e+02,4,38,1.070114e+01,2.016838e+01,0
3.588815e+00,1.436387e+01,1.430011e+01,3,0,9.413395e+00,2.915718e+00,0
3.633010e+00,1.098823e+02,1.098223e+02,3,28,8.011501e+00,1.474891e+01,0
3.595907e+00,4.492811e+01,4.486942e+01,3,9,7.180288e+00,2.174626e+01,0
3.643024e+00,1.473511e+01,1.467299e+01,3,0,7.275090e+00,3.256340e+01,0
4.832905e+00,1.058403e+02,1.057961e+02,4,29,4.136719e+00,4.189773e+00,1
3.642475e+00,3.096847e+01,3.092813e+01,3,7,3.550207e+00,3.591049e+00,1
3.567946e+00,4.177861e+01,4.171681e+01,3,8,3.816836e+00,1.206245e+01,0
5.949119e+00,2.663411e+01,2.659297e+01,5,6,2.696734e+00,2.700242e+00,1
3.593473e+00,2.549031e+01,2.544975e+01,3,6,2.275617e+00,2.275252e+00,1
4.739462e+00,1.433972e+01,1.429892e+01,4,3,1.864526e+00,1.863265e+00,1
3.581878e+00,4.508135e+00,4.469156e+00,3,0,1.189082e+00,1.188941e+00,1
3.576569e+00,4.497387e+00,4.458666e+00,3,0,7.330731e-01,7.330764e-01,1
3.557627e+00,4.511115e+00,4.472971e+00,3,0,5.693770e-01,5.693781e-01,1
3.558712e+00,4.672742e+00,4.631042e+00,3,0,8.128153e-01,8.128162e-01,1
3.595890e+00,4.377161e+00,4.338980e+00,3,0,1.091043e+00,1.091045e+00,1
3.598775e+00,4.492712e+00,4.454136e+00,3,0,7.585822e-01,7.585823e-01,1
3.578604e+00,4.278303e+00,4.240990e+00,3,0,8.034108e-01,8.034123e-01,1
3.604311e+00,8.586561e+00,8.547068e+00,3,1,2.166613e+00,2.171958e+00,1
3.580989e+00,1.268183e+01,1.264405e+01,3,2,4.826710e+00,4.869636e+00,1
3.557253e+00,2.454439e+01,2.450514e+01,3,5,6.547698e+00,6.592852e+00,1
3.583169e+00,2.255668e+01,2.251911e+01,3,5,5.512693e+00,5.638306e+00,1
3.573353e+00,2.816938e+01,2.813196e+01,3,6,5.911360e+00,5.979826e+00,1
3.545013e+00,1.512005e+01,1.508307e+01,3,3,5.769724e+00,5.810993e+00,1
3.548583e+00,1.586678e+01,1.581502e+01,3,3,5.107623e+00,5.124426e+00,1
3.523485e+00,3.001225e+01,2.997589e+01,3,7,4.067953e+00,4.075662e+00,1
3.564350e+00,1.250394e+01,1.244688e+01,3,2,4.005881e+00,4.009466e+00,1
3.532791e+00,4.604195e+01,4.598379e+01,3,9,7.184578e+00,1.594576e+01,0
8.186026e+00,4.126571e+01,4.120827e+01,7,8,9.369497e+00,3.629683e+01,0
7.008134e+00,1.450145e+01,1.444387e+01,6,0,1.107333e+01,5.987133e+01,0
4.684988e+00,1.544972e+02,1.544380e+02,4,40,9.071471e+00,2.070385e+01,0
5.857938e+00,1.359435e+02,1.359031e+02,5,39,6.955208e+00,7.191919e+00,1
4.690093e+00,9.901505e+01,9.897399e+01,4,28,5.142208e+00,5.244527e+00,1
3.537068e+00,2.641214e+01,2.637172e+01,3,6,4.147817e+00,4.316478e+00,1
3.584513e+00,7.089735e+01,7.083702e+01,3,16,5.395577e+00,1.024136e+01,0
3.618040e+00,1.475973e+01,1.470089e+01,3,0,5.354947e+00,1.393788e+01,0
3.543392e+00,8.118575e+01,8.114386e+01,3,22,4.030277e+00,4.146895e+00,1
4.682844e+00,5.169409e+01,5.165315e+01,4,14,3.963768e+00,3.999289e+00,1
7.030975e+00,4.950525e+01,4.946709e+01,6,13,4.764282e+00,4.759016e+00,1
7.012422e+00,3.881963e+01,3.877902e+01,6,10,5.219058e+00,5.213347e+00,1
4.692492e+00,1.426997e+01,1.422906e+01,4,3,6.318214e+00,6.318219e+00,1
3.532782e+00,4.440318e+00,4.400253e+00,3,0,4.943589e+00,4.943588e+00,1
3.544096e+00,1.242225e+01,1.238322e+01,3,2,6.595577e+00,6.597977e+00,1
3.566726e+00,2.310410e+01,2.306604e+01,3,5,6.557511e+00,6.562130e+00,1
3.639799e+00,3.396800e+01,3.392291e+01,3,8,5.497747e+00,5.501003e+00,1
3.620550e+00,2.713625e+01,2.709603e+01,3,6,4.533802e+00,4.539688e+00,1
3.585736e+00,4.475992e+01,4.471874e+01,3,11,4.668757e+00,4.716894e+00,1
3.604541e+00,6.194163e+01,6.190109e+01,3,16,4.639538e+00,4.721035e+00,1
5.920915e+00,2.904421e+01,2.900410e+01,5,7,3.473682e+00,3.467519e+00,1
7.091141e+00,2.199708e+01,2.194381e+01,6,5,3.414839e+00,3.418178e+00,1
3.604324e+00,1.133039e+01,1.128507e+01,3,2,2.251420e+00,2.251329e+00,1
3.580452e+00,8.633235e+00,8.590698e+00,3,1,1.832193e+00,1.846453e+00,1
3.579002e+00,5.397754e+00,5.361080e+00,3,0,1.131149e+00,1.134205e+00,1
3.587733e+00,7.963341e+00,7.925987e+00,3,1,7.298305e-01,7.298309e-01,1
3.586356e+00,4.550790e+00,4.512072e+00,3,0,4.261488e-01,4.261489e-01,1
3.576563e+00,4.502347e+00,4.463196e+00,3,0,8.372420e-01,8.372437e-01,1
3.598862e+00,4.469375e+00,4.431009e+00,3,0,4.820380e-01,4.820381e-01,1
3.551780e+00,4.322273e+00,4.284859e+00,3,0,4.462188e-01,4.462195e-01,1
3.613363e+00,4.559464e+00,4.519939e+00,3,0,2.803777e-01,2.803781e-01,1
3.577650e+00,4.495990e+00,4.457951e+00,3,0,3.034212e-01,3.034215e-01,1
3.532419e+00,4.383529e+00,4.346132e+00,3,0,2.670210e-01,2.670213e-01,1
3.521003e+00,4.394096e+00,4.356146e+00,3,0,6.526929e-01,6.526940e-01,1
3.518389e+00,4.317812e+00,4.281044e+00,3,0,5.020400e-01,5.020407e-01,1
3.512490e+00,4.266126e+00,4.229069e+00,3,0,5.137367e-01,5.137385e-01,1
3.516189e+00,4.240375e+00,4.202843e+00,3,0,1.045373e+00,1.045375e+00,1
3.523391e+00,4.231338e+00,4.193068e+00,3,0,5.740980e-01,5.740979e-01,1
3.532158e+00,4.273669e+00,4.235029e+00,3,0,8.141947e-01,8.141954e-01,1
3.519805e+00,4.392157e+00,4.353285e+00,3,0,8.280298e-01,8.280303e-01,1
3.531201e+00,4.486460e+00,4.450083e+00,3,0,1.397132e+00,1.397134e+00,1
3.522408e+00,4.320835e+00,4.285097e+00,3,0,1.066808e+00,1.066808e+00,1
3.525066e+00,4.718149e+00,4.681110e+00,3,0,7.028165e-01,7.028165e-01,1
3.525888e+00,4.206692e+00,4.171133e+00,3,0,5.117558e-01,5.117563e-01,1
3.520673e+00,4.243586e+00,4.204035e+00,3,0,6.908000e-01,6.908009e-01,1
3.528284e+00,4.366631e+00,4.329205e+00,3,0,6.371184e-01,6.371186e-01,1
3.529803e+00,4.578195e+00,4.541159e+00,3,0,5.139302e-01,5.139304e-01,1
3.530034e+00,4.329473e+00,4.292011e+00,3,0,9.031656e-01,9.031668e-01,1
3.516101e+00,4.434587e+00,4.395962e+00,3,0,6.888059e-01,6.888064e-01,1
3.533724e+00,8.322116e+00,8.280039e+00,3,1,1.025958e+00,1.026027e+00,1
3.554818e+00,9.607103e+00,9.566069e+00,3,1,1.815993e+00,1.895112e+00,1
3.569221e+00,5.484078e+00,5.440712e+00,3,0,1.589367e+00,1.609447e+00,1
3.531739e+00,7.897551e+00,7.858038e+00,3,1,1.406360e+00,1.406360e+00,1
3.525892e+00,4.492225e+00,4.452944e+00,3,0,3.216361e+00,3.216366e+00,1
3.525002e+00,1.928171e+01,1.924419e+01,3,4,3.904246e+00,3.904653e+00,1
3.518797e+00,1.117831e+01,1.113820e+01,3,2,2.221349e+00,2.221347e+00,1
3.523632e+00,4.464737e+00,4.427195e+00,3,0,1.660905e+00,1.660905e+00,1
3.529287e+00,4.409354e+00,4.375219e+00,3,0,1.279156e+00,1.279157e+00,1
3.532846e+00,4.399847e+00,4.361153e+00,3,0,8.539426e-01,8.539427e-01,1
3.522857e+00,4.317380e+00,4.280806e+00,3,0,7.552345e-01,7.552349e-01,1
3.543481e+00,4.244017e+00,4.205942e+00,3,0,1.085236e+00,1.085237e+00,1
3.518968e+00,4.359687e+00,4.321814e+00,3,0,1.038544e+00,1.038545e+00,1
3.518478e+00,4.417314e+00,4.381895e+00,3,0,5.170589e-01,5.170600e-01,1
3.522387e+00,4.327811e+00,4.289150e+00,3,0,1.407128e+00,1.407131e+00,1
3.521725e+00,4.290035e+00,4.251719e+00,3,0,7.812430e-01,7.812428e-01,1
3.524540e+00,4.404173e+00,4.366159e+00,3,0,6.898950e-01,6.898956e-01,1
3.528773e+00,4.385967e+00,4.347086e+00,3,0,9.654239e-01,9.654252e-01,1
3.518773e+00,4.459330e+00,4.420996e+00,3,0,7.903661e-01,7.903664e-01,1
3.532155e+00,4.487929e+00,4.451036e+00,3,0,9.278464e-01,9.278471e-01,1
3.536843e+00,4.323338e+00,4.286051e+00,3,0,1.181538e+00,1.181539e+00,1
3.531354e+00,4.350636e+00,4.316092e+00,3,0,9.326566e-01,9.326573e-01,1
3.519812e+00,4.457791e+00,4.418135e+00,3,0,9.693112e-01,9.693126e-01,1
3.519945e+00,4.393149e+00,4.356861e+00,3,0,1.209063e+00,1.209060e+00,1
3.524823e+00,4.355714e+00,4.317045e+00,3,0,1.485909e+00,1.485906e+00,1
3.529396e+00,4.438165e+00,4.397154e+00,3,0,2.228569e+00,2.228571e+00,1
3.526323e+00,4.440530e+00,4.402161e+00,3,0,1.542833e+00,1.542833e+00,1
3.528032e+00,4.404666e+00,4.367113e+00,3,0,1.482659e+00,1.482661e+00,1
3.517673e+00,4.346721e+00,4.310131e+00,3,0,1.434518e+00,1.434519e+00,1
3.528587e+00,4.434700e+00,4.397631e+00,3,0,1.553203e+00,1.553204e+00,1
3.513455e+00,4.331944e+00,4.294157e+00,3,0,1.283908e+00,1.283908e+00,1
3.526407e+00,1.514955e+01,1.511502e+01,3,3,2.186985e+00,2.206634e+00,1
4.694383e+00,1.980084e+01,1.976418e+01,4,4,1.655152e+00,1.680447e+00,1
3.525110e+00,5.312322e+00,5.272150e+00,3,0,1.546005e+00,1.570950e+00,1
3.538177e+00,1.659414e+01,1.655507e+01,3,3,1.510829e+00,1.544874e+00,1
3.525611e+00,9.747962e+00,9.710073e+00,3,1,1.365929e+00,1.541317e+00,1
3.533046e+00,1.279687e+01,1.275706e+01,3,2,9.769544e-01,1.031691e+00,1
3.539167e+00,9.401104e+00,9.362936e+00,3,1,1.186194e+00,1.219948e+00,1
3.535244e+00,1.211623e+01,1.207805e+01,3,2,1.335772e+00,1.335773e+00,1
3.525563e+00,4.165430e+00,4.127026e+00,3,0,9.193940e-01,9.193943e-01,1
3.547996e+00,4.300488e+00,4.263878e+00,3,0,1.723914e+00,1.723917e+00,1
3.534412e+00,4.372574e+00,4.335880e+00,3,0,1.214820e+00,1.214820e+00,1
3.520524e+00,4.360242e+00,4.323006e+00,3,0,1.112151e+00,1.112151e+00,1
3.524348e+00,4.425816e+00,4.386663e+00,3,0,9.950771e-01,9.950774e-01,1
3.540001e+00,4.419716e+00,4.382133e+00,3,0,7.781696e-01,7.781709e-01,1
3.533988e+00,4.451391e+00,4.413128e+00,3,0,5.708918e-01,5.708922e-01,1
3.528122e+00,4.499045e+00,4.460812e+00,3,0,1.134289e+00,1.134291e+00,1
3.524033e+00,4.469756e+00,4.433155e+00,3,0,9.785758e-01,9.785764e-01,1
3.521885e+00,4.421062e+00,4.384756e+00,3,0,9.957048e-01,9.957060e-01,1
3.518047e+00,4.311768e+00,4.274845e+00,3,0,9.312338e-01,9.312341e-01,1
3.526704e+00,4.446677e+00,4.410982e+00,3,0,7.241155e-01,7.241160e-01,1
3.527274e+00,4.497925e+00,4.459858e+00,3,0,8.698008e-01,8.698014e-01,1
3.526258e+00,4.472303e+00,4.434109e+00,3,0,6.747750e-01,6.747752e-01,1
3.528991e+00,1.228013e+01,1.224303e+01,3,2,2.849904e+00,2.854025e+00,1
4.694696e+00,1.919427e+01,1.915407e+01,4,4,6.330301e+00,6.378635e+00,1
3.545441e+00,2.971584e+01,2.967525e+01,3,7,4.754230e+00,4.759158e+00,1
3.531852e+00,1.442038e+01,1.438212e+01,3,3,3.391445e+00,3.391444e+00,1
3.527470e+00,4.391834e+00,4.354954e+00,3,0,2.486303e+00,2.486304e+00,1
3.524230e+00,4.423370e+00,4.388809e+00,3,0,2.691497e+00,2.691498e+00,1
3.527595e+00,4.445664e+00,4.406929e+00,3,0,2.126830e+00,2.126830e+00,1
3.527315e+00,4.470927e+00,4.432678e+00,3,0,2.053936e+00,2.053937e+00,1
3.548051e+00,4.342655e+00,4.306078e+00,3,0,2.472411e+00,2.472414e+00,1
3.570137e+00,4.482647e+00,4.444122e+00,3,0,2.817038e+00,2.817040e+00,1
3.632933e+00,4.746922e+00,4.707098e+00,3,0,2.576724e+00,2.576725e+00,1
3.614120e+00,8.555003e+00,8.515120e+00,3,1,2.745804e+00,2.746477e+00,1
3.615501e+00,1.206166e+01,1.202273e+01,3,2,3.658614e+00,3.660584e+00,1
3.568294e+00,5.296614e+00,5.258083e+00,3,0,2.697954e+00,2.697995e+00,1
3.577844e+00,8.007912e+00,7.971048e+00,3,1,1.827133e+00,1.827133e+00,1
3.578483e+00,4.525693e+00,4.486799e+00,3,0,1.081239e+00,1.081239e+00,1
3.581601e+00,4.515230e+00,4.477978e+00,3,0,7.213900e-01,7.213901e-01,1
3.575369e+00,4.236969e+00,4.199982e+00,3,0,5.653582e-01,5.653587e-01,1
3.587405e+00,4.479047e+00,4.439831e+00,3,0,7.758419e-01,7.758430e-01,1
3.607541e+00,4.497302e+00,4.458904e+00,3,0,5.482202e-01,5.482203e-01,1
3.582141e+00,4.563422e+00,4.525185e+00,3,0,9.182349e-01,9.182361e-01,1
3.580508e+00,4.576818e+00,4.537106e+00,3,0,9.757143e-01,9.757148e-01,1
3.593663e+00,8.366148e+00,8.328915e+00,3,1,9.064538e-01,9.068171e-01,1
3.608536e+00,9.780451e+00,9.742022e+00,3,1,1.168356e+00,1.171757e+00,1
3.590972e+00,7.965798e+00,7.928133e+00,3,1,6.508452e-01,6.508451e-01,1
3.583454e+00,4.574050e+00,4.534960e+00,3,0,5.279663e-01,5.279667e-01,1
3.574596e+00,4.502276e+00,4.463911e+00,3,0,2.820806e+00,2.820813e+00,1
3.576964e+00,4.408417e+00,4.370928e+00,3,0,2.934671e+00,2.934672e+00,1
3.553036e+00,4.552521e+00,4.516125e+00,3,0,1.426255e+00,1.426254e+00,1
3.576111e+00,4.500201e+00,4.462004e+00,3,0,1.407421e+00,1.407422e+00,1
3.579702e+00,4.547787e+00,4.509926e+00,3,0,1.232366e+00,1.232366e+00,1
3.582231e+00,8.690874e+00,8.652925e+00,3,1,1.320887e+00,1.321161e+00,1
3.604454e+00,7.878463e+00,7.839918e+00,3,1,6.746930e-01,6.746929e-01,1
3.600166e+00,4.526952e+00,4.487991e+00,3,0,5.664931e-01,5.664937e-01,1
3.584211e+00,4.525266e+00,4.487276e+00,3,0,1.078177e+00,1.078178e+00,1
3.588893e+00,4.843031e+00,4.806995e+00,3,0,1.343451e+00,1.343452e+00,1
3.577388e+00,4.286111e+00,4.248142e+00,3,0,1.653656e+00,1.653657e+00,1
3.586378e+00,4.478068e+00,4.439116e+00,3,0,1.076626e+00,1.076626e+00,1
3.550160e+00,4.484098e+00,4.447937e+00,3,0,1.034409e+00,1.034410e+00,1
3.570054e+00,4.395519e+00,4.355669e+00,3,0,1.552396e+00,1.552398e+00,1
3.606546e+00,4.481723e+00,4.445076e+00,3,0,2.302813e+00,2.302815e+00,1
3.569700e+00,8.653647e+00,8.616686e+00,3,1,2.553651e+00,2.553654e+00,1
3.606644e+00,9.237181e+00,9.198189e+00,3,1,3.561506e+00,3.571209e+00,1
3.637531e+00,8.835721e+00,8.795023e+00,3,1,3.362413e+00,3.363134e+00,1
3.635336e+00,4.140029e+01,4.136014e+01,3,10,5.297659e+00,5.305356e+00,1
4.831231e+00,2.051542e+01,2.047515e+01,4,5,2.343240e+00,2.343239e+00,1
3.629031e+00,4.600002e+00,4.560232e+00,3,0,1.947129e+00,1.947129e+00,1
3.645372e+00,2.375153e+01,2.371287e+01,3,5,2.858715e+00,2.877276e+00,1
3.583779e+00,1.413730e+01,1.409578e+01,3,3,1.398132e+00,1.398130e+00,1
3.585864e+00,4.641282e+00,4.601717e+00,3,0,1.151306e+00,1.151306e+00,1
3.578737e+00,4.489505e+00,4.451990e+00,3,0,9.152027e-01,9.152030e-01,1
3.600187e+00,4.448484e+00,4.408836e+00,3,0,6.047515e-01,6.047514e-01,1
3.556378e+00,4.515317e+00,4.476070e+00,3,0,1.293956e+00,1.293958e+00,1
3.532308e+00,4.470921e+00,4.435062e+00,3,0,9.615447e-01,9.615449e-01,1
3.534757e+00,4.213847e+00,4.177809e+00,3,0,5.406527e-01,5.406528e-01,1
3.517797e+00,4.278364e+00,4.240751e+00,3,0,1.286582e+00,1.286585e+00,1
3.531256e+00,4.147036e+00,4.113197e+00,3,0,8.903102e-01,8.903102e-01,1
3.517832e+00,4.276228e+00,4.240036e+00,3,0,4.809728e-01,4.809731e-01,1
3.552281e+00,4.409596e+00,4.372120e+00,3,0,5.197167e-01,5.197170e-01,1
3.527114e+00,4.325504e+00,4.287958e+00,3,0,6.734622e-01,6.734631e-01,1
3.527737e+00,8.288696e+00,8.251905e+00,3,1,1.009694e+00,1.010403e+00,1
3.527390e+00,9.216126e+00,9.178162e+00,3,1,2.101388e+00,2.102034e+00,1
3.533236e+00,8.583134e+00,8.547068e+00,3,1,1.561054e+00,1.577170e+00,1
3.526062e+00,8.990641e+00,8.953094e+00,3,1,2.818469e+00,2.911838e+00,1
3.533793e+00,8.583104e+00,8.543015e+00,3,1,1.238298e+00,1.238454e+00,1
3.526390e+00,7.824252e+00,7.786036e+00,3,1,9.871147e-01,9.871152e-01,1
3.532830e+00,4.507227e+00,4.468918e+00,3,0,6.630299e-01,6.630299e-01,1
3.550132e+00,4.348475e+00,4.308701e+00,3,0,6.060089e-01,6.060098e-01,1
3.519290e+00,4.429155e+00,4.392147e+00,3,0,1.699433e+00,1.699437e+00,1
3.548685e+00,4.307588e+00,4.271030e+00,3,0,1.693248e+00,1.693249e+00,1
3.567667e+00,4.470984e+00,4.431963e+00,3,0,2.594568e+00,2.594539e+00,1
3.524098e+00,4.419690e+00,4.381180e+00,3,0,2.664810e+00,2.664803e+00,1
3.520562e+00,4.270129e+00,4.230976e+00,3,0,3.056805e+00,3.056806e+00,1
3.529795e+00,1.578860e+01,1.575112e+01,3,3,5.002223e+00,5.013682e+00,1
3.542199e+00,1.906655e+01,1.902699e+01,3,4,5.598307e+00,5.613791e+00,1
3.566036e+00,1.226613e+01,1.222801e+01,3,2,4.181825e+00,4.192291e+00,1
3.562764e+00,2.250635e+01,2.246785e+01,3,5,3.756681e+00,3.768145e+00,1
3.526637e+00,2.561119e+01,2.557302e+01,3,6,5.273752e+00,5.288253e+00,1
3.614233e+00,3.618573e+01,3.614593e+01,3,9,3.584809e+00,3.589659e+00,1
3.562112e+00,1.199013e+01,1.195002e+01,3,2,2.972100e+00,2.972264e+00,1
3.522985e+00,7.638940e+00,7.599831e+00,3,1,3.001142e+00,3.001146e+00,1
3.525271e+00,4.462624e+00,4.423857e+00,3,0,3.240728e+00,3.240730e+00,1
3.532396e+00,8.564472e+00,8.527994e+00,3,1,3.545594e+00,3.560315e+00,1
3.530653e+00,1.174700e+01,1.170778e+01,3,2,2.616920e+00,2.617063e+00,1
3.560994e+00,9.000170e+00,8.961916e+00,3,1,2.511459e+00,2.515551e+00,1
3.560763e+00,1.981464e+01,1.977587e+01,3,4,3.220633e+00,3.234496e+00,1
3.530831e+00,1.603733e+01,1.599789e+01,3,3,3.533525e+00,3.570071e+00,1
3.537392e+00,1.837749e+01,1.833916e+01,3,4,2.237913e+00,2.239580e+00,1
3.528833e+00,1.249086e+01,1.245189e+01,3,2,2.151198e+00,2.155143e+00,1
3.529548e+00,7.782162e+00,7.744074e+00,3,1,1.265726e+00,1.265694e+00,1
3.564140e+00,4.482201e+00,4.442930e+00,3,0,1.227043e+00,1.227003e+00,1

