1.100705e+00,1.216140e+00,9.131432e-01,2,0,0.000000e+00,0.000000e+00
1.597734e+00,2.464530e-01,2.319813e-01,3,0,1.417453e-01,1.417456e-01
1.626674e+00,2.255810e-01,2.150536e-01,3,0,2.558810e-01,2.558813e-01
1.612577e+00,2.201750e-01,2.098083e-01,3,0,3.427146e-01,3.427149e-01
1.606162e+00,2.190310e-01,2.088547e-01,3,0,1.063483e+00,1.063485e+00
1.614106e+00,2.195050e-01,2.088547e-01,3,0,1.146699e+00,1.146699e+00
1.607012e+00,2.191910e-01,2.081394e-01,3,0,6.337450e-01,6.337453e-01
1.607618e+00,2.191380e-01,2.081394e-01,3,0,8.174280e-01,8.174287e-01
1.628879e+00,2.188460e-01,2.079010e-01,3,0,2.384135e+00,2.384139e+00
1.602494e+00,2.246070e-01,2.138615e-01,3,0,2.691473e+00,2.691474e+00
1.627718e+00,2.243860e-01,2.131462e-01,3,0,5.229800e+00,5.229804e+00
1.606655e+00,2.202070e-01,2.100468e-01,3,0,4.135355e+00,4.135355e+00
1.608467e+00,2.193300e-01,2.090931e-01,3,0,3.792299e+00,3.792299e+00
1.614695e+00,2.192010e-01,2.079010e-01,3,0,6.063812e+00,6.063816e+00
1.609384e+00,2.194500e-01,2.090931e-01,3,0,6.527331e+00,6.527333e+00
1.608150e+00,2.187140e-01,2.079010e-01,3,0,4.246189e+00,4.246188e+00
1.602789e+00,2.195360e-01,2.090931e-01,3,0,4.431117e+00,4.431119e+00
1.601782e+00,2.246620e-01,2.140999e-01,3,0,4.089281e+00,4.089282e+00
1.602204e+00,2.245280e-01,2.090931e-01,3,0,3.333014e+00,3.333014e+00
1.607467e+00,2.197500e-01,2.079010e-01,3,0,3.198187e+00,3.198188e+00
1.608252e+00,2.193010e-01,2.081394e-01,3,0,2.864850e+00,2.864850e+00
1.605764e+00,2.192210e-01,2.090931e-01,3,0,2.733168e+00,2.733169e+00
1.608169e+00,2.198870e-01,2.090931e-01,3,0,2.117178e+00,2.117178e+00
1.600565e+00,2.194780e-01,2.088547e-01,3,0,1.780507e+00,1.780507e+00
1.601937e+00,2.241950e-01,2.090931e-01,3,0,1.074346e+00,1.074345e+00
1.603177e+00,2.242530e-01,2.138615e-01,3,0,9.111947e-01,9.111951e-01
1.605743e+00,2.191990e-01,2.090931e-01,3,0,8.638963e-01,8.638966e-01
1.606221e+00,2.182430e-01,2.069473e-01,3,0,2.599797e+00,2.599801e+00
1.607727e+00,2.190860e-01,2.090931e-01,3,0,1.412288e+00,1.412288e+00
1.608665e+00,2.194220e-01,2.088547e-01,3,0,2.612201e+00,2.612204e+00
1.607554e+00,2.187110e-01,2.081394e-01,3,0,1.685221e+00,1.685221e+00
1.602474e+00,2.187920e-01,2.081394e-01,3,0,1.663785e+00,1.663785e+00
1.601940e+00,2.284920e-01,2.181530e-01,3,0,1.415307e+00,1.415307e+00
1.601483e+00,2.247470e-01,2.140999e-01,3,0,1.351425e+00,1.351426e+00
1.606651e+00,2.195250e-01,2.090931e-01,3,0,1.419422e+00,1.419423e+00
1.606948e+00,2.191640e-01,2.079010e-01,3,0,1.354203e+00,1.354204e+00
1.607268e+00,2.186070e-01,2.081394e-01,3,0,1.421475e+00,1.421476e+00
1.607672e+00,2.189980e-01,2.090931e-01,3,0,1.522787e+00,1.522788e+00
1.607097e+00,2.203710e-01,2.098083e-01,3,0,2.061698e+00,2.061699e+00
1.603426e+00,2.186250e-01,2.079010e-01,3,0,3.557450e+00,3.557453e+00
1.603107e+00,2.236900e-01,2.121925e-01,3,0,1.011716e+00,1.011715e+00
1.602153e+00,2.183320e-01,2.071857e-01,3,0,1.384990e+00,1.384991e+00
1.608385e+00,2.191560e-01,2.081394e-01,3,0,8.269243e-01,8.269243e-01
1.608163e+00,2.189550e-01,2.088547e-01,3,0,1.020594e+00,1.020594e+00
1.608537e+00,2.193910e-01,2.090931e-01,3,0,8.128244e-01,8.128247e-01
1.607264e+00,2.188490e-01,2.081394e-01,3,0,1.127597e+00,1.127598e+00
1.601454e+00,2.198540e-01,2.090931e-01,3,0,1.614485e+00,1.614486e+00
1.603074e+00,2.239440e-01,2.129078e-01,3,0,2.844802e+00,2.844804e+00
1.602534e+00,2.246050e-01,2.138615e-01,3,0,2.803363e+00,2.803364e+00
1.605804e+00,2.188710e-01,2.081394e-01,3,0,2.003309e+00,2.003309e+00
1.608680e+00,2.186870e-01,2.079010e-01,3,0,1.428850e+00,1.428850e+00
1.606378e+00,2.191900e-01,2.090931e-01,3,0,1.284984e+00,1.284984e+00
1.607193e+00,2.198560e-01,2.090931e-01,3,0,1.078761e+00,1.078761e+00
1.606444e+00,2.188860e-01,2.081394e-01,3,0,1.542634e+00,1.542636e+00
1.603246e+00,2.194820e-01,2.090931e-01,3,0,2.206851e+00,2.206853e+00
1.600661e+00,2.241440e-01,2.131462e-01,3,0,1.703736e+00,1.703736e+00
1.602464e+00,2.188920e-01,2.081394e-01,3,0,2.586501e+00,2.586504e+00
1.607025e+00,2.187170e-01,2.079010e-01,3,0,3.763576e+00,3.763580e+00
1.606234e+00,6.166060e-01,6.058216e-01,3,1,6.045318e+00,6.048860e+00
1.605853e+00,1.299603e+00,1.288891e+00,3,3,3.243832e+00,3.243830e+00
1.621799e+00,2.192160e-01,2.079010e-01,3,0,2.479403e+00,2.479403e+00
1.606349e+00,2.325800e-01,2.210140e-01,3,0,2.641546e+00,2.641547e+00
1.606230e+00,2.190630e-01,2.088547e-01,3,0,1.564858e+00,1.564858e+00
1.632780e+00,2.190570e-01,2.079010e-01,3,0,1.123322e+00,1.123322e+00
1.604472e+00,2.195690e-01,2.088547e-01,3,0,1.929124e+00,1.929127e+00
1.603918e+00,2.194140e-01,2.090931e-01,3,0,1.295149e+00,1.295149e+00
1.603390e+00,2.234640e-01,2.129078e-01,3,0,8.907391e-01,8.907397e-01
1.601988e+00,2.247250e-01,2.138615e-01,3,0,7.771667e-01,7.771670e-01
1.607729e+00,2.191900e-01,2.081394e-01,3,0,8.759461e-01,8.759470e-01
1.607479e+00,2.191400e-01,2.090931e-01,3,0,9.264344e-01,9.264349e-01
1.608170e+00,2.190950e-01,2.088547e-01,3,0,7.902806e-01,7.902810e-01
1.606379e+00,2.189790e-01,2.079010e-01,3,0,8.732809e-01,8.732817e-01
1.606952e+00,2.195550e-01,2.088547e-01,3,0,6.352265e-01,6.352266e-01
1.600599e+00,2.189240e-01,2.079010e-01,3,0,9.577450e-01,9.577456e-01
1.628518e+00,2.246430e-01,2.138615e-01,3,0,8.228141e-01,8.228143e-01
1.600011e+00,2.252210e-01,2.140999e-01,3,0,1.137245e+00,1.137246e+00
1.607451e+00,2.199410e-01,2.090931e-01,3,0,1.033828e+00,1.033828e+00
1.605455e+00,2.196550e-01,2.090931e-01,3,0,8.327606e-01,8.327607e-01
1.606403e+00,2.191220e-01,2.079010e-01,3,0,1.328779e+00,1.328780e+00
1.606456e+00,2.183370e-01,2.079010e-01,3,0,3.934969e+00,3.934974e+00
1.606411e+00,2.183760e-01,2.079010e-01,3,0,1.816487e+00,1.816486e+00
1.601671e+00,2.190960e-01,2.090931e-01,3,0,1.369274e+00,1.369274e+00
1.601835e+00,2.238420e-01,2.131462e-01,3,0,1.211037e+00,1.211038e+00
1.599064e+00,2.187220e-01,2.081394e-01,3,0,2.360919e+00,2.360921e+00
1.607160e+00,2.190760e-01,2.079010e-01,3,0,1.261565e+00,1.261564e+00
1.604596e+00,2.192000e-01,2.079010e-01,3,0,1.979854e+00,1.979855e+00
1.607007e+00,2.190130e-01,2.081394e-01,3,0,2.533633e+00,2.533635e+00
1.634791e+00,2.186900e-01,2.081394e-01,3,0,1.163977e+00,1.163976e+00
1.603529e+00,2.201040e-01,2.090931e-01,3,0,1.607951e+00,1.607952e+00
1.613110e+00,2.232560e-01,2.081394e-01,3,0,1.013049e+00,1.013049e+00
1.601444e+00,2.268710e-01,2.148151e-01,3,0,1.110583e+00,1.110584e+00
1.605803e+00,2.196260e-01,2.090931e-01,3,0,9.546324e-01,9.546327e-01
1.608260e+00,2.199160e-01,2.090931e-01,3,0,1.007945e+00,1.007945e+00
1.619033e+00,2.188710e-01,2.081394e-01,3,0,8.836163e-01,8.836166e-01
1.607880e+00,2.199330e-01,2.090931e-01,3,0,1.829620e+00,1.829621e+00
1.608207e+00,2.193950e-01,2.090931e-01,3,0,1.113786e+00,1.113786e+00
1.602749e+00,2.190330e-01,2.079010e-01,3,0,6.697081e-01,6.697081e-01
1.602004e+00,2.243230e-01,2.138615e-01,3,0,7.023916e-01,7.023919e-01
1.602242e+00,2.246530e-01,2.140999e-01,3,0,2.248568e+00,2.248571e+00
1.606289e+00,2.193770e-01,2.090931e-01,3,0,3.016973e+00,3.016975e+00
1.608327e+00,2.191990e-01,2.090931e-01,3,0,2.905006e+00,2.905006e+00
1.607383e+00,2.193870e-01,2.090931e-01,3,0,2.640317e+00,2.640317e+00
1.607535e+00,2.191640e-01,2.079010e-01,3,0,2.733638e+00,2.733638e+00
1.606860e+00,2.195070e-01,2.088547e-01,3,0,3.547291e+00,3.547293e+00
1.603330e+00,2.193730e-01,2.079010e-01,3,0,5.068197e+00,5.068200e+00
1.601844e+00,2.241840e-01,2.131462e-01,3,0,5.675884e+00,5.675886e+00
1.603901e+00,2.236520e-01,2.131462e-01,3,0,3.089660e+00,3.089659e+00
1.607160e+00,2.191970e-01,2.088547e-01,3,0,3.143185e+00,3.143186e+00
1.607688e+00,2.194060e-01,2.090931e-01,3,0,2.813275e+00,2.813276e+00
1.607702e+00,2.191550e-01,2.090931e-01,3,0,3.007584e+00,3.007585e+00
1.614630e+00,2.200130e-01,2.090931e-01,3,0,2.531516e+00,2.531516e+00
1.605206e+00,2.187850e-01,2.081394e-01,3,0,2.176268e+00,2.176269e+00
1.601132e+00,2.190860e-01,2.079010e-01,3,0,2.027037e+00,2.027038e+00
1.602106e+00,2.251810e-01,2.138615e-01,3,0,1.974450e+00,1.974451e+00
1.628055e+00,2.197250e-01,2.088547e-01,3,0,1.786909e+00,1.786910e+00
1.606447e+00,2.200890e-01,2.088547e-01,3,0,1.873460e+00,1.873460e+00
1.632092e+00,2.191890e-01,2.079010e-01,3,0,1.281509e+00,1.281509e+00
1.606094e+00,2.198200e-01,2.088547e-01,3,0,1.472800e+00,1.472800e+00
1.608570e+00,2.196020e-01,2.088547e-01,3,0,1.875395e+00,1.875396e+00
1.605328e+00,2.186810e-01,2.081394e-01,3,0,2.947227e+00,2.947229e+00
1.602804e+00,2.272010e-01,2.090931e-01,3,0,1.815927e+00,1.815926e+00
1.602800e+00,2.240200e-01,2.129078e-01,3,0,2.757994e+00,2.757996e+00
1.606654e+00,2.189770e-01,2.079010e-01,3,0,1.390700e+00,1.390700e+00
1.605687e+00,2.194960e-01,2.079010e-01,3,0,1.133951e+00,1.133951e+00
1.607797e+00,2.190530e-01,2.079010e-01,3,0,1.850643e+00,1.850645e+00
1.607450e+00,2.196390e-01,2.079010e-01,3,0,2.086818e+00,2.086819e+00
1.606586e+00,2.189710e-01,2.079010e-01,3,0,1.313514e+00,1.313514e+00
1.601130e+00,2.191200e-01,2.088547e-01,3,0,1.290901e+00,1.290902e+00
1.602376e+00,2.239860e-01,2.129078e-01,3,0,1.331236e+00,1.331238e+00
1.601731e+00,2.243950e-01,2.138615e-01,3,0,1.168909e+00,1.168910e+00
1.607198e+00,2.196700e-01,2.088547e-01,3,0,8.367301e-01,8.367301e-01
1.608581e+00,2.189090e-01,2.090931e-01,3,0,1.328891e+00,1.328893e+00
1.607668e+00,2.190800e-01,2.081394e-01,3,0,2.151093e+00,2.151095e+00
1.607288e+00,2.187360e-01,2.079010e-01,3,0,3.092136e+00,3.092138e+00
1.608953e+00,2.188210e-01,2.079010e-01,3,0,4.573055e+00,4.573058e+00
1.603790e+00,2.186500e-01,2.079010e-01,3,0,4.055412e+00,4.055412e+00
1.601076e+00,2.240280e-01,2.140999e-01,3,0,3.560496e+00,3.560497e+00
1.601682e+00,2.189870e-01,2.081394e-01,3,0,3.523078e+00,3.523080e+00
1.606529e+00,2.185120e-01,2.081394e-01,3,0,1.776070e+00,1.776070e+00
1.608979e+00,2.196120e-01,2.090931e-01,3,0,1.456012e+00,1.456012e+00
1.606312e+00,2.190500e-01,2.088547e-01,3,0,2.156432e+00,2.156434e+00
1.608562e+00,2.188560e-01,2.079010e-01,3,0,3.008030e+00,3.008032e+00
1.602507e+00,2.194120e-01,2.088547e-01,3,0,2.982727e+00,2.982728e+00
1.601689e+00,2.237900e-01,2.129078e-01,3,0,3.993196e+00,3.993198e+00
1.603082e+00,2.240780e-01,2.129078e-01,3,0,4.727549e+00,4.727551e+00
1.608007e+00,2.186030e-01,2.081394e-01,3,0,3.292517e+00,3.292516e+00
1.606318e+00,2.194330e-01,2.081394e-01,3,0,3.115362e+00,3.115363e+00
1.608052e+00,2.186720e-01,2.081394e-01,3,0,2.334473e+00,2.334473e+00
1.606238e+00,2.188540e-01,2.081394e-01,3,0,2.441587e+00,2.441588e+00
1.606873e+00,2.193130e-01,2.081394e-01,3,0,1.729280e+00,1.729280e+00
1.601983e+00,2.194800e-01,2.090931e-01,3,0,1.576524e+00,1.576524e+00
1.600797e+00,2.240510e-01,2.140999e-01,3,0,1.301797e+00,1.301797e+00
1.600399e+00,2.249050e-01,2.140999e-01,3,0,2.106410e+00,2.106412e+00
1.607353e+00,2.193620e-01,2.090931e-01,3,0,2.802265e+00,2.802266e+00
1.620809e+00,2.184970e-01,2.081394e-01,3,0,5.610873e+00,5.610871e+00
2.142410e+00,2.190030e-01,2.079010e-01,4,0,5.816058e+00,5.815739e+00
2.146818e+00,2.246190e-01,2.140999e-01,4,0,6.174510e+00,6.174510e+00
1.607064e+00,2.187650e-01,2.081394e-01,3,0,3.180235e+00,3.180233e+00
1.603022e+00,2.183680e-01,2.079010e-01,3,0,2.631019e+00,2.631020e+00
1.602985e+00,2.243120e-01,2.131462e-01,3,0,2.716271e+00,2.716272e+00
1.620932e+00,2.244160e-01,2.129078e-01,3,0,3.754933e+00,3.754935e+00
1.606593e+00,2.189350e-01,2.081394e-01,3,0,2.857272e+00,2.857272e+00
1.606320e+00,2.189440e-01,2.081394e-01,3,0,2.528996e+00,2.528997e+00
1.607974e+00,2.195910e-01,2.090931e-01,3,0,2.670160e+00,2.670161e+00
1.615269e+00,1.427628e+00,1.416922e+00,3,3,4.927736e+00,4.940984e+00
1.609274e+00,1.243985e+00,1.232862e+00,3,3,3.370946e+00,3.370945e+00
1.633194e+00,2.199770e-01,2.100468e-01,3,0,2.759805e+00,2.759805e+00
1.607161e+00,2.197490e-01,2.088547e-01,3,0,2.445536e+00,2.445536e+00
1.628363e+00,2.189480e-01,2.079010e-01,3,0,1.766650e+00,1.766651e+00
1.601924e+00,2.255080e-01,2.150536e-01,3,0,1.481418e+00,1.481418e+00
1.602150e+00,2.249840e-01,2.138615e-01,3,0,1.226362e+00,1.226362e+00
1.609073e+00,2.188560e-01,2.079010e-01,3,0,1.504767e+00,1.504768e+00
1.609133e+00,2.185480e-01,2.069473e-01,3,0,3.656439e+00,3.656443e+00
1.614687e+00,2.194710e-01,2.079010e-01,3,0,3.925442e+00,3.925435e+00
1.604773e+00,9.081870e-01,8.971691e-01,3,2,6.471890e+00,6.472650e+00
3.213810e+00,9.077850e-01,8.969307e-01,6,2,6.165562e+00,6.160754e+00
2.148458e+00,2.940319e+00,2.929211e+00,4,7,1.081495e+01,1.088577e+01
3.205345e+00,2.327858e+00,2.316952e+00,6,6,1.071816e+01,1.073699e+01
2.173469e+00,6.755470e-01,6.639957e-01,4,1,1.133139e+01,1.136167e+01
1.609747e+00,9.073110e-01,8.969307e-01,3,2,8.143599e+00,8.143588e+00
1.608020e+00,2.194890e-01,2.081394e-01,3,0,5.936823e+00,5.936823e+00
1.670873e+00,1.771770e+00,1.760960e+00,3,4,6.394442e+00,6.416886e+00
1.610325e+00,2.101393e+00,2.089977e+00,3,5,6.156110e+00,6.320007e+00
3.201957e+00,4.311197e+00,4.299879e+00,6,11,5.905017e+00,5.977384e+00
3.204524e+00,7.745506e+00,7.734060e+00,6,21,8.650333e+00,9.913758e+00
3.201457e+00,4.059642e+00,4.047871e+00,6,11,6.966665e+00,7.244116e+00
3.202648e+00,4.677628e+00,4.666090e+00,6,13,6.560389e+00,6.657775e+00
3.200521e+00,2.570910e+00,2.558947e+00,6,6,9.010394e+00,9.220185e+00
4.793582e+00,1.962657e+00,1.950979e+00,9,5,8.914156e+00,8.994181e+00
2.135704e+00,2.264010e+00,2.253056e+00,4,6,5.812414e+00,5.812412e+00
1.627895e+00,2.202790e-01,2.100468e-01,3,0,7.020601e+00,7.020604e+00
1.629196e+00,2.214490e-01,2.100468e-01,3,0,5.809582e+00,5.809582e+00
1.603943e+00,2.264080e-01,2.160072e-01,3,0,4.923497e+00,4.923497e+00
1.627355e+00,2.262710e-01,2.148151e-01,3,0,4.124592e+00,4.124592e+00
1.611370e+00,2.207110e-01,2.090931e-01,3,0,4.986806e+00,4.986809e+00
1.606460e+00,2.207230e-01,2.100468e-01,3,0,3.882090e+00,3.882090e+00
1.613544e+00,2.200620e-01,2.090931e-01,3,0,3.561684e+00,3.561685e+00
1.608568e+00,2.217090e-01,2.110004e-01,3,0,2.494029e+00,2.494029e+00
1.611140e+00,2.204940e-01,2.090931e-01,3,0,2.447204e+00,2.447204e+00
1.608953e+00,6.282950e-01,6.170273e-01,3,1,4.298424e+00,4.300667e+00
1.604378e+00,6.835520e-01,6.730556e-01,3,1,4.664692e+00,4.677350e+00
1.607322e+00,1.022062e+00,1.011133e+00,3,2,6.089088e+00,6.145634e+00
2.661334e+00,1.720476e+00,1.709938e+00,5,4,6.026294e+00,6.040905e+00
1.608550e+00,9.058800e-01,8.950233e-01,3,2,3.789390e+00,3.789389e+00
1.607231e+00,2.200300e-01,2.090931e-01,3,0,2.578832e+00,2.578832e+00
1.608587e+00,2.202900e-01,2.090931e-01,3,0,2.219020e+00,2.219020e+00
1.601982e+00,2.200330e-01,2.088547e-01,3,0,2.647904e+00,2.647906e+00
1.602289e+00,2.255970e-01,2.150536e-01,3,0,1.572349e+00,1.572349e+00
1.615260e+00,2.254980e-01,2.138615e-01,3,0,1.077683e+00,1.077683e+00
1.606769e+00,2.330800e-01,2.219677e-01,3,0,1.922094e+00,1.922096e+00
1.606635e+00,2.206800e-01,2.088547e-01,3,0,1.342476e+00,1.342476e+00
1.606663e+00,2.207580e-01,2.098083e-01,3,0,1.630459e+00,1.630460e+00
1.606308e+00,2.210870e-01,2.100468e-01,3,0,2.270536e+00,2.270537e+00
1.608529e+00,2.205540e-01,2.100468e-01,3,0,3.454075e+00,3.454077e+00
1.601334e+00,2.200400e-01,2.090931e-01,3,0,4.638614e+00,4.638617e+00
1.600936e+00,2.251580e-01,2.140999e-01,3,0,5.358765e+00,5.358767e+00
1.601305e+00,2.250970e-01,2.140999e-01,3,0,3.420972e+00,3.420971e+00
1.606413e+00,2.196420e-01,2.090931e-01,3,0,2.566969e+00,2.566969e+00
1.608872e+00,2.206030e-01,2.100468e-01,3,0,2.109596e+00,2.109596e+00
1.606554e+00,2.195670e-01,2.090931e-01,3,0,1.883670e+00,1.883671e+00
1.605887e+00,2.209070e-01,2.100468e-01,3,0,1.430037e+00,1.430037e+00
1.606023e+00,2.199290e-01,2.090931e-01,3,0,1.077513e+00,1.077513e+00
1.601583e+00,2.201380e-01,2.100468e-01,3,0,1.240911e+00,1.240912e+00
1.601018e+00,2.251780e-01,2.140999e-01,3,0,9.649530e-01,9.649535e-01
1.600585e+00,2.208400e-01,2.098083e-01,3,0,9.211528e-01,9.211532e-01
1.632684e+00,2.209300e-01,2.110004e-01,3,0,1.141499e+00,1.141500e+00
1.606467e+00,2.213950e-01,2.100468e-01,3,0,1.118676e+00,1.118676e+00
1.632545e+00,2.199540e-01,2.088547e-01,3,0,1.205416e+00,1.205417e+00
1.606821e+00,2.209640e-01,2.100468e-01,3,0,2.312305e+00,2.312307e+00
1.606703e+00,2.199740e-01,2.090931e-01,3,0,2.508202e+00,2.508203e+00
1.600136e+00,2.202560e-01,2.088547e-01,3,0,2.479653e+00,2.479654e+00
1.601812e+00,2.252930e-01,2.150536e-01,3,0,1.805351e+00,1.805351e+00
1.601336e+00,2.204710e-01,2.088547e-01,3,0,1.846738e+00,1.846739e+00
1.607171e+00,2.200800e-01,2.088547e-01,3,0,2.179087e+00,2.179087e+00
1.605896e+00,2.207780e-01,2.100468e-01,3,0,2.314265e+00,2.314266e+00
1.607441e+00,2.203210e-01,2.100468e-01,3,0,2.015876e+00,2.015876e+00
1.607391e+00,2.200780e-01,2.100468e-01,3,0,1.812300e+00,1.812301e+00
1.601967e+00,2.198580e-01,2.088547e-01,3,0,1.612425e+00,1.612426e+00
1.600580e+00,2.254380e-01,2.150536e-01,3,0,1.779078e+00,1.779079e+00
1.601716e+00,2.246730e-01,2.140999e-01,3,0,1.276028e+00,1.276028e+00
1.604575e+00,2.200130e-01,2.090931e-01,3,0,1.685814e+00,1.685816e+00
1.607230e+00,2.202590e-01,2.100468e-01,3,0,6.689923e-01,6.689921e-01
1.631888e+00,2.208890e-01,2.100468e-01,3,0,5.957675e-01,5.957677e-01
1.607181e+00,2.217170e-01,2.110004e-01,3,0,6.669998e-01,6.670002e-01
1.633979e+00,2.202300e-01,2.100468e-01,3,0,4.855804e-01,4.855805e-01
1.601754e+00,2.211930e-01,2.100468e-01,3,0,7.653233e-01,7.653238e-01
1.600787e+00,2.259250e-01,2.150536e-01,3,0,1.667754e+00,1.667755e+00
1.600997e+00,2.259290e-01,2.150536e-01,3,0,1.680293e+00,1.680294e+00
1.607438e+00,2.203030e-01,2.088547e-01,3,0,1.146316e+00,1.146316e+00
1.606851e+00,2.201990e-01,2.090931e-01,3,0,1.075437e+00,1.075437e+00
1.607494e+00,2.201990e-01,2.090931e-01,3,0,8.107770e-01,8.107771e-01
1.608215e+00,2.208660e-01,2.100468e-01,3,0,9.553483e-01,9.553488e-01
1.608666e+00,2.201500e-01,2.090931e-01,3,0,1.587566e+00,1.587567e+00
1.602557e+00,2.205350e-01,2.088547e-01,3,0,2.104910e+00,2.104912e+00
1.602040e+00,2.270070e-01,2.160072e-01,3,0,2.980197e+00,2.980199e+00
1.600858e+00,2.249120e-01,2.138615e-01,3,0,2.338764e+00,2.338764e+00
1.607361e+00,2.205720e-01,2.100468e-01,3,0,1.407575e+00,1.407575e+00
1.607146e+00,2.206070e-01,2.100468e-01,3,0,1.451767e+00,1.451768e+00
1.606236e+00,2.205050e-01,2.098083e-01,3,0,1.810510e+00,1.810511e+00
1.607865e+00,2.200970e-01,2.088547e-01,3,0,1.319994e+00,1.319994e+00
1.605367e+00,2.202020e-01,2.090931e-01,3,0,1.043388e+00,1.043389e+00
1.601044e+00,2.202770e-01,2.100468e-01,3,0,8.778303e-01,8.778306e-01
1.601905e+00,2.254840e-01,2.140999e-01,3,0,7.934918e-01,7.934921e-01
1.600343e+00,2.199180e-01,2.088547e-01,3,0,6.939774e-01,6.939777e-01
1.631725e+00,2.207060e-01,2.088547e-01,3,0,5.126702e-01,5.126706e-01
1.605685e+00,2.209160e-01,2.110004e-01,3,0,4.577013e-01,4.577016e-01
1.605532e+00,2.206710e-01,2.100468e-01,3,0,3.505831e-01,3.505832e-01
1.606687e+00,2.198730e-01,2.090931e-01,3,0,5.535051e-01,5.535057e-01
1.600258e+00,2.197520e-01,2.090931e-01,3,0,1.434258e+00,1.434260e+00
1.599272e+00,2.253240e-01,2.100468e-01,3,0,9.701566e-01,9.701566e-01
1.601582e+00,2.259960e-01,2.148151e-01,3,0,1.052706e+00,1.052707e+00
1.607345e+00,2.201210e-01,2.100468e-01,3,0,1.017468e+00,1.017468e+00
1.606413e+00,2.206890e-01,2.100468e-01,3,0,1.150462e+00,1.150463e+00
1.608124e+00,2.200620e-01,2.098083e-01,3,0,1.352422e+00,1.352425e+00
1.605383e+00,2.206800e-01,2.100468e-01,3,0,1.875982e+00,1.875983e+00
1.607786e+00,2.202200e-01,2.100468e-01,3,0,1.586743e+00,1.586743e+00
1.627293e+00,2.200860e-01,2.088547e-01,3,0,1.170173e+00,1.170173e+00
1.599976e+00,2.269850e-01,2.169609e-01,3,0,1.038788e+00,1.038789e+00
1.601145e+00,2.257750e-01,2.150536e-01,3,0,2.685992e+00,2.685995e+00
1.605340e+00,2.200930e-01,2.100468e-01,3,0,3.424076e+00,3.424078e+00
1.607400e+00,2.200580e-01,2.090931e-01,3,0,2.087122e+00,2.087121e+00
1.606379e+00,2.203120e-01,2.100468e-01,3,0,1.260275e+00,1.260275e+00
1.606837e+00,2.205010e-01,2.088547e-01,3,0,1.766807e+00,1.766809e+00
1.605764e+00,2.210810e-01,2.110004e-01,3,0,1.994603e+00,1.994604e+00
1.601626e+00,2.202510e-01,2.100468e-01,3,0,2.060759e+00,2.060760e+00
1.599583e+00,2.252150e-01,2.138615e-01,3,0,1.519073e+00,1.519073e+00
1.602383e+00,2.255180e-01,2.140999e-01,3,0,1.189247e+00,1.189247e+00
1.605725e+00,2.208140e-01,2.098083e-01,3,0,1.022693e+00,1.022694e+00
1.606097e+00,2.202070e-01,2.088547e-01,3,0,1.099231e+00,1.099232e+00
1.604915e+00,2.202350e-01,2.100468e-01,3,0,8.028462e-01,8.028463e-01
1.607253e+00,2.199320e-01,2.088547e-01,3,0,2.489959e+00,2.489964e+00
1.601521e+00,2.196660e-01,2.079010e-01,3,0,1.230511e+00,1.230511e+00
1.601600e+00,2.242400e-01,2.079010e-01,3,0,1.013833e+00,1.013833e+00
1.601190e+00,2.258220e-01,2.150536e-01,3,0,9.259152e-01,9.259154e-01
1.605705e+00,2.204880e-01,2.100468e-01,3,0,1.229856e+00,1.229857e+00
1.633085e+00,2.206080e-01,2.100468e-01,3,0,1.970125e+00,1.970126e+00
1.609444e+00,2.211570e-01,2.100468e-01,3,0,2.395803e+00,2.395804e+00
1.606868e+00,2.208360e-01,2.100468e-01,3,0,3.764081e+00,3.764083e+00
1.632147e+00,2.197440e-01,2.088547e-01,3,0,2.466563e+00,2.466563e+00
1.601683e+00,2.215090e-01,2.100468e-01,3,0,2.389220e+00,2.389221e+00
1.662051e+00,2.226650e-01,2.121925e-01,3,0,2.365705e+00,2.365706e+00
1.603501e+00,2.409820e-01,2.281666e-01,3,0,3.527773e+00,3.527776e+00
1.635157e+00,6.403090e-01,6.289482e-01,3,1,4.639166e+00,4.639716e+00
1.611540e+00,5.658650e-01,5.550385e-01,3,1,2.593349e+00,2.593349e+00
1.635371e+00,2.383480e-01,2.260208e-01,3,0,1.332943e+00,1.332943e+00
1.608434e+00,2.239350e-01,2.129078e-01,3,0,1.248163e+00,1.248163e+00
1.634867e+00,2.315140e-01,2.200603e-01,3,0,1.240796e+00,1.240797e+00
1.601527e+00,2.226970e-01,2.110004e-01,3,0,8.343224e-01,8.343227e-01
1.600849e+00,2.268860e-01,2.160072e-01,3,0,4.817504e-01,4.817505e-01
1.599031e+00,2.265300e-01,2.160072e-01,3,0,6.523577e-01,6.523584e-01
1.606023e+00,2.205690e-01,2.100468e-01,3,0,7.482411e-01,7.482414e-01
1.606897e+00,2.205150e-01,2.098083e-01,3,0,5.167151e-01,5.167154e-01
1.605441e+00,2.204630e-01,2.100468e-01,3,0,6.895704e-01,6.895709e-01
1.606438e+00,2.201390e-01,2.090931e-01,3,0,6.316854e-01,6.316858e-01
1.606936e+00,2.199170e-01,2.090931e-01,3,0,2.186298e+00,2.186301e+00
1.600334e+00,2.200400e-01,2.098083e-01,3,0,3.751243e+00,3.751246e+00
1.601049e+00,2.252220e-01,2.138615e-01,3,0,1.731450e+00,1.731448e+00
1.600401e+00,2.206640e-01,2.100468e-01,3,0,2.865415e+00,2.865416e+00
1.607020e+00,2.198010e-01,2.088547e-01,3,0,1.609195e+00,1.609195e+00
1.605663e+00,2.207280e-01,2.100468e-01,3,0,1.468398e+00,1.468398e+00
1.605023e+00,2.206180e-01,2.100468e-01,3,0,1.645226e+00,1.645227e+00
1.632065e+00,2.203010e-01,2.090931e-01,3,0,1.646856e+00,1.646857e+00
1.607185e+00,2.213430e-01,2.100468e-01,3,0,3.376636e+00,3.376640e+00
1.610375e+00,2.202640e-01,2.100468e-01,3,0,1.845294e+00,1.845294e+00
1.607961e+00,9.317150e-01,9.200573e-01,3,2,4.900518e+00,4.900474e+00
2.135657e+00,8.491300e-01,8.380413e-01,4,2,2.137535e+00,2.137534e+00
1.621930e+00,2.206610e-01,2.088547e-01,3,0,5.068320e+00,5.068326e+00
1.609304e+00,2.215600e-01,2.110004e-01,3,0,6.114692e+00,6.114695e+00
1.609396e+00,2.198360e-01,2.088547e-01,3,0,3.878901e+00,3.878900e+00
1.649160e+00,2.212130e-01,2.098083e-01,3,0,3.343322e+00,3.343322e+00
1.603401e+00,2.466880e-01,2.329350e-01,3,0,2.856868e+00,2.856868e+00
1.602814e+00,2.272710e-01,2.160072e-01,3,0,2.374551e+00,2.374551e+00
1.600897e+00,2.292020e-01,2.179146e-01,3,0,1.730105e+00,1.730105e+00
1.608341e+00,2.232430e-01,2.119541e-01,3,0,1.257931e+00,1.257932e+00
1.605219e+00,2.203500e-01,2.100468e-01,3,0,9.503649e-01,9.503653e-01
1.607972e+00,2.205030e-01,2.100468e-01,3,0,8.018711e-01,8.018713e-01
1.607161e+00,2.197460e-01,2.088547e-01,3,0,7.625738e-01,7.625747e-01
1.606148e+00,2.202730e-01,2.100468e-01,3,0,7.243878e-01,7.243880e-01
1.600527e+00,2.196530e-01,2.088547e-01,3,0,9.468312e-01,9.468320e-01
1.601295e+00,2.247130e-01,2.138615e-01,3,0,1.279539e+00,1.279541e+00
1.600618e+00,2.202260e-01,2.088547e-01,3,0,2.673293e-01,2.673290e-01
1.604100e+00,2.198360e-01,2.090931e-01,3,0,3.122848e-01,3.122851e-01
1.605366e+00,2.210340e-01,2.100468e-01,3,0,3.372020e-01,3.372024e-01
1.605973e+00,2.199190e-01,2.088547e-01,3,0,5.905274e-01,5.905282e-01
1.607466e+00,2.199210e-01,2.088547e-01,3,0,5.685608e-01,5.685609e-01
1.602200e+00,2.208440e-01,2.100468e-01,3,0,8.429245e-01,8.429252e-01
1.601483e+00,2.255000e-01,2.148151e-01,3,0,1.355526e+00,1.355528e+00
1.628184e+00,2.258330e-01,2.150536e-01,3,0,9.647333e-01,9.647335e-01
1.600358e+00,2.210820e-01,2.098083e-01,3,0,8.932189e-01,8.932191e-01
1.607028e+00,2.202970e-01,2.088547e-01,3,0,9.334811e-01,9.334815e-01
1.605793e+00,2.456680e-01,2.338886e-01,3,0,7.599055e-01,7.599057e-01
1.605626e+00,2.208740e-01,2.100468e-01,3,0,8.574733e-01,8.574739e-01
1.607487e+00,2.205910e-01,2.090931e-01,3,0,6.073985e-01,6.073985e-01
1.601872e+00,2.202420e-01,2.098083e-01,3,0,5.950895e-01,5.950901e-01
1.600984e+00,2.257820e-01,2.150536e-01,3,0,4.704583e-01,4.704585e-01
1.599360e+00,2.257580e-01,2.150536e-01,3,0,6.460234e-01,6.460240e-01
1.605385e+00,2.201180e-01,2.090931e-01,3,0,1.924476e+00,1.924479e+00
1.607210e+00,2.208900e-01,2.100468e-01,3,0,1.559717e+00,1.559717e+00
1.606366e+00,2.202990e-01,2.090931e-01,3,0,2.414694e+00,2.414695e+00
1.607871e+00,2.202510e-01,2.090931e-01,3,0,2.136979e+00,2.136980e+00
1.606560e+00,2.203830e-01,2.100468e-01,3,0,1.731962e+00,1.731962e+00
1.598324e+00,2.203160e-01,2.100468e-01,3,0,1.392358e+00,1.392358e+00
1.601244e+00,2.244010e-01,2.129078e-01,3,0,9.753136e-01,9.753138e-01
1.599442e+00,2.256840e-01,2.148151e-01,3,0,1.641706e+00,1.641708e+00
1.612527e+00,2.203310e-01,2.098083e-01,3,0,1.856297e+00,1.856298e+00
1.607030e+00,2.201950e-01,2.100468e-01,3,0,1.142267e+00,1.142267e+00
1.608675e+00,2.200500e-01,2.090931e-01,3,0,9.002370e-01,9.002374e-01
1.607114e+00,2.201590e-01,2.100468e-01,3,0,1.186021e+00,1.186022e+00
1.606183e+00,2.204150e-01,2.090931e-01,3,0,1.365357e+00,1.365358e+00
1.602568e+00,2.201630e-01,2.090931e-01,3,0,7.489385e-01,7.489387e-01
1.600034e+00,2.254160e-01,2.148151e-01,3,0,8.770007e-01,8.770013e-01
1.600471e+00,2.202900e-01,2.088547e-01,3,0,8.516769e-01,8.516772e-01
1.606094e+00,2.208130e-01,2.098083e-01,3,0,1.353384e+00,1.353385e+00
1.631434e+00,2.202760e-01,2.088547e-01,3,0,2.248906e+00,2.248908e+00
1.608295e+00,2.207750e-01,2.100468e-01,3,0,2.541867e+00,2.541868e+00
1.606808e+00,2.198900e-01,2.100468e-01,3,0,1.622439e+00,1.622438e+00
1.600845e+00,2.205950e-01,2.088547e-01,3,0,1.303260e+00,1.303260e+00
1.600905e+00,2.250310e-01,2.138615e-01,3,0,1.170073e+00,1.170073e+00
1.601379e+00,2.257930e-01,2.150536e-01,3,0,1.052441e+00,1.052441e+00
1.604322e+00,2.198180e-01,2.090931e-01,3,0,1.139163e+00,1.139164e+00
1.606461e+00,2.206240e-01,2.088547e-01,3,0,8.687302e-01,8.687305e-01
1.605008e+00,2.207040e-01,2.100468e-01,3,0,7.248347e-01,7.248350e-01
1.606919e+00,2.206530e-01,2.100468e-01,3,0,1.006803e+00,1.006804e+00
1.608487e+00,2.203930e-01,2.100468e-01,3,0,1.458486e+00,1.458487e+00
1.600909e+00,2.198400e-01,2.090931e-01,3,0,8.552036e-01,8.552036e-01
1.600342e+00,2.256810e-01,2.150536e-01,3,0,6.535208e-01,6.535210e-01
1.598865e+00,2.258240e-01,2.150536e-01,3,0,9.690131e-01,9.690142e-01
1.606544e+00,2.201030e-01,2.090931e-01,3,0,5.563164e-01,5.563165e-01
1.605175e+00,2.203920e-01,2.100468e-01,3,0,4.709024e-01,4.709025e-01
1.605050e+00,2.201740e-01,2.100468e-01,3,0,1.236713e+00,1.236715e+00
1.607001e+00,2.207660e-01,2.100468e-01,3,0,1.874675e+00,1.874676e+00
1.606453e+00,2.203850e-01,2.100468e-01,3,0,1.461133e+00,1.461133e+00
1.601415e+00,2.202340e-01,2.098083e-01,3,0,1.699261e+00,1.699261e+00
1.601857e+00,2.257740e-01,2.138615e-01,3,0,1.799679e+00,1.799679e+00
1.600900e+00,2.205770e-01,2.090931e-01,3,0,1.774064e+00,1.774065e+00
1.606607e+00,2.206730e-01,2.100468e-01,3,0,2.415957e+00,2.415958e+00
1.607115e+00,2.204440e-01,2.088547e-01,3,0,3.066926e+00,3.066927e+00
1.606912e+00,2.201330e-01,2.100468e-01,3,0,2.565760e+00,2.565760e+00
1.605424e+00,2.206970e-01,2.090931e-01,3,0,2.160530e+00,2.160530e+00
1.601218e+00,2.194160e-01,2.090931e-01,3,0,1.523162e+00,1.523163e+00
1.601940e+00,2.249990e-01,2.140999e-01,3,0,1.640719e+00,1.640720e+00
1.601503e+00,2.251530e-01,2.140999e-01,3,0,9.743198e-01,9.743196e-01
1.605265e+00,2.205140e-01,2.100468e-01,3,0,9.630609e-01,9.630616e-01
1.604761e+00,2.200340e-01,2.100468e-01,3,0,7.496056e-01,7.496057e-01
1.605940e+00,2.206820e-01,2.100468e-01,3,0,4.680136e-01,4.680139e-01
1.607072e+00,2.202980e-01,2.088547e-01,3,0,7.777824e-01,7.777831e-01
1.605853e+00,2.204210e-01,2.100468e-01,3,0,4.931152e-01,4.931153e-01
1.599128e+00,2.199010e-01,2.088547e-01,3,0,9.652424e-01,9.652437e-01
1.601914e+00,2.253110e-01,2.140999e-01,3,0,9.636814e-01,9.636819e-01
1.600082e+00,2.204900e-01,2.088547e-01,3,0,9.468095e-01,9.468098e-01
1.607478e+00,2.207150e-01,2.100468e-01,3,0,6.932435e-01,6.932435e-01
1.606587e+00,2.199570e-01,2.100468e-01,3,0,1.086963e+00,1.086964e+00
1.605943e+00,2.203430e-01,2.090931e-01,3,0,6.370446e-01,6.370449e-01
1.604923e+00,2.202720e-01,2.090931e-01,3,0,8.735586e-01,8.735595e-01
1.600653e+00,2.205060e-01,2.090931e-01,3,0,1.836518e+00,1.836520e+00
1.601663e+00,2.249380e-01,2.140999e-01,3,0,1.565474e+00,1.565474e+00
1.600008e+00,2.253970e-01,2.140999e-01,3,0,2.215061e+00,2.215063e+00
1.607760e+00,2.202730e-01,2.100468e-01,3,0,1.529504e+00,1.529504e+00
1.605637e+00,2.201180e-01,2.090931e-01,3,0,3.539224e+00,3.539228e+00
1.606967e+00,2.204450e-01,2.100468e-01,3,0,2.941965e+00,2.941965e+00
1.610795e+00,2.208820e-01,2.100468e-01,3,0,3.300648e+00,3.300649e+00
1.607241e+00,2.208000e-01,2.100468e-01,3,0,3.864163e+00,3.864165e+00
1.601368e+00,2.206010e-01,2.100468e-01,3,0,3.498161e+00,3.498161e+00
1.608225e+00,2.255410e-01,2.150536e-01,3,0,3.138931e+00,3.138931e+00
1.600856e+00,2.254010e-01,2.148151e-01,3,0,2.532760e+00,2.532760e+00
1.606235e+00,2.203430e-01,2.100468e-01,3,0,2.294052e+00,2.294053e+00
1.606170e+00,2.207640e-01,2.100468e-01,3,0,2.103378e+00,2.103378e+00
1.607248e+00,2.206450e-01,2.100468e-01,3,0,1.731697e+00,1.731698e+00
1.604770e+00,2.206460e-01,2.100468e-01,3,0,1.708179e+00,1.708180e+00
1.606722e+00,2.204400e-01,2.100468e-01,3,0,1.347328e+00,1.347328e+00
1.600424e+00,2.206640e-01,2.098083e-01,3,0,1.624397e+00,1.624398e+00
1.600860e+00,2.253530e-01,2.138615e-01,3,0,2.228346e+00,2.228347e+00
1.601156e+00,2.206400e-01,2.100468e-01,3,0,2.713097e+00,2.713098e+00
1.605886e+00,2.201480e-01,2.090931e-01,3,0,2.104374e+00,2.104374e+00
1.603586e+00,2.205510e-01,2.100468e-01,3,0,1.527937e+00,1.527937e+00
1.606177e+00,2.199320e-01,2.088547e-01,3,0,9.337888e-01,9.337890e-01
1.606594e+00,2.208220e-01,2.100468e-01,3,0,1.169580e+00,1.169582e+00
1.601353e+00,2.203600e-01,2.100468e-01,3,0,2.473461e+00,2.473464e+00
1.602146e+00,2.251050e-01,2.140999e-01,3,0,2.180037e+00,2.180037e+00
1.601121e+00,2.250170e-01,2.138615e-01,3,0,1.286011e+00,1.286011e+00
1.605687e+00,2.204800e-01,2.088547e-01,3,0,1.851458e+00,1.851459e+00
1.608430e+00,2.202690e-01,2.088547e-01,3,0,2.528139e+00,2.528141e+00
1.607201e+00,2.204700e-01,2.100468e-01,3,0,1.837383e+00,1.837383e+00
1.607097e+00,2.204220e-01,2.098083e-01,3,0,1.548106e+00,1.548106e+00
1.606525e+00,2.203960e-01,2.100468e-01,3,0,1.512177e+00,1.512178e+00
1.599959e+00,2.196610e-01,2.090931e-01,3,0,1.466041e+00,1.466042e+00
1.602110e+00,2.245780e-01,2.140999e-01,3,0,4.432063e+00,4.432070e+00
1.601528e+00,2.244410e-01,2.140999e-01,3,0,1.890509e+00,1.890508e+00
1.605989e+00,2.202510e-01,2.090931e-01,3,0,1.589664e+00,1.589664e+00
1.605779e+00,2.204420e-01,2.100468e-01,3,0,1.401296e+00,1.401297e+00
1.606494e+00,2.208160e-01,2.100468e-01,3,0,1.057549e+00,1.057549e+00
1.604823e+00,2.205140e-01,2.098083e-01,3,0,1.262714e+00,1.262715e+00
1.600900e+00,2.206520e-01,2.098083e-01,3,0,7.486796e-01,7.486797e-01
1.599643e+00,2.247120e-01,2.098083e-01,3,0,9.018654e-01,9.018660e-01
1.629846e+00,2.261520e-01,2.150536e-01,3,0,1.132755e+00,1.132756e+00
1.600021e+00,2.211690e-01,2.100468e-01,3,0,9.940383e-01,9.940389e-01
1.605198e+00,2.209640e-01,2.100468e-01,3,0,1.815138e+00,1.815140e+00
1.614074e+00,2.196600e-01,2.090931e-01,3,0,7.566371e-01,7.566369e-01
1.607516e+00,2.205560e-01,2.100468e-01,3,0,2.450873e+00,2.450876e+00
1.610241e+00,2.208760e-01,2.110004e-01,3,0,2.833483e+00,2.833484e+00
1.599507e+00,2.209290e-01,2.100468e-01,3,0,2.592732e+00,2.592733e+00
1.604584e+00,2.252780e-01,2.140999e-01,3,0,2.083894e+00,2.083894e+00
1.602675e+00,2.270990e-01,2.160072e-01,3,0,1.384692e+00,1.384692e+00
1.615091e+00,2.204380e-01,2.098083e-01,3,0,1.260300e+00,1.260300e+00
1.608272e+00,2.218210e-01,2.110004e-01,3,0,1.452688e+00,1.452689e+00
1.607883e+00,2.198460e-01,2.090931e-01,3,0,2.982353e+00,2.982356e+00
1.608039e+00,2.211090e-01,2.110004e-01,3,0,2.364550e+00,2.364550e+00
1.606487e+00,2.197440e-01,2.090931e-01,3,0,1.255673e+00,1.255673e+00
1.600988e+00,2.206430e-01,2.088547e-01,3,0,1.142121e+00,1.142121e+00
1.598662e+00,2.255030e-01,2.138615e-01,3,0,1.090958e+00,1.090959e+00
1.600152e+00,2.250910e-01,2.140999e-01,3,0,1.594034e+00,1.594035e+00
1.612444e+00,2.204800e-01,2.100468e-01,3,0,1.016065e+00,1.016065e+00
1.606622e+00,2.211080e-01,2.100468e-01,3,0,1.132206e+00,1.132206e+00
1.611022e+00,2.207910e-01,2.098083e-01,3,0,1.634550e+00,1.634551e+00
1.606739e+00,2.203730e-01,2.088547e-01,3,0,3.071039e+00,3.071042e+00
1.607626e+00,2.210220e-01,2.110004e-01,3,0,3.973671e+00,3.973673e+00
1.602394e+00,2.200970e-01,2.098083e-01,3,0,5.546980e+00,5.546983e+00
1.601899e+00,2.250270e-01,2.140999e-01,3,0,4.380225e+00,4.380225e+00
1.601778e+00,2.249950e-01,2.140999e-01,3,0,5.128025e+00,5.128027e+00
1.608119e+00,2.198550e-01,2.090931e-01,3,0,4.604246e+00,4.604246e+00
1.606681e+00,2.202380e-01,2.100468e-01,3,0,3.664451e+00,3.664452e+00
1.609396e+00,2.202830e-01,2.088547e-01,3,0,2.961889e+00,2.961889e+00
1.606863e+00,2.203610e-01,2.090931e-01,3,0,2.230760e+00,2.230760e+00
1.605493e+00,2.200520e-01,2.098083e-01,3,0,2.263721e+00,2.263721e+00
1.601972e+00,2.199430e-01,2.088547e-01,3,0,3.153835e+00,3.153836e+00
1.601367e+00,2.325410e-01,2.219677e-01,3,0,3.231624e+00,3.231625e+00
1.600178e+00,1.336953e+00,1.325846e+00,3,3,5.401062e+00,5.423035e+00
3.197182e+00,6.328960e-01,6.217957e-01,6,1,7.077732e+00,7.112269e+00
2.136336e+00,1.594597e+00,1.583099e+00,4,4,4.205632e+00,4.205631e+00
1.608834e+00,2.199870e-01,2.088547e-01,3,0,5.009336e+00,5.009338e+00
1.609387e+00,2.201570e-01,2.090931e-01,3,0,3.310901e+00,3.310900e+00
1.607170e+00,2.203070e-01,2.100468e-01,3,0,2.958696e+00,2.958697e+00
1.602402e+00,2.209500e-01,2.100468e-01,3,0,3.251754e+00,3.251755e+00
1.601756e+00,2.255830e-01,2.138615e-01,3,0,3.220413e+00,3.220414e+00
1.601433e+00,2.208170e-01,2.100468e-01,3,0,3.180997e+00,3.180998e+00
1.609801e+00,2.205160e-01,2.098083e-01,3,0,2.701214e+00,2.701214e+00
1.610018e+00,2.202530e-01,2.100468e-01,3,0,2.398594e+00,2.398594e+00
1.610190e+00,2.203370e-01,2.100468e-01,3,0,1.443627e+00,1.443627e+00
1.607847e+00,2.206450e-01,2.100468e-01,3,0,1.780158e+00,1.780159e+00
1.603002e+00,2.203040e-01,2.098083e-01,3,0,1.400966e+00,1.400967e+00

