5.499440e-01,1.850860e+02,1.848719e+02,2,1000,0.000000e+00,-1.322697e-04,0
7.630790e-01,9.521235e+00,9.508848e+00,3,67,1.635291e-01,1.635295e-01,1
7.564870e-01,1.746960e-01,1.668930e-01,3,0,3.174432e-01,3.174440e-01,1
7.564990e-01,1.743220e-01,1.671314e-01,3,0,6.404139e-01,6.404150e-01,1
7.572160e-01,1.735790e-01,1.649857e-01,3,0,6.814706e-01,6.814713e-01,1
7.560740e-01,1.735560e-01,1.649857e-01,3,0,3.438185e+00,3.438088e+00,1
1.005693e+00,3.163250e-01,3.080368e-01,4,1,4.636225e+00,4.636490e+00,1
7.523530e-01,8.278480e-01,8.201599e-01,3,5,6.159594e+00,6.169700e+00,1
7.574740e-01,5.538430e-01,5.459785e-01,3,3,3.035497e+00,3.068641e+00,1
7.569470e-01,1.995950e-01,1.931190e-01,3,0,2.796309e+00,2.920549e+00,1
7.568860e-01,1.996590e-01,1.928806e-01,3,0,2.705750e+00,2.706144e+00,1
7.610970e-01,2.908500e-01,2.830029e-01,3,1,3.122070e+00,3.122073e+00,1
7.612270e-01,3.194850e-01,3.111362e-01,3,1,4.568900e+00,4.581939e+00,1
7.595540e-01,4.724120e-01,4.649162e-01,3,2,5.969611e+00,6.042836e+00,1
7.618610e-01,1.004098e+00,9.970665e-01,3,6,5.608875e+00,5.641421e+00,1
7.574710e-01,8.668080e-01,8.599758e-01,3,5,7.362583e+00,7.475031e+00,1
7.597880e-01,8.302110e-01,8.227825e-01,3,5,6.065645e+00,6.455270e+00,1
7.582100e-01,5.798190e-01,5.729198e-01,3,3,5.263549e+00,5.708430e+00,1
7.574100e-01,7.023240e-01,6.937981e-01,3,4,4.956472e+00,5.653168e+00,1
7.509450e-01,4.572020e-01,4.498959e-01,3,2,4.472192e+00,4.764005e+00,1
7.570670e-01,9.616120e-01,9.539127e-01,3,6,4.601750e+00,4.706628e+00,1
7.593120e-01,7.213800e-01,7.138252e-01,3,4,3.911328e+00,4.121327e+00,1
7.598450e-01,4.339580e-01,4.258156e-01,3,2,3.893765e+00,4.272720e+00,1
7.522770e-01,8.284750e-01,8.220673e-01,3,5,3.383779e+00,3.763188e+00,1
7.529500e-01,3.225040e-01,3.149509e-01,3,1,3.486811e+00,3.715210e+00,1
7.568630e-01,3.234230e-01,3.149509e-01,3,1,3.784527e+00,3.949834e+00,1
7.561790e-01,1.993790e-01,1.928806e-01,3,0,3.511143e+00,3.706187e+00,1
7.595270e-01,4.368970e-01,4.291534e-01,3,2,3.222728e+00,3.223843e+00,1
7.566890e-01,2.900920e-01,2.830029e-01,3,1,2.181583e+00,2.181571e+00,1
7.567030e-01,1.729610e-01,1.649857e-01,3,0,1.823585e+00,1.823491e+00,1
7.565450e-01,1.728840e-01,1.649857e-01,3,0,1.792374e+00,1.792376e+00,1
7.574420e-01,3.193270e-01,3.120899e-01,3,1,1.511176e+00,1.511189e+00,1
7.565250e-01,2.902020e-01,2.830029e-01,3,1,1.399704e+00,1.399705e+00,1
7.559980e-01,1.731740e-01,1.659393e-01,3,0,2.159047e+00,2.159050e+00,1
7.559600e-01,1.727280e-01,1.637936e-01,3,0,1.800255e+00,1.800256e+00,1
7.557100e-01,1.726680e-01,1.649857e-01,3,0,1.769064e+00,1.769065e+00,1
7.558370e-01,1.728650e-01,1.661777e-01,3,0,1.192308e+00,1.192309e+00,1
7.562270e-01,1.727260e-01,1.649857e-01,3,0,9.342009e-01,9.342014e-01,1
7.553420e-01,1.726350e-01,1.649857e-01,3,0,1.917423e+00,1.917426e+00,1
7.510210e-01,1.730220e-01,1.649857e-01,3,0,2.117949e+00,2.117950e+00,1
7.503270e-01,1.728670e-01,1.659393e-01,3,0,5.376700e+00,5.376708e+00,1
7.580430e-01,9.791990e-01,9.720325e-01,3,6,7.832850e+00,7.883943e+00,1
1.007398e+00,8.091910e-01,8.010864e-01,4,5,5.585845e+00,5.590411e+00,1
1.007820e+00,6.978860e-01,6.897449e-01,4,4,8.443650e+00,8.527817e+00,1
1.010725e+00,8.488280e-01,8.411407e-01,4,5,7.050510e+00,7.254161e+00,1
7.656700e-01,8.221890e-01,8.149147e-01,3,5,6.151737e+00,6.262030e+00,1
7.575900e-01,2.009640e-01,1.919270e-01,3,0,5.910810e+00,6.084504e+00,1
7.576580e-01,5.771200e-01,5.700588e-01,3,3,5.317389e+00,5.514563e+00,1
7.530670e-01,9.644580e-01,9.560585e-01,3,6,4.428854e+00,4.627466e+00,1
7.509340e-01,2.052260e-01,1.969337e-01,3,0,2.915228e+00,3.020316e+00,1
7.504440e-01,2.037950e-01,1.959801e-01,3,0,2.554874e+00,2.585210e+00,1
7.580170e-01,1.108409e+00,1.101017e+00,3,7,3.319741e+00,3.417832e+00,1
7.566950e-01,8.118380e-01,8.039474e-01,3,5,2.465058e+00,2.484505e+00,1
7.556300e-01,7.075270e-01,6.999969e-01,3,4,2.092401e+00,2.137173e+00,1
7.533230e-01,3.409960e-01,3.330708e-01,3,1,2.651240e+00,3.013368e+00,1
1.501577e+00,2.052960e-01,1.971722e-01,6,0,3.615131e+00,3.985677e+00,1
1.005931e+00,4.404090e-01,4.329681e-01,4,2,2.273157e+00,2.343280e+00,1
7.553000e-01,1.993590e-01,1.919270e-01,3,0,3.412858e+00,3.414815e+00,1
7.565470e-01,2.909430e-01,2.830029e-01,3,1,4.630289e+00,4.630293e+00,1
7.565290e-01,4.577320e-01,4.487038e-01,3,2,6.899091e+00,6.910318e+00,1
7.568290e-01,4.062760e-01,3.991127e-01,3,2,3.372377e+00,3.372376e+00,1
7.559800e-01,3.155370e-01,3.089905e-01,3,1,5.440236e+00,5.446489e+00,1
1.010261e+00,3.157321e+00,3.146887e+00,4,21,9.133859e+00,1.526857e+01,0
1.504321e+00,2.448280e+00,2.439022e+00,6,19,5.562215e+00,5.552950e+00,1
1.506931e+00,1.611445e+00,1.604080e+00,6,11,7.573710e+00,8.033567e+00,1
1.254237e+00,1.255247e+00,1.246929e+00,5,9,3.058565e+00,3.066800e+00,1
7.577120e-01,3.220150e-01,3.139973e-01,3,1,3.558775e+00,3.566834e+00,1
1.004650e+00,3.183120e-01,3.099442e-01,4,1,3.687113e+00,3.691004e+00,1
7.555340e-01,4.422410e-01,4.332066e-01,3,2,2.398145e+00,2.412989e+00,1
7.594930e-01,4.539900e-01,4.470348e-01,3,2,2.539506e+00,2.545481e+00,1
7.567910e-01,3.356350e-01,3.290176e-01,3,1,3.432518e+00,3.444192e+00,1
7.560710e-01,1.994320e-01,1.912117e-01,3,0,3.346319e+00,3.374317e+00,1
7.588680e-01,9.644280e-01,9.560585e-01,3,6,3.290571e+00,3.384572e+00,1
7.572060e-01,3.366690e-01,3.280640e-01,3,1,3.478104e+00,3.779175e+00,1
7.567140e-01,4.694340e-01,4.620552e-01,3,2,4.742820e+00,5.299200e+00,1
7.575980e-01,8.413500e-01,8.339882e-01,3,5,6.999287e+00,7.780633e+00,1
1.004067e+00,6.705260e-01,6.639957e-01,4,4,4.729687e+00,5.283282e+00,1
7.500480e-01,2.044590e-01,1.969337e-01,3,0,4.729969e+00,5.300493e+00,1
7.504940e-01,3.243050e-01,3.161430e-01,3,1,3.782372e+00,3.995148e+00,1
7.506780e-01,2.961500e-01,2.870560e-01,3,1,1.741797e+00,1.741795e+00,1
7.506180e-01,1.787350e-01,1.721382e-01,3,0,2.976777e+00,2.976783e+00,1
7.508020e-01,1.794080e-01,1.709461e-01,3,0,2.254521e+00,2.254520e+00,1
7.497490e-01,1.789200e-01,1.711845e-01,3,0,1.905486e+00,1.905486e+00,1
7.500650e-01,1.772010e-01,1.699924e-01,3,0,1.692351e+00,1.692352e+00,1
7.556060e-01,1.734650e-01,1.659393e-01,3,0,3.137586e+00,3.137592e+00,1
7.558510e-01,1.729730e-01,1.659393e-01,3,0,6.149601e+00,6.149608e+00,1
7.515710e-01,4.597920e-01,4.520416e-01,3,2,9.172877e+00,9.173347e+00,1
7.539740e-01,2.146226e+00,2.137899e+00,3,15,1.333648e+01,1.355562e+01,1
7.588240e-01,1.533997e+00,1.526117e+00,3,11,1.134660e+01,1.143798e+01,1
7.582320e-01,1.539308e+00,1.532078e+00,3,11,8.085257e+00,8.087268e+00,1
7.519410e-01,5.756660e-01,5.681515e-01,3,3,6.683478e+00,6.709859e+00,1
7.530780e-01,3.252590e-01,3.178120e-01,3,1,4.983693e+00,4.983769e+00,1
7.591860e-01,1.313596e+00,1.302242e+00,3,6,6.793476e+00,6.941058e+00,0
1.008143e+00,1.049414e+00,1.041174e+00,4,7,5.295373e+00,5.295435e+00,1
1.504705e+00,4.509520e-01,4.439354e-01,6,2,6.939467e+00,6.936807e+00,1
1.505395e+00,1.465527e+00,1.456976e+00,6,10,8.130694e+00,1.027100e+01,1
1.005038e+00,1.599846e+00,1.590729e+00,4,12,3.604671e+00,3.604666e+00,1
7.539300e-01,3.265830e-01,3.190041e-01,3,1,3.340120e+00,3.342779e+00,1
7.507660e-01,2.000910e-01,1.931190e-01,3,0,4.516669e+00,4.534981e+00,1
7.555630e-01,1.993250e-01,1.919270e-01,3,0,5.095234e+00,5.123693e+00,1
7.566350e-01,2.000880e-01,1.919270e-01,3,0,3.826536e+00,3.846379e+00,1
7.508700e-01,4.732150e-01,4.658699e-01,3,2,4.299020e+00,4.334814e+00,1
7.568130e-01,5.293070e-01,5.218983e-01,3,3,2.949996e+00,2.949996e+00,1
7.563610e-01,3.188600e-01,3.118515e-01,3,1,2.707971e+00,2.714416e+00,1
7.560240e-01,3.358150e-01,3.290176e-01,3,1,2.345814e+00,2.354801e+00,1
7.561920e-01,1.992190e-01,1.919270e-01,3,0,2.330040e+00,2.340822e+00,1
7.506770e-01,6.285690e-01,6.220341e-01,3,3,3.047044e+00,3.113892e+00,1
7.583620e-01,8.658460e-01,8.578300e-01,3,5,3.280930e+00,3.386082e+00,1
7.564250e-01,9.454880e-01,9.372234e-01,3,6,2.903133e+00,3.187467e+00,1
7.567400e-01,5.841370e-01,5.769730e-01,3,3,2.507598e+00,2.669158e+00,1
7.581280e-01,3.181890e-01,3.099442e-01,3,1,2.264228e+00,2.318387e+00,1
7.507000e-01,4.138070e-01,4.060268e-01,3,2,1.652549e+00,1.652530e+00,1
7.516410e-01,3.333620e-01,3.261566e-01,3,1,1.765878e+00,1.767031e+00,1
7.505450e-01,2.059890e-01,1.990795e-01,3,0,2.497803e+00,2.627709e+00,1
7.557580e-01,2.971130e-01,2.899170e-01,3,1,1.503580e+00,1.503578e+00,1
7.504840e-01,1.759130e-01,1.678467e-01,3,0,1.269619e+00,1.269619e+00,1
7.498700e-01,1.792930e-01,1.721382e-01,3,0,2.662012e+00,2.662015e+00,1
7.501680e-01,1.783930e-01,1.709461e-01,3,0,2.135958e+00,2.135958e+00,1
7.567640e-01,6.007800e-01,5.929470e-01,3,3,5.528974e+00,5.558897e+00,1
7.558540e-01,4.544340e-01,4.470348e-01,3,2,4.058172e+00,4.251624e+00,1
7.563030e-01,4.354290e-01,4.270077e-01,3,2,3.838453e+00,4.039868e+00,1
7.506070e-01,3.380420e-01,3.311634e-01,3,1,4.516856e+00,4.602084e+00,1
7.570680e-01,8.307520e-01,8.239746e-01,3,5,4.356604e+00,4.367500e+00,1
7.563020e-01,4.693260e-01,4.620552e-01,3,2,5.017701e+00,5.083576e+00,1
7.598900e-01,1.820395e+00,1.811981e+00,3,13,8.703929e+00,9.639482e+00,1
1.500992e+00,8.983150e-01,8.909702e-01,6,6,5.912551e+00,6.055218e+00,1
1.004971e+00,8.301460e-01,8.220673e-01,4,5,5.018074e+00,5.078467e+00,1
7.510330e-01,6.777300e-01,6.690025e-01,3,4,4.875985e+00,4.883563e+00,1
7.506620e-01,2.063730e-01,1.981258e-01,3,0,2.577981e+00,2.713371e+00,1
7.563010e-01,3.427120e-01,3.359318e-01,3,1,3.779423e+00,3.792058e+00,1
7.563550e-01,4.539200e-01,4.460812e-01,3,2,2.957045e+00,2.974477e+00,1
7.507640e-01,7.136220e-01,7.069111e-01,3,4,2.638000e+00,2.691403e+00,1
7.569300e-01,4.798630e-01,4.720688e-01,3,2,1.823358e+00,1.913322e+00,1
7.559930e-01,1.989540e-01,1.909733e-01,3,0,1.609287e+00,1.610908e+00,1
7.569290e-01,4.370020e-01,4.291534e-01,3,2,1.493898e+00,1.494155e+00,1
7.562810e-01,1.996720e-01,1.921654e-01,3,0,1.929854e+00,1.986583e+00,1
7.562230e-01,2.903830e-01,2.820492e-01,3,1,2.235079e+00,2.235081e+00,1
7.562970e-01,1.727760e-01,1.659393e-01,3,0,1.628590e+00,1.628590e+00,1
7.559510e-01,1.731320e-01,1.659393e-01,3,0,1.749674e+00,1.749675e+00,1
7.558730e-01,1.725010e-01,1.640320e-01,3,0,1.593223e+00,1.593224e+00,1
7.567880e-01,3.182110e-01,3.111362e-01,3,1,2.792650e+00,2.792654e+00,1
7.600900e-01,4.724510e-01,4.642010e-01,3,2,4.685465e+00,4.696194e+00,1
7.507350e-01,5.836650e-01,5.769730e-01,3,3,5.080844e+00,5.234798e+00,1
1.007107e+00,4.810820e-01,4.730225e-01,4,2,3.655162e+00,3.817719e+00,1
7.536350e-01,7.341150e-01,7.259846e-01,3,4,3.071643e+00,3.303004e+00,1
1.252911e+00,7.149710e-01,7.069111e-01,5,4,2.998595e+00,3.180559e+00,1
1.253063e+00,2.048870e-01,1.971722e-01,5,0,2.378945e+00,2.414124e+00,1
1.007371e+00,3.180080e-01,3.099442e-01,4,1,1.944172e+00,2.040000e+00,1
7.573430e-01,2.001890e-01,1.928806e-01,3,0,3.047904e+00,3.048140e+00,1
7.553580e-01,2.913530e-01,2.839565e-01,3,1,4.115110e+00,4.115115e+00,1
7.560390e-01,1.727600e-01,1.649857e-01,3,0,2.412815e+00,2.412813e+00,1
7.555820e-01,1.730830e-01,1.661777e-01,3,0,2.446415e+00,2.446416e+00,1
7.558960e-01,1.731840e-01,1.649857e-01,3,0,2.240654e+00,2.240654e+00,1
7.563760e-01,1.731450e-01,1.647472e-01,3,0,2.267386e+00,2.267387e+00,1
7.564020e-01,1.730700e-01,1.661777e-01,3,0,1.993353e+00,1.993354e+00,1
7.582680e-01,3.212220e-01,3.130436e-01,3,1,2.176966e+00,2.177491e+00,1
7.557820e-01,2.909090e-01,2.820492e-01,3,1,3.031046e+00,3.031049e+00,1
7.556720e-01,1.731080e-01,1.649857e-01,3,0,2.969192e+00,2.969193e+00,1
7.563810e-01,1.730150e-01,1.659393e-01,3,0,3.052853e+00,3.052854e+00,1
7.578320e-01,1.728880e-01,1.649857e-01,3,0,3.712927e+00,3.712931e+00,1
7.572720e-01,1.733210e-01,1.659393e-01,3,0,1.896609e+00,1.896609e+00,1
7.565110e-01,1.730100e-01,1.659393e-01,3,0,1.297063e+00,1.297063e+00,1
7.557690e-01,1.728560e-01,1.649857e-01,3,0,1.558702e+00,1.558704e+00,1
7.559720e-01,1.732480e-01,1.649857e-01,3,0,5.379141e-01,5.379148e-01,1
7.554690e-01,1.725160e-01,1.659393e-01,3,0,5.159869e-01,5.159873e-01,1
7.551510e-01,1.728970e-01,1.649857e-01,3,0,8.536527e-01,8.536540e-01,1
7.556820e-01,1.726410e-01,1.640320e-01,3,0,7.504396e-01,7.504398e-01,1
7.552960e-01,1.729380e-01,1.649857e-01,3,0,2.258262e+00,2.258267e+00,1
7.560210e-01,4.581520e-01,4.508495e-01,3,2,1.685140e+00,1.688989e+00,1
7.564190e-01,5.571790e-01,5.488396e-01,3,3,1.252724e+00,1.252901e+00,1
7.569790e-01,2.910680e-01,2.820492e-01,3,1,1.205366e+00,1.205367e+00,1
7.559690e-01,1.729030e-01,1.652241e-01,3,0,1.323809e+00,1.323811e+00,1
7.564120e-01,1.732290e-01,1.659393e-01,3,0,1.361021e+00,1.361021e+00,1
7.561280e-01,1.733800e-01,1.649857e-01,3,0,8.194810e-01,8.194810e-01,1
7.561400e-01,1.721120e-01,1.649857e-01,3,0,7.558736e-01,7.558746e-01,1
7.564910e-01,1.724910e-01,1.640320e-01,3,0,6.877739e-01,6.877748e-01,1
7.567570e-01,1.722980e-01,1.649857e-01,3,0,5.802275e-01,5.802278e-01,1
7.567610e-01,1.729390e-01,1.649857e-01,3,0,1.807307e+00,1.807310e+00,1
7.574890e-01,4.580590e-01,4.508495e-01,3,2,1.662279e+00,1.670297e+00,1
7.559540e-01,3.366560e-01,3.299713e-01,3,1,2.205957e+00,2.238840e+00,1
7.575000e-01,8.833300e-01,8.747578e-01,3,5,3.402233e+00,3.643937e+00,1
7.514440e-01,6.956620e-01,6.878376e-01,3,4,2.804718e+00,3.132723e+00,1
7.568580e-01,6.174150e-01,6.098747e-01,3,3,3.409132e+00,3.890976e+00,1
7.570490e-01,4.547430e-01,4.458427e-01,3,2,2.893484e+00,3.311885e+00,1
7.561180e-01,3.175760e-01,3.111362e-01,3,1,2.799540e+00,3.014173e+00,1
7.505200e-01,5.771570e-01,5.691051e-01,3,3,2.781917e+00,2.945201e+00,1
7.569050e-01,7.242030e-01,7.162094e-01,3,4,4.792941e+00,4.807857e+00,1
7.553330e-01,8.475370e-01,8.389950e-01,3,5,6.148511e+00,6.230398e+00,1
7.571920e-01,3.185830e-01,3.108978e-01,3,1,5.560492e+00,5.629480e+00,1
7.569270e-01,5.919200e-01,5.848408e-01,3,3,4.600527e+00,4.624088e+00,1
7.567110e-01,4.693390e-01,4.611015e-01,3,2,4.134781e+00,4.157539e+00,1
7.568210e-01,5.905610e-01,5.831718e-01,3,3,3.338624e+00,3.360086e+00,1
7.567770e-01,7.051480e-01,6.980896e-01,3,4,3.403786e+00,3.498657e+00,1
7.563660e-01,7.030880e-01,6.961823e-01,3,4,3.342627e+00,3.526540e+00,1
1.004559e+00,9.624680e-01,9.560585e-01,4,6,2.631259e+00,2.762632e+00,1
7.582270e-01,6.979670e-01,6.899834e-01,3,4,2.119331e+00,2.282793e+00,1
7.615250e-01,1.105285e+00,1.098156e+00,3,7,4.146191e+00,5.275299e+00,1
1.501735e+00,5.831750e-01,5.760193e-01,6,3,8.562667e+00,9.880705e+00,1
1.005295e+00,8.087500e-01,8.008480e-01,4,5,1.004853e+01,1.066392e+01,1
1.502120e+00,6.863760e-01,6.790161e-01,6,4,1.096190e+01,1.107477e+01,1
1.501759e+00,4.562320e-01,4.472733e-01,6,2,1.328941e+01,1.349160e+01,1
1.005632e+00,6.781150e-01,6.663799e-01,4,1,1.809574e+01,2.041401e+01,0
1.005055e+00,7.155190e-01,7.081032e-01,4,4,1.255306e+01,1.262386e+01,1
1.507273e+00,7.134440e-01,7.021427e-01,6,4,1.551698e+01,1.574198e+01,1
1.005390e+00,1.770172e+00,1.760006e+00,4,10,1.265602e+01,1.337507e+01,0
1.506126e+00,5.531190e-01,5.431175e-01,6,0,1.138379e+01,1.250769e+01,0
1.503855e+00,1.184649e+00,1.177073e+00,6,8,8.970716e+00,9.065387e+00,1
1.506746e+00,1.662027e+00,1.651764e+00,6,9,1.001838e+01,1.277625e+01,0
1.507308e+00,1.644133e+00,1.636982e+00,6,12,7.731952e+00,8.040775e+00,1
1.513064e+00,9.061785e+01,9.060693e+01,6,976,9.442157e+00,7.447688e+01,0
1.258505e+00,2.723112e+01,2.722287e+01,5,275,3.777866e+00,8.512426e+01,0
7.572610e-01,4.268580e-01,4.179478e-01,3,0,3.003346e+00,8.367733e+01,0
7.563930e-01,4.178670e-01,4.088879e-01,3,0,3.424980e+00,8.438250e+01,0
1.008291e+00,4.207430e-01,4.107952e-01,4,0,2.182479e+00,7.722429e+01,0
7.522770e-01,4.250850e-01,4.153252e-01,3,0,3.400689e+00,7.862105e+01,0
7.565250e-01,4.246770e-01,4.150867e-01,3,0,3.604638e+00,7.941044e+01,0
7.606810e-01,4.203150e-01,4.105568e-01,3,0,6.896880e+00,8.679143e+01,0
1.004850e+00,4.167460e-01,4.067421e-01,4,0,3.749577e+00,7.868808e+01,0
7.527650e-01,4.263330e-01,4.169941e-01,3,0,3.348520e+00,7.652585e+01,0
7.569050e-01,4.252230e-01,4.155636e-01,3,0,3.239056e+00,7.587213e+01,0
7.569700e-01,4.182750e-01,4.110336e-01,3,0,2.910150e+00,7.666563e+01,0
7.574420e-01,4.175560e-01,4.091263e-01,3,0,2.985147e+00,7.694538e+01,0
7.568480e-01,4.198310e-01,4.122257e-01,3,0,4.186856e+00,7.943016e+01,0
7.532980e-01,4.250960e-01,4.189014e-01,3,0,2.207219e+00,7.660282e+01,0
7.564400e-01,4.230940e-01,4.127026e-01,3,0,1.593289e+00,7.611025e+01,0
7.562260e-01,4.212980e-01,4.129410e-01,3,0,1.814652e+00,7.604842e+01,0
7.569250e-01,4.173270e-01,4.091263e-01,3,0,1.803950e+00,7.467953e+01,0
7.562640e-01,4.205420e-01,4.100800e-01,3,0,1.407025e+00,7.388682e+01,0
7.538910e-01,4.246450e-01,4.172325e-01,3,0,1.955592e+00,7.328618e+01,0
7.568490e-01,4.223500e-01,4.119873e-01,3,0,2.859262e+00,7.428802e+01,0
7.599290e-01,4.164550e-01,4.081726e-01,3,0,4.225542e+00,7.625339e+01,0
7.568310e-01,4.191640e-01,4.091263e-01,3,0,8.867356e+00,8.410524e+01,0
7.567190e-01,4.164670e-01,4.062653e-01,3,0,1.202506e+01,8.967954e+01,0
1.504363e+00,4.245610e-01,4.134178e-01,6,0,8.847311e+00,8.577171e+01,0
7.514770e-01,4.267370e-01,4.191399e-01,3,0,1.123423e+01,8.892256e+01,0
1.006777e+00,4.230120e-01,4.131794e-01,4,0,8.463917e+00,8.480381e+01,0
7.591020e-01,4.189600e-01,4.098415e-01,3,0,6.840927e+00,8.207514e+01,0
7.592850e-01,4.208200e-01,4.107952e-01,3,0,7.454639e+00,8.548643e+01,0
1.501907e+00,4.241360e-01,4.141331e-01,6,0,5.269092e+00,8.107165e+01,0
7.540670e-01,4.230620e-01,4.141331e-01,3,0,3.720816e+00,7.612801e+01,0
7.588820e-01,4.252610e-01,4.172325e-01,3,0,2.696370e+00,7.478499e+01,0
7.595520e-01,4.164960e-01,4.079342e-01,3,0,2.449486e+00,7.486387e+01,0
7.562920e-01,4.172950e-01,4.076958e-01,3,0,2.550985e+00,7.586714e+01,0
7.568210e-01,4.193520e-01,4.112720e-01,3,0,3.623427e+00,7.900606e+01,0
7.513990e-01,4.234440e-01,4.131794e-01,3,0,1.321645e+00,7.393748e+01,0
7.586660e-01,4.251740e-01,4.153252e-01,3,0,4.655798e+00,8.149310e+01,0
1.504115e+00,4.195440e-01,4.112720e-01,6,0,9.568811e+00,8.983034e+01,0
1.009554e+00,4.170870e-01,4.067421e-01,4,0,5.819027e+00,8.169028e+01,0
1.014818e+00,4.162830e-01,4.060268e-01,4,0,4.004749e+00,7.773455e+01,0
7.609290e-01,4.276220e-01,4.191399e-01,3,0,3.628570e+00,7.614380e+01,0
7.591600e-01,4.172920e-01,4.091263e-01,3,0,3.278535e+00,7.588044e+01,0
7.583360e-01,4.183530e-01,4.093647e-01,3,0,3.041234e+00,7.708895e+01,0
7.554770e-01,4.210090e-01,4.122257e-01,3,0,4.050603e+00,8.057000e+01,0
7.514110e-01,4.242960e-01,4.138947e-01,3,0,3.271551e+00,8.035847e+01,0
7.571590e-01,4.252690e-01,4.150867e-01,3,0,2.372955e+00,7.792747e+01,0
7.591500e-01,4.200030e-01,4.112720e-01,3,0,2.718515e+00,7.839221e+01,0
1.505553e+00,4.180490e-01,4.091263e-01,6,0,4.928565e+00,8.143132e+01,0
1.503879e+00,4.170420e-01,4.081726e-01,6,0,8.253862e+00,8.451330e+01,0
1.508229e+00,4.209250e-01,4.117489e-01,6,0,1.487587e+01,9.329510e+01,0
1.504251e+00,1.398108e+01,1.397109e+01,6,140,1.818765e+01,1.036042e+02,0
1.501709e+00,4.244910e-01,4.150867e-01,6,0,1.677468e+01,1.043734e+02,0
1.512465e+00,1.408534e+01,1.407599e+01,6,140,1.852554e+01,1.047573e+02,0
1.006355e+00,4.192440e-01,4.112720e-01,4,0,1.652536e+01,1.002846e+02,0
1.504386e+00,4.257460e-01,4.172325e-01,6,0,1.767522e+01,1.015236e+02,0
1.501538e+00,4.275690e-01,4.177094e-01,6,0,1.771087e+01,9.988312e+01,0
1.501775e+00,4.189510e-01,4.103184e-01,6,0,1.488955e+01,9.618436e+01,0
1.504607e+00,4.177480e-01,4.081726e-01,6,0,1.309347e+01,9.381946e+01,0
1.508162e+00,4.209750e-01,4.112720e-01,6,0,1.065770e+01,9.083377e+01,0
1.504858e+00,4.179310e-01,4.098415e-01,6,0,1.025751e+01,9.289001e+01,0
1.504136e+00,4.187870e-01,4.091263e-01,6,0,1.036345e+01,9.670706e+01,0
1.505231e+00,4.197640e-01,4.100800e-01,6,0,1.306325e+01,1.041805e+02,0
1.755386e+00,4.169580e-01,4.072189e-01,7,0,2.240734e+01,1.205666e+02,0
1.258376e+00,4.204940e-01,4.105568e-01,5,0,2.653136e+01,1.256825e+02,0
1.505558e+00,4.216620e-01,4.119873e-01,6,0,3.103555e+01,1.282435e+02,0
1.255854e+00,4.193140e-01,4.110336e-01,5,0,2.875893e+01,1.227505e+02,0
1.503378e+00,4.280780e-01,4.174709e-01,6,0,2.978475e+01,1.219421e+02,0
1.502861e+00,4.279760e-01,4.189014e-01,6,0,3.641486e+01,1.284910e+02,0
1.253370e+00,4.259450e-01,4.162788e-01,5,0,3.408670e+01,1.244988e+02,0
1.507479e+00,4.206390e-01,4.107952e-01,6,0,2.922717e+01,1.187444e+02,0
1.754386e+00,4.218350e-01,4.105568e-01,7,0,2.591334e+01,1.150697e+02,0
1.508205e+00,4.176400e-01,4.081726e-01,6,0,2.312556e+01,1.116304e+02,0
1.255413e+00,4.206190e-01,4.105568e-01,5,0,1.992231e+01,1.083962e+02,0
1.522752e+00,1.412971e+01,1.411986e+01,6,141,1.804290e+01,1.124914e+02,0
1.502698e+00,4.276590e-01,4.179478e-01,6,0,1.933378e+01,1.181671e+02,0
1.512398e+00,1.407391e+01,1.406384e+01,6,141,1.377234e+01,1.038211e+02,0
1.506055e+00,4.232550e-01,4.150867e-01,6,0,1.272478e+01,1.026415e+02,0
1.506973e+00,4.187440e-01,4.103184e-01,6,0,1.405444e+01,1.060844e+02,0
1.504613e+00,4.194130e-01,4.100800e-01,6,0,1.176776e+01,9.906335e+01,0
1.006788e+00,4.212770e-01,4.105568e-01,4,0,1.061047e+01,9.606626e+01,0
1.501442e+00,4.235350e-01,4.143715e-01,6,0,9.815576e+00,9.235444e+01,0
1.502141e+00,4.256340e-01,4.181862e-01,6,0,8.134473e+00,8.880769e+01,0
1.501436e+00,4.272520e-01,4.179478e-01,6,0,4.295549e+00,8.145367e+01,0
7.568020e-01,4.191820e-01,4.100800e-01,3,0,4.033924e+00,8.069274e+01,0
7.543560e-01,4.237570e-01,4.150867e-01,3,0,4.045209e+00,7.854485e+01,0
7.593900e-01,4.256270e-01,4.162788e-01,3,0,4.076286e+00,7.697651e+01,0
7.597310e-01,4.176410e-01,4.091263e-01,3,0,3.726540e+00,7.750076e+01,0
7.568290e-01,4.170120e-01,4.079342e-01,3,0,2.612026e+00,7.500604e+01,0
7.584240e-01,4.206230e-01,4.117489e-01,3,0,3.492545e+00,7.786775e+01,0
7.521320e-01,4.244500e-01,4.143715e-01,3,0,4.909763e+00,7.928140e+01,0
7.584280e-01,4.256380e-01,4.179478e-01,3,0,5.739588e+00,7.896171e+01,0
7.608140e-01,4.208070e-01,4.110336e-01,3,0,4.968606e+00,7.948749e+01,0
7.613770e-01,4.172520e-01,4.091263e-01,3,0,4.866031e+00,7.781387e+01,0
7.582700e-01,4.163750e-01,4.081726e-01,3,0,4.971257e+00,7.909181e+01,0
7.535970e-01,4.263920e-01,4.179478e-01,3,0,4.647706e+00,7.971172e+01,0
7.587480e-01,4.229370e-01,4.131794e-01,3,0,4.581211e+00,7.875309e+01,0
7.573870e-01,4.182080e-01,4.086494e-01,3,0,5.032462e+00,7.932370e+01,0
7.576980e-01,4.196040e-01,4.100800e-01,3,0,1.007790e+01,8.805908e+01,0
1.255849e+00,4.176430e-01,4.081726e-01,5,0,1.345675e+01,9.589613e+01,0
1.255657e+00,4.187470e-01,4.098415e-01,5,0,1.622785e+01,1.030508e+02,0
1.018171e+00,4.252910e-01,4.162788e-01,4,0,1.362234e+01,1.002416e+02,0
1.504590e+00,4.195310e-01,4.091263e-01,6,0,1.102233e+01,9.480057e+01,0
1.004538e+00,4.180940e-01,4.091263e-01,4,0,8.596646e+00,8.806324e+01,0
7.518790e-01,4.259990e-01,4.172325e-01,3,0,6.808038e+00,8.570708e+01,0
7.585240e-01,4.241150e-01,4.091263e-01,3,0,7.395014e+00,8.839099e+01,0
1.506073e+00,4.186350e-01,4.110336e-01,6,0,7.371392e+00,9.068474e+01,0
1.508069e+00,4.213130e-01,4.110336e-01,6,0,5.764514e+00,8.848189e+01,0
1.507058e+00,4.180710e-01,4.110336e-01,6,0,6.236365e+00,8.832005e+01,0
1.499967e+00,4.202460e-01,4.119873e-01,6,0,8.534455e+00,8.853626e+01,0
1.501115e+00,4.246750e-01,4.146099e-01,6,0,9.959397e+00,8.799308e+01,0
1.500363e+00,4.236840e-01,4.150867e-01,6,0,1.214505e+01,9.057731e+01,0
1.007281e+00,4.228590e-01,4.136562e-01,4,0,9.520290e+00,8.698695e+01,0
7.586450e-01,4.202450e-01,4.141331e-01,3,0,1.340860e+01,9.380522e+01,0
7.586370e-01,4.173900e-01,4.091263e-01,3,0,1.342304e+01,9.422455e+01,0
1.254393e+00,4.248130e-01,4.146099e-01,5,0,1.130113e+01,9.143413e+01,0
7.589480e-01,4.198300e-01,4.112720e-01,3,0,9.720005e+00,9.040510e+01,0
1.005602e+00,4.234570e-01,4.143715e-01,4,0,9.790307e+00,9.384372e+01,0
1.505398e+00,4.190780e-01,4.112720e-01,6,0,9.349603e+00,9.530356e+01,0
1.501013e+00,4.203930e-01,4.112720e-01,6,0,7.677319e+00,9.264112e+01,0
1.501565e+00,4.241900e-01,4.141331e-01,6,0,7.184295e+00,9.215122e+01,0
1.503027e+00,4.234670e-01,4.091263e-01,6,0,5.000630e+00,8.817692e+01,0
1.252297e+00,4.260520e-01,4.162788e-01,5,0,4.152874e+00,8.530248e+01,0
1.003599e+00,4.181200e-01,4.081726e-01,4,0,2.567922e+00,7.907253e+01,0
1.005984e+00,4.176650e-01,4.072189e-01,4,0,1.422067e+00,7.414268e+01,0
7.592320e-01,4.198240e-01,4.129410e-01,3,0,1.435147e+00,7.342574e+01,0
7.535060e-01,4.230740e-01,4.131794e-01,3,0,2.225756e+00,7.474753e+01,0
7.584360e-01,4.248000e-01,4.153252e-01,3,0,1.711427e+00,7.199393e+01,0
7.591060e-01,4.198500e-01,4.100800e-01,3,0,1.503605e+00,7.286397e+01,0
7.573750e-01,4.175380e-01,4.100800e-01,3,0,1.477859e+00,7.203303e+01,0
7.706000e-01,4.156090e-01,4.062653e-01,3,0,1.256388e+00,7.293824e+01,0
7.530040e-01,4.276800e-01,4.174709e-01,3,0,1.033452e+00,7.257400e+01,0
7.564940e-01,4.240830e-01,4.136562e-01,3,0,1.536539e+00,7.384834e+01,0
7.555030e-01,4.172210e-01,4.081726e-01,3,0,1.371850e+00,7.244610e+01,0
7.601060e-01,4.195110e-01,4.110336e-01,3,0,5.408334e-01,7.030033e+01,0
7.586820e-01,4.172640e-01,4.081726e-01,3,0,1.104769e+00,7.110240e+01,0
7.504620e-01,4.238860e-01,4.150867e-01,3,0,7.625498e-01,7.016847e+01,0
7.555500e-01,4.256950e-01,4.167557e-01,3,0,9.044855e-01,7.135714e+01,0
7.575140e-01,4.174640e-01,4.093647e-01,3,0,8.919858e-01,7.048520e+01,0
7.583870e-01,4.165130e-01,4.072189e-01,3,0,1.692716e+00,7.216762e+01,0
7.558580e-01,4.198030e-01,4.103184e-01,3,0,1.425011e+00,7.208978e+01,0
7.505540e-01,4.223530e-01,4.141331e-01,3,0,1.063074e+00,7.143596e+01,0
7.567740e-01,4.242950e-01,4.150867e-01,3,0,6.629446e-01,7.020697e+01,0
7.593490e-01,4.193570e-01,4.107952e-01,3,0,1.101761e+00,7.129851e+01,0
7.566090e-01,4.171950e-01,4.076958e-01,3,0,1.029011e+00,7.216332e+01,0
7.569080e-01,4.179680e-01,4.081726e-01,3,0,6.833892e-01,7.071102e+01,0
7.504450e-01,4.241930e-01,4.141331e-01,3,0,9.666373e-01,7.154380e+01,0
7.565790e-01,4.237020e-01,4.148483e-01,3,0,8.731060e-01,7.082437e+01,0
7.570550e-01,4.164130e-01,4.081726e-01,3,0,1.390822e+00,7.274271e+01,0
7.581590e-01,4.192000e-01,4.091263e-01,3,0,2.443202e+00,7.509241e+01,0
7.593540e-01,4.178350e-01,4.081726e-01,3,0,2.069026e+00,7.449721e+01,0
7.532450e-01,4.225980e-01,4.131794e-01,3,0,2.103022e+00,7.350321e+01,0
7.563890e-01,4.255440e-01,4.158020e-01,3,0,4.527917e+00,7.735544e+01,0
7.603370e-01,4.162330e-01,4.062653e-01,3,0,5.473522e+00,7.971664e+01,0
1.004556e+00,4.190020e-01,4.091263e-01,4,0,3.322616e+00,7.574476e+01,0
7.505960e-01,4.259250e-01,4.162788e-01,3,0,2.489345e+00,7.381200e+01,0
7.574980e-01,4.234960e-01,4.141331e-01,3,0,1.793925e+00,7.270155e+01,0
7.565300e-01,4.168820e-01,4.069805e-01,3,0,1.489397e+00,7.249705e+01,0
7.559690e-01,4.187730e-01,4.100800e-01,3,0,1.164913e+00,7.191730e+01,0
7.584800e-01,4.177060e-01,4.081726e-01,3,0,1.632872e+00,7.310727e+01,0
7.529170e-01,4.242910e-01,4.169941e-01,3,0,1.574934e+00,7.299806e+01,0
7.574460e-01,4.258370e-01,4.172325e-01,3,0,9.159348e-01,7.172455e+01,0
7.580020e-01,4.172410e-01,4.081726e-01,3,0,1.816744e+00,7.440268e+01,0
7.574060e-01,4.201160e-01,4.115105e-01,3,0,1.076612e+00,7.264186e+01,0
7.556870e-01,4.193740e-01,4.100800e-01,3,0,9.301057e-01,7.168274e+01,0
7.503360e-01,4.235260e-01,4.122257e-01,3,0,1.166574e+00,7.217086e+01,0
7.590730e-01,4.234320e-01,4.086494e-01,3,0,1.111823e+00,7.160296e+01,0
7.576890e-01,4.193970e-01,4.112720e-01,3,0,1.239799e+00,7.170989e+01,0
7.588500e-01,4.176760e-01,4.076958e-01,3,0,1.497574e+00,7.294528e+01,0
7.565480e-01,4.178660e-01,4.110336e-01,3,0,1.210338e+00,7.203399e+01,0
7.511410e-01,4.251910e-01,4.150867e-01,3,0,1.137424e+00,7.269841e+01,0
7.549620e-01,4.229470e-01,4.141331e-01,3,0,1.488260e+00,7.336953e+01,0
7.582460e-01,4.192720e-01,4.112720e-01,3,0,1.649405e+00,7.281790e+01,0
7.562540e-01,4.210450e-01,4.112720e-01,3,0,2.631394e+00,7.407324e+01,0
7.562480e-01,4.168850e-01,4.076958e-01,3,0,1.910631e+00,7.367619e+01,0
7.499980e-01,4.222250e-01,4.136562e-01,3,0,1.668246e+00,7.223793e+01,0
7.528600e-01,4.248740e-01,4.148483e-01,3,0,1.462700e+00,7.238162e+01,0
7.596810e-01,4.172650e-01,4.081726e-01,3,0,1.639058e+00,7.322808e+01,0
7.594780e-01,4.173690e-01,4.081726e-01,3,0,1.301585e+00,7.331010e+01,0
7.558390e-01,4.190570e-01,4.100800e-01,3,0,2.123046e+00,7.624670e+01,0
1.006403e+00,4.234560e-01,4.131794e-01,4,0,1.697564e+00,7.371869e+01,0
7.582220e-01,4.189350e-01,4.091263e-01,3,0,1.730443e+00,7.472384e+01,0
7.582250e-01,4.199410e-01,4.107952e-01,3,0,1.676822e+00,7.445447e+01,0
7.592510e-01,4.176880e-01,4.081726e-01,3,0,1.441220e+00,7.443841e+01,0
7.525330e-01,4.229700e-01,4.141331e-01,3,0,1.145016e+00,7.267698e+01,0
7.565090e-01,4.244950e-01,4.136562e-01,3,0,1.408596e+00,7.261448e+01,0
7.626320e-01,4.174820e-01,4.072189e-01,3,0,2.010236e+00,7.375922e+01,0
7.585430e-01,4.180930e-01,4.079342e-01,3,0,1.226937e+00,7.234245e+01,0
7.596330e-01,4.197880e-01,4.107952e-01,3,0,2.298264e+00,7.447091e+01,0
7.530980e-01,4.217070e-01,4.122257e-01,3,0,1.491987e+00,7.356732e+01,0
7.575060e-01,4.252280e-01,4.172325e-01,3,0,1.356372e+00,7.326934e+01,0
7.580250e-01,4.193810e-01,4.112720e-01,3,0,1.364592e+00,7.382801e+01,0
7.611580e-01,4.176500e-01,4.086494e-01,3,0,1.295325e+00,7.275243e+01,0
7.563790e-01,4.168300e-01,4.069805e-01,3,0,9.898042e-01,7.154349e+01,0
7.501370e-01,4.245530e-01,4.162788e-01,3,0,1.600908e+00,7.221211e+01,0
7.560340e-01,4.239250e-01,4.141331e-01,3,0,1.163289e+00,7.198872e+01,0
7.564460e-01,4.168040e-01,4.072189e-01,3,0,1.059579e+00,7.131842e+01,0
7.590220e-01,4.189940e-01,4.088879e-01,3,0,9.337043e-01,7.098451e+01,0
7.558640e-01,4.168770e-01,4.069805e-01,3,0,7.253383e-01,7.122140e+01,0
7.539470e-01,4.241200e-01,4.143715e-01,3,0,9.980460e-01,7.141805e+01,0
7.563770e-01,4.262750e-01,4.160404e-01,3,0,7.338772e-01,7.133716e+01,0
7.589960e-01,4.169060e-01,4.091263e-01,3,0,3.571120e+00,7.772556e+01,0
1.504899e+00,4.165140e-01,4.067421e-01,6,0,8.372316e+00,8.458549e+01,0
1.254532e+00,4.194570e-01,4.096031e-01,5,0,6.725819e+00,8.107114e+01,0
7.568030e-01,4.231440e-01,4.134178e-01,3,0,5.009303e+00,7.793193e+01,0
7.567720e-01,4.168410e-01,4.069805e-01,3,0,3.574384e+00,7.560769e+01,0
7.571110e-01,4.200630e-01,4.110336e-01,3,0,4.274107e+00,7.708739e+01,0
7.593830e-01,4.169910e-01,4.065037e-01,3,0,3.354008e+00,7.642450e+01,0
7.507650e-01,4.234400e-01,4.148483e-01,3,0,3.353349e+00,7.694492e+01,0
7.588330e-01,4.267580e-01,4.179478e-01,3,0,3.966252e+00,7.649158e+01,0
7.596690e-01,4.166640e-01,4.091263e-01,3,0,4.172494e+00,7.643980e+01,0
7.577230e-01,4.174270e-01,4.081726e-01,3,0,3.756116e+00,7.557553e+01,0
7.671080e-01,4.185310e-01,4.086494e-01,3,0,4.176302e+00,7.705591e+01,0
7.535290e-01,4.246510e-01,4.153252e-01,3,0,5.562518e+00,7.921774e+01,0
7.597500e-01,4.237630e-01,4.162788e-01,3,0,5.054131e+00,7.914083e+01,0
7.582790e-01,4.209080e-01,4.110336e-01,3,0,3.847335e+00,7.842044e+01,0
7.561040e-01,4.183800e-01,4.100800e-01,3,0,2.772073e+00,7.702439e+01,0
7.592610e-01,4.198470e-01,4.100800e-01,3,0,2.032709e+00,7.584088e+01,0
1.008242e+00,4.261240e-01,4.172325e-01,4,0,1.602723e+00,7.408711e+01,0
7.563100e-01,4.169540e-01,4.074574e-01,3,0,2.179515e+00,7.353595e+01,0
7.596860e-01,4.168270e-01,4.079342e-01,3,0,1.685778e+00,7.228287e+01,0
7.569080e-01,4.192150e-01,4.119873e-01,3,0,1.998235e+00,7.277363e+01,0
7.521040e-01,4.231100e-01,4.141331e-01,3,0,1.765886e+00,7.223455e+01,0
7.584740e-01,4.230800e-01,4.131794e-01,3,0,1.686377e+00,7.227089e+01,0
7.580050e-01,4.192010e-01,4.091263e-01,3,0,2.064760e+00,7.372099e+01,0
7.587780e-01,4.173000e-01,4.072189e-01,3,0,1.557390e+00,7.207835e+01,0
7.557760e-01,4.191370e-01,4.093647e-01,3,0,1.254291e+00,7.207079e+01,0
7.518080e-01,4.265600e-01,4.172325e-01,3,0,3.322260e+00,7.443407e+01,0
7.564540e-01,4.234390e-01,4.143715e-01,3,0,3.404595e+00,7.490653e+01,0
7.579770e-01,4.167340e-01,4.081726e-01,3,0,1.739828e+00,7.261127e+01,0
7.598110e-01,4.187920e-01,4.088879e-01,3,0,1.780208e+00,7.351356e+01,0
7.593200e-01,4.164500e-01,4.057884e-01,3,0,1.793992e+00,7.312749e+01,0
7.505600e-01,4.238200e-01,4.150867e-01,3,0,2.044609e+00,7.353855e+01,0
7.556880e-01,4.265310e-01,4.169941e-01,3,0,1.171411e+00,7.135058e+01,0
7.560500e-01,4.174410e-01,4.081726e-01,3,0,8.732555e-01,7.085506e+01,0
7.590040e-01,4.188240e-01,4.100800e-01,3,0,1.566977e+00,7.151911e+01,0
7.571880e-01,4.200630e-01,4.098415e-01,3,0,2.133215e+00,7.398118e+01,0
7.523150e-01,4.229730e-01,4.131794e-01,3,0,2.423238e+00,7.569607e+01,0
7.571640e-01,4.239780e-01,4.146099e-01,3,0,1.664377e+00,7.342692e+01,0
7.609930e-01,4.190960e-01,4.100800e-01,3,0,1.782511e+00,7.423858e+01,0
7.602950e-01,4.171330e-01,4.072189e-01,3,0,2.095371e+00,7.423979e+01,0
7.568410e-01,4.176060e-01,4.081726e-01,3,0,2.836702e+00,7.756256e+01,0
7.515160e-01,4.259580e-01,4.153252e-01,3,0,3.175415e+00,7.829514e+01,0
7.568030e-01,4.231720e-01,4.136562e-01,3,0,4.793005e+00,8.062213e+01,0
7.567080e-01,4.188110e-01,4.103184e-01,3,0,4.707928e+00,7.996591e+01,0
7.570460e-01,4.198920e-01,4.105568e-01,3,0,7.760229e+00,8.642042e+01,0
1.006252e+00,4.172420e-01,4.091263e-01,4,0,3.747898e+00,7.883213e+01,0
7.598070e-01,4.236520e-01,4.153252e-01,3,0,3.490995e+00,7.896635e+01,0
7.587920e-01,4.200460e-01,4.103184e-01,3,0,4.043765e+00,7.983979e+01,0
7.596210e-01,4.179570e-01,4.081726e-01,3,0,3.338565e+00,7.877922e+01,0
7.582080e-01,4.171200e-01,4.069805e-01,3,0,3.148992e+00,7.890607e+01,0
7.514520e-01,4.273550e-01,4.177094e-01,3,0,2.645740e+00,7.704492e+01,0
7.567460e-01,4.235900e-01,4.136562e-01,3,0,1.565547e+00,7.325767e+01,0
7.600770e-01,4.177990e-01,4.081726e-01,3,0,2.451566e+00,7.385313e+01,0
7.561330e-01,4.190280e-01,4.093647e-01,3,0,1.923631e+00,7.378163e+01,0
7.576560e-01,4.167200e-01,4.072189e-01,3,0,1.137744e+00,7.195517e+01,0
7.523820e-01,4.229730e-01,4.148483e-01,3,0,1.423832e+00,7.218999e+01,0
7.599620e-01,4.261950e-01,4.160404e-01,3,0,1.126329e+00,7.255076e+01,0
7.588690e-01,4.182340e-01,4.086494e-01,3,0,9.393456e-01,7.205452e+01,0
7.588240e-01,4.186260e-01,4.100800e-01,3,0,9.938702e-01,7.233200e+01,0
7.553440e-01,4.199480e-01,4.119873e-01,3,0,1.134980e+00,7.193313e+01,0
7.509720e-01,4.226120e-01,4.127026e-01,3,0,1.406340e+00,7.246233e+01,0
7.573220e-01,4.259060e-01,4.172325e-01,3,0,3.624410e+00,7.681940e+01,0
7.579030e-01,4.202740e-01,4.112720e-01,3,0,2.850545e+00,7.531696e+01,0
7.563980e-01,4.184300e-01,4.091263e-01,3,0,4.262350e+00,7.765733e+01,0
7.570160e-01,4.163550e-01,4.072189e-01,3,0,2.226142e+00,7.557926e+01,0
7.510980e-01,4.267590e-01,4.179478e-01,3,0,1.878568e+00,7.567731e+01,0
7.593090e-01,4.239370e-01,4.141331e-01,3,0,1.533683e+00,7.455868e+01,0
7.583520e-01,4.172080e-01,4.081726e-01,3,0,1.265543e+00,7.285754e+01,0
7.599140e-01,4.195840e-01,4.122257e-01,3,0,2.392836e+00,7.361246e+01,0
7.557140e-01,4.161460e-01,4.057884e-01,3,0,2.433847e+00,7.403533e+01,0
7.523290e-01,4.254490e-01,4.162788e-01,3,0,3.925436e+00,7.647998e+01,0
7.581720e-01,4.254170e-01,4.169941e-01,3,0,4.115478e+00,7.674041e+01,0
7.567270e-01,4.171550e-01,4.065037e-01,3,0,4.760285e+00,7.833052e+01,0
7.592100e-01,4.168570e-01,4.067421e-01,3,0,7.321901e+00,8.261181e+01,0
1.005663e+00,4.195450e-01,4.096031e-01,4,0,8.196992e+00,8.407166e+01,0
7.568660e-01,4.248650e-01,4.150867e-01,3,0,6.249412e+00,8.073268e+01,0
7.569230e-01,4.187880e-01,4.091263e-01,3,0,5.581939e+00,8.020149e+01,0
7.570240e-01,4.199220e-01,4.122257e-01,3,0,7.746103e+00,8.316102e+01,0
7.560400e-01,4.170150e-01,4.081726e-01,3,0,5.294824e+00,7.938279e+01,0
7.509430e-01,4.255350e-01,4.155636e-01,3,0,4.540174e+00,7.811158e+01,0
7.579450e-01,4.255360e-01,4.177094e-01,3,0,4.349071e+00,7.674168e+01,0
7.582030e-01,4.170330e-01,4.081726e-01,3,0,4.449131e+00,7.732977e+01,0
7.584920e-01,4.166680e-01,4.069805e-01,3,0,4.616703e+00,7.859032e+01,0
7.591210e-01,4.198820e-01,4.110336e-01,3,0,3.861937e+00,7.691543e+01,0
7.512040e-01,4.225670e-01,4.131794e-01,3,0,3.874948e+00,7.771515e+01,0
7.573990e-01,4.235960e-01,4.146099e-01,3,0,4.892058e+00,8.114541e+01,0
1.503770e+00,4.194930e-01,4.100800e-01,6,0,5.510496e+00,8.375151e+01,0
1.501062e+00,4.170480e-01,4.076958e-01,6,0,3.437018e+00,8.008122e+01,0
1.255171e+00,4.250770e-01,4.162788e-01,5,0,3.678490e+00,8.036539e+01,0
1.256041e+00,4.264170e-01,4.158020e-01,5,0,2.483581e+00,7.752689e+01,0
1.506685e+00,4.164540e-01,4.081726e-01,6,0,2.560012e+00,7.681606e+01,0

