5.389270e-01,1.868633e+02,1.866560e+02,2,1000,0.000000e+00,-1.322697e-04,0
7.628380e-01,9.545517e+00,9.535074e+00,3,67,1.635291e-01,1.635295e-01,1
7.534030e-01,1.738350e-01,1.647472e-01,3,0,3.174432e-01,3.174440e-01,1
7.528550e-01,1.784010e-01,1.709461e-01,3,0,6.404139e-01,6.404150e-01,1
7.513340e-01,1.788980e-01,1.718998e-01,3,0,6.814706e-01,6.814713e-01,1
7.525140e-01,1.781340e-01,1.711845e-01,3,0,3.438185e+00,3.438088e+00,1
1.019260e+00,3.213180e-01,3.139973e-01,4,1,4.636225e+00,4.636490e+00,1
7.540750e-01,8.284390e-01,8.208752e-01,3,5,6.159594e+00,6.169700e+00,1
7.590470e-01,5.557140e-01,5.478859e-01,3,3,3.035497e+00,3.068641e+00,1
7.592240e-01,1.994990e-01,1.921654e-01,3,0,2.796309e+00,2.920549e+00,1
7.584820e-01,1.986360e-01,1.909733e-01,3,0,2.705750e+00,2.706144e+00,1
7.586680e-01,2.903690e-01,2.818108e-01,3,1,3.122070e+00,3.122073e+00,1
7.586260e-01,3.187560e-01,3.118515e-01,3,1,4.568900e+00,4.581939e+00,1
7.587050e-01,4.714180e-01,4.639626e-01,3,2,5.969611e+00,6.042836e+00,1
7.607380e-01,1.005366e+00,9.970665e-01,3,6,5.608875e+00,5.641421e+00,1
7.545380e-01,8.695730e-01,8.609295e-01,3,5,7.362583e+00,7.475031e+00,1
7.616310e-01,8.371070e-01,8.289814e-01,3,5,6.065645e+00,6.455270e+00,1
7.535690e-01,5.777880e-01,5.691051e-01,3,3,5.263549e+00,5.708430e+00,1
7.606590e-01,7.067260e-01,6.999969e-01,3,4,4.956472e+00,5.653168e+00,1
7.586920e-01,4.504710e-01,4.422665e-01,3,2,4.472192e+00,4.764005e+00,1
7.594920e-01,9.626970e-01,9.551048e-01,3,6,4.601750e+00,4.706628e+00,1
7.563420e-01,7.206160e-01,7.131100e-01,3,4,3.911328e+00,4.121327e+00,1
7.583440e-01,4.396530e-01,4.310608e-01,3,2,3.893765e+00,4.272720e+00,1
7.581600e-01,8.223460e-01,8.151531e-01,3,5,3.383779e+00,3.763188e+00,1
7.528690e-01,3.169880e-01,3.101826e-01,3,1,3.486811e+00,3.715210e+00,1
7.529390e-01,3.233830e-01,3.161430e-01,3,1,3.784527e+00,3.949834e+00,1
7.528720e-01,2.044660e-01,1.971722e-01,3,0,3.511143e+00,3.706187e+00,1
7.594070e-01,4.424830e-01,4.348755e-01,3,2,3.222728e+00,3.223843e+00,1
7.589750e-01,2.904270e-01,2.830029e-01,3,1,2.181583e+00,2.181571e+00,1
7.586750e-01,1.721850e-01,1.649857e-01,3,0,1.823585e+00,1.823491e+00,1
7.581060e-01,1.722860e-01,1.649857e-01,3,0,1.792374e+00,1.792376e+00,1
7.584680e-01,3.196380e-01,3.111362e-01,3,1,1.511176e+00,1.511189e+00,1
7.580480e-01,2.901220e-01,2.827644e-01,3,1,1.399704e+00,1.399705e+00,1
7.587190e-01,1.725400e-01,1.649857e-01,3,0,2.159047e+00,2.159050e+00,1
7.591520e-01,1.724650e-01,1.649857e-01,3,0,1.800255e+00,1.800256e+00,1
7.580820e-01,1.723820e-01,1.659393e-01,3,0,1.769064e+00,1.769065e+00,1
7.574420e-01,1.723940e-01,1.640320e-01,3,0,1.192308e+00,1.192309e+00,1
7.527110e-01,1.727640e-01,1.640320e-01,3,0,9.342009e-01,9.342014e-01,1
7.522190e-01,1.769850e-01,1.699924e-01,3,0,1.917423e+00,1.917426e+00,1
7.521490e-01,1.781910e-01,1.709461e-01,3,0,2.117949e+00,2.117950e+00,1
7.525090e-01,1.772540e-01,1.699924e-01,3,0,5.376700e+00,5.376708e+00,1
7.598110e-01,9.810040e-01,9.720325e-01,3,6,7.832850e+00,7.883943e+00,1
1.007239e+00,8.087640e-01,8.008480e-01,4,5,5.585845e+00,5.590411e+00,1
1.008535e+00,6.966350e-01,6.890297e-01,4,4,8.443650e+00,8.527817e+00,1
1.010762e+00,8.424490e-01,8.349419e-01,4,5,7.050510e+00,7.254161e+00,1
7.590890e-01,8.223610e-01,8.151531e-01,3,5,6.151737e+00,6.262030e+00,1
7.585490e-01,1.988850e-01,1.919270e-01,3,0,5.910810e+00,6.084504e+00,1
7.529090e-01,5.752280e-01,5.669594e-01,3,3,5.317389e+00,5.514563e+00,1
7.585300e-01,9.647310e-01,9.558201e-01,3,6,4.428854e+00,4.627466e+00,1
7.583980e-01,1.985660e-01,1.919270e-01,3,0,2.915228e+00,3.020316e+00,1
7.575880e-01,1.985750e-01,1.912117e-01,3,0,2.554874e+00,2.585210e+00,1
7.596480e-01,1.108714e+00,1.101017e+00,3,7,3.319741e+00,3.417832e+00,1
7.599880e-01,8.129090e-01,8.039474e-01,3,5,2.465058e+00,2.484505e+00,1
7.586030e-01,7.070810e-01,6.999969e-01,3,4,2.092401e+00,2.137173e+00,1
7.592690e-01,3.336860e-01,3.261566e-01,3,1,2.651240e+00,3.013368e+00,1
1.509126e+00,1.990830e-01,1.909733e-01,6,0,3.615131e+00,3.985677e+00,1
1.006484e+00,4.342350e-01,4.260540e-01,4,2,2.273157e+00,2.343280e+00,1
7.527160e-01,2.039370e-01,1.962185e-01,3,0,3.412858e+00,3.414815e+00,1
7.539930e-01,2.966620e-01,2.899170e-01,3,1,4.630289e+00,4.630293e+00,1
7.595110e-01,4.626950e-01,4.541874e-01,3,2,6.899091e+00,6.910318e+00,1
7.588570e-01,4.069520e-01,3.991127e-01,3,2,3.372377e+00,3.372376e+00,1
7.593380e-01,3.146610e-01,3.068447e-01,3,1,5.440236e+00,5.446489e+00,1
1.010197e+00,3.158086e+00,3.147840e+00,4,21,9.133859e+00,1.526857e+01,0
1.507344e+00,2.443685e+00,2.435923e+00,6,19,5.562215e+00,5.552950e+00,1
1.507208e+00,1.611966e+00,1.602888e+00,6,11,7.573710e+00,8.033567e+00,1
1.256724e+00,1.258361e+00,1.250029e+00,5,9,3.058565e+00,3.066800e+00,1
7.592380e-01,3.226710e-01,3.139973e-01,3,1,3.558775e+00,3.566834e+00,1
1.007804e+00,3.174870e-01,3.099442e-01,4,1,3.687113e+00,3.691004e+00,1
7.532570e-01,4.425810e-01,4.339218e-01,3,2,2.398145e+00,2.412989e+00,1
7.592690e-01,4.595240e-01,4.529953e-01,3,2,2.539506e+00,2.545481e+00,1
7.594390e-01,3.356330e-01,3.290176e-01,3,1,3.432518e+00,3.444192e+00,1
7.585810e-01,1.994520e-01,1.919270e-01,3,0,3.346319e+00,3.374317e+00,1
7.588300e-01,9.663020e-01,9.589195e-01,3,6,3.290571e+00,3.384572e+00,1
7.589450e-01,3.372080e-01,3.290176e-01,3,1,3.478104e+00,3.779175e+00,1
7.651260e-01,4.690450e-01,4.601479e-01,3,2,4.742820e+00,5.299200e+00,1
7.587330e-01,8.448030e-01,8.380413e-01,3,5,6.999287e+00,7.780633e+00,1
1.007558e+00,6.710970e-01,6.639957e-01,4,4,4.729687e+00,5.283282e+00,1
7.684740e-01,1.995630e-01,1.921654e-01,3,0,4.729969e+00,5.300493e+00,1
7.532630e-01,3.260710e-01,3.190041e-01,3,1,3.782372e+00,3.995148e+00,1
7.525790e-01,2.962050e-01,2.889633e-01,3,1,1.741797e+00,1.741795e+00,1
7.523330e-01,1.789870e-01,1.718998e-01,3,0,2.976777e+00,2.976783e+00,1
7.532280e-01,1.782080e-01,1.709461e-01,3,0,2.254521e+00,2.254520e+00,1
7.526460e-01,1.775680e-01,1.709461e-01,3,0,1.905486e+00,1.905486e+00,1
7.578710e-01,1.722970e-01,1.649857e-01,3,0,1.692351e+00,1.692352e+00,1
7.576810e-01,1.737120e-01,1.659393e-01,3,0,3.137586e+00,3.137592e+00,1
7.582650e-01,1.730040e-01,1.640320e-01,3,0,6.149601e+00,6.149608e+00,1
7.525050e-01,4.600720e-01,4.508495e-01,3,2,9.172877e+00,9.173347e+00,1
7.541110e-01,2.146776e+00,2.140045e+00,3,15,1.333648e+01,1.355562e+01,1
7.597370e-01,1.532949e+00,1.524925e+00,3,11,1.134660e+01,1.143798e+01,1
7.606750e-01,1.542914e+00,1.534939e+00,3,11,8.085257e+00,8.087268e+00,1
7.531890e-01,5.699770e-01,5.631447e-01,3,3,6.683478e+00,6.709859e+00,1
7.528090e-01,3.250440e-01,3.168583e-01,3,1,4.983693e+00,4.983769e+00,1
7.532520e-01,1.314731e+00,1.305103e+00,3,6,6.793476e+00,6.941058e+00,0
1.006892e+00,1.053623e+00,1.044989e+00,4,7,5.295373e+00,5.295435e+00,1
1.508389e+00,4.524120e-01,4.448891e-01,6,2,6.939467e+00,6.936807e+00,1
1.511968e+00,1.465560e+00,1.456976e+00,6,10,8.130694e+00,1.027100e+01,1
1.008970e+00,1.601777e+00,1.594782e+00,4,12,3.604671e+00,3.604666e+00,1
7.583630e-01,3.217130e-01,3.130436e-01,3,1,3.340120e+00,3.342779e+00,1
7.569830e-01,2.000230e-01,1.931190e-01,3,0,4.516669e+00,4.534981e+00,1
7.579480e-01,1.993360e-01,1.919270e-01,3,0,5.095234e+00,5.123693e+00,1
7.575040e-01,1.992320e-01,1.919270e-01,3,0,3.826536e+00,3.846379e+00,1
7.563730e-01,4.737540e-01,4.649162e-01,3,2,4.299020e+00,4.334814e+00,1
7.615910e-01,5.305660e-01,5.218983e-01,3,3,2.949996e+00,2.949996e+00,1
7.612380e-01,3.181720e-01,3.108978e-01,3,1,2.707971e+00,2.714416e+00,1
7.591060e-01,3.362250e-01,3.287792e-01,3,1,2.345814e+00,2.354801e+00,1
7.577500e-01,1.993100e-01,1.909733e-01,3,0,2.330040e+00,2.340822e+00,1
7.536300e-01,6.299260e-01,6.208420e-01,3,3,3.047044e+00,3.113892e+00,1
7.608260e-01,8.655280e-01,8.578300e-01,3,5,3.280930e+00,3.386082e+00,1
7.630980e-01,9.482040e-01,9.398460e-01,3,6,2.903133e+00,3.187467e+00,1
7.615750e-01,5.844840e-01,5.769730e-01,3,3,2.507598e+00,2.669158e+00,1
7.584120e-01,3.180140e-01,3.099442e-01,3,1,2.264228e+00,2.318387e+00,1
7.547520e-01,4.135990e-01,4.057884e-01,3,2,1.652549e+00,1.652530e+00,1
7.568470e-01,3.272930e-01,3.201962e-01,3,1,1.765878e+00,1.767031e+00,1
7.524110e-01,2.044830e-01,1.912117e-01,3,0,2.497803e+00,2.627709e+00,1
7.583600e-01,2.964590e-01,2.889633e-01,3,1,1.503580e+00,1.503578e+00,1
7.524510e-01,1.724210e-01,1.637936e-01,3,0,1.269619e+00,1.269619e+00,1
7.521680e-01,1.785230e-01,1.659393e-01,3,0,2.662012e+00,2.662015e+00,1
7.523470e-01,1.770450e-01,1.690388e-01,3,0,2.135958e+00,2.135958e+00,1
7.638610e-01,6.016480e-01,5.939007e-01,3,3,5.528974e+00,5.558897e+00,1
7.606960e-01,4.551610e-01,4.479885e-01,3,2,4.058172e+00,4.251624e+00,1
7.605200e-01,4.355060e-01,4.267693e-01,3,2,3.838453e+00,4.039868e+00,1
7.535460e-01,3.386540e-01,3.302097e-01,3,1,4.516856e+00,4.602084e+00,1
7.616600e-01,8.303060e-01,8.220673e-01,3,5,4.356604e+00,4.367500e+00,1
7.615110e-01,4.692090e-01,4.620552e-01,3,2,5.017701e+00,5.083576e+00,1
7.624350e-01,1.819607e+00,1.813173e+00,3,13,8.703929e+00,9.639482e+00,1
1.505913e+00,8.984740e-01,8.912086e-01,6,6,5.912551e+00,6.055218e+00,1
1.009173e+00,8.298810e-01,8.230209e-01,4,5,5.018074e+00,5.078467e+00,1
7.585170e-01,6.766580e-01,6.690025e-01,3,4,4.875985e+00,4.883563e+00,1
7.583980e-01,1.990350e-01,1.909733e-01,3,0,2.577981e+00,2.713371e+00,1
7.587880e-01,3.374770e-01,3.299713e-01,3,1,3.779423e+00,3.792058e+00,1
7.619300e-01,4.535130e-01,4.460812e-01,3,2,2.957045e+00,2.974477e+00,1
7.533460e-01,7.143400e-01,7.071495e-01,3,4,2.638000e+00,2.691403e+00,1
7.581820e-01,4.800480e-01,4.720688e-01,3,2,1.823358e+00,1.913322e+00,1
7.580330e-01,1.993610e-01,1.919270e-01,3,0,1.609287e+00,1.610908e+00,1
7.617110e-01,4.373790e-01,4.301071e-01,3,2,1.493898e+00,1.494155e+00,1
7.589110e-01,1.993680e-01,1.921654e-01,3,0,1.929854e+00,1.986583e+00,1
7.623250e-01,2.903260e-01,2.830029e-01,3,1,2.235079e+00,2.235081e+00,1
7.576650e-01,1.727610e-01,1.637936e-01,3,0,1.628590e+00,1.628590e+00,1
7.584510e-01,1.725640e-01,1.640320e-01,3,0,1.749674e+00,1.749675e+00,1
7.584680e-01,1.727420e-01,1.649857e-01,3,0,1.593223e+00,1.593224e+00,1
7.614850e-01,3.183170e-01,3.101826e-01,3,1,2.792650e+00,2.792654e+00,1
7.580970e-01,4.729370e-01,4.651546e-01,3,2,4.685465e+00,4.696194e+00,1
7.551320e-01,5.839820e-01,5.760193e-01,3,3,5.080844e+00,5.234798e+00,1
1.009584e+00,4.801040e-01,4.730225e-01,4,2,3.655162e+00,3.817719e+00,1
7.556570e-01,7.345930e-01,7.257462e-01,3,4,3.071643e+00,3.303004e+00,1
1.256623e+00,7.153380e-01,7.069111e-01,5,4,2.998595e+00,3.180559e+00,1
1.255154e+00,2.036040e-01,1.947880e-01,5,0,2.378945e+00,2.414124e+00,1
1.008615e+00,3.181180e-01,3.099442e-01,4,1,1.944172e+00,2.040000e+00,1
7.526200e-01,2.037020e-01,1.919270e-01,3,0,3.047904e+00,3.048140e+00,1
7.538450e-01,2.971400e-01,2.889633e-01,3,1,4.115110e+00,4.115115e+00,1
7.528490e-01,1.774050e-01,1.709461e-01,3,0,2.412815e+00,2.412813e+00,1
7.679480e-01,1.728520e-01,1.640320e-01,3,0,2.446415e+00,2.446416e+00,1
7.587090e-01,1.740530e-01,1.661777e-01,3,0,2.240654e+00,2.240654e+00,1
7.580880e-01,1.733640e-01,1.661777e-01,3,0,2.267386e+00,2.267387e+00,1
7.568400e-01,1.729310e-01,1.659393e-01,3,0,1.993353e+00,1.993354e+00,1
7.586760e-01,3.212880e-01,3.139973e-01,3,1,2.176966e+00,2.177491e+00,1
7.551850e-01,2.955410e-01,2.870560e-01,3,1,3.031046e+00,3.031049e+00,1
7.577390e-01,1.724400e-01,1.649857e-01,3,0,2.969192e+00,2.969193e+00,1
7.574430e-01,1.728690e-01,1.649857e-01,3,0,3.052853e+00,3.052854e+00,1
7.579760e-01,1.727460e-01,1.652241e-01,3,0,3.712927e+00,3.712931e+00,1
7.587650e-01,1.727080e-01,1.637936e-01,3,0,1.896609e+00,1.896609e+00,1
7.578110e-01,1.727260e-01,1.647472e-01,3,0,1.297063e+00,1.297063e+00,1
7.577090e-01,1.730510e-01,1.640320e-01,3,0,1.558702e+00,1.558704e+00,1
7.585480e-01,1.730700e-01,1.649857e-01,3,0,5.379141e-01,5.379148e-01,1
7.582110e-01,1.725340e-01,1.649857e-01,3,0,5.159869e-01,5.159873e-01,1
7.579520e-01,1.727430e-01,1.659393e-01,3,0,8.536527e-01,8.536540e-01,1
7.582110e-01,1.722300e-01,1.640320e-01,3,0,7.504396e-01,7.504398e-01,1
7.576620e-01,1.724930e-01,1.649857e-01,3,0,2.258262e+00,2.258267e+00,1
7.578220e-01,4.582070e-01,4.498959e-01,3,2,1.685140e+00,1.688989e+00,1
7.528080e-01,5.605910e-01,5.540848e-01,3,3,1.252724e+00,1.252901e+00,1
7.530620e-01,2.960170e-01,2.880096e-01,3,1,1.205366e+00,1.205367e+00,1
7.522760e-01,1.772560e-01,1.690388e-01,3,0,1.323809e+00,1.323811e+00,1
7.516190e-01,1.779730e-01,1.699924e-01,3,0,1.361021e+00,1.361021e+00,1
7.575430e-01,1.729840e-01,1.659393e-01,3,0,8.194810e-01,8.194810e-01,1
7.575360e-01,1.721690e-01,1.649857e-01,3,0,7.558736e-01,7.558746e-01,1
7.579060e-01,1.721090e-01,1.640320e-01,3,0,6.877739e-01,6.877748e-01,1
7.573960e-01,1.722320e-01,1.640320e-01,3,0,5.802275e-01,5.802278e-01,1
7.582110e-01,1.731810e-01,1.659393e-01,3,0,1.807307e+00,1.807310e+00,1
7.541110e-01,4.632200e-01,4.539490e-01,3,2,1.662279e+00,1.670297e+00,1
7.545680e-01,3.437330e-01,3.347397e-01,3,1,2.205957e+00,2.238840e+00,1
7.611710e-01,8.858530e-01,8.780956e-01,3,5,3.402233e+00,3.643937e+00,1
7.604580e-01,6.992090e-01,6.909370e-01,3,4,2.804718e+00,3.132723e+00,1
7.618090e-01,6.153680e-01,6.070137e-01,3,3,3.409132e+00,3.890976e+00,1
7.619480e-01,4.551150e-01,4.460812e-01,3,2,2.893484e+00,3.311885e+00,1
7.530230e-01,3.225510e-01,3.149509e-01,3,1,2.799540e+00,3.014173e+00,1
7.578860e-01,5.776390e-01,5.710125e-01,3,3,2.781917e+00,2.945201e+00,1
7.592030e-01,7.184100e-01,7.109642e-01,3,4,4.792941e+00,4.807857e+00,1
7.585540e-01,8.488380e-01,8.418560e-01,3,5,6.148511e+00,6.230398e+00,1
7.579540e-01,3.186350e-01,3.120899e-01,3,1,5.560492e+00,5.629480e+00,1
7.615180e-01,5.928340e-01,5.838871e-01,3,3,4.600527e+00,4.624088e+00,1
7.533520e-01,4.756410e-01,4.680157e-01,3,2,4.134781e+00,4.157539e+00,1
7.609630e-01,5.915690e-01,5.788803e-01,3,3,3.338624e+00,3.360086e+00,1
7.546160e-01,7.121480e-01,7.050037e-01,3,4,3.403786e+00,3.498657e+00,1
7.608720e-01,7.070010e-01,6.999969e-01,3,4,3.342627e+00,3.526540e+00,1
1.010304e+00,9.659580e-01,9.579659e-01,4,6,2.631259e+00,2.762632e+00,1
7.525890e-01,6.960940e-01,6.878376e-01,3,4,2.119331e+00,2.282793e+00,1
7.621140e-01,1.104254e+00,1.095057e+00,3,7,4.146191e+00,5.275299e+00,1
1.506126e+00,5.892380e-01,5.810261e-01,6,3,8.562667e+00,9.880705e+00,1
1.007561e+00,8.085780e-01,8.010864e-01,4,5,1.004853e+01,1.066392e+01,1
1.508024e+00,6.867850e-01,6.790161e-01,6,4,1.096190e+01,1.107477e+01,1
1.504645e+00,4.563960e-01,4.489422e-01,6,2,1.328941e+01,1.349160e+01,1
1.008260e+00,6.783030e-01,6.670952e-01,4,1,1.809574e+01,2.041401e+01,0
1.010531e+00,7.217780e-01,7.131100e-01,4,4,1.255306e+01,1.262386e+01,1
1.505833e+00,7.161730e-01,7.090569e-01,6,4,1.551698e+01,1.574198e+01,1
1.008703e+00,1.772962e+00,1.763105e+00,4,10,1.265602e+01,1.337507e+01,0
1.510310e+00,5.528930e-01,5.431175e-01,6,0,1.138379e+01,1.250769e+01,0
1.509573e+00,1.189130e+00,1.182079e+00,6,8,8.970716e+00,9.065387e+00,1
1.511465e+00,1.660120e+00,1.650095e+00,6,9,1.001838e+01,1.277625e+01,0
1.508849e+00,1.647443e+00,1.638889e+00,6,12,7.731952e+00,8.040775e+00,1
1.512882e+00,9.052528e+01,9.051394e+01,6,976,9.442157e+00,7.447688e+01,0
1.282763e+00,2.725143e+01,2.724004e+01,5,275,3.777866e+00,8.512426e+01,0
7.623740e-01,4.219990e-01,4.091263e-01,3,0,3.003346e+00,8.367733e+01,0
7.615610e-01,4.158740e-01,4.081726e-01,3,0,3.424980e+00,8.438250e+01,0
1.011496e+00,4.207790e-01,4.131794e-01,4,0,2.182479e+00,7.722429e+01,0
7.615520e-01,4.158940e-01,4.072189e-01,3,0,3.400689e+00,7.862105e+01,0
7.598160e-01,4.183270e-01,4.100800e-01,3,0,3.604638e+00,7.941044e+01,0
7.612340e-01,4.197280e-01,4.110336e-01,3,0,6.896880e+00,8.679143e+01,0
1.009174e+00,4.219260e-01,4.117489e-01,4,0,3.749577e+00,7.868808e+01,0
7.599820e-01,4.164850e-01,4.067421e-01,3,0,3.348520e+00,7.652585e+01,0
7.590530e-01,4.186690e-01,4.093647e-01,3,0,3.239056e+00,7.587213e+01,0
7.589080e-01,4.152800e-01,4.062653e-01,3,0,2.910150e+00,7.666563e+01,0
7.532330e-01,4.218770e-01,4.129410e-01,3,0,2.985147e+00,7.694538e+01,0
7.577160e-01,4.254340e-01,4.148483e-01,3,0,4.186856e+00,7.943016e+01,0
7.589390e-01,4.160040e-01,4.072189e-01,3,0,2.207219e+00,7.660282e+01,0
7.582160e-01,4.175580e-01,4.091263e-01,3,0,1.593289e+00,7.611025e+01,0
7.591140e-01,4.207510e-01,4.110336e-01,3,0,1.814652e+00,7.604842e+01,0
7.530210e-01,4.209160e-01,4.115105e-01,3,0,1.803950e+00,7.467953e+01,0
7.574130e-01,4.233550e-01,4.131794e-01,3,0,1.407025e+00,7.388682e+01,0
7.589970e-01,4.185010e-01,4.084110e-01,3,0,1.955592e+00,7.328618e+01,0
7.588260e-01,4.150510e-01,4.062653e-01,3,0,2.859262e+00,7.428802e+01,0
7.581440e-01,4.137800e-01,4.050732e-01,3,0,4.225542e+00,7.625339e+01,0
7.533350e-01,4.241700e-01,4.134178e-01,3,0,8.867356e+00,8.410524e+01,0
7.657530e-01,4.217750e-01,4.122257e-01,3,0,1.202506e+01,8.967954e+01,0
1.507539e+00,4.171950e-01,4.081726e-01,6,0,8.847311e+00,8.577171e+01,0
7.592400e-01,4.187950e-01,4.072189e-01,3,0,1.123423e+01,8.892256e+01,0
1.007598e+00,4.149280e-01,4.072189e-01,4,0,8.463917e+00,8.480381e+01,0
7.533050e-01,4.243370e-01,4.150867e-01,3,0,6.840927e+00,8.207514e+01,0
7.589380e-01,4.256020e-01,4.160404e-01,3,0,7.454639e+00,8.548643e+01,0
1.505907e+00,4.161130e-01,4.062653e-01,6,0,5.269092e+00,8.107165e+01,0
7.584320e-01,4.159560e-01,4.067421e-01,3,0,3.720816e+00,7.612801e+01,0
7.592910e-01,4.189080e-01,4.110336e-01,3,0,2.696370e+00,7.478499e+01,0
7.589540e-01,4.162680e-01,4.081726e-01,3,0,2.449486e+00,7.486387e+01,0
7.539630e-01,4.220960e-01,4.127026e-01,3,0,2.550985e+00,7.586714e+01,0
7.522850e-01,4.329440e-01,4.239082e-01,3,0,3.623427e+00,7.900606e+01,0
7.584320e-01,4.163970e-01,4.060268e-01,3,0,1.321645e+00,7.393748e+01,0
7.586240e-01,4.184890e-01,4.091263e-01,3,0,4.655798e+00,8.149310e+01,0
1.509476e+00,4.188800e-01,4.091263e-01,6,0,9.568811e+00,8.983034e+01,0
1.006955e+00,4.165260e-01,4.072189e-01,4,0,5.819027e+00,8.169028e+01,0
1.007758e+00,4.218290e-01,4.136562e-01,4,0,4.004749e+00,7.773455e+01,0
7.593030e-01,4.192440e-01,4.098415e-01,3,0,3.628570e+00,7.614380e+01,0
7.587460e-01,4.162620e-01,4.055500e-01,3,0,3.278535e+00,7.588044e+01,0
7.521190e-01,4.223670e-01,4.141331e-01,3,0,3.041234e+00,7.708895e+01,0
7.583560e-01,4.269650e-01,4.172325e-01,3,0,4.050603e+00,8.057000e+01,0
7.583090e-01,4.176970e-01,4.091263e-01,3,0,3.271551e+00,8.035847e+01,0
7.592060e-01,4.185140e-01,4.084110e-01,3,0,2.372955e+00,7.792747e+01,0
7.582320e-01,4.201550e-01,4.098415e-01,3,0,2.718515e+00,7.839221e+01,0
1.504029e+00,4.224090e-01,4.136562e-01,6,0,4.928565e+00,8.143132e+01,0
1.505244e+00,4.198210e-01,4.107952e-01,6,0,8.253862e+00,8.451330e+01,0
1.506961e+00,4.205820e-01,4.093647e-01,6,0,1.487587e+01,9.329510e+01,0
1.509353e+00,1.398659e+01,1.397729e+01,6,140,1.818765e+01,1.036042e+02,0
1.505109e+00,4.188280e-01,4.103184e-01,6,0,1.677468e+01,1.043734e+02,0
1.509665e+00,1.411142e+01,1.410174e+01,6,140,1.852554e+01,1.047573e+02,0
1.009813e+00,4.231510e-01,4.136562e-01,4,0,1.652536e+01,1.002846e+02,0
1.521421e+00,4.199650e-01,4.100800e-01,6,0,1.767522e+01,1.015236e+02,0
1.506790e+00,4.217150e-01,4.122257e-01,6,0,1.771087e+01,9.988312e+01,0
1.505574e+00,4.215630e-01,4.122257e-01,6,0,1.488955e+01,9.618436e+01,0
1.504467e+00,4.221510e-01,4.136562e-01,6,0,1.309347e+01,9.381946e+01,0
1.507912e+00,4.259840e-01,4.174709e-01,6,0,1.065770e+01,9.083377e+01,0
1.507883e+00,4.231030e-01,4.141331e-01,6,0,1.025751e+01,9.289001e+01,0
1.503388e+00,4.243860e-01,4.134178e-01,6,0,1.036345e+01,9.670706e+01,0
1.504556e+00,4.256810e-01,4.160404e-01,6,0,1.306325e+01,1.041805e+02,0
1.753074e+00,4.211580e-01,4.079342e-01,7,0,2.240734e+01,1.205666e+02,0
1.254987e+00,4.236900e-01,4.143715e-01,5,0,2.653136e+01,1.256825e+02,0
1.530685e+00,4.210300e-01,4.110336e-01,6,0,3.103555e+01,1.282435e+02,0
1.260456e+00,4.183600e-01,4.072189e-01,5,0,2.875893e+01,1.227505e+02,0
1.538752e+00,4.155720e-01,4.055500e-01,6,0,2.978475e+01,1.219421e+02,0
1.536535e+00,4.092990e-01,4.010201e-01,6,0,3.641486e+01,1.284910e+02,0
1.255026e+00,4.184680e-01,4.093647e-01,5,0,3.408670e+01,1.244988e+02,0
1.506508e+00,4.253070e-01,4.155636e-01,6,0,2.922717e+01,1.187444e+02,0
1.758387e+00,4.267250e-01,4.172325e-01,7,0,2.591334e+01,1.150697e+02,0
1.504836e+00,4.178520e-01,4.081726e-01,6,0,2.312556e+01,1.116304e+02,0
1.259668e+00,4.240590e-01,4.141331e-01,5,0,1.992231e+01,1.083962e+02,0
1.512781e+00,1.413822e+01,1.412797e+01,6,141,1.804290e+01,1.124914e+02,0
1.509667e+00,4.188830e-01,4.093647e-01,6,0,1.933378e+01,1.181671e+02,0
1.511223e+00,1.403318e+01,1.402426e+01,6,141,1.377234e+01,1.038211e+02,0
1.507833e+00,4.275130e-01,4.179478e-01,6,0,1.272478e+01,1.026415e+02,0
1.504668e+00,4.225550e-01,4.098415e-01,6,0,1.405444e+01,1.060844e+02,0
1.505869e+00,4.243730e-01,4.150867e-01,6,0,1.176776e+01,9.906335e+01,0
1.009921e+00,4.255270e-01,4.155636e-01,4,0,1.061047e+01,9.606626e+01,0
1.509405e+00,4.167170e-01,4.072189e-01,6,0,9.815576e+00,9.235444e+01,0
1.510720e+00,4.174740e-01,4.091263e-01,6,0,8.134473e+00,8.880769e+01,0
1.512434e+00,4.201370e-01,4.119873e-01,6,0,4.295549e+00,8.145367e+01,0
7.577710e-01,4.174380e-01,4.081726e-01,3,0,4.033924e+00,8.069274e+01,0
7.599380e-01,4.150630e-01,4.048347e-01,3,0,4.045209e+00,7.854485e+01,0
7.607800e-01,4.192940e-01,4.100800e-01,3,0,4.076286e+00,7.697651e+01,0
7.561960e-01,4.209850e-01,4.122257e-01,3,0,3.726540e+00,7.750076e+01,0
7.609130e-01,4.237850e-01,4.158020e-01,3,0,2.612026e+00,7.500604e+01,0
7.582190e-01,4.201950e-01,4.112720e-01,3,0,3.492545e+00,7.786775e+01,0
7.613380e-01,4.160610e-01,4.057884e-01,3,0,4.909763e+00,7.928140e+01,0
7.577650e-01,4.172180e-01,4.079342e-01,3,0,5.739588e+00,7.896171e+01,0
7.554980e-01,4.244700e-01,4.141331e-01,3,0,4.968606e+00,7.948749e+01,0
7.577750e-01,4.215930e-01,4.091263e-01,3,0,4.866031e+00,7.781387e+01,0
7.583180e-01,4.145530e-01,4.060268e-01,3,0,4.971257e+00,7.909181e+01,0
7.618830e-01,4.191480e-01,4.103184e-01,3,0,4.647706e+00,7.971172e+01,0
7.580640e-01,4.167790e-01,4.072189e-01,3,0,4.581211e+00,7.875309e+01,0
7.540950e-01,4.236140e-01,4.141331e-01,3,0,5.032462e+00,7.932370e+01,0
7.678580e-01,4.266940e-01,4.191399e-01,3,0,1.007790e+01,8.805908e+01,0
1.256935e+00,4.183950e-01,4.100800e-01,5,0,1.345675e+01,9.589613e+01,0
1.257289e+00,4.252600e-01,4.160404e-01,5,0,1.622785e+01,1.030508e+02,0
1.007412e+00,4.222350e-01,4.127026e-01,4,0,1.362234e+01,1.002416e+02,0
1.504049e+00,4.222860e-01,4.129410e-01,6,0,1.102233e+01,9.480057e+01,0
1.009888e+00,4.223750e-01,4.131794e-01,4,0,8.596646e+00,8.806324e+01,0
7.623580e-01,4.207780e-01,4.110336e-01,3,0,6.808038e+00,8.570708e+01,0
7.594490e-01,4.169290e-01,4.093647e-01,3,0,7.395014e+00,8.839099e+01,0
1.506538e+00,4.244240e-01,4.172325e-01,6,0,7.371392e+00,9.068474e+01,0
1.507674e+00,4.282960e-01,4.177094e-01,6,0,5.764514e+00,8.848189e+01,0
1.505633e+00,4.228010e-01,4.131794e-01,6,0,6.236365e+00,8.832005e+01,0
1.510799e+00,4.191160e-01,4.110336e-01,6,0,8.534455e+00,8.853626e+01,0
1.510001e+00,4.199820e-01,4.105568e-01,6,0,9.959397e+00,8.799308e+01,0
1.511321e+00,4.168100e-01,4.079342e-01,6,0,1.214505e+01,9.057731e+01,0
1.005928e+00,4.163030e-01,4.072189e-01,4,0,9.520290e+00,8.698695e+01,0
7.598170e-01,4.258460e-01,4.172325e-01,3,0,1.340860e+01,9.380522e+01,0
7.603570e-01,4.173700e-01,4.072189e-01,3,0,1.342304e+01,9.422455e+01,0
1.256749e+00,4.186670e-01,4.091263e-01,5,0,1.130113e+01,9.143413e+01,0
7.595500e-01,4.269750e-01,4.172325e-01,3,0,9.720005e+00,9.040510e+01,0
1.010513e+00,4.178970e-01,4.079342e-01,4,0,9.790307e+00,9.384372e+01,0
1.507746e+00,4.254360e-01,4.158020e-01,6,0,9.349603e+00,9.530356e+01,0
1.503154e+00,4.214630e-01,4.129410e-01,6,0,7.677319e+00,9.264112e+01,0
1.511014e+00,4.175480e-01,4.091263e-01,6,0,7.184295e+00,9.215122e+01,0
1.511292e+00,4.169230e-01,4.088879e-01,6,0,5.000630e+00,8.817692e+01,0
1.261628e+00,4.209630e-01,4.112720e-01,5,0,4.152874e+00,8.530248e+01,0
1.010179e+00,4.185130e-01,4.103184e-01,4,0,2.567922e+00,7.907253e+01,0
1.005768e+00,4.180800e-01,4.088879e-01,4,0,1.422067e+00,7.414268e+01,0
7.580350e-01,4.204810e-01,4.110336e-01,3,0,1.435147e+00,7.342574e+01,0
7.607810e-01,4.180070e-01,4.081726e-01,3,0,2.225756e+00,7.474753e+01,0
7.590110e-01,4.192910e-01,4.098415e-01,3,0,1.711427e+00,7.199393e+01,0
7.535030e-01,4.247550e-01,4.146099e-01,3,0,1.503605e+00,7.286397e+01,0
7.611920e-01,4.220260e-01,4.117489e-01,3,0,1.477859e+00,7.203303e+01,0
7.579740e-01,4.154250e-01,4.053116e-01,3,0,1.256388e+00,7.293824e+01,0
7.608720e-01,4.201660e-01,4.112720e-01,3,0,1.033452e+00,7.257400e+01,0
7.578060e-01,4.173340e-01,4.072189e-01,3,0,1.536539e+00,7.384834e+01,0
7.542070e-01,4.234150e-01,4.153252e-01,3,0,1.371850e+00,7.244610e+01,0
7.570890e-01,4.263790e-01,4.191399e-01,3,0,5.408334e-01,7.030033e+01,0
7.610930e-01,4.164440e-01,4.069805e-01,3,0,1.104769e+00,7.110240e+01,0
7.581300e-01,4.190640e-01,4.091263e-01,3,0,7.625498e-01,7.016847e+01,0
7.594260e-01,4.205910e-01,4.122257e-01,3,0,9.044855e-01,7.135714e+01,0
7.528220e-01,4.213690e-01,4.131794e-01,3,0,8.919858e-01,7.048520e+01,0
7.571090e-01,4.228440e-01,4.131794e-01,3,0,1.692716e+00,7.216762e+01,0
7.592300e-01,4.193740e-01,4.112720e-01,3,0,1.425011e+00,7.208978e+01,0
7.598800e-01,4.170430e-01,4.081726e-01,3,0,1.063074e+00,7.143596e+01,0
7.586580e-01,4.162340e-01,4.060268e-01,3,0,6.629446e-01,7.020697e+01,0
7.521950e-01,4.266820e-01,4.169941e-01,3,0,1.101761e+00,7.129851e+01,0
7.520550e-01,4.217990e-01,4.122257e-01,3,0,1.029011e+00,7.216332e+01,0
7.580230e-01,4.181190e-01,4.072189e-01,3,0,6.833892e-01,7.071102e+01,0
7.612080e-01,4.195950e-01,4.093647e-01,3,0,9.666373e-01,7.154380e+01,0
7.604270e-01,4.165380e-01,4.079342e-01,3,0,8.731060e-01,7.082437e+01,0
7.518430e-01,4.212330e-01,4.129410e-01,3,0,1.390822e+00,7.274271e+01,0
7.521310e-01,4.257290e-01,4.169941e-01,3,0,2.443202e+00,7.509241e+01,0
7.599570e-01,4.216820e-01,4.057884e-01,3,0,2.069026e+00,7.449721e+01,0
7.620550e-01,4.184340e-01,4.084110e-01,3,0,2.103022e+00,7.350321e+01,0
7.611330e-01,4.207080e-01,4.107952e-01,3,0,4.527917e+00,7.735544e+01,0
7.552420e-01,4.218530e-01,4.119873e-01,3,0,5.473522e+00,7.971664e+01,0
1.009143e+00,4.261010e-01,4.172325e-01,4,0,3.322616e+00,7.574476e+01,0
7.608920e-01,4.219460e-01,4.119873e-01,3,0,2.489345e+00,7.381200e+01,0
7.583490e-01,4.169700e-01,4.067421e-01,3,0,1.793925e+00,7.270155e+01,0
7.532690e-01,4.221470e-01,4.122257e-01,3,0,1.489397e+00,7.249705e+01,0
7.617560e-01,4.266630e-01,4.174709e-01,3,0,1.164913e+00,7.191730e+01,0
7.585090e-01,4.171750e-01,4.072189e-01,3,0,1.632872e+00,7.310727e+01,0
7.612350e-01,4.182580e-01,4.088879e-01,3,0,1.574934e+00,7.299806e+01,0
7.615060e-01,4.210310e-01,4.110336e-01,3,0,9.159348e-01,7.172455e+01,0
7.545000e-01,4.229380e-01,4.141331e-01,3,0,1.816744e+00,7.440268e+01,0
7.576210e-01,4.244180e-01,4.150867e-01,3,0,1.076612e+00,7.264186e+01,0
7.629830e-01,4.205660e-01,4.112720e-01,3,0,9.301057e-01,7.168274e+01,0
7.590220e-01,4.172960e-01,4.072189e-01,3,0,1.166574e+00,7.217086e+01,0
7.572280e-01,4.162400e-01,4.081726e-01,3,0,1.111823e+00,7.160296e+01,0
7.523320e-01,4.255590e-01,4.162788e-01,3,0,1.239799e+00,7.170989e+01,0
7.608360e-01,4.236280e-01,4.148483e-01,3,0,1.497574e+00,7.294528e+01,0
7.584460e-01,4.187700e-01,4.100800e-01,3,0,1.210338e+00,7.203399e+01,0
7.581740e-01,4.201410e-01,4.110336e-01,3,0,1.137424e+00,7.269841e+01,0
7.606390e-01,4.155140e-01,4.045963e-01,3,0,1.488260e+00,7.336953e+01,0
7.560860e-01,4.334440e-01,4.234314e-01,3,0,1.649405e+00,7.281790e+01,0
7.585140e-01,4.278400e-01,4.179478e-01,3,0,2.631394e+00,7.407324e+01,0
7.589990e-01,4.173590e-01,4.074574e-01,3,0,1.910631e+00,7.367619e+01,0
7.596330e-01,4.170650e-01,4.072189e-01,3,0,1.668246e+00,7.223793e+01,0
7.574940e-01,4.204060e-01,4.107952e-01,3,0,1.462700e+00,7.238162e+01,0
7.525560e-01,4.221880e-01,4.131794e-01,3,0,1.639058e+00,7.322808e+01,0
7.575450e-01,4.237050e-01,4.134178e-01,3,0,1.301585e+00,7.331010e+01,0
7.582300e-01,4.200350e-01,4.098415e-01,3,0,2.123046e+00,7.624670e+01,0
1.006985e+00,4.169160e-01,4.072189e-01,4,0,1.697564e+00,7.371869e+01,0
7.538480e-01,4.246560e-01,4.141331e-01,3,0,1.730443e+00,7.472384e+01,0
7.576300e-01,4.249630e-01,4.148483e-01,3,0,1.676822e+00,7.445447e+01,0
7.620830e-01,4.169690e-01,4.081726e-01,3,0,1.441220e+00,7.443841e+01,0
7.578510e-01,4.149310e-01,4.072189e-01,3,0,1.145016e+00,7.267698e+01,0
7.575190e-01,4.202610e-01,4.100800e-01,3,0,1.408596e+00,7.261448e+01,0
7.522120e-01,4.230000e-01,4.131794e-01,3,0,2.010236e+00,7.375922e+01,0
7.580160e-01,4.234380e-01,4.143715e-01,3,0,1.226937e+00,7.234245e+01,0
7.610520e-01,4.194100e-01,4.096031e-01,3,0,2.298264e+00,7.447091e+01,0
7.581300e-01,4.168680e-01,4.081726e-01,3,0,1.491987e+00,7.356732e+01,0
7.577970e-01,4.192800e-01,4.107952e-01,3,0,1.356372e+00,7.326934e+01,0
7.544480e-01,4.255460e-01,4.167557e-01,3,0,1.364592e+00,7.382801e+01,0
7.579740e-01,4.236040e-01,4.143715e-01,3,0,1.295325e+00,7.275243e+01,0
7.609130e-01,4.154070e-01,4.072189e-01,3,0,9.898042e-01,7.154349e+01,0
7.599920e-01,4.191120e-01,4.100800e-01,3,0,1.600908e+00,7.221211e+01,0
7.573800e-01,4.171340e-01,4.091263e-01,3,0,1.163289e+00,7.198872e+01,0
7.523730e-01,4.234740e-01,4.148483e-01,3,0,1.059579e+00,7.131842e+01,0
7.596640e-01,4.259620e-01,4.158020e-01,3,0,9.337043e-01,7.098451e+01,0
7.585130e-01,4.170260e-01,4.091263e-01,3,0,7.253383e-01,7.122140e+01,0
7.600530e-01,4.180600e-01,4.091263e-01,3,0,9.980460e-01,7.141805e+01,0
7.593990e-01,4.207310e-01,4.110336e-01,3,0,7.338772e-01,7.133716e+01,0
7.548480e-01,4.234600e-01,4.131794e-01,3,0,3.571120e+00,7.772556e+01,0
1.507389e+00,4.217430e-01,4.119873e-01,6,0,8.372316e+00,8.458549e+01,0
1.256046e+00,4.258530e-01,4.169941e-01,5,0,6.725819e+00,8.107114e+01,0
7.552330e-01,4.173600e-01,4.069805e-01,3,0,5.009303e+00,7.793193e+01,0
7.547460e-01,4.245050e-01,4.150867e-01,3,0,3.574384e+00,7.560769e+01,0
7.622670e-01,4.364190e-01,4.258156e-01,3,0,4.274107e+00,7.708739e+01,0
7.596800e-01,4.161580e-01,4.081726e-01,3,0,3.354008e+00,7.642450e+01,0
7.588160e-01,4.184840e-01,4.110336e-01,3,0,3.353349e+00,7.694492e+01,0
7.535730e-01,4.257490e-01,4.160404e-01,3,0,3.966252e+00,7.649158e+01,0
7.538220e-01,4.235660e-01,4.148483e-01,3,0,4.172494e+00,7.643980e+01,0
7.586500e-01,4.214560e-01,4.122257e-01,3,0,3.756116e+00,7.557553e+01,0
7.609660e-01,4.202200e-01,4.112720e-01,3,0,4.176302e+00,7.705591e+01,0
7.575650e-01,4.168960e-01,4.072189e-01,3,0,5.562518e+00,7.921774e+01,0
7.530470e-01,4.240950e-01,4.150867e-01,3,0,5.054131e+00,7.914083e+01,0
7.532480e-01,4.269480e-01,4.169941e-01,3,0,3.847335e+00,7.842044e+01,0
7.586420e-01,4.218490e-01,4.119873e-01,3,0,2.772073e+00,7.702439e+01,0
7.609470e-01,4.183460e-01,4.093647e-01,3,0,2.032709e+00,7.584088e+01,0
1.006241e+00,4.194210e-01,4.103184e-01,4,0,1.602723e+00,7.408711e+01,0
7.586620e-01,4.221830e-01,4.129410e-01,3,0,2.179515e+00,7.353595e+01,0
7.595180e-01,4.151370e-01,4.062653e-01,3,0,1.685778e+00,7.228287e+01,0
7.588840e-01,4.198940e-01,4.112720e-01,3,0,1.998235e+00,7.277363e+01,0
7.606510e-01,4.170530e-01,4.069805e-01,3,0,1.765886e+00,7.223455e+01,0
7.516390e-01,4.235300e-01,4.141331e-01,3,0,1.686377e+00,7.227089e+01,0
7.578410e-01,4.267660e-01,4.181862e-01,3,0,2.064760e+00,7.372099e+01,0
7.579810e-01,4.162130e-01,4.057884e-01,3,0,1.557390e+00,7.207835e+01,0
7.590400e-01,4.184400e-01,4.100800e-01,3,0,1.254291e+00,7.207079e+01,0
7.593810e-01,4.207590e-01,4.110336e-01,3,0,3.322260e+00,7.443407e+01,0
7.525690e-01,4.225070e-01,4.131794e-01,3,0,3.404595e+00,7.490653e+01,0
7.612730e-01,4.218990e-01,4.107952e-01,3,0,1.739828e+00,7.261127e+01,0
7.581680e-01,4.199490e-01,4.100800e-01,3,0,1.780208e+00,7.351356e+01,0
7.585770e-01,4.174400e-01,4.081726e-01,3,0,1.793992e+00,7.312749e+01,0
7.574440e-01,4.180980e-01,4.088879e-01,3,0,2.044609e+00,7.353855e+01,0
7.512940e-01,4.259250e-01,4.169941e-01,3,0,1.171411e+00,7.135058e+01,0
7.572930e-01,4.227770e-01,4.100800e-01,3,0,8.732555e-01,7.085506e+01,0
7.584930e-01,4.182640e-01,4.100800e-01,3,0,1.566977e+00,7.151911e+01,0
7.585030e-01,4.192580e-01,4.091263e-01,3,0,2.133215e+00,7.398118e+01,0
7.606170e-01,4.174860e-01,4.091263e-01,3,0,2.423238e+00,7.569607e+01,0
7.538910e-01,4.209610e-01,4.107952e-01,3,0,1.664377e+00,7.342692e+01,0
7.596440e-01,4.257360e-01,4.158020e-01,3,0,1.782511e+00,7.423858e+01,0
7.620850e-01,4.174000e-01,4.084110e-01,3,0,2.095371e+00,7.423979e+01,0
7.593080e-01,4.186820e-01,4.100800e-01,3,0,2.836702e+00,7.756256e+01,0
7.578330e-01,4.195960e-01,4.117489e-01,3,0,3.175415e+00,7.829514e+01,0
7.543460e-01,4.223610e-01,4.131794e-01,3,0,4.793005e+00,8.062213e+01,0
7.598950e-01,4.249200e-01,4.150867e-01,3,0,4.707928e+00,7.996591e+01,0
7.582280e-01,4.200490e-01,4.105568e-01,3,0,7.760229e+00,8.642042e+01,0
1.007829e+00,4.162570e-01,4.081726e-01,4,0,3.747898e+00,7.883213e+01,0
7.526380e-01,4.228670e-01,4.131794e-01,3,0,3.490995e+00,7.896635e+01,0
7.574120e-01,4.264100e-01,4.181862e-01,3,0,4.043765e+00,7.983979e+01,0
7.595680e-01,4.174750e-01,4.091263e-01,3,0,3.338565e+00,7.877922e+01,0
7.588550e-01,4.187010e-01,4.093647e-01,3,0,3.148992e+00,7.890607e+01,0
7.582510e-01,4.203790e-01,4.112720e-01,3,0,2.645740e+00,7.704492e+01,0
7.519420e-01,4.231860e-01,4.131794e-01,3,0,1.565547e+00,7.325767e+01,0
7.598120e-01,4.239800e-01,4.141331e-01,3,0,2.451566e+00,7.385313e+01,0
7.600900e-01,4.306900e-01,4.210472e-01,3,0,1.923631e+00,7.378163e+01,0
7.584410e-01,4.158050e-01,4.060268e-01,3,0,1.137744e+00,7.195517e+01,0
7.637160e-01,4.145730e-01,4.060268e-01,3,0,1.423832e+00,7.218999e+01,0
7.528230e-01,4.255650e-01,4.155636e-01,3,0,1.126329e+00,7.255076e+01,0
7.579830e-01,4.209930e-01,4.122257e-01,3,0,9.393456e-01,7.205452e+01,0
7.589600e-01,4.174170e-01,4.096031e-01,3,0,9.938702e-01,7.233200e+01,0
7.586350e-01,4.194840e-01,4.096031e-01,3,0,1.134980e+00,7.193313e+01,0
7.604300e-01,4.144690e-01,4.053116e-01,3,0,1.406340e+00,7.246233e+01,0
7.522860e-01,4.226770e-01,4.131794e-01,3,0,3.624410e+00,7.681940e+01,0
7.571780e-01,4.253240e-01,4.160404e-01,3,0,2.850545e+00,7.531696e+01,0
7.582870e-01,4.153600e-01,4.062653e-01,3,0,4.262350e+00,7.765733e+01,0
7.590550e-01,4.146080e-01,4.060268e-01,3,0,2.226142e+00,7.557926e+01,0
7.578640e-01,4.191910e-01,4.103184e-01,3,0,1.878568e+00,7.567731e+01,0
7.524120e-01,4.224290e-01,4.131794e-01,3,0,1.533683e+00,7.455868e+01,0
7.572020e-01,4.227610e-01,4.129410e-01,3,0,1.265543e+00,7.285754e+01,0
7.604510e-01,4.196620e-01,4.105568e-01,3,0,2.392836e+00,7.361246e+01,0
7.579400e-01,4.154680e-01,4.060268e-01,3,0,2.433847e+00,7.403533e+01,0
7.575260e-01,4.175600e-01,4.093647e-01,3,0,3.925436e+00,7.647998e+01,0
7.520680e-01,4.228570e-01,4.141331e-01,3,0,4.115478e+00,7.674041e+01,0
7.594490e-01,4.207440e-01,4.110336e-01,3,0,4.760285e+00,7.833052e+01,0
7.583400e-01,4.138990e-01,4.048347e-01,3,0,7.321901e+00,8.261181e+01,0
1.006846e+00,4.190240e-01,4.091263e-01,4,0,8.196992e+00,8.407166e+01,0
7.531310e-01,4.210780e-01,4.112720e-01,3,0,6.249412e+00,8.073268e+01,0
7.609110e-01,4.221270e-01,4.129410e-01,3,0,5.581939e+00,8.020149e+01,0
7.597620e-01,4.196830e-01,4.100800e-01,3,0,7.746103e+00,8.316102e+01,0
7.589670e-01,4.141100e-01,4.050732e-01,3,0,5.294824e+00,7.938279e+01,0
7.579400e-01,4.168540e-01,4.081726e-01,3,0,4.540174e+00,7.811158e+01,0
7.525340e-01,4.244570e-01,4.150867e-01,3,0,4.349071e+00,7.674168e+01,0
7.581390e-01,4.210670e-01,4.119873e-01,3,0,4.449131e+00,7.732977e+01,0
7.582500e-01,4.146040e-01,4.060268e-01,3,0,4.616703e+00,7.859032e+01,0
7.590570e-01,4.185110e-01,4.096031e-01,3,0,3.861937e+00,7.691543e+01,0
7.611650e-01,4.150650e-01,4.060268e-01,3,0,3.874948e+00,7.771515e+01,0
7.523630e-01,4.218810e-01,4.127026e-01,3,0,4.892058e+00,8.114541e+01,0
1.504361e+00,4.252430e-01,4.143715e-01,6,0,5.510496e+00,8.375151e+01,0
1.506054e+00,4.223540e-01,4.131794e-01,6,0,3.437018e+00,8.008122e+01,0
1.255059e+00,4.239120e-01,4.150867e-01,5,0,3.678490e+00,8.036539e+01,0
1.259504e+00,4.192060e-01,4.100800e-01,5,0,2.483581e+00,7.752689e+01,0
1.508076e+00,4.148470e-01,4.057884e-01,6,0,2.560012e+00,7.681606e+01,0

