5.471900e-01,1.852126e+02,1.850109e+02,2,1000,0.000000e+00,-1.322697e-04,0
7.625770e-01,9.525076e+00,9.513855e+00,3,67,1.635291e-01,1.635295e-01,1
7.566850e-01,1.748280e-01,1.671314e-01,3,0,3.174432e-01,3.174440e-01,1
7.567170e-01,1.740140e-01,1.671314e-01,3,0,6.404139e-01,6.404150e-01,1
7.574360e-01,1.730790e-01,1.659393e-01,3,0,6.814706e-01,6.814713e-01,1
7.570650e-01,1.730640e-01,1.659393e-01,3,0,3.438185e+00,3.438088e+00,1
1.006575e+00,3.154510e-01,3.080368e-01,4,1,4.636225e+00,4.636490e+00,1
7.597450e-01,8.269310e-01,8.199215e-01,3,5,6.159594e+00,6.169700e+00,1
7.577380e-01,5.488910e-01,5.412102e-01,3,3,3.035497e+00,3.068641e+00,1
7.568140e-01,1.993620e-01,1.919270e-01,3,0,2.796309e+00,2.920549e+00,1
7.570230e-01,1.989910e-01,1.909733e-01,3,0,2.705750e+00,2.706144e+00,1
7.563860e-01,2.899920e-01,2.820492e-01,3,1,3.122070e+00,3.122073e+00,1
7.589270e-01,3.193720e-01,3.118515e-01,3,1,4.568900e+00,4.581939e+00,1
7.507640e-01,4.777860e-01,4.701614e-01,3,2,5.969611e+00,6.042836e+00,1
7.571350e-01,1.002893e+00,9.961128e-01,3,6,5.608875e+00,5.641421e+00,1
7.584990e-01,8.675950e-01,8.602142e-01,3,5,7.362583e+00,7.475031e+00,1
7.566380e-01,8.372530e-01,8.292198e-01,3,5,6.065645e+00,6.455270e+00,1
7.584140e-01,5.718220e-01,5.640984e-01,3,3,5.263549e+00,5.708430e+00,1
7.547260e-01,7.088400e-01,7.019043e-01,3,4,4.956472e+00,5.653168e+00,1
7.581040e-01,4.562410e-01,4.491806e-01,3,2,4.472192e+00,4.764005e+00,1
7.518060e-01,9.597800e-01,9.510517e-01,3,6,4.601750e+00,4.706628e+00,1
7.594420e-01,7.200860e-01,7.131100e-01,3,4,3.911328e+00,4.121327e+00,1
7.606440e-01,4.430870e-01,4.341602e-01,3,2,3.893765e+00,4.272720e+00,1
7.588280e-01,8.288990e-01,8.211136e-01,3,5,3.383779e+00,3.763188e+00,1
7.591700e-01,3.172210e-01,3.099442e-01,3,1,3.486811e+00,3.715210e+00,1
7.572310e-01,3.173570e-01,3.099442e-01,3,1,3.784527e+00,3.949834e+00,1
7.577340e-01,1.990660e-01,1.919270e-01,3,0,3.511143e+00,3.706187e+00,1
7.573380e-01,4.368240e-01,4.279613e-01,3,2,3.222728e+00,3.223843e+00,1
7.563500e-01,2.894560e-01,2.820492e-01,3,1,2.181583e+00,2.181571e+00,1
7.566420e-01,1.725130e-01,1.637936e-01,3,0,1.823585e+00,1.823491e+00,1
7.562610e-01,1.720130e-01,1.640320e-01,3,0,1.792374e+00,1.792376e+00,1
7.567080e-01,3.189250e-01,3.108978e-01,3,1,1.511176e+00,1.511189e+00,1
7.566880e-01,2.894030e-01,2.820492e-01,3,1,1.399704e+00,1.399705e+00,1
7.568900e-01,1.720900e-01,1.640320e-01,3,0,2.159047e+00,2.159050e+00,1
7.560980e-01,1.720040e-01,1.637936e-01,3,0,1.800255e+00,1.800256e+00,1
7.559600e-01,1.719240e-01,1.649857e-01,3,0,1.769064e+00,1.769065e+00,1
7.563390e-01,1.722830e-01,1.652241e-01,3,0,1.192308e+00,1.192309e+00,1
7.578850e-01,1.723550e-01,1.649857e-01,3,0,9.342009e-01,9.342014e-01,1
7.563230e-01,1.727160e-01,1.652241e-01,3,0,1.917423e+00,1.917426e+00,1
7.566110e-01,1.726340e-01,1.640320e-01,3,0,2.117949e+00,2.117950e+00,1
7.567980e-01,1.721010e-01,1.649857e-01,3,0,5.376700e+00,5.376708e+00,1
7.509350e-01,9.789140e-01,9.710789e-01,3,6,7.832850e+00,7.883943e+00,1
1.007051e+00,8.022260e-01,7.939339e-01,4,5,5.585845e+00,5.590411e+00,1
1.008674e+00,6.976140e-01,6.902218e-01,4,4,8.443650e+00,8.527817e+00,1
1.008539e+00,8.478600e-01,8.389950e-01,4,5,7.050510e+00,7.254161e+00,1
7.567950e-01,8.277910e-01,8.189678e-01,3,5,6.151737e+00,6.262030e+00,1
7.571830e-01,1.992430e-01,1.909733e-01,3,0,5.910810e+00,6.084504e+00,1
7.600240e-01,5.693390e-01,5.607605e-01,3,3,5.317389e+00,5.514563e+00,1
7.566210e-01,9.637360e-01,9.560585e-01,3,6,4.428854e+00,4.627466e+00,1
7.568730e-01,1.986940e-01,1.921654e-01,3,0,2.915228e+00,3.020316e+00,1
7.565740e-01,1.981710e-01,1.900196e-01,3,0,2.554874e+00,2.585210e+00,1
7.553060e-01,1.107015e+00,1.099110e+00,3,7,3.319741e+00,3.417832e+00,1
7.574840e-01,8.101260e-01,8.029938e-01,3,5,2.465058e+00,2.484505e+00,1
7.568530e-01,7.138950e-01,7.059574e-01,3,4,2.092401e+00,2.137173e+00,1
7.565880e-01,3.339650e-01,3.249645e-01,3,1,2.651240e+00,3.013368e+00,1
1.501758e+00,1.988800e-01,1.900196e-01,6,0,3.615131e+00,3.985677e+00,1
1.007814e+00,4.387390e-01,4.310608e-01,4,2,2.273157e+00,2.343280e+00,1
7.573850e-01,1.984920e-01,1.909733e-01,3,0,3.412858e+00,3.414815e+00,1
7.596770e-01,2.904590e-01,2.820492e-01,3,1,4.630289e+00,4.630293e+00,1
7.582040e-01,4.577070e-01,4.498959e-01,3,2,6.899091e+00,6.910318e+00,1
7.508190e-01,4.112760e-01,4.031658e-01,3,2,3.372377e+00,3.372376e+00,1
7.510020e-01,3.217490e-01,3.139973e-01,3,1,5.440236e+00,5.446489e+00,1
1.007925e+00,3.162645e+00,3.151894e+00,4,21,9.133859e+00,1.526857e+01,0
1.509524e+00,2.438541e+00,2.430201e+00,6,19,5.562215e+00,5.552950e+00,1
1.511211e+00,1.604321e+00,1.595974e+00,6,11,7.573710e+00,8.033567e+00,1
1.254066e+00,1.251124e+00,1.244068e+00,5,9,3.058565e+00,3.066800e+00,1
7.519140e-01,3.277550e-01,3.190041e-01,3,1,3.558775e+00,3.566834e+00,1
1.004756e+00,3.237400e-01,3.161430e-01,4,1,3.687113e+00,3.691004e+00,1
7.574230e-01,4.358400e-01,4.291534e-01,3,2,2.398145e+00,2.412989e+00,1
7.576400e-01,4.536710e-01,4.460812e-01,3,2,2.539506e+00,2.545481e+00,1
7.569050e-01,3.351600e-01,3.271103e-01,3,1,3.432518e+00,3.444192e+00,1
7.562980e-01,1.992650e-01,1.909733e-01,3,0,3.346319e+00,3.374317e+00,1
7.585440e-01,9.659900e-01,9.591579e-01,3,6,3.290571e+00,3.384572e+00,1
7.572230e-01,3.371230e-01,3.287792e-01,3,1,3.478104e+00,3.779175e+00,1
7.516190e-01,4.745430e-01,4.668236e-01,3,2,4.742820e+00,5.299200e+00,1
7.592850e-01,8.429290e-01,8.358955e-01,3,5,6.999287e+00,7.780633e+00,1
1.006038e+00,6.754390e-01,6.680489e-01,4,4,4.729687e+00,5.283282e+00,1
7.576840e-01,1.990340e-01,1.919270e-01,3,0,4.729969e+00,5.300493e+00,1
7.575310e-01,3.185990e-01,3.108978e-01,3,1,3.782372e+00,3.995148e+00,1
7.583320e-01,2.901970e-01,2.818108e-01,3,1,1.741797e+00,1.741795e+00,1
7.579470e-01,1.729190e-01,1.649857e-01,3,0,2.976777e+00,2.976783e+00,1
7.578040e-01,1.732630e-01,1.661777e-01,3,0,2.254521e+00,2.254520e+00,1
7.570510e-01,1.727870e-01,1.649857e-01,3,0,1.905486e+00,1.905486e+00,1
7.572800e-01,1.715780e-01,1.637936e-01,3,0,1.692351e+00,1.692352e+00,1
7.567700e-01,1.729320e-01,1.659393e-01,3,0,3.137586e+00,3.137592e+00,1
7.507610e-01,1.727700e-01,1.649857e-01,3,0,6.149601e+00,6.149608e+00,1
7.577740e-01,4.606490e-01,4.529953e-01,3,2,9.172877e+00,9.173347e+00,1
7.587320e-01,2.141406e+00,2.134085e+00,3,15,1.333648e+01,1.355562e+01,1
7.617390e-01,1.528905e+00,1.520872e+00,3,11,1.134660e+01,1.143798e+01,1
7.548350e-01,1.541133e+00,1.532793e+00,3,11,8.085257e+00,8.087268e+00,1
7.581580e-01,5.768050e-01,5.698204e-01,3,3,6.683478e+00,6.709859e+00,1
7.585750e-01,3.183220e-01,3.111362e-01,3,1,4.983693e+00,4.983769e+00,1
7.598900e-01,1.308184e+00,1.297951e+00,3,6,6.793476e+00,6.941058e+00,0
1.006938e+00,1.064557e+00,1.056910e+00,4,7,5.295373e+00,5.295435e+00,1
1.509764e+00,4.509720e-01,4.429817e-01,6,2,6.939467e+00,6.936807e+00,1
1.506926e+00,1.466990e+00,1.460075e+00,6,10,8.130694e+00,1.027100e+01,1
1.004865e+00,1.602235e+00,1.593828e+00,4,12,3.604671e+00,3.604666e+00,1
7.577920e-01,3.213020e-01,3.139973e-01,3,1,3.340120e+00,3.342779e+00,1
7.567000e-01,1.999500e-01,1.912117e-01,3,0,4.516669e+00,4.534981e+00,1
7.575320e-01,1.992870e-01,1.909733e-01,3,0,5.095234e+00,5.123693e+00,1
7.576140e-01,1.993560e-01,1.919270e-01,3,0,3.826536e+00,3.846379e+00,1
7.583950e-01,4.670440e-01,4.591942e-01,3,2,4.299020e+00,4.334814e+00,1
7.562820e-01,5.244260e-01,5.168915e-01,3,3,2.949996e+00,2.949996e+00,1
7.571110e-01,3.179360e-01,3.099442e-01,3,1,2.707971e+00,2.714416e+00,1
7.510820e-01,3.412410e-01,3.330708e-01,3,1,2.345814e+00,2.354801e+00,1
7.501490e-01,2.052870e-01,1.971722e-01,3,0,2.330040e+00,2.340822e+00,1
7.580870e-01,6.302660e-01,6.220341e-01,3,3,3.047044e+00,3.113892e+00,1
7.515190e-01,8.650360e-01,8.578300e-01,3,5,3.280930e+00,3.386082e+00,1
7.569060e-01,9.441240e-01,9.360313e-01,3,6,2.903133e+00,3.187467e+00,1
7.511240e-01,5.903220e-01,5.829334e-01,3,3,2.507598e+00,2.669158e+00,1
7.572290e-01,3.237300e-01,3.147125e-01,3,1,2.264228e+00,2.318387e+00,1
7.566140e-01,4.071170e-01,3.998280e-01,3,2,1.652549e+00,1.652530e+00,1
7.571230e-01,3.205490e-01,3.139973e-01,3,1,1.765878e+00,1.767031e+00,1
7.569720e-01,1.997610e-01,1.912117e-01,3,0,2.497803e+00,2.627709e+00,1
7.563680e-01,2.910360e-01,2.827644e-01,3,1,1.503580e+00,1.503578e+00,1
7.566660e-01,1.722920e-01,1.649857e-01,3,0,1.269619e+00,1.269619e+00,1
7.570910e-01,1.725620e-01,1.649857e-01,3,0,2.662012e+00,2.662015e+00,1
7.572650e-01,1.726630e-01,1.659393e-01,3,0,2.135958e+00,2.135958e+00,1
7.571650e-01,5.944560e-01,5.879402e-01,3,3,5.528974e+00,5.558897e+00,1
7.506890e-01,4.592500e-01,4.510880e-01,3,2,4.058172e+00,4.251624e+00,1
7.568250e-01,4.414930e-01,4.339218e-01,3,2,3.838453e+00,4.039868e+00,1
7.577810e-01,3.320470e-01,3.252029e-01,3,1,4.516856e+00,4.602084e+00,1
7.564640e-01,8.237930e-01,8.161068e-01,3,5,4.356604e+00,4.367500e+00,1
7.515960e-01,4.752280e-01,4.670620e-01,3,2,5.017701e+00,5.083576e+00,1
7.581660e-01,1.819653e+00,1.812935e+00,3,13,8.703929e+00,9.639482e+00,1
1.501004e+00,8.984350e-01,8.909702e-01,6,6,5.912551e+00,6.055218e+00,1
1.004021e+00,8.238160e-01,8.161068e-01,4,5,5.018074e+00,5.078467e+00,1
7.579830e-01,6.772010e-01,6.690025e-01,3,4,4.875985e+00,4.883563e+00,1
7.576260e-01,1.992030e-01,1.919270e-01,3,0,2.577981e+00,2.713371e+00,1
7.570770e-01,3.369260e-01,3.302097e-01,3,1,3.779423e+00,3.792058e+00,1
7.591450e-01,4.535620e-01,4.460812e-01,3,2,2.957045e+00,2.974477e+00,1
7.587150e-01,7.146420e-01,7.059574e-01,3,4,2.638000e+00,2.691403e+00,1
7.574510e-01,4.735400e-01,4.658699e-01,3,2,1.823358e+00,1.913322e+00,1
7.572740e-01,1.983470e-01,1.909733e-01,3,0,1.609287e+00,1.610908e+00,1
7.568310e-01,4.371330e-01,4.301071e-01,3,2,1.493898e+00,1.494155e+00,1
7.560520e-01,1.991510e-01,1.909733e-01,3,0,1.929854e+00,1.986583e+00,1
7.568090e-01,2.901950e-01,2.820492e-01,3,1,2.235079e+00,2.235081e+00,1
7.563800e-01,1.727120e-01,1.649857e-01,3,0,1.628590e+00,1.628590e+00,1
7.558640e-01,1.725410e-01,1.649857e-01,3,0,1.749674e+00,1.749675e+00,1
7.567720e-01,1.726800e-01,1.649857e-01,3,0,1.593223e+00,1.593224e+00,1
7.589390e-01,3.178870e-01,3.108978e-01,3,1,2.792650e+00,2.792654e+00,1
7.504240e-01,4.784060e-01,4.699230e-01,3,2,4.685465e+00,4.696194e+00,1
7.562090e-01,5.838710e-01,5.760193e-01,3,3,5.080844e+00,5.234798e+00,1
1.007067e+00,4.743840e-01,4.670620e-01,4,2,3.655162e+00,3.817719e+00,1
7.613730e-01,7.337930e-01,7.259846e-01,3,4,3.071643e+00,3.303004e+00,1
1.257404e+00,7.084500e-01,7.009506e-01,5,4,2.998595e+00,3.180559e+00,1
1.253138e+00,1.990190e-01,1.919270e-01,5,0,2.378945e+00,2.414124e+00,1
1.005682e+00,3.168820e-01,3.087521e-01,4,1,1.944172e+00,2.040000e+00,1
7.503260e-01,2.040370e-01,1.919270e-01,3,0,3.047904e+00,3.048140e+00,1
7.572630e-01,2.970020e-01,2.899170e-01,3,1,4.115110e+00,4.115115e+00,1
7.509800e-01,1.720840e-01,1.640320e-01,3,0,2.412815e+00,2.412813e+00,1
7.510240e-01,1.782170e-01,1.709461e-01,3,0,2.446415e+00,2.446416e+00,1
7.504620e-01,1.779460e-01,1.709461e-01,3,0,2.240654e+00,2.240654e+00,1
7.507690e-01,1.782940e-01,1.709461e-01,3,0,2.267386e+00,2.267387e+00,1
7.507330e-01,1.776540e-01,1.709461e-01,3,0,1.993353e+00,1.993354e+00,1
7.514070e-01,3.266040e-01,3.190041e-01,3,1,2.176966e+00,2.177491e+00,1
7.517710e-01,2.965650e-01,2.889633e-01,3,1,3.031046e+00,3.031049e+00,1
7.506180e-01,1.780110e-01,1.699924e-01,3,0,2.969192e+00,2.969193e+00,1
7.514330e-01,1.782310e-01,1.711845e-01,3,0,3.052853e+00,3.052854e+00,1
7.504400e-01,1.773940e-01,1.699924e-01,3,0,3.712927e+00,3.712931e+00,1
7.559950e-01,1.729460e-01,1.659393e-01,3,0,1.896609e+00,1.896609e+00,1
7.564960e-01,1.722170e-01,1.649857e-01,3,0,1.297063e+00,1.297063e+00,1
7.558350e-01,1.726230e-01,1.649857e-01,3,0,1.558702e+00,1.558704e+00,1
7.567670e-01,1.723680e-01,1.637936e-01,3,0,5.379141e-01,5.379148e-01,1
7.564780e-01,1.722140e-01,1.640320e-01,3,0,5.159869e-01,5.159873e-01,1
7.557350e-01,1.723800e-01,1.649857e-01,3,0,8.536527e-01,8.536540e-01,1
7.561420e-01,1.722840e-01,1.649857e-01,3,0,7.504396e-01,7.504398e-01,1
7.574670e-01,1.722460e-01,1.637936e-01,3,0,2.258262e+00,2.258267e+00,1
7.563070e-01,4.585790e-01,4.498959e-01,3,2,1.685140e+00,1.688989e+00,1
7.505620e-01,5.632260e-01,5.550385e-01,3,3,1.252724e+00,1.252901e+00,1
7.577400e-01,2.969750e-01,2.880096e-01,3,1,1.205366e+00,1.205367e+00,1
7.502480e-01,1.721770e-01,1.649857e-01,3,0,1.323809e+00,1.323811e+00,1
7.501730e-01,1.784470e-01,1.709461e-01,3,0,1.361021e+00,1.361021e+00,1
7.627640e-01,1.786670e-01,1.702309e-01,3,0,8.194810e-01,8.194810e-01,1
7.506600e-01,1.802670e-01,1.711845e-01,3,0,7.558736e-01,7.558746e-01,1
7.507760e-01,1.779540e-01,1.699924e-01,3,0,6.877739e-01,6.877748e-01,1
7.558990e-01,1.720080e-01,1.640320e-01,3,0,5.802275e-01,5.802278e-01,1
7.560950e-01,1.725250e-01,1.649857e-01,3,0,1.807307e+00,1.807310e+00,1
7.538090e-01,4.637520e-01,4.570484e-01,3,2,1.662279e+00,1.670297e+00,1
7.593690e-01,3.428350e-01,3.340244e-01,3,1,2.205957e+00,2.238840e+00,1
7.589040e-01,8.775310e-01,8.699894e-01,3,5,3.402233e+00,3.643937e+00,1
7.582230e-01,6.968470e-01,6.890297e-01,3,4,2.804718e+00,3.132723e+00,1
7.582820e-01,6.105120e-01,6.020069e-01,3,3,3.409132e+00,3.890976e+00,1
7.515560e-01,4.594060e-01,4.510880e-01,3,2,2.893484e+00,3.311885e+00,1
7.524750e-01,3.237950e-01,3.161430e-01,3,1,2.799540e+00,3.014173e+00,1
7.579260e-01,5.752100e-01,5.681515e-01,3,3,2.781917e+00,2.945201e+00,1
7.570470e-01,7.171360e-01,7.090569e-01,3,4,4.792941e+00,4.807857e+00,1
7.585110e-01,8.472610e-01,8.399487e-01,3,5,6.148511e+00,6.230398e+00,1
7.575570e-01,3.176030e-01,3.092289e-01,3,1,5.560492e+00,5.629480e+00,1
7.521280e-01,5.970180e-01,5.900860e-01,3,3,4.600527e+00,4.624088e+00,1
7.590850e-01,4.751270e-01,4.668236e-01,3,2,4.134781e+00,4.157539e+00,1
7.569800e-01,5.848130e-01,5.779266e-01,3,3,3.338624e+00,3.360086e+00,1
7.511940e-01,7.117770e-01,7.040501e-01,3,4,3.403786e+00,3.498657e+00,1
7.568750e-01,7.011560e-01,6.940365e-01,3,4,3.342627e+00,3.526540e+00,1
1.006015e+00,9.642190e-01,9.570122e-01,4,6,2.631259e+00,2.762632e+00,1
7.518830e-01,6.960300e-01,6.890297e-01,3,4,2.119331e+00,2.282793e+00,1
7.511760e-01,1.102303e+00,1.094818e+00,3,7,4.146191e+00,5.275299e+00,1
1.501314e+00,5.886960e-01,5.810261e-01,6,3,8.562667e+00,9.880705e+00,1
1.005090e+00,8.079870e-01,8.001328e-01,4,5,1.004853e+01,1.066392e+01,1
1.505166e+00,6.876230e-01,6.799698e-01,6,4,1.096190e+01,1.107477e+01,1
1.502402e+00,4.559860e-01,4.489422e-01,6,2,1.328941e+01,1.349160e+01,1
1.006600e+00,6.762880e-01,6.649494e-01,4,1,1.809574e+01,2.041401e+01,0
1.007294e+00,7.230170e-01,7.150173e-01,4,4,1.255306e+01,1.262386e+01,1
1.502686e+00,7.161730e-01,7.081032e-01,6,4,1.551698e+01,1.574198e+01,1
1.006593e+00,1.772044e+00,1.759768e+00,4,10,1.265602e+01,1.337507e+01,0
1.504961e+00,5.520720e-01,5.414486e-01,6,0,1.138379e+01,1.250769e+01,0
1.508075e+00,1.184812e+00,1.176119e+00,6,8,8.970716e+00,9.065387e+00,1
1.508138e+00,1.658247e+00,1.646757e+00,6,9,1.001838e+01,1.277625e+01,0
1.503953e+00,1.648670e+00,1.640081e+00,6,12,7.731952e+00,8.040775e+00,1
1.509469e+00,9.059463e+01,9.058404e+01,6,976,9.442157e+00,7.447688e+01,0
1.262799e+00,2.721612e+01,2.720618e+01,5,275,3.777866e+00,8.512426e+01,0
7.581910e-01,4.190780e-01,4.091263e-01,3,0,3.003346e+00,8.367733e+01,0
7.572030e-01,4.173420e-01,4.072189e-01,3,0,3.424980e+00,8.438250e+01,0
1.007459e+00,4.263540e-01,4.167557e-01,4,0,2.182479e+00,7.722429e+01,0
7.583770e-01,4.174150e-01,4.081726e-01,3,0,3.400689e+00,7.862105e+01,0
7.581210e-01,4.178260e-01,4.074574e-01,3,0,3.604638e+00,7.941044e+01,0
7.573870e-01,4.203820e-01,4.093647e-01,3,0,6.896880e+00,8.679143e+01,0
1.005974e+00,4.255670e-01,4.150867e-01,4,0,3.749577e+00,7.868808e+01,0
7.572030e-01,4.178170e-01,4.086494e-01,3,0,3.348520e+00,7.652585e+01,0
7.586650e-01,4.197200e-01,4.110336e-01,3,0,3.239056e+00,7.587213e+01,0
7.567950e-01,4.162790e-01,4.079342e-01,3,0,2.910150e+00,7.666563e+01,0
7.510110e-01,4.232480e-01,4.131794e-01,3,0,2.985147e+00,7.694538e+01,0
7.568870e-01,4.259480e-01,4.181862e-01,3,0,4.186856e+00,7.943016e+01,0
7.597900e-01,4.174280e-01,4.091263e-01,3,0,2.207219e+00,7.660282e+01,0
7.572940e-01,4.169370e-01,4.091263e-01,3,0,1.593289e+00,7.611025e+01,0
7.570860e-01,4.215510e-01,4.122257e-01,3,0,1.814652e+00,7.604842e+01,0
7.509040e-01,4.227460e-01,4.138947e-01,3,0,1.803950e+00,7.467953e+01,0
7.718990e-01,4.253960e-01,4.172325e-01,3,0,1.407025e+00,7.388682e+01,0
7.568010e-01,4.225250e-01,4.141331e-01,3,0,1.955592e+00,7.328618e+01,0
7.568020e-01,4.166200e-01,4.091263e-01,3,0,2.859262e+00,7.428802e+01,0
7.583870e-01,4.150270e-01,4.045963e-01,3,0,4.225542e+00,7.625339e+01,0
7.508820e-01,4.263470e-01,4.169941e-01,3,0,8.867356e+00,8.410524e+01,0
7.563900e-01,4.218950e-01,4.119873e-01,3,0,1.202506e+01,8.967954e+01,0
1.512055e+00,4.172370e-01,4.079342e-01,6,0,8.847311e+00,8.577171e+01,0
7.599050e-01,4.205020e-01,4.122257e-01,3,0,1.123423e+01,8.892256e+01,0
1.005137e+00,4.161950e-01,4.091263e-01,4,0,8.463917e+00,8.480381e+01,0
7.505330e-01,4.234560e-01,4.141331e-01,3,0,6.840927e+00,8.207514e+01,0
7.575990e-01,4.278970e-01,4.179478e-01,3,0,7.454639e+00,8.548643e+01,0
1.504260e+00,4.169760e-01,4.081726e-01,6,0,5.269092e+00,8.107165e+01,0
7.571800e-01,4.162910e-01,4.062653e-01,3,0,3.720816e+00,7.612801e+01,0
7.584480e-01,4.206940e-01,4.119873e-01,3,0,2.696370e+00,7.478499e+01,0
7.564880e-01,4.157300e-01,4.067421e-01,3,0,2.449486e+00,7.486387e+01,0
7.519890e-01,4.236670e-01,4.148483e-01,3,0,2.550985e+00,7.586714e+01,0
7.540440e-01,4.272890e-01,4.167557e-01,3,0,3.623427e+00,7.900606e+01,0
7.573080e-01,4.216540e-01,4.131794e-01,3,0,1.321645e+00,7.393748e+01,0
7.584410e-01,4.175890e-01,4.100800e-01,3,0,4.655798e+00,8.149310e+01,0
1.505429e+00,4.196320e-01,4.100800e-01,6,0,9.568811e+00,8.983034e+01,0
1.004538e+00,4.156020e-01,4.069805e-01,4,0,5.819027e+00,8.169028e+01,0
1.004500e+00,4.208310e-01,4.117489e-01,4,0,4.004749e+00,7.773455e+01,0
7.606000e-01,4.202470e-01,4.112720e-01,3,0,3.628570e+00,7.614380e+01,0
7.564470e-01,4.161560e-01,4.072189e-01,3,0,3.278535e+00,7.588044e+01,0
7.515650e-01,4.232030e-01,4.131794e-01,3,0,3.041234e+00,7.708895e+01,0
7.561080e-01,4.270480e-01,4.169941e-01,3,0,4.050603e+00,8.057000e+01,0
7.568740e-01,4.164660e-01,4.069805e-01,3,0,3.271551e+00,8.035847e+01,0
7.588870e-01,4.182780e-01,4.086494e-01,3,0,2.372955e+00,7.792747e+01,0
7.581620e-01,4.211470e-01,4.131794e-01,3,0,2.718515e+00,7.839221e+01,0
1.502850e+00,4.221980e-01,4.150867e-01,6,0,4.928565e+00,8.143132e+01,0
1.505515e+00,4.164600e-01,4.069805e-01,6,0,8.253862e+00,8.451330e+01,0
1.508695e+00,4.212440e-01,4.122257e-01,6,0,1.487587e+01,9.329510e+01,0
1.506661e+00,1.396587e+01,1.395631e+01,6,140,1.818765e+01,1.036042e+02,0
1.502396e+00,4.234230e-01,4.131794e-01,6,0,1.677468e+01,1.043734e+02,0
1.506038e+00,1.414677e+01,1.413703e+01,6,140,1.852554e+01,1.047573e+02,0
1.005977e+00,4.188570e-01,4.084110e-01,4,0,1.652536e+01,1.002846e+02,0
1.504445e+00,4.202870e-01,4.110336e-01,6,0,1.767522e+01,1.015236e+02,0
1.504140e+00,4.258170e-01,4.181862e-01,6,0,1.771087e+01,9.988312e+01,0
1.503291e+00,4.223810e-01,4.129410e-01,6,0,1.488955e+01,9.618436e+01,0
1.503172e+00,4.222310e-01,4.141331e-01,6,0,1.309347e+01,9.381946e+01,0
1.502634e+00,4.299030e-01,4.200935e-01,6,0,1.065770e+01,9.083377e+01,0
1.504588e+00,4.238760e-01,4.150867e-01,6,0,1.025751e+01,9.289001e+01,0
1.501944e+00,4.258620e-01,4.169941e-01,6,0,1.036345e+01,9.670706e+01,0
1.503336e+00,4.274590e-01,4.191399e-01,6,0,1.306325e+01,1.041805e+02,0
1.753934e+00,4.213110e-01,4.122257e-01,7,0,2.240734e+01,1.205666e+02,0
1.257201e+00,4.254230e-01,4.162788e-01,5,0,2.653136e+01,1.256825e+02,0
1.511311e+00,4.226440e-01,4.141331e-01,6,0,3.103555e+01,1.282435e+02,0
1.268545e+00,4.174520e-01,4.088879e-01,5,0,2.875893e+01,1.227505e+02,0
1.509272e+00,4.184490e-01,4.098415e-01,6,0,2.978475e+01,1.219421e+02,0
1.510968e+00,4.196790e-01,4.110336e-01,6,0,3.641486e+01,1.284910e+02,0
1.256620e+00,4.168730e-01,4.072189e-01,5,0,3.408670e+01,1.244988e+02,0
1.503586e+00,4.242390e-01,4.136562e-01,6,0,2.922717e+01,1.187444e+02,0
1.753011e+00,4.279080e-01,4.181862e-01,7,0,2.591334e+01,1.150697e+02,0
1.502772e+00,4.225900e-01,4.141331e-01,6,0,2.312556e+01,1.116304e+02,0
1.260897e+00,4.267060e-01,4.172325e-01,5,0,1.992231e+01,1.083962e+02,0
1.515386e+00,1.414426e+01,1.413417e+01,6,141,1.804290e+01,1.124914e+02,0
1.507875e+00,4.239930e-01,4.136562e-01,6,0,1.933378e+01,1.181671e+02,0
1.506867e+00,1.403758e+01,1.402712e+01,6,141,1.377234e+01,1.038211e+02,0
1.503262e+00,4.291830e-01,4.186630e-01,6,0,1.272478e+01,1.026415e+02,0
1.504473e+00,4.251490e-01,4.162788e-01,6,0,1.405444e+01,1.060844e+02,0
1.502405e+00,4.255360e-01,4.160404e-01,6,0,1.176776e+01,9.906335e+01,0
1.004607e+00,4.270570e-01,4.191399e-01,4,0,1.061047e+01,9.606626e+01,0
1.510966e+00,4.151660e-01,4.060268e-01,6,0,9.815576e+00,9.235444e+01,0
1.500212e+00,4.184170e-01,4.100800e-01,6,0,8.134473e+00,8.880769e+01,0
1.502134e+00,4.268480e-01,4.200935e-01,6,0,4.295549e+00,8.145367e+01,0
7.568310e-01,4.230410e-01,4.124641e-01,3,0,4.033924e+00,8.069274e+01,0
7.574040e-01,4.157770e-01,4.060268e-01,3,0,4.045209e+00,7.854485e+01,0
7.581690e-01,4.193010e-01,4.100800e-01,3,0,4.076286e+00,7.697651e+01,0
7.568780e-01,4.168640e-01,4.072189e-01,3,0,3.726540e+00,7.750076e+01,0
7.514230e-01,4.232430e-01,4.141331e-01,3,0,2.612026e+00,7.500604e+01,0
7.590670e-01,4.263050e-01,4.169941e-01,3,0,3.492545e+00,7.786775e+01,0
7.568210e-01,4.156530e-01,4.060268e-01,3,0,4.909763e+00,7.928140e+01,0
7.564790e-01,4.179630e-01,4.100800e-01,3,0,5.739588e+00,7.896171e+01,0
7.557390e-01,4.193750e-01,4.110336e-01,3,0,4.968606e+00,7.948749e+01,0
7.510230e-01,4.223640e-01,4.138947e-01,3,0,4.866031e+00,7.781387e+01,0
7.611300e-01,4.216450e-01,4.117489e-01,3,0,4.971257e+00,7.909181e+01,0
7.578540e-01,4.202270e-01,4.110336e-01,3,0,4.647706e+00,7.971172e+01,0
7.564130e-01,4.161720e-01,4.079342e-01,3,0,4.581211e+00,7.875309e+01,0
7.564910e-01,4.176350e-01,4.076958e-01,3,0,5.032462e+00,7.932370e+01,0
7.510820e-01,4.255310e-01,4.162788e-01,3,0,1.007790e+01,8.805908e+01,0
1.252215e+00,4.220620e-01,4.122257e-01,5,0,1.345675e+01,9.589613e+01,0
1.256142e+00,4.321660e-01,4.229546e-01,5,0,1.622785e+01,1.030508e+02,0
1.006743e+00,4.210490e-01,4.105568e-01,4,0,1.362234e+01,1.002416e+02,0
1.501566e+00,4.225900e-01,4.129410e-01,6,0,1.102233e+01,9.480057e+01,0
1.007353e+00,4.221930e-01,4.129410e-01,4,0,8.596646e+00,8.806324e+01,0
7.573610e-01,4.207290e-01,4.119873e-01,3,0,6.808038e+00,8.570708e+01,0
7.577620e-01,4.171480e-01,4.088879e-01,3,0,7.395014e+00,8.839099e+01,0
1.506941e+00,4.181270e-01,4.091263e-01,6,0,7.371392e+00,9.068474e+01,0
1.505458e+00,4.220850e-01,4.131794e-01,6,0,5.764514e+00,8.848189e+01,0
1.509291e+00,4.163370e-01,4.069805e-01,6,0,6.236365e+00,8.832005e+01,0
1.505152e+00,4.182000e-01,4.100800e-01,6,0,8.534455e+00,8.853626e+01,0
1.506098e+00,4.204690e-01,4.127026e-01,6,0,9.959397e+00,8.799308e+01,0
1.516983e+00,4.161650e-01,4.072189e-01,6,0,1.214505e+01,9.057731e+01,0
1.006130e+00,4.180780e-01,4.093647e-01,4,0,9.520290e+00,8.698695e+01,0
7.509630e-01,4.274100e-01,4.189014e-01,3,0,1.340860e+01,9.380522e+01,0
7.576930e-01,4.229560e-01,4.131794e-01,3,0,1.342304e+01,9.422455e+01,0
1.254677e+00,4.178850e-01,4.093647e-01,5,0,1.130113e+01,9.143413e+01,0
7.511060e-01,4.255630e-01,4.162788e-01,3,0,9.720005e+00,9.040510e+01,0
1.005116e+00,4.215820e-01,4.119873e-01,4,0,9.790307e+00,9.384372e+01,0
1.506620e+00,4.183980e-01,4.093647e-01,6,0,9.349603e+00,9.530356e+01,0
1.508425e+00,4.215040e-01,4.119873e-01,6,0,7.677319e+00,9.264112e+01,0
1.506845e+00,4.178500e-01,4.081726e-01,6,0,7.184295e+00,9.215122e+01,0
1.505578e+00,4.163630e-01,4.062653e-01,6,0,5.000630e+00,8.817692e+01,0
1.253679e+00,4.202440e-01,4.112720e-01,5,0,4.152874e+00,8.530248e+01,0
1.007575e+00,4.227590e-01,4.131794e-01,4,0,2.567922e+00,7.907253e+01,0
1.006025e+00,4.183890e-01,4.100800e-01,4,0,1.422067e+00,7.414268e+01,0
7.518400e-01,4.265070e-01,4.165173e-01,3,0,1.435147e+00,7.342574e+01,0
7.577590e-01,4.208650e-01,4.060268e-01,3,0,2.225756e+00,7.474753e+01,0
7.569850e-01,4.180530e-01,4.088879e-01,3,0,1.711427e+00,7.199393e+01,0
7.558430e-01,4.189060e-01,4.103184e-01,3,0,1.503605e+00,7.286397e+01,0
7.509970e-01,4.200600e-01,4.110336e-01,3,0,1.477859e+00,7.203303e+01,0
7.509850e-01,4.206610e-01,4.117489e-01,3,0,1.256388e+00,7.293824e+01,0
7.575100e-01,4.250100e-01,4.153252e-01,3,0,1.033452e+00,7.257400e+01,0
7.569420e-01,4.158530e-01,4.062653e-01,3,0,1.536539e+00,7.384834e+01,0
7.572100e-01,4.175190e-01,4.076958e-01,3,0,1.371850e+00,7.244610e+01,0
7.507580e-01,4.189870e-01,4.091263e-01,3,0,5.408334e-01,7.030033e+01,0
7.503810e-01,4.233590e-01,4.141331e-01,3,0,1.104769e+00,7.110240e+01,0
7.568360e-01,4.223980e-01,4.141331e-01,3,0,7.625498e-01,7.016847e+01,0
7.592650e-01,4.209650e-01,4.112720e-01,3,0,9.044855e-01,7.135714e+01,0
7.557630e-01,4.155540e-01,4.060268e-01,3,0,8.919858e-01,7.048520e+01,0
7.563460e-01,4.151780e-01,4.048347e-01,3,0,1.692716e+00,7.216762e+01,0
7.541480e-01,4.246890e-01,4.158020e-01,3,0,1.425011e+00,7.208978e+01,0
7.568180e-01,4.218560e-01,4.117489e-01,3,0,1.063074e+00,7.143596e+01,0
7.572830e-01,4.161170e-01,4.057884e-01,3,0,6.629446e-01,7.020697e+01,0
7.569850e-01,4.204290e-01,4.110336e-01,3,0,1.101761e+00,7.129851e+01,0
7.604250e-01,4.163840e-01,4.076958e-01,3,0,1.029011e+00,7.216332e+01,0
7.511720e-01,4.246260e-01,4.148483e-01,3,0,6.833892e-01,7.071102e+01,0
7.564390e-01,4.259550e-01,4.155636e-01,3,0,9.666373e-01,7.154380e+01,0
7.604750e-01,4.155540e-01,4.069805e-01,3,0,8.731060e-01,7.082437e+01,0
7.560390e-01,4.153970e-01,4.067421e-01,3,0,1.390822e+00,7.274271e+01,0
7.588060e-01,4.199280e-01,4.107952e-01,3,0,2.443202e+00,7.509241e+01,0
7.510290e-01,4.215090e-01,4.131794e-01,3,0,2.069026e+00,7.449721e+01,0
7.596090e-01,4.228760e-01,4.127026e-01,3,0,2.103022e+00,7.350321e+01,0
7.605750e-01,4.201150e-01,4.110336e-01,3,0,4.527917e+00,7.735544e+01,0
7.601400e-01,4.157960e-01,4.057884e-01,3,0,5.473522e+00,7.971664e+01,0
1.004437e+00,4.183790e-01,4.096031e-01,4,0,3.322616e+00,7.574476e+01,0
7.577800e-01,4.250000e-01,4.169941e-01,3,0,2.489345e+00,7.381200e+01,0
7.562310e-01,4.159680e-01,4.069805e-01,3,0,1.793925e+00,7.270155e+01,0
7.569630e-01,4.146220e-01,4.057884e-01,3,0,1.489397e+00,7.249705e+01,0
7.566530e-01,4.198220e-01,4.103184e-01,3,0,1.164913e+00,7.191730e+01,0
7.506820e-01,4.230510e-01,4.127026e-01,3,0,1.632872e+00,7.310727e+01,0
7.572740e-01,4.221510e-01,4.117489e-01,3,0,1.574934e+00,7.299806e+01,0
7.576700e-01,4.207670e-01,4.119873e-01,3,0,9.159348e-01,7.172455e+01,0
7.569030e-01,4.156610e-01,4.055500e-01,3,0,1.816744e+00,7.440268e+01,0
7.619140e-01,4.183980e-01,4.100800e-01,3,0,1.076612e+00,7.264186e+01,0
7.503110e-01,4.249210e-01,4.110336e-01,3,0,9.301057e-01,7.168274e+01,0
7.587370e-01,4.217820e-01,4.129410e-01,3,0,1.166574e+00,7.217086e+01,0
7.575630e-01,4.148120e-01,4.060268e-01,3,0,1.111823e+00,7.160296e+01,0
7.587540e-01,4.196650e-01,4.103184e-01,3,0,1.239799e+00,7.170989e+01,0
7.557530e-01,4.156610e-01,4.062653e-01,3,0,1.497574e+00,7.294528e+01,0
7.509820e-01,4.233770e-01,4.150867e-01,3,0,1.210338e+00,7.203399e+01,0
7.593910e-01,4.243310e-01,4.138947e-01,3,0,1.137424e+00,7.269841e+01,0
7.585930e-01,4.147540e-01,4.053116e-01,3,0,1.488260e+00,7.336953e+01,0
7.567110e-01,4.170250e-01,4.079342e-01,3,0,1.649405e+00,7.281790e+01,0
7.577480e-01,4.211460e-01,4.112720e-01,3,0,2.631394e+00,7.407324e+01,0
7.508740e-01,4.219000e-01,4.119873e-01,3,0,1.910631e+00,7.367619e+01,0
7.560320e-01,4.202600e-01,4.098415e-01,3,0,1.668246e+00,7.223793e+01,0
7.586760e-01,4.198390e-01,4.122257e-01,3,0,1.462700e+00,7.238162e+01,0
7.582440e-01,4.157600e-01,4.067421e-01,3,0,1.639058e+00,7.322808e+01,0
7.556070e-01,4.177610e-01,4.081726e-01,3,0,1.301585e+00,7.331010e+01,0
7.504330e-01,4.268810e-01,4.179478e-01,3,0,2.123046e+00,7.624670e+01,0
1.004876e+00,4.218720e-01,4.117489e-01,4,0,1.697564e+00,7.371869e+01,0
7.564260e-01,4.196430e-01,4.096031e-01,3,0,1.730443e+00,7.472384e+01,0
7.581250e-01,4.199700e-01,4.122257e-01,3,0,1.676822e+00,7.445447e+01,0
7.512370e-01,4.216940e-01,4.117489e-01,3,0,1.441220e+00,7.443841e+01,0
7.569390e-01,4.192320e-01,4.096031e-01,3,0,1.145016e+00,7.267698e+01,0
7.577450e-01,4.196060e-01,4.112720e-01,3,0,1.408596e+00,7.261448e+01,0
7.591260e-01,4.156520e-01,4.060268e-01,3,0,2.010236e+00,7.375922e+01,0
7.562840e-01,4.167430e-01,4.069805e-01,3,0,1.226937e+00,7.234245e+01,0
7.516640e-01,4.253540e-01,4.169941e-01,3,0,2.298264e+00,7.447091e+01,0
7.598280e-01,4.212760e-01,4.107952e-01,3,0,1.491987e+00,7.356732e+01,0
7.701320e-01,4.173640e-01,4.107952e-01,3,0,1.356372e+00,7.326934e+01,0
7.577090e-01,4.219700e-01,4.122257e-01,3,0,1.364592e+00,7.382801e+01,0
7.591580e-01,4.161810e-01,4.055500e-01,3,0,1.295325e+00,7.275243e+01,0
7.501860e-01,4.206790e-01,4.107952e-01,3,0,9.898042e-01,7.154349e+01,0
7.582070e-01,4.259490e-01,4.162788e-01,3,0,1.600908e+00,7.221211e+01,0
7.571210e-01,4.164320e-01,4.079342e-01,3,0,1.163289e+00,7.198872e+01,0
7.560430e-01,4.171370e-01,4.081726e-01,3,0,1.059579e+00,7.131842e+01,0
7.567160e-01,4.200830e-01,4.110336e-01,3,0,9.337043e-01,7.098451e+01,0
7.501640e-01,4.225100e-01,4.131794e-01,3,0,7.253383e-01,7.122140e+01,0
7.567820e-01,4.236120e-01,4.143715e-01,3,0,9.980460e-01,7.141805e+01,0
7.595840e-01,4.205300e-01,4.119873e-01,3,0,7.338772e-01,7.133716e+01,0
7.586900e-01,4.165760e-01,4.069805e-01,3,0,3.571120e+00,7.772556e+01,0
1.504565e+00,4.153640e-01,4.081726e-01,6,0,8.372316e+00,8.458549e+01,0
1.257764e+00,4.213310e-01,4.122257e-01,5,0,6.725819e+00,8.107114e+01,0
7.600380e-01,4.160290e-01,4.069805e-01,3,0,5.009303e+00,7.793193e+01,0
7.575420e-01,4.172810e-01,4.074574e-01,3,0,3.574384e+00,7.560769e+01,0
7.559970e-01,4.201340e-01,4.110336e-01,3,0,4.274107e+00,7.708739e+01,0
7.512580e-01,4.228600e-01,4.124641e-01,3,0,3.354008e+00,7.642450e+01,0
7.575470e-01,4.226600e-01,4.127026e-01,3,0,3.353349e+00,7.694492e+01,0
7.600490e-01,4.208750e-01,4.131794e-01,3,0,3.966252e+00,7.649158e+01,0
7.571570e-01,4.156690e-01,4.050732e-01,3,0,4.172494e+00,7.643980e+01,0
7.558880e-01,4.162730e-01,4.081726e-01,3,0,3.756116e+00,7.557553e+01,0
7.505950e-01,4.265750e-01,4.172325e-01,3,0,4.176302e+00,7.705591e+01,0
7.569140e-01,4.209830e-01,4.105568e-01,3,0,5.562518e+00,7.921774e+01,0
7.570570e-01,4.189760e-01,4.112720e-01,3,0,5.054131e+00,7.914083e+01,0
7.574050e-01,4.216470e-01,4.131794e-01,3,0,3.847335e+00,7.842044e+01,0
7.569100e-01,4.170300e-01,4.067421e-01,3,0,2.772073e+00,7.702439e+01,0
7.506800e-01,4.246650e-01,4.150867e-01,3,0,2.032709e+00,7.584088e+01,0
1.004782e+00,4.259510e-01,4.181862e-01,4,0,1.602723e+00,7.408711e+01,0
7.596390e-01,4.162180e-01,4.079342e-01,3,0,2.179515e+00,7.353595e+01,0
7.563010e-01,4.149700e-01,4.057884e-01,3,0,1.685778e+00,7.228287e+01,0
7.509400e-01,4.263530e-01,4.162788e-01,3,0,1.998235e+00,7.277363e+01,0
7.563450e-01,4.210510e-01,4.129410e-01,3,0,1.765886e+00,7.223455e+01,0
7.586930e-01,4.169020e-01,4.081726e-01,3,0,1.686377e+00,7.227089e+01,0
7.581980e-01,4.196100e-01,4.098415e-01,3,0,2.064760e+00,7.372099e+01,0
7.550670e-01,4.153060e-01,4.050732e-01,3,0,1.557390e+00,7.207835e+01,0
7.532010e-01,4.243880e-01,4.148483e-01,3,0,1.254291e+00,7.207079e+01,0
7.567670e-01,4.267530e-01,4.169941e-01,3,0,3.322260e+00,7.443407e+01,0
7.598870e-01,4.164640e-01,4.076958e-01,3,0,3.404595e+00,7.490653e+01,0
7.597240e-01,4.153290e-01,4.062653e-01,3,0,1.739828e+00,7.261127e+01,0
7.594560e-01,4.201030e-01,4.112720e-01,3,0,1.780208e+00,7.351356e+01,0
7.515100e-01,4.231560e-01,4.141331e-01,3,0,1.793992e+00,7.312749e+01,0
7.580060e-01,4.222230e-01,4.131794e-01,3,0,2.044609e+00,7.353855e+01,0
7.603230e-01,4.202180e-01,4.119873e-01,3,0,1.171411e+00,7.135058e+01,0
7.590870e-01,4.165250e-01,4.072189e-01,3,0,8.732555e-01,7.085506e+01,0
7.572630e-01,4.182120e-01,4.081726e-01,3,0,1.566977e+00,7.151911e+01,0
7.513010e-01,4.264960e-01,4.160404e-01,3,0,2.133215e+00,7.398118e+01,0
7.588070e-01,4.221390e-01,4.122257e-01,3,0,2.423238e+00,7.569607e+01,0
7.606530e-01,4.156500e-01,4.076958e-01,3,0,1.664377e+00,7.342692e+01,0
7.596640e-01,4.205860e-01,4.112720e-01,3,0,1.782511e+00,7.423858e+01,0
7.563790e-01,4.167210e-01,4.072189e-01,3,0,2.095371e+00,7.423979e+01,0
7.525130e-01,4.233740e-01,4.141331e-01,3,0,2.836702e+00,7.756256e+01,0
7.572210e-01,4.246130e-01,4.162788e-01,3,0,3.175415e+00,7.829514e+01,0
7.588200e-01,4.161300e-01,4.062653e-01,3,0,4.793005e+00,8.062213e+01,0
7.587700e-01,4.184210e-01,4.093647e-01,3,0,4.707928e+00,7.996591e+01,0
7.574470e-01,4.209440e-01,4.131794e-01,3,0,7.760229e+00,8.642042e+01,0
1.007961e+00,4.215270e-01,4.127026e-01,4,0,3.747898e+00,7.883213e+01,0
7.576170e-01,4.176450e-01,4.076958e-01,3,0,3.490995e+00,7.896635e+01,0
7.597910e-01,4.207410e-01,4.105568e-01,3,0,4.043765e+00,7.983979e+01,0
7.514680e-01,4.169110e-01,4.079342e-01,3,0,3.338565e+00,7.877922e+01,0
7.513180e-01,4.229450e-01,4.141331e-01,3,0,3.148992e+00,7.890607e+01,0
7.611760e-01,4.257200e-01,4.160404e-01,3,0,2.645740e+00,7.704492e+01,0
7.592760e-01,4.159440e-01,4.055500e-01,3,0,1.565547e+00,7.325767e+01,0
7.582850e-01,4.189190e-01,4.091263e-01,3,0,2.451566e+00,7.385313e+01,0
7.572850e-01,4.201800e-01,4.100800e-01,3,0,1.923631e+00,7.378163e+01,0
7.512800e-01,4.221260e-01,4.117489e-01,3,0,1.137744e+00,7.195517e+01,0
7.576480e-01,4.204460e-01,4.105568e-01,3,0,1.423832e+00,7.218999e+01,0
7.605410e-01,4.212450e-01,4.122257e-01,3,0,1.126329e+00,7.255076e+01,0
7.577510e-01,4.167670e-01,4.086494e-01,3,0,9.393456e-01,7.205452e+01,0
7.572760e-01,4.174810e-01,4.069805e-01,3,0,9.938702e-01,7.233200e+01,0
7.521720e-01,4.267470e-01,4.167557e-01,3,0,1.134980e+00,7.193313e+01,0
7.567280e-01,4.210250e-01,4.119873e-01,3,0,1.406340e+00,7.246233e+01,0
7.590430e-01,4.179450e-01,4.088879e-01,3,0,3.624410e+00,7.681940e+01,0
7.562740e-01,4.210830e-01,4.119873e-01,3,0,2.850545e+00,7.531696e+01,0
7.558570e-01,4.166350e-01,4.081726e-01,3,0,4.262350e+00,7.765733e+01,0
7.512810e-01,4.218280e-01,4.122257e-01,3,0,2.226142e+00,7.557926e+01,0
7.600320e-01,4.251970e-01,4.179478e-01,3,0,1.878568e+00,7.567731e+01,0
7.568550e-01,4.161740e-01,4.060268e-01,3,0,1.533683e+00,7.455868e+01,0
7.559230e-01,4.172930e-01,4.081726e-01,3,0,1.265543e+00,7.285754e+01,0
7.553880e-01,4.201530e-01,4.110336e-01,3,0,2.392836e+00,7.361246e+01,0
7.526320e-01,4.211460e-01,4.119873e-01,3,0,2.433847e+00,7.403533e+01,0
7.567710e-01,4.242370e-01,4.150867e-01,3,0,3.925436e+00,7.647998e+01,0
7.701590e-01,4.191470e-01,4.112720e-01,3,0,4.115478e+00,7.674041e+01,0
7.595920e-01,4.176290e-01,4.091263e-01,3,0,4.760285e+00,7.833052e+01,0
7.692140e-01,4.153530e-01,4.055500e-01,3,0,7.321901e+00,8.261181e+01,0
1.007819e+00,4.294320e-01,4.198551e-01,4,0,8.196992e+00,8.407166e+01,0
7.572490e-01,4.172970e-01,4.076958e-01,3,0,6.249412e+00,8.073268e+01,0
7.570300e-01,4.181250e-01,4.100800e-01,3,0,5.581939e+00,8.020149e+01,0
7.524090e-01,4.250910e-01,4.160404e-01,3,0,7.746103e+00,8.316102e+01,0
7.537910e-01,4.222800e-01,4.150867e-01,3,0,5.294824e+00,7.938279e+01,0
7.585540e-01,4.239320e-01,4.150867e-01,3,0,4.540174e+00,7.811158e+01,0
7.581710e-01,4.210160e-01,4.119873e-01,3,0,4.349071e+00,7.674168e+01,0
7.580160e-01,4.160070e-01,4.060268e-01,3,0,4.449131e+00,7.732977e+01,0
7.550800e-01,4.145650e-01,4.050732e-01,3,0,4.616703e+00,7.859032e+01,0
7.539880e-01,4.268760e-01,4.189014e-01,3,0,3.861937e+00,7.691543e+01,0
7.593120e-01,4.200520e-01,4.098415e-01,3,0,3.874948e+00,7.771515e+01,0
7.610180e-01,4.180510e-01,4.091263e-01,3,0,4.892058e+00,8.114541e+01,0
1.509533e+00,4.214400e-01,4.122257e-01,6,0,5.510496e+00,8.375151e+01,0
1.508468e+00,4.167760e-01,4.079342e-01,6,0,3.437018e+00,8.008122e+01,0
1.253026e+00,4.199830e-01,4.117489e-01,5,0,3.678490e+00,8.036539e+01,0
1.253229e+00,4.248270e-01,4.143715e-01,5,0,2.483581e+00,7.752689e+01,0
1.500747e+00,4.225970e-01,4.119873e-01,6,0,2.560012e+00,7.681606e+01,0

