5.483260e-01,1.849544e+02,1.847441e+02,2,1000,0.000000e+00,-1.322697e-04,0
7.644440e-01,9.503562e+00,9.492159e+00,3,67,1.635291e-01,1.635295e-01,1
7.598860e-01,1.745520e-01,1.671314e-01,3,0,3.174432e-01,3.174440e-01,1
7.597230e-01,1.738590e-01,1.668930e-01,3,0,6.404139e-01,6.404150e-01,1
7.599980e-01,1.736000e-01,1.659393e-01,3,0,6.814706e-01,6.814713e-01,1
7.598560e-01,1.732190e-01,1.661777e-01,3,0,3.438185e+00,3.438088e+00,1
1.010362e+00,3.160090e-01,3.082752e-01,4,1,4.636225e+00,4.636490e+00,1
7.610800e-01,8.266580e-01,8.182526e-01,3,5,6.159594e+00,6.169700e+00,1
7.595980e-01,5.484710e-01,5.409718e-01,3,3,3.035497e+00,3.068641e+00,1
7.597080e-01,1.997120e-01,1.921654e-01,3,0,2.796309e+00,2.920549e+00,1
7.592020e-01,1.992890e-01,1.919270e-01,3,0,2.705750e+00,2.706144e+00,1
7.597930e-01,2.903030e-01,2.820492e-01,3,1,3.122070e+00,3.122073e+00,1
7.609300e-01,3.192620e-01,3.118515e-01,3,1,4.568900e+00,4.581939e+00,1
7.555410e-01,4.784420e-01,4.708767e-01,3,2,5.969611e+00,6.042836e+00,1
7.607370e-01,1.004507e+00,9.980202e-01,3,6,5.608875e+00,5.641421e+00,1
7.625740e-01,8.701400e-01,8.618832e-01,3,5,7.362583e+00,7.475031e+00,1
7.610370e-01,8.378880e-01,8.289814e-01,3,5,6.065645e+00,6.455270e+00,1
7.649540e-01,5.725090e-01,5.650520e-01,3,3,5.263549e+00,5.708430e+00,1
7.544350e-01,7.082520e-01,7.009506e-01,3,4,4.956472e+00,5.653168e+00,1
7.606780e-01,4.571130e-01,4.491806e-01,3,2,4.472192e+00,4.764005e+00,1
7.547140e-01,9.610520e-01,9.539127e-01,3,6,4.601750e+00,4.706628e+00,1
7.608730e-01,7.209860e-01,7.131100e-01,3,4,3.911328e+00,4.121327e+00,1
7.602670e-01,4.331440e-01,4.260540e-01,3,2,3.893765e+00,4.272720e+00,1
7.621940e-01,8.282070e-01,8.199215e-01,3,5,3.383779e+00,3.763188e+00,1
7.598450e-01,3.174100e-01,3.089905e-01,3,1,3.486811e+00,3.715210e+00,1
7.599690e-01,3.173180e-01,3.089905e-01,3,1,3.784527e+00,3.949834e+00,1
7.601700e-01,1.994470e-01,1.912117e-01,3,0,3.511143e+00,3.706187e+00,1
7.596570e-01,4.364150e-01,4.289150e-01,3,2,3.222728e+00,3.223843e+00,1
7.594340e-01,2.897880e-01,2.808571e-01,3,1,2.181583e+00,2.181571e+00,1
7.588690e-01,1.724580e-01,1.649857e-01,3,0,1.823585e+00,1.823491e+00,1
7.588970e-01,1.726180e-01,1.640320e-01,3,0,1.792374e+00,1.792376e+00,1
7.596130e-01,3.191010e-01,3.118515e-01,3,1,1.511176e+00,1.511189e+00,1
7.593160e-01,2.905250e-01,2.830029e-01,3,1,1.399704e+00,1.399705e+00,1
7.594450e-01,1.725470e-01,1.649857e-01,3,0,2.159047e+00,2.159050e+00,1
7.588900e-01,1.728610e-01,1.640320e-01,3,0,1.800255e+00,1.800256e+00,1
7.603280e-01,1.722360e-01,1.649857e-01,3,0,1.769064e+00,1.769065e+00,1
7.591660e-01,1.723570e-01,1.649857e-01,3,0,1.192308e+00,1.192309e+00,1
7.599630e-01,1.726490e-01,1.659393e-01,3,0,9.342009e-01,9.342014e-01,1
7.593890e-01,1.723710e-01,1.637936e-01,3,0,1.917423e+00,1.917426e+00,1
7.591000e-01,1.728140e-01,1.649857e-01,3,0,2.117949e+00,2.117950e+00,1
7.601040e-01,1.726390e-01,1.649857e-01,3,0,5.376700e+00,5.376708e+00,1
7.612740e-01,9.794460e-01,9.720325e-01,3,6,7.832850e+00,7.883943e+00,1
1.023144e+00,8.019170e-01,7.939339e-01,4,5,5.585845e+00,5.590411e+00,1
1.009531e+00,7.001820e-01,6.909370e-01,4,4,8.443650e+00,8.527817e+00,1
1.011399e+00,8.477570e-01,8.399487e-01,4,5,7.050510e+00,7.254161e+00,1
7.616360e-01,8.300350e-01,8.220673e-01,3,5,6.151737e+00,6.262030e+00,1
7.596150e-01,1.993290e-01,1.919270e-01,3,0,5.910810e+00,6.084504e+00,1
7.606570e-01,5.697800e-01,5.619526e-01,3,3,5.317389e+00,5.514563e+00,1
7.605410e-01,9.645990e-01,9.570122e-01,3,6,4.428854e+00,4.627466e+00,1
7.600080e-01,1.993150e-01,1.919270e-01,3,0,2.915228e+00,3.020316e+00,1
7.601490e-01,1.983090e-01,1.909733e-01,3,0,2.554874e+00,2.585210e+00,1
7.638410e-01,1.106635e+00,1.100063e+00,3,7,3.319741e+00,3.417832e+00,1
7.600400e-01,8.056230e-01,7.979870e-01,3,5,2.465058e+00,2.484505e+00,1
7.641540e-01,7.124780e-01,7.040501e-01,3,4,2.092401e+00,2.137173e+00,1
7.601410e-01,3.334090e-01,3.249645e-01,3,1,2.651240e+00,3.013368e+00,1
1.511893e+00,1.990870e-01,1.900196e-01,6,0,3.615131e+00,3.985677e+00,1
1.009487e+00,4.339880e-01,4.270077e-01,4,2,2.273157e+00,2.343280e+00,1
7.602130e-01,1.986730e-01,1.909733e-01,3,0,3.412858e+00,3.414815e+00,1
7.601660e-01,2.906880e-01,2.830029e-01,3,1,4.630289e+00,4.630293e+00,1
7.547300e-01,4.581320e-01,4.510880e-01,3,2,6.899091e+00,6.910318e+00,1
7.549220e-01,4.120010e-01,4.041195e-01,3,2,3.372377e+00,3.372376e+00,1
7.602790e-01,3.202750e-01,3.118515e-01,3,1,5.440236e+00,5.446489e+00,1
1.013131e+00,3.155777e+00,3.145933e+00,4,21,9.133859e+00,1.526857e+01,0
1.518156e+00,2.439258e+00,2.430916e+00,6,19,5.562215e+00,5.552950e+00,1
1.514488e+00,1.602590e+00,1.594067e+00,6,11,7.573710e+00,8.033567e+00,1
1.264115e+00,1.251334e+00,1.242876e+00,5,9,3.058565e+00,3.066800e+00,1
7.614290e-01,3.272510e-01,3.199577e-01,3,1,3.558775e+00,3.566834e+00,1
1.009614e+00,3.178130e-01,3.111362e-01,4,1,3.687113e+00,3.691004e+00,1
7.602320e-01,4.361550e-01,4.291534e-01,3,2,2.398145e+00,2.412989e+00,1
7.551020e-01,4.598870e-01,4.520416e-01,3,2,2.539506e+00,2.545481e+00,1
7.557790e-01,3.419470e-01,3.340244e-01,3,1,3.432518e+00,3.444192e+00,1
7.539820e-01,2.046350e-01,1.981258e-01,3,0,3.346319e+00,3.374317e+00,1
7.625300e-01,9.653170e-01,9.579659e-01,3,6,3.290571e+00,3.384572e+00,1
7.570070e-01,3.422710e-01,3.349781e-01,3,1,3.478104e+00,3.779175e+00,1
7.652000e-01,4.764810e-01,4.680157e-01,3,2,4.742820e+00,5.299200e+00,1
7.599540e-01,8.364880e-01,8.289814e-01,3,5,6.999287e+00,7.780633e+00,1
1.015131e+00,6.774640e-01,6.690025e-01,4,4,4.729687e+00,5.283282e+00,1
7.602840e-01,1.995260e-01,1.919270e-01,3,0,4.729969e+00,5.300493e+00,1
7.598500e-01,3.194520e-01,3.108978e-01,3,1,3.782372e+00,3.995148e+00,1
7.611820e-01,2.908010e-01,2.830029e-01,3,1,1.741797e+00,1.741795e+00,1
7.603000e-01,1.735550e-01,1.659393e-01,3,0,2.976777e+00,2.976783e+00,1
7.598860e-01,1.736000e-01,1.659393e-01,3,0,2.254521e+00,2.254520e+00,1
7.593590e-01,1.730260e-01,1.649857e-01,3,0,1.905486e+00,1.905486e+00,1
7.592400e-01,1.721960e-01,1.659393e-01,3,0,1.692351e+00,1.692352e+00,1
7.602950e-01,1.738480e-01,1.671314e-01,3,0,3.137586e+00,3.137592e+00,1
7.598840e-01,1.730600e-01,1.652241e-01,3,0,6.149601e+00,6.149608e+00,1
7.625710e-01,4.544250e-01,4.470348e-01,3,2,9.172877e+00,9.173347e+00,1
7.619660e-01,2.140258e+00,2.132177e+00,3,15,1.333648e+01,1.355562e+01,1
7.608620e-01,1.526597e+00,1.518965e+00,3,11,1.134660e+01,1.143798e+01,1
7.603960e-01,1.548403e+00,1.539946e+00,3,11,8.085257e+00,8.087268e+00,1
7.609940e-01,5.683000e-01,5.609989e-01,3,3,6.683478e+00,6.709859e+00,1
7.617970e-01,3.184770e-01,3.099442e-01,3,1,4.983693e+00,4.983769e+00,1
7.642100e-01,1.307601e+00,1.298189e+00,3,6,6.793476e+00,6.941058e+00,0
1.013263e+00,1.050440e+00,1.041889e+00,4,7,5.295373e+00,5.295435e+00,1
1.508075e+00,4.565800e-01,4.491806e-01,6,2,6.939467e+00,6.936807e+00,1
1.508291e+00,1.469477e+00,1.461029e+00,6,10,8.130694e+00,1.027100e+01,1
1.010846e+00,1.606378e+00,1.599073e+00,4,12,3.604671e+00,3.604666e+00,1
7.602800e-01,3.215000e-01,3.130436e-01,3,1,3.340120e+00,3.342779e+00,1
7.596180e-01,1.999790e-01,1.931190e-01,3,0,4.516669e+00,4.534981e+00,1
7.604600e-01,1.992680e-01,1.921654e-01,3,0,5.095234e+00,5.123693e+00,1
7.603860e-01,1.994800e-01,1.919270e-01,3,0,3.826536e+00,3.846379e+00,1
7.596060e-01,4.675690e-01,4.599094e-01,3,2,4.299020e+00,4.334814e+00,1
7.542930e-01,5.300480e-01,5.221367e-01,3,3,2.949996e+00,2.949996e+00,1
7.598690e-01,3.234060e-01,3.161430e-01,3,1,2.707971e+00,2.714416e+00,1
7.597140e-01,3.359960e-01,3.280640e-01,3,1,2.345814e+00,2.354801e+00,1
7.597140e-01,1.985730e-01,1.909733e-01,3,0,2.330040e+00,2.340822e+00,1
7.599610e-01,6.234050e-01,6.148815e-01,3,3,3.047044e+00,3.113892e+00,1
7.615630e-01,8.657890e-01,8.578300e-01,3,5,3.280930e+00,3.386082e+00,1
7.544740e-01,9.553030e-01,9.472370e-01,3,6,2.903133e+00,3.187467e+00,1
7.595910e-01,5.898920e-01,5.829334e-01,3,3,2.507598e+00,2.669158e+00,1
7.591450e-01,3.189650e-01,3.120899e-01,3,1,2.264228e+00,2.318387e+00,1
7.584360e-01,4.083210e-01,4.000664e-01,3,2,1.652549e+00,1.652530e+00,1
7.594590e-01,3.210860e-01,3.130436e-01,3,1,1.765878e+00,1.767031e+00,1
7.590120e-01,1.997280e-01,1.919270e-01,3,0,2.497803e+00,2.627709e+00,1
7.591440e-01,2.910690e-01,2.839565e-01,3,1,1.503580e+00,1.503578e+00,1
7.593020e-01,1.723970e-01,1.640320e-01,3,0,1.269619e+00,1.269619e+00,1
7.600000e-01,1.733360e-01,1.659393e-01,3,0,2.662012e+00,2.662015e+00,1
7.596470e-01,1.730690e-01,1.649857e-01,3,0,2.135958e+00,2.135958e+00,1
7.541650e-01,6.007950e-01,5.939007e-01,3,3,5.528974e+00,5.558897e+00,1
7.608490e-01,4.590980e-01,4.520416e-01,3,2,4.058172e+00,4.251624e+00,1
7.629310e-01,4.355670e-01,4.279613e-01,3,2,3.838453e+00,4.039868e+00,1
7.605190e-01,3.331590e-01,3.259182e-01,3,1,4.516856e+00,4.602084e+00,1
7.603450e-01,8.286440e-01,8.199215e-01,3,5,4.356604e+00,4.367500e+00,1
7.618510e-01,4.693660e-01,4.611015e-01,3,2,5.017701e+00,5.083576e+00,1
7.557000e-01,1.820084e+00,1.812935e+00,3,13,8.703929e+00,9.639482e+00,1
1.512244e+00,8.992030e-01,8.921623e-01,6,6,5.912551e+00,6.055218e+00,1
1.009376e+00,8.314620e-01,8.230209e-01,4,5,5.018074e+00,5.078467e+00,1
7.594520e-01,6.715940e-01,6.639957e-01,3,4,4.875985e+00,4.883563e+00,1
7.588790e-01,1.996430e-01,1.919270e-01,3,0,2.577981e+00,2.713371e+00,1
7.554340e-01,3.426250e-01,3.349781e-01,3,1,3.779423e+00,3.792058e+00,1
7.602700e-01,4.586970e-01,4.518032e-01,3,2,2.957045e+00,2.974477e+00,1
7.602850e-01,7.080340e-01,6.999969e-01,3,4,2.638000e+00,2.691403e+00,1
7.541830e-01,4.806370e-01,4.727840e-01,3,2,1.823358e+00,1.913322e+00,1
7.534150e-01,2.043690e-01,1.969337e-01,3,0,1.609287e+00,1.610908e+00,1
7.595670e-01,4.431410e-01,4.348755e-01,3,2,1.493898e+00,1.494155e+00,1
7.539350e-01,1.996450e-01,1.909733e-01,3,0,1.929854e+00,1.986583e+00,1
7.595420e-01,2.952780e-01,2.870560e-01,3,1,2.235079e+00,2.235081e+00,1
7.586820e-01,1.729620e-01,1.649857e-01,3,0,1.628590e+00,1.628590e+00,1
7.536410e-01,1.727790e-01,1.659393e-01,3,0,1.749674e+00,1.749675e+00,1
7.533570e-01,1.779410e-01,1.709461e-01,3,0,1.593223e+00,1.593224e+00,1
7.592550e-01,3.230090e-01,3.149509e-01,3,1,2.792650e+00,2.792654e+00,1
7.605490e-01,4.728180e-01,4.649162e-01,3,2,4.685465e+00,4.696194e+00,1
7.592580e-01,5.775250e-01,5.700588e-01,3,3,5.080844e+00,5.234798e+00,1
1.009671e+00,4.806700e-01,4.720688e-01,4,2,3.655162e+00,3.817719e+00,1
7.627070e-01,7.275260e-01,7.200241e-01,3,4,3.071643e+00,3.303004e+00,1
1.258462e+00,7.146950e-01,7.081032e-01,5,4,2.998595e+00,3.180559e+00,1
1.260523e+00,1.992670e-01,1.919270e-01,5,0,2.378945e+00,2.414124e+00,1
1.011826e+00,3.178010e-01,3.101826e-01,4,1,1.944172e+00,2.040000e+00,1
7.595850e-01,1.996950e-01,1.909733e-01,3,0,3.047904e+00,3.048140e+00,1
7.598850e-01,2.915270e-01,2.827644e-01,3,1,4.115110e+00,4.115115e+00,1
7.599860e-01,1.725870e-01,1.661777e-01,3,0,2.412815e+00,2.412813e+00,1
7.599090e-01,1.731300e-01,1.661777e-01,3,0,2.446415e+00,2.446416e+00,1
7.611740e-01,1.731220e-01,1.649857e-01,3,0,2.240654e+00,2.240654e+00,1
7.610070e-01,1.732140e-01,1.659393e-01,3,0,2.267386e+00,2.267387e+00,1
7.613600e-01,1.730380e-01,1.661777e-01,3,0,1.993353e+00,1.993354e+00,1
7.616190e-01,3.211270e-01,3.139973e-01,3,1,2.176966e+00,2.177491e+00,1
7.626890e-01,2.906620e-01,2.820492e-01,3,1,3.031046e+00,3.031049e+00,1
7.648080e-01,1.822270e-01,1.749992e-01,3,0,2.969192e+00,2.969193e+00,1
7.648900e-01,1.683400e-01,1.611710e-01,3,0,3.052853e+00,3.052854e+00,1
7.647070e-01,1.686510e-01,1.621246e-01,3,0,3.712927e+00,3.712931e+00,1
7.650790e-01,1.685860e-01,1.621246e-01,3,0,1.896609e+00,1.896609e+00,1
7.633800e-01,1.685850e-01,1.618862e-01,3,0,1.297063e+00,1.297063e+00,1
7.626950e-01,1.684990e-01,1.609325e-01,3,0,1.558702e+00,1.558704e+00,1
7.636120e-01,1.683970e-01,1.602173e-01,3,0,5.379141e-01,5.379148e-01,1
7.627880e-01,1.679720e-01,1.609325e-01,3,0,5.159869e-01,5.159873e-01,1
7.495310e-01,1.684990e-01,1.609325e-01,3,0,8.536527e-01,8.536540e-01,1
7.315130e-01,1.808000e-01,1.740456e-01,3,0,7.504396e-01,7.504398e-01,1
7.536870e-01,1.897790e-01,1.831055e-01,3,0,2.258262e+00,2.258267e+00,1
7.646190e-01,4.634700e-01,4.560947e-01,3,2,1.685140e+00,1.688989e+00,1
7.587800e-01,5.566100e-01,5.488396e-01,3,3,1.252724e+00,1.252901e+00,1
7.625370e-01,2.833810e-01,2.758503e-01,3,1,1.205366e+00,1.205367e+00,1
7.642550e-01,1.684350e-01,1.599789e-01,3,0,1.323809e+00,1.323811e+00,1
7.750320e-01,1.835450e-01,1.759529e-01,3,0,1.361021e+00,1.361021e+00,1
7.632740e-01,1.683770e-01,1.618862e-01,3,0,8.194810e-01,8.194810e-01,1
7.635460e-01,1.677300e-01,1.609325e-01,3,0,7.558736e-01,7.558746e-01,1
7.380640e-01,1.681910e-01,1.609325e-01,3,0,6.877739e-01,6.877748e-01,1
7.372750e-01,1.673260e-01,1.602173e-01,3,0,5.802275e-01,5.802278e-01,1
7.686310e-01,1.678580e-01,1.599789e-01,3,0,1.807307e+00,1.807310e+00,1
7.653790e-01,4.668320e-01,4.580021e-01,3,2,1.662279e+00,1.670297e+00,1
7.631960e-01,3.519520e-01,3.449917e-01,3,1,2.205957e+00,2.238840e+00,1
7.690320e-01,8.598100e-01,8.530617e-01,3,5,3.402233e+00,3.643937e+00,1
7.608900e-01,6.920530e-01,6.849766e-01,3,4,2.804718e+00,3.132723e+00,1
7.630210e-01,6.163560e-01,6.079674e-01,3,3,3.409132e+00,3.890976e+00,1
7.610110e-01,4.544680e-01,4.460812e-01,3,2,2.893484e+00,3.311885e+00,1
7.593600e-01,3.175320e-01,3.108978e-01,3,1,2.799540e+00,3.014173e+00,1
7.573530e-01,5.757850e-01,5.688667e-01,3,3,2.781917e+00,2.945201e+00,1
7.603900e-01,7.236430e-01,7.169247e-01,3,4,4.792941e+00,4.807857e+00,1
7.550350e-01,8.478000e-01,8.399487e-01,3,5,6.148511e+00,6.230398e+00,1
7.614160e-01,3.238510e-01,3.151894e-01,3,1,5.560492e+00,5.629480e+00,1
7.610830e-01,5.918970e-01,5.850792e-01,3,3,4.600527e+00,4.624088e+00,1
7.600480e-01,4.694890e-01,4.611015e-01,3,2,4.134781e+00,4.157539e+00,1
7.718600e-01,5.908700e-01,5.841255e-01,3,3,3.338624e+00,3.360086e+00,1
7.601870e-01,7.072350e-01,6.999969e-01,3,4,3.403786e+00,3.498657e+00,1
7.597730e-01,7.033930e-01,6.959438e-01,3,4,3.342627e+00,3.526540e+00,1
1.007945e+00,9.633840e-01,9.560585e-01,4,6,2.631259e+00,2.762632e+00,1
7.623000e-01,6.908710e-01,6.830692e-01,3,4,2.119331e+00,2.282793e+00,1
7.646060e-01,1.092263e+00,1.085043e+00,3,7,4.146191e+00,5.275299e+00,1
1.469180e+00,5.660930e-01,5.588531e-01,6,3,8.562667e+00,9.880705e+00,1
9.800970e-01,7.845740e-01,7.779598e-01,4,5,1.004853e+01,1.066392e+01,1
1.471882e+00,6.617720e-01,6.551743e-01,6,4,1.096190e+01,1.107477e+01,1
1.469004e+00,4.381610e-01,4.291534e-01,6,2,1.328941e+01,1.349160e+01,1
1.017545e+00,6.511380e-01,6.422997e-01,4,1,1.809574e+01,2.041401e+01,0
9.948220e-01,6.958020e-01,6.880760e-01,4,4,1.255306e+01,1.262386e+01,1
1.468334e+00,6.971480e-01,6.890297e-01,6,4,1.551698e+01,1.574198e+01,1
9.845620e-01,1.720151e+00,1.710892e+00,4,10,1.265602e+01,1.337507e+01,0
1.468526e+00,5.432220e-01,5.331039e-01,6,0,1.138379e+01,1.250769e+01,0
1.470059e+00,1.150338e+00,1.142979e+00,6,8,8.970716e+00,9.065387e+00,1
1.470713e+00,1.612257e+00,1.601934e+00,6,9,1.001838e+01,1.277625e+01,0
1.468424e+00,1.601793e+00,1.594067e+00,6,12,7.731952e+00,8.040775e+00,1
1.475493e+00,8.876943e+01,8.875918e+01,6,976,9.442157e+00,7.447688e+01,0
1.233101e+00,2.648833e+01,2.647686e+01,5,275,3.777866e+00,8.512426e+01,0
7.385570e-01,4.072880e-01,3.986359e-01,3,0,3.003346e+00,8.367733e+01,0
7.361010e-01,4.121230e-01,4.026890e-01,3,0,3.424980e+00,8.438250e+01,0
9.827160e-01,4.154050e-01,4.067421e-01,4,0,2.182479e+00,7.722429e+01,0
7.389610e-01,4.058630e-01,3.981590e-01,3,0,3.400689e+00,7.862105e+01,0
7.382060e-01,4.333030e-01,4.241467e-01,3,0,3.604638e+00,7.941044e+01,0
7.327220e-01,4.149100e-01,4.060268e-01,3,0,6.896880e+00,8.679143e+01,0
9.800390e-01,4.102230e-01,4.029274e-01,4,0,3.749577e+00,7.868808e+01,0
7.385450e-01,4.055310e-01,3.988743e-01,3,0,3.348520e+00,7.652585e+01,0
7.376330e-01,4.073470e-01,4.000664e-01,3,0,3.239056e+00,7.587213e+01,0
7.401650e-01,4.045260e-01,3.952980e-01,3,0,2.910150e+00,7.666563e+01,0
7.318250e-01,4.108280e-01,4.022121e-01,3,0,2.985147e+00,7.694538e+01,0
7.680080e-01,4.139620e-01,4.050732e-01,3,0,4.186856e+00,7.943016e+01,0
7.375190e-01,4.065660e-01,3.981590e-01,3,0,2.207219e+00,7.660282e+01,0
7.383270e-01,4.069720e-01,3.981590e-01,3,0,1.593289e+00,7.611025e+01,0
7.374830e-01,4.088960e-01,3.998280e-01,3,0,1.814652e+00,7.604842e+01,0
7.325140e-01,4.097660e-01,4.012585e-01,3,0,1.803950e+00,7.467953e+01,0
7.347990e-01,4.130440e-01,4.043579e-01,3,0,1.407025e+00,7.388682e+01,0
7.386800e-01,4.131140e-01,4.031658e-01,3,0,1.955592e+00,7.328618e+01,0
7.369970e-01,4.040940e-01,3.938675e-01,3,0,2.859262e+00,7.428802e+01,0
7.384860e-01,4.044950e-01,3.972054e-01,3,0,4.225542e+00,7.625339e+01,0
7.383690e-01,4.078190e-01,4.000664e-01,3,0,8.867356e+00,8.410524e+01,0
7.362060e-01,4.106710e-01,4.007816e-01,3,0,1.202506e+01,8.967954e+01,0
1.465404e+00,4.128780e-01,4.050732e-01,6,0,8.847311e+00,8.577171e+01,0
7.323710e-01,4.131830e-01,4.041195e-01,3,0,1.123423e+01,8.892256e+01,0
9.803290e-01,4.113250e-01,4.019737e-01,4,0,8.463917e+00,8.480381e+01,0
7.392880e-01,4.060080e-01,3.972054e-01,3,0,6.840927e+00,8.207514e+01,0
7.383380e-01,4.081920e-01,3.988743e-01,3,0,7.454639e+00,8.548643e+01,0
1.470067e+00,4.049960e-01,3.948212e-01,6,0,5.269092e+00,8.107165e+01,0
7.411860e-01,4.056350e-01,3.972054e-01,3,0,3.720816e+00,7.612801e+01,0
7.323990e-01,4.121120e-01,4.019737e-01,3,0,2.696370e+00,7.478499e+01,0
7.327350e-01,4.100620e-01,4.007816e-01,3,0,2.449486e+00,7.486387e+01,0
7.378580e-01,4.108380e-01,4.022121e-01,3,0,2.550985e+00,7.586714e+01,0
7.387740e-01,4.082650e-01,4.003048e-01,3,0,3.623427e+00,7.900606e+01,0
7.388300e-01,4.047180e-01,3.950596e-01,3,0,1.321645e+00,7.393748e+01,0
7.377240e-01,4.060350e-01,3.967285e-01,3,0,4.655798e+00,8.149310e+01,0
1.462725e+00,4.121800e-01,4.029274e-01,6,0,9.568811e+00,8.983034e+01,0
9.904520e-01,4.044600e-01,3.952980e-01,4,0,5.819027e+00,8.169028e+01,0
1.007968e+00,4.123110e-01,4.029274e-01,4,0,4.004749e+00,7.773455e+01,0
7.379520e-01,4.090020e-01,3.993511e-01,3,0,3.628570e+00,7.614380e+01,0
7.376630e-01,4.047030e-01,3.950596e-01,3,0,3.278535e+00,7.588044e+01,0
7.324180e-01,4.109380e-01,4.019737e-01,3,0,3.041234e+00,7.708895e+01,0
7.381980e-01,4.146770e-01,4.050732e-01,3,0,4.050603e+00,8.057000e+01,0
7.415540e-01,4.054640e-01,3.969669e-01,3,0,3.271551e+00,8.035847e+01,0
7.401180e-01,4.067690e-01,3.979206e-01,3,0,2.372955e+00,7.792747e+01,0
7.380850e-01,4.336350e-01,4.241467e-01,3,0,2.718515e+00,7.839221e+01,0
1.462020e+00,4.050880e-01,3.948212e-01,6,0,4.928565e+00,8.143132e+01,0
1.468863e+00,4.045490e-01,3.960133e-01,6,0,8.253862e+00,8.451330e+01,0
1.467915e+00,4.090300e-01,4.000664e-01,6,0,1.487587e+01,9.329510e+01,0
1.473841e+00,1.363769e+01,1.362824e+01,6,140,1.818765e+01,1.036042e+02,0
1.471066e+00,4.067550e-01,3.991127e-01,6,0,1.677468e+01,1.043734e+02,0
1.469106e+00,1.369584e+01,1.368690e+01,6,140,1.852554e+01,1.047573e+02,0
9.806700e-01,4.077250e-01,3.988743e-01,4,0,1.652536e+01,1.002846e+02,0
1.467597e+00,4.147380e-01,4.060268e-01,6,0,1.767522e+01,1.015236e+02,0
1.469624e+00,4.137450e-01,4.036427e-01,6,0,1.771087e+01,9.988312e+01,0
1.465384e+00,4.113300e-01,4.024506e-01,6,0,1.488955e+01,9.618436e+01,0
1.465824e+00,4.112860e-01,4.031658e-01,6,0,1.309347e+01,9.381946e+01,0
1.468485e+00,4.094080e-01,4.012585e-01,6,0,1.065770e+01,9.083377e+01,0
1.473510e+00,4.317320e-01,4.239082e-01,6,0,1.025751e+01,9.289001e+01,0
1.469168e+00,4.068810e-01,4.010201e-01,6,0,1.036345e+01,9.670706e+01,0
1.469377e+00,4.080030e-01,3.979206e-01,6,0,1.306325e+01,1.041805e+02,0
1.713990e+00,4.037910e-01,3.948212e-01,7,0,2.240734e+01,1.205666e+02,0
1.224953e+00,4.060770e-01,4.000664e-01,5,0,2.653136e+01,1.256825e+02,0
1.541010e+00,4.394770e-01,4.301071e-01,6,0,3.103555e+01,1.282435e+02,0
1.288031e+00,4.379260e-01,4.298687e-01,5,0,2.875893e+01,1.227505e+02,0
1.517214e+00,4.251680e-01,4.160404e-01,6,0,2.978475e+01,1.219421e+02,0
1.515637e+00,4.405890e-01,4.329681e-01,6,0,3.641486e+01,1.284910e+02,0
1.268799e+00,4.376270e-01,4.279613e-01,5,0,3.408670e+01,1.244988e+02,0
1.515022e+00,4.200550e-01,4.105568e-01,6,0,2.922717e+01,1.187444e+02,0
1.761779e+00,4.209770e-01,4.138947e-01,7,0,2.591334e+01,1.150697e+02,0
1.513732e+00,4.174150e-01,4.076958e-01,6,0,2.312556e+01,1.116304e+02,0
1.264285e+00,4.194230e-01,4.100800e-01,5,0,1.992231e+01,1.083962e+02,0
1.526602e+00,1.414690e+01,1.413774e+01,6,141,1.804290e+01,1.124914e+02,0
1.512020e+00,4.271530e-01,4.169941e-01,6,0,1.933378e+01,1.181671e+02,0
1.519820e+00,1.406007e+01,1.405001e+01,6,141,1.377234e+01,1.038211e+02,0
1.511285e+00,4.228560e-01,4.117489e-01,6,0,1.272478e+01,1.026415e+02,0
1.512525e+00,4.167930e-01,4.079342e-01,6,0,1.405444e+01,1.060844e+02,0
1.511709e+00,4.186430e-01,4.103184e-01,6,0,1.176776e+01,9.906335e+01,0
1.009150e+00,4.196310e-01,4.100800e-01,4,0,1.061047e+01,9.606626e+01,0
1.510760e+00,4.228960e-01,4.127026e-01,6,0,9.815576e+00,9.235444e+01,0
1.510808e+00,4.297550e-01,4.198551e-01,6,0,8.134473e+00,8.880769e+01,0
1.509734e+00,4.276500e-01,4.200935e-01,6,0,4.295549e+00,8.145367e+01,0
7.542090e-01,4.246320e-01,4.150867e-01,3,0,4.033924e+00,8.069274e+01,0
7.530530e-01,4.232350e-01,4.124641e-01,3,0,4.045209e+00,7.854485e+01,0
7.611740e-01,4.251500e-01,4.177094e-01,3,0,4.076286e+00,7.697651e+01,0
7.639960e-01,4.201760e-01,4.100800e-01,3,0,3.726540e+00,7.750076e+01,0
7.616560e-01,4.195190e-01,4.096031e-01,3,0,2.612026e+00,7.500604e+01,0
7.552730e-01,4.261590e-01,4.181862e-01,3,0,3.492545e+00,7.786775e+01,0
7.541830e-01,4.235610e-01,4.136562e-01,3,0,4.909763e+00,7.928140e+01,0
7.607570e-01,4.185170e-01,4.107952e-01,3,0,5.739588e+00,7.896171e+01,0
7.622320e-01,4.208180e-01,4.112720e-01,3,0,4.968606e+00,7.948749e+01,0
7.606850e-01,4.182550e-01,4.091263e-01,3,0,4.866031e+00,7.781387e+01,0
7.552980e-01,4.218360e-01,4.119873e-01,3,0,4.971257e+00,7.909181e+01,0
7.621830e-01,4.252750e-01,4.162788e-01,3,0,4.647706e+00,7.971172e+01,0
7.602570e-01,4.161440e-01,4.079342e-01,3,0,4.581211e+00,7.875309e+01,0
7.631850e-01,4.189290e-01,4.081726e-01,3,0,5.032462e+00,7.932370e+01,0
7.599590e-01,4.198100e-01,4.107952e-01,3,0,1.007790e+01,8.805908e+01,0
1.260819e+00,4.227770e-01,4.127026e-01,5,0,1.345675e+01,9.589613e+01,0
1.264354e+00,4.179640e-01,4.081726e-01,5,0,1.622785e+01,1.030508e+02,0
1.011667e+00,4.197940e-01,4.119873e-01,4,0,1.362234e+01,1.002416e+02,0
1.515902e+00,4.172820e-01,4.081726e-01,6,0,1.102233e+01,9.480057e+01,0
1.012852e+00,4.164400e-01,4.069805e-01,4,0,8.596646e+00,8.806324e+01,0
7.631380e-01,4.252120e-01,4.153252e-01,3,0,6.808038e+00,8.570708e+01,0
7.620360e-01,4.171060e-01,4.081726e-01,3,0,7.395014e+00,8.839099e+01,0
1.513042e+00,4.195940e-01,4.107952e-01,6,0,7.371392e+00,9.068474e+01,0
1.513741e+00,4.214680e-01,4.115105e-01,6,0,5.764514e+00,8.848189e+01,0
1.513379e+00,4.164820e-01,4.081726e-01,6,0,6.236365e+00,8.832005e+01,0
1.514221e+00,4.183070e-01,4.088879e-01,6,0,8.534455e+00,8.853626e+01,0
1.512632e+00,4.198870e-01,4.119873e-01,6,0,9.959397e+00,8.799308e+01,0
1.511320e+00,4.172090e-01,4.079342e-01,6,0,1.214505e+01,9.057731e+01,0
1.009582e+00,4.162410e-01,4.072189e-01,4,0,9.520290e+00,8.698695e+01,0
7.598050e-01,4.205540e-01,4.110336e-01,3,0,1.340860e+01,9.380522e+01,0
7.543060e-01,4.231210e-01,4.138947e-01,3,0,1.342304e+01,9.422455e+01,0
1.260471e+00,4.247800e-01,4.153252e-01,5,0,1.130113e+01,9.143413e+01,0
7.552960e-01,4.200980e-01,4.105568e-01,3,0,9.720005e+00,9.040510e+01,0
1.013440e+00,4.232530e-01,4.138947e-01,4,0,9.790307e+00,9.384372e+01,0
1.513046e+00,4.190520e-01,4.091263e-01,6,0,9.349603e+00,9.530356e+01,0
1.512472e+00,4.205000e-01,4.112720e-01,6,0,7.677319e+00,9.264112e+01,0
1.515288e+00,4.169180e-01,4.072189e-01,6,0,7.184295e+00,9.215122e+01,0
1.511844e+00,4.173390e-01,4.091263e-01,6,0,5.000630e+00,8.817692e+01,0
1.259269e+00,4.202980e-01,4.119873e-01,5,0,4.152874e+00,8.530248e+01,0
1.009295e+00,4.247700e-01,4.150867e-01,4,0,2.567922e+00,7.907253e+01,0
1.008573e+00,4.185850e-01,4.091263e-01,4,0,1.422067e+00,7.414268e+01,0
7.559850e-01,4.267480e-01,4.181862e-01,3,0,1.435147e+00,7.342574e+01,0
7.624400e-01,4.226440e-01,4.136562e-01,3,0,2.225756e+00,7.474753e+01,0
7.626970e-01,4.185420e-01,4.091263e-01,3,0,1.711427e+00,7.199393e+01,0
7.595580e-01,4.204180e-01,4.131794e-01,3,0,1.503605e+00,7.286397e+01,0
7.591130e-01,4.159540e-01,4.069805e-01,3,0,1.477859e+00,7.203303e+01,0
7.537810e-01,4.208250e-01,4.112720e-01,3,0,1.256388e+00,7.293824e+01,0
7.614130e-01,4.387540e-01,4.289150e-01,3,0,1.033452e+00,7.257400e+01,0
7.633040e-01,4.152350e-01,4.050732e-01,3,0,1.536539e+00,7.384834e+01,0
7.600200e-01,4.171060e-01,4.072189e-01,3,0,1.371850e+00,7.244610e+01,0
7.599670e-01,4.185880e-01,4.091263e-01,3,0,5.408334e-01,7.030033e+01,0
7.536810e-01,4.206600e-01,4.122257e-01,3,0,1.104769e+00,7.110240e+01,0
7.603530e-01,4.221830e-01,4.138947e-01,3,0,7.625498e-01,7.016847e+01,0
7.599380e-01,4.187680e-01,4.105568e-01,3,0,9.044855e-01,7.135714e+01,0
7.597440e-01,4.156420e-01,4.067421e-01,3,0,8.919858e-01,7.048520e+01,0
7.599110e-01,4.160750e-01,4.072189e-01,3,0,1.692716e+00,7.216762e+01,0
7.537010e-01,4.248620e-01,4.162788e-01,3,0,1.425011e+00,7.208978e+01,0
7.599530e-01,4.206720e-01,4.098415e-01,3,0,1.063074e+00,7.143596e+01,0
7.596820e-01,4.181920e-01,4.091263e-01,3,0,6.629446e-01,7.020697e+01,0
7.607520e-01,4.191780e-01,4.088879e-01,3,0,1.101761e+00,7.129851e+01,0
7.593940e-01,4.141300e-01,4.048347e-01,3,0,1.029011e+00,7.216332e+01,0
7.561580e-01,4.218860e-01,4.129410e-01,3,0,6.833892e-01,7.071102e+01,0
7.591530e-01,4.248520e-01,4.172325e-01,3,0,9.666373e-01,7.154380e+01,0
7.606300e-01,4.154000e-01,4.050732e-01,3,0,8.731060e-01,7.082437e+01,0
7.605590e-01,4.165190e-01,4.079342e-01,3,0,1.390822e+00,7.274271e+01,0
7.597520e-01,4.200420e-01,4.122257e-01,3,0,2.443202e+00,7.509241e+01,0
7.560760e-01,4.219700e-01,4.131794e-01,3,0,2.069026e+00,7.449721e+01,0
7.604840e-01,4.236500e-01,4.150867e-01,3,0,2.103022e+00,7.350321e+01,0
7.622330e-01,4.192430e-01,4.098415e-01,3,0,4.527917e+00,7.735544e+01,0
7.607080e-01,4.165110e-01,4.069805e-01,3,0,5.473522e+00,7.971664e+01,0
1.009001e+00,4.186260e-01,4.100800e-01,4,0,3.322616e+00,7.574476e+01,0
7.608270e-01,4.260390e-01,4.169941e-01,3,0,2.489345e+00,7.381200e+01,0
7.594900e-01,4.157270e-01,4.060268e-01,3,0,1.793925e+00,7.270155e+01,0
7.589460e-01,4.158930e-01,4.079342e-01,3,0,1.489397e+00,7.249705e+01,0
7.615550e-01,4.197840e-01,4.100800e-01,3,0,1.164913e+00,7.191730e+01,0
7.542200e-01,4.226170e-01,4.117489e-01,3,0,1.632872e+00,7.310727e+01,0
7.604740e-01,4.241080e-01,4.160404e-01,3,0,1.574934e+00,7.299806e+01,0
7.602110e-01,4.202780e-01,4.112720e-01,3,0,9.159348e-01,7.172455e+01,0
7.605370e-01,4.165240e-01,4.072189e-01,3,0,1.816744e+00,7.440268e+01,0
7.585380e-01,4.171130e-01,4.110336e-01,3,0,1.076612e+00,7.264186e+01,0
7.542380e-01,4.264800e-01,4.181862e-01,3,0,9.301057e-01,7.168274e+01,0
7.595880e-01,4.214850e-01,4.131794e-01,3,0,1.166574e+00,7.217086e+01,0
7.621340e-01,4.153460e-01,4.045963e-01,3,0,1.111823e+00,7.160296e+01,0
7.613700e-01,4.198210e-01,4.100800e-01,3,0,1.239799e+00,7.170989e+01,0
7.589570e-01,4.167170e-01,4.072189e-01,3,0,1.497574e+00,7.294528e+01,0
7.540610e-01,4.251140e-01,4.150867e-01,3,0,1.210338e+00,7.203399e+01,0
7.625550e-01,4.256510e-01,4.169941e-01,3,0,1.137424e+00,7.269841e+01,0
7.635560e-01,4.168840e-01,4.081726e-01,3,0,1.488260e+00,7.336953e+01,0
7.595280e-01,4.189190e-01,4.093647e-01,3,0,1.649405e+00,7.281790e+01,0
7.599370e-01,4.205960e-01,4.110336e-01,3,0,2.631394e+00,7.407324e+01,0
7.539210e-01,4.237740e-01,4.136562e-01,3,0,1.910631e+00,7.367619e+01,0
7.634570e-01,4.221660e-01,4.115105e-01,3,0,1.668246e+00,7.223793e+01,0
7.598970e-01,4.191800e-01,4.110336e-01,3,0,1.462700e+00,7.238162e+01,0
7.750250e-01,4.159630e-01,4.072189e-01,3,0,1.639058e+00,7.322808e+01,0
7.599640e-01,4.183320e-01,4.091263e-01,3,0,1.301585e+00,7.331010e+01,0
7.545890e-01,4.268280e-01,4.167557e-01,3,0,2.123046e+00,7.624670e+01,0
1.012827e+00,4.220400e-01,4.129410e-01,4,0,1.697564e+00,7.371869e+01,0
7.626450e-01,4.188230e-01,4.093647e-01,3,0,1.730443e+00,7.472384e+01,0
7.540630e-01,4.256560e-01,4.160404e-01,3,0,1.676822e+00,7.445447e+01,0
7.583890e-01,4.233080e-01,4.150867e-01,3,0,1.441220e+00,7.443841e+01,0
7.607890e-01,4.239430e-01,4.143715e-01,3,0,1.145016e+00,7.267698e+01,0
7.617560e-01,4.193410e-01,4.091263e-01,3,0,1.408596e+00,7.261448e+01,0
7.612080e-01,4.173350e-01,4.076958e-01,3,0,2.010236e+00,7.375922e+01,0
7.549090e-01,4.229030e-01,4.127026e-01,3,0,1.226937e+00,7.234245e+01,0
7.614920e-01,4.266670e-01,4.169941e-01,3,0,2.298264e+00,7.447091e+01,0
7.637470e-01,4.158660e-01,4.069805e-01,3,0,1.491987e+00,7.356732e+01,0
7.596580e-01,4.184550e-01,4.100800e-01,3,0,1.356372e+00,7.326934e+01,0
7.622190e-01,4.202920e-01,4.098415e-01,3,0,1.364592e+00,7.382801e+01,0
7.542180e-01,4.223990e-01,4.122257e-01,3,0,1.295325e+00,7.275243e+01,0
7.589590e-01,4.222340e-01,4.124641e-01,3,0,9.898042e-01,7.154349e+01,0
7.605500e-01,4.190830e-01,4.100800e-01,3,0,1.600908e+00,7.221211e+01,0
7.612240e-01,4.168700e-01,4.081726e-01,3,0,1.163289e+00,7.198872e+01,0
7.586610e-01,4.193960e-01,4.093647e-01,3,0,1.059579e+00,7.131842e+01,0
7.554250e-01,4.257590e-01,4.189014e-01,3,0,9.337043e-01,7.098451e+01,0
7.610030e-01,4.216150e-01,4.119873e-01,3,0,7.253383e-01,7.122140e+01,0
7.599610e-01,4.180670e-01,4.081726e-01,3,0,9.980460e-01,7.141805e+01,0
7.596860e-01,4.199270e-01,4.100800e-01,3,0,7.338772e-01,7.133716e+01,0
7.596090e-01,4.162010e-01,4.062653e-01,3,0,3.571120e+00,7.772556e+01,0
1.506844e+00,4.215960e-01,4.122257e-01,6,0,8.372316e+00,8.458549e+01,0
1.260949e+00,4.253570e-01,4.150867e-01,5,0,6.725819e+00,8.107114e+01,0
7.600450e-01,4.169770e-01,4.076958e-01,3,0,5.009303e+00,7.793193e+01,0
7.619110e-01,4.187290e-01,4.093647e-01,3,0,3.574384e+00,7.560769e+01,0
7.543800e-01,4.255820e-01,4.169941e-01,3,0,4.274107e+00,7.708739e+01,0
7.601590e-01,4.216460e-01,4.122257e-01,3,0,3.354008e+00,7.642450e+01,0
7.597390e-01,4.182330e-01,4.100800e-01,3,0,3.353349e+00,7.694492e+01,0
7.612130e-01,4.202070e-01,4.098415e-01,3,0,3.966252e+00,7.649158e+01,0
7.600540e-01,4.159950e-01,4.069805e-01,3,0,4.172494e+00,7.643980e+01,0
7.537780e-01,4.226440e-01,4.136562e-01,3,0,3.756116e+00,7.557553e+01,0
7.715070e-01,4.250190e-01,4.162788e-01,3,0,4.176302e+00,7.705591e+01,0
7.609370e-01,4.192580e-01,4.093647e-01,3,0,5.562518e+00,7.921774e+01,0
7.604420e-01,4.191190e-01,4.093647e-01,3,0,5.054131e+00,7.914083e+01,0
7.600660e-01,4.204720e-01,4.107952e-01,3,0,3.847335e+00,7.842044e+01,0
7.545530e-01,4.233910e-01,4.138947e-01,3,0,2.772073e+00,7.702439e+01,0
7.598800e-01,4.234090e-01,4.138947e-01,3,0,2.032709e+00,7.584088e+01,0
1.012120e+00,4.208390e-01,4.122257e-01,4,0,1.602723e+00,7.408711e+01,0
7.559910e-01,4.214420e-01,4.122257e-01,3,0,2.179515e+00,7.353595e+01,0
7.535360e-01,4.225550e-01,4.131794e-01,3,0,1.685778e+00,7.228287e+01,0
7.619390e-01,4.239390e-01,4.100800e-01,3,0,1.998235e+00,7.277363e+01,0
7.608210e-01,4.164750e-01,4.072189e-01,3,0,1.765886e+00,7.223455e+01,0
7.591690e-01,4.174140e-01,4.091263e-01,3,0,1.686377e+00,7.227089e+01,0
7.539000e-01,4.248640e-01,4.150867e-01,3,0,2.064760e+00,7.372099e+01,0
7.565910e-01,4.224350e-01,4.122257e-01,3,0,1.557390e+00,7.207835e+01,0
7.602250e-01,4.228370e-01,4.091263e-01,3,0,1.254291e+00,7.207079e+01,0
7.632840e-01,4.201060e-01,4.107952e-01,3,0,3.322260e+00,7.443407e+01,0
7.598010e-01,4.166870e-01,4.072189e-01,3,0,3.404595e+00,7.490653e+01,0
7.541130e-01,4.218170e-01,4.131794e-01,3,0,1.739828e+00,7.261127e+01,0
7.535540e-01,4.260110e-01,4.160404e-01,3,0,1.780208e+00,7.351356e+01,0
7.625160e-01,4.157970e-01,4.069805e-01,3,0,1.793992e+00,7.312749e+01,0
7.606490e-01,4.172590e-01,4.079342e-01,3,0,2.044609e+00,7.353855e+01,0
7.590130e-01,4.205140e-01,4.110336e-01,3,0,1.171411e+00,7.135058e+01,0
7.544880e-01,4.216370e-01,4.122257e-01,3,0,8.732555e-01,7.085506e+01,0
7.584910e-01,4.248730e-01,4.150867e-01,3,0,1.566977e+00,7.151911e+01,0
7.595300e-01,4.198020e-01,4.103184e-01,3,0,2.133215e+00,7.398118e+01,0
7.619320e-01,4.171650e-01,4.081726e-01,3,0,2.423238e+00,7.569607e+01,0
7.594840e-01,4.164330e-01,4.072189e-01,3,0,1.664377e+00,7.342692e+01,0
7.539340e-01,4.242480e-01,4.150867e-01,3,0,1.782511e+00,7.423858e+01,0
7.541410e-01,4.221320e-01,4.122257e-01,3,0,2.095371e+00,7.423979e+01,0
7.618060e-01,4.184990e-01,4.112720e-01,3,0,2.836702e+00,7.756256e+01,0
7.610030e-01,4.192170e-01,4.100800e-01,3,0,3.175415e+00,7.829514e+01,0
7.623700e-01,4.170830e-01,4.065037e-01,3,0,4.793005e+00,8.062213e+01,0
7.537710e-01,4.232210e-01,4.141331e-01,3,0,4.707928e+00,7.996591e+01,0
7.592570e-01,4.260220e-01,4.172325e-01,3,0,7.760229e+00,8.642042e+01,0
1.009655e+00,4.165360e-01,4.081726e-01,4,0,3.747898e+00,7.883213e+01,0
7.592890e-01,4.171060e-01,4.072189e-01,3,0,3.490995e+00,7.896635e+01,0
7.540540e-01,4.258150e-01,4.169941e-01,3,0,4.043765e+00,7.983979e+01,0
7.593700e-01,4.226050e-01,4.141331e-01,3,0,3.338565e+00,7.877922e+01,0
7.591940e-01,4.179770e-01,4.081726e-01,3,0,3.148992e+00,7.890607e+01,0
7.594020e-01,4.203880e-01,4.110336e-01,3,0,2.645740e+00,7.704492e+01,0
7.590060e-01,4.162080e-01,4.072189e-01,3,0,1.565547e+00,7.325767e+01,0
7.538490e-01,4.236090e-01,4.143715e-01,3,0,2.451566e+00,7.385313e+01,0
7.599160e-01,4.246670e-01,4.153252e-01,3,0,1.923631e+00,7.378163e+01,0
7.604850e-01,4.167150e-01,4.072189e-01,3,0,1.137744e+00,7.195517e+01,0
7.623220e-01,4.167480e-01,4.086494e-01,3,0,1.423832e+00,7.218999e+01,0
7.597690e-01,4.193350e-01,4.119873e-01,3,0,1.126329e+00,7.255076e+01,0
7.542050e-01,4.220840e-01,4.100800e-01,3,0,9.393456e-01,7.205452e+01,0
7.626420e-01,4.276800e-01,4.169941e-01,3,0,9.938702e-01,7.233200e+01,0
7.623120e-01,4.202310e-01,4.117489e-01,3,0,1.134980e+00,7.193313e+01,0
7.606120e-01,4.168750e-01,4.072189e-01,3,0,1.406340e+00,7.246233e+01,0
7.593660e-01,4.180310e-01,4.081726e-01,3,0,3.624410e+00,7.681940e+01,0
7.576700e-01,4.262590e-01,4.158020e-01,3,0,2.850545e+00,7.531696e+01,0
7.599030e-01,4.224210e-01,4.141331e-01,3,0,4.262350e+00,7.765733e+01,0
7.592860e-01,4.157110e-01,4.062653e-01,3,0,2.226142e+00,7.557926e+01,0
7.603980e-01,4.189490e-01,4.093647e-01,3,0,1.878568e+00,7.567731e+01,0
7.592990e-01,4.172400e-01,4.081726e-01,3,0,1.533683e+00,7.455868e+01,0
7.536870e-01,4.243310e-01,4.162788e-01,3,0,1.265543e+00,7.285754e+01,0
7.600580e-01,4.256020e-01,4.162788e-01,3,0,2.392836e+00,7.361246e+01,0
7.601500e-01,4.160870e-01,4.072189e-01,3,0,2.433847e+00,7.403533e+01,0
7.592750e-01,4.176740e-01,4.081726e-01,3,0,3.925436e+00,7.647998e+01,0
7.603020e-01,4.192750e-01,4.103184e-01,3,0,4.115478e+00,7.674041e+01,0
7.536510e-01,4.229540e-01,4.131794e-01,3,0,4.760285e+00,7.833052e+01,0
7.592900e-01,4.224480e-01,4.129410e-01,3,0,7.321901e+00,8.261181e+01,0
1.010251e+00,4.194480e-01,4.107952e-01,4,0,8.196992e+00,8.407166e+01,0
7.599290e-01,4.172100e-01,4.076958e-01,3,0,6.249412e+00,8.073268e+01,0
7.540710e-01,4.252000e-01,4.158020e-01,3,0,5.581939e+00,8.020149e+01,0
7.595830e-01,4.246860e-01,4.160404e-01,3,0,7.746103e+00,8.316102e+01,0
7.621750e-01,4.171570e-01,4.084110e-01,3,0,5.294824e+00,7.938279e+01,0
7.600700e-01,4.179560e-01,4.091263e-01,3,0,4.540174e+00,7.811158e+01,0
7.591910e-01,4.208440e-01,4.110336e-01,3,0,4.349071e+00,7.674168e+01,0
7.551110e-01,4.227560e-01,4.141331e-01,3,0,4.449131e+00,7.732977e+01,0
7.608180e-01,4.216190e-01,4.122257e-01,3,0,4.616703e+00,7.859032e+01,0
7.608050e-01,4.195010e-01,4.093647e-01,3,0,3.861937e+00,7.691543e+01,0
7.597100e-01,4.161150e-01,4.079342e-01,3,0,3.874948e+00,7.771515e+01,0
7.586580e-01,4.198450e-01,4.100800e-01,3,0,4.892058e+00,8.114541e+01,0
1.510663e+00,4.260910e-01,4.172325e-01,6,0,5.510496e+00,8.375151e+01,0
1.509148e+00,4.220480e-01,4.141331e-01,6,0,3.437018e+00,8.008122e+01,0
1.258842e+00,4.246830e-01,4.146099e-01,5,0,3.678490e+00,8.036539e+01,0
1.263298e+00,4.208220e-01,4.131794e-01,5,0,2.483581e+00,7.752689e+01,0
1.510134e+00,4.168180e-01,4.079342e-01,6,0,2.560012e+00,7.681606e+01,0

