5.703640e-01,4.996330e-01,3.149509e-01,2,0,0.000000e+00,0.000000e+00
8.361230e-01,9.667100e-02,8.916855e-02,3,0,7.539545e-02,7.539560e-02
8.259170e-01,1.139380e-01,1.010895e-01,3,0,1.376321e-01,1.376323e-01
8.260810e-01,1.196910e-01,1.130104e-01,3,0,2.934707e-01,2.934711e-01
8.252940e-01,1.009450e-01,9.417534e-02,3,0,2.694861e-01,2.694863e-01
8.305120e-01,9.438800e-02,8.702278e-02,3,0,1.254802e+00,1.254804e+00
8.571120e-01,9.498700e-02,8.797646e-02,3,0,1.756505e+00,1.756505e+00
8.435970e-01,9.550100e-02,8.797646e-02,3,0,2.310508e+00,2.310509e+00
8.326920e-01,9.471000e-02,8.702278e-02,3,0,1.130837e+00,1.130837e+00
8.317330e-01,9.468600e-02,8.702278e-02,3,0,1.001612e+00,1.001612e+00
8.587120e-01,9.511500e-02,8.821487e-02,3,0,8.336068e-01,8.336071e-01
8.379480e-01,9.550200e-02,8.797646e-02,3,0,9.629342e-01,9.629349e-01
8.331290e-01,9.473000e-02,8.797646e-02,3,0,1.587834e+00,1.587835e+00
8.317390e-01,9.440000e-02,8.702278e-02,3,0,2.162954e+00,2.162955e+00
8.334480e-01,9.496900e-02,8.797646e-02,3,0,1.981320e+00,1.981320e+00
8.323240e-01,9.485200e-02,8.702278e-02,3,0,2.764890e+00,2.764892e+00
8.321500e-01,9.441000e-02,8.797646e-02,3,0,2.160226e+00,2.160226e+00
8.326850e-01,9.447400e-02,8.702278e-02,3,0,1.888243e+00,1.888243e+00
8.324590e-01,9.500800e-02,8.702278e-02,3,0,1.808789e+00,1.808790e+00
8.322540e-01,9.459100e-02,8.797646e-02,3,0,1.714912e+00,1.714913e+00
8.308530e-01,9.509200e-02,8.797646e-02,3,0,1.786460e+00,1.786461e+00
8.265450e-01,9.475600e-02,8.702278e-02,3,0,1.489483e+00,1.489483e+00
8.258440e-01,9.993800e-02,9.202957e-02,3,0,1.350344e+00,1.350344e+00
8.271080e-01,9.919600e-02,9.202957e-02,3,0,1.181708e+00,1.181708e+00
8.307880e-01,9.519000e-02,8.821487e-02,3,0,1.163048e+00,1.163049e+00
8.303820e-01,9.466100e-02,8.702278e-02,3,0,1.122189e+00,1.122189e+00
8.308710e-01,9.426100e-02,8.702278e-02,3,0,9.327395e-01,9.327398e-01
8.306200e-01,9.491200e-02,8.702278e-02,3,0,6.697031e-01,6.697032e-01
8.315720e-01,9.449600e-02,8.678436e-02,3,0,3.317620e-01,3.317623e-01
8.298730e-01,9.481500e-02,8.702278e-02,3,0,2.847486e-01,2.847487e-01
8.312390e-01,9.495300e-02,8.797646e-02,3,0,5.746734e-01,5.746742e-01
8.575610e-01,9.462000e-02,8.702278e-02,3,0,6.785120e-01,6.785124e-01
8.323250e-01,9.524200e-02,8.797646e-02,3,0,5.886633e-01,5.886634e-01
8.321070e-01,9.454900e-02,8.821487e-02,3,0,9.046022e-01,9.046030e-01
8.316110e-01,9.516700e-02,8.797646e-02,3,0,7.425771e-01,7.425772e-01
8.313970e-01,9.474200e-02,8.797646e-02,3,0,5.507321e-01,5.507321e-01
8.314470e-01,9.453200e-02,8.797646e-02,3,0,4.051342e-01,4.051344e-01
8.313020e-01,9.518900e-02,8.797646e-02,3,0,3.321687e-01,3.321689e-01
8.314200e-01,9.427500e-02,8.702278e-02,3,0,8.440177e-01,8.440186e-01
8.264060e-01,9.460300e-02,8.797646e-02,3,0,9.345924e-01,9.345927e-01
8.262150e-01,9.942900e-02,9.202957e-02,3,0,2.113311e+00,2.113312e+00
8.263550e-01,9.894800e-02,9.202957e-02,3,0,2.895594e+00,2.895595e+00
8.307150e-01,9.445700e-02,8.797646e-02,3,0,1.840142e+00,1.840142e+00
8.304790e-01,9.476100e-02,8.797646e-02,3,0,2.783683e+00,2.783684e+00
8.311220e-01,9.432600e-02,8.702278e-02,3,0,2.225772e+00,2.225772e+00
8.314910e-01,9.451700e-02,8.797646e-02,3,0,1.795047e+00,1.795047e+00
8.326380e-01,9.500700e-02,8.797646e-02,3,0,1.612535e+00,1.612535e+00
8.322650e-01,9.459200e-02,8.797646e-02,3,0,1.344273e+00,1.344273e+00
8.324410e-01,9.501100e-02,8.797646e-02,3,0,1.081679e+00,1.081679e+00
8.327260e-01,9.515900e-02,8.797646e-02,3,0,6.877546e-01,6.877545e-01
8.316800e-01,9.470200e-02,8.702278e-02,3,0,6.110293e-01,6.110296e-01
8.317260e-01,9.470800e-02,8.702278e-02,3,0,9.854031e-01,9.854040e-01
8.319730e-01,9.486900e-02,8.797646e-02,3,0,7.250155e-01,7.250156e-01
8.328650e-01,9.514800e-02,8.797646e-02,3,0,6.194853e-01,6.194853e-01
8.312980e-01,9.440700e-02,8.702278e-02,3,0,8.206624e-01,8.206629e-01
8.314180e-01,9.440000e-02,8.702278e-02,3,0,1.122914e+00,1.122915e+00
8.318330e-01,9.474800e-02,8.797646e-02,3,0,6.142229e-01,6.142228e-01
8.256840e-01,9.456600e-02,8.797646e-02,3,0,9.369085e-01,9.369092e-01
8.263930e-01,1.003240e-01,9.298325e-02,3,0,1.314886e+00,1.314887e+00
8.523800e-01,9.939300e-02,9.298325e-02,3,0,1.969159e+00,1.969160e+00
8.265430e-01,9.416700e-02,8.702278e-02,3,0,8.898526e-01,8.898532e-01
8.312050e-01,9.465500e-02,8.702278e-02,3,0,1.910652e+00,1.910654e+00
8.322500e-01,9.467000e-02,8.797646e-02,3,0,3.606268e+00,3.606270e+00
8.310200e-01,9.426700e-02,8.797646e-02,3,0,1.975417e+00,1.975415e+00
8.319050e-01,9.457600e-02,8.702278e-02,3,0,2.723683e+00,2.723684e+00
8.321870e-01,9.429600e-02,8.702278e-02,3,0,1.169084e+00,1.169083e+00
8.315190e-01,9.463500e-02,8.797646e-02,3,0,1.263230e+00,1.263230e+00
8.313020e-01,9.449800e-02,8.702278e-02,3,0,9.984229e-01,9.984233e-01
8.321680e-01,9.426300e-02,8.797646e-02,3,0,7.742218e-01,7.742221e-01
8.317420e-01,9.509000e-02,8.702278e-02,3,0,6.009269e-01,6.009272e-01
8.304580e-01,9.455500e-02,8.702278e-02,3,0,8.870310e-01,8.870317e-01
8.306910e-01,9.457200e-02,8.702278e-02,3,0,9.023889e-01,9.023891e-01
8.309320e-01,9.459600e-02,8.797646e-02,3,0,9.126757e-01,9.126760e-01
8.314330e-01,9.437100e-02,8.702278e-02,3,0,1.030194e+00,1.030195e+00
8.316280e-01,9.447100e-02,8.797646e-02,3,0,1.503318e+00,1.503319e+00
8.267310e-01,9.407800e-02,8.678436e-02,3,0,2.023180e+00,2.023181e+00
8.265680e-01,9.940400e-02,9.202957e-02,3,0,1.231910e+00,1.231910e+00
9.137180e-01,9.966600e-02,9.298325e-02,3,0,1.232612e+00,1.232612e+00
8.859050e-01,1.021570e-01,9.489059e-02,3,0,9.106059e-01,9.106059e-01
8.254270e-01,1.010670e-01,9.322166e-02,3,0,4.415008e-01,4.415008e-01
8.253670e-01,9.875100e-02,9.202957e-02,3,0,1.469211e+00,1.469213e+00
8.321600e-01,9.418400e-02,8.797646e-02,3,0,1.093927e+00,1.093927e+00
8.574690e-01,9.475500e-02,8.797646e-02,3,0,9.839060e-01,9.839062e-01
8.324730e-01,9.568900e-02,8.893013e-02,3,0,9.484037e-01,9.484043e-01
8.556870e-01,9.415100e-02,8.702278e-02,3,0,1.340376e+00,1.340377e+00
8.313560e-01,9.483300e-02,8.797646e-02,3,0,2.426739e+00,2.426741e+00
8.577750e-01,9.473800e-02,8.797646e-02,3,0,3.657854e+00,3.657856e+00
8.334050e-01,9.504100e-02,8.821487e-02,3,0,5.363844e+00,5.363847e+00
8.330520e-01,9.452700e-02,8.797646e-02,3,0,4.373634e+00,4.373634e+00
8.318980e-01,9.419200e-02,8.702278e-02,3,0,3.112641e+00,3.112641e+00
8.585980e-01,9.428300e-02,8.702278e-02,3,0,2.394087e+00,2.394087e+00
8.335970e-01,9.567300e-02,8.893013e-02,3,0,1.688656e+00,1.688656e+00
8.320240e-01,9.432400e-02,8.702278e-02,3,0,2.384602e+00,2.384604e+00
8.324490e-01,9.439000e-02,8.797646e-02,3,0,1.787173e+00,1.787172e+00
8.322980e-01,9.437700e-02,8.702278e-02,3,0,2.318071e+00,2.318072e+00
8.331500e-01,9.464800e-02,8.797646e-02,3,0,2.520931e+00,2.520932e+00
8.318430e-01,9.424300e-02,8.702278e-02,3,0,1.100126e+00,1.100126e+00
8.295850e-01,9.513000e-02,8.797646e-02,3,0,9.618320e-01,9.618322e-01
8.265960e-01,9.459300e-02,8.797646e-02,3,0,1.351688e+00,1.351689e+00
8.257250e-01,9.928500e-02,9.202957e-02,3,0,1.448054e+00,1.448055e+00
8.262670e-01,9.436700e-02,8.702278e-02,3,0,1.093162e+00,1.093162e+00
8.299310e-01,9.450000e-02,8.797646e-02,3,0,1.256484e+00,1.256484e+00
8.299830e-01,9.427300e-02,8.702278e-02,3,0,7.338232e-01,7.338233e-01
8.317880e-01,9.499400e-02,8.797646e-02,3,0,6.687876e-01,6.687878e-01
8.311560e-01,9.480100e-02,8.702278e-02,3,0,5.546592e-01,5.546593e-01
8.315170e-01,9.465100e-02,8.797646e-02,3,0,5.820472e-01,5.820477e-01
8.311410e-01,9.471300e-02,8.797646e-02,3,0,8.179784e-01,8.179790e-01
8.320640e-01,9.476100e-02,8.797646e-02,3,0,8.954412e-01,8.954415e-01
8.325590e-01,9.457000e-02,8.797646e-02,3,0,5.794090e-01,5.794090e-01
8.315770e-01,9.471500e-02,8.797646e-02,3,0,5.854888e-01,5.854891e-01
8.321700e-01,9.456700e-02,8.797646e-02,3,0,5.420893e-01,5.420894e-01
8.308360e-01,9.446900e-02,8.702278e-02,3,0,4.512420e-01,4.512423e-01
8.312820e-01,9.470000e-02,8.702278e-02,3,0,3.199590e-01,3.199591e-01
8.309180e-01,9.474200e-02,8.797646e-02,3,0,5.570476e-01,5.570482e-01
8.306390e-01,9.522700e-02,8.916855e-02,3,0,2.969425e-01,2.969426e-01
8.248920e-01,9.454700e-02,8.797646e-02,3,0,3.398680e-01,3.398682e-01
8.251780e-01,9.934400e-02,9.202957e-02,3,0,8.709419e-01,8.709428e-01
8.262120e-01,1.003150e-01,9.393692e-02,3,0,6.328207e-01,6.328208e-01
8.298570e-01,9.424600e-02,8.702278e-02,3,0,2.025278e+00,2.025280e+00
8.306520e-01,9.479500e-02,8.702278e-02,3,0,1.408769e+00,1.408769e+00
8.309650e-01,9.479700e-02,8.702278e-02,3,0,1.369022e+00,1.369023e+00
8.313940e-01,9.483100e-02,8.797646e-02,3,0,1.713030e+00,1.713031e+00
8.313710e-01,9.470700e-02,8.797646e-02,3,0,1.550057e+00,1.550058e+00
8.312270e-01,9.483500e-02,8.702278e-02,3,0,1.710002e+00,1.710003e+00
8.572870e-01,9.502800e-02,8.797646e-02,3,0,3.017659e+00,3.017662e+00
8.325160e-01,9.531300e-02,8.916855e-02,3,0,1.975120e+00,1.975119e+00
8.319390e-01,9.493500e-02,8.797646e-02,3,0,1.505443e+00,1.505443e+00
8.314440e-01,9.475000e-02,8.702278e-02,3,0,1.315035e+00,1.315035e+00
8.323220e-01,9.426800e-02,8.797646e-02,3,0,7.775207e-01,7.775211e-01
8.326070e-01,9.458600e-02,8.797646e-02,3,0,8.598513e-01,8.598523e-01
8.323910e-01,9.451300e-02,8.797646e-02,3,0,5.383564e-01,5.383566e-01
8.325810e-01,9.466200e-02,8.797646e-02,3,0,7.027548e-01,7.027553e-01
8.319000e-01,9.406600e-02,8.702278e-02,3,0,3.166074e-01,3.166074e-01
8.252490e-01,9.463300e-02,8.702278e-02,3,0,2.578552e-01,2.578553e-01
8.247580e-01,9.471800e-02,8.797646e-02,3,0,2.690208e-01,2.690210e-01
8.257600e-01,1.011160e-01,9.393692e-02,3,0,5.781329e-01,5.781336e-01
8.315090e-01,9.496000e-02,8.797646e-02,3,0,5.978219e-01,5.978222e-01
8.564850e-01,9.526900e-02,8.797646e-02,3,0,5.053834e-01,5.053835e-01
8.314410e-01,9.541900e-02,8.797646e-02,3,0,5.510604e-01,5.510607e-01
8.313710e-01,9.487500e-02,8.797646e-02,3,0,4.678502e-01,4.678504e-01
8.307420e-01,9.449900e-02,8.702278e-02,3,0,8.671481e-01,8.671488e-01
8.316490e-01,9.467700e-02,8.797646e-02,3,0,1.470053e+00,1.470054e+00
8.317030e-01,9.495900e-02,8.797646e-02,3,0,1.664422e+00,1.664422e+00
8.321600e-01,9.443400e-02,8.797646e-02,3,0,1.301451e+00,1.301452e+00
8.332980e-01,9.512100e-02,8.797646e-02,3,0,1.156650e+00,1.156650e+00
8.320610e-01,9.494100e-02,8.797646e-02,3,0,1.072100e+00,1.072100e+00
8.319340e-01,9.462700e-02,8.702278e-02,3,0,7.728983e-01,7.728983e-01
8.333830e-01,9.416700e-02,8.702278e-02,3,0,6.617629e-01,6.617638e-01
8.323960e-01,9.458300e-02,8.702278e-02,3,0,1.152295e+00,1.152296e+00
8.330060e-01,9.436700e-02,8.702278e-02,3,0,1.655924e+00,1.655925e+00
8.320710e-01,9.402500e-02,8.702278e-02,3,0,1.013204e+00,1.013204e+00
8.315890e-01,9.476600e-02,8.702278e-02,3,0,9.622535e-01,9.622538e-01
8.261850e-01,9.481500e-02,8.797646e-02,3,0,8.659567e-01,8.659569e-01
8.520930e-01,9.968500e-02,9.298325e-02,3,0,7.954315e-01,7.954317e-01
8.260610e-01,9.980900e-02,9.322166e-02,3,0,6.562090e-01,6.562092e-01
8.311890e-01,9.454700e-02,8.702278e-02,3,0,7.372112e-01,7.372116e-01
8.311950e-01,9.447900e-02,8.797646e-02,3,0,1.203657e+00,1.203658e+00
8.310480e-01,9.481600e-02,8.702278e-02,3,0,1.155230e+00,1.155230e+00
8.326460e-01,9.509700e-02,8.797646e-02,3,0,1.224534e+00,1.224535e+00
8.314310e-01,9.431900e-02,8.702278e-02,3,0,1.391972e+00,1.391974e+00
8.320920e-01,9.421200e-02,8.702278e-02,3,0,6.362730e-01,6.362730e-01
8.320480e-01,9.503200e-02,8.821487e-02,3,0,5.053670e-01,5.053672e-01
8.311400e-01,9.449600e-02,8.702278e-02,3,0,5.338890e-01,5.338894e-01
8.326980e-01,9.390700e-02,8.702278e-02,3,0,2.370515e-01,2.370518e-01
8.319670e-01,9.450600e-02,8.797646e-02,3,0,2.393576e-01,2.393577e-01
8.315520e-01,1.194150e-01,1.130104e-01,3,0,4.120253e-01,4.120257e-01
8.317100e-01,9.463200e-02,8.678436e-02,3,0,3.515092e-01,3.515092e-01
8.311560e-01,9.437100e-02,8.702278e-02,3,0,9.585719e-01,9.585733e-01
8.322210e-01,9.467000e-02,8.797646e-02,3,0,7.182278e-01,7.182285e-01
8.310230e-01,9.469000e-02,8.797646e-02,3,0,5.098746e-01,5.098748e-01
8.264160e-01,9.463200e-02,8.797646e-02,3,0,4.558847e-01,4.558849e-01
8.253070e-01,9.521200e-02,8.797646e-02,3,0,4.646784e-01,4.646787e-01
8.265610e-01,9.902200e-02,9.179115e-02,3,0,4.770056e-01,4.770059e-01
8.311010e-01,9.459600e-02,8.702278e-02,3,0,3.040839e-01,3.040840e-01
8.299400e-01,9.456700e-02,8.797646e-02,3,0,3.377664e-01,3.377668e-01
8.317340e-01,9.427200e-02,8.797646e-02,3,0,2.788534e-01,2.788536e-01
8.304900e-01,9.484800e-02,8.797646e-02,3,0,2.407059e-01,2.407060e-01
8.307110e-01,9.426200e-02,8.702278e-02,3,0,6.442230e-01,6.442239e-01
8.319490e-01,9.405200e-02,8.702278e-02,3,0,4.095452e-01,4.095455e-01
8.301470e-01,9.447600e-02,8.797646e-02,3,0,6.437721e-01,6.437726e-01
8.310580e-01,9.415800e-02,8.678436e-02,3,0,1.039902e+00,1.039903e+00
8.319710e-01,9.435100e-02,8.702278e-02,3,0,8.875855e-01,8.875861e-01
8.323980e-01,9.454200e-02,8.702278e-02,3,0,1.006186e+00,1.006186e+00
8.379080e-01,9.482800e-02,8.797646e-02,3,0,7.122620e-01,7.122621e-01
8.315720e-01,9.418500e-02,8.702278e-02,3,0,7.083473e-01,7.083476e-01
8.316490e-01,9.482700e-02,8.797646e-02,3,0,8.100302e-01,8.100306e-01
8.317120e-01,9.432800e-02,8.797646e-02,3,0,1.766688e+00,1.766690e+00
8.315130e-01,9.411300e-02,8.678436e-02,3,0,2.341985e+00,2.341986e+00
8.263050e-01,9.416800e-02,8.797646e-02,3,0,2.078283e+00,2.078283e+00
8.260080e-01,9.900700e-02,9.202957e-02,3,0,1.686164e+00,1.686164e+00
8.506770e-01,9.934100e-02,9.298325e-02,3,0,1.548802e+00,1.548802e+00
8.268450e-01,9.532000e-02,8.797646e-02,3,0,1.061556e+00,1.061556e+00
8.315070e-01,9.467000e-02,8.702278e-02,3,0,1.052392e+00,1.052393e+00
8.315130e-01,9.474300e-02,8.702278e-02,3,0,1.034730e+00,1.034731e+00
8.315200e-01,9.444800e-02,8.797646e-02,3,0,7.927306e-01,7.927307e-01
8.312350e-01,9.467000e-02,8.797646e-02,3,0,7.023906e-01,7.023908e-01
8.315450e-01,9.420200e-02,8.702278e-02,3,0,1.423105e+00,1.423106e+00
8.324950e-01,9.462400e-02,8.797646e-02,3,0,2.958255e+00,2.958258e+00
8.324350e-01,9.414000e-02,8.702278e-02,3,0,3.026537e+00,3.026538e+00
8.324430e-01,9.435800e-02,8.797646e-02,3,0,3.062268e+00,3.062269e+00
8.326660e-01,9.430700e-02,8.702278e-02,3,0,3.571487e+00,3.571488e+00
8.313760e-01,9.447400e-02,8.797646e-02,3,0,5.100197e+00,5.100200e+00
8.325860e-01,9.457300e-02,8.797646e-02,3,0,3.278300e+00,3.278299e+00
8.321910e-01,9.449500e-02,8.702278e-02,3,0,3.995907e+00,3.995909e+00
8.322030e-01,9.362800e-02,8.702278e-02,3,0,3.076641e+00,3.076641e+00
8.319770e-01,9.418600e-02,8.702278e-02,3,0,2.868580e+00,2.868581e+00
8.274890e-01,9.460500e-02,8.702278e-02,3,0,1.982004e+00,1.982004e+00
8.261470e-01,9.870800e-02,9.179115e-02,3,0,2.500428e+00,2.500429e+00
8.265390e-01,9.947500e-02,9.202957e-02,3,0,1.694900e+00,1.694900e+00
8.318180e-01,9.459700e-02,8.702278e-02,3,0,2.202419e+00,2.202420e+00
8.317380e-01,9.432500e-02,8.702278e-02,3,0,7.198395e-01,7.198394e-01
8.318150e-01,9.445500e-02,8.702278e-02,3,0,9.079751e-01,9.079759e-01
8.310140e-01,9.450000e-02,8.821487e-02,3,0,1.727905e+00,1.727906e+00
8.317160e-01,9.437000e-02,8.797646e-02,3,0,1.320268e+00,1.320268e+00
8.320380e-01,9.456900e-02,8.797646e-02,3,0,2.105952e+00,2.105953e+00
8.320930e-01,9.485200e-02,8.797646e-02,3,0,1.874714e+00,1.874714e+00
8.321810e-01,9.476300e-02,8.797646e-02,3,0,3.197580e+00,3.197582e+00
8.321130e-01,9.424900e-02,8.702278e-02,3,0,1.638093e+00,1.638092e+00
8.324270e-01,9.449300e-02,8.702278e-02,3,0,1.357662e+00,1.357662e+00
8.325450e-01,9.521200e-02,8.797646e-02,3,0,1.070695e+00,1.070695e+00
8.334250e-01,9.439400e-02,8.702278e-02,3,0,1.074448e+00,1.074448e+00
8.335540e-01,9.477600e-02,8.797646e-02,3,0,1.150461e+00,1.150461e+00
8.321770e-01,9.439500e-02,8.797646e-02,3,0,1.737571e+00,1.737573e+00
8.318620e-01,9.458300e-02,8.702278e-02,3,0,7.951804e-01,7.951799e-01
8.259360e-01,9.450700e-02,8.702278e-02,3,0,5.279798e-01,5.279799e-01
8.259810e-01,9.962400e-02,9.202957e-02,3,0,6.065543e-01,6.065547e-01
8.262640e-01,9.913300e-02,9.202957e-02,3,0,5.859223e-01,5.859226e-01
8.317350e-01,9.408800e-02,8.678436e-02,3,0,4.544746e-01,4.544747e-01
8.312580e-01,9.501800e-02,8.797646e-02,3,0,7.273237e-01,7.273247e-01
8.308600e-01,9.444100e-02,8.702278e-02,3,0,1.054653e+00,1.054654e+00
8.311700e-01,9.455400e-02,8.702278e-02,3,0,1.592878e+00,1.592879e+00
8.315650e-01,9.480200e-02,8.797646e-02,3,0,3.436945e+00,3.436948e+00
8.313940e-01,9.475600e-02,8.797646e-02,3,0,4.458252e+00,4.458254e+00
8.314360e-01,9.430600e-02,8.702278e-02,3,0,3.034823e+00,3.034822e+00
8.751920e-01,9.468400e-02,8.702278e-02,3,0,3.739701e+00,3.739703e+00
8.335870e-01,9.547100e-02,8.797646e-02,3,0,2.696262e+00,2.696262e+00
8.320880e-01,9.494100e-02,8.797646e-02,3,0,2.137313e+00,2.137313e+00
8.310390e-01,9.399400e-02,8.678436e-02,3,0,2.381990e+00,2.381991e+00
8.322710e-01,9.430200e-02,8.702278e-02,3,0,1.301140e+00,1.301139e+00
8.326770e-01,9.446300e-02,8.702278e-02,3,0,9.675367e-01,9.675378e-01
8.317360e-01,9.490200e-02,8.797646e-02,3,0,7.439905e-01,7.439905e-01
8.317710e-01,9.428800e-02,8.702278e-02,3,0,7.050904e-01,7.050906e-01
8.309160e-01,9.455600e-02,8.702278e-02,3,0,6.801899e-01,6.801901e-01
8.521680e-01,9.433300e-02,8.702278e-02,3,0,1.067872e+00,1.067873e+00
8.275440e-01,9.991300e-02,9.202957e-02,3,0,3.636401e-01,3.636399e-01
8.253450e-01,9.892600e-02,9.107590e-02,3,0,1.459904e+00,1.459906e+00
8.316640e-01,9.420100e-02,8.797646e-02,3,0,3.207473e+00,3.207476e+00
8.321210e-01,9.402700e-02,8.702278e-02,3,0,1.890641e+00,1.890640e+00
8.319750e-01,9.415100e-02,8.702278e-02,3,0,1.351988e+00,1.351988e+00
8.312730e-01,9.497200e-02,8.797646e-02,3,0,1.108379e+00,1.108379e+00
8.312960e-01,9.501600e-02,8.678436e-02,3,0,9.424709e-01,9.424710e-01
8.318720e-01,9.481900e-02,8.797646e-02,3,0,8.821413e-01,8.821415e-01
8.321080e-01,9.425900e-02,8.702278e-02,3,0,1.484896e+00,1.484897e+00
8.318570e-01,9.431700e-02,8.702278e-02,3,0,1.155477e+00,1.155477e+00
8.327790e-01,9.473800e-02,8.702278e-02,3,0,8.308275e-01,8.308276e-01
8.319570e-01,9.469100e-02,8.702278e-02,3,0,9.286501e-01,9.286505e-01
8.316140e-01,9.460200e-02,8.797646e-02,3,0,1.590914e+00,1.590915e+00
8.317370e-01,9.438900e-02,8.797646e-02,3,0,2.569067e+00,2.569069e+00
8.309040e-01,9.431900e-02,8.702278e-02,3,0,4.647755e+00,4.647759e+00
8.325540e-01,9.470200e-02,8.797646e-02,3,0,5.667842e+00,5.667844e+00
8.315460e-01,9.469700e-02,8.797646e-02,3,0,5.122846e+00,5.122846e+00
8.269360e-01,9.490600e-02,8.797646e-02,3,0,5.366623e+00,5.366625e+00
8.266430e-01,9.860400e-02,9.202957e-02,3,0,4.520514e+00,4.520514e+00
8.269930e-01,9.884400e-02,9.202957e-02,3,0,4.741373e+00,4.741375e+00
8.311740e-01,9.512500e-02,8.797646e-02,3,0,4.719997e+00,4.719998e+00
8.315440e-01,9.421800e-02,8.702278e-02,3,0,3.889055e+00,3.889055e+00
8.322250e-01,9.459300e-02,8.797646e-02,3,0,3.354371e+00,3.354372e+00
8.323690e-01,9.446700e-02,8.797646e-02,3,0,2.571330e+00,2.571330e+00
8.330730e-01,9.431200e-02,8.678436e-02,3,0,2.355249e+00,2.355249e+00
8.416010e-01,9.476800e-02,8.797646e-02,3,0,2.387999e+00,2.388000e+00
8.590720e-01,9.434100e-02,8.678436e-02,3,0,3.076475e+00,3.076477e+00
8.357150e-01,1.025890e+00,1.019001e+00,3,6,5.515769e+00,5.522246e+00
1.660195e+00,4.285760e-01,4.210472e-01,6,2,5.779056e+00,5.757583e+00
1.380831e+00,5.989570e-01,5.919933e-01,5,4,6.338930e+00,6.331055e+00
1.104131e+00,9.530900e-02,8.893013e-02,4,0,5.385154e+00,5.385154e+00
8.323610e-01,9.594200e-02,8.916855e-02,3,0,5.410946e+00,5.410947e+00
8.323750e-01,9.593900e-02,8.797646e-02,3,0,6.562613e+00,6.562616e+00
8.321000e-01,9.533200e-02,8.893013e-02,3,0,6.069971e+00,6.069972e+00
8.318300e-01,9.547900e-02,8.893013e-02,3,0,5.053625e+00,5.053625e+00
8.398530e-01,9.540900e-02,8.916855e-02,3,0,4.256742e+00,4.256742e+00
8.321670e-01,9.549600e-02,8.916855e-02,3,0,3.743721e+00,3.743722e+00
8.327040e-01,9.550400e-02,8.797646e-02,3,0,3.197473e+00,3.197473e+00
8.318950e-01,9.560200e-02,8.893013e-02,3,0,2.934418e+00,2.934418e+00
8.318670e-01,9.552000e-02,8.797646e-02,3,0,3.068115e+00,3.068116e+00
8.322560e-01,9.545400e-02,8.797646e-02,3,0,1.688217e+00,1.688217e+00
8.319630e-01,9.585000e-02,8.893013e-02,3,0,1.476138e+00,1.476138e+00
8.315620e-01,9.538000e-02,8.797646e-02,3,0,1.648484e+00,1.648485e+00
8.305730e-01,9.546300e-02,8.893013e-02,3,0,1.149411e+00,1.149411e+00
8.263330e-01,9.597200e-02,8.797646e-02,3,0,9.746521e-01,9.746522e-01
8.252480e-01,9.991300e-02,9.298325e-02,3,0,7.983474e-01,7.983476e-01
8.262410e-01,9.552900e-02,8.916855e-02,3,0,5.137608e-01,5.137609e-01
8.305160e-01,9.534800e-02,8.797646e-02,3,0,3.727217e-01,3.727224e-01
8.311460e-01,9.575200e-02,8.893013e-02,3,0,2.852823e-01,2.852826e-01
8.315700e-01,9.535700e-02,8.797646e-02,3,0,3.980860e-01,3.980863e-01
8.303030e-01,9.525100e-02,8.893013e-02,3,0,5.226316e-01,5.226320e-01
8.378320e-01,9.537000e-02,8.797646e-02,3,0,3.597099e-01,3.597100e-01
8.326030e-01,9.311600e-02,8.702278e-02,3,0,3.916197e-01,3.916201e-01
8.322590e-01,9.280300e-02,8.606911e-02,3,0,1.091919e+00,1.091920e+00
8.328860e-01,9.286900e-02,8.583069e-02,3,0,2.457323e+00,2.457326e+00
8.326310e-01,9.334300e-02,8.702278e-02,3,0,3.341935e+00,3.341937e+00
8.334630e-01,9.328300e-02,8.702278e-02,3,0,2.815515e+00,2.815515e+00
8.342140e-01,9.362800e-02,8.702278e-02,3,0,3.037638e+00,3.037639e+00
8.334910e-01,9.355700e-02,8.606911e-02,3,0,2.960966e+00,2.960966e+00
8.340690e-01,9.311100e-02,8.583069e-02,3,0,2.616533e+00,2.616533e+00
8.206470e-01,9.335500e-02,8.606911e-02,3,0,2.054233e+00,2.054234e+00
8.043460e-01,1.055490e-01,9.894371e-02,3,0,2.024359e+00,2.024360e+00
8.036870e-01,1.219540e-01,1.151562e-01,3,0,3.619191e+00,3.619194e+00
8.159580e-01,1.088390e-01,1.008511e-01,3,0,4.710444e+00,4.710446e+00
8.327800e-01,9.343700e-02,8.606911e-02,3,0,5.589759e+00,5.589761e+00
8.333360e-01,9.368700e-02,8.702278e-02,3,0,4.581102e+00,4.581102e+00
8.337740e-01,9.323400e-02,8.606911e-02,3,0,3.502569e+00,3.502568e+00
8.339810e-01,9.289800e-02,8.606911e-02,3,0,2.563124e+00,2.563124e+00
8.330880e-01,9.327500e-02,8.606911e-02,3,0,2.075944e+00,2.075945e+00
8.332320e-01,9.270100e-02,8.487701e-02,3,0,2.714942e+00,2.714944e+00
8.336630e-01,9.279300e-02,8.606911e-02,3,0,2.720042e+00,2.720043e+00
8.335640e-01,9.295800e-02,8.583069e-02,3,0,2.061630e+00,2.061629e+00
8.301800e-01,9.329000e-02,8.702278e-02,3,0,2.028900e+00,2.028900e+00
8.371700e-01,9.582800e-02,8.893013e-02,3,0,2.348377e+00,2.348378e+00
8.304380e-01,9.573200e-02,8.893013e-02,3,0,2.454774e+00,2.454775e+00
8.314780e-01,9.560300e-02,8.797646e-02,3,0,3.008110e+00,3.008111e+00
8.316810e-01,9.507700e-02,8.893013e-02,3,0,2.384947e+00,2.384947e+00
8.317320e-01,9.487100e-02,8.797646e-02,3,0,3.117955e+00,3.117957e+00
8.312340e-01,9.511300e-02,8.797646e-02,3,0,3.065566e+00,3.065567e+00
8.264660e-01,9.490100e-02,8.797646e-02,3,0,2.557292e+00,2.557292e+00
8.259380e-01,1.000180e-01,9.393692e-02,3,0,2.106663e+00,2.106663e+00
8.263950e-01,1.000930e-01,9.298325e-02,3,0,2.211412e+00,2.211412e+00
8.310750e-01,9.577800e-02,8.893013e-02,3,0,2.227023e+00,2.227024e+00
8.308120e-01,9.525900e-02,8.797646e-02,3,0,1.659078e+00,1.659078e+00
8.307640e-01,9.580600e-02,8.916855e-02,3,0,1.667724e+00,1.667724e+00
8.323880e-01,9.482400e-02,8.702278e-02,3,0,1.099130e+00,1.099130e+00
8.319220e-01,9.532300e-02,8.916855e-02,3,0,9.022113e-01,9.022114e-01
8.320060e-01,9.518700e-02,8.893013e-02,3,0,5.674390e-01,5.674392e-01
8.308080e-01,9.521800e-02,8.797646e-02,3,0,3.751871e-01,3.751873e-01
8.313750e-01,9.570300e-02,8.797646e-02,3,0,2.186422e-01,2.186422e-01
8.300170e-01,9.577100e-02,8.797646e-02,3,0,4.111152e-01,4.111158e-01
8.312120e-01,9.549500e-02,8.893013e-02,3,0,2.328079e-01,2.328079e-01
8.302110e-01,9.514600e-02,8.916855e-02,3,0,2.265187e-01,2.265190e-01
8.313790e-01,9.519700e-02,8.893013e-02,3,0,1.359835e-01,1.359836e-01
8.300230e-01,9.548400e-02,8.893013e-02,3,0,1.527804e-01,1.527806e-01
8.299630e-01,9.547900e-02,8.821487e-02,3,0,1.332161e-01,1.332162e-01
8.282840e-01,9.548600e-02,8.797646e-02,3,0,3.298570e-01,3.298574e-01
8.259050e-01,9.546900e-02,8.797646e-02,3,0,2.550311e-01,2.550314e-01
8.254930e-01,9.956700e-02,9.298325e-02,3,0,2.544629e-01,2.544636e-01
8.257310e-01,9.540000e-02,8.893013e-02,3,0,5.217731e-01,5.217736e-01
8.316840e-01,9.576900e-02,8.797646e-02,3,0,2.867224e-01,2.867223e-01
8.303290e-01,9.551600e-02,8.797646e-02,3,0,4.110207e-01,4.110210e-01
8.300630e-01,9.540400e-02,8.916855e-02,3,0,4.170100e-01,4.170102e-01
8.296790e-01,9.547300e-02,8.893013e-02,3,0,7.090291e-01,7.090297e-01
8.304610e-01,9.527900e-02,8.893013e-02,3,0,5.399893e-01,5.399894e-01
8.312540e-01,9.510000e-02,8.797646e-02,3,0,3.504812e-01,3.504812e-01
8.315300e-01,9.543200e-02,8.797646e-02,3,0,2.595418e-01,2.595420e-01
8.313360e-01,9.570400e-02,8.893013e-02,3,0,3.508181e-01,3.508184e-01
8.305290e-01,9.490300e-02,8.797646e-02,3,0,3.231019e-01,3.231020e-01
8.308520e-01,9.561700e-02,8.893013e-02,3,0,2.615448e-01,2.615448e-01
8.308330e-01,9.579700e-02,8.797646e-02,3,0,4.593716e-01,4.593721e-01
8.313650e-01,9.504100e-02,8.797646e-02,3,0,3.475158e-01,3.475159e-01
8.301890e-01,9.539000e-02,8.821487e-02,3,0,5.158213e-01,5.158217e-01
8.314700e-01,9.557600e-02,8.893013e-02,3,0,9.145396e-01,9.145403e-01
8.299490e-01,9.561300e-02,8.797646e-02,3,0,8.031674e-01,8.031677e-01
8.253380e-01,9.542900e-02,8.893013e-02,3,0,7.101309e-01,7.101311e-01
8.259530e-01,9.985900e-02,9.298325e-02,3,0,1.620586e+00,1.620588e+00
8.259470e-01,9.568900e-02,8.893013e-02,3,0,1.979796e+00,1.979797e+00
8.307210e-01,9.496800e-02,8.797646e-02,3,0,1.132997e+00,1.132996e+00
8.309320e-01,9.539800e-02,8.916855e-02,3,0,8.490297e-01,8.490297e-01
8.312240e-01,9.546100e-02,8.893013e-02,3,0,6.456044e-01,6.456047e-01
8.310260e-01,9.518200e-02,8.821487e-02,3,0,4.354735e-01,4.354736e-01
8.313440e-01,9.545500e-02,8.797646e-02,3,0,3.815785e-01,3.815787e-01
8.321910e-01,9.573300e-02,8.916855e-02,3,0,5.486857e-01,5.486860e-01
8.317310e-01,9.557600e-02,8.893013e-02,3,0,5.290712e-01,5.290714e-01
8.311160e-01,9.531900e-02,8.893013e-02,3,0,2.579665e-01,2.579668e-01
8.301790e-01,9.563100e-02,8.797646e-02,3,0,6.967598e-01,6.967607e-01
8.310190e-01,9.574900e-02,8.916855e-02,3,0,3.919490e-01,3.919490e-01
8.315530e-01,9.576700e-02,8.893013e-02,3,0,3.534010e-01,3.534013e-01
8.317730e-01,9.543400e-02,8.916855e-02,3,0,4.850318e-01,4.850322e-01
8.318850e-01,9.567700e-02,8.893013e-02,3,0,3.999567e-01,3.999568e-01
8.307430e-01,9.540000e-02,8.893013e-02,3,0,4.713089e-01,4.713092e-01
8.251250e-01,9.509000e-02,8.797646e-02,3,0,5.989256e-01,5.989260e-01
8.252840e-01,9.977300e-02,8.797646e-02,3,0,4.713876e-01,4.713878e-01
8.257250e-01,9.982800e-02,9.298325e-02,3,0,4.905612e-01,4.905617e-01
8.308590e-01,9.516800e-02,8.797646e-02,3,0,6.108603e-01,6.108607e-01
8.313920e-01,9.593400e-02,8.916855e-02,3,0,7.470375e-01,7.470380e-01
8.307930e-01,9.594600e-02,8.893013e-02,3,0,1.118033e+00,1.118034e+00
8.307510e-01,9.565600e-02,8.916855e-02,3,0,7.738547e-01,7.738547e-01
8.305030e-01,9.542800e-02,8.893013e-02,3,0,7.282347e-01,7.282355e-01
8.317670e-01,9.571500e-02,8.893013e-02,3,0,7.119240e-01,7.119242e-01
8.314830e-01,9.559400e-02,8.893013e-02,3,0,7.781483e-01,7.781485e-01
8.312150e-01,9.601500e-02,8.916855e-02,3,0,6.471715e-01,6.471717e-01
8.316800e-01,9.497600e-02,8.797646e-02,3,0,1.098068e+00,1.098069e+00
8.307880e-01,9.534100e-02,8.797646e-02,3,0,8.187841e-01,8.187842e-01
8.302640e-01,9.552900e-02,8.797646e-02,3,0,7.743098e-01,7.743100e-01
8.307900e-01,9.560300e-02,8.893013e-02,3,0,7.614110e-01,7.614113e-01
8.308210e-01,9.542600e-02,8.916855e-02,3,0,6.899914e-01,6.899917e-01
8.306080e-01,9.542800e-02,8.893013e-02,3,0,4.930596e-01,4.930597e-01
8.297170e-01,9.540500e-02,8.797646e-02,3,0,6.012258e-01,6.012263e-01
8.254550e-01,9.603700e-02,8.893013e-02,3,0,6.780122e-01,6.780126e-01
8.256960e-01,9.960100e-02,9.179115e-02,3,0,4.676081e-01,4.676082e-01
8.256700e-01,1.000970e-01,9.298325e-02,3,0,8.746392e-01,8.746402e-01
8.317360e-01,9.527500e-02,8.797646e-02,3,0,6.178420e-01,6.178421e-01
8.304950e-01,9.536800e-02,8.797646e-02,3,0,5.576305e-01,5.576308e-01
8.308760e-01,9.579000e-02,8.893013e-02,3,0,5.046116e-01,5.046118e-01
8.311570e-01,9.491300e-02,8.821487e-02,3,0,3.967175e-01,3.967179e-01
8.309540e-01,9.563900e-02,8.893013e-02,3,0,2.920719e-01,2.920721e-01
8.315040e-01,9.576100e-02,8.893013e-02,3,0,5.730694e-01,5.730699e-01
8.317330e-01,9.554200e-02,8.797646e-02,3,0,4.927671e-01,4.927672e-01
8.315160e-01,9.536800e-02,8.916855e-02,3,0,4.981755e-01,4.981759e-01
8.313850e-01,9.537800e-02,8.797646e-02,3,0,4.688683e-01,4.688684e-01
8.312860e-01,9.533300e-02,8.916855e-02,3,0,3.674338e-01,3.674341e-01
8.310970e-01,9.524600e-02,8.797646e-02,3,0,4.423480e-01,4.423482e-01
8.313820e-01,9.546800e-02,8.821487e-02,3,0,3.414488e-01,3.414489e-01
8.303830e-01,9.500400e-02,8.797646e-02,3,0,1.434873e+00,1.434875e+00
8.312110e-01,9.513100e-02,8.893013e-02,3,0,3.181126e+00,3.181129e+00
8.312930e-01,9.504200e-02,8.916855e-02,3,0,2.408614e+00,2.408614e+00
8.260860e-01,9.555000e-02,8.797646e-02,3,0,1.724162e+00,1.724162e+00
8.260500e-01,9.905100e-02,9.179115e-02,3,0,1.256671e+00,1.256671e+00
8.254310e-01,1.003000e-01,9.298325e-02,3,0,1.368063e+00,1.368064e+00
8.312900e-01,9.544000e-02,8.893013e-02,3,0,1.077320e+00,1.077320e+00
8.310770e-01,9.532000e-02,8.797646e-02,3,0,1.043494e+00,1.043494e+00
8.306910e-01,9.539900e-02,8.797646e-02,3,0,1.242604e+00,1.242605e+00
8.311770e-01,9.610400e-02,9.012222e-02,3,0,1.406409e+00,1.406410e+00
8.313470e-01,9.551100e-02,8.797646e-02,3,0,1.284407e+00,1.284407e+00
8.311520e-01,9.557200e-02,8.893013e-02,3,0,1.374070e+00,1.374071e+00
8.316650e-01,9.523200e-02,8.797646e-02,3,0,1.844400e+00,1.844401e+00
8.314330e-01,9.562800e-02,8.893013e-02,3,0,1.377107e+00,1.377107e+00
8.314640e-01,9.573200e-02,8.916855e-02,3,0,9.441333e-01,9.441332e-01
8.316710e-01,9.544100e-02,8.797646e-02,3,0,5.655942e-01,5.655940e-01
8.315640e-01,9.552400e-02,8.797646e-02,3,0,3.798159e-01,3.798159e-01
8.315540e-01,9.515100e-02,8.893013e-02,3,0,2.967605e-01,2.967606e-01
8.306940e-01,9.524800e-02,8.797646e-02,3,0,4.102474e-01,4.102478e-01
8.313370e-01,9.507800e-02,8.797646e-02,3,0,2.912585e-01,2.912585e-01
8.301730e-01,9.559100e-02,8.916855e-02,3,0,4.764578e-01,4.764583e-01
8.253750e-01,9.512800e-02,8.797646e-02,3,0,5.043371e-01,5.043373e-01
8.253810e-01,1.002620e-01,9.393692e-02,3,0,4.688270e-01,4.688271e-01
8.250870e-01,1.078190e-01,9.298325e-02,3,0,6.028402e-01,6.028408e-01
8.309350e-01,9.546500e-02,8.893013e-02,3,0,3.377127e-01,3.377127e-01
8.304970e-01,9.532700e-02,8.916855e-02,3,0,2.711839e-01,2.711840e-01
8.301200e-01,9.522400e-02,8.797646e-02,3,0,1.383306e+00,1.383309e+00
8.313040e-01,9.544700e-02,8.797646e-02,3,0,1.451329e+00,1.451329e+00
8.310170e-01,9.528600e-02,8.916855e-02,3,0,7.031839e-01,7.031835e-01
8.309340e-01,9.532800e-02,8.893013e-02,3,0,6.982511e-01,6.982514e-01
8.320310e-01,9.507200e-02,8.797646e-02,3,0,6.137516e-01,6.137517e-01
8.311880e-01,9.578600e-02,8.893013e-02,3,0,6.617285e-01,6.617287e-01
8.311430e-01,9.537700e-02,8.797646e-02,3,0,3.354983e-01,3.354982e-01
8.308690e-01,9.552600e-02,8.893013e-02,3,0,2.759661e-01,2.759663e-01
8.297390e-01,9.507500e-02,8.821487e-02,3,0,5.279966e-01,5.279972e-01
8.300710e-01,9.581000e-02,8.797646e-02,3,0,6.667663e-01,6.667667e-01
8.320240e-01,9.526500e-02,8.797646e-02,3,0,8.292178e-01,8.292183e-01
8.306020e-01,9.490300e-02,8.821487e-02,3,0,5.374542e-01,5.374543e-01
8.295980e-01,9.521600e-02,8.893013e-02,3,0,5.127800e-01,5.127803e-01
8.255010e-01,9.574800e-02,8.893013e-02,3,0,7.688165e-01,7.688172e-01
8.272220e-01,1.004260e-01,9.298325e-02,3,0,1.152271e+00,1.152272e+00
8.262150e-01,9.954000e-02,9.298325e-02,3,0,1.284036e+00,1.284037e+00
8.316960e-01,9.560200e-02,8.916855e-02,3,0,1.793355e+00,1.793356e+00
8.308950e-01,9.559000e-02,8.893013e-02,3,0,1.700294e+00,1.700294e+00
8.310210e-01,9.529600e-02,8.916855e-02,3,0,2.642651e+00,2.642653e+00
8.302560e-01,9.519200e-02,8.893013e-02,3,0,1.107416e+00,1.107415e+00
8.311590e-01,9.519100e-02,8.797646e-02,3,0,9.386903e-01,9.386905e-01
8.314850e-01,9.516500e-02,8.797646e-02,3,0,1.466584e+00,1.466585e+00
8.321750e-01,9.508100e-02,8.797646e-02,3,0,7.286371e-01,7.286368e-01
8.324070e-01,9.562400e-02,8.893013e-02,3,0,6.052259e-01,6.052260e-01
8.352360e-01,9.540400e-02,8.797646e-02,3,0,4.965911e-01,4.965912e-01
8.087480e-01,9.292900e-02,8.606911e-02,3,0,3.360130e-01,3.360130e-01
8.167320e-01,9.289400e-02,8.606911e-02,3,0,6.849909e-01,6.849916e-01
8.076850e-01,9.248800e-02,8.606911e-02,3,0,5.121156e-01,5.121156e-01
8.076610e-01,9.255400e-02,8.583069e-02,3,0,2.922550e-01,2.922550e-01
8.019450e-01,9.220500e-02,8.511543e-02,3,0,6.679345e-01,6.679354e-01
8.031470e-01,9.778000e-02,9.107590e-02,3,0,4.674127e-01,4.674127e-01
8.086750e-01,9.257500e-02,8.606911e-02,3,0,2.461262e-01,2.461263e-01
8.068570e-01,9.289500e-02,8.606911e-02,3,0,2.703545e-01,2.703547e-01
8.073930e-01,9.273900e-02,8.606911e-02,3,0,3.371024e-01,3.371027e-01
8.079070e-01,9.284600e-02,8.583069e-02,3,0,5.136953e-01,5.136958e-01
8.067650e-01,9.258500e-02,8.606911e-02,3,0,1.077991e+00,1.077992e+00
8.084170e-01,9.260600e-02,8.511543e-02,3,0,7.645050e-01,7.645064e-01
8.129760e-01,9.525000e-02,8.606911e-02,3,0,1.387647e+00,1.387648e+00
8.093250e-01,9.268400e-02,8.606911e-02,3,0,6.073496e-01,6.073492e-01
8.093880e-01,9.265100e-02,8.583069e-02,3,0,4.838976e-01,4.838978e-01
8.076870e-01,9.272000e-02,8.583069e-02,3,0,3.213725e-01,3.213725e-01
8.032280e-01,9.262500e-02,8.583069e-02,3,0,2.984320e-01,2.984323e-01
8.019740e-01,9.705500e-02,9.107590e-02,3,0,8.386706e-01,8.386719e-01
8.089870e-01,9.288900e-02,8.606911e-02,3,0,8.449806e-01,8.449808e-01
8.340000e-01,9.293200e-02,8.606911e-02,3,0,1.302749e+00,1.302750e+00
8.082900e-01,9.386600e-02,8.702278e-02,3,0,1.342942e+00,1.342942e+00
8.080590e-01,9.288600e-02,8.606911e-02,3,0,1.544383e+00,1.544383e+00
8.098050e-01,9.259200e-02,8.606911e-02,3,0,2.525370e+00,2.525371e+00
8.093080e-01,9.283500e-02,8.606911e-02,3,0,2.830332e+00,2.830332e+00
8.107990e-01,9.260700e-02,8.583069e-02,3,0,2.115056e+00,2.115056e+00
8.098620e-01,9.278900e-02,8.606911e-02,3,0,1.898372e+00,1.898372e+00
8.104090e-01,9.296600e-02,8.606911e-02,3,0,2.653305e+00,2.653307e+00
8.100910e-01,9.277500e-02,8.606911e-02,3,0,1.802900e+00,1.802900e+00
8.089660e-01,9.276700e-02,8.606911e-02,3,0,1.494907e+00,1.494907e+00
8.032580e-01,9.242900e-02,8.583069e-02,3,0,1.498995e+00,1.498996e+00
8.029230e-01,9.782800e-02,9.107590e-02,3,0,1.609108e+00,1.609109e+00
8.095490e-01,9.242900e-02,8.511543e-02,3,0,1.756702e+00,1.756702e+00
8.082800e-01,9.221200e-02,8.487701e-02,3,0,1.294859e+00,1.294860e+00
8.095470e-01,9.275600e-02,8.606911e-02,3,0,1.255283e+00,1.255283e+00
8.092830e-01,9.278800e-02,8.583069e-02,3,0,1.626537e+00,1.626538e+00
8.100120e-01,9.258800e-02,8.606911e-02,3,0,1.798403e+00,1.798403e+00
8.098930e-01,9.275800e-02,8.606911e-02,3,0,1.146720e+00,1.146720e+00
8.094090e-01,9.313500e-02,8.702278e-02,3,0,1.106796e+00,1.106796e+00
8.083040e-01,9.259600e-02,8.583069e-02,3,0,6.536678e-01,6.536678e-01
8.085870e-01,9.309800e-02,8.702278e-02,3,0,6.339582e-01,6.339586e-01

