4.157000e+00,3.931265e+00,2,2,0.000000e+00,0.000000e+00
6.219748e+00,5.928885e+00,3,3,3.954406e-01,3.954405e-01
6.227806e+00,5.908614e+00,3,3,2.938420e+00,2.938418e+00
6.234708e+00,5.896383e+00,3,3,1.134788e+00,1.134788e+00
6.230953e+00,5.903375e+00,3,3,5.924830e+00,5.924826e+00
6.232739e+00,5.905324e+00,3,3,1.018497e+01,1.018519e+01
6.231054e+00,7.868495e+00,3,4,8.682500e+00,8.682449e+00
6.225471e+00,5.901478e+00,3,3,1.555287e+01,1.555217e+01
1.037215e+01,1.179280e+01,5,6,1.601722e+01,1.602899e+01
8.297093e+00,1.375656e+01,4,7,1.236359e+01,1.236384e+01
1.245547e+01,7.867709e+00,6,4,1.439597e+01,1.439594e+01
8.299827e+00,7.866135e+00,4,4,1.009607e+01,1.009609e+01
6.230755e+00,5.902616e+00,3,3,1.092491e+01,1.092491e+01
6.228917e+00,5.902220e+00,3,3,1.359664e+01,1.359664e+01
6.224464e+00,5.901610e+00,3,3,1.857595e+01,1.857225e+01
1.452264e+01,1.178385e+01,7,6,1.825618e+01,1.825515e+01
1.453044e+01,7.866494e+00,7,4,1.738695e+01,1.738527e+01
6.225583e+00,5.901872e+00,3,3,1.893714e+01,1.893696e+01
8.308664e+00,5.901597e+00,4,3,1.543752e+01,1.543769e+01
6.229849e+00,5.902412e+00,3,3,1.290757e+01,1.290762e+01
6.233703e+00,5.905389e+00,3,3,9.427898e+00,9.427899e+00
6.237519e+00,5.914402e+00,3,3,1.036455e+01,1.036455e+01
6.226355e+00,5.901455e+00,3,3,8.116926e+00,8.116927e+00
6.226452e+00,5.901901e+00,3,3,7.545360e+00,7.545359e+00
6.224869e+00,5.902424e+00,3,3,7.419094e+00,7.419093e+00
6.224643e+00,5.901379e+00,3,3,6.219739e+00,6.219738e+00
6.232270e+00,5.899205e+00,3,3,5.130444e+00,5.130444e+00
6.233007e+00,5.905007e+00,3,3,5.139761e+00,5.139759e+00
6.225671e+00,5.902054e+00,3,3,4.197784e+00,4.197784e+00
6.226025e+00,5.904193e+00,3,3,7.812559e+00,7.812558e+00
6.229336e+00,5.898782e+00,3,3,3.636664e+00,3.636667e+00
6.225699e+00,5.903597e+00,3,3,3.409385e+00,3.409385e+00
6.226682e+00,5.900606e+00,3,3,4.083952e+00,4.083959e+00
6.226887e+00,5.894852e+00,3,3,2.234634e+00,2.234637e+00
6.231706e+00,5.902903e+00,3,3,2.530356e+00,2.530355e+00
6.226610e+00,5.903377e+00,3,3,1.817072e+00,1.817072e+00
6.227730e+00,5.901620e+00,3,3,2.950590e+00,2.950589e+00
6.225327e+00,5.904480e+00,3,3,3.131716e+00,3.131716e+00
6.230496e+00,5.900780e+00,3,3,4.134453e+00,4.134452e+00
6.228448e+00,5.901172e+00,3,3,6.417191e+00,6.417192e+00
8.310915e+00,5.896658e+00,4,3,9.655117e+00,9.659630e+00
1.451022e+01,1.179465e+01,7,6,6.817743e+00,6.821029e+00
8.295344e+00,7.864316e+00,4,4,4.300745e+00,4.300746e+00
6.229182e+00,5.900370e+00,3,3,5.174983e+00,5.174982e+00
6.228272e+00,5.900915e+00,3,3,6.341704e+00,6.341705e+00
6.228539e+00,5.901916e+00,3,3,7.640497e+00,7.640496e+00
6.235361e+00,5.905546e+00,3,3,6.564757e+00,6.564758e+00
6.226824e+00,5.903359e+00,3,3,8.415235e+00,8.415237e+00
6.228911e+00,5.902753e+00,3,3,5.087572e+00,5.087577e+00
6.228457e+00,5.904330e+00,3,3,7.623858e+00,7.624055e+00
6.224595e+00,5.902011e+00,3,3,7.792000e+00,7.790308e+00
1.243327e+01,1.177982e+01,6,6,7.326094e+00,7.326458e+00
1.243923e+01,1.179168e+01,6,6,1.252811e+01,1.252941e+01
8.300553e+00,7.866422e+00,4,4,9.029480e+00,9.029481e+00
6.230767e+00,5.903619e+00,3,3,1.195268e+01,1.195268e+01
6.223173e+00,5.902577e+00,3,3,1.364609e+01,1.364331e+01
8.292979e+00,7.863157e+00,4,4,8.848815e+00,8.847555e+00
6.224210e+00,5.901164e+00,3,3,7.136098e+00,7.136094e+00
6.232511e+00,5.904761e+00,3,3,6.927773e+00,6.927772e+00
6.228065e+00,5.902711e+00,3,3,6.021767e+00,6.021766e+00
6.227332e+00,5.902009e+00,3,3,6.882303e+00,6.882301e+00
6.228609e+00,5.903393e+00,3,3,7.706742e+00,7.706741e+00
6.227770e+00,5.901573e+00,3,3,7.151413e+00,7.151418e+00
6.226156e+00,5.903603e+00,3,3,7.442635e+00,7.443104e+00
1.037030e+01,9.822596e+00,5,5,7.174250e+00,7.181966e+00
6.256426e+00,5.905324e+00,3,3,5.656026e+00,5.655840e+00
6.229312e+00,5.905103e+00,3,3,2.178388e+00,2.178386e+00
6.225167e+00,5.903576e+00,3,3,2.357586e+00,2.357586e+00
6.228528e+00,5.903474e+00,3,3,3.242335e+00,3.242334e+00
6.228678e+00,5.904339e+00,3,3,2.966327e+00,2.966326e+00
6.227319e+00,5.901382e+00,3,3,2.567000e+00,2.567000e+00
6.231808e+00,5.896446e+00,3,3,5.656817e+00,5.656816e+00
6.230491e+00,5.902148e+00,3,3,9.282537e+00,9.282565e+00
6.226817e+00,5.899694e+00,3,3,6.820491e+00,6.820496e+00
6.227179e+00,5.900646e+00,3,3,4.505032e+00,4.505033e+00
6.225205e+00,5.901188e+00,3,3,4.766942e+00,4.766942e+00
6.225347e+00,5.903661e+00,3,3,3.913275e+00,3.913275e+00
6.227900e+00,5.900784e+00,3,3,4.531188e+00,4.531185e+00
6.233562e+00,5.898059e+00,3,3,5.577535e+00,5.577533e+00
6.236851e+00,5.901577e+00,3,3,3.365044e+00,3.365045e+00
6.229754e+00,5.900891e+00,3,3,6.362929e+00,6.362924e+00
6.227572e+00,5.901905e+00,3,3,3.791595e+00,3.791599e+00
6.226183e+00,5.902259e+00,3,3,3.135755e+00,3.135751e+00
6.230441e+00,5.901987e+00,3,3,3.895584e+00,3.895670e+00
6.227924e+00,5.902356e+00,3,3,2.582829e+00,2.582805e+00
6.234200e+00,5.894718e+00,3,3,1.727840e+00,1.727840e+00
6.236576e+00,5.904192e+00,3,3,6.356051e+00,6.356047e+00
6.230442e+00,5.901797e+00,3,3,1.006241e+01,1.006242e+01
8.298043e+00,5.902349e+00,4,3,1.866942e+01,1.867719e+01
1.244042e+01,1.178879e+01,6,6,2.380112e+01,2.380020e+01
1.243420e+01,1.178593e+01,6,6,1.435633e+01,1.435251e+01
8.300876e+00,1.178994e+01,4,6,8.763688e+00,8.762768e+00
8.292315e+00,7.862423e+00,4,4,5.696956e+00,5.696956e+00
6.226900e+00,5.901363e+00,3,3,4.601082e+00,4.601083e+00
6.225726e+00,5.902688e+00,3,3,6.106783e+00,6.106780e+00
6.229708e+00,5.901148e+00,3,3,6.002166e+00,6.002168e+00
6.227093e+00,5.899133e+00,3,3,5.662794e+00,5.662796e+00
8.304320e+00,5.898980e+00,4,3,9.388078e+00,9.393814e+00
1.037886e+01,1.179480e+01,5,6,4.265738e+00,4.246803e+00
8.298926e+00,5.900032e+00,4,3,3.709237e+00,3.709234e+00
6.227813e+00,5.904469e+00,3,3,2.978764e+00,2.978763e+00
6.228977e+00,5.901660e+00,3,3,3.429640e+00,3.429639e+00
6.228562e+00,5.903967e+00,3,3,3.451448e+00,3.451448e+00
6.234318e+00,5.925279e+00,3,3,2.646606e+00,2.646606e+00
6.230609e+00,5.902716e+00,3,3,1.933626e+00,1.933626e+00
6.229218e+00,5.899959e+00,3,3,2.585860e+00,2.585859e+00
6.229891e+00,5.906138e+00,3,3,3.300463e+00,3.300500e+00
6.233981e+00,6.048287e+00,3,3,5.401560e+00,5.401551e+00
6.419405e+00,6.078246e+00,3,3,5.151151e+00,5.151151e+00
6.412020e+00,6.076105e+00,3,3,3.159136e+00,3.159137e+00
6.414982e+00,6.073957e+00,3,3,3.106487e+00,3.106487e+00
6.409329e+00,6.076680e+00,3,3,3.049198e+00,3.049197e+00
6.413660e+00,6.074280e+00,3,3,3.512245e+00,3.512244e+00
6.414401e+00,6.076653e+00,3,3,2.716422e+00,2.716422e+00
6.415504e+00,6.075271e+00,3,3,2.011859e+00,2.011859e+00
6.408802e+00,6.074496e+00,3,3,2.219400e+00,2.219400e+00
6.420169e+00,6.076619e+00,3,3,1.617782e+00,1.617782e+00
6.409397e+00,6.075892e+00,3,3,2.381040e+00,2.381039e+00
6.416171e+00,6.075534e+00,3,3,2.075578e+00,2.075578e+00
6.411096e+00,6.078947e+00,3,3,3.422824e+00,3.422823e+00
6.419974e+00,6.077256e+00,3,3,1.292605e+00,1.292605e+00
6.410440e+00,6.077665e+00,3,3,1.846623e+00,1.846622e+00
6.417656e+00,6.078931e+00,3,3,1.724565e+00,1.724565e+00
6.410997e+00,6.086071e+00,3,3,2.360828e+00,2.360828e+00
6.422325e+00,6.075604e+00,3,3,2.391697e+00,2.391697e+00
6.412094e+00,6.074866e+00,3,3,1.952664e+00,1.952664e+00
6.417283e+00,6.074220e+00,3,3,2.006092e+00,2.006091e+00
6.407798e+00,6.075173e+00,3,3,2.776889e+00,2.776888e+00
6.413504e+00,6.074086e+00,3,3,1.972064e+00,1.972064e+00
6.409767e+00,6.075510e+00,3,3,2.681342e+00,2.681341e+00
6.413458e+00,6.075703e+00,3,3,1.689928e+00,1.689928e+00
6.410612e+00,6.076549e+00,3,3,1.811065e+00,1.811065e+00
6.417298e+00,6.076564e+00,3,3,1.781486e+00,1.781486e+00
6.409267e+00,6.075462e+00,3,3,1.210010e+00,1.210010e+00
6.331610e+00,5.902569e+00,3,3,2.657969e+00,2.657968e+00
6.226916e+00,5.903719e+00,3,3,1.668751e+00,1.668752e+00
6.226383e+00,5.901740e+00,3,3,2.292462e+00,2.292462e+00
6.228492e+00,5.901951e+00,3,3,2.901976e+00,2.901972e+00
6.229668e+00,5.902586e+00,3,3,1.969572e+00,1.969572e+00
6.284548e+00,5.904271e+00,3,3,3.389860e+00,3.389858e+00
6.259226e+00,5.931258e+00,3,3,3.114049e+00,3.114049e+00
6.283246e+00,5.903124e+00,3,3,3.624401e+00,3.624400e+00
6.225152e+00,5.903487e+00,3,3,4.811712e+00,4.811712e+00
6.227682e+00,5.904226e+00,3,3,2.996326e+00,2.996328e+00
6.223414e+00,5.904185e+00,3,3,4.193880e+00,4.193798e+00
8.289912e+00,7.863255e+00,4,4,1.369574e+00,1.369575e+00
6.230434e+00,5.898639e+00,3,3,2.162837e+00,2.162836e+00
6.234870e+00,5.904299e+00,3,3,1.690640e+00,1.690640e+00
6.226235e+00,5.901164e+00,3,3,1.532820e+00,1.532819e+00
6.224461e+00,5.932079e+00,3,3,1.343390e+00,1.343390e+00
6.225146e+00,5.902919e+00,3,3,1.350759e+00,1.350759e+00
6.226655e+00,5.901855e+00,3,3,3.292757e+00,3.292756e+00
6.227468e+00,5.902365e+00,3,3,1.210657e+00,1.210657e+00
6.230452e+00,5.897341e+00,3,3,1.299863e+00,1.299863e+00
6.224905e+00,5.906172e+00,3,3,1.200008e+00,1.200007e+00
6.231647e+00,5.903229e+00,3,3,9.818082e-01,9.818078e-01
6.230242e+00,5.905072e+00,3,3,9.610661e-01,9.610658e-01
6.228089e+00,5.905951e+00,3,3,2.278707e+00,2.278706e+00
6.228812e+00,5.900804e+00,3,3,1.685161e+00,1.685160e+00
6.227488e+00,5.903696e+00,3,3,1.924211e+00,1.924210e+00
6.232567e+00,5.901746e+00,3,3,2.385910e+00,2.385910e+00
6.229056e+00,5.902669e+00,3,3,5.104788e+00,5.104785e+00
6.227022e+00,5.903064e+00,3,3,1.015645e+01,1.015649e+01
6.223393e+00,5.904823e+00,3,3,1.537486e+01,1.537692e+01
1.243313e+01,1.178973e+01,6,6,1.083454e+01,1.083678e+01
1.245221e+01,9.830011e+00,6,5,7.693527e+00,7.692284e+00
1.038472e+01,5.902887e+00,5,3,6.956478e+00,6.949132e+00
8.300820e+00,5.905479e+00,4,3,6.861567e+00,6.861844e+00
6.222718e+00,5.904403e+00,3,3,8.003824e+00,8.005217e+00
8.297832e+00,7.866317e+00,4,4,4.807864e+00,4.807865e+00
6.232504e+00,5.898766e+00,3,3,6.613192e+00,6.613194e+00
6.232790e+00,5.900738e+00,3,3,4.487060e+00,4.487061e+00
6.226507e+00,5.903985e+00,3,3,4.728810e+00,4.728809e+00
6.225951e+00,5.902068e+00,3,3,3.792379e+00,3.792379e+00
6.225421e+00,5.903376e+00,3,3,4.114141e+00,4.114141e+00
6.227519e+00,5.900812e+00,3,3,3.759994e+00,3.759994e+00
6.229270e+00,5.904069e+00,3,3,4.625263e+00,4.625262e+00
6.235344e+00,5.896384e+00,3,3,3.964243e+00,3.964243e+00
6.235380e+00,5.902982e+00,3,3,4.218624e+00,4.218623e+00
6.233292e+00,5.902169e+00,3,3,4.343462e+00,4.343461e+00
6.228049e+00,5.902444e+00,3,3,3.869794e+00,3.869794e+00
6.230448e+00,5.905700e+00,3,3,3.613221e+00,3.613220e+00
6.229921e+00,5.919241e+00,3,3,5.028968e+00,5.028966e+00
6.233572e+00,5.905200e+00,3,3,3.979978e+00,3.979978e+00
6.236274e+00,5.905812e+00,3,3,4.938948e+00,4.938946e+00
6.230232e+00,5.900880e+00,3,3,4.386191e+00,4.386191e+00
6.228466e+00,5.903183e+00,3,3,4.417577e+00,4.417577e+00
6.230291e+00,5.902947e+00,3,3,6.270049e+00,6.270047e+00
6.227453e+00,5.902435e+00,3,3,4.145049e+00,4.145050e+00
6.228160e+00,5.898175e+00,3,3,3.465212e+00,3.465212e+00
6.232547e+00,5.865495e+00,3,3,3.509265e+00,3.509264e+00
6.197427e+00,5.881783e+00,3,3,4.050620e+00,4.050620e+00
6.231057e+00,5.903511e+00,3,3,3.091365e+00,3.091365e+00
6.227029e+00,5.902019e+00,3,3,3.682184e+00,3.682183e+00
6.250770e+00,5.903058e+00,3,3,2.969415e+00,2.969414e+00
6.223887e+00,5.906298e+00,3,3,4.099739e+00,4.099780e+00
8.296616e+00,7.916917e+00,4,4,3.173754e+00,3.173751e+00
6.234585e+00,5.899969e+00,3,3,3.976351e+00,3.976350e+00
6.233358e+00,5.905077e+00,3,3,5.363197e+00,5.363196e+00
6.227871e+00,5.904089e+00,3,3,4.108982e+00,4.108983e+00
6.228880e+00,5.921030e+00,3,3,1.873437e+00,1.873437e+00
6.238161e+00,5.904204e+00,3,3,2.517194e+00,2.517193e+00
6.247954e+00,5.903973e+00,3,3,2.800666e+00,2.800666e+00
6.228510e+00,5.901437e+00,3,3,2.572174e+00,2.572174e+00
6.233382e+00,5.897959e+00,3,3,5.375571e+00,5.375569e+00
6.231939e+00,5.915798e+00,3,3,4.686639e+00,4.686641e+00
6.228464e+00,5.909485e+00,3,3,3.189148e+00,3.189150e+00
6.227309e+00,5.942569e+00,3,3,7.758278e+00,7.758272e+00
6.230710e+00,5.902391e+00,3,3,9.764369e+00,9.764372e+00
6.224497e+00,5.901422e+00,3,3,1.463160e+01,1.463001e+01
1.243416e+01,1.178761e+01,6,6,1.740113e+01,1.739874e+01
1.450445e+01,1.180445e+01,7,6,1.670574e+01,1.671766e+01
1.036310e+01,9.826886e+00,5,5,1.447505e+01,1.447798e+01
8.299255e+00,7.867177e+00,4,4,1.538087e+01,1.538065e+01
1.036565e+01,9.827726e+00,5,5,1.485617e+01,1.486789e+01
8.308429e+00,7.885497e+00,4,4,1.096264e+01,1.096271e+01
6.232845e+00,5.901873e+00,3,3,7.829364e+00,7.829398e+00
6.227750e+00,5.903992e+00,3,3,6.996622e+00,6.996621e+00
6.227129e+00,5.906109e+00,3,3,7.451433e+00,7.451432e+00
6.229291e+00,5.901704e+00,3,3,5.883390e+00,5.883390e+00
6.226497e+00,5.900980e+00,3,3,4.847687e+00,4.847688e+00
6.229871e+00,5.896951e+00,3,3,3.799418e+00,3.799417e+00
6.233034e+00,5.902519e+00,3,3,2.946502e+00,2.946502e+00
6.228486e+00,5.908507e+00,3,3,1.031478e+01,1.031479e+01
8.380144e+00,7.896642e+00,4,4,4.540710e+00,4.540710e+00
6.254226e+00,5.929502e+00,3,3,5.458637e+00,5.458636e+00
6.226474e+00,5.923335e+00,3,3,7.638783e+00,7.637842e+00
8.301658e+00,7.865370e+00,4,4,5.028080e+00,5.028114e+00
6.227886e+00,5.901284e+00,3,3,2.787051e+00,2.787053e+00
6.227824e+00,5.927855e+00,3,3,4.599381e+00,4.599378e+00
6.228127e+00,5.926609e+00,3,3,3.808682e+00,3.808682e+00
6.256306e+00,5.900506e+00,3,3,3.417832e+00,3.417832e+00
6.228387e+00,5.901307e+00,3,3,3.258812e+00,3.258812e+00
6.232372e+00,5.928084e+00,3,3,3.415891e+00,3.415890e+00
6.229138e+00,5.929824e+00,3,3,2.284327e+00,2.284327e+00
6.230191e+00,5.905640e+00,3,3,1.443577e+00,1.443577e+00
6.228961e+00,5.905456e+00,3,3,1.610212e+00,1.610212e+00
6.228952e+00,5.931065e+00,3,3,3.718258e+00,3.718256e+00
6.233291e+00,5.929118e+00,3,3,7.436665e+00,7.436673e+00
6.231224e+00,5.901685e+00,3,3,1.079111e+01,1.078717e+01
1.245947e+01,9.822078e+00,6,5,8.371053e+00,8.376298e+00
1.245388e+01,1.181664e+01,6,6,7.877734e+00,7.880336e+00
1.451479e+01,7.859107e+00,7,4,6.018125e+00,6.025539e+00
8.323146e+00,7.863075e+00,4,4,3.609232e+00,3.609232e+00
6.255630e+00,5.902613e+00,3,3,4.024718e+00,4.024717e+00
6.228580e+00,5.903731e+00,3,3,3.725123e+00,3.725123e+00
6.228981e+00,5.902718e+00,3,3,2.843990e+00,2.843989e+00
6.251697e+00,5.903942e+00,3,3,3.451174e+00,3.451173e+00
6.256920e+00,5.898624e+00,3,3,2.965991e+00,2.965991e+00
6.227159e+00,5.901628e+00,3,3,3.420417e+00,3.420417e+00
6.234849e+00,5.901985e+00,3,3,6.718869e+00,6.718929e+00
6.249377e+00,7.866236e+00,3,4,8.939433e+00,8.938206e+00
1.455176e+01,7.865755e+00,7,4,5.019186e+00,5.019287e+00
6.233333e+00,5.896600e+00,3,3,3.277224e+00,3.277224e+00
6.259990e+00,5.928726e+00,3,3,2.775586e+00,2.775586e+00
6.255904e+00,5.905130e+00,3,3,2.096961e+00,2.096961e+00
6.232104e+00,5.902998e+00,3,3,9.107553e+00,9.107553e+00
6.229499e+00,5.903744e+00,3,3,1.012243e+01,1.012305e+01
1.246917e+01,1.180931e+01,6,6,1.503782e+01,1.503881e+01
1.036432e+01,1.179360e+01,5,6,1.244558e+01,1.244802e+01
1.246615e+01,1.181616e+01,6,6,1.938913e+01,1.938604e+01
1.243125e+01,1.179168e+01,6,6,2.607904e+01,2.609460e+01
1.246500e+01,1.182067e+01,6,6,2.543171e+01,2.542300e+01
1.243740e+01,1.179410e+01,6,6,2.223553e+01,2.222583e+01
1.037803e+01,1.184118e+01,5,6,1.683188e+01,1.685325e+01
8.321903e+00,7.868793e+00,4,4,1.525661e+01,1.525662e+01
6.230101e+00,5.901465e+00,3,3,1.412173e+01,1.412187e+01
6.234349e+00,5.904364e+00,3,3,1.217120e+01,1.217120e+01
6.260252e+00,5.906047e+00,3,3,1.039115e+01,1.039115e+01
6.254746e+00,5.904253e+00,3,3,8.882676e+00,8.882676e+00
6.228635e+00,5.904718e+00,3,3,8.120604e+00,8.120604e+00
6.225449e+00,5.901846e+00,3,3,7.550058e+00,7.550059e+00
6.252569e+00,5.901258e+00,3,3,5.516605e+00,5.516606e+00
6.252364e+00,5.901069e+00,3,3,5.023806e+00,5.023805e+00
6.230823e+00,5.902159e+00,3,3,4.315716e+00,4.315716e+00
6.228323e+00,5.906188e+00,3,3,5.535538e+00,5.535525e+00
8.323892e+00,7.892844e+00,4,4,3.857978e+00,3.857979e+00
6.233567e+00,5.904385e+00,3,3,5.834448e+00,5.834444e+00
6.228540e+00,5.902222e+00,3,3,9.414157e+00,9.414227e+00
8.295232e+00,7.883078e+00,4,4,5.345252e+00,5.345252e+00
6.232531e+00,5.952275e+00,3,3,8.534795e+00,8.534882e+00
6.227038e+00,5.901125e+00,3,3,9.954285e+00,9.957846e+00
1.036295e+01,7.862189e+00,5,4,8.088399e+00,8.087646e+00
1.247557e+01,5.940156e+00,6,3,7.236714e+00,7.237077e+00
8.311059e+00,5.913215e+00,4,3,5.511917e+00,5.512008e+00
6.232580e+00,5.902760e+00,3,3,6.728448e+00,6.728521e+00
6.228230e+00,5.951294e+00,3,3,4.037579e+00,4.037588e+00
6.228143e+00,5.904176e+00,3,3,7.023534e+00,7.023375e+00
8.288569e+00,1.178875e+01,4,6,7.972695e+00,7.974731e+00
6.225555e+00,7.865709e+00,3,4,9.385818e+00,9.385920e+00
6.226482e+00,5.897569e+00,3,3,1.440260e+01,1.439785e+01
1.244166e+01,7.861925e+00,6,4,1.232646e+01,1.232175e+01
8.295842e+00,5.901562e+00,4,3,6.497582e+00,6.497590e+00
6.240353e+00,5.904044e+00,3,3,6.358878e+00,6.358878e+00
6.228359e+00,5.901030e+00,3,3,6.878834e+00,6.878832e+00
6.229541e+00,5.896658e+00,3,3,5.560712e+00,5.560712e+00
6.233329e+00,5.901879e+00,3,3,6.599216e+00,6.599212e+00
6.233433e+00,5.901052e+00,3,3,6.810367e+00,6.810406e+00
6.224837e+00,5.900379e+00,3,3,7.362591e+00,7.362663e+00
1.242562e+01,1.179187e+01,6,6,5.533075e+00,5.532300e+00
1.243209e+01,1.178544e+01,6,6,4.793300e+00,4.788553e+00
1.243991e+01,1.179405e+01,6,6,5.896008e+00,5.893245e+00
8.293919e+00,1.179753e+01,4,6,6.916860e+00,6.929590e+00
1.244292e+01,7.872230e+00,6,4,4.098118e+00,4.093304e+00
6.226890e+00,5.903056e+00,3,3,2.457275e+00,2.457255e+00
6.223964e+00,5.901497e+00,3,3,2.629771e+00,2.629770e+00
6.239404e+00,5.897574e+00,3,3,2.062353e+00,2.062353e+00
6.230053e+00,5.900479e+00,3,3,3.907762e+00,3.907761e+00
6.226816e+00,5.901652e+00,3,3,1.672218e+00,1.672218e+00
6.224890e+00,5.901441e+00,3,3,2.562000e+00,2.561999e+00
6.226343e+00,5.904006e+00,3,3,8.540060e+00,8.540056e+00
6.228298e+00,5.900872e+00,3,3,9.105094e+00,9.105162e+00
6.227766e+00,5.902094e+00,3,3,8.067846e+00,8.068243e+00
6.232168e+00,5.896822e+00,3,3,7.686924e+00,7.688528e+00
6.230420e+00,5.902248e+00,3,3,5.212942e+00,5.213084e+00
6.225227e+00,5.900887e+00,3,3,5.585668e+00,5.586041e+00
6.226307e+00,5.901630e+00,3,3,8.005831e+00,8.006046e+00
8.292660e+00,7.868312e+00,4,4,3.756059e+00,3.756060e+00
6.226800e+00,5.903107e+00,3,3,2.034050e+00,2.034051e+00
6.224825e+00,5.902759e+00,3,3,1.764432e+00,1.764432e+00
6.233705e+00,5.898909e+00,3,3,1.784465e+00,1.784464e+00
6.231034e+00,5.904724e+00,3,3,2.536873e+00,2.536872e+00
6.227269e+00,5.905038e+00,3,3,3.027688e+00,3.027688e+00
6.226212e+00,5.903280e+00,3,3,5.765064e+00,5.765061e+00
6.228055e+00,5.903150e+00,3,3,4.918186e+00,4.918186e+00
6.227071e+00,5.901466e+00,3,3,4.571469e+00,4.571469e+00
6.228127e+00,5.900386e+00,3,3,5.597287e+00,5.597302e+00
6.231562e+00,5.897890e+00,3,3,1.292407e+01,1.292505e+01
8.302026e+00,7.899509e+00,4,4,6.701255e+00,6.701075e+00
6.279324e+00,5.956751e+00,3,3,8.117889e+00,8.117871e+00
6.282261e+00,5.930900e+00,3,3,5.789885e+00,5.789888e+00
6.226352e+00,5.900988e+00,3,3,6.746735e+00,6.746733e+00
6.230521e+00,5.899127e+00,3,3,5.073061e+00,5.073061e+00
6.234597e+00,5.932347e+00,3,3,4.693490e+00,4.693490e+00
6.233179e+00,5.929892e+00,3,3,4.680249e+00,4.680248e+00
6.227892e+00,5.904974e+00,3,3,7.646211e+00,7.646209e+00
6.227974e+00,6.005449e+00,3,3,6.858424e+00,6.858430e+00
6.289336e+00,5.963951e+00,3,3,6.462027e+00,6.462030e+00
6.234197e+00,5.925491e+00,3,3,5.085218e+00,5.085221e+00
6.227829e+00,5.907768e+00,3,3,3.507799e+00,3.507798e+00
6.230354e+00,5.905287e+00,3,3,2.606514e+00,2.606514e+00
6.256060e+00,5.931907e+00,3,3,7.737602e+00,7.737623e+00
6.232099e+00,5.928370e+00,3,3,4.015694e+00,4.015727e+00
6.236161e+00,5.899699e+00,3,3,2.998331e+00,2.998330e+00
6.233695e+00,5.903245e+00,3,3,2.896807e+00,2.896806e+00
6.227871e+00,5.903684e+00,3,3,1.433830e+00,1.433830e+00
6.252994e+00,5.903983e+00,3,3,1.933631e+00,1.933630e+00
6.251047e+00,5.903558e+00,3,3,2.430285e+00,2.430284e+00
6.226804e+00,5.900035e+00,3,3,2.447250e+00,2.447249e+00
6.226197e+00,5.902987e+00,3,3,3.413912e+00,3.413910e+00
6.257748e+00,5.896265e+00,3,3,4.089895e+00,4.089895e+00
6.256573e+00,5.903807e+00,3,3,3.324030e+00,3.324030e+00
6.225762e+00,5.900539e+00,3,3,3.489109e+00,3.489108e+00
6.228424e+00,5.900960e+00,3,3,4.132264e+00,4.132262e+00
6.251491e+00,5.900924e+00,3,3,2.164102e+00,2.164102e+00
6.252036e+00,5.903434e+00,3,3,2.125086e+00,2.125086e+00
6.231735e+00,5.897802e+00,3,3,3.683133e+00,3.683132e+00
6.233100e+00,5.902440e+00,3,3,3.038372e+00,3.038372e+00
6.283164e+00,5.902992e+00,3,3,1.405521e+00,1.405522e+00
6.269339e+00,5.904404e+00,3,3,2.566203e+00,2.566202e+00
6.229734e+00,5.903510e+00,3,3,2.060957e+00,2.060955e+00
6.225994e+00,5.901043e+00,3,3,2.230222e+00,2.230221e+00
6.230769e+00,5.928741e+00,3,3,2.657212e+00,2.657210e+00
6.237365e+00,5.929588e+00,3,3,5.414276e+00,5.414278e+00
6.227233e+00,5.902388e+00,3,3,1.841475e+00,1.841476e+00
6.225033e+00,5.900908e+00,3,3,2.052421e+00,2.052420e+00
6.229090e+00,5.927335e+00,3,3,1.726848e+00,1.726848e+00
6.226091e+00,5.926951e+00,3,3,1.675471e+00,1.675471e+00
6.228635e+00,5.900553e+00,3,3,1.921019e+00,1.921019e+00
6.231778e+00,5.896665e+00,3,3,3.453879e+00,3.453878e+00
6.228033e+00,5.949254e+00,3,3,2.168906e+00,2.168906e+00
6.227953e+00,5.928048e+00,3,3,5.113855e+00,5.113853e+00
6.229005e+00,5.902774e+00,3,3,6.212971e+00,6.212969e+00
6.230276e+00,5.902355e+00,3,3,5.148778e+00,5.148778e+00
6.228015e+00,5.929818e+00,3,3,6.700387e+00,6.700390e+00
6.254310e+00,5.930076e+00,3,3,5.420217e+00,5.420216e+00
6.231345e+00,5.904812e+00,3,3,6.094303e+00,6.094306e+00
6.228537e+00,5.901970e+00,3,3,5.495350e+00,5.495351e+00
6.230129e+00,5.903884e+00,3,3,7.324715e+00,7.324717e+00
6.256437e+00,5.902625e+00,3,3,5.525461e+00,5.525462e+00
6.254843e+00,5.903379e+00,3,3,1.011797e+01,1.011806e+01
6.230650e+00,5.896368e+00,3,3,1.328196e+01,1.327903e+01
1.246167e+01,9.827560e+00,6,5,9.682443e+00,9.697539e+00
1.245751e+01,9.827272e+00,6,5,9.875452e+00,9.870596e+00
1.035582e+01,1.181533e+01,5,6,1.199428e+01,1.197007e+01
1.038994e+01,1.178743e+01,5,6,1.057264e+01,1.056751e+01
1.243741e+01,1.181142e+01,6,6,9.196777e+00,9.190418e+00
8.301170e+00,7.918790e+00,4,4,9.363414e+00,9.363448e+00
6.230999e+00,5.905209e+00,3,3,7.476443e+00,7.476499e+00
6.230042e+00,6.028278e+00,3,3,5.758252e+00,5.758258e+00
6.266140e+00,5.914282e+00,3,3,7.684307e+00,7.684310e+00
6.226952e+00,5.886309e+00,3,3,7.618653e+00,7.618655e+00
6.217947e+00,5.902583e+00,3,3,3.342451e+00,3.342453e+00
6.229269e+00,5.903006e+00,3,3,2.683812e+00,2.683811e+00
6.225379e+00,5.901419e+00,3,3,2.868474e+00,2.868473e+00
6.225706e+00,5.903641e+00,3,3,2.133744e+00,2.133744e+00
6.226894e+00,5.901051e+00,3,3,1.816200e+00,1.816200e+00
6.230865e+00,5.898060e+00,3,3,3.419109e+00,3.419022e+00
8.298331e+00,7.867227e+00,4,4,4.062807e+00,4.062806e+00
6.229137e+00,5.905297e+00,3,3,2.334839e+00,2.334839e+00
6.228515e+00,5.904042e+00,3,3,2.148340e+00,2.148340e+00
6.226873e+00,5.903760e+00,3,3,4.918411e+00,4.918557e+00
8.296980e+00,9.831249e+00,4,5,8.764720e+00,8.766890e+00
6.225858e+00,5.902239e+00,3,3,7.716143e+00,7.716174e+00
6.231748e+00,5.904585e+00,3,3,4.556403e+00,4.556516e+00
6.227027e+00,5.900885e+00,3,3,4.712737e+00,4.712732e+00
6.224507e+00,5.901967e+00,3,3,7.242459e+00,7.242457e+00
6.228085e+00,5.903029e+00,3,3,5.765797e+00,5.765800e+00
6.225873e+00,5.900110e+00,3,3,4.506161e+00,4.506161e+00
6.226907e+00,5.903208e+00,3,3,5.124569e+00,5.124569e+00
6.228178e+00,5.901637e+00,3,3,5.783342e+00,5.783341e+00
6.234550e+00,5.901602e+00,3,3,5.843442e+00,5.843441e+00
6.227241e+00,5.901308e+00,3,3,6.995560e+00,6.995558e+00
6.227764e+00,5.902324e+00,3,3,7.999242e+00,7.999240e+00
6.227290e+00,5.902409e+00,3,3,6.533295e+00,6.533295e+00
6.231701e+00,5.902589e+00,3,3,5.821677e+00,5.821677e+00
6.229677e+00,5.907456e+00,3,3,4.402270e+00,4.402269e+00
6.230235e+00,5.903461e+00,3,3,4.445277e+00,4.445275e+00
6.234129e+00,5.903465e+00,3,3,3.681911e+00,3.681911e+00
6.233129e+00,5.903019e+00,3,3,6.358160e+00,6.358166e+00
6.232940e+00,5.901975e+00,3,3,5.392667e+00,5.392668e+00
6.229063e+00,5.902807e+00,3,3,3.049198e+00,3.049198e+00
6.227837e+00,5.901336e+00,3,3,2.220145e+00,2.220145e+00
6.228442e+00,5.902334e+00,3,3,2.150597e+00,2.150597e+00
6.227692e+00,5.898996e+00,3,3,3.335914e+00,3.335911e+00
6.231806e+00,5.901899e+00,3,3,2.181282e+00,2.181282e+00
6.227884e+00,5.904193e+00,3,3,1.077852e+00,1.077852e+00
6.227480e+00,5.903708e+00,3,3,8.749397e-01,8.749396e-01
6.225874e+00,5.901820e+00,3,3,7.841323e-01,7.841320e-01
6.226484e+00,5.899701e+00,3,3,1.043912e+00,1.043912e+00
6.225462e+00,5.902570e+00,3,3,8.828563e-01,8.828562e-01
6.225862e+00,5.901512e+00,3,3,1.998041e+00,1.998039e+00
6.238948e+00,5.902141e+00,3,3,1.776393e+00,1.776393e+00
6.229010e+00,5.900012e+00,3,3,2.882708e+00,2.882707e+00
6.229063e+00,5.904076e+00,3,3,4.669187e+00,4.669188e+00
6.227895e+00,5.902139e+00,3,3,7.569152e+00,7.569284e+00
6.224246e+00,5.901239e+00,3,3,1.080362e+01,1.079788e+01
1.248046e+01,1.178637e+01,6,6,1.312445e+01,1.311409e+01
8.299395e+00,7.864780e+00,4,4,6.037429e+00,6.037431e+00
6.226109e+00,5.902277e+00,3,3,7.096286e+00,7.096288e+00
6.226045e+00,5.901719e+00,3,3,8.304347e+00,8.304363e+00
6.224754e+00,5.904042e+00,3,3,6.482099e+00,6.482106e+00
6.227292e+00,5.902370e+00,3,3,5.400821e+00,5.400821e+00
6.227218e+00,5.901713e+00,3,3,6.650944e+00,6.650943e+00
6.230470e+00,5.898527e+00,3,3,4.990162e+00,4.990162e+00
6.231575e+00,5.902538e+00,3,3,7.219957e+00,7.219961e+00
6.311832e+00,6.028294e+00,3,3,5.315862e+00,5.315864e+00
6.229375e+00,5.954174e+00,3,3,3.849719e+00,3.849719e+00
6.253616e+00,5.904062e+00,3,3,3.043944e+00,3.043943e+00
6.228905e+00,5.898914e+00,3,3,4.376253e+00,4.376252e+00
6.256685e+00,5.901350e+00,3,3,5.602739e+00,5.602758e+00
6.228889e+00,5.902108e+00,3,3,1.163710e+01,1.163791e+01
6.226020e+00,5.900447e+00,3,3,4.007249e+00,4.007335e+00
6.225067e+00,5.902999e+00,3,3,3.709165e+00,3.709165e+00
6.228243e+00,5.927618e+00,3,3,1.354484e+00,1.354483e+00
6.227393e+00,5.901984e+00,3,3,1.009280e+00,1.009280e+00
6.256257e+00,5.981219e+00,3,3,1.137876e+00,1.137875e+00
6.259924e+00,5.903783e+00,3,3,3.526839e+00,3.526835e+00
6.226275e+00,5.931968e+00,3,3,7.671907e+00,7.671903e+00
6.229491e+00,5.907132e+00,3,3,6.860915e+00,6.860918e+00
6.231113e+00,5.914637e+00,3,3,7.398862e+00,7.398867e+00
6.237358e+00,5.912037e+00,3,3,5.993463e+00,5.993655e+00
1.457737e+01,1.182383e+01,7,6,4.488242e+00,4.489536e+00
6.225111e+00,5.902310e+00,3,3,3.712647e+00,3.712626e+00
6.224921e+00,5.902367e+00,3,3,6.250807e+00,6.250809e+00
6.226239e+00,5.928919e+00,3,3,4.134024e+00,4.134025e+00
6.256723e+00,5.899075e+00,3,3,5.526721e+00,5.526816e+00
6.233284e+00,5.904604e+00,3,3,4.287101e+00,4.287108e+00
6.227867e+00,5.903166e+00,3,3,4.269246e+00,4.269245e+00
6.227591e+00,5.901284e+00,3,3,5.176266e+00,5.176265e+00
6.231354e+00,5.902850e+00,3,3,5.397710e+00,5.397709e+00
6.227955e+00,5.903440e+00,3,3,3.821224e+00,3.821224e+00
6.227400e+00,5.902382e+00,3,3,4.378960e+00,4.378958e+00
6.234295e+00,5.899424e+00,3,3,4.098843e+00,4.098841e+00
6.235447e+00,5.905238e+00,3,3,4.580745e+00,4.580743e+00
6.228606e+00,5.903055e+00,3,3,8.119199e+00,8.119143e+00
1.451020e+01,1.179196e+01,7,6,9.725428e+00,9.737666e+00
1.036417e+01,1.181413e+01,5,6,7.391743e+00,7.390819e+00
8.309282e+00,5.899046e+00,4,3,8.860573e+00,8.860886e+00
6.233883e+00,5.901177e+00,3,3,1.076484e+01,1.076928e+01
1.244091e+01,1.179132e+01,6,6,4.941779e+00,4.910148e+00
8.303326e+00,5.899727e+00,4,3,4.510231e+00,4.510236e+00
6.225767e+00,5.902838e+00,3,3,4.090180e+00,4.090178e+00
6.229199e+00,5.905578e+00,3,3,3.396416e+00,3.396416e+00
6.235198e+00,5.903342e+00,3,3,5.709538e+00,5.709535e+00
6.230206e+00,5.903891e+00,3,3,3.587842e+00,3.587843e+00
6.231384e+00,5.905433e+00,3,3,2.502770e+00,2.502770e+00
6.227236e+00,5.900928e+00,3,3,2.045640e+00,2.045639e+00
6.228976e+00,5.901541e+00,3,3,3.060227e+00,3.060225e+00
6.226508e+00,5.905230e+00,3,3,1.557378e+00,1.557378e+00
6.228698e+00,5.902011e+00,3,3,1.543393e+00,1.543393e+00
6.233011e+00,5.904999e+00,3,3,2.537297e+00,2.537296e+00
6.226559e+00,5.903456e+00,3,3,2.597249e+00,2.597249e+00
6.230930e+00,5.905240e+00,3,3,3.421603e+00,3.421601e+00
6.229240e+00,5.902932e+00,3,3,8.053507e+00,8.053503e+00
6.231258e+00,5.904097e+00,3,3,7.977747e+00,7.977864e+00
6.229279e+00,5.901118e+00,3,3,9.484707e+00,9.488157e+00
1.244154e+01,9.829072e+00,6,5,7.455854e+00,7.456849e+00
8.302766e+00,7.867271e+00,4,4,7.880712e+00,7.880745e+00
6.226669e+00,5.901129e+00,3,3,6.907082e+00,6.907248e+00

