4.181850e+00,3.977207e+00,2,2,0.000000e+00,0.000000e+00
6.314600e+00,5.976867e+00,3,3,3.954406e-01,3.954405e-01
6.297631e+00,5.975144e+00,3,3,2.938420e+00,2.938418e+00
6.294639e+00,5.974962e+00,3,3,1.134788e+00,1.134788e+00
6.295526e+00,5.971484e+00,3,3,5.924830e+00,5.924826e+00
6.298059e+00,5.974704e+00,3,3,1.018497e+01,1.018519e+01
6.294768e+00,7.963301e+00,3,4,8.682500e+00,8.682449e+00
6.273224e+00,5.950114e+00,3,3,1.555287e+01,1.555217e+01
1.042525e+01,1.186980e+01,5,6,1.601722e+01,1.602899e+01
8.339179e+00,1.384446e+01,4,7,1.236359e+01,1.236384e+01
1.251812e+01,7.917952e+00,6,4,1.439597e+01,1.439594e+01
8.351282e+00,7.923115e+00,4,4,1.009607e+01,1.009609e+01
6.261455e+00,5.945254e+00,3,3,1.092491e+01,1.092491e+01
6.260557e+00,5.942040e+00,3,3,1.359664e+01,1.359664e+01
6.261522e+00,5.946191e+00,3,3,1.857595e+01,1.857225e+01
1.460306e+01,1.187721e+01,7,6,1.825618e+01,1.825515e+01
1.460879e+01,7.920850e+00,7,4,1.738695e+01,1.738527e+01
6.262199e+00,5.941046e+00,3,3,1.893714e+01,1.893696e+01
8.359267e+00,5.943746e+00,4,3,1.543752e+01,1.543769e+01
6.261036e+00,5.940471e+00,3,3,1.290757e+01,1.290762e+01
6.260687e+00,5.947024e+00,3,3,9.427898e+00,9.427899e+00
6.259734e+00,5.943454e+00,3,3,1.036455e+01,1.036455e+01
6.266033e+00,5.940954e+00,3,3,8.116926e+00,8.116927e+00
6.259548e+00,5.944287e+00,3,3,7.545360e+00,7.545359e+00
6.260731e+00,5.941864e+00,3,3,7.419094e+00,7.419093e+00
6.259030e+00,5.943394e+00,3,3,6.219739e+00,6.219738e+00
6.263871e+00,5.935618e+00,3,3,5.130444e+00,5.130444e+00
6.264396e+00,5.941223e+00,3,3,5.139761e+00,5.139759e+00
6.259326e+00,5.942160e+00,3,3,4.197784e+00,4.197784e+00
6.261578e+00,5.943137e+00,3,3,7.812559e+00,7.812558e+00
6.261298e+00,5.965760e+00,3,3,3.636664e+00,3.636667e+00
6.271610e+00,5.942208e+00,3,3,3.409385e+00,3.409385e+00
6.267068e+00,5.953187e+00,3,3,4.083952e+00,4.083959e+00
6.296327e+00,5.951076e+00,3,3,2.234634e+00,2.234637e+00
6.263872e+00,5.942741e+00,3,3,2.530356e+00,2.530355e+00
6.268202e+00,5.942217e+00,3,3,1.817072e+00,1.817072e+00
6.261716e+00,5.944693e+00,3,3,2.950590e+00,2.950589e+00
6.261955e+00,5.941655e+00,3,3,3.131716e+00,3.131716e+00
6.262762e+00,5.942886e+00,3,3,4.134453e+00,4.134452e+00
6.261495e+00,5.942556e+00,3,3,6.417191e+00,6.417192e+00
8.355002e+00,5.941018e+00,4,3,9.655117e+00,9.659630e+00
1.458392e+01,1.186793e+01,7,6,6.817743e+00,6.821029e+00
8.342294e+00,7.912584e+00,4,4,4.300745e+00,4.300746e+00
6.270100e+00,5.941652e+00,3,3,5.174983e+00,5.174982e+00
6.262620e+00,5.944196e+00,3,3,6.341704e+00,6.341705e+00
6.264206e+00,5.940949e+00,3,3,7.640497e+00,7.640496e+00
6.263414e+00,5.941345e+00,3,3,6.564757e+00,6.564758e+00
6.265941e+00,5.941146e+00,3,3,8.415235e+00,8.415237e+00
6.261920e+00,5.941273e+00,3,3,5.087572e+00,5.087577e+00
6.262281e+00,5.950296e+00,3,3,7.623858e+00,7.624055e+00
6.256453e+00,5.913708e+00,3,3,7.792000e+00,7.790308e+00
1.244683e+01,1.180526e+01,6,6,7.326094e+00,7.326458e+00
1.244862e+01,1.183380e+01,6,6,1.252811e+01,1.252941e+01
8.300570e+00,7.879536e+00,4,4,9.029480e+00,9.029481e+00
6.229130e+00,5.940588e+00,3,3,1.195268e+01,1.195268e+01
6.223863e+00,5.912303e+00,3,3,1.364609e+01,1.364331e+01
8.301687e+00,7.875304e+00,4,4,8.848815e+00,8.847555e+00
6.231789e+00,5.915102e+00,3,3,7.136098e+00,7.136094e+00
6.229748e+00,5.917661e+00,3,3,6.927773e+00,6.927772e+00
6.228116e+00,5.915833e+00,3,3,6.021767e+00,6.021766e+00
6.226278e+00,5.913595e+00,3,3,6.882303e+00,6.882301e+00
6.228863e+00,5.911825e+00,3,3,7.706742e+00,7.706741e+00
6.229826e+00,5.914774e+00,3,3,7.151413e+00,7.151418e+00
6.235472e+00,5.914061e+00,3,3,7.442635e+00,7.443104e+00
1.036684e+01,9.849054e+00,5,5,7.174250e+00,7.181966e+00
6.226488e+00,5.915868e+00,3,3,5.656026e+00,5.655840e+00
6.227096e+00,5.915764e+00,3,3,2.178388e+00,2.178386e+00
6.230448e+00,5.912255e+00,3,3,2.357586e+00,2.357586e+00
6.230421e+00,5.915723e+00,3,3,3.242335e+00,3.242334e+00
6.234610e+00,5.912891e+00,3,3,2.966327e+00,2.966326e+00
6.230519e+00,5.913083e+00,3,3,2.567000e+00,2.567000e+00
6.229572e+00,5.911973e+00,3,3,5.656817e+00,5.656816e+00
6.230824e+00,5.918710e+00,3,3,9.282537e+00,9.282565e+00
6.232896e+00,5.913183e+00,3,3,6.820491e+00,6.820496e+00
6.230507e+00,5.914497e+00,3,3,4.505032e+00,4.505033e+00
6.231052e+00,5.906685e+00,3,3,4.766942e+00,4.766942e+00
6.233899e+00,5.911353e+00,3,3,3.913275e+00,3.913275e+00
6.228406e+00,5.915189e+00,3,3,4.531188e+00,4.531185e+00
6.228988e+00,5.911866e+00,3,3,5.577535e+00,5.577533e+00
6.231569e+00,5.914453e+00,3,3,3.365044e+00,3.365045e+00
6.230501e+00,5.915404e+00,3,3,6.362929e+00,6.362924e+00
6.227624e+00,5.915364e+00,3,3,3.791595e+00,3.791599e+00
6.231795e+00,5.914915e+00,3,3,3.135755e+00,3.135751e+00
6.230039e+00,5.915699e+00,3,3,3.895584e+00,3.895670e+00
6.227335e+00,5.913101e+00,3,3,2.582829e+00,2.582805e+00
6.226749e+00,5.913529e+00,3,3,1.727840e+00,1.727840e+00
6.228337e+00,5.914017e+00,3,3,6.356051e+00,6.356047e+00
6.262896e+00,5.914664e+00,3,3,1.006241e+01,1.006242e+01
8.308624e+00,5.915728e+00,4,3,1.866942e+01,1.867719e+01
1.244096e+01,1.181141e+01,6,6,2.380112e+01,2.380020e+01
1.243429e+01,1.181392e+01,6,6,1.435633e+01,1.435251e+01
8.298015e+00,1.181823e+01,4,6,8.763688e+00,8.762768e+00
8.302427e+00,7.875052e+00,4,4,5.696956e+00,5.696956e+00
6.233185e+00,5.916267e+00,3,3,4.601082e+00,4.601083e+00
6.226687e+00,5.914627e+00,3,3,6.106783e+00,6.106780e+00
6.227900e+00,5.914539e+00,3,3,6.002166e+00,6.002168e+00
6.227122e+00,5.913352e+00,3,3,5.662794e+00,5.662796e+00
8.302627e+00,5.913266e+00,4,3,9.388078e+00,9.393814e+00
1.038095e+01,1.180697e+01,5,6,4.265738e+00,4.246803e+00
8.301781e+00,5.913477e+00,4,3,3.709237e+00,3.709234e+00
6.229755e+00,5.916276e+00,3,3,2.978764e+00,2.978763e+00
6.229189e+00,5.914702e+00,3,3,3.429640e+00,3.429639e+00
6.232549e+00,5.912953e+00,3,3,3.451448e+00,3.451448e+00
6.232603e+00,5.918658e+00,3,3,2.646606e+00,2.646606e+00
6.233337e+00,5.919107e+00,3,3,1.933626e+00,1.933626e+00
6.234388e+00,5.912757e+00,3,3,2.585860e+00,2.585859e+00
6.256989e+00,5.930057e+00,3,3,3.300463e+00,3.300500e+00
6.244571e+00,5.915764e+00,3,3,5.401560e+00,5.401551e+00
6.230796e+00,5.915247e+00,3,3,5.151151e+00,5.151151e+00
6.228741e+00,5.914697e+00,3,3,3.159136e+00,3.159137e+00
6.233316e+00,5.914308e+00,3,3,3.106487e+00,3.106487e+00
6.230236e+00,5.914985e+00,3,3,3.049198e+00,3.049197e+00
6.230173e+00,5.915862e+00,3,3,3.512245e+00,3.512244e+00
6.227437e+00,5.914590e+00,3,3,2.716422e+00,2.716422e+00
6.226606e+00,5.912719e+00,3,3,2.011859e+00,2.011859e+00
6.228776e+00,5.913458e+00,3,3,2.219400e+00,2.219400e+00
6.234607e+00,5.907420e+00,3,3,1.617782e+00,1.617782e+00
6.231761e+00,5.911510e+00,3,3,2.381040e+00,2.381039e+00
6.228362e+00,5.912494e+00,3,3,2.075578e+00,2.075578e+00
6.228664e+00,5.914174e+00,3,3,3.422824e+00,3.422823e+00
6.227984e+00,5.911088e+00,3,3,1.292605e+00,1.292605e+00
6.228919e+00,5.913886e+00,3,3,1.846623e+00,1.846622e+00
6.228330e+00,5.913301e+00,3,3,1.724565e+00,1.724565e+00
6.232608e+00,5.940142e+00,3,3,2.360828e+00,2.360828e+00
6.230036e+00,5.914887e+00,3,3,2.391697e+00,2.391697e+00
6.227443e+00,5.916454e+00,3,3,1.952664e+00,1.952664e+00
6.231923e+00,5.912279e+00,3,3,2.006092e+00,2.006091e+00
6.230066e+00,5.920216e+00,3,3,2.776889e+00,2.776888e+00
6.256528e+00,5.916280e+00,3,3,1.972064e+00,1.972064e+00
6.234463e+00,5.911120e+00,3,3,2.681342e+00,2.681341e+00
6.229533e+00,5.913032e+00,3,3,1.689928e+00,1.689928e+00
6.228430e+00,5.911849e+00,3,3,1.811065e+00,1.811065e+00
6.226122e+00,5.911883e+00,3,3,1.781486e+00,1.781486e+00
6.228282e+00,5.915232e+00,3,3,1.210010e+00,1.210010e+00
6.226856e+00,5.909838e+00,3,3,2.657969e+00,2.657968e+00
6.234499e+00,5.907995e+00,3,3,1.668751e+00,1.668752e+00
6.231145e+00,5.913411e+00,3,3,2.292462e+00,2.292462e+00
6.226827e+00,5.914391e+00,3,3,2.901976e+00,2.901972e+00
6.231298e+00,5.911403e+00,3,3,1.969572e+00,1.969572e+00
6.229055e+00,5.914437e+00,3,3,3.389860e+00,3.389858e+00
6.228355e+00,5.913091e+00,3,3,3.114049e+00,3.114049e+00
6.227440e+00,5.912262e+00,3,3,3.624401e+00,3.624400e+00
6.233975e+00,5.912967e+00,3,3,4.811712e+00,4.811712e+00
6.227961e+00,5.909969e+00,3,3,2.996326e+00,2.996328e+00
6.225638e+00,5.914716e+00,3,3,4.193880e+00,4.193798e+00
8.288263e+00,7.877527e+00,4,4,1.369574e+00,1.369575e+00
6.229392e+00,5.914268e+00,3,3,2.162837e+00,2.162836e+00
6.228362e+00,5.919306e+00,3,3,1.690640e+00,1.690640e+00
6.265998e+00,5.914712e+00,3,3,1.532820e+00,1.532819e+00
6.227244e+00,5.911643e+00,3,3,1.343390e+00,1.343390e+00
6.264866e+00,5.917548e+00,3,3,1.350759e+00,1.350759e+00
6.226204e+00,5.913535e+00,3,3,3.292757e+00,3.292756e+00
6.228715e+00,5.914050e+00,3,3,1.210657e+00,1.210657e+00
6.226393e+00,5.912338e+00,3,3,1.299863e+00,1.299863e+00
6.232492e+00,5.914440e+00,3,3,1.200008e+00,1.200007e+00
6.226663e+00,5.909501e+00,3,3,9.818082e-01,9.818078e-01
6.225218e+00,5.913835e+00,3,3,9.610661e-01,9.610658e-01
6.229262e+00,5.913593e+00,3,3,2.278707e+00,2.278706e+00
6.227104e+00,5.916935e+00,3,3,1.685161e+00,1.685160e+00
6.226251e+00,5.914510e+00,3,3,1.924211e+00,1.924210e+00
6.237422e+00,5.910983e+00,3,3,2.385910e+00,2.385910e+00
6.233519e+00,5.910511e+00,3,3,5.104788e+00,5.104785e+00
6.229753e+00,5.911763e+00,3,3,1.015645e+01,1.015649e+01
6.226558e+00,5.914995e+00,3,3,1.537486e+01,1.537692e+01
1.245458e+01,1.181691e+01,6,6,1.083454e+01,1.083678e+01
1.244641e+01,9.847665e+00,6,5,7.693527e+00,7.692284e+00
1.038630e+01,5.912622e+00,5,3,6.956478e+00,6.949132e+00
8.303437e+00,5.915977e+00,4,3,6.861567e+00,6.861844e+00
6.223151e+00,5.915238e+00,3,3,8.003824e+00,8.005217e+00
8.298122e+00,7.876711e+00,4,4,4.807864e+00,4.807865e+00
6.230695e+00,5.914273e+00,3,3,6.613192e+00,6.613194e+00
6.228515e+00,5.915056e+00,3,3,4.487060e+00,4.487061e+00
6.226651e+00,5.916985e+00,3,3,4.728810e+00,4.728809e+00
6.227385e+00,5.910734e+00,3,3,3.792379e+00,3.792379e+00
6.227440e+00,5.912814e+00,3,3,4.114141e+00,4.114141e+00
6.225209e+00,5.912882e+00,3,3,3.759994e+00,3.759994e+00
6.233514e+00,5.909224e+00,3,3,4.625263e+00,4.625262e+00
6.233865e+00,5.913592e+00,3,3,3.964243e+00,3.964243e+00
6.226217e+00,5.913914e+00,3,3,4.218624e+00,4.218623e+00
6.228469e+00,5.913417e+00,3,3,4.343462e+00,4.343461e+00
6.228022e+00,5.910572e+00,3,3,3.869794e+00,3.869794e+00
6.228660e+00,5.915996e+00,3,3,3.613221e+00,3.613220e+00
6.229850e+00,5.912945e+00,3,3,5.028968e+00,5.028966e+00
6.237391e+00,5.910973e+00,3,3,3.979978e+00,3.979978e+00
6.226469e+00,5.915270e+00,3,3,4.938948e+00,4.938946e+00
6.233495e+00,5.915674e+00,3,3,4.386191e+00,4.386191e+00
6.228337e+00,5.914614e+00,3,3,4.417577e+00,4.417577e+00
6.225848e+00,5.912067e+00,3,3,6.270049e+00,6.270047e+00
6.228792e+00,5.914997e+00,3,3,4.145049e+00,4.145050e+00
6.234594e+00,5.907264e+00,3,3,3.465212e+00,3.465212e+00
6.234905e+00,5.915115e+00,3,3,3.509265e+00,3.509264e+00
6.228221e+00,5.916932e+00,3,3,4.050620e+00,4.050620e+00
6.229676e+00,5.915301e+00,3,3,3.091365e+00,3.091365e+00
6.225758e+00,5.915126e+00,3,3,3.682184e+00,3.682183e+00
6.229942e+00,5.913532e+00,3,3,2.969415e+00,2.969414e+00
6.225202e+00,5.910647e+00,3,3,4.099739e+00,4.099780e+00
8.301812e+00,7.875771e+00,4,4,3.173754e+00,3.173751e+00
6.227353e+00,5.915070e+00,3,3,3.976351e+00,3.976350e+00
6.228381e+00,5.915187e+00,3,3,5.363197e+00,5.363196e+00
6.231833e+00,5.916442e+00,3,3,4.108982e+00,4.108983e+00
6.228435e+00,5.911109e+00,3,3,1.873437e+00,1.873437e+00
6.228867e+00,5.914707e+00,3,3,2.517194e+00,2.517193e+00
6.236036e+00,5.914698e+00,3,3,2.800666e+00,2.800666e+00
6.232595e+00,5.913254e+00,3,3,2.572174e+00,2.572174e+00
6.231521e+00,5.923730e+00,3,3,5.375571e+00,5.375569e+00
6.238572e+00,5.913259e+00,3,3,4.686639e+00,4.686641e+00
6.230260e+00,5.941581e+00,3,3,3.189148e+00,3.189150e+00
6.229541e+00,5.915018e+00,3,3,7.758278e+00,7.758272e+00
6.233744e+00,5.912520e+00,3,3,9.764369e+00,9.764372e+00
6.244235e+00,5.917069e+00,3,3,1.463160e+01,1.463001e+01
1.243077e+01,1.181117e+01,6,6,1.740113e+01,1.739874e+01
1.450662e+01,1.181447e+01,7,6,1.670574e+01,1.671766e+01
1.036923e+01,9.846762e+00,5,5,1.447505e+01,1.447798e+01
8.303948e+00,7.880760e+00,4,4,1.538087e+01,1.538065e+01
1.036387e+01,9.849210e+00,5,5,1.485617e+01,1.486789e+01
8.305671e+00,7.882626e+00,4,4,1.096264e+01,1.096271e+01
6.228565e+00,5.914055e+00,3,3,7.829364e+00,7.829398e+00
6.231529e+00,5.907188e+00,3,3,6.996622e+00,6.996621e+00
6.231467e+00,5.914615e+00,3,3,7.451433e+00,7.451432e+00
6.230469e+00,5.916339e+00,3,3,5.883390e+00,5.883390e+00
6.227310e+00,5.913689e+00,3,3,4.847687e+00,4.847688e+00
6.230701e+00,5.916194e+00,3,3,3.799418e+00,3.799417e+00
6.227391e+00,5.916993e+00,3,3,2.946502e+00,2.946502e+00
6.230510e+00,5.912122e+00,3,3,1.031478e+01,1.031479e+01
8.301900e+00,7.879612e+00,4,4,4.540710e+00,4.540710e+00
6.248429e+00,5.916077e+00,3,3,5.458637e+00,5.458636e+00
6.225682e+00,5.912958e+00,3,3,7.638783e+00,7.637842e+00
8.297494e+00,7.879832e+00,4,4,5.028080e+00,5.028114e+00
6.231900e+00,5.914728e+00,3,3,2.787051e+00,2.787053e+00
6.242705e+00,5.908668e+00,3,3,4.599381e+00,4.599378e+00
6.233265e+00,5.913426e+00,3,3,3.808682e+00,3.808682e+00
6.230613e+00,5.915616e+00,3,3,3.417832e+00,3.417832e+00
6.230746e+00,5.914174e+00,3,3,3.258812e+00,3.258812e+00
6.229434e+00,5.915209e+00,3,3,3.415891e+00,3.415890e+00
6.228904e+00,5.916410e+00,3,3,2.284327e+00,2.284327e+00
6.278668e+00,5.912291e+00,3,3,1.443577e+00,1.443577e+00
6.232831e+00,5.913687e+00,3,3,1.610212e+00,1.610212e+00
6.227001e+00,5.911427e+00,3,3,3.718258e+00,3.718256e+00
6.229437e+00,5.916450e+00,3,3,7.436665e+00,7.436673e+00
6.226949e+00,5.914637e+00,3,3,1.079111e+01,1.078717e+01
1.243243e+01,9.839632e+00,6,5,8.371053e+00,8.376298e+00
1.243377e+01,1.180784e+01,6,6,7.877734e+00,7.880336e+00
1.450993e+01,7.877669e+00,7,4,6.018125e+00,6.025539e+00
8.299217e+00,7.936878e+00,4,4,3.609232e+00,3.609232e+00
6.225718e+00,5.914766e+00,3,3,4.024718e+00,4.024717e+00
6.238459e+00,5.915732e+00,3,3,3.725123e+00,3.725123e+00
6.229962e+00,5.912583e+00,3,3,2.843990e+00,2.843989e+00
6.229783e+00,5.914989e+00,3,3,3.451174e+00,3.451173e+00
6.228306e+00,5.913200e+00,3,3,2.965991e+00,2.965991e+00
6.226803e+00,5.912744e+00,3,3,3.420417e+00,3.420417e+00
6.230258e+00,5.923409e+00,3,3,6.718869e+00,6.718929e+00
6.212333e+00,7.837020e+00,3,4,8.939433e+00,8.938206e+00
1.449325e+01,7.871150e+00,7,4,5.019186e+00,5.019287e+00
6.228976e+00,5.915722e+00,3,3,3.277224e+00,3.277224e+00
6.259799e+00,5.923490e+00,3,3,2.775586e+00,2.775586e+00
6.227871e+00,5.912717e+00,3,3,2.096961e+00,2.096961e+00
6.243012e+00,5.945976e+00,3,3,9.107553e+00,9.107553e+00
6.233983e+00,5.915124e+00,3,3,1.012243e+01,1.012305e+01
1.244441e+01,1.181566e+01,6,6,1.503782e+01,1.503881e+01
1.036605e+01,1.191648e+01,5,6,1.244558e+01,1.244802e+01
1.247456e+01,1.180705e+01,6,6,1.938913e+01,1.938604e+01
1.243442e+01,1.181471e+01,6,6,2.607904e+01,2.609460e+01
1.243888e+01,1.181297e+01,6,6,2.543171e+01,2.542300e+01
1.243224e+01,1.183431e+01,6,6,2.223553e+01,2.222583e+01
1.038255e+01,1.181529e+01,5,6,1.683188e+01,1.685325e+01
8.295732e+00,7.878832e+00,4,4,1.525661e+01,1.525662e+01
6.227175e+00,5.913658e+00,3,3,1.412173e+01,1.412187e+01
6.228979e+00,5.912569e+00,3,3,1.217120e+01,1.217120e+01
6.227141e+00,5.939489e+00,3,3,1.039115e+01,1.039115e+01
6.254921e+00,5.965307e+00,3,3,8.882676e+00,8.882676e+00
6.259190e+00,5.913791e+00,3,3,8.120604e+00,8.120604e+00
6.228528e+00,5.911996e+00,3,3,7.550058e+00,7.550059e+00
6.229101e+00,5.913920e+00,3,3,5.516605e+00,5.516606e+00
6.261773e+00,5.913465e+00,3,3,5.023806e+00,5.023805e+00
6.229018e+00,5.913278e+00,3,3,4.315716e+00,4.315716e+00
6.227775e+00,5.916075e+00,3,3,5.535538e+00,5.535525e+00
8.298851e+00,7.877388e+00,4,4,3.857978e+00,3.857979e+00
6.246216e+00,5.911326e+00,3,3,5.834448e+00,5.834444e+00
6.230027e+00,5.912053e+00,3,3,9.414157e+00,9.414227e+00
8.291814e+00,7.875756e+00,4,4,5.345252e+00,5.345252e+00
6.227379e+00,5.915460e+00,3,3,8.534795e+00,8.534882e+00
6.234287e+00,5.907881e+00,3,3,9.954285e+00,9.957846e+00
1.036964e+01,7.878901e+00,5,4,8.088399e+00,8.087646e+00
1.245542e+01,5.918143e+00,6,3,7.236714e+00,7.237077e+00
8.302125e+00,5.913571e+00,4,3,5.511917e+00,5.512008e+00
6.233633e+00,5.907922e+00,3,3,6.728448e+00,6.728521e+00
6.230647e+00,5.910717e+00,3,3,4.037579e+00,4.037588e+00
6.223832e+00,5.913100e+00,3,3,7.023534e+00,7.023375e+00
8.289587e+00,1.181769e+01,4,6,7.972695e+00,7.974731e+00
6.228951e+00,7.887143e+00,3,4,9.385818e+00,9.385920e+00
6.230665e+00,5.916177e+00,3,3,1.440260e+01,1.439785e+01
1.244767e+01,7.872880e+00,6,4,1.232646e+01,1.232175e+01
8.306912e+00,5.912412e+00,4,3,6.497582e+00,6.497590e+00
6.256022e+00,5.914107e+00,3,3,6.358878e+00,6.358878e+00
6.226627e+00,5.914588e+00,3,3,6.878834e+00,6.878832e+00
6.228954e+00,5.913582e+00,3,3,5.560712e+00,5.560712e+00
6.232036e+00,5.922262e+00,3,3,6.599216e+00,6.599212e+00
6.233338e+00,5.912817e+00,3,3,6.810367e+00,6.810406e+00
6.224127e+00,5.911499e+00,3,3,7.362591e+00,7.362663e+00
1.242509e+01,1.180624e+01,6,6,5.533075e+00,5.532300e+00
1.242543e+01,1.181152e+01,6,6,4.793300e+00,4.788553e+00
1.243539e+01,1.180271e+01,6,6,5.896008e+00,5.893245e+00
8.293869e+00,1.181088e+01,4,6,6.916860e+00,6.929590e+00
1.244196e+01,7.879615e+00,6,4,4.098118e+00,4.093304e+00
6.222481e+00,5.913455e+00,3,3,2.457275e+00,2.457255e+00
6.229685e+00,5.914603e+00,3,3,2.629771e+00,2.629770e+00
6.230695e+00,5.912388e+00,3,3,2.062353e+00,2.062353e+00
6.232471e+00,5.910029e+00,3,3,3.907762e+00,3.907761e+00
6.228341e+00,5.911999e+00,3,3,1.672218e+00,1.672218e+00
6.227303e+00,5.911380e+00,3,3,2.562000e+00,2.561999e+00
6.228803e+00,5.912311e+00,3,3,8.540060e+00,8.540056e+00
6.226662e+00,5.912747e+00,3,3,9.105094e+00,9.105162e+00
6.229372e+00,5.911317e+00,3,3,8.067846e+00,8.068243e+00
6.228254e+00,5.911362e+00,3,3,7.686924e+00,7.688528e+00
6.229652e+00,5.912883e+00,3,3,5.212942e+00,5.213084e+00
6.229744e+00,5.912496e+00,3,3,5.585668e+00,5.586041e+00
6.223010e+00,5.912836e+00,3,3,8.005831e+00,8.006046e+00
8.291174e+00,7.878250e+00,4,4,3.756059e+00,3.756060e+00
6.226345e+00,5.911813e+00,3,3,2.034050e+00,2.034051e+00
6.224083e+00,5.912530e+00,3,3,1.764432e+00,1.764432e+00
6.232359e+00,5.906732e+00,3,3,1.784465e+00,1.784464e+00
6.226964e+00,5.912904e+00,3,3,2.536873e+00,2.536872e+00
6.227121e+00,5.913251e+00,3,3,3.027688e+00,3.027688e+00
6.226106e+00,5.913927e+00,3,3,5.765064e+00,5.765061e+00
6.227219e+00,5.912977e+00,3,3,4.918186e+00,4.918186e+00
6.227770e+00,5.916030e+00,3,3,4.571469e+00,4.571469e+00
6.231144e+00,5.906461e+00,3,3,5.597287e+00,5.597302e+00
6.230172e+00,5.912709e+00,3,3,1.292407e+01,1.292505e+01
8.301992e+00,7.880413e+00,4,4,6.701255e+00,6.701075e+00
6.230698e+00,5.914768e+00,3,3,8.117889e+00,8.117871e+00
6.232727e+00,5.914898e+00,3,3,5.789885e+00,5.789888e+00
6.225947e+00,5.912480e+00,3,3,6.746735e+00,6.746733e+00
6.226364e+00,5.913645e+00,3,3,5.073061e+00,5.073061e+00
6.231146e+00,5.909721e+00,3,3,4.693490e+00,4.693490e+00
6.225984e+00,5.913765e+00,3,3,4.680249e+00,4.680248e+00
6.229397e+00,5.914554e+00,3,3,7.646211e+00,7.646209e+00
6.228607e+00,5.909879e+00,3,3,6.858424e+00,6.858430e+00
6.226883e+00,5.909061e+00,3,3,6.462027e+00,6.462030e+00
6.226578e+00,5.913525e+00,3,3,5.085218e+00,5.085221e+00
6.230963e+00,5.906665e+00,3,3,3.507799e+00,3.507798e+00
6.230851e+00,5.914088e+00,3,3,2.606514e+00,2.606514e+00
6.227634e+00,5.911842e+00,3,3,7.737602e+00,7.737623e+00
6.226790e+00,5.913853e+00,3,3,4.015694e+00,4.015727e+00
6.230187e+00,5.913844e+00,3,3,2.998331e+00,2.998330e+00
6.228053e+00,5.912201e+00,3,3,2.896807e+00,2.896806e+00
6.230432e+00,5.914559e+00,3,3,1.433830e+00,1.433830e+00
6.236414e+00,5.913347e+00,3,3,1.933631e+00,1.933630e+00
6.231763e+00,5.909969e+00,3,3,2.430285e+00,2.430284e+00
6.249987e+00,5.912349e+00,3,3,2.447250e+00,2.447249e+00
6.235559e+00,5.921610e+00,3,3,3.413912e+00,3.413910e+00
6.306328e+00,5.915779e+00,3,3,4.089895e+00,4.089895e+00
6.234719e+00,5.909032e+00,3,3,3.324030e+00,3.324030e+00
6.234748e+00,5.934825e+00,3,3,3.489109e+00,3.489108e+00
6.257816e+00,5.926122e+00,3,3,4.132264e+00,4.132262e+00
6.230899e+00,5.913871e+00,3,3,2.164102e+00,2.164102e+00
6.233230e+00,5.908716e+00,3,3,2.125086e+00,2.125086e+00
6.229910e+00,5.914012e+00,3,3,3.683133e+00,3.683132e+00
6.232593e+00,5.908259e+00,3,3,3.038372e+00,3.038372e+00
6.231649e+00,5.912511e+00,3,3,1.405521e+00,1.405522e+00
6.225974e+00,5.915166e+00,3,3,2.566203e+00,2.566202e+00
6.226129e+00,5.914929e+00,3,3,2.060957e+00,2.060955e+00
6.228602e+00,5.910767e+00,3,3,2.230222e+00,2.230221e+00
6.227277e+00,5.913878e+00,3,3,2.657212e+00,2.657210e+00
6.227512e+00,5.913781e+00,3,3,5.414276e+00,5.414278e+00
6.235593e+00,5.911980e+00,3,3,1.841475e+00,1.841476e+00
6.230440e+00,5.914221e+00,3,3,2.052421e+00,2.052420e+00
6.226601e+00,5.913367e+00,3,3,1.726848e+00,1.726848e+00
6.231201e+00,5.909322e+00,3,3,1.675471e+00,1.675471e+00
6.227333e+00,5.915006e+00,3,3,1.921019e+00,1.921019e+00
6.229154e+00,5.968849e+00,3,3,3.453879e+00,3.453878e+00
6.266825e+00,5.964299e+00,3,3,2.168906e+00,2.168906e+00
6.283375e+00,5.963177e+00,3,3,5.113855e+00,5.113853e+00
6.227109e+00,5.913391e+00,3,3,6.212971e+00,6.212969e+00
6.229001e+00,5.915085e+00,3,3,5.148778e+00,5.148778e+00
6.228519e+00,5.913306e+00,3,3,6.700387e+00,6.700390e+00
6.231748e+00,5.909794e+00,3,3,5.420217e+00,5.420216e+00
6.232506e+00,5.910071e+00,3,3,6.094303e+00,6.094306e+00
6.227575e+00,5.916761e+00,3,3,5.495350e+00,5.495351e+00
6.228543e+00,5.914591e+00,3,3,7.324715e+00,7.324717e+00
6.227933e+00,5.912442e+00,3,3,5.525461e+00,5.525462e+00
6.232993e+00,5.911515e+00,3,3,1.011797e+01,1.011806e+01
6.223074e+00,5.910189e+00,3,3,1.328196e+01,1.327903e+01
1.243660e+01,9.839016e+00,6,5,9.682443e+00,9.697539e+00
1.250892e+01,9.869487e+00,6,5,9.875452e+00,9.870596e+00
1.035744e+01,1.181370e+01,5,6,1.199428e+01,1.197007e+01
1.036677e+01,1.180423e+01,5,6,1.057264e+01,1.056751e+01
1.243726e+01,1.180616e+01,6,6,9.196777e+00,9.190418e+00
8.293491e+00,7.875279e+00,4,4,9.363414e+00,9.363448e+00
6.255821e+00,5.915358e+00,3,3,7.476443e+00,7.476499e+00
6.230360e+00,5.911764e+00,3,3,5.758252e+00,5.758258e+00
6.229725e+00,5.915573e+00,3,3,7.684307e+00,7.684310e+00
6.234047e+00,5.911385e+00,3,3,7.618653e+00,7.618655e+00
6.230003e+00,5.912272e+00,3,3,3.342451e+00,3.342453e+00
6.227023e+00,5.912568e+00,3,3,2.683812e+00,2.683811e+00
6.228196e+00,5.912241e+00,3,3,2.868474e+00,2.868473e+00
6.225037e+00,5.910768e+00,3,3,2.133744e+00,2.133744e+00
6.225898e+00,5.911478e+00,3,3,1.816200e+00,1.816200e+00
6.227491e+00,5.905138e+00,3,3,3.419109e+00,3.419022e+00
8.295313e+00,7.873702e+00,4,4,4.062807e+00,4.062806e+00
6.225282e+00,5.967787e+00,3,3,2.334839e+00,2.334839e+00
6.278868e+00,5.940041e+00,3,3,2.148340e+00,2.148340e+00
6.227139e+00,5.916815e+00,3,3,4.918411e+00,4.918557e+00
8.304861e+00,9.839211e+00,4,5,8.764720e+00,8.766890e+00
6.232391e+00,5.910238e+00,3,3,7.716143e+00,7.716174e+00
6.229841e+00,5.913475e+00,3,3,4.556403e+00,4.556516e+00
6.225800e+00,5.911354e+00,3,3,4.712737e+00,4.712732e+00
6.225722e+00,5.909473e+00,3,3,7.242459e+00,7.242457e+00
6.225054e+00,5.912685e+00,3,3,5.765797e+00,5.765800e+00
6.225040e+00,5.915597e+00,3,3,4.506161e+00,4.506161e+00
6.228980e+00,5.908276e+00,3,3,5.124569e+00,5.124569e+00
6.233666e+00,5.911795e+00,3,3,5.783342e+00,5.783341e+00
6.227024e+00,5.909376e+00,3,3,5.843442e+00,5.843441e+00
6.228387e+00,5.937585e+00,3,3,6.995560e+00,6.995558e+00
6.227464e+00,5.912691e+00,3,3,7.999242e+00,7.999240e+00
6.228024e+00,5.914175e+00,3,3,6.533295e+00,6.533295e+00
6.225688e+00,5.909930e+00,3,3,5.821677e+00,5.821677e+00
6.231845e+00,5.913081e+00,3,3,4.402270e+00,4.402269e+00
6.225848e+00,5.912659e+00,3,3,4.445277e+00,4.445275e+00
6.228013e+00,5.911745e+00,3,3,3.681911e+00,3.681911e+00
6.226274e+00,5.915125e+00,3,3,6.358160e+00,6.358166e+00
6.227795e+00,5.911294e+00,3,3,5.392667e+00,5.392668e+00
6.226655e+00,5.911254e+00,3,3,3.049198e+00,3.049198e+00
6.234740e+00,5.908075e+00,3,3,2.220145e+00,2.220145e+00
6.232934e+00,5.916731e+00,3,3,2.150597e+00,2.150597e+00
6.231266e+00,5.931093e+00,3,3,3.335914e+00,3.335911e+00
6.232707e+00,5.918203e+00,3,3,2.181282e+00,2.181282e+00
6.230229e+00,5.942052e+00,3,3,1.077852e+00,1.077852e+00
6.228081e+00,5.910018e+00,3,3,8.749397e-01,8.749396e-01
6.226769e+00,5.910628e+00,3,3,7.841323e-01,7.841320e-01
6.228515e+00,5.910150e+00,3,3,1.043912e+00,1.043912e+00
6.224848e+00,5.912413e+00,3,3,8.828563e-01,8.828562e-01
6.226929e+00,5.913348e+00,3,3,1.998041e+00,1.998039e+00
6.227275e+00,5.909144e+00,3,3,1.776393e+00,1.776393e+00
6.228909e+00,5.913677e+00,3,3,2.882708e+00,2.882707e+00
6.232802e+00,5.913862e+00,3,3,4.669187e+00,4.669188e+00
6.233044e+00,5.907706e+00,3,3,7.569152e+00,7.569284e+00
6.227621e+00,5.910187e+00,3,3,1.080362e+01,1.079788e+01
1.243248e+01,1.181133e+01,6,6,1.312445e+01,1.311409e+01
8.295644e+00,7.876871e+00,4,4,6.037429e+00,6.037431e+00
6.224068e+00,5.911211e+00,3,3,7.096286e+00,7.096288e+00
6.225763e+00,5.914744e+00,3,3,8.304347e+00,8.304363e+00
6.235231e+00,5.914280e+00,3,3,6.482099e+00,6.482106e+00
6.227998e+00,5.911460e+00,3,3,5.400821e+00,5.400821e+00
6.228192e+00,5.909621e+00,3,3,6.650944e+00,6.650943e+00
6.228511e+00,5.911623e+00,3,3,4.990162e+00,4.990162e+00
6.228577e+00,5.913362e+00,3,3,7.219957e+00,7.219961e+00
6.229342e+00,5.913606e+00,3,3,5.315862e+00,5.315864e+00
6.246712e+00,5.906354e+00,3,3,3.849719e+00,3.849719e+00
6.232710e+00,5.913118e+00,3,3,3.043944e+00,3.043943e+00
6.225491e+00,5.910416e+00,3,3,4.376253e+00,4.376252e+00
6.226423e+00,5.911174e+00,3,3,5.602739e+00,5.602758e+00
6.228255e+00,5.911700e+00,3,3,1.163710e+01,1.163791e+01
6.224668e+00,5.914269e+00,3,3,4.007249e+00,4.007335e+00
6.225681e+00,5.913663e+00,3,3,3.709165e+00,3.709165e+00
6.229266e+00,5.913188e+00,3,3,1.354484e+00,1.354483e+00
6.227344e+00,5.912418e+00,3,3,1.009280e+00,1.009280e+00
6.223528e+00,5.910432e+00,3,3,1.137876e+00,1.137875e+00
6.228203e+00,5.921024e+00,3,3,3.526839e+00,3.526835e+00
6.228146e+00,5.910733e+00,3,3,7.671907e+00,7.671903e+00
6.226754e+00,5.915119e+00,3,3,6.860915e+00,6.860918e+00
6.232746e+00,5.910353e+00,3,3,7.398862e+00,7.398867e+00
6.228107e+00,5.914396e+00,3,3,5.993463e+00,5.993655e+00
1.452394e+01,1.181648e+01,7,6,4.488242e+00,4.489536e+00
6.221246e+00,5.911627e+00,3,3,3.712647e+00,3.712626e+00
6.227219e+00,5.917486e+00,3,3,6.250807e+00,6.250809e+00
6.227865e+00,5.904273e+00,3,3,4.134024e+00,4.134025e+00
6.230897e+00,5.910174e+00,3,3,5.526721e+00,5.526816e+00
6.224449e+00,5.910999e+00,3,3,4.287101e+00,4.287108e+00
6.226168e+00,5.911247e+00,3,3,4.269246e+00,4.269245e+00
6.224999e+00,5.909835e+00,3,3,5.176266e+00,5.176265e+00
6.227811e+00,5.911577e+00,3,3,5.397710e+00,5.397709e+00
6.226753e+00,5.916164e+00,3,3,3.821224e+00,3.821224e+00
6.231043e+00,5.908335e+00,3,3,4.378960e+00,4.378958e+00
6.232099e+00,5.911724e+00,3,3,4.098843e+00,4.098841e+00
6.226288e+00,5.911103e+00,3,3,4.580745e+00,4.580743e+00
6.226720e+00,5.911769e+00,3,3,8.119199e+00,8.119143e+00
1.450249e+01,1.181527e+01,7,6,9.725428e+00,9.737666e+00
1.036795e+01,1.180990e+01,5,6,7.391743e+00,7.390819e+00
8.309113e+00,5.912447e+00,4,3,8.860573e+00,8.860886e+00
6.227988e+00,5.913318e+00,3,3,1.076484e+01,1.076928e+01
1.248493e+01,1.181686e+01,6,6,4.941779e+00,4.910148e+00
8.303934e+00,5.911063e+00,4,3,4.510231e+00,4.510236e+00
6.232773e+00,5.916012e+00,3,3,4.090180e+00,4.090178e+00
6.230484e+00,5.972679e+00,3,3,3.396416e+00,3.396416e+00
6.253757e+00,5.968523e+00,3,3,5.709538e+00,5.709535e+00
6.255852e+00,5.912893e+00,3,3,3.587842e+00,3.587843e+00
6.253604e+00,5.911409e+00,3,3,2.502770e+00,2.502770e+00
6.230817e+00,5.906232e+00,3,3,2.045640e+00,2.045639e+00
6.227133e+00,5.913664e+00,3,3,3.060227e+00,3.060225e+00
6.257195e+00,5.913738e+00,3,3,1.557378e+00,1.557378e+00
6.252151e+00,5.913837e+00,3,3,1.543393e+00,1.543393e+00
6.228466e+00,5.915116e+00,3,3,2.537297e+00,2.537296e+00
6.226930e+00,5.913898e+00,3,3,2.597249e+00,2.597249e+00
6.234643e+00,5.909308e+00,3,3,3.421603e+00,3.421601e+00
6.259765e+00,5.916069e+00,3,3,8.053507e+00,8.053503e+00
6.252715e+00,5.912577e+00,3,3,7.977747e+00,7.977864e+00
6.273342e+00,5.940289e+00,3,3,9.484707e+00,9.488157e+00
1.248939e+01,9.864533e+00,6,5,7.455854e+00,7.456849e+00
8.307162e+00,7.895193e+00,4,4,7.880712e+00,7.880745e+00
6.227271e+00,5.910890e+00,3,3,6.907082e+00,6.907248e+00

