3.074240e-01,2.686520e-01,2,2,0.000000e+00,0.000000e+00
4.258280e-01,3.841780e-01,3,3,7.299426e-02,7.299425e-02
4.245480e-01,3.832150e-01,3,3,1.202878e-01,1.202878e-01
4.222660e-01,3.835120e-01,3,3,2.752775e-01,2.752774e-01
4.171260e-01,3.886680e-01,3,3,2.416191e-01,2.416190e-01
4.172510e-01,3.884890e-01,3,3,1.053510e+00,1.053510e+00
4.175740e-01,3.832480e-01,3,3,1.486309e+00,1.486309e+00
4.433150e-01,3.836080e-01,3,3,1.984450e+00,1.984450e+00
4.235930e-01,3.833020e-01,3,3,9.697205e-01,9.697207e-01
4.179300e-01,3.995440e-01,3,3,8.785314e-01,8.785313e-01
4.178260e-01,3.886410e-01,3,3,7.547275e-01,7.547274e-01
4.174180e-01,3.829140e-01,3,3,8.541110e-01,8.541109e-01
4.231540e-01,3.825990e-01,3,3,1.335767e+00,1.335767e+00
4.239790e-01,3.831940e-01,3,3,1.788927e+00,1.788927e+00
4.179540e-01,3.942080e-01,3,3,1.659453e+00,1.659453e+00
4.174160e-01,3.894080e-01,3,3,2.269479e+00,2.269479e+00
4.175180e-01,3.826810e-01,3,3,1.847245e+00,1.847245e+00
4.230500e-01,3.828070e-01,3,3,1.628586e+00,1.628586e+00
4.227030e-01,3.836170e-01,3,3,1.634209e+00,1.634209e+00
4.216550e-01,3.833580e-01,3,3,1.456978e+00,1.456978e+00
4.176910e-01,3.893580e-01,3,3,1.447082e+00,1.447082e+00
4.176740e-01,3.919670e-01,3,3,1.253252e+00,1.253252e+00
4.184990e-01,3.825270e-01,3,3,1.235691e+00,1.235691e+00
4.243960e-01,3.824890e-01,3,3,1.092519e+00,1.092519e+00
4.238030e-01,3.828870e-01,3,3,1.047691e+00,1.047690e+00
4.176380e-01,3.884800e-01,3,3,9.984293e-01,9.984293e-01
4.176160e-01,3.883960e-01,3,3,8.813839e-01,8.813838e-01
4.175920e-01,3.827960e-01,3,3,6.596989e-01,6.596990e-01
4.230670e-01,3.829450e-01,3,3,2.911126e-01,2.911125e-01
4.230250e-01,3.832650e-01,3,3,2.312074e-01,2.312074e-01
4.170920e-01,3.884880e-01,3,3,4.522935e-01,4.522933e-01
4.176520e-01,3.879050e-01,3,3,5.682805e-01,5.682804e-01
4.176610e-01,3.827530e-01,3,3,5.170765e-01,5.170765e-01
4.227650e-01,3.829940e-01,3,3,7.868971e-01,7.868968e-01
4.227450e-01,3.821820e-01,3,3,6.515139e-01,6.515140e-01
4.169010e-01,3.881580e-01,3,3,4.968741e-01,4.968741e-01
4.169030e-01,3.885110e-01,3,3,3.894190e-01,3.894189e-01
4.177350e-01,3.822650e-01,3,3,3.105377e-01,3.105377e-01
4.229020e-01,3.829060e-01,3,3,7.322858e-01,7.322856e-01
4.232600e-01,3.830070e-01,3,3,8.038421e-01,8.038420e-01
4.177140e-01,3.835870e-01,3,3,1.837617e+00,1.837617e+00
4.176390e-01,3.883000e-01,3,3,2.481515e+00,2.481514e+00
4.177020e-01,3.913470e-01,3,3,1.605391e+00,1.605392e+00
4.175010e-01,3.825920e-01,3,3,2.450231e+00,2.450231e+00
4.229690e-01,3.827880e-01,3,3,1.992187e+00,1.992187e+00
4.235000e-01,3.835950e-01,3,3,1.623003e+00,1.623003e+00
4.169010e-01,3.895060e-01,3,3,1.524520e+00,1.524520e+00
4.170650e-01,3.889310e-01,3,3,1.331048e+00,1.331048e+00
4.178800e-01,3.830330e-01,3,3,1.102548e+00,1.102548e+00
4.228860e-01,3.829040e-01,3,3,7.144915e-01,7.144914e-01
4.226600e-01,3.831910e-01,3,3,6.042136e-01,6.042135e-01
4.170700e-01,3.881770e-01,3,3,1.020205e+00,1.020205e+00
4.176670e-01,3.882080e-01,3,3,7.986932e-01,7.986932e-01
4.177840e-01,3.824860e-01,3,3,6.929104e-01,6.929104e-01
4.233310e-01,3.830290e-01,3,3,9.035105e-01,9.035103e-01
4.228460e-01,3.830120e-01,3,3,1.181459e+00,1.181459e+00
4.170140e-01,3.885670e-01,3,3,6.836576e-01,6.836578e-01
4.177780e-01,3.893030e-01,3,3,9.577094e-01,9.577092e-01
4.181530e-01,3.825220e-01,3,3,1.277777e+00,1.277777e+00
4.228760e-01,3.825160e-01,3,3,1.837678e+00,1.837678e+00
4.337340e-01,3.836850e-01,3,3,8.481043e-01,8.481042e-01
4.241560e-01,3.837510e-01,3,3,1.684327e+00,1.684327e+00
4.177380e-01,3.877130e-01,3,3,3.141579e+00,3.141579e+00
4.180320e-01,3.872050e-01,3,3,1.790339e+00,1.790339e+00
4.175540e-01,3.827490e-01,3,3,2.498342e+00,2.498342e+00
4.225100e-01,3.830490e-01,3,3,1.020062e+00,1.020062e+00
4.227910e-01,3.825140e-01,3,3,1.180046e+00,1.180046e+00
4.171050e-01,3.879420e-01,3,3,1.006402e+00,1.006402e+00
4.175780e-01,3.881010e-01,3,3,7.356383e-01,7.356383e-01
4.180270e-01,3.821730e-01,3,3,6.450082e-01,6.450081e-01
4.235440e-01,3.827670e-01,3,3,9.097486e-01,9.097486e-01
4.227500e-01,3.829130e-01,3,3,9.229146e-01,9.229145e-01
4.173140e-01,3.885470e-01,3,3,9.367865e-01,9.367864e-01
4.176230e-01,3.879940e-01,3,3,1.068926e+00,1.068926e+00
4.169630e-01,3.827850e-01,3,3,1.511633e+00,1.511633e+00
4.223680e-01,3.829460e-01,3,3,2.005888e+00,2.005888e+00
4.227300e-01,3.831050e-01,3,3,1.305145e+00,1.305146e+00
4.173920e-01,3.876940e-01,3,3,1.324114e+00,1.324114e+00
4.171500e-01,3.875960e-01,3,3,9.914513e-01,9.914514e-01
4.170830e-01,3.823120e-01,3,3,4.349969e-01,4.349970e-01
4.230290e-01,3.832780e-01,3,3,1.079526e+00,1.079525e+00
4.231630e-01,3.828490e-01,3,3,8.278181e-01,8.278181e-01
4.167810e-01,3.884420e-01,3,3,7.467932e-01,7.467932e-01
4.174340e-01,3.881060e-01,3,3,7.573777e-01,7.573776e-01
4.174520e-01,3.823680e-01,3,3,1.012894e+00,1.012894e+00
4.178530e-01,3.830040e-01,3,3,1.883313e+00,1.883313e+00
4.227320e-01,3.829560e-01,3,3,2.893167e+00,2.893167e+00
4.227360e-01,3.830660e-01,3,3,4.331211e+00,4.331210e+00
4.173110e-01,3.880290e-01,3,3,3.607361e+00,3.607361e+00
4.172880e-01,3.881680e-01,3,3,2.604963e+00,2.604964e+00
4.180660e-01,3.824090e-01,3,3,2.040654e+00,2.040654e+00
4.232900e-01,3.830820e-01,3,3,1.488948e+00,1.488948e+00
4.230930e-01,3.830380e-01,3,3,2.133143e+00,2.133143e+00
4.174540e-01,3.877290e-01,3,3,1.666219e+00,1.666219e+00
4.165260e-01,3.881910e-01,3,3,2.188657e+00,2.188657e+00
4.171590e-01,3.831330e-01,3,3,2.422833e+00,2.422834e+00
4.249300e-01,3.829380e-01,3,3,1.129857e+00,1.129857e+00
4.230210e-01,3.832860e-01,3,3,1.041197e+00,1.041197e+00
4.176730e-01,3.889580e-01,3,3,1.462422e+00,1.462421e+00
4.180770e-01,3.881590e-01,3,3,1.561060e+00,1.561060e+00
4.175480e-01,3.829090e-01,3,3,1.210702e+00,1.210702e+00
4.219520e-01,3.829910e-01,3,3,1.323178e+00,1.323178e+00
4.228250e-01,3.825910e-01,3,3,7.812620e-01,7.812619e-01
4.171710e-01,3.881830e-01,3,3,7.454100e-01,7.454099e-01
4.176030e-01,3.945270e-01,3,3,6.351316e-01,6.351316e-01
4.179840e-01,3.826330e-01,3,3,6.281938e-01,6.281937e-01
4.230810e-01,3.830300e-01,3,3,8.975784e-01,8.975782e-01
4.230070e-01,3.830430e-01,3,3,9.912051e-01,9.912051e-01
4.218160e-01,3.828430e-01,3,3,6.697291e-01,6.697292e-01
4.174040e-01,3.885970e-01,3,3,6.732946e-01,6.732945e-01
4.174760e-01,3.870820e-01,3,3,6.307868e-01,6.307868e-01
4.174200e-01,3.824260e-01,3,3,4.562135e-01,4.562135e-01
4.226080e-01,3.829120e-01,3,3,3.680576e-01,3.680576e-01
4.228000e-01,3.826720e-01,3,3,5.854030e-01,5.854028e-01
4.175250e-01,3.882110e-01,3,3,3.295080e-01,3.295080e-01
4.176390e-01,3.879720e-01,3,3,3.528360e-01,3.528360e-01
4.171030e-01,3.822680e-01,3,3,8.081614e-01,8.081611e-01
4.219120e-01,3.829820e-01,3,3,5.797070e-01,5.797070e-01
4.225070e-01,3.824790e-01,3,3,1.679548e+00,1.679548e+00
4.170810e-01,3.877780e-01,3,3,1.184049e+00,1.184049e+00
4.174270e-01,3.878910e-01,3,3,1.221860e+00,1.221860e+00
4.174500e-01,3.821010e-01,3,3,1.594107e+00,1.594107e+00
4.328850e-01,3.834450e-01,3,3,1.490865e+00,1.490865e+00
4.245200e-01,3.829330e-01,3,3,1.655636e+00,1.655636e+00
4.176310e-01,3.884890e-01,3,3,2.813744e+00,2.813744e+00
4.174720e-01,3.892260e-01,3,3,1.918059e+00,1.918060e+00
4.176850e-01,3.825090e-01,3,3,1.479688e+00,1.479688e+00
4.220440e-01,3.830760e-01,3,3,1.281167e+00,1.281167e+00
4.226450e-01,3.823870e-01,3,3,7.374815e-01,7.374812e-01
4.230740e-01,3.827840e-01,3,3,8.410949e-01,8.410947e-01
4.176720e-01,3.881720e-01,3,3,5.335648e-01,5.335648e-01
4.171790e-01,3.873110e-01,3,3,6.434313e-01,6.434312e-01
4.169570e-01,3.820610e-01,3,3,3.223489e-01,3.223488e-01
4.229570e-01,3.824150e-01,3,3,2.693104e-01,2.693104e-01
4.221320e-01,3.821990e-01,3,3,3.005639e-01,3.005638e-01
4.166370e-01,3.878310e-01,3,3,6.012672e-01,6.012669e-01
4.168940e-01,3.879510e-01,3,3,6.380639e-01,6.380638e-01
4.174310e-01,3.820990e-01,3,3,5.389642e-01,5.389642e-01
4.231420e-01,3.830900e-01,3,3,5.923912e-01,5.923911e-01
4.226430e-01,3.825690e-01,3,3,5.107945e-01,5.107944e-01
4.171170e-01,3.878330e-01,3,3,8.983728e-01,8.983725e-01
4.171140e-01,3.873950e-01,3,3,1.446679e+00,1.446679e+00
4.177170e-01,3.825210e-01,3,3,1.665911e+00,1.665912e+00
4.226640e-01,3.820770e-01,3,3,1.321370e+00,1.321370e+00
4.222650e-01,3.828510e-01,3,3,1.160036e+00,1.160036e+00
4.178250e-01,3.881460e-01,3,3,1.085934e+00,1.085934e+00
4.173140e-01,3.881750e-01,3,3,8.158447e-01,8.158451e-01
4.177290e-01,3.823300e-01,3,3,5.973871e-01,5.973868e-01
4.225480e-01,3.822980e-01,3,3,8.683790e-01,8.683786e-01
4.228820e-01,3.830810e-01,3,3,1.224913e+00,1.224913e+00
4.220140e-01,3.826710e-01,3,3,7.685683e-01,7.685683e-01
4.174880e-01,3.874750e-01,3,3,7.563769e-01,7.563768e-01
4.173320e-01,3.873620e-01,3,3,7.099581e-01,7.099580e-01
4.175230e-01,3.824280e-01,3,3,6.809937e-01,6.809936e-01
4.231120e-01,3.827300e-01,3,3,5.510334e-01,5.510333e-01
4.225170e-01,3.827950e-01,3,3,6.010016e-01,6.010014e-01
4.171170e-01,3.878470e-01,3,3,9.725007e-01,9.725003e-01
4.177950e-01,3.880080e-01,3,3,9.366869e-01,9.366869e-01
4.169040e-01,3.826890e-01,3,3,1.015780e+00,1.015780e+00
4.226390e-01,3.832550e-01,3,3,1.234662e+00,1.234662e+00
4.232560e-01,3.833420e-01,3,3,5.605936e-01,5.605936e-01
4.172560e-01,3.882200e-01,3,3,4.174208e-01,4.174207e-01
4.171750e-01,3.874530e-01,3,3,4.762187e-01,4.762186e-01
4.180270e-01,3.824890e-01,3,3,1.865198e-01,1.865197e-01
4.229410e-01,3.823590e-01,3,3,1.920409e-01,1.920408e-01
4.227760e-01,3.822350e-01,3,3,3.305189e-01,3.305188e-01
4.174200e-01,3.877160e-01,3,3,2.912341e-01,2.912341e-01
4.172210e-01,3.879180e-01,3,3,8.482769e-01,8.482766e-01
4.172130e-01,3.826240e-01,3,3,6.665035e-01,6.665033e-01
4.229360e-01,3.827980e-01,3,3,4.916388e-01,4.916388e-01
4.223300e-01,3.826300e-01,3,3,4.448167e-01,4.448166e-01
4.173580e-01,3.878140e-01,3,3,4.528620e-01,4.528619e-01
4.174820e-01,3.882500e-01,3,3,4.545842e-01,4.545841e-01
4.170180e-01,3.821520e-01,3,3,3.105070e-01,3.105070e-01
4.226950e-01,3.821270e-01,3,3,3.274085e-01,3.274084e-01
4.225170e-01,3.822340e-01,3,3,2.924056e-01,2.924056e-01
4.222520e-01,3.828410e-01,3,3,2.517611e-01,2.517611e-01
4.178470e-01,3.883860e-01,3,3,6.211287e-01,6.211284e-01
4.174830e-01,3.876950e-01,3,3,4.351212e-01,4.351211e-01
4.176410e-01,3.826740e-01,3,3,6.480730e-01,6.480729e-01
4.233990e-01,3.827110e-01,3,3,1.035904e+00,1.035904e+00
4.229920e-01,3.829430e-01,3,3,8.709634e-01,8.709633e-01
4.171470e-01,3.874280e-01,3,3,9.737405e-01,9.737403e-01
4.171980e-01,3.876450e-01,3,3,7.453204e-01,7.453204e-01
4.277140e-01,3.832700e-01,3,3,7.013960e-01,7.013960e-01
4.238020e-01,3.824840e-01,3,3,7.998239e-01,7.998237e-01
4.224830e-01,3.825930e-01,3,3,1.609745e+00,1.609744e+00
4.167970e-01,3.882010e-01,3,3,2.125077e+00,2.125076e+00
4.174600e-01,3.880590e-01,3,3,1.900785e+00,1.900785e+00
4.178330e-01,3.825280e-01,3,3,1.576720e+00,1.576720e+00
4.225290e-01,3.828370e-01,3,3,1.430840e+00,1.430840e+00
4.228410e-01,3.828930e-01,3,3,1.045641e+00,1.045641e+00
4.180660e-01,3.880500e-01,3,3,1.047994e+00,1.047994e+00
4.175840e-01,3.881330e-01,3,3,1.046304e+00,1.046305e+00
4.181230e-01,3.818270e-01,3,3,8.081162e-01,8.081162e-01
4.219970e-01,3.830850e-01,3,3,7.322280e-01,7.322279e-01
4.223240e-01,3.828840e-01,3,3,1.369697e+00,1.369697e+00
4.225090e-01,3.830450e-01,3,3,2.682522e+00,2.682522e+00
4.167880e-01,3.873790e-01,3,3,2.762366e+00,2.762375e+00
4.173940e-01,3.876250e-01,3,3,2.811566e+00,2.811566e+00
4.175260e-01,3.825140e-01,3,3,3.292974e+00,3.292973e+00
4.225590e-01,3.821280e-01,3,3,4.677498e+00,4.677497e+00
4.226690e-01,3.824570e-01,3,3,3.084750e+00,3.084750e+00
4.174780e-01,3.877140e-01,3,3,3.772827e+00,3.772827e+00
4.175900e-01,3.884390e-01,3,3,2.976594e+00,2.976594e+00
4.177450e-01,3.832000e-01,3,3,2.830556e+00,2.830556e+00
4.219980e-01,3.832050e-01,3,3,2.049864e+00,2.049864e+00
4.220960e-01,3.826700e-01,3,3,2.575688e+00,2.575688e+00
4.169860e-01,3.880590e-01,3,3,1.851266e+00,1.851266e+00
4.169600e-01,3.882820e-01,3,3,2.384727e+00,2.384727e+00
4.182280e-01,3.823020e-01,3,3,8.229260e-01,8.229264e-01
4.227190e-01,3.827090e-01,3,3,8.089212e-01,8.089210e-01
4.228890e-01,3.825700e-01,3,3,1.269859e+00,1.269858e+00
4.175650e-01,3.875300e-01,3,3,8.596930e-01,8.596930e-01
4.175770e-01,3.878880e-01,3,3,1.451383e+00,1.451382e+00
4.176880e-01,3.830690e-01,3,3,1.317253e+00,1.317253e+00
4.226900e-01,3.828940e-01,3,3,2.435876e+00,2.435875e+00
4.235390e-01,3.829950e-01,3,3,1.188777e+00,1.188777e+00
4.218260e-01,3.833490e-01,3,3,9.803944e-01,9.803943e-01
4.174800e-01,3.877010e-01,3,3,8.159143e-01,8.159142e-01
4.179590e-01,3.879140e-01,3,3,8.274884e-01,8.274884e-01
4.169520e-01,3.830900e-01,3,3,9.257435e-01,9.257434e-01
4.244410e-01,3.824210e-01,3,3,1.441314e+00,1.441314e+00
4.227700e-01,3.829920e-01,3,3,7.046571e-01,7.046573e-01
4.177630e-01,3.883820e-01,3,3,4.818445e-01,4.818445e-01
4.183540e-01,3.880010e-01,3,3,5.910038e-01,5.910036e-01
4.177790e-01,3.822100e-01,3,3,6.100773e-01,6.100772e-01
4.226180e-01,3.827190e-01,3,3,4.665784e-01,4.665784e-01
4.218150e-01,3.825860e-01,3,3,7.024095e-01,7.024092e-01
4.168280e-01,3.875740e-01,3,3,9.736101e-01,9.736098e-01
4.175610e-01,3.874740e-01,3,3,1.412109e+00,1.412108e+00
4.171240e-01,3.822710e-01,3,3,2.936460e+00,2.936459e+00
4.219750e-01,3.827040e-01,3,3,3.792861e+00,3.792861e+00
4.223090e-01,3.823180e-01,3,3,2.642161e+00,2.642161e+00
4.173450e-01,3.879820e-01,3,3,3.223706e+00,3.223706e+00
4.168740e-01,3.880940e-01,3,3,2.391579e+00,2.391579e+00
4.170170e-01,3.826190e-01,3,3,1.936375e+00,1.936375e+00
4.218900e-01,3.824790e-01,3,3,2.205286e+00,2.205286e+00
4.229340e-01,3.824420e-01,3,3,1.320858e+00,1.320858e+00
4.179330e-01,3.876310e-01,3,3,8.408198e-01,8.408194e-01
4.176400e-01,3.886750e-01,3,3,6.712734e-01,6.712734e-01
4.175480e-01,3.825190e-01,3,3,7.014755e-01,7.014754e-01
4.224130e-01,3.828170e-01,3,3,7.419146e-01,7.419145e-01
4.222730e-01,3.823470e-01,3,3,1.165932e+00,1.165932e+00
4.218670e-01,3.829230e-01,3,3,4.149588e-01,4.149589e-01
4.168310e-01,3.878630e-01,3,3,1.493786e+00,1.493785e+00
4.274930e-01,3.893900e-01,3,3,3.011956e+00,3.011954e+00
4.184990e-01,3.823250e-01,3,3,1.855048e+00,1.855049e+00
4.226790e-01,3.824410e-01,3,3,1.348674e+00,1.348674e+00
4.230580e-01,3.829200e-01,3,3,1.111577e+00,1.111577e+00
4.176340e-01,3.888520e-01,3,3,9.684545e-01,9.684545e-01
4.176090e-01,3.885470e-01,3,3,9.115081e-01,9.115081e-01
4.174940e-01,3.830010e-01,3,3,1.481985e+00,1.481984e+00
4.220240e-01,3.825100e-01,3,3,1.190557e+00,1.190557e+00
4.238790e-01,3.827480e-01,3,3,8.585369e-01,8.585370e-01
4.170330e-01,3.883320e-01,3,3,9.729904e-01,9.729903e-01
4.171390e-01,3.874230e-01,3,3,1.616507e+00,1.616506e+00
4.169830e-01,3.824330e-01,3,3,2.519706e+00,2.519705e+00
4.222380e-01,3.826490e-01,3,3,4.356772e+00,4.356771e+00
4.231190e-01,3.827460e-01,3,3,5.262371e+00,5.262370e+00
4.170330e-01,3.875310e-01,3,3,4.809030e+00,4.809030e+00
4.173700e-01,3.881570e-01,3,3,5.028560e+00,5.028560e+00
4.174380e-01,3.821670e-01,3,3,4.296137e+00,4.296137e+00
4.223460e-01,3.826030e-01,3,3,4.467172e+00,4.467172e+00
4.232630e-01,3.827630e-01,3,3,4.403869e+00,4.403869e+00
4.224270e-01,3.831820e-01,3,3,3.773923e+00,3.773922e+00
4.174170e-01,3.888390e-01,3,3,3.321917e+00,3.321917e+00
4.175560e-01,3.875980e-01,3,3,2.557784e+00,2.557784e+00
4.173510e-01,3.825510e-01,3,3,2.472227e+00,2.472227e+00
4.220610e-01,3.825100e-01,3,3,2.617061e+00,2.617061e+00
4.228230e-01,3.825700e-01,3,3,3.367619e+00,3.367623e+00
4.177950e-01,3.882550e-01,3,3,5.686536e+00,5.686821e+00
8.367050e-01,7.621200e-01,6,6,5.914706e+00,5.913630e+00
8.389780e-01,5.152350e-01,6,4,6.356600e+00,6.355860e+00
4.180400e-01,3.880770e-01,3,3,5.475181e+00,5.475174e+00
4.178600e-01,3.824640e-01,3,3,5.457677e+00,5.457681e+00
4.235660e-01,3.826040e-01,3,3,6.424481e+00,6.424481e+00
4.228500e-01,3.823350e-01,3,3,5.985187e+00,5.985187e+00
4.173070e-01,3.875310e-01,3,3,5.110530e+00,5.110530e+00
4.170380e-01,3.877990e-01,3,3,4.374727e+00,4.374726e+00
4.174330e-01,3.827330e-01,3,3,3.708827e+00,3.708826e+00
4.224230e-01,3.827670e-01,3,3,3.209941e+00,3.209940e+00
4.228300e-01,3.829830e-01,3,3,3.010906e+00,3.010905e+00
4.175410e-01,3.880330e-01,3,3,3.305011e+00,3.305012e+00
4.171790e-01,3.881560e-01,3,3,1.931730e+00,1.931730e+00
4.175800e-01,3.825560e-01,3,3,1.772410e+00,1.772410e+00
4.218720e-01,3.829670e-01,3,3,2.000840e+00,2.000840e+00
4.223260e-01,3.826280e-01,3,3,1.475190e+00,1.475190e+00
4.173750e-01,3.886820e-01,3,3,1.264200e+00,1.264200e+00
4.183240e-01,3.881570e-01,3,3,1.061034e+00,1.061034e+00
4.172380e-01,3.821910e-01,3,3,7.293786e-01,7.293787e-01
4.224480e-01,3.823970e-01,3,3,4.083885e-01,4.083883e-01
4.225520e-01,3.823320e-01,3,3,3.376104e-01,3.376103e-01
4.219240e-01,3.834480e-01,3,3,4.264529e-01,4.264528e-01
4.176020e-01,3.881380e-01,3,3,4.787154e-01,4.787153e-01
4.171700e-01,3.878270e-01,3,3,3.924166e-01,3.924165e-01
4.179150e-01,3.823070e-01,3,3,3.408020e-01,3.408019e-01
4.223030e-01,3.820770e-01,3,3,9.408226e-01,9.408223e-01
4.231390e-01,3.830180e-01,3,3,1.982785e+00,1.982784e+00
4.175940e-01,3.882490e-01,3,3,2.602620e+00,2.602619e+00
4.180030e-01,3.882490e-01,3,3,2.231798e+00,2.231798e+00
4.175590e-01,3.823080e-01,3,3,2.355797e+00,2.355797e+00
4.227320e-01,3.829290e-01,3,3,2.352799e+00,2.352799e+00
4.227280e-01,3.826350e-01,3,3,2.149651e+00,2.149651e+00
4.174860e-01,3.872070e-01,3,3,1.701742e+00,1.701741e+00
4.174840e-01,3.877880e-01,3,3,1.758415e+00,1.758415e+00
4.279070e-01,3.832260e-01,3,3,3.190626e+00,3.190626e+00
4.234950e-01,3.826460e-01,3,3,4.228989e+00,4.228989e+00
4.213570e-01,3.828530e-01,3,3,5.091355e+00,5.091355e+00
4.172350e-01,3.883600e-01,3,3,4.301125e+00,4.301126e+00
4.172840e-01,3.876950e-01,3,3,3.361438e+00,3.361439e+00
4.176240e-01,3.821810e-01,3,3,2.513077e+00,2.513077e+00
4.224960e-01,3.825980e-01,3,3,2.007333e+00,2.007333e+00
4.230400e-01,3.827850e-01,3,3,2.423558e+00,2.423557e+00
4.216220e-01,3.834910e-01,3,3,2.462090e+00,2.462090e+00
4.176910e-01,3.881040e-01,3,3,1.948325e+00,1.948325e+00
4.177260e-01,3.876650e-01,3,3,1.949055e+00,1.949056e+00
4.172510e-01,3.822900e-01,3,3,2.288417e+00,2.288427e+00
4.223820e-01,3.823230e-01,3,3,2.450983e+00,2.450983e+00
4.224160e-01,3.825720e-01,3,3,3.019884e+00,3.019884e+00
4.169400e-01,3.879430e-01,3,3,2.414718e+00,2.414719e+00
4.173060e-01,3.879440e-01,3,3,3.203850e+00,3.203849e+00
4.171940e-01,3.820620e-01,3,3,3.147898e+00,3.147898e+00
4.228410e-01,3.820670e-01,3,3,2.662263e+00,2.662263e+00
4.224460e-01,3.829380e-01,3,3,2.198210e+00,2.198210e+00
4.168960e-01,3.873740e-01,3,3,2.293594e+00,2.293593e+00
4.163600e-01,3.883180e-01,3,3,2.306371e+00,2.306371e+00
4.168720e-01,3.827060e-01,3,3,1.796254e+00,1.796255e+00
4.215460e-01,3.822020e-01,3,3,1.819995e+00,1.819995e+00
4.226300e-01,3.821920e-01,3,3,1.248125e+00,1.248125e+00
4.164730e-01,3.877960e-01,3,3,1.018029e+00,1.018029e+00
4.172290e-01,3.880100e-01,3,3,5.822704e-01,5.822705e-01
4.174630e-01,3.819580e-01,3,3,3.330042e-01,3.330042e-01
4.217300e-01,3.826200e-01,3,3,2.482012e-01,2.482011e-01
4.232240e-01,3.821210e-01,3,3,4.556665e-01,4.556663e-01
4.175900e-01,3.876430e-01,3,3,2.828503e-01,2.828502e-01
4.163230e-01,3.879130e-01,3,3,2.550038e-01,2.550038e-01
4.172410e-01,3.822660e-01,3,3,1.703391e-01,1.703391e-01
4.218330e-01,3.825670e-01,3,3,2.014382e-01,2.014381e-01
4.230500e-01,3.826310e-01,3,3,1.610878e-01,1.610878e-01
4.220870e-01,3.830450e-01,3,3,3.675098e-01,3.675097e-01
4.174360e-01,3.875270e-01,3,3,2.943286e-01,2.943285e-01
4.173740e-01,3.873910e-01,3,3,1.531881e-01,1.531880e-01
4.181010e-01,3.833130e-01,3,3,3.406145e-01,3.406144e-01
4.222880e-01,3.825230e-01,3,3,1.992794e-01,1.992794e-01
4.218060e-01,3.824470e-01,3,3,2.863253e-01,2.863252e-01
4.172700e-01,3.884870e-01,3,3,3.065630e-01,3.065630e-01
4.175470e-01,3.880230e-01,3,3,5.424410e-01,5.424409e-01
4.173870e-01,3.825910e-01,3,3,4.279558e-01,4.279558e-01
4.227280e-01,3.823470e-01,3,3,2.632428e-01,2.632428e-01
4.229470e-01,3.829940e-01,3,3,1.987338e-01,1.987337e-01
4.171980e-01,3.877070e-01,3,3,3.001355e-01,3.001355e-01
4.169580e-01,3.875790e-01,3,3,2.796328e-01,2.796328e-01
4.179550e-01,3.822420e-01,3,3,2.333222e-01,2.333221e-01
4.215680e-01,3.832630e-01,3,3,4.161912e-01,4.161911e-01
4.227230e-01,3.830790e-01,3,3,3.164070e-01,3.164070e-01
4.168110e-01,3.882250e-01,3,3,4.669154e-01,4.669153e-01
4.174600e-01,3.883880e-01,3,3,8.393308e-01,8.393306e-01
4.176700e-01,3.823730e-01,3,3,7.641868e-01,7.641867e-01
4.218890e-01,3.828170e-01,3,3,6.688066e-01,6.688066e-01
4.221150e-01,3.828570e-01,3,3,1.426902e+00,1.426902e+00
4.177540e-01,3.882300e-01,3,3,1.782333e+00,1.782333e+00
4.171670e-01,3.880600e-01,3,3,1.041850e+00,1.041850e+00
4.180420e-01,3.825490e-01,3,3,7.859893e-01,7.859894e-01
4.180680e-01,3.826910e-01,3,3,5.735276e-01,5.735275e-01
4.232490e-01,3.829880e-01,3,3,4.160026e-01,4.160026e-01
4.229480e-01,3.826350e-01,3,3,3.451743e-01,3.451742e-01
4.173570e-01,3.881710e-01,3,3,4.915619e-01,4.915619e-01
4.279180e-01,3.900860e-01,3,3,4.936917e-01,4.936916e-01
4.181530e-01,3.824680e-01,3,3,2.252739e-01,2.252738e-01
4.228580e-01,3.825300e-01,3,3,5.618388e-01,5.618386e-01
4.230500e-01,3.825340e-01,3,3,3.495964e-01,3.495964e-01
4.177410e-01,3.880090e-01,3,3,3.592869e-01,3.592868e-01
4.167440e-01,3.894480e-01,3,3,4.280375e-01,4.280374e-01
4.179370e-01,3.826120e-01,3,3,3.779338e-01,3.779338e-01
4.221860e-01,3.826000e-01,3,3,4.555058e-01,4.555058e-01
4.225440e-01,3.824630e-01,3,3,5.577085e-01,5.577084e-01
4.170740e-01,3.884600e-01,3,3,4.481921e-01,4.481920e-01
4.176570e-01,3.882220e-01,3,3,4.443838e-01,4.443837e-01
4.172630e-01,3.823290e-01,3,3,5.393824e-01,5.393822e-01
4.218890e-01,3.822570e-01,3,3,6.312316e-01,6.312314e-01
4.222260e-01,3.826830e-01,3,3,9.205165e-01,9.205163e-01
4.176550e-01,3.877870e-01,3,3,6.345202e-01,6.345202e-01
4.171950e-01,3.875060e-01,3,3,5.539466e-01,5.539464e-01
4.172920e-01,3.824700e-01,3,3,5.765081e-01,5.765080e-01
4.224170e-01,3.827220e-01,3,3,6.578870e-01,6.578870e-01
4.228430e-01,3.825990e-01,3,3,5.534815e-01,5.534815e-01
4.214650e-01,3.827620e-01,3,3,9.484619e-01,9.484615e-01
4.177890e-01,3.880520e-01,3,3,7.298599e-01,7.298599e-01
4.170760e-01,3.879420e-01,3,3,7.465294e-01,7.465294e-01
4.168890e-01,3.822660e-01,3,3,7.507962e-01,7.507961e-01
4.224420e-01,3.819870e-01,3,3,6.817459e-01,6.817458e-01
4.227330e-01,3.825450e-01,3,3,4.901159e-01,4.901159e-01
4.177660e-01,3.877810e-01,3,3,5.921281e-01,5.921280e-01
4.177160e-01,3.877260e-01,3,3,6.727251e-01,6.727250e-01
4.171480e-01,3.817090e-01,3,3,4.880306e-01,4.880306e-01
4.223500e-01,3.827320e-01,3,3,8.279034e-01,8.279031e-01
4.235450e-01,3.831500e-01,3,3,6.131676e-01,6.131676e-01
4.173330e-01,3.888060e-01,3,3,5.265205e-01,5.265205e-01
4.171570e-01,3.874370e-01,3,3,5.088590e-01,5.088590e-01
4.175410e-01,3.815610e-01,3,3,3.969120e-01,3.969118e-01
4.220860e-01,3.825700e-01,3,3,2.762960e-01,2.762959e-01
4.221330e-01,3.825370e-01,3,3,4.978548e-01,4.978547e-01
4.168470e-01,3.882020e-01,3,3,4.210892e-01,4.210892e-01
4.171560e-01,3.874520e-01,3,3,4.279700e-01,4.279700e-01
4.172410e-01,3.824880e-01,3,3,4.182497e-01,4.182497e-01
4.224930e-01,3.825840e-01,3,3,3.543472e-01,3.543471e-01
4.226940e-01,3.827430e-01,3,3,4.322884e-01,4.322884e-01
4.215230e-01,3.831770e-01,3,3,3.281681e-01,3.281680e-01
4.173160e-01,3.875000e-01,3,3,1.257821e+00,1.257820e+00
4.168030e-01,3.889820e-01,3,3,2.742537e+00,2.742536e+00
4.176600e-01,3.824080e-01,3,3,2.134744e+00,2.134744e+00
4.230880e-01,3.830130e-01,3,3,1.555064e+00,1.555064e+00
4.222550e-01,3.830410e-01,3,3,1.114300e+00,1.114300e+00
4.174440e-01,3.880480e-01,3,3,1.267583e+00,1.267582e+00
4.171720e-01,3.879280e-01,3,3,1.013176e+00,1.013176e+00
4.181240e-01,3.826430e-01,3,3,1.003273e+00,1.003273e+00
4.219830e-01,3.828450e-01,3,3,1.120686e+00,1.120685e+00
4.215890e-01,3.828930e-01,3,3,1.208034e+00,1.208033e+00
4.170980e-01,3.880460e-01,3,3,1.116001e+00,1.116001e+00
4.172790e-01,3.873270e-01,3,3,1.282012e+00,1.282012e+00
4.172920e-01,3.820790e-01,3,3,1.768272e+00,1.768271e+00
4.220660e-01,3.827520e-01,3,3,1.402028e+00,1.402029e+00
4.221570e-01,3.824720e-01,3,3,1.025092e+00,1.025092e+00
4.174460e-01,3.878240e-01,3,3,6.593292e-01,6.593293e-01
4.165700e-01,3.877260e-01,3,3,4.606536e-01,4.606536e-01
4.171050e-01,3.826970e-01,3,3,3.524187e-01,3.524187e-01
4.223430e-01,3.821700e-01,3,3,4.960515e-01,4.960513e-01
4.218780e-01,3.823530e-01,3,3,3.668235e-01,3.668235e-01
4.173290e-01,3.873220e-01,3,3,5.251833e-01,5.251833e-01
4.280170e-01,3.901120e-01,3,3,5.437236e-01,5.437236e-01
4.172530e-01,3.869940e-01,3,3,5.191680e-01,5.191680e-01
4.177300e-01,3.824220e-01,3,3,6.627464e-01,6.627463e-01
4.226150e-01,3.824440e-01,3,3,3.909010e-01,3.909010e-01
4.224880e-01,3.827020e-01,3,3,3.016423e-01,3.016423e-01
4.168130e-01,3.881070e-01,3,3,1.002091e+00,1.002091e+00
4.167830e-01,3.872790e-01,3,3,1.093279e+00,1.093279e+00
4.175000e-01,3.822700e-01,3,3,5.362180e-01,5.362181e-01
4.221720e-01,3.826340e-01,3,3,5.961707e-01,5.961707e-01
4.225950e-01,3.830520e-01,3,3,5.419457e-01,5.419456e-01
4.167020e-01,3.873280e-01,3,3,6.077994e-01,6.077993e-01
4.168980e-01,3.880420e-01,3,3,2.971781e-01,2.971782e-01
4.172210e-01,3.823750e-01,3,3,2.040109e-01,2.040108e-01
4.221830e-01,3.827080e-01,3,3,3.827939e-01,3.827938e-01
4.221260e-01,3.829280e-01,3,3,5.329205e-01,5.329205e-01
4.168370e-01,3.878460e-01,3,3,7.166409e-01,7.166408e-01
4.172360e-01,3.878670e-01,3,3,4.506404e-01,4.506403e-01
4.174050e-01,3.825190e-01,3,3,4.308090e-01,4.308089e-01
4.226990e-01,3.830270e-01,3,3,6.218864e-01,6.218862e-01
4.219190e-01,3.830070e-01,3,3,9.787901e-01,9.787900e-01
4.169890e-01,3.877150e-01,3,3,1.116791e+00,1.116791e+00
4.170700e-01,3.878180e-01,3,3,1.540904e+00,1.540904e+00
4.170190e-01,3.820990e-01,3,3,1.475718e+00,1.475718e+00
4.225630e-01,3.826140e-01,3,3,2.271338e+00,2.271340e+00
4.215390e-01,3.826440e-01,3,3,9.813099e-01,9.813103e-01
4.217380e-01,3.828910e-01,3,3,8.421965e-01,8.421965e-01
4.173010e-01,3.874130e-01,3,3,1.248222e+00,1.248222e+00
4.175820e-01,3.868000e-01,3,3,6.708158e-01,6.708159e-01
4.168360e-01,3.831370e-01,3,3,5.824210e-01,5.824210e-01
4.223330e-01,3.822510e-01,3,3,4.992677e-01,4.992676e-01
4.227800e-01,3.823270e-01,3,3,3.472349e-01,3.472350e-01
4.173780e-01,3.879950e-01,3,3,6.987594e-01,6.987591e-01
4.168330e-01,3.874790e-01,3,3,5.471631e-01,5.471631e-01
4.175040e-01,3.823990e-01,3,3,3.170678e-01,3.170678e-01
4.227240e-01,3.819810e-01,3,3,5.217454e-01,5.217452e-01
4.226260e-01,3.828600e-01,3,3,3.842854e-01,3.842854e-01
4.168300e-01,3.881440e-01,3,3,2.140727e-01,2.140727e-01
4.177660e-01,3.893000e-01,3,3,2.387965e-01,2.387965e-01
4.168780e-01,3.828010e-01,3,3,2.955949e-01,2.955948e-01
4.220710e-01,3.826350e-01,3,3,4.694231e-01,4.694230e-01
4.220620e-01,3.825250e-01,3,3,9.842172e-01,9.842169e-01
4.177790e-01,3.880290e-01,3,3,6.232691e-01,6.232688e-01
4.174820e-01,3.874360e-01,3,3,1.098332e+00,1.098331e+00
4.173420e-01,3.824190e-01,3,3,4.853319e-01,4.853321e-01
4.217020e-01,3.821950e-01,3,3,4.187908e-01,4.187908e-01
4.223570e-01,3.823110e-01,3,3,2.720649e-01,2.720649e-01
4.166820e-01,3.873560e-01,3,3,2.441733e-01,2.441733e-01
4.178040e-01,3.877710e-01,3,3,7.164640e-01,7.164637e-01
4.177150e-01,3.826810e-01,3,3,7.442926e-01,7.442925e-01
4.211970e-01,3.827990e-01,3,3,1.152313e+00,1.152312e+00
4.236760e-01,3.822710e-01,3,3,1.193370e+00,1.193370e+00
4.227690e-01,3.828060e-01,3,3,1.380567e+00,1.380567e+00
4.168710e-01,3.881200e-01,3,3,2.239501e+00,2.239501e+00
4.174900e-01,3.871930e-01,3,3,2.529364e+00,2.529364e+00
4.177360e-01,3.824700e-01,3,3,1.942816e+00,1.942816e+00
4.235230e-01,3.827680e-01,3,3,1.766978e+00,1.766978e+00
4.221270e-01,3.825400e-01,3,3,2.333588e+00,2.333588e+00
4.170960e-01,3.884710e-01,3,3,1.662287e+00,1.662287e+00
4.176850e-01,3.885230e-01,3,3,1.406041e+00,1.406041e+00
4.177090e-01,3.824840e-01,3,3,1.309667e+00,1.309667e+00
4.234100e-01,3.831710e-01,3,3,1.353551e+00,1.353551e+00
4.225310e-01,3.828150e-01,3,3,1.446554e+00,1.446554e+00
4.289040e-01,3.900680e-01,3,3,1.149410e+00,1.149410e+00
4.178300e-01,3.899370e-01,3,3,1.202724e+00,1.202724e+00
4.169450e-01,3.834590e-01,3,3,1.600580e+00,1.600579e+00
4.225650e-01,3.837880e-01,3,3,1.799590e+00,1.799590e+00
4.226570e-01,3.837470e-01,3,3,1.192503e+00,1.192503e+00
4.169300e-01,3.889740e-01,3,3,1.158590e+00,1.158590e+00
4.169660e-01,3.878230e-01,3,3,7.133188e-01,7.133191e-01
4.170680e-01,3.824410e-01,3,3,6.901438e-01,6.901438e-01

