3.065500e-01,2.770140e-01,2,2,0.000000e+00,0.000000e+00
4.198180e-01,3.830100e-01,3,3,7.299426e-02,7.299425e-02
4.250350e-01,3.831520e-01,3,3,1.202878e-01,1.202878e-01
4.240290e-01,3.824290e-01,3,3,2.752775e-01,2.752774e-01
4.426170e-01,3.839510e-01,3,3,2.416191e-01,2.416190e-01
4.192490e-01,3.889620e-01,3,3,1.053510e+00,1.053510e+00
4.195010e-01,3.876560e-01,3,3,1.486309e+00,1.486309e+00
4.194340e-01,3.822290e-01,3,3,1.984450e+00,1.984450e+00
4.244670e-01,3.829040e-01,3,3,9.697205e-01,9.697207e-01
4.316930e-01,3.825340e-01,3,3,8.785314e-01,8.785313e-01
4.188030e-01,3.881870e-01,3,3,7.547275e-01,7.547274e-01
4.188130e-01,3.881430e-01,3,3,8.541110e-01,8.541109e-01
4.191620e-01,3.825820e-01,3,3,1.335767e+00,1.335767e+00
4.245430e-01,3.827880e-01,3,3,1.788927e+00,1.788927e+00
4.311000e-01,3.826440e-01,3,3,1.659453e+00,1.659453e+00
4.187660e-01,3.883560e-01,3,3,2.269479e+00,2.269479e+00
4.190380e-01,3.880460e-01,3,3,1.847245e+00,1.847245e+00
4.190400e-01,3.826690e-01,3,3,1.628586e+00,1.628586e+00
4.238400e-01,3.828740e-01,3,3,1.634209e+00,1.634209e+00
4.245550e-01,3.834580e-01,3,3,1.456978e+00,1.456978e+00
4.242710e-01,3.828520e-01,3,3,1.447082e+00,1.447082e+00
4.191070e-01,3.877120e-01,3,3,1.253252e+00,1.253252e+00
4.197850e-01,3.877890e-01,3,3,1.235691e+00,1.235691e+00
4.198780e-01,3.827940e-01,3,3,1.092519e+00,1.092519e+00
4.243370e-01,3.824730e-01,3,3,1.047691e+00,1.047690e+00
4.258180e-01,3.830200e-01,3,3,9.984293e-01,9.984293e-01
4.190230e-01,3.875810e-01,3,3,8.813839e-01,8.813838e-01
4.195290e-01,3.876320e-01,3,3,6.596989e-01,6.596990e-01
4.196380e-01,3.824210e-01,3,3,2.911126e-01,2.911125e-01
4.241060e-01,3.827430e-01,3,3,2.312074e-01,2.312074e-01
4.239170e-01,3.826150e-01,3,3,4.522935e-01,4.522933e-01
4.191140e-01,3.886400e-01,3,3,5.682805e-01,5.682804e-01
4.191830e-01,3.885300e-01,3,3,5.170765e-01,5.170765e-01
4.197560e-01,3.830460e-01,3,3,7.868971e-01,7.868968e-01
4.235310e-01,3.829040e-01,3,3,6.515139e-01,6.515140e-01
4.247270e-01,3.826510e-01,3,3,4.968741e-01,4.968741e-01
4.186730e-01,3.871330e-01,3,3,3.894190e-01,3.894189e-01
4.190320e-01,3.878410e-01,3,3,3.105377e-01,3.105377e-01
4.198290e-01,3.823950e-01,3,3,7.322858e-01,7.322856e-01
4.198190e-01,3.825140e-01,3,3,8.038421e-01,8.038420e-01
4.240770e-01,3.827120e-01,3,3,1.837617e+00,1.837617e+00
4.249740e-01,3.827470e-01,3,3,2.481515e+00,2.481514e+00
4.190690e-01,3.881780e-01,3,3,1.605391e+00,1.605392e+00
4.191690e-01,3.868340e-01,3,3,2.450231e+00,2.450231e+00
4.187200e-01,3.822550e-01,3,3,1.992187e+00,1.992187e+00
4.244020e-01,3.829490e-01,3,3,1.623003e+00,1.623003e+00
4.243690e-01,3.831010e-01,3,3,1.524520e+00,1.524520e+00
4.186720e-01,3.878680e-01,3,3,1.331048e+00,1.331048e+00
4.189780e-01,3.876830e-01,3,3,1.102548e+00,1.102548e+00
4.192900e-01,3.826130e-01,3,3,7.144915e-01,7.144914e-01
4.240400e-01,3.827220e-01,3,3,6.042136e-01,6.042135e-01
4.242360e-01,3.825210e-01,3,3,1.020205e+00,1.020205e+00
4.191470e-01,3.877220e-01,3,3,7.986932e-01,7.986932e-01
4.193890e-01,3.878850e-01,3,3,6.929104e-01,6.929104e-01
4.192860e-01,3.825130e-01,3,3,9.035105e-01,9.035103e-01
4.360830e-01,3.830490e-01,3,3,1.181459e+00,1.181459e+00
4.256930e-01,3.827570e-01,3,3,6.836576e-01,6.836578e-01
4.233040e-01,3.831360e-01,3,3,9.577094e-01,9.577092e-01
4.184230e-01,3.878360e-01,3,3,1.277777e+00,1.277777e+00
4.193330e-01,3.875750e-01,3,3,1.837678e+00,1.837678e+00
4.193460e-01,3.831250e-01,3,3,8.481043e-01,8.481042e-01
4.243780e-01,3.828780e-01,3,3,1.684327e+00,1.684327e+00
4.243910e-01,3.824220e-01,3,3,3.141579e+00,3.141579e+00
4.191380e-01,3.886180e-01,3,3,1.790339e+00,1.790339e+00
4.190310e-01,3.881020e-01,3,3,2.498342e+00,2.498342e+00
4.198410e-01,3.823890e-01,3,3,1.020062e+00,1.020062e+00
4.247090e-01,3.832600e-01,3,3,1.180046e+00,1.180046e+00
4.242620e-01,3.830050e-01,3,3,1.006402e+00,1.006402e+00
4.188540e-01,3.879700e-01,3,3,7.356383e-01,7.356383e-01
4.190630e-01,3.879410e-01,3,3,6.450082e-01,6.450081e-01
4.191630e-01,3.826310e-01,3,3,9.097486e-01,9.097486e-01
4.241580e-01,3.826910e-01,3,3,9.229146e-01,9.229145e-01
4.239520e-01,3.828830e-01,3,3,9.367865e-01,9.367864e-01
4.186950e-01,3.875050e-01,3,3,1.068926e+00,1.068926e+00
4.185990e-01,3.878250e-01,3,3,1.511633e+00,1.511633e+00
4.187420e-01,3.826490e-01,3,3,2.005888e+00,2.005888e+00
4.241170e-01,3.826060e-01,3,3,1.305145e+00,1.305146e+00
4.247380e-01,3.829630e-01,3,3,1.324114e+00,1.324114e+00
4.241400e-01,3.827710e-01,3,3,9.914513e-01,9.914514e-01
4.190350e-01,3.878790e-01,3,3,4.349969e-01,4.349970e-01
4.193430e-01,3.874510e-01,3,3,1.079526e+00,1.079525e+00
4.192440e-01,3.825420e-01,3,3,8.278181e-01,8.278181e-01
4.246380e-01,3.830030e-01,3,3,7.467932e-01,7.467932e-01
4.244000e-01,3.826960e-01,3,3,7.573777e-01,7.573776e-01
4.192970e-01,3.881840e-01,3,3,1.012894e+00,1.012894e+00
4.189110e-01,3.875850e-01,3,3,1.883313e+00,1.883313e+00
4.190910e-01,3.830110e-01,3,3,2.893167e+00,2.893167e+00
4.245660e-01,3.823730e-01,3,3,4.331211e+00,4.331210e+00
4.238920e-01,3.832550e-01,3,3,3.607361e+00,3.607361e+00
4.191440e-01,3.883550e-01,3,3,2.604963e+00,2.604964e+00
4.189800e-01,3.878960e-01,3,3,2.040654e+00,2.040654e+00
4.190820e-01,3.828900e-01,3,3,1.488948e+00,1.488948e+00
4.238920e-01,3.827210e-01,3,3,2.133143e+00,2.133143e+00
4.232260e-01,3.821600e-01,3,3,1.666219e+00,1.666219e+00
4.181220e-01,3.881140e-01,3,3,2.188657e+00,2.188657e+00
4.189900e-01,3.879430e-01,3,3,2.422833e+00,2.422834e+00
4.188640e-01,3.863100e-01,3,3,1.129857e+00,1.129857e+00
4.192440e-01,3.827220e-01,3,3,1.041197e+00,1.041197e+00
4.241540e-01,3.824820e-01,3,3,1.462422e+00,1.462421e+00
4.249660e-01,3.826240e-01,3,3,1.561060e+00,1.561060e+00
4.188250e-01,3.870520e-01,3,3,1.210702e+00,1.210702e+00
4.185520e-01,3.870230e-01,3,3,1.323178e+00,1.323178e+00
4.189340e-01,3.820520e-01,3,3,7.812620e-01,7.812619e-01
4.244240e-01,3.820530e-01,3,3,7.454100e-01,7.454099e-01
4.234800e-01,3.826700e-01,3,3,6.351316e-01,6.351316e-01
4.189550e-01,3.870030e-01,3,3,6.281938e-01,6.281937e-01
4.190850e-01,3.881590e-01,3,3,8.975784e-01,8.975782e-01
4.187870e-01,3.824080e-01,3,3,9.912051e-01,9.912051e-01
4.234360e-01,3.830840e-01,3,3,6.697291e-01,6.697292e-01
4.240740e-01,3.822260e-01,3,3,6.732946e-01,6.732945e-01
4.184080e-01,3.872430e-01,3,3,6.307868e-01,6.307868e-01
4.188990e-01,3.874310e-01,3,3,4.562135e-01,4.562135e-01
4.194040e-01,3.819590e-01,3,3,3.680576e-01,3.680576e-01
4.230740e-01,3.827860e-01,3,3,5.854030e-01,5.854028e-01
4.236500e-01,3.828220e-01,3,3,3.295080e-01,3.295080e-01
4.219430e-01,3.830830e-01,3,3,3.528360e-01,3.528360e-01
4.192930e-01,3.979150e-01,3,3,8.081614e-01,8.081611e-01
4.196030e-01,3.892880e-01,3,3,5.797070e-01,5.797070e-01
4.188580e-01,3.823450e-01,3,3,1.679548e+00,1.679548e+00
4.239150e-01,3.832780e-01,3,3,1.184049e+00,1.184049e+00
4.237780e-01,3.822180e-01,3,3,1.221860e+00,1.221860e+00
4.186350e-01,3.871900e-01,3,3,1.594107e+00,1.594107e+00
4.182920e-01,3.873530e-01,3,3,1.490865e+00,1.490865e+00
4.189450e-01,3.818700e-01,3,3,1.655636e+00,1.655636e+00
4.241440e-01,3.829570e-01,3,3,2.813744e+00,2.813744e+00
4.242040e-01,3.825810e-01,3,3,1.918059e+00,1.918060e+00
4.190290e-01,3.872970e-01,3,3,1.479688e+00,1.479688e+00
4.185800e-01,3.877840e-01,3,3,1.281167e+00,1.281167e+00
4.187730e-01,3.826780e-01,3,3,7.374815e-01,7.374812e-01
4.236830e-01,3.823730e-01,3,3,8.410949e-01,8.410947e-01
4.236110e-01,3.822310e-01,3,3,5.335648e-01,5.335648e-01
4.184350e-01,3.874730e-01,3,3,6.434313e-01,6.434312e-01
4.192840e-01,3.871140e-01,3,3,3.223489e-01,3.223488e-01
4.186580e-01,3.820990e-01,3,3,2.693104e-01,2.693104e-01
4.238350e-01,3.829910e-01,3,3,3.005639e-01,3.005638e-01
4.236280e-01,3.824570e-01,3,3,6.012672e-01,6.012669e-01
4.229050e-01,3.824500e-01,3,3,6.380639e-01,6.380638e-01
4.193220e-01,3.882140e-01,3,3,5.389642e-01,5.389642e-01
4.186200e-01,3.872500e-01,3,3,5.923912e-01,5.923911e-01
4.187400e-01,3.823950e-01,3,3,5.107945e-01,5.107944e-01
4.230370e-01,3.825810e-01,3,3,8.983728e-01,8.983725e-01
4.234060e-01,3.822780e-01,3,3,1.446679e+00,1.446679e+00
4.183480e-01,3.870690e-01,3,3,1.665911e+00,1.665912e+00
4.185280e-01,3.873750e-01,3,3,1.321370e+00,1.321370e+00
4.187750e-01,3.829690e-01,3,3,1.160036e+00,1.160036e+00
4.235980e-01,3.829560e-01,3,3,1.085934e+00,1.085934e+00
4.236970e-01,3.824220e-01,3,3,8.158447e-01,8.158451e-01
4.187140e-01,3.871980e-01,3,3,5.973871e-01,5.973868e-01
4.189100e-01,3.867610e-01,3,3,8.683790e-01,8.683786e-01
4.187640e-01,3.818530e-01,3,3,1.224913e+00,1.224913e+00
4.241070e-01,3.820720e-01,3,3,7.685683e-01,7.685683e-01
4.239450e-01,3.820850e-01,3,3,7.563769e-01,7.563768e-01
4.191980e-01,3.873150e-01,3,3,7.099581e-01,7.099580e-01
4.184900e-01,3.867620e-01,3,3,6.809937e-01,6.809936e-01
4.190800e-01,3.824900e-01,3,3,5.510334e-01,5.510333e-01
4.239560e-01,3.824200e-01,3,3,6.010016e-01,6.010014e-01
4.235940e-01,3.823010e-01,3,3,9.725007e-01,9.725003e-01
4.233020e-01,3.829980e-01,3,3,9.366869e-01,9.366869e-01
4.187770e-01,3.870540e-01,3,3,1.015780e+00,1.015780e+00
4.191960e-01,3.876600e-01,3,3,1.234662e+00,1.234662e+00
4.192130e-01,3.823470e-01,3,3,5.605936e-01,5.605936e-01
4.238820e-01,3.824160e-01,3,3,4.174208e-01,4.174207e-01
4.241260e-01,3.828740e-01,3,3,4.762187e-01,4.762186e-01
4.189170e-01,3.874280e-01,3,3,1.865198e-01,1.865197e-01
4.188590e-01,3.873860e-01,3,3,1.920409e-01,1.920408e-01
4.190680e-01,3.819180e-01,3,3,3.305189e-01,3.305188e-01
4.235550e-01,3.827120e-01,3,3,2.912341e-01,2.912341e-01
4.232540e-01,3.830030e-01,3,3,8.482769e-01,8.482766e-01
4.187010e-01,3.878380e-01,3,3,6.665035e-01,6.665033e-01
4.192180e-01,3.876970e-01,3,3,4.916388e-01,4.916388e-01
4.185480e-01,3.823700e-01,3,3,4.448167e-01,4.448166e-01
4.237210e-01,3.818690e-01,3,3,4.528620e-01,4.528619e-01
4.235360e-01,3.824190e-01,3,3,4.545842e-01,4.545841e-01
4.182600e-01,3.869870e-01,3,3,3.105070e-01,3.105070e-01
4.188230e-01,3.878050e-01,3,3,3.274085e-01,3.274084e-01
4.188340e-01,3.823490e-01,3,3,2.924056e-01,2.924056e-01
4.233350e-01,3.826830e-01,3,3,2.517611e-01,2.517611e-01
4.243320e-01,3.824370e-01,3,3,6.211287e-01,6.211284e-01
4.233470e-01,3.935730e-01,3,3,4.351212e-01,4.351211e-01
4.196280e-01,3.885290e-01,3,3,6.480730e-01,6.480729e-01
4.193430e-01,3.872760e-01,3,3,1.035904e+00,1.035904e+00
4.190980e-01,3.825190e-01,3,3,8.709634e-01,8.709633e-01
4.244300e-01,3.823470e-01,3,3,9.737405e-01,9.737403e-01
4.254740e-01,3.827510e-01,3,3,7.453204e-01,7.453204e-01
4.187970e-01,3.878330e-01,3,3,7.013960e-01,7.013960e-01
4.190180e-01,3.875160e-01,3,3,7.998239e-01,7.998237e-01
4.184060e-01,3.818490e-01,3,3,1.609745e+00,1.609744e+00
4.240390e-01,3.824520e-01,3,3,2.125077e+00,2.125076e+00
4.235960e-01,3.830920e-01,3,3,1.900785e+00,1.900785e+00
4.191070e-01,3.879420e-01,3,3,1.576720e+00,1.576720e+00
4.193210e-01,3.874580e-01,3,3,1.430840e+00,1.430840e+00
4.187030e-01,3.823530e-01,3,3,1.045641e+00,1.045641e+00
4.238590e-01,3.824440e-01,3,3,1.047994e+00,1.047994e+00
4.241220e-01,3.820720e-01,3,3,1.046304e+00,1.046305e+00
4.189050e-01,3.868830e-01,3,3,8.081162e-01,8.081162e-01
4.191510e-01,3.882920e-01,3,3,7.322280e-01,7.322279e-01
4.190120e-01,3.825830e-01,3,3,1.369697e+00,1.369697e+00
4.236210e-01,3.829500e-01,3,3,2.682522e+00,2.682522e+00
4.234310e-01,3.826720e-01,3,3,2.762366e+00,2.762375e+00
4.233720e-01,3.827360e-01,3,3,2.811566e+00,2.811566e+00
4.188420e-01,3.875360e-01,3,3,3.292974e+00,3.292973e+00
4.192840e-01,3.876640e-01,3,3,4.677498e+00,4.677497e+00
4.188310e-01,3.825170e-01,3,3,3.084750e+00,3.084750e+00
4.235860e-01,3.825630e-01,3,3,3.772827e+00,3.772827e+00
4.238850e-01,3.832570e-01,3,3,2.976594e+00,2.976594e+00
4.187050e-01,3.881730e-01,3,3,2.830556e+00,2.830556e+00
4.194810e-01,3.878650e-01,3,3,2.049864e+00,2.049864e+00
4.189670e-01,3.830100e-01,3,3,2.575688e+00,2.575688e+00
4.241740e-01,3.825400e-01,3,3,1.851266e+00,1.851266e+00
4.232780e-01,3.821950e-01,3,3,2.384727e+00,2.384727e+00
4.194770e-01,3.877630e-01,3,3,8.229260e-01,8.229264e-01
4.186810e-01,3.876100e-01,3,3,8.089212e-01,8.089210e-01
4.182370e-01,3.822340e-01,3,3,1.269859e+00,1.269858e+00
4.243540e-01,3.822910e-01,3,3,8.596930e-01,8.596930e-01
4.232720e-01,3.828110e-01,3,3,1.451383e+00,1.451382e+00
4.182010e-01,3.874890e-01,3,3,1.317253e+00,1.317253e+00
4.188470e-01,3.879600e-01,3,3,2.435876e+00,2.435875e+00
4.188460e-01,3.820450e-01,3,3,1.188777e+00,1.188777e+00
4.232940e-01,3.824650e-01,3,3,9.803944e-01,9.803943e-01
4.241270e-01,3.831510e-01,3,3,8.159143e-01,8.159142e-01
4.238140e-01,3.830300e-01,3,3,8.274884e-01,8.274884e-01
4.184080e-01,3.887060e-01,3,3,9.257435e-01,9.257434e-01
4.192070e-01,3.877530e-01,3,3,1.441314e+00,1.441314e+00
4.193040e-01,3.826310e-01,3,3,7.046571e-01,7.046573e-01
4.237280e-01,3.828280e-01,3,3,4.818445e-01,4.818445e-01
4.234960e-01,3.824530e-01,3,3,5.910038e-01,5.910036e-01
4.193260e-01,3.871820e-01,3,3,6.100773e-01,6.100772e-01
4.184510e-01,3.873440e-01,3,3,4.665784e-01,4.665784e-01
4.187340e-01,3.822320e-01,3,3,7.024095e-01,7.024092e-01
4.235100e-01,3.828640e-01,3,3,9.736101e-01,9.736098e-01
4.243170e-01,3.823080e-01,3,3,1.412109e+00,1.412108e+00
4.186590e-01,3.870830e-01,3,3,2.936460e+00,2.936459e+00
4.182380e-01,3.879130e-01,3,3,3.792861e+00,3.792861e+00
4.189590e-01,3.823020e-01,3,3,2.642161e+00,2.642161e+00
4.242000e-01,3.825310e-01,3,3,3.223706e+00,3.223706e+00
4.239540e-01,3.827960e-01,3,3,2.391579e+00,2.391579e+00
4.190420e-01,3.876890e-01,3,3,1.936375e+00,1.936375e+00
4.180630e-01,3.874890e-01,3,3,2.205286e+00,2.205286e+00
4.188300e-01,3.826220e-01,3,3,1.320858e+00,1.320858e+00
4.193650e-01,3.824330e-01,3,3,8.408198e-01,8.408194e-01
4.240180e-01,3.942050e-01,3,3,6.712734e-01,6.712734e-01
4.259570e-01,3.828350e-01,3,3,7.014755e-01,7.014754e-01
4.185680e-01,3.873040e-01,3,3,7.419146e-01,7.419145e-01
4.191150e-01,3.877020e-01,3,3,1.165932e+00,1.165932e+00
4.196200e-01,3.820870e-01,3,3,4.149588e-01,4.149589e-01
4.231150e-01,3.827270e-01,3,3,1.493786e+00,1.493785e+00
4.237000e-01,3.827280e-01,3,3,3.011956e+00,3.011954e+00
4.193060e-01,3.870520e-01,3,3,1.855048e+00,1.855049e+00
4.185670e-01,3.877140e-01,3,3,1.348674e+00,1.348674e+00
4.193310e-01,3.822060e-01,3,3,1.111577e+00,1.111577e+00
4.236910e-01,3.831650e-01,3,3,9.684545e-01,9.684545e-01
4.240410e-01,3.820810e-01,3,3,9.115081e-01,9.115081e-01
4.187890e-01,3.880030e-01,3,3,1.481985e+00,1.481984e+00
4.179900e-01,3.877120e-01,3,3,1.190557e+00,1.190557e+00
4.187200e-01,3.822280e-01,3,3,8.585369e-01,8.585370e-01
4.229490e-01,3.823790e-01,3,3,9.729904e-01,9.729903e-01
4.237150e-01,3.825970e-01,3,3,1.616507e+00,1.616506e+00
4.228410e-01,3.831880e-01,3,3,2.519706e+00,2.519705e+00
4.186010e-01,3.877840e-01,3,3,4.356772e+00,4.356771e+00
4.189390e-01,3.872030e-01,3,3,5.262371e+00,5.262370e+00
4.185090e-01,3.820060e-01,3,3,4.809030e+00,4.809030e+00
4.233210e-01,3.824230e-01,3,3,5.028560e+00,5.028560e+00
4.239450e-01,3.826000e-01,3,3,4.296137e+00,4.296137e+00
4.184600e-01,3.875990e-01,3,3,4.467172e+00,4.467172e+00
4.188570e-01,3.877410e-01,3,3,4.403869e+00,4.403869e+00
4.188800e-01,3.823480e-01,3,3,3.773923e+00,3.773922e+00
4.244260e-01,3.829170e-01,3,3,3.321917e+00,3.321917e+00
4.245860e-01,3.826960e-01,3,3,2.557784e+00,2.557784e+00
4.190090e-01,3.880570e-01,3,3,2.472227e+00,2.472227e+00
4.191890e-01,3.880890e-01,3,3,2.617061e+00,2.617061e+00
4.182370e-01,3.826420e-01,3,3,3.367619e+00,3.367623e+00
4.240840e-01,3.824560e-01,3,3,5.686536e+00,5.686821e+00
8.349740e-01,7.705010e-01,6,6,5.914706e+00,5.913630e+00
8.429690e-01,4.948410e-01,6,4,6.356600e+00,6.355860e+00
4.379160e-01,3.717800e-01,3,3,5.475181e+00,5.475174e+00
4.073310e-01,4.013290e-01,3,3,5.457677e+00,5.457681e+00
4.072840e-01,4.019660e-01,3,3,6.424481e+00,6.424481e+00
4.072420e-01,3.715520e-01,3,3,5.985187e+00,5.985187e+00
4.381390e-01,3.718330e-01,3,3,5.110530e+00,5.110530e+00
4.120670e-01,3.718910e-01,3,3,4.374727e+00,4.374726e+00
4.071410e-01,4.034250e-01,3,3,3.708827e+00,3.708826e+00
4.070640e-01,3.776980e-01,3,3,3.209941e+00,3.209940e+00
4.071000e-01,3.718140e-01,3,3,3.010906e+00,3.010905e+00
4.367130e-01,3.717970e-01,3,3,3.305011e+00,3.305012e+00
4.119430e-01,3.714840e-01,3,3,1.931730e+00,1.931730e+00
4.254150e-01,3.877050e-01,3,3,1.772410e+00,1.772410e+00
4.184610e-01,3.878460e-01,3,3,2.000840e+00,2.000840e+00
4.186400e-01,3.824490e-01,3,3,1.475190e+00,1.475190e+00
4.235410e-01,3.827390e-01,3,3,1.264200e+00,1.264200e+00
4.246090e-01,3.829750e-01,3,3,1.061034e+00,1.061034e+00
4.190190e-01,3.874530e-01,3,3,7.293786e-01,7.293787e-01
4.189440e-01,3.885980e-01,3,3,4.083885e-01,4.083883e-01
4.187360e-01,3.821030e-01,3,3,3.376104e-01,3.376103e-01
4.236180e-01,3.823890e-01,3,3,4.264529e-01,4.264528e-01
4.242450e-01,3.821160e-01,3,3,4.787154e-01,4.787153e-01
4.243950e-01,3.828230e-01,3,3,3.924166e-01,3.924165e-01
4.190910e-01,3.876900e-01,3,3,3.408020e-01,3.408019e-01
4.192690e-01,3.879030e-01,3,3,9.408226e-01,9.408223e-01
4.190600e-01,3.823220e-01,3,3,1.982785e+00,1.982784e+00
4.251090e-01,3.830400e-01,3,3,2.602620e+00,2.602619e+00
4.244110e-01,3.932640e-01,3,3,2.231798e+00,2.231798e+00
4.196580e-01,3.887950e-01,3,3,2.355797e+00,2.355797e+00
4.189070e-01,3.878570e-01,3,3,2.352799e+00,2.352799e+00
4.190410e-01,3.823240e-01,3,3,2.149651e+00,2.149651e+00
4.245840e-01,3.828290e-01,3,3,1.701742e+00,1.701741e+00
4.239290e-01,3.827060e-01,3,3,1.758415e+00,1.758415e+00
4.182770e-01,3.879620e-01,3,3,3.190626e+00,3.190626e+00
4.190330e-01,3.877450e-01,3,3,4.228989e+00,4.228989e+00
4.180160e-01,3.827380e-01,3,3,5.091355e+00,5.091355e+00
4.240690e-01,3.821410e-01,3,3,4.301125e+00,4.301126e+00
4.239450e-01,3.824070e-01,3,3,3.361438e+00,3.361439e+00
4.184520e-01,3.879950e-01,3,3,2.513077e+00,2.513077e+00
4.189490e-01,3.877860e-01,3,3,2.007333e+00,2.007333e+00
4.191250e-01,3.875380e-01,3,3,2.423558e+00,2.423557e+00
4.192440e-01,3.826280e-01,3,3,2.462090e+00,2.462090e+00
4.242630e-01,3.821530e-01,3,3,1.948325e+00,1.948325e+00
4.239320e-01,3.820070e-01,3,3,1.949055e+00,1.949056e+00
4.182350e-01,3.874960e-01,3,3,2.288417e+00,2.288427e+00
4.190940e-01,3.880530e-01,3,3,2.450983e+00,2.450983e+00
4.190910e-01,3.821230e-01,3,3,3.019884e+00,3.019884e+00
4.236050e-01,3.827260e-01,3,3,2.414718e+00,2.414719e+00
4.245710e-01,3.827900e-01,3,3,3.203850e+00,3.203849e+00
4.188020e-01,3.872810e-01,3,3,3.147898e+00,3.147898e+00
4.184680e-01,3.878070e-01,3,3,2.662263e+00,2.662263e+00
4.189380e-01,3.824890e-01,3,3,2.198210e+00,2.198210e+00
4.238790e-01,3.827860e-01,3,3,2.293594e+00,2.293593e+00
4.243320e-01,3.827440e-01,3,3,2.306371e+00,2.306371e+00
4.183800e-01,3.876200e-01,3,3,1.796254e+00,1.796255e+00
4.186750e-01,3.883380e-01,3,3,1.819995e+00,1.819995e+00
4.183210e-01,3.823910e-01,3,3,1.248125e+00,1.248125e+00
4.238200e-01,3.825380e-01,3,3,1.018029e+00,1.018029e+00
4.243290e-01,3.826510e-01,3,3,5.822704e-01,5.822705e-01
4.177790e-01,3.872310e-01,3,3,3.330042e-01,3.330042e-01
4.191840e-01,3.879640e-01,3,3,2.482012e-01,2.482011e-01
4.187280e-01,3.864580e-01,3,3,4.556665e-01,4.556663e-01
4.193580e-01,3.821130e-01,3,3,2.828503e-01,2.828502e-01
4.240530e-01,3.823510e-01,3,3,2.550038e-01,2.550038e-01
4.242140e-01,3.829110e-01,3,3,1.703391e-01,1.703391e-01
4.178600e-01,3.875900e-01,3,3,2.014382e-01,2.014381e-01
4.190480e-01,3.890350e-01,3,3,1.610878e-01,1.610878e-01
4.189700e-01,3.827420e-01,3,3,3.675098e-01,3.675097e-01
4.236630e-01,3.823560e-01,3,3,2.943286e-01,2.943285e-01
4.238020e-01,3.824880e-01,3,3,1.531881e-01,1.531880e-01
4.185640e-01,3.873220e-01,3,3,3.406145e-01,3.406144e-01
4.186790e-01,3.867740e-01,3,3,1.992794e-01,1.992794e-01
4.179000e-01,3.821970e-01,3,3,2.863253e-01,2.863252e-01
4.235140e-01,3.821520e-01,3,3,3.065630e-01,3.065630e-01
4.241580e-01,3.823500e-01,3,3,5.424410e-01,5.424409e-01
4.181370e-01,3.873180e-01,3,3,4.279558e-01,4.279558e-01
4.190190e-01,3.879060e-01,3,3,2.632428e-01,2.632428e-01
4.188590e-01,3.821480e-01,3,3,1.987338e-01,1.987337e-01
4.237250e-01,3.823030e-01,3,3,3.001355e-01,3.001355e-01
4.234550e-01,3.824080e-01,3,3,2.796328e-01,2.796328e-01
4.184990e-01,3.877440e-01,3,3,2.333222e-01,2.333221e-01
4.187160e-01,3.932480e-01,3,3,4.161912e-01,4.161911e-01
4.193450e-01,3.873930e-01,3,3,3.164070e-01,3.164070e-01
4.186070e-01,3.824220e-01,3,3,4.669154e-01,4.669153e-01
4.237440e-01,3.824940e-01,3,3,8.393308e-01,8.393306e-01
4.239970e-01,3.826590e-01,3,3,7.641868e-01,7.641867e-01
4.181900e-01,3.877630e-01,3,3,6.688066e-01,6.688066e-01
4.185730e-01,3.879250e-01,3,3,1.426902e+00,1.426902e+00
4.185340e-01,3.825940e-01,3,3,1.782333e+00,1.782333e+00
4.245120e-01,3.930430e-01,3,3,1.041850e+00,1.041850e+00
4.258170e-01,3.826700e-01,3,3,7.859893e-01,7.859894e-01
4.190670e-01,3.875420e-01,3,3,5.735276e-01,5.735275e-01
4.189190e-01,3.873310e-01,3,3,4.160026e-01,4.160026e-01
4.194930e-01,3.820540e-01,3,3,3.451743e-01,3.451742e-01
4.238180e-01,3.824100e-01,3,3,4.915619e-01,4.915619e-01
4.245550e-01,3.827120e-01,3,3,4.936917e-01,4.936916e-01
4.183300e-01,3.869920e-01,3,3,2.252739e-01,2.252738e-01
4.187920e-01,3.871580e-01,3,3,5.618388e-01,5.618386e-01
4.187400e-01,3.819010e-01,3,3,3.495964e-01,3.495964e-01
4.241270e-01,3.824510e-01,3,3,3.592869e-01,3.592868e-01
4.235870e-01,3.823540e-01,3,3,4.280375e-01,4.280374e-01
4.235870e-01,3.826670e-01,3,3,3.779338e-01,3.779338e-01
4.187480e-01,3.878470e-01,3,3,4.555058e-01,4.555058e-01
4.188180e-01,3.873870e-01,3,3,5.577085e-01,5.577084e-01
4.191720e-01,3.827970e-01,3,3,4.481921e-01,4.481920e-01
4.242050e-01,3.829660e-01,3,3,4.443838e-01,4.443837e-01
4.241540e-01,3.824370e-01,3,3,5.393824e-01,5.393822e-01
4.189060e-01,3.878980e-01,3,3,6.312316e-01,6.312314e-01
4.188810e-01,3.873370e-01,3,3,9.205165e-01,9.205163e-01
4.187630e-01,3.822560e-01,3,3,6.345202e-01,6.345202e-01
4.229070e-01,3.827970e-01,3,3,5.539466e-01,5.539464e-01
4.237020e-01,3.829180e-01,3,3,5.765081e-01,5.765080e-01
4.190690e-01,3.871750e-01,3,3,6.578870e-01,6.578870e-01
4.187410e-01,3.871060e-01,3,3,5.534815e-01,5.534815e-01
4.188210e-01,3.827980e-01,3,3,9.484619e-01,9.484615e-01
4.247760e-01,3.828320e-01,3,3,7.298599e-01,7.298599e-01
4.245510e-01,3.829070e-01,3,3,7.465294e-01,7.465294e-01
4.186260e-01,3.882170e-01,3,3,7.507962e-01,7.507961e-01
4.190810e-01,3.879340e-01,3,3,6.817459e-01,6.817458e-01
4.189610e-01,3.826920e-01,3,3,4.901159e-01,4.901159e-01
4.239130e-01,3.827810e-01,3,3,5.921281e-01,5.921280e-01
4.355130e-01,3.827680e-01,3,3,6.727251e-01,6.727250e-01
4.248530e-01,3.828490e-01,3,3,4.880306e-01,4.880306e-01
4.195110e-01,3.878900e-01,3,3,8.279034e-01,8.279031e-01
4.189550e-01,3.884960e-01,3,3,6.131676e-01,6.131676e-01
4.188800e-01,3.827100e-01,3,3,5.265205e-01,5.265205e-01
4.241230e-01,3.824690e-01,3,3,5.088590e-01,5.088590e-01
4.239130e-01,3.829820e-01,3,3,3.969120e-01,3.969118e-01
4.192590e-01,3.879200e-01,3,3,2.762960e-01,2.762959e-01
4.191030e-01,3.872590e-01,3,3,4.978548e-01,4.978547e-01
4.182780e-01,3.821980e-01,3,3,4.210892e-01,4.210892e-01
4.246310e-01,3.822650e-01,3,3,4.279700e-01,4.279700e-01
4.247700e-01,3.824350e-01,3,3,4.182497e-01,4.182497e-01
4.185040e-01,3.873220e-01,3,3,3.543472e-01,3.543471e-01
4.188490e-01,3.876430e-01,3,3,4.322884e-01,4.322884e-01
4.185000e-01,3.819870e-01,3,3,3.281681e-01,3.281680e-01
4.238360e-01,3.819880e-01,3,3,1.257821e+00,1.257820e+00
4.243840e-01,3.822560e-01,3,3,2.742537e+00,2.742536e+00
4.182380e-01,3.884000e-01,3,3,2.134744e+00,2.134744e+00
4.190390e-01,3.890890e-01,3,3,1.555064e+00,1.555064e+00
4.193110e-01,3.876310e-01,3,3,1.114300e+00,1.114300e+00
4.196400e-01,3.826260e-01,3,3,1.267583e+00,1.267582e+00
4.239670e-01,3.827940e-01,3,3,1.013176e+00,1.013176e+00
4.249140e-01,3.822260e-01,3,3,1.003273e+00,1.003273e+00
4.193360e-01,3.877960e-01,3,3,1.120686e+00,1.120685e+00
4.189010e-01,3.872660e-01,3,3,1.208034e+00,1.208033e+00
4.189550e-01,3.826500e-01,3,3,1.116001e+00,1.116001e+00
4.233380e-01,3.828160e-01,3,3,1.282012e+00,1.282012e+00
4.249720e-01,3.825010e-01,3,3,1.768272e+00,1.768271e+00
4.186530e-01,3.879470e-01,3,3,1.402028e+00,1.402029e+00
4.188920e-01,3.880210e-01,3,3,1.025092e+00,1.025092e+00
4.305660e-01,3.836350e-01,3,3,6.593292e-01,6.593293e-01
4.253340e-01,3.823390e-01,3,3,4.606536e-01,4.606536e-01
4.242040e-01,3.826260e-01,3,3,3.524187e-01,3.524187e-01
4.186280e-01,3.884640e-01,3,3,4.960515e-01,4.960513e-01
4.188210e-01,3.880350e-01,3,3,3.668235e-01,3.668235e-01
4.191160e-01,3.823400e-01,3,3,5.251833e-01,5.251833e-01
4.241070e-01,3.828690e-01,3,3,5.437236e-01,5.437236e-01
4.241740e-01,3.830230e-01,3,3,5.191680e-01,5.191680e-01
4.235890e-01,3.828930e-01,3,3,6.627464e-01,6.627463e-01
4.187920e-01,3.877540e-01,3,3,3.909010e-01,3.909010e-01
4.191620e-01,3.876710e-01,3,3,3.016423e-01,3.016423e-01
4.189340e-01,3.822380e-01,3,3,1.002091e+00,1.002091e+00
4.236260e-01,3.826260e-01,3,3,1.093279e+00,1.093279e+00
4.242310e-01,3.832340e-01,3,3,5.362180e-01,5.362181e-01
4.188950e-01,3.874990e-01,3,3,5.961707e-01,5.961707e-01
4.188890e-01,3.873030e-01,3,3,5.419457e-01,5.419456e-01
4.185150e-01,3.821760e-01,3,3,6.077994e-01,6.077993e-01
4.241930e-01,3.831960e-01,3,3,2.971781e-01,2.971782e-01
4.239430e-01,3.825580e-01,3,3,2.040109e-01,2.040108e-01
4.190350e-01,3.876040e-01,3,3,3.827939e-01,3.827938e-01
4.186290e-01,3.874870e-01,3,3,5.329205e-01,5.329205e-01
4.184380e-01,3.821810e-01,3,3,7.166409e-01,7.166408e-01
4.240590e-01,3.822610e-01,3,3,4.506404e-01,4.506403e-01
4.237440e-01,3.825800e-01,3,3,4.308090e-01,4.308089e-01
4.191450e-01,3.877460e-01,3,3,6.218864e-01,6.218862e-01
4.186510e-01,3.877490e-01,3,3,9.787901e-01,9.787900e-01
4.191640e-01,3.826260e-01,3,3,1.116791e+00,1.116791e+00
4.236720e-01,3.828590e-01,3,3,1.540904e+00,1.540904e+00
4.240900e-01,3.822500e-01,3,3,1.475718e+00,1.475718e+00
4.240220e-01,3.825960e-01,3,3,2.271338e+00,2.271340e+00
4.186240e-01,3.876750e-01,3,3,9.813099e-01,9.813103e-01
4.186200e-01,3.874700e-01,3,3,8.421965e-01,8.421965e-01
4.187630e-01,3.823010e-01,3,3,1.248222e+00,1.248222e+00
4.238220e-01,3.826300e-01,3,3,6.708158e-01,6.708159e-01
4.231670e-01,3.826670e-01,3,3,5.824210e-01,5.824210e-01
4.180300e-01,3.873230e-01,3,3,4.992677e-01,4.992676e-01
4.180660e-01,3.877240e-01,3,3,3.472349e-01,3.472350e-01
4.183840e-01,3.823930e-01,3,3,6.987594e-01,6.987591e-01
4.236800e-01,3.822760e-01,3,3,5.471631e-01,5.471631e-01
4.236580e-01,3.830730e-01,3,3,3.170678e-01,3.170678e-01
4.188010e-01,3.869080e-01,3,3,5.217454e-01,5.217452e-01
4.189450e-01,3.877620e-01,3,3,3.842854e-01,3.842854e-01
4.188120e-01,3.823070e-01,3,3,2.140727e-01,2.140727e-01
4.237870e-01,3.824860e-01,3,3,2.387965e-01,2.387965e-01
4.234430e-01,3.829450e-01,3,3,2.955949e-01,2.955948e-01
4.188270e-01,3.871680e-01,3,3,4.694231e-01,4.694230e-01
4.187270e-01,3.883080e-01,3,3,9.842172e-01,9.842169e-01
4.191220e-01,3.826290e-01,3,3,6.232691e-01,6.232688e-01
4.242000e-01,3.824610e-01,3,3,1.098332e+00,1.098331e+00
4.239440e-01,3.828250e-01,3,3,4.853319e-01,4.853321e-01
4.237870e-01,3.825860e-01,3,3,4.187908e-01,4.187908e-01
4.186100e-01,3.880460e-01,3,3,2.720649e-01,2.720649e-01
4.187230e-01,3.876760e-01,3,3,2.441733e-01,2.441733e-01
4.186730e-01,3.824080e-01,3,3,7.164640e-01,7.164637e-01
4.239810e-01,3.823460e-01,3,3,7.442926e-01,7.442925e-01
4.232810e-01,3.832500e-01,3,3,1.152313e+00,1.152312e+00
4.181710e-01,3.873960e-01,3,3,1.193370e+00,1.193370e+00
4.185130e-01,3.874200e-01,3,3,1.380567e+00,1.380567e+00
4.186350e-01,3.824110e-01,3,3,2.239501e+00,2.239501e+00
4.236550e-01,3.825180e-01,3,3,2.529364e+00,2.529364e+00
4.244140e-01,3.833170e-01,3,3,1.942816e+00,1.942816e+00
4.191860e-01,3.881380e-01,3,3,1.766978e+00,1.766978e+00
4.296010e-01,3.896140e-01,3,3,2.333588e+00,2.333588e+00
4.192260e-01,3.824900e-01,3,3,1.662287e+00,1.662287e+00
4.239030e-01,3.821540e-01,3,3,1.406041e+00,1.406041e+00
4.250130e-01,3.828110e-01,3,3,1.309667e+00,1.309667e+00
4.231200e-01,3.831920e-01,3,3,1.353551e+00,1.353551e+00
4.188960e-01,3.873540e-01,3,3,1.446554e+00,1.446554e+00
4.187530e-01,3.875430e-01,3,3,1.149410e+00,1.149410e+00
4.196230e-01,3.833440e-01,3,3,1.202724e+00,1.202724e+00
4.232290e-01,3.829460e-01,3,3,1.600580e+00,1.600579e+00
4.241320e-01,3.830480e-01,3,3,1.799590e+00,1.799590e+00
4.184650e-01,3.876970e-01,3,3,1.192503e+00,1.192503e+00
4.186990e-01,3.893390e-01,3,3,1.158590e+00,1.158590e+00
4.189880e-01,3.829160e-01,3,3,7.133188e-01,7.133191e-01
4.237360e-01,3.828790e-01,3,3,6.901438e-01,6.901438e-01

