2.136663e+00,2.820676e+02,2.813141e+02,2,254,0.000000e+00,-9.094947e-13,1
3.109786e+00,9.823540e-01,9.427071e-01,3,0,5.450757e-01,5.450770e-01,1
3.115707e+00,9.880430e-01,9.648800e-01,3,0,8.497515e-01,8.497526e-01,1
3.113398e+00,1.041047e+00,1.015186e+00,3,0,4.046805e+00,4.046813e+00,1
3.111548e+00,1.066145e+00,1.039028e+00,3,0,2.366015e+00,2.366017e+00,1
3.110085e+00,1.013522e+00,9.880066e-01,3,0,2.956492e+00,2.956496e+00,1
3.059372e+00,2.759628e+00,2.721786e+00,3,0,9.709669e+00,1.444031e+01,0
5.050981e+00,2.698780e+00,2.666950e+00,5,0,1.484922e+01,3.104963e+01,0
5.116213e+00,4.715652e+00,4.690886e+00,5,4,1.305061e+01,1.303990e+01,1
4.159984e+00,4.372181e+00,4.339933e+00,4,1,1.970916e+01,2.876316e+01,0
6.209363e+00,8.140849e+00,8.109093e+00,6,6,1.511175e+01,1.543093e+01,0
6.286089e+00,1.004772e+01,1.001191e+01,6,8,1.786731e+01,1.885381e+01,0
5.215231e+00,8.191996e+00,8.167028e+00,5,9,1.532642e+01,1.525650e+01,1
6.191017e+00,4.493517e+00,4.467964e+00,6,4,1.433380e+01,1.434721e+01,1
4.149076e+00,9.362418e+00,9.327888e+00,4,7,1.556039e+01,1.583383e+01,0
5.167168e+00,7.568902e+00,7.542849e+00,5,8,1.202677e+01,1.205653e+01,1
3.106859e+00,2.816327e+00,2.790689e+00,3,2,1.006792e+01,1.009505e+01,1
3.107465e+00,3.780943e+00,3.758192e+00,3,3,1.057803e+01,1.058225e+01,1
3.105895e+00,1.998129e+00,1.974106e+00,3,1,1.163352e+01,1.163792e+01,1
3.102299e+00,3.497287e+00,3.466129e+00,3,0,1.820202e+01,2.651063e+01,0
4.137568e+00,3.497792e+00,3.467798e+00,4,1,1.933521e+01,2.509939e+01,0
5.165022e+00,2.947427e+00,2.921104e+00,5,2,1.559906e+01,1.559229e+01,1
4.147470e+00,2.931097e+00,2.906084e+00,4,2,1.508712e+01,1.509019e+01,1
3.139961e+00,2.805271e+00,2.780199e+00,3,2,1.710643e+01,1.710978e+01,1
4.134068e+00,4.564997e+00,4.540682e+00,4,4,1.303371e+01,1.303574e+01,1
3.120914e+00,1.112065e+01,1.108789e+01,3,9,1.067412e+01,1.112730e+01,0
3.136886e+00,3.475384e+00,3.443480e+00,3,0,9.224788e+00,1.016072e+01,0
3.113281e+00,3.479386e+00,3.448009e+00,3,0,1.061000e+01,2.964345e+01,0
4.139206e+00,6.375365e+00,6.350040e+00,4,7,6.368629e+00,6.368630e+00,1
3.097064e+00,1.003635e+00,9.739399e-01,3,0,6.403026e+00,6.402758e+00,1
5.192610e+00,4.296814e+00,4.275084e+00,5,4,8.319243e+00,8.322192e+00,1
4.157635e+00,3.562908e+00,3.538132e+00,4,3,6.552458e+00,6.552462e+00,1
3.105224e+00,1.769609e+00,1.747131e+00,3,1,4.848935e+00,4.848937e+00,1
3.105304e+00,9.786310e-01,9.546280e-01,3,0,5.662966e+00,5.662970e+00,1
3.103504e+00,1.976097e+00,1.953840e+00,3,1,4.838683e+00,4.839384e+00,1
3.106854e+00,3.038072e+00,3.012896e+00,3,2,4.101404e+00,4.128775e+00,1
3.132936e+00,4.123365e+00,4.099846e+00,3,3,3.970659e+00,3.985941e+00,1
3.112836e+00,3.372786e+00,3.348112e+00,3,2,5.467975e+00,5.478488e+00,1
3.140249e+00,3.065221e+00,3.041029e+00,3,2,3.695791e+00,3.696427e+00,1
3.096937e+00,1.772177e+00,1.747847e+00,3,1,3.572147e+00,3.572151e+00,1
3.114726e+00,8.959378e+00,8.936167e+00,3,9,7.846148e+00,8.125305e+00,1
3.125397e+00,1.275831e+01,1.273203e+01,3,14,5.778232e+00,5.814277e+00,1
3.115572e+00,7.169637e+00,7.143974e+00,3,7,6.716495e+00,6.862522e+00,1
3.146005e+00,6.552293e+00,6.527901e+00,3,7,3.914634e+00,3.914633e+00,1
3.118008e+00,2.004116e+00,1.979113e+00,3,1,5.278483e+00,5.278643e+00,1
3.124548e+00,1.782898e+00,1.759052e+00,3,1,4.348288e+00,4.348288e+00,1
3.116306e+00,2.895715e+00,2.872944e+00,3,2,6.066090e+00,6.069377e+00,1
3.103242e+00,3.068159e+00,3.043890e+00,3,2,5.638941e+00,5.638978e+00,1
3.107955e+00,3.869993e+00,3.843069e+00,3,3,5.712159e+00,5.714400e+00,1
3.117668e+00,6.039982e+00,6.016016e+00,3,5,6.271564e+00,6.281619e+00,1
4.156024e+00,2.764471e+00,2.741098e+00,4,2,4.516628e+00,4.546259e+00,1
3.105026e+00,2.148170e+00,2.124071e+00,3,1,3.789953e+00,3.790520e+00,1
3.100972e+00,2.291950e+00,2.270222e+00,3,1,3.910801e+00,3.918689e+00,1
3.108633e+00,2.311685e+00,2.289057e+00,3,1,3.288449e+00,3.299402e+00,1
3.137527e+00,5.846791e+00,5.824089e+00,3,5,5.645675e+00,5.659782e+00,1
4.155701e+00,1.445199e+01,1.441979e+01,4,13,1.256837e+01,1.849105e+01,0
6.254182e+00,1.229824e+01,1.227188e+01,6,14,7.512024e+00,7.734372e+00,1
3.134652e+00,5.356696e+00,5.331039e+00,3,5,5.827810e+00,6.051423e+00,1
3.132568e+00,4.417098e+00,4.391909e+00,3,4,3.954223e+00,3.954222e+00,1
3.128933e+00,1.018822e+00,9.930134e-01,3,0,3.092365e+00,3.092367e+00,1
3.097668e+00,9.974760e-01,9.739399e-01,3,0,2.689136e+00,2.689139e+00,1
3.093280e+00,9.736400e-01,9.510517e-01,3,0,1.860104e+00,1.860105e+00,1
3.094768e+00,9.773360e-01,9.567738e-01,3,0,1.254181e+00,1.254182e+00,1
3.107253e+00,9.943350e-01,9.701252e-01,3,0,1.783818e+00,1.783820e+00,1
3.106904e+00,9.954770e-01,9.727478e-01,3,0,2.097576e+00,2.097578e+00,1
3.102631e+00,9.972540e-01,9.748936e-01,3,0,2.153631e+00,2.153634e+00,1
3.099473e+00,1.978243e+00,1.956940e+00,3,1,2.046182e+00,2.046223e+00,1
3.096939e+00,1.810690e+00,1.785994e+00,3,1,1.965148e+00,1.965149e+00,1
3.101548e+00,1.644317e+00,1.621008e+00,3,1,2.850386e+00,2.850128e+00,1
6.179042e+00,1.989784e+00,1.965046e+00,6,1,4.514371e+00,4.522449e+00,1
4.137933e+00,3.090219e+00,3.067017e+00,4,2,3.872747e+00,3.879689e+00,1
3.113054e+00,2.893148e+00,2.865076e+00,3,2,5.434165e+00,5.434170e+00,1
3.117798e+00,8.375322e+00,8.350134e+00,3,8,1.131025e+01,1.137144e+01,1
3.107769e+00,7.730934e+00,7.707119e+00,3,8,1.255029e+01,1.268819e+01,1
4.126331e+00,1.178359e+01,1.176286e+01,4,13,1.283117e+01,1.294580e+01,1
4.136357e+00,8.623247e+00,8.602858e+00,4,9,1.121280e+01,1.123867e+01,1
3.096048e+00,5.148101e+00,5.128622e+00,3,5,1.064818e+01,1.065368e+01,1
3.091874e+00,4.523606e+00,4.503965e+00,3,4,7.635727e+00,7.652599e+00,1
3.092256e+00,2.245916e+00,2.227068e+00,3,1,8.253231e+00,8.294891e+00,1
3.092480e+00,4.199795e+00,4.173040e+00,3,1,7.315795e+00,9.156008e+00,0
3.091625e+00,3.018073e+00,2.998829e+00,3,2,5.330206e+00,5.341583e+00,1
3.101656e+00,1.170105e+00,1.151085e+00,3,0,4.381570e+00,4.382490e+00,1
3.092182e+00,1.718437e+00,1.698971e+00,3,1,4.316967e+00,4.316969e+00,1
3.092874e+00,9.593810e-01,9.410381e-01,3,0,4.827614e+00,4.827619e+00,1
3.086546e+00,2.675468e+00,2.648115e+00,3,0,7.637470e+00,1.039924e+01,0
6.168650e+00,2.243494e+00,2.224207e+00,6,2,5.865727e+00,5.858441e+00,1
6.182172e+00,4.146419e+00,4.119873e+00,6,1,1.107733e+01,1.691911e+01,0
6.171124e+00,3.397423e+00,3.368855e+00,6,0,1.030992e+01,9.397277e+00,0
6.165210e+00,2.328671e+00,2.310038e+00,6,2,8.664904e+00,8.637749e+00,1
6.187926e+00,5.015091e+00,4.986048e+00,6,2,1.702480e+01,2.644493e+01,0
5.149178e+00,5.089678e+00,5.062819e+00,5,2,1.395111e+01,1.468377e+01,0
4.118519e+00,3.262787e+00,3.243208e+00,4,3,6.790398e+00,6.790391e+00,1
3.088596e+00,9.478770e-01,9.300709e-01,3,0,5.524123e+00,5.524124e+00,1
3.095412e+00,2.858496e+00,2.839088e+00,3,2,5.084188e+00,5.104229e+00,1
3.110831e+00,2.384557e+01,2.381897e+01,3,24,8.304449e+00,1.008258e+01,0
6.240342e+00,1.979856e+01,1.977015e+01,6,23,7.492377e+00,7.704089e+00,1
6.273895e+00,1.907973e+01,1.904202e+01,6,22,7.277722e+00,7.406413e+00,1
4.114120e+00,1.319512e+01,1.316476e+01,4,14,1.101538e+01,1.179079e+01,1
6.114393e+00,2.248454e+01,2.245903e+01,6,27,1.270921e+01,1.337053e+01,1
6.170402e+00,4.264844e+00,4.218817e+00,6,1,1.912797e+01,3.074650e+01,0
6.122295e+00,3.421232e+00,3.385305e+00,6,0,2.306676e+01,3.917156e+01,0
6.131012e+00,9.723714e+00,9.690285e+00,6,8,2.333985e+01,2.990019e+01,0
5.169932e+00,3.497475e+01,3.494692e+01,5,43,1.717790e+01,1.726768e+01,1
5.142878e+00,1.796348e+01,1.793694e+01,5,21,1.540585e+01,1.542232e+01,1
4.133281e+00,1.093725e+01,1.090813e+01,4,12,1.195696e+01,1.195883e+01,1
3.046486e+00,3.653744e+00,3.629208e+00,3,3,1.059177e+01,1.059214e+01,1
3.047718e+00,4.190262e+00,4.159451e+00,3,2,8.385870e+00,1.191954e+01,0
4.094664e+00,2.673121e+00,2.641916e+00,4,0,1.578430e+01,5.861396e+01,0
6.105267e+00,2.722660e+00,2.690077e+00,6,0,1.587098e+01,5.909871e+01,0
6.136024e+00,2.745031e+00,2.713919e+00,6,0,1.153786e+01,3.235945e+01,0
6.064643e+00,2.714612e+00,2.683878e+00,6,0,1.298167e+01,4.301297e+01,0
6.124742e+00,2.723648e+00,2.691746e+00,6,0,1.325771e+01,4.357277e+01,0
4.136686e+00,2.802954e+00,2.767801e+00,4,0,9.750028e+00,2.481476e+01,0
6.210517e+00,3.568460e+00,3.541231e+00,6,3,7.551631e+00,7.544538e+00,1
4.151784e+00,4.233409e+00,4.204035e+00,4,4,4.000047e+00,4.013502e+00,1
3.108696e+00,1.797642e+00,1.772881e+00,3,1,3.803829e+00,3.803818e+00,1
3.107678e+00,1.018076e+00,9.939671e-01,3,0,2.399842e+00,2.399842e+00,1
3.094401e+00,9.903230e-01,9.670258e-01,3,0,3.070039e+00,3.070043e+00,1
3.105905e+00,9.969070e-01,9.739399e-01,3,0,2.691720e+00,2.691721e+00,1
3.099274e+00,9.869490e-01,9.651184e-01,3,0,8.434360e+00,8.434379e+00,1
3.102339e+00,2.728842e+00,2.699137e+00,3,0,1.133240e+01,1.345802e+01,0
3.105223e+00,2.715523e+00,2.685070e+00,3,0,1.379740e+01,1.977382e+01,0
4.138701e+00,2.718493e+00,2.687454e+00,4,0,2.324110e+01,5.043846e+01,0
6.189116e+00,2.751559e+00,2.717018e+00,6,0,2.670562e+01,6.024926e+01,0
6.197794e+00,7.488108e+00,7.454872e+00,6,5,2.134981e+01,2.558964e+01,0
4.160865e+00,5.699250e+00,5.673170e+00,4,6,1.197333e+01,1.198035e+01,1
3.045863e+00,1.266535e+01,1.264000e+01,3,13,1.014619e+01,1.058039e+01,1
3.103560e+00,9.209184e+00,9.175539e+00,3,7,1.013095e+01,1.766442e+01,0
3.090583e+00,3.439241e+00,3.407955e+00,3,0,1.008529e+01,2.650699e+01,0
6.181048e+00,3.453872e+00,3.419638e+00,6,0,1.601310e+01,5.345798e+01,0
6.113982e+00,3.429475e+00,3.385782e+00,6,0,1.870983e+01,6.701245e+01,0
4.119071e+00,3.439307e+00,3.395081e+00,4,0,1.691122e+01,5.088634e+01,0
4.082019e+00,2.481343e+01,2.478123e+01,4,26,1.350374e+01,2.808010e+01,0
6.110606e+00,3.470439e+00,3.425837e+00,6,0,1.323687e+01,2.619539e+01,0
6.107388e+00,4.325588e+00,4.294872e+00,6,1,1.370756e+01,2.493502e+01,0
4.087446e+00,3.416283e+00,3.384829e+00,4,0,1.382841e+01,2.059450e+01,0
4.070790e+00,1.213855e+01,1.211405e+01,4,14,8.098864e+00,8.101066e+00,1
3.129727e+00,3.686800e+00,3.661156e+00,3,3,6.986361e+00,6.989086e+00,1
3.041312e+00,3.442762e+00,3.411055e+00,3,0,9.991161e+00,2.068256e+01,0
4.083773e+00,3.417473e+00,3.385544e+00,4,0,1.213060e+01,3.424168e+01,0
6.145234e+00,3.457500e+00,3.409863e+00,6,0,1.386893e+01,4.255344e+01,0
6.145956e+00,5.011863e+00,4.979134e+00,6,2,7.157347e+00,1.458332e+01,0
4.118571e+00,3.763570e+00,3.720999e+00,4,3,5.781608e+00,5.900539e+00,1
5.122457e+00,5.371371e+00,5.331039e+00,5,5,5.214404e+00,5.213893e+00,1
4.087393e+00,2.599044e+00,2.576113e+00,4,2,5.241200e+00,5.241200e+00,1
3.094545e+00,4.221700e+00,4.189253e+00,3,1,9.196903e+00,9.734948e+00,0
3.115061e+00,1.721034e+00,1.698017e+00,3,1,9.436805e+00,9.436750e+00,1
3.093929e+00,2.701774e+00,2.670765e+00,3,0,1.457750e+01,2.096291e+01,0
4.117224e+00,2.699611e+00,2.666950e+00,4,0,1.664475e+01,1.932848e+01,0
6.156183e+00,2.735962e+00,2.704382e+00,6,0,2.173249e+01,3.361476e+01,0
5.121384e+00,2.890852e+00,2.866983e+00,5,2,1.384535e+01,1.387954e+01,1
4.129497e+00,3.554559e+00,3.527880e+00,4,3,1.106077e+01,1.106104e+01,1
3.086353e+00,1.748687e+00,1.724958e+00,3,1,1.001140e+01,1.001140e+01,1
3.069255e+00,3.587553e+00,3.564119e+00,3,3,1.164697e+01,1.164868e+01,1
4.075981e+00,5.978003e+00,5.954266e+00,4,6,7.823037e+00,7.833420e+00,1
3.075456e+00,3.322435e+00,3.296137e+00,3,3,6.439237e+00,6.439239e+00,1
3.118911e+00,1.918618e+00,1.896143e+00,3,1,4.895899e+00,4.895957e+00,1
3.062148e+00,1.741409e+00,1.717806e+00,3,1,4.165542e+00,4.165544e+00,1
3.071054e+00,6.514796e+00,6.490946e+00,3,6,5.481054e+00,5.533033e+00,1
3.099453e+00,6.848432e+00,6.822824e+00,3,7,4.254516e+00,4.264179e+00,1
3.059671e+00,1.992295e+00,1.969099e+00,3,1,4.547854e+00,4.554509e+00,1
3.049197e+00,4.547031e+00,4.523039e+00,3,4,3.702055e+00,3.725887e+00,1
3.046301e+00,7.322096e+00,7.297993e+00,3,7,5.233476e+00,5.345188e+00,1
4.127290e+00,7.014164e+00,6.989956e+00,4,7,3.827416e+00,3.837920e+00,1
3.075086e+00,1.155953e+01,1.153302e+01,3,12,7.509623e+00,7.719825e+00,1
6.180684e+00,9.860420e+00,9.836197e+00,6,11,7.319059e+00,7.325086e+00,1
4.044878e+00,6.614630e+00,6.588221e+00,4,7,2.872185e+00,2.872181e+00,1
3.092818e+00,1.775561e+00,1.752138e+00,3,1,3.455550e+00,3.455538e+00,1
3.066781e+00,9.778790e-01,9.548664e-01,3,0,4.734358e+00,4.734334e+00,1
3.039441e+00,9.610640e-01,9.381771e-01,3,0,5.417697e+00,5.417701e+00,1
3.126531e+00,1.024267e+00,1.001120e+00,3,0,5.429119e+00,5.429121e+00,1
3.106920e+00,2.011329e+00,1.984119e+00,3,1,4.391548e+00,4.392429e+00,1
3.162242e+00,3.868287e+00,3.839016e+00,3,3,3.526833e+00,3.534394e+00,1
3.136070e+00,3.438048e+00,3.407717e+00,3,2,3.690044e+00,3.705414e+00,1
3.165250e+00,2.074901e+00,2.049923e+00,3,1,4.070311e+00,4.070324e+00,1
3.110899e+00,3.726577e+00,3.702164e+00,3,3,5.026005e+00,5.026852e+00,1
3.113000e+00,4.266113e+00,4.233122e+00,3,1,6.030177e+00,8.511790e+00,0
3.108772e+00,1.775674e+00,1.749992e+00,3,1,4.154511e+00,4.154509e+00,1
3.106258e+00,2.012475e+00,1.986980e+00,3,1,4.056330e+00,4.056656e+00,1
3.100674e+00,1.225621e+00,1.200914e+00,3,0,5.452877e+00,5.452839e+00,1
3.112892e+00,1.768616e+00,1.745224e+00,3,1,3.028690e+00,3.028677e+00,1
3.103320e+00,9.908750e-01,9.679794e-01,3,0,3.369588e+00,3.369591e+00,1
3.102524e+00,9.887740e-01,9.670258e-01,3,0,3.090359e+00,3.090361e+00,1
3.103968e+00,2.002443e+00,1.978159e+00,3,1,4.373447e+00,4.373601e+00,1
3.100127e+00,1.775025e+00,1.750231e+00,3,1,3.048426e+00,3.048425e+00,1
3.104515e+00,9.839140e-01,9.601116e-01,3,0,4.136632e+00,4.136637e+00,1
3.094849e+00,9.948090e-01,9.710789e-01,3,0,5.554312e+00,5.554316e+00,1
3.101580e+00,9.848870e-01,9.620190e-01,3,0,3.419481e+00,3.419480e+00,1
3.100354e+00,9.910260e-01,9.682178e-01,3,0,3.963874e+00,3.963819e+00,1
3.098741e+00,1.968356e+00,1.945019e+00,3,1,3.355042e+00,3.355163e+00,1
3.106062e+00,1.764871e+00,1.742125e+00,3,1,3.134353e+00,3.134355e+00,1
3.096519e+00,9.901640e-01,9.679794e-01,3,0,2.000154e+00,2.000155e+00,1
3.123131e+00,2.909448e+00,2.886057e+00,3,2,3.819551e+00,3.824149e+00,1
3.117477e+00,9.764384e+00,9.738922e+00,3,10,7.297808e+00,7.484645e+00,1
4.084388e+00,1.177277e+01,1.174784e+01,4,13,3.266075e+00,3.270759e+00,1
3.049700e+00,2.751717e+00,2.725124e+00,3,2,4.960780e+00,4.961177e+00,1
3.051564e+00,5.197670e+00,5.172014e+00,3,5,4.994996e+00,4.995183e+00,1
4.095914e+00,4.422471e+00,4.396915e+00,4,4,4.562487e+00,4.566319e+00,1
3.075233e+00,1.218818e+00,1.194000e+00,3,0,3.151901e+00,3.215784e+00,1
3.076092e+00,2.293224e+00,2.268076e+00,3,1,2.896736e+00,2.923050e+00,1
3.048942e+00,1.971202e+00,1.946926e+00,3,1,2.570680e+00,2.610997e+00,1
3.080969e+00,4.965337e+00,4.941940e+00,3,4,7.230299e+00,7.293514e+00,1
3.041307e+00,3.514785e+00,3.491163e+00,3,3,4.644650e+00,4.679949e+00,1
3.096233e+00,1.189847e+00,1.165867e+00,3,0,3.970945e+00,3.987685e+00,1
4.048846e+00,2.781145e+00,2.758026e+00,4,2,4.708516e+00,4.707955e+00,1
6.058339e+00,1.738990e+00,1.714945e+00,6,1,5.483685e+00,5.470329e+00,1
6.081540e+00,1.592755e+00,1.569986e+00,6,1,5.817496e+00,5.799581e+00,1
4.068922e+00,1.633167e+00,1.609087e+00,4,1,2.385222e+00,2.385219e+00,1
3.060493e+00,9.929050e-01,9.710789e-01,3,0,1.645499e+00,1.645502e+00,1
3.041686e+00,1.987168e+00,1.964092e+00,3,1,4.184161e+00,4.190066e+00,1
3.063762e+00,1.773312e+00,1.749992e+00,3,1,2.882191e+00,2.882195e+00,1
3.045854e+00,2.685584e+00,2.661705e+00,3,2,5.514100e+00,5.516127e+00,1
4.099664e+00,4.689438e+00,4.663944e+00,4,4,3.934960e+00,3.936966e+00,1
3.069509e+00,2.275576e+00,2.250910e+00,3,1,4.156793e+00,4.156887e+00,1
3.051259e+00,2.891805e+00,2.867937e+00,3,2,3.016599e+00,3.017080e+00,1
3.041709e+00,3.235901e+00,3.211260e+00,3,2,2.372705e+00,2.375081e+00,1
3.075530e+00,1.198597e+00,1.173019e+00,3,0,2.222209e+00,2.243101e+00,1
3.063227e+00,4.054195e+00,4.029989e+00,3,3,2.147558e+00,2.147563e+00,1
3.066570e+00,1.773951e+00,1.750231e+00,3,1,4.108967e+00,4.108980e+00,1
3.073431e+00,2.875368e+00,2.851009e+00,3,2,2.490591e+00,2.514075e+00,1
3.076077e+00,2.497075e+00,2.473593e+00,3,2,1.517098e+00,1.517099e+00,1
3.066385e+00,9.596200e-01,9.360313e-01,3,0,1.220818e+00,1.220819e+00,1
3.035788e+00,9.679260e-01,9.450912e-01,3,0,1.906964e+00,1.906966e+00,1
3.038431e+00,3.570509e+00,3.546715e+00,3,3,5.451357e+00,5.468442e+00,1
6.134825e+00,3.681970e+00,3.659010e+00,6,3,6.057194e+00,6.041843e+00,1
6.146878e+00,4.498714e+00,4.472971e+00,6,4,6.632629e+00,6.659782e+00,1
6.160778e+00,1.122513e+01,1.119184e+01,6,9,2.049419e+01,4.277066e+01,0
4.096203e+00,3.427916e+00,3.394127e+00,4,0,1.688464e+01,2.260114e+01,0
4.120674e+00,2.178932e+01,2.176523e+01,4,25,1.441620e+01,1.492384e+01,1
3.082564e+00,9.309295e+00,9.283066e+00,3,10,1.375311e+01,1.404643e+01,1
3.068739e+00,4.276285e+00,4.251957e+00,3,4,1.229929e+01,1.231707e+01,1
3.112206e+00,8.686082e+00,8.661032e+00,3,9,1.192961e+01,1.193864e+01,1
4.098216e+00,4.056971e+00,4.033089e+00,4,4,9.682659e+00,9.682652e+00,1
3.059577e+00,9.947620e-01,9.698868e-01,3,0,1.078113e+01,1.078114e+01,1
3.117329e+00,9.854910e-01,9.629726e-01,3,0,7.343836e+00,7.343833e+00,1
3.084139e+00,9.584790e-01,9.360313e-01,3,0,8.159098e+00,8.159106e+00,1
3.086216e+00,9.647090e-01,9.422302e-01,3,0,6.899679e+00,6.899679e+00,1
3.095248e+00,9.828470e-01,9.591579e-01,3,0,8.335375e+00,8.335379e+00,1
3.093045e+00,9.723760e-01,9.489059e-01,3,0,7.350035e+00,7.350034e+00,1
3.089143e+00,9.778430e-01,9.529591e-01,3,0,7.104295e+00,7.104295e+00,1
3.063418e+00,1.950327e+00,1.928091e+00,3,1,7.846390e+00,7.846557e+00,1
3.066649e+00,1.745415e+00,1.721859e+00,3,1,6.499192e+00,6.499192e+00,1
3.068804e+00,2.007552e+00,1.982927e+00,3,1,6.469164e+00,6.470828e+00,1
3.120479e+00,2.122551e+00,2.097845e+00,3,1,6.981715e+00,6.985312e+00,1
3.088056e+00,5.667585e+00,5.642176e+00,3,5,4.744403e+00,4.745041e+00,1
3.100177e+00,2.876609e+00,2.851963e+00,3,2,4.366920e+00,4.373631e+00,1
3.047423e+00,2.536141e+00,2.511978e+00,3,2,3.606677e+00,3.606678e+00,1
3.039133e+00,9.921580e-01,9.689331e-01,3,0,5.934600e+00,5.934524e+00,1
4.124913e+00,4.149427e+00,4.119396e+00,4,1,7.532743e+00,9.861944e+00,0
4.105452e+00,1.779246e+00,1.755238e+00,4,1,4.410267e+00,4.410265e+00,1
3.042128e+00,1.999041e+00,1.976013e+00,3,1,3.434629e+00,3.434785e+00,1
3.100431e+00,1.740266e+00,1.715899e+00,3,1,1.512039e+00,1.512041e+00,1
3.081287e+00,9.658010e-01,9.427071e-01,3,0,1.524180e+00,1.524181e+00,1
3.107633e+00,9.607230e-01,9.379387e-01,3,0,1.682162e+00,1.682164e+00,1
3.114898e+00,1.940424e+00,1.917124e+00,3,1,2.399651e+00,2.399701e+00,1
3.090478e+00,1.768620e+00,1.744986e+00,3,1,3.678126e+00,3.678128e+00,1
3.088939e+00,9.842180e-01,9.617805e-01,3,0,3.680146e+00,3.680120e+00,1
3.081206e+00,1.988774e+00,1.965046e+00,3,1,4.092536e+00,4.125305e+00,1
3.045713e+00,3.953200e+00,3.926992e+00,3,3,7.726514e+00,7.737850e+00,1
3.097171e+00,7.088795e+00,7.063150e+00,3,7,8.348093e+00,8.371072e+00,1
4.104889e+00,6.271823e+00,6.247044e+00,4,7,5.728223e+00,5.727706e+00,1
3.067869e+00,1.027125e+00,9.851456e-01,3,0,4.168803e+00,4.168767e+00,1
3.063952e+00,9.943650e-01,9.710789e-01,3,0,4.654079e+00,4.654080e+00,1
3.062382e+00,9.612470e-01,9.391308e-01,3,0,3.972760e+00,3.972762e+00,1
3.069410e+00,9.667650e-01,9.458065e-01,3,0,4.068102e+00,4.068102e+00,1
3.059841e+00,9.564640e-01,9.341240e-01,3,0,3.042857e+00,3.042861e+00,1
3.090670e+00,1.981900e+00,1.958609e+00,3,1,2.611631e+00,2.612862e+00,1
3.095950e+00,2.815763e+00,2.793074e+00,3,2,2.929119e+00,2.929123e+00,1
3.123301e+00,1.936000e+00,1.913071e+00,3,1,2.770189e+00,2.771871e+00,1
3.054386e+00,1.175712e+00,1.152039e+00,3,0,3.635881e+00,3.678297e+00,1
3.053293e+00,2.536699e+00,2.514124e+00,3,2,4.574405e+00,4.574099e+00,1
5.149793e+00,1.622828e+00,1.599073e+00,5,1,3.766090e+00,3.763168e+00,1
3.063615e+00,9.900290e-01,9.660721e-01,3,0,3.634537e+00,3.634462e+00,1
3.070183e+00,9.918050e-01,9.682178e-01,3,0,5.358961e+00,5.358954e+00,1
3.033489e+00,9.833250e-01,9.601116e-01,3,0,5.004326e+00,5.004324e+00,1
3.060775e+00,9.877510e-01,9.651184e-01,3,0,4.580021e+00,4.580023e+00,1
3.056712e+00,9.891160e-01,9.670258e-01,3,0,4.201057e+00,4.201060e+00,1
3.065466e+00,1.954979e+00,1.932144e+00,3,1,5.448349e+00,5.448364e+00,1
3.118281e+00,2.695509e+00,2.666712e+00,3,2,4.464377e+00,4.467099e+00,1
3.064929e+00,1.771727e+00,1.748085e+00,3,1,3.158930e+00,3.158928e+00,1
3.093937e+00,1.004950e+00,9.789467e-01,3,0,3.983789e+00,3.983776e+00,1
3.107373e+00,3.430140e+00,3.407001e+00,3,3,5.045565e+00,5.045086e+00,1
4.069135e+00,3.678337e+00,3.654003e+00,4,3,7.963275e+00,7.964602e+00,1
3.041645e+00,1.221491e+00,1.196623e+00,3,0,4.529775e+00,4.535789e+00,1
3.089462e+00,1.206547e+00,1.183987e+00,3,0,5.293280e+00,5.306848e+00,1
3.069631e+00,2.875029e+00,2.852201e+00,3,2,4.772154e+00,4.952876e+00,1
3.072206e+00,1.976625e+00,1.952887e+00,3,1,6.874522e+00,7.154200e+00,1
3.154979e+00,4.485701e+00,4.452944e+00,3,1,6.070701e+00,7.325125e+00,0
5.116455e+00,4.167189e+00,4.137039e+00,5,1,7.728801e+00,1.186293e+01,0
4.122444e+00,4.297583e+00,4.266024e+00,4,1,8.552407e+00,8.837777e+00,0
3.096121e+00,1.781765e+00,1.757145e+00,3,1,8.132714e+00,8.132717e+00,1
3.078260e+00,9.620740e-01,9.386539e-01,3,0,1.015281e+01,1.015282e+01,1
3.099937e+00,1.998912e+00,1.976252e+00,3,1,9.973614e+00,9.973696e+00,1
3.101145e+00,3.615795e+00,3.591776e+00,3,3,9.932457e+00,9.933345e+00,1
3.116524e+00,2.500210e+00,2.475023e+00,3,2,7.067214e+00,7.067187e+00,1
3.098204e+00,9.991570e-01,9.741783e-01,3,0,6.875280e+00,6.875278e+00,1
3.089223e+00,9.821470e-01,9.586811e-01,3,0,6.770023e+00,6.770025e+00,1
3.089118e+00,1.989327e+00,1.966000e+00,3,1,6.747546e+00,6.747543e+00,1
3.090133e+00,3.649774e+00,3.623962e+00,3,3,4.439739e+00,4.446853e+00,1
3.043055e+00,5.522236e+00,5.497932e+00,3,5,4.812246e+00,4.856080e+00,1
3.070614e+00,4.331625e+00,4.305840e+00,3,4,4.398244e+00,4.402199e+00,1
3.062109e+00,2.745753e+00,2.722025e+00,3,2,2.800855e+00,2.801424e+00,1
3.061702e+00,3.594599e+00,3.570080e+00,3,3,4.077018e+00,4.092804e+00,1
3.070210e+00,4.198729e+00,4.173994e+00,3,4,2.562062e+00,2.562062e+00,1
3.088939e+00,1.964185e+00,1.940966e+00,3,1,2.167024e+00,2.176669e+00,1
3.094978e+00,1.212693e+00,1.189232e+00,3,0,2.459443e+00,2.481598e+00,1
3.131597e+00,1.187219e+00,1.164913e+00,3,0,3.806495e+00,3.853356e+00,1
3.038159e+00,2.259295e+00,2.236128e+00,3,1,3.735995e+00,3.736171e+00,1
3.076133e+00,1.773479e+00,1.749039e+00,3,1,4.700923e+00,4.700921e+00,1
3.107683e+00,1.099670e+01,1.095104e+01,3,9,1.613925e+01,3.189949e+01,0
6.222308e+00,1.160692e+01,1.158214e+01,6,13,8.218535e+00,8.225114e+00,1
3.109653e+00,1.449571e+01,1.446700e+01,3,16,1.039069e+01,1.053732e+01,1
4.097744e+00,8.464747e+00,8.440018e+00,4,9,1.107457e+01,1.151026e+01,1
6.172221e+00,7.510806e+00,7.486105e+00,6,8,8.431058e+00,8.450964e+00,1
4.091893e+00,5.649763e+00,5.625010e+00,4,6,6.310721e+00,6.308572e+00,1
4.096441e+00,4.892409e+00,4.868031e+00,4,5,9.210648e+00,9.226282e+00,1
6.112466e+00,3.251760e+00,3.228188e+00,6,3,7.775863e+00,7.749990e+00,1
4.117458e+00,2.587278e+00,2.564192e+00,4,2,3.978119e+00,3.986775e+00,1
3.060955e+00,1.745729e+00,1.722097e+00,3,1,3.391409e+00,3.391410e+00,1
3.071832e+00,9.872880e-01,9.641647e-01,3,0,3.101079e+00,3.101081e+00,1
3.100639e+00,1.013499e+00,9.899139e-01,3,0,3.203256e+00,3.203258e+00,1
3.086314e+00,9.875400e-01,9.617805e-01,3,0,2.924128e+00,2.924130e+00,1
3.060496e+00,9.704280e-01,9.469986e-01,3,0,6.140659e+00,6.140673e+00,1
3.089486e+00,9.760830e-01,9.520054e-01,3,0,5.075363e+00,5.075364e+00,1
3.086782e+00,9.708780e-01,9.479523e-01,3,0,1.974700e+00,1.974698e+00,1
3.091965e+00,9.803190e-01,9.570122e-01,3,0,3.594112e+00,3.594104e+00,1
3.065533e+00,3.053790e+00,3.026009e+00,3,2,4.252702e+00,4.255640e+00,1
3.089213e+00,2.081344e+00,2.057791e+00,3,1,3.495580e+00,3.517626e+00,1
3.114062e+00,2.285850e+00,2.263069e+00,3,1,1.760011e+00,1.782501e+00,1
3.111938e+00,2.056778e+00,2.030134e+00,3,1,2.612839e+00,2.621366e+00,1
3.139123e+00,2.182227e+00,2.156019e+00,3,1,5.110901e+00,5.221802e+00,1
4.226987e+00,1.978298e+01,1.974607e+01,4,19,1.215503e+01,1.310552e+01,0
6.258023e+00,1.741739e+01,1.739120e+01,6,20,1.044196e+01,1.049512e+01,1
4.153328e+00,5.738601e+00,5.712986e+00,4,6,5.245172e+00,5.245165e+00,1
3.110000e+00,1.012779e+00,9.870529e-01,3,0,4.737579e+00,4.737580e+00,1
3.110459e+00,1.017093e+00,9.732246e-01,3,0,4.277491e+00,4.277492e+00,1
3.097035e+00,1.997348e+00,1.974106e+00,3,1,5.676335e+00,5.730080e+00,1
3.094475e+00,1.219456e+00,1.195908e+00,3,0,6.133450e+00,6.141710e+00,1
3.104843e+00,1.762035e+00,1.739025e+00,3,1,5.043464e+00,5.043465e+00,1
3.090895e+00,9.927950e-01,9.691715e-01,3,0,4.588544e+00,4.588546e+00,1
3.094438e+00,9.887800e-01,9.667873e-01,3,0,4.638864e+00,4.638868e+00,1
3.100315e+00,2.870823e+00,2.846003e+00,3,2,5.813635e+00,5.821955e+00,1
3.109375e+00,6.429683e+00,6.406069e+00,3,6,5.466475e+00,5.475406e+00,1
3.111386e+00,3.690106e+00,3.666162e+00,3,3,4.277301e+00,4.282145e+00,1
3.108748e+00,4.870017e+00,4.846096e+00,3,4,4.348756e+00,4.355610e+00,1
3.095210e+00,5.155645e+00,5.131006e+00,3,5,3.500453e+00,3.504884e+00,1
3.049221e+00,8.985253e+00,8.961916e+00,3,9,6.842123e+00,6.852181e+00,1
4.104701e+00,1.359459e+01,1.356888e+01,4,15,9.996142e+00,1.011730e+01,1
6.132519e+00,9.997909e+00,9.970903e+00,6,10,1.192930e+01,1.207522e+01,1
4.072825e+00,1.195932e+01,1.193190e+01,4,14,6.007559e+00,6.065289e+00,1
3.040220e+00,2.320808e+00,2.296925e+00,3,1,4.196653e+00,4.219227e+00,1
3.069692e+00,1.988635e+00,1.965046e+00,3,1,4.501721e+00,4.505130e+00,1
3.103370e+00,5.250755e+00,5.219936e+00,3,2,6.095023e+00,6.420295e+00,0
3.035741e+00,3.447971e+00,3.397465e+00,3,0,4.985383e+00,9.971251e-01,0
4.112650e+00,3.429084e+00,3.398657e+00,4,0,2.006927e+01,6.258492e+01,0
6.118900e+00,3.450050e+00,3.417969e+00,6,0,3.037562e+01,9.295594e+01,0
6.148092e+00,3.444417e+00,3.413200e+00,6,0,2.371238e+01,6.309205e+01,0
6.104053e+00,3.438410e+00,3.406763e+00,6,0,3.533201e+01,9.514343e+01,0
6.126979e+00,3.486194e+00,3.442764e+00,6,0,3.176180e+01,6.515842e+01,0
6.131402e+00,8.671860e+00,8.623123e+00,6,7,2.529691e+01,3.849431e+01,0
6.108436e+00,3.428942e+00,3.380299e+00,6,0,3.536269e+01,5.658766e+01,0
6.109319e+00,3.476650e+00,3.442764e+00,6,0,3.378093e+01,4.505726e+01,0
6.236092e+00,3.409399e+00,3.376961e+00,6,0,4.544409e+01,6.421786e+01,0
5.155646e+00,9.174800e+00,9.142160e+00,5,7,3.984924e+01,5.435261e+01,0
4.106837e+00,1.207655e+01,1.204276e+01,4,10,3.400880e+01,4.223938e+01,0
4.151676e+00,2.152558e+01,2.149200e+01,4,21,2.399658e+01,3.465743e+01,0
4.149777e+00,3.529812e+00,3.496170e+00,4,0,1.974962e+01,2.556385e+01,0
4.144490e+00,3.482523e+00,3.448963e+00,4,0,1.669649e+01,2.056539e+01,0
3.117660e+00,3.445548e+00,3.411770e+00,3,0,1.631620e+01,3.937569e+01,0
6.186161e+00,3.452246e+00,3.422022e+00,6,0,1.113439e+01,2.104882e+01,0
4.119893e+00,3.466182e+00,3.436089e+00,4,0,9.322096e+00,2.792989e+01,0
6.180741e+00,3.437326e+00,3.406286e+00,6,0,7.982067e+00,2.452177e+01,0
4.139924e+00,1.525725e+01,1.523304e+01,4,18,5.146060e+00,5.146059e+00,1
3.106913e+00,3.758466e+00,3.733158e+00,3,3,4.459114e+00,4.464183e+00,1
3.131802e+00,7.176531e+00,7.150888e+00,3,7,4.224571e+00,4.256498e+00,1
3.109764e+00,3.543884e+00,3.517866e+00,3,3,2.607617e+00,2.608494e+00,1
3.121557e+00,1.182135e+01,1.179600e+01,3,12,6.021270e+00,6.165203e+00,1
4.143736e+00,9.506586e+00,9.477139e+00,4,11,2.465140e+00,2.465138e+00,1
3.128577e+00,2.001294e+00,1.976013e+00,3,1,2.011921e+00,2.011924e+00,1
3.110383e+00,1.285515e+00,1.257896e+00,3,0,2.665910e+00,2.668833e+00,1
3.127303e+00,2.367526e+00,2.341986e+00,3,1,3.465013e+00,3.465217e+00,1
3.116245e+00,2.178121e+00,2.150059e+00,3,1,5.311396e+00,5.311765e+00,1
3.103326e+00,2.577129e+00,2.549648e+00,3,2,2.580746e+00,2.580737e+00,1
3.097938e+00,1.006132e+00,9.820461e-01,3,0,3.337998e+00,3.338002e+00,1
3.103041e+00,9.933660e-01,9.701252e-01,3,0,2.785368e+00,2.785368e+00,1
3.111018e+00,3.848966e+00,3.825188e+00,3,3,6.225128e+00,6.237387e+00,1
3.099573e+00,3.342874e+00,3.319263e+00,3,3,4.228432e+00,4.228429e+00,1
3.100134e+00,9.887970e-01,9.651184e-01,3,0,2.077317e+00,2.077314e+00,1
3.107807e+00,9.928360e-01,9.698868e-01,3,0,6.642967e+00,6.642982e+00,1
3.095609e+00,9.841160e-01,9.608269e-01,3,0,7.062661e+00,7.062663e+00,1
3.095224e+00,1.976270e+00,1.951933e+00,3,1,7.661886e+00,7.663316e+00,1
3.116056e+00,1.797263e+00,1.767159e+00,3,1,5.775951e+00,5.775931e+00,1
3.101026e+00,9.842890e-01,9.608269e-01,3,0,5.116641e+00,5.116550e+00,1
3.101071e+00,9.944550e-01,9.710789e-01,3,0,4.549765e+00,4.549745e+00,1
3.107982e+00,1.983781e+00,1.960754e+00,3,1,4.203662e+00,4.203975e+00,1
3.114318e+00,2.783119e+00,2.756834e+00,3,2,4.461202e+00,4.466451e+00,1
3.104758e+00,2.813379e+00,2.785921e+00,3,2,3.167939e+00,3.168102e+00,1
3.105724e+00,3.239183e+00,3.208876e+00,3,2,5.537517e+00,5.540264e+00,1
3.110572e+00,3.381342e+00,3.357887e+00,3,2,4.840708e+00,4.872131e+00,1
3.099123e+00,1.223781e+00,1.198769e+00,3,0,6.441921e+00,6.591525e+00,1
3.094450e+00,2.123242e+00,2.100229e+00,3,1,7.731838e+00,8.006196e+00,1
3.114255e+00,3.802040e+00,3.778219e+00,3,3,9.788027e+00,9.925709e+00,1
3.118740e+00,9.833496e+00,9.802103e+00,3,10,1.511547e+01,1.542978e+01,1
6.188543e+00,1.269284e+01,1.266694e+01,6,14,1.206887e+01,1.218863e+01,1
4.160354e+00,3.589653e+00,3.556967e+00,4,3,7.887759e+00,7.896955e+00,1
3.104101e+00,2.558311e+00,2.533197e+00,3,2,7.680528e+00,7.680431e+00,1
3.105807e+00,2.733291e+00,2.703428e+00,3,0,6.731016e+00,9.154614e+00,0
3.098546e+00,2.901797e+00,2.876759e+00,3,2,7.068996e+00,7.075431e+00,1
3.108558e+00,2.555187e+00,2.531052e+00,3,2,7.018094e+00,7.017897e+00,1
3.111738e+00,2.663837e+00,2.637863e+00,3,2,5.890291e+00,5.897685e+00,1
4.138875e+00,4.375021e+00,4.342318e+00,4,1,8.576034e+00,2.431768e+01,0
4.142200e+00,8.657779e+00,8.624077e+00,4,6,8.041675e+00,1.346853e+01,0
8.258598e+00,3.486507e+00,3.456116e+00,8,0,9.540254e+00,1.855137e+01,0
6.190277e+00,7.592950e+00,7.559538e+00,6,5,1.120319e+01,2.477227e+01,0
4.138799e+00,9.595092e+00,9.569883e+00,4,10,7.522757e+00,7.541913e+00,1
4.140890e+00,9.369415e+00,9.343624e+00,4,11,6.646941e+00,6.644905e+00,1
5.165159e+00,8.472153e+00,8.445024e+00,5,9,5.095689e+00,5.130574e+00,1
6.190862e+00,4.342816e+00,4.312992e+00,6,4,3.646342e+00,3.640529e+00,1
5.164826e+00,2.993117e+00,2.966166e+00,5,2,5.213860e+00,5.224427e+00,1
3.106219e+00,3.422327e+00,3.396034e+00,3,2,3.794982e+00,3.821766e+00,1
3.100884e+00,2.027893e+00,2.004623e+00,3,1,2.282345e+00,2.283497e+00,1
3.107359e+00,1.812382e+00,1.790047e+00,3,1,1.870012e+00,1.870014e+00,1
3.100982e+00,1.014287e+00,9.911060e-01,3,0,1.820970e+00,1.820971e+00,1
3.098505e+00,9.934110e-01,9.698868e-01,3,0,2.075053e+00,2.075055e+00,1
3.099536e+00,9.963880e-01,9.729862e-01,3,0,2.139213e+00,2.139215e+00,1
3.098377e+00,1.654903e+00,1.632214e+00,3,1,3.915979e+00,3.915739e+00,1
6.185882e+00,2.626275e+00,2.602100e+00,6,2,6.180508e+00,6.176465e+00,1
3.104530e+00,3.232104e+00,3.207207e+00,3,2,6.292172e+00,6.294703e+00,1
4.143133e+00,9.420552e+00,9.395838e+00,4,9,8.907375e+00,8.914688e+00,1
6.181391e+00,1.564302e+01,1.560998e+01,6,14,2.294251e+01,4.895182e+01,0
5.152541e+00,3.425689e+00,3.393173e+00,5,0,3.091813e+01,6.683678e+01,0
6.183876e+00,2.278751e+01,2.275109e+01,6,24,2.300159e+01,2.944694e+01,0
6.148151e+00,3.414099e+00,3.380299e+00,6,0,2.251896e+01,2.543572e+01,0
4.134802e+00,2.555431e+01,2.552509e+01,4,30,1.868774e+01,2.021284e+01,1
4.148491e+00,1.837789e+01,1.835275e+01,4,21,1.718460e+01,1.769283e+01,1
4.162072e+00,1.459747e+01,1.457191e+01,4,17,1.313838e+01,1.355886e+01,1
3.104805e+00,3.575626e+00,3.547907e+00,3,3,1.139540e+01,1.157980e+01,1
4.149330e+00,9.390602e+00,9.366035e+00,4,9,1.404826e+01,1.420737e+01,1
4.148828e+00,1.295137e+01,1.291847e+01,4,12,1.052967e+01,1.141212e+01,0
3.105565e+00,3.483905e+00,3.451824e+00,3,0,8.652688e+00,1.541297e+01,0
3.113093e+00,3.484377e+00,3.453493e+00,3,0,9.533558e+00,3.200706e+01,0
6.192920e+00,5.181552e+00,5.148411e+00,6,2,1.051006e+01,3.464939e+01,0
4.146307e+00,6.135026e+00,6.111145e+00,4,6,5.945373e+00,5.955559e+00,1
3.102484e+00,3.683342e+00,3.658056e+00,3,3,5.382667e+00,5.396992e+00,1
3.110438e+00,2.556925e+00,2.534151e+00,3,2,3.002024e+00,3.002030e+00,1
3.098649e+00,9.880310e-01,9.639263e-01,3,0,2.282359e+00,2.282360e+00,1
3.111472e+00,2.895893e+00,2.871037e+00,3,2,4.462874e+00,4.471461e+00,1
3.111233e+00,3.828270e+00,3.803015e+00,3,3,7.163017e+00,7.195845e+00,1
3.129477e+00,6.321520e+00,6.296158e+00,3,6,6.310787e+00,6.314437e+00,1
3.112377e+00,1.222926e+00,1.196861e+00,3,0,6.604568e+00,6.629363e+00,1
3.108485e+00,4.443447e+00,4.419088e+00,3,4,6.413403e+00,6.415466e+00,1
3.120773e+00,3.714792e+00,3.689051e+00,3,3,8.469147e+00,8.496266e+00,1
6.185432e+00,5.754213e+00,5.729198e+00,6,5,1.146364e+01,1.149459e+01,1
4.139278e+00,4.323197e+00,4.298925e+00,4,4,1.088429e+01,1.088705e+01,1
3.110304e+00,3.357388e+00,3.332853e+00,3,3,6.792416e+00,6.792414e+00,1
3.097753e+00,9.970720e-01,9.732246e-01,3,0,6.224487e+00,6.224490e+00,1
3.101215e+00,1.988953e+00,1.965046e+00,3,1,6.020631e+00,6.020695e+00,1
3.206664e+00,6.402948e+00,6.370306e+00,3,3,1.160849e+01,3.271797e+01,0
6.191479e+00,3.475498e+00,3.443241e+00,6,0,1.324122e+01,3.556002e+01,0
6.194765e+00,3.486989e+00,3.456116e+00,6,0,1.103857e+01,3.059449e+01,0
6.203688e+00,5.095686e+00,5.060434e+00,6,3,7.293327e+00,1.426072e+01,0
4.149896e+00,2.950662e+00,2.922058e+00,4,2,5.980019e+00,6.007002e+00,1
3.107574e+00,3.233152e+00,3.207922e+00,3,3,5.638380e+00,5.637884e+00,1
6.182880e+00,2.639599e+00,2.614021e+00,6,2,4.333408e+00,4.331379e+00,1
4.144588e+00,3.682697e+00,3.658056e+00,4,3,5.677181e+00,5.680304e+00,1
3.096660e+00,2.022626e+00,1.997709e+00,3,1,5.263501e+00,5.263587e+00,1
3.098226e+00,1.773821e+00,1.749754e+00,3,1,3.144189e+00,3.144190e+00,1
3.099667e+00,9.937910e-01,9.710789e-01,3,0,2.152151e+00,2.152151e+00,1
3.100267e+00,1.004777e+00,9.818077e-01,3,0,2.099031e+00,2.099033e+00,1
3.099662e+00,2.004944e+00,1.981974e+00,3,1,1.414243e+00,1.422496e+00,1
3.110786e+00,1.766187e+00,1.743078e+00,3,1,1.497392e+00,1.497394e+00,1
3.113397e+00,2.789668e+00,2.765656e+00,3,2,3.118790e+00,3.124960e+00,1
6.183038e+00,6.689924e+00,6.659985e+00,6,4,7.973371e+00,8.718087e+00,0
4.130313e+00,3.966111e+00,3.941059e+00,4,4,3.782594e+00,3.782585e+00,1
3.110090e+00,1.005365e+00,9.808540e-01,3,0,5.048502e+00,5.048479e+00,1
3.109751e+00,1.015183e+00,9.901524e-01,3,0,3.314541e+00,3.314128e+00,1
3.105882e+00,4.063174e+00,4.040241e+00,3,3,4.946556e+00,5.087698e+00,1
3.106806e+00,1.239605e+00,1.216888e+00,3,0,7.178789e+00,7.466920e+00,1
4.138992e+00,2.155280e+01,2.152014e+01,4,21,1.091479e+01,1.224967e+01,0
5.165584e+00,1.057282e+01,1.054692e+01,5,12,7.776383e+00,7.793030e+00,1
3.109512e+00,5.819441e+00,5.795002e+00,3,6,5.296603e+00,5.296425e+00,1
3.112247e+00,1.708790e+01,1.705694e+01,3,16,9.936063e+00,1.392355e+01,0
6.197639e+00,1.193587e+01,1.191092e+01,6,14,6.074041e+00,6.052681e+00,1
5.166566e+00,6.431053e+00,6.396055e+00,5,6,6.799355e+00,6.822841e+00,1
4.146050e+00,1.212161e+01,1.209712e+01,4,13,9.537043e+00,9.624037e+00,1
4.139507e+00,9.098898e+00,9.066820e+00,4,10,6.410947e+00,6.408295e+00,1
3.098810e+00,1.783901e+00,1.760006e+00,3,1,5.655918e+00,5.655839e+00,1
3.102918e+00,9.877150e-01,9.641647e-01,3,0,5.200088e+00,5.199907e+00,1
4.126907e+00,9.883170e-01,9.658337e-01,4,0,5.761042e+00,5.761036e+00,1
3.099050e+00,1.005340e+00,9.808540e-01,3,0,6.134664e+00,6.134409e+00,1
3.096224e+00,9.968990e-01,9.739399e-01,3,0,4.973176e+00,4.973172e+00,1
3.109484e+00,1.004248e+00,9.799004e-01,3,0,4.572895e+00,4.572896e+00,1
3.103609e+00,9.901430e-01,9.670258e-01,3,0,4.223520e+00,4.223522e+00,1
3.108376e+00,2.929372e+00,2.905130e+00,3,2,5.867623e+00,5.868260e+00,1
3.099668e+00,2.929397e+00,2.905130e+00,3,2,4.367699e+00,4.380597e+00,1
3.095160e+00,1.999723e+00,1.976967e+00,3,1,3.499336e+00,3.515464e+00,1
3.095843e+00,1.222458e+00,1.200199e+00,3,0,3.278018e+00,3.307067e+00,1
3.126337e+00,2.751147e+00,2.728939e+00,3,2,2.360023e+00,2.360319e+00,1
3.099887e+00,1.250378e+00,1.225948e+00,3,0,3.025709e+00,3.025965e+00,1
3.111272e+00,2.820114e+00,2.795935e+00,3,2,2.153210e+00,2.153514e+00,1

