2.130214e+00,2.819947e+02,2.812488e+02,2,254,0.000000e+00,-9.094947e-13,1
3.117466e+00,1.004698e+00,9.641647e-01,3,0,5.450757e-01,5.450770e-01,1
3.116863e+00,9.837690e-01,9.601116e-01,3,0,8.497515e-01,8.497526e-01,1
3.115112e+00,9.808610e-01,9.582043e-01,3,0,4.046805e+00,4.046813e+00,1
3.105517e+00,9.896430e-01,9.670258e-01,3,0,2.366015e+00,2.366017e+00,1
3.117682e+00,9.608900e-01,9.388924e-01,3,0,2.956492e+00,2.956496e+00,1
3.120846e+00,2.708777e+00,2.676964e+00,3,0,9.709669e+00,1.444031e+01,0
5.202291e+00,2.701045e+00,2.664566e+00,5,0,1.484922e+01,3.104963e+01,0
5.186118e+00,4.740610e+00,4.715204e+00,5,4,1.305061e+01,1.303990e+01,1
4.155865e+00,4.380287e+00,4.347324e+00,4,1,1.970916e+01,2.876316e+01,0
6.244186e+00,8.228914e+00,8.196115e+00,6,6,1.511175e+01,1.543093e+01,0
6.224949e+00,1.017725e+01,1.013970e+01,6,8,1.786731e+01,1.885381e+01,0
5.190545e+00,8.269702e+00,8.244038e+00,5,9,1.532642e+01,1.525650e+01,1
6.221826e+00,4.524060e+00,4.500151e+00,6,4,1.433380e+01,1.434721e+01,1
4.146985e+00,9.373170e+00,9.340286e+00,4,7,1.556039e+01,1.583383e+01,0
5.202759e+00,7.643975e+00,7.619143e+00,5,8,1.202677e+01,1.205653e+01,1
3.113550e+00,2.855387e+00,2.828121e+00,3,2,1.006792e+01,1.009505e+01,1
3.126247e+00,3.814331e+00,3.789902e+00,3,3,1.057803e+01,1.058225e+01,1
3.126140e+00,2.024231e+00,1.998901e+00,3,1,1.163352e+01,1.163792e+01,1
3.112323e+00,3.531932e+00,3.500700e+00,3,0,1.820202e+01,2.651063e+01,0
4.145019e+00,3.519519e+00,3.489256e+00,4,1,1.933521e+01,2.509939e+01,0
5.206937e+00,2.940582e+00,2.915144e+00,5,2,1.559906e+01,1.559229e+01,1
4.156167e+00,3.001982e+00,2.975702e+00,4,2,1.508712e+01,1.509019e+01,1
3.124074e+00,2.829628e+00,2.804995e+00,3,2,1.710643e+01,1.710978e+01,1
4.153648e+00,4.609313e+00,4.585028e+00,4,4,1.303371e+01,1.303574e+01,1
3.131487e+00,1.122676e+01,1.119375e+01,3,9,1.067412e+01,1.112730e+01,0
3.120899e+00,3.507043e+00,3.474712e+00,3,0,9.224788e+00,1.016072e+01,0
3.137182e+00,3.509931e+00,3.479004e+00,3,0,1.061000e+01,2.964345e+01,0
4.182216e+00,6.565304e+00,6.538630e+00,4,7,6.368629e+00,6.368630e+00,1
3.131229e+00,1.064788e+00,1.034975e+00,3,0,6.403026e+00,6.402758e+00,1
5.194051e+00,4.364119e+00,4.339218e+00,5,4,8.319243e+00,8.322192e+00,1
4.156468e+00,3.621864e+00,3.597021e+00,4,3,6.552458e+00,6.552462e+00,1
3.125012e+00,1.794512e+00,1.770973e+00,3,1,4.848935e+00,4.848937e+00,1
3.119928e+00,9.907390e-01,9.689331e-01,3,0,5.662966e+00,5.662970e+00,1
3.112423e+00,1.997412e+00,1.974821e+00,3,1,4.838683e+00,4.839384e+00,1
3.149248e+00,3.071823e+00,3.048897e+00,3,2,4.101404e+00,4.128775e+00,1
3.124594e+00,4.221970e+00,4.195929e+00,3,3,3.970659e+00,3.985941e+00,1
3.120395e+00,3.419675e+00,3.394842e+00,3,2,5.467975e+00,5.478488e+00,1
3.127177e+00,3.112710e+00,3.088951e+00,3,2,3.695791e+00,3.696427e+00,1
3.110665e+00,1.781634e+00,1.759052e+00,3,1,3.572147e+00,3.572151e+00,1
3.127553e+00,9.048942e+00,9.024858e+00,3,9,7.846148e+00,8.125305e+00,1
3.131756e+00,1.289666e+01,1.287222e+01,3,14,5.778232e+00,5.814277e+00,1
3.135771e+00,7.284655e+00,7.258654e+00,3,7,6.716495e+00,6.862522e+00,1
3.131568e+00,6.471509e+00,6.446123e+00,3,7,3.914634e+00,3.914633e+00,1
3.121866e+00,2.001674e+00,1.977921e+00,3,1,5.278483e+00,5.278643e+00,1
3.120882e+00,1.778214e+00,1.754999e+00,3,1,4.348288e+00,4.348288e+00,1
3.112372e+00,2.922073e+00,2.900124e+00,3,2,6.066090e+00,6.069377e+00,1
3.128598e+00,3.115392e+00,3.091097e+00,3,2,5.638941e+00,5.638978e+00,1
3.126222e+00,3.894059e+00,3.865004e+00,3,3,5.712159e+00,5.714400e+00,1
3.118859e+00,6.085744e+00,6.060839e+00,3,5,6.271564e+00,6.281619e+00,1
4.152398e+00,2.818740e+00,2.796173e+00,4,2,4.516628e+00,4.546259e+00,1
3.115685e+00,2.169155e+00,2.145052e+00,3,1,3.789953e+00,3.790520e+00,1
3.121390e+00,2.316819e+00,2.293110e+00,3,1,3.910801e+00,3.918689e+00,1
3.113360e+00,2.303538e+00,2.279043e+00,3,1,3.288449e+00,3.299402e+00,1
3.117840e+00,5.890313e+00,5.867958e+00,3,5,5.645675e+00,5.659782e+00,1
4.161328e+00,1.452147e+01,1.449323e+01,4,13,1.256837e+01,1.849105e+01,0
6.221736e+00,1.236587e+01,1.234007e+01,6,14,7.512024e+00,7.734372e+00,1
3.110141e+00,5.261584e+00,5.238056e+00,3,5,5.827810e+00,6.051423e+00,1
3.119668e+00,4.403486e+00,4.380941e+00,3,4,3.954223e+00,3.954222e+00,1
3.105941e+00,9.670090e-01,9.450912e-01,3,0,3.092365e+00,3.092367e+00,1
3.111847e+00,9.697080e-01,9.479523e-01,3,0,2.689136e+00,2.689139e+00,1
3.111085e+00,9.917840e-01,9.691715e-01,3,0,1.860104e+00,1.860105e+00,1
3.095108e+00,9.714100e-01,9.500980e-01,3,0,1.254181e+00,1.254182e+00,1
3.102436e+00,9.703400e-01,9.510517e-01,3,0,1.783818e+00,1.783820e+00,1
3.109766e+00,9.656700e-01,9.450912e-01,3,0,2.097576e+00,2.097578e+00,1
3.104490e+00,9.653450e-01,9.441376e-01,3,0,2.153631e+00,2.153634e+00,1
3.115950e+00,1.974923e+00,1.954079e+00,3,1,2.046182e+00,2.046223e+00,1
3.110470e+00,1.757962e+00,1.737118e+00,3,1,1.965148e+00,1.965149e+00,1
3.134243e+00,1.674504e+00,1.651049e+00,3,1,2.850386e+00,2.850128e+00,1
6.243053e+00,2.107526e+00,2.079010e+00,6,1,4.514371e+00,4.522449e+00,1
4.165495e+00,3.238198e+00,3.190994e+00,4,2,3.872747e+00,3.879689e+00,1
3.128675e+00,2.895279e+00,2.871037e+00,3,2,5.434165e+00,5.434170e+00,1
3.136762e+00,8.454436e+00,8.427858e+00,3,8,1.131025e+01,1.137144e+01,1
3.137217e+00,7.860520e+00,7.836103e+00,3,8,1.255029e+01,1.268819e+01,1
4.167495e+00,1.204741e+01,1.202011e+01,4,13,1.283117e+01,1.294580e+01,1
4.161028e+00,8.852783e+00,8.825064e+00,4,9,1.121280e+01,1.123867e+01,1
3.131880e+00,5.300636e+00,5.275011e+00,3,5,1.064818e+01,1.065368e+01,1
3.134931e+00,4.662645e+00,4.637003e+00,3,4,7.635727e+00,7.652599e+00,1
3.131947e+00,2.392436e+00,2.364159e+00,3,1,8.253231e+00,8.294891e+00,1
3.136269e+00,4.338129e+00,4.303217e+00,3,1,7.315795e+00,9.156008e+00,0
3.130305e+00,3.200764e+00,3.172159e+00,3,2,5.330206e+00,5.341583e+00,1
3.118042e+00,1.253470e+00,1.227140e+00,3,0,4.381570e+00,4.382490e+00,1
3.163437e+00,1.869225e+00,1.842022e+00,3,1,4.316967e+00,4.316969e+00,1
3.181116e+00,1.070670e+00,1.044989e+00,3,0,4.827614e+00,4.827619e+00,1
3.123659e+00,2.743447e+00,2.708912e+00,3,0,7.637470e+00,1.039924e+01,0
6.341452e+00,2.388252e+00,2.363920e+00,6,2,5.865727e+00,5.858441e+00,1
6.257655e+00,4.359366e+00,4.328728e+00,6,1,1.107733e+01,1.691911e+01,0
6.214642e+00,3.527649e+00,3.494740e+00,6,0,1.030992e+01,9.397277e+00,0
6.219721e+00,2.408928e+00,2.384901e+00,6,2,8.664904e+00,8.637749e+00,1
6.222687e+00,5.179020e+00,5.145073e+00,6,2,1.702480e+01,2.644493e+01,0
5.195703e+00,5.233717e+00,5.199432e+00,5,2,1.395111e+01,1.468377e+01,0
4.157944e+00,3.364553e+00,3.339052e+00,4,3,6.790398e+00,6.790391e+00,1
3.109535e+00,9.955630e-01,9.720325e-01,3,0,5.524123e+00,5.524124e+00,1
3.127783e+00,2.946268e+00,2.923012e+00,3,2,5.084188e+00,5.104229e+00,1
3.140102e+00,2.424834e+01,2.421713e+01,3,24,8.304449e+00,1.008258e+01,0
6.238157e+00,1.992163e+01,1.988482e+01,6,23,7.492377e+00,7.704089e+00,1
6.254539e+00,1.913979e+01,1.911306e+01,6,22,7.277722e+00,7.406413e+00,1
4.170879e+00,1.348230e+01,1.345372e+01,4,14,1.101538e+01,1.179079e+01,1
6.232728e+00,2.296745e+01,2.294111e+01,6,27,1.270921e+01,1.337053e+01,1
6.225766e+00,4.339269e+00,4.302740e+00,6,1,1.912797e+01,3.074650e+01,0
6.217960e+00,3.455589e+00,3.422260e+00,6,0,2.306676e+01,3.917156e+01,0
6.226180e+00,9.939598e+00,9.907961e+00,6,8,2.333985e+01,2.990019e+01,0
5.205147e+00,3.562056e+01,3.559470e+01,5,43,1.717790e+01,1.726768e+01,1
5.208189e+00,1.840913e+01,1.837993e+01,5,21,1.540585e+01,1.542232e+01,1
4.164860e+00,1.121359e+01,1.118493e+01,4,12,1.195696e+01,1.195883e+01,1
3.130730e+00,3.736971e+00,3.711224e+00,3,3,1.059177e+01,1.059214e+01,1
3.124579e+00,4.303941e+00,4.270554e+00,3,2,8.385870e+00,1.191954e+01,0
4.152705e+00,2.715908e+00,2.683878e+00,4,0,1.578430e+01,5.861396e+01,0
6.229266e+00,2.725471e+00,2.692938e+00,6,0,1.587098e+01,5.909871e+01,0
6.232931e+00,2.752014e+00,2.718210e+00,6,0,1.153786e+01,3.235945e+01,0
6.209260e+00,2.743930e+00,2.710819e+00,6,0,1.298167e+01,4.301297e+01,0
6.233680e+00,2.739868e+00,2.706766e+00,6,0,1.325771e+01,4.357277e+01,0
4.150298e+00,2.755064e+00,2.722979e+00,4,0,9.750028e+00,2.481476e+01,0
6.219391e+00,3.508173e+00,3.481865e+00,6,3,7.551631e+00,7.544538e+00,1
4.155010e+00,4.233185e+00,4.205942e+00,4,4,4.000047e+00,4.013502e+00,1
3.144697e+00,1.823098e+00,1.796007e+00,3,1,3.803829e+00,3.803818e+00,1
3.125752e+00,9.975280e-01,9.720325e-01,3,0,2.399842e+00,2.399842e+00,1
3.123269e+00,1.002108e+00,9.777546e-01,3,0,3.070039e+00,3.070043e+00,1
3.129823e+00,1.000416e+00,9.760857e-01,3,0,2.691720e+00,2.691721e+00,1
3.102930e+00,9.953100e-01,9.720325e-01,3,0,8.434360e+00,8.434379e+00,1
3.121012e+00,2.730684e+00,2.699137e+00,3,0,1.133240e+01,1.345802e+01,0
3.121969e+00,2.731751e+00,2.700090e+00,3,0,1.379740e+01,1.977382e+01,0
4.147315e+00,2.718649e+00,2.686739e+00,4,0,2.324110e+01,5.043846e+01,0
6.221580e+00,2.736270e+00,2.704859e+00,6,0,2.670562e+01,6.024926e+01,0
6.238758e+00,7.577161e+00,7.541895e+00,6,5,2.134981e+01,2.558964e+01,0
4.161104e+00,5.741274e+00,5.713940e+00,4,6,1.197333e+01,1.198035e+01,1
3.131813e+00,1.284001e+01,1.281404e+01,3,13,1.014619e+01,1.058039e+01,1
3.131447e+00,9.409297e+00,9.371758e+00,3,7,1.013095e+01,1.766442e+01,0
3.124566e+00,3.518043e+00,3.485441e+00,3,0,1.008529e+01,2.650699e+01,0
6.219343e+00,3.483554e+00,3.452063e+00,6,0,1.601310e+01,5.345798e+01,0
6.217205e+00,3.517067e+00,3.485680e+00,6,0,1.870983e+01,6.701245e+01,0
4.158897e+00,3.519064e+00,3.488064e+00,4,0,1.691122e+01,5.088634e+01,0
4.175442e+00,2.536148e+01,2.532768e+01,4,26,1.350374e+01,2.808010e+01,0
6.237552e+00,3.520924e+00,3.487110e+00,6,0,1.323687e+01,2.619539e+01,0
6.223643e+00,4.435557e+00,4.402876e+00,6,1,1.370756e+01,2.493502e+01,0
4.163412e+00,3.506636e+00,3.473997e+00,4,0,1.382841e+01,2.059450e+01,0
4.170756e+00,1.239970e+01,1.237392e+01,4,14,8.098864e+00,8.101066e+00,1
3.147377e+00,3.767311e+00,3.740072e+00,3,3,6.986361e+00,6.989086e+00,1
3.119232e+00,3.524649e+00,3.490925e+00,3,0,9.991161e+00,2.068256e+01,0
4.148782e+00,3.513470e+00,3.481388e+00,4,0,1.213060e+01,3.424168e+01,0
6.218472e+00,3.527813e+00,3.493547e+00,6,0,1.386893e+01,4.255344e+01,0
6.251602e+00,5.158090e+00,5.125761e+00,6,2,7.157347e+00,1.458332e+01,0
4.170726e+00,3.897305e+00,3.870964e+00,4,3,5.781608e+00,5.900539e+00,1
5.200973e+00,5.583857e+00,5.556107e+00,5,5,5.214404e+00,5.213893e+00,1
4.160021e+00,2.605196e+00,2.577782e+00,4,2,5.241200e+00,5.241200e+00,1
3.122951e+00,4.317420e+00,4.287004e+00,3,1,9.196903e+00,9.734948e+00,0
3.112985e+00,1.788004e+00,1.763105e+00,3,1,9.436805e+00,9.436750e+00,1
3.111053e+00,2.721182e+00,2.689123e+00,3,0,1.457750e+01,2.096291e+01,0
4.155646e+00,2.723540e+00,2.691984e+00,4,0,1.664475e+01,1.932848e+01,0
6.225812e+00,2.729678e+00,2.696037e+00,6,0,2.173249e+01,3.361476e+01,0
5.173518e+00,2.998128e+00,2.972126e+00,5,2,1.384535e+01,1.387954e+01,1
4.144730e+00,3.591733e+00,3.566980e+00,4,3,1.106077e+01,1.106104e+01,1
3.112143e+00,1.788482e+00,1.763105e+00,3,1,1.001140e+01,1.001140e+01,1
3.121224e+00,3.648990e+00,3.624678e+00,3,3,1.164697e+01,1.164868e+01,1
4.169096e+00,6.159419e+00,6.134987e+00,4,6,7.823037e+00,7.833420e+00,1
3.138189e+00,3.373134e+00,3.347158e+00,3,3,6.439237e+00,6.439239e+00,1
3.118825e+00,2.026352e+00,2.001762e+00,3,1,4.895899e+00,4.895957e+00,1
3.135344e+00,1.816739e+00,1.791954e+00,3,1,4.165542e+00,4.165544e+00,1
3.127402e+00,6.642932e+00,6.617069e+00,3,6,5.481054e+00,5.533033e+00,1
3.119691e+00,7.000800e+00,6.973982e+00,3,7,4.254516e+00,4.264179e+00,1
3.120705e+00,2.016349e+00,1.991034e+00,3,1,4.547854e+00,4.554509e+00,1
3.128632e+00,4.668045e+00,4.642963e+00,3,4,3.702055e+00,3.725887e+00,1
3.125979e+00,7.440389e+00,7.416010e+00,3,7,5.233476e+00,5.345188e+00,1
4.169760e+00,7.238981e+00,7.211924e+00,4,7,3.827416e+00,3.837920e+00,1
3.145413e+00,1.179757e+01,1.177216e+01,3,12,7.509623e+00,7.719825e+00,1
6.230430e+00,1.015903e+01,1.013207e+01,6,11,7.319059e+00,7.325086e+00,1
4.161997e+00,6.753408e+00,6.728172e+00,4,7,2.872185e+00,2.872181e+00,1
3.123001e+00,1.806453e+00,1.780987e+00,3,1,3.455550e+00,3.455538e+00,1
3.111930e+00,1.017315e+00,9.911060e-01,3,0,4.734358e+00,4.734334e+00,1
3.117408e+00,1.005799e+00,9.820461e-01,3,0,5.417697e+00,5.417701e+00,1
3.105135e+00,1.005073e+00,9.820461e-01,3,0,5.429119e+00,5.429121e+00,1
3.111922e+00,1.993353e+00,1.969099e+00,3,1,4.391548e+00,4.392429e+00,1
3.122198e+00,3.822667e+00,3.799200e+00,3,3,3.526833e+00,3.534394e+00,1
3.144962e+00,3.427899e+00,3.402948e+00,3,2,3.690044e+00,3.705414e+00,1
3.138941e+00,2.019393e+00,1.992941e+00,3,1,4.070311e+00,4.070324e+00,1
3.147479e+00,3.735596e+00,3.712893e+00,3,3,5.026005e+00,5.026852e+00,1
3.122799e+00,4.359707e+00,4.326105e+00,3,1,6.030177e+00,8.511790e+00,0
3.123791e+00,1.773488e+00,1.749039e+00,3,1,4.154511e+00,4.154509e+00,1
3.111711e+00,2.014000e+00,1.990080e+00,3,1,4.056330e+00,4.056656e+00,1
3.126305e+00,1.232234e+00,1.209021e+00,3,0,5.452877e+00,5.452839e+00,1
3.131874e+00,1.766852e+00,1.744270e+00,3,1,3.028690e+00,3.028677e+00,1
3.110579e+00,9.941810e-01,9.720325e-01,3,0,3.369588e+00,3.369591e+00,1
3.109443e+00,9.854270e-01,9.620190e-01,3,0,3.090359e+00,3.090361e+00,1
3.119145e+00,2.019791e+00,1.996994e+00,3,1,4.373447e+00,4.373601e+00,1
3.114614e+00,1.787522e+00,1.763105e+00,3,1,3.048426e+00,3.048425e+00,1
3.113182e+00,9.933950e-01,9.689331e-01,3,0,4.136632e+00,4.136637e+00,1
3.115625e+00,9.912050e-01,9.679794e-01,3,0,5.554312e+00,5.554316e+00,1
3.121016e+00,9.979370e-01,9.751320e-01,3,0,3.419481e+00,3.419480e+00,1
3.109597e+00,1.007507e+00,9.820461e-01,3,0,3.963874e+00,3.963819e+00,1
3.111138e+00,1.981178e+00,1.956701e+00,3,1,3.355042e+00,3.355163e+00,1
3.124065e+00,1.771824e+00,1.747847e+00,3,1,3.134353e+00,3.134355e+00,1
3.101141e+00,9.830950e-01,9.601116e-01,3,0,2.000154e+00,2.000155e+00,1
3.125315e+00,2.949123e+00,2.924919e+00,3,2,3.819551e+00,3.824149e+00,1
3.131624e+00,9.869437e+00,9.845018e+00,3,10,7.297808e+00,7.484645e+00,1
4.170982e+00,1.200873e+01,1.198292e+01,4,13,3.266075e+00,3.270759e+00,1
3.127068e+00,2.805054e+00,2.779007e+00,3,2,4.960780e+00,4.961177e+00,1
3.126255e+00,5.328881e+00,5.303860e+00,3,5,4.994996e+00,4.995183e+00,1
4.247124e+00,4.507112e+00,4.482031e+00,4,4,4.562487e+00,4.566319e+00,1
3.129447e+00,1.247340e+00,1.220942e+00,3,0,3.151901e+00,3.215784e+00,1
3.125920e+00,2.325405e+00,2.301216e+00,3,1,2.896736e+00,2.923050e+00,1
3.112339e+00,2.012685e+00,1.989126e+00,3,1,2.570680e+00,2.610997e+00,1
3.138454e+00,5.026129e+00,5.001783e+00,3,4,7.230299e+00,7.293514e+00,1
3.144416e+00,3.619491e+00,3.594160e+00,3,3,4.644650e+00,4.679949e+00,1
3.132158e+00,1.298139e+00,1.266956e+00,3,0,3.970945e+00,3.987685e+00,1
4.163592e+00,2.883714e+00,2.856970e+00,4,2,4.708516e+00,4.707955e+00,1
6.222637e+00,1.818096e+00,1.790047e+00,6,1,5.483685e+00,5.470329e+00,1
6.207724e+00,1.648538e+00,1.624107e+00,6,1,5.817496e+00,5.799581e+00,1
4.153739e+00,1.646158e+00,1.616001e+00,4,1,2.385222e+00,2.385219e+00,1
3.111319e+00,1.003178e+00,9.801388e-01,3,0,1.645499e+00,1.645502e+00,1
3.115523e+00,2.041063e+00,2.010107e+00,3,1,4.184161e+00,4.190066e+00,1
3.114110e+00,1.786548e+00,1.763821e+00,3,1,2.882191e+00,2.882195e+00,1
3.121115e+00,2.790246e+00,2.764940e+00,3,2,5.514100e+00,5.516127e+00,1
4.165422e+00,4.825531e+00,4.801035e+00,4,4,3.934960e+00,3.936966e+00,1
3.143522e+00,2.337251e+00,2.312899e+00,3,1,4.156793e+00,4.156887e+00,1
3.127656e+00,2.933198e+00,2.908230e+00,3,2,3.016599e+00,3.017080e+00,1
3.129344e+00,3.263450e+00,3.237724e+00,3,2,2.372705e+00,2.375081e+00,1
3.118724e+00,1.225198e+00,1.199007e+00,3,0,2.222209e+00,2.243101e+00,1
3.117664e+00,4.173699e+00,4.148960e+00,3,3,2.147558e+00,2.147563e+00,1
3.123309e+00,1.781143e+00,1.756191e+00,3,1,4.108967e+00,4.108980e+00,1
3.118549e+00,2.953403e+00,2.928019e+00,3,2,2.490591e+00,2.514075e+00,1
3.127712e+00,2.584120e+00,2.557993e+00,3,2,1.517098e+00,1.517099e+00,1
3.113055e+00,9.900470e-01,9.660721e-01,3,0,1.220818e+00,1.220819e+00,1
3.113261e+00,9.818170e-01,9.579659e-01,3,0,1.906964e+00,1.906966e+00,1
3.125931e+00,3.676383e+00,3.653049e+00,3,3,5.451357e+00,5.468442e+00,1
6.220984e+00,3.718377e+00,3.694057e+00,6,3,6.057194e+00,6.041843e+00,1
6.231980e+00,4.639371e+00,4.612923e+00,6,4,6.632629e+00,6.659782e+00,1
6.220348e+00,1.153336e+01,1.149774e+01,6,9,2.049419e+01,4.277066e+01,0
4.162932e+00,3.471825e+00,3.440380e+00,4,0,1.688464e+01,2.260114e+01,0
4.176656e+00,2.209052e+01,2.206612e+01,4,25,1.441620e+01,1.492384e+01,1
3.129962e+00,9.522331e+00,9.494781e+00,3,10,1.375311e+01,1.404643e+01,1
3.116402e+00,4.375795e+00,4.348040e+00,3,4,1.229929e+01,1.231707e+01,1
3.127950e+00,8.818143e+00,8.792877e+00,3,9,1.192961e+01,1.193864e+01,1
4.153534e+00,4.128538e+00,4.101753e+00,4,4,9.682659e+00,9.682652e+00,1
3.104354e+00,9.687160e-01,9.441376e-01,3,0,1.078113e+01,1.078114e+01,1
3.105948e+00,9.619160e-01,9.422302e-01,3,0,7.343836e+00,7.343833e+00,1
3.100494e+00,9.505010e-01,9.310246e-01,3,0,8.159098e+00,8.159106e+00,1
3.100348e+00,9.514850e-01,9.322166e-01,3,0,6.899679e+00,6.899679e+00,1
3.098273e+00,9.502340e-01,9.310246e-01,3,0,8.335375e+00,8.335379e+00,1
3.098557e+00,9.508100e-01,9.310246e-01,3,0,7.350035e+00,7.350034e+00,1
3.107510e+00,9.438250e-01,9.250641e-01,3,0,7.104295e+00,7.104295e+00,1
3.108450e+00,1.950522e+00,1.930952e+00,3,1,7.846390e+00,7.846557e+00,1
3.110395e+00,1.729694e+00,1.711130e+00,3,1,6.499192e+00,6.499192e+00,1
3.113574e+00,1.949028e+00,1.928806e+00,3,1,6.469164e+00,6.470828e+00,1
3.101012e+00,2.114349e+00,2.094030e+00,3,1,6.981715e+00,6.985312e+00,1
3.105125e+00,5.670823e+00,5.651236e+00,3,5,4.744403e+00,4.745041e+00,1
3.101251e+00,2.887276e+00,2.866983e+00,3,2,4.366920e+00,4.373631e+00,1
3.102725e+00,2.509482e+00,2.488852e+00,3,2,3.606677e+00,3.606678e+00,1
3.112199e+00,9.585750e-01,9.391308e-01,3,0,5.934600e+00,5.934524e+00,1
4.149898e+00,4.211147e+00,4.182816e+00,4,1,7.532743e+00,9.861944e+00,0
4.149659e+00,1.725515e+00,1.704931e+00,4,1,4.410267e+00,4.410265e+00,1
3.113535e+00,1.968051e+00,1.948833e+00,3,1,3.434629e+00,3.434785e+00,1
3.111685e+00,1.728563e+00,1.708984e+00,3,1,1.512039e+00,1.512041e+00,1
3.103081e+00,9.508240e-01,9.307861e-01,3,0,1.524180e+00,1.524181e+00,1
3.096239e+00,9.524120e-01,9.322166e-01,3,0,1.682162e+00,1.682164e+00,1
3.105466e+00,1.961546e+00,1.941919e+00,3,1,2.399651e+00,2.399701e+00,1
3.100594e+00,1.730633e+00,1.710892e+00,3,1,3.678126e+00,3.678128e+00,1
3.098800e+00,9.497810e-01,9.310246e-01,3,0,3.680146e+00,3.680120e+00,1
3.100324e+00,1.956527e+00,1.937151e+00,3,1,4.092536e+00,4.125305e+00,1
3.116489e+00,3.948242e+00,3.929138e+00,3,3,7.726514e+00,7.737850e+00,1
3.111039e+00,7.175791e+00,7.158041e+00,3,7,8.348093e+00,8.371072e+00,1
4.153470e+00,6.226767e+00,6.205082e+00,4,7,5.728223e+00,5.727706e+00,1
3.110561e+00,9.680010e-01,9.438992e-01,3,0,4.168803e+00,4.168767e+00,1
3.130963e+00,9.813340e-01,9.608269e-01,3,0,4.654079e+00,4.654080e+00,1
3.110090e+00,1.036789e+00,1.010895e+00,3,0,3.972760e+00,3.972762e+00,1
3.148011e+00,1.017109e+00,9.918213e-01,3,0,4.068102e+00,4.068102e+00,1
3.131480e+00,1.121088e+00,1.086950e+00,3,0,3.042857e+00,3.042861e+00,1
3.147911e+00,2.117634e+00,2.089977e+00,3,1,2.611631e+00,2.612862e+00,1
3.135861e+00,2.988656e+00,2.955914e+00,3,2,2.929119e+00,2.929123e+00,1
3.126241e+00,2.063140e+00,2.036095e+00,3,1,2.770189e+00,2.771871e+00,1
3.111378e+00,1.233189e+00,1.209974e+00,3,0,3.635881e+00,3.678297e+00,1
3.105978e+00,2.586453e+00,2.563953e+00,3,2,4.574405e+00,4.574099e+00,1
5.185755e+00,1.637313e+00,1.612902e+00,5,1,3.766090e+00,3.763168e+00,1
3.117525e+00,1.033811e+00,1.006842e+00,3,0,3.634537e+00,3.634462e+00,1
3.112942e+00,9.960520e-01,9.720325e-01,3,0,5.358961e+00,5.358954e+00,1
3.111507e+00,9.920380e-01,9.701252e-01,3,0,5.004326e+00,5.004324e+00,1
3.111538e+00,9.836570e-01,9.598732e-01,3,0,4.580021e+00,4.580023e+00,1
3.114271e+00,9.915770e-01,9.691715e-01,3,0,4.201057e+00,4.201060e+00,1
3.117986e+00,1.974362e+00,1.952171e+00,3,1,5.448349e+00,5.448364e+00,1
3.114398e+00,2.803588e+00,2.778769e+00,3,2,4.464377e+00,4.467099e+00,1
3.112394e+00,1.779975e+00,1.756907e+00,3,1,3.158930e+00,3.158928e+00,1
3.111096e+00,9.927710e-01,9.698868e-01,3,0,3.983789e+00,3.983776e+00,1
3.117547e+00,3.522296e+00,3.499031e+00,3,3,5.045565e+00,5.045086e+00,1
4.161179e+00,3.717243e+00,3.692865e+00,4,3,7.963275e+00,7.964602e+00,1
3.116764e+00,1.236022e+00,1.214027e+00,3,0,4.529775e+00,4.535789e+00,1
3.117444e+00,1.231073e+00,1.209021e+00,3,0,5.293280e+00,5.306848e+00,1
3.128407e+00,2.968236e+00,2.943993e+00,3,2,4.772154e+00,4.952876e+00,1
3.114545e+00,2.038850e+00,2.013922e+00,3,1,6.874522e+00,7.154200e+00,1
3.123729e+00,4.594581e+00,4.563093e+00,3,1,6.070701e+00,7.325125e+00,0
5.176186e+00,4.291316e+00,4.259348e+00,5,1,7.728801e+00,1.186293e+01,0
4.159328e+00,4.331118e+00,4.297018e+00,4,1,8.552407e+00,8.837777e+00,0
3.112631e+00,1.821671e+00,1.795769e+00,3,1,8.132714e+00,8.132717e+00,1
3.109423e+00,9.927680e-01,9.679794e-01,3,0,1.015281e+01,1.015282e+01,1
3.121001e+00,1.997759e+00,1.974106e+00,3,1,9.973614e+00,9.973696e+00,1
3.123223e+00,3.731409e+00,3.707170e+00,3,3,9.932457e+00,9.933345e+00,1
3.126713e+00,2.568651e+00,2.545118e+00,3,2,7.067214e+00,7.067187e+00,1
3.131990e+00,9.983770e-01,9.746552e-01,3,0,6.875280e+00,6.875278e+00,1
3.116237e+00,9.840200e-01,9.620190e-01,3,0,6.770023e+00,6.770025e+00,1
3.116839e+00,2.003450e+00,1.979828e+00,3,1,6.747546e+00,6.747543e+00,1
3.114428e+00,3.733826e+00,3.710270e+00,3,3,4.439739e+00,4.446853e+00,1
3.127924e+00,5.662954e+00,5.639076e+00,3,5,4.812246e+00,4.856080e+00,1
3.117747e+00,4.365264e+00,4.342079e+00,3,4,4.398244e+00,4.402199e+00,1
3.129506e+00,2.797514e+00,2.774000e+00,3,2,2.800855e+00,2.801424e+00,1
3.118218e+00,3.716208e+00,3.690004e+00,3,3,4.077018e+00,4.092804e+00,1
3.116317e+00,4.254941e+00,4.230976e+00,3,4,2.562062e+00,2.562062e+00,1
3.117006e+00,2.010744e+00,1.986027e+00,3,1,2.167024e+00,2.176669e+00,1
3.112857e+00,1.229311e+00,1.207113e+00,3,0,2.459443e+00,2.481598e+00,1
3.110670e+00,1.224028e+00,1.201153e+00,3,0,3.806495e+00,3.853356e+00,1
3.125900e+00,2.348836e+00,2.326012e+00,3,1,3.735995e+00,3.736171e+00,1
3.110255e+00,1.778597e+00,1.753807e+00,3,1,4.700923e+00,4.700921e+00,1
3.118822e+00,1.126147e+01,1.123023e+01,3,9,1.613925e+01,3.189949e+01,0
6.227107e+00,1.182039e+01,1.179504e+01,6,13,8.218535e+00,8.225114e+00,1
3.122248e+00,1.469940e+01,1.467395e+01,3,16,1.039069e+01,1.053732e+01,1
4.159742e+00,8.652171e+00,8.627176e+00,4,9,1.107457e+01,1.151026e+01,1
6.232647e+00,7.722972e+00,7.696867e+00,6,8,8.431058e+00,8.450964e+00,1
4.148022e+00,5.740036e+00,5.709171e+00,4,6,6.310721e+00,6.308572e+00,1
4.166783e+00,5.012816e+00,4.987717e+00,4,5,9.210648e+00,9.226282e+00,1
6.228848e+00,3.349497e+00,3.323078e+00,6,3,7.775863e+00,7.749990e+00,1
4.156053e+00,2.647065e+00,2.624035e+00,4,2,3.978119e+00,3.986775e+00,1
3.120680e+00,1.795703e+00,1.772165e+00,3,1,3.391409e+00,3.391410e+00,1
3.122027e+00,1.004034e+00,9.820461e-01,3,0,3.101079e+00,3.101081e+00,1
3.114591e+00,1.002140e+00,9.787083e-01,3,0,3.203256e+00,3.203258e+00,1
3.127221e+00,9.932490e-01,9.689331e-01,3,0,2.924128e+00,2.924130e+00,1
3.113075e+00,9.900060e-01,9.610653e-01,3,0,6.140659e+00,6.140673e+00,1
3.115181e+00,9.881170e-01,9.648800e-01,3,0,5.075363e+00,5.075364e+00,1
3.110772e+00,9.860200e-01,9.648800e-01,3,0,1.974700e+00,1.974698e+00,1
3.115117e+00,9.880150e-01,9.648800e-01,3,0,3.594112e+00,3.594104e+00,1
3.121515e+00,3.099522e+00,3.077030e+00,3,2,4.252702e+00,4.255640e+00,1
3.116655e+00,2.177421e+00,2.152920e+00,3,1,3.495580e+00,3.517626e+00,1
3.129743e+00,2.326709e+00,2.303839e+00,3,1,1.760011e+00,1.782501e+00,1
3.119777e+00,2.037091e+00,2.014875e+00,3,1,2.612839e+00,2.621366e+00,1
3.128025e+00,2.174500e+00,2.150059e+00,3,1,5.110901e+00,5.221802e+00,1
4.182491e+00,1.994712e+01,1.991487e+01,4,19,1.215503e+01,1.310552e+01,0
6.283832e+00,1.736123e+01,1.733398e+01,6,20,1.044196e+01,1.049512e+01,1
4.160112e+00,5.709516e+00,5.684137e+00,4,6,5.245172e+00,5.245165e+00,1
3.109609e+00,9.968890e-01,9.686947e-01,3,0,4.737579e+00,4.737580e+00,1
3.116449e+00,9.899470e-01,9.670258e-01,3,0,4.277491e+00,4.277492e+00,1
3.118944e+00,2.018835e+00,1.996040e+00,3,1,5.676335e+00,5.730080e+00,1
3.112126e+00,1.230077e+00,1.207113e+00,3,0,6.133450e+00,6.141710e+00,1
3.116695e+00,1.761136e+00,1.736879e+00,3,1,5.043464e+00,5.043465e+00,1
3.113136e+00,9.886020e-01,9.658337e-01,3,0,4.588544e+00,4.588546e+00,1
3.109119e+00,9.869770e-01,9.627342e-01,3,0,4.638864e+00,4.638868e+00,1
3.110113e+00,2.898313e+00,2.876043e+00,3,2,5.813635e+00,5.821955e+00,1
3.128682e+00,6.504988e+00,6.479025e+00,3,6,5.466475e+00,5.475406e+00,1
3.123412e+00,3.732363e+00,3.707170e+00,3,3,4.277301e+00,4.282145e+00,1
3.121843e+00,4.947657e+00,4.923105e+00,3,4,4.348756e+00,4.355610e+00,1
3.129741e+00,5.314373e+00,5.289078e+00,3,5,3.500453e+00,3.504884e+00,1
3.127963e+00,9.277818e+00,9.252071e+00,3,9,6.842123e+00,6.852181e+00,1
4.159257e+00,1.383558e+01,1.380992e+01,4,15,9.996142e+00,1.011730e+01,1
6.233229e+00,9.990058e+00,9.966135e+00,6,10,1.192930e+01,1.207522e+01,1
4.170023e+00,1.222939e+01,1.220393e+01,4,14,6.007559e+00,6.065289e+00,1
3.118228e+00,2.346077e+00,2.321959e+00,3,1,4.196653e+00,4.219227e+00,1
3.135732e+00,2.052083e+00,2.026796e+00,3,1,4.501721e+00,4.505130e+00,1
3.121312e+00,5.422205e+00,5.390406e+00,3,2,6.095023e+00,6.420295e+00,0
3.120801e+00,3.523402e+00,3.492117e+00,3,0,4.985383e+00,9.971251e-01,0
4.162265e+00,3.518441e+00,3.486872e+00,4,0,2.006927e+01,6.258492e+01,0
6.224620e+00,3.560042e+00,3.527164e+00,6,0,3.037562e+01,9.295594e+01,0
6.240499e+00,3.555033e+00,3.523111e+00,6,0,2.371238e+01,6.309205e+01,0
6.219511e+00,3.535122e+00,3.501892e+00,6,0,3.533201e+01,9.514343e+01,0
6.225215e+00,3.531497e+00,3.501177e+00,6,0,3.176180e+01,6.515842e+01,0
6.221074e+00,8.792861e+00,8.759975e+00,6,7,2.529691e+01,3.849431e+01,0
6.218909e+00,3.505633e+00,3.473997e+00,6,0,3.536269e+01,5.658766e+01,0
6.213607e+00,3.514162e+00,3.481150e+00,6,0,3.378093e+01,4.505726e+01,0
6.228683e+00,3.510383e+00,3.478050e+00,6,0,4.544409e+01,6.421786e+01,0
5.193820e+00,9.324751e+00,9.291172e+00,5,7,3.984924e+01,5.435261e+01,0
4.171192e+00,1.231966e+01,1.228619e+01,4,10,3.400880e+01,4.223938e+01,0
4.166049e+00,2.184913e+01,2.181506e+01,4,21,2.399658e+01,3.465743e+01,0
4.155996e+00,3.498622e+00,3.465891e+00,4,0,1.974962e+01,2.556385e+01,0
4.156583e+00,3.489018e+00,3.460169e+00,4,0,1.669649e+01,2.056539e+01,0
3.117164e+00,3.483810e+00,3.453016e+00,3,0,1.631620e+01,3.937569e+01,0
6.219825e+00,3.505930e+00,3.474474e+00,6,0,1.113439e+01,2.104882e+01,0
4.154562e+00,3.495879e+00,3.463984e+00,4,0,9.322096e+00,2.792989e+01,0
6.229230e+00,3.525014e+00,3.493547e+00,6,0,7.982067e+00,2.452177e+01,0
4.210270e+00,1.550293e+01,1.547694e+01,4,18,5.146060e+00,5.146059e+00,1
3.149148e+00,3.789658e+00,3.762722e+00,3,3,4.459114e+00,4.464183e+00,1
3.135059e+00,7.286644e+00,7.261753e+00,3,7,4.224571e+00,4.256498e+00,1
3.121794e+00,3.596154e+00,3.571987e+00,3,3,2.607617e+00,2.608494e+00,1
3.169365e+00,1.193041e+01,1.190495e+01,3,12,6.021270e+00,6.165203e+00,1
4.199933e+00,9.600624e+00,9.572983e+00,4,11,2.465140e+00,2.465138e+00,1
3.107868e+00,1.995960e+00,1.970053e+00,3,1,2.011921e+00,2.011924e+00,1
3.099809e+00,1.208720e+00,1.186132e+00,3,0,2.665910e+00,2.668833e+00,1
3.139190e+00,2.289654e+00,2.267838e+00,3,1,3.465013e+00,3.465217e+00,1
3.111056e+00,2.135920e+00,2.114058e+00,3,1,5.311396e+00,5.311765e+00,1
3.108285e+00,2.536256e+00,2.514124e+00,3,2,2.580746e+00,2.580737e+00,1
3.111890e+00,9.686790e-01,9.460449e-01,3,0,3.337998e+00,3.338002e+00,1
3.107342e+00,9.632140e-01,9.431839e-01,3,0,2.785368e+00,2.785368e+00,1
3.119794e+00,3.808502e+00,3.788948e+00,3,3,6.225128e+00,6.237387e+00,1
3.111687e+00,3.327605e+00,3.304958e+00,3,3,4.228432e+00,4.228429e+00,1
3.114897e+00,9.586410e-01,9.357929e-01,3,0,2.077317e+00,2.077314e+00,1
3.143222e+00,9.635260e-01,9.422302e-01,3,0,6.642967e+00,6.642982e+00,1
3.107027e+00,9.627680e-01,9.407997e-01,3,0,7.062661e+00,7.062663e+00,1
3.103695e+00,1.954984e+00,1.934052e+00,3,1,7.661886e+00,7.663316e+00,1
3.105671e+00,1.745808e+00,1.724958e+00,3,1,5.775951e+00,5.775931e+00,1
3.101121e+00,9.659410e-01,9.450912e-01,3,0,5.116641e+00,5.116550e+00,1
3.106183e+00,9.647910e-01,9.431839e-01,3,0,4.549765e+00,4.549745e+00,1
3.105687e+00,1.955801e+00,1.934052e+00,3,1,4.203662e+00,4.203975e+00,1
3.134742e+00,2.742954e+00,2.721071e+00,3,2,4.461202e+00,4.466451e+00,1
3.116217e+00,2.750424e+00,2.728939e+00,3,2,3.167939e+00,3.168102e+00,1
3.120981e+00,3.236679e+00,3.215075e+00,3,2,5.537517e+00,5.540264e+00,1
3.142988e+00,3.473564e+00,3.448009e+00,3,2,4.840708e+00,4.872131e+00,1
3.146215e+00,1.317486e+00,1.286030e+00,3,0,6.441921e+00,6.591525e+00,1
3.124401e+00,2.275224e+00,2.245903e+00,3,1,7.731838e+00,8.006196e+00,1
3.129387e+00,3.848285e+00,3.822803e+00,3,3,9.788027e+00,9.925709e+00,1
3.123567e+00,9.964793e+00,9.938002e+00,3,10,1.511547e+01,1.542978e+01,1
6.282829e+00,1.281843e+01,1.279283e+01,6,14,1.206887e+01,1.218863e+01,1
4.177222e+00,3.602327e+00,3.575802e+00,4,3,7.887759e+00,7.896955e+00,1
3.120450e+00,2.571617e+00,2.547026e+00,3,2,7.680528e+00,7.680431e+00,1
3.122186e+00,2.738154e+00,2.706051e+00,3,0,6.731016e+00,9.154614e+00,0
3.131098e+00,2.940324e+00,2.916098e+00,3,2,7.068996e+00,7.075431e+00,1
3.124676e+00,2.620677e+00,2.595186e+00,3,2,7.018094e+00,7.017897e+00,1
3.145186e+00,2.674482e+00,2.648830e+00,3,2,5.890291e+00,5.897685e+00,1
4.162647e+00,4.468535e+00,4.432917e+00,4,1,8.576034e+00,2.431768e+01,0
4.168644e+00,8.813029e+00,8.780003e+00,4,6,8.041675e+00,1.346853e+01,0
8.522650e+00,3.524198e+00,3.492117e+00,8,0,9.540254e+00,1.855137e+01,0
6.226103e+00,7.743994e+00,7.709503e+00,6,5,1.120319e+01,2.477227e+01,0
4.166774e+00,9.728446e+00,9.701014e+00,4,10,7.522757e+00,7.541913e+00,1
4.166268e+00,9.481958e+00,9.455681e+00,4,11,6.646941e+00,6.644905e+00,1
5.185975e+00,8.557674e+00,8.533955e+00,5,9,5.095689e+00,5.130574e+00,1
6.218885e+00,4.372303e+00,4.348040e+00,6,4,3.646342e+00,3.640529e+00,1
5.197937e+00,2.969606e+00,2.947092e+00,5,2,5.213860e+00,5.224427e+00,1
3.123813e+00,3.437384e+00,3.413916e+00,3,2,3.794982e+00,3.821766e+00,1
3.111632e+00,2.033195e+00,2.009153e+00,3,1,2.282345e+00,2.283497e+00,1
3.115702e+00,1.772757e+00,1.749992e+00,3,1,1.870012e+00,1.870014e+00,1
3.102919e+00,9.898400e-01,9.682178e-01,3,0,1.820970e+00,1.820971e+00,1
3.117799e+00,9.876130e-01,9.648800e-01,3,0,2.075053e+00,2.075055e+00,1
3.117907e+00,9.923340e-01,9.689331e-01,3,0,2.139213e+00,2.139215e+00,1
3.126578e+00,1.667903e+00,1.641989e+00,3,1,3.915979e+00,3.915739e+00,1
6.233998e+00,2.635916e+00,2.613068e+00,6,2,6.180508e+00,6.176465e+00,1
3.122146e+00,3.326515e+00,3.300905e+00,3,2,6.292172e+00,6.294703e+00,1
4.185917e+00,9.569772e+00,9.543896e+00,4,9,8.907375e+00,8.914688e+00,1
6.234843e+00,1.583281e+01,1.580095e+01,6,14,2.294251e+01,4.895182e+01,0
5.187688e+00,3.467363e+00,3.435135e+00,5,0,3.091813e+01,6.683678e+01,0
6.239170e+00,2.312502e+01,2.309275e+01,6,24,2.300159e+01,2.944694e+01,0
6.214529e+00,3.470856e+00,3.438473e+00,6,0,2.251896e+01,2.543572e+01,0
4.163654e+00,2.611777e+01,2.609086e+01,4,30,1.868774e+01,2.021284e+01,1
4.170842e+00,1.871554e+01,1.868820e+01,4,21,1.718460e+01,1.769283e+01,1
4.199446e+00,1.473673e+01,1.470995e+01,4,17,1.313838e+01,1.355886e+01,1
3.152405e+00,3.581558e+00,3.555775e+00,3,3,1.139540e+01,1.157980e+01,1
4.169251e+00,9.464360e+00,9.438992e+00,4,9,1.404826e+01,1.420737e+01,1
4.167037e+00,1.310556e+01,1.307082e+01,4,12,1.052967e+01,1.141212e+01,0
3.137058e+00,3.539033e+00,3.504992e+00,3,0,8.652688e+00,1.541297e+01,0
3.137818e+00,3.541209e+00,3.507137e+00,3,0,9.533558e+00,3.200706e+01,0
6.246682e+00,5.281509e+00,5.249262e+00,6,2,1.051006e+01,3.464939e+01,0
4.175918e+00,6.298724e+00,6.268024e+00,4,6,5.945373e+00,5.955559e+00,1
3.127647e+00,3.852879e+00,3.823996e+00,3,3,5.382667e+00,5.396992e+00,1
3.131144e+00,2.621986e+00,2.593994e+00,3,2,3.002024e+00,3.002030e+00,1
3.126522e+00,1.039431e+00,1.013994e+00,3,0,2.282359e+00,2.282360e+00,1
3.110454e+00,2.914723e+00,2.891064e+00,3,2,4.462874e+00,4.471461e+00,1
3.117832e+00,3.863475e+00,3.839016e+00,3,3,7.163017e+00,7.195845e+00,1
3.131332e+00,6.377660e+00,6.353140e+00,3,6,6.310787e+00,6.314437e+00,1
3.113953e+00,1.237235e+00,1.213074e+00,3,0,6.604568e+00,6.629363e+00,1
3.122698e+00,4.540890e+00,4.517078e+00,3,4,6.413403e+00,6.415466e+00,1
3.127745e+00,3.750359e+00,3.725052e+00,3,3,8.469147e+00,8.496266e+00,1
6.275334e+00,5.958487e+00,5.933046e+00,6,5,1.146364e+01,1.149459e+01,1
4.158193e+00,4.415133e+00,4.388094e+00,4,4,1.088429e+01,1.088705e+01,1
3.126493e+00,3.367293e+00,3.342867e+00,3,3,6.792416e+00,6.792414e+00,1
3.110532e+00,9.920700e-01,9.691715e-01,3,0,6.224487e+00,6.224490e+00,1
3.117326e+00,1.996726e+00,1.974106e+00,3,1,6.020631e+00,6.020695e+00,1
3.162151e+00,6.478185e+00,6.446838e+00,3,3,1.160849e+01,3.271797e+01,0
6.220082e+00,3.526114e+00,3.493547e+00,6,0,1.324122e+01,3.556002e+01,0
6.242242e+00,3.558758e+00,3.526926e+00,6,0,1.103857e+01,3.059449e+01,0
6.369878e+00,5.104607e+00,5.072117e+00,6,3,7.293327e+00,1.426072e+01,0
4.158503e+00,2.959251e+00,2.934933e+00,4,2,5.980019e+00,6.007002e+00,1
3.119363e+00,3.219322e+00,3.194809e+00,3,3,5.638380e+00,5.637884e+00,1
6.217830e+00,2.671113e+00,2.645731e+00,6,2,4.333408e+00,4.331379e+00,1
4.199554e+00,3.719015e+00,3.693819e+00,4,3,5.677181e+00,5.680304e+00,1
3.125412e+00,2.064260e+00,2.039194e+00,3,1,5.263501e+00,5.263587e+00,1
3.125580e+00,1.791177e+00,1.767159e+00,3,1,3.144189e+00,3.144190e+00,1
3.114359e+00,1.010528e+00,9.846687e-01,3,0,2.152151e+00,2.152151e+00,1
3.112637e+00,9.946420e-01,9.729862e-01,3,0,2.099031e+00,2.099033e+00,1
3.112216e+00,2.010632e+00,1.988888e+00,3,1,1.414243e+00,1.422496e+00,1
3.104759e+00,1.784675e+00,1.763105e+00,3,1,1.497392e+00,1.497394e+00,1
3.121264e+00,2.813378e+00,2.791166e+00,3,2,3.118790e+00,3.124960e+00,1
6.241446e+00,6.787741e+00,6.752968e+00,6,4,7.973371e+00,8.718087e+00,0
4.177174e+00,3.988844e+00,3.963947e+00,4,4,3.782594e+00,3.782585e+00,1
3.125192e+00,1.005812e+00,9.808540e-01,3,0,5.048502e+00,5.048479e+00,1
3.118257e+00,9.923990e-01,9.689331e-01,3,0,3.314541e+00,3.314128e+00,1
3.123208e+00,4.054988e+00,4.030704e+00,3,3,4.946556e+00,5.087698e+00,1
3.106541e+00,1.235470e+00,1.211166e+00,3,0,7.178789e+00,7.466920e+00,1
4.163291e+00,2.170951e+01,2.167797e+01,4,21,1.091479e+01,1.224967e+01,0
5.208967e+00,1.072048e+01,1.069403e+01,5,12,7.776383e+00,7.793030e+00,1
3.131328e+00,5.861305e+00,5.832911e+00,3,6,5.296603e+00,5.296425e+00,1
3.129731e+00,1.726632e+01,1.723456e+01,3,16,9.936063e+00,1.392355e+01,0
6.235681e+00,1.204934e+01,1.202488e+01,6,14,6.074041e+00,6.052681e+00,1
5.191063e+00,6.468245e+00,6.441832e+00,5,6,6.799355e+00,6.822841e+00,1
4.166555e+00,1.221998e+01,1.219606e+01,4,13,9.537043e+00,9.624037e+00,1
4.174062e+00,9.228499e+00,9.203911e+00,4,10,6.410947e+00,6.408295e+00,1
3.133673e+00,1.837224e+00,1.811028e+00,3,1,5.655918e+00,5.655839e+00,1
3.126840e+00,1.019420e+00,9.939671e-01,3,0,5.200088e+00,5.199907e+00,1
4.149626e+00,9.887410e-01,9.610653e-01,4,0,5.761042e+00,5.761036e+00,1
3.109007e+00,1.001421e+00,9.789467e-01,3,0,6.134664e+00,6.134409e+00,1
3.111490e+00,9.903710e-01,9.679794e-01,3,0,4.973176e+00,4.973172e+00,1
3.125117e+00,9.914060e-01,9.677410e-01,3,0,4.572895e+00,4.572896e+00,1
3.119268e+00,9.907940e-01,9.639263e-01,3,0,4.223520e+00,4.223522e+00,1
3.137599e+00,3.101502e+00,3.077984e+00,3,2,5.867623e+00,5.868260e+00,1
3.112583e+00,2.970522e+00,2.946138e+00,3,2,4.367699e+00,4.380597e+00,1
3.114566e+00,2.014713e+00,1.992226e+00,3,1,3.499336e+00,3.515464e+00,1
3.144145e+00,1.225048e+00,1.202106e+00,3,0,3.278018e+00,3.307067e+00,1
3.121889e+00,2.771576e+00,2.748728e+00,3,2,2.360023e+00,2.360319e+00,1
3.136612e+00,1.229976e+00,1.207113e+00,3,0,3.025709e+00,3.025965e+00,1
3.116650e+00,2.789644e+00,2.768040e+00,3,2,2.153210e+00,2.153514e+00,1

