1.302509e+00,1.452184e+00,1.086950e+00,2,0,0.000000e+00,0.000000e+00
1.937236e+00,2.971650e-01,2.808571e-01,3,0,2.976419e-01,2.976425e-01
1.969946e+00,2.542330e-01,2.419949e-01,3,0,4.687770e-01,4.687774e-01
1.952131e+00,2.535330e-01,2.408028e-01,3,0,1.363080e+00,1.363082e+00
1.970268e+00,2.609870e-01,2.491474e-01,3,0,2.061346e+00,2.061347e+00
1.944688e+00,2.595840e-01,2.470016e-01,3,0,6.421088e-01,6.421085e-01
1.945348e+00,2.532550e-01,2.410412e-01,3,0,7.945535e-01,7.945540e-01
1.943729e+00,2.529010e-01,2.410412e-01,3,0,2.132682e+00,2.132685e+00
1.944199e+00,2.530300e-01,2.410412e-01,3,0,3.644240e+00,3.644243e+00
1.944723e+00,7.106120e-01,6.980896e-01,3,1,6.124898e+00,6.125159e+00
1.945034e+00,6.622600e-01,6.501675e-01,3,1,4.699971e+00,4.699971e+00
1.943271e+00,2.533060e-01,2.410412e-01,3,0,4.603132e+00,4.603133e+00
1.944244e+00,2.532270e-01,2.410412e-01,3,0,6.586225e+00,6.586229e+00
1.942215e+00,2.579350e-01,2.450943e-01,3,0,4.988269e+00,4.988269e+00
1.946404e+00,2.530890e-01,2.410412e-01,3,0,4.351680e+00,4.351681e+00
1.942487e+00,2.529670e-01,2.408028e-01,3,0,3.925203e+00,3.925204e+00
1.944270e+00,2.526610e-01,2.410412e-01,3,0,3.085904e+00,3.085904e+00
1.948314e+00,2.580520e-01,2.460480e-01,3,0,3.172639e+00,3.172640e+00
1.946488e+00,2.528570e-01,2.410412e-01,3,0,2.763468e+00,2.763469e+00
1.944456e+00,2.529170e-01,2.410412e-01,3,0,2.667545e+00,2.667546e+00
1.944596e+00,2.531790e-01,2.410412e-01,3,0,2.743209e+00,2.743210e+00
1.966425e+00,2.584570e-01,2.470016e-01,3,0,2.301120e+00,2.301120e+00
1.945502e+00,2.540130e-01,2.419949e-01,3,0,1.299992e+00,1.299992e+00
1.954276e+00,2.525280e-01,2.410412e-01,3,0,1.097145e+00,1.097146e+00
1.945108e+00,2.537520e-01,2.410412e-01,3,0,1.159756e+00,1.159757e+00
1.955406e+00,2.579950e-01,2.460480e-01,3,0,1.849800e+00,1.849802e+00
1.944284e+00,2.533780e-01,2.410412e-01,3,0,2.683319e+00,2.683321e+00
1.985458e+00,2.525840e-01,2.410412e-01,3,0,1.906968e+00,1.906968e+00
1.942945e+00,2.545900e-01,2.429485e-01,3,0,2.111578e+00,2.111578e+00
1.943573e+00,2.579790e-01,2.460480e-01,3,0,2.306815e+00,2.306816e+00
1.944463e+00,2.534930e-01,2.419949e-01,3,0,2.456434e+00,2.456435e+00
1.942704e+00,2.531630e-01,2.410412e-01,3,0,1.730062e+00,1.730062e+00
1.948835e+00,2.533750e-01,2.419949e-01,3,0,1.589501e+00,1.589501e+00
1.944413e+00,2.581410e-01,2.458096e-01,3,0,1.593623e+00,1.593624e+00
1.943414e+00,2.536100e-01,2.408028e-01,3,0,1.510541e+00,1.510541e+00
1.943006e+00,2.528830e-01,2.410412e-01,3,0,2.568406e+00,2.568407e+00
1.943653e+00,2.526110e-01,2.410412e-01,3,0,1.087421e+00,1.087421e+00
1.943604e+00,2.568970e-01,2.439022e-01,3,0,2.068643e+00,2.068645e+00
1.944467e+00,2.531340e-01,2.410412e-01,3,0,1.414141e+00,1.414141e+00
1.942624e+00,2.525930e-01,2.400875e-01,3,0,1.298535e+00,1.298536e+00
1.944629e+00,2.533270e-01,2.410412e-01,3,0,1.512528e+00,1.512529e+00
1.944431e+00,2.579790e-01,2.450943e-01,3,0,1.946575e+00,1.946577e+00
1.944338e+00,2.522140e-01,2.410412e-01,3,0,3.034981e+00,3.034984e+00
1.945103e+00,2.533790e-01,2.419949e-01,3,0,3.044189e+00,3.044190e+00
1.945124e+00,2.529640e-01,2.410412e-01,3,0,2.330619e+00,2.330619e+00
1.945089e+00,2.571380e-01,2.448559e-01,3,0,2.158546e+00,2.158547e+00
1.943817e+00,2.528590e-01,2.408028e-01,3,0,1.675291e+00,1.675291e+00
1.943583e+00,2.529530e-01,2.410412e-01,3,0,2.030076e+00,2.030077e+00
1.944318e+00,2.528850e-01,2.410412e-01,3,0,3.498888e+00,3.498891e+00
1.944470e+00,2.573420e-01,2.450943e-01,3,0,2.007035e+00,2.007035e+00
1.944920e+00,2.528570e-01,2.410412e-01,3,0,2.361073e+00,2.361075e+00
1.943968e+00,2.527950e-01,2.410412e-01,3,0,2.904627e+00,2.904629e+00
1.945960e+00,2.529060e-01,2.400875e-01,3,0,4.534894e+00,4.534897e+00
1.945153e+00,2.578990e-01,2.460480e-01,3,0,3.757001e+00,3.757001e+00
1.944924e+00,2.530180e-01,2.410412e-01,3,0,2.693760e+00,2.693759e+00
1.943636e+00,2.530580e-01,2.410412e-01,3,0,2.774666e+00,2.774667e+00
1.946224e+00,2.531520e-01,2.410412e-01,3,0,2.226826e+00,2.226826e+00
1.944960e+00,2.573520e-01,2.450943e-01,3,0,1.731583e+00,1.731583e+00
1.943145e+00,2.529740e-01,2.410412e-01,3,0,1.137752e+00,1.137753e+00
1.944725e+00,2.528910e-01,2.410412e-01,3,0,1.209884e+00,1.209885e+00
1.944601e+00,2.531010e-01,2.410412e-01,3,0,1.514822e+00,1.514823e+00
1.945993e+00,2.574560e-01,2.450943e-01,3,0,1.719821e+00,1.719822e+00
1.943508e+00,2.530020e-01,2.410412e-01,3,0,2.906696e+00,2.906697e+00
1.942387e+00,2.528250e-01,2.410412e-01,3,0,2.200976e+00,2.200976e+00
1.943897e+00,2.527870e-01,2.408028e-01,3,0,1.599608e+00,1.599608e+00
1.943692e+00,2.572500e-01,2.450943e-01,3,0,1.152193e+00,1.152193e+00
1.944532e+00,2.532170e-01,2.410412e-01,3,0,1.157971e+00,1.157971e+00
1.943943e+00,2.530520e-01,2.410412e-01,3,0,1.084610e+00,1.084610e+00
1.942872e+00,2.534300e-01,2.419949e-01,3,0,8.785418e-01,8.785421e-01
1.941785e+00,2.576580e-01,2.458096e-01,3,0,7.509137e-01,7.509140e-01
1.941432e+00,2.524510e-01,2.400875e-01,3,0,1.886630e+00,1.886633e+00
1.939389e+00,6.145590e-01,6.029606e-01,3,1,5.307818e+00,5.307612e+00
2.588589e+00,6.043250e-01,5.919933e-01,4,1,2.134361e+00,2.134358e+00
1.945391e+00,2.536700e-01,2.419949e-01,3,0,1.770311e+00,1.770311e+00
1.945153e+00,2.525950e-01,2.408028e-01,3,0,1.021256e+00,1.021256e+00
1.939487e+00,2.533270e-01,2.408028e-01,3,0,1.081321e+00,1.081321e+00
1.946017e+00,2.580420e-01,2.448559e-01,3,0,9.723539e-01,9.723543e-01
1.943558e+00,2.531080e-01,2.410412e-01,3,0,1.255504e+00,1.255505e+00
1.943048e+00,2.530250e-01,2.408028e-01,3,0,1.968239e+00,1.968241e+00
1.936915e+00,2.529720e-01,2.410412e-01,3,0,1.532832e+00,1.532832e+00
1.944399e+00,2.580690e-01,2.460480e-01,3,0,1.726892e+00,1.726893e+00
1.944557e+00,2.531660e-01,2.410412e-01,3,0,1.333361e+00,1.333362e+00
1.943922e+00,2.533510e-01,2.410412e-01,3,0,1.267833e+00,1.267833e+00
1.939626e+00,2.535780e-01,2.410412e-01,3,0,1.135924e+00,1.135924e+00
1.945270e+00,2.576920e-01,2.450943e-01,3,0,1.240888e+00,1.240888e+00
1.944967e+00,2.531350e-01,2.410412e-01,3,0,1.399828e+00,1.399829e+00
1.943704e+00,2.534720e-01,2.410412e-01,3,0,9.640429e-01,9.640434e-01
1.939197e+00,2.536760e-01,2.419949e-01,3,0,8.918413e-01,8.918417e-01
1.944102e+00,2.577970e-01,2.460480e-01,3,0,6.109703e-01,6.109708e-01
1.941866e+00,2.525750e-01,2.410412e-01,3,0,1.323221e+00,1.323222e+00
1.944292e+00,2.534080e-01,2.410412e-01,3,0,1.312155e+00,1.312155e+00
1.936730e+00,2.530870e-01,2.410412e-01,3,0,1.395400e+00,1.395401e+00
1.943331e+00,2.577470e-01,2.448559e-01,3,0,1.492729e+00,1.492730e+00
1.945598e+00,2.532640e-01,2.410412e-01,3,0,2.162799e+00,2.162801e+00
1.942698e+00,2.534860e-01,2.419949e-01,3,0,3.279634e+00,3.279637e+00
1.940052e+00,2.536400e-01,2.419949e-01,3,0,3.456419e+00,3.456421e+00
1.944950e+00,2.583080e-01,2.460480e-01,3,0,3.167110e+00,3.167111e+00
1.944174e+00,2.529570e-01,2.419949e-01,3,0,3.382375e+00,3.382376e+00
1.943918e+00,2.532970e-01,2.410412e-01,3,0,3.932084e+00,3.932086e+00
1.940179e+00,2.534650e-01,2.419949e-01,3,0,3.649959e+00,3.649960e+00
1.944913e+00,2.572340e-01,2.448559e-01,3,0,2.214032e+00,2.214032e+00
1.998064e+00,2.532350e-01,2.410412e-01,3,0,2.419021e+00,2.419022e+00
1.943802e+00,2.545460e-01,2.419949e-01,3,0,2.369138e+00,2.369138e+00
1.940724e+00,2.580110e-01,2.460480e-01,3,0,2.038473e+00,2.038474e+00
1.944698e+00,2.532790e-01,2.408028e-01,3,0,1.518726e+00,1.518726e+00
1.944681e+00,2.530140e-01,2.408028e-01,3,0,1.618740e+00,1.618741e+00
1.943959e+00,2.535920e-01,2.419949e-01,3,0,1.874286e+00,1.874287e+00
1.943472e+00,2.592830e-01,2.470016e-01,3,0,3.028599e+00,3.028602e+00
1.942808e+00,2.531570e-01,2.410412e-01,3,0,1.195695e+00,1.195694e+00
1.939371e+00,2.533740e-01,2.410412e-01,3,0,2.465708e+00,2.465711e+00
1.944965e+00,2.530550e-01,2.410412e-01,3,0,1.220465e+00,1.220464e+00
1.943697e+00,2.580960e-01,2.460480e-01,3,0,1.366188e+00,1.366188e+00
1.945326e+00,2.529900e-01,2.398491e-01,3,0,2.960126e+00,2.960129e+00
1.944225e+00,2.537060e-01,2.419949e-01,3,0,3.095306e+00,3.095307e+00
1.943948e+00,2.529820e-01,2.410412e-01,3,0,2.200610e+00,2.200610e+00
1.958606e+00,2.581250e-01,2.460480e-01,3,0,4.019909e+00,4.019913e+00
1.945194e+00,2.671290e-01,2.548695e-01,3,0,3.524855e+00,3.524855e+00
1.944651e+00,2.532720e-01,2.408028e-01,3,0,2.929514e+00,2.929514e+00
1.945376e+00,2.529850e-01,2.408028e-01,3,0,2.124789e+00,2.124790e+00
1.944344e+00,2.577120e-01,2.458096e-01,3,0,2.064947e+00,2.064947e+00
1.943004e+00,2.530630e-01,2.408028e-01,3,0,2.780835e+00,2.780836e+00
1.945280e+00,2.529950e-01,2.410412e-01,3,0,3.518005e+00,3.518007e+00
1.946094e+00,1.612195e+00,1.600027e+00,3,3,5.396601e+00,5.421400e+00
1.947190e+00,1.458162e+00,1.446009e+00,3,3,1.913071e+00,1.913068e+00
1.944719e+00,2.532860e-01,2.419949e-01,3,0,1.699980e+00,1.699981e+00
1.944101e+00,2.576520e-01,2.450943e-01,3,0,1.520971e+00,1.520971e+00
1.944598e+00,2.535730e-01,2.410412e-01,3,0,1.925956e+00,1.925958e+00
1.943151e+00,2.532250e-01,2.419949e-01,3,0,3.154583e+00,3.154586e+00
1.943912e+00,2.533680e-01,2.410412e-01,3,0,3.993400e+00,3.993402e+00
1.945052e+00,2.579610e-01,2.448559e-01,3,0,3.838498e+00,3.838498e+00
1.958257e+00,2.532010e-01,2.408028e-01,3,0,5.312126e+00,5.312129e+00
1.945198e+00,2.546100e-01,2.419949e-01,3,0,4.406935e+00,4.406936e+00
1.955765e+00,2.524000e-01,2.410412e-01,3,0,3.038628e+00,3.038627e+00
1.948122e+00,2.597350e-01,2.479553e-01,3,0,2.348514e+00,2.348514e+00
1.946696e+00,2.543210e-01,2.419949e-01,3,0,2.181256e+00,2.181257e+00
1.953594e+00,2.536390e-01,2.410412e-01,3,0,2.003941e+00,2.003941e+00
1.945145e+00,2.550360e-01,2.419949e-01,3,0,1.870864e+00,1.870865e+00
1.946550e+00,2.584430e-01,2.470016e-01,3,0,2.673809e+00,2.673812e+00
1.945682e+00,2.534550e-01,2.408028e-01,3,0,3.196365e+00,3.196366e+00
1.946314e+00,4.013283e+00,3.979921e+00,3,5,7.570142e+00,7.774087e+00
2.590407e+00,2.262089e+00,2.249002e+00,4,5,5.107578e+00,5.107573e+00
1.944073e+00,2.534930e-01,2.410412e-01,3,0,4.397896e+00,4.397894e+00
1.945136e+00,2.531780e-01,2.410412e-01,3,0,3.044378e+00,3.044377e+00
1.953891e+00,2.580660e-01,2.460480e-01,3,0,3.833445e+00,3.833447e+00
1.946286e+00,7.346000e-01,7.228851e-01,3,1,6.766001e+00,6.766068e+00
1.945181e+00,6.585200e-01,6.470680e-01,3,1,5.033710e+00,5.033709e+00
1.944513e+00,2.530160e-01,2.410412e-01,3,0,3.321351e+00,3.321350e+00
1.941290e+00,2.530110e-01,2.410412e-01,3,0,3.640285e+00,3.640287e+00
1.946191e+00,7.078770e-01,6.909370e-01,3,1,3.382691e+00,3.382902e+00
1.947592e+00,6.610560e-01,6.489754e-01,3,1,2.353999e+00,2.353999e+00
1.945916e+00,2.536280e-01,2.410412e-01,3,0,2.294896e+00,2.294896e+00
1.945614e+00,2.533910e-01,2.410412e-01,3,0,1.763717e+00,1.763717e+00
1.944898e+00,2.583300e-01,2.470016e-01,3,0,7.602025e-01,7.602023e-01
1.944985e+00,2.535930e-01,2.410412e-01,3,0,9.905028e-01,9.905036e-01
1.943757e+00,2.526550e-01,2.400875e-01,3,0,6.893309e-01,6.893320e-01
1.971032e+00,2.523830e-01,2.398491e-01,3,0,3.160003e+00,3.160008e+00
1.943620e+00,2.586420e-01,2.460480e-01,3,0,3.181513e+00,3.181514e+00
1.945639e+00,2.536210e-01,2.419949e-01,3,0,3.643298e+00,3.643299e+00
1.947744e+00,7.400210e-01,7.281303e-01,3,1,7.041450e+00,7.051542e+00
1.943853e+00,6.532180e-01,6.411076e-01,3,1,5.314084e+00,5.314083e+00
1.945579e+00,2.584300e-01,2.460480e-01,3,0,6.775689e+00,6.775692e+00
1.945698e+00,2.527580e-01,2.410412e-01,3,0,5.355845e+00,5.355845e+00
1.943146e+00,2.527260e-01,2.410412e-01,3,0,4.391616e+00,4.391617e+00
1.942235e+00,1.188879e+00,1.176119e+00,3,2,5.788316e+00,5.870644e+00
1.948798e+00,3.004629e+00,2.993107e+00,3,6,6.284503e+00,6.490707e+00
3.232649e+00,2.471083e+00,2.458096e+00,5,5,6.116975e+00,6.370223e+00
3.873734e+00,2.486990e+00,2.475023e+00,6,5,6.596366e+00,6.911906e+00
4.563194e+00,1.601143e+00,1.589060e+00,7,3,6.829576e+00,7.070546e+00
3.885492e+00,6.744840e+00,6.732941e+00,6,15,1.121013e+01,1.187052e+01
3.880199e+00,4.074807e+00,4.061937e+00,6,9,1.215252e+01,1.267068e+01
3.245767e+00,5.097377e+00,5.084991e+00,5,12,9.400281e+00,9.487354e+00
3.883091e+00,1.650032e+00,1.638174e+00,6,3,1.108118e+01,1.113002e+01
2.584458e+00,2.407451e+00,2.395868e+00,4,5,9.815185e+00,9.821011e+00
1.946044e+00,1.473135e+00,1.461029e+00,3,3,9.237338e+00,9.237322e+00
1.944553e+00,2.548340e-01,2.429485e-01,3,0,8.451022e+00,8.451023e+00
1.944234e+00,2.547110e-01,2.431870e-01,3,0,9.326763e+00,9.326767e+00
1.945627e+00,2.582830e-01,2.460480e-01,3,0,6.444601e+00,6.444600e+00
1.945858e+00,2.546040e-01,2.429485e-01,3,0,5.258671e+00,5.258671e+00
1.945478e+00,2.540380e-01,2.419949e-01,3,0,5.106250e+00,5.106252e+00
1.945804e+00,1.177793e+00,1.166105e+00,3,2,5.968310e+00,5.976463e+00
1.943299e+00,3.583873e+00,3.564358e+00,3,4,6.543849e+00,6.897565e+00
1.945971e+00,1.816413e+00,1.798153e+00,3,0,7.843378e+00,1.157549e+01
4.523883e+00,1.811184e+00,1.792908e+00,7,0,8.475623e+00,1.139709e+01
4.533108e+00,1.062962e+00,1.049995e+00,7,2,4.380440e+00,4.380181e+00
1.945629e+00,2.537920e-01,2.419949e-01,3,0,2.160650e+00,2.160639e+00
1.945567e+00,2.549490e-01,2.419949e-01,3,0,1.488141e+00,1.488142e+00
1.942978e+00,2.545360e-01,2.419949e-01,3,0,1.266647e+00,1.266648e+00
1.944020e+00,2.592180e-01,2.470016e-01,3,0,9.226919e-01,9.226920e-01
1.944260e+00,2.543990e-01,2.429485e-01,3,0,1.997498e+00,1.997501e+00
1.942641e+00,2.542700e-01,2.429485e-01,3,0,1.073697e+00,1.073697e+00
1.945296e+00,2.550700e-01,2.429485e-01,3,0,1.603044e+00,1.603045e+00
1.944160e+00,2.591170e-01,2.470016e-01,3,0,3.425625e+00,3.425628e+00
1.944207e+00,2.548210e-01,2.429485e-01,3,0,2.908979e+00,2.908979e+00
1.944263e+00,2.542630e-01,2.419949e-01,3,0,5.267647e+00,5.267652e+00
1.945536e+00,2.544800e-01,2.429485e-01,3,0,5.190945e+00,5.190946e+00
1.970464e+00,2.591180e-01,2.470016e-01,3,0,3.355248e+00,3.355247e+00
1.944261e+00,2.548560e-01,2.429485e-01,3,0,2.598185e+00,2.598185e+00
1.943749e+00,2.545330e-01,2.429485e-01,3,0,2.012019e+00,2.012019e+00
1.938745e+00,2.546540e-01,2.429485e-01,3,0,1.684965e+00,1.684965e+00
1.945209e+00,2.593160e-01,2.470016e-01,3,0,1.309046e+00,1.309046e+00
1.943861e+00,2.543470e-01,2.419949e-01,3,0,1.847789e+00,1.847790e+00
1.942142e+00,2.546220e-01,2.419949e-01,3,0,1.461717e+00,1.461717e+00
1.938519e+00,2.548720e-01,2.429485e-01,3,0,1.575161e+00,1.575162e+00
1.944834e+00,2.592440e-01,2.479553e-01,3,0,1.423629e+00,1.423629e+00
1.946087e+00,2.543840e-01,2.419949e-01,3,0,1.304519e+00,1.304519e+00
1.944258e+00,2.542880e-01,2.419949e-01,3,0,1.422062e+00,1.422063e+00
1.940815e+00,2.543440e-01,2.419949e-01,3,0,1.639854e+00,1.639855e+00
1.977985e+00,2.818540e-01,2.691746e-01,3,0,1.427265e+00,1.427265e+00
1.944988e+00,3.116670e-01,2.968311e-01,3,0,1.021398e+00,1.021398e+00
1.946339e+00,2.595020e-01,2.470016e-01,3,0,8.620539e-01,8.620541e-01
1.944518e+00,2.734200e-01,2.598763e-01,3,0,1.051480e+00,1.051481e+00
1.969979e+00,2.568010e-01,2.439022e-01,3,0,1.298508e+00,1.298509e+00
1.963182e+00,2.544330e-01,2.429485e-01,3,0,1.009532e+00,1.009532e+00
1.944361e+00,2.559620e-01,2.441406e-01,3,0,1.435664e+00,1.435665e+00
1.982352e+00,2.595290e-01,2.470016e-01,3,0,2.073394e+00,2.073396e+00
1.943243e+00,2.551650e-01,2.429485e-01,3,0,7.190621e-01,7.190615e-01
1.948808e+00,2.542380e-01,2.419949e-01,3,0,8.893389e-01,8.893398e-01
1.939583e+00,2.607260e-01,2.479553e-01,3,0,6.329064e-01,6.329069e-01
1.955829e+00,2.591770e-01,2.419949e-01,3,0,7.738339e-01,7.738344e-01
1.944320e+00,2.566570e-01,2.439022e-01,3,0,7.931578e-01,7.931581e-01
1.942110e+00,2.547190e-01,2.431870e-01,3,0,7.752519e-01,7.752524e-01
1.943119e+00,2.598600e-01,2.481937e-01,3,0,1.042067e+00,1.042067e+00
1.946135e+00,2.542620e-01,2.419949e-01,3,0,1.490331e+00,1.490333e+00
1.944151e+00,2.540520e-01,2.419949e-01,3,0,1.056479e+00,1.056480e+00
1.945306e+00,2.545180e-01,2.419949e-01,3,0,1.030619e+00,1.030620e+00
1.944614e+00,2.592330e-01,2.470016e-01,3,0,1.108046e+00,1.108047e+00
1.944567e+00,2.541740e-01,2.419949e-01,3,0,1.011736e+00,1.011737e+00
1.943404e+00,2.542630e-01,2.419949e-01,3,0,2.222563e+00,2.222565e+00
1.945168e+00,2.551010e-01,2.429485e-01,3,0,3.361898e+00,3.361900e+00
1.944120e+00,2.594470e-01,2.470016e-01,3,0,3.278255e+00,3.278256e+00
1.945502e+00,2.540650e-01,2.419949e-01,3,0,2.653825e+00,2.653826e+00
1.944046e+00,2.546820e-01,2.429485e-01,3,0,2.407725e+00,2.407726e+00
1.944471e+00,2.543500e-01,2.419949e-01,3,0,2.550684e+00,2.550686e+00
1.944451e+00,2.595540e-01,2.470016e-01,3,0,2.010557e+00,2.010558e+00
1.944302e+00,2.540600e-01,2.419949e-01,3,0,2.082939e+00,2.082940e+00
1.944922e+00,2.542000e-01,2.419949e-01,3,0,1.796567e+00,1.796568e+00
1.944057e+00,2.547990e-01,2.419949e-01,3,0,2.144346e+00,2.144347e+00
1.943177e+00,2.592770e-01,2.470016e-01,3,0,1.647341e+00,1.647341e+00
1.944469e+00,2.544980e-01,2.419949e-01,3,0,1.009773e+00,1.009773e+00
1.968642e+00,2.548390e-01,2.419949e-01,3,0,8.605974e-01,8.605976e-01
1.950216e+00,2.547620e-01,2.419949e-01,3,0,6.337504e-01,6.337508e-01
1.943068e+00,2.589180e-01,2.470016e-01,3,0,8.269969e-01,8.269977e-01
1.945001e+00,2.545960e-01,2.429485e-01,3,0,6.718237e-01,6.718239e-01
1.944805e+00,2.546260e-01,2.429485e-01,3,0,5.047048e-01,5.047049e-01
1.940181e+00,2.552620e-01,2.429485e-01,3,0,5.692280e-01,5.692284e-01
1.942643e+00,2.586010e-01,2.458096e-01,3,0,6.922036e-01,6.922041e-01
1.971885e+00,2.539390e-01,2.419949e-01,3,0,1.137589e+00,1.137591e+00
1.942202e+00,2.554140e-01,2.429485e-01,3,0,1.107535e+00,1.107535e+00
1.941601e+00,2.540770e-01,2.419949e-01,3,0,8.907576e-01,8.907581e-01
1.942237e+00,2.592930e-01,2.470016e-01,3,0,8.831961e-01,8.831965e-01
1.943029e+00,2.536090e-01,2.419949e-01,3,0,1.080079e+00,1.080080e+00
1.944768e+00,2.545970e-01,2.419949e-01,3,0,1.671455e+00,1.671457e+00
1.987355e+00,2.849340e-01,2.720356e-01,3,0,9.933157e-01,9.933159e-01
1.971525e+00,2.650980e-01,2.520084e-01,3,0,7.337816e-01,7.337820e-01
1.944946e+00,2.574790e-01,2.450943e-01,3,0,7.026122e-01,7.026130e-01
1.969342e+00,2.864090e-01,2.720356e-01,3,0,9.479220e-01,9.479228e-01
1.946689e+00,2.668460e-01,2.539158e-01,3,0,9.063148e-01,9.063152e-01
1.970677e+00,2.775320e-01,2.648830e-01,3,0,9.373623e-01,9.373627e-01
1.943559e+00,2.580590e-01,2.450943e-01,3,0,8.818426e-01,8.818430e-01
1.941909e+00,2.568480e-01,2.450943e-01,3,0,8.529242e-01,8.529247e-01
1.945749e+00,2.597750e-01,2.481937e-01,3,0,7.154028e-01,7.154031e-01
1.976648e+00,2.544540e-01,2.429485e-01,3,0,2.807644e+00,2.807648e+00
1.945830e+00,2.555130e-01,2.431870e-01,3,0,1.587489e+00,1.587489e+00
1.944014e+00,2.549060e-01,2.429485e-01,3,0,9.428263e-01,9.428261e-01
1.944890e+00,2.598600e-01,2.470016e-01,3,0,9.017432e-01,9.017434e-01
1.944030e+00,2.544350e-01,2.419949e-01,3,0,1.271105e+00,1.271106e+00
1.945365e+00,2.547850e-01,2.429485e-01,3,0,1.640311e+00,1.640312e+00
1.946765e+00,2.543970e-01,2.429485e-01,3,0,1.606809e+00,1.606810e+00
1.943656e+00,2.663180e-01,2.541542e-01,3,0,1.735829e+00,1.735830e+00
1.970593e+00,2.548410e-01,2.429485e-01,3,0,1.645524e+00,1.645524e+00
1.945778e+00,2.551960e-01,2.429485e-01,3,0,2.136637e+00,2.136638e+00
1.939607e+00,2.543390e-01,2.429485e-01,3,0,3.608900e+00,3.608902e+00
1.968844e+00,5.956490e-01,5.841255e-01,3,1,4.965899e+00,4.965694e+00
3.262729e+00,5.828860e-01,5.700588e-01,5,1,2.656753e+00,2.656699e+00
1.946147e+00,2.552020e-01,2.431870e-01,3,0,1.434355e+00,1.434355e+00
1.938244e+00,2.593790e-01,2.470016e-01,3,0,1.612253e+00,1.612253e+00
1.943015e+00,2.552590e-01,2.429485e-01,3,0,1.453147e+00,1.453147e+00
1.944332e+00,2.547140e-01,2.429485e-01,3,0,1.294163e+00,1.294163e+00
1.942375e+00,2.554140e-01,2.431870e-01,3,0,8.763594e-01,8.763595e-01
1.944578e+00,2.596880e-01,2.481937e-01,3,0,6.079426e-01,6.079427e-01
1.943566e+00,2.538170e-01,2.419949e-01,3,0,8.339083e-01,8.339091e-01
1.943539e+00,2.544210e-01,2.429485e-01,3,0,1.172109e+00,1.172110e+00
1.944103e+00,2.547170e-01,2.419949e-01,3,0,6.170988e-01,6.170993e-01
1.967538e+00,2.591950e-01,2.470016e-01,3,0,2.294985e+00,2.294989e+00
1.945516e+00,2.546470e-01,2.419949e-01,3,0,1.835155e+00,1.835155e+00
1.945804e+00,2.552870e-01,2.431870e-01,3,0,1.241214e+00,1.241214e+00
1.970935e+00,2.545050e-01,2.429485e-01,3,0,1.798173e+00,1.798174e+00
1.943100e+00,2.597610e-01,2.470016e-01,3,0,1.233691e+00,1.233691e+00
1.940962e+00,2.548280e-01,2.429485e-01,3,0,1.225007e+00,1.225008e+00
1.944812e+00,2.544860e-01,2.419949e-01,3,0,1.384110e+00,1.384110e+00
1.941746e+00,2.547010e-01,2.419949e-01,3,0,2.223559e+00,2.223561e+00
1.945327e+00,2.596990e-01,2.470016e-01,3,0,1.898300e+00,1.898301e+00
1.943001e+00,2.541360e-01,2.419949e-01,3,0,4.457940e+00,4.457944e+00
1.944856e+00,2.537680e-01,2.410412e-01,3,0,3.420484e+00,3.420484e+00
2.587862e+00,1.564592e+00,1.553059e+00,4,3,7.969279e+00,7.971581e+00
3.909531e+00,1.059638e+00,1.048088e+00,6,2,6.586946e+00,6.558326e+00
2.591991e+00,5.831110e-01,5.710125e-01,4,1,6.260227e+00,6.260229e+00
1.945575e+00,2.543970e-01,2.419949e-01,3,0,4.192889e+00,4.192889e+00
1.945113e+00,2.553210e-01,2.429485e-01,3,0,3.940791e+00,3.940792e+00
1.951312e+00,2.544250e-01,2.419949e-01,3,0,3.721486e+00,3.721487e+00
1.944673e+00,2.592750e-01,2.470016e-01,3,0,3.508079e+00,3.508080e+00
1.944284e+00,2.549450e-01,2.429485e-01,3,0,3.222248e+00,3.222248e+00
1.967867e+00,2.547210e-01,2.429485e-01,3,0,3.881544e+00,3.881546e+00
1.945433e+00,2.552940e-01,2.439022e-01,3,0,2.921004e+00,2.921004e+00
1.944730e+00,2.592490e-01,2.470016e-01,3,0,1.871613e+00,1.871613e+00
1.944966e+00,2.538620e-01,2.419949e-01,3,0,2.888509e+00,2.888511e+00
1.945031e+00,2.534890e-01,2.419949e-01,3,0,1.317897e+00,1.317897e+00
1.944416e+00,2.546720e-01,2.429485e-01,3,0,1.317835e+00,1.317836e+00
1.941974e+00,2.593640e-01,2.479553e-01,3,0,7.002076e-01,7.002077e-01
1.943252e+00,2.548990e-01,2.431870e-01,3,0,8.921666e-01,8.921673e-01
1.943855e+00,2.547700e-01,2.419949e-01,3,0,9.253647e-01,9.253652e-01
1.942009e+00,2.546870e-01,2.419949e-01,3,0,2.008081e+00,2.008083e+00
1.949352e+00,2.594230e-01,2.470016e-01,3,0,1.068254e+00,1.068254e+00
1.968411e+00,2.545630e-01,2.429485e-01,3,0,8.302097e-01,8.302100e-01
1.967965e+00,2.555240e-01,2.439022e-01,3,0,5.844454e-01,5.844455e-01
1.943818e+00,2.558020e-01,2.439022e-01,3,0,4.433762e-01,4.433763e-01
1.943552e+00,2.587900e-01,2.458096e-01,3,0,7.483079e-01,7.483087e-01
1.943181e+00,2.544180e-01,2.431870e-01,3,0,6.034860e-01,6.034862e-01
1.943164e+00,2.554370e-01,2.441406e-01,3,0,9.362854e-01,9.362864e-01
1.942133e+00,2.546650e-01,2.429485e-01,3,0,3.875060e-01,3.875060e-01
1.964506e+00,2.600010e-01,2.481937e-01,3,0,4.595762e-01,4.595765e-01
1.944991e+00,2.552870e-01,2.429485e-01,3,0,1.111398e+00,1.111400e+00
1.943777e+00,2.545880e-01,2.429485e-01,3,0,9.509364e-01,9.509365e-01
1.949120e+00,2.549110e-01,2.431870e-01,3,0,1.456068e+00,1.456069e+00
1.949115e+00,2.606550e-01,2.479553e-01,3,0,9.167341e-01,9.167340e-01
1.943313e+00,2.800230e-01,2.679825e-01,3,0,7.823560e-01,7.823563e-01
1.956832e+00,2.551330e-01,2.429485e-01,3,0,5.863322e-01,5.863325e-01
1.936780e+00,2.559230e-01,2.429485e-01,3,0,1.187876e+00,1.187877e+00
1.944204e+00,2.589070e-01,2.460480e-01,3,0,8.895934e-01,8.895941e-01
1.946319e+00,2.546840e-01,2.431870e-01,3,0,1.299535e+00,1.299536e+00
1.942843e+00,2.549630e-01,2.419949e-01,3,0,1.031162e+00,1.031163e+00
1.937979e+00,2.547710e-01,2.429485e-01,3,0,1.128841e+00,1.128842e+00
1.943106e+00,2.594750e-01,2.470016e-01,3,0,8.440592e-01,8.440596e-01
1.944483e+00,2.552880e-01,2.429485e-01,3,0,1.251636e+00,1.251637e+00
1.943749e+00,2.543360e-01,2.431870e-01,3,0,1.055762e+00,1.055763e+00
1.938631e+00,2.546830e-01,2.419949e-01,3,0,2.428662e+00,2.428665e+00
1.945906e+00,2.590960e-01,2.470016e-01,3,0,3.663892e+00,3.663894e+00
1.943596e+00,2.548580e-01,2.429485e-01,3,0,2.850105e+00,2.850105e+00
1.943407e+00,2.547750e-01,2.429485e-01,3,0,1.890048e+00,1.890048e+00
1.940226e+00,2.547560e-01,2.431870e-01,3,0,1.690680e+00,1.690680e+00
1.943997e+00,2.592160e-01,2.431870e-01,3,0,1.692403e+00,1.692404e+00
1.942106e+00,2.545660e-01,2.419949e-01,3,0,1.480748e+00,1.480748e+00
1.940426e+00,2.547370e-01,2.429485e-01,3,0,1.177514e+00,1.177515e+00
1.938633e+00,2.598300e-01,2.429485e-01,3,0,1.130230e+00,1.130230e+00
1.944496e+00,2.596200e-01,2.429485e-01,3,0,1.383923e+00,1.383924e+00
1.941600e+00,2.544900e-01,2.419949e-01,3,0,1.644637e+00,1.644638e+00
1.945763e+00,2.548200e-01,2.419949e-01,3,0,1.050247e+00,1.050247e+00
1.968343e+00,2.586660e-01,2.460480e-01,3,0,1.064558e+00,1.064559e+00
1.944717e+00,2.554920e-01,2.439022e-01,3,0,9.150413e-01,9.150417e-01
1.942645e+00,2.547370e-01,2.429485e-01,3,0,9.302994e-01,9.303002e-01
1.943818e+00,2.548140e-01,2.429485e-01,3,0,1.495777e+00,1.495778e+00
1.944446e+00,2.595390e-01,2.470016e-01,3,0,2.283757e+00,2.283758e+00
1.944943e+00,2.544890e-01,2.429485e-01,3,0,1.386738e+00,1.386738e+00
1.945196e+00,2.549490e-01,2.429485e-01,3,0,1.506095e+00,1.506096e+00
1.945533e+00,2.551050e-01,2.429485e-01,3,0,2.460188e+00,2.460190e+00
1.943192e+00,2.595170e-01,2.479553e-01,3,0,2.925904e+00,2.925905e+00
1.943986e+00,2.544500e-01,2.419949e-01,3,0,2.258781e+00,2.258781e+00
1.971611e+00,2.547260e-01,2.431870e-01,3,0,2.463933e+00,2.463933e+00
1.943166e+00,2.551440e-01,2.429485e-01,3,0,2.158347e+00,2.158348e+00
1.956025e+00,2.583680e-01,2.460480e-01,3,0,1.615884e+00,1.615885e+00
1.950541e+00,2.551270e-01,2.429485e-01,3,0,2.035062e+00,2.035063e+00
1.943677e+00,2.550140e-01,2.431870e-01,3,0,1.518035e+00,1.518035e+00
1.943872e+00,2.547960e-01,2.429485e-01,3,0,1.403568e+00,1.403569e+00
1.943519e+00,2.594980e-01,2.470016e-01,3,0,1.063996e+00,1.063996e+00
1.942188e+00,2.550220e-01,2.429485e-01,3,0,8.467782e-01,8.467787e-01
1.943812e+00,2.542200e-01,2.419949e-01,3,0,9.583401e-01,9.583410e-01
1.942380e+00,2.552590e-01,2.429485e-01,3,0,9.196338e-01,9.196342e-01
1.943725e+00,2.585390e-01,2.460480e-01,3,0,2.013718e+00,2.013720e+00
1.945524e+00,2.551220e-01,2.429485e-01,3,0,1.286304e+00,1.286304e+00
1.968131e+00,2.547720e-01,2.431870e-01,3,0,1.081879e+00,1.081879e+00
1.944094e+00,2.549750e-01,2.431870e-01,3,0,1.092188e+00,1.092189e+00
1.943280e+00,2.590410e-01,2.470016e-01,3,0,8.162643e-01,8.162648e-01
1.944476e+00,2.544960e-01,2.429485e-01,3,0,1.257495e+00,1.257496e+00
1.944703e+00,2.547450e-01,2.429485e-01,3,0,1.511932e+00,1.511933e+00
1.944528e+00,2.545730e-01,2.429485e-01,3,0,2.057693e+00,2.057695e+00
1.944844e+00,2.599740e-01,2.479553e-01,3,0,1.899272e+00,1.899272e+00
1.970652e+00,2.542170e-01,2.419949e-01,3,0,3.587266e+00,3.587270e+00
1.943949e+00,2.548240e-01,2.419949e-01,3,0,2.678656e+00,2.678656e+00
1.944094e+00,2.546080e-01,2.419949e-01,3,0,3.133407e+00,3.133408e+00
1.945009e+00,2.592610e-01,2.470016e-01,3,0,3.664675e+00,3.664676e+00
1.944987e+00,2.544900e-01,2.429485e-01,3,0,3.246399e+00,3.246399e+00
1.942222e+00,2.551250e-01,2.431870e-01,3,0,3.286277e+00,3.286278e+00
1.942536e+00,2.545560e-01,2.419949e-01,3,0,2.535539e+00,2.535539e+00
1.943754e+00,2.593970e-01,2.479553e-01,3,0,2.420780e+00,2.420781e+00
1.944344e+00,2.544330e-01,2.419949e-01,3,0,1.821677e+00,1.821677e+00
1.945094e+00,2.550980e-01,2.431870e-01,3,0,1.592682e+00,1.592682e+00
1.944190e+00,2.545510e-01,2.419949e-01,3,0,1.396280e+00,1.396280e+00
1.945543e+00,2.593310e-01,2.470016e-01,3,0,1.740462e+00,1.740463e+00
1.939780e+00,2.549710e-01,2.429485e-01,3,0,2.288128e+00,2.288130e+00
1.944958e+00,2.551820e-01,2.439022e-01,3,0,2.262035e+00,2.262035e+00
1.944129e+00,2.552340e-01,2.429485e-01,3,0,2.873384e+00,2.873385e+00
1.969943e+00,2.591090e-01,2.479553e-01,3,0,1.955868e+00,1.955868e+00
1.943911e+00,2.547320e-01,2.429485e-01,3,0,1.488156e+00,1.488157e+00
1.944290e+00,2.542720e-01,2.429485e-01,3,0,3.365549e+00,3.365553e+00
1.939099e+00,2.546730e-01,2.422333e-01,3,0,2.705961e+00,2.705962e+00
1.945104e+00,2.591850e-01,2.481937e-01,3,0,1.710776e+00,1.710775e+00
1.944870e+00,2.544640e-01,2.429485e-01,3,0,1.991676e+00,1.991677e+00
1.945243e+00,2.546240e-01,2.429485e-01,3,0,2.740701e+00,2.740703e+00
1.940492e+00,2.541310e-01,2.419949e-01,3,0,2.673279e+00,2.673280e+00
1.947385e+00,2.614010e-01,2.501011e-01,3,0,2.416534e+00,2.416534e+00
1.945103e+00,2.548300e-01,2.419949e-01,3,0,2.155421e+00,2.155422e+00
1.945066e+00,2.544830e-01,2.419949e-01,3,0,4.953443e+00,4.953449e+00
1.968085e+00,2.589780e-01,2.429485e-01,3,0,3.594384e+00,3.594384e+00
1.970148e+00,2.551940e-01,2.429485e-01,3,0,2.833390e+00,2.833390e+00
1.944668e+00,2.554700e-01,2.431870e-01,3,0,3.101532e+00,3.101533e+00
1.941739e+00,2.547510e-01,2.429485e-01,3,0,2.633475e+00,2.633476e+00
1.944083e+00,2.593960e-01,2.479553e-01,3,0,3.727761e+00,3.727764e+00
1.944395e+00,2.538950e-01,2.419949e-01,3,0,2.314803e+00,2.314803e+00
1.942362e+00,2.545800e-01,2.419949e-01,3,0,2.107526e+00,2.107527e+00
1.943273e+00,2.539510e-01,2.419949e-01,3,0,3.724775e+00,3.724779e+00
1.944976e+00,2.582100e-01,2.460480e-01,3,0,2.799876e+00,2.799877e+00
1.945490e+00,2.541690e-01,2.419949e-01,3,0,2.745096e+00,2.745098e+00
1.942056e+00,2.538890e-01,2.419949e-01,3,0,2.261503e+00,2.261504e+00
1.970789e+00,2.549170e-01,2.429485e-01,3,0,2.393576e+00,2.393577e+00
1.944651e+00,2.608500e-01,2.479553e-01,3,0,2.110712e+00,2.110713e+00
1.946853e+00,2.543210e-01,2.419949e-01,3,0,2.170715e+00,2.170716e+00
1.946090e+00,2.543110e-01,2.429485e-01,3,0,1.465019e+00,1.465020e+00
1.945894e+00,2.551420e-01,2.431870e-01,3,0,8.833946e-01,8.833947e-01
1.945487e+00,2.597700e-01,2.479553e-01,3,0,1.824462e+00,1.824464e+00
1.945271e+00,2.546550e-01,2.429485e-01,3,0,1.291759e+00,1.291759e+00
1.942801e+00,2.548590e-01,2.429485e-01,3,0,1.087930e+00,1.087930e+00
1.970782e+00,2.547650e-01,2.429485e-01,3,0,5.924028e-01,5.924029e-01
1.941536e+00,2.602550e-01,2.479553e-01,3,0,9.973678e-01,9.973691e-01
1.944164e+00,2.546450e-01,2.422333e-01,3,0,1.617336e+00,1.617337e+00
1.948204e+00,2.546000e-01,2.429485e-01,3,0,1.642537e+00,1.642537e+00
1.943727e+00,2.551260e-01,2.429485e-01,3,0,1.383921e+00,1.383921e+00
1.944281e+00,2.592740e-01,2.470016e-01,3,0,2.544029e+00,2.544031e+00
1.942376e+00,2.551010e-01,2.429485e-01,3,0,3.332044e+00,3.332046e+00
1.946154e+00,2.543240e-01,2.419949e-01,3,0,4.703461e+00,4.703463e+00
1.945954e+00,2.546880e-01,2.429485e-01,3,0,4.027115e+00,4.027115e+00
1.965187e+00,2.468247e+00,2.455950e+00,3,5,7.669591e+00,7.671839e+00
2.597623e+00,2.272422e+00,2.259970e+00,4,5,6.986975e+00,6.986976e+00
1.958546e+00,2.559400e-01,2.429485e-01,3,0,5.394149e+00,5.394149e+00
1.970524e+00,2.551040e-01,2.429485e-01,3,0,4.016136e+00,4.016136e+00
1.957929e+00,2.600300e-01,2.479553e-01,3,0,3.374880e+00,3.374880e+00
1.944003e+00,2.559000e-01,2.441406e-01,3,0,3.026908e+00,3.026909e+00
1.943257e+00,2.548890e-01,2.419949e-01,3,0,3.695626e+00,3.695628e+00
1.943989e+00,1.413763e+00,1.395941e+00,3,0,6.888092e+00,1.198366e+01
3.878288e+00,1.401019e+00,1.384735e+00,6,0,9.735417e+00,1.881532e+01
3.964466e+00,2.679085e+00,2.660751e+00,6,2,9.629979e+00,1.423471e+01
3.997272e+00,3.226190e+00,3.198862e+00,6,3,1.019225e+01,1.311934e+01
2.665152e+00,1.532932e+00,1.518965e+00,4,3,6.804466e+00,6.804446e+00
2.004368e+00,2.655120e-01,2.529621e-01,3,0,4.521969e+00,4.521967e+00
2.007212e+00,2.708580e-01,2.579689e-01,3,0,4.605639e+00,4.605640e+00
1.985200e+00,2.634310e-01,2.510548e-01,3,0,3.056872e+00,3.056871e+00
2.009261e+00,2.801330e-01,2.679825e-01,3,0,2.560434e+00,2.560434e+00
1.996697e+00,2.736650e-01,2.610683e-01,3,0,2.170546e+00,2.170546e+00
1.995932e+00,2.557620e-01,2.429485e-01,3,0,1.967457e+00,1.967458e+00
2.000206e+00,2.547340e-01,2.419949e-01,3,0,1.707513e+00,1.707514e+00
1.983746e+00,2.680460e-01,2.551079e-01,3,0,1.648042e+00,1.648043e+00
1.982643e+00,2.548070e-01,2.419949e-01,3,0,3.601249e+00,3.601246e+00
1.991654e+00,1.109491e+00,1.096964e+00,3,2,5.286394e+00,5.285579e+00
3.314566e+00,1.009524e+00,9.970665e-01,5,2,5.341203e+00,5.336525e+00
2.641397e+00,2.735220e-01,2.570152e-01,4,0,5.438102e+00,5.438102e+00
1.973785e+00,2.881510e-01,2.758503e-01,3,0,2.503470e+00,2.503469e+00
1.993482e+00,2.677600e-01,2.548695e-01,3,0,1.805827e+00,1.805827e+00
1.993342e+00,2.551530e-01,2.429485e-01,3,0,2.248514e+00,2.248516e+00
1.994722e+00,2.601350e-01,2.479553e-01,3,0,2.891957e+00,2.891959e+00
1.994741e+00,2.553400e-01,2.429485e-01,3,0,3.560643e+00,3.560644e+00
1.996351e+00,2.555640e-01,2.429485e-01,3,0,2.756472e+00,2.756472e+00
2.002832e+00,1.664465e+00,1.652002e+00,3,3,7.064602e+00,7.133355e+00
3.989508e+00,1.875134e+00,1.857281e+00,6,0,1.164983e+01,1.573834e+01
2.661565e+00,1.861849e+00,1.842976e+00,4,0,1.231321e+01,1.474843e+01
2.666765e+00,1.517430e+00,1.505136e+00,4,3,7.804569e+00,7.804565e+00
2.004400e+00,2.291121e+00,2.273321e+00,3,1,1.019046e+01,1.245317e+01
2.667248e+00,6.892870e-01,6.759167e-01,4,1,8.068233e+00,8.068231e+00
2.003093e+00,2.621950e-01,2.491474e-01,3,0,7.406219e+00,7.406220e+00
2.004074e+00,2.622410e-01,2.498627e-01,3,0,5.848939e+00,5.848939e+00
2.001563e+00,2.629840e-01,2.498627e-01,3,0,5.777351e+00,5.777353e+00
2.002141e+00,2.662750e-01,2.498627e-01,3,0,4.750418e+00,4.750419e+00
2.001561e+00,2.627070e-01,2.501011e-01,3,0,4.808043e+00,4.808045e+00
2.002233e+00,2.616880e-01,2.501011e-01,3,0,5.244899e+00,5.244902e+00
2.002793e+00,2.676340e-01,2.551079e-01,3,0,4.343643e+00,4.343643e+00
2.008423e+00,2.620730e-01,2.501011e-01,3,0,3.377250e+00,3.377250e+00
2.001288e+00,2.622580e-01,2.498627e-01,3,0,2.789322e+00,2.789323e+00
1.999243e+00,2.668470e-01,2.539158e-01,3,0,2.605899e+00,2.605900e+00
2.031705e+00,2.619050e-01,2.491474e-01,3,0,2.174979e+00,2.174980e+00
2.000396e+00,2.629080e-01,2.510548e-01,3,0,1.758766e+00,1.758766e+00
2.002132e+00,2.674220e-01,2.541542e-01,3,0,2.943737e+00,2.943739e+00
2.000371e+00,2.617870e-01,2.498627e-01,3,0,2.058447e+00,2.058447e+00
2.000098e+00,2.613650e-01,2.491474e-01,3,0,1.116998e+00,1.116998e+00
2.001003e+00,2.673020e-01,2.551079e-01,3,0,1.534627e+00,1.534628e+00
1.998379e+00,2.626280e-01,2.501011e-01,3,0,2.031759e+00,2.031760e+00
2.002298e+00,2.622080e-01,2.489090e-01,3,0,2.339417e+00,2.339418e+00
2.001789e+00,2.663840e-01,2.541542e-01,3,0,1.520014e+00,1.520014e+00
2.000647e+00,2.623640e-01,2.498627e-01,3,0,1.440235e+00,1.440235e+00
2.001013e+00,2.621920e-01,2.498627e-01,3,0,1.136514e+00,1.136514e+00
2.001750e+00,2.670330e-01,2.548695e-01,3,0,8.975725e-01,8.975728e-01
2.001324e+00,2.622460e-01,2.501011e-01,3,0,1.414593e+00,1.414594e+00
2.001944e+00,2.621040e-01,2.491474e-01,3,0,1.645089e+00,1.645089e+00
2.000868e+00,2.623170e-01,2.491474e-01,3,0,8.400458e-01,8.400456e-01
1.998899e+00,2.618330e-01,2.498627e-01,3,0,7.632115e-01,7.632122e-01
2.000182e+00,2.623720e-01,2.501011e-01,3,0,1.568246e+00,1.568248e+00
2.000048e+00,2.620950e-01,2.501011e-01,3,0,1.500802e+00,1.500803e+00
2.000707e+00,2.659340e-01,2.529621e-01,3,0,8.956793e-01,8.956797e-01
2.002631e+00,2.611250e-01,2.489090e-01,3,0,2.810753e+00,2.810757e+00
2.002745e+00,2.615960e-01,2.489090e-01,3,0,1.311141e+00,1.311140e+00
2.001169e+00,2.671630e-01,2.551079e-01,3,0,1.128062e+00,1.128063e+00
2.001057e+00,2.614840e-01,2.491474e-01,3,0,2.356626e+00,2.356629e+00
2.003045e+00,2.618310e-01,2.501011e-01,3,0,2.529829e+00,2.529830e+00

