1.088798e+01,1.410413e+01,6,36
1.833993e+00,9.348869e+00,1,29
1.827842e+00,9.134054e+00,1,27
3.629584e+00,9.449005e+00,2,27
1.793175e+00,6.575108e+00,1,18
1.818288e+00,3.371954e+00,1,9
1.785184e+00,9.880066e-01,1,2
1.779046e+00,2.799034e-01,1,0
1.828381e+00,2.858639e-01,1,0
1.800554e+00,2.889633e-01,1,0
1.825501e+00,2.920628e-01,1,0
1.800563e+00,2.989769e-01,1,0
1.803331e+00,2.870560e-01,1,0
1.778511e+00,2.880096e-01,1,0
1.786095e+00,2.880096e-01,1,0

