6.381300e-01,5.629740e-01,2,2,0.000000e+00,0.000000e+00
9.079480e-01,8.375510e-01,3,3,5.784748e-02,5.784729e-02
9.149190e-01,8.565640e-01,3,3,9.449725e-02,9.449623e-02
1.218527e+00,8.369810e-01,4,3,2.010970e-01,2.028867e-01
3.046151e+00,1.676018e+00,10,6,1.906994e-01,1.845207e-01
1.220752e+00,1.114918e+00,4,4,4.860993e-01,4.860502e-01
2.125259e+00,1.942535e+00,7,7,6.515502e-01,6.521721e-01
2.117721e+00,1.942901e+00,7,7,8.091856e-01,8.096833e-01
3.349159e+00,3.054318e+00,11,11,4.264543e-01,4.239849e-01
3.033381e+00,2.775475e+00,10,10,4.103370e-01,4.116027e-01
3.045362e+00,2.774906e+00,10,10,3.193529e-01,3.185167e-01
2.743234e+00,2.780543e+00,9,10,3.200061e-01,3.181955e-01
1.517616e+00,1.942398e+00,5,7,4.671780e-01,4.678853e-01
1.820833e+00,1.942938e+00,6,7,7.324596e-01,7.282641e-01
3.031118e+00,2.776215e+00,10,10,5.635106e-01,5.635192e-01
9.148370e-01,8.378700e-01,3,3,8.715743e-01,8.714448e-01
3.648958e+00,3.055019e+00,12,11,7.392813e-01,7.397513e-01
3.048079e+00,3.335484e+00,10,12,6.337049e-01,6.357568e-01
1.514120e+00,1.942716e+00,5,7,6.536459e-01,6.524064e-01
1.217292e+00,1.665952e+00,4,6,8.156264e-01,8.144234e-01
2.119377e+00,1.942269e+00,7,7,8.574575e-01,8.579527e-01
1.212546e+00,1.398808e+00,4,5,7.521370e-01,7.491667e-01
1.519885e+00,1.117250e+00,5,4,5.999029e-01,6.004433e-01
3.036347e+00,2.770662e+00,10,10,6.637021e-01,6.635287e-01
2.118484e+00,1.940290e+00,7,7,6.457938e-01,6.455299e-01
1.820730e+00,1.941538e+00,6,7,5.896640e-01,5.871300e-01
1.523070e+00,2.221033e+00,5,8,4.817474e-01,4.824788e-01
2.116348e+00,1.942611e+00,7,7,3.457010e-01,3.457577e-01
2.430235e+00,1.390639e+00,8,5,2.341115e-01,2.184641e-01
3.045928e+00,3.055662e+00,10,11,1.621403e-01,1.535305e-01
9.139860e-01,1.112544e+00,3,4,2.495192e-01,2.489322e-01
3.337501e+00,1.668630e+00,11,6,3.665031e-01,3.465421e-01
3.027331e+00,1.667321e+00,10,6,2.878317e-01,2.784312e-01
1.215788e+00,1.113247e+00,4,4,3.438383e-01,3.430915e-01
2.115722e+00,1.941652e+00,7,7,2.071605e-01,2.069836e-01
1.818049e+00,1.941397e+00,6,7,1.472769e-01,1.466432e-01
2.728398e+00,2.769660e+00,9,10,2.595943e-01,2.593519e-01
1.222176e+00,8.313260e-01,4,3,2.978577e-01,2.969867e-01
2.120324e+00,1.937650e+00,7,7,5.641594e-01,5.633684e-01
2.119993e+00,1.941269e+00,7,7,4.880436e-01,4.885202e-01
2.114177e+00,1.941059e+00,7,7,7.919599e-01,7.927320e-01
2.117587e+00,1.942519e+00,7,7,1.174479e+00,1.176556e+00
1.816772e+00,1.942246e+00,6,7,7.881033e-01,7.830653e-01
2.128305e+00,1.940552e+00,7,7,1.047463e+00,1.048615e+00
1.813992e+00,1.942005e+00,6,7,9.058097e-01,9.023766e-01
1.212750e+00,1.116588e+00,4,4,7.249843e-01,7.264585e-01
2.115588e+00,1.942626e+00,7,7,6.212599e-01,6.209221e-01
2.422671e+00,2.218741e+00,8,8,5.021463e-01,5.023519e-01
2.434223e+00,2.223313e+00,8,8,3.556819e-01,3.556209e-01
2.438225e+00,2.229110e+00,8,8,1.149485e-01,1.149391e-01
1.217262e+00,8.372510e-01,4,3,1.863279e-01,1.865611e-01
9.140320e-01,1.114222e+00,3,4,3.345080e-01,3.337977e-01
2.114077e+00,1.386170e+00,7,5,2.902736e-01,2.898158e-01
2.124673e+00,1.669387e+00,7,6,2.352517e-01,2.352634e-01
2.736110e+00,2.495667e+00,9,9,2.497142e-01,2.512603e-01
2.114891e+00,1.941368e+00,7,7,3.569251e-01,3.565889e-01
2.422235e+00,2.221355e+00,8,8,1.836736e-01,1.834058e-01
1.518917e+00,1.388442e+00,5,5,2.259350e-01,2.258838e-01
2.119711e+00,1.941525e+00,7,7,3.092715e-01,3.098326e-01
2.124972e+00,1.944195e+00,7,7,4.986846e-01,4.996884e-01
1.211249e+00,1.112598e+00,4,4,2.155196e-01,2.164292e-01
2.120830e+00,1.937758e+00,7,7,6.884364e-01,6.874870e-01
2.122206e+00,1.944117e+00,7,7,1.479518e+00,1.476811e+00
2.122935e+00,1.943215e+00,7,7,6.808625e-01,6.811760e-01
2.117888e+00,1.943059e+00,7,7,8.717947e-01,8.726907e-01
3.340008e+00,2.776525e+00,11,10,3.829349e-01,3.740227e-01
1.825325e+00,1.942775e+00,6,7,4.284635e-01,4.237879e-01
3.344608e+00,2.776134e+00,11,10,3.010775e-01,3.058802e-01
1.216888e+00,1.389405e+00,4,5,2.573122e-01,2.580965e-01
1.215657e+00,1.387080e+00,4,5,1.860451e-01,1.857229e-01
1.216928e+00,1.115427e+00,4,4,3.532853e-01,3.531388e-01
1.524094e+00,1.113722e+00,5,4,4.067877e-01,4.073527e-01
1.215055e+00,2.778063e+00,4,10,4.535516e-01,4.732853e-01
1.217757e+00,1.113131e+00,4,4,4.987077e-01,4.987842e-01
2.117253e+00,1.941404e+00,7,7,6.373662e-01,6.377682e-01
2.117897e+00,1.942151e+00,7,7,7.781222e-01,7.788993e-01
3.028169e+00,2.775231e+00,10,10,5.556974e-01,5.556678e-01
1.216287e+00,8.366540e-01,4,3,4.846255e-01,4.853938e-01
3.655972e+00,2.781807e+00,12,10,4.484184e-01,4.465160e-01
1.816999e+00,1.936749e+00,6,7,2.001983e-01,1.990524e-01
2.118615e+00,1.954040e+00,7,7,7.827702e-01,7.833851e-01
1.816166e+00,1.941873e+00,6,7,5.909034e-01,5.861512e-01
1.818830e+00,1.942351e+00,6,7,3.756278e-01,3.704587e-01
1.517280e+00,1.388914e+00,5,5,4.345085e-01,4.338137e-01
1.216830e+00,1.114620e+00,4,4,6.964414e-01,6.950153e-01
2.115902e+00,1.941098e+00,7,7,1.254490e+00,1.254793e+00
2.121846e+00,1.938764e+00,7,7,1.962224e+00,1.962781e+00
2.120374e+00,1.943248e+00,7,7,2.827383e+00,2.826219e+00
2.125528e+00,1.942976e+00,7,7,2.184141e+00,2.188371e+00
1.817804e+00,1.942953e+00,6,7,1.424089e+00,1.420259e+00
1.217607e+00,1.114491e+00,4,4,9.168108e-01,9.206721e-01
2.119279e+00,1.942644e+00,7,7,5.719939e-01,5.710134e-01
2.118509e+00,1.942309e+00,7,7,9.486151e-01,9.440036e-01
2.116712e+00,1.943186e+00,7,7,6.460369e-01,6.457278e-01
2.116674e+00,1.941721e+00,7,7,8.511631e-01,8.518888e-01
2.115374e+00,1.941403e+00,7,7,1.028108e+00,1.030223e+00
3.032664e+00,2.775057e+00,10,10,4.344807e-01,4.340689e-01
1.819265e+00,1.942542e+00,6,7,3.027101e-01,3.023252e-01
1.812909e+00,1.940200e+00,6,7,4.550761e-01,4.489302e-01
3.026399e+00,1.392377e+00,10,5,4.006576e-01,4.007187e-01
1.517068e+00,2.777704e+00,5,10,2.828270e-01,2.900832e-01
1.819568e+00,1.944096e+00,6,7,3.258288e-01,3.246449e-01
3.341495e+00,2.774976e+00,11,10,1.479535e-01,1.504112e-01
1.219197e+00,1.393270e+00,4,5,1.193156e-01,1.193784e-01
2.427310e+00,2.776104e+00,8,10,1.043193e-01,1.055082e-01
3.030653e+00,2.216605e+00,10,8,2.804196e-01,2.863752e-01
9.127000e-01,2.219491e+00,3,8,3.538020e-01,3.510585e-01
1.819585e+00,1.942939e+00,6,7,3.076220e-01,3.060354e-01
3.342939e+00,2.775390e+00,11,10,2.130004e-01,2.172243e-01
3.051139e+00,2.776073e+00,10,10,2.038430e-01,2.033944e-01
3.039117e+00,1.112779e+00,10,4,2.279256e-01,2.125414e-01
1.523532e+00,1.386954e+00,5,5,2.549420e-01,2.548727e-01
3.330019e+00,2.772844e+00,11,10,1.941751e-01,1.958088e-01
1.517936e+00,1.387518e+00,5,5,2.920166e-01,2.919730e-01
3.646797e+00,3.050581e+00,12,11,1.359911e-01,1.356869e-01
1.216090e+00,1.942791e+00,4,7,1.165094e-01,1.164768e-01
2.118015e+00,1.941894e+00,7,7,2.732627e-01,2.737571e-01
1.815286e+00,1.941955e+00,6,7,1.604969e-01,1.593254e-01
2.117174e+00,1.115662e+00,7,4,5.575801e-01,5.538616e-01
1.214580e+00,1.941070e+00,4,7,5.127736e-01,5.114030e-01
1.216093e+00,2.228662e+00,4,8,6.585691e-01,6.555112e-01
2.126286e+00,1.942576e+00,7,7,9.605944e-01,9.613223e-01
1.820320e+00,1.942797e+00,6,7,8.401194e-01,8.348492e-01
2.419084e+00,2.217349e+00,8,8,7.658593e-01,7.659701e-01
2.124914e+00,1.942258e+00,7,7,1.130463e+00,1.131961e+00
2.117393e+00,1.940917e+00,7,7,8.479609e-01,8.481669e-01
2.116676e+00,1.941349e+00,7,7,5.359283e-01,5.359811e-01
1.524736e+00,2.782086e+00,5,10,3.486528e-01,3.605158e-01
1.212042e+00,1.114244e+00,4,4,2.511283e-01,2.512406e-01
3.645314e+00,3.053473e+00,12,11,2.486842e-01,2.479324e-01
1.216607e+00,1.388157e+00,4,5,2.448553e-01,2.441092e-01
1.519730e+00,8.378680e-01,5,3,3.350243e-01,3.355474e-01
2.731046e+00,3.337839e+00,9,12,2.090130e-01,2.143383e-01
3.340914e+00,2.776632e+00,11,10,1.803053e-01,1.802789e-01
1.519740e+00,8.363270e-01,5,3,1.480501e-01,1.475878e-01
3.661561e+00,8.368640e-01,12,3,3.876234e-01,3.878612e-01
1.212457e+00,1.112586e+00,4,4,4.405671e-01,4.411711e-01
1.822603e+00,1.671480e+00,6,6,3.550204e-01,3.549999e-01
9.108990e-01,8.318550e-01,3,3,3.976979e-01,3.967866e-01
2.421393e+00,2.216676e+00,8,8,3.036936e-01,3.036618e-01
1.818042e+00,1.386957e+00,6,5,4.016418e-01,4.039821e-01
2.120649e+00,1.940604e+00,7,7,5.475927e-01,5.484080e-01
2.115338e+00,1.940551e+00,7,7,7.804911e-01,7.810581e-01
1.215326e+00,1.113346e+00,4,4,8.113568e-01,8.118701e-01
2.116387e+00,1.942194e+00,7,7,6.845072e-01,6.846001e-01
2.115622e+00,1.942141e+00,7,7,5.967964e-01,5.967818e-01
1.819024e+00,1.943088e+00,6,7,4.822459e-01,4.781678e-01
1.213684e+00,1.664751e+00,4,6,5.589247e-01,5.580387e-01
1.216118e+00,1.112388e+00,4,4,6.292862e-01,6.254246e-01
2.116121e+00,1.942508e+00,7,7,6.668194e-01,6.652662e-01
2.119069e+00,1.940629e+00,7,7,3.576901e-01,3.598362e-01
1.820674e+00,2.773148e+00,6,10,3.755712e-01,3.753209e-01
1.514967e+00,1.387158e+00,5,5,2.780386e-01,2.782615e-01
1.222032e+00,1.113566e+00,4,4,2.369608e-01,2.384676e-01
1.211862e+00,2.775597e+00,4,10,1.875163e-01,1.873355e-01
1.218633e+00,8.385480e-01,4,3,3.099645e-01,3.099444e-01
1.217312e+00,8.376450e-01,4,3,6.376835e-01,6.377396e-01
2.115071e+00,1.941861e+00,7,7,5.120396e-01,5.120968e-01
1.213961e+00,3.334806e+00,4,12,5.704212e-01,5.701957e-01
1.213959e+00,1.114214e+00,4,4,6.069846e-01,6.034640e-01
2.112462e+00,1.941826e+00,7,7,2.822254e-01,2.828160e-01
3.656174e+00,1.113685e+00,12,4,2.309225e-01,2.303056e-01
1.521357e+00,1.113590e+00,5,4,1.859866e-01,1.857385e-01
1.217056e+00,1.389702e+00,4,5,9.329650e-02,9.291739e-02
3.658389e+00,1.113650e+00,12,4,1.163752e-01,1.131909e-01
1.519854e+00,8.370590e-01,5,3,1.909526e-01,1.909609e-01
9.118600e-01,8.367360e-01,3,3,1.379483e-01,1.382338e-01
1.217095e+00,1.113651e+00,4,4,5.382607e-01,5.379313e-01
1.214083e+00,2.500684e+00,4,9,5.404730e-01,5.550558e-01
1.216819e+00,1.114647e+00,4,4,3.429224e-01,3.431114e-01
2.114809e+00,1.669404e+00,7,6,3.084320e-01,3.084834e-01
1.822632e+00,1.668352e+00,6,6,2.699397e-01,2.707080e-01
1.512899e+00,1.386617e+00,5,5,2.218693e-01,2.220027e-01
1.218922e+00,2.777445e+00,4,10,2.012209e-01,2.061339e-01
1.817983e+00,1.113649e+00,6,4,2.700927e-01,2.715661e-01
1.815510e+00,1.941864e+00,6,7,2.128811e-01,2.116138e-01
2.423440e+00,2.216753e+00,8,8,1.967740e-01,1.973247e-01
1.514389e+00,1.392510e+00,5,5,3.462425e-01,3.465837e-01
1.211118e+00,1.388474e+00,4,5,4.277117e-01,4.270853e-01
2.747777e+00,8.389900e-01,9,3,6.040604e-01,5.868576e-01
1.822719e+00,1.942565e+00,6,7,7.454852e-01,7.457053e-01
1.212731e+00,1.386976e+00,4,5,7.216411e-01,7.167064e-01
2.117031e+00,1.940325e+00,7,7,7.739043e-01,7.741786e-01
2.120694e+00,1.937416e+00,7,7,5.475487e-01,5.479107e-01
1.217928e+00,1.112403e+00,4,4,4.084093e-01,4.072223e-01
2.118269e+00,1.942283e+00,7,7,4.545143e-01,4.547221e-01
2.116854e+00,1.942934e+00,7,7,6.104474e-01,6.117716e-01
2.126623e+00,1.942466e+00,7,7,7.627322e-01,7.642991e-01
1.821062e+00,1.943576e+00,6,7,5.660714e-01,5.598028e-01
3.031089e+00,2.775531e+00,10,10,4.789163e-01,4.786983e-01
2.118432e+00,1.942426e+00,7,7,4.904541e-01,4.900329e-01
2.116456e+00,1.941417e+00,7,7,2.619187e-01,2.616687e-01
3.030331e+00,2.217613e+00,10,8,4.123022e-01,4.222512e-01
1.215142e+00,1.391792e+00,4,5,3.997043e-01,4.010085e-01
1.812922e+00,1.941262e+00,6,7,2.858953e-01,2.839193e-01
2.735778e+00,1.114344e+00,9,4,2.732348e-01,2.583730e-01
3.033878e+00,2.776050e+00,10,10,5.443301e-01,5.486674e-01
2.117621e+00,1.942682e+00,7,7,1.100186e+00,1.101920e+00
2.117321e+00,1.942514e+00,7,7,9.675324e-01,9.694212e-01
2.127095e+00,1.942477e+00,7,7,9.619233e-01,9.638974e-01
2.125879e+00,1.940942e+00,7,7,1.248212e+00,1.250186e+00
2.124169e+00,1.940918e+00,7,7,1.994230e+00,1.997379e+00
1.817932e+00,1.944334e+00,6,7,1.097065e+00,1.091273e+00
2.119476e+00,1.113736e+00,7,4,1.235647e+00,1.236085e+00
1.521680e+00,1.667746e+00,5,6,1.008615e+00,1.008943e+00
2.116252e+00,1.943796e+00,7,7,9.836194e-01,9.832871e-01
1.816611e+00,1.944116e+00,6,7,4.473871e-01,4.429579e-01
2.124225e+00,1.937915e+00,7,7,8.416075e-01,8.423262e-01
1.816944e+00,1.946746e+00,6,7,5.321807e-01,5.294476e-01
2.118104e+00,1.941784e+00,7,7,5.647716e-01,5.667286e-01
2.732226e+00,2.776120e+00,9,10,3.129614e-01,3.125294e-01
1.218604e+00,1.387060e+00,4,5,7.188785e-01,7.183813e-01
2.121273e+00,1.942308e+00,7,7,1.443450e+00,1.442903e+00
2.117642e+00,1.941004e+00,7,7,8.200727e-01,8.205087e-01
2.118848e+00,1.942401e+00,7,7,1.228502e+00,1.230632e+00
2.124952e+00,1.941713e+00,7,7,1.118856e+00,1.120169e+00
2.117058e+00,1.943325e+00,7,7,1.363344e+00,1.365532e+00
2.421274e+00,2.220085e+00,8,8,7.462600e-01,7.460311e-01
1.819846e+00,1.667374e+00,6,6,6.101833e-01,6.114607e-01
2.422393e+00,1.943296e+00,8,7,3.652166e-01,3.656392e-01
2.435745e+00,1.114904e+00,8,4,3.244554e-01,3.251412e-01
2.119988e+00,1.941762e+00,7,7,2.848919e-01,2.852512e-01
2.117140e+00,1.942115e+00,7,7,4.827249e-01,4.840665e-01
1.818504e+00,1.941543e+00,6,7,2.055458e-01,2.046263e-01
3.640418e+00,3.331235e+00,12,12,2.507974e-01,2.476171e-01
2.129946e+00,1.113948e+00,7,4,3.280195e-01,3.295344e-01
9.128690e-01,3.055766e+00,3,11,3.979821e-01,4.016346e-01
9.139070e-01,3.051568e+00,3,11,2.650588e-01,2.680927e-01
1.218144e+00,1.941513e+00,4,7,3.084183e-01,3.095683e-01
2.116452e+00,1.942390e+00,7,7,3.699045e-01,3.703274e-01
2.122607e+00,1.941710e+00,7,7,5.058977e-01,5.065993e-01
2.115713e+00,1.941363e+00,7,7,1.007247e+00,1.008650e+00
2.115559e+00,1.942033e+00,7,7,1.440521e+00,1.442921e+00
1.822224e+00,1.943948e+00,6,7,9.444147e-01,9.378171e-01
2.123408e+00,1.941214e+00,7,7,1.196756e+00,1.197436e+00
3.653792e+00,3.333450e+00,12,12,8.265343e-01,8.255877e-01
1.526914e+00,1.388887e+00,5,5,5.166333e-01,5.167369e-01
2.118258e+00,1.943646e+00,7,7,6.765373e-01,6.754783e-01
1.820688e+00,1.944596e+00,6,7,3.105253e-01,3.058246e-01
3.036537e+00,1.112981e+00,10,4,3.929379e-01,3.829074e-01
3.643946e+00,3.328078e+00,12,12,2.480379e-01,2.445882e-01
1.216247e+00,1.393837e+00,4,5,2.418694e-01,2.398938e-01
2.124425e+00,1.112957e+00,7,4,2.421835e-01,2.422259e-01
2.124470e+00,1.943193e+00,7,7,3.236554e-01,3.249436e-01
3.340566e+00,2.776742e+00,11,10,1.750674e-01,1.788053e-01
1.216936e+00,1.118121e+00,4,4,4.131074e-01,4.149809e-01
2.117174e+00,1.943579e+00,7,7,1.070119e+00,1.072095e+00
1.814815e+00,1.941624e+00,6,7,6.030007e-01,5.988998e-01
1.818819e+00,1.668633e+00,6,6,4.623595e-01,4.622194e-01
3.043469e+00,2.778951e+00,10,10,3.461620e-01,3.461109e-01
1.217695e+00,8.366690e-01,4,3,3.090921e-01,3.093715e-01
9.149880e-01,1.114240e+00,3,4,3.379981e-01,3.380141e-01
9.135550e-01,8.371010e-01,3,3,6.627107e-01,6.623978e-01
3.030165e+00,2.768516e+00,10,10,5.748434e-01,5.748444e-01
9.140990e-01,8.369110e-01,3,3,5.192981e-01,5.191759e-01
2.432772e+00,2.221665e+00,8,8,5.417037e-01,5.417588e-01
2.121027e+00,1.943144e+00,7,7,6.525869e-01,6.518566e-01
2.117781e+00,1.942930e+00,7,7,9.665129e-01,9.663885e-01
1.819575e+00,1.943642e+00,6,7,1.819660e+00,1.808656e+00
2.116994e+00,1.943616e+00,7,7,2.306430e+00,2.308069e+00
2.118658e+00,1.943467e+00,7,7,1.922491e+00,1.923412e+00
2.126846e+00,1.943200e+00,7,7,2.024226e+00,2.026900e+00
1.516048e+00,1.943459e+00,5,7,1.577605e+00,1.583655e+00
2.122391e+00,1.939544e+00,7,7,1.450748e+00,1.450719e+00
2.126954e+00,1.944739e+00,7,7,1.418016e+00,1.418605e+00
2.122343e+00,1.944904e+00,7,7,1.081554e+00,1.081811e+00
2.117377e+00,1.943503e+00,7,7,9.213009e-01,9.213706e-01
2.421937e+00,2.220311e+00,8,8,7.177460e-01,7.177843e-01
1.820999e+00,1.669156e+00,6,6,6.821686e-01,6.818581e-01
2.119306e+00,1.944460e+00,7,7,8.146333e-01,8.146091e-01
2.117061e+00,1.943452e+00,7,7,1.082577e+00,1.082915e+00
2.116057e+00,1.944023e+00,7,7,2.108007e+00,2.107085e+00
2.116779e+00,1.942233e+00,7,7,2.390547e+00,2.390016e+00
2.116285e+00,1.942882e+00,7,7,2.583848e+00,2.586429e+00
2.117487e+00,1.942564e+00,7,7,2.315169e+00,2.317900e+00
2.118116e+00,1.942904e+00,7,7,2.102323e+00,2.104489e+00
2.116218e+00,1.941070e+00,7,7,2.246574e+00,2.249546e+00
2.125396e+00,1.938777e+00,7,7,1.968688e+00,1.971894e+00
2.122247e+00,1.943403e+00,7,7,1.626100e+00,1.625434e+00
2.117765e+00,1.943788e+00,7,7,1.120853e+00,1.120581e+00
2.126274e+00,1.945103e+00,7,7,7.730498e-01,7.733001e-01
2.118353e+00,1.944492e+00,7,7,5.908899e-01,5.903772e-01
2.119695e+00,1.942845e+00,7,7,6.239295e-01,6.239468e-01
2.117464e+00,1.945992e+00,7,7,7.324628e-01,7.317789e-01
1.820984e+00,1.663300e+00,6,6,4.221365e-01,4.225691e-01
3.033598e+00,2.500758e+00,10,9,3.814196e-01,3.822063e-01
9.141800e-01,1.112729e+00,3,4,4.388193e-01,4.381496e-01
2.420443e+00,2.224244e+00,8,8,2.293568e-01,2.291405e-01
1.513725e+00,1.392141e+00,5,5,2.365601e-01,2.358431e-01
1.815261e+00,1.391405e+00,6,5,1.987281e-01,1.989143e-01
1.214375e+00,2.223887e+00,4,8,2.191541e-01,2.190253e-01
1.217199e+00,1.116747e+00,4,4,3.013272e-01,3.003629e-01
2.418770e+00,2.218108e+00,8,8,3.464805e-01,3.424388e-01
1.524069e+00,1.113914e+00,5,4,3.688255e-01,3.677464e-01
1.214937e+00,1.112082e+00,4,4,3.363395e-01,3.363121e-01
1.524206e+00,1.389623e+00,5,5,2.701644e-01,2.692317e-01
1.820607e+00,1.943159e+00,6,7,2.894419e-01,2.925933e-01
2.115710e+00,1.942075e+00,7,7,8.680448e-01,8.681339e-01
2.117564e+00,1.942274e+00,7,7,1.811171e+00,1.813242e+00
2.117746e+00,1.943688e+00,7,7,2.127180e+00,2.128152e+00
2.116404e+00,1.941785e+00,7,7,1.626048e+00,1.626562e+00
2.117235e+00,1.942293e+00,7,7,1.591878e+00,1.593446e+00
2.123797e+00,1.940977e+00,7,7,1.394320e+00,1.395835e+00
2.118286e+00,1.940907e+00,7,7,1.172069e+00,1.171716e+00
1.217342e+00,1.113286e+00,4,4,7.759889e-01,7.759757e-01
2.116808e+00,1.942443e+00,7,7,6.994036e-01,7.000381e-01
2.117277e+00,1.943316e+00,7,7,1.512033e+00,1.509585e+00
2.119675e+00,1.943983e+00,7,7,2.129064e+00,2.127607e+00
2.118286e+00,1.943506e+00,7,7,2.376009e+00,2.374919e+00
2.118474e+00,1.941706e+00,7,7,1.790818e+00,1.792079e+00
2.127505e+00,1.942642e+00,7,7,1.295816e+00,1.298231e+00
1.822067e+00,1.946224e+00,6,7,9.003940e-01,8.921707e-01
1.214878e+00,1.114302e+00,4,4,6.834930e-01,6.924529e-01
2.118944e+00,1.942456e+00,7,7,1.104273e+00,1.104980e+00
2.117880e+00,1.943444e+00,7,7,1.095804e+00,1.097131e+00
2.118457e+00,1.941310e+00,7,7,7.675249e-01,7.683959e-01
2.121132e+00,1.936673e+00,7,7,7.982501e-01,7.989877e-01
2.129405e+00,1.940754e+00,7,7,9.028220e-01,9.040647e-01
1.817828e+00,1.941903e+00,6,7,9.350392e-01,9.309631e-01
2.121237e+00,1.941548e+00,7,7,1.198956e+00,1.199317e+00
1.224929e+00,1.112555e+00,4,4,1.040425e+00,1.040948e+00
1.216510e+00,1.114678e+00,4,4,1.173478e+00,1.173755e+00
2.116756e+00,1.941133e+00,7,7,1.131551e+00,1.132459e+00
1.820658e+00,1.946448e+00,6,7,9.331237e-01,9.321585e-01
2.429434e+00,1.943287e+00,8,7,7.704565e-01,7.712929e-01
1.218624e+00,1.944569e+00,4,7,8.031622e-01,8.037991e-01
2.121100e+00,1.940900e+00,7,7,6.889534e-01,6.895829e-01
2.120528e+00,1.943569e+00,7,7,3.511812e-01,3.514095e-01
2.117728e+00,1.942557e+00,7,7,3.090041e-01,3.068830e-01
1.213755e+00,1.387524e+00,4,5,2.406276e-01,2.394499e-01
3.348622e+00,1.113358e+00,11,4,3.022315e-01,3.012947e-01
2.117433e+00,1.942786e+00,7,7,3.039421e-01,3.039645e-01
3.026537e+00,2.774092e+00,10,10,2.734389e-01,2.729566e-01
1.214059e+00,1.113099e+00,4,4,2.260122e-01,2.260055e-01
9.130120e-01,8.379190e-01,3,3,2.460036e-01,2.459754e-01
1.217421e+00,8.376120e-01,4,3,7.984548e-02,7.988942e-02
9.123530e-01,1.113852e+00,3,4,9.137571e-02,9.296176e-02
9.138780e-01,1.390041e+00,3,5,9.490307e-02,9.509870e-02
9.128370e-01,2.778113e+00,3,10,8.731627e-02,9.898623e-02
9.131740e-01,1.664945e+00,3,6,1.148318e-01,1.151087e-01
9.126620e-01,8.373200e-01,3,3,1.922585e-01,1.924453e-01
1.217271e+00,1.111459e+00,4,4,1.128408e-01,1.130441e-01
1.220326e+00,1.114442e+00,4,4,2.022658e-01,2.030685e-01
2.117177e+00,1.942017e+00,7,7,3.285700e-01,3.289753e-01
3.030738e+00,2.495784e+00,10,9,2.173947e-01,2.185361e-01
1.220914e+00,1.388641e+00,4,5,2.411967e-01,2.408338e-01
3.339763e+00,1.669811e+00,11,6,2.874899e-01,2.692493e-01
1.214229e+00,8.382230e-01,4,3,3.589129e-01,3.575133e-01
1.822101e+00,3.328655e+00,6,12,2.984602e-01,3.092858e-01
1.526232e+00,1.391528e+00,5,5,1.769245e-01,1.769240e-01
2.748639e+00,8.379800e-01,9,3,1.138241e-01,1.056805e-01
3.030921e+00,1.114057e+00,10,4,1.592480e-01,1.592573e-01
9.140980e-01,1.112801e+00,3,4,1.220618e-01,1.220557e-01
9.131830e-01,8.380010e-01,3,3,1.107887e-01,1.107783e-01
9.156240e-01,8.322120e-01,3,3,3.111171e-01,3.111121e-01
9.099790e-01,8.382520e-01,3,3,1.888098e-01,1.888042e-01
9.130410e-01,8.385230e-01,3,3,3.328254e-01,3.328112e-01
9.127700e-01,8.379330e-01,3,3,6.916068e-01,6.914996e-01
1.217538e+00,1.113743e+00,4,4,4.974041e-01,4.956708e-01
3.030436e+00,2.775448e+00,10,10,3.791675e-01,3.785198e-01
2.125641e+00,1.944010e+00,7,7,6.953374e-01,6.960786e-01
1.820886e+00,1.943171e+00,6,7,9.102265e-01,9.075027e-01
1.517763e+00,1.395292e+00,5,5,3.651474e-01,3.651486e-01
3.654641e+00,3.056607e+00,12,11,2.343199e-01,2.341936e-01
1.220789e+00,1.113286e+00,4,4,2.893858e-01,2.895598e-01
2.116366e+00,1.941689e+00,7,7,1.073287e-01,1.073533e-01
2.432519e+00,2.222941e+00,8,8,8.980329e-02,8.980880e-02
9.140290e-01,8.366390e-01,3,3,1.841361e-01,1.840305e-01
1.822344e+00,1.113544e+00,6,4,1.737152e-01,1.730669e-01
1.215210e+00,1.116623e+00,4,4,2.240911e-01,2.239074e-01
2.117844e+00,1.941919e+00,7,7,4.505359e-01,4.517260e-01
1.817416e+00,1.942549e+00,6,7,3.064995e-01,3.040409e-01
3.352263e+00,2.779370e+00,11,10,2.878750e-01,2.915964e-01
1.218361e+00,1.667716e+00,4,6,2.825874e-01,2.837827e-01
9.135530e-01,1.112323e+00,3,4,2.252431e-01,2.252879e-01
1.220759e+00,1.113484e+00,4,4,2.630097e-01,2.632329e-01
2.426684e+00,1.669510e+00,8,6,3.696175e-01,3.706977e-01
2.132600e+00,1.669688e+00,7,6,2.595754e-01,2.581742e-01
2.733379e+00,2.777867e+00,9,10,3.128932e-01,3.100092e-01
1.520918e+00,1.940949e+00,5,7,3.427109e-01,3.429701e-01
1.815703e+00,1.941172e+00,6,7,3.967165e-01,3.953800e-01
1.820618e+00,1.942593e+00,6,7,5.221283e-01,5.179498e-01
2.739753e+00,2.777678e+00,9,10,2.664524e-01,2.651110e-01
1.213826e+00,1.112795e+00,4,4,2.615237e-01,2.639615e-01
2.119797e+00,1.941991e+00,7,7,2.766783e-01,2.769571e-01
1.821234e+00,1.943008e+00,6,7,2.809385e-01,2.779402e-01
1.514833e+00,2.773098e+00,5,10,1.888214e-01,1.977676e-01
2.114901e+00,1.393199e+00,7,5,6.560823e-01,6.528497e-01
2.117644e+00,1.941637e+00,7,7,4.343622e-01,4.344679e-01
2.116033e+00,1.941698e+00,7,7,4.078052e-01,4.078489e-01
1.823051e+00,1.946477e+00,6,7,3.676147e-01,3.647943e-01
1.815003e+00,1.941874e+00,6,7,3.504425e-01,3.510520e-01
1.818661e+00,1.940789e+00,6,7,2.501848e-01,2.464758e-01
2.727586e+00,2.217525e+00,9,8,3.745256e-01,3.849983e-01
1.821064e+00,1.941446e+00,6,7,4.166967e-01,4.145902e-01
3.335136e+00,3.051602e+00,11,11,3.775136e-01,3.751480e-01
1.213836e+00,1.664534e+00,4,6,3.811210e-01,3.837475e-01
1.820231e+00,1.666490e+00,6,6,2.922384e-01,2.942898e-01
1.212420e+00,1.946017e+00,4,7,2.660543e-01,2.643314e-01
2.419865e+00,2.218560e+00,8,8,2.183016e-01,2.180619e-01
1.818202e+00,1.110389e+00,6,4,1.854715e-01,1.870290e-01
1.816914e+00,1.667059e+00,6,6,1.424471e-01,1.424868e-01
1.819213e+00,1.940999e+00,6,7,2.075294e-01,2.065277e-01
3.641799e+00,3.333333e+00,12,12,1.485143e-01,1.466697e-01
3.644218e+00,3.334348e+00,12,12,2.122676e-01,2.122069e-01
1.218483e+00,1.117072e+00,4,4,1.804279e-01,1.804248e-01
3.343340e+00,3.055734e+00,11,11,2.555617e-01,2.555072e-01
1.522475e+00,1.389927e+00,5,5,3.111245e-01,3.109448e-01
2.440933e+00,1.114042e+00,8,4,2.465446e-01,2.465697e-01
1.217461e+00,1.114775e+00,4,4,6.020146e-01,6.002221e-01
2.117331e+00,1.941763e+00,7,7,1.368803e+00,1.369169e+00
2.118414e+00,1.941738e+00,7,7,1.010496e+00,1.012182e+00
1.822256e+00,1.943122e+00,6,7,7.720393e-01,7.701876e-01
3.654606e+00,3.331750e+00,12,12,6.676057e-01,6.657421e-01
2.747001e+00,2.783857e+00,9,10,7.457334e-01,7.428825e-01
3.032695e+00,1.115344e+00,10,4,5.423373e-01,5.425930e-01
9.143880e-01,1.667500e+00,3,6,4.906296e-01,4.916466e-01
1.819664e+00,1.942264e+00,6,7,4.314879e-01,4.254964e-01
2.119726e+00,1.940195e+00,7,7,4.441756e-01,4.444022e-01
2.115911e+00,1.942100e+00,7,7,3.432238e-01,3.434444e-01
1.219483e+00,1.113425e+00,4,4,4.230762e-01,4.218738e-01
2.115497e+00,1.943425e+00,7,7,6.561364e-01,6.558708e-01
2.117316e+00,1.941858e+00,7,7,4.956606e-01,4.959355e-01
2.117154e+00,1.941388e+00,7,7,1.758138e-01,1.760150e-01
2.725833e+00,2.493713e+00,9,9,1.009024e-01,1.016434e-01
1.824616e+00,2.225509e+00,6,8,1.405497e-01,1.535942e-01
9.139970e-01,2.782945e+00,3,10,1.908812e-01,1.929092e-01
1.517046e+00,3.053685e+00,5,11,2.625768e-01,2.631898e-01
9.129680e-01,2.780583e+00,3,10,1.593658e-01,1.599328e-01
9.141570e-01,1.670955e+00,3,6,1.958565e-01,1.960524e-01
2.117584e+00,1.941673e+00,7,7,2.364784e-01,2.366196e-01
1.217709e+00,1.112479e+00,4,4,2.467914e-01,2.467956e-01
1.218505e+00,8.365280e-01,4,3,4.343576e-01,4.359103e-01
3.030512e+00,2.775416e+00,10,10,2.475965e-01,2.476077e-01
9.131900e-01,8.369550e-01,3,3,2.215945e-01,2.215416e-01
1.217746e+00,1.112853e+00,4,4,7.696302e-01,7.684223e-01
2.115846e+00,1.942086e+00,7,7,9.438158e-01,9.440445e-01
2.424383e+00,2.218118e+00,8,8,3.936541e-01,3.936955e-01
1.520901e+00,1.393903e+00,5,5,4.209243e-01,4.206405e-01
1.820703e+00,1.387536e+00,6,5,3.722851e-01,3.734495e-01
1.819494e+00,1.942655e+00,6,7,3.810562e-01,3.772166e-01
1.211492e+00,2.777982e+00,4,10,1.904571e-01,2.001868e-01
3.050299e+00,1.115106e+00,10,4,1.478074e-01,1.453664e-01
1.520038e+00,2.224365e+00,5,8,2.350314e-01,2.348613e-01
2.418185e+00,2.216592e+00,8,8,2.671711e-01,2.670161e-01
2.423388e+00,2.218299e+00,8,8,3.704775e-01,3.704585e-01
1.213834e+00,2.502215e+00,4,9,2.264965e-01,2.284849e-01
1.219324e+00,1.112765e+00,4,4,1.865893e-01,1.865926e-01
2.117695e+00,1.941046e+00,7,7,2.781508e-01,2.787175e-01
2.116731e+00,1.941141e+00,7,7,3.584726e-01,3.587049e-01
2.117368e+00,1.942149e+00,7,7,3.703863e-01,3.705425e-01
2.116935e+00,1.941215e+00,7,7,4.535993e-01,4.537879e-01
2.117773e+00,1.940476e+00,7,7,4.365859e-01,4.366109e-01
2.444832e+00,2.780157e+00,8,10,7.010635e-01,7.017457e-01
3.644477e+00,2.776401e+00,12,10,3.037553e-01,3.015519e-01
2.737900e+00,1.113130e+00,9,4,2.787358e-01,2.811642e-01
1.218313e+00,1.112787e+00,4,4,5.079854e-01,5.062984e-01
2.124530e+00,1.940266e+00,7,7,2.811186e-01,2.812246e-01
1.819719e+00,1.943315e+00,6,7,3.193456e-01,3.182377e-01
2.419412e+00,2.222140e+00,8,8,2.225478e-01,2.224442e-01
3.038633e+00,3.054728e+00,10,11,1.205011e-01,1.061817e-01
1.824905e+00,1.942468e+00,6,7,2.414564e-01,2.396978e-01
3.048104e+00,3.334425e+00,10,12,2.727863e-01,2.655423e-01
3.047458e+00,2.780829e+00,10,10,1.868600e-01,1.795014e-01
1.219572e+00,1.113671e+00,4,4,4.067022e-01,4.064384e-01
2.115301e+00,1.940878e+00,7,7,1.960835e-01,1.960925e-01
1.817705e+00,1.666788e+00,6,6,1.337309e-01,1.335853e-01
3.374617e+00,8.396820e-01,11,3,1.493565e-01,1.376920e-01
1.213061e+00,8.372330e-01,4,3,2.596182e-01,2.582041e-01
1.216225e+00,2.781609e+00,4,10,4.186466e-01,4.286973e-01
2.740838e+00,1.114235e+00,9,4,5.857600e-01,5.845117e-01
1.213019e+00,1.112804e+00,4,4,6.023597e-01,6.024125e-01
2.118047e+00,1.944754e+00,7,7,7.684350e-01,7.686113e-01
2.118441e+00,1.941580e+00,7,7,3.532473e-01,3.533156e-01
1.522965e+00,1.114064e+00,5,4,3.270770e-01,3.272044e-01
1.519208e+00,1.393579e+00,5,5,1.932263e-01,1.937733e-01
1.215844e+00,1.113212e+00,4,4,1.677124e-01,1.674047e-01
1.517384e+00,1.387473e+00,5,5,3.633140e-01,3.622688e-01
2.121095e+00,1.941490e+00,7,7,4.668022e-01,4.669964e-01
2.126518e+00,1.942400e+00,7,7,4.834158e-01,4.846859e-01
1.819468e+00,1.943033e+00,6,7,4.013540e-01,3.966290e-01
2.116576e+00,1.942616e+00,7,7,4.511741e-01,4.506536e-01
2.118136e+00,1.943667e+00,7,7,5.934322e-01,5.942320e-01
2.126136e+00,1.940819e+00,7,7,6.750669e-01,6.761278e-01
2.424138e+00,2.218703e+00,8,8,4.802937e-01,4.802783e-01
2.132492e+00,1.389682e+00,7,5,4.094307e-01,4.097690e-01
1.221872e+00,3.060154e+00,4,11,5.487926e-01,5.514486e-01
1.213276e+00,1.947095e+00,4,7,2.884492e-01,2.897206e-01
2.129386e+00,1.946288e+00,7,7,2.407369e-01,2.407683e-01
1.214034e+00,1.668688e+00,4,6,3.674093e-01,3.660819e-01
1.516005e+00,1.111382e+00,5,4,4.909233e-01,4.937339e-01
1.516780e+00,1.667734e+00,5,6,6.900389e-01,6.896515e-01
1.213975e+00,2.222107e+00,4,8,2.574341e-01,2.570400e-01
1.821647e+00,1.388553e+00,6,5,2.622139e-01,2.623422e-01
2.116352e+00,1.940046e+00,7,7,3.159821e-01,3.163782e-01
2.122185e+00,1.937365e+00,7,7,3.721337e-01,3.723932e-01
3.034674e+00,1.392895e+00,10,5,3.203282e-01,3.118332e-01
2.114498e+00,1.386035e+00,7,5,3.475523e-01,3.481268e-01
1.819118e+00,1.942070e+00,6,7,2.597466e-01,2.571182e-01
1.520250e+00,1.942104e+00,5,7,1.881988e-01,1.879144e-01

