6.315110e-01,5.755450e-01,2,2,0.000000e+00,0.000000e+00
9.078520e-01,8.300200e-01,3,3,5.784748e-02,5.784729e-02
9.089160e-01,8.342730e-01,3,3,9.449725e-02,9.449623e-02
1.210061e+00,8.353550e-01,4,3,2.010970e-01,2.028867e-01
3.012618e+00,1.689438e+00,10,6,1.906994e-01,1.845207e-01
1.212957e+00,1.111446e+00,4,4,4.860993e-01,4.860502e-01
2.104999e+00,1.936194e+00,7,7,6.515502e-01,6.521721e-01
2.111251e+00,1.938094e+00,7,7,8.091856e-01,8.096833e-01
3.329596e+00,3.044087e+00,11,11,4.264543e-01,4.239849e-01
3.014642e+00,2.766243e+00,10,10,4.103370e-01,4.116027e-01
3.024805e+00,2.764882e+00,10,10,3.193529e-01,3.185167e-01
2.725409e+00,2.771661e+00,9,10,3.200061e-01,3.181955e-01
1.507797e+00,1.935680e+00,5,7,4.671780e-01,4.678853e-01
1.809173e+00,1.935443e+00,6,7,7.324596e-01,7.282641e-01
3.014847e+00,2.767093e+00,10,10,5.635106e-01,5.635192e-01
9.089670e-01,8.344850e-01,3,3,8.715743e-01,8.714448e-01
3.628443e+00,3.047388e+00,12,11,7.392813e-01,7.397513e-01
3.031629e+00,3.323557e+00,10,12,6.337049e-01,6.357568e-01
1.505485e+00,1.939273e+00,5,7,6.536459e-01,6.524064e-01
1.206213e+00,1.666544e+00,4,6,8.156264e-01,8.144234e-01
2.106157e+00,1.935617e+00,7,7,8.574575e-01,8.579527e-01
1.205903e+00,1.391623e+00,4,5,7.521370e-01,7.491667e-01
1.511709e+00,1.111162e+00,5,4,5.999029e-01,6.004433e-01
3.016149e+00,2.767685e+00,10,10,6.637021e-01,6.635287e-01
2.105244e+00,1.936814e+00,7,7,6.457938e-01,6.455299e-01
1.812210e+00,1.936703e+00,6,7,5.896640e-01,5.871300e-01
1.508798e+00,2.219717e+00,5,8,4.817474e-01,4.824788e-01
2.104521e+00,1.935458e+00,7,7,3.457010e-01,3.457577e-01
2.416363e+00,1.384110e+00,8,5,2.341115e-01,2.184641e-01
3.025875e+00,3.050923e+00,10,11,1.621403e-01,1.535305e-01
9.024290e-01,1.113329e+00,3,4,2.495192e-01,2.489322e-01
3.318278e+00,1.662730e+00,11,6,3.665031e-01,3.465421e-01
3.010395e+00,1.658200e+00,10,6,2.878317e-01,2.784312e-01
1.207582e+00,1.113042e+00,4,4,3.438383e-01,3.430915e-01
2.103235e+00,1.935594e+00,7,7,2.071605e-01,2.069836e-01
1.803436e+00,1.936363e+00,6,7,1.472769e-01,1.466432e-01
2.712317e+00,2.768416e+00,9,10,2.595943e-01,2.593519e-01
1.209583e+00,8.357750e-01,4,3,2.978577e-01,2.969867e-01
2.104517e+00,1.937095e+00,7,7,5.641594e-01,5.633684e-01
2.104746e+00,1.935691e+00,7,7,4.880436e-01,4.885202e-01
2.104858e+00,1.935223e+00,7,7,7.919599e-01,7.927320e-01
2.104038e+00,1.936410e+00,7,7,1.174479e+00,1.176556e+00
1.810681e+00,1.937153e+00,6,7,7.881033e-01,7.830653e-01
2.113272e+00,1.937424e+00,7,7,1.047463e+00,1.048615e+00
1.809194e+00,1.937089e+00,6,7,9.058097e-01,9.023766e-01
1.206499e+00,1.108364e+00,4,4,7.249843e-01,7.264585e-01
2.104515e+00,1.938800e+00,7,7,6.212599e-01,6.209221e-01
2.407986e+00,2.216634e+00,8,8,5.021463e-01,5.023519e-01
2.415867e+00,2.216242e+00,8,8,3.556819e-01,3.556209e-01
2.426842e+00,2.216952e+00,8,8,1.149485e-01,1.149391e-01
1.209478e+00,8.351440e-01,4,3,1.863279e-01,1.865611e-01
9.095000e-01,1.111212e+00,3,4,3.345080e-01,3.337977e-01
2.103973e+00,1.388809e+00,7,5,2.902736e-01,2.898158e-01
2.114146e+00,1.661545e+00,7,6,2.352517e-01,2.352634e-01
2.719934e+00,2.494643e+00,9,9,2.497142e-01,2.512603e-01
2.102420e+00,1.935946e+00,7,7,3.569251e-01,3.565889e-01
2.405281e+00,2.212715e+00,8,8,1.836736e-01,1.834058e-01
1.508984e+00,1.384474e+00,5,5,2.259350e-01,2.258838e-01
2.107659e+00,1.936573e+00,7,7,3.092715e-01,3.098326e-01
2.111729e+00,1.936843e+00,7,7,4.986846e-01,4.996884e-01
1.203567e+00,1.114424e+00,4,4,2.155196e-01,2.164292e-01
2.104209e+00,1.937516e+00,7,7,6.884364e-01,6.874870e-01
2.104110e+00,1.938979e+00,7,7,1.479518e+00,1.476811e+00
2.109589e+00,1.938247e+00,7,7,6.808625e-01,6.811760e-01
2.105411e+00,1.936639e+00,7,7,8.717947e-01,8.726907e-01
3.317612e+00,2.767945e+00,11,10,3.829349e-01,3.740227e-01
1.814792e+00,1.936151e+00,6,7,4.284635e-01,4.237879e-01
3.321043e+00,2.769199e+00,11,10,3.010775e-01,3.058802e-01
1.210329e+00,1.386355e+00,4,5,2.573122e-01,2.580965e-01
1.208210e+00,1.385114e+00,4,5,1.860451e-01,1.857229e-01
1.208646e+00,1.110160e+00,4,4,3.532853e-01,3.531388e-01
1.514601e+00,1.110248e+00,5,4,4.067877e-01,4.073527e-01
1.208861e+00,2.771949e+00,4,10,4.535516e-01,4.732853e-01
1.209420e+00,1.111172e+00,4,4,4.987077e-01,4.987842e-01
2.103741e+00,1.935630e+00,7,7,6.373662e-01,6.377682e-01
2.103395e+00,1.935970e+00,7,7,7.781222e-01,7.788993e-01
3.012460e+00,2.766637e+00,10,10,5.556974e-01,5.556678e-01
1.209776e+00,8.345560e-01,4,3,4.846255e-01,4.853938e-01
3.638645e+00,2.776340e+00,12,10,4.484184e-01,4.465160e-01
1.802487e+00,1.938027e+00,6,7,2.001983e-01,1.990524e-01
2.105201e+00,1.937759e+00,7,7,7.827702e-01,7.833851e-01
1.812107e+00,1.936865e+00,6,7,5.909034e-01,5.861512e-01
1.807194e+00,1.935788e+00,6,7,3.756278e-01,3.704587e-01
1.503684e+00,1.387274e+00,5,5,4.345085e-01,4.338137e-01
1.209875e+00,1.112324e+00,4,4,6.964414e-01,6.950153e-01
2.104662e+00,1.936538e+00,7,7,1.254490e+00,1.254793e+00
2.105210e+00,1.938159e+00,7,7,1.962224e+00,1.962781e+00
2.105289e+00,1.936925e+00,7,7,2.827383e+00,2.826219e+00
2.110964e+00,1.935989e+00,7,7,2.184141e+00,2.188371e+00
1.812051e+00,1.937948e+00,6,7,1.424089e+00,1.420259e+00
1.207934e+00,1.110344e+00,4,4,9.168108e-01,9.206721e-01
2.103695e+00,1.936573e+00,7,7,5.719939e-01,5.710134e-01
2.107964e+00,1.931379e+00,7,7,9.486151e-01,9.440036e-01
2.107985e+00,1.936352e+00,7,7,6.460369e-01,6.457278e-01
2.104494e+00,1.936982e+00,7,7,8.511631e-01,8.518888e-01
2.106130e+00,1.937597e+00,7,7,1.028108e+00,1.030223e+00
3.013563e+00,2.761419e+00,10,10,4.344807e-01,4.340689e-01
1.809620e+00,1.937290e+00,6,7,3.027101e-01,3.023252e-01
1.808374e+00,1.937553e+00,6,7,4.550761e-01,4.489302e-01
3.012686e+00,1.385236e+00,10,5,4.006576e-01,4.007187e-01
1.513515e+00,2.770151e+00,5,10,2.828270e-01,2.900832e-01
1.806030e+00,1.936392e+00,6,7,3.258288e-01,3.246449e-01
3.326647e+00,2.761153e+00,11,10,1.479535e-01,1.504112e-01
1.215634e+00,1.385664e+00,4,5,1.193156e-01,1.193784e-01
2.412382e+00,2.769259e+00,8,10,1.043193e-01,1.055082e-01
3.011762e+00,2.211398e+00,10,8,2.804196e-01,2.863752e-01
9.081190e-01,2.216855e+00,3,8,3.538020e-01,3.510585e-01
1.804694e+00,1.936762e+00,6,7,3.076220e-01,3.060354e-01
3.324970e+00,2.763212e+00,11,10,2.130004e-01,2.172243e-01
3.037835e+00,2.764096e+00,10,10,2.038430e-01,2.033944e-01
3.022217e+00,1.109373e+00,10,4,2.279256e-01,2.125414e-01
1.517076e+00,1.383021e+00,5,5,2.549420e-01,2.548727e-01
3.318447e+00,2.760863e+00,11,10,1.941751e-01,1.958088e-01
1.510461e+00,1.385549e+00,5,5,2.920166e-01,2.919730e-01
3.625914e+00,3.041113e+00,12,11,1.359911e-01,1.356869e-01
1.209672e+00,1.936285e+00,4,7,1.165094e-01,1.164768e-01
2.105807e+00,1.935987e+00,7,7,2.732627e-01,2.737571e-01
1.804606e+00,1.935863e+00,6,7,1.604969e-01,1.593254e-01
2.105845e+00,1.113096e+00,7,4,5.575801e-01,5.538616e-01
1.206166e+00,1.935305e+00,4,7,5.127736e-01,5.114030e-01
1.211759e+00,2.219032e+00,4,8,6.585691e-01,6.555112e-01
2.111832e+00,1.936429e+00,7,7,9.605944e-01,9.613223e-01
1.809130e+00,1.938367e+00,6,7,8.401194e-01,8.348492e-01
2.405213e+00,2.213012e+00,8,8,7.658593e-01,7.659701e-01
2.114799e+00,1.937643e+00,7,7,1.130463e+00,1.131961e+00
2.105712e+00,1.936361e+00,7,7,8.479609e-01,8.481669e-01
2.104790e+00,1.935799e+00,7,7,5.359283e-01,5.359811e-01
1.514404e+00,2.773386e+00,5,10,3.486528e-01,3.605158e-01
1.204307e+00,1.110966e+00,4,4,2.511283e-01,2.512406e-01
3.622675e+00,3.042016e+00,12,11,2.486842e-01,2.479324e-01
1.207526e+00,1.384729e+00,4,5,2.448553e-01,2.441092e-01
1.507750e+00,8.358830e-01,5,3,3.350243e-01,3.355474e-01
2.714361e+00,3.326643e+00,9,12,2.090130e-01,2.143383e-01
3.316980e+00,2.765062e+00,11,10,1.803053e-01,1.802789e-01
1.511496e+00,8.340290e-01,5,3,1.480501e-01,1.475878e-01
3.637939e+00,8.360010e-01,12,3,3.876234e-01,3.878612e-01
1.205050e+00,1.108638e+00,4,4,4.405671e-01,4.411711e-01
1.811166e+00,1.660034e+00,6,6,3.550204e-01,3.549999e-01
9.066780e-01,8.353970e-01,3,3,3.976979e-01,3.967866e-01
2.406143e+00,2.209818e+00,8,8,3.036936e-01,3.036618e-01
1.809260e+00,1.384128e+00,6,5,4.016418e-01,4.039821e-01
2.109603e+00,1.937763e+00,7,7,5.475927e-01,5.484080e-01
2.104639e+00,1.934425e+00,7,7,7.804911e-01,7.810581e-01
1.204368e+00,1.109738e+00,4,4,8.113568e-01,8.118701e-01
2.106297e+00,1.937949e+00,7,7,6.845072e-01,6.846001e-01
2.107696e+00,1.930973e+00,7,7,5.967964e-01,5.967818e-01
1.807679e+00,1.935729e+00,6,7,4.822459e-01,4.781678e-01
1.205530e+00,1.662979e+00,4,6,5.589247e-01,5.580387e-01
1.205693e+00,1.109014e+00,4,4,6.292862e-01,6.254246e-01
2.112024e+00,1.933263e+00,7,7,6.668194e-01,6.652662e-01
2.109978e+00,1.937556e+00,7,7,3.576901e-01,3.598362e-01
1.805231e+00,2.767176e+00,6,10,3.755712e-01,3.753209e-01
1.520027e+00,1.385252e+00,5,5,2.780386e-01,2.782615e-01
1.209312e+00,1.110176e+00,4,4,2.369608e-01,2.384676e-01
1.208807e+00,2.761121e+00,4,10,1.875163e-01,1.873355e-01
1.213515e+00,8.300180e-01,4,3,3.099645e-01,3.099444e-01
1.214076e+00,8.295880e-01,4,3,6.376835e-01,6.377396e-01
2.107048e+00,1.931709e+00,7,7,5.120396e-01,5.120968e-01
1.209776e+00,3.322272e+00,4,12,5.704212e-01,5.701957e-01
1.204673e+00,1.110861e+00,4,4,6.069846e-01,6.034640e-01
2.101332e+00,1.935130e+00,7,7,2.822254e-01,2.828160e-01
3.635476e+00,1.111043e+00,12,4,2.309225e-01,2.303056e-01
1.515714e+00,1.109892e+00,5,4,1.859866e-01,1.857385e-01
1.206248e+00,1.386264e+00,4,5,9.329650e-02,9.291739e-02
3.635192e+00,1.109632e+00,12,4,1.163752e-01,1.131909e-01
1.517434e+00,8.292960e-01,5,3,1.909526e-01,1.909609e-01
9.027000e-01,8.334820e-01,3,3,1.379483e-01,1.382338e-01
1.209610e+00,1.114755e+00,4,4,5.382607e-01,5.379313e-01
1.205406e+00,2.489253e+00,4,9,5.404730e-01,5.550558e-01
1.209425e+00,1.115011e+00,4,4,3.429224e-01,3.431114e-01
2.102369e+00,1.659264e+00,7,6,3.084320e-01,3.084834e-01
1.811382e+00,1.664191e+00,6,6,2.699397e-01,2.707080e-01
1.503481e+00,1.385863e+00,5,5,2.218693e-01,2.220027e-01
1.207752e+00,2.771403e+00,4,10,2.012209e-01,2.061339e-01
1.808960e+00,1.111553e+00,6,4,2.700927e-01,2.715661e-01
1.801315e+00,1.937258e+00,6,7,2.128811e-01,2.116138e-01
2.409448e+00,2.210710e+00,8,8,1.967740e-01,1.973247e-01
1.509051e+00,1.383340e+00,5,5,3.462425e-01,3.465837e-01
1.203211e+00,1.389042e+00,4,5,4.277117e-01,4.270853e-01
2.725211e+00,8.351110e-01,9,3,6.040604e-01,5.868576e-01
1.810966e+00,1.935210e+00,6,7,7.454852e-01,7.457053e-01
1.205463e+00,1.383526e+00,4,5,7.216411e-01,7.167064e-01
2.108799e+00,1.937001e+00,7,7,7.739043e-01,7.741786e-01
2.103934e+00,1.936453e+00,7,7,5.475487e-01,5.479107e-01
1.207844e+00,1.110405e+00,4,4,4.084093e-01,4.072223e-01
2.106912e+00,1.938507e+00,7,7,4.545143e-01,4.547221e-01
2.105267e+00,1.937906e+00,7,7,6.104474e-01,6.117716e-01
2.113903e+00,1.937093e+00,7,7,7.627322e-01,7.642991e-01
1.810802e+00,1.938223e+00,6,7,5.660714e-01,5.598028e-01
3.013210e+00,2.768213e+00,10,10,4.789163e-01,4.786983e-01
2.104656e+00,1.936403e+00,7,7,4.904541e-01,4.900329e-01
2.104083e+00,1.937406e+00,7,7,2.619187e-01,2.616687e-01
3.012061e+00,2.212635e+00,10,8,4.123022e-01,4.222512e-01
1.208878e+00,1.387995e+00,4,5,3.997043e-01,4.010085e-01
1.801416e+00,1.934841e+00,6,7,2.858953e-01,2.839193e-01
2.720574e+00,1.111763e+00,9,4,2.732348e-01,2.583730e-01
3.017833e+00,2.768281e+00,10,10,5.443301e-01,5.486674e-01
2.107180e+00,1.939007e+00,7,7,1.100186e+00,1.101920e+00
2.103790e+00,1.935464e+00,7,7,9.675324e-01,9.694212e-01
2.106767e+00,1.935560e+00,7,7,9.619233e-01,9.638974e-01
2.114184e+00,1.936201e+00,7,7,1.248212e+00,1.250186e+00
2.111210e+00,1.936468e+00,7,7,1.994230e+00,1.997379e+00
1.808086e+00,1.937081e+00,6,7,1.097065e+00,1.091273e+00
2.104993e+00,1.111839e+00,7,4,1.235647e+00,1.236085e+00
1.513897e+00,1.659640e+00,5,6,1.008615e+00,1.008943e+00
2.104745e+00,1.941550e+00,7,7,9.836194e-01,9.832871e-01
1.809687e+00,1.938677e+00,6,7,4.473871e-01,4.429579e-01
2.105344e+00,1.937252e+00,7,7,8.416075e-01,8.423262e-01
1.811348e+00,1.941346e+00,6,7,5.321807e-01,5.294476e-01
2.106785e+00,1.938367e+00,7,7,5.647716e-01,5.667286e-01
2.718169e+00,2.767641e+00,9,10,3.129614e-01,3.125294e-01
1.210463e+00,1.383738e+00,4,5,7.188785e-01,7.183813e-01
2.104763e+00,1.936082e+00,7,7,1.443450e+00,1.442903e+00
2.104484e+00,1.936356e+00,7,7,8.200727e-01,8.205087e-01
2.103553e+00,1.938260e+00,7,7,1.228502e+00,1.230632e+00
2.112589e+00,1.936098e+00,7,7,1.118856e+00,1.120169e+00
2.102026e+00,1.935878e+00,7,7,1.363344e+00,1.365532e+00
2.409880e+00,2.210562e+00,8,8,7.462600e-01,7.460311e-01
1.808863e+00,1.658881e+00,6,6,6.101833e-01,6.114607e-01
2.410302e+00,1.936637e+00,8,7,3.652166e-01,3.656392e-01
2.416111e+00,1.110327e+00,8,4,3.244554e-01,3.251412e-01
2.103403e+00,1.934884e+00,7,7,2.848919e-01,2.852512e-01
2.108759e+00,1.933139e+00,7,7,4.827249e-01,4.840665e-01
1.807452e+00,1.935768e+00,6,7,2.055458e-01,2.046263e-01
3.618663e+00,3.317371e+00,12,12,2.507974e-01,2.476171e-01
2.117647e+00,1.109914e+00,7,4,3.280195e-01,3.295344e-01
9.088300e-01,3.046510e+00,3,11,3.979821e-01,4.016346e-01
9.086240e-01,3.041874e+00,3,11,2.650588e-01,2.680927e-01
1.212861e+00,1.929401e+00,4,7,3.084183e-01,3.095683e-01
2.107811e+00,1.936306e+00,7,7,3.699045e-01,3.703274e-01
2.109126e+00,1.935918e+00,7,7,5.058977e-01,5.065993e-01
2.103085e+00,1.936635e+00,7,7,1.007247e+00,1.008650e+00
2.104004e+00,1.936485e+00,7,7,1.440521e+00,1.442921e+00
1.807033e+00,1.938063e+00,6,7,9.444147e-01,9.378171e-01
2.114553e+00,1.932258e+00,7,7,1.196756e+00,1.197436e+00
3.629925e+00,3.321290e+00,12,12,8.265343e-01,8.255877e-01
1.515872e+00,1.386797e+00,5,5,5.166333e-01,5.167369e-01
2.104339e+00,1.938271e+00,7,7,6.765373e-01,6.754783e-01
1.810526e+00,1.938155e+00,6,7,3.105253e-01,3.058246e-01
3.017930e+00,1.110672e+00,10,4,3.929379e-01,3.829074e-01
3.624430e+00,3.319773e+00,12,12,2.480379e-01,2.445882e-01
1.210649e+00,1.390686e+00,4,5,2.418694e-01,2.398938e-01
2.111912e+00,1.109646e+00,7,4,2.421835e-01,2.422259e-01
2.110541e+00,1.936381e+00,7,7,3.236554e-01,3.249436e-01
3.321229e+00,2.768903e+00,11,10,1.750674e-01,1.788053e-01
1.212160e+00,1.116115e+00,4,4,4.131074e-01,4.149809e-01
2.106808e+00,1.938080e+00,7,7,1.070119e+00,1.072095e+00
1.806424e+00,1.937508e+00,6,7,6.030007e-01,5.988998e-01
1.808699e+00,1.663648e+00,6,6,4.623595e-01,4.622194e-01
3.029046e+00,2.770426e+00,10,10,3.461620e-01,3.461109e-01
1.211601e+00,8.354870e-01,4,3,3.090921e-01,3.093715e-01
9.082840e-01,1.110721e+00,3,4,3.379981e-01,3.380141e-01
9.082690e-01,8.296500e-01,3,3,6.627107e-01,6.623978e-01
3.010097e+00,2.761153e+00,10,10,5.748434e-01,5.748444e-01
9.077860e-01,8.359880e-01,3,3,5.192981e-01,5.191759e-01
2.416158e+00,2.220483e+00,8,8,5.417037e-01,5.417588e-01
2.105874e+00,1.937041e+00,7,7,6.525869e-01,6.518566e-01
2.102532e+00,1.937043e+00,7,7,9.665129e-01,9.663885e-01
1.807626e+00,1.936419e+00,6,7,1.819660e+00,1.808656e+00
2.106000e+00,1.937375e+00,7,7,2.306430e+00,2.308069e+00
2.105832e+00,1.937056e+00,7,7,1.922491e+00,1.923412e+00
2.113365e+00,1.937948e+00,7,7,2.024226e+00,2.026900e+00
1.508222e+00,1.937875e+00,5,7,1.577605e+00,1.583655e+00
2.104946e+00,1.937147e+00,7,7,1.450748e+00,1.450719e+00
2.110416e+00,1.938977e+00,7,7,1.418016e+00,1.418605e+00
2.108764e+00,1.939071e+00,7,7,1.081554e+00,1.081811e+00
2.102440e+00,1.936031e+00,7,7,9.213009e-01,9.213706e-01
2.410285e+00,2.212616e+00,8,8,7.177460e-01,7.177843e-01
1.809430e+00,1.658916e+00,6,6,6.821686e-01,6.818581e-01
2.109796e+00,1.936385e+00,7,7,8.146333e-01,8.146091e-01
2.103403e+00,1.935768e+00,7,7,1.082577e+00,1.082915e+00
2.104240e+00,1.937877e+00,7,7,2.108007e+00,2.107085e+00
2.104492e+00,1.938033e+00,7,7,2.390547e+00,2.390016e+00
2.102050e+00,1.937137e+00,7,7,2.583848e+00,2.586429e+00
2.107984e+00,1.937033e+00,7,7,2.315169e+00,2.317900e+00
2.108069e+00,1.937567e+00,7,7,2.102323e+00,2.104489e+00
2.103733e+00,1.937059e+00,7,7,2.246574e+00,2.249546e+00
2.110131e+00,1.936655e+00,7,7,1.968688e+00,1.971894e+00
2.104830e+00,1.938997e+00,7,7,1.626100e+00,1.625434e+00
2.105693e+00,1.937933e+00,7,7,1.120853e+00,1.120581e+00
2.112696e+00,1.939874e+00,7,7,7.730498e-01,7.733001e-01
2.106624e+00,1.939081e+00,7,7,5.908899e-01,5.903772e-01
2.106799e+00,1.936478e+00,7,7,6.239295e-01,6.239468e-01
2.104286e+00,1.936910e+00,7,7,7.324628e-01,7.317789e-01
1.809095e+00,1.665249e+00,6,6,4.221365e-01,4.225691e-01
3.014847e+00,2.488577e+00,10,9,3.814196e-01,3.822063e-01
9.069800e-01,1.110563e+00,3,4,4.388193e-01,4.381496e-01
2.408294e+00,2.211357e+00,8,8,2.293568e-01,2.291405e-01
1.504122e+00,1.387588e+00,5,5,2.365601e-01,2.358431e-01
1.808637e+00,1.382976e+00,6,5,1.987281e-01,1.989143e-01
1.207500e+00,2.217635e+00,4,8,2.191541e-01,2.190253e-01
1.214421e+00,1.110336e+00,4,4,3.013272e-01,3.003629e-01
2.405359e+00,2.211387e+00,8,8,3.464805e-01,3.424388e-01
1.514489e+00,1.110591e+00,5,4,3.688255e-01,3.677464e-01
1.206544e+00,1.108797e+00,4,4,3.363395e-01,3.363121e-01
1.514586e+00,1.385861e+00,5,5,2.701644e-01,2.692317e-01
1.809429e+00,1.937253e+00,6,7,2.894419e-01,2.925933e-01
2.103217e+00,1.936011e+00,7,7,8.680448e-01,8.681339e-01
2.104457e+00,1.937133e+00,7,7,1.811171e+00,1.813242e+00
2.104697e+00,1.937677e+00,7,7,2.127180e+00,2.128152e+00
2.104854e+00,1.935837e+00,7,7,1.626048e+00,1.626562e+00
2.103614e+00,1.935736e+00,7,7,1.591878e+00,1.593446e+00
2.110209e+00,1.936555e+00,7,7,1.394320e+00,1.395835e+00
2.105446e+00,1.935547e+00,7,7,1.172069e+00,1.171716e+00
1.209601e+00,1.109390e+00,4,4,7.759889e-01,7.759757e-01
2.102979e+00,1.936570e+00,7,7,6.994036e-01,7.000381e-01
2.105572e+00,1.938376e+00,7,7,1.512033e+00,1.509585e+00
2.105897e+00,1.938098e+00,7,7,2.129064e+00,2.127607e+00
2.103478e+00,1.936962e+00,7,7,2.376009e+00,2.374919e+00
2.105161e+00,1.937609e+00,7,7,1.790818e+00,1.792079e+00
2.114258e+00,1.937178e+00,7,7,1.295816e+00,1.298231e+00
1.810429e+00,1.938409e+00,6,7,9.003940e-01,8.921707e-01
1.207558e+00,1.110039e+00,4,4,6.834930e-01,6.924529e-01
2.104723e+00,1.939771e+00,7,7,1.104273e+00,1.104980e+00
2.104334e+00,1.936477e+00,7,7,1.095804e+00,1.097131e+00
2.104721e+00,1.935613e+00,7,7,7.675249e-01,7.683959e-01
2.103735e+00,1.935721e+00,7,7,7.982501e-01,7.989877e-01
2.112207e+00,1.933965e+00,7,7,9.028220e-01,9.040647e-01
1.812333e+00,1.937209e+00,6,7,9.350392e-01,9.309631e-01
2.108002e+00,1.945027e+00,7,7,1.198956e+00,1.199317e+00
1.206758e+00,1.108589e+00,4,4,1.040425e+00,1.040948e+00
1.214607e+00,1.113437e+00,4,4,1.173478e+00,1.173755e+00
2.106279e+00,1.936660e+00,7,7,1.131551e+00,1.132459e+00
1.810086e+00,1.942850e+00,6,7,9.331237e-01,9.321585e-01
2.414489e+00,1.940009e+00,8,7,7.704565e-01,7.712929e-01
1.212126e+00,1.940334e+00,4,7,8.031622e-01,8.037991e-01
2.104843e+00,1.936301e+00,7,7,6.889534e-01,6.895829e-01
2.106228e+00,1.935395e+00,7,7,3.511812e-01,3.514095e-01
2.101848e+00,1.935651e+00,7,7,3.090041e-01,3.068830e-01
1.204466e+00,1.388976e+00,4,5,2.406276e-01,2.394499e-01
3.324135e+00,1.111173e+00,11,4,3.022315e-01,3.012947e-01
2.103232e+00,1.934594e+00,7,7,3.039421e-01,3.039645e-01
3.009563e+00,2.765690e+00,10,10,2.734389e-01,2.729566e-01
1.207790e+00,1.108981e+00,4,4,2.260122e-01,2.260055e-01
9.061530e-01,8.345520e-01,3,3,2.460036e-01,2.459754e-01
1.209648e+00,8.350550e-01,4,3,7.984548e-02,7.988942e-02
9.075520e-01,1.110447e+00,3,4,9.137571e-02,9.296176e-02
9.071400e-01,1.390021e+00,3,5,9.490307e-02,9.509870e-02
9.076950e-01,2.764479e+00,3,10,8.731627e-02,9.898623e-02
9.073550e-01,1.665733e+00,3,6,1.148318e-01,1.151087e-01
9.075880e-01,8.358290e-01,3,3,1.922585e-01,1.924453e-01
1.209225e+00,1.110942e+00,4,4,1.128408e-01,1.130441e-01
1.210302e+00,1.111516e+00,4,4,2.022658e-01,2.030685e-01
2.105206e+00,1.938233e+00,7,7,3.285700e-01,3.289753e-01
3.013601e+00,2.494755e+00,10,9,2.173947e-01,2.185361e-01
1.209047e+00,1.384542e+00,4,5,2.411967e-01,2.408338e-01
3.325844e+00,1.658518e+00,11,6,2.874899e-01,2.692493e-01
1.210766e+00,8.300290e-01,4,3,3.589129e-01,3.575133e-01
1.810400e+00,3.324510e+00,6,12,2.984602e-01,3.092858e-01
1.512562e+00,1.392113e+00,5,5,1.769245e-01,1.769240e-01
2.727702e+00,8.355290e-01,9,3,1.138241e-01,1.056805e-01
3.013850e+00,1.110392e+00,10,4,1.592480e-01,1.592573e-01
9.084360e-01,1.111169e+00,3,4,1.220618e-01,1.220557e-01
9.083320e-01,8.349160e-01,3,3,1.107887e-01,1.107783e-01
9.094850e-01,8.355140e-01,3,3,3.111171e-01,3.111121e-01
9.093980e-01,8.359180e-01,3,3,1.888098e-01,1.888042e-01
9.026830e-01,8.357120e-01,3,3,3.328254e-01,3.328112e-01
9.084150e-01,8.364790e-01,3,3,6.916068e-01,6.914996e-01
1.209306e+00,1.110562e+00,4,4,4.974041e-01,4.956708e-01
3.013260e+00,2.767468e+00,10,10,3.791675e-01,3.785198e-01
2.114249e+00,1.937159e+00,7,7,6.953374e-01,6.960786e-01
1.811554e+00,1.937019e+00,6,7,9.102265e-01,9.075027e-01
1.507517e+00,1.390849e+00,5,5,3.651474e-01,3.651486e-01
3.637843e+00,3.052126e+00,12,11,2.343199e-01,2.341936e-01
1.209552e+00,1.111204e+00,4,4,2.893858e-01,2.895598e-01
2.105827e+00,1.938189e+00,7,7,1.073287e-01,1.073533e-01
2.415805e+00,2.221390e+00,8,8,8.980329e-02,8.980880e-02
9.081190e-01,8.301320e-01,3,3,1.841361e-01,1.840305e-01
1.814266e+00,1.110637e+00,6,4,1.737152e-01,1.730669e-01
1.208291e+00,1.115085e+00,4,4,2.240911e-01,2.239074e-01
2.104925e+00,1.938551e+00,7,7,4.505359e-01,4.517260e-01
1.804565e+00,1.938395e+00,6,7,3.064995e-01,3.040409e-01
3.329809e+00,2.780103e+00,11,10,2.878750e-01,2.915964e-01
1.212242e+00,1.662106e+00,4,6,2.825874e-01,2.837827e-01
9.084690e-01,1.109633e+00,3,4,2.252431e-01,2.252879e-01
1.213641e+00,1.111469e+00,4,4,2.630097e-01,2.632329e-01
2.416601e+00,1.665074e+00,8,6,3.696175e-01,3.706977e-01
2.119989e+00,1.665831e+00,7,6,2.595754e-01,2.581742e-01
2.717101e+00,2.772835e+00,9,10,3.128932e-01,3.100092e-01
1.513213e+00,1.935673e+00,5,7,3.427109e-01,3.429701e-01
1.803426e+00,1.935474e+00,6,7,3.967165e-01,3.953800e-01
1.810014e+00,1.937811e+00,6,7,5.221283e-01,5.179498e-01
2.722786e+00,2.770373e+00,9,10,2.664524e-01,2.651110e-01
1.204950e+00,1.109448e+00,4,4,2.615237e-01,2.639615e-01
2.106175e+00,1.936572e+00,7,7,2.766783e-01,2.769571e-01
1.808083e+00,1.936565e+00,6,7,2.809385e-01,2.779402e-01
1.505138e+00,2.766725e+00,5,10,1.888214e-01,1.977676e-01
2.103317e+00,1.390603e+00,7,5,6.560823e-01,6.528497e-01
2.107517e+00,1.937231e+00,7,7,4.343622e-01,4.344679e-01
2.103032e+00,1.937055e+00,7,7,4.078052e-01,4.078489e-01
1.804877e+00,1.938337e+00,6,7,3.676147e-01,3.647943e-01
1.806894e+00,1.939514e+00,6,7,3.504425e-01,3.510520e-01
1.808787e+00,1.936065e+00,6,7,2.501848e-01,2.464758e-01
2.711934e+00,2.211788e+00,9,8,3.745256e-01,3.849983e-01
1.809556e+00,1.936924e+00,6,7,4.166967e-01,4.145902e-01
3.315872e+00,3.041023e+00,11,11,3.775136e-01,3.751480e-01
1.206776e+00,1.663308e+00,4,6,3.811210e-01,3.837475e-01
1.809892e+00,1.657916e+00,6,6,2.922384e-01,2.942898e-01
1.205222e+00,1.934692e+00,4,7,2.660543e-01,2.643314e-01
2.409297e+00,2.209843e+00,8,8,2.183016e-01,2.180619e-01
1.807457e+00,1.108596e+00,6,4,1.854715e-01,1.870290e-01
1.806987e+00,1.658095e+00,6,6,1.424471e-01,1.424868e-01
1.807781e+00,1.936150e+00,6,7,2.075294e-01,2.065277e-01
3.623377e+00,3.320396e+00,12,12,1.485143e-01,1.466697e-01
3.626584e+00,3.317989e+00,12,12,2.122676e-01,2.122069e-01
1.210662e+00,1.110482e+00,4,4,1.804279e-01,1.804248e-01
3.326131e+00,3.046370e+00,11,11,2.555617e-01,2.555072e-01
1.508210e+00,1.389956e+00,5,5,3.111245e-01,3.109448e-01
2.422236e+00,1.110911e+00,8,4,2.465446e-01,2.465697e-01
1.209501e+00,1.114517e+00,4,4,6.020146e-01,6.002221e-01
2.104572e+00,1.946487e+00,7,7,1.368803e+00,1.369169e+00
2.105682e+00,1.936863e+00,7,7,1.010496e+00,1.012182e+00
1.811820e+00,1.932534e+00,6,7,7.720393e-01,7.701876e-01
3.631400e+00,3.322164e+00,12,12,6.676057e-01,6.657421e-01
2.729177e+00,2.774555e+00,9,10,7.457334e-01,7.428825e-01
3.013569e+00,1.110709e+00,10,4,5.423373e-01,5.425930e-01
9.084550e-01,1.666421e+00,3,6,4.906296e-01,4.916466e-01
1.804587e+00,1.938064e+00,6,7,4.314879e-01,4.254964e-01
2.111531e+00,1.933211e+00,7,7,4.441756e-01,4.444022e-01
2.109119e+00,1.936624e+00,7,7,3.432238e-01,3.434444e-01
1.210522e+00,1.111733e+00,4,4,4.230762e-01,4.218738e-01
2.107026e+00,1.937431e+00,7,7,6.561364e-01,6.558708e-01
2.103493e+00,1.936796e+00,7,7,4.956606e-01,4.959355e-01
2.104181e+00,1.937133e+00,7,7,1.758138e-01,1.760150e-01
2.710568e+00,2.486731e+00,9,9,1.009024e-01,1.016434e-01
1.813159e+00,2.218969e+00,6,8,1.405497e-01,1.535942e-01
9.090070e-01,2.772102e+00,3,10,1.908812e-01,1.929092e-01
1.507552e+00,3.043094e+00,5,11,2.625768e-01,2.631898e-01
9.077500e-01,2.774048e+00,3,10,1.593658e-01,1.599328e-01
9.091700e-01,1.665919e+00,3,6,1.958565e-01,1.960524e-01
2.105648e+00,1.935730e+00,7,7,2.364784e-01,2.366196e-01
1.210460e+00,1.111509e+00,4,4,2.467914e-01,2.467956e-01
1.210046e+00,8.341160e-01,4,3,4.343576e-01,4.359103e-01
3.009838e+00,2.765594e+00,10,10,2.475965e-01,2.476077e-01
9.065370e-01,8.350940e-01,3,3,2.215945e-01,2.215416e-01
1.210721e+00,1.109477e+00,4,4,7.696302e-01,7.684223e-01
2.107482e+00,1.935399e+00,7,7,9.438158e-01,9.440445e-01
2.410343e+00,2.212330e+00,8,8,3.936541e-01,3.936955e-01
1.512701e+00,1.390535e+00,5,5,4.209243e-01,4.206405e-01
1.806198e+00,1.388176e+00,6,5,3.722851e-01,3.734495e-01
1.808380e+00,1.936772e+00,6,7,3.810562e-01,3.772166e-01
1.203474e+00,2.767881e+00,4,10,1.904571e-01,2.001868e-01
3.032068e+00,1.109713e+00,10,4,1.478074e-01,1.453664e-01
1.511981e+00,2.215042e+00,5,8,2.350314e-01,2.348613e-01
2.407633e+00,2.211424e+00,8,8,2.671711e-01,2.670161e-01
2.409142e+00,2.210660e+00,8,8,3.704775e-01,3.704585e-01
1.207687e+00,2.489293e+00,4,9,2.264965e-01,2.284849e-01
1.214730e+00,1.108385e+00,4,4,1.865893e-01,1.865926e-01
2.104664e+00,1.937848e+00,7,7,2.781508e-01,2.787175e-01
2.105663e+00,1.937237e+00,7,7,3.584726e-01,3.587049e-01
2.104955e+00,1.937600e+00,7,7,3.703863e-01,3.705425e-01
2.104239e+00,1.935400e+00,7,7,4.535993e-01,4.537879e-01
2.105576e+00,1.936112e+00,7,7,4.365859e-01,4.366109e-01
2.426754e+00,2.773050e+00,8,10,7.010635e-01,7.017457e-01
3.624402e+00,2.767277e+00,12,10,3.037553e-01,3.015519e-01
2.715372e+00,1.108989e+00,9,4,2.787358e-01,2.811642e-01
1.214270e+00,1.108390e+00,4,4,5.079854e-01,5.062984e-01
2.104680e+00,1.936519e+00,7,7,2.811186e-01,2.812246e-01
1.810194e+00,1.937614e+00,6,7,3.193456e-01,3.182377e-01
2.404520e+00,2.211401e+00,8,8,2.225478e-01,2.224442e-01
3.021195e+00,3.042725e+00,10,11,1.205011e-01,1.061817e-01
1.814137e+00,1.935641e+00,6,7,2.414564e-01,2.396978e-01
3.021626e+00,3.323515e+00,10,12,2.727863e-01,2.655423e-01
3.029017e+00,2.772703e+00,10,10,1.868600e-01,1.795014e-01
1.210185e+00,1.113586e+00,4,4,4.067022e-01,4.064384e-01
2.103748e+00,1.935612e+00,7,7,1.960835e-01,1.960925e-01
1.803199e+00,1.661731e+00,6,6,1.337309e-01,1.335853e-01
3.334229e+00,8.337820e-01,11,3,1.493565e-01,1.376920e-01
1.205415e+00,8.343420e-01,4,3,2.596182e-01,2.582041e-01
1.208716e+00,2.766938e+00,4,10,4.186466e-01,4.286973e-01
2.722803e+00,1.111090e+00,9,4,5.857600e-01,5.845117e-01
1.205857e+00,1.108778e+00,4,4,6.023597e-01,6.024125e-01
2.107981e+00,1.932214e+00,7,7,7.684350e-01,7.686113e-01
2.109147e+00,1.934118e+00,7,7,3.532473e-01,3.533156e-01
1.511309e+00,1.110041e+00,5,4,3.270770e-01,3.272044e-01
1.515507e+00,1.385961e+00,5,5,1.932263e-01,1.937733e-01
1.208243e+00,1.109045e+00,4,4,1.677124e-01,1.674047e-01
1.508743e+00,1.383518e+00,5,5,3.633140e-01,3.622688e-01
2.106044e+00,1.935648e+00,7,7,4.668022e-01,4.669964e-01
2.111909e+00,1.941747e+00,7,7,4.834158e-01,4.846859e-01
1.806207e+00,1.936963e+00,6,7,4.013540e-01,3.966290e-01
2.103546e+00,1.934368e+00,7,7,4.511741e-01,4.506536e-01
2.102175e+00,1.935275e+00,7,7,5.934322e-01,5.942320e-01
2.112153e+00,1.935897e+00,7,7,6.750669e-01,6.761278e-01
2.409489e+00,2.212227e+00,8,8,4.802937e-01,4.802783e-01
2.121540e+00,1.387613e+00,7,5,4.094307e-01,4.097690e-01
1.214486e+00,3.050337e+00,4,11,5.487926e-01,5.514486e-01
1.205030e+00,1.939952e+00,4,7,2.884492e-01,2.897206e-01
2.117056e+00,1.941238e+00,7,7,2.407369e-01,2.407683e-01
1.207266e+00,1.664960e+00,4,6,3.674093e-01,3.660819e-01
1.505633e+00,1.108415e+00,5,4,4.909233e-01,4.937339e-01
1.509299e+00,1.663178e+00,5,6,6.900389e-01,6.896515e-01
1.206452e+00,2.215009e+00,4,8,2.574341e-01,2.570400e-01
1.813916e+00,1.386681e+00,6,5,2.622139e-01,2.623422e-01
2.110463e+00,1.935845e+00,7,7,3.159821e-01,3.163782e-01
2.104827e+00,1.936096e+00,7,7,3.721337e-01,3.723932e-01
3.015634e+00,1.389119e+00,10,5,3.203282e-01,3.118332e-01
2.103041e+00,1.384248e+00,7,5,3.475523e-01,3.481268e-01
1.807966e+00,1.937186e+00,6,7,2.597466e-01,2.571182e-01
1.511188e+00,1.932372e+00,5,7,1.881988e-01,1.879144e-01

