6.222290e-01,5.675710e-01,2,2,0.000000e+00,0.000000e+00
9.078610e-01,8.350200e-01,3,3,5.784748e-02,5.784729e-02
9.089180e-01,8.288690e-01,3,3,9.449725e-02,9.449623e-02
1.215241e+00,8.535780e-01,4,3,2.010970e-01,2.028867e-01
3.020493e+00,1.657767e+00,10,6,1.906994e-01,1.845207e-01
1.227471e+00,1.116508e+00,4,4,4.860993e-01,4.860502e-01
2.109904e+00,1.942097e+00,7,7,6.515502e-01,6.521721e-01
2.108256e+00,1.941883e+00,7,7,8.091856e-01,8.096833e-01
3.333302e+00,3.043666e+00,11,11,4.264543e-01,4.239849e-01
3.019892e+00,2.764800e+00,10,10,4.103370e-01,4.116027e-01
3.031303e+00,2.767339e+00,10,10,3.193529e-01,3.185167e-01
2.727916e+00,2.768613e+00,9,10,3.200061e-01,3.181955e-01
1.514515e+00,1.934264e+00,5,7,4.671780e-01,4.678853e-01
1.808084e+00,1.935001e+00,6,7,7.324596e-01,7.282641e-01
3.017899e+00,2.766077e+00,10,10,5.635106e-01,5.635192e-01
9.126630e-01,8.347410e-01,3,3,8.715743e-01,8.714448e-01
3.639976e+00,3.045351e+00,12,11,7.392813e-01,7.397513e-01
3.038615e+00,3.318380e+00,10,12,6.337049e-01,6.357568e-01
1.512026e+00,1.932236e+00,5,7,6.536459e-01,6.524064e-01
1.211783e+00,1.658569e+00,4,6,8.156264e-01,8.144234e-01
2.109642e+00,1.935834e+00,7,7,8.574575e-01,8.579527e-01
1.210146e+00,1.384541e+00,4,5,7.521370e-01,7.491667e-01
1.512059e+00,1.113241e+00,5,4,5.999029e-01,6.004433e-01
3.024716e+00,2.759954e+00,10,10,6.637021e-01,6.635287e-01
2.110373e+00,1.930888e+00,7,7,6.457938e-01,6.455299e-01
1.813278e+00,1.934460e+00,6,7,5.896640e-01,5.871300e-01
1.516056e+00,2.214620e+00,5,8,4.817474e-01,4.824788e-01
2.108333e+00,1.934932e+00,7,7,3.457010e-01,3.457577e-01
2.421804e+00,1.386185e+00,8,5,2.341115e-01,2.184641e-01
3.033009e+00,3.045372e+00,10,11,1.621403e-01,1.535305e-01
9.085970e-01,1.108219e+00,3,4,2.495192e-01,2.489322e-01
3.323817e+00,1.662207e+00,11,6,3.665031e-01,3.465421e-01
3.015467e+00,1.661822e+00,10,6,2.878317e-01,2.784312e-01
1.208463e+00,1.109048e+00,4,4,3.438383e-01,3.430915e-01
2.105779e+00,1.935157e+00,7,7,2.071605e-01,2.069836e-01
1.810515e+00,1.937041e+00,6,7,1.472769e-01,1.466432e-01
2.711867e+00,2.766435e+00,9,10,2.595943e-01,2.593519e-01
1.213755e+00,8.336390e-01,4,3,2.978577e-01,2.969867e-01
2.108148e+00,1.933720e+00,7,7,5.641594e-01,5.633684e-01
2.107939e+00,1.935611e+00,7,7,4.880436e-01,4.885202e-01
2.106903e+00,1.934344e+00,7,7,7.919599e-01,7.927320e-01
2.110315e+00,1.929992e+00,7,7,1.174479e+00,1.176556e+00
1.812746e+00,1.934007e+00,6,7,7.881033e-01,7.830653e-01
2.116166e+00,1.933881e+00,7,7,1.047463e+00,1.048615e+00
1.810850e+00,1.934422e+00,6,7,9.058097e-01,9.023766e-01
1.208750e+00,1.107944e+00,4,4,7.249843e-01,7.264585e-01
2.108844e+00,1.933316e+00,7,7,6.212599e-01,6.209221e-01
2.416258e+00,2.213409e+00,8,8,5.021463e-01,5.023519e-01
2.421943e+00,2.218728e+00,8,8,3.556819e-01,3.556209e-01
2.428707e+00,2.216716e+00,8,8,1.149485e-01,1.149391e-01
1.213813e+00,8.280850e-01,4,3,1.863279e-01,1.865611e-01
9.095700e-01,1.109827e+00,3,4,3.345080e-01,3.337977e-01
2.109030e+00,1.381879e+00,7,5,2.902736e-01,2.898158e-01
2.115522e+00,1.663007e+00,7,6,2.352517e-01,2.352634e-01
2.719902e+00,2.491710e+00,9,9,2.497142e-01,2.512603e-01
2.105902e+00,1.936933e+00,7,7,3.569251e-01,3.565889e-01
2.408190e+00,2.212395e+00,8,8,1.836736e-01,1.834058e-01
1.507605e+00,1.382296e+00,5,5,2.259350e-01,2.258838e-01
2.109813e+00,1.934553e+00,7,7,3.092715e-01,3.098326e-01
2.115281e+00,1.934942e+00,7,7,4.986846e-01,4.996884e-01
1.205361e+00,1.109140e+00,4,4,2.155196e-01,2.164292e-01
2.107807e+00,1.935566e+00,7,7,6.884364e-01,6.874870e-01
2.106586e+00,1.936522e+00,7,7,1.479518e+00,1.476811e+00
2.112920e+00,1.935179e+00,7,7,6.808625e-01,6.811760e-01
2.108721e+00,1.935633e+00,7,7,8.717947e-01,8.726907e-01
3.324817e+00,2.769563e+00,11,10,3.829349e-01,3.740227e-01
1.817158e+00,1.935143e+00,6,7,4.284635e-01,4.237879e-01
3.332573e+00,2.766649e+00,11,10,3.010775e-01,3.058802e-01
1.212749e+00,1.388513e+00,4,5,2.573122e-01,2.580965e-01
1.212509e+00,1.383550e+00,4,5,1.860451e-01,1.857229e-01
1.214257e+00,1.109497e+00,4,4,3.532853e-01,3.531388e-01
1.514982e+00,1.109477e+00,5,4,4.067877e-01,4.073527e-01
1.208577e+00,2.776434e+00,4,10,4.535516e-01,4.732853e-01
1.211463e+00,1.113133e+00,4,4,4.987077e-01,4.987842e-01
2.104939e+00,1.936199e+00,7,7,6.373662e-01,6.377682e-01
2.107304e+00,1.934857e+00,7,7,7.781222e-01,7.788993e-01
3.015398e+00,2.759617e+00,10,10,5.556974e-01,5.556678e-01
1.219909e+00,8.330750e-01,4,3,4.846255e-01,4.853938e-01
3.638946e+00,2.774075e+00,12,10,4.484184e-01,4.465160e-01
1.809231e+00,1.935206e+00,6,7,2.001983e-01,1.990524e-01
2.107961e+00,1.937489e+00,7,7,7.827702e-01,7.833851e-01
1.813053e+00,1.934847e+00,6,7,5.909034e-01,5.861512e-01
1.805625e+00,1.934889e+00,6,7,3.756278e-01,3.704587e-01
1.508509e+00,1.382857e+00,5,5,4.345085e-01,4.338137e-01
1.210479e+00,1.113385e+00,4,4,6.964414e-01,6.950153e-01
2.106004e+00,1.934988e+00,7,7,1.254490e+00,1.254793e+00
2.107506e+00,1.935142e+00,7,7,1.962224e+00,1.962781e+00
2.106326e+00,1.935699e+00,7,7,2.827383e+00,2.826219e+00
2.114578e+00,1.935382e+00,7,7,2.184141e+00,2.188371e+00
1.813267e+00,1.930520e+00,6,7,1.424089e+00,1.420259e+00
1.211854e+00,1.108825e+00,4,4,9.168108e-01,9.206721e-01
2.108879e+00,1.935773e+00,7,7,5.719939e-01,5.710134e-01
2.108259e+00,1.936985e+00,7,7,9.486151e-01,9.440036e-01
2.106838e+00,1.936696e+00,7,7,6.460369e-01,6.457278e-01
2.106060e+00,1.936168e+00,7,7,8.511631e-01,8.518888e-01
2.105140e+00,1.935068e+00,7,7,1.028108e+00,1.030223e+00
3.015974e+00,2.765768e+00,10,10,4.344807e-01,4.340689e-01
1.813066e+00,1.935296e+00,6,7,3.027101e-01,3.023252e-01
1.807044e+00,1.933781e+00,6,7,4.550761e-01,4.489302e-01
3.016307e+00,1.387601e+00,10,5,4.006576e-01,4.007187e-01
1.511864e+00,2.769084e+00,5,10,2.828270e-01,2.900832e-01
1.813250e+00,1.934394e+00,6,7,3.258288e-01,3.246449e-01
3.330156e+00,2.766502e+00,11,10,1.479535e-01,1.504112e-01
1.211620e+00,1.389744e+00,4,5,1.193156e-01,1.193784e-01
2.415853e+00,2.768418e+00,8,10,1.043193e-01,1.055082e-01
3.017177e+00,2.209768e+00,10,8,2.804196e-01,2.863752e-01
9.073350e-01,2.212275e+00,3,8,3.538020e-01,3.510585e-01
1.811020e+00,1.937742e+00,6,7,3.076220e-01,3.060354e-01
3.326376e+00,2.767623e+00,11,10,2.130004e-01,2.172243e-01
3.038546e+00,2.767679e+00,10,10,2.038430e-01,2.033944e-01
3.022983e+00,1.108495e+00,10,4,2.279256e-01,2.125414e-01
1.512127e+00,1.384317e+00,5,5,2.549420e-01,2.548727e-01
3.315939e+00,2.764473e+00,11,10,1.941751e-01,1.958088e-01
1.506735e+00,1.386375e+00,5,5,2.920166e-01,2.919730e-01
3.627151e+00,3.041178e+00,12,11,1.359911e-01,1.356869e-01
1.214639e+00,1.933750e+00,4,7,1.165094e-01,1.164768e-01
2.107941e+00,1.933156e+00,7,7,2.732627e-01,2.737571e-01
1.803677e+00,1.933179e+00,6,7,1.604969e-01,1.593254e-01
2.109718e+00,1.110270e+00,7,4,5.575801e-01,5.538616e-01
1.207460e+00,1.933979e+00,4,7,5.127736e-01,5.114030e-01
1.209183e+00,2.215419e+00,4,8,6.585691e-01,6.555112e-01
2.115731e+00,1.934470e+00,7,7,9.605944e-01,9.613223e-01
1.811507e+00,1.934909e+00,6,7,8.401194e-01,8.348492e-01
2.409136e+00,2.213115e+00,8,8,7.658593e-01,7.659701e-01
2.115759e+00,1.935333e+00,7,7,1.130463e+00,1.131961e+00
2.108087e+00,1.933342e+00,7,7,8.479609e-01,8.481669e-01
2.105311e+00,1.933837e+00,7,7,5.359283e-01,5.359811e-01
1.512801e+00,2.768712e+00,5,10,3.486528e-01,3.605158e-01
1.206919e+00,1.107623e+00,4,4,2.511283e-01,2.512406e-01
3.627008e+00,3.039895e+00,12,11,2.486842e-01,2.479324e-01
1.210220e+00,1.387364e+00,4,5,2.448553e-01,2.441092e-01
1.507263e+00,8.343020e-01,5,3,3.350243e-01,3.355474e-01
2.724432e+00,3.320091e+00,9,12,2.090130e-01,2.143383e-01
3.322427e+00,2.762530e+00,11,10,1.803053e-01,1.802789e-01
1.518328e+00,8.328540e-01,5,3,1.480501e-01,1.475878e-01
3.639736e+00,8.347610e-01,12,3,3.876234e-01,3.878612e-01
1.205738e+00,1.108417e+00,4,4,4.405671e-01,4.411711e-01
1.811149e+00,1.663708e+00,6,6,3.550204e-01,3.549999e-01
9.078970e-01,8.344450e-01,3,3,3.976979e-01,3.967866e-01
2.406752e+00,2.207538e+00,8,8,3.036936e-01,3.036618e-01
1.812120e+00,1.381426e+00,6,5,4.016418e-01,4.039821e-01
2.116572e+00,1.928690e+00,7,7,5.475927e-01,5.484080e-01
2.110437e+00,1.930837e+00,7,7,7.804911e-01,7.810581e-01
1.205448e+00,1.109074e+00,4,4,8.113568e-01,8.118701e-01
2.108585e+00,1.935553e+00,7,7,6.845072e-01,6.846001e-01
2.108036e+00,1.934856e+00,7,7,5.967964e-01,5.967818e-01
1.811026e+00,1.935088e+00,6,7,4.822459e-01,4.781678e-01
1.208467e+00,1.661735e+00,4,6,5.589247e-01,5.580387e-01
1.205782e+00,1.108439e+00,4,4,6.292862e-01,6.254246e-01
2.106554e+00,1.934648e+00,7,7,6.668194e-01,6.652662e-01
2.110158e+00,1.934949e+00,7,7,3.576901e-01,3.598362e-01
1.811980e+00,2.764081e+00,6,10,3.755712e-01,3.753209e-01
1.507780e+00,1.382840e+00,5,5,2.780386e-01,2.782615e-01
1.216791e+00,1.110039e+00,4,4,2.369608e-01,2.384676e-01
1.206679e+00,2.766176e+00,4,10,1.875163e-01,1.873355e-01
1.212185e+00,8.354870e-01,4,3,3.099645e-01,3.099444e-01
1.212737e+00,8.355600e-01,4,3,6.376835e-01,6.377396e-01
2.108150e+00,1.933733e+00,7,7,5.120396e-01,5.120968e-01
1.208985e+00,3.321469e+00,4,12,5.704212e-01,5.701957e-01
1.211322e+00,1.109384e+00,4,4,6.069846e-01,6.034640e-01
2.104522e+00,1.935972e+00,7,7,2.822254e-01,2.828160e-01
3.636517e+00,1.112185e+00,12,4,2.309225e-01,2.303056e-01
1.513715e+00,1.109343e+00,5,4,1.859866e-01,1.857385e-01
1.206690e+00,1.388522e+00,4,5,9.329650e-02,9.291739e-02
3.637339e+00,1.111939e+00,12,4,1.163752e-01,1.131909e-01
1.513880e+00,8.349900e-01,5,3,1.909526e-01,1.909609e-01
9.075100e-01,8.333110e-01,3,3,1.379483e-01,1.382338e-01
1.210342e+00,1.110576e+00,4,4,5.382607e-01,5.379313e-01
1.208058e+00,2.492437e+00,4,9,5.404730e-01,5.550558e-01
1.211288e+00,1.110361e+00,4,4,3.429224e-01,3.431114e-01
2.105434e+00,1.663719e+00,7,6,3.084320e-01,3.084834e-01
1.813314e+00,1.658385e+00,6,6,2.699397e-01,2.707080e-01
1.508768e+00,1.381985e+00,5,5,2.218693e-01,2.220027e-01
1.209707e+00,2.772089e+00,4,10,2.012209e-01,2.061339e-01
1.811163e+00,1.109303e+00,6,4,2.700927e-01,2.715661e-01
1.807162e+00,1.935307e+00,6,7,2.128811e-01,2.116138e-01
2.409187e+00,2.214069e+00,8,8,1.967740e-01,1.973247e-01
1.505499e+00,1.382017e+00,5,5,3.462425e-01,3.465837e-01
1.208775e+00,1.382703e+00,4,5,4.277117e-01,4.270853e-01
2.737059e+00,8.346820e-01,9,3,6.040604e-01,5.868576e-01
1.806026e+00,1.932823e+00,6,7,7.454852e-01,7.457053e-01
1.210207e+00,1.382674e+00,4,5,7.216411e-01,7.167064e-01
2.106237e+00,1.936273e+00,7,7,7.739043e-01,7.741786e-01
2.107406e+00,1.937223e+00,7,7,5.475487e-01,5.479107e-01
1.208009e+00,1.107315e+00,4,4,4.084093e-01,4.072223e-01
2.108900e+00,1.933836e+00,7,7,4.545143e-01,4.547221e-01
2.110126e+00,1.930654e+00,7,7,6.104474e-01,6.117716e-01
2.119790e+00,1.935075e+00,7,7,7.627322e-01,7.642991e-01
1.808024e+00,1.934653e+00,6,7,5.660714e-01,5.598028e-01
3.015395e+00,2.764093e+00,10,10,4.789163e-01,4.786983e-01
2.106029e+00,1.935975e+00,7,7,4.904541e-01,4.900329e-01
2.108490e+00,1.935154e+00,7,7,2.619187e-01,2.616687e-01
3.016187e+00,2.210116e+00,10,8,4.123022e-01,4.222512e-01
1.214263e+00,1.382843e+00,4,5,3.997043e-01,4.010085e-01
1.807989e+00,1.935829e+00,6,7,2.858953e-01,2.839193e-01
2.720456e+00,1.113751e+00,9,4,2.732348e-01,2.583730e-01
3.021609e+00,2.763164e+00,10,10,5.443301e-01,5.486674e-01
2.106876e+00,1.935401e+00,7,7,1.100186e+00,1.101920e+00
2.110390e+00,1.931999e+00,7,7,9.675324e-01,9.694212e-01
2.111318e+00,1.934757e+00,7,7,9.619233e-01,9.638974e-01
2.115902e+00,1.935652e+00,7,7,1.248212e+00,1.250186e+00
2.113088e+00,1.935867e+00,7,7,1.994230e+00,1.997379e+00
1.804510e+00,1.941438e+00,6,7,1.097065e+00,1.091273e+00
2.112386e+00,1.109383e+00,7,4,1.235647e+00,1.236085e+00
1.511731e+00,1.662551e+00,5,6,1.008615e+00,1.008943e+00
2.109517e+00,1.935988e+00,7,7,9.836194e-01,9.832871e-01
1.813132e+00,1.937317e+00,6,7,4.473871e-01,4.429579e-01
2.109228e+00,1.936354e+00,7,7,8.416075e-01,8.423262e-01
1.808527e+00,1.937272e+00,6,7,5.321807e-01,5.294476e-01
2.111082e+00,1.928825e+00,7,7,5.647716e-01,5.667286e-01
2.720981e+00,2.765502e+00,9,10,3.129614e-01,3.125294e-01
1.213302e+00,1.387545e+00,4,5,7.188785e-01,7.183813e-01
2.108096e+00,1.936996e+00,7,7,1.443450e+00,1.442903e+00
2.108252e+00,1.935084e+00,7,7,8.200727e-01,8.205087e-01
2.106948e+00,1.935480e+00,7,7,1.228502e+00,1.230632e+00
2.117456e+00,1.936790e+00,7,7,1.118856e+00,1.120169e+00
2.108170e+00,1.935473e+00,7,7,1.363344e+00,1.365532e+00
2.410471e+00,2.209071e+00,8,8,7.462600e-01,7.460311e-01
1.810339e+00,1.662208e+00,6,6,6.101833e-01,6.114607e-01
2.409557e+00,1.933716e+00,8,7,3.652166e-01,3.656392e-01
2.424140e+00,1.109436e+00,8,4,3.244554e-01,3.251412e-01
2.108070e+00,1.934864e+00,7,7,2.848919e-01,2.852512e-01
2.106667e+00,1.934594e+00,7,7,4.827249e-01,4.840665e-01
1.810907e+00,1.937715e+00,6,7,2.055458e-01,2.046263e-01
3.623863e+00,3.321264e+00,12,12,2.507974e-01,2.476171e-01
2.120797e+00,1.110945e+00,7,4,3.280195e-01,3.295344e-01
9.096010e-01,3.045669e+00,3,11,3.979821e-01,4.016346e-01
9.104610e-01,3.040756e+00,3,11,2.650588e-01,2.680927e-01
1.213567e+00,1.933521e+00,4,7,3.084183e-01,3.095683e-01
2.108832e+00,1.934548e+00,7,7,3.699045e-01,3.703274e-01
2.113993e+00,1.934839e+00,7,7,5.058977e-01,5.065993e-01
2.106840e+00,1.936452e+00,7,7,1.007247e+00,1.008650e+00
2.106270e+00,1.936329e+00,7,7,1.440521e+00,1.442921e+00
1.814318e+00,1.938614e+00,6,7,9.444147e-01,9.378171e-01
2.114889e+00,1.934006e+00,7,7,1.196756e+00,1.197436e+00
3.637347e+00,3.320728e+00,12,12,8.265343e-01,8.255877e-01
1.514267e+00,1.388579e+00,5,5,5.166333e-01,5.167369e-01
2.110106e+00,1.936392e+00,7,7,6.765373e-01,6.754783e-01
1.812645e+00,1.936699e+00,6,7,3.105253e-01,3.058246e-01
3.022034e+00,1.109130e+00,10,4,3.929379e-01,3.829074e-01
3.625287e+00,3.319107e+00,12,12,2.480379e-01,2.445882e-01
1.211287e+00,1.385142e+00,4,5,2.418694e-01,2.398938e-01
2.113539e+00,1.111804e+00,7,4,2.421835e-01,2.422259e-01
2.113672e+00,1.934344e+00,7,7,3.236554e-01,3.249436e-01
3.327130e+00,2.766925e+00,11,10,1.750674e-01,1.788053e-01
1.210343e+00,1.109390e+00,4,4,4.131074e-01,4.149809e-01
2.105644e+00,1.938240e+00,7,7,1.070119e+00,1.072095e+00
1.811401e+00,1.935804e+00,6,7,6.030007e-01,5.988998e-01
1.811459e+00,1.656158e+00,6,6,4.623595e-01,4.622194e-01
3.031067e+00,2.769400e+00,10,10,3.461620e-01,3.461109e-01
1.213735e+00,8.335600e-01,4,3,3.090921e-01,3.093715e-01
9.106130e-01,1.111021e+00,3,4,3.379981e-01,3.380141e-01
9.096880e-01,8.342860e-01,3,3,6.627107e-01,6.623978e-01
3.018648e+00,2.766903e+00,10,10,5.748434e-01,5.748444e-01
9.097350e-01,8.342820e-01,3,3,5.192981e-01,5.191759e-01
2.418886e+00,2.215625e+00,8,8,5.417037e-01,5.417588e-01
2.108361e+00,1.935222e+00,7,7,6.525869e-01,6.518566e-01
2.106400e+00,1.934309e+00,7,7,9.665129e-01,9.663885e-01
1.808467e+00,1.935879e+00,6,7,1.819660e+00,1.808656e+00
2.108348e+00,1.935606e+00,7,7,2.306430e+00,2.308069e+00
2.109644e+00,1.933566e+00,7,7,1.922491e+00,1.923412e+00
2.117498e+00,1.934707e+00,7,7,2.024226e+00,2.026900e+00
1.513707e+00,1.935377e+00,5,7,1.577605e+00,1.583655e+00
2.107627e+00,1.936909e+00,7,7,1.450748e+00,1.450719e+00
2.114874e+00,1.938202e+00,7,7,1.418016e+00,1.418605e+00
2.113207e+00,1.937674e+00,7,7,1.081554e+00,1.081811e+00
2.107161e+00,1.935248e+00,7,7,9.213009e-01,9.213706e-01
2.409803e+00,2.214559e+00,8,8,7.177460e-01,7.177843e-01
1.807153e+00,1.669390e+00,6,6,6.821686e-01,6.818581e-01
2.108006e+00,1.935862e+00,7,7,8.146333e-01,8.146091e-01
2.106367e+00,1.934694e+00,7,7,1.082577e+00,1.082915e+00
2.108996e+00,1.935484e+00,7,7,2.108007e+00,2.107085e+00
2.109572e+00,1.934755e+00,7,7,2.390547e+00,2.390016e+00
2.106855e+00,1.935080e+00,7,7,2.583848e+00,2.586429e+00
2.108848e+00,1.933564e+00,7,7,2.315169e+00,2.317900e+00
2.109437e+00,1.934818e+00,7,7,2.102323e+00,2.104489e+00
2.106272e+00,1.934502e+00,7,7,2.246574e+00,2.249546e+00
2.115599e+00,1.930786e+00,7,7,1.968688e+00,1.971894e+00
2.112340e+00,1.934377e+00,7,7,1.626100e+00,1.625434e+00
2.108553e+00,1.936164e+00,7,7,1.120853e+00,1.120581e+00
2.116232e+00,1.939167e+00,7,7,7.730498e-01,7.733001e-01
2.108903e+00,1.935900e+00,7,7,5.908899e-01,5.903772e-01
2.108137e+00,1.935521e+00,7,7,6.239295e-01,6.239468e-01
2.107677e+00,1.936071e+00,7,7,7.324628e-01,7.317789e-01
1.812262e+00,1.656774e+00,6,6,4.221365e-01,4.225691e-01
3.016510e+00,2.488890e+00,10,9,3.814196e-01,3.822063e-01
9.098830e-01,1.110038e+00,3,4,4.388193e-01,4.381496e-01
2.408042e+00,2.209134e+00,8,8,2.293568e-01,2.291405e-01
1.510095e+00,1.382871e+00,5,5,2.365601e-01,2.358431e-01
1.810276e+00,1.386432e+00,6,5,1.987281e-01,1.989143e-01
1.209262e+00,2.216273e+00,4,8,2.191541e-01,2.190253e-01
1.211875e+00,1.109404e+00,4,4,3.013272e-01,3.003629e-01
2.411955e+00,2.209746e+00,8,8,3.464805e-01,3.424388e-01
1.511769e+00,1.112442e+00,5,4,3.688255e-01,3.677464e-01
1.208725e+00,1.109244e+00,4,4,3.363395e-01,3.363121e-01
1.513362e+00,1.388388e+00,5,5,2.701644e-01,2.692317e-01
1.813551e+00,1.936566e+00,6,7,2.894419e-01,2.925933e-01
2.106907e+00,1.935969e+00,7,7,8.680448e-01,8.681339e-01
2.106933e+00,1.936413e+00,7,7,1.811171e+00,1.813242e+00
2.109227e+00,1.935997e+00,7,7,2.127180e+00,2.128152e+00
2.107577e+00,1.936002e+00,7,7,1.626048e+00,1.626562e+00
2.108698e+00,1.935071e+00,7,7,1.591878e+00,1.593446e+00
2.114888e+00,1.936267e+00,7,7,1.394320e+00,1.395835e+00
2.109737e+00,1.936087e+00,7,7,1.172069e+00,1.171716e+00
1.207465e+00,1.108676e+00,4,4,7.759889e-01,7.759757e-01
2.109350e+00,1.934807e+00,7,7,6.994036e-01,7.000381e-01
2.107152e+00,1.950400e+00,7,7,1.512033e+00,1.509585e+00
2.109768e+00,1.935088e+00,7,7,2.129064e+00,2.127607e+00
2.111956e+00,1.931200e+00,7,7,2.376009e+00,2.374919e+00
2.112243e+00,1.934132e+00,7,7,1.790818e+00,1.792079e+00
2.116206e+00,1.935270e+00,7,7,1.295816e+00,1.298231e+00
1.807952e+00,1.935245e+00,6,7,9.003940e-01,8.921707e-01
1.211851e+00,1.108646e+00,4,4,6.834930e-01,6.924529e-01
2.105780e+00,1.934665e+00,7,7,1.104273e+00,1.104980e+00
2.107146e+00,1.937544e+00,7,7,1.095804e+00,1.097131e+00
2.108073e+00,1.934896e+00,7,7,7.675249e-01,7.683959e-01
2.107570e+00,1.934168e+00,7,7,7.982501e-01,7.989877e-01
2.116203e+00,1.935789e+00,7,7,9.028220e-01,9.040647e-01
1.813056e+00,1.935273e+00,6,7,9.350392e-01,9.309631e-01
2.111230e+00,1.935214e+00,7,7,1.198956e+00,1.199317e+00
1.207412e+00,1.108443e+00,4,4,1.040425e+00,1.040948e+00
1.211412e+00,1.108966e+00,4,4,1.173478e+00,1.173755e+00
2.108290e+00,1.933494e+00,7,7,1.131551e+00,1.132459e+00
1.812191e+00,1.939480e+00,6,7,9.331237e-01,9.321585e-01
2.420582e+00,1.935538e+00,8,7,7.704565e-01,7.712929e-01
1.212407e+00,1.939050e+00,4,7,8.031622e-01,8.037991e-01
2.107289e+00,1.933851e+00,7,7,6.889534e-01,6.895829e-01
2.109462e+00,1.934125e+00,7,7,3.511812e-01,3.514095e-01
2.105899e+00,1.934232e+00,7,7,3.090041e-01,3.068830e-01
1.206349e+00,1.383056e+00,4,5,2.406276e-01,2.394499e-01
3.334608e+00,1.109376e+00,11,4,3.022315e-01,3.012947e-01
2.106624e+00,1.934721e+00,7,7,3.039421e-01,3.039645e-01
3.015298e+00,2.763603e+00,10,10,2.734389e-01,2.729566e-01
1.208451e+00,1.108219e+00,4,4,2.260122e-01,2.260055e-01
9.070730e-01,8.343260e-01,3,3,2.460036e-01,2.459754e-01
1.210906e+00,8.346520e-01,4,3,7.984548e-02,7.988942e-02
9.089910e-01,1.109676e+00,3,4,9.137571e-02,9.296176e-02
9.074280e-01,1.383145e+00,3,5,9.490307e-02,9.509870e-02
9.101230e-01,2.768498e+00,3,10,8.731627e-02,9.898623e-02
9.086320e-01,1.658774e+00,3,6,1.148318e-01,1.151087e-01
9.078120e-01,8.337770e-01,3,3,1.922585e-01,1.924453e-01
1.211069e+00,1.112046e+00,4,4,1.128408e-01,1.130441e-01
1.210442e+00,1.117047e+00,4,4,2.022658e-01,2.030685e-01
2.109289e+00,1.935095e+00,7,7,3.285700e-01,3.289753e-01
3.014917e+00,2.486142e+00,10,9,2.173947e-01,2.185361e-01
1.214424e+00,1.382942e+00,4,5,2.411967e-01,2.408338e-01
3.325921e+00,1.660728e+00,11,6,2.874899e-01,2.692493e-01
1.206546e+00,8.341860e-01,4,3,3.589129e-01,3.575133e-01
1.813206e+00,3.314859e+00,6,12,2.984602e-01,3.092858e-01
1.518010e+00,1.386966e+00,5,5,1.769245e-01,1.769240e-01
2.734145e+00,8.338090e-01,9,3,1.138241e-01,1.056805e-01
3.016711e+00,1.110234e+00,10,4,1.592480e-01,1.592573e-01
9.089610e-01,1.109950e+00,3,4,1.220618e-01,1.220557e-01
9.082310e-01,8.333760e-01,3,3,1.107887e-01,1.107783e-01
9.085490e-01,8.296220e-01,3,3,3.111171e-01,3.111121e-01
9.090150e-01,8.338780e-01,3,3,1.888098e-01,1.888042e-01
9.089980e-01,8.342730e-01,3,3,3.328254e-01,3.328112e-01
9.078760e-01,8.336860e-01,3,3,6.916068e-01,6.914996e-01
1.211014e+00,1.108725e+00,4,4,4.974041e-01,4.956708e-01
3.014789e+00,2.763688e+00,10,10,3.791675e-01,3.785198e-01
2.114066e+00,1.936780e+00,7,7,6.953374e-01,6.960786e-01
1.812649e+00,1.934187e+00,6,7,9.102265e-01,9.075027e-01
1.507851e+00,1.383948e+00,5,5,3.651474e-01,3.651486e-01
3.641714e+00,3.046610e+00,12,11,2.343199e-01,2.341936e-01
1.211849e+00,1.108193e+00,4,4,2.893858e-01,2.895598e-01
2.110654e+00,1.929657e+00,7,7,1.073287e-01,1.073533e-01
2.424178e+00,2.213549e+00,8,8,8.980329e-02,8.980880e-02
9.090780e-01,8.342030e-01,3,3,1.841361e-01,1.840305e-01
1.813072e+00,1.108965e+00,6,4,1.737152e-01,1.730669e-01
1.209233e+00,1.109171e+00,4,4,2.240911e-01,2.239074e-01
2.108504e+00,1.935653e+00,7,7,4.505359e-01,4.517260e-01
1.811073e+00,1.936592e+00,6,7,3.064995e-01,3.040409e-01
3.330216e+00,2.767243e+00,11,10,2.878750e-01,2.915964e-01
1.213188e+00,1.664912e+00,4,6,2.825874e-01,2.837827e-01
9.083710e-01,1.109366e+00,3,4,2.252431e-01,2.252879e-01
1.209571e+00,1.110434e+00,4,4,2.630097e-01,2.632329e-01
2.421435e+00,1.656255e+00,8,6,3.696175e-01,3.706977e-01
2.119187e+00,1.661045e+00,7,6,2.595754e-01,2.581742e-01
2.725489e+00,2.768854e+00,9,10,3.128932e-01,3.100092e-01
1.510042e+00,1.934991e+00,5,7,3.427109e-01,3.429701e-01
1.811049e+00,1.935086e+00,6,7,3.967165e-01,3.953800e-01
1.814190e+00,1.933641e+00,6,7,5.221283e-01,5.179498e-01
2.722044e+00,2.766668e+00,9,10,2.664524e-01,2.651110e-01
1.208480e+00,1.107505e+00,4,4,2.615237e-01,2.639615e-01
2.112569e+00,1.932143e+00,7,7,2.766783e-01,2.769571e-01
1.806850e+00,1.935553e+00,6,7,2.809385e-01,2.779402e-01
1.511699e+00,2.764845e+00,5,10,1.888214e-01,1.977676e-01
2.107861e+00,1.382506e+00,7,5,6.560823e-01,6.528497e-01
2.107040e+00,1.934550e+00,7,7,4.343622e-01,4.344679e-01
2.107352e+00,1.935084e+00,7,7,4.078052e-01,4.078489e-01
1.812552e+00,1.940148e+00,6,7,3.676147e-01,3.647943e-01
1.809513e+00,1.937487e+00,6,7,3.504425e-01,3.510520e-01
1.807264e+00,1.934587e+00,6,7,2.501848e-01,2.464758e-01
2.714895e+00,2.209023e+00,9,8,3.745256e-01,3.849983e-01
1.811103e+00,1.934695e+00,6,7,4.166967e-01,4.145902e-01
3.320581e+00,3.039475e+00,11,11,3.775136e-01,3.751480e-01
1.211312e+00,1.656202e+00,4,6,3.811210e-01,3.837475e-01
1.811288e+00,1.660559e+00,6,6,2.922384e-01,2.942898e-01
1.207720e+00,1.938023e+00,4,7,2.660543e-01,2.643314e-01
2.408782e+00,2.212413e+00,8,8,2.183016e-01,2.180619e-01
1.806507e+00,1.109876e+00,6,4,1.854715e-01,1.870290e-01
1.805358e+00,1.660120e+00,6,6,1.424471e-01,1.424868e-01
1.809233e+00,1.934727e+00,6,7,2.075294e-01,2.065277e-01
3.625132e+00,3.321193e+00,12,12,1.485143e-01,1.466697e-01
3.626637e+00,3.319623e+00,12,12,2.122676e-01,2.122069e-01
1.211374e+00,1.110090e+00,4,4,1.804279e-01,1.804248e-01
3.327397e+00,3.041866e+00,11,11,2.555617e-01,2.555072e-01
1.514287e+00,1.384468e+00,5,5,3.111245e-01,3.109448e-01
2.429643e+00,1.109682e+00,8,4,2.465446e-01,2.465697e-01
1.211016e+00,1.110935e+00,4,4,6.020146e-01,6.002221e-01
2.107284e+00,1.935942e+00,7,7,1.368803e+00,1.369169e+00
2.106590e+00,1.935708e+00,7,7,1.010496e+00,1.012182e+00
1.813139e+00,1.935688e+00,6,7,7.720393e-01,7.701876e-01
3.638336e+00,3.321665e+00,12,12,6.676057e-01,6.657421e-01
2.734621e+00,2.766651e+00,9,10,7.457334e-01,7.428825e-01
3.021193e+00,1.114768e+00,10,4,5.423373e-01,5.425930e-01
9.087710e-01,1.660825e+00,3,6,4.906296e-01,4.916466e-01
1.813276e+00,1.935853e+00,6,7,4.314879e-01,4.254964e-01
2.109838e+00,1.935083e+00,7,7,4.441756e-01,4.444022e-01
2.108427e+00,1.935454e+00,7,7,3.432238e-01,3.434444e-01
1.211350e+00,1.109156e+00,4,4,4.230762e-01,4.218738e-01
2.107935e+00,1.935228e+00,7,7,6.561364e-01,6.558708e-01
2.111512e+00,1.930292e+00,7,7,4.956606e-01,4.959355e-01
2.113332e+00,1.934502e+00,7,7,1.758138e-01,1.760150e-01
2.710172e+00,2.490307e+00,9,9,1.009024e-01,1.016434e-01
1.822084e+00,2.217255e+00,6,8,1.405497e-01,1.535942e-01
9.092490e-01,2.768566e+00,3,10,1.908812e-01,1.929092e-01
1.513644e+00,3.041123e+00,5,11,2.625768e-01,2.631898e-01
9.095140e-01,2.772228e+00,3,10,1.593658e-01,1.599328e-01
9.086580e-01,1.660916e+00,3,6,1.958565e-01,1.960524e-01
2.106626e+00,1.934118e+00,7,7,2.364784e-01,2.366196e-01
1.214199e+00,1.110406e+00,4,4,2.467914e-01,2.467956e-01
1.211965e+00,8.337610e-01,4,3,4.343576e-01,4.359103e-01
3.015550e+00,2.762706e+00,10,10,2.475965e-01,2.476077e-01
9.033710e-01,8.333820e-01,3,3,2.215945e-01,2.215416e-01
1.210386e+00,1.114654e+00,4,4,7.696302e-01,7.684223e-01
2.108434e+00,1.935332e+00,7,7,9.438158e-01,9.440445e-01
2.409390e+00,2.210726e+00,8,8,3.936541e-01,3.936955e-01
1.517339e+00,1.385048e+00,5,5,4.209243e-01,4.206405e-01
1.811861e+00,1.382221e+00,6,5,3.722851e-01,3.734495e-01
1.810867e+00,1.934483e+00,6,7,3.810562e-01,3.772166e-01
1.206443e+00,2.765745e+00,4,10,1.904571e-01,2.001868e-01
3.038472e+00,1.108550e+00,10,4,1.478074e-01,1.453664e-01
1.518620e+00,2.213469e+00,5,8,2.350314e-01,2.348613e-01
2.408713e+00,2.212626e+00,8,8,2.671711e-01,2.670161e-01
2.408629e+00,2.210089e+00,8,8,3.704775e-01,3.704585e-01
1.207830e+00,2.493260e+00,4,9,2.264965e-01,2.284849e-01
1.211730e+00,1.108136e+00,4,4,1.865893e-01,1.865926e-01
2.107973e+00,1.933498e+00,7,7,2.781508e-01,2.787175e-01
2.106918e+00,1.934406e+00,7,7,3.584726e-01,3.587049e-01
2.108818e+00,1.930392e+00,7,7,3.703863e-01,3.705425e-01
2.111263e+00,1.929053e+00,7,7,4.535993e-01,4.537879e-01
2.111659e+00,1.933248e+00,7,7,4.365859e-01,4.366109e-01
2.427630e+00,2.772420e+00,8,10,7.010635e-01,7.017457e-01
3.627007e+00,2.764068e+00,12,10,3.037553e-01,3.015519e-01
2.723993e+00,1.108371e+00,9,4,2.787358e-01,2.811642e-01
1.212080e+00,1.108009e+00,4,4,5.079854e-01,5.062984e-01
2.105047e+00,1.934353e+00,7,7,2.811186e-01,2.812246e-01
1.811052e+00,1.935391e+00,6,7,3.193456e-01,3.182377e-01
2.411880e+00,2.207705e+00,8,8,2.225478e-01,2.224442e-01
3.022939e+00,3.041295e+00,10,11,1.205011e-01,1.061817e-01
1.817248e+00,1.932853e+00,6,7,2.414564e-01,2.396978e-01
3.027550e+00,3.322650e+00,10,12,2.727863e-01,2.655423e-01
3.031905e+00,2.771217e+00,10,10,1.868600e-01,1.795014e-01
1.214644e+00,1.108472e+00,4,4,4.067022e-01,4.064384e-01
2.106136e+00,1.933850e+00,7,7,1.960835e-01,1.960925e-01
1.811087e+00,1.661035e+00,6,6,1.337309e-01,1.335853e-01
3.338952e+00,8.339960e-01,11,3,1.493565e-01,1.376920e-01
1.208024e+00,8.348110e-01,4,3,2.596182e-01,2.582041e-01
1.211224e+00,2.772309e+00,4,10,4.186466e-01,4.286973e-01
2.726736e+00,1.110800e+00,9,4,5.857600e-01,5.845117e-01
1.206324e+00,1.108905e+00,4,4,6.023597e-01,6.024125e-01
2.108025e+00,1.934688e+00,7,7,7.684350e-01,7.686113e-01
2.108649e+00,1.935347e+00,7,7,3.532473e-01,3.533156e-01
1.517954e+00,1.109328e+00,5,4,3.270770e-01,3.272044e-01
1.512398e+00,1.389729e+00,5,5,1.932263e-01,1.937733e-01
1.209989e+00,1.108324e+00,4,4,1.677124e-01,1.674047e-01
1.505240e+00,1.385814e+00,5,5,3.633140e-01,3.622688e-01
2.110683e+00,1.934615e+00,7,7,4.668022e-01,4.669964e-01
2.115774e+00,1.934062e+00,7,7,4.834158e-01,4.846859e-01
1.811663e+00,1.934088e+00,6,7,4.013540e-01,3.966290e-01
2.106985e+00,1.932716e+00,7,7,4.511741e-01,4.506536e-01
2.107190e+00,1.934074e+00,7,7,5.934322e-01,5.942320e-01
2.115649e+00,1.936867e+00,7,7,6.750669e-01,6.761278e-01
2.410804e+00,2.215499e+00,8,8,4.802937e-01,4.802783e-01
2.133942e+00,1.388125e+00,7,5,4.094307e-01,4.097690e-01
1.212047e+00,3.049874e+00,4,11,5.487926e-01,5.514486e-01
1.210967e+00,1.933851e+00,4,7,2.884492e-01,2.897206e-01
2.123471e+00,1.938584e+00,7,7,2.407369e-01,2.407683e-01
1.206876e+00,1.658424e+00,4,6,3.674093e-01,3.660819e-01
1.513851e+00,1.108301e+00,5,4,4.909233e-01,4.937339e-01
1.511850e+00,1.656865e+00,5,6,6.900389e-01,6.896515e-01
1.206766e+00,2.217234e+00,4,8,2.574341e-01,2.570400e-01
1.806556e+00,1.387407e+00,6,5,2.622139e-01,2.623422e-01
2.108275e+00,1.934787e+00,7,7,3.159821e-01,3.163782e-01
2.107972e+00,1.934845e+00,7,7,3.721337e-01,3.723932e-01
3.022530e+00,1.383145e+00,10,5,3.203282e-01,3.118332e-01
2.103738e+00,1.385526e+00,7,5,3.475523e-01,3.481268e-01
1.810545e+00,1.935252e+00,6,7,2.597466e-01,2.571182e-01
1.507549e+00,1.936876e+00,5,7,1.881988e-01,1.879144e-01

