6.325090e-01,5.642370e-01,2,2,0.000000e+00,0.000000e+00
9.086520e-01,8.394150e-01,3,3,5.784748e-02,5.784729e-02
9.196800e-01,8.391400e-01,3,3,9.449725e-02,9.449623e-02
1.216920e+00,8.373200e-01,4,3,2.010970e-01,2.028867e-01
3.040962e+00,1.671527e+00,10,6,1.906994e-01,1.845207e-01
1.213129e+00,1.113832e+00,4,4,4.860993e-01,4.860502e-01
2.108096e+00,1.942171e+00,7,7,6.515502e-01,6.521721e-01
2.109655e+00,1.941699e+00,7,7,8.091856e-01,8.096833e-01
3.335334e+00,3.062046e+00,11,11,4.264543e-01,4.239849e-01
3.019607e+00,2.770990e+00,10,10,4.103370e-01,4.116027e-01
3.029363e+00,2.777227e+00,10,10,3.193529e-01,3.185167e-01
2.731582e+00,2.779584e+00,9,10,3.200061e-01,3.181955e-01
1.510781e+00,1.941917e+00,5,7,4.671780e-01,4.678853e-01
1.811618e+00,1.941912e+00,6,7,7.324596e-01,7.282641e-01
3.017575e+00,2.775353e+00,10,10,5.635106e-01,5.635192e-01
9.100700e-01,8.374330e-01,3,3,8.715743e-01,8.714448e-01
3.631910e+00,3.054940e+00,12,11,7.392813e-01,7.397513e-01
3.036888e+00,3.332517e+00,10,12,6.337049e-01,6.357568e-01
1.505566e+00,1.941875e+00,5,7,6.536459e-01,6.524064e-01
1.207753e+00,1.668513e+00,4,6,8.156264e-01,8.144234e-01
2.107595e+00,1.939404e+00,7,7,8.574575e-01,8.579527e-01
1.206681e+00,1.393030e+00,4,5,7.521370e-01,7.491667e-01
1.512265e+00,1.114002e+00,5,4,5.999029e-01,6.004433e-01
3.020554e+00,2.774815e+00,10,10,6.637021e-01,6.635287e-01
2.107555e+00,1.942327e+00,7,7,6.457938e-01,6.455299e-01
1.812899e+00,1.940845e+00,6,7,5.896640e-01,5.871300e-01
1.510842e+00,2.227318e+00,5,8,4.817474e-01,4.824788e-01
2.105233e+00,1.941384e+00,7,7,3.457010e-01,3.457577e-01
2.418656e+00,1.383137e+00,8,5,2.341115e-01,2.184641e-01
3.031860e+00,3.046772e+00,10,11,1.621403e-01,1.535305e-01
9.091820e-01,1.112642e+00,3,4,2.495192e-01,2.489322e-01
3.322088e+00,1.668161e+00,11,6,3.665031e-01,3.465421e-01
3.011473e+00,1.662559e+00,10,6,2.878317e-01,2.784312e-01
1.208410e+00,1.116419e+00,4,4,3.438383e-01,3.430915e-01
2.118933e+00,1.942711e+00,7,7,2.071605e-01,2.069836e-01
1.805243e+00,1.942125e+00,6,7,1.472769e-01,1.466432e-01
2.713758e+00,2.776206e+00,9,10,2.595943e-01,2.593519e-01
1.212219e+00,8.374880e-01,4,3,2.978577e-01,2.969867e-01
2.107139e+00,1.943121e+00,7,7,5.641594e-01,5.633684e-01
2.108970e+00,1.941497e+00,7,7,4.880436e-01,4.885202e-01
2.105740e+00,1.941025e+00,7,7,7.919599e-01,7.927320e-01
2.105474e+00,1.911736e+00,7,7,1.174479e+00,1.176556e+00
1.810727e+00,1.935593e+00,6,7,7.881033e-01,7.830653e-01
2.104555e+00,1.935513e+00,7,7,1.047463e+00,1.048615e+00
1.809154e+00,1.935117e+00,6,7,9.058097e-01,9.023766e-01
1.198907e+00,1.106076e+00,4,4,7.249843e-01,7.264585e-01
2.097320e+00,1.961815e+00,7,7,6.212599e-01,6.209221e-01
2.407786e+00,2.242636e+00,8,8,5.021463e-01,5.023519e-01
2.376724e+00,2.209037e+00,8,8,3.556819e-01,3.556209e-01
2.435663e+00,2.186326e+00,8,8,1.149485e-01,1.149391e-01
1.201889e+00,8.393710e-01,4,3,1.863279e-01,1.865611e-01
9.078530e-01,1.107706e+00,3,4,3.345080e-01,3.337977e-01
2.104481e+00,1.392892e+00,7,5,2.902736e-01,2.898158e-01
2.115352e+00,1.664820e+00,7,6,2.352517e-01,2.352634e-01
2.724244e+00,2.499607e+00,9,9,2.497142e-01,2.512603e-01
2.105410e+00,1.942297e+00,7,7,3.569251e-01,3.565889e-01
2.408071e+00,2.218772e+00,8,8,1.836736e-01,1.834058e-01
1.508978e+00,1.388730e+00,5,5,2.259350e-01,2.258838e-01
2.111652e+00,1.941636e+00,7,7,3.092715e-01,3.098326e-01
2.116843e+00,1.943641e+00,7,7,4.986846e-01,4.996884e-01
1.211817e+00,1.113293e+00,4,4,2.155196e-01,2.164292e-01
2.108873e+00,1.942629e+00,7,7,6.884364e-01,6.874870e-01
2.108307e+00,1.943368e+00,7,7,1.479518e+00,1.476811e+00
2.112274e+00,1.942416e+00,7,7,6.808625e-01,6.811760e-01
2.109672e+00,1.941401e+00,7,7,8.717947e-01,8.726907e-01
3.325487e+00,2.778582e+00,11,10,3.829349e-01,3.740227e-01
1.818366e+00,1.941703e+00,6,7,4.284635e-01,4.237879e-01
3.328053e+00,2.778192e+00,11,10,3.010775e-01,3.058802e-01
1.212129e+00,1.390054e+00,4,5,2.573122e-01,2.580965e-01
1.211484e+00,1.387832e+00,4,5,1.860451e-01,1.857229e-01
1.211844e+00,1.112836e+00,4,4,3.532853e-01,3.531388e-01
1.516194e+00,1.113859e+00,5,4,4.067877e-01,4.073527e-01
1.209665e+00,2.777994e+00,4,10,4.535516e-01,4.732853e-01
1.212471e+00,1.112647e+00,4,4,4.987077e-01,4.987842e-01
2.110430e+00,1.936285e+00,7,7,6.373662e-01,6.377682e-01
2.110421e+00,1.940881e+00,7,7,7.781222e-01,7.788993e-01
3.014143e+00,2.769313e+00,10,10,5.556974e-01,5.556678e-01
1.214461e+00,8.318880e-01,4,3,4.846255e-01,4.853938e-01
3.639424e+00,2.784209e+00,12,10,4.484184e-01,4.465160e-01
1.809963e+00,1.940979e+00,6,7,2.001983e-01,1.990524e-01
2.108032e+00,1.943498e+00,7,7,7.827702e-01,7.833851e-01
1.808788e+00,1.943600e+00,6,7,5.909034e-01,5.861512e-01
1.811372e+00,1.941264e+00,6,7,3.756278e-01,3.704587e-01
1.509935e+00,1.386501e+00,5,5,4.345085e-01,4.338137e-01
1.210759e+00,1.113986e+00,4,4,6.964414e-01,6.950153e-01
2.106137e+00,1.941948e+00,7,7,1.254490e+00,1.254793e+00
2.109724e+00,1.937171e+00,7,7,1.962224e+00,1.962781e+00
2.110231e+00,1.942758e+00,7,7,2.827383e+00,2.826219e+00
2.113463e+00,1.941264e+00,7,7,2.184141e+00,2.188371e+00
1.808291e+00,1.943468e+00,6,7,1.424089e+00,1.420259e+00
1.212233e+00,1.112554e+00,4,4,9.168108e-01,9.206721e-01
2.107346e+00,1.942113e+00,7,7,5.719939e-01,5.710134e-01
2.107617e+00,1.942584e+00,7,7,9.486151e-01,9.440036e-01
2.107290e+00,1.944138e+00,7,7,6.460369e-01,6.457278e-01
2.106824e+00,1.941750e+00,7,7,8.511631e-01,8.518888e-01
2.107323e+00,1.942071e+00,7,7,1.028108e+00,1.030223e+00
3.016587e+00,2.773927e+00,10,10,4.344807e-01,4.340689e-01
1.811790e+00,1.942234e+00,6,7,3.027101e-01,3.023252e-01
1.804919e+00,1.941389e+00,6,7,4.550761e-01,4.489302e-01
3.014673e+00,1.394662e+00,10,5,4.006576e-01,4.007187e-01
1.510197e+00,2.782478e+00,5,10,2.828270e-01,2.900832e-01
1.813652e+00,1.942328e+00,6,7,3.258288e-01,3.246449e-01
3.328483e+00,2.776636e+00,11,10,1.479535e-01,1.504112e-01
1.212606e+00,1.390556e+00,4,5,1.193156e-01,1.193784e-01
2.418511e+00,2.777031e+00,8,10,1.043193e-01,1.055082e-01
3.015397e+00,2.216230e+00,10,8,2.804196e-01,2.863752e-01
9.097060e-01,2.218501e+00,3,8,3.538020e-01,3.510585e-01
1.811883e+00,1.942201e+00,6,7,3.076220e-01,3.060354e-01
3.325371e+00,2.775396e+00,11,10,2.130004e-01,2.172243e-01
3.035577e+00,2.775778e+00,10,10,2.038430e-01,2.033944e-01
3.024643e+00,1.111892e+00,10,4,2.279256e-01,2.125414e-01
1.512603e+00,1.391067e+00,5,5,2.549420e-01,2.548727e-01
3.316506e+00,2.774987e+00,11,10,1.941751e-01,1.958088e-01
1.507750e+00,1.393368e+00,5,5,2.920166e-01,2.919730e-01
3.626079e+00,3.054355e+00,12,11,1.359911e-01,1.356869e-01
1.211739e+00,1.942393e+00,4,7,1.165094e-01,1.164768e-01
2.107449e+00,1.942237e+00,7,7,2.732627e-01,2.737571e-01
1.807357e+00,1.937654e+00,6,7,1.604969e-01,1.593254e-01
2.111325e+00,1.115072e+00,7,4,5.575801e-01,5.538616e-01
1.206339e+00,1.940196e+00,4,7,5.127736e-01,5.114030e-01
1.209487e+00,2.225661e+00,4,8,6.585691e-01,6.555112e-01
2.116149e+00,1.943677e+00,7,7,9.605944e-01,9.613223e-01
1.812787e+00,1.943501e+00,6,7,8.401194e-01,8.348492e-01
2.412325e+00,2.220062e+00,8,8,7.658593e-01,7.659701e-01
2.114690e+00,1.942750e+00,7,7,1.130463e+00,1.131961e+00
2.108013e+00,1.942185e+00,7,7,8.479609e-01,8.481669e-01
2.105720e+00,1.942278e+00,7,7,5.359283e-01,5.359811e-01
1.511426e+00,2.779914e+00,5,10,3.486528e-01,3.605158e-01
1.207198e+00,1.118630e+00,4,4,2.511283e-01,2.512406e-01
3.622328e+00,3.052243e+00,12,11,2.486842e-01,2.479324e-01
1.211055e+00,1.391082e+00,4,5,2.448553e-01,2.441092e-01
1.506857e+00,8.370750e-01,5,3,3.350243e-01,3.355474e-01
2.724575e+00,3.332769e+00,9,12,2.090130e-01,2.143383e-01
3.325393e+00,2.769657e+00,11,10,1.803053e-01,1.802789e-01
1.518362e+00,8.374560e-01,5,3,1.480501e-01,1.475878e-01
3.639010e+00,8.368730e-01,12,3,3.876234e-01,3.878612e-01
1.205091e+00,1.116940e+00,4,4,4.405671e-01,4.411711e-01
1.807618e+00,1.668916e+00,6,6,3.550204e-01,3.549999e-01
9.079700e-01,8.367900e-01,3,3,3.976979e-01,3.967866e-01
2.405483e+00,2.216587e+00,8,8,3.036936e-01,3.036618e-01
1.811012e+00,1.391230e+00,6,5,4.016418e-01,4.039821e-01
2.112012e+00,1.942427e+00,7,7,5.475927e-01,5.484080e-01
2.106623e+00,1.940976e+00,7,7,7.804911e-01,7.810581e-01
1.205946e+00,1.113735e+00,4,4,8.113568e-01,8.118701e-01
2.106188e+00,1.943232e+00,7,7,6.845072e-01,6.846001e-01
2.106307e+00,1.941501e+00,7,7,5.967964e-01,5.967818e-01
1.809968e+00,1.943064e+00,6,7,4.822459e-01,4.781678e-01
1.207517e+00,1.668632e+00,4,6,5.589247e-01,5.580387e-01
1.205589e+00,1.112552e+00,4,4,6.292862e-01,6.254246e-01
2.104840e+00,1.941607e+00,7,7,6.668194e-01,6.652662e-01
2.109330e+00,1.941597e+00,7,7,3.576901e-01,3.598362e-01
1.810920e+00,2.773468e+00,6,10,3.755712e-01,3.753209e-01
1.507614e+00,1.393278e+00,5,5,2.780386e-01,2.782615e-01
1.212171e+00,1.114293e+00,4,4,2.369608e-01,2.384676e-01
1.207156e+00,2.776235e+00,4,10,1.875163e-01,1.873355e-01
1.211598e+00,8.397270e-01,4,3,3.099645e-01,3.099444e-01
1.213016e+00,8.370110e-01,4,3,6.376835e-01,6.377396e-01
2.104908e+00,1.943068e+00,7,7,5.120396e-01,5.120968e-01
1.211379e+00,3.333745e+00,4,12,5.704212e-01,5.701957e-01
1.209198e+00,1.115866e+00,4,4,6.069846e-01,6.034640e-01
2.104583e+00,1.942459e+00,7,7,2.822254e-01,2.828160e-01
3.645158e+00,1.113551e+00,12,4,2.309225e-01,2.303056e-01
1.518410e+00,1.113350e+00,5,4,1.859866e-01,1.857385e-01
1.207999e+00,1.389772e+00,4,5,9.329650e-02,9.291739e-02
3.642237e+00,1.113044e+00,12,4,1.163752e-01,1.131909e-01
1.517444e+00,8.316600e-01,5,3,1.909526e-01,1.909609e-01
9.072470e-01,8.364270e-01,3,3,1.379483e-01,1.382338e-01
1.210932e+00,1.113656e+00,4,4,5.382607e-01,5.379313e-01
1.211672e+00,2.496004e+00,4,9,5.404730e-01,5.550558e-01
1.210619e+00,1.112936e+00,4,4,3.429224e-01,3.431114e-01
2.104462e+00,1.663730e+00,7,6,3.084320e-01,3.084834e-01
1.813427e+00,1.668712e+00,6,6,2.699397e-01,2.707080e-01
1.505596e+00,1.390211e+00,5,5,2.218693e-01,2.220027e-01
1.209560e+00,2.781521e+00,4,10,2.012209e-01,2.061339e-01
1.805233e+00,1.117973e+00,6,4,2.700927e-01,2.715661e-01
1.802223e+00,1.940706e+00,6,7,2.128811e-01,2.116138e-01
2.413448e+00,2.217535e+00,8,8,1.967740e-01,1.973247e-01
1.506012e+00,1.387706e+00,5,5,3.462425e-01,3.465837e-01
1.206598e+00,1.386962e+00,4,5,4.277117e-01,4.270853e-01
2.731919e+00,8.383880e-01,9,3,6.040604e-01,5.868576e-01
1.813420e+00,1.942776e+00,6,7,7.454852e-01,7.457053e-01
1.207426e+00,1.387937e+00,4,5,7.216411e-01,7.167064e-01
2.109915e+00,1.937084e+00,7,7,7.739043e-01,7.741786e-01
2.111600e+00,1.942258e+00,7,7,5.475487e-01,5.479107e-01
1.208261e+00,1.114219e+00,4,4,4.084093e-01,4.072223e-01
2.106561e+00,1.942477e+00,7,7,4.545143e-01,4.547221e-01
2.105854e+00,1.940741e+00,7,7,6.104474e-01,6.117716e-01
2.116038e+00,1.941929e+00,7,7,7.627322e-01,7.642991e-01
1.812624e+00,1.943307e+00,6,7,5.660714e-01,5.598028e-01
3.016076e+00,2.776031e+00,10,10,4.789163e-01,4.786983e-01
2.108932e+00,1.944041e+00,7,7,4.904541e-01,4.900329e-01
2.109930e+00,1.943373e+00,7,7,2.619187e-01,2.616687e-01
3.016171e+00,2.217455e+00,10,8,4.123022e-01,4.222512e-01
1.211093e+00,1.391358e+00,4,5,3.997043e-01,4.010085e-01
1.803261e+00,1.940189e+00,6,7,2.858953e-01,2.839193e-01
2.725940e+00,1.114450e+00,9,4,2.732348e-01,2.583730e-01
3.020835e+00,2.775294e+00,10,10,5.443301e-01,5.486674e-01
2.106246e+00,1.941750e+00,7,7,1.100186e+00,1.101920e+00
2.107376e+00,1.941569e+00,7,7,9.675324e-01,9.694212e-01
2.107348e+00,1.942598e+00,7,7,9.619233e-01,9.638974e-01
2.116654e+00,1.943058e+00,7,7,1.248212e+00,1.250186e+00
2.114013e+00,1.943317e+00,7,7,1.994230e+00,1.997379e+00
1.810490e+00,1.942476e+00,6,7,1.097065e+00,1.091273e+00
2.108626e+00,1.113389e+00,7,4,1.235647e+00,1.236085e+00
1.514399e+00,1.662907e+00,5,6,1.008615e+00,1.008943e+00
2.112150e+00,1.942155e+00,7,7,9.836194e-01,9.832871e-01
1.807263e+00,1.944476e+00,6,7,4.473871e-01,4.429579e-01
2.109039e+00,1.943523e+00,7,7,8.416075e-01,8.423262e-01
1.813274e+00,1.948831e+00,6,7,5.321807e-01,5.294476e-01
2.107325e+00,1.943703e+00,7,7,5.647716e-01,5.667286e-01
2.723340e+00,2.778641e+00,9,10,3.129614e-01,3.125294e-01
1.213529e+00,1.387286e+00,4,5,7.188785e-01,7.183813e-01
2.108828e+00,1.943048e+00,7,7,1.443450e+00,1.442903e+00
2.106891e+00,1.943662e+00,7,7,8.200727e-01,8.205087e-01
2.111352e+00,1.938611e+00,7,7,1.228502e+00,1.230632e+00
2.119333e+00,1.941747e+00,7,7,1.118856e+00,1.120169e+00
2.105661e+00,1.941671e+00,7,7,1.363344e+00,1.365532e+00
2.409888e+00,2.217479e+00,8,8,7.462600e-01,7.460311e-01
1.810971e+00,1.684584e+00,6,6,6.101833e-01,6.114607e-01
2.410216e+00,1.943404e+00,8,7,3.652166e-01,3.656392e-01
2.425522e+00,1.113751e+00,8,4,3.244554e-01,3.251412e-01
2.108168e+00,1.942996e+00,7,7,2.848919e-01,2.852512e-01
2.107988e+00,1.943731e+00,7,7,4.827249e-01,4.840665e-01
1.811584e+00,1.944012e+00,6,7,2.055458e-01,2.046263e-01
3.624492e+00,3.328613e+00,12,12,2.507974e-01,2.476171e-01
2.120748e+00,1.115118e+00,7,4,3.280195e-01,3.295344e-01
9.103270e-01,3.058774e+00,3,11,3.979821e-01,4.016346e-01
9.106310e-01,3.044537e+00,3,11,2.650588e-01,2.680927e-01
1.211766e+00,1.936985e+00,4,7,3.084183e-01,3.095683e-01
2.105520e+00,1.937111e+00,7,7,3.699045e-01,3.703274e-01
2.111089e+00,1.936878e+00,7,7,5.058977e-01,5.065993e-01
2.104459e+00,1.943136e+00,7,7,1.007247e+00,1.008650e+00
2.106648e+00,1.942789e+00,7,7,1.440521e+00,1.442921e+00
1.813104e+00,1.943626e+00,6,7,9.444147e-01,9.378171e-01
2.114379e+00,1.942338e+00,7,7,1.196756e+00,1.197436e+00
3.638048e+00,3.332985e+00,12,12,8.265343e-01,8.255877e-01
1.513471e+00,1.391858e+00,5,5,5.166333e-01,5.167369e-01
2.109770e+00,1.943272e+00,7,7,6.765373e-01,6.754783e-01
1.811823e+00,1.944129e+00,6,7,3.105253e-01,3.058246e-01
3.022439e+00,1.112444e+00,10,4,3.929379e-01,3.829074e-01
3.624617e+00,3.333763e+00,12,12,2.480379e-01,2.445882e-01
1.211746e+00,1.390416e+00,4,5,2.418694e-01,2.398938e-01
2.113605e+00,1.117231e+00,7,4,2.421835e-01,2.422259e-01
2.114673e+00,1.941843e+00,7,7,3.236554e-01,3.249436e-01
3.323756e+00,2.776988e+00,11,10,1.750674e-01,1.788053e-01
1.211536e+00,1.113375e+00,4,4,4.131074e-01,4.149809e-01
2.105926e+00,1.942670e+00,7,7,1.070119e+00,1.072095e+00
1.811516e+00,1.942963e+00,6,7,6.030007e-01,5.988998e-01
1.811512e+00,1.664199e+00,6,6,4.623595e-01,4.622194e-01
3.030164e+00,2.778300e+00,10,10,3.461620e-01,3.461109e-01
1.212088e+00,8.381910e-01,4,3,3.090921e-01,3.093715e-01
9.106080e-01,1.114339e+00,3,4,3.379981e-01,3.380141e-01
9.095260e-01,8.383350e-01,3,3,6.627107e-01,6.623978e-01
3.017385e+00,2.776082e+00,10,10,5.748434e-01,5.748444e-01
9.093040e-01,8.389000e-01,3,3,5.192981e-01,5.191759e-01
2.419952e+00,2.223754e+00,8,8,5.417037e-01,5.417588e-01
2.108032e+00,1.942206e+00,7,7,6.525869e-01,6.518566e-01
2.107466e+00,1.941854e+00,7,7,9.665129e-01,9.663885e-01
1.808862e+00,1.942790e+00,6,7,1.819660e+00,1.808656e+00
2.109200e+00,1.943444e+00,7,7,2.306430e+00,2.308069e+00
2.106707e+00,1.935899e+00,7,7,1.922491e+00,1.923412e+00
2.114478e+00,1.937157e+00,7,7,2.024226e+00,2.026900e+00
1.513049e+00,1.943565e+00,5,7,1.577605e+00,1.583655e+00
2.110079e+00,1.946209e+00,7,7,1.450748e+00,1.450719e+00
2.116020e+00,1.944688e+00,7,7,1.418016e+00,1.418605e+00
2.113236e+00,1.945641e+00,7,7,1.081554e+00,1.081811e+00
2.107555e+00,1.943930e+00,7,7,9.213009e-01,9.213706e-01
2.409171e+00,2.224625e+00,8,8,7.177460e-01,7.177843e-01
1.808194e+00,1.668167e+00,6,6,6.821686e-01,6.818581e-01
2.109449e+00,1.943114e+00,7,7,8.146333e-01,8.146091e-01
2.107339e+00,1.941539e+00,7,7,1.082577e+00,1.082915e+00
2.108331e+00,1.941842e+00,7,7,2.108007e+00,2.107085e+00
2.106535e+00,1.942892e+00,7,7,2.390547e+00,2.390016e+00
2.105876e+00,1.941528e+00,7,7,2.583848e+00,2.586429e+00
2.113875e+00,1.937433e+00,7,7,2.315169e+00,2.317900e+00
2.114019e+00,1.942024e+00,7,7,2.102323e+00,2.104489e+00
2.105492e+00,1.943343e+00,7,7,2.246574e+00,2.249546e+00
2.112708e+00,1.942712e+00,7,7,1.968688e+00,1.971894e+00
2.108798e+00,1.943161e+00,7,7,1.626100e+00,1.625434e+00
2.107755e+00,1.943310e+00,7,7,1.120853e+00,1.120581e+00
2.117031e+00,1.944822e+00,7,7,7.730498e-01,7.733001e-01
2.109177e+00,1.942541e+00,7,7,5.908899e-01,5.903772e-01
2.109439e+00,1.944093e+00,7,7,6.239295e-01,6.239468e-01
2.105686e+00,1.944005e+00,7,7,7.324628e-01,7.317789e-01
1.811276e+00,1.668401e+00,6,6,4.221365e-01,4.225691e-01
3.017115e+00,2.493468e+00,10,9,3.814196e-01,3.822063e-01
9.100500e-01,1.112578e+00,3,4,4.388193e-01,4.381496e-01
2.407417e+00,2.223420e+00,8,8,2.293568e-01,2.291405e-01
1.506035e+00,1.392514e+00,5,5,2.365601e-01,2.358431e-01
1.806250e+00,1.392553e+00,6,5,1.987281e-01,1.989143e-01
1.209773e+00,2.225685e+00,4,8,2.191541e-01,2.190253e-01
1.210304e+00,1.119156e+00,4,4,3.013272e-01,3.003629e-01
2.408836e+00,2.213555e+00,8,8,3.464805e-01,3.424388e-01
1.515293e+00,1.113943e+00,5,4,3.688255e-01,3.677464e-01
1.209063e+00,1.114650e+00,4,4,3.363395e-01,3.363121e-01
1.517282e+00,1.390392e+00,5,5,2.701644e-01,2.692317e-01
1.812771e+00,1.945188e+00,6,7,2.894419e-01,2.925933e-01
2.107580e+00,1.942909e+00,7,7,8.680448e-01,8.681339e-01
2.107125e+00,1.941879e+00,7,7,1.811171e+00,1.813242e+00
2.108200e+00,1.943344e+00,7,7,2.127180e+00,2.128152e+00
2.108352e+00,1.954631e+00,7,7,1.626048e+00,1.626562e+00
2.107971e+00,1.942293e+00,7,7,1.591878e+00,1.593446e+00
2.113409e+00,1.943667e+00,7,7,1.394320e+00,1.395835e+00
2.111568e+00,1.942701e+00,7,7,1.172069e+00,1.171716e+00
1.210666e+00,1.112080e+00,4,4,7.759889e-01,7.759757e-01
2.107373e+00,1.941853e+00,7,7,6.994036e-01,7.000381e-01
2.108112e+00,1.943606e+00,7,7,1.512033e+00,1.509585e+00
2.109238e+00,1.944409e+00,7,7,2.129064e+00,2.127607e+00
2.108637e+00,1.943271e+00,7,7,2.376009e+00,2.374919e+00
2.105887e+00,1.942646e+00,7,7,1.790818e+00,1.792079e+00
2.116525e+00,1.942772e+00,7,7,1.295816e+00,1.298231e+00
1.812109e+00,1.944212e+00,6,7,9.003940e-01,8.921707e-01
1.208276e+00,1.112211e+00,4,4,6.834930e-01,6.924529e-01
2.105998e+00,1.941835e+00,7,7,1.104273e+00,1.104980e+00
2.106366e+00,1.941882e+00,7,7,1.095804e+00,1.097131e+00
2.106228e+00,1.940976e+00,7,7,7.675249e-01,7.683959e-01
2.106944e+00,1.941178e+00,7,7,7.982501e-01,7.989877e-01
2.114267e+00,1.941621e+00,7,7,9.028220e-01,9.040647e-01
1.812161e+00,1.944213e+00,6,7,9.350392e-01,9.309631e-01
2.111755e+00,1.942298e+00,7,7,1.198956e+00,1.199317e+00
1.206983e+00,1.117855e+00,4,4,1.040425e+00,1.040948e+00
1.212762e+00,1.113980e+00,4,4,1.173478e+00,1.173755e+00
2.110213e+00,1.941038e+00,7,7,1.131551e+00,1.132459e+00
1.811358e+00,1.946554e+00,6,7,9.331237e-01,9.321585e-01
2.416813e+00,1.943202e+00,8,7,7.704565e-01,7.712929e-01
1.213684e+00,1.945724e+00,4,7,8.031622e-01,8.037991e-01
2.106146e+00,1.940859e+00,7,7,6.889534e-01,6.895829e-01
2.110710e+00,1.942739e+00,7,7,3.511812e-01,3.514095e-01
2.107202e+00,1.943051e+00,7,7,3.090041e-01,3.068830e-01
1.212201e+00,1.388501e+00,4,5,2.406276e-01,2.394499e-01
3.330257e+00,1.114685e+00,11,4,3.022315e-01,3.012947e-01
2.110694e+00,1.940562e+00,7,7,3.039421e-01,3.039645e-01
3.012191e+00,2.769010e+00,10,10,2.734389e-01,2.729566e-01
1.211507e+00,1.112392e+00,4,4,2.260122e-01,2.260055e-01
9.080310e-01,8.327020e-01,3,3,2.460036e-01,2.459754e-01
1.215175e+00,8.317180e-01,4,3,7.984548e-02,7.988942e-02
9.077680e-01,1.113550e+00,3,4,9.137571e-02,9.296176e-02
9.080690e-01,1.394756e+00,3,5,9.490307e-02,9.509870e-02
9.093960e-01,2.772156e+00,3,10,8.731627e-02,9.898623e-02
9.086800e-01,1.670194e+00,3,6,1.148318e-01,1.151087e-01
9.096430e-01,8.382050e-01,3,3,1.922585e-01,1.924453e-01
1.210182e+00,1.113351e+00,4,4,1.128408e-01,1.130441e-01
1.210016e+00,1.113397e+00,4,4,2.022658e-01,2.030685e-01
2.111407e+00,1.941179e+00,7,7,3.285700e-01,3.289753e-01
3.016619e+00,2.495791e+00,10,9,2.173947e-01,2.185361e-01
1.212947e+00,1.392653e+00,4,5,2.411967e-01,2.408338e-01
3.325631e+00,1.669324e+00,11,6,2.874899e-01,2.692493e-01
1.207848e+00,8.378130e-01,4,3,3.589129e-01,3.575133e-01
1.811818e+00,3.329584e+00,6,12,2.984602e-01,3.092858e-01
1.513454e+00,1.396841e+00,5,5,1.769245e-01,1.769240e-01
2.733211e+00,8.323310e-01,9,3,1.138241e-01,1.056805e-01
3.013536e+00,1.113189e+00,10,4,1.592480e-01,1.592573e-01
9.078750e-01,1.117791e+00,3,4,1.220618e-01,1.220557e-01
9.031390e-01,8.365820e-01,3,3,1.107887e-01,1.107783e-01
9.090550e-01,8.376300e-01,3,3,3.111171e-01,3.111121e-01
9.093790e-01,8.374080e-01,3,3,1.888098e-01,1.888042e-01
9.098620e-01,8.374200e-01,3,3,3.328254e-01,3.328112e-01
9.030460e-01,8.375740e-01,3,3,6.916068e-01,6.914996e-01
1.210094e+00,1.116904e+00,4,4,4.974041e-01,4.956708e-01
3.014604e+00,2.768664e+00,10,10,3.791675e-01,3.785198e-01
2.118913e+00,1.937026e+00,7,7,6.953374e-01,6.960786e-01
1.811873e+00,1.941494e+00,6,7,9.102265e-01,9.075027e-01
1.513538e+00,1.389306e+00,5,5,3.651474e-01,3.651486e-01
3.641931e+00,3.056169e+00,12,11,2.343199e-01,2.341936e-01
1.212737e+00,1.113109e+00,4,4,2.893858e-01,2.895598e-01
2.105110e+00,1.939436e+00,7,7,1.073287e-01,1.073533e-01
2.425979e+00,2.218154e+00,8,8,8.980329e-02,8.980880e-02
9.098170e-01,8.346940e-01,3,3,1.841361e-01,1.840305e-01
1.807312e+00,1.114181e+00,6,4,1.737152e-01,1.730669e-01
1.208883e+00,1.111605e+00,4,4,2.240911e-01,2.239074e-01
2.106435e+00,1.940963e+00,7,7,4.505359e-01,4.517260e-01
1.811758e+00,1.942466e+00,6,7,3.064995e-01,3.040409e-01
3.328878e+00,2.778119e+00,11,10,2.878750e-01,2.915964e-01
1.211946e+00,1.675195e+00,4,6,2.825874e-01,2.837827e-01
9.111880e-01,1.113721e+00,3,4,2.252431e-01,2.252879e-01
1.209821e+00,1.114058e+00,4,4,2.630097e-01,2.632329e-01
2.421462e+00,1.663754e+00,8,6,3.696175e-01,3.706977e-01
2.122019e+00,1.669158e+00,7,6,2.595754e-01,2.581742e-01
2.725524e+00,2.774211e+00,9,10,3.128932e-01,3.100092e-01
1.512823e+00,1.943341e+00,5,7,3.427109e-01,3.429701e-01
1.812556e+00,1.945326e+00,6,7,3.967165e-01,3.953800e-01
1.812553e+00,1.937864e+00,6,7,5.221283e-01,5.179498e-01
2.722302e+00,2.778126e+00,9,10,2.664524e-01,2.651110e-01
1.207703e+00,1.112585e+00,4,4,2.615237e-01,2.639615e-01
2.108912e+00,1.941113e+00,7,7,2.766783e-01,2.769571e-01
1.810534e+00,1.942064e+00,6,7,2.809385e-01,2.779402e-01
1.511540e+00,2.769215e+00,5,10,1.888214e-01,1.977676e-01
2.110540e+00,1.388397e+00,7,5,6.560823e-01,6.528497e-01
2.107213e+00,1.942587e+00,7,7,4.343622e-01,4.344679e-01
2.107023e+00,1.943037e+00,7,7,4.078052e-01,4.078489e-01
1.813032e+00,1.947290e+00,6,7,3.676147e-01,3.647943e-01
1.810840e+00,1.945412e+00,6,7,3.504425e-01,3.510520e-01
1.809581e+00,1.942588e+00,6,7,2.501848e-01,2.464758e-01
2.715068e+00,2.217545e+00,9,8,3.745256e-01,3.849983e-01
1.811449e+00,1.941838e+00,6,7,4.166967e-01,4.145902e-01
3.318711e+00,3.050311e+00,11,11,3.775136e-01,3.751480e-01
1.212126e+00,1.664372e+00,4,6,3.811210e-01,3.837475e-01
1.811763e+00,1.666818e+00,6,6,2.922384e-01,2.942898e-01
1.208173e+00,1.946407e+00,4,7,2.660543e-01,2.643314e-01
2.408098e+00,2.223204e+00,8,8,2.183016e-01,2.180619e-01
1.807216e+00,1.108543e+00,6,4,1.854715e-01,1.870290e-01
1.803547e+00,1.661336e+00,6,6,1.424471e-01,1.424868e-01
1.808820e+00,1.936112e+00,6,7,2.075294e-01,2.065277e-01
3.621405e+00,3.322585e+00,12,12,1.485143e-01,1.466697e-01
3.622958e+00,3.322356e+00,12,12,2.122676e-01,2.122069e-01
1.211792e+00,1.112153e+00,4,4,1.804279e-01,1.804248e-01
3.327238e+00,3.052638e+00,11,11,2.555617e-01,2.555072e-01
1.513636e+00,1.390968e+00,5,5,3.111245e-01,3.109448e-01
2.429552e+00,1.113389e+00,8,4,2.465446e-01,2.465697e-01
1.211899e+00,1.113537e+00,4,4,6.020146e-01,6.002221e-01
2.105534e+00,1.942235e+00,7,7,1.368803e+00,1.369169e+00
2.105858e+00,1.943117e+00,7,7,1.010496e+00,1.012182e+00
1.812997e+00,1.941395e+00,6,7,7.720393e-01,7.701876e-01
3.637472e+00,3.332229e+00,12,12,6.676057e-01,6.657421e-01
2.733108e+00,2.781497e+00,9,10,7.457334e-01,7.428825e-01
3.017382e+00,1.115054e+00,10,4,5.423373e-01,5.425930e-01
9.110370e-01,1.667433e+00,3,6,4.906296e-01,4.916466e-01
1.811291e+00,1.941251e+00,6,7,4.314879e-01,4.254964e-01
2.108131e+00,1.941241e+00,7,7,4.441756e-01,4.444022e-01
2.107353e+00,1.941332e+00,7,7,3.432238e-01,3.434444e-01
1.210360e+00,1.113366e+00,4,4,4.230762e-01,4.218738e-01
2.111679e+00,1.941417e+00,7,7,6.561364e-01,6.558708e-01
2.106998e+00,1.941969e+00,7,7,4.956606e-01,4.959355e-01
2.105976e+00,1.941765e+00,7,7,1.758138e-01,1.760150e-01
2.708678e+00,2.498203e+00,9,9,1.009024e-01,1.016434e-01
1.816007e+00,2.224381e+00,6,8,1.405497e-01,1.535942e-01
9.089670e-01,2.782047e+00,3,10,1.908812e-01,1.929092e-01
1.509595e+00,3.052412e+00,5,11,2.625768e-01,2.631898e-01
9.104320e-01,2.782641e+00,3,10,1.593658e-01,1.599328e-01
9.096040e-01,1.665459e+00,3,6,1.958565e-01,1.960524e-01
2.111751e+00,1.936716e+00,7,7,2.364784e-01,2.366196e-01
1.215051e+00,1.116135e+00,4,4,2.467914e-01,2.467956e-01
1.212338e+00,8.371390e-01,4,3,4.343576e-01,4.359103e-01
3.015802e+00,2.773000e+00,10,10,2.475965e-01,2.476077e-01
9.085150e-01,8.312900e-01,3,3,2.215945e-01,2.215416e-01
1.215657e+00,1.114612e+00,4,4,7.696302e-01,7.684223e-01
2.108085e+00,1.941997e+00,7,7,9.438158e-01,9.440445e-01
2.408908e+00,2.216857e+00,8,8,3.936541e-01,3.936955e-01
1.517131e+00,1.390404e+00,5,5,4.209243e-01,4.206405e-01
1.811981e+00,1.391454e+00,6,5,3.722851e-01,3.734495e-01
1.805733e+00,1.941203e+00,6,7,3.810562e-01,3.772166e-01
1.209713e+00,2.770939e+00,4,10,1.904571e-01,2.001868e-01
3.037518e+00,1.112153e+00,10,4,1.478074e-01,1.453664e-01
1.519189e+00,2.222020e+00,5,8,2.350314e-01,2.348613e-01
2.410562e+00,2.218234e+00,8,8,2.671711e-01,2.670161e-01
2.408929e+00,2.220664e+00,8,8,3.704775e-01,3.704585e-01
1.206447e+00,2.498215e+00,4,9,2.264965e-01,2.284849e-01
1.211934e+00,1.116053e+00,4,4,1.865893e-01,1.865926e-01
2.107949e+00,1.941430e+00,7,7,2.781508e-01,2.787175e-01
2.108117e+00,1.943780e+00,7,7,3.584726e-01,3.587049e-01
2.107411e+00,1.942892e+00,7,7,3.703863e-01,3.705425e-01
2.105514e+00,1.941334e+00,7,7,4.535993e-01,4.537879e-01
2.109105e+00,1.942820e+00,7,7,4.365859e-01,4.366109e-01
2.428326e+00,2.782989e+00,8,10,7.010635e-01,7.017457e-01
3.633223e+00,2.771241e+00,12,10,3.037553e-01,3.015519e-01
2.726056e+00,1.112663e+00,9,4,2.787358e-01,2.811642e-01
1.217247e+00,1.111924e+00,4,4,5.079854e-01,5.062984e-01
2.107348e+00,1.941364e+00,7,7,2.811186e-01,2.812246e-01
1.811762e+00,1.937344e+00,6,7,3.193456e-01,3.182377e-01
2.411712e+00,2.217013e+00,8,8,2.225478e-01,2.224442e-01
3.024679e+00,3.052895e+00,10,11,1.205011e-01,1.061817e-01
1.818570e+00,1.940696e+00,6,7,2.414564e-01,2.396978e-01
3.026542e+00,3.334737e+00,10,12,2.727863e-01,2.655423e-01
3.033745e+00,2.784681e+00,10,10,1.868600e-01,1.795014e-01
1.211465e+00,1.112056e+00,4,4,4.067022e-01,4.064384e-01
2.109688e+00,1.942686e+00,7,7,1.960835e-01,1.960925e-01
1.806052e+00,1.666431e+00,6,6,1.337309e-01,1.335853e-01
3.337719e+00,8.357860e-01,11,3,1.493565e-01,1.376920e-01
1.207122e+00,8.372700e-01,4,3,2.596182e-01,2.582041e-01
1.210257e+00,2.780716e+00,4,10,4.186466e-01,4.286973e-01
2.727660e+00,1.115032e+00,9,4,5.857600e-01,5.845117e-01
1.206914e+00,1.112118e+00,4,4,6.023597e-01,6.024125e-01
2.111607e+00,1.937594e+00,7,7,7.684350e-01,7.686113e-01
2.107859e+00,1.940763e+00,7,7,3.532473e-01,3.533156e-01
1.513955e+00,1.113655e+00,5,4,3.270770e-01,3.272044e-01
1.516748e+00,1.389688e+00,5,5,1.932263e-01,1.937733e-01
1.210314e+00,1.113345e+00,4,4,1.677124e-01,1.674047e-01
1.510880e+00,1.386098e+00,5,5,3.633140e-01,3.622688e-01
2.109352e+00,1.941820e+00,7,7,4.668022e-01,4.669964e-01
2.116663e+00,1.937207e+00,7,7,4.834158e-01,4.846859e-01
1.809951e+00,1.940190e+00,6,7,4.013540e-01,3.966290e-01
2.105804e+00,1.940822e+00,7,7,4.511741e-01,4.506536e-01
2.105971e+00,1.941844e+00,7,7,5.934322e-01,5.942320e-01
2.115584e+00,1.942670e+00,7,7,6.750669e-01,6.761278e-01
2.413961e+00,2.218258e+00,8,8,4.802937e-01,4.802783e-01
2.122724e+00,1.394436e+00,7,5,4.094307e-01,4.097690e-01
1.212658e+00,3.059033e+00,4,11,5.487926e-01,5.514486e-01
1.208938e+00,1.945253e+00,4,7,2.884492e-01,2.897206e-01
2.120235e+00,1.947356e+00,7,7,2.407369e-01,2.407683e-01
1.208094e+00,1.668503e+00,4,6,3.674093e-01,3.660819e-01
1.509081e+00,1.117429e+00,5,4,4.909233e-01,4.937339e-01
1.507127e+00,1.667976e+00,5,6,6.900389e-01,6.896515e-01
1.207846e+00,2.221156e+00,4,8,2.574341e-01,2.570400e-01
1.811808e+00,1.387637e+00,6,5,2.622139e-01,2.623422e-01
2.111321e+00,1.938356e+00,7,7,3.159821e-01,3.163782e-01
2.111695e+00,1.941448e+00,7,7,3.721337e-01,3.723932e-01
3.022212e+00,1.389274e+00,10,5,3.203282e-01,3.118332e-01
2.104841e+00,1.387090e+00,7,5,3.475523e-01,3.481268e-01
1.809775e+00,1.940796e+00,6,7,2.597466e-01,2.571182e-01
1.515248e+00,1.941290e+00,5,7,1.881988e-01,1.879144e-01

