5.639530e-01,3.839520e-01,2.391338e-01,2,0,0.000000e+00,0.000000e+00
8.170440e-01,6.135000e-02,5.292892e-02,3,0,9.908744e-02,9.908764e-02
8.178040e-01,5.959600e-02,5.292892e-02,3,0,1.830848e-01,1.830852e-01
8.185520e-01,5.919700e-02,5.316734e-02,3,0,3.864811e-01,3.864817e-01
8.122600e-01,5.887100e-02,5.197525e-02,3,0,4.004133e-01,4.004136e-01
8.128990e-01,7.161600e-02,6.508827e-02,3,0,1.918494e+00,1.918496e+00
8.186650e-01,5.947000e-02,5.292892e-02,3,0,2.527490e+00,2.527492e+00
8.173520e-01,5.906900e-02,5.316734e-02,3,0,3.552445e+00,3.552447e+00
8.189170e-01,5.869500e-02,5.197525e-02,3,0,2.030777e+00,2.030776e+00
8.181600e-01,5.910700e-02,5.292892e-02,3,0,2.053681e+00,2.053681e+00
8.189620e-01,5.871500e-02,5.197525e-02,3,0,2.090158e+00,2.090159e+00
8.414740e-01,5.892900e-02,5.197525e-02,3,0,2.228142e+00,2.228143e+00
8.192170e-01,5.944500e-02,5.316734e-02,3,0,2.966620e+00,2.966622e+00
8.177720e-01,5.872900e-02,5.197525e-02,3,0,3.719657e+00,3.719659e+00
8.125380e-01,5.862400e-02,5.197525e-02,3,0,3.608146e+00,3.608146e+00
8.185740e-01,5.899900e-02,5.197525e-02,3,0,4.378298e+00,4.378301e+00
8.175810e-01,5.855800e-02,5.197525e-02,3,0,3.707490e+00,3.707490e+00
8.184170e-01,5.879700e-02,5.197525e-02,3,0,3.390156e+00,3.390157e+00
8.270860e-01,5.900100e-02,5.292892e-02,3,0,3.082943e+00,3.082943e+00
8.184410e-01,5.939800e-02,5.292892e-02,3,0,2.781092e+00,2.781093e+00
8.190750e-01,5.950700e-02,5.412102e-02,3,0,3.038366e+00,3.038367e+00
8.186900e-01,5.885100e-02,5.197525e-02,3,0,2.594647e+00,2.594647e+00
8.136020e-01,5.853200e-02,5.221367e-02,3,0,2.608640e+00,2.608641e+00
8.123910e-01,6.404500e-02,5.698204e-02,3,0,2.541393e+00,2.541394e+00
8.178590e-01,5.891200e-02,5.292892e-02,3,0,2.792866e+00,2.792867e+00
8.179450e-01,5.886600e-02,5.292892e-02,3,0,3.060493e+00,3.060494e+00
8.185590e-01,5.878200e-02,5.197525e-02,3,0,2.897606e+00,2.897607e+00
8.185140e-01,5.922000e-02,5.197525e-02,3,0,3.112618e+00,3.112620e+00
8.200100e-01,5.878300e-02,5.197525e-02,3,0,2.546094e+00,2.546095e+00
8.187880e-01,5.880600e-02,5.292892e-02,3,0,2.203587e+00,2.203587e+00
8.188060e-01,5.937100e-02,5.197525e-02,3,0,2.028661e+00,2.028662e+00
8.125950e-01,5.884200e-02,5.316734e-02,3,0,1.528637e+00,1.528637e+00
8.127740e-01,6.356000e-02,5.698204e-02,3,0,1.391296e+00,1.391296e+00
8.181390e-01,5.859600e-02,5.197525e-02,3,0,1.867830e+00,1.867831e+00
8.177420e-01,5.892900e-02,5.197525e-02,3,0,1.291775e+00,1.291775e+00
8.189580e-01,5.941300e-02,5.316734e-02,3,0,1.416054e+00,1.416054e+00
8.181700e-01,5.934600e-02,5.197525e-02,3,0,1.081417e+00,1.081417e+00
8.193900e-01,5.858100e-02,5.197525e-02,3,0,1.069540e+00,1.069540e+00
8.187140e-01,5.867300e-02,5.197525e-02,3,0,1.420408e+00,1.420409e+00
8.179890e-01,5.893600e-02,5.197525e-02,3,0,1.504707e+00,1.504707e+00
8.127960e-01,5.820300e-02,5.197525e-02,3,0,3.236998e+00,3.237001e+00
8.127470e-01,5.849900e-02,5.197525e-02,3,0,4.485951e+00,4.485954e+00
8.177980e-01,5.883800e-02,5.197525e-02,3,0,3.104511e+00,3.104510e+00
8.195060e-01,5.844100e-02,5.197525e-02,3,0,4.548691e+00,4.548694e+00
8.188860e-01,5.882900e-02,5.197525e-02,3,0,3.578503e+00,3.578503e+00
8.194690e-01,5.843500e-02,5.197525e-02,3,0,3.266055e+00,3.266056e+00
8.183070e-01,5.873600e-02,5.197525e-02,3,0,3.272182e+00,3.272183e+00
8.183100e-01,5.811800e-02,5.197525e-02,3,0,3.130258e+00,3.130258e+00
8.188680e-01,5.866100e-02,5.197525e-02,3,0,2.667689e+00,2.667689e+00
8.121910e-01,5.899600e-02,5.316734e-02,3,0,1.781321e+00,1.781320e+00
8.175490e-01,5.859100e-02,5.197525e-02,3,0,1.745463e+00,1.745463e+00
8.181670e-01,5.884200e-02,5.292892e-02,3,0,2.233033e+00,2.233035e+00
8.187790e-01,5.864300e-02,5.197525e-02,3,0,1.661500e+00,1.661500e+00
8.176170e-01,5.890500e-02,5.221367e-02,3,0,1.421423e+00,1.421423e+00
8.181090e-01,5.889300e-02,5.197525e-02,3,0,1.689385e+00,1.689386e+00
8.184880e-01,1.353350e-01,1.289845e-01,3,1,2.190710e+00,2.190595e+00
1.067230e+00,1.240080e-01,1.170635e-01,4,1,1.530992e+00,1.530992e+00
7.946560e-01,5.762000e-02,5.102158e-02,3,0,2.360318e+00,2.360320e+00
7.938840e-01,5.763200e-02,5.197525e-02,3,0,3.150872e+00,3.150874e+00
7.953060e-01,5.683300e-02,5.102158e-02,3,0,4.373944e+00,4.373947e+00
7.893750e-01,5.631200e-02,5.006790e-02,3,0,2.455006e+00,2.455006e+00
7.888820e-01,6.829100e-02,6.198883e-02,3,0,3.968519e+00,3.968523e+00
7.939580e-01,5.673700e-02,5.006790e-02,3,0,6.119308e+00,6.119313e+00
7.949880e-01,5.706600e-02,5.006790e-02,3,0,4.278523e+00,4.278521e+00
7.940730e-01,1.185520e-01,1.120567e-01,3,1,5.068578e+00,5.068333e+00
1.054779e+00,1.171010e-01,1.111031e-01,4,1,2.274826e+00,2.274823e+00
7.939660e-01,5.701500e-02,5.102158e-02,3,0,2.477333e+00,2.477334e+00
7.950250e-01,5.717900e-02,5.102158e-02,3,0,2.541243e+00,2.541244e+00
7.946480e-01,5.617900e-02,5.006790e-02,3,0,1.803083e+00,1.803083e+00
7.950680e-01,5.702700e-02,5.102158e-02,3,0,1.864154e+00,1.864154e+00
7.895960e-01,5.653200e-02,5.006790e-02,3,0,2.382283e+00,2.382284e+00
7.889800e-01,5.656100e-02,5.006790e-02,3,0,2.542669e+00,2.542669e+00
7.939000e-01,5.689500e-02,5.006790e-02,3,0,2.697453e+00,2.697454e+00
7.944320e-01,5.666200e-02,5.006790e-02,3,0,2.732533e+00,2.732534e+00
7.954590e-01,5.686700e-02,5.102158e-02,3,0,3.225733e+00,3.225734e+00
7.956590e-01,5.670900e-02,5.006790e-02,3,0,4.639273e+00,4.639276e+00
7.950920e-01,5.726600e-02,5.102158e-02,3,0,3.460144e+00,3.460143e+00
7.892630e-01,5.720000e-02,5.102158e-02,3,0,3.398097e+00,3.398098e+00
7.894560e-01,6.111700e-02,5.483627e-02,3,0,3.052349e+00,3.052349e+00
7.939920e-01,5.646600e-02,5.006790e-02,3,0,1.620253e+00,1.620252e+00
7.970510e-01,5.663600e-02,5.006790e-02,3,0,2.298991e+00,2.298993e+00
7.943180e-01,5.718700e-02,5.102158e-02,3,0,1.924072e+00,1.924072e+00
7.943340e-01,5.693300e-02,5.006790e-02,3,0,1.552300e+00,1.552300e+00
7.954080e-01,5.654600e-02,5.006790e-02,3,0,1.426329e+00,1.426329e+00
7.893210e-01,5.674400e-02,5.102158e-02,3,0,2.432690e+00,2.432693e+00
7.897920e-01,6.144000e-02,5.507469e-02,3,0,3.818957e+00,3.818960e+00
7.942130e-01,5.692400e-02,4.982948e-02,3,0,5.342808e+00,5.342811e+00
7.946990e-01,2.920750e-01,2.858639e-01,3,3,8.007202e+00,8.022192e+00
7.939500e-01,3.722750e-01,3.659725e-01,3,4,7.407870e+00,7.421742e+00
7.998420e-01,3.576740e-01,3.509521e-01,3,4,5.837881e+00,5.841234e+00
7.962530e-01,1.269450e-01,1.201630e-01,3,1,4.566741e+00,4.566740e+00
7.899370e-01,5.795700e-02,5.197525e-02,3,0,3.473572e+00,3.473572e+00
7.894390e-01,2.453100e-01,2.388954e-01,3,2,4.502647e+00,4.512369e+00
7.900630e-01,1.996380e-01,1.928806e-01,3,2,3.657851e+00,3.657850e+00
7.883020e-01,1.251730e-01,1.189709e-01,3,1,4.215314e+00,4.214664e+00
1.839138e+00,1.235330e-01,1.170635e-01,7,1,4.593059e+00,4.580625e+00
1.053386e+00,5.775700e-02,5.078316e-02,4,0,2.497557e+00,2.497556e+00
7.896070e-01,6.211800e-02,5.602837e-02,3,0,2.133626e+00,2.133627e+00
7.937740e-01,5.778800e-02,5.102158e-02,3,0,2.617786e+00,2.617788e+00
7.945770e-01,5.787200e-02,5.102158e-02,3,0,2.914690e+00,2.914691e+00
7.940440e-01,5.790000e-02,5.197525e-02,3,0,2.223575e+00,2.223575e+00
7.941240e-01,5.773300e-02,5.197525e-02,3,0,2.503944e+00,2.503945e+00
7.943860e-01,5.743300e-02,5.102158e-02,3,0,1.777513e+00,1.777513e+00
7.923960e-01,5.741500e-02,5.197525e-02,3,0,1.624392e+00,1.624393e+00
7.892100e-01,5.776900e-02,5.102158e-02,3,0,1.363900e+00,1.363901e+00
7.945990e-01,5.745800e-02,5.078316e-02,3,0,1.328357e+00,1.328358e+00
7.942380e-01,5.757200e-02,5.102158e-02,3,0,1.974501e+00,1.974502e+00
7.946130e-01,5.742100e-02,5.102158e-02,3,0,2.126135e+00,2.126136e+00
7.951070e-01,5.775700e-02,5.221367e-02,3,0,2.027877e+00,2.027878e+00
7.939990e-01,5.758800e-02,5.102158e-02,3,0,1.623192e+00,1.623193e+00
8.193100e-01,5.767100e-02,5.197525e-02,3,0,1.517089e+00,1.517090e+00
7.889810e-01,5.787200e-02,5.078316e-02,3,0,1.328343e+00,1.328343e+00
7.939130e-01,5.737900e-02,5.197525e-02,3,0,1.522571e+00,1.522572e+00
7.943420e-01,5.763400e-02,5.102158e-02,3,0,1.943279e+00,1.943280e+00
7.942430e-01,5.783700e-02,5.197525e-02,3,0,1.205772e+00,1.205772e+00
7.950450e-01,5.798800e-02,5.197525e-02,3,0,9.240598e-01,9.240598e-01
7.944890e-01,5.732200e-02,5.102158e-02,3,0,1.799914e+00,1.799916e+00
7.946060e-01,5.785600e-02,5.078316e-02,3,0,1.679150e+00,1.679150e+00
7.884310e-01,5.766400e-02,5.102158e-02,3,0,3.642152e+00,3.642156e+00
7.890500e-01,5.738800e-02,5.102158e-02,3,0,2.785940e+00,2.785940e+00
7.935030e-01,5.784200e-02,5.102158e-02,3,0,3.126841e+00,3.126842e+00
7.945800e-01,5.759000e-02,5.197525e-02,3,0,4.228689e+00,4.228691e+00
7.946980e-01,5.786900e-02,5.102158e-02,3,0,3.861128e+00,3.861129e+00
7.943110e-01,5.768700e-02,5.197525e-02,3,0,4.115997e+00,4.115999e+00
7.943710e-01,5.767200e-02,5.102158e-02,3,0,5.705301e+00,5.705304e+00
7.896950e-01,5.736600e-02,5.102158e-02,3,0,4.050924e+00,4.050922e+00
8.140940e-01,6.212900e-02,5.602837e-02,3,0,3.627890e+00,3.627891e+00
7.953170e-01,5.797700e-02,5.102158e-02,3,0,3.448386e+00,3.448387e+00
7.950870e-01,5.729400e-02,5.102158e-02,3,0,2.349688e+00,2.349688e+00
7.953420e-01,5.797200e-02,5.102158e-02,3,0,3.007672e+00,3.007674e+00
7.954000e-01,5.761600e-02,5.197525e-02,3,0,2.631415e+00,2.631415e+00
7.945320e-01,5.776700e-02,5.078316e-02,3,0,2.218170e+00,2.218170e+00
7.950840e-01,5.809100e-02,5.197525e-02,3,0,1.688155e+00,1.688155e+00
7.893450e-01,5.772500e-02,5.078316e-02,3,0,1.533558e+00,1.533559e+00
7.938920e-01,5.784300e-02,5.102158e-02,3,0,1.485565e+00,1.485565e+00
7.937400e-01,5.753000e-02,5.102158e-02,3,0,1.671858e+00,1.671859e+00
7.947910e-01,5.804600e-02,5.197525e-02,3,0,1.855017e+00,1.855017e+00
7.952980e-01,5.793400e-02,5.197525e-02,3,0,1.475156e+00,1.475156e+00
7.942040e-01,5.753500e-02,5.102158e-02,3,0,1.665585e+00,1.665586e+00
7.945930e-01,5.772600e-02,5.102158e-02,3,0,1.467621e+00,1.467622e+00
7.892830e-01,5.799600e-02,5.197525e-02,3,0,2.333417e+00,2.333419e+00
7.939130e-01,5.784200e-02,5.197525e-02,3,0,3.605091e+00,3.605093e+00
7.953620e-01,5.758200e-02,5.102158e-02,3,0,4.568632e+00,4.568634e+00
7.953790e-01,5.779200e-02,5.102158e-02,3,0,4.261223e+00,4.261224e+00
7.944430e-01,5.811700e-02,5.197525e-02,3,0,4.285569e+00,4.285569e+00
7.937790e-01,5.759200e-02,5.197525e-02,3,0,3.905530e+00,3.905530e+00
7.950750e-01,5.806600e-02,5.221367e-02,3,0,3.413203e+00,3.413203e+00
7.898950e-01,5.782300e-02,5.102158e-02,3,0,3.128338e+00,3.128338e+00
7.943000e-01,5.749000e-02,5.102158e-02,3,0,2.988037e+00,2.988022e+00
7.936420e-01,5.769200e-02,5.197525e-02,3,0,3.031119e+00,3.031117e+00
7.961310e-01,5.778500e-02,5.102158e-02,3,0,2.181170e+00,2.181170e+00
7.948560e-01,5.760600e-02,5.102158e-02,3,0,2.614776e+00,2.614777e+00
7.943650e-01,5.759100e-02,5.102158e-02,3,0,2.254792e+00,2.254792e+00
7.946920e-01,5.781200e-02,5.078316e-02,3,0,1.836183e+00,1.836183e+00
7.887720e-01,5.783100e-02,5.197525e-02,3,0,1.411363e+00,1.411363e+00
7.884130e-01,6.213600e-02,5.602837e-02,3,0,1.350339e+00,1.350340e+00
7.934700e-01,5.793700e-02,5.102158e-02,3,0,2.127462e+00,2.127463e+00
7.942740e-01,5.759800e-02,5.197525e-02,3,0,1.830995e+00,1.830995e+00
7.937490e-01,5.760500e-02,5.102158e-02,3,0,1.993370e+00,1.993370e+00
7.944690e-01,5.753600e-02,5.102158e-02,3,0,2.277235e+00,2.277237e+00
8.475780e-01,7.092600e-02,6.508827e-02,3,0,1.177537e+00,1.177537e+00
7.928780e-01,5.888700e-02,5.197525e-02,3,0,9.813271e-01,9.813274e-01
7.884060e-01,5.767100e-02,5.102158e-02,3,0,1.014523e+00,1.014524e+00
8.191690e-01,5.673000e-02,5.102158e-02,3,0,5.392685e-01,5.392687e-01
7.933320e-01,5.807500e-02,5.197525e-02,3,0,4.426792e-01,4.426793e-01
7.943900e-01,5.760900e-02,5.102158e-02,3,0,7.662471e-01,7.662479e-01
7.953750e-01,5.718800e-02,5.102158e-02,3,0,6.333886e-01,6.333887e-01
7.941830e-01,5.724000e-02,5.102158e-02,3,0,1.481482e+00,1.481484e+00
8.202180e-01,5.805500e-02,5.197525e-02,3,0,1.311582e+00,1.311583e+00
7.888980e-01,5.844000e-02,5.197525e-02,3,0,9.149925e-01,9.149925e-01
7.884370e-01,6.273300e-02,5.578995e-02,3,0,9.289488e-01,9.289492e-01
7.945280e-01,5.759900e-02,5.102158e-02,3,0,9.930077e-01,9.930082e-01
7.943530e-01,5.804000e-02,5.102158e-02,3,0,1.162190e+00,1.162190e+00
8.215380e-01,5.783900e-02,5.221367e-02,3,0,8.621851e-01,8.621851e-01
7.946790e-01,5.803300e-02,5.102158e-02,3,0,8.592674e-01,8.592679e-01
7.948890e-01,5.794800e-02,5.102158e-02,3,0,9.540822e-01,9.540827e-01
7.934610e-01,5.798400e-02,5.102158e-02,3,0,9.152085e-01,9.152087e-01
8.142880e-01,5.756200e-02,5.197525e-02,3,0,2.005621e+00,2.005623e+00
7.944020e-01,5.776900e-02,5.102158e-02,3,0,2.233354e+00,2.233355e+00
7.934440e-01,5.797300e-02,5.197525e-02,3,0,2.603931e+00,2.603932e+00
7.951470e-01,5.750400e-02,5.102158e-02,3,0,3.533052e+00,3.533054e+00
7.942240e-01,5.779500e-02,5.102158e-02,3,0,3.124837e+00,3.124838e+00
7.937760e-01,5.771400e-02,5.102158e-02,3,0,3.461928e+00,3.461929e+00
7.943730e-01,5.756000e-02,5.102158e-02,3,0,3.187952e+00,3.187952e+00
7.891880e-01,5.810000e-02,5.102158e-02,3,0,2.933725e+00,2.933725e+00
7.885230e-01,5.789400e-02,5.197525e-02,3,0,3.492194e+00,3.492196e+00
7.945350e-01,5.806600e-02,5.102158e-02,3,0,4.590567e+00,4.590570e+00
7.944860e-01,5.780700e-02,5.078316e-02,3,0,5.112532e+00,5.112534e+00
8.206920e-01,5.770900e-02,5.102158e-02,3,0,4.447342e+00,4.447342e+00
7.959130e-01,5.785900e-02,5.102158e-02,3,0,4.295995e+00,4.295997e+00
7.940500e-01,5.763000e-02,5.102158e-02,3,0,4.191386e+00,4.191387e+00
7.894320e-01,5.842600e-02,5.197525e-02,3,0,3.769928e+00,3.769928e+00
7.897240e-01,6.199100e-02,5.507469e-02,3,0,3.753979e+00,3.753981e+00
7.930210e-01,1.238830e-01,1.170635e-01,3,1,3.421219e+00,3.421010e+00
1.052747e+00,1.192910e-01,1.130104e-01,4,1,2.896835e+00,2.896836e+00
7.888940e-01,6.245700e-02,5.578995e-02,3,0,2.392925e+00,2.392925e+00
7.942350e-01,5.773300e-02,5.102158e-02,3,0,3.622258e+00,3.622261e+00
7.945620e-01,2.809680e-01,2.739429e-01,3,3,5.472756e+00,5.479351e+00
1.843137e+00,1.959330e-01,1.890659e-01,7,2,5.899352e+00,5.892694e+00
1.581207e+00,5.798600e-02,5.102158e-02,6,0,6.115935e+00,6.099753e+00
1.351570e+00,1.182270e-01,1.120567e-01,5,1,7.204726e+00,7.204415e+00
1.058569e+00,1.425380e-01,1.358986e-01,4,1,9.397677e+00,9.397980e+00
7.951070e-01,1.264290e-01,1.199245e-01,3,1,6.575524e+00,6.575520e+00
7.947140e-01,1.381880e-01,1.318455e-01,3,1,8.316423e+00,8.318836e+00
7.892560e-01,1.445920e-01,1.380444e-01,3,1,7.192597e+00,7.214046e+00
7.987760e-01,4.296150e-01,4.239082e-01,3,5,6.453886e+00,6.466453e+00
7.952290e-01,2.039080e-01,1.969337e-01,3,2,5.235356e+00,5.236153e+00
7.977510e-01,3.584110e-01,3.519058e-01,3,4,5.694258e+00,5.695429e+00
1.582369e+00,2.776740e-01,2.720356e-01,6,3,4.836116e+00,4.835967e+00
1.582378e+00,4.067290e-01,3.998280e-01,6,5,5.720423e+00,5.712087e+00
1.323935e+00,3.675220e-01,3.609657e-01,5,5,2.768204e+00,2.765630e+00
7.883980e-01,6.239100e-02,5.483627e-02,3,0,2.548097e+00,2.548074e+00
7.941580e-01,5.726500e-02,5.102158e-02,3,0,3.147424e+00,3.147427e+00
7.939150e-01,5.810100e-02,5.197525e-02,3,0,2.197661e+00,2.197661e+00
7.952370e-01,5.756400e-02,5.102158e-02,3,0,3.088294e+00,3.088295e+00
7.947900e-01,5.807800e-02,5.197525e-02,3,0,3.215869e+00,3.215870e+00
7.964960e-01,1.386360e-01,1.330376e-01,3,1,4.939711e+00,4.947091e+00
8.209330e-01,1.252330e-01,1.189709e-01,3,1,3.018269e+00,3.018267e+00
7.943670e-01,5.829000e-02,5.102158e-02,3,0,3.113265e+00,3.113266e+00
7.887730e-01,5.787700e-02,5.102158e-02,3,0,2.885547e+00,2.885548e+00
7.938190e-01,5.774100e-02,5.197525e-02,3,0,2.765954e+00,2.765954e+00
7.939390e-01,5.758500e-02,5.078316e-02,3,0,2.950658e+00,2.950659e+00
7.957660e-01,1.381790e-01,1.308918e-01,3,1,4.039804e+00,4.039807e+00
7.962440e-01,1.250900e-01,1.189709e-01,3,1,2.786400e+00,2.786400e+00
7.947440e-01,5.722500e-02,5.102158e-02,3,0,2.206831e+00,2.206832e+00
8.205020e-01,5.733400e-02,5.102158e-02,3,0,2.451651e+00,2.451652e+00
7.952460e-01,5.827200e-02,5.197525e-02,3,0,2.519328e+00,2.519328e+00
7.899510e-01,5.815500e-02,5.197525e-02,3,0,2.001430e+00,2.001430e+00
7.888090e-01,5.789600e-02,5.197525e-02,3,0,2.147694e+00,2.147696e+00
7.941340e-01,5.799800e-02,5.197525e-02,3,0,2.812806e+00,2.812808e+00
7.946480e-01,5.775000e-02,5.102158e-02,3,0,3.675509e+00,3.675511e+00
7.954620e-01,5.822300e-02,5.197525e-02,3,0,6.007857e+00,6.007861e+00
7.950670e-01,1.388310e-01,1.330376e-01,3,1,7.789494e+00,7.789577e+00
8.080990e-01,1.398020e-01,1.330376e-01,3,1,6.328865e+00,6.328864e+00
7.947870e-01,5.898700e-02,5.292892e-02,3,0,7.586266e+00,7.586270e+00
7.945300e-01,1.388560e-01,1.330376e-01,3,1,5.909374e+00,5.910709e+00
7.945780e-01,1.259300e-01,1.189709e-01,3,1,4.473771e+00,4.473770e+00
7.899800e-01,1.364220e-01,1.301765e-01,3,1,5.146766e+00,5.167306e+00
7.893580e-01,1.303200e-01,1.239777e-01,3,1,3.941951e+00,3.941951e+00
7.945670e-01,5.695800e-02,5.078316e-02,3,0,3.163595e+00,3.163597e+00
7.935870e-01,5.794200e-02,5.102158e-02,3,0,2.100495e+00,2.100494e+00
7.948890e-01,5.733000e-02,5.197525e-02,3,0,1.958993e+00,1.958994e+00
7.942930e-01,5.745800e-02,5.102158e-02,3,0,1.860498e+00,1.860498e+00
7.959390e-01,5.795500e-02,5.102158e-02,3,0,2.491525e+00,2.491526e+00
7.949580e-01,5.744200e-02,5.102158e-02,3,0,1.118816e+00,1.118815e+00
7.889990e-01,5.708500e-02,5.006790e-02,3,0,2.734525e+00,2.734529e+00
7.894340e-01,2.053550e-01,1.990795e-01,3,2,5.159402e+00,5.164292e+00
1.870502e+00,1.909450e-01,1.850128e-01,7,2,3.059235e+00,3.058708e+00
7.900240e-01,6.273600e-02,5.578995e-02,3,0,2.016788e+00,2.016787e+00
7.947150e-01,5.682500e-02,5.006790e-02,3,0,2.082794e+00,2.082795e+00
7.941180e-01,5.740100e-02,5.197525e-02,3,0,2.003212e+00,2.003212e+00
7.964970e-01,5.758300e-02,5.102158e-02,3,0,1.854253e+00,1.854254e+00
7.938750e-01,5.735900e-02,5.102158e-02,3,0,2.630193e+00,2.630195e+00
7.941920e-01,5.758200e-02,5.102158e-02,3,0,2.160530e+00,2.160530e+00
7.931360e-01,5.781600e-02,5.197525e-02,3,0,1.642397e+00,1.642397e+00
8.008510e-01,5.799200e-02,5.197525e-02,3,0,1.794676e+00,1.794677e+00
7.892210e-01,1.259170e-01,1.189709e-01,3,1,3.246681e+00,3.246541e+00
1.582066e+00,5.837700e-02,5.197525e-02,6,0,5.106671e+00,5.089005e+00
1.846147e+00,1.379130e-01,1.318455e-01,7,1,8.574018e+00,8.568838e+00
1.318920e+00,2.840180e-01,2.770424e-01,5,3,1.002274e+01,1.003696e+01
1.058882e+00,2.950730e-01,2.892017e-01,4,3,9.425961e+00,9.573463e+00
7.953360e-01,2.855450e-01,2.779961e-01,3,3,1.023035e+01,1.031003e+01
7.948490e-01,2.839030e-01,2.770424e-01,3,3,9.147323e+00,9.155772e+00
7.948500e-01,4.452470e-01,4.389286e-01,3,5,9.796306e+00,9.811156e+00
1.061757e+00,5.288680e-01,5.218983e-01,4,6,9.621782e+00,9.630942e+00
1.589346e+00,3.461700e-01,3.390312e-01,6,4,8.091302e+00,8.106953e+00
1.610380e+00,2.002640e-01,1.938343e-01,6,2,7.219551e+00,7.255506e+00
1.578993e+00,1.358770e-01,1.289845e-01,6,1,5.846923e+00,5.853256e+00
1.062566e+00,3.626330e-01,3.559589e-01,4,4,5.657363e+00,5.666514e+00
1.586655e+00,3.429620e-01,3.371239e-01,6,4,5.912424e+00,5.963258e+00
1.585661e+00,4.279060e-01,4.210472e-01,6,5,7.298653e+00,7.459189e+00
1.589693e+00,3.835330e-01,3.726482e-01,6,1,1.216031e+01,1.479797e+01
1.584098e+00,3.111360e-01,3.027916e-01,6,0,1.380437e+01,1.640118e+01
2.116814e+00,3.100330e-01,3.008842e-01,8,0,1.548385e+01,1.658334e+01
1.585446e+00,3.108220e-01,3.018379e-01,6,0,1.408666e+01,1.355197e+01
1.583070e+00,3.098070e-01,3.011227e-01,6,0,1.510060e+01,1.398377e+01
1.060489e+00,3.095640e-01,3.023148e-01,4,0,1.825347e+01,1.920575e+01
1.332648e+00,1.457299e+00,1.450062e+00,5,16,1.738369e+01,1.967052e+01
1.591568e+00,8.229230e-01,8.141994e-01,6,7,1.563716e+01,1.611281e+01
1.583465e+00,3.101190e-01,3.027916e-01,6,0,1.382023e+01,1.409865e+01
1.582258e+00,3.133410e-01,3.049374e-01,6,0,1.259986e+01,1.269417e+01
1.060350e+00,5.775340e-01,5.698204e-01,4,4,1.102046e+01,1.214309e+01
1.586631e+00,3.063080e-01,2.992153e-01,6,0,1.019029e+01,1.248196e+01
1.581800e+00,8.706450e-01,8.616447e-01,6,8,1.091349e+01,1.520440e+01
1.593236e+00,8.076850e-01,7.989407e-01,6,7,7.920284e+00,8.713087e+00
1.583415e+00,2.644090e-01,2.579689e-01,6,3,7.265713e+00,7.507928e+00
1.610874e+00,4.901010e-01,4.839897e-01,6,6,7.525616e+00,7.653167e+00
1.638938e+00,3.389880e-01,3.321171e-01,6,4,6.242123e+00,6.246251e+00
1.056722e+00,2.029560e-01,1.962185e-01,4,2,5.391051e+00,5.395265e+00
1.844103e+00,1.257330e-01,1.189709e-01,7,1,5.078479e+00,5.072240e+00
1.055876e+00,1.207600e-01,1.139641e-01,4,1,4.060099e+00,4.060096e+00
8.195650e-01,5.822700e-02,5.102158e-02,3,0,1.990783e+00,1.990783e+00
7.957440e-01,5.855500e-02,5.197525e-02,3,0,2.070152e+00,2.070153e+00
8.205300e-01,5.791400e-02,5.197525e-02,3,0,2.285529e+00,2.285530e+00
7.955560e-01,5.803600e-02,5.197525e-02,3,0,2.377009e+00,2.377010e+00
8.199040e-01,5.744900e-02,5.102158e-02,3,0,2.379837e+00,2.379838e+00
7.890740e-01,5.835800e-02,5.102158e-02,3,0,1.665998e+00,1.665998e+00
7.893900e-01,6.304100e-02,5.698204e-02,3,0,2.402465e+00,2.402467e+00
7.945430e-01,5.739900e-02,5.078316e-02,3,0,3.570747e+00,3.570749e+00
7.948700e-01,5.768300e-02,5.102158e-02,3,0,4.046288e+00,4.046290e+00
8.199080e-01,5.750900e-02,5.102158e-02,3,0,3.646139e+00,3.646140e+00
8.210320e-01,5.825100e-02,5.197525e-02,3,0,3.447836e+00,3.447837e+00
7.944060e-01,5.810600e-02,5.197525e-02,3,0,3.307715e+00,3.307716e+00
7.941870e-01,5.728400e-02,5.102158e-02,3,0,3.260138e+00,3.260138e+00
7.897070e-01,5.738500e-02,5.102158e-02,3,0,2.620375e+00,2.620376e+00
7.943790e-01,5.717400e-02,5.006790e-02,3,0,2.829010e+00,2.829010e+00
7.946020e-01,1.391820e-01,1.330376e-01,3,1,5.565123e+00,5.577026e+00
7.930950e-01,3.758070e-01,3.700256e-01,3,4,7.030485e+00,7.070009e+00
1.609627e+00,5.287440e-01,5.199909e-01,6,3,8.564257e+00,9.831347e+00
1.575834e+00,2.802010e-01,2.729893e-01,6,3,7.678077e+00,7.721222e+00
1.838079e+00,2.184660e-01,2.119541e-01,7,2,6.771391e+00,6.823895e+00
1.056185e+00,2.090860e-01,2.031326e-01,4,2,5.895535e+00,5.895690e+00
7.944810e-01,1.270220e-01,1.199245e-01,3,1,4.914702e+00,4.914702e+00
7.952610e-01,1.822140e-01,1.749992e-01,3,2,5.071329e+00,5.069817e+00
1.577072e+00,2.579770e-01,2.510548e-01,6,3,4.700332e+00,4.694556e+00
1.575995e+00,2.688170e-01,2.620220e-01,6,3,4.346733e+00,4.336000e+00
1.579035e+00,1.836240e-01,1.771450e-01,6,2,4.858864e+00,4.837345e+00
1.581014e+00,5.767200e-02,5.102158e-02,6,0,5.835149e+00,5.820985e+00
1.318930e+00,1.179590e-01,1.120567e-01,5,1,6.525754e+00,6.519877e+00
1.322950e+00,1.175380e-01,1.120567e-01,5,1,7.801938e+00,7.801918e+00
7.945600e-01,5.755600e-02,5.078316e-02,3,0,6.628641e+00,6.628640e+00
7.890530e-01,5.732500e-02,5.102158e-02,3,0,8.778428e+00,8.778434e+00
7.943320e-01,5.756200e-02,5.197525e-02,3,0,8.946025e+00,8.946027e+00
7.943610e-01,5.731100e-02,5.102158e-02,3,0,7.906368e+00,7.906368e+00
7.957470e-01,5.738600e-02,5.102158e-02,3,0,7.196097e+00,7.196098e+00
7.951700e-01,2.950520e-01,2.880096e-01,3,3,7.764534e+00,7.770530e+00
7.915150e-01,4.296840e-01,4.229546e-01,3,5,7.230067e+00,7.235543e+00
7.942120e-01,1.358240e-01,1.299381e-01,3,1,6.192459e+00,6.211466e+00
7.898250e-01,2.943330e-01,2.870560e-01,3,3,5.242743e+00,5.253400e+00
1.845730e+00,4.215180e-01,4.150867e-01,7,5,3.744005e+00,3.738164e+00
1.057304e+00,2.071730e-01,2.009869e-01,4,2,3.311607e+00,3.311772e+00
1.056173e+00,1.269890e-01,1.211166e-01,4,1,2.183971e+00,2.183961e+00
7.960840e-01,5.717800e-02,5.102158e-02,3,0,1.462304e+00,1.462297e+00
7.954310e-01,5.754200e-02,5.102158e-02,3,0,1.584626e+00,1.584626e+00
7.943660e-01,5.756800e-02,5.197525e-02,3,0,2.097501e+00,2.097502e+00
7.940640e-01,5.765700e-02,5.102158e-02,3,0,1.451960e+00,1.451960e+00
8.008010e-01,5.716400e-02,5.102158e-02,3,0,1.841211e+00,1.841212e+00
7.938410e-01,7.040900e-02,6.413460e-02,3,0,1.945730e+00,1.945730e+00
7.940930e-01,5.751500e-02,5.102158e-02,3,0,1.790305e+00,1.790306e+00
7.937710e-01,5.698000e-02,5.102158e-02,3,0,1.817844e+00,1.817844e+00
7.945140e-01,5.749300e-02,5.197525e-02,3,0,2.031074e+00,2.031075e+00
7.949750e-01,5.782200e-02,5.102158e-02,3,0,1.875204e+00,1.875204e+00
7.946000e-01,5.729700e-02,5.102158e-02,3,0,1.529072e+00,1.529073e+00
7.890010e-01,5.739300e-02,5.102158e-02,3,0,2.085934e+00,2.085935e+00
7.943000e-01,5.708500e-02,5.078316e-02,3,0,2.067874e+00,2.067874e+00
7.927830e-01,5.691400e-02,5.006790e-02,3,0,2.175335e+00,2.175336e+00
7.949940e-01,5.737500e-02,5.102158e-02,3,0,2.007302e+00,2.007302e+00
7.947670e-01,5.739900e-02,5.006790e-02,3,0,2.966648e+00,2.966650e+00
7.944410e-01,5.722700e-02,5.078316e-02,3,0,2.841148e+00,2.841148e+00
7.949140e-01,5.742900e-02,5.102158e-02,3,0,2.393067e+00,2.393067e+00
7.897740e-01,5.742500e-02,5.102158e-02,3,0,1.803911e+00,1.803911e+00
7.897540e-01,6.120600e-02,5.483627e-02,3,0,2.764925e+00,2.764927e+00
7.936640e-01,5.749900e-02,5.102158e-02,3,0,2.640770e+00,2.640770e+00
7.939780e-01,5.673700e-02,5.102158e-02,3,0,1.918041e+00,1.918040e+00
7.942540e-01,5.742000e-02,5.102158e-02,3,0,1.888256e+00,1.888257e+00
7.947520e-01,5.747500e-02,5.102158e-02,3,0,1.693855e+00,1.693856e+00
7.946500e-01,5.701200e-02,5.102158e-02,3,0,1.928967e+00,1.928968e+00
7.888550e-01,5.763500e-02,5.102158e-02,3,0,2.706847e+00,2.706848e+00
7.892620e-01,6.122600e-02,5.412102e-02,3,0,2.874555e+00,2.874556e+00
7.938890e-01,5.751600e-02,5.102158e-02,3,0,2.797974e+00,2.797975e+00
7.987010e-01,5.748100e-02,5.078316e-02,3,0,3.941334e+00,3.941337e+00
7.957500e-01,5.731900e-02,5.102158e-02,3,0,4.567673e+00,4.567674e+00
7.962070e-01,5.733900e-02,5.006790e-02,3,0,3.291151e+00,3.291150e+00
7.952060e-01,5.738400e-02,5.102158e-02,3,0,2.677025e+00,2.677025e+00
7.893000e-01,5.679000e-02,5.006790e-02,3,0,2.876605e+00,2.876606e+00
7.901890e-01,6.162200e-02,5.102158e-02,3,0,2.351866e+00,2.351866e+00
7.951620e-01,5.668000e-02,5.102158e-02,3,0,1.867592e+00,1.867592e+00
7.952850e-01,5.727200e-02,5.102158e-02,3,0,2.564866e+00,2.564867e+00
7.956320e-01,5.734100e-02,5.102158e-02,3,0,2.737124e+00,2.737125e+00
7.947410e-01,5.746700e-02,5.197525e-02,3,0,2.141108e+00,2.141108e+00
7.956340e-01,5.745200e-02,5.102158e-02,3,0,2.867944e+00,2.867946e+00
7.944630e-01,5.738100e-02,5.102158e-02,3,0,1.975932e+00,1.975931e+00
7.889970e-01,5.740800e-02,5.102158e-02,3,0,2.148474e+00,2.148474e+00
7.939710e-01,5.734400e-02,5.102158e-02,3,0,2.114130e+00,2.114130e+00
7.930750e-01,5.768900e-02,5.102158e-02,3,0,2.473750e+00,2.473751e+00
7.962930e-01,5.731700e-02,5.102158e-02,3,0,2.220506e+00,2.220506e+00
7.937840e-01,5.745300e-02,5.102158e-02,3,0,2.322423e+00,2.322424e+00
7.947860e-01,5.708100e-02,5.006790e-02,3,0,1.825783e+00,1.825783e+00
7.939930e-01,5.743000e-02,5.102158e-02,3,0,1.652132e+00,1.652132e+00
7.892620e-01,5.763200e-02,5.197525e-02,3,0,1.969687e+00,1.969687e+00
7.937480e-01,5.687300e-02,5.102158e-02,3,0,1.885468e+00,1.885468e+00
7.947160e-01,5.713700e-02,5.102158e-02,3,0,2.503962e+00,2.503963e+00
7.943020e-01,5.713200e-02,5.102158e-02,3,0,1.995302e+00,1.995302e+00
7.946040e-01,5.730800e-02,5.102158e-02,3,0,1.526293e+00,1.526294e+00
7.941550e-01,5.755600e-02,5.102158e-02,3,0,1.267565e+00,1.267565e+00
7.936590e-01,5.747300e-02,5.197525e-02,3,0,1.170402e+00,1.170402e+00
7.888660e-01,5.757100e-02,5.102158e-02,3,0,1.167621e+00,1.167621e+00
7.936030e-01,5.699100e-02,5.102158e-02,3,0,1.770381e+00,1.770383e+00
7.932550e-01,5.752600e-02,5.078316e-02,3,0,1.519057e+00,1.519057e+00
7.948510e-01,5.715200e-02,5.102158e-02,3,0,1.728503e+00,1.728504e+00
7.946030e-01,5.730000e-02,5.102158e-02,3,0,1.602183e+00,1.602183e+00
7.944390e-01,5.740700e-02,5.102158e-02,3,0,1.392266e+00,1.392266e+00
7.933220e-01,5.762600e-02,5.197525e-02,3,0,1.729262e+00,1.729263e+00
7.884270e-01,5.779600e-02,5.197525e-02,3,0,2.235150e+00,2.235151e+00
7.900510e-01,5.707600e-02,5.102158e-02,3,0,2.576544e+00,2.576545e+00
8.199660e-01,5.711500e-02,5.102158e-02,3,0,1.628819e+00,1.628819e+00
7.941030e-01,5.797100e-02,5.102158e-02,3,0,2.108230e+00,2.108231e+00
7.950790e-01,5.720500e-02,5.102158e-02,3,0,1.666254e+00,1.666254e+00
7.953250e-01,5.705400e-02,5.006790e-02,3,0,1.557765e+00,1.557766e+00
7.944050e-01,5.761100e-02,5.221367e-02,3,0,1.721628e+00,1.721628e+00
7.888760e-01,5.691700e-02,5.102158e-02,3,0,1.539845e+00,1.539846e+00
7.890800e-01,6.166600e-02,5.602837e-02,3,0,1.166276e+00,1.166276e+00
7.937720e-01,5.725200e-02,5.102158e-02,3,0,1.380908e+00,1.380909e+00
7.946700e-01,5.749600e-02,5.102158e-02,3,0,8.373372e-01,8.373372e-01
7.948300e-01,5.759400e-02,5.102158e-02,3,0,8.652590e-01,8.652597e-01
7.951130e-01,5.733000e-02,5.102158e-02,3,0,6.799163e-01,6.799164e-01
8.153610e-01,5.694400e-02,5.102158e-02,3,0,7.864041e-01,7.864047e-01
7.957120e-01,5.780400e-02,5.197525e-02,3,0,1.031856e+00,1.031857e+00
7.892490e-01,5.755000e-02,5.102158e-02,3,0,8.944607e-01,8.944610e-01
7.939650e-01,5.682300e-02,4.982948e-02,3,0,2.480148e+00,2.480125e+00
1.088475e+00,2.010750e-01,1.950264e-01,4,2,4.774719e+00,4.783034e+00
1.320114e+00,1.963850e-01,1.900196e-01,5,2,3.761604e+00,3.761383e+00
7.946920e-01,5.772700e-02,5.102158e-02,3,0,2.660128e+00,2.660125e+00
7.945050e-01,5.738700e-02,5.102158e-02,3,0,1.812431e+00,1.812431e+00
8.203220e-01,5.772600e-02,5.078316e-02,3,0,2.224166e+00,2.224167e+00
7.942290e-01,5.822700e-02,5.197525e-02,3,0,1.797202e+00,1.797202e+00
7.892030e-01,5.718700e-02,5.102158e-02,3,0,1.887202e+00,1.887203e+00
7.939100e-01,5.727400e-02,5.102158e-02,3,0,2.215105e+00,2.215106e+00
7.938770e-01,5.722200e-02,5.102158e-02,3,0,2.486269e+00,2.486270e+00
7.947170e-01,5.738000e-02,5.102158e-02,3,0,2.175349e+00,2.175349e+00
7.938200e-01,5.695600e-02,5.006790e-02,3,0,2.495654e+00,2.495656e+00
7.948090e-01,5.729700e-02,5.078316e-02,3,0,3.203973e+00,3.203974e+00
7.946790e-01,5.725900e-02,5.102158e-02,3,0,2.845022e+00,2.845022e+00
7.891920e-01,5.768700e-02,5.197525e-02,3,0,2.249232e+00,2.249231e+00
7.934060e-01,5.705100e-02,5.102158e-02,3,0,1.614840e+00,1.614840e+00
7.940950e-01,5.775300e-02,5.078316e-02,3,0,1.327046e+00,1.327046e+00
7.947160e-01,5.720500e-02,5.102158e-02,3,0,1.116158e+00,1.116158e+00
7.949940e-01,5.743900e-02,5.102158e-02,3,0,1.630427e+00,1.630428e+00
7.942940e-01,5.756300e-02,5.102158e-02,3,0,1.224435e+00,1.224435e+00
7.944400e-01,5.756700e-02,5.102158e-02,3,0,1.549808e+00,1.549808e+00
7.885980e-01,5.745900e-02,5.102158e-02,3,0,1.428276e+00,1.428276e+00
7.887360e-01,6.131600e-02,5.507469e-02,3,0,1.647991e+00,1.647991e+00
7.935810e-01,5.768900e-02,5.102158e-02,3,0,2.263045e+00,2.263046e+00
7.947500e-01,5.713200e-02,5.078316e-02,3,0,1.964371e+00,1.964371e+00
7.955560e-01,5.722100e-02,5.102158e-02,3,0,1.665065e+00,1.665065e+00
7.938710e-01,5.748700e-02,5.102158e-02,3,0,2.479846e+00,2.479849e+00
7.954900e-01,5.733100e-02,5.102158e-02,3,0,2.559614e+00,2.559615e+00
7.887330e-01,5.725800e-02,5.102158e-02,3,0,1.395358e+00,1.395357e+00
7.897530e-01,6.156300e-02,5.602837e-02,3,0,1.489859e+00,1.489860e+00
7.939430e-01,5.740000e-02,5.078316e-02,3,0,1.666374e+00,1.666375e+00
7.942190e-01,5.746600e-02,5.102158e-02,3,0,1.828933e+00,1.828933e+00
7.945330e-01,5.715200e-02,5.102158e-02,3,0,1.399468e+00,1.399468e+00
7.944620e-01,5.759900e-02,5.197525e-02,3,0,1.158725e+00,1.158725e+00
7.943470e-01,5.698500e-02,5.078316e-02,3,0,1.474663e+00,1.474663e+00
7.888930e-01,5.752100e-02,5.102158e-02,3,0,2.003372e+00,2.003373e+00
7.887880e-01,6.191600e-02,5.507469e-02,3,0,2.322817e+00,2.322817e+00
7.947910e-01,5.733600e-02,5.102158e-02,3,0,1.817265e+00,1.817265e+00
7.945790e-01,5.730900e-02,5.078316e-02,3,0,1.874526e+00,1.874527e+00
7.943820e-01,5.705200e-02,5.102158e-02,3,0,1.693972e+00,1.693972e+00
7.943910e-01,5.771900e-02,5.102158e-02,3,0,2.282652e+00,2.282653e+00
7.941440e-01,5.774100e-02,5.221367e-02,3,0,2.684286e+00,2.684287e+00
8.056120e-01,5.760400e-02,5.102158e-02,3,0,3.679943e+00,3.679945e+00
7.893660e-01,7.095300e-02,6.389618e-02,3,0,3.506583e+00,3.506584e+00
7.882700e-01,1.252160e-01,1.192093e-01,3,1,5.280017e+00,5.279760e+00
1.053080e+00,1.173000e-01,1.108646e-01,4,1,2.901809e+00,2.901806e+00
7.884670e-01,5.750500e-02,5.102158e-02,3,0,2.791306e+00,2.791306e+00
7.938590e-01,5.709200e-02,5.102158e-02,3,0,3.252010e+00,3.252012e+00
7.959400e-01,5.751700e-02,5.102158e-02,3,0,3.315821e+00,3.315822e+00
7.955830e-01,5.765500e-02,5.078316e-02,3,0,3.506553e+00,3.506554e+00
7.952140e-01,5.712000e-02,5.006790e-02,3,0,3.356558e+00,3.356558e+00
7.944830e-01,5.699700e-02,5.102158e-02,3,0,2.528903e+00,2.528902e+00
7.944010e-01,5.734900e-02,5.102158e-02,3,0,3.041811e+00,3.041812e+00
7.897260e-01,5.742100e-02,5.102158e-02,3,0,2.670955e+00,2.670955e+00
7.936070e-01,5.737500e-02,5.102158e-02,3,0,1.827527e+00,1.827527e+00
7.936820e-01,5.740000e-02,5.078316e-02,3,0,1.522044e+00,1.522044e+00
7.941300e-01,5.706800e-02,5.102158e-02,3,0,1.524727e+00,1.524728e+00
7.940720e-01,5.730600e-02,5.102158e-02,3,0,1.424028e+00,1.424029e+00
7.938320e-01,5.733100e-02,5.102158e-02,3,0,1.286875e+00,1.286875e+00
7.936290e-01,5.746100e-02,5.102158e-02,3,0,1.436565e+00,1.436566e+00
7.889890e-01,5.753900e-02,5.102158e-02,3,0,1.632984e+00,1.632985e+00
7.930560e-01,5.725000e-02,5.102158e-02,3,0,2.837291e+00,2.837293e+00
7.934650e-01,5.713700e-02,5.102158e-02,3,0,2.167057e+00,2.167059e+00
7.954170e-01,5.723300e-02,5.102158e-02,3,0,2.871060e+00,2.871062e+00
7.948460e-01,5.755600e-02,5.102158e-02,3,0,1.569096e+00,1.569095e+00
7.937590e-01,5.741500e-02,5.197525e-02,3,0,1.496851e+00,1.496852e+00
7.943170e-01,5.742000e-02,5.102158e-02,3,0,1.149647e+00,1.149647e+00
7.884370e-01,5.748700e-02,5.102158e-02,3,0,8.732170e-01,8.732173e-01
7.922790e-01,5.685300e-02,5.006790e-02,3,0,1.659078e+00,1.659080e+00
7.941320e-01,5.761500e-02,5.102158e-02,3,0,1.925224e+00,1.925225e+00
8.196130e-01,5.721000e-02,5.102158e-02,3,0,2.817887e+00,2.817888e+00
7.957370e-01,5.795400e-02,5.197525e-02,3,0,2.754762e+00,2.754762e+00
7.944160e-01,5.737800e-02,5.102158e-02,3,0,2.781997e+00,2.781997e+00
7.945280e-01,5.746800e-02,5.078316e-02,3,0,4.362834e+00,4.362837e+00
7.896060e-01,5.704900e-02,5.102158e-02,3,0,4.859261e+00,4.859263e+00
7.901440e-01,6.142800e-02,5.507469e-02,3,0,3.831587e+00,3.831587e+00
7.947030e-01,5.728300e-02,5.078316e-02,3,0,3.561611e+00,3.561612e+00
7.944730e-01,5.730900e-02,5.102158e-02,3,0,4.736139e+00,4.736143e+00
7.948640e-01,5.693100e-02,5.102158e-02,3,0,3.264612e+00,3.264612e+00
7.947810e-01,5.756500e-02,5.102158e-02,3,0,2.808606e+00,2.808607e+00
7.957500e-01,5.734200e-02,5.102158e-02,3,0,2.685665e+00,2.685666e+00
7.884870e-01,5.748000e-02,5.102158e-02,3,0,2.725045e+00,2.725046e+00
7.887990e-01,6.207300e-02,5.602837e-02,3,0,2.645758e+00,2.645758e+00
7.948110e-01,5.698400e-02,5.102158e-02,3,0,2.394701e+00,2.394702e+00
7.942780e-01,5.757000e-02,5.102158e-02,3,0,2.533945e+00,2.533946e+00
7.951840e-01,5.714200e-02,5.102158e-02,3,0,3.060525e+00,3.060526e+00
7.952190e-01,5.770000e-02,5.102158e-02,3,0,3.662159e+00,3.662161e+00
7.948390e-01,5.743000e-02,5.102158e-02,3,0,2.935457e+00,2.935456e+00
7.939530e-01,5.710800e-02,4.982948e-02,3,0,3.018212e+00,3.018213e+00
7.885340e-01,5.714100e-02,5.102158e-02,3,0,2.485155e+00,2.485155e+00
7.937560e-01,5.729200e-02,5.102158e-02,3,0,2.642244e+00,2.642245e+00

