5.525540e-01,4.099750e-01,2.591610e-01,2,0,0.000000e+00,0.000000e+00
7.941320e-01,5.973200e-02,5.197525e-02,3,0,9.908744e-02,9.908764e-02
7.961660e-01,5.834700e-02,5.197525e-02,3,0,1.830848e-01,1.830852e-01
8.377900e-01,5.837200e-02,5.197525e-02,3,0,3.864811e-01,3.864817e-01
7.965920e-01,5.826800e-02,5.197525e-02,3,0,4.004133e-01,4.004136e-01
7.891680e-01,5.747300e-02,5.078316e-02,3,0,1.918494e+00,1.918496e+00
7.889320e-01,6.308400e-02,5.698204e-02,3,0,2.527490e+00,2.527492e+00
7.948940e-01,5.780200e-02,5.197525e-02,3,0,3.552445e+00,3.552447e+00
8.265360e-01,5.766400e-02,5.102158e-02,3,0,2.030777e+00,2.030776e+00
7.960990e-01,5.854300e-02,5.197525e-02,3,0,2.053681e+00,2.053681e+00
7.954640e-01,5.747500e-02,5.102158e-02,3,0,2.090158e+00,2.090159e+00
7.951310e-01,5.727300e-02,5.102158e-02,3,0,2.228142e+00,2.228143e+00
7.951180e-01,5.740800e-02,5.102158e-02,3,0,2.966620e+00,2.966622e+00
7.893830e-01,5.729300e-02,5.102158e-02,3,0,3.719657e+00,3.719659e+00
7.996430e-01,5.728600e-02,5.006790e-02,3,0,3.608146e+00,3.608146e+00
7.948310e-01,5.779800e-02,5.102158e-02,3,0,4.378298e+00,4.378301e+00
7.951900e-01,5.747300e-02,5.102158e-02,3,0,3.707490e+00,3.707490e+00
7.958650e-01,5.746200e-02,5.102158e-02,3,0,3.390156e+00,3.390157e+00
7.952290e-01,5.757600e-02,5.197525e-02,3,0,3.082943e+00,3.082943e+00
7.949540e-01,5.759100e-02,5.102158e-02,3,0,2.781092e+00,2.781093e+00
7.892880e-01,5.740500e-02,5.102158e-02,3,0,3.038366e+00,3.038367e+00
7.899140e-01,6.219600e-02,5.602837e-02,3,0,2.594647e+00,2.594647e+00
7.946750e-01,5.747300e-02,5.078316e-02,3,0,2.608640e+00,2.608641e+00
7.955560e-01,5.724000e-02,5.102158e-02,3,0,2.541393e+00,2.541394e+00
7.951880e-01,5.795400e-02,5.197525e-02,3,0,2.792866e+00,2.792867e+00
7.954800e-01,5.764200e-02,5.102158e-02,3,0,3.060493e+00,3.060494e+00
7.951640e-01,5.754000e-02,5.078316e-02,3,0,2.897606e+00,2.897607e+00
7.893390e-01,5.723500e-02,5.102158e-02,3,0,3.112618e+00,3.112620e+00
7.896480e-01,6.234000e-02,5.602837e-02,3,0,2.546094e+00,2.546095e+00
7.947680e-01,5.699400e-02,5.102158e-02,3,0,2.203587e+00,2.203587e+00
7.954710e-01,5.747100e-02,5.102158e-02,3,0,2.028661e+00,2.028662e+00
7.949080e-01,5.709400e-02,5.102158e-02,3,0,1.528637e+00,1.528637e+00
7.950120e-01,5.754500e-02,5.102158e-02,3,0,1.391296e+00,1.391296e+00
7.944700e-01,5.761700e-02,5.102158e-02,3,0,1.867830e+00,1.867831e+00
7.885070e-01,5.743500e-02,5.102158e-02,3,0,1.291775e+00,1.291775e+00
7.890940e-01,6.211500e-02,5.102158e-02,3,0,1.416054e+00,1.416054e+00
7.947000e-01,5.796800e-02,5.102158e-02,3,0,1.081417e+00,1.081417e+00
7.951330e-01,5.766900e-02,5.221367e-02,3,0,1.069540e+00,1.069540e+00
7.956440e-01,5.712900e-02,5.102158e-02,3,0,1.420408e+00,1.420409e+00
7.962460e-01,5.750400e-02,4.982948e-02,3,0,1.504707e+00,1.504707e+00
7.950860e-01,5.743400e-02,5.006790e-02,3,0,3.236998e+00,3.237001e+00
7.947950e-01,5.730100e-02,5.078316e-02,3,0,4.485951e+00,4.485954e+00
7.890350e-01,5.716200e-02,5.006790e-02,3,0,3.104511e+00,3.104510e+00
7.944340e-01,5.743000e-02,5.102158e-02,3,0,4.548691e+00,4.548694e+00
7.947640e-01,5.750700e-02,5.102158e-02,3,0,3.578503e+00,3.578503e+00
7.947710e-01,5.759400e-02,5.197525e-02,3,0,3.266055e+00,3.266056e+00
7.955290e-01,5.764900e-02,5.102158e-02,3,0,3.272182e+00,3.272183e+00
7.951270e-01,5.720200e-02,5.006790e-02,3,0,3.130258e+00,3.130258e+00
7.948260e-01,5.791000e-02,5.197525e-02,3,0,2.667689e+00,2.667689e+00
7.890710e-01,5.758000e-02,5.102158e-02,3,0,1.781321e+00,1.781320e+00
7.944120e-01,5.731800e-02,5.102158e-02,3,0,1.745463e+00,1.745463e+00
7.953670e-01,5.784500e-02,5.102158e-02,3,0,2.233033e+00,2.233035e+00
7.949830e-01,5.754100e-02,5.102158e-02,3,0,1.661500e+00,1.661500e+00
7.955290e-01,5.748200e-02,5.078316e-02,3,0,1.421423e+00,1.421423e+00
7.957480e-01,5.748300e-02,5.102158e-02,3,0,1.689385e+00,1.689386e+00
7.948820e-01,1.407010e-01,1.339912e-01,3,1,2.190710e+00,2.190595e+00
1.053848e+00,1.213890e-01,1.151562e-01,4,1,1.530992e+00,1.530992e+00
7.947030e-01,5.734600e-02,5.102158e-02,3,0,2.360318e+00,2.360320e+00
7.949340e-01,5.750500e-02,5.102158e-02,3,0,3.150872e+00,3.150874e+00
7.894670e-01,5.698700e-02,5.102158e-02,3,0,4.373944e+00,4.373947e+00
7.947830e-01,5.675300e-02,5.006790e-02,3,0,2.455006e+00,2.455006e+00
7.954400e-01,5.667100e-02,4.982948e-02,3,0,3.968519e+00,3.968523e+00
7.949210e-01,5.713300e-02,5.102158e-02,3,0,6.119308e+00,6.119313e+00
7.947580e-01,5.734500e-02,5.078316e-02,3,0,4.278523e+00,4.278521e+00
7.954060e-01,1.198380e-01,1.130104e-01,3,1,5.068578e+00,5.068333e+00
1.054751e+00,1.178550e-01,1.108646e-01,4,1,2.274826e+00,2.274823e+00
7.960120e-01,5.764600e-02,5.102158e-02,3,0,2.477333e+00,2.477334e+00
7.950890e-01,5.773000e-02,5.102158e-02,3,0,2.541243e+00,2.541244e+00
7.939600e-01,5.715300e-02,5.006790e-02,3,0,1.803083e+00,1.803083e+00
7.884480e-01,5.742500e-02,5.078316e-02,3,0,1.864154e+00,1.864154e+00
7.940200e-01,5.714900e-02,5.102158e-02,3,0,2.382283e+00,2.382284e+00
7.948380e-01,5.722300e-02,5.006790e-02,3,0,2.542669e+00,2.542669e+00
7.944170e-01,5.764200e-02,5.102158e-02,3,0,2.697453e+00,2.697454e+00
7.951860e-01,5.710300e-02,5.078316e-02,3,0,2.732533e+00,2.732534e+00
7.947900e-01,5.724800e-02,5.102158e-02,3,0,3.225733e+00,3.225734e+00
7.951650e-01,5.702900e-02,4.982948e-02,3,0,4.639273e+00,4.639276e+00
7.892800e-01,5.735100e-02,5.102158e-02,3,0,3.460144e+00,3.460143e+00
7.896020e-01,6.244600e-02,5.602837e-02,3,0,3.398097e+00,3.398098e+00
7.951630e-01,5.734300e-02,5.102158e-02,3,0,3.052349e+00,3.052349e+00
7.949180e-01,5.707100e-02,5.102158e-02,3,0,1.620253e+00,1.620252e+00
7.946150e-01,5.693800e-02,5.006790e-02,3,0,2.298991e+00,2.298993e+00
8.295560e-01,5.733900e-02,5.078316e-02,3,0,1.924072e+00,1.924072e+00
7.950640e-01,5.772900e-02,5.102158e-02,3,0,1.552300e+00,1.552300e+00
7.939380e-01,5.691700e-02,5.102158e-02,3,0,1.426329e+00,1.426329e+00
7.888340e-01,5.692000e-02,5.102158e-02,3,0,2.432690e+00,2.432693e+00
7.942070e-01,5.713800e-02,5.078316e-02,3,0,3.818957e+00,3.818960e+00
7.948530e-01,5.736000e-02,5.102158e-02,3,0,5.342808e+00,5.342811e+00
8.007680e-01,3.048060e-01,2.989769e-01,3,3,8.007202e+00,8.022192e+00
7.939720e-01,3.852390e-01,3.778934e-01,3,4,7.407870e+00,7.421742e+00
7.991640e-01,3.614920e-01,3.550053e-01,3,4,5.837881e+00,5.841234e+00
7.900030e-01,1.283340e-01,1.218319e-01,3,1,4.566741e+00,4.566740e+00
7.891720e-01,6.382800e-02,5.793571e-02,3,0,3.473572e+00,3.473572e+00
7.896240e-01,2.209780e-01,2.140999e-01,3,2,4.502647e+00,4.512369e+00
7.900140e-01,2.014150e-01,1.947880e-01,3,2,3.657851e+00,3.657850e+00
7.883260e-01,1.218400e-01,1.158714e-01,3,1,4.215314e+00,4.214664e+00
1.842881e+00,1.192400e-01,1.130104e-01,7,1,4.593059e+00,4.580625e+00
1.053895e+00,5.857900e-02,5.102158e-02,4,0,2.497557e+00,2.497556e+00
7.944570e-01,5.789900e-02,5.197525e-02,3,0,2.133626e+00,2.133627e+00
7.945620e-01,5.834700e-02,5.197525e-02,3,0,2.617786e+00,2.617788e+00
7.949450e-01,5.832000e-02,5.197525e-02,3,0,2.914690e+00,2.914691e+00
7.954170e-01,5.825800e-02,5.197525e-02,3,0,2.223575e+00,2.223575e+00
7.949740e-01,5.783900e-02,5.102158e-02,3,0,2.503944e+00,2.503945e+00
7.943870e-01,5.800400e-02,5.102158e-02,3,0,1.777513e+00,1.777513e+00
7.885340e-01,5.765900e-02,5.102158e-02,3,0,1.624392e+00,1.624393e+00
7.945430e-01,5.788800e-02,5.197525e-02,3,0,1.363900e+00,1.363901e+00
7.941700e-01,5.825400e-02,5.197525e-02,3,0,1.328357e+00,1.328358e+00
7.947500e-01,5.783200e-02,5.197525e-02,3,0,1.974501e+00,1.974502e+00
7.976080e-01,5.774500e-02,5.221367e-02,3,0,2.126135e+00,2.126136e+00
7.954180e-01,5.828300e-02,5.197525e-02,3,0,2.027877e+00,2.027878e+00
7.948640e-01,5.749500e-02,5.102158e-02,3,0,1.623192e+00,1.623193e+00
7.882870e-01,5.818400e-02,5.197525e-02,3,0,1.517089e+00,1.517090e+00
7.889950e-01,6.310000e-02,5.602837e-02,3,0,1.328343e+00,1.328343e+00
7.940130e-01,5.805000e-02,5.102158e-02,3,0,1.522571e+00,1.522572e+00
7.950720e-01,5.792700e-02,5.197525e-02,3,0,1.943279e+00,1.943280e+00
7.951080e-01,5.855300e-02,5.197525e-02,3,0,1.205772e+00,1.205772e+00
7.941440e-01,5.825600e-02,5.197525e-02,3,0,9.240598e-01,9.240598e-01
7.947460e-01,5.817200e-02,5.197525e-02,3,0,1.799914e+00,1.799916e+00
7.890960e-01,5.834000e-02,5.197525e-02,3,0,1.679150e+00,1.679150e+00
7.888850e-01,6.322800e-02,5.698204e-02,3,0,3.642152e+00,3.642156e+00
7.948790e-01,5.776600e-02,5.197525e-02,3,0,2.785940e+00,2.785940e+00
7.945820e-01,5.775800e-02,5.102158e-02,3,0,3.126841e+00,3.126842e+00
7.956610e-01,5.771600e-02,5.078316e-02,3,0,4.228689e+00,4.228691e+00
8.029220e-01,5.796100e-02,5.197525e-02,3,0,3.861128e+00,3.861129e+00
7.954520e-01,5.804100e-02,5.102158e-02,3,0,4.115997e+00,4.115999e+00
7.944520e-01,5.797000e-02,5.102158e-02,3,0,5.705301e+00,5.705304e+00
7.895840e-01,5.787100e-02,5.102158e-02,3,0,4.050924e+00,4.050922e+00
7.942010e-01,5.777300e-02,5.102158e-02,3,0,3.627890e+00,3.627891e+00
7.952180e-01,5.831500e-02,5.197525e-02,3,0,3.448386e+00,3.448387e+00
7.958930e-01,5.777600e-02,5.102158e-02,3,0,2.349688e+00,2.349688e+00
7.947940e-01,5.839400e-02,5.221367e-02,3,0,3.007672e+00,3.007674e+00
7.954220e-01,5.794800e-02,5.102158e-02,3,0,2.631415e+00,2.631415e+00
7.950050e-01,5.794800e-02,5.197525e-02,3,0,2.218170e+00,2.218170e+00
7.896550e-01,5.850700e-02,5.197525e-02,3,0,1.688155e+00,1.688155e+00
7.938280e-01,5.806000e-02,5.102158e-02,3,0,1.533558e+00,1.533559e+00
7.941920e-01,5.825800e-02,5.197525e-02,3,0,1.485565e+00,1.485565e+00
7.949390e-01,5.816900e-02,5.102158e-02,3,0,1.671858e+00,1.671859e+00
7.955290e-01,5.816500e-02,5.197525e-02,3,0,1.855017e+00,1.855017e+00
7.947670e-01,5.802900e-02,5.197525e-02,3,0,1.475156e+00,1.475156e+00
7.948090e-01,5.800400e-02,5.197525e-02,3,0,1.665585e+00,1.665586e+00
7.892330e-01,5.811500e-02,5.102158e-02,3,0,1.467621e+00,1.467622e+00
7.894390e-01,5.806300e-02,5.197525e-02,3,0,2.333417e+00,2.333419e+00
7.947120e-01,5.890600e-02,5.197525e-02,3,0,3.605091e+00,3.605093e+00
7.952830e-01,5.807400e-02,5.102158e-02,3,0,4.568632e+00,4.568634e+00
7.957420e-01,5.805400e-02,5.197525e-02,3,0,4.261223e+00,4.261224e+00
7.959850e-01,5.863800e-02,5.197525e-02,3,0,4.285569e+00,4.285569e+00
7.949800e-01,5.790400e-02,5.197525e-02,3,0,3.905530e+00,3.905530e+00
7.889610e-01,5.843900e-02,5.197525e-02,3,0,3.413203e+00,3.413203e+00
7.888560e-01,6.307100e-02,5.602837e-02,3,0,3.128338e+00,3.128338e+00
7.947180e-01,5.796300e-02,5.197525e-02,3,0,2.988037e+00,2.988022e+00
7.949470e-01,5.842400e-02,5.197525e-02,3,0,3.031119e+00,3.031117e+00
7.957650e-01,5.838400e-02,5.197525e-02,3,0,2.181170e+00,2.181170e+00
7.952700e-01,5.797000e-02,5.197525e-02,3,0,2.614776e+00,2.614777e+00
7.950970e-01,5.817900e-02,5.078316e-02,3,0,2.254792e+00,2.254792e+00
7.939510e-01,5.785500e-02,5.197525e-02,3,0,1.836183e+00,1.836183e+00
7.886100e-01,5.824900e-02,5.078316e-02,3,0,1.411363e+00,1.411363e+00
7.931630e-01,5.756400e-02,5.102158e-02,3,0,1.350339e+00,1.350340e+00
7.937890e-01,5.832600e-02,5.197525e-02,3,0,2.127462e+00,2.127463e+00
7.948720e-01,5.772800e-02,5.102158e-02,3,0,1.830995e+00,1.830995e+00
7.945780e-01,5.783900e-02,5.102158e-02,3,0,1.993370e+00,1.993370e+00
7.949200e-01,5.785100e-02,5.197525e-02,3,0,2.277235e+00,2.277237e+00
7.946270e-01,5.794300e-02,5.197525e-02,3,0,1.177537e+00,1.177537e+00
7.879010e-01,5.810900e-02,5.197525e-02,3,0,9.813271e-01,9.813274e-01
7.938410e-01,5.782200e-02,5.197525e-02,3,0,1.014523e+00,1.014524e+00
7.949070e-01,5.729400e-02,5.102158e-02,3,0,5.392685e-01,5.392687e-01
7.950060e-01,5.789900e-02,5.102158e-02,3,0,4.426792e-01,4.426793e-01
7.954300e-01,5.810300e-02,5.102158e-02,3,0,7.662471e-01,7.662479e-01
7.943390e-01,5.736900e-02,5.102158e-02,3,0,6.333886e-01,6.333887e-01
7.941980e-01,5.812200e-02,5.102158e-02,3,0,1.481482e+00,1.481484e+00
7.889830e-01,5.847800e-02,5.197525e-02,3,0,1.311582e+00,1.311583e+00
7.935160e-01,5.825700e-02,5.102158e-02,3,0,9.149925e-01,9.149925e-01
7.939630e-01,5.816400e-02,5.197525e-02,3,0,9.289488e-01,9.289492e-01
7.945480e-01,5.774400e-02,5.102158e-02,3,0,9.930077e-01,9.930082e-01
7.949340e-01,5.825600e-02,5.197525e-02,3,0,1.162190e+00,1.162190e+00
7.954650e-01,5.800700e-02,5.102158e-02,3,0,8.621851e-01,8.621851e-01
7.947580e-01,5.787500e-02,5.102158e-02,3,0,8.592674e-01,8.592679e-01
7.887280e-01,5.834700e-02,5.197525e-02,3,0,9.540822e-01,9.540827e-01
7.886560e-01,6.661400e-02,5.984306e-02,3,0,9.152085e-01,9.152087e-01
7.936110e-01,5.788900e-02,5.078316e-02,3,0,2.005621e+00,2.005623e+00
7.955750e-01,5.790700e-02,5.102158e-02,3,0,2.233354e+00,2.233355e+00
7.950490e-01,5.796100e-02,5.197525e-02,3,0,2.603931e+00,2.603932e+00
7.945300e-01,5.804000e-02,5.197525e-02,3,0,3.533052e+00,3.533054e+00
7.944020e-01,5.808700e-02,5.197525e-02,3,0,3.124837e+00,3.124838e+00
7.889520e-01,5.791700e-02,5.102158e-02,3,0,3.461928e+00,3.461929e+00
7.889080e-01,6.283100e-02,5.602837e-02,3,0,3.187952e+00,3.187952e+00
7.943360e-01,5.836500e-02,5.221367e-02,3,0,2.933725e+00,2.933725e+00
7.948550e-01,5.845300e-02,5.197525e-02,3,0,3.492194e+00,3.492196e+00
7.946710e-01,5.785900e-02,5.221367e-02,3,0,4.590567e+00,4.590570e+00
7.950830e-01,5.808600e-02,5.197525e-02,3,0,5.112532e+00,5.112534e+00
7.945090e-01,5.813000e-02,5.221367e-02,3,0,4.447342e+00,4.447342e+00
7.881970e-01,5.793600e-02,5.197525e-02,3,0,4.295995e+00,4.295997e+00
7.892490e-01,5.799000e-02,5.102158e-02,3,0,4.191386e+00,4.191387e+00
7.941960e-01,5.830800e-02,5.197525e-02,3,0,3.769928e+00,3.769928e+00
7.947080e-01,5.834300e-02,5.197525e-02,3,0,3.753979e+00,3.753981e+00
7.945080e-01,1.246170e-01,1.177788e-01,3,1,3.421219e+00,3.421010e+00
1.054216e+00,1.196760e-01,1.130104e-01,4,1,2.896835e+00,2.896836e+00
7.947220e-01,5.783500e-02,5.197525e-02,3,0,2.392925e+00,2.392925e+00
7.941120e-01,5.809700e-02,5.197525e-02,3,0,3.622258e+00,3.622261e+00
7.954980e-01,2.832760e-01,2.768040e-01,3,3,5.472756e+00,5.479351e+00
1.846139e+00,1.969850e-01,1.900196e-01,7,2,5.899352e+00,5.892694e+00
1.583169e+00,5.816300e-02,5.197525e-02,6,0,6.115935e+00,6.099753e+00
1.315659e+00,1.189340e-01,1.120567e-01,5,1,7.204726e+00,7.204415e+00
1.058483e+00,1.377360e-01,1.311302e-01,4,1,9.397677e+00,9.397980e+00
7.955480e-01,1.271730e-01,1.211166e-01,3,1,6.575524e+00,6.575520e+00
7.951240e-01,1.394000e-01,1.330376e-01,3,1,8.316423e+00,8.318836e+00
8.010520e-01,1.463810e-01,1.399517e-01,3,1,7.192597e+00,7.214046e+00
7.943970e-01,4.339520e-01,4.279613e-01,3,5,6.453886e+00,6.466453e+00
7.892880e-01,2.118060e-01,2.050400e-01,3,2,5.235356e+00,5.236153e+00
8.002850e-01,3.682450e-01,3.619194e-01,3,4,5.694258e+00,5.695429e+00
1.576994e+00,2.804560e-01,2.739429e-01,6,3,4.836116e+00,4.835967e+00
1.580037e+00,4.154520e-01,4.079342e-01,6,5,5.720423e+00,5.712087e+00
1.325719e+00,3.744280e-01,3.628731e-01,5,5,2.768204e+00,2.765630e+00
7.945000e-01,5.808100e-02,5.102158e-02,3,0,2.548097e+00,2.548074e+00
7.946840e-01,5.760400e-02,5.102158e-02,3,0,3.147424e+00,3.147427e+00
7.946730e-01,5.837600e-02,5.197525e-02,3,0,2.197661e+00,2.197661e+00
7.951380e-01,5.805000e-02,5.197525e-02,3,0,3.088294e+00,3.088295e+00
7.943440e-01,5.856900e-02,5.197525e-02,3,0,3.215869e+00,3.215870e+00
7.893230e-01,1.400140e-01,1.339912e-01,3,1,4.939711e+00,4.947091e+00
7.890270e-01,1.317000e-01,1.249313e-01,3,1,3.018269e+00,3.018267e+00
7.961340e-01,5.792700e-02,5.102158e-02,3,0,3.113265e+00,3.113266e+00
7.949450e-01,5.845900e-02,5.197525e-02,3,0,2.885547e+00,2.885548e+00
7.946080e-01,5.822300e-02,5.197525e-02,3,0,2.765954e+00,2.765954e+00
7.955740e-01,5.785500e-02,5.221367e-02,3,0,2.950658e+00,2.950659e+00
7.959290e-01,1.395180e-01,1.330376e-01,3,1,4.039804e+00,4.039807e+00
7.956740e-01,1.266760e-01,1.199245e-01,3,1,2.786400e+00,2.786400e+00
7.950010e-01,5.767600e-02,5.102158e-02,3,0,2.206831e+00,2.206832e+00
7.882710e-01,5.781200e-02,5.102158e-02,3,0,2.451651e+00,2.451652e+00
7.940520e-01,5.744600e-02,5.102158e-02,3,0,2.519328e+00,2.519328e+00
7.938040e-01,5.830600e-02,5.102158e-02,3,0,2.001430e+00,2.001430e+00
7.947290e-01,5.846700e-02,5.197525e-02,3,0,2.147694e+00,2.147696e+00
7.954870e-01,5.812200e-02,5.197525e-02,3,0,2.812806e+00,2.812808e+00
7.944010e-01,5.800700e-02,5.197525e-02,3,0,3.675509e+00,3.675511e+00
7.946180e-01,5.796000e-02,5.197525e-02,3,0,6.007857e+00,6.007861e+00
7.944940e-01,1.397900e-01,1.330376e-01,3,1,7.789494e+00,7.789577e+00
7.896960e-01,1.268540e-01,1.199245e-01,3,1,6.328865e+00,6.328864e+00
7.896930e-01,6.443500e-02,5.817413e-02,3,0,7.586266e+00,7.586270e+00
7.957780e-01,1.404170e-01,1.339912e-01,3,1,5.909374e+00,5.910709e+00
7.945350e-01,1.263200e-01,1.199245e-01,3,1,4.473771e+00,4.473770e+00
7.952410e-01,1.379660e-01,1.318455e-01,3,1,5.146766e+00,5.167306e+00
7.957100e-01,1.266120e-01,1.199245e-01,3,1,3.941951e+00,3.941951e+00
7.953330e-01,5.723900e-02,5.102158e-02,3,0,3.163595e+00,3.163597e+00
7.956960e-01,5.842500e-02,5.221367e-02,3,0,2.100495e+00,2.100494e+00
7.954520e-01,5.769400e-02,5.102158e-02,3,0,1.958993e+00,1.958994e+00
7.949700e-01,5.782300e-02,5.197525e-02,3,0,1.860498e+00,1.860498e+00
7.897440e-01,5.827100e-02,5.197525e-02,3,0,2.491525e+00,2.491526e+00
7.951030e-01,5.814800e-02,5.102158e-02,3,0,1.118816e+00,1.118815e+00
7.949880e-01,5.801800e-02,5.197525e-02,3,0,2.734525e+00,2.734529e+00
7.955610e-01,2.021130e-01,1.950264e-01,3,2,5.159402e+00,5.164292e+00
1.850170e+00,1.873020e-01,1.800060e-01,7,2,3.059235e+00,3.058708e+00
7.948590e-01,5.747000e-02,5.102158e-02,3,0,2.016788e+00,2.016787e+00
7.956550e-01,5.742000e-02,5.102158e-02,3,0,2.082794e+00,2.082795e+00
7.954250e-01,5.804600e-02,5.102158e-02,3,0,2.003212e+00,2.003212e+00
7.955160e-01,5.785800e-02,5.197525e-02,3,0,1.854253e+00,1.854254e+00
7.881230e-01,5.779100e-02,5.078316e-02,3,0,2.630193e+00,2.630195e+00
7.886580e-01,6.279400e-02,5.602837e-02,3,0,2.160530e+00,2.160530e+00
7.945200e-01,5.835700e-02,5.197525e-02,3,0,1.642397e+00,1.642397e+00
7.948110e-01,5.805000e-02,5.221367e-02,3,0,1.794676e+00,1.794677e+00
7.955150e-01,1.209050e-01,1.149178e-01,3,1,3.246681e+00,3.246541e+00
1.583065e+00,5.863000e-02,5.197525e-02,6,0,5.106671e+00,5.089005e+00
1.845918e+00,1.392910e-01,1.327991e-01,7,1,8.574018e+00,8.568838e+00
1.315842e+00,2.859470e-01,2.789497e-01,5,3,1.002274e+01,1.003696e+01
1.061127e+00,3.035110e-01,2.970695e-01,4,3,9.425961e+00,9.573463e+00
7.962730e-01,2.880710e-01,2.808571e-01,3,3,1.023035e+01,1.031003e+01
7.955030e-01,2.854580e-01,2.789497e-01,3,3,9.147323e+00,9.155772e+00
7.995570e-01,4.440190e-01,4.370213e-01,3,5,9.796306e+00,9.811156e+00
1.063820e+00,5.256750e-01,5.190372e-01,4,6,9.621782e+00,9.630942e+00
1.596264e+00,3.485720e-01,3.421307e-01,6,4,8.091302e+00,8.106953e+00
1.579788e+00,2.019920e-01,1.950264e-01,6,2,7.219551e+00,7.255506e+00
1.580918e+00,1.417970e-01,1.349449e-01,6,1,5.846923e+00,5.853256e+00
1.065284e+00,3.605720e-01,3.540516e-01,4,4,5.657363e+00,5.666514e+00
1.585863e+00,3.454670e-01,3.390312e-01,6,4,5.912424e+00,5.963258e+00
1.588395e+00,4.288910e-01,4.220009e-01,6,5,7.298653e+00,7.459189e+00
1.587604e+00,3.929160e-01,3.829002e-01,6,1,1.216031e+01,1.479797e+01
1.583949e+00,3.121880e-01,3.030300e-01,6,0,1.380437e+01,1.640118e+01
2.114539e+00,3.165520e-01,3.073215e-01,8,0,1.548385e+01,1.658334e+01
1.586797e+00,3.119040e-01,3.027916e-01,6,0,1.408666e+01,1.355197e+01
1.592226e+00,3.113570e-01,3.027916e-01,6,0,1.510060e+01,1.398377e+01
1.061395e+00,3.106330e-01,3.020763e-01,4,0,1.825347e+01,1.920575e+01
1.322682e+00,1.463411e+00,1.455069e+00,5,16,1.738369e+01,1.967052e+01
1.582940e+00,8.115530e-01,8.041859e-01,6,7,1.563716e+01,1.611281e+01
1.584459e+00,3.188010e-01,3.108978e-01,6,0,1.382023e+01,1.409865e+01
1.581646e+00,3.169120e-01,3.089905e-01,6,0,1.259986e+01,1.269417e+01
1.084314e+00,5.829610e-01,5.736351e-01,4,4,1.102046e+01,1.214309e+01
1.588966e+00,3.090510e-01,3.030300e-01,6,0,1.019029e+01,1.248196e+01
1.584451e+00,8.782970e-01,8.699894e-01,6,8,1.091349e+01,1.520440e+01
1.583907e+00,8.142900e-01,8.051395e-01,6,7,7.920284e+00,8.713087e+00
1.578685e+00,2.667720e-01,2.601147e-01,6,3,7.265713e+00,7.507928e+00
1.586657e+00,5.002340e-01,4.928112e-01,6,6,7.525616e+00,7.653167e+00
1.584509e+00,3.411490e-01,3.349781e-01,6,4,6.242123e+00,6.246251e+00
1.056089e+00,2.095820e-01,2.031326e-01,4,2,5.391051e+00,5.395265e+00
1.843134e+00,1.266890e-01,1.199245e-01,7,1,5.078479e+00,5.072240e+00
1.056407e+00,1.185250e-01,1.118183e-01,4,1,4.060099e+00,4.060096e+00
7.958100e-01,5.783000e-02,5.197525e-02,3,0,1.990783e+00,1.990783e+00
7.947170e-01,5.789400e-02,5.197525e-02,3,0,2.070152e+00,2.070153e+00
7.893480e-01,5.813200e-02,5.197525e-02,3,0,2.285529e+00,2.285530e+00
7.895750e-01,7.101000e-02,6.413460e-02,3,0,2.377009e+00,2.377010e+00
7.951440e-01,5.794800e-02,5.197525e-02,3,0,2.379837e+00,2.379838e+00
7.952640e-01,5.806000e-02,5.197525e-02,3,0,1.665998e+00,1.665998e+00
7.955050e-01,5.787600e-02,5.197525e-02,3,0,2.402465e+00,2.402467e+00
7.950630e-01,5.767000e-02,5.102158e-02,3,0,3.570747e+00,3.570749e+00
7.953570e-01,5.813200e-02,5.221367e-02,3,0,4.046288e+00,4.046290e+00
7.941670e-01,5.741000e-02,5.102158e-02,3,0,3.646139e+00,3.646140e+00
7.895410e-01,5.813200e-02,5.102158e-02,3,0,3.447836e+00,3.447837e+00
7.941520e-01,5.823200e-02,5.102158e-02,3,0,3.307715e+00,3.307716e+00
7.944410e-01,5.825200e-02,5.197525e-02,3,0,3.260138e+00,3.260138e+00
7.951620e-01,5.771800e-02,5.102158e-02,3,0,2.620375e+00,2.620376e+00
7.950220e-01,5.807200e-02,5.197525e-02,3,0,2.829010e+00,2.829010e+00
7.951880e-01,1.391600e-01,1.330376e-01,3,1,5.565123e+00,5.577026e+00
7.972820e-01,3.712690e-01,3.650188e-01,3,4,7.030485e+00,7.070009e+00
1.591761e+00,5.258680e-01,5.161762e-01,6,3,8.564257e+00,9.831347e+00
1.580882e+00,2.813870e-01,2.748966e-01,6,3,7.678077e+00,7.721222e+00
1.843125e+00,2.154720e-01,2.090931e-01,7,2,6.771391e+00,6.823895e+00
1.056197e+00,2.060450e-01,2.000332e-01,4,2,5.895535e+00,5.895690e+00
7.945520e-01,1.279560e-01,1.220703e-01,3,1,4.914702e+00,4.914702e+00
7.953450e-01,1.831770e-01,1.771450e-01,3,2,5.071329e+00,5.069817e+00
1.582152e+00,2.596350e-01,2.529621e-01,6,3,4.700332e+00,4.694556e+00
1.582274e+00,2.672310e-01,2.610683e-01,6,3,4.346733e+00,4.336000e+00
1.581177e+00,1.800200e-01,1.740456e-01,6,2,4.858864e+00,4.837345e+00
1.577083e+00,5.803300e-02,5.102158e-02,6,0,5.835149e+00,5.820985e+00
1.323089e+00,1.184850e-01,1.118183e-01,5,1,6.525754e+00,6.519877e+00
1.318332e+00,1.179780e-01,1.118183e-01,5,1,7.801938e+00,7.801918e+00
7.943830e-01,5.781700e-02,5.102158e-02,3,0,6.628641e+00,6.628640e+00
7.959900e-01,5.769300e-02,5.197525e-02,3,0,8.778428e+00,8.778434e+00
7.951910e-01,5.786400e-02,5.197525e-02,3,0,8.946025e+00,8.946027e+00
7.956610e-01,5.764700e-02,5.102158e-02,3,0,7.906368e+00,7.906368e+00
7.948740e-01,5.757100e-02,5.102158e-02,3,0,7.196097e+00,7.196098e+00
8.035560e-01,2.977660e-01,2.911091e-01,3,3,7.764534e+00,7.770530e+00
8.002020e-01,4.321820e-01,4.251003e-01,3,5,7.230067e+00,7.235543e+00
7.955790e-01,1.366940e-01,1.301765e-01,3,1,6.192459e+00,6.211466e+00
7.955470e-01,2.917020e-01,2.851486e-01,3,3,5.242743e+00,5.253400e+00
1.846399e+00,4.199780e-01,4.141331e-01,7,5,3.744005e+00,3.738164e+00
1.056936e+00,2.078180e-01,2.009869e-01,4,2,3.311607e+00,3.311772e+00
1.056107e+00,1.341070e-01,1.270771e-01,4,1,2.183971e+00,2.183961e+00
7.946060e-01,5.787400e-02,5.078316e-02,3,0,1.462304e+00,1.462297e+00
7.896450e-01,5.820700e-02,5.197525e-02,3,0,1.584626e+00,1.584626e+00
7.941300e-01,5.773400e-02,5.197525e-02,3,0,2.097501e+00,2.097502e+00
7.955420e-01,5.805700e-02,5.102158e-02,3,0,1.451960e+00,1.451960e+00
7.949390e-01,5.745300e-02,5.102158e-02,3,0,1.841211e+00,1.841212e+00
7.949330e-01,5.775900e-02,5.102158e-02,3,0,1.945730e+00,1.945730e+00
7.948680e-01,5.770400e-02,5.102158e-02,3,0,1.790305e+00,1.790306e+00
7.951450e-01,5.750300e-02,5.102158e-02,3,0,1.817844e+00,1.817844e+00
7.887860e-01,5.771600e-02,5.102158e-02,3,0,2.031074e+00,2.031075e+00
7.902380e-01,5.809700e-02,5.102158e-02,3,0,1.875204e+00,1.875204e+00
7.943270e-01,5.754200e-02,5.102158e-02,3,0,1.529072e+00,1.529073e+00
7.957890e-01,5.776500e-02,5.221367e-02,3,0,2.085934e+00,2.085935e+00
7.952810e-01,5.762500e-02,5.102158e-02,3,0,2.067874e+00,2.067874e+00
7.947300e-01,5.748000e-02,5.102158e-02,3,0,2.175335e+00,2.175336e+00
7.945810e-01,5.766900e-02,5.102158e-02,3,0,2.007302e+00,2.007302e+00
7.885390e-01,5.780500e-02,5.197525e-02,3,0,2.966648e+00,2.966650e+00
7.890730e-01,6.291300e-02,5.602837e-02,3,0,2.841148e+00,2.841148e+00
8.201760e-01,5.774000e-02,5.102158e-02,3,0,2.393067e+00,2.393067e+00
8.211880e-01,5.965200e-02,5.292892e-02,3,0,1.803911e+00,1.803911e+00
7.947410e-01,5.820800e-02,5.221367e-02,3,0,2.764925e+00,2.764927e+00
7.959780e-01,5.816800e-02,5.102158e-02,3,0,2.640770e+00,2.640770e+00
7.957230e-01,5.788800e-02,5.102158e-02,3,0,1.918041e+00,1.918040e+00
7.944710e-01,5.759600e-02,5.078316e-02,3,0,1.888256e+00,1.888257e+00
7.884550e-01,5.776800e-02,5.197525e-02,3,0,1.693855e+00,1.693856e+00
7.946670e-01,5.737200e-02,5.102158e-02,3,0,1.928967e+00,1.928968e+00
7.946320e-01,5.782900e-02,5.102158e-02,3,0,2.706847e+00,2.706848e+00
8.201510e-01,5.757400e-02,5.102158e-02,3,0,2.874555e+00,2.874556e+00
7.965610e-01,5.846300e-02,5.197525e-02,3,0,2.797974e+00,2.797975e+00
7.939150e-01,5.805800e-02,5.102158e-02,3,0,3.941334e+00,3.941337e+00
7.938640e-01,5.780100e-02,5.102158e-02,3,0,4.567673e+00,4.567674e+00
7.894640e-01,5.746900e-02,5.102158e-02,3,0,3.291151e+00,3.291150e+00
8.005690e-01,7.569300e-02,6.914139e-02,3,0,2.677025e+00,2.677025e+00
7.950570e-01,5.793700e-02,5.102158e-02,3,0,2.876605e+00,2.876606e+00
7.950280e-01,5.757300e-02,5.102158e-02,3,0,2.351866e+00,2.351866e+00
7.950100e-01,5.744700e-02,5.102158e-02,3,0,1.867592e+00,1.867592e+00
8.207090e-01,5.773300e-02,5.102158e-02,3,0,2.564866e+00,2.564867e+00
7.960610e-01,5.815100e-02,5.102158e-02,3,0,2.737124e+00,2.737125e+00
7.940540e-01,5.757000e-02,5.102158e-02,3,0,2.141108e+00,2.141108e+00
7.890920e-01,5.759000e-02,5.102158e-02,3,0,2.867944e+00,2.867946e+00
7.942680e-01,5.736500e-02,5.102158e-02,3,0,1.975932e+00,1.975931e+00
7.939390e-01,5.763600e-02,5.102158e-02,3,0,2.148474e+00,2.148474e+00
7.948840e-01,5.783300e-02,5.078316e-02,3,0,2.114130e+00,2.114130e+00
7.938890e-01,5.753800e-02,5.102158e-02,3,0,2.473750e+00,2.473751e+00
7.942400e-01,5.795100e-02,5.102158e-02,3,0,2.220506e+00,2.220506e+00
7.941060e-01,5.800400e-02,5.197525e-02,3,0,2.322423e+00,2.322424e+00
7.886980e-01,5.761200e-02,5.102158e-02,3,0,1.825783e+00,1.825783e+00
7.941140e-01,5.760500e-02,5.102158e-02,3,0,1.652132e+00,1.652132e+00
7.948910e-01,5.956200e-02,5.292892e-02,3,0,1.969687e+00,1.969687e+00
7.942560e-01,5.763800e-02,5.102158e-02,3,0,1.885468e+00,1.885468e+00
7.950330e-01,5.746700e-02,5.102158e-02,3,0,2.503962e+00,2.503963e+00
7.945360e-01,5.735900e-02,5.102158e-02,3,0,1.995302e+00,1.995302e+00
7.942930e-01,5.753000e-02,5.102158e-02,3,0,1.526293e+00,1.526294e+00
7.889990e-01,5.760000e-02,5.102158e-02,3,0,1.267565e+00,1.267565e+00
7.889310e-01,6.239300e-02,5.602837e-02,3,0,1.170402e+00,1.170402e+00
7.940600e-01,5.792900e-02,5.102158e-02,3,0,1.167621e+00,1.167621e+00
7.947490e-01,5.770200e-02,5.102158e-02,3,0,1.770381e+00,1.770383e+00
7.951850e-01,5.815300e-02,5.102158e-02,3,0,1.519057e+00,1.519057e+00
7.945320e-01,5.745600e-02,5.102158e-02,3,0,1.728503e+00,1.728504e+00
7.948140e-01,5.763400e-02,5.102158e-02,3,0,1.602183e+00,1.602183e+00
7.889050e-01,5.783600e-02,5.221367e-02,3,0,1.392266e+00,1.392266e+00
7.890500e-01,6.334800e-02,5.698204e-02,3,0,1.729262e+00,1.729263e+00
7.946120e-01,5.785500e-02,5.102158e-02,3,0,2.235150e+00,2.235151e+00
7.958390e-01,5.733700e-02,5.078316e-02,3,0,2.576544e+00,2.576545e+00
7.947010e-01,5.764600e-02,5.102158e-02,3,0,1.628819e+00,1.628819e+00
7.944430e-01,5.770200e-02,5.197525e-02,3,0,2.108230e+00,2.108231e+00
7.954890e-01,5.767300e-02,5.102158e-02,3,0,1.666254e+00,1.666254e+00
7.945510e-01,5.744600e-02,5.078316e-02,3,0,1.557765e+00,1.557766e+00
7.890430e-01,5.804800e-02,5.102158e-02,3,0,1.721628e+00,1.721628e+00
7.948050e-01,5.745200e-02,5.102158e-02,3,0,1.539845e+00,1.539846e+00
7.944040e-01,5.773100e-02,5.197525e-02,3,0,1.166276e+00,1.166276e+00
7.949010e-01,5.766800e-02,5.102158e-02,3,0,1.380908e+00,1.380909e+00
7.950620e-01,5.757200e-02,5.102158e-02,3,0,8.373372e-01,8.373372e-01
7.947850e-01,5.798300e-02,5.102158e-02,3,0,8.652590e-01,8.652597e-01
7.940820e-01,5.783100e-02,5.102158e-02,3,0,6.799163e-01,6.799164e-01
7.886630e-01,5.724600e-02,5.102158e-02,3,0,7.864041e-01,7.864047e-01
7.943010e-01,5.772900e-02,5.102158e-02,3,0,1.031856e+00,1.031857e+00
7.935340e-01,5.767800e-02,5.197525e-02,3,0,8.944607e-01,8.944610e-01
7.950440e-01,5.729600e-02,5.102158e-02,3,0,2.480148e+00,2.480125e+00
1.058012e+00,2.103880e-01,2.031326e-01,4,2,4.774719e+00,4.783034e+00
1.322576e+00,1.967750e-01,1.909733e-01,5,2,3.761604e+00,3.761383e+00
7.950990e-01,5.809000e-02,5.102158e-02,3,0,2.660128e+00,2.660125e+00
7.890100e-01,5.763100e-02,5.197525e-02,3,0,1.812431e+00,1.812431e+00
7.890710e-01,6.291500e-02,5.197525e-02,3,0,2.224166e+00,2.224167e+00
7.942620e-01,5.763700e-02,5.221367e-02,3,0,1.797202e+00,1.797202e+00
7.945120e-01,5.760200e-02,5.102158e-02,3,0,1.887202e+00,1.887203e+00
7.958630e-01,5.748600e-02,5.102158e-02,3,0,2.215105e+00,2.215106e+00
7.944110e-01,5.749900e-02,5.102158e-02,3,0,2.486269e+00,2.486270e+00
7.943370e-01,5.774800e-02,5.102158e-02,3,0,2.175349e+00,2.175349e+00
7.969060e-01,5.706900e-02,5.102158e-02,3,0,2.495654e+00,2.495656e+00
7.895430e-01,5.792300e-02,5.078316e-02,3,0,3.203973e+00,3.203974e+00
7.942610e-01,5.762400e-02,5.102158e-02,3,0,2.845022e+00,2.845022e+00
7.946540e-01,5.783200e-02,5.197525e-02,3,0,2.249232e+00,2.249231e+00
7.955400e-01,5.762400e-02,5.102158e-02,3,0,1.614840e+00,1.614840e+00
7.956810e-01,5.792000e-02,5.197525e-02,3,0,1.327046e+00,1.327046e+00
7.940490e-01,5.758000e-02,5.102158e-02,3,0,1.116158e+00,1.116158e+00
7.945750e-01,5.757000e-02,5.102158e-02,3,0,1.630427e+00,1.630428e+00
7.890440e-01,5.773900e-02,5.102158e-02,3,0,1.224435e+00,1.224435e+00
7.951470e-01,5.772100e-02,5.102158e-02,3,0,1.549808e+00,1.549808e+00
7.934090e-01,5.772000e-02,5.102158e-02,3,0,1.428276e+00,1.428276e+00
7.949420e-01,5.785000e-02,5.078316e-02,3,0,1.647991e+00,1.647991e+00
7.949340e-01,5.777900e-02,5.102158e-02,3,0,2.263045e+00,2.263046e+00
7.949970e-01,5.765700e-02,5.078316e-02,3,0,1.964371e+00,1.964371e+00
7.947290e-01,5.762000e-02,5.102158e-02,3,0,1.665065e+00,1.665065e+00
7.889230e-01,5.764800e-02,5.078316e-02,3,0,2.479846e+00,2.479849e+00
7.893660e-01,5.758600e-02,5.197525e-02,3,0,2.559614e+00,2.559615e+00
7.942780e-01,5.769100e-02,5.102158e-02,3,0,1.395358e+00,1.395357e+00
7.944370e-01,5.793300e-02,5.197525e-02,3,0,1.489859e+00,1.489860e+00
7.946090e-01,5.770000e-02,5.102158e-02,3,0,1.666374e+00,1.666375e+00
7.943300e-01,5.787500e-02,5.078316e-02,3,0,1.828933e+00,1.828933e+00
7.956780e-01,5.786100e-02,5.197525e-02,3,0,1.399468e+00,1.399468e+00
7.891690e-01,5.778300e-02,5.078316e-02,3,0,1.158725e+00,1.158725e+00
7.897580e-01,6.274700e-02,5.698204e-02,3,0,1.474663e+00,1.474663e+00
7.948570e-01,5.747400e-02,5.102158e-02,3,0,2.003372e+00,2.003373e+00
7.949040e-01,5.758500e-02,5.102158e-02,3,0,2.322817e+00,2.322817e+00
7.952930e-01,5.773400e-02,5.197525e-02,3,0,1.817265e+00,1.817265e+00
7.949540e-01,5.758000e-02,5.102158e-02,3,0,1.874526e+00,1.874527e+00
7.944790e-01,5.752800e-02,5.197525e-02,3,0,1.693972e+00,1.693972e+00
7.888560e-01,5.785600e-02,5.102158e-02,3,0,2.282652e+00,2.282653e+00
7.889470e-01,5.821000e-02,5.102158e-02,3,0,2.684286e+00,2.684287e+00
7.937690e-01,5.766600e-02,5.102158e-02,3,0,3.679943e+00,3.679945e+00
7.947510e-01,6.444000e-02,5.793571e-02,3,0,3.506583e+00,3.506584e+00
7.934460e-01,1.206840e-01,1.139641e-01,3,1,5.280017e+00,5.279760e+00
1.054127e+00,1.181120e-01,1.108646e-01,4,1,2.901809e+00,2.901806e+00
7.954440e-01,5.776300e-02,5.197525e-02,3,0,2.791306e+00,2.791306e+00
7.949510e-01,5.784100e-02,5.102158e-02,3,0,3.252010e+00,3.252012e+00
7.953300e-01,5.781000e-02,5.102158e-02,3,0,3.315821e+00,3.315822e+00
7.969170e-01,5.775000e-02,5.197525e-02,3,0,3.506553e+00,3.506554e+00
7.942570e-01,5.746800e-02,5.102158e-02,3,0,3.356558e+00,3.356558e+00
7.892080e-01,5.733400e-02,5.102158e-02,3,0,2.528903e+00,2.528902e+00
7.942240e-01,5.717200e-02,5.102158e-02,3,0,3.041811e+00,3.041812e+00
7.954580e-01,5.734300e-02,5.102158e-02,3,0,2.670955e+00,2.670955e+00
7.954550e-01,5.751900e-02,5.102158e-02,3,0,1.827527e+00,1.827527e+00
7.942150e-01,5.753500e-02,5.102158e-02,3,0,1.522044e+00,1.522044e+00
7.949100e-01,5.733500e-02,5.102158e-02,3,0,1.524727e+00,1.524728e+00
7.940960e-01,5.750700e-02,5.102158e-02,3,0,1.424028e+00,1.424029e+00
7.884410e-01,5.773700e-02,5.102158e-02,3,0,1.286875e+00,1.286875e+00
7.935930e-01,5.769300e-02,5.102158e-02,3,0,1.436565e+00,1.436566e+00
7.949280e-01,5.768800e-02,5.102158e-02,3,0,1.632984e+00,1.632985e+00
7.948870e-01,5.762500e-02,5.102158e-02,3,0,2.837291e+00,2.837293e+00
7.944570e-01,5.734900e-02,5.102158e-02,3,0,2.167057e+00,2.167059e+00
7.951540e-01,5.772300e-02,5.221367e-02,3,0,2.871060e+00,2.871062e+00
7.952240e-01,5.784400e-02,5.102158e-02,3,0,1.569096e+00,1.569095e+00
7.894730e-01,5.751600e-02,5.102158e-02,3,0,1.496851e+00,1.496852e+00
7.942360e-01,5.759800e-02,5.102158e-02,3,0,1.149647e+00,1.149647e+00
7.943950e-01,5.779300e-02,5.197525e-02,3,0,8.732170e-01,8.732173e-01
7.941450e-01,5.733100e-02,5.102158e-02,3,0,1.659078e+00,1.659080e+00
7.951640e-01,5.819600e-02,5.102158e-02,3,0,1.925224e+00,1.925225e+00
7.945130e-01,5.766300e-02,5.197525e-02,3,0,2.817887e+00,2.817888e+00
7.944540e-01,5.792200e-02,5.102158e-02,3,0,2.754762e+00,2.754762e+00
7.889930e-01,5.785900e-02,5.102158e-02,3,0,2.781997e+00,2.781997e+00
7.885480e-01,5.760200e-02,5.197525e-02,3,0,4.362834e+00,4.362837e+00
7.938550e-01,5.750100e-02,5.102158e-02,3,0,4.859261e+00,4.859263e+00
7.954910e-01,5.774600e-02,5.102158e-02,3,0,3.831587e+00,3.831587e+00
7.951120e-01,5.788200e-02,5.197525e-02,3,0,3.561611e+00,3.561612e+00
7.955320e-01,5.769500e-02,5.197525e-02,3,0,4.736139e+00,4.736143e+00
7.960420e-01,5.771600e-02,5.102158e-02,3,0,3.264612e+00,3.264612e+00
7.884890e-01,5.769800e-02,5.078316e-02,3,0,2.808606e+00,2.808607e+00
7.894000e-01,6.262900e-02,5.602837e-02,3,0,2.685665e+00,2.685666e+00
7.945260e-01,5.796200e-02,5.102158e-02,3,0,2.725045e+00,2.725046e+00
8.208720e-01,5.820200e-02,5.221367e-02,3,0,2.645758e+00,2.645758e+00
7.959470e-01,5.813300e-02,5.197525e-02,3,0,2.394701e+00,2.394702e+00
7.946740e-01,5.780200e-02,5.197525e-02,3,0,2.533945e+00,2.533946e+00
7.954620e-01,5.765200e-02,5.197525e-02,3,0,3.060525e+00,3.060526e+00
8.065060e-01,5.794400e-02,5.102158e-02,3,0,3.662159e+00,3.662161e+00
7.890030e-01,7.026100e-02,6.389618e-02,3,0,2.935457e+00,2.935456e+00
7.940630e-01,5.778600e-02,5.102158e-02,3,0,3.018212e+00,3.018213e+00
7.951940e-01,5.760700e-02,5.102158e-02,3,0,2.485155e+00,2.485155e+00
7.940500e-01,5.762800e-02,5.078316e-02,3,0,2.642244e+00,2.642245e+00

