1.687141e+00,4.078215e+00,3.068924e+00,2,0,0.000000e+00,0.000000e+00
2.617453e+00,7.215740e-01,6.980896e-01,3,0,7.551207e-02,7.551222e-02
2.571445e+00,6.892170e-01,6.721020e-01,3,0,1.395618e-01,1.395621e-01
2.587896e+00,7.380080e-01,7.209778e-01,3,0,2.946821e-01,2.946824e-01
2.530118e+00,7.113430e-01,6.940365e-01,3,0,2.716491e-01,2.716493e-01
2.542643e+00,7.063530e-01,6.887913e-01,3,0,1.276163e+00,1.276165e+00
2.533787e+00,7.011050e-01,6.840229e-01,3,0,1.779659e+00,1.779660e+00
2.534490e+00,7.058220e-01,6.890297e-01,3,0,2.335717e+00,2.335718e+00
2.541683e+00,7.060980e-01,6.878376e-01,3,0,1.148684e+00,1.148683e+00
2.538609e+00,7.049690e-01,6.880760e-01,3,0,1.018458e+00,1.018458e+00
2.541426e+00,7.058490e-01,6.890297e-01,3,0,8.424511e-01,8.424514e-01
2.539521e+00,7.006720e-01,6.840229e-01,3,0,9.746381e-01,9.746388e-01
2.543070e+00,7.058880e-01,6.880760e-01,3,0,1.616748e+00,1.616749e+00
2.548302e+00,7.057130e-01,6.878376e-01,3,0,2.206605e+00,2.206606e+00
2.536752e+00,7.015190e-01,6.840229e-01,3,0,2.022695e+00,2.022695e+00
2.543611e+00,7.055130e-01,6.880760e-01,3,0,2.825370e+00,2.825372e+00
2.557957e+00,7.005470e-01,6.830692e-01,3,0,2.206341e+00,2.206341e+00
2.534632e+00,7.110890e-01,6.940365e-01,3,0,1.931083e+00,1.931084e+00
2.541257e+00,7.056790e-01,6.890297e-01,3,0,1.844832e+00,1.844833e+00
2.535972e+00,7.003530e-01,6.830692e-01,3,0,1.758296e+00,1.758297e+00
2.535749e+00,7.068410e-01,6.899834e-01,3,0,1.840501e+00,1.840502e+00
2.539038e+00,7.058030e-01,6.887913e-01,3,0,1.533949e+00,1.533949e+00
2.535624e+00,7.049460e-01,6.880760e-01,3,0,1.381530e+00,1.381530e+00
2.541165e+00,7.064340e-01,6.890297e-01,3,0,1.204578e+00,1.204578e+00
2.539085e+00,7.011960e-01,6.840229e-01,3,0,1.188899e+00,1.188900e+00
2.533736e+00,7.069450e-01,6.899834e-01,3,0,1.149706e+00,1.149706e+00
2.536835e+00,7.061450e-01,6.880760e-01,3,0,9.518749e-01,9.518752e-01
2.533001e+00,7.013940e-01,6.840229e-01,3,0,6.794426e-01,6.794427e-01
2.540327e+00,7.054020e-01,6.880760e-01,3,0,3.430990e-01,3.430994e-01
2.538002e+00,7.004890e-01,6.830692e-01,3,0,2.960813e-01,2.960814e-01
2.532889e+00,7.070400e-01,6.902218e-01,3,0,5.896082e-01,5.896090e-01
2.537022e+00,7.076410e-01,6.909370e-01,3,0,6.941763e-01,6.941768e-01
2.532562e+00,7.040640e-01,6.868839e-01,3,0,5.984780e-01,5.984781e-01
2.532803e+00,7.080250e-01,6.899834e-01,3,0,9.215422e-01,9.215429e-01
2.538366e+00,7.078510e-01,6.899834e-01,3,0,7.538872e-01,7.538873e-01
2.533886e+00,7.064200e-01,6.890297e-01,3,0,5.559922e-01,5.559922e-01
2.536862e+00,7.067490e-01,6.890297e-01,3,0,4.066877e-01,4.066880e-01
2.538129e+00,7.007510e-01,6.828308e-01,3,0,3.376775e-01,3.376777e-01
2.531243e+00,7.056510e-01,6.890297e-01,3,0,8.606949e-01,8.606958e-01
2.537644e+00,7.057860e-01,6.878376e-01,3,0,9.504755e-01,9.504758e-01
2.532966e+00,7.007610e-01,6.840229e-01,3,0,2.139472e+00,2.139474e+00
2.539697e+00,7.058370e-01,6.880760e-01,3,0,2.927867e+00,2.927868e+00
2.541460e+00,7.003030e-01,6.830692e-01,3,0,1.852336e+00,1.852336e+00
2.547886e+00,7.052940e-01,6.880760e-01,3,0,2.797930e+00,2.797932e+00
2.540556e+00,7.058220e-01,6.887913e-01,3,0,2.235881e+00,2.235881e+00
2.561086e+00,7.008180e-01,6.840229e-01,3,0,1.808745e+00,1.808745e+00
2.533841e+00,7.064930e-01,6.890297e-01,3,0,1.619816e+00,1.619817e+00
2.539729e+00,7.046060e-01,6.871223e-01,3,0,1.344299e+00,1.344299e+00
2.533653e+00,7.318480e-01,7.030964e-01,3,0,1.080028e+00,1.080028e+00
2.538553e+00,7.064090e-01,6.890297e-01,3,0,6.876475e-01,6.876475e-01
2.539891e+00,6.989760e-01,6.811619e-01,3,0,6.177108e-01,6.177111e-01
2.559851e+00,7.040880e-01,6.868839e-01,3,0,9.829241e-01,9.829250e-01
2.539258e+00,7.075700e-01,6.899834e-01,3,0,7.168855e-01,7.168856e-01
2.531753e+00,7.074350e-01,6.902218e-01,3,0,6.110386e-01,6.110386e-01
2.536184e+00,7.052370e-01,6.880760e-01,3,0,8.078120e-01,8.078126e-01
2.537093e+00,6.996050e-01,6.830692e-01,3,0,1.109398e+00,1.109399e+00
2.535315e+00,7.047230e-01,6.880760e-01,3,0,5.988326e-01,5.988325e-01
2.536310e+00,7.063950e-01,6.890297e-01,3,0,9.244311e-01,9.244318e-01
2.533846e+00,7.022810e-01,6.840229e-01,3,0,1.306200e+00,1.306201e+00
2.535754e+00,7.069750e-01,6.890297e-01,3,0,1.969783e+00,1.969784e+00
2.543223e+00,7.121080e-01,6.949902e-01,3,0,8.942506e-01,8.942512e-01
2.535075e+00,7.048470e-01,6.871223e-01,3,0,1.939667e+00,1.939669e+00
2.564409e+00,7.056880e-01,6.878376e-01,3,0,3.653218e+00,3.653220e+00
2.539553e+00,7.009650e-01,6.840229e-01,3,0,1.983767e+00,1.983765e+00
2.535647e+00,7.076830e-01,6.899834e-01,3,0,2.724661e+00,2.724662e+00
2.542729e+00,7.040940e-01,6.871223e-01,3,0,1.182474e+00,1.182474e+00
2.532731e+00,7.044140e-01,6.871223e-01,3,0,1.263765e+00,1.263765e+00
2.538380e+00,7.137210e-01,6.959438e-01,3,0,9.845575e-01,9.845578e-01
2.539290e+00,6.995340e-01,6.818771e-01,3,0,7.762208e-01,7.762211e-01
2.532158e+00,7.055070e-01,6.880760e-01,3,0,5.908730e-01,5.908733e-01
2.537914e+00,7.058390e-01,6.878376e-01,3,0,8.816919e-01,8.816925e-01
2.531920e+00,7.006640e-01,6.830692e-01,3,0,9.003215e-01,9.003218e-01
2.591088e+00,7.220350e-01,7.040501e-01,3,0,9.129582e-01,9.129585e-01
2.624870e+00,7.635670e-01,7.450581e-01,3,0,1.029772e+00,1.029772e+00
2.596237e+00,7.746620e-01,7.560253e-01,3,0,1.502112e+00,1.502113e+00
2.590474e+00,7.357530e-01,7.178783e-01,3,0,2.017965e+00,2.017966e+00
2.649858e+00,7.739260e-01,7.548332e-01,3,0,1.214735e+00,1.214735e+00
2.657691e+00,7.843390e-01,7.650852e-01,3,0,1.209879e+00,1.209879e+00
2.669054e+00,7.383480e-01,7.200241e-01,3,0,8.937082e-01,8.937082e-01
2.634641e+00,7.593100e-01,7.410049e-01,3,0,4.433700e-01,4.433700e-01
2.640302e+00,7.562730e-01,7.269382e-01,3,0,1.527401e+00,1.527403e+00
2.634402e+00,7.318820e-01,7.150173e-01,3,0,1.130284e+00,1.130284e+00
2.636952e+00,7.582930e-01,7.400513e-01,3,0,1.011823e+00,1.011823e+00
2.606359e+00,7.545700e-01,7.369518e-01,3,0,9.740341e-01,9.740347e-01
2.613588e+00,7.210730e-01,7.038116e-01,3,0,1.400936e+00,1.400938e+00
2.606568e+00,7.260450e-01,7.078648e-01,3,0,2.512765e+00,2.512767e+00
2.613862e+00,7.263710e-01,7.081032e-01,3,0,3.760601e+00,3.760603e+00
2.612084e+00,7.254150e-01,7.071495e-01,3,0,5.483404e+00,5.483407e+00
2.613031e+00,2.049228e+00,2.031088e+00,3,1,4.458055e+00,4.458093e+00
2.622582e+00,9.504470e-01,9.319782e-01,3,0,3.182334e+00,3.182334e+00
2.615689e+00,1.907630e+00,1.889944e+00,3,1,2.454084e+00,2.454084e+00
2.613449e+00,7.204380e-01,7.028580e-01,3,0,1.719392e+00,1.719392e+00
2.616539e+00,7.253000e-01,7.071495e-01,3,0,2.433280e+00,2.433282e+00
2.615147e+00,7.215820e-01,7.040501e-01,3,0,1.807898e+00,1.807897e+00
2.611894e+00,7.263210e-01,7.090569e-01,3,0,2.327530e+00,2.327531e+00
2.614695e+00,7.287500e-01,7.109642e-01,3,0,2.510071e+00,2.510072e+00
2.617306e+00,7.273030e-01,7.090569e-01,3,0,1.084534e+00,1.084534e+00
2.613194e+00,7.227990e-01,7.050037e-01,3,0,9.374235e-01,9.374237e-01
2.609480e+00,7.278140e-01,7.100105e-01,3,0,1.319562e+00,1.319563e+00
2.613336e+00,7.266450e-01,7.050037e-01,3,0,1.415893e+00,1.415894e+00
2.610180e+00,7.257970e-01,7.081032e-01,3,0,1.066769e+00,1.066769e+00
2.613192e+00,7.266490e-01,7.081032e-01,3,0,1.238103e+00,1.238104e+00
2.608509e+00,7.257950e-01,7.081032e-01,3,0,7.214983e-01,7.214984e-01
2.611982e+00,7.268000e-01,7.090569e-01,3,0,6.568663e-01,6.568665e-01
2.607628e+00,7.254240e-01,7.069111e-01,3,0,5.438528e-01,5.438529e-01
2.614051e+00,7.266240e-01,7.088184e-01,3,0,5.784206e-01,5.784211e-01
2.605892e+00,7.395600e-01,7.219315e-01,3,0,8.078982e-01,8.078988e-01
2.612892e+00,7.274140e-01,7.100105e-01,3,0,8.817787e-01,8.817790e-01
2.608611e+00,7.273040e-01,7.088184e-01,3,0,5.667896e-01,5.667896e-01
2.609892e+00,7.265990e-01,7.088184e-01,3,0,5.720623e-01,5.720626e-01
2.607535e+00,7.266060e-01,7.090569e-01,3,0,5.279852e-01,5.279854e-01
2.612422e+00,7.259130e-01,7.078648e-01,3,0,4.518007e-01,4.518011e-01
2.608228e+00,7.229310e-01,7.050037e-01,3,0,3.135733e-01,3.135733e-01
2.610696e+00,7.261010e-01,7.078648e-01,3,0,5.541245e-01,5.541251e-01
2.607876e+00,7.220330e-01,7.050037e-01,3,0,2.932881e-01,2.932881e-01
2.609204e+00,7.272740e-01,7.090569e-01,3,0,3.389797e-01,3.389799e-01
2.605028e+00,7.228580e-01,7.050037e-01,3,0,8.799537e-01,8.799547e-01
2.612381e+00,7.273090e-01,7.090569e-01,3,0,6.417433e-01,6.417433e-01
2.607325e+00,7.204710e-01,7.030964e-01,3,0,2.071136e+00,2.071138e+00
2.613611e+00,7.259150e-01,7.078648e-01,3,0,1.435502e+00,1.435502e+00
2.614042e+00,7.205670e-01,7.030964e-01,3,0,1.390172e+00,1.390173e+00
2.616498e+00,7.265180e-01,7.090569e-01,3,0,1.731342e+00,1.731342e+00
2.613854e+00,7.218180e-01,7.040501e-01,3,0,1.563278e+00,1.563278e+00
2.613563e+00,7.258560e-01,7.081032e-01,3,0,1.722311e+00,1.722312e+00
2.613638e+00,7.210260e-01,7.030964e-01,3,0,3.041307e+00,3.041309e+00
2.609494e+00,7.268850e-01,7.090569e-01,3,0,1.973577e+00,1.973576e+00
2.611966e+00,7.260200e-01,7.040501e-01,3,0,1.500037e+00,1.500037e+00
2.608028e+00,7.256040e-01,7.081032e-01,3,0,1.307087e+00,1.307088e+00
2.615350e+00,7.251450e-01,7.069111e-01,3,0,7.837194e-01,7.837198e-01
2.609696e+00,7.263770e-01,7.081032e-01,3,0,8.577160e-01,8.577169e-01
2.612135e+00,7.252850e-01,7.081032e-01,3,0,5.381581e-01,5.381583e-01
2.606390e+00,7.255870e-01,7.071495e-01,3,0,7.102327e-01,7.102332e-01
2.613781e+00,7.246050e-01,7.071495e-01,3,0,3.163724e-01,3.163725e-01
2.606536e+00,7.266010e-01,7.090569e-01,3,0,2.572585e-01,2.572586e-01
2.610570e+00,7.267110e-01,7.088184e-01,3,0,2.640283e-01,2.640284e-01
2.608167e+00,7.263330e-01,7.090569e-01,3,0,5.737766e-01,5.737773e-01
2.620656e+00,7.272040e-01,7.100105e-01,3,0,5.918183e-01,5.918186e-01
2.608468e+00,7.320570e-01,7.138252e-01,3,0,5.015508e-01,5.015509e-01
2.619224e+00,8.224800e-01,8.020401e-01,3,0,5.463000e-01,5.463003e-01
2.611702e+00,7.766240e-01,7.569790e-01,3,0,4.626909e-01,4.626910e-01
2.610964e+00,8.060430e-01,7.848740e-01,3,0,8.631052e-01,8.631059e-01
2.607595e+00,7.285660e-01,7.109642e-01,3,0,1.472359e+00,1.472360e+00
2.614403e+00,7.205750e-01,7.028580e-01,3,0,1.662220e+00,1.662221e+00
2.612430e+00,7.250930e-01,7.069111e-01,3,0,1.301747e+00,1.301747e+00
2.613456e+00,7.254870e-01,7.071495e-01,3,0,1.159393e+00,1.159393e+00
2.608614e+00,7.251030e-01,7.069111e-01,3,0,1.072057e+00,1.072057e+00
2.615050e+00,7.254200e-01,7.069111e-01,3,0,7.684555e-01,7.684555e-01
2.608139e+00,7.241980e-01,7.059574e-01,3,0,6.784200e-01,6.784209e-01
2.619551e+00,7.263100e-01,7.090569e-01,3,0,1.196358e+00,1.196359e+00
2.610089e+00,7.258580e-01,7.081032e-01,3,0,1.709862e+00,1.709863e+00
2.613616e+00,7.246840e-01,7.071495e-01,3,0,1.043956e+00,1.043956e+00
2.610097e+00,7.246210e-01,7.071495e-01,3,0,9.875592e-01,9.875595e-01
2.615029e+00,7.239890e-01,7.069111e-01,3,0,8.865468e-01,8.865470e-01
2.607554e+00,7.229910e-01,7.050037e-01,3,0,8.128633e-01,8.128634e-01
2.617164e+00,7.252500e-01,7.078648e-01,3,0,6.697410e-01,6.697412e-01
2.607773e+00,7.199420e-01,7.019043e-01,3,0,7.530432e-01,7.530437e-01
2.611971e+00,7.249250e-01,7.081032e-01,3,0,1.230949e+00,1.230950e+00
2.606597e+00,7.208260e-01,7.030964e-01,3,0,1.183050e+00,1.183050e+00
2.620490e+00,7.246600e-01,7.071495e-01,3,0,1.252967e+00,1.252968e+00
2.608130e+00,7.194030e-01,7.009506e-01,3,0,1.423242e+00,1.423243e+00
2.620826e+00,7.256660e-01,7.078648e-01,3,0,6.507778e-01,6.507779e-01
2.607690e+00,7.198110e-01,7.019043e-01,3,0,5.206091e-01,5.206093e-01
2.612553e+00,7.247650e-01,7.069111e-01,3,0,5.456153e-01,5.456157e-01
2.612787e+00,7.194600e-01,7.021427e-01,3,0,2.479450e-01,2.479453e-01
2.612932e+00,7.241310e-01,7.059574e-01,3,0,2.496584e-01,2.496585e-01
2.610120e+00,7.197750e-01,7.019043e-01,3,0,4.269923e-01,4.269927e-01
2.604136e+00,7.244420e-01,7.069111e-01,3,0,3.637077e-01,3.637078e-01
2.612107e+00,7.197170e-01,7.019043e-01,3,0,9.785949e-01,9.785964e-01
2.608929e+00,7.255430e-01,7.071495e-01,3,0,7.268645e-01,7.268651e-01
2.611472e+00,7.237810e-01,7.059574e-01,3,0,5.136775e-01,5.136777e-01
2.606675e+00,7.256850e-01,7.081032e-01,3,0,4.576682e-01,4.576684e-01
2.611887e+00,7.255120e-01,7.081032e-01,3,0,4.659260e-01,4.659263e-01
2.603996e+00,7.255460e-01,7.078648e-01,3,0,4.789421e-01,4.789424e-01
2.614278e+00,7.251040e-01,7.071495e-01,3,0,3.020693e-01,3.020694e-01
2.607302e+00,7.252600e-01,7.081032e-01,3,0,3.394993e-01,3.394996e-01
2.613032e+00,7.238650e-01,7.059574e-01,3,0,2.773581e-01,2.773583e-01
2.605292e+00,7.249380e-01,7.069111e-01,3,0,2.395140e-01,2.395141e-01
2.612359e+00,7.235210e-01,7.059574e-01,3,0,6.457983e-01,6.457991e-01
2.607877e+00,7.192120e-01,7.019043e-01,3,0,4.074311e-01,4.074314e-01
2.609926e+00,7.238630e-01,7.059574e-01,3,0,6.452890e-01,6.452895e-01
2.606337e+00,7.185680e-01,7.009506e-01,3,0,1.041436e+00,1.041437e+00
2.613219e+00,7.242040e-01,7.071495e-01,3,0,8.929563e-01,8.929569e-01
2.604655e+00,7.192520e-01,7.009506e-01,3,0,1.012420e+00,1.012420e+00
2.616982e+00,7.253180e-01,7.069111e-01,3,0,7.096702e-01,7.096702e-01
2.610488e+00,7.195940e-01,7.019043e-01,3,0,7.097767e-01,7.097770e-01
2.611632e+00,7.253830e-01,7.078648e-01,3,0,8.114538e-01,8.114543e-01
2.611388e+00,7.200940e-01,7.019043e-01,3,0,1.782571e+00,1.782573e+00
2.611478e+00,7.241990e-01,7.059574e-01,3,0,2.360395e+00,2.360396e+00
2.613213e+00,7.201030e-01,7.019043e-01,3,0,2.091283e+00,2.091283e+00
2.607060e+00,7.238990e-01,7.061958e-01,3,0,1.700505e+00,1.700505e+00
2.612981e+00,7.235530e-01,7.061958e-01,3,0,1.573460e+00,1.573461e+00
2.611916e+00,7.253720e-01,7.081032e-01,3,0,1.068438e+00,1.068438e+00
2.612746e+00,7.246870e-01,7.069111e-01,3,0,1.055489e+00,1.055490e+00
2.610416e+00,7.247230e-01,7.069111e-01,3,0,1.037040e+00,1.037041e+00
2.612162e+00,7.241860e-01,7.069111e-01,3,0,7.956390e-01,7.956391e-01
2.607423e+00,7.245720e-01,7.069111e-01,3,0,7.031923e-01,7.031924e-01
2.615716e+00,7.242710e-01,7.069111e-01,3,0,1.431416e+00,1.431417e+00
2.606865e+00,7.237630e-01,7.059574e-01,3,0,2.982526e+00,2.982529e+00
2.614677e+00,7.237480e-01,7.059574e-01,3,0,3.031351e+00,3.031352e+00
2.609250e+00,7.232880e-01,7.059574e-01,3,0,3.054805e+00,3.054806e+00
2.613463e+00,7.243870e-01,7.069111e-01,3,0,3.560091e+00,3.560092e+00
2.610105e+00,7.190160e-01,7.019043e-01,3,0,5.094643e+00,5.094645e+00
2.616273e+00,7.236010e-01,7.059574e-01,3,0,3.266818e+00,3.266817e+00
2.610332e+00,7.195420e-01,7.021427e-01,3,0,3.985967e+00,3.985969e+00
2.616640e+00,7.229510e-01,7.050037e-01,3,0,3.077070e+00,3.077071e+00
2.610487e+00,7.192930e-01,7.009506e-01,3,0,2.875824e+00,2.875825e+00
2.616517e+00,7.248170e-01,7.078648e-01,3,0,1.974572e+00,1.974572e+00
2.613240e+00,7.190540e-01,7.019043e-01,3,0,2.489595e+00,2.489596e+00
2.614123e+00,7.247410e-01,7.071495e-01,3,0,1.671672e+00,1.671672e+00
2.619694e+00,7.195320e-01,7.021427e-01,3,0,2.163027e+00,2.163028e+00
2.617505e+00,7.246710e-01,7.071495e-01,3,0,7.060781e-01,7.060780e-01
2.613484e+00,7.198280e-01,7.021427e-01,3,0,9.278413e-01,9.278421e-01
2.612029e+00,7.244470e-01,7.059574e-01,3,0,1.801408e+00,1.801410e+00
2.616023e+00,7.194430e-01,7.009506e-01,3,0,1.390233e+00,1.390233e+00
2.610027e+00,7.240370e-01,7.059574e-01,3,0,2.192513e+00,2.192514e+00
2.613995e+00,7.236760e-01,7.059574e-01,3,0,1.943524e+00,1.943524e+00
2.609281e+00,7.243590e-01,7.071495e-01,3,0,3.271265e+00,3.271268e+00
2.614755e+00,7.232580e-01,7.059574e-01,3,0,1.690158e+00,1.690158e+00
2.606327e+00,7.242890e-01,7.071495e-01,3,0,1.412957e+00,1.412957e+00
2.614253e+00,7.252660e-01,7.071495e-01,3,0,1.101828e+00,1.101828e+00
2.607988e+00,7.247290e-01,7.071495e-01,3,0,1.109885e+00,1.109885e+00
2.620451e+00,7.245360e-01,7.059574e-01,3,0,1.180568e+00,1.180569e+00
2.607429e+00,7.246420e-01,7.069111e-01,3,0,1.771000e+00,1.771001e+00
2.616572e+00,7.238140e-01,7.059574e-01,3,0,7.989901e-01,7.989897e-01
2.608754e+00,7.251160e-01,7.081032e-01,3,0,5.277677e-01,5.277678e-01
2.612174e+00,7.252220e-01,7.069111e-01,3,0,5.981907e-01,5.981911e-01
2.605216e+00,7.197630e-01,7.021427e-01,3,0,5.715123e-01,5.715125e-01
2.613205e+00,7.239000e-01,7.061958e-01,3,0,4.452625e-01,4.452625e-01
2.610524e+00,7.195420e-01,7.019043e-01,3,0,7.191414e-01,7.191423e-01
2.612966e+00,7.245600e-01,7.069111e-01,3,0,1.052376e+00,1.052377e+00
2.606478e+00,7.204360e-01,7.030964e-01,3,0,1.601034e+00,1.601035e+00
2.612613e+00,7.249880e-01,7.069111e-01,3,0,3.478601e+00,3.478604e+00
2.615968e+00,7.212920e-01,7.040501e-01,3,0,4.513997e+00,4.513999e+00
2.617624e+00,7.249320e-01,7.071495e-01,3,0,3.065464e+00,3.065464e+00
2.614823e+00,7.200470e-01,7.028580e-01,3,0,3.784548e+00,3.784550e+00
2.615329e+00,7.239530e-01,7.059574e-01,3,0,2.730902e+00,2.730902e+00
2.615747e+00,7.194420e-01,7.021427e-01,3,0,2.168822e+00,2.168822e+00
2.615250e+00,7.237730e-01,7.059574e-01,3,0,2.418014e+00,2.418015e+00
2.616313e+00,7.184270e-01,6.999969e-01,3,0,1.306380e+00,1.306379e+00
2.612310e+00,7.241020e-01,7.069111e-01,3,0,9.994552e-01,9.994563e-01
2.617712e+00,7.243620e-01,7.059574e-01,3,0,7.696679e-01,7.696680e-01
2.608647e+00,7.246560e-01,7.071495e-01,3,0,7.205157e-01,7.205159e-01
2.610778e+00,7.234410e-01,7.059574e-01,3,0,6.833542e-01,6.833544e-01
2.610505e+00,7.235600e-01,7.061958e-01,3,0,1.060752e+00,1.060752e+00
2.616876e+00,7.233620e-01,7.059574e-01,3,0,3.632652e-01,3.632651e-01
2.606307e+00,7.222030e-01,7.050037e-01,3,0,1.456896e+00,1.456898e+00
2.612404e+00,7.226820e-01,7.050037e-01,3,0,3.221336e+00,3.221339e+00
2.612655e+00,7.234020e-01,7.059574e-01,3,0,1.879967e+00,1.879966e+00
2.615876e+00,7.242380e-01,7.069111e-01,3,0,1.342877e+00,1.342877e+00
2.607712e+00,7.249340e-01,7.078648e-01,3,0,1.100848e+00,1.100849e+00
2.612797e+00,7.244380e-01,7.071495e-01,3,0,9.350397e-01,9.350399e-01
2.608569e+00,7.202620e-01,7.019043e-01,3,0,8.765802e-01,8.765805e-01
2.611758e+00,7.298210e-01,7.119179e-01,3,0,1.483488e+00,1.483489e+00
2.607880e+00,7.194220e-01,7.019043e-01,3,0,1.146399e+00,1.146399e+00
2.615294e+00,7.240360e-01,7.061958e-01,3,0,8.245384e-01,8.245384e-01
2.606956e+00,7.198870e-01,7.030964e-01,3,0,9.175525e-01,9.175529e-01
2.610849e+00,7.248480e-01,7.069111e-01,3,0,1.572602e+00,1.572604e+00
2.612416e+00,7.187530e-01,7.019043e-01,3,0,2.548008e+00,2.548010e+00
2.614599e+00,7.239680e-01,7.069111e-01,3,0,4.638467e+00,4.638470e+00
2.615994e+00,7.190930e-01,7.011890e-01,3,0,5.660150e+00,5.660152e+00
2.615624e+00,7.243420e-01,7.061958e-01,3,0,5.111808e+00,5.111808e+00
2.615789e+00,7.209100e-01,7.040501e-01,3,0,5.361423e+00,5.361424e+00
2.617206e+00,7.241220e-01,7.059574e-01,3,0,4.518841e+00,4.518841e+00
2.617177e+00,7.199200e-01,7.021427e-01,3,0,4.751979e+00,4.751981e+00
2.609555e+00,7.256380e-01,7.078648e-01,3,0,4.746627e+00,4.746628e+00
2.616030e+00,7.224950e-01,7.050037e-01,3,0,3.913827e+00,3.913827e+00
2.613656e+00,7.250230e-01,7.069111e-01,3,0,3.373792e+00,3.373792e+00
2.615597e+00,7.247540e-01,7.069111e-01,3,0,2.596148e+00,2.596148e+00
2.613150e+00,7.242630e-01,7.059574e-01,3,0,2.364515e+00,2.364515e+00
2.614028e+00,7.249650e-01,7.081032e-01,3,0,2.377073e+00,2.377073e+00
2.607977e+00,7.238600e-01,7.069111e-01,3,0,3.044294e+00,3.044295e+00
2.613925e+00,1.223494e+01,1.221704e+01,3,9,5.471069e+00,5.475965e+00
5.211339e+00,9.354550e+00,9.335995e+00,6,7,5.713012e+00,5.698599e+00
4.345358e+00,1.049193e+01,1.047397e+01,5,8,6.257300e+00,6.254193e+00
3.484670e+00,3.061654e+00,3.043890e+00,4,2,5.303516e+00,5.303516e+00
2.609163e+00,7.208120e-01,7.030964e-01,3,0,5.338687e+00,5.338688e+00
2.616074e+00,2.029192e+00,2.011061e+00,3,1,6.515666e+00,6.515862e+00
2.620508e+00,3.296740e+00,3.278971e+00,3,2,6.034988e+00,6.035174e+00
2.625536e+00,3.150940e+00,3.132820e+00,3,2,5.027684e+00,5.027776e+00
2.593711e+00,1.886470e+00,1.868963e+00,3,1,4.242549e+00,4.242549e+00
2.615241e+00,6.997710e-01,6.828308e-01,3,0,3.761744e+00,3.761745e+00
2.563438e+00,7.290000e-01,7.109642e-01,3,0,3.221987e+00,3.221987e+00
2.541697e+00,7.136850e-01,6.949902e-01,3,0,2.958941e+00,2.958942e+00
2.534939e+00,7.036220e-01,6.859303e-01,3,0,3.072654e+00,3.072655e+00
2.540232e+00,7.041700e-01,6.868839e-01,3,0,1.689571e+00,1.689570e+00
2.535011e+00,6.991720e-01,6.821156e-01,3,0,1.466479e+00,1.466479e+00
2.536914e+00,7.036220e-01,6.859303e-01,3,0,1.622636e+00,1.622637e+00
2.538360e+00,7.030520e-01,6.859303e-01,3,0,1.120965e+00,1.120965e+00
2.537526e+00,7.049520e-01,6.880760e-01,3,0,9.459927e-01,9.459929e-01
2.538764e+00,7.036860e-01,6.861687e-01,3,0,7.684242e-01,7.684245e-01
2.538479e+00,6.989740e-01,6.821156e-01,3,0,4.885185e-01,4.885186e-01
2.535581e+00,7.035360e-01,6.861687e-01,3,0,3.703969e-01,3.703976e-01
2.538798e+00,7.041590e-01,6.868839e-01,3,0,2.797300e-01,2.797304e-01
2.530681e+00,6.990720e-01,6.821156e-01,3,0,3.974023e-01,3.974026e-01
2.534580e+00,7.041940e-01,6.868839e-01,3,0,5.354245e-01,5.354250e-01
2.733363e+00,7.049770e-01,6.880760e-01,3,0,3.592150e-01,3.592151e-01
2.628360e+00,8.206950e-01,8.001328e-01,3,0,4.040946e-01,4.040951e-01
2.612232e+00,7.361510e-01,7.140636e-01,3,0,1.113161e+00,1.113162e+00
2.588117e+00,7.920720e-01,7.729530e-01,3,0,2.515813e+00,2.515816e+00
2.558900e+00,7.101290e-01,6.918907e-01,3,0,3.426447e+00,3.426449e+00
2.616930e+00,7.314930e-01,7.140636e-01,3,0,2.879426e+00,2.879426e+00
2.597843e+00,7.016460e-01,6.840229e-01,3,0,3.110349e+00,3.110350e+00
2.615743e+00,7.281880e-01,7.109642e-01,3,0,3.024897e+00,3.024898e+00
2.614706e+00,7.214560e-01,7.028580e-01,3,0,2.671651e+00,2.671651e+00
2.625109e+00,7.251690e-01,7.069111e-01,3,0,2.112212e+00,2.112212e+00
2.589905e+00,7.005050e-01,6.840229e-01,3,0,2.070672e+00,2.070672e+00
2.559747e+00,7.305500e-01,7.131100e-01,3,0,3.677841e+00,3.677843e+00
2.561132e+00,2.103868e+00,2.085924e+00,3,1,4.748279e+00,4.748660e+00
2.567630e+00,9.495790e-01,9.319782e-01,3,0,5.601874e+00,5.604370e+00
2.616927e+00,3.269377e+00,3.252029e+00,3,2,4.561991e+00,4.562081e+00
2.621647e+00,9.489890e-01,9.319782e-01,3,0,3.478404e+00,3.478562e+00
2.587752e+00,1.878487e+00,1.860857e+00,3,1,2.544123e+00,2.544123e+00
2.591607e+00,7.302730e-01,7.131100e-01,3,0,2.076841e+00,2.076841e+00
2.590496e+00,6.987540e-01,6.811619e-01,3,0,2.759514e+00,2.759516e+00
2.613295e+00,7.256140e-01,7.078648e-01,3,0,2.751324e+00,2.751324e+00
2.610545e+00,7.194880e-01,7.021427e-01,3,0,2.069403e+00,2.069403e+00
2.610491e+00,7.273180e-01,7.088184e-01,3,0,2.024263e+00,2.024263e+00
2.607908e+00,7.205150e-01,7.030964e-01,3,0,2.326177e+00,2.326178e+00
2.614179e+00,7.252190e-01,7.081032e-01,3,0,2.414224e+00,2.414225e+00
2.615044e+00,7.211230e-01,7.030964e-01,3,0,2.956553e+00,2.956554e+00
2.614817e+00,7.245870e-01,7.069111e-01,3,0,2.350926e+00,2.350926e+00
2.614496e+00,7.197530e-01,7.019043e-01,3,0,3.067183e+00,3.067185e+00
2.613358e+00,7.251030e-01,7.069111e-01,3,0,3.023790e+00,3.023791e+00
2.626153e+00,7.201080e-01,7.030964e-01,3,0,2.527913e+00,2.527914e+00
2.622668e+00,7.253220e-01,7.071495e-01,3,0,2.091119e+00,2.091119e+00
2.613790e+00,7.207900e-01,7.028580e-01,3,0,2.201044e+00,2.201045e+00
2.608191e+00,7.261860e-01,7.078648e-01,3,0,2.211137e+00,2.211137e+00
2.616688e+00,7.239400e-01,7.059574e-01,3,0,1.630548e+00,1.630548e+00
2.609443e+00,7.251450e-01,7.078648e-01,3,0,1.629964e+00,1.629965e+00
2.614402e+00,7.276220e-01,7.100105e-01,3,0,1.065579e+00,1.065579e+00
2.610060e+00,7.256810e-01,7.081032e-01,3,0,8.781390e-01,8.781392e-01
2.620573e+00,7.254020e-01,7.081032e-01,3,0,5.657121e-01,5.657123e-01
2.606989e+00,7.247790e-01,7.071495e-01,3,0,3.838154e-01,3.838156e-01
2.611315e+00,7.254380e-01,7.078648e-01,3,0,2.168859e-01,2.168859e-01
2.605201e+00,7.251500e-01,7.078648e-01,3,0,4.077931e-01,4.077937e-01
2.612362e+00,7.261740e-01,7.081032e-01,3,0,2.298412e-01,2.298412e-01
2.606655e+00,7.252190e-01,7.069111e-01,3,0,2.219918e-01,2.219921e-01
2.610201e+00,7.245220e-01,7.069111e-01,3,0,1.341589e-01,1.341590e-01
2.606065e+00,7.209900e-01,7.030964e-01,3,0,1.470559e-01,1.470561e-01
2.608639e+00,7.254100e-01,7.081032e-01,3,0,1.317569e-01,1.317570e-01
2.610291e+00,7.213470e-01,7.030964e-01,3,0,3.249667e-01,3.249672e-01
2.614935e+00,7.240190e-01,7.071495e-01,3,0,2.494333e-01,2.494335e-01
2.608403e+00,7.199820e-01,7.021427e-01,3,0,2.719699e-01,2.719706e-01
2.608681e+00,7.262460e-01,7.081032e-01,3,0,5.470027e-01,5.470033e-01
2.606807e+00,7.206870e-01,7.030964e-01,3,0,2.990679e-01,2.990678e-01
2.616107e+00,7.259320e-01,7.078648e-01,3,0,4.258654e-01,4.258657e-01
2.610386e+00,7.215540e-01,7.040501e-01,3,0,4.303087e-01,4.303089e-01
2.612326e+00,7.246180e-01,7.071495e-01,3,0,7.248210e-01,7.248216e-01
2.612075e+00,7.205130e-01,7.028580e-01,3,0,5.522389e-01,5.522390e-01
2.613820e+00,7.253480e-01,7.081032e-01,3,0,3.638403e-01,3.638404e-01
2.612081e+00,7.205140e-01,7.028580e-01,3,0,2.660233e-01,2.660235e-01
2.605752e+00,7.247220e-01,7.071495e-01,3,0,3.563760e-01,3.563763e-01
2.611736e+00,7.240080e-01,7.059574e-01,3,0,3.281871e-01,3.281872e-01
2.606683e+00,7.247160e-01,7.069111e-01,3,0,2.648635e-01,2.648636e-01
2.610694e+00,7.247970e-01,7.069111e-01,3,0,4.637964e-01,4.637969e-01
2.609212e+00,7.242120e-01,7.069111e-01,3,0,3.516932e-01,3.516934e-01
2.612393e+00,7.252430e-01,7.078648e-01,3,0,5.227971e-01,5.227975e-01
2.609254e+00,7.250120e-01,7.071495e-01,3,0,9.247074e-01,9.247082e-01
2.613046e+00,7.256020e-01,7.081032e-01,3,0,8.107840e-01,8.107843e-01
2.606840e+00,7.259670e-01,7.078648e-01,3,0,7.181143e-01,7.181146e-01
2.610780e+00,7.252860e-01,7.071495e-01,3,0,1.643255e+00,1.643256e+00
2.610197e+00,7.259370e-01,7.078648e-01,3,0,1.994013e+00,1.994014e+00
2.615284e+00,7.257480e-01,7.078648e-01,3,0,1.134333e+00,1.134332e+00
2.609274e+00,7.203550e-01,7.028580e-01,3,0,8.482992e-01,8.482992e-01
2.611928e+00,7.248840e-01,7.069111e-01,3,0,6.537275e-01,6.537277e-01
2.609108e+00,7.210760e-01,7.040501e-01,3,0,4.364265e-01,4.364266e-01
2.614441e+00,7.252750e-01,7.071495e-01,3,0,3.864393e-01,3.864395e-01
2.606338e+00,7.202890e-01,7.030964e-01,3,0,5.548966e-01,5.548969e-01
2.615045e+00,7.261910e-01,7.081032e-01,3,0,5.307640e-01,5.307642e-01
2.611201e+00,7.196980e-01,7.019043e-01,3,0,2.639964e-01,2.639967e-01
2.610999e+00,7.254680e-01,7.078648e-01,3,0,7.176997e-01,7.177005e-01
2.610475e+00,7.205330e-01,7.030964e-01,3,0,3.984583e-01,3.984582e-01
2.610823e+00,7.251770e-01,7.071495e-01,3,0,3.519683e-01,3.519686e-01
2.612292e+00,7.203510e-01,7.030964e-01,3,0,4.923560e-01,4.923565e-01
2.605180e+00,7.256940e-01,7.081032e-01,3,0,4.030468e-01,4.030469e-01
2.610410e+00,7.208280e-01,7.030964e-01,3,0,4.731869e-01,4.731872e-01
2.608995e+00,7.250330e-01,7.081032e-01,3,0,6.026986e-01,6.026990e-01
2.610646e+00,7.260740e-01,7.090569e-01,3,0,4.756011e-01,4.756014e-01
2.606530e+00,7.253570e-01,7.081032e-01,3,0,4.945683e-01,4.945688e-01
2.609142e+00,7.250680e-01,7.069111e-01,3,0,6.169630e-01,6.169634e-01
2.608597e+00,7.258850e-01,7.081032e-01,3,0,7.574940e-01,7.574945e-01
2.613581e+00,7.261060e-01,7.090569e-01,3,0,1.135815e+00,1.135816e+00
2.609111e+00,7.249990e-01,7.081032e-01,3,0,7.866686e-01,7.866686e-01
2.613773e+00,7.240800e-01,7.069111e-01,3,0,7.566110e-01,7.566118e-01
2.606593e+00,7.254090e-01,7.078648e-01,3,0,7.321423e-01,7.321425e-01
2.614844e+00,7.253670e-01,7.081032e-01,3,0,7.926635e-01,7.926638e-01
2.608252e+00,7.204600e-01,7.028580e-01,3,0,6.555924e-01,6.555926e-01
2.613898e+00,7.261640e-01,7.090569e-01,3,0,1.115599e+00,1.115600e+00
2.605547e+00,7.218400e-01,7.050037e-01,3,0,8.292395e-01,8.292396e-01
2.612800e+00,7.254740e-01,7.078648e-01,3,0,7.751496e-01,7.751498e-01
2.606003e+00,7.215760e-01,7.040501e-01,3,0,7.596659e-01,7.596662e-01
2.612362e+00,7.253010e-01,7.081032e-01,3,0,6.878779e-01,6.878782e-01
2.605828e+00,7.209950e-01,7.030964e-01,3,0,4.928153e-01,4.928154e-01
2.612964e+00,7.258660e-01,7.088184e-01,3,0,6.019903e-01,6.019907e-01
2.611361e+00,7.204980e-01,7.021427e-01,3,0,6.788454e-01,6.788458e-01
2.613109e+00,7.259080e-01,7.078648e-01,3,0,4.668361e-01,4.668362e-01
2.610922e+00,7.202670e-01,7.030964e-01,3,0,8.782905e-01,8.782915e-01
2.612486e+00,7.262740e-01,7.088184e-01,3,0,6.180953e-01,6.180954e-01
2.612548e+00,7.208750e-01,7.030964e-01,3,0,5.652560e-01,5.652562e-01
2.608945e+00,7.258590e-01,7.078648e-01,3,0,5.058805e-01,5.058807e-01
2.612716e+00,7.250600e-01,7.078648e-01,3,0,3.970666e-01,3.970670e-01
2.608948e+00,7.266470e-01,7.090569e-01,3,0,2.920335e-01,2.920336e-01
2.610311e+00,7.249260e-01,7.071495e-01,3,0,5.797271e-01,5.797276e-01
2.608794e+00,7.254120e-01,7.069111e-01,3,0,4.997484e-01,4.997486e-01
2.610089e+00,7.245590e-01,7.071495e-01,3,0,5.083701e-01,5.083705e-01
2.608617e+00,7.254400e-01,7.071495e-01,3,0,4.754070e-01,4.754071e-01
2.612422e+00,7.264900e-01,7.081032e-01,3,0,3.696138e-01,3.696140e-01
2.607175e+00,7.254560e-01,7.078648e-01,3,0,4.437752e-01,4.437754e-01
2.614785e+00,7.255650e-01,7.071495e-01,3,0,3.442542e-01,3.442543e-01
2.607869e+00,7.047700e-01,6.880760e-01,3,0,1.454142e+00,1.454145e+00
2.612981e+00,7.253630e-01,7.081032e-01,3,0,3.218426e+00,3.218429e+00
2.609198e+00,7.201970e-01,7.028580e-01,3,0,2.417709e+00,2.417709e+00
2.613606e+00,7.262050e-01,7.090569e-01,3,0,1.723470e+00,1.723469e+00
2.611771e+00,7.198430e-01,7.030964e-01,3,0,1.264273e+00,1.264273e+00
2.612531e+00,7.249150e-01,7.069111e-01,3,0,1.366920e+00,1.366921e+00
2.574386e+00,7.191730e-01,7.019043e-01,3,0,1.080433e+00,1.080433e+00
2.589356e+00,7.305820e-01,7.128716e-01,3,0,1.043214e+00,1.043215e+00
2.587700e+00,6.997330e-01,6.830692e-01,3,0,1.256928e+00,1.256929e+00
2.582967e+00,7.062180e-01,6.890297e-01,3,0,1.434081e+00,1.434082e+00
2.615306e+00,7.305830e-01,7.140636e-01,3,0,1.312167e+00,1.312167e+00
2.582507e+00,7.291070e-01,7.119179e-01,3,0,1.397981e+00,1.397982e+00
2.611987e+00,7.051210e-01,6.880760e-01,3,0,1.863003e+00,1.863004e+00
2.559142e+00,7.047290e-01,6.871223e-01,3,0,1.373502e+00,1.373502e+00
2.614685e+00,7.288310e-01,7.119179e-01,3,0,9.297268e-01,9.297267e-01
2.585121e+00,6.998790e-01,6.828308e-01,3,0,5.499714e-01,5.499713e-01
2.590399e+00,7.039550e-01,6.859303e-01,3,0,3.668138e-01,3.668139e-01
2.562914e+00,7.006350e-01,6.830692e-01,3,0,2.877355e-01,2.877357e-01
2.579619e+00,7.299670e-01,7.119179e-01,3,0,3.947834e-01,3.947838e-01
2.610566e+00,7.299020e-01,7.119179e-01,3,0,2.789122e-01,2.789122e-01
2.581218e+00,7.292700e-01,7.119179e-01,3,0,4.675792e-01,4.675797e-01
2.586486e+00,7.301990e-01,7.128716e-01,3,0,4.970878e-01,4.970881e-01
2.584219e+00,7.179360e-01,6.999969e-01,3,0,4.618481e-01,4.618482e-01
2.613846e+00,7.046320e-01,6.880760e-01,3,0,5.953715e-01,5.953720e-01
2.557731e+00,7.013040e-01,6.840229e-01,3,0,3.315657e-01,3.315657e-01
2.592075e+00,7.314260e-01,7.128716e-01,3,0,2.690296e-01,2.690297e-01
2.586716e+00,7.003730e-01,6.840229e-01,3,0,1.439716e+00,1.439718e+00
2.560021e+00,7.055090e-01,6.878376e-01,3,0,1.497778e+00,1.497778e+00
2.615418e+00,7.311040e-01,7.131100e-01,3,0,7.278863e-01,7.278860e-01
2.583934e+00,7.297810e-01,7.119179e-01,3,0,7.180997e-01,7.181000e-01
2.589570e+00,7.315530e-01,7.140636e-01,3,0,6.287847e-01,6.287848e-01
2.668801e+00,7.554160e-01,7.379055e-01,3,0,6.738941e-01,6.738943e-01
2.603366e+00,7.326600e-01,7.150173e-01,3,0,3.442809e-01,3.442809e-01
2.593144e+00,7.323010e-01,7.140636e-01,3,0,2.891100e-01,2.891102e-01
2.612902e+00,7.258630e-01,7.081032e-01,3,0,5.501564e-01,5.501570e-01
2.567429e+00,7.258510e-01,7.090569e-01,3,0,6.853876e-01,6.853880e-01
2.590009e+00,7.305410e-01,7.140636e-01,3,0,8.436203e-01,8.436208e-01
2.583465e+00,7.002410e-01,6.828308e-01,3,0,5.492924e-01,5.492925e-01
2.612579e+00,7.300780e-01,7.119179e-01,3,0,5.278028e-01,5.278031e-01
2.608672e+00,7.009220e-01,6.837845e-01,3,0,7.921321e-01,7.921328e-01
2.609353e+00,7.300170e-01,7.121563e-01,3,0,1.174977e+00,1.174978e+00
2.576846e+00,7.219650e-01,7.038116e-01,3,0,1.302904e+00,1.302905e+00
2.574148e+00,7.300230e-01,7.119179e-01,3,0,1.817124e+00,1.817125e+00
2.565900e+00,7.147760e-01,6.968975e-01,3,0,1.715592e+00,1.715592e+00
2.584203e+00,7.310570e-01,7.138252e-01,3,0,2.668147e+00,2.668149e+00
2.588787e+00,7.043690e-01,6.871223e-01,3,0,1.115504e+00,1.115503e+00
2.583598e+00,7.061690e-01,6.890297e-01,3,0,9.496690e-01,9.496692e-01
2.612037e+00,7.304820e-01,7.128716e-01,3,0,1.501070e+00,1.501071e+00
2.587692e+00,7.008060e-01,6.830692e-01,3,0,7.347715e-01,7.347713e-01
2.613567e+00,7.062730e-01,6.887913e-01,3,0,6.039012e-01,6.039013e-01
2.566292e+00,7.006830e-01,6.830692e-01,3,0,4.902786e-01,4.902788e-01
2.598180e+00,7.289780e-01,7.109642e-01,3,0,3.288289e-01,3.288289e-01
2.609585e+00,7.138110e-01,6.959438e-01,3,0,6.713507e-01,6.713514e-01
2.559400e+00,7.051020e-01,6.878376e-01,3,0,4.977157e-01,4.977158e-01
2.563751e+00,7.308440e-01,7.131100e-01,3,0,2.836729e-01,2.836729e-01
2.583753e+00,7.178630e-01,6.999969e-01,3,0,6.883841e-01,6.883851e-01
2.614264e+00,7.307420e-01,7.140636e-01,3,0,4.772287e-01,4.772287e-01
2.582730e+00,7.000260e-01,6.830692e-01,3,0,2.511171e-01,2.511172e-01
2.587019e+00,7.316320e-01,7.138252e-01,3,0,2.738160e-01,2.738161e-01
2.582858e+00,7.014670e-01,6.840229e-01,3,0,3.426197e-01,3.426200e-01
2.614864e+00,7.203080e-01,7.019043e-01,3,0,5.175605e-01,5.175609e-01
2.564253e+00,7.011180e-01,6.830692e-01,3,0,1.085639e+00,1.085640e+00
2.561129e+00,7.289520e-01,7.119179e-01,3,0,7.889571e-01,7.889584e-01
2.590905e+00,7.304450e-01,7.131100e-01,3,0,1.428622e+00,1.428623e+00
2.559070e+00,7.057660e-01,6.890297e-01,3,0,6.237769e-01,6.237766e-01
2.611810e+00,7.303620e-01,7.128716e-01,3,0,4.968982e-01,4.968984e-01
2.583726e+00,7.182450e-01,7.011890e-01,3,0,3.323352e-01,3.323352e-01
2.586982e+00,7.313520e-01,7.138252e-01,3,0,3.054052e-01,3.054055e-01
2.557076e+00,6.998140e-01,6.828308e-01,3,0,8.581247e-01,8.581260e-01
2.591066e+00,7.315150e-01,7.140636e-01,3,0,8.560401e-01,8.560403e-01
2.614424e+00,7.008540e-01,6.840229e-01,3,0,1.314357e+00,1.314358e+00
2.560640e+00,7.314820e-01,7.140636e-01,3,0,1.349008e+00,1.349008e+00
2.680632e+00,7.578930e-01,7.278919e-01,3,0,1.548526e+00,1.548526e+00
2.591987e+00,8.016810e-01,7.810593e-01,3,0,2.537453e+00,2.537455e+00
2.588872e+00,7.563590e-01,7.369518e-01,3,0,2.841281e+00,2.841282e+00
2.625678e+00,7.511390e-01,7.331371e-01,3,0,2.122474e+00,2.122474e+00
2.561831e+00,7.057960e-01,6.890297e-01,3,0,1.906985e+00,1.906986e+00
2.608512e+00,7.408770e-01,7.240772e-01,3,0,2.680219e+00,2.680222e+00
2.610292e+00,7.235600e-01,7.061958e-01,3,0,1.820725e+00,1.820725e+00
2.615185e+00,7.281200e-01,7.109642e-01,3,0,1.509571e+00,1.509571e+00
2.613303e+00,7.211590e-01,7.040501e-01,3,0,1.527028e+00,1.527030e+00
2.614317e+00,7.274200e-01,7.100105e-01,3,0,1.650982e+00,1.650983e+00
2.613439e+00,7.220740e-01,7.050037e-01,3,0,1.808067e+00,1.808068e+00
2.614353e+00,7.257220e-01,7.081032e-01,3,0,1.332610e+00,1.332610e+00
2.625312e+00,7.219800e-01,7.050037e-01,3,0,1.278931e+00,1.278931e+00
2.614822e+00,7.448440e-01,7.259846e-01,3,0,1.640309e+00,1.640310e+00
2.616258e+00,7.438470e-01,7.259846e-01,3,0,1.799944e+00,1.799945e+00
2.615673e+00,7.546850e-01,7.359982e-01,3,0,1.140217e+00,1.140217e+00
2.612888e+00,7.415710e-01,7.231236e-01,3,0,1.096293e+00,1.096293e+00
2.695485e+00,7.513960e-01,7.328987e-01,3,0,6.438818e-01,6.438817e-01
2.583863e+00,7.542150e-01,7.359982e-01,3,0,6.245250e-01,6.245254e-01

