1.702579e+00,4.014425e+00,3.018856e+00,2,0,0.000000e+00,0.000000e+00
2.531963e+00,7.344250e-01,7.100105e-01,3,0,7.551207e-02,7.551222e-02
2.539921e+00,7.194880e-01,7.019043e-01,3,0,1.395618e-01,1.395621e-01
2.533136e+00,7.092690e-01,6.921291e-01,3,0,2.946821e-01,2.946824e-01
2.538537e+00,7.128150e-01,6.949902e-01,3,0,2.716491e-01,2.716493e-01
2.539020e+00,7.097210e-01,6.918907e-01,3,0,1.276163e+00,1.276165e+00
2.535427e+00,7.101490e-01,6.930828e-01,3,0,1.779659e+00,1.779660e+00
2.541868e+00,7.099180e-01,6.930828e-01,3,0,2.335717e+00,2.335718e+00
2.537797e+00,7.057240e-01,6.880760e-01,3,0,1.148684e+00,1.148683e+00
2.536249e+00,7.097590e-01,6.928444e-01,3,0,1.018458e+00,1.018458e+00
2.538540e+00,7.133090e-01,6.961823e-01,3,0,8.424511e-01,8.424514e-01
2.535593e+00,7.125030e-01,6.949902e-01,3,0,9.746381e-01,9.746388e-01
2.544792e+00,7.138150e-01,6.959438e-01,3,0,1.616748e+00,1.616749e+00
2.540219e+00,7.099860e-01,6.930828e-01,3,0,2.206605e+00,2.206606e+00
2.537590e+00,7.141240e-01,6.980896e-01,3,0,2.022695e+00,2.022695e+00
2.541480e+00,7.136650e-01,6.961823e-01,3,0,2.825370e+00,2.825372e+00
2.536908e+00,7.115280e-01,6.949902e-01,3,0,2.206341e+00,2.206341e+00
2.543108e+00,7.107410e-01,6.940365e-01,3,0,1.931083e+00,1.931084e+00
2.541893e+00,7.090990e-01,6.921291e-01,3,0,1.844832e+00,1.844833e+00
2.536588e+00,7.157180e-01,6.980896e-01,3,0,1.758296e+00,1.758297e+00
2.541698e+00,7.152190e-01,6.980896e-01,3,0,1.840501e+00,1.840502e+00
2.535684e+00,7.081530e-01,6.899834e-01,3,0,1.533949e+00,1.533949e+00
2.546100e+00,7.127610e-01,6.949902e-01,3,0,1.381530e+00,1.381530e+00
2.540260e+00,7.070830e-01,6.899834e-01,3,0,1.204578e+00,1.204578e+00
2.535188e+00,7.127050e-01,6.949902e-01,3,0,1.188899e+00,1.188900e+00
2.541131e+00,7.129640e-01,6.949902e-01,3,0,1.149706e+00,1.149706e+00
2.534111e+00,7.082110e-01,6.909370e-01,3,0,9.518749e-01,9.518752e-01
2.538338e+00,7.123230e-01,6.949902e-01,3,0,6.794426e-01,6.794427e-01
2.540170e+00,7.069650e-01,6.899834e-01,3,0,3.430990e-01,3.430994e-01
2.534167e+00,7.148260e-01,6.971359e-01,3,0,2.960813e-01,2.960814e-01
2.539476e+00,7.150290e-01,6.978512e-01,3,0,5.896082e-01,5.896090e-01
2.535252e+00,7.078460e-01,6.899834e-01,3,0,6.941763e-01,6.941768e-01
2.536180e+00,7.150080e-01,6.968975e-01,3,0,5.984780e-01,5.984781e-01
2.538378e+00,7.107470e-01,6.928444e-01,3,0,9.215422e-01,9.215429e-01
2.535621e+00,7.105120e-01,6.940365e-01,3,0,7.538872e-01,7.538873e-01
2.543145e+00,7.113390e-01,6.940365e-01,3,0,5.559922e-01,5.559922e-01
2.539658e+00,7.062810e-01,6.890297e-01,3,0,4.066877e-01,4.066880e-01
2.534777e+00,7.124060e-01,6.949902e-01,3,0,3.376775e-01,3.376777e-01
2.539806e+00,7.096520e-01,6.921291e-01,3,0,8.606949e-01,8.606958e-01
2.534543e+00,7.109850e-01,6.940365e-01,3,0,9.504755e-01,9.504758e-01
2.538778e+00,7.127590e-01,6.959438e-01,3,0,2.139472e+00,2.139474e+00
2.541853e+00,7.063310e-01,6.890297e-01,3,0,2.927867e+00,2.927868e+00
2.538377e+00,7.100550e-01,6.928444e-01,3,0,1.852336e+00,1.852336e+00
2.548027e+00,7.127240e-01,6.949902e-01,3,0,2.797930e+00,2.797932e+00
2.535738e+00,7.058290e-01,6.890297e-01,3,0,2.235881e+00,2.235881e+00
2.542646e+00,7.126870e-01,6.949902e-01,3,0,1.808745e+00,1.808745e+00
2.543308e+00,7.068950e-01,6.890297e-01,3,0,1.619816e+00,1.619817e+00
2.538086e+00,7.107040e-01,6.928444e-01,3,0,1.344299e+00,1.344299e+00
2.540553e+00,7.115290e-01,6.940365e-01,3,0,1.080028e+00,1.080028e+00
2.537427e+00,7.079280e-01,6.909370e-01,3,0,6.876475e-01,6.876475e-01
2.535159e+00,7.099780e-01,6.930828e-01,3,0,6.177108e-01,6.177111e-01
2.538353e+00,7.105300e-01,6.890297e-01,3,0,9.829241e-01,9.829250e-01
2.536386e+00,7.103760e-01,6.930828e-01,3,0,7.168855e-01,7.168856e-01
2.539455e+00,7.101160e-01,6.921291e-01,3,0,6.110386e-01,6.110386e-01
2.539947e+00,7.071130e-01,6.899834e-01,3,0,8.078120e-01,8.078126e-01
2.534397e+00,7.128650e-01,6.949902e-01,3,0,1.109398e+00,1.109399e+00
2.540611e+00,7.122280e-01,6.940365e-01,3,0,5.988326e-01,5.988325e-01
2.533524e+00,7.095900e-01,6.921291e-01,3,0,9.244311e-01,9.244318e-01
2.540622e+00,7.129420e-01,6.949902e-01,3,0,1.306200e+00,1.306201e+00
2.539180e+00,7.076320e-01,6.899834e-01,3,0,1.969783e+00,1.969784e+00
2.540002e+00,7.097980e-01,6.921291e-01,3,0,8.942506e-01,8.942512e-01
2.541896e+00,7.128530e-01,6.959438e-01,3,0,1.939667e+00,1.939669e+00
2.534064e+00,7.078510e-01,6.911755e-01,3,0,3.653218e+00,3.653220e+00
2.542606e+00,7.127190e-01,6.949902e-01,3,0,1.983767e+00,1.983765e+00
2.540890e+00,7.064880e-01,6.887913e-01,3,0,2.724661e+00,2.724662e+00
2.540247e+00,7.110790e-01,6.940365e-01,3,0,1.182474e+00,1.182474e+00
2.538816e+00,7.105470e-01,6.940365e-01,3,0,1.263765e+00,1.263765e+00
2.536866e+00,7.077270e-01,6.902218e-01,3,0,9.845575e-01,9.845578e-01
2.535775e+00,7.118300e-01,6.940365e-01,3,0,7.762208e-01,7.762211e-01
2.541188e+00,7.068070e-01,6.899834e-01,3,0,5.908730e-01,5.908733e-01
2.535943e+00,7.107340e-01,6.940365e-01,3,0,8.816919e-01,8.816925e-01
2.542243e+00,7.130130e-01,6.949902e-01,3,0,9.003215e-01,9.003218e-01
2.534635e+00,7.076600e-01,6.899834e-01,3,0,9.129582e-01,9.129585e-01
2.533947e+00,7.113000e-01,6.940365e-01,3,0,1.029772e+00,1.029772e+00
2.540386e+00,7.092000e-01,6.921291e-01,3,0,1.502112e+00,1.502113e+00
2.535366e+00,7.135430e-01,6.968975e-01,3,0,2.017965e+00,2.017966e+00
2.540860e+00,7.143450e-01,6.968975e-01,3,0,1.214735e+00,1.214735e+00
2.538562e+00,7.079760e-01,6.899834e-01,3,0,1.209879e+00,1.209879e+00
2.536719e+00,7.126070e-01,6.949902e-01,3,0,8.937082e-01,8.937082e-01
2.540288e+00,7.118460e-01,6.940365e-01,3,0,4.433700e-01,4.433700e-01
2.533378e+00,7.119050e-01,6.899834e-01,3,0,1.527401e+00,1.527403e+00
2.540420e+00,7.121050e-01,6.940365e-01,3,0,1.130284e+00,1.130284e+00
2.545897e+00,7.077470e-01,6.909370e-01,3,0,1.011823e+00,1.011823e+00
2.536181e+00,7.122280e-01,6.940365e-01,3,0,9.740341e-01,9.740347e-01
2.542647e+00,7.119530e-01,6.949902e-01,3,0,1.400936e+00,1.400938e+00
2.535056e+00,7.057590e-01,6.880760e-01,3,0,2.512765e+00,2.512767e+00
2.540280e+00,7.129350e-01,6.959438e-01,3,0,3.760601e+00,3.760603e+00
2.541323e+00,7.074930e-01,6.909370e-01,3,0,5.483404e+00,5.483407e+00
2.543264e+00,1.984248e+00,1.966000e+00,3,1,4.458055e+00,4.458093e+00
2.536689e+00,9.273840e-01,9.100437e-01,3,0,3.182334e+00,3.182334e+00
2.544492e+00,1.857778e+00,1.841068e+00,3,1,2.454084e+00,2.454084e+00
2.537117e+00,7.024080e-01,6.849766e-01,3,0,1.719392e+00,1.719392e+00
2.535338e+00,7.092720e-01,6.918907e-01,3,0,2.433280e+00,2.433282e+00
2.542432e+00,7.072300e-01,6.899834e-01,3,0,1.807898e+00,1.807897e+00
2.535717e+00,7.112520e-01,6.940365e-01,3,0,2.327530e+00,2.327531e+00
2.541114e+00,7.211560e-01,7.040501e-01,3,0,2.510071e+00,2.510072e+00
2.538179e+00,7.061650e-01,6.890297e-01,3,0,1.084534e+00,1.084534e+00
2.535700e+00,7.125550e-01,6.949902e-01,3,0,9.374235e-01,9.374237e-01
2.540806e+00,7.129750e-01,6.959438e-01,3,0,1.319562e+00,1.319563e+00
2.535309e+00,7.119330e-01,6.940365e-01,3,0,1.415893e+00,1.415894e+00
2.541230e+00,7.116730e-01,6.949902e-01,3,0,1.066769e+00,1.066769e+00
2.539228e+00,7.079180e-01,6.909370e-01,3,0,1.238103e+00,1.238104e+00
2.536273e+00,7.119100e-01,6.949902e-01,3,0,7.214983e-01,7.214984e-01
2.540563e+00,7.127830e-01,6.949902e-01,3,0,6.568663e-01,6.568665e-01
2.534452e+00,7.113850e-01,6.940365e-01,3,0,5.438528e-01,5.438529e-01
2.539096e+00,7.091760e-01,6.918907e-01,3,0,5.784206e-01,5.784211e-01
2.538767e+00,7.051170e-01,6.880760e-01,3,0,8.078982e-01,8.078988e-01
2.537162e+00,7.119700e-01,6.949902e-01,3,0,8.817787e-01,8.817790e-01
2.539771e+00,7.126160e-01,6.949902e-01,3,0,5.667896e-01,5.667896e-01
2.536143e+00,7.087830e-01,6.918907e-01,3,0,5.720623e-01,5.720626e-01
2.538180e+00,7.120220e-01,6.949902e-01,3,0,5.279852e-01,5.279854e-01
2.538462e+00,7.069630e-01,6.899834e-01,3,0,4.518007e-01,4.518011e-01
2.537308e+00,7.123070e-01,6.949902e-01,3,0,3.135733e-01,3.135733e-01
2.539353e+00,7.117180e-01,6.940365e-01,3,0,5.541245e-01,5.541251e-01
2.534827e+00,7.071140e-01,6.902218e-01,3,0,2.932881e-01,2.932881e-01
2.533786e+00,7.122410e-01,6.949902e-01,3,0,3.389797e-01,3.389799e-01
2.544177e+00,7.125410e-01,6.961823e-01,3,0,8.799537e-01,8.799547e-01
2.536176e+00,7.127610e-01,6.949902e-01,3,0,6.417433e-01,6.417433e-01
2.538309e+00,7.110560e-01,6.930828e-01,3,0,2.071136e+00,2.071138e+00
2.541621e+00,7.061860e-01,6.887913e-01,3,0,1.435502e+00,1.435502e+00
2.537554e+00,7.114320e-01,6.940365e-01,3,0,1.390172e+00,1.390173e+00
2.539710e+00,7.119630e-01,6.949902e-01,3,0,1.731342e+00,1.731342e+00
2.537232e+00,7.119060e-01,6.940365e-01,3,0,1.563278e+00,1.563278e+00
2.539592e+00,7.105660e-01,6.930828e-01,3,0,1.722311e+00,1.722312e+00
2.539937e+00,7.063780e-01,6.887913e-01,3,0,3.041307e+00,3.041309e+00
2.540326e+00,7.121270e-01,6.949902e-01,3,0,1.973577e+00,1.973576e+00
2.540142e+00,7.130520e-01,6.959438e-01,3,0,1.500037e+00,1.500037e+00
2.536014e+00,7.071930e-01,6.899834e-01,3,0,1.307087e+00,1.307088e+00
2.540242e+00,7.109030e-01,6.940365e-01,3,0,7.837194e-01,7.837198e-01
2.541386e+00,7.069120e-01,6.899834e-01,3,0,8.577160e-01,8.577169e-01
2.536243e+00,7.133890e-01,6.961823e-01,3,0,5.381581e-01,5.381583e-01
2.540325e+00,7.144820e-01,6.978512e-01,3,0,7.102327e-01,7.102332e-01
2.534957e+00,7.075730e-01,6.902218e-01,3,0,3.163724e-01,3.163725e-01
2.533325e+00,7.126590e-01,6.949902e-01,3,0,2.572585e-01,2.572586e-01
2.537984e+00,7.116530e-01,6.902218e-01,3,0,2.640283e-01,2.640284e-01
2.533434e+00,7.120990e-01,6.949902e-01,3,0,5.737766e-01,5.737773e-01
2.541015e+00,7.121350e-01,6.949902e-01,3,0,5.918183e-01,5.918186e-01
2.538721e+00,7.050290e-01,6.871223e-01,3,0,5.015508e-01,5.015509e-01
2.535467e+00,7.116970e-01,6.940365e-01,3,0,5.463000e-01,5.463003e-01
2.538079e+00,7.136190e-01,6.959438e-01,3,0,4.626909e-01,4.626910e-01
2.533005e+00,7.134600e-01,6.959438e-01,3,0,8.631052e-01,8.631059e-01
2.539473e+00,7.114750e-01,6.949902e-01,3,0,1.472359e+00,1.472360e+00
2.540891e+00,7.074480e-01,6.899834e-01,3,0,1.662220e+00,1.662221e+00
2.535448e+00,7.131010e-01,6.959438e-01,3,0,1.301747e+00,1.301747e+00
2.540468e+00,7.118350e-01,6.949902e-01,3,0,1.159393e+00,1.159393e+00
2.532462e+00,7.070220e-01,6.899834e-01,3,0,1.072057e+00,1.072057e+00
2.539885e+00,7.127860e-01,6.959438e-01,3,0,7.684555e-01,7.684555e-01
2.539185e+00,7.052270e-01,6.878376e-01,3,0,6.784200e-01,6.784209e-01
2.532042e+00,7.115240e-01,6.949902e-01,3,0,1.196358e+00,1.196359e+00
2.539757e+00,7.111580e-01,6.940365e-01,3,0,1.709862e+00,1.709863e+00
2.536212e+00,7.061680e-01,6.890297e-01,3,0,1.043956e+00,1.043956e+00
2.621012e+00,7.415540e-01,7.238388e-01,3,0,9.875592e-01,9.875595e-01
2.613536e+00,7.741410e-01,7.550716e-01,3,0,8.865468e-01,8.865470e-01
2.616387e+00,7.740990e-01,7.560253e-01,3,0,8.128633e-01,8.128634e-01
2.611434e+00,7.638480e-01,7.450581e-01,3,0,6.697410e-01,6.697412e-01
2.635716e+00,7.743430e-01,7.548332e-01,3,0,7.530432e-01,7.530437e-01
2.585784e+00,7.677380e-01,7.500648e-01,3,0,1.230949e+00,1.230950e+00
2.617908e+00,7.242790e-01,7.071495e-01,3,0,1.183050e+00,1.183050e+00
2.585400e+00,7.322110e-01,7.140636e-01,3,0,1.252967e+00,1.252968e+00
2.614355e+00,7.434780e-01,7.259846e-01,3,0,1.423242e+00,1.423243e+00
2.585701e+00,7.093390e-01,6.918907e-01,3,0,6.507778e-01,6.507779e-01
2.566254e+00,7.396930e-01,7.221699e-01,3,0,5.206091e-01,5.206093e-01
2.594878e+00,7.097460e-01,6.918907e-01,3,0,5.456153e-01,5.456157e-01
2.591962e+00,7.410600e-01,7.231236e-01,3,0,2.479450e-01,2.479453e-01
2.611287e+00,7.100220e-01,6.930828e-01,3,0,2.496584e-01,2.496585e-01
2.591147e+00,7.393580e-01,7.219315e-01,3,0,4.269923e-01,4.269927e-01
2.590997e+00,7.081680e-01,6.899834e-01,3,0,3.637077e-01,3.637078e-01
2.559658e+00,7.383010e-01,7.209778e-01,3,0,9.785949e-01,9.785964e-01
2.618201e+00,7.387870e-01,7.209778e-01,3,0,7.268645e-01,7.268651e-01
2.560879e+00,7.397810e-01,7.219315e-01,3,0,5.136775e-01,5.136777e-01
2.588023e+00,7.473350e-01,7.300377e-01,3,0,4.576682e-01,4.576684e-01
2.608509e+00,7.438810e-01,7.259846e-01,3,0,4.659260e-01,4.659263e-01
2.613812e+00,7.379150e-01,7.200241e-01,3,0,4.789421e-01,4.789424e-01
2.586636e+00,7.606840e-01,7.429123e-01,3,0,3.020693e-01,3.020694e-01
2.614101e+00,7.116700e-01,6.940365e-01,3,0,3.394993e-01,3.394996e-01
2.584929e+00,7.136370e-01,6.959438e-01,3,0,2.773581e-01,2.773583e-01
2.613959e+00,7.378520e-01,7.209778e-01,3,0,2.395140e-01,2.395141e-01
2.559475e+00,7.070850e-01,6.899834e-01,3,0,6.457983e-01,6.457991e-01
2.617347e+00,7.355660e-01,7.178783e-01,3,0,4.074311e-01,4.074314e-01
2.569346e+00,7.084670e-01,6.909370e-01,3,0,6.452890e-01,6.452895e-01
2.590101e+00,7.379890e-01,7.200241e-01,3,0,1.041436e+00,1.041437e+00
2.612351e+00,7.082540e-01,6.911755e-01,3,0,8.929563e-01,8.929569e-01
2.584728e+00,7.384120e-01,7.209778e-01,3,0,1.012420e+00,1.012420e+00
2.613296e+00,7.374560e-01,7.040501e-01,3,0,7.096702e-01,7.096702e-01
2.593958e+00,7.312260e-01,7.140636e-01,3,0,7.097767e-01,7.097770e-01
2.616886e+00,7.399080e-01,7.219315e-01,3,0,8.114538e-01,8.114543e-01
2.609303e+00,7.321630e-01,7.138252e-01,3,0,1.782571e+00,1.782573e+00
2.613567e+00,7.320730e-01,7.140636e-01,3,0,2.360395e+00,2.360396e+00
2.610258e+00,7.310760e-01,7.140636e-01,3,0,2.091283e+00,2.091283e+00
2.615364e+00,7.306740e-01,7.131100e-01,3,0,1.700505e+00,1.700505e+00
2.609738e+00,7.311290e-01,7.140636e-01,3,0,1.573460e+00,1.573461e+00
2.615649e+00,7.330280e-01,7.150173e-01,3,0,1.068438e+00,1.068438e+00
2.608620e+00,7.317230e-01,7.131100e-01,3,0,1.055489e+00,1.055490e+00
2.612691e+00,7.323670e-01,7.140636e-01,3,0,1.037040e+00,1.037041e+00
2.609115e+00,7.324510e-01,7.150173e-01,3,0,7.956390e-01,7.956391e-01
2.613721e+00,7.326160e-01,7.140636e-01,3,0,7.031923e-01,7.031924e-01
2.609633e+00,7.317610e-01,7.140636e-01,3,0,1.431416e+00,1.431417e+00
2.615401e+00,7.330650e-01,7.150173e-01,3,0,2.982526e+00,2.982529e+00
2.612757e+00,7.330640e-01,7.150173e-01,3,0,3.031351e+00,3.031352e+00
2.617677e+00,7.316500e-01,7.140636e-01,3,0,3.054805e+00,3.054806e+00
2.612307e+00,7.330660e-01,7.150173e-01,3,0,3.560091e+00,3.560092e+00
2.616092e+00,7.320830e-01,7.150173e-01,3,0,5.094643e+00,5.094645e+00
2.614436e+00,7.390820e-01,7.209778e-01,3,0,3.266818e+00,3.266817e+00
2.618697e+00,7.326940e-01,7.138252e-01,3,0,3.985967e+00,3.985969e+00
2.615052e+00,7.322230e-01,7.140636e-01,3,0,3.077070e+00,3.077071e+00
2.616497e+00,7.321070e-01,7.140636e-01,3,0,2.875824e+00,2.875825e+00
2.612894e+00,7.272100e-01,7.090569e-01,3,0,1.974572e+00,1.974572e+00
2.615896e+00,7.322560e-01,7.140636e-01,3,0,2.489595e+00,2.489596e+00
2.612049e+00,7.276500e-01,7.100105e-01,3,0,1.671672e+00,1.671672e+00
2.615143e+00,7.333130e-01,7.150173e-01,3,0,2.163027e+00,2.163028e+00
2.611201e+00,7.269060e-01,7.090569e-01,3,0,7.060781e-01,7.060780e-01
2.612771e+00,7.328040e-01,7.150173e-01,3,0,9.278413e-01,9.278421e-01
2.607546e+00,7.282800e-01,7.109642e-01,3,0,1.801408e+00,1.801410e+00
2.614443e+00,7.324040e-01,7.140636e-01,3,0,1.390233e+00,1.390233e+00
2.609804e+00,7.277610e-01,7.100105e-01,3,0,2.192513e+00,2.192514e+00
2.614505e+00,7.322830e-01,7.150173e-01,3,0,1.943524e+00,1.943524e+00
2.609642e+00,7.216100e-01,7.038116e-01,3,0,3.271265e+00,3.271268e+00
2.616572e+00,7.275730e-01,7.088184e-01,3,0,1.690158e+00,1.690158e+00
2.612687e+00,7.255780e-01,7.081032e-01,3,0,1.412957e+00,1.412957e+00
2.615928e+00,7.311440e-01,7.131100e-01,3,0,1.101828e+00,1.101828e+00
2.614688e+00,7.270030e-01,7.090569e-01,3,0,1.109885e+00,1.109885e+00
2.617324e+00,7.325920e-01,7.150173e-01,3,0,1.180568e+00,1.180569e+00
2.626011e+00,7.287410e-01,7.109642e-01,3,0,1.771000e+00,1.771001e+00
2.616666e+00,7.349060e-01,7.169247e-01,3,0,7.989901e-01,7.989897e-01
2.615234e+00,7.307800e-01,7.131100e-01,3,0,5.277677e-01,5.277678e-01
2.615141e+00,7.343090e-01,7.171631e-01,3,0,5.981907e-01,5.981911e-01
2.613199e+00,7.291500e-01,7.121563e-01,3,0,5.715123e-01,5.715125e-01
2.613897e+00,7.331280e-01,7.150173e-01,3,0,4.452625e-01,4.452625e-01
2.612860e+00,7.295670e-01,7.109642e-01,3,0,7.191414e-01,7.191423e-01
2.614094e+00,7.333970e-01,7.159710e-01,3,0,1.052376e+00,1.052377e+00
2.616985e+00,7.293370e-01,7.119179e-01,3,0,1.601034e+00,1.601035e+00
2.614312e+00,7.353900e-01,7.169247e-01,3,0,3.478601e+00,3.478604e+00
2.616323e+00,7.297530e-01,7.119179e-01,3,0,4.513997e+00,4.513999e+00
2.614232e+00,7.291440e-01,7.112026e-01,3,0,3.065464e+00,3.065464e+00
2.616052e+00,7.252240e-01,7.078648e-01,3,0,3.784548e+00,3.784550e+00
2.613895e+00,7.271000e-01,7.090569e-01,3,0,2.730902e+00,2.730902e+00
2.617799e+00,7.279870e-01,7.109642e-01,3,0,2.168822e+00,2.168822e+00
2.612008e+00,7.318710e-01,7.140636e-01,3,0,2.418014e+00,2.418015e+00
2.617919e+00,7.331010e-01,7.159710e-01,3,0,1.306380e+00,1.306379e+00
2.613614e+00,7.367360e-01,7.190704e-01,3,0,9.994552e-01,9.994563e-01
2.615824e+00,7.335430e-01,7.150173e-01,3,0,7.696679e-01,7.696680e-01
2.614244e+00,7.344530e-01,7.169247e-01,3,0,7.205157e-01,7.205159e-01
2.615994e+00,7.313100e-01,7.138252e-01,3,0,6.833542e-01,6.833544e-01
2.610052e+00,7.326420e-01,7.150173e-01,3,0,1.060752e+00,1.060752e+00
2.618903e+00,7.308550e-01,7.140636e-01,3,0,3.632652e-01,3.632651e-01
2.611331e+00,7.317330e-01,7.138252e-01,3,0,1.456896e+00,1.456898e+00
2.615450e+00,7.318050e-01,7.140636e-01,3,0,3.221336e+00,3.221339e+00
2.611067e+00,7.323220e-01,7.150173e-01,3,0,1.879967e+00,1.879966e+00
2.615980e+00,7.329250e-01,7.150173e-01,3,0,1.342877e+00,1.342877e+00
2.612187e+00,7.347250e-01,7.171631e-01,3,0,1.100848e+00,1.100849e+00
2.617507e+00,7.357150e-01,7.178783e-01,3,0,9.350397e-01,9.350399e-01
2.609211e+00,7.317000e-01,7.140636e-01,3,0,8.765802e-01,8.765805e-01
2.617834e+00,7.337690e-01,7.159710e-01,3,0,1.483488e+00,1.483489e+00
2.611024e+00,7.332240e-01,7.159710e-01,3,0,1.146399e+00,1.146399e+00
2.615853e+00,7.347580e-01,7.159710e-01,3,0,8.245384e-01,8.245384e-01
2.611805e+00,7.349260e-01,7.171631e-01,3,0,9.175525e-01,9.175529e-01
2.615528e+00,7.320390e-01,7.138252e-01,3,0,1.572602e+00,1.572604e+00
2.610523e+00,7.328230e-01,7.159710e-01,3,0,2.548008e+00,2.548010e+00
2.617053e+00,7.310310e-01,7.128716e-01,3,0,4.638467e+00,4.638470e+00
2.613441e+00,7.321570e-01,7.150173e-01,3,0,5.660150e+00,5.660152e+00
2.619593e+00,7.323240e-01,7.150173e-01,3,0,5.111808e+00,5.111808e+00
2.604930e+00,7.385000e-01,7.200241e-01,3,0,5.361423e+00,5.361424e+00
2.544514e+00,7.119700e-01,6.949902e-01,3,0,4.518841e+00,4.518841e+00
2.541942e+00,7.170150e-01,6.999969e-01,3,0,4.751979e+00,4.751981e+00
2.539608e+00,7.117860e-01,6.940365e-01,3,0,4.746627e+00,4.746628e+00
2.544338e+00,7.107800e-01,6.940365e-01,3,0,3.913827e+00,3.913827e+00
2.538179e+00,7.135160e-01,6.968975e-01,3,0,3.373792e+00,3.373792e+00
2.544155e+00,7.130530e-01,6.959438e-01,3,0,2.596148e+00,2.596148e+00
2.537476e+00,7.157170e-01,6.980896e-01,3,0,2.364515e+00,2.364515e+00
2.537521e+00,7.119120e-01,6.949902e-01,3,0,2.377073e+00,2.377073e+00
2.540839e+00,7.203720e-01,7.030964e-01,3,0,3.044294e+00,3.044295e+00
2.549093e+00,1.192862e+01,1.191211e+01,3,9,5.471069e+00,5.475965e+00
5.085856e+00,9.102106e+00,9.083986e+00,6,7,5.713012e+00,5.698599e+00
4.263417e+00,1.020582e+01,1.018786e+01,5,8,6.257300e+00,6.254193e+00
3.390146e+00,2.978905e+00,2.960920e+00,4,2,5.303516e+00,5.303516e+00
2.547091e+00,7.068600e-01,6.899834e-01,3,0,5.338687e+00,5.338688e+00
2.545008e+00,2.010196e+00,1.992941e+00,3,1,6.515666e+00,6.515862e+00
2.547354e+00,3.226998e+00,3.209114e+00,3,2,6.034988e+00,6.035174e+00
2.545063e+00,3.106441e+00,3.088951e+00,3,2,5.027684e+00,5.027776e+00
2.539411e+00,1.838940e+00,1.821995e+00,3,1,4.242549e+00,4.242549e+00
2.544974e+00,7.062700e-01,6.890297e-01,3,0,3.761744e+00,3.761745e+00
2.542082e+00,7.041770e-01,6.871223e-01,3,0,3.221987e+00,3.221987e+00
2.537795e+00,7.102680e-01,6.930828e-01,3,0,2.958941e+00,2.958942e+00
2.541414e+00,7.106760e-01,6.930828e-01,3,0,3.072654e+00,3.072655e+00
2.537964e+00,7.257680e-01,7.081032e-01,3,0,1.689571e+00,1.689570e+00
2.541810e+00,7.140610e-01,6.959438e-01,3,0,1.466479e+00,1.466479e+00
2.542404e+00,7.055750e-01,6.890297e-01,3,0,1.622636e+00,1.622637e+00
2.539303e+00,7.138610e-01,6.959438e-01,3,0,1.120965e+00,1.120965e+00
2.542466e+00,7.158630e-01,6.990433e-01,3,0,9.459927e-01,9.459929e-01
2.535676e+00,7.096410e-01,6.921291e-01,3,0,7.684242e-01,7.684245e-01
2.540955e+00,7.132460e-01,6.959438e-01,3,0,4.885185e-01,4.885186e-01
2.617276e+00,8.009880e-01,7.832050e-01,3,0,3.703969e-01,3.703976e-01
2.542531e+00,7.791040e-01,7.591248e-01,3,0,2.797300e-01,2.797304e-01
2.564259e+00,7.871440e-01,7.669926e-01,3,0,3.974023e-01,3.974026e-01
2.568465e+00,7.761370e-01,7.569790e-01,3,0,5.354245e-01,5.354250e-01
2.560958e+00,7.280220e-01,7.100105e-01,3,0,3.592150e-01,3.592151e-01
2.539924e+00,7.219460e-01,7.040501e-01,3,0,4.040946e-01,4.040951e-01
2.565444e+00,7.110110e-01,6.940365e-01,3,0,1.113161e+00,1.113162e+00
2.535404e+00,7.139030e-01,6.961823e-01,3,0,2.515813e+00,2.515816e+00
2.542921e+00,7.144400e-01,6.971359e-01,3,0,3.426447e+00,3.426449e+00
2.538179e+00,7.092670e-01,6.921291e-01,3,0,2.879426e+00,2.879426e+00
2.542518e+00,7.156870e-01,6.980896e-01,3,0,3.110349e+00,3.110350e+00
2.543778e+00,7.092750e-01,6.918907e-01,3,0,3.024897e+00,3.024898e+00
2.562108e+00,7.156480e-01,6.980896e-01,3,0,2.671651e+00,2.671651e+00
2.567879e+00,7.131840e-01,6.949902e-01,3,0,2.112212e+00,2.112212e+00
2.535364e+00,7.088580e-01,6.921291e-01,3,0,2.070672e+00,2.070672e+00
2.542924e+00,7.120310e-01,6.949902e-01,3,0,3.677841e+00,3.677843e+00
2.539148e+00,2.081333e+00,2.063990e+00,3,1,4.748279e+00,4.748660e+00
2.544522e+00,9.280300e-01,9.109974e-01,3,0,5.601874e+00,5.604370e+00
2.550447e+00,3.225681e+00,3.207922e+00,3,2,4.561991e+00,4.562081e+00
2.540682e+00,9.403880e-01,9.229183e-01,3,0,3.478404e+00,3.478562e+00
2.543652e+00,1.849520e+00,1.832008e+00,3,1,2.544123e+00,2.544123e+00
2.538950e+00,7.121330e-01,6.949902e-01,3,0,2.076841e+00,2.076841e+00
2.543392e+00,7.134240e-01,6.959438e-01,3,0,2.759514e+00,2.759516e+00
2.538337e+00,7.102210e-01,6.928444e-01,3,0,2.751324e+00,2.751324e+00
2.542312e+00,7.159200e-01,6.980896e-01,3,0,2.069403e+00,2.069403e+00
2.540964e+00,7.115550e-01,6.940365e-01,3,0,2.024263e+00,2.024263e+00
2.536658e+00,7.179330e-01,6.999969e-01,3,0,2.326177e+00,2.326178e+00
2.541685e+00,7.165770e-01,6.990433e-01,3,0,2.414224e+00,2.414225e+00
2.535221e+00,7.096460e-01,6.921291e-01,3,0,2.956553e+00,2.956554e+00
2.543905e+00,7.139880e-01,6.968975e-01,3,0,2.350926e+00,2.350926e+00
2.541868e+00,7.086340e-01,6.909370e-01,3,0,3.067183e+00,3.067185e+00
2.537159e+00,7.138030e-01,6.968975e-01,3,0,3.023790e+00,3.023791e+00
2.543550e+00,7.124020e-01,6.949902e-01,3,0,2.527913e+00,2.527914e+00
2.537639e+00,7.082640e-01,6.899834e-01,3,0,2.091119e+00,2.091119e+00
2.540173e+00,7.123210e-01,6.949902e-01,3,0,2.201044e+00,2.201045e+00
2.541387e+00,7.097350e-01,6.921291e-01,3,0,2.211137e+00,2.211137e+00
2.535549e+00,7.130360e-01,6.961823e-01,3,0,1.630548e+00,1.630548e+00
2.540742e+00,7.130500e-01,6.949902e-01,3,0,1.629964e+00,1.629965e+00
2.536680e+00,7.077360e-01,6.902218e-01,3,0,1.065579e+00,1.065579e+00
2.537254e+00,7.129320e-01,6.959438e-01,3,0,8.781390e-01,8.781392e-01
2.564217e+00,7.119250e-01,6.940365e-01,3,0,5.657121e-01,5.657123e-01
2.560259e+00,7.144670e-01,6.968975e-01,3,0,3.838154e-01,3.838156e-01
2.539999e+00,7.160540e-01,6.978512e-01,3,0,2.168859e-01,2.168859e-01
2.534258e+00,7.087940e-01,6.909370e-01,3,0,4.077931e-01,4.077937e-01
2.534336e+00,7.144320e-01,6.971359e-01,3,0,2.298412e-01,2.298412e-01
2.539793e+00,7.125320e-01,6.949902e-01,3,0,2.219918e-01,2.219921e-01
2.535309e+00,7.122560e-01,6.949902e-01,3,0,1.341589e-01,1.341590e-01
2.538135e+00,7.115370e-01,6.949902e-01,3,0,1.470559e-01,1.470561e-01
2.537565e+00,7.066120e-01,6.899834e-01,3,0,1.317569e-01,1.317570e-01
2.538552e+00,7.183080e-01,7.009506e-01,3,0,3.249667e-01,3.249672e-01
2.539717e+00,7.766600e-01,7.557869e-01,3,0,2.494333e-01,2.494335e-01
2.537645e+00,7.629550e-01,7.431507e-01,3,0,2.719699e-01,2.719706e-01
2.537833e+00,7.537480e-01,7.350445e-01,3,0,5.470027e-01,5.470033e-01
2.534163e+00,7.245880e-01,7.081032e-01,3,0,2.990679e-01,2.990678e-01
2.539829e+00,7.197150e-01,7.019043e-01,3,0,4.258654e-01,4.258657e-01
2.538098e+00,7.116880e-01,6.937981e-01,3,0,4.303087e-01,4.303089e-01
2.535003e+00,7.150650e-01,6.980896e-01,3,0,7.248210e-01,7.248216e-01
2.539531e+00,7.144080e-01,6.968975e-01,3,0,5.522389e-01,5.522390e-01
2.534022e+00,7.147900e-01,6.971359e-01,3,0,3.638403e-01,3.638404e-01
2.550614e+00,7.156400e-01,6.980896e-01,3,0,2.660233e-01,2.660235e-01
2.540580e+00,7.078980e-01,6.899834e-01,3,0,3.563760e-01,3.563763e-01
2.535180e+00,7.140710e-01,6.968975e-01,3,0,3.281871e-01,3.281872e-01
2.539449e+00,7.148590e-01,6.980896e-01,3,0,2.648635e-01,2.648636e-01
2.532904e+00,7.103100e-01,6.930828e-01,3,0,4.637964e-01,4.637969e-01
2.540383e+00,7.142410e-01,6.971359e-01,3,0,3.516932e-01,3.516934e-01
2.538617e+00,7.091770e-01,6.909370e-01,3,0,5.227971e-01,5.227975e-01
2.533884e+00,7.133590e-01,6.961823e-01,3,0,9.247074e-01,9.247082e-01
2.539972e+00,7.128630e-01,6.961823e-01,3,0,8.107840e-01,8.107843e-01
2.536118e+00,7.097400e-01,6.918907e-01,3,0,7.181143e-01,7.181146e-01
2.563874e+00,7.139360e-01,6.959438e-01,3,0,1.643255e+00,1.643256e+00
2.543103e+00,7.106340e-01,6.930828e-01,3,0,1.994013e+00,1.994014e+00
2.535894e+00,7.261680e-01,7.078648e-01,3,0,1.134333e+00,1.134332e+00
2.540927e+00,7.137720e-01,6.959438e-01,3,0,8.482992e-01,8.482992e-01
2.534513e+00,7.087470e-01,6.918907e-01,3,0,6.537275e-01,6.537277e-01
2.539333e+00,7.159760e-01,6.990433e-01,3,0,4.364265e-01,4.364266e-01
2.539408e+00,7.105170e-01,6.928444e-01,3,0,3.864393e-01,3.864395e-01
2.535590e+00,7.140850e-01,6.971359e-01,3,0,5.548966e-01,5.548969e-01
2.540621e+00,7.128470e-01,6.949902e-01,3,0,5.307640e-01,5.307642e-01
2.562835e+00,7.073340e-01,6.899834e-01,3,0,2.639964e-01,2.639967e-01
2.535256e+00,7.145320e-01,6.968975e-01,3,0,7.176997e-01,7.177005e-01
2.539599e+00,7.092550e-01,6.921291e-01,3,0,3.984583e-01,3.984582e-01
2.535576e+00,7.161720e-01,6.990433e-01,3,0,3.519683e-01,3.519686e-01
2.540231e+00,7.141690e-01,6.968975e-01,3,0,4.923560e-01,4.923565e-01
2.535934e+00,7.088090e-01,6.911755e-01,3,0,4.030468e-01,4.030469e-01
2.534524e+00,7.129970e-01,6.959438e-01,3,0,4.731869e-01,4.731872e-01
2.539215e+00,7.134940e-01,6.971359e-01,3,0,6.026986e-01,6.026990e-01
2.535439e+00,7.130880e-01,6.959438e-01,3,0,4.756011e-01,4.756014e-01
2.539486e+00,7.123520e-01,6.949902e-01,3,0,4.945683e-01,4.945688e-01
2.539105e+00,7.066860e-01,6.890297e-01,3,0,6.169630e-01,6.169634e-01
2.535346e+00,7.114400e-01,6.940365e-01,3,0,7.574940e-01,7.574945e-01
2.541246e+00,7.118380e-01,6.940365e-01,3,0,1.135815e+00,1.135816e+00
2.536445e+00,7.139210e-01,6.968975e-01,3,0,7.866686e-01,7.866686e-01
2.538612e+00,7.121580e-01,6.940365e-01,3,0,7.566110e-01,7.566118e-01
2.539059e+00,7.076880e-01,6.899834e-01,3,0,7.321423e-01,7.321425e-01
2.536017e+00,7.131300e-01,6.959438e-01,3,0,7.926635e-01,7.926638e-01
2.543157e+00,7.144320e-01,6.971359e-01,3,0,6.555924e-01,6.555926e-01
2.537772e+00,7.087850e-01,6.921291e-01,3,0,1.115599e+00,1.115600e+00
2.541680e+00,7.138630e-01,6.959438e-01,3,0,8.292395e-01,8.292396e-01
2.539325e+00,7.081920e-01,6.911755e-01,3,0,7.751496e-01,7.751498e-01
2.537072e+00,7.406380e-01,7.109642e-01,3,0,7.596659e-01,7.596662e-01
2.564369e+00,7.161420e-01,6.980896e-01,3,0,6.878779e-01,6.878782e-01
2.534199e+00,7.088900e-01,6.918907e-01,3,0,4.928153e-01,4.928154e-01
2.547281e+00,7.237060e-01,7.059574e-01,3,0,6.019903e-01,6.019907e-01
2.541019e+00,7.087760e-01,6.921291e-01,3,0,6.788454e-01,6.788458e-01
2.534462e+00,7.129390e-01,6.959438e-01,3,0,4.668361e-01,4.668362e-01
2.539943e+00,7.120510e-01,6.949902e-01,3,0,8.782905e-01,8.782915e-01
2.535723e+00,7.078150e-01,6.899834e-01,3,0,6.180953e-01,6.180954e-01
2.539115e+00,7.233100e-01,7.059574e-01,3,0,5.652560e-01,5.652562e-01
2.539694e+00,7.023180e-01,6.849766e-01,3,0,5.058805e-01,5.058807e-01
2.534281e+00,7.085810e-01,6.909370e-01,3,0,3.970666e-01,3.970670e-01
2.539066e+00,7.067610e-01,6.887913e-01,3,0,2.920335e-01,2.920336e-01
2.531759e+00,7.053170e-01,6.878376e-01,3,0,5.797271e-01,5.797276e-01
2.536771e+00,7.112700e-01,6.940365e-01,3,0,4.997484e-01,4.997486e-01
2.539128e+00,7.124540e-01,6.949902e-01,3,0,5.083701e-01,5.083705e-01
2.534966e+00,7.152560e-01,6.980896e-01,3,0,4.754070e-01,4.754071e-01
2.541549e+00,7.065520e-01,6.890297e-01,3,0,3.696138e-01,3.696140e-01
2.539875e+00,7.094990e-01,6.921291e-01,3,0,4.437752e-01,4.437754e-01
2.536567e+00,7.128150e-01,6.959438e-01,3,0,3.442542e-01,3.442543e-01
2.539787e+00,7.063590e-01,6.878376e-01,3,0,1.454142e+00,1.454145e+00
2.535010e+00,7.062790e-01,6.849766e-01,3,0,3.218426e+00,3.218429e+00
2.544305e+00,7.075400e-01,6.899834e-01,3,0,2.417709e+00,2.417709e+00
2.540625e+00,7.075890e-01,6.902218e-01,3,0,1.723470e+00,1.723469e+00
2.539081e+00,7.132950e-01,6.949902e-01,3,0,1.264273e+00,1.264273e+00
2.543258e+00,7.140140e-01,6.959438e-01,3,0,1.366920e+00,1.366921e+00
2.536780e+00,7.062770e-01,6.890297e-01,3,0,1.080433e+00,1.080433e+00
2.541808e+00,7.112610e-01,6.928444e-01,3,0,1.043214e+00,1.043215e+00
2.538635e+00,7.074270e-01,6.911755e-01,3,0,1.256928e+00,1.256929e+00
2.536144e+00,7.125760e-01,6.959438e-01,3,0,1.434081e+00,1.434082e+00
2.566363e+00,7.122050e-01,6.949902e-01,3,0,1.312167e+00,1.312167e+00
2.535061e+00,7.097280e-01,6.921291e-01,3,0,1.397981e+00,1.397982e+00
2.540161e+00,7.390110e-01,7.219315e-01,3,0,1.863003e+00,1.863004e+00
2.542758e+00,7.083400e-01,6.909370e-01,3,0,1.373502e+00,1.373502e+00
2.535880e+00,7.128300e-01,6.949902e-01,3,0,9.297268e-01,9.297267e-01
2.540552e+00,7.137560e-01,6.971359e-01,3,0,5.499714e-01,5.499713e-01
2.536142e+00,7.083100e-01,6.899834e-01,3,0,3.668138e-01,3.668139e-01
2.536812e+00,7.138520e-01,6.968975e-01,3,0,2.877355e-01,2.877357e-01
2.540603e+00,7.117220e-01,6.899834e-01,3,0,3.947834e-01,3.947838e-01
2.536294e+00,7.145500e-01,6.978512e-01,3,0,2.789122e-01,2.789122e-01
2.539015e+00,7.128670e-01,6.959438e-01,3,0,4.675792e-01,4.675797e-01
2.560397e+00,7.058470e-01,6.890297e-01,3,0,4.970878e-01,4.970881e-01
2.535793e+00,7.102460e-01,6.930828e-01,3,0,4.618481e-01,4.618482e-01
2.537062e+00,7.055900e-01,6.890297e-01,3,0,5.953715e-01,5.953720e-01
2.534326e+00,7.065840e-01,6.890297e-01,3,0,3.315657e-01,3.315657e-01
2.538672e+00,7.080940e-01,6.909370e-01,3,0,2.690296e-01,2.690297e-01
2.540209e+00,6.991580e-01,6.811619e-01,3,0,1.439716e+00,1.439718e+00
2.536506e+00,7.070790e-01,6.899834e-01,3,0,1.497778e+00,1.497778e+00
2.544035e+00,7.058070e-01,6.880760e-01,3,0,7.278863e-01,7.278860e-01
2.535575e+00,6.996120e-01,6.818771e-01,3,0,7.180997e-01,7.181000e-01
2.537931e+00,7.062120e-01,6.887913e-01,3,0,6.287847e-01,6.287848e-01
2.541511e+00,7.061060e-01,6.890297e-01,3,0,6.738941e-01,6.738943e-01
2.536063e+00,7.122920e-01,6.949902e-01,3,0,3.442809e-01,3.442809e-01
2.538085e+00,7.151690e-01,6.980896e-01,3,0,2.891100e-01,2.891102e-01
2.534434e+00,7.085650e-01,6.911755e-01,3,0,5.501564e-01,5.501570e-01
2.536000e+00,7.155800e-01,6.990433e-01,3,0,6.853876e-01,6.853880e-01
2.540696e+00,7.135870e-01,6.918907e-01,3,0,8.436203e-01,8.436208e-01
2.536193e+00,7.137250e-01,6.968975e-01,3,0,5.492924e-01,5.492925e-01
2.539934e+00,7.141580e-01,6.959438e-01,3,0,5.278028e-01,5.278031e-01
2.534626e+00,7.100060e-01,6.928444e-01,3,0,7.921321e-01,7.921328e-01
2.534913e+00,7.264180e-01,7.090569e-01,3,0,1.174977e+00,1.174978e+00
2.564671e+00,7.137720e-01,6.959438e-01,3,0,1.302904e+00,1.302905e+00
2.534539e+00,7.147460e-01,6.971359e-01,3,0,1.817124e+00,1.817125e+00
2.540888e+00,7.144850e-01,6.968975e-01,3,0,1.715592e+00,1.715592e+00
2.534605e+00,7.085460e-01,6.918907e-01,3,0,2.668147e+00,2.668149e+00
2.538944e+00,7.124260e-01,6.949902e-01,3,0,1.115504e+00,1.115503e+00
2.538642e+00,7.123820e-01,6.952286e-01,3,0,9.496690e-01,9.496692e-01
2.535565e+00,7.123800e-01,6.949902e-01,3,0,1.501070e+00,1.501071e+00
2.539693e+00,7.136900e-01,6.959438e-01,3,0,7.347715e-01,7.347713e-01
2.537975e+00,7.080110e-01,6.899834e-01,3,0,6.039012e-01,6.039013e-01
2.534742e+00,7.143190e-01,6.971359e-01,3,0,4.902786e-01,4.902788e-01
2.538628e+00,7.147920e-01,6.980896e-01,3,0,3.288289e-01,3.288289e-01
2.532615e+00,7.129330e-01,6.949902e-01,3,0,6.713507e-01,6.713514e-01
2.540878e+00,7.138770e-01,6.959438e-01,3,0,4.977157e-01,4.977158e-01
2.539214e+00,7.082220e-01,6.911755e-01,3,0,2.836729e-01,2.836729e-01
2.537981e+00,7.136500e-01,6.961823e-01,3,0,6.883841e-01,6.883851e-01
2.540230e+00,7.136030e-01,6.959438e-01,3,0,4.772287e-01,4.772287e-01
2.533469e+00,7.087670e-01,6.918907e-01,3,0,2.511171e-01,2.511172e-01
2.535327e+00,7.120760e-01,6.940365e-01,3,0,2.738160e-01,2.738161e-01
2.538597e+00,7.073330e-01,6.899834e-01,3,0,3.426197e-01,3.426200e-01
2.534193e+00,7.138510e-01,6.959438e-01,3,0,5.175605e-01,5.175609e-01
2.536783e+00,7.127450e-01,6.949902e-01,3,0,1.085639e+00,1.085640e+00
2.535879e+00,7.068960e-01,6.890297e-01,3,0,7.889571e-01,7.889584e-01
2.536115e+00,7.122070e-01,6.949902e-01,3,0,1.428622e+00,1.428623e+00
2.540728e+00,7.126790e-01,6.949902e-01,3,0,6.237769e-01,6.237766e-01
2.535123e+00,7.127020e-01,6.959438e-01,3,0,4.968982e-01,4.968984e-01
2.537834e+00,7.135760e-01,6.961823e-01,3,0,3.323352e-01,3.323352e-01
2.538159e+00,7.075880e-01,6.899834e-01,3,0,3.054052e-01,3.054055e-01
2.532689e+00,7.125820e-01,6.959438e-01,3,0,8.581247e-01,8.581260e-01
2.564634e+00,7.133110e-01,6.949902e-01,3,0,8.560401e-01,8.560403e-01
2.534281e+00,7.148070e-01,6.980896e-01,3,0,1.314357e+00,1.314358e+00
2.541576e+00,7.270030e-01,7.090569e-01,3,0,1.349008e+00,1.349008e+00
2.535650e+00,7.088310e-01,6.909370e-01,3,0,1.548526e+00,1.548526e+00
2.536158e+00,7.126800e-01,6.959438e-01,3,0,2.537453e+00,2.537455e+00
2.542708e+00,7.137890e-01,6.961823e-01,3,0,2.841281e+00,2.841282e+00
2.538513e+00,7.117440e-01,6.940365e-01,3,0,2.122474e+00,2.122474e+00
2.543382e+00,7.137660e-01,6.959438e-01,3,0,1.906985e+00,1.906986e+00
2.540574e+00,7.071610e-01,6.899834e-01,3,0,2.680219e+00,2.680222e+00
2.538899e+00,7.125730e-01,6.949902e-01,3,0,1.820725e+00,1.820725e+00
2.541548e+00,7.157490e-01,6.990433e-01,3,0,1.509571e+00,1.509571e+00
2.555167e+00,7.126290e-01,6.949902e-01,3,0,1.527028e+00,1.527030e+00
2.540783e+00,7.151740e-01,6.978512e-01,3,0,1.650982e+00,1.650983e+00
2.541073e+00,7.086800e-01,6.909370e-01,3,0,1.808067e+00,1.808068e+00
2.537165e+00,7.371780e-01,7.200241e-01,3,0,1.332610e+00,1.332610e+00
2.540916e+00,7.133070e-01,6.949902e-01,3,0,1.278931e+00,1.278931e+00
2.534370e+00,7.122800e-01,6.952286e-01,3,0,1.640309e+00,1.640310e+00
2.540603e+00,7.118480e-01,6.949902e-01,3,0,1.799944e+00,1.799945e+00
2.540997e+00,7.059920e-01,6.890297e-01,3,0,1.140217e+00,1.140217e+00
2.537084e+00,7.128560e-01,6.949902e-01,3,0,1.096293e+00,1.096293e+00
2.540492e+00,7.146540e-01,6.968975e-01,3,0,6.438818e-01,6.438817e-01
2.532659e+00,7.065560e-01,6.887913e-01,3,0,6.245250e-01,6.245254e-01

