1.896796e+00,1.796170e+00,2,2,0.000000e+00,0.000000e+00
2.837596e+00,2.665139e+00,3,3,2.981004e-01,2.981003e-01
2.836487e+00,2.659513e+00,3,3,3.599056e-01,3.599055e-01
2.832660e+00,2.661645e+00,3,3,2.229702e+00,2.229701e+00
2.835873e+00,2.659400e+00,3,3,1.503187e+00,1.503187e+00
2.834071e+00,2.661808e+00,3,3,1.400057e+00,1.400057e+00
2.858112e+00,2.660576e+00,3,3,4.804107e+00,4.804107e+00
2.828186e+00,2.663626e+00,3,3,5.579141e+00,5.579190e+00
2.847137e+00,2.660105e+00,3,3,6.728144e+00,6.728985e+00
2.826964e+00,2.664260e+00,3,3,6.632286e+00,6.632285e+00
2.835456e+00,2.657029e+00,3,3,1.054866e+01,1.054918e+01
3.761331e+00,3.545771e+00,4,4,7.195772e+00,7.195772e+00
2.830251e+00,2.656742e+00,3,3,8.216297e+00,8.216311e+00
2.832828e+00,2.663827e+00,3,3,6.883692e+00,6.883997e+00
2.831718e+00,2.655179e+00,3,3,5.959202e+00,5.959213e+00
2.830173e+00,2.659104e+00,3,3,5.888057e+00,5.888056e+00
2.831121e+00,2.654775e+00,3,3,5.182907e+00,5.182907e+00
2.828245e+00,2.664617e+00,3,3,4.795323e+00,4.795323e+00
2.830579e+00,2.658120e+00,3,3,4.027718e+00,4.027718e+00
2.831735e+00,2.662252e+00,3,3,3.669422e+00,3.669422e+00
2.828807e+00,2.656769e+00,3,3,3.686914e+00,3.686913e+00
2.829446e+00,2.663683e+00,3,3,2.743736e+00,2.743736e+00
2.833709e+00,2.656624e+00,3,3,3.513130e+00,3.513129e+00
2.833898e+00,2.663630e+00,3,3,3.329479e+00,3.329479e+00
2.827857e+00,2.658000e+00,3,3,3.187505e+00,3.187504e+00
2.831683e+00,2.665357e+00,3,3,3.827169e+00,3.827168e+00
2.828374e+00,2.656797e+00,3,3,2.716916e+00,2.716916e+00
2.834486e+00,2.660925e+00,3,3,2.297279e+00,2.297279e+00
2.828378e+00,2.657167e+00,3,3,1.844793e+00,1.844793e+00
2.830849e+00,2.661753e+00,3,3,2.397625e+00,2.397624e+00
2.828311e+00,2.654985e+00,3,3,1.949041e+00,1.949040e+00
2.827334e+00,2.662713e+00,3,3,2.769630e+00,2.769628e+00
2.827577e+00,2.658439e+00,3,3,3.316140e+00,3.316139e+00
2.833899e+00,2.661716e+00,3,3,3.591524e+00,3.591523e+00
2.831398e+00,2.654624e+00,3,3,2.176355e+00,2.176356e+00
2.834332e+00,2.661037e+00,3,3,2.603750e+00,2.603749e+00
2.827225e+00,2.656467e+00,3,3,2.658363e+00,2.658363e+00
2.834123e+00,2.662911e+00,3,3,2.027866e+00,2.027866e+00
2.829474e+00,2.657352e+00,3,3,1.635336e+00,1.635335e+00
2.830636e+00,2.664161e+00,3,3,1.514686e+00,1.514686e+00
2.833117e+00,2.657296e+00,3,3,2.174938e+00,2.174937e+00
2.837732e+00,2.662448e+00,3,3,1.749257e+00,1.749257e+00
2.829795e+00,2.656730e+00,3,3,1.542032e+00,1.542031e+00
2.837164e+00,2.661788e+00,3,3,3.383957e+00,3.383955e+00
2.829344e+00,2.658990e+00,3,3,4.587076e+00,4.587075e+00
2.830536e+00,2.663044e+00,3,3,2.343486e+00,2.343487e+00
2.827382e+00,2.655504e+00,3,3,1.849874e+00,1.849874e+00
2.829310e+00,2.661618e+00,3,3,1.767093e+00,1.767093e+00
2.834235e+00,2.655557e+00,3,3,2.714593e+00,2.714596e+00
2.834177e+00,2.664739e+00,3,3,1.834846e+00,1.834847e+00
2.836277e+00,2.656725e+00,3,3,1.052900e+00,1.052900e+00
2.827898e+00,2.662160e+00,3,3,1.689210e+00,1.689210e+00
2.828956e+00,2.656559e+00,3,3,1.823648e+00,1.823648e+00
2.832321e+00,2.662755e+00,3,3,2.054222e+00,2.054222e+00
2.834201e+00,2.656069e+00,3,3,1.376093e+00,1.376093e+00
2.830566e+00,2.661635e+00,3,3,1.500696e+00,1.500695e+00
2.828702e+00,2.655303e+00,3,3,1.686901e+00,1.686901e+00
2.827467e+00,2.660596e+00,3,3,1.567418e+00,1.567418e+00
2.830924e+00,2.657588e+00,3,3,1.939159e+00,1.939158e+00
2.827568e+00,2.664837e+00,3,3,3.706977e+00,3.706976e+00
2.832231e+00,2.659683e+00,3,3,2.228121e+00,2.228121e+00
2.837701e+00,2.662188e+00,3,3,2.284232e+00,2.284232e+00
2.829632e+00,2.655965e+00,3,3,3.327520e+00,3.327519e+00
2.831691e+00,2.699002e+00,3,3,2.330644e+00,2.330644e+00
2.839639e+00,2.657066e+00,3,3,1.445491e+00,1.445491e+00
2.829148e+00,2.661364e+00,3,3,1.879426e+00,1.879425e+00
2.828220e+00,2.657233e+00,3,3,1.307159e+00,1.307159e+00
2.830636e+00,2.661455e+00,3,3,8.683366e-01,8.683367e-01
2.830388e+00,2.657543e+00,3,3,8.033127e-01,8.033126e-01
2.833382e+00,2.662415e+00,3,3,8.252692e-01,8.252691e-01
2.832148e+00,2.658480e+00,3,3,8.878894e-01,8.878890e-01
2.833182e+00,2.661082e+00,3,3,1.154344e+00,1.154344e+00
2.830174e+00,2.656169e+00,3,3,9.145426e-01,9.145422e-01
2.835457e+00,2.660592e+00,3,3,5.186829e-01,5.186830e-01
2.828699e+00,2.656182e+00,3,3,1.687122e+00,1.687120e+00
2.834225e+00,2.663331e+00,3,3,1.648997e+00,1.648996e+00
2.830775e+00,2.654286e+00,3,3,1.693040e+00,1.693040e+00
2.828222e+00,2.660624e+00,3,3,2.026327e+00,2.026326e+00
2.827136e+00,2.653560e+00,3,3,4.816313e+00,4.816310e+00
2.835601e+00,2.661190e+00,3,3,6.149685e+00,6.149705e+00
2.830639e+00,2.656249e+00,3,3,5.213942e+00,5.213944e+00
2.828673e+00,2.664839e+00,3,3,4.555880e+00,4.555882e+00
2.831557e+00,2.656742e+00,3,3,5.356069e+00,5.356115e+00
2.829522e+00,2.665633e+00,3,3,5.100548e+00,5.100570e+00
2.830886e+00,2.655961e+00,3,3,4.071635e+00,4.071640e+00
2.836345e+00,2.661402e+00,3,3,3.468412e+00,3.468412e+00
2.831238e+00,2.656515e+00,3,3,2.673497e+00,2.673497e+00
2.827452e+00,2.663012e+00,3,3,2.389343e+00,2.389342e+00
2.832489e+00,2.656857e+00,3,3,2.033998e+00,2.033998e+00
2.828497e+00,2.660370e+00,3,3,1.876356e+00,1.876356e+00
2.831128e+00,2.655488e+00,3,3,1.742228e+00,1.742228e+00
2.834270e+00,2.662149e+00,3,3,2.353090e+00,2.353090e+00
2.830226e+00,2.655455e+00,3,3,1.839110e+00,1.839110e+00
2.829583e+00,2.660881e+00,3,3,3.450954e+00,3.450956e+00
2.830277e+00,2.656986e+00,3,3,4.194962e+00,4.194966e+00
2.835226e+00,2.662311e+00,3,3,2.469197e+00,2.469200e+00
2.827206e+00,2.657309e+00,3,3,5.964552e+00,5.964717e+00
4.703885e+00,3.544003e+00,5,4,4.369864e+00,4.378876e+00
2.819797e+00,3.544626e+00,3,4,1.623371e+00,1.623368e+00
2.836587e+00,2.663209e+00,3,3,1.692095e+00,1.692094e+00
2.829937e+00,2.661628e+00,3,3,2.215824e+00,2.215824e+00
2.832117e+00,2.660963e+00,3,3,2.305506e+00,2.305506e+00
2.820843e+00,2.663488e+00,3,3,4.291551e+00,4.291550e+00
2.836891e+00,2.661542e+00,3,3,4.487123e+00,4.487126e+00
2.827095e+00,2.661599e+00,3,3,3.770399e+00,3.770405e+00
2.829062e+00,2.664562e+00,3,3,4.886310e+00,4.886388e+00
2.823080e+00,2.659346e+00,3,3,7.600464e+00,7.600959e+00
2.828440e+00,2.660815e+00,3,3,1.058205e+01,1.058521e+01
5.641689e+00,5.316400e+00,6,6,1.262827e+01,1.263500e+01
4.708831e+00,3.549237e+00,5,4,8.146870e+00,8.145663e+00
2.885729e+00,2.656804e+00,3,3,6.627039e+00,6.627026e+00
2.832186e+00,2.662815e+00,3,3,5.278261e+00,5.278261e+00
2.837342e+00,2.656790e+00,3,3,5.005637e+00,5.005636e+00
2.833288e+00,2.664176e+00,3,3,3.920533e+00,3.920533e+00
2.836035e+00,2.655649e+00,3,3,4.074256e+00,4.074256e+00
2.830627e+00,2.663075e+00,3,3,4.675510e+00,4.675509e+00
2.827603e+00,2.654812e+00,3,3,9.396666e+00,9.392337e+00
5.643765e+00,5.310264e+00,6,6,9.618617e+00,9.618648e+00
3.767734e+00,4.431179e+00,4,5,6.237434e+00,6.241629e+00
4.695556e+00,3.544110e+00,5,4,6.658714e+00,6.661254e+00
3.778365e+00,3.541029e+00,4,4,9.703493e+00,9.701177e+00
4.705322e+00,3.537954e+00,5,4,7.270491e+00,7.247858e+00
3.773523e+00,2.661015e+00,4,3,5.976932e+00,5.977021e+00
2.836611e+00,2.655890e+00,3,3,3.019113e+00,3.019111e+00
2.828060e+00,2.661626e+00,3,3,2.301399e+00,2.301399e+00
2.833504e+00,2.659156e+00,3,3,2.015959e+00,2.015959e+00
2.830514e+00,2.659763e+00,3,3,1.617367e+00,1.617366e+00
2.831646e+00,2.655997e+00,3,3,1.451495e+00,1.451495e+00
2.845204e+00,2.664245e+00,3,3,9.649223e-01,9.649221e-01
2.829186e+00,2.657367e+00,3,3,2.964021e+00,2.964021e+00
2.840057e+00,2.663341e+00,3,3,3.741698e+00,3.741698e+00
2.830843e+00,2.656854e+00,3,3,4.517099e+00,4.517098e+00
2.830660e+00,2.662361e+00,3,3,8.614284e+00,8.614312e+00
2.830001e+00,2.655413e+00,3,3,8.854586e+00,8.854673e+00
2.831530e+00,2.661547e+00,3,3,7.980370e+00,7.980502e+00
2.835271e+00,2.656863e+00,3,3,5.071802e+00,5.071815e+00
2.835603e+00,2.662862e+00,3,3,4.143985e+00,4.143984e+00
2.829713e+00,2.656142e+00,3,3,4.835795e+00,4.835794e+00
2.835191e+00,2.663399e+00,3,3,6.978019e+00,6.978101e+00
2.836483e+00,2.654899e+00,3,3,5.848577e+00,5.849269e+00
2.831227e+00,2.662275e+00,3,3,1.084445e+01,1.085107e+01
5.648439e+00,5.311303e+00,6,6,1.143231e+01,1.142052e+01
4.702199e+00,3.537582e+00,5,4,1.031745e+01,1.030782e+01
3.770600e+00,5.315956e+00,4,6,7.337646e+00,7.341841e+00
2.839451e+00,2.667671e+00,3,3,6.828734e+00,6.829787e+00
2.828462e+00,2.657959e+00,3,3,6.459339e+00,6.459439e+00
2.828770e+00,2.662656e+00,3,3,7.317300e+00,7.317311e+00
2.832504e+00,2.657245e+00,3,3,4.379776e+00,4.379778e+00
2.833904e+00,2.664032e+00,3,3,4.164910e+00,4.164910e+00
2.834924e+00,2.654870e+00,3,3,4.189777e+00,4.189777e+00
2.837741e+00,2.662516e+00,3,3,3.999013e+00,3.999013e+00
2.829619e+00,2.655783e+00,3,3,5.260254e+00,5.260253e+00
2.832934e+00,2.662439e+00,3,3,3.738321e+00,3.738322e+00
2.828136e+00,2.658896e+00,3,3,2.357660e+00,2.357660e+00
2.832510e+00,2.664300e+00,3,3,2.054870e+00,2.054870e+00
2.832977e+00,2.657666e+00,3,3,1.800649e+00,1.800649e+00
2.827405e+00,2.661325e+00,3,3,1.301180e+00,1.301180e+00
2.827314e+00,2.657105e+00,3,3,3.249059e+00,3.249060e+00
2.830945e+00,2.662214e+00,3,3,2.736054e+00,2.736143e+00
2.836043e+00,2.657908e+00,3,3,4.031574e+00,4.031593e+00
2.830266e+00,2.662318e+00,3,3,4.463430e+00,4.463429e+00
2.827920e+00,2.657074e+00,3,3,8.328058e+00,8.328059e+00
2.835146e+00,2.662091e+00,3,3,5.911013e+00,5.911016e+00
2.836843e+00,2.653870e+00,3,3,3.995913e+00,3.995914e+00
2.831284e+00,2.662031e+00,3,3,3.242556e+00,3.242556e+00
2.832187e+00,2.656899e+00,3,3,2.823340e+00,2.823340e+00
2.834600e+00,2.663331e+00,3,3,2.718373e+00,2.718373e+00
2.834446e+00,2.657661e+00,3,3,2.492674e+00,2.492673e+00
2.837230e+00,2.663475e+00,3,3,2.117858e+00,2.117858e+00
2.830353e+00,2.658171e+00,3,3,2.094573e+00,2.094573e+00
2.829248e+00,2.662398e+00,3,3,1.816016e+00,1.816016e+00
2.827987e+00,2.655540e+00,3,3,2.205007e+00,2.205006e+00
2.829839e+00,2.660613e+00,3,3,2.414741e+00,2.414741e+00
2.827837e+00,2.653537e+00,3,3,2.788999e+00,2.788998e+00
2.835391e+00,2.661650e+00,3,3,3.218601e+00,3.218600e+00
2.826171e+00,2.656820e+00,3,3,3.046066e+00,3.046066e+00
2.832099e+00,2.661680e+00,3,3,3.530996e+00,3.531065e+00
2.831426e+00,2.656916e+00,3,3,2.039395e+00,2.039404e+00
2.831040e+00,2.663293e+00,3,3,3.223013e+00,3.223012e+00
2.829322e+00,2.654688e+00,3,3,2.186897e+00,2.186897e+00
2.830480e+00,2.662009e+00,3,3,1.744588e+00,1.744587e+00
2.829463e+00,2.654591e+00,3,3,1.619824e+00,1.619824e+00
2.834626e+00,2.662071e+00,3,3,1.664214e+00,1.664214e+00
2.828593e+00,2.656243e+00,3,3,1.655540e+00,1.655540e+00
2.830011e+00,2.663053e+00,3,3,1.086000e+00,1.086001e+00
2.832052e+00,2.656437e+00,3,3,1.292450e+00,1.292449e+00
2.830335e+00,2.661204e+00,3,3,6.647535e-01,6.647534e-01
2.827835e+00,2.655279e+00,3,3,9.422098e-01,9.422095e-01
2.830234e+00,2.662445e+00,3,3,1.600472e+00,1.600471e+00
2.828498e+00,2.656105e+00,3,3,2.429688e+00,2.429687e+00
2.834564e+00,2.660332e+00,3,3,3.294515e+00,3.294514e+00
2.832202e+00,2.658876e+00,3,3,2.943267e+00,2.943268e+00
2.832186e+00,2.662763e+00,3,3,1.234291e+00,1.234291e+00
2.825535e+00,2.658798e+00,3,3,1.400990e+00,1.400990e+00
2.830644e+00,2.660635e+00,3,3,1.643235e+00,1.643234e+00
2.831690e+00,2.656361e+00,3,3,1.270229e+00,1.270228e+00
2.830705e+00,2.664380e+00,3,3,1.039081e+00,1.039081e+00
2.833425e+00,2.653929e+00,3,3,9.870579e-01,9.870578e-01
2.828539e+00,2.663780e+00,3,3,1.345554e+00,1.345554e+00
2.831843e+00,2.657398e+00,3,3,1.238950e+00,1.238950e+00
2.836923e+00,2.665833e+00,3,3,1.154382e+00,1.154382e+00
2.830481e+00,2.655348e+00,3,3,1.959893e+00,1.959892e+00
2.831739e+00,2.661268e+00,3,3,1.463424e+00,1.463424e+00
2.833835e+00,2.656075e+00,3,3,1.478461e+00,1.478461e+00
2.829253e+00,2.662074e+00,3,3,1.421870e+00,1.421870e+00
2.833429e+00,2.655665e+00,3,3,3.336188e+00,3.336186e+00
2.834394e+00,2.662503e+00,3,3,2.002375e+00,2.002376e+00
2.835099e+00,2.656546e+00,3,3,1.956548e+00,1.956548e+00
2.839369e+00,2.663511e+00,3,3,3.081002e+00,3.081002e+00
2.828135e+00,2.656217e+00,3,3,4.863613e+00,4.863621e+00
2.835587e+00,2.660321e+00,3,3,2.649473e+00,2.649475e+00
2.827586e+00,2.655612e+00,3,3,2.254465e+00,2.254465e+00
2.826474e+00,2.661787e+00,3,3,2.064764e+00,2.064764e+00
2.830753e+00,2.655457e+00,3,3,2.177926e+00,2.177926e+00
2.830805e+00,2.662954e+00,3,3,1.786456e+00,1.786456e+00
2.826813e+00,2.654408e+00,3,3,1.549910e+00,1.549910e+00
2.831232e+00,2.663245e+00,3,3,1.626751e+00,1.626750e+00
2.827378e+00,2.655831e+00,3,3,1.299160e+00,1.299160e+00
2.826995e+00,2.661561e+00,3,3,3.463036e+00,3.463034e+00
2.830950e+00,2.657357e+00,3,3,1.927920e+00,1.927921e+00
2.833454e+00,2.663251e+00,3,3,1.591379e+00,1.591379e+00
2.830668e+00,2.655585e+00,3,3,2.360541e+00,2.360541e+00
2.830991e+00,2.663904e+00,3,3,3.125231e+00,3.125230e+00
2.831513e+00,2.654687e+00,3,3,3.479036e+00,3.479035e+00
2.832646e+00,2.662226e+00,3,3,1.402024e+00,1.402024e+00
2.827836e+00,2.655394e+00,3,3,8.818663e-01,8.818663e-01
2.829869e+00,2.662357e+00,3,3,1.314825e+00,1.314824e+00
2.826147e+00,2.655817e+00,3,3,2.062683e+00,2.062682e+00
2.832424e+00,2.664091e+00,3,3,2.548552e+00,2.548551e+00
2.832983e+00,2.657421e+00,3,3,2.057823e+00,2.057824e+00
2.831910e+00,2.660928e+00,3,3,1.760862e+00,1.760861e+00
2.868311e+00,2.655945e+00,3,3,1.029614e+00,1.029614e+00
2.830461e+00,2.661690e+00,3,3,1.438019e+00,1.438019e+00
2.829648e+00,2.658173e+00,3,3,7.388890e-01,7.388891e-01
2.827332e+00,2.662685e+00,3,3,5.790255e-01,5.790255e-01
2.829188e+00,2.655741e+00,3,3,1.519916e+00,1.519915e+00
2.830612e+00,2.660787e+00,3,3,1.790200e+00,1.790199e+00
2.829720e+00,2.656945e+00,3,3,1.258276e+00,1.258276e+00
2.828523e+00,2.662412e+00,3,3,1.017551e+00,1.017551e+00
2.830525e+00,2.656140e+00,3,3,9.776409e-01,9.776405e-01
2.830786e+00,2.660177e+00,3,3,1.632338e+00,1.632337e+00
2.831801e+00,2.656637e+00,3,3,2.838119e+00,2.838119e+00
2.829415e+00,2.663130e+00,3,3,2.687789e+00,2.687789e+00
2.830369e+00,2.656857e+00,3,3,5.935242e+00,5.935240e+00
2.833051e+00,2.661583e+00,3,3,4.280948e+00,4.280949e+00
2.834972e+00,2.658208e+00,3,3,8.421305e+00,8.421230e+00
4.715120e+00,4.424428e+00,5,5,6.040842e+00,6.040080e+00
3.779036e+00,2.663108e+00,4,3,4.512724e+00,4.512737e+00
2.839583e+00,2.657606e+00,3,3,3.740370e+00,3.740371e+00
2.836092e+00,2.666337e+00,3,3,2.998562e+00,2.998563e+00
2.834050e+00,2.657196e+00,3,3,2.653263e+00,2.653263e+00
2.830666e+00,2.663982e+00,3,3,2.487918e+00,2.487917e+00
2.829747e+00,2.655479e+00,3,3,3.229353e+00,3.229352e+00
2.828882e+00,2.664394e+00,3,3,2.125003e+00,2.125003e+00
2.833802e+00,2.655354e+00,3,3,2.868164e+00,2.868162e+00
2.835448e+00,2.660714e+00,3,3,1.222936e+00,1.222936e+00
2.831706e+00,2.657069e+00,3,3,1.898667e+00,1.898667e+00
2.831246e+00,2.660730e+00,3,3,1.043148e+00,1.043148e+00
2.830033e+00,2.656360e+00,3,3,1.051730e+00,1.051730e+00
2.830871e+00,2.661794e+00,3,3,1.035906e+00,1.035906e+00
2.831697e+00,2.656493e+00,3,3,1.010111e+00,1.010111e+00
2.829204e+00,2.665237e+00,3,3,1.082853e+00,1.082852e+00
2.832938e+00,2.657823e+00,3,3,1.095828e+00,1.095828e+00
2.828587e+00,2.662832e+00,3,3,1.132018e+00,1.132018e+00
2.831779e+00,2.656175e+00,3,3,9.615286e-01,9.615285e-01
2.827500e+00,2.663098e+00,3,3,1.049270e+00,1.049270e+00
2.831327e+00,2.656977e+00,3,3,7.879088e-01,7.879087e-01
2.833733e+00,2.663653e+00,3,3,1.439363e+00,1.439362e+00
2.831556e+00,2.657767e+00,3,3,1.335670e+00,1.335670e+00
2.833311e+00,2.661442e+00,3,3,3.141573e+00,3.141572e+00
2.832563e+00,2.659064e+00,3,3,1.910718e+00,1.910719e+00
2.826640e+00,2.662621e+00,3,3,8.631936e-01,8.631938e-01
2.836669e+00,2.656678e+00,3,3,1.186081e+00,1.186080e+00
2.826421e+00,2.663856e+00,3,3,1.261711e+00,1.261710e+00
2.830567e+00,2.656605e+00,3,3,1.672320e+00,1.672320e+00
2.828500e+00,2.660290e+00,3,3,2.347209e+00,2.347208e+00
2.832433e+00,2.656361e+00,3,3,2.956519e+00,2.956518e+00
2.829428e+00,2.661532e+00,3,3,2.625336e+00,2.625335e+00
2.835354e+00,2.656018e+00,3,3,2.381874e+00,2.381874e+00
2.829023e+00,2.663444e+00,3,3,2.840120e+00,2.840119e+00
2.827350e+00,2.655762e+00,3,3,4.242098e+00,4.242097e+00
2.831376e+00,2.661853e+00,3,3,3.232897e+00,3.232898e+00
2.829651e+00,2.656360e+00,3,3,2.060546e+00,2.060546e+00
2.832402e+00,2.662248e+00,3,3,1.917774e+00,1.917774e+00
2.841024e+00,2.656266e+00,3,3,1.570783e+00,1.570783e+00
2.828790e+00,2.662665e+00,3,3,1.788717e+00,1.788717e+00
2.830087e+00,2.654258e+00,3,3,1.670397e+00,1.670397e+00
2.839650e+00,2.661980e+00,3,3,1.852885e+00,1.852885e+00
2.828116e+00,2.659512e+00,3,3,1.575074e+00,1.575074e+00
2.835088e+00,2.661918e+00,3,3,1.322500e+00,1.322500e+00
2.838816e+00,2.661006e+00,3,3,1.608497e+00,1.608497e+00
2.830731e+00,2.666977e+00,3,3,1.947952e+00,1.947951e+00
2.828963e+00,2.656173e+00,3,3,3.513622e+00,3.513620e+00
2.831743e+00,2.662530e+00,3,3,3.981975e+00,3.981975e+00
2.834027e+00,2.655247e+00,3,3,3.370380e+00,3.370380e+00
2.834901e+00,2.662716e+00,3,3,4.707157e+00,4.707159e+00
2.838065e+00,2.659193e+00,3,3,6.499834e+00,6.499837e+00
2.826063e+00,2.661407e+00,3,3,7.406377e+00,7.406397e+00
2.834751e+00,2.654612e+00,3,3,5.772756e+00,5.772763e+00
2.830528e+00,2.660174e+00,3,3,3.672912e+00,3.672913e+00
2.831125e+00,2.656769e+00,3,3,3.393920e+00,3.393919e+00
2.831491e+00,2.662693e+00,3,3,2.305089e+00,2.305089e+00
2.834193e+00,2.655944e+00,3,3,2.182125e+00,2.182125e+00
2.828978e+00,2.661611e+00,3,3,1.942341e+00,1.942341e+00
2.835398e+00,2.654485e+00,3,3,1.774993e+00,1.774992e+00
2.856253e+00,2.664554e+00,3,3,1.636768e+00,1.636767e+00
2.884008e+00,2.688123e+00,3,3,1.690944e+00,1.690944e+00
2.795844e+00,2.714163e+00,3,3,1.753688e+00,1.753688e+00
2.907410e+00,2.647202e+00,3,3,1.618223e+00,1.618223e+00
2.839379e+00,2.656499e+00,3,3,1.499648e+00,1.499648e+00
2.831873e+00,2.664897e+00,3,3,2.850304e+00,2.850303e+00
2.828209e+00,2.657346e+00,3,3,2.594243e+00,2.594243e+00
2.831269e+00,2.662113e+00,3,3,4.129187e+00,4.129186e+00
2.826179e+00,2.656869e+00,3,3,3.962295e+00,3.962294e+00
2.827562e+00,2.662800e+00,3,3,4.596367e+00,4.596367e+00
2.828455e+00,2.656612e+00,3,3,6.442923e+00,6.442923e+00
2.828796e+00,2.663287e+00,3,3,7.415846e+00,7.415905e+00
2.825908e+00,2.656601e+00,3,3,5.716735e+00,5.716740e+00
2.829721e+00,2.663020e+00,3,3,4.806163e+00,4.806163e+00
2.826077e+00,2.656838e+00,3,3,4.709871e+00,4.709871e+00
2.834814e+00,2.662925e+00,3,3,3.777732e+00,3.777732e+00
2.827006e+00,2.655989e+00,3,3,3.416251e+00,3.416250e+00
2.834079e+00,2.662673e+00,3,3,2.955894e+00,2.955893e+00
2.826110e+00,2.656629e+00,3,3,2.458325e+00,2.458325e+00
2.834050e+00,2.661615e+00,3,3,2.550069e+00,2.550069e+00
2.825920e+00,2.654951e+00,3,3,2.255615e+00,2.255615e+00
2.833627e+00,2.662159e+00,3,3,1.336178e+00,1.336178e+00
2.824606e+00,2.655693e+00,3,3,1.991934e+00,1.991934e+00
2.837259e+00,2.663345e+00,3,3,1.945321e+00,1.945323e+00
2.825109e+00,2.657307e+00,3,3,2.295225e+00,2.295228e+00
2.835360e+00,2.662561e+00,3,3,1.917948e+00,1.917948e+00
2.831799e+00,2.655698e+00,3,3,2.861790e+00,2.861788e+00
2.829184e+00,2.673472e+00,3,3,1.172088e+00,1.172089e+00
2.824314e+00,2.656323e+00,3,3,1.207366e+00,1.207366e+00
2.832441e+00,2.663774e+00,3,3,3.169206e+00,3.169205e+00
2.832070e+00,2.657101e+00,3,3,4.162678e+00,4.162677e+00
2.830695e+00,2.665843e+00,3,3,2.831877e+00,2.831878e+00
2.833944e+00,2.656921e+00,3,3,3.689524e+00,3.689523e+00
2.833007e+00,2.663283e+00,3,3,3.553527e+00,3.553527e+00
2.825315e+00,2.657869e+00,3,3,2.756447e+00,2.756447e+00
2.829701e+00,2.661747e+00,3,3,2.418443e+00,2.418443e+00
2.824009e+00,2.657472e+00,3,3,4.230816e+00,4.230963e+00
2.832429e+00,2.660918e+00,3,3,2.672076e+00,2.672069e+00
2.823748e+00,2.659289e+00,3,3,1.647522e+00,1.647523e+00
2.828812e+00,2.663984e+00,3,3,2.018341e+00,2.018340e+00
2.828189e+00,2.656642e+00,3,3,1.763221e+00,1.763221e+00
2.826452e+00,2.661958e+00,3,3,1.355416e+00,1.355416e+00
2.825010e+00,2.657387e+00,3,3,1.132915e+00,1.132915e+00
2.829066e+00,2.664692e+00,3,3,1.383428e+00,1.383427e+00
2.822389e+00,2.656763e+00,3,3,1.589472e+00,1.589471e+00
2.834201e+00,2.662063e+00,3,3,1.614565e+00,1.614565e+00
2.834687e+00,2.657689e+00,3,3,6.387642e-01,6.387643e-01
2.832143e+00,2.664581e+00,3,3,1.263129e+00,1.263128e+00
2.833818e+00,2.655240e+00,3,3,1.756925e+00,1.756924e+00
2.834029e+00,2.665210e+00,3,3,1.214975e+00,1.214976e+00
2.826705e+00,2.656332e+00,3,3,6.896474e-01,6.896473e-01
2.851228e+00,2.663088e+00,3,3,1.322707e+00,1.322706e+00
2.828455e+00,2.656123e+00,3,3,2.747684e+00,2.747683e+00
2.834614e+00,2.665671e+00,3,3,3.122748e+00,3.122748e+00
2.830129e+00,2.656859e+00,3,3,3.745935e+00,3.745934e+00
2.826691e+00,2.662377e+00,3,3,2.934402e+00,2.934402e+00
2.830251e+00,2.656366e+00,3,3,2.319153e+00,2.319153e+00
2.834794e+00,2.662414e+00,3,3,1.680245e+00,1.680245e+00
2.828215e+00,2.656551e+00,3,3,1.510748e+00,1.510748e+00
2.833192e+00,2.664363e+00,3,3,3.475020e+00,3.475018e+00
2.824999e+00,2.656348e+00,3,3,4.952406e+00,4.952409e+00
3.767565e+00,3.547122e+00,4,4,2.345955e+00,2.345958e+00
2.821993e+00,2.662800e+00,3,3,2.364500e+00,2.364500e+00
2.830968e+00,2.661058e+00,3,3,1.781333e+00,1.781333e+00
2.822540e+00,2.660780e+00,3,3,1.292388e+00,1.292388e+00
2.831145e+00,2.662212e+00,3,3,5.982890e-01,5.982889e-01
2.826967e+00,2.659249e+00,3,3,8.724916e-01,8.724914e-01
2.824295e+00,2.660896e+00,3,3,6.429651e-01,6.429651e-01
2.829435e+00,2.663044e+00,3,3,7.267693e-01,7.267690e-01
2.828654e+00,2.660492e+00,3,3,7.403457e-01,7.403454e-01
2.822984e+00,2.662005e+00,3,3,3.214886e+00,3.214884e+00
2.833257e+00,2.662907e+00,3,3,5.166954e+00,5.167224e+00
2.825343e+00,3.546821e+00,3,4,6.496184e+00,6.496022e+00
2.829644e+00,2.660243e+00,3,3,3.328825e+00,3.328824e+00
2.835677e+00,2.663359e+00,3,3,2.543168e+00,2.543168e+00
2.833826e+00,2.657851e+00,3,3,2.612517e+00,2.612517e+00
2.832173e+00,2.664409e+00,3,3,2.705704e+00,2.705704e+00
2.829679e+00,2.658523e+00,3,3,2.846806e+00,2.846806e+00
2.831846e+00,2.661643e+00,3,3,5.080861e+00,5.080865e+00
2.829326e+00,2.657315e+00,3,3,1.008151e+01,1.007972e+01
5.651271e+00,5.311536e+00,6,6,1.225672e+01,1.226639e+01
5.650728e+00,4.422601e+00,6,5,7.547308e+00,7.569017e+00
3.765793e+00,5.315092e+00,4,6,9.436417e+00,9.438850e+00
3.762776e+00,3.544899e+00,4,4,7.125081e+00,7.125461e+00
2.832256e+00,2.655692e+00,3,3,5.271544e+00,5.271855e+00
2.830157e+00,2.661845e+00,3,3,6.471873e+00,6.471910e+00
2.834784e+00,2.655822e+00,3,3,5.618434e+00,5.618434e+00
2.834275e+00,2.662552e+00,3,3,7.608868e+00,7.608866e+00
2.831021e+00,2.657085e+00,3,3,5.902795e+00,5.902795e+00
2.829775e+00,2.661243e+00,3,3,4.483681e+00,4.483681e+00
2.827852e+00,2.657902e+00,3,3,4.020976e+00,4.020976e+00
2.827664e+00,2.662903e+00,3,3,3.094427e+00,3.094427e+00
2.831991e+00,2.656481e+00,3,3,2.888103e+00,2.888103e+00
2.828324e+00,2.659869e+00,3,3,3.291346e+00,3.291346e+00
2.826428e+00,2.657078e+00,3,3,2.571925e+00,2.571925e+00
2.826868e+00,2.660901e+00,3,3,1.174217e+00,1.174217e+00
2.827387e+00,2.658223e+00,3,3,1.972185e+00,1.972184e+00
2.830963e+00,2.661266e+00,3,3,1.997746e+00,1.997747e+00
2.831463e+00,2.655843e+00,3,3,1.105918e+00,1.105918e+00
2.843781e+00,2.662125e+00,3,3,1.114494e+00,1.114494e+00
2.831749e+00,2.655782e+00,3,3,9.310651e-01,9.310650e-01
2.828935e+00,2.660791e+00,3,3,7.802638e-01,7.802636e-01
2.827403e+00,2.656040e+00,3,3,1.263091e+00,1.263091e+00
2.831439e+00,2.659858e+00,3,3,8.592391e-01,8.592390e-01
2.828879e+00,2.655640e+00,3,3,1.329574e+00,1.329573e+00
2.833073e+00,2.662890e+00,3,3,2.423947e+00,2.423947e+00
2.833430e+00,2.656176e+00,3,3,2.648755e+00,2.648756e+00
2.835662e+00,2.662236e+00,3,3,2.116984e+00,2.116984e+00
2.847188e+00,2.657993e+00,3,3,1.666201e+00,1.666200e+00
2.835445e+00,2.662254e+00,3,3,1.109046e+00,1.109046e+00
2.828761e+00,2.656983e+00,3,3,2.155936e+00,2.155935e+00
2.831387e+00,2.661491e+00,3,3,1.948723e+00,1.948723e+00
2.828997e+00,2.658353e+00,3,3,4.287806e+00,4.287804e+00
2.828259e+00,2.661679e+00,3,3,2.829841e+00,2.829842e+00
2.830145e+00,2.655580e+00,3,3,1.982913e+00,1.982913e+00
2.830556e+00,2.662347e+00,3,3,3.599257e+00,3.599255e+00
2.833068e+00,2.657816e+00,3,3,3.308568e+00,3.308568e+00
2.830349e+00,2.665183e+00,3,3,3.792307e+00,3.792306e+00
2.836512e+00,2.660164e+00,3,3,3.616082e+00,3.616081e+00
2.832661e+00,2.661784e+00,3,3,3.168031e+00,3.168030e+00
2.837115e+00,2.657287e+00,3,3,2.862350e+00,2.862350e+00
2.831179e+00,2.663256e+00,3,3,3.123848e+00,3.123848e+00
2.833226e+00,2.654792e+00,3,3,2.293018e+00,2.293018e+00
2.829374e+00,2.660825e+00,3,3,2.090619e+00,2.090619e+00
2.835747e+00,2.655988e+00,3,3,2.032072e+00,2.032071e+00
2.831020e+00,2.660663e+00,3,3,2.145502e+00,2.145501e+00
2.833763e+00,2.656885e+00,3,3,1.756338e+00,1.756338e+00
2.835501e+00,2.662254e+00,3,3,2.950886e+00,2.950885e+00
2.830956e+00,2.657606e+00,3,3,3.588799e+00,3.588799e+00
2.836703e+00,2.662055e+00,3,3,5.137349e+00,5.137348e+00
2.833877e+00,2.657808e+00,3,3,7.576455e+00,7.576454e+00
2.833660e+00,2.662593e+00,3,3,7.613250e+00,7.613250e+00
2.831545e+00,2.658677e+00,3,3,4.682868e+00,4.682869e+00
2.832800e+00,2.664307e+00,3,3,4.125087e+00,4.125086e+00
2.834442e+00,2.658488e+00,3,3,3.396980e+00,3.396980e+00
2.829285e+00,2.661244e+00,3,3,2.239274e+00,2.239275e+00
2.838791e+00,2.657240e+00,3,3,2.243202e+00,2.243203e+00
2.829873e+00,2.660782e+00,3,3,2.909488e+00,2.909489e+00
2.834223e+00,2.657316e+00,3,3,2.670832e+00,2.670831e+00
2.831106e+00,2.663797e+00,3,3,4.180717e+00,4.180714e+00
2.829167e+00,2.657785e+00,3,3,4.148641e+00,4.148642e+00
2.827200e+00,2.660868e+00,3,3,4.158757e+00,4.158758e+00
2.832221e+00,2.656746e+00,3,3,4.007576e+00,4.007576e+00
2.831055e+00,2.660829e+00,3,3,3.549812e+00,3.549815e+00
2.838903e+00,2.658612e+00,3,3,3.682443e+00,3.682443e+00
2.831432e+00,2.662189e+00,3,3,1.671085e+00,1.671085e+00
2.832668e+00,2.656412e+00,3,3,1.546731e+00,1.546731e+00
2.827214e+00,2.661755e+00,3,3,1.173817e+00,1.173817e+00
2.831800e+00,2.656401e+00,3,3,2.043508e+00,2.043507e+00
2.833094e+00,2.660758e+00,3,3,1.503401e+00,1.503401e+00
2.827856e+00,2.655288e+00,3,3,1.253273e+00,1.253272e+00
2.831812e+00,2.660072e+00,3,3,8.426970e-01,8.426968e-01
2.828112e+00,2.658183e+00,3,3,8.052929e-01,8.052927e-01
2.827101e+00,2.660511e+00,3,3,9.850239e-01,9.850237e-01
2.833735e+00,2.657727e+00,3,3,8.358680e-01,8.358680e-01
2.831971e+00,2.661194e+00,3,3,2.317594e+00,2.317593e+00
2.829486e+00,2.658448e+00,3,3,2.152668e+00,2.152668e+00
2.831696e+00,2.662237e+00,3,3,2.328922e+00,2.328922e+00
2.826595e+00,2.656258e+00,3,3,1.935999e+00,1.935999e+00
2.825118e+00,2.664022e+00,3,3,2.556836e+00,2.556836e+00
2.831708e+00,2.658053e+00,3,3,7.753507e+00,7.753581e+00
6.585032e+00,5.315554e+00,7,6,1.122668e+01,1.123666e+01
6.600778e+00,5.310220e+00,7,6,6.409954e+00,6.412722e+00
2.824354e+00,3.547644e+00,3,4,6.722059e+00,6.720932e+00
4.692828e+00,3.543395e+00,5,4,5.386229e+00,5.386647e+00
3.776538e+00,2.653395e+00,4,3,4.609931e+00,4.610075e+00
2.827578e+00,2.661262e+00,3,3,3.415360e+00,3.415361e+00
2.829654e+00,2.654599e+00,3,3,2.811436e+00,2.811436e+00
2.831664e+00,2.662157e+00,3,3,3.462090e+00,3.462089e+00
2.831070e+00,2.657533e+00,3,3,2.836194e+00,2.836194e+00
2.827113e+00,2.660499e+00,3,3,2.157823e+00,2.157823e+00
2.829618e+00,2.655956e+00,3,3,2.170133e+00,2.170133e+00
2.825658e+00,2.663785e+00,3,3,2.997184e+00,2.997183e+00
2.837150e+00,2.655884e+00,3,3,3.287193e+00,3.287192e+00
2.827889e+00,2.660180e+00,3,3,2.308765e+00,2.308765e+00
2.829500e+00,2.655140e+00,3,3,1.605628e+00,1.605628e+00
2.829350e+00,2.664199e+00,3,3,1.055688e+00,1.055686e+00
2.833042e+00,2.656988e+00,3,3,8.252304e-01,8.252303e-01
2.833832e+00,2.662186e+00,3,3,1.579785e+00,1.579785e+00
2.828993e+00,2.658203e+00,3,3,4.245297e+00,4.245295e+00
2.831457e+00,2.663309e+00,3,3,3.410456e+00,3.410456e+00
2.832553e+00,2.655707e+00,3,3,3.589409e+00,3.589409e+00
2.830846e+00,2.661066e+00,3,3,3.625135e+00,3.625139e+00
2.833985e+00,2.655398e+00,3,3,4.496771e+00,4.496968e+00
2.827565e+00,2.659422e+00,3,3,4.059654e+00,4.059674e+00
2.826943e+00,2.654997e+00,3,3,8.874701e+00,8.874600e+00
3.764831e+00,3.548026e+00,4,4,6.774891e+00,6.774893e+00
2.829192e+00,2.656724e+00,3,3,4.146104e+00,4.146105e+00
2.828569e+00,2.661219e+00,3,3,4.658729e+00,4.658728e+00
2.829079e+00,2.655961e+00,3,3,3.161513e+00,3.161512e+00
2.828867e+00,2.662377e+00,3,3,4.325414e+00,4.325413e+00
2.830205e+00,2.656930e+00,3,3,4.016904e+00,4.016905e+00
2.834946e+00,2.660256e+00,3,3,4.397163e+00,4.397180e+00
2.824721e+00,2.655634e+00,3,3,2.409206e+00,2.409222e+00
2.829946e+00,2.662038e+00,3,3,1.762131e+00,1.762131e+00

