1.901472e+00,1.784693e+00,2,2,0.000000e+00,0.000000e+00
2.832028e+00,2.685151e+00,3,3,2.981004e-01,2.981003e-01
2.881121e+00,2.667659e+00,3,3,3.599056e-01,3.599055e-01
2.827543e+00,2.673325e+00,3,3,2.229702e+00,2.229701e+00
2.847193e+00,2.668814e+00,3,3,1.503187e+00,1.503187e+00
2.825094e+00,2.667007e+00,3,3,1.400057e+00,1.400057e+00
2.836791e+00,2.667546e+00,3,3,4.804107e+00,4.804107e+00
2.837654e+00,2.667027e+00,3,3,5.579141e+00,5.579190e+00
2.835075e+00,2.665823e+00,3,3,6.728144e+00,6.728985e+00
2.827716e+00,2.664276e+00,3,3,6.632286e+00,6.632285e+00
2.837317e+00,2.665658e+00,3,3,1.054866e+01,1.054918e+01
3.766321e+00,3.551329e+00,4,4,7.195772e+00,7.195772e+00
2.837428e+00,2.665504e+00,3,3,8.216297e+00,8.216311e+00
2.831672e+00,2.667708e+00,3,3,6.883692e+00,6.883997e+00
2.864286e+00,2.670175e+00,3,3,5.959202e+00,5.959213e+00
2.827089e+00,2.668797e+00,3,3,5.888057e+00,5.888056e+00
2.835363e+00,2.668715e+00,3,3,5.182907e+00,5.182907e+00
2.831046e+00,2.667939e+00,3,3,4.795323e+00,4.795323e+00
2.834114e+00,2.665561e+00,3,3,4.027718e+00,4.027718e+00
2.829420e+00,2.664548e+00,3,3,3.669422e+00,3.669422e+00
2.833144e+00,2.666612e+00,3,3,3.686914e+00,3.686913e+00
2.825336e+00,2.665734e+00,3,3,2.743736e+00,2.743736e+00
2.837651e+00,2.666630e+00,3,3,3.513130e+00,3.513129e+00
2.828886e+00,2.666221e+00,3,3,3.329479e+00,3.329479e+00
2.835511e+00,2.665852e+00,3,3,3.187505e+00,3.187504e+00
2.827683e+00,2.666278e+00,3,3,3.827169e+00,3.827168e+00
2.836641e+00,2.665942e+00,3,3,2.716916e+00,2.716916e+00
2.826289e+00,2.659381e+00,3,3,2.297279e+00,2.297279e+00
2.837239e+00,2.669202e+00,3,3,1.844793e+00,1.844793e+00
2.835229e+00,2.661992e+00,3,3,2.397625e+00,2.397624e+00
2.837378e+00,2.664739e+00,3,3,1.949041e+00,1.949040e+00
2.832662e+00,2.662993e+00,3,3,2.769630e+00,2.769628e+00
2.830559e+00,2.666919e+00,3,3,3.316140e+00,3.316139e+00
2.829995e+00,2.658536e+00,3,3,3.591524e+00,3.591523e+00
2.832081e+00,2.667284e+00,3,3,2.176355e+00,2.176356e+00
2.833024e+00,2.657784e+00,3,3,2.603750e+00,2.603749e+00
2.835493e+00,2.664341e+00,3,3,2.658363e+00,2.658363e+00
2.839258e+00,2.660002e+00,3,3,2.027866e+00,2.027866e+00
2.836290e+00,2.662957e+00,3,3,1.635336e+00,1.635335e+00
2.829290e+00,2.659999e+00,3,3,1.514686e+00,1.514686e+00
2.834604e+00,2.665264e+00,3,3,2.174938e+00,2.174937e+00
2.830439e+00,2.660140e+00,3,3,1.749257e+00,1.749257e+00
2.834849e+00,2.662767e+00,3,3,1.542032e+00,1.542031e+00
2.830475e+00,2.660670e+00,3,3,3.383957e+00,3.383955e+00
2.830977e+00,2.666355e+00,3,3,4.587076e+00,4.587075e+00
2.832316e+00,2.658458e+00,3,3,2.343486e+00,2.343487e+00
2.832105e+00,2.668086e+00,3,3,1.849874e+00,1.849874e+00
2.831111e+00,2.661784e+00,3,3,1.767093e+00,1.767093e+00
2.832679e+00,2.668368e+00,3,3,2.714593e+00,2.714596e+00
2.830464e+00,2.659279e+00,3,3,1.834846e+00,1.834847e+00
2.832579e+00,2.666857e+00,3,3,1.052900e+00,1.052900e+00
2.831232e+00,2.662554e+00,3,3,1.689210e+00,1.689210e+00
2.834543e+00,2.666099e+00,3,3,1.823648e+00,1.823648e+00
2.841129e+00,2.663408e+00,3,3,2.054222e+00,2.054222e+00
2.832212e+00,2.665463e+00,3,3,1.376093e+00,1.376093e+00
2.834058e+00,2.658961e+00,3,3,1.500696e+00,1.500695e+00
2.836239e+00,2.666839e+00,3,3,1.686901e+00,1.686901e+00
2.835140e+00,2.660975e+00,3,3,1.567418e+00,1.567418e+00
2.833841e+00,2.666086e+00,3,3,1.939159e+00,1.939158e+00
2.839575e+00,2.660134e+00,3,3,3.706977e+00,3.706976e+00
2.835078e+00,2.666323e+00,3,3,2.228121e+00,2.228121e+00
2.834160e+00,2.661176e+00,3,3,2.284232e+00,2.284232e+00
2.831543e+00,2.666235e+00,3,3,3.327520e+00,3.327519e+00
2.837402e+00,2.658926e+00,3,3,2.330644e+00,2.330644e+00
2.835239e+00,2.665359e+00,3,3,1.445491e+00,1.445491e+00
2.837538e+00,2.659987e+00,3,3,1.879426e+00,1.879425e+00
2.832738e+00,2.666456e+00,3,3,1.307159e+00,1.307159e+00
2.834273e+00,2.658722e+00,3,3,8.683366e-01,8.683367e-01
2.831002e+00,2.664689e+00,3,3,8.033127e-01,8.033126e-01
2.835672e+00,2.659944e+00,3,3,8.252692e-01,8.252691e-01
2.835005e+00,2.665567e+00,3,3,8.878894e-01,8.878890e-01
2.833760e+00,2.661177e+00,3,3,1.154344e+00,1.154344e+00
2.835619e+00,2.666190e+00,3,3,9.145426e-01,9.145422e-01
2.833230e+00,2.659331e+00,3,3,5.186829e-01,5.186830e-01
2.832567e+00,2.665364e+00,3,3,1.687122e+00,1.687120e+00
2.840589e+00,2.667953e+00,3,3,1.648997e+00,1.648996e+00
2.827255e+00,2.666920e+00,3,3,1.693040e+00,1.693040e+00
2.834467e+00,2.666611e+00,3,3,2.026327e+00,2.026326e+00
2.830826e+00,2.664907e+00,3,3,4.816313e+00,4.816310e+00
2.836454e+00,2.666550e+00,3,3,6.149685e+00,6.149705e+00
2.828339e+00,2.666419e+00,3,3,5.213942e+00,5.213944e+00
2.834487e+00,2.666669e+00,3,3,4.555880e+00,4.555882e+00
2.830057e+00,2.666151e+00,3,3,5.356069e+00,5.356115e+00
2.837490e+00,2.668714e+00,3,3,5.100548e+00,5.100570e+00
2.832697e+00,2.665872e+00,3,3,4.071635e+00,4.071640e+00
2.840339e+00,2.666256e+00,3,3,3.468412e+00,3.468412e+00
2.834656e+00,2.665096e+00,3,3,2.673497e+00,2.673497e+00
2.832602e+00,2.665786e+00,3,3,2.389343e+00,2.389342e+00
2.821817e+00,2.663845e+00,3,3,2.033998e+00,2.033998e+00
2.836985e+00,2.666567e+00,3,3,1.876356e+00,1.876356e+00
2.826676e+00,2.664353e+00,3,3,1.742228e+00,1.742228e+00
2.834943e+00,2.665722e+00,3,3,2.353090e+00,2.353090e+00
2.838824e+00,2.660971e+00,3,3,1.839110e+00,1.839110e+00
2.834117e+00,2.665567e+00,3,3,3.450954e+00,3.450956e+00
2.831657e+00,2.661274e+00,3,3,4.194962e+00,4.194966e+00
2.836913e+00,2.666232e+00,3,3,2.469197e+00,2.469200e+00
2.834005e+00,2.660047e+00,3,3,5.964552e+00,5.964717e+00
4.708438e+00,3.546177e+00,5,4,4.369864e+00,4.378876e+00
2.829304e+00,3.552344e+00,3,4,1.623371e+00,1.623368e+00
2.835364e+00,2.661897e+00,3,3,1.692095e+00,1.692094e+00
2.831227e+00,2.664486e+00,3,3,2.215824e+00,2.215824e+00
2.833684e+00,2.662081e+00,3,3,2.305506e+00,2.305506e+00
2.831880e+00,2.667796e+00,3,3,4.291551e+00,4.291550e+00
2.834989e+00,2.660058e+00,3,3,4.487123e+00,4.487126e+00
2.829385e+00,2.667238e+00,3,3,3.770399e+00,3.770405e+00
2.834999e+00,2.660501e+00,3,3,4.886310e+00,4.886388e+00
2.832479e+00,2.668276e+00,3,3,7.600464e+00,7.600959e+00
2.838528e+00,2.657906e+00,3,3,1.058205e+01,1.058521e+01
5.650427e+00,5.319938e+00,6,6,1.262827e+01,1.263500e+01
4.711728e+00,3.552275e+00,5,4,8.146870e+00,8.145663e+00
2.832975e+00,2.658429e+00,3,3,6.627039e+00,6.627026e+00
2.833262e+00,2.667004e+00,3,3,5.278261e+00,5.278261e+00
2.833022e+00,2.659912e+00,3,3,5.005637e+00,5.005636e+00
2.833000e+00,2.665558e+00,3,3,3.920533e+00,3.920533e+00
2.834286e+00,2.659774e+00,3,3,4.074256e+00,4.074256e+00
2.833322e+00,2.666513e+00,3,3,4.675510e+00,4.675509e+00
2.830463e+00,2.659430e+00,3,3,9.396666e+00,9.392337e+00
5.658597e+00,5.316916e+00,6,6,9.618617e+00,9.618648e+00
3.767390e+00,4.430335e+00,4,5,6.237434e+00,6.241629e+00
4.713115e+00,3.553038e+00,5,4,6.658714e+00,6.661254e+00
3.782695e+00,3.549449e+00,4,4,9.703493e+00,9.701177e+00
4.711505e+00,3.546171e+00,5,4,7.270491e+00,7.247858e+00
3.772484e+00,2.668349e+00,4,3,5.976932e+00,5.977021e+00
2.832248e+00,2.659530e+00,3,3,3.019113e+00,3.019111e+00
2.834143e+00,2.665835e+00,3,3,2.301399e+00,2.301399e+00
2.836585e+00,2.663431e+00,3,3,2.015959e+00,2.015959e+00
2.833819e+00,2.666445e+00,3,3,1.617367e+00,1.617366e+00
2.833527e+00,2.659685e+00,3,3,1.451495e+00,1.451495e+00
2.835117e+00,2.666869e+00,3,3,9.649223e-01,9.649221e-01
2.831693e+00,2.683750e+00,3,3,2.964021e+00,2.964021e+00
2.838033e+00,2.667812e+00,3,3,3.741698e+00,3.741698e+00
2.834399e+00,2.670251e+00,3,3,4.517099e+00,4.517098e+00
2.835291e+00,2.667622e+00,3,3,8.614284e+00,8.614312e+00
2.837887e+00,2.659514e+00,3,3,8.854586e+00,8.854673e+00
2.831757e+00,2.666475e+00,3,3,7.980370e+00,7.980502e+00
2.838153e+00,2.659749e+00,3,3,5.071802e+00,5.071815e+00
2.832832e+00,2.666727e+00,3,3,4.143985e+00,4.143984e+00
2.841128e+00,2.660071e+00,3,3,4.835795e+00,4.835794e+00
2.831617e+00,2.669442e+00,3,3,6.978019e+00,6.978101e+00
2.833886e+00,2.660397e+00,3,3,5.848577e+00,5.849269e+00
2.836268e+00,2.662700e+00,3,3,1.084445e+01,1.085107e+01
5.650377e+00,5.315813e+00,6,6,1.143231e+01,1.142052e+01
4.710986e+00,3.545875e+00,5,4,1.031745e+01,1.030782e+01
3.773208e+00,5.320067e+00,4,6,7.337646e+00,7.341841e+00
2.832471e+00,2.666726e+00,3,3,6.828734e+00,6.829787e+00
2.830355e+00,2.659604e+00,3,3,6.459339e+00,6.459439e+00
2.835078e+00,2.670390e+00,3,3,7.317300e+00,7.317311e+00
2.832675e+00,2.658393e+00,3,3,4.379776e+00,4.379778e+00
2.838192e+00,2.664797e+00,3,3,4.164910e+00,4.164910e+00
2.834349e+00,2.658583e+00,3,3,4.189777e+00,4.189777e+00
2.836252e+00,2.665612e+00,3,3,3.999013e+00,3.999013e+00
2.837247e+00,2.658951e+00,3,3,5.260254e+00,5.260253e+00
2.829305e+00,2.666151e+00,3,3,3.738321e+00,3.738322e+00
2.834315e+00,2.659461e+00,3,3,2.357660e+00,2.357660e+00
2.839452e+00,2.664589e+00,3,3,2.054870e+00,2.054870e+00
2.836321e+00,2.661474e+00,3,3,1.800649e+00,1.800649e+00
2.831560e+00,2.668976e+00,3,3,1.301180e+00,1.301180e+00
2.833273e+00,2.663166e+00,3,3,3.249059e+00,3.249060e+00
2.835367e+00,2.674575e+00,3,3,2.736054e+00,2.736143e+00
2.841601e+00,2.659350e+00,3,3,4.031574e+00,4.031593e+00
2.835070e+00,2.664950e+00,3,3,4.463430e+00,4.463429e+00
2.832809e+00,2.661061e+00,3,3,8.328058e+00,8.328059e+00
2.832895e+00,2.665718e+00,3,3,5.911013e+00,5.911016e+00
2.835724e+00,2.660168e+00,3,3,3.995913e+00,3.995914e+00
2.833293e+00,2.666505e+00,3,3,3.242556e+00,3.242556e+00
2.838764e+00,2.662801e+00,3,3,2.823340e+00,2.823340e+00
2.831876e+00,2.667562e+00,3,3,2.718373e+00,2.718373e+00
2.836812e+00,2.660375e+00,3,3,2.492674e+00,2.492673e+00
2.828022e+00,2.665217e+00,3,3,2.117858e+00,2.117858e+00
2.834574e+00,2.665997e+00,3,3,2.094573e+00,2.094573e+00
2.826536e+00,2.666502e+00,3,3,1.816016e+00,1.816016e+00
2.840619e+00,2.668212e+00,3,3,2.205007e+00,2.205006e+00
2.828542e+00,2.666446e+00,3,3,2.414741e+00,2.414741e+00
2.837760e+00,2.667361e+00,3,3,2.788999e+00,2.788998e+00
2.829670e+00,2.667363e+00,3,3,3.218601e+00,3.218600e+00
2.833807e+00,2.665179e+00,3,3,3.046066e+00,3.046066e+00
2.835166e+00,2.665967e+00,3,3,3.530996e+00,3.531065e+00
2.836032e+00,2.665055e+00,3,3,2.039395e+00,2.039404e+00
2.828282e+00,2.663934e+00,3,3,3.223013e+00,3.223012e+00
2.834197e+00,2.666948e+00,3,3,2.186897e+00,2.186897e+00
2.826603e+00,2.666452e+00,3,3,1.744588e+00,1.744587e+00
2.859765e+00,2.665244e+00,3,3,1.619824e+00,1.619824e+00
2.826900e+00,2.667783e+00,3,3,1.664214e+00,1.664214e+00
2.832075e+00,2.666522e+00,3,3,1.655540e+00,1.655540e+00
2.830234e+00,2.667677e+00,3,3,1.086000e+00,1.086001e+00
2.838945e+00,2.671759e+00,3,3,1.292450e+00,1.292449e+00
2.838717e+00,2.661041e+00,3,3,6.647535e-01,6.647534e-01
2.835275e+00,2.667559e+00,3,3,9.422098e-01,9.422095e-01
2.831097e+00,2.660910e+00,3,3,1.600472e+00,1.600471e+00
2.831190e+00,2.666347e+00,3,3,2.429688e+00,2.429687e+00
2.832127e+00,2.660395e+00,3,3,3.294515e+00,3.294514e+00
2.834224e+00,2.667439e+00,3,3,2.943267e+00,2.943268e+00
2.834542e+00,2.660240e+00,3,3,1.234291e+00,1.234291e+00
2.836045e+00,2.667489e+00,3,3,1.400990e+00,1.400990e+00
2.838448e+00,2.660237e+00,3,3,1.643235e+00,1.643234e+00
2.833514e+00,2.666057e+00,3,3,1.270229e+00,1.270228e+00
2.831080e+00,2.661686e+00,3,3,1.039081e+00,1.039081e+00
2.835043e+00,2.665578e+00,3,3,9.870579e-01,9.870578e-01
2.833557e+00,2.660738e+00,3,3,1.345554e+00,1.345554e+00
2.832544e+00,2.665936e+00,3,3,1.238950e+00,1.238950e+00
2.835044e+00,2.657948e+00,3,3,1.154382e+00,1.154382e+00
2.836029e+00,2.665927e+00,3,3,1.959893e+00,1.959892e+00
2.829829e+00,2.660226e+00,3,3,1.463424e+00,1.463424e+00
2.832002e+00,2.664233e+00,3,3,1.478461e+00,1.478461e+00
2.837583e+00,2.659911e+00,3,3,1.421870e+00,1.421870e+00
2.833657e+00,2.665529e+00,3,3,3.336188e+00,3.336186e+00
2.836540e+00,2.662197e+00,3,3,2.002375e+00,2.002376e+00
2.831492e+00,2.666317e+00,3,3,1.956548e+00,1.956548e+00
2.831944e+00,2.658507e+00,3,3,3.081002e+00,3.081002e+00
2.834966e+00,2.667304e+00,3,3,4.863613e+00,4.863621e+00
2.834083e+00,2.660744e+00,3,3,2.649473e+00,2.649475e+00
2.832166e+00,2.666980e+00,3,3,2.254465e+00,2.254465e+00
2.838369e+00,2.658733e+00,3,3,2.064764e+00,2.064764e+00
2.834525e+00,2.665555e+00,3,3,2.177926e+00,2.177926e+00
2.832138e+00,2.658280e+00,3,3,1.786456e+00,1.786456e+00
2.836317e+00,2.664840e+00,3,3,1.549910e+00,1.549910e+00
2.840711e+00,2.659712e+00,3,3,1.626751e+00,1.626750e+00
2.833282e+00,2.665088e+00,3,3,1.299160e+00,1.299160e+00
2.831988e+00,2.662900e+00,3,3,3.463036e+00,3.463034e+00
2.832374e+00,2.667140e+00,3,3,1.927920e+00,1.927921e+00
2.833432e+00,2.662497e+00,3,3,1.591379e+00,1.591379e+00
2.832540e+00,2.666605e+00,3,3,2.360541e+00,2.360541e+00
2.837750e+00,2.662338e+00,3,3,3.125231e+00,3.125230e+00
2.833099e+00,2.665575e+00,3,3,3.479036e+00,3.479035e+00
2.833574e+00,2.661881e+00,3,3,1.402024e+00,1.402024e+00
2.831835e+00,2.666292e+00,3,3,8.818663e-01,8.818663e-01
2.835213e+00,2.660237e+00,3,3,1.314825e+00,1.314824e+00
2.830305e+00,2.678991e+00,3,3,2.062683e+00,2.062682e+00
2.838914e+00,2.668607e+00,3,3,2.548552e+00,2.548551e+00
2.824322e+00,2.664940e+00,3,3,2.057823e+00,2.057824e+00
2.834672e+00,2.666655e+00,3,3,1.760862e+00,1.760861e+00
2.827336e+00,2.675555e+00,3,3,1.029614e+00,1.029614e+00
2.832296e+00,2.668734e+00,3,3,1.438019e+00,1.438019e+00
2.831964e+00,2.668457e+00,3,3,7.388890e-01,7.388891e-01
2.830861e+00,2.666360e+00,3,3,5.790255e-01,5.790255e-01
2.824337e+00,2.664531e+00,3,3,1.519916e+00,1.519915e+00
2.832917e+00,2.666093e+00,3,3,1.790200e+00,1.790199e+00
2.824418e+00,2.664585e+00,3,3,1.258276e+00,1.258276e+00
2.832229e+00,2.666546e+00,3,3,1.017551e+00,1.017551e+00
2.821652e+00,2.668770e+00,3,3,9.776409e-01,9.776405e-01
2.829842e+00,2.667158e+00,3,3,1.632338e+00,1.632337e+00
2.825783e+00,2.665511e+00,3,3,2.838119e+00,2.838119e+00
2.835145e+00,2.677989e+00,3,3,2.687789e+00,2.687789e+00
2.843396e+00,2.669476e+00,3,3,5.935242e+00,5.935240e+00
2.837947e+00,2.668096e+00,3,3,4.280948e+00,4.280949e+00
2.833736e+00,2.662088e+00,3,3,8.421305e+00,8.421230e+00
4.715438e+00,4.429804e+00,5,5,6.040842e+00,6.040080e+00
3.781814e+00,2.666425e+00,4,3,4.512724e+00,4.512737e+00
2.833915e+00,2.660626e+00,3,3,3.740370e+00,3.740371e+00
2.836144e+00,2.665503e+00,3,3,2.998562e+00,2.998563e+00
2.835207e+00,2.660629e+00,3,3,2.653263e+00,2.653263e+00
2.833632e+00,2.666027e+00,3,3,2.487918e+00,2.487917e+00
2.834444e+00,2.659678e+00,3,3,3.229353e+00,3.229352e+00
2.831324e+00,2.679926e+00,3,3,2.125003e+00,2.125003e+00
2.831999e+00,2.660195e+00,3,3,2.868164e+00,2.868162e+00
2.836320e+00,2.665783e+00,3,3,1.222936e+00,1.222936e+00
2.843257e+00,2.659471e+00,3,3,1.898667e+00,1.898667e+00
2.830770e+00,2.666251e+00,3,3,1.043148e+00,1.043148e+00
2.835270e+00,2.658376e+00,3,3,1.051730e+00,1.051730e+00
2.829844e+00,2.666276e+00,3,3,1.035906e+00,1.035906e+00
2.836555e+00,2.659738e+00,3,3,1.010111e+00,1.010111e+00
2.832241e+00,2.666842e+00,3,3,1.082853e+00,1.082852e+00
2.840822e+00,2.658633e+00,3,3,1.095828e+00,1.095828e+00
2.835765e+00,2.667303e+00,3,3,1.132018e+00,1.132018e+00
2.835705e+00,2.662258e+00,3,3,9.615286e-01,9.615285e-01
2.834173e+00,2.666270e+00,3,3,1.049270e+00,1.049270e+00
2.832992e+00,2.658751e+00,3,3,7.879088e-01,7.879087e-01
2.832896e+00,2.666523e+00,3,3,1.439363e+00,1.439362e+00
2.832918e+00,2.659030e+00,3,3,1.335670e+00,1.335670e+00
2.830302e+00,2.666867e+00,3,3,3.141573e+00,3.141572e+00
2.840544e+00,2.661975e+00,3,3,1.910718e+00,1.910719e+00
2.833671e+00,2.665636e+00,3,3,8.631936e-01,8.631938e-01
2.836792e+00,2.665350e+00,3,3,1.186081e+00,1.186080e+00
2.827680e+00,2.666348e+00,3,3,1.261711e+00,1.261710e+00
2.835580e+00,2.666277e+00,3,3,1.672320e+00,1.672320e+00
2.826085e+00,2.665317e+00,3,3,2.347209e+00,2.347208e+00
2.833443e+00,2.666844e+00,3,3,2.956519e+00,2.956518e+00
2.829003e+00,2.669209e+00,3,3,2.625336e+00,2.625335e+00
2.833836e+00,2.665683e+00,3,3,2.381874e+00,2.381874e+00
2.824744e+00,2.666065e+00,3,3,2.840120e+00,2.840119e+00
2.833439e+00,2.664872e+00,3,3,4.242098e+00,4.242097e+00
2.824150e+00,2.663394e+00,3,3,3.232897e+00,3.232898e+00
2.842413e+00,2.667698e+00,3,3,2.060546e+00,2.060546e+00
2.823509e+00,2.666082e+00,3,3,1.917774e+00,1.917774e+00
2.837981e+00,2.664240e+00,3,3,1.570783e+00,1.570783e+00
2.832802e+00,2.664844e+00,3,3,1.788717e+00,1.788717e+00
2.834438e+00,2.665806e+00,3,3,1.670397e+00,1.670397e+00
2.825439e+00,2.666246e+00,3,3,1.852885e+00,1.852885e+00
2.832217e+00,2.665083e+00,3,3,1.575074e+00,1.575074e+00
2.827501e+00,2.662998e+00,3,3,1.322500e+00,1.322500e+00
2.833454e+00,2.664187e+00,3,3,1.608497e+00,1.608497e+00
2.833215e+00,2.664129e+00,3,3,1.947952e+00,1.947951e+00
2.834241e+00,2.664320e+00,3,3,3.513622e+00,3.513620e+00
2.827728e+00,2.665651e+00,3,3,3.981975e+00,3.981975e+00
2.835667e+00,2.666781e+00,3,3,3.370380e+00,3.370380e+00
2.835842e+00,2.661177e+00,3,3,4.707157e+00,4.707159e+00
2.831335e+00,2.666963e+00,3,3,6.499834e+00,6.499837e+00
2.832918e+00,2.662283e+00,3,3,7.406377e+00,7.406397e+00
2.837332e+00,2.665070e+00,3,3,5.772756e+00,5.772763e+00
2.831404e+00,2.660276e+00,3,3,3.672912e+00,3.672913e+00
2.837714e+00,2.666108e+00,3,3,3.393920e+00,3.393919e+00
2.833653e+00,2.660912e+00,3,3,2.305089e+00,2.305089e+00
2.831760e+00,2.668688e+00,3,3,2.182125e+00,2.182125e+00
2.839764e+00,2.660671e+00,3,3,1.942341e+00,1.942341e+00
2.833037e+00,2.666486e+00,3,3,1.774993e+00,1.774992e+00
2.833346e+00,2.659914e+00,3,3,1.636768e+00,1.636767e+00
2.833261e+00,2.666226e+00,3,3,1.690944e+00,1.690944e+00
2.835200e+00,2.658285e+00,3,3,1.753688e+00,1.753688e+00
2.834819e+00,2.665659e+00,3,3,1.618223e+00,1.618223e+00
2.829255e+00,2.657924e+00,3,3,1.499648e+00,1.499648e+00
2.833048e+00,2.666500e+00,3,3,2.850304e+00,2.850303e+00
2.835930e+00,2.661165e+00,3,3,2.594243e+00,2.594243e+00
2.834982e+00,2.665347e+00,3,3,4.129187e+00,4.129186e+00
2.837511e+00,2.659815e+00,3,3,3.962295e+00,3.962294e+00
2.831768e+00,2.665822e+00,3,3,4.596367e+00,4.596367e+00
2.830435e+00,2.660407e+00,3,3,6.442923e+00,6.442923e+00
2.835656e+00,2.667168e+00,3,3,7.415846e+00,7.415905e+00
2.836227e+00,2.660882e+00,3,3,5.716735e+00,5.716740e+00
2.834043e+00,2.668024e+00,3,3,4.806163e+00,4.806163e+00
2.832264e+00,2.658530e+00,3,3,4.709871e+00,4.709871e+00
2.837867e+00,2.669545e+00,3,3,3.777732e+00,3.777732e+00
2.830367e+00,2.659781e+00,3,3,3.416251e+00,3.416250e+00
2.833020e+00,2.666554e+00,3,3,2.955894e+00,2.955893e+00
2.832859e+00,2.659274e+00,3,3,2.458325e+00,2.458325e+00
2.832700e+00,2.666275e+00,3,3,2.550069e+00,2.550069e+00
2.829305e+00,2.659422e+00,3,3,2.255615e+00,2.255615e+00
2.829819e+00,2.664778e+00,3,3,1.336178e+00,1.336178e+00
2.831793e+00,2.659871e+00,3,3,1.991934e+00,1.991934e+00
2.827970e+00,2.665378e+00,3,3,1.945321e+00,1.945323e+00
2.828656e+00,2.660958e+00,3,3,2.295225e+00,2.295228e+00
2.834503e+00,2.664763e+00,3,3,1.917948e+00,1.917948e+00
2.833557e+00,2.662236e+00,3,3,2.861790e+00,2.861788e+00
2.833446e+00,2.664809e+00,3,3,1.172088e+00,1.172089e+00
2.838834e+00,2.660637e+00,3,3,1.207366e+00,1.207366e+00
2.831319e+00,2.665386e+00,3,3,3.169206e+00,3.169205e+00
2.838035e+00,2.662262e+00,3,3,4.162678e+00,4.162677e+00
2.836858e+00,2.664463e+00,3,3,2.831877e+00,2.831878e+00
2.838588e+00,2.661342e+00,3,3,3.689524e+00,3.689523e+00
2.835282e+00,2.667327e+00,3,3,3.553527e+00,3.553527e+00
2.834605e+00,2.661700e+00,3,3,2.756447e+00,2.756447e+00
2.833621e+00,2.667889e+00,3,3,2.418443e+00,2.418443e+00
2.836782e+00,2.667491e+00,3,3,4.230816e+00,4.230963e+00
2.829046e+00,2.665397e+00,3,3,2.672076e+00,2.672069e+00
2.836702e+00,2.664735e+00,3,3,1.647522e+00,1.647523e+00
2.828892e+00,2.666422e+00,3,3,2.018341e+00,2.018340e+00
2.831517e+00,2.665617e+00,3,3,1.763221e+00,1.763221e+00
2.827527e+00,2.667235e+00,3,3,1.355416e+00,1.355416e+00
2.832212e+00,2.667515e+00,3,3,1.132915e+00,1.132915e+00
2.823656e+00,2.664585e+00,3,3,1.383428e+00,1.383427e+00
2.832428e+00,2.665666e+00,3,3,1.589472e+00,1.589471e+00
2.825968e+00,2.664542e+00,3,3,1.614565e+00,1.614565e+00
2.831073e+00,2.666042e+00,3,3,6.387642e-01,6.387643e-01
2.822731e+00,2.666048e+00,3,3,1.263129e+00,1.263128e+00
2.832959e+00,2.665057e+00,3,3,1.756925e+00,1.756924e+00
2.827233e+00,2.666611e+00,3,3,1.214975e+00,1.214976e+00
2.836587e+00,2.689891e+00,3,3,6.896474e-01,6.896473e-01
2.822277e+00,2.664449e+00,3,3,1.322707e+00,1.322706e+00
2.833019e+00,2.666796e+00,3,3,2.747684e+00,2.747683e+00
2.823555e+00,2.665497e+00,3,3,3.122748e+00,3.122748e+00
2.838506e+00,2.667243e+00,3,3,3.745935e+00,3.745934e+00
2.827015e+00,2.667221e+00,3,3,2.934402e+00,2.934402e+00
2.833696e+00,2.667953e+00,3,3,2.319153e+00,2.319153e+00
2.828059e+00,2.664860e+00,3,3,1.680245e+00,1.680245e+00
2.835037e+00,2.672772e+00,3,3,1.510748e+00,1.510748e+00
2.832872e+00,2.661410e+00,3,3,3.475020e+00,3.475018e+00
2.834617e+00,2.665321e+00,3,3,4.952406e+00,4.952409e+00
3.807424e+00,3.545748e+00,4,4,2.345955e+00,2.345958e+00
2.839478e+00,2.668455e+00,3,3,2.364500e+00,2.364500e+00
2.828966e+00,2.666731e+00,3,3,1.781333e+00,1.781333e+00
2.842227e+00,2.667040e+00,3,3,1.292388e+00,1.292388e+00
2.830582e+00,2.668136e+00,3,3,5.982890e-01,5.982889e-01
2.841611e+00,2.666312e+00,3,3,8.724916e-01,8.724914e-01
2.826170e+00,2.665134e+00,3,3,6.429651e-01,6.429651e-01
2.834819e+00,2.666696e+00,3,3,7.267693e-01,7.267690e-01
2.828788e+00,2.663246e+00,3,3,7.403457e-01,7.403454e-01
2.833653e+00,2.665566e+00,3,3,3.214886e+00,3.214884e+00
2.825747e+00,2.664951e+00,3,3,5.166954e+00,5.167224e+00
2.834433e+00,3.554326e+00,3,4,6.496184e+00,6.496022e+00
2.828225e+00,2.665506e+00,3,3,3.328825e+00,3.328824e+00
2.833899e+00,2.664635e+00,3,3,2.543168e+00,2.543168e+00
2.827672e+00,2.666431e+00,3,3,2.612517e+00,2.612517e+00
2.837441e+00,2.666747e+00,3,3,2.705704e+00,2.705704e+00
2.825792e+00,2.666201e+00,3,3,2.846806e+00,2.846806e+00
2.834520e+00,2.665758e+00,3,3,5.080861e+00,5.080865e+00
2.829838e+00,2.665531e+00,3,3,1.008151e+01,1.007972e+01
5.653600e+00,5.317978e+00,6,6,1.225672e+01,1.226639e+01
5.669480e+00,4.431311e+00,6,5,7.547308e+00,7.569017e+00
3.779189e+00,5.317945e+00,4,6,9.436417e+00,9.438850e+00
3.769532e+00,3.552798e+00,4,4,7.125081e+00,7.125461e+00
2.824419e+00,2.666882e+00,3,3,5.271544e+00,5.271855e+00
2.833902e+00,2.665361e+00,3,3,6.471873e+00,6.471910e+00
2.826874e+00,2.664315e+00,3,3,5.618434e+00,5.618434e+00
2.833481e+00,2.666748e+00,3,3,7.608868e+00,7.608866e+00
2.834002e+00,2.663472e+00,3,3,5.902795e+00,5.902795e+00
2.835712e+00,2.667851e+00,3,3,4.483681e+00,4.483681e+00
2.835732e+00,2.661959e+00,3,3,4.020976e+00,4.020976e+00
2.831194e+00,2.666909e+00,3,3,3.094427e+00,3.094427e+00
2.838548e+00,2.663110e+00,3,3,2.888103e+00,2.888103e+00
2.831406e+00,2.665508e+00,3,3,3.291346e+00,3.291346e+00
2.836593e+00,2.659494e+00,3,3,2.571925e+00,2.571925e+00
2.834137e+00,2.667522e+00,3,3,1.174217e+00,1.174217e+00
2.826784e+00,2.659268e+00,3,3,1.972185e+00,1.972184e+00
2.831161e+00,2.665511e+00,3,3,1.997746e+00,1.997747e+00
2.829125e+00,2.660723e+00,3,3,1.105918e+00,1.105918e+00
2.837508e+00,2.666302e+00,3,3,1.114494e+00,1.114494e+00
2.830461e+00,2.660228e+00,3,3,9.310651e-01,9.310650e-01
2.832298e+00,2.666335e+00,3,3,7.802638e-01,7.802636e-01
2.832307e+00,2.658658e+00,3,3,1.263091e+00,1.263091e+00
2.838195e+00,2.665642e+00,3,3,8.592391e-01,8.592390e-01
2.829921e+00,2.658850e+00,3,3,1.329574e+00,1.329573e+00
2.832338e+00,2.664745e+00,3,3,2.423947e+00,2.423947e+00
2.842024e+00,2.663121e+00,3,3,2.648755e+00,2.648756e+00
2.834008e+00,2.665421e+00,3,3,2.116984e+00,2.116984e+00
2.838278e+00,2.660656e+00,3,3,1.666201e+00,1.666200e+00
2.834210e+00,2.664200e+00,3,3,1.109046e+00,1.109046e+00
2.831853e+00,2.669997e+00,3,3,2.155936e+00,2.155935e+00
2.837104e+00,2.666407e+00,3,3,1.948723e+00,1.948723e+00
2.840056e+00,2.659601e+00,3,3,4.287806e+00,4.287804e+00
2.831953e+00,2.664998e+00,3,3,2.829841e+00,2.829842e+00
2.832317e+00,2.658934e+00,3,3,1.982913e+00,1.982913e+00
2.835565e+00,2.665663e+00,3,3,3.599257e+00,3.599255e+00
2.833535e+00,2.661202e+00,3,3,3.308568e+00,3.308568e+00
2.828538e+00,2.664478e+00,3,3,3.792307e+00,3.792306e+00
2.833083e+00,2.659564e+00,3,3,3.616082e+00,3.616081e+00
2.835154e+00,2.664936e+00,3,3,3.168031e+00,3.168030e+00
2.841035e+00,2.660756e+00,3,3,2.862350e+00,2.862350e+00
2.832458e+00,2.665436e+00,3,3,3.123848e+00,3.123848e+00
2.835445e+00,2.662800e+00,3,3,2.293018e+00,2.293018e+00
2.831843e+00,2.664843e+00,3,3,2.090619e+00,2.090619e+00
2.834545e+00,2.660177e+00,3,3,2.032072e+00,2.032071e+00
2.832992e+00,2.664997e+00,3,3,2.145502e+00,2.145501e+00
2.833954e+00,2.659923e+00,3,3,1.756338e+00,1.756338e+00
2.831563e+00,2.665212e+00,3,3,2.950886e+00,2.950885e+00
2.836733e+00,2.662918e+00,3,3,3.588799e+00,3.588799e+00
2.833274e+00,2.668612e+00,3,3,5.137349e+00,5.137348e+00
2.834075e+00,2.659698e+00,3,3,7.576455e+00,7.576454e+00
2.833127e+00,2.669177e+00,3,3,7.613250e+00,7.613250e+00
2.830954e+00,2.659864e+00,3,3,4.682868e+00,4.682869e+00
2.831161e+00,2.665652e+00,3,3,4.125087e+00,4.125086e+00
2.832252e+00,2.658320e+00,3,3,3.396980e+00,3.396980e+00
2.827420e+00,2.668222e+00,3,3,2.239274e+00,2.239275e+00
2.833525e+00,2.666934e+00,3,3,2.243202e+00,2.243203e+00
2.829520e+00,2.663284e+00,3,3,2.909488e+00,2.909489e+00
2.833877e+00,2.666621e+00,3,3,2.670832e+00,2.670831e+00
2.827135e+00,2.666551e+00,3,3,4.180717e+00,4.180714e+00
2.837246e+00,2.666618e+00,3,3,4.148641e+00,4.148642e+00
2.827560e+00,2.665863e+00,3,3,4.158757e+00,4.158758e+00
2.837365e+00,2.664828e+00,3,3,4.007576e+00,4.007576e+00
2.832491e+00,2.665289e+00,3,3,3.549812e+00,3.549815e+00
2.835296e+00,2.667810e+00,3,3,3.682443e+00,3.682443e+00
2.824533e+00,2.664264e+00,3,3,1.671085e+00,1.671085e+00
2.837777e+00,2.664739e+00,3,3,1.546731e+00,1.546731e+00
2.823810e+00,2.664542e+00,3,3,1.173817e+00,1.173817e+00
2.832212e+00,2.667205e+00,3,3,2.043508e+00,2.043507e+00
2.834716e+00,2.665620e+00,3,3,1.503401e+00,1.503401e+00
2.841961e+00,2.667420e+00,3,3,1.253273e+00,1.253272e+00
2.827799e+00,2.665714e+00,3,3,8.426970e-01,8.426968e-01
2.833208e+00,2.664599e+00,3,3,8.052929e-01,8.052927e-01
2.826239e+00,2.665965e+00,3,3,9.850239e-01,9.850237e-01
2.838924e+00,2.665839e+00,3,3,8.358680e-01,8.358680e-01
2.830307e+00,2.659474e+00,3,3,2.317594e+00,2.317593e+00
2.833038e+00,2.665059e+00,3,3,2.152668e+00,2.152668e+00
2.832279e+00,2.659487e+00,3,3,2.328922e+00,2.328922e+00
2.833930e+00,2.667894e+00,3,3,1.935999e+00,1.935999e+00
2.828627e+00,2.659512e+00,3,3,2.556836e+00,2.556836e+00
2.832681e+00,2.666499e+00,3,3,7.753507e+00,7.753581e+00
6.598283e+00,5.325189e+00,7,6,1.122668e+01,1.123666e+01
6.598977e+00,5.325642e+00,7,6,6.409954e+00,6.412722e+00
2.828015e+00,3.553067e+00,3,4,6.722059e+00,6.720932e+00
4.711305e+00,3.540946e+00,5,4,5.386229e+00,5.386647e+00
3.784889e+00,2.667762e+00,4,3,4.609931e+00,4.610075e+00
2.830931e+00,2.659722e+00,3,3,3.415360e+00,3.415361e+00
2.835888e+00,2.665518e+00,3,3,2.811436e+00,2.811436e+00
2.830640e+00,2.662459e+00,3,3,3.462090e+00,3.462089e+00
2.830266e+00,2.664665e+00,3,3,2.836194e+00,2.836194e+00
2.835133e+00,2.661009e+00,3,3,2.157823e+00,2.157823e+00
2.829932e+00,2.664823e+00,3,3,2.170133e+00,2.170133e+00
2.826972e+00,2.658689e+00,3,3,2.997184e+00,2.997183e+00
2.838426e+00,2.665314e+00,3,3,3.287193e+00,3.287192e+00
2.829611e+00,2.659408e+00,3,3,2.308765e+00,2.308765e+00
2.832419e+00,2.667145e+00,3,3,1.605628e+00,1.605628e+00
2.829740e+00,2.661817e+00,3,3,1.055688e+00,1.055686e+00
2.833600e+00,2.668209e+00,3,3,8.252304e-01,8.252303e-01
2.828986e+00,2.658286e+00,3,3,1.579785e+00,1.579785e+00
2.831546e+00,2.668180e+00,3,3,4.245297e+00,4.245295e+00
2.830390e+00,2.663309e+00,3,3,3.410456e+00,3.410456e+00
2.832732e+00,2.668963e+00,3,3,3.589409e+00,3.589409e+00
2.838396e+00,2.659300e+00,3,3,3.625135e+00,3.625139e+00
2.835486e+00,2.666376e+00,3,3,4.496771e+00,4.496968e+00
2.829655e+00,2.659179e+00,3,3,4.059654e+00,4.059674e+00
2.832230e+00,2.667817e+00,3,3,8.874701e+00,8.874600e+00
3.775321e+00,3.546427e+00,4,4,6.774891e+00,6.774893e+00
2.837312e+00,2.673575e+00,3,3,4.146104e+00,4.146105e+00
2.854946e+00,2.663538e+00,3,3,4.658729e+00,4.658728e+00
2.839188e+00,2.672090e+00,3,3,3.161513e+00,3.161512e+00
2.838769e+00,2.661262e+00,3,3,4.325414e+00,4.325413e+00
2.842015e+00,2.667779e+00,3,3,4.016904e+00,4.016905e+00
2.838019e+00,2.660292e+00,3,3,4.397163e+00,4.397180e+00
2.838272e+00,2.664443e+00,3,3,2.409206e+00,2.409222e+00
2.836865e+00,2.659714e+00,3,3,1.762131e+00,1.762131e+00

