1.950068e+00,1.806708e+00,2,2,0.000000e+00,0.000000e+00
2.849662e+00,2.677651e+00,3,3,2.981004e-01,2.981003e-01
2.852775e+00,2.688640e+00,3,3,3.599056e-01,3.599055e-01
2.843619e+00,2.675490e+00,3,3,2.229702e+00,2.229701e+00
2.845068e+00,2.694889e+00,3,3,1.503187e+00,1.503187e+00
2.863499e+00,2.696386e+00,3,3,1.400057e+00,1.400057e+00
2.856205e+00,2.682312e+00,3,3,4.804107e+00,4.804107e+00
2.847706e+00,2.678174e+00,3,3,5.579141e+00,5.579190e+00
2.835362e+00,2.682055e+00,3,3,6.728144e+00,6.728985e+00
2.849156e+00,2.683893e+00,3,3,6.632286e+00,6.632285e+00
2.839540e+00,2.683571e+00,3,3,1.054866e+01,1.054918e+01
3.786438e+00,3.567038e+00,4,4,7.195772e+00,7.195772e+00
2.840373e+00,2.685607e+00,3,3,8.216297e+00,8.216311e+00
2.849894e+00,2.687231e+00,3,3,6.883692e+00,6.883997e+00
2.853665e+00,2.703250e+00,3,3,5.959202e+00,5.959213e+00
2.861671e+00,2.683291e+00,3,3,5.888057e+00,5.888056e+00
2.842238e+00,2.676061e+00,3,3,5.182907e+00,5.182907e+00
2.850051e+00,2.684733e+00,3,3,4.795323e+00,4.795323e+00
2.842369e+00,2.677921e+00,3,3,4.027718e+00,4.027718e+00
2.844576e+00,2.681517e+00,3,3,3.669422e+00,3.669422e+00
2.843358e+00,2.674757e+00,3,3,3.686914e+00,3.686913e+00
2.842513e+00,2.684295e+00,3,3,2.743736e+00,2.743736e+00
2.846720e+00,2.675073e+00,3,3,3.513130e+00,3.513129e+00
2.847646e+00,2.680735e+00,3,3,3.329479e+00,3.329479e+00
2.845909e+00,2.676677e+00,3,3,3.187505e+00,3.187504e+00
2.840881e+00,2.681503e+00,3,3,3.827169e+00,3.827168e+00
2.847197e+00,2.681119e+00,3,3,2.716916e+00,2.716916e+00
2.843097e+00,2.681318e+00,3,3,2.297279e+00,2.297279e+00
2.843068e+00,2.683194e+00,3,3,1.844793e+00,1.844793e+00
2.837273e+00,2.681659e+00,3,3,2.397625e+00,2.397624e+00
2.852430e+00,2.682975e+00,3,3,1.949041e+00,1.949040e+00
2.841834e+00,2.675149e+00,3,3,2.769630e+00,2.769628e+00
2.846211e+00,2.681978e+00,3,3,3.316140e+00,3.316139e+00
2.866918e+00,2.695101e+00,3,3,3.591524e+00,3.591523e+00
2.865212e+00,2.700638e+00,3,3,2.176355e+00,2.176356e+00
2.860442e+00,2.695656e+00,3,3,2.603750e+00,2.603749e+00
2.862234e+00,2.702472e+00,3,3,2.658363e+00,2.658363e+00
2.865087e+00,2.684483e+00,3,3,2.027866e+00,2.027866e+00
2.836075e+00,2.680751e+00,3,3,1.635336e+00,1.635335e+00
2.842667e+00,2.684240e+00,3,3,1.514686e+00,1.514686e+00
2.842672e+00,2.693481e+00,3,3,2.174938e+00,2.174937e+00
2.865960e+00,2.703156e+00,3,3,1.749257e+00,1.749257e+00
2.860379e+00,2.696090e+00,3,3,1.542032e+00,1.542031e+00
2.869023e+00,2.702832e+00,3,3,3.383957e+00,3.383955e+00
2.892329e+00,2.705761e+00,3,3,4.587076e+00,4.587075e+00
2.856847e+00,2.686981e+00,3,3,2.343486e+00,2.343487e+00
2.843202e+00,2.683733e+00,3,3,1.849874e+00,1.849874e+00
2.834967e+00,2.683702e+00,3,3,1.767093e+00,1.767093e+00
2.846742e+00,2.682640e+00,3,3,2.714593e+00,2.714596e+00
2.843135e+00,2.677487e+00,3,3,1.834846e+00,1.834847e+00
2.847530e+00,2.683456e+00,3,3,1.052900e+00,1.052900e+00
2.846600e+00,2.676981e+00,3,3,1.689210e+00,1.689210e+00
2.854264e+00,2.682286e+00,3,3,1.823648e+00,1.823648e+00
2.848736e+00,2.678486e+00,3,3,2.054222e+00,2.054222e+00
2.844328e+00,2.682402e+00,3,3,1.376093e+00,1.376093e+00
2.849155e+00,2.700692e+00,3,3,1.500696e+00,1.500695e+00
2.855991e+00,2.706292e+00,3,3,1.686901e+00,1.686901e+00
2.861576e+00,2.703669e+00,3,3,1.567418e+00,1.567418e+00
2.857231e+00,2.692258e+00,3,3,1.939159e+00,1.939158e+00
2.846928e+00,2.686912e+00,3,3,3.706977e+00,3.706976e+00
2.849550e+00,2.678399e+00,3,3,2.228121e+00,2.228121e+00
2.842356e+00,2.681864e+00,3,3,2.284232e+00,2.284232e+00
2.848819e+00,2.677829e+00,3,3,3.327520e+00,3.327519e+00
2.847558e+00,2.681065e+00,3,3,2.330644e+00,2.330644e+00
2.850982e+00,2.675067e+00,3,3,1.445491e+00,1.445491e+00
2.838967e+00,2.678908e+00,3,3,1.879426e+00,1.879425e+00
2.841722e+00,2.680677e+00,3,3,1.307159e+00,1.307159e+00
2.851667e+00,2.703168e+00,3,3,8.683366e-01,8.683367e-01
2.864425e+00,2.700122e+00,3,3,8.033127e-01,8.033126e-01
2.841375e+00,2.675723e+00,3,3,8.252692e-01,8.252691e-01
2.844413e+00,2.681134e+00,3,3,8.878894e-01,8.878890e-01
2.835875e+00,2.676573e+00,3,3,1.154344e+00,1.154344e+00
2.840995e+00,2.682448e+00,3,3,9.145426e-01,9.145422e-01
2.841897e+00,2.676996e+00,3,3,5.186829e-01,5.186830e-01
2.841521e+00,2.684210e+00,3,3,1.687122e+00,1.687120e+00
2.843242e+00,2.674797e+00,3,3,1.648997e+00,1.648996e+00
2.842029e+00,2.703295e+00,3,3,1.693040e+00,1.693040e+00
2.862612e+00,2.695343e+00,3,3,2.026327e+00,2.026326e+00
2.842294e+00,2.680946e+00,3,3,4.816313e+00,4.816310e+00
2.844824e+00,2.679687e+00,3,3,6.149685e+00,6.149705e+00
2.860419e+00,2.700821e+00,3,3,5.213942e+00,5.213944e+00
2.863017e+00,2.701136e+00,3,3,4.555880e+00,4.555882e+00
2.847451e+00,2.690105e+00,3,3,5.356069e+00,5.356115e+00
2.848819e+00,2.681515e+00,3,3,5.100548e+00,5.100570e+00
2.842299e+00,2.675705e+00,3,3,4.071635e+00,4.071640e+00
2.846804e+00,2.681393e+00,3,3,3.468412e+00,3.468412e+00
2.849287e+00,2.676649e+00,3,3,2.673497e+00,2.673497e+00
2.847107e+00,2.682387e+00,3,3,2.389343e+00,2.389342e+00
2.842705e+00,2.675126e+00,3,3,2.033998e+00,2.033998e+00
2.841080e+00,2.682223e+00,3,3,1.876356e+00,1.876356e+00
2.848445e+00,2.682291e+00,3,3,1.742228e+00,1.742228e+00
2.840131e+00,2.681326e+00,3,3,2.353090e+00,2.353090e+00
2.848093e+00,2.681072e+00,3,3,1.839110e+00,1.839110e+00
2.834922e+00,2.682081e+00,3,3,3.450954e+00,3.450956e+00
2.841692e+00,2.681800e+00,3,3,4.194962e+00,4.194966e+00
2.843609e+00,2.675711e+00,3,3,2.469197e+00,2.469200e+00
2.841737e+00,2.685610e+00,3,3,5.964552e+00,5.964717e+00
4.717782e+00,3.569252e+00,5,4,4.369864e+00,4.378876e+00
2.840598e+00,3.571238e+00,3,4,1.623371e+00,1.623368e+00
2.840502e+00,2.684894e+00,3,3,1.692095e+00,1.692094e+00
2.845580e+00,2.683185e+00,3,3,2.215824e+00,2.215824e+00
2.842541e+00,2.682999e+00,3,3,2.305506e+00,2.305506e+00
2.849516e+00,2.683279e+00,3,3,4.291551e+00,4.291550e+00
2.840362e+00,2.683050e+00,3,3,4.487123e+00,4.487126e+00
2.840216e+00,2.683947e+00,3,3,3.770399e+00,3.770405e+00
2.837905e+00,2.675990e+00,3,3,4.886310e+00,4.886388e+00
2.852658e+00,2.683546e+00,3,3,7.600464e+00,7.600959e+00
2.842956e+00,2.677486e+00,3,3,1.058205e+01,1.058521e+01
5.693419e+00,5.390692e+00,6,6,1.262827e+01,1.263500e+01
4.770246e+00,3.575635e+00,5,4,8.146870e+00,8.145663e+00
2.843721e+00,2.678570e+00,3,3,6.627039e+00,6.627026e+00
2.847673e+00,2.687846e+00,3,3,5.278261e+00,5.278261e+00
2.846670e+00,2.675903e+00,3,3,5.005637e+00,5.005636e+00
2.843691e+00,2.684332e+00,3,3,3.920533e+00,3.920533e+00
2.846869e+00,2.675726e+00,3,3,4.074256e+00,4.074256e+00
2.843964e+00,2.681013e+00,3,3,4.675510e+00,4.675509e+00
2.847126e+00,2.690688e+00,3,3,9.396666e+00,9.392337e+00
5.682017e+00,5.353239e+00,6,6,9.618617e+00,9.618648e+00
3.817097e+00,4.497212e+00,4,5,6.237434e+00,6.241629e+00
4.727094e+00,3.565096e+00,5,4,6.658714e+00,6.661254e+00
3.795055e+00,3.573208e+00,4,4,9.703493e+00,9.701177e+00
4.723923e+00,3.568858e+00,5,4,7.270491e+00,7.247858e+00
3.792318e+00,2.674235e+00,4,3,5.976932e+00,5.977021e+00
2.845142e+00,2.682077e+00,3,3,3.019113e+00,3.019111e+00
2.844517e+00,2.675545e+00,3,3,2.301399e+00,2.301399e+00
2.844849e+00,2.683274e+00,3,3,2.015959e+00,2.015959e+00
2.843986e+00,2.682623e+00,3,3,1.617367e+00,1.617366e+00
2.858919e+00,2.693354e+00,3,3,1.451495e+00,1.451495e+00
2.841551e+00,2.681457e+00,3,3,9.649223e-01,9.649221e-01
2.832846e+00,2.680375e+00,3,3,2.964021e+00,2.964021e+00
2.842435e+00,2.681002e+00,3,3,3.741698e+00,3.741698e+00
2.833990e+00,2.681117e+00,3,3,4.517099e+00,4.517098e+00
2.847742e+00,2.682412e+00,3,3,8.614284e+00,8.614312e+00
2.840958e+00,2.676844e+00,3,3,8.854586e+00,8.854673e+00
2.846180e+00,2.678493e+00,3,3,7.980370e+00,7.980502e+00
2.846872e+00,2.677533e+00,3,3,5.071802e+00,5.071815e+00
2.845479e+00,2.681437e+00,3,3,4.143985e+00,4.143984e+00
2.841721e+00,2.675463e+00,3,3,4.835795e+00,4.835794e+00
2.844531e+00,2.681995e+00,3,3,6.978019e+00,6.978101e+00
2.842098e+00,2.676054e+00,3,3,5.848577e+00,5.849269e+00
2.847587e+00,2.684400e+00,3,3,1.084445e+01,1.085107e+01
5.674797e+00,5.346403e+00,6,6,1.143231e+01,1.142052e+01
4.727273e+00,3.564948e+00,5,4,1.031745e+01,1.030782e+01
3.801913e+00,5.359354e+00,4,6,7.337646e+00,7.341841e+00
2.847227e+00,2.683446e+00,3,3,6.828734e+00,6.829787e+00
2.845563e+00,2.683096e+00,3,3,6.459339e+00,6.459439e+00
2.839472e+00,2.680902e+00,3,3,7.317300e+00,7.317311e+00
2.845505e+00,2.683613e+00,3,3,4.379776e+00,4.379778e+00
2.834266e+00,2.682533e+00,3,3,4.164910e+00,4.164910e+00
2.848702e+00,2.688428e+00,3,3,4.189777e+00,4.189777e+00
2.847316e+00,2.675942e+00,3,3,3.999013e+00,3.999013e+00
2.845503e+00,2.702259e+00,3,3,5.260254e+00,5.260253e+00
2.865672e+00,2.697186e+00,3,3,3.738321e+00,3.738322e+00
2.864119e+00,2.703827e+00,3,3,2.357660e+00,2.357660e+00
2.864022e+00,2.701037e+00,3,3,2.054870e+00,2.054870e+00
2.842377e+00,2.681471e+00,3,3,1.800649e+00,1.800649e+00
2.903949e+00,2.704140e+00,3,3,1.301180e+00,1.301180e+00
2.852915e+00,2.677760e+00,3,3,3.249059e+00,3.249060e+00
2.846070e+00,2.683695e+00,3,3,2.736054e+00,2.736143e+00
2.839250e+00,2.676940e+00,3,3,4.031574e+00,4.031593e+00
2.844634e+00,2.683273e+00,3,3,4.463430e+00,4.463429e+00
2.843639e+00,2.675634e+00,3,3,8.328058e+00,8.328059e+00
2.850014e+00,2.683069e+00,3,3,5.911013e+00,5.911016e+00
2.841392e+00,2.675036e+00,3,3,3.995913e+00,3.995914e+00
2.851015e+00,2.699610e+00,3,3,3.242556e+00,3.242556e+00
2.862196e+00,2.699096e+00,3,3,2.823340e+00,2.823340e+00
2.856271e+00,2.699514e+00,3,3,2.718373e+00,2.718373e+00
2.856374e+00,2.681356e+00,3,3,2.492674e+00,2.492673e+00
2.836532e+00,2.677307e+00,3,3,2.117858e+00,2.117858e+00
2.844157e+00,2.682683e+00,3,3,2.094573e+00,2.094573e+00
2.838533e+00,2.676088e+00,3,3,1.816016e+00,1.816016e+00
2.848718e+00,2.679741e+00,3,3,2.205007e+00,2.205006e+00
2.847043e+00,2.695465e+00,3,3,2.414741e+00,2.414741e+00
2.866182e+00,2.699456e+00,3,3,2.788999e+00,2.788998e+00
2.849317e+00,2.676897e+00,3,3,3.218601e+00,3.218600e+00
2.841237e+00,2.683291e+00,3,3,3.046066e+00,3.046066e+00
2.862778e+00,2.687368e+00,3,3,3.530996e+00,3.531065e+00
2.841528e+00,2.681371e+00,3,3,2.039395e+00,2.039404e+00
2.844811e+00,2.684419e+00,3,3,3.223013e+00,3.223012e+00
2.838822e+00,2.686595e+00,3,3,2.186897e+00,2.186897e+00
2.848954e+00,2.680822e+00,3,3,1.744588e+00,1.744587e+00
2.853204e+00,2.695126e+00,3,3,1.619824e+00,1.619824e+00
2.862854e+00,2.703653e+00,3,3,1.664214e+00,1.664214e+00
2.848171e+00,2.674067e+00,3,3,1.655540e+00,1.655540e+00
2.843960e+00,2.682813e+00,3,3,1.086000e+00,1.086001e+00
2.842265e+00,2.675479e+00,3,3,1.292450e+00,1.292449e+00
2.851799e+00,2.680591e+00,3,3,6.647535e-01,6.647534e-01
2.839853e+00,2.676595e+00,3,3,9.422098e-01,9.422095e-01
2.840687e+00,2.682102e+00,3,3,1.600472e+00,1.600471e+00
2.844597e+00,2.679931e+00,3,3,2.429688e+00,2.429687e+00
2.834925e+00,2.679560e+00,3,3,3.294515e+00,3.294514e+00
2.842955e+00,2.681424e+00,3,3,2.943267e+00,2.943268e+00
2.835974e+00,2.677002e+00,3,3,1.234291e+00,1.234291e+00
2.841298e+00,2.683500e+00,3,3,1.400990e+00,1.400990e+00
2.842700e+00,2.676942e+00,3,3,1.643235e+00,1.643234e+00
2.844714e+00,2.683212e+00,3,3,1.270229e+00,1.270228e+00
2.840540e+00,2.677558e+00,3,3,1.039081e+00,1.039081e+00
2.845609e+00,2.680555e+00,3,3,9.870579e-01,9.870578e-01
2.844248e+00,2.674192e+00,3,3,1.345554e+00,1.345554e+00
2.845916e+00,2.681567e+00,3,3,1.238950e+00,1.238950e+00
2.841478e+00,2.674989e+00,3,3,1.154382e+00,1.154382e+00
2.843431e+00,2.680344e+00,3,3,1.959893e+00,1.959892e+00
2.841922e+00,2.675300e+00,3,3,1.463424e+00,1.463424e+00
2.838875e+00,2.680862e+00,3,3,1.478461e+00,1.478461e+00
2.845107e+00,2.680754e+00,3,3,1.421870e+00,1.421870e+00
2.834575e+00,2.681611e+00,3,3,3.336188e+00,3.336186e+00
2.846410e+00,2.683176e+00,3,3,2.002375e+00,2.002376e+00
2.837046e+00,2.685104e+00,3,3,1.956548e+00,1.956548e+00
2.844175e+00,2.683709e+00,3,3,3.081002e+00,3.081002e+00
2.840093e+00,2.677047e+00,3,3,4.863613e+00,4.863621e+00
2.847309e+00,2.701976e+00,3,3,2.649473e+00,2.649475e+00
2.860237e+00,2.689883e+00,3,3,2.254465e+00,2.254465e+00
2.837585e+00,2.684979e+00,3,3,2.064764e+00,2.064764e+00
2.843060e+00,2.676999e+00,3,3,2.177926e+00,2.177926e+00
2.845279e+00,2.680258e+00,3,3,1.786456e+00,1.786456e+00
2.846261e+00,2.676586e+00,3,3,1.549910e+00,1.549910e+00
2.862716e+00,2.700551e+00,3,3,1.626751e+00,1.626750e+00
2.840623e+00,2.682153e+00,3,3,1.299160e+00,1.299160e+00
2.842731e+00,2.680794e+00,3,3,3.463036e+00,3.463034e+00
2.847569e+00,2.682087e+00,3,3,1.927920e+00,1.927921e+00
2.834891e+00,2.681477e+00,3,3,1.591379e+00,1.591379e+00
2.842785e+00,2.702352e+00,3,3,2.360541e+00,2.360541e+00
2.844625e+00,2.675170e+00,3,3,3.125231e+00,3.125230e+00
2.850856e+00,2.681847e+00,3,3,3.479036e+00,3.479035e+00
2.842378e+00,2.676324e+00,3,3,1.402024e+00,1.402024e+00
2.847357e+00,2.680828e+00,3,3,8.818663e-01,8.818663e-01
2.839246e+00,2.674751e+00,3,3,1.314825e+00,1.314824e+00
2.842665e+00,2.682902e+00,3,3,2.062683e+00,2.062682e+00
2.844841e+00,2.678520e+00,3,3,2.548552e+00,2.548551e+00
2.844611e+00,2.680980e+00,3,3,2.057823e+00,2.057824e+00
2.843852e+00,2.681839e+00,3,3,1.760862e+00,1.760861e+00
2.841287e+00,2.681640e+00,3,3,1.029614e+00,1.029614e+00
2.846961e+00,2.684874e+00,3,3,1.438019e+00,1.438019e+00
2.835618e+00,2.682348e+00,3,3,7.388890e-01,7.388891e-01
2.844642e+00,2.684731e+00,3,3,5.790255e-01,5.790255e-01
2.836527e+00,2.676996e+00,3,3,1.519916e+00,1.519915e+00
2.847725e+00,2.682357e+00,3,3,1.790200e+00,1.790199e+00
2.845922e+00,2.678562e+00,3,3,1.258276e+00,1.258276e+00
2.840412e+00,2.682046e+00,3,3,1.017551e+00,1.017551e+00
2.842290e+00,2.675348e+00,3,3,9.776409e-01,9.776405e-01
2.841971e+00,2.682510e+00,3,3,1.632338e+00,1.632337e+00
2.840790e+00,2.676438e+00,3,3,2.838119e+00,2.838119e+00
2.849017e+00,2.682071e+00,3,3,2.687789e+00,2.687789e+00
2.842771e+00,2.676854e+00,3,3,5.935242e+00,5.935240e+00
2.841738e+00,2.682182e+00,3,3,4.280948e+00,4.280949e+00
2.855830e+00,2.687679e+00,3,3,8.421305e+00,8.421230e+00
4.733308e+00,4.462609e+00,5,5,6.040842e+00,6.040080e+00
3.787663e+00,2.676614e+00,4,3,4.512724e+00,4.512737e+00
2.844047e+00,2.682562e+00,3,3,3.740370e+00,3.740371e+00
2.841508e+00,2.675217e+00,3,3,2.998562e+00,2.998563e+00
2.844512e+00,2.683136e+00,3,3,2.653263e+00,2.653263e+00
2.843115e+00,2.683727e+00,3,3,2.487918e+00,2.487917e+00
2.868370e+00,2.700618e+00,3,3,3.229353e+00,3.229352e+00
2.862401e+00,2.698555e+00,3,3,2.125003e+00,2.125003e+00
2.858514e+00,2.699115e+00,3,3,2.868164e+00,2.868162e+00
2.847414e+00,2.679999e+00,3,3,1.222936e+00,1.222936e+00
2.839015e+00,2.678624e+00,3,3,1.898667e+00,1.898667e+00
2.843705e+00,2.683684e+00,3,3,1.043148e+00,1.043148e+00
2.837675e+00,2.674949e+00,3,3,1.051730e+00,1.051730e+00
2.849101e+00,2.679788e+00,3,3,1.035906e+00,1.035906e+00
2.845173e+00,2.674865e+00,3,3,1.010111e+00,1.010111e+00
2.843929e+00,2.683294e+00,3,3,1.082853e+00,1.082852e+00
2.845670e+00,2.675339e+00,3,3,1.095828e+00,1.095828e+00
2.842428e+00,2.684767e+00,3,3,1.132018e+00,1.132018e+00
2.847066e+00,2.675325e+00,3,3,9.615286e-01,9.615285e-01
2.842716e+00,2.683041e+00,3,3,1.049270e+00,1.049270e+00
2.847375e+00,2.675048e+00,3,3,7.879088e-01,7.879087e-01
2.851110e+00,2.683431e+00,3,3,1.439363e+00,1.439362e+00
2.841605e+00,2.682529e+00,3,3,1.335670e+00,1.335670e+00
2.834356e+00,2.680458e+00,3,3,3.141573e+00,3.141572e+00
2.841237e+00,2.684132e+00,3,3,1.910718e+00,1.910719e+00
2.840932e+00,2.678887e+00,3,3,8.631936e-01,8.631938e-01
2.845299e+00,2.683558e+00,3,3,1.186081e+00,1.186080e+00
2.838051e+00,2.675106e+00,3,3,1.261711e+00,1.261710e+00
2.840566e+00,2.690267e+00,3,3,1.672320e+00,1.672320e+00
2.847122e+00,2.676246e+00,3,3,2.347209e+00,2.347208e+00
2.841116e+00,2.684460e+00,3,3,2.956519e+00,2.956518e+00
2.842312e+00,2.675390e+00,3,3,2.625336e+00,2.625335e+00
2.845938e+00,2.682472e+00,3,3,2.381874e+00,2.381874e+00
2.844158e+00,2.676927e+00,3,3,2.840120e+00,2.840119e+00
2.842218e+00,2.681554e+00,3,3,4.242098e+00,4.242097e+00
2.863566e+00,2.700675e+00,3,3,3.232897e+00,3.232898e+00
2.836017e+00,2.682538e+00,3,3,2.060546e+00,2.060546e+00
2.841848e+00,2.679291e+00,3,3,1.917774e+00,1.917774e+00
2.843856e+00,2.680789e+00,3,3,1.570783e+00,1.570783e+00
2.844544e+00,2.683932e+00,3,3,1.788717e+00,1.788717e+00
2.838762e+00,2.674770e+00,3,3,1.670397e+00,1.670397e+00
2.844791e+00,2.680704e+00,3,3,1.852885e+00,1.852885e+00
2.844705e+00,2.674439e+00,3,3,1.575074e+00,1.575074e+00
2.842066e+00,2.683243e+00,3,3,1.322500e+00,1.322500e+00
2.845038e+00,2.675406e+00,3,3,1.608497e+00,1.608497e+00
2.843167e+00,2.681977e+00,3,3,1.947952e+00,1.947951e+00
2.841953e+00,2.675702e+00,3,3,3.513622e+00,3.513620e+00
2.843876e+00,2.680222e+00,3,3,3.981975e+00,3.981975e+00
2.844692e+00,2.673905e+00,3,3,3.370380e+00,3.370380e+00
2.842037e+00,2.680749e+00,3,3,4.707157e+00,4.707159e+00
2.844301e+00,2.682663e+00,3,3,6.499834e+00,6.499837e+00
2.835581e+00,2.680029e+00,3,3,7.406377e+00,7.406397e+00
2.841843e+00,2.680319e+00,3,3,5.772756e+00,5.772763e+00
2.835066e+00,2.681372e+00,3,3,3.672912e+00,3.672913e+00
2.848188e+00,2.682166e+00,3,3,3.393920e+00,3.393919e+00
2.833933e+00,2.678363e+00,3,3,2.305089e+00,2.305089e+00
2.840045e+00,2.680092e+00,3,3,2.182125e+00,2.182125e+00
2.859582e+00,2.692883e+00,3,3,1.942341e+00,1.942341e+00
2.858656e+00,2.683023e+00,3,3,1.774993e+00,1.774992e+00
2.847870e+00,2.674585e+00,3,3,1.636768e+00,1.636767e+00
2.844419e+00,2.682479e+00,3,3,1.690944e+00,1.690944e+00
2.842620e+00,2.675400e+00,3,3,1.753688e+00,1.753688e+00
2.844677e+00,2.682233e+00,3,3,1.618223e+00,1.618223e+00
2.844402e+00,2.674889e+00,3,3,1.499648e+00,1.499648e+00
2.847797e+00,2.681142e+00,3,3,2.850304e+00,2.850303e+00
2.843935e+00,2.683151e+00,3,3,2.594243e+00,2.594243e+00
2.837352e+00,2.680399e+00,3,3,4.129187e+00,4.129186e+00
2.861963e+00,2.705304e+00,3,3,3.962295e+00,3.962294e+00
2.861620e+00,2.696475e+00,3,3,4.596367e+00,4.596367e+00
2.848924e+00,2.679513e+00,3,3,6.442923e+00,6.442923e+00
2.843150e+00,2.676387e+00,3,3,7.415846e+00,7.415905e+00
2.854883e+00,2.682830e+00,3,3,5.716735e+00,5.716740e+00
2.850112e+00,2.674514e+00,3,3,4.806163e+00,4.806163e+00
2.845398e+00,2.692759e+00,3,3,4.709871e+00,4.709871e+00
2.846291e+00,2.675150e+00,3,3,3.777732e+00,3.777732e+00
2.838839e+00,2.680332e+00,3,3,3.416251e+00,3.416250e+00
2.846505e+00,2.685874e+00,3,3,2.955894e+00,2.955893e+00
2.837926e+00,2.681052e+00,3,3,2.458325e+00,2.458325e+00
2.846678e+00,2.682162e+00,3,3,2.550069e+00,2.550069e+00
2.858047e+00,2.698955e+00,3,3,2.255615e+00,2.255615e+00
2.863084e+00,2.700223e+00,3,3,1.336178e+00,1.336178e+00
2.841208e+00,2.675019e+00,3,3,1.991934e+00,1.991934e+00
2.842407e+00,2.680236e+00,3,3,1.945321e+00,1.945323e+00
2.838257e+00,2.674408e+00,3,3,2.295225e+00,2.295228e+00
2.839368e+00,2.681614e+00,3,3,1.917948e+00,1.917948e+00
2.846282e+00,2.673337e+00,3,3,2.861790e+00,2.861788e+00
2.854350e+00,2.699254e+00,3,3,1.172088e+00,1.172089e+00
2.861479e+00,2.699149e+00,3,3,1.207366e+00,1.207366e+00
2.852719e+00,2.699724e+00,3,3,3.169206e+00,3.169205e+00
2.846483e+00,2.682283e+00,3,3,4.162678e+00,4.162677e+00
2.839250e+00,2.679382e+00,3,3,2.831877e+00,2.831878e+00
2.845612e+00,2.679526e+00,3,3,3.689524e+00,3.689523e+00
2.839991e+00,2.674122e+00,3,3,3.553527e+00,3.553527e+00
2.845777e+00,2.683471e+00,3,3,2.756447e+00,2.756447e+00
2.848052e+00,2.675518e+00,3,3,2.418443e+00,2.418443e+00
2.840792e+00,2.685807e+00,3,3,4.230816e+00,4.230963e+00
2.842136e+00,2.673685e+00,3,3,2.672076e+00,2.672069e+00
2.844646e+00,2.679835e+00,3,3,1.647522e+00,1.647523e+00
2.841883e+00,2.673867e+00,3,3,2.018341e+00,2.018340e+00
2.860756e+00,2.694623e+00,3,3,1.763221e+00,1.763221e+00
2.843838e+00,2.677015e+00,3,3,1.355416e+00,1.355416e+00
2.836631e+00,2.679167e+00,3,3,1.132915e+00,1.132915e+00
2.844835e+00,2.681304e+00,3,3,1.383428e+00,1.383427e+00
2.835892e+00,2.680090e+00,3,3,1.589472e+00,1.589471e+00
2.850625e+00,2.681761e+00,3,3,1.614565e+00,1.614565e+00
2.836653e+00,2.678860e+00,3,3,6.387642e-01,6.387643e-01
2.844181e+00,2.680192e+00,3,3,1.263129e+00,1.263128e+00
2.864429e+00,2.695038e+00,3,3,1.756925e+00,1.756924e+00
2.863729e+00,2.700594e+00,3,3,1.214975e+00,1.214976e+00
2.859447e+00,2.694300e+00,3,3,6.896474e-01,6.896473e-01
2.859395e+00,2.699161e+00,3,3,1.322707e+00,1.322706e+00
2.865752e+00,2.701920e+00,3,3,2.747684e+00,2.747683e+00
2.855591e+00,2.699287e+00,3,3,3.122748e+00,3.122748e+00
2.847088e+00,2.681007e+00,3,3,3.745935e+00,3.745934e+00
2.840755e+00,2.675505e+00,3,3,2.934402e+00,2.934402e+00
2.843743e+00,2.682420e+00,3,3,2.319153e+00,2.319153e+00
2.844603e+00,2.675380e+00,3,3,1.680245e+00,1.680245e+00
2.844471e+00,2.681358e+00,3,3,1.510748e+00,1.510748e+00
2.842007e+00,2.674368e+00,3,3,3.475020e+00,3.475018e+00
2.844004e+00,2.682608e+00,3,3,4.952406e+00,4.952409e+00
3.781144e+00,3.567173e+00,4,4,2.345955e+00,2.345958e+00
2.845625e+00,2.681165e+00,3,3,2.364500e+00,2.364500e+00
2.842889e+00,2.678705e+00,3,3,1.781333e+00,1.781333e+00
2.846962e+00,2.682831e+00,3,3,1.292388e+00,1.292388e+00
2.860799e+00,2.692142e+00,3,3,5.982890e-01,5.982889e-01
2.861189e+00,2.700683e+00,3,3,8.724916e-01,8.724914e-01
2.842223e+00,2.677135e+00,3,3,6.429651e-01,6.429651e-01
2.837725e+00,2.684919e+00,3,3,7.267693e-01,7.267690e-01
2.844507e+00,2.680770e+00,3,3,7.403457e-01,7.403454e-01
2.833315e+00,2.681819e+00,3,3,3.214886e+00,3.214884e+00
2.841677e+00,2.680656e+00,3,3,5.166954e+00,5.167224e+00
2.835463e+00,3.573042e+00,3,4,6.496184e+00,6.496022e+00
2.846441e+00,2.682158e+00,3,3,3.328825e+00,3.328824e+00
2.845979e+00,2.694212e+00,3,3,2.543168e+00,2.543168e+00
2.858413e+00,2.699220e+00,3,3,2.612517e+00,2.612517e+00
2.856292e+00,2.695333e+00,3,3,2.705704e+00,2.705704e+00
2.842422e+00,2.682716e+00,3,3,2.846806e+00,2.846806e+00
2.843437e+00,2.674266e+00,3,3,5.080861e+00,5.080865e+00
2.840213e+00,2.682454e+00,3,3,1.008151e+01,1.007972e+01
5.669450e+00,5.345527e+00,6,6,1.225672e+01,1.226639e+01
5.723820e+00,4.485689e+00,6,5,7.547308e+00,7.569017e+00
3.812441e+00,5.371275e+00,4,6,9.436417e+00,9.438850e+00
3.801522e+00,3.575999e+00,4,4,7.125081e+00,7.125461e+00
2.839140e+00,2.675111e+00,3,3,5.271544e+00,5.271855e+00
2.843239e+00,2.680538e+00,3,3,6.471873e+00,6.471910e+00
2.846282e+00,2.676009e+00,3,3,5.618434e+00,5.618434e+00
2.840030e+00,2.678993e+00,3,3,7.608868e+00,7.608866e+00
2.861339e+00,2.694175e+00,3,3,5.902795e+00,5.902795e+00
2.861654e+00,2.701015e+00,3,3,4.483681e+00,4.483681e+00
2.845527e+00,2.675999e+00,3,3,4.020976e+00,4.020976e+00
2.849093e+00,2.682639e+00,3,3,3.094427e+00,3.094427e+00
2.847849e+00,2.679347e+00,3,3,2.888103e+00,2.888103e+00
2.838531e+00,2.681613e+00,3,3,3.291346e+00,3.291346e+00
2.844806e+00,2.700655e+00,3,3,2.571925e+00,2.571925e+00
2.854952e+00,2.678197e+00,3,3,1.174217e+00,1.174217e+00
2.844878e+00,2.680308e+00,3,3,1.972185e+00,1.972184e+00
2.838686e+00,2.710582e+00,3,3,1.997746e+00,1.997747e+00
2.846511e+00,2.681789e+00,3,3,1.105918e+00,1.105918e+00
2.839239e+00,2.676075e+00,3,3,1.114494e+00,1.114494e+00
2.843081e+00,2.681992e+00,3,3,9.310651e-01,9.310650e-01
2.841332e+00,2.673303e+00,3,3,7.802638e-01,7.802636e-01
2.840843e+00,2.681610e+00,3,3,1.263091e+00,1.263091e+00
2.842932e+00,2.675969e+00,3,3,8.592391e-01,8.592390e-01
2.844317e+00,2.682174e+00,3,3,1.329574e+00,1.329573e+00
2.845700e+00,2.682853e+00,3,3,2.423947e+00,2.423947e+00
2.840362e+00,2.681708e+00,3,3,2.648755e+00,2.648756e+00
2.847997e+00,2.703598e+00,3,3,2.116984e+00,2.116984e+00
2.860323e+00,2.700472e+00,3,3,1.666201e+00,1.666200e+00
2.846679e+00,2.683350e+00,3,3,1.109046e+00,1.109046e+00
2.843222e+00,2.675328e+00,3,3,2.155936e+00,2.155935e+00
2.840931e+00,2.681183e+00,3,3,1.948723e+00,1.948723e+00
2.842034e+00,2.677143e+00,3,3,4.287806e+00,4.287804e+00
2.841128e+00,2.682818e+00,3,3,2.829841e+00,2.829842e+00
2.847465e+00,2.674033e+00,3,3,1.982913e+00,1.982913e+00
2.848171e+00,2.681347e+00,3,3,3.599257e+00,3.599255e+00
2.850319e+00,2.695240e+00,3,3,3.308568e+00,3.308568e+00
2.860242e+00,2.698810e+00,3,3,3.792307e+00,3.792306e+00
2.861182e+00,2.687720e+00,3,3,3.616082e+00,3.616081e+00
2.846312e+00,2.679290e+00,3,3,3.168031e+00,3.168030e+00
2.843591e+00,2.680819e+00,3,3,2.862350e+00,2.862350e+00
2.848462e+00,2.681182e+00,3,3,3.123848e+00,3.123848e+00
2.849108e+00,2.680775e+00,3,3,2.293018e+00,2.293018e+00
2.841236e+00,2.674687e+00,3,3,2.090619e+00,2.090619e+00
2.844025e+00,2.681125e+00,3,3,2.032072e+00,2.032071e+00
2.848000e+00,2.674851e+00,3,3,2.145502e+00,2.145501e+00
2.840347e+00,2.681871e+00,3,3,1.756338e+00,1.756338e+00
2.849772e+00,2.674234e+00,3,3,2.950886e+00,2.950885e+00
2.845083e+00,2.699552e+00,3,3,3.588799e+00,3.588799e+00
2.866117e+00,2.701798e+00,3,3,5.137349e+00,5.137348e+00
2.853877e+00,2.701494e+00,3,3,7.576455e+00,7.576454e+00
2.868561e+00,2.684685e+00,3,3,7.613250e+00,7.613250e+00
2.843861e+00,2.674928e+00,3,3,4.682868e+00,4.682869e+00
2.846208e+00,2.681346e+00,3,3,4.125087e+00,4.125086e+00
2.841224e+00,2.676322e+00,3,3,3.396980e+00,3.396980e+00
2.848804e+00,2.681838e+00,3,3,2.239274e+00,2.239275e+00
2.845111e+00,2.674016e+00,3,3,2.243202e+00,2.243203e+00
2.848242e+00,2.683876e+00,3,3,2.909488e+00,2.909489e+00
2.840175e+00,2.675939e+00,3,3,2.670832e+00,2.670831e+00
2.842559e+00,2.686321e+00,3,3,4.180717e+00,4.180714e+00
2.850879e+00,2.676825e+00,3,3,4.148641e+00,4.148642e+00
2.839861e+00,2.681944e+00,3,3,4.158757e+00,4.158758e+00
2.865732e+00,2.705122e+00,3,3,4.007576e+00,4.007576e+00
2.858260e+00,2.686405e+00,3,3,3.549812e+00,3.549815e+00
2.843887e+00,2.700858e+00,3,3,3.682443e+00,3.682443e+00
2.863031e+00,2.692712e+00,3,3,1.671085e+00,1.671085e+00
2.867190e+00,2.700601e+00,3,3,1.546731e+00,1.546731e+00
2.848617e+00,2.674686e+00,3,3,1.173817e+00,1.173817e+00
2.839489e+00,2.683023e+00,3,3,2.043508e+00,2.043507e+00
2.847271e+00,2.675004e+00,3,3,1.503401e+00,1.503401e+00
2.850932e+00,2.681043e+00,3,3,1.253273e+00,1.253272e+00
2.845055e+00,2.682336e+00,3,3,8.426970e-01,8.426968e-01
2.833912e+00,2.679203e+00,3,3,8.052929e-01,8.052927e-01
2.843153e+00,2.681210e+00,3,3,9.850239e-01,9.850237e-01
2.836952e+00,2.680379e+00,3,3,8.358680e-01,8.358680e-01
2.844479e+00,2.686767e+00,3,3,2.317594e+00,2.317593e+00
2.860723e+00,2.679864e+00,3,3,2.152668e+00,2.152668e+00
2.844978e+00,2.680536e+00,3,3,2.328922e+00,2.328922e+00
2.838269e+00,2.675941e+00,3,3,1.935999e+00,1.935999e+00
2.837781e+00,2.680887e+00,3,3,2.556836e+00,2.556836e+00
2.847199e+00,2.674969e+00,3,3,7.753507e+00,7.753581e+00
6.632636e+00,5.346662e+00,7,6,1.122668e+01,1.123666e+01
6.631966e+00,5.351321e+00,7,6,6.409954e+00,6.412722e+00
2.843329e+00,3.573405e+00,3,4,6.722059e+00,6.720932e+00
4.720794e+00,3.571656e+00,5,4,5.386229e+00,5.386647e+00
3.793412e+00,2.681487e+00,4,3,4.609931e+00,4.610075e+00
2.834447e+00,2.681009e+00,3,3,3.415360e+00,3.415361e+00
2.842555e+00,2.682489e+00,3,3,2.811436e+00,2.811436e+00
2.834569e+00,2.680777e+00,3,3,3.462090e+00,3.462089e+00
2.844748e+00,2.682097e+00,3,3,2.836194e+00,2.836194e+00
2.842989e+00,2.675698e+00,3,3,2.157823e+00,2.157823e+00
2.844207e+00,2.681202e+00,3,3,2.170133e+00,2.170133e+00
2.840853e+00,2.676220e+00,3,3,2.997184e+00,2.997183e+00
2.844602e+00,2.679846e+00,3,3,3.287193e+00,3.287192e+00
2.838984e+00,2.674548e+00,3,3,2.308765e+00,2.308765e+00
2.844571e+00,2.679660e+00,3,3,1.605628e+00,1.605628e+00
2.847304e+00,2.675097e+00,3,3,1.055688e+00,1.055686e+00
2.840910e+00,2.682739e+00,3,3,8.252304e-01,8.252303e-01
2.839704e+00,2.676227e+00,3,3,1.579785e+00,1.579785e+00
2.842661e+00,2.681403e+00,3,3,4.245297e+00,4.245295e+00
2.839960e+00,2.676782e+00,3,3,3.410456e+00,3.410456e+00
2.838481e+00,2.680053e+00,3,3,3.589409e+00,3.589409e+00
2.843465e+00,2.679363e+00,3,3,3.625135e+00,3.625139e+00
2.842603e+00,2.681438e+00,3,3,4.496771e+00,4.496968e+00
2.844506e+00,2.681025e+00,3,3,4.059654e+00,4.059674e+00
2.841066e+00,2.682731e+00,3,3,8.874701e+00,8.874600e+00
3.790642e+00,3.574775e+00,4,4,6.774891e+00,6.774893e+00
2.836191e+00,2.680926e+00,3,3,4.146104e+00,4.146105e+00
2.847632e+00,2.685793e+00,3,3,4.658729e+00,4.658728e+00
2.838810e+00,2.679899e+00,3,3,3.161513e+00,3.161512e+00
2.840061e+00,2.680791e+00,3,3,4.325414e+00,4.325413e+00
2.837980e+00,2.678391e+00,3,3,4.016904e+00,4.016905e+00
2.842540e+00,2.702880e+00,3,3,4.397163e+00,4.397180e+00
2.862633e+00,2.688595e+00,3,3,2.409206e+00,2.409222e+00
2.841959e+00,2.681014e+00,3,3,1.762131e+00,1.762131e+00

