1.906569e+00,1.814063e+00,2,2,0.000000e+00,0.000000e+00
2.822929e+00,2.687176e+00,3,3,2.981004e-01,2.981003e-01
2.835604e+00,2.682415e+00,3,3,3.599056e-01,3.599055e-01
2.825903e+00,2.671051e+00,3,3,2.229702e+00,2.229701e+00
2.830005e+00,2.669116e+00,3,3,1.503187e+00,1.503187e+00
2.824570e+00,2.670649e+00,3,3,1.400057e+00,1.400057e+00
2.839591e+00,2.672193e+00,3,3,4.804107e+00,4.804107e+00
2.822675e+00,2.671033e+00,3,3,5.579141e+00,5.579190e+00
2.834996e+00,2.670246e+00,3,3,6.728144e+00,6.728985e+00
2.822304e+00,2.665060e+00,3,3,6.632286e+00,6.632285e+00
2.830345e+00,2.667632e+00,3,3,1.054866e+01,1.054918e+01
3.763402e+00,3.556989e+00,4,4,7.195772e+00,7.195772e+00
2.836677e+00,2.664366e+00,3,3,8.216297e+00,8.216311e+00
2.833005e+00,2.669938e+00,3,3,6.883692e+00,6.883997e+00
2.832541e+00,2.664051e+00,3,3,5.959202e+00,5.959213e+00
2.826121e+00,2.670062e+00,3,3,5.888057e+00,5.888056e+00
2.836773e+00,2.684249e+00,3,3,5.182907e+00,5.182907e+00
2.825188e+00,2.667518e+00,3,3,4.795323e+00,4.795323e+00
2.829775e+00,2.670343e+00,3,3,4.027718e+00,4.027718e+00
2.834663e+00,2.668878e+00,3,3,3.669422e+00,3.669422e+00
2.829560e+00,2.667722e+00,3,3,3.686914e+00,3.686913e+00
2.829405e+00,2.671613e+00,3,3,2.743736e+00,2.743736e+00
2.832810e+00,2.668860e+00,3,3,3.513130e+00,3.513129e+00
2.823795e+00,2.667684e+00,3,3,3.329479e+00,3.329479e+00
2.839342e+00,2.667818e+00,3,3,3.187505e+00,3.187504e+00
2.826595e+00,2.666181e+00,3,3,3.827169e+00,3.827168e+00
2.827361e+00,2.670410e+00,3,3,2.716916e+00,2.716916e+00
2.822338e+00,2.666461e+00,3,3,2.297279e+00,2.297279e+00
2.843589e+00,2.671501e+00,3,3,1.844793e+00,1.844793e+00
2.823283e+00,2.668000e+00,3,3,2.397625e+00,2.397624e+00
2.830615e+00,2.670110e+00,3,3,1.949041e+00,1.949040e+00
2.833656e+00,2.662428e+00,3,3,2.769630e+00,2.769628e+00
2.834076e+00,2.672300e+00,3,3,3.316140e+00,3.316139e+00
2.827791e+00,2.665094e+00,3,3,3.591524e+00,3.591523e+00
2.828154e+00,2.667945e+00,3,3,2.176355e+00,2.176356e+00
2.826555e+00,2.662035e+00,3,3,2.603750e+00,2.603749e+00
2.827445e+00,2.668590e+00,3,3,2.658363e+00,2.658363e+00
2.829196e+00,2.662945e+00,3,3,2.027866e+00,2.027866e+00
2.830767e+00,2.667798e+00,3,3,1.635336e+00,1.635335e+00
2.831052e+00,2.660670e+00,3,3,1.514686e+00,1.514686e+00
2.831999e+00,2.672503e+00,3,3,2.174938e+00,2.174937e+00
2.828931e+00,2.665281e+00,3,3,1.749257e+00,1.749257e+00
2.836334e+00,2.670204e+00,3,3,1.542032e+00,1.542031e+00
2.835540e+00,2.665977e+00,3,3,3.383957e+00,3.383955e+00
2.833280e+00,2.671741e+00,3,3,4.587076e+00,4.587075e+00
2.829853e+00,2.662451e+00,3,3,2.343486e+00,2.343487e+00
2.837396e+00,2.674083e+00,3,3,1.849874e+00,1.849874e+00
2.835382e+00,2.663378e+00,3,3,1.767093e+00,1.767093e+00
2.828289e+00,2.672808e+00,3,3,2.714593e+00,2.714596e+00
2.832691e+00,2.664243e+00,3,3,1.834846e+00,1.834847e+00
2.833644e+00,2.671567e+00,3,3,1.052900e+00,1.052900e+00
2.834563e+00,2.663604e+00,3,3,1.689210e+00,1.689210e+00
2.831504e+00,2.676731e+00,3,3,1.823648e+00,1.823648e+00
2.833137e+00,2.665064e+00,3,3,2.054222e+00,2.054222e+00
2.830772e+00,2.668493e+00,3,3,1.376093e+00,1.376093e+00
2.834226e+00,2.662658e+00,3,3,1.500696e+00,1.500695e+00
2.827920e+00,2.666246e+00,3,3,1.686901e+00,1.686901e+00
2.829888e+00,2.660808e+00,3,3,1.567418e+00,1.567418e+00
2.835459e+00,2.671507e+00,3,3,1.939159e+00,1.939158e+00
2.832385e+00,2.663716e+00,3,3,3.706977e+00,3.706976e+00
2.828923e+00,2.669145e+00,3,3,2.228121e+00,2.228121e+00
2.838530e+00,2.663588e+00,3,3,2.284232e+00,2.284232e+00
2.834849e+00,2.667176e+00,3,3,3.327520e+00,3.327519e+00
2.835599e+00,2.665769e+00,3,3,2.330644e+00,2.330644e+00
2.829193e+00,2.666991e+00,3,3,1.445491e+00,1.445491e+00
2.827536e+00,2.664474e+00,3,3,1.879426e+00,1.879425e+00
2.830415e+00,2.668962e+00,3,3,1.307159e+00,1.307159e+00
2.834212e+00,2.668095e+00,3,3,8.683366e-01,8.683367e-01
2.825786e+00,2.668160e+00,3,3,8.033127e-01,8.033126e-01
2.833318e+00,2.666710e+00,3,3,8.252692e-01,8.252691e-01
2.822372e+00,2.670030e+00,3,3,8.878894e-01,8.878890e-01
2.832560e+00,2.666166e+00,3,3,1.154344e+00,1.154344e+00
2.820595e+00,2.667113e+00,3,3,9.145426e-01,9.145422e-01
2.826323e+00,2.667643e+00,3,3,5.186829e-01,5.186830e-01
2.820638e+00,2.665884e+00,3,3,1.687122e+00,1.687120e+00
2.828742e+00,2.666699e+00,3,3,1.648997e+00,1.648996e+00
2.828783e+00,2.667275e+00,3,3,1.693040e+00,1.693040e+00
2.832498e+00,2.668085e+00,3,3,2.026327e+00,2.026326e+00
2.822709e+00,2.668739e+00,3,3,4.816313e+00,4.816310e+00
2.835166e+00,2.668891e+00,3,3,6.149685e+00,6.149705e+00
2.828267e+00,2.667884e+00,3,3,5.213942e+00,5.213944e+00
2.828844e+00,2.667151e+00,3,3,4.555880e+00,4.555882e+00
2.826126e+00,2.666520e+00,3,3,5.356069e+00,5.356115e+00
2.830980e+00,2.666652e+00,3,3,5.100548e+00,5.100570e+00
2.822446e+00,2.694338e+00,3,3,4.071635e+00,4.071640e+00
2.888974e+00,2.722024e+00,3,3,3.468412e+00,3.468412e+00
2.919428e+00,2.748677e+00,3,3,2.673497e+00,2.673497e+00
2.871254e+00,2.682155e+00,3,3,2.389343e+00,2.389342e+00
2.832577e+00,2.669379e+00,3,3,2.033998e+00,2.033998e+00
2.822221e+00,2.668020e+00,3,3,1.876356e+00,1.876356e+00
2.830313e+00,2.668722e+00,3,3,1.742228e+00,1.742228e+00
2.823376e+00,2.668060e+00,3,3,2.353090e+00,2.353090e+00
2.833687e+00,2.668490e+00,3,3,1.839110e+00,1.839110e+00
2.825394e+00,2.670387e+00,3,3,3.450954e+00,3.450956e+00
2.837080e+00,2.672418e+00,3,3,4.194962e+00,4.194966e+00
2.821245e+00,2.666582e+00,3,3,2.469197e+00,2.469200e+00
2.828455e+00,2.668722e+00,3,3,5.964552e+00,5.964717e+00
4.703600e+00,3.555001e+00,5,4,4.369864e+00,4.378876e+00
2.853916e+00,3.549324e+00,3,4,1.623371e+00,1.623368e+00
2.828578e+00,2.668005e+00,3,3,1.692095e+00,1.692094e+00
2.823983e+00,2.659576e+00,3,3,2.215824e+00,2.215824e+00
2.831605e+00,2.667690e+00,3,3,2.305506e+00,2.305506e+00
2.828024e+00,2.661752e+00,3,3,4.291551e+00,4.291550e+00
2.832051e+00,2.669611e+00,3,3,4.487123e+00,4.487126e+00
2.833453e+00,2.660970e+00,3,3,3.770399e+00,3.770405e+00
2.835620e+00,2.667483e+00,3,3,4.886310e+00,4.886388e+00
2.826929e+00,2.662836e+00,3,3,7.600464e+00,7.600959e+00
2.827460e+00,2.669688e+00,3,3,1.058205e+01,1.058521e+01
5.630445e+00,5.324769e+00,6,6,1.262827e+01,1.263500e+01
4.693309e+00,3.551160e+00,5,4,8.146870e+00,8.145663e+00
2.832074e+00,2.665542e+00,3,3,6.627039e+00,6.627026e+00
2.820392e+00,2.665097e+00,3,3,5.278261e+00,5.278261e+00
2.829423e+00,2.664929e+00,3,3,5.005637e+00,5.005636e+00
2.822196e+00,2.666900e+00,3,3,3.920533e+00,3.920533e+00
2.826859e+00,2.666594e+00,3,3,4.074256e+00,4.074256e+00
2.823629e+00,2.667534e+00,3,3,4.675510e+00,4.675509e+00
2.824010e+00,2.665591e+00,3,3,9.396666e+00,9.392337e+00
5.634869e+00,5.320934e+00,6,6,9.618617e+00,9.618648e+00
3.755052e+00,4.436306e+00,4,5,6.237434e+00,6.241629e+00
4.689799e+00,3.552767e+00,5,4,6.658714e+00,6.661254e+00
3.770330e+00,3.547904e+00,4,4,9.703493e+00,9.701177e+00
4.699166e+00,3.547317e+00,5,4,7.270491e+00,7.247858e+00
3.763803e+00,2.666729e+00,4,3,5.976932e+00,5.977021e+00
2.827704e+00,2.663032e+00,3,3,3.019113e+00,3.019111e+00
2.826409e+00,2.665912e+00,3,3,2.301399e+00,2.301399e+00
2.828777e+00,2.661889e+00,3,3,2.015959e+00,2.015959e+00
2.827260e+00,2.680149e+00,3,3,1.617367e+00,1.617366e+00
2.830914e+00,2.667691e+00,3,3,1.451495e+00,1.451495e+00
2.819370e+00,2.665930e+00,3,3,9.649223e-01,9.649221e-01
2.834094e+00,2.702062e+00,3,3,2.964021e+00,2.964021e+00
2.824582e+00,2.667410e+00,3,3,3.741698e+00,3.741698e+00
2.828542e+00,2.668984e+00,3,3,4.517099e+00,4.517098e+00
2.823050e+00,2.666447e+00,3,3,8.614284e+00,8.614312e+00
2.830734e+00,2.666495e+00,3,3,8.854586e+00,8.854673e+00
2.827040e+00,2.675148e+00,3,3,7.980370e+00,7.980502e+00
2.826320e+00,2.667184e+00,3,3,5.071802e+00,5.071815e+00
2.821587e+00,2.664897e+00,3,3,4.143985e+00,4.143984e+00
2.829671e+00,2.668689e+00,3,3,4.835795e+00,4.835794e+00
2.826731e+00,2.665665e+00,3,3,6.978019e+00,6.978101e+00
2.832291e+00,2.668533e+00,3,3,5.848577e+00,5.849269e+00
2.818884e+00,2.664175e+00,3,3,1.084445e+01,1.085107e+01
5.636769e+00,5.317356e+00,6,6,1.143231e+01,1.142052e+01
4.695767e+00,3.545363e+00,5,4,1.031745e+01,1.030782e+01
3.760107e+00,5.320820e+00,4,6,7.337646e+00,7.341841e+00
2.826066e+00,2.665696e+00,3,3,6.828734e+00,6.829787e+00
2.831352e+00,2.659812e+00,3,3,6.459339e+00,6.459439e+00
2.827922e+00,2.667821e+00,3,3,7.317300e+00,7.317311e+00
2.831211e+00,2.662877e+00,3,3,4.379776e+00,4.379778e+00
2.830387e+00,2.667550e+00,3,3,4.164910e+00,4.164910e+00
2.827610e+00,2.661533e+00,3,3,4.189777e+00,4.189777e+00
2.831003e+00,2.666683e+00,3,3,3.999013e+00,3.999013e+00
2.867471e+00,2.664092e+00,3,3,5.260254e+00,5.260253e+00
2.834621e+00,2.665377e+00,3,3,3.738321e+00,3.738322e+00
2.829339e+00,2.661345e+00,3,3,2.357660e+00,2.357660e+00
2.824317e+00,2.687169e+00,3,3,2.054870e+00,2.054870e+00
2.832219e+00,2.667399e+00,3,3,1.800649e+00,1.800649e+00
2.827822e+00,2.666362e+00,3,3,1.301180e+00,1.301180e+00
2.827425e+00,2.665214e+00,3,3,3.249059e+00,3.249060e+00
2.823932e+00,2.668117e+00,3,3,2.736054e+00,2.736143e+00
2.830508e+00,2.666594e+00,3,3,4.031574e+00,4.031593e+00
2.824310e+00,2.667158e+00,3,3,4.463430e+00,4.463429e+00
2.833943e+00,2.667095e+00,3,3,8.328058e+00,8.328059e+00
2.821364e+00,2.667003e+00,3,3,5.911013e+00,5.911016e+00
2.830767e+00,2.666369e+00,3,3,3.995913e+00,3.995914e+00
2.825055e+00,2.666041e+00,3,3,3.242556e+00,3.242556e+00
2.828104e+00,2.664978e+00,3,3,2.823340e+00,2.823340e+00
2.823769e+00,2.666516e+00,3,3,2.718373e+00,2.718373e+00
2.825204e+00,2.665978e+00,3,3,2.492674e+00,2.492673e+00
2.823215e+00,2.665866e+00,3,3,2.117858e+00,2.117858e+00
2.829403e+00,2.665893e+00,3,3,2.094573e+00,2.094573e+00
2.822428e+00,2.665494e+00,3,3,1.816016e+00,1.816016e+00
2.835388e+00,2.666165e+00,3,3,2.205007e+00,2.205006e+00
2.821483e+00,2.665806e+00,3,3,2.414741e+00,2.414741e+00
2.826338e+00,2.668678e+00,3,3,2.788999e+00,2.788998e+00
2.825465e+00,2.702304e+00,3,3,3.218601e+00,3.218600e+00
2.875675e+00,2.745037e+00,3,3,3.046066e+00,3.046066e+00
2.871982e+00,2.660601e+00,3,3,3.530996e+00,3.531065e+00
2.883089e+00,2.684592e+00,3,3,2.039395e+00,2.039404e+00
2.832191e+00,2.659871e+00,3,3,3.223013e+00,3.223012e+00
2.829226e+00,2.670528e+00,3,3,2.186897e+00,2.186897e+00
2.827454e+00,2.661183e+00,3,3,1.744588e+00,1.744587e+00
2.826448e+00,2.670323e+00,3,3,1.619824e+00,1.619824e+00
2.826659e+00,2.660103e+00,3,3,1.664214e+00,1.664214e+00
2.830084e+00,2.669233e+00,3,3,1.655540e+00,1.655540e+00
2.828880e+00,2.662662e+00,3,3,1.086000e+00,1.086001e+00
2.830014e+00,2.666129e+00,3,3,1.292450e+00,1.292449e+00
2.853232e+00,2.707788e+00,3,3,6.647535e-01,6.647534e-01
2.839036e+00,2.678137e+00,3,3,9.422098e-01,9.422095e-01
2.829123e+00,2.669002e+00,3,3,1.600472e+00,1.600471e+00
2.820774e+00,2.667885e+00,3,3,2.429688e+00,2.429687e+00
2.829904e+00,2.665684e+00,3,3,3.294515e+00,3.294514e+00
2.823540e+00,2.669548e+00,3,3,2.943267e+00,2.943268e+00
2.828007e+00,2.669697e+00,3,3,1.234291e+00,1.234291e+00
2.822669e+00,2.667211e+00,3,3,1.400990e+00,1.400990e+00
2.826376e+00,2.667883e+00,3,3,1.643235e+00,1.643234e+00
2.820236e+00,2.666515e+00,3,3,1.270229e+00,1.270228e+00
2.826989e+00,2.666935e+00,3,3,1.039081e+00,1.039081e+00
2.828282e+00,2.677436e+00,3,3,9.870579e-01,9.870578e-01
2.837732e+00,2.666403e+00,3,3,1.345554e+00,1.345554e+00
2.826117e+00,2.668097e+00,3,3,1.238950e+00,1.238950e+00
2.832131e+00,2.665827e+00,3,3,1.154382e+00,1.154382e+00
2.822762e+00,2.667650e+00,3,3,1.959893e+00,1.959892e+00
2.827448e+00,2.666412e+00,3,3,1.463424e+00,1.463424e+00
2.820865e+00,2.668492e+00,3,3,1.478461e+00,1.478461e+00
2.831551e+00,2.666949e+00,3,3,1.421870e+00,1.421870e+00
2.821132e+00,2.666841e+00,3,3,3.336188e+00,3.336186e+00
2.828681e+00,2.665085e+00,3,3,2.002375e+00,2.002376e+00
2.821506e+00,2.668164e+00,3,3,1.956548e+00,1.956548e+00
2.824834e+00,2.666268e+00,3,3,3.081002e+00,3.081002e+00
2.822256e+00,2.664845e+00,3,3,4.863613e+00,4.863621e+00
2.823320e+00,2.665772e+00,3,3,2.649473e+00,2.649475e+00
2.821545e+00,2.666798e+00,3,3,2.254465e+00,2.254465e+00
2.836406e+00,2.674638e+00,3,3,2.064764e+00,2.064764e+00
2.823177e+00,2.666490e+00,3,3,2.177926e+00,2.177926e+00
2.828804e+00,2.666127e+00,3,3,1.786456e+00,1.786456e+00
2.821616e+00,2.667561e+00,3,3,1.549910e+00,1.549910e+00
2.826727e+00,2.668092e+00,3,3,1.626751e+00,1.626750e+00
2.818656e+00,2.667413e+00,3,3,1.299160e+00,1.299160e+00
2.825005e+00,2.666230e+00,3,3,3.463036e+00,3.463034e+00
2.819148e+00,2.666787e+00,3,3,1.927920e+00,1.927921e+00
2.830579e+00,2.665705e+00,3,3,1.591379e+00,1.591379e+00
2.824314e+00,2.666943e+00,3,3,2.360541e+00,2.360541e+00
2.826720e+00,2.666196e+00,3,3,3.125231e+00,3.125230e+00
2.819983e+00,2.665004e+00,3,3,3.479036e+00,3.479035e+00
2.830012e+00,2.667711e+00,3,3,1.402024e+00,1.402024e+00
2.819443e+00,2.664712e+00,3,3,8.818663e-01,8.818663e-01
2.825416e+00,2.666026e+00,3,3,1.314825e+00,1.314824e+00
2.818447e+00,2.667897e+00,3,3,2.062683e+00,2.062682e+00
2.831537e+00,2.668009e+00,3,3,2.548552e+00,2.548551e+00
2.818707e+00,2.666481e+00,3,3,2.057823e+00,2.057824e+00
2.834258e+00,2.667729e+00,3,3,1.760862e+00,1.760861e+00
2.821497e+00,2.663893e+00,3,3,1.029614e+00,1.029614e+00
2.826539e+00,2.668865e+00,3,3,1.438019e+00,1.438019e+00
2.818203e+00,2.667705e+00,3,3,7.388890e-01,7.388891e-01
2.829060e+00,2.665219e+00,3,3,5.790255e-01,5.790255e-01
2.821443e+00,2.664680e+00,3,3,1.519916e+00,1.519915e+00
2.829576e+00,2.667213e+00,3,3,1.790200e+00,1.790199e+00
2.820091e+00,2.665260e+00,3,3,1.258276e+00,1.258276e+00
2.830739e+00,2.666667e+00,3,3,1.017551e+00,1.017551e+00
2.819069e+00,2.665300e+00,3,3,9.776409e-01,9.776405e-01
2.822968e+00,2.666690e+00,3,3,1.632338e+00,1.632337e+00
2.819409e+00,2.664092e+00,3,3,2.838119e+00,2.838119e+00
2.825564e+00,2.667535e+00,3,3,2.687789e+00,2.687789e+00
2.819495e+00,2.665232e+00,3,3,5.935242e+00,5.935240e+00
2.827516e+00,2.667140e+00,3,3,4.280948e+00,4.280949e+00
2.817457e+00,2.664657e+00,3,3,8.421305e+00,8.421230e+00
4.700579e+00,4.430556e+00,5,5,6.040842e+00,6.040080e+00
3.774229e+00,2.666010e+00,4,3,4.512724e+00,4.512737e+00
2.826009e+00,2.660393e+00,3,3,3.740370e+00,3.740371e+00
2.827214e+00,2.665396e+00,3,3,2.998562e+00,2.998563e+00
2.832322e+00,2.661097e+00,3,3,2.653263e+00,2.653263e+00
2.830964e+00,2.668392e+00,3,3,2.487918e+00,2.487917e+00
2.830732e+00,2.659480e+00,3,3,3.229353e+00,3.229352e+00
2.826708e+00,2.668299e+00,3,3,2.125003e+00,2.125003e+00
2.825102e+00,2.659421e+00,3,3,2.868164e+00,2.868162e+00
2.825164e+00,2.666439e+00,3,3,1.222936e+00,1.222936e+00
2.827865e+00,2.660926e+00,3,3,1.898667e+00,1.898667e+00
2.828242e+00,2.689299e+00,3,3,1.043148e+00,1.043148e+00
2.828742e+00,2.659401e+00,3,3,1.051730e+00,1.051730e+00
2.835782e+00,2.666146e+00,3,3,1.035906e+00,1.035906e+00
2.827331e+00,2.659511e+00,3,3,1.010111e+00,1.010111e+00
2.829614e+00,2.663392e+00,3,3,1.082853e+00,1.082852e+00
2.831435e+00,2.662503e+00,3,3,1.095828e+00,1.095828e+00
2.832189e+00,2.667730e+00,3,3,1.132018e+00,1.132018e+00
2.828870e+00,2.667341e+00,3,3,9.615286e-01,9.615285e-01
2.828198e+00,2.666578e+00,3,3,1.049270e+00,1.049270e+00
2.825869e+00,2.662445e+00,3,3,7.879088e-01,7.879087e-01
2.831126e+00,2.666547e+00,3,3,1.439363e+00,1.439362e+00
2.830072e+00,2.660874e+00,3,3,1.335670e+00,1.335670e+00
2.825978e+00,2.667566e+00,3,3,3.141573e+00,3.141572e+00
2.828716e+00,2.662833e+00,3,3,1.910718e+00,1.910719e+00
2.831469e+00,2.666924e+00,3,3,8.631936e-01,8.631938e-01
2.830174e+00,2.660289e+00,3,3,1.186081e+00,1.186080e+00
2.825959e+00,2.666553e+00,3,3,1.261711e+00,1.261710e+00
2.827741e+00,2.661423e+00,3,3,1.672320e+00,1.672320e+00
2.830748e+00,2.666829e+00,3,3,2.347209e+00,2.347208e+00
2.829887e+00,2.662598e+00,3,3,2.956519e+00,2.956518e+00
2.826090e+00,2.667121e+00,3,3,2.625336e+00,2.625335e+00
2.833320e+00,2.658841e+00,3,3,2.381874e+00,2.381874e+00
2.827147e+00,2.667848e+00,3,3,2.840120e+00,2.840119e+00
2.827770e+00,2.664001e+00,3,3,4.242098e+00,4.242097e+00
2.825937e+00,2.667998e+00,3,3,3.232897e+00,3.232898e+00
2.830976e+00,2.659753e+00,3,3,2.060546e+00,2.060546e+00
2.831840e+00,2.664905e+00,3,3,1.917774e+00,1.917774e+00
2.829138e+00,2.660523e+00,3,3,1.570783e+00,1.570783e+00
2.823827e+00,2.665572e+00,3,3,1.788717e+00,1.788717e+00
2.827580e+00,2.658977e+00,3,3,1.670397e+00,1.670397e+00
2.828200e+00,2.665441e+00,3,3,1.852885e+00,1.852885e+00
2.829893e+00,2.658819e+00,3,3,1.575074e+00,1.575074e+00
2.825170e+00,2.664325e+00,3,3,1.322500e+00,1.322500e+00
2.826639e+00,2.659876e+00,3,3,1.608497e+00,1.608497e+00
2.824846e+00,2.664686e+00,3,3,1.947952e+00,1.947951e+00
2.840038e+00,2.745155e+00,3,3,3.513622e+00,3.513620e+00
2.854931e+00,2.668675e+00,3,3,3.981975e+00,3.981975e+00
2.830149e+00,2.665437e+00,3,3,3.370380e+00,3.370380e+00
2.822447e+00,2.667045e+00,3,3,4.707157e+00,4.707159e+00
2.832216e+00,2.665324e+00,3,3,6.499834e+00,6.499837e+00
2.820284e+00,2.666611e+00,3,3,7.406377e+00,7.406397e+00
2.827467e+00,2.666166e+00,3,3,5.772756e+00,5.772763e+00
2.822988e+00,2.665099e+00,3,3,3.672912e+00,3.672913e+00
2.830318e+00,2.665122e+00,3,3,3.393920e+00,3.393919e+00
2.820117e+00,2.666281e+00,3,3,2.305089e+00,2.305089e+00
2.831833e+00,2.664423e+00,3,3,2.182125e+00,2.182125e+00
2.820434e+00,2.666808e+00,3,3,1.942341e+00,1.942341e+00
2.832009e+00,2.665659e+00,3,3,1.774993e+00,1.774992e+00
2.820065e+00,2.666356e+00,3,3,1.636768e+00,1.636767e+00
2.829119e+00,2.665237e+00,3,3,1.690944e+00,1.690944e+00
2.823549e+00,2.666819e+00,3,3,1.753688e+00,1.753688e+00
2.833977e+00,2.666951e+00,3,3,1.618223e+00,1.618223e+00
2.819958e+00,2.667288e+00,3,3,1.499648e+00,1.499648e+00
2.825317e+00,2.669177e+00,3,3,2.850304e+00,2.850303e+00
2.822034e+00,2.667556e+00,3,3,2.594243e+00,2.594243e+00
2.826813e+00,2.705430e+00,3,3,4.129187e+00,4.129186e+00
2.823602e+00,2.665669e+00,3,3,3.962295e+00,3.962294e+00
2.829775e+00,2.674725e+00,3,3,4.596367e+00,4.596367e+00
2.822189e+00,2.668394e+00,3,3,6.442923e+00,6.442923e+00
2.827961e+00,2.667567e+00,3,3,7.415846e+00,7.415905e+00
2.824631e+00,2.667215e+00,3,3,5.716735e+00,5.716740e+00
2.833295e+00,2.667844e+00,3,3,4.806163e+00,4.806163e+00
2.818707e+00,2.667048e+00,3,3,4.709871e+00,4.709871e+00
2.826917e+00,2.667475e+00,3,3,3.777732e+00,3.777732e+00
2.818499e+00,2.664092e+00,3,3,3.416251e+00,3.416250e+00
2.829683e+00,2.667550e+00,3,3,2.955894e+00,2.955893e+00
2.823710e+00,2.666379e+00,3,3,2.458325e+00,2.458325e+00
2.825935e+00,2.670472e+00,3,3,2.550069e+00,2.550069e+00
2.820093e+00,2.668732e+00,3,3,2.255615e+00,2.255615e+00
2.828825e+00,2.667586e+00,3,3,1.336178e+00,1.336178e+00
2.816629e+00,2.666015e+00,3,3,1.991934e+00,1.991934e+00
2.825464e+00,2.666281e+00,3,3,1.945321e+00,1.945323e+00
2.820308e+00,2.666610e+00,3,3,2.295225e+00,2.295228e+00
2.829357e+00,2.666226e+00,3,3,1.917948e+00,1.917948e+00
2.822927e+00,2.665321e+00,3,3,2.861790e+00,2.861788e+00
2.824447e+00,2.666556e+00,3,3,1.172088e+00,1.172089e+00
2.817341e+00,2.663833e+00,3,3,1.207366e+00,1.207366e+00
2.826086e+00,2.666555e+00,3,3,3.169206e+00,3.169205e+00
2.819966e+00,2.665348e+00,3,3,4.162678e+00,4.162677e+00
2.828514e+00,2.666136e+00,3,3,2.831877e+00,2.831878e+00
2.818298e+00,2.664560e+00,3,3,3.689524e+00,3.689523e+00
2.828138e+00,2.668148e+00,3,3,3.553527e+00,3.553527e+00
2.819062e+00,2.668239e+00,3,3,2.756447e+00,2.756447e+00
2.827642e+00,2.667073e+00,3,3,2.418443e+00,2.418443e+00
2.819709e+00,2.664259e+00,3,3,4.230816e+00,4.230963e+00
2.827679e+00,2.665671e+00,3,3,2.672076e+00,2.672069e+00
2.819619e+00,2.666304e+00,3,3,1.647522e+00,1.647523e+00
2.826885e+00,2.666530e+00,3,3,2.018341e+00,2.018340e+00
2.819308e+00,2.666357e+00,3,3,1.763221e+00,1.763221e+00
2.826330e+00,2.668021e+00,3,3,1.355416e+00,1.355416e+00
2.821335e+00,2.665578e+00,3,3,1.132915e+00,1.132915e+00
2.828523e+00,2.666865e+00,3,3,1.383428e+00,1.383427e+00
2.819392e+00,2.665351e+00,3,3,1.589472e+00,1.589471e+00
2.830565e+00,2.665345e+00,3,3,1.614565e+00,1.614565e+00
2.818714e+00,2.665819e+00,3,3,6.387642e-01,6.387643e-01
2.830812e+00,2.669699e+00,3,3,1.263129e+00,1.263128e+00
2.819216e+00,2.664671e+00,3,3,1.756925e+00,1.756924e+00
2.826579e+00,2.670689e+00,3,3,1.214975e+00,1.214976e+00
2.822448e+00,2.698504e+00,3,3,6.896474e-01,6.896473e-01
2.829482e+00,2.667382e+00,3,3,1.322707e+00,1.322706e+00
2.819357e+00,2.664826e+00,3,3,2.747684e+00,2.747683e+00
2.829230e+00,2.671523e+00,3,3,3.122748e+00,3.122748e+00
2.824500e+00,2.660846e+00,3,3,3.745935e+00,3.745934e+00
2.828662e+00,2.669690e+00,3,3,2.934402e+00,2.934402e+00
2.825582e+00,2.663016e+00,3,3,2.319153e+00,2.319153e+00
2.828200e+00,2.669795e+00,3,3,1.680245e+00,1.680245e+00
2.826356e+00,2.663056e+00,3,3,1.510748e+00,1.510748e+00
2.825475e+00,2.667236e+00,3,3,3.475020e+00,3.475018e+00
2.822193e+00,2.662689e+00,3,3,4.952406e+00,4.952409e+00
3.766515e+00,3.553178e+00,4,4,2.345955e+00,2.345958e+00
2.821940e+00,2.666964e+00,3,3,2.364500e+00,2.364500e+00
2.833254e+00,2.667364e+00,3,3,1.781333e+00,1.781333e+00
2.825646e+00,2.667490e+00,3,3,1.292388e+00,1.292388e+00
2.828284e+00,2.670499e+00,3,3,5.982890e-01,5.982889e-01
2.824009e+00,2.674627e+00,3,3,8.724916e-01,8.724914e-01
2.829132e+00,2.667048e+00,3,3,6.429651e-01,6.429651e-01
2.821803e+00,2.665760e+00,3,3,7.267693e-01,7.267690e-01
2.828201e+00,2.664758e+00,3,3,7.403457e-01,7.403454e-01
2.819676e+00,2.663757e+00,3,3,3.214886e+00,3.214884e+00
2.830274e+00,2.665560e+00,3,3,5.166954e+00,5.167224e+00
2.824056e+00,3.555375e+00,3,4,6.496184e+00,6.496022e+00
2.824898e+00,2.660640e+00,3,3,3.328825e+00,3.328824e+00
2.825628e+00,2.665461e+00,3,3,2.543168e+00,2.543168e+00
2.828576e+00,2.661792e+00,3,3,2.612517e+00,2.612517e+00
2.827846e+00,2.667220e+00,3,3,2.705704e+00,2.705704e+00
2.829558e+00,2.660507e+00,3,3,2.846806e+00,2.846806e+00
2.832273e+00,2.667736e+00,3,3,5.080861e+00,5.080865e+00
2.844429e+00,2.661692e+00,3,3,1.008151e+01,1.007972e+01
5.646816e+00,5.331967e+00,6,6,1.225672e+01,1.226639e+01
5.648350e+00,4.434195e+00,6,5,7.547308e+00,7.569017e+00
3.759679e+00,5.326018e+00,4,6,9.436417e+00,9.438850e+00
3.756826e+00,3.553198e+00,4,4,7.125081e+00,7.125461e+00
2.830633e+00,2.658904e+00,3,3,5.271544e+00,5.271855e+00
2.827193e+00,2.663342e+00,3,3,6.471873e+00,6.471910e+00
2.831503e+00,2.662884e+00,3,3,5.618434e+00,5.618434e+00
2.828521e+00,2.667548e+00,3,3,7.608868e+00,7.608866e+00
2.827787e+00,2.660628e+00,3,3,5.902795e+00,5.902795e+00
2.826380e+00,2.666136e+00,3,3,4.483681e+00,4.483681e+00
2.831072e+00,2.660249e+00,3,3,4.020976e+00,4.020976e+00
2.824176e+00,2.665390e+00,3,3,3.094427e+00,3.094427e+00
2.828572e+00,2.663642e+00,3,3,2.888103e+00,2.888103e+00
2.832256e+00,2.666305e+00,3,3,3.291346e+00,3.291346e+00
2.830864e+00,2.658806e+00,3,3,2.571925e+00,2.571925e+00
2.825116e+00,2.666377e+00,3,3,1.174217e+00,1.174217e+00
2.824581e+00,2.660487e+00,3,3,1.972185e+00,1.972184e+00
2.819520e+00,2.665636e+00,3,3,1.997746e+00,1.997747e+00
2.829634e+00,2.660431e+00,3,3,1.105918e+00,1.105918e+00
2.823122e+00,2.665422e+00,3,3,1.114494e+00,1.114494e+00
2.831410e+00,2.660660e+00,3,3,9.310651e-01,9.310650e-01
2.820075e+00,2.665928e+00,3,3,7.802638e-01,7.802636e-01
2.830912e+00,2.665664e+00,3,3,1.263091e+00,1.263091e+00
2.821111e+00,2.665857e+00,3,3,8.592391e-01,8.592390e-01
2.824552e+00,2.660779e+00,3,3,1.329574e+00,1.329573e+00
2.817987e+00,2.666553e+00,3,3,2.423947e+00,2.423947e+00
2.831528e+00,2.660861e+00,3,3,2.648755e+00,2.648756e+00
2.823462e+00,2.666736e+00,3,3,2.116984e+00,2.116984e+00
2.830700e+00,2.666286e+00,3,3,1.666201e+00,1.666200e+00
2.818894e+00,2.667073e+00,3,3,1.109046e+00,1.109046e+00
2.829824e+00,2.666067e+00,3,3,2.155936e+00,2.155935e+00
2.824543e+00,2.666152e+00,3,3,1.948723e+00,1.948723e+00
2.827916e+00,2.666916e+00,3,3,4.287806e+00,4.287804e+00
2.828053e+00,2.666510e+00,3,3,2.829841e+00,2.829842e+00
2.825010e+00,2.664958e+00,3,3,1.982913e+00,1.982913e+00
2.826053e+00,2.667498e+00,3,3,3.599257e+00,3.599255e+00
2.828467e+00,2.665575e+00,3,3,3.308568e+00,3.308568e+00
2.825755e+00,2.664468e+00,3,3,3.792307e+00,3.792306e+00
2.827201e+00,2.664963e+00,3,3,3.616082e+00,3.616081e+00
2.832864e+00,2.667575e+00,3,3,3.168031e+00,3.168030e+00
2.830017e+00,2.665715e+00,3,3,2.862350e+00,2.862350e+00
2.820584e+00,2.665261e+00,3,3,3.123848e+00,3.123848e+00
2.829086e+00,2.663488e+00,3,3,2.293018e+00,2.293018e+00
2.823800e+00,2.664526e+00,3,3,2.090619e+00,2.090619e+00
2.828841e+00,2.664647e+00,3,3,2.032072e+00,2.032071e+00
2.822414e+00,2.667215e+00,3,3,2.145502e+00,2.145501e+00
2.830100e+00,2.666703e+00,3,3,1.756338e+00,1.756338e+00
2.822457e+00,2.665374e+00,3,3,2.950886e+00,2.950885e+00
2.829171e+00,2.665344e+00,3,3,3.588799e+00,3.588799e+00
2.820249e+00,2.665180e+00,3,3,5.137349e+00,5.137348e+00
2.829292e+00,2.665888e+00,3,3,7.576455e+00,7.576454e+00
2.819837e+00,2.665142e+00,3,3,7.613250e+00,7.613250e+00
2.827924e+00,2.667538e+00,3,3,4.682868e+00,4.682869e+00
2.824037e+00,2.664932e+00,3,3,4.125087e+00,4.125086e+00
2.829046e+00,2.665604e+00,3,3,3.396980e+00,3.396980e+00
2.823506e+00,2.665830e+00,3,3,2.239274e+00,2.239275e+00
2.825224e+00,2.666538e+00,3,3,2.243202e+00,2.243203e+00
2.820590e+00,2.668627e+00,3,3,2.909488e+00,2.909489e+00
2.829855e+00,2.667328e+00,3,3,2.670832e+00,2.670831e+00
2.821314e+00,2.663767e+00,3,3,4.180717e+00,4.180714e+00
2.829165e+00,2.663857e+00,3,3,4.148641e+00,4.148642e+00
2.818794e+00,2.664142e+00,3,3,4.158757e+00,4.158758e+00
2.829893e+00,2.665657e+00,3,3,4.007576e+00,4.007576e+00
2.821837e+00,2.666679e+00,3,3,3.549812e+00,3.549815e+00
2.831842e+00,2.667236e+00,3,3,3.682443e+00,3.682443e+00
2.827667e+00,2.683197e+00,3,3,1.671085e+00,1.671085e+00
2.830623e+00,2.665007e+00,3,3,1.546731e+00,1.546731e+00
2.824807e+00,2.669752e+00,3,3,1.173817e+00,1.173817e+00
2.826784e+00,2.667734e+00,3,3,2.043508e+00,2.043507e+00
2.823240e+00,2.665045e+00,3,3,1.503401e+00,1.503401e+00
2.827352e+00,2.665186e+00,3,3,1.253273e+00,1.253272e+00
2.821923e+00,2.662916e+00,3,3,8.426970e-01,8.426968e-01
2.830070e+00,2.665079e+00,3,3,8.052929e-01,8.052927e-01
2.821734e+00,2.662713e+00,3,3,9.850239e-01,9.850237e-01
2.828047e+00,2.665007e+00,3,3,8.358680e-01,8.358680e-01
2.821810e+00,2.667504e+00,3,3,2.317594e+00,2.317593e+00
2.831551e+00,2.667594e+00,3,3,2.152668e+00,2.152668e+00
2.820905e+00,2.665154e+00,3,3,2.328922e+00,2.328922e+00
2.831684e+00,2.665691e+00,3,3,1.935999e+00,1.935999e+00
2.818092e+00,2.663660e+00,3,3,2.556836e+00,2.556836e+00
2.828431e+00,2.666718e+00,3,3,7.753507e+00,7.753581e+00
6.581519e+00,5.333789e+00,7,6,1.122668e+01,1.123666e+01
6.586244e+00,5.322213e+00,7,6,6.409954e+00,6.412722e+00
2.826437e+00,3.555235e+00,3,4,6.722059e+00,6.720932e+00
4.700751e+00,3.547230e+00,5,4,5.386229e+00,5.386647e+00
3.770300e+00,2.665821e+00,4,3,4.609931e+00,4.610075e+00
2.818445e+00,2.663606e+00,3,3,3.415360e+00,3.415361e+00
2.826781e+00,2.665140e+00,3,3,2.811436e+00,2.811436e+00
2.823462e+00,2.665955e+00,3,3,3.462090e+00,3.462089e+00
2.831169e+00,2.666779e+00,3,3,2.836194e+00,2.836194e+00
2.828836e+00,2.666469e+00,3,3,2.157823e+00,2.157823e+00
2.831639e+00,2.666440e+00,3,3,2.170133e+00,2.170133e+00
2.824554e+00,2.666876e+00,3,3,2.997184e+00,2.997183e+00
2.833835e+00,2.667214e+00,3,3,3.287193e+00,3.287192e+00
2.823286e+00,2.666340e+00,3,3,2.308765e+00,2.308765e+00
2.834879e+00,2.665830e+00,3,3,1.605628e+00,1.605628e+00
2.823736e+00,2.663577e+00,3,3,1.055688e+00,1.055686e+00
2.830787e+00,2.668338e+00,3,3,8.252304e-01,8.252303e-01
2.821517e+00,2.666814e+00,3,3,1.579785e+00,1.579785e+00
2.833975e+00,2.668526e+00,3,3,4.245297e+00,4.245295e+00
2.827004e+00,2.667282e+00,3,3,3.410456e+00,3.410456e+00
2.835355e+00,2.666582e+00,3,3,3.589409e+00,3.589409e+00
2.825187e+00,2.665770e+00,3,3,3.625135e+00,3.625139e+00
2.824669e+00,2.666406e+00,3,3,4.496771e+00,4.496968e+00
2.820013e+00,2.664062e+00,3,3,4.059654e+00,4.059674e+00
2.826089e+00,2.668952e+00,3,3,8.874701e+00,8.874600e+00
3.755673e+00,3.554605e+00,4,4,6.774891e+00,6.774893e+00
2.852939e+00,2.663282e+00,3,3,4.146104e+00,4.146105e+00
2.833064e+00,2.665559e+00,3,3,4.658729e+00,4.658728e+00
2.833663e+00,2.667099e+00,3,3,3.161513e+00,3.161512e+00
2.823651e+00,2.667290e+00,3,3,4.325414e+00,4.325413e+00
2.828079e+00,2.666736e+00,3,3,4.016904e+00,4.016905e+00
2.820551e+00,2.664240e+00,3,3,4.397163e+00,4.397180e+00
2.824700e+00,2.668451e+00,3,3,2.409206e+00,2.409222e+00
2.819170e+00,2.666189e+00,3,3,1.762131e+00,1.762131e+00

