1.929203e+00,1.787753e+00,2,2,0.000000e+00,0.000000e+00
2.844150e+00,2.670622e+00,3,3,2.981004e-01,2.981003e-01
2.859989e+00,2.675400e+00,3,3,3.599056e-01,3.599055e-01
2.853427e+00,2.678457e+00,3,3,2.229702e+00,2.229701e+00
2.845291e+00,2.675715e+00,3,3,1.503187e+00,1.503187e+00
2.850627e+00,2.675559e+00,3,3,1.400057e+00,1.400057e+00
2.842621e+00,2.675441e+00,3,3,4.804107e+00,4.804107e+00
2.853392e+00,2.675704e+00,3,3,5.579141e+00,5.579190e+00
2.833927e+00,2.674802e+00,3,3,6.728144e+00,6.728985e+00
2.842557e+00,2.674985e+00,3,3,6.632286e+00,6.632285e+00
2.831860e+00,2.675283e+00,3,3,1.054866e+01,1.054918e+01
3.791541e+00,3.562114e+00,4,4,7.195772e+00,7.195772e+00
2.839840e+00,2.675019e+00,3,3,8.216297e+00,8.216311e+00
2.848259e+00,2.676437e+00,3,3,6.883692e+00,6.883997e+00
2.844999e+00,2.674721e+00,3,3,5.959202e+00,5.959213e+00
2.848905e+00,2.676464e+00,3,3,5.888057e+00,5.888056e+00
2.833597e+00,2.674013e+00,3,3,5.182907e+00,5.182907e+00
2.846681e+00,2.675108e+00,3,3,4.795323e+00,4.795323e+00
2.839192e+00,2.668842e+00,3,3,4.027718e+00,4.027718e+00
2.846097e+00,2.675227e+00,3,3,3.669422e+00,3.669422e+00
2.836047e+00,2.668645e+00,3,3,3.686914e+00,3.686913e+00
2.844637e+00,2.672973e+00,3,3,2.743736e+00,2.743736e+00
2.838787e+00,2.668703e+00,3,3,3.513130e+00,3.513129e+00
2.844739e+00,2.676795e+00,3,3,3.329479e+00,3.329479e+00
2.841340e+00,2.667793e+00,3,3,3.187505e+00,3.187504e+00
2.842221e+00,2.675498e+00,3,3,3.827169e+00,3.827168e+00
2.849478e+00,2.671298e+00,3,3,2.716916e+00,2.716916e+00
2.841887e+00,2.675306e+00,3,3,2.297279e+00,2.297279e+00
2.846911e+00,2.668265e+00,3,3,1.844793e+00,1.844793e+00
2.849533e+00,2.674975e+00,3,3,2.397625e+00,2.397624e+00
2.843656e+00,2.674833e+00,3,3,1.949041e+00,1.949040e+00
2.839508e+00,2.675718e+00,3,3,2.769630e+00,2.769628e+00
2.841358e+00,2.676803e+00,3,3,3.316140e+00,3.316139e+00
2.842559e+00,2.674927e+00,3,3,3.591524e+00,3.591523e+00
2.845031e+00,2.674675e+00,3,3,2.176355e+00,2.176356e+00
2.842366e+00,2.669446e+00,3,3,2.603750e+00,2.603749e+00
2.842858e+00,2.676154e+00,3,3,2.658363e+00,2.658363e+00
2.841689e+00,2.669159e+00,3,3,2.027866e+00,2.027866e+00
2.847505e+00,2.675625e+00,3,3,1.635336e+00,1.635335e+00
2.849231e+00,2.669041e+00,3,3,1.514686e+00,1.514686e+00
2.842224e+00,2.676438e+00,3,3,2.174938e+00,2.174937e+00
2.840732e+00,2.668104e+00,3,3,1.749257e+00,1.749257e+00
2.845863e+00,2.673767e+00,3,3,1.542032e+00,1.542031e+00
2.840236e+00,2.667742e+00,3,3,3.383957e+00,3.383955e+00
2.847593e+00,2.676051e+00,3,3,4.587076e+00,4.587075e+00
2.848968e+00,2.695954e+00,3,3,2.343486e+00,2.343487e+00
2.854812e+00,2.675929e+00,3,3,1.849874e+00,1.849874e+00
2.849744e+00,2.675720e+00,3,3,1.767093e+00,1.767093e+00
2.846919e+00,2.674162e+00,3,3,2.714593e+00,2.714596e+00
2.848669e+00,2.674313e+00,3,3,1.834846e+00,1.834847e+00
2.836988e+00,2.673252e+00,3,3,1.052900e+00,1.052900e+00
2.841203e+00,2.676657e+00,3,3,1.689210e+00,1.689210e+00
2.830646e+00,2.673776e+00,3,3,1.823648e+00,1.823648e+00
2.844112e+00,2.673393e+00,3,3,2.054222e+00,2.054222e+00
2.842683e+00,2.668546e+00,3,3,1.376093e+00,1.376093e+00
2.845383e+00,2.674563e+00,3,3,1.500696e+00,1.500695e+00
2.841129e+00,2.670521e+00,3,3,1.686901e+00,1.686901e+00
2.847462e+00,2.676041e+00,3,3,1.567418e+00,1.567418e+00
2.843863e+00,2.669460e+00,3,3,1.939159e+00,1.939158e+00
2.844826e+00,2.675191e+00,3,3,3.706977e+00,3.706976e+00
2.842287e+00,2.669527e+00,3,3,2.228121e+00,2.228121e+00
2.846120e+00,2.684955e+00,3,3,2.284232e+00,2.284232e+00
2.848201e+00,2.669814e+00,3,3,3.327520e+00,3.327519e+00
2.845136e+00,2.678679e+00,3,3,2.330644e+00,2.330644e+00
2.844956e+00,2.674589e+00,3,3,1.445491e+00,1.445491e+00
2.839245e+00,2.675592e+00,3,3,1.879426e+00,1.879425e+00
2.845013e+00,2.676645e+00,3,3,1.307159e+00,1.307159e+00
2.834768e+00,2.673870e+00,3,3,8.683366e-01,8.683367e-01
2.840650e+00,2.674050e+00,3,3,8.033127e-01,8.033126e-01
2.838123e+00,2.671990e+00,3,3,8.252692e-01,8.252691e-01
2.850149e+00,2.672948e+00,3,3,8.878894e-01,8.878890e-01
2.842758e+00,2.670901e+00,3,3,1.154344e+00,1.154344e+00
2.842011e+00,2.673326e+00,3,3,9.145426e-01,9.145422e-01
2.836486e+00,2.670103e+00,3,3,5.186829e-01,5.186830e-01
2.847200e+00,2.674032e+00,3,3,1.687122e+00,1.687120e+00
2.839989e+00,2.671285e+00,3,3,1.648997e+00,1.648996e+00
2.840558e+00,2.674248e+00,3,3,1.693040e+00,1.693040e+00
2.838224e+00,2.669206e+00,3,3,2.026327e+00,2.026326e+00
2.843262e+00,2.674429e+00,3,3,4.816313e+00,4.816310e+00
2.847117e+00,2.668424e+00,3,3,6.149685e+00,6.149705e+00
2.848041e+00,2.673642e+00,3,3,5.213942e+00,5.213944e+00
2.841712e+00,2.668246e+00,3,3,4.555880e+00,4.555882e+00
2.844492e+00,2.674645e+00,3,3,5.356069e+00,5.356115e+00
2.840336e+00,2.670101e+00,3,3,5.100548e+00,5.100570e+00
2.845426e+00,2.675489e+00,3,3,4.071635e+00,4.071640e+00
2.846901e+00,2.676528e+00,3,3,3.468412e+00,3.468412e+00
2.838691e+00,2.676361e+00,3,3,2.673497e+00,2.673497e+00
2.849563e+00,2.673449e+00,3,3,2.389343e+00,2.389342e+00
2.833094e+00,2.673916e+00,3,3,2.033998e+00,2.033998e+00
2.843187e+00,2.674102e+00,3,3,1.876356e+00,1.876356e+00
2.853300e+00,2.667418e+00,3,3,1.742228e+00,1.742228e+00
2.846743e+00,2.675938e+00,3,3,2.353090e+00,2.353090e+00
2.840975e+00,2.671292e+00,3,3,1.839110e+00,1.839110e+00
2.845352e+00,2.677880e+00,3,3,3.450954e+00,3.450956e+00
2.851923e+00,2.669118e+00,3,3,4.194962e+00,4.194966e+00
2.842092e+00,2.673666e+00,3,3,2.469197e+00,2.469200e+00
2.844042e+00,2.668661e+00,3,3,5.964552e+00,5.964717e+00
4.725188e+00,3.561204e+00,5,4,4.369864e+00,4.378876e+00
2.831924e+00,3.561057e+00,3,4,1.623371e+00,1.623368e+00
2.847358e+00,2.674111e+00,3,3,1.692095e+00,1.692094e+00
2.830969e+00,2.671687e+00,3,3,2.215824e+00,2.215824e+00
2.840499e+00,2.673497e+00,3,3,2.305506e+00,2.305506e+00
2.835514e+00,2.673288e+00,3,3,4.291551e+00,4.291550e+00
2.853584e+00,2.676286e+00,3,3,4.487123e+00,4.487126e+00
2.839853e+00,2.666826e+00,3,3,3.770399e+00,3.770405e+00
2.845576e+00,2.673484e+00,3,3,4.886310e+00,4.886388e+00
2.838575e+00,2.668124e+00,3,3,7.600464e+00,7.600959e+00
2.844273e+00,2.672889e+00,3,3,1.058205e+01,1.058521e+01
5.669022e+00,5.335232e+00,6,6,1.262827e+01,1.263500e+01
4.725739e+00,3.554152e+00,5,4,8.146870e+00,8.145663e+00
2.839546e+00,2.672066e+00,3,3,6.627039e+00,6.627026e+00
2.830941e+00,2.670308e+00,3,3,5.278261e+00,5.278261e+00
2.840975e+00,2.672024e+00,3,3,5.005637e+00,5.005636e+00
2.837643e+00,2.670737e+00,3,3,3.920533e+00,3.920533e+00
2.843294e+00,2.673416e+00,3,3,4.074256e+00,4.074256e+00
2.841830e+00,2.667156e+00,3,3,4.675510e+00,4.675509e+00
2.843141e+00,2.673578e+00,3,3,9.396666e+00,9.392337e+00
5.664104e+00,5.337632e+00,6,6,9.618617e+00,9.618648e+00
3.778377e+00,4.441278e+00,4,5,6.237434e+00,6.241629e+00
4.723383e+00,3.553218e+00,5,4,6.658714e+00,6.661254e+00
3.790793e+00,3.559820e+00,4,4,9.703493e+00,9.701177e+00
4.722968e+00,3.559182e+00,5,4,7.270491e+00,7.247858e+00
3.786437e+00,2.665850e+00,4,3,5.976932e+00,5.977021e+00
2.842079e+00,2.672511e+00,3,3,3.019113e+00,3.019111e+00
2.842131e+00,2.676521e+00,3,3,2.301399e+00,2.301399e+00
2.839056e+00,2.674711e+00,3,3,2.015959e+00,2.015959e+00
2.842940e+00,2.666409e+00,3,3,1.617367e+00,1.617366e+00
2.841514e+00,2.670940e+00,3,3,1.451495e+00,1.451495e+00
2.842304e+00,2.668112e+00,3,3,9.649223e-01,9.649221e-01
2.835855e+00,2.671407e+00,3,3,2.964021e+00,2.964021e+00
2.844282e+00,2.672596e+00,3,3,3.741698e+00,3.741698e+00
2.841624e+00,2.671856e+00,3,3,4.517099e+00,4.517098e+00
2.846909e+00,2.673078e+00,3,3,8.614284e+00,8.614312e+00
2.831826e+00,2.673148e+00,3,3,8.854586e+00,8.854673e+00
2.840447e+00,2.674303e+00,3,3,7.980370e+00,7.980502e+00
2.845941e+00,2.666762e+00,3,3,5.071802e+00,5.071815e+00
2.835999e+00,2.672674e+00,3,3,4.143985e+00,4.143984e+00
2.842108e+00,2.668204e+00,3,3,4.835795e+00,4.835794e+00
2.842017e+00,2.672361e+00,3,3,6.978019e+00,6.978101e+00
2.844138e+00,2.664992e+00,3,3,5.848577e+00,5.849269e+00
2.843395e+00,2.672724e+00,3,3,1.084445e+01,1.085107e+01
5.659676e+00,5.336768e+00,6,6,1.143231e+01,1.142052e+01
4.714465e+00,3.552965e+00,5,4,1.031745e+01,1.030782e+01
3.790977e+00,5.334255e+00,4,6,7.337646e+00,7.341841e+00
2.841689e+00,2.675152e+00,3,3,6.828734e+00,6.829787e+00
2.836303e+00,2.667809e+00,3,3,6.459339e+00,6.459439e+00
2.838648e+00,2.671926e+00,3,3,7.317300e+00,7.317311e+00
2.848129e+00,2.668406e+00,3,3,4.379776e+00,4.379778e+00
2.842148e+00,2.673817e+00,3,3,4.164910e+00,4.164910e+00
2.842816e+00,2.666885e+00,3,3,4.189777e+00,4.189777e+00
2.846156e+00,2.673451e+00,3,3,3.999013e+00,3.999013e+00
2.843186e+00,2.665613e+00,3,3,5.260254e+00,5.260253e+00
2.850471e+00,2.671218e+00,3,3,3.738321e+00,3.738322e+00
2.846318e+00,2.666452e+00,3,3,2.357660e+00,2.357660e+00
2.845232e+00,2.673467e+00,3,3,2.054870e+00,2.054870e+00
2.840024e+00,2.669739e+00,3,3,1.800649e+00,1.800649e+00
2.848125e+00,2.673139e+00,3,3,1.301180e+00,1.301180e+00
2.839097e+00,2.673059e+00,3,3,3.249059e+00,3.249060e+00
2.833587e+00,2.673903e+00,3,3,2.736054e+00,2.736143e+00
2.836825e+00,2.671374e+00,3,3,4.031574e+00,4.031593e+00
2.838562e+00,2.671700e+00,3,3,4.463430e+00,4.463429e+00
2.835263e+00,2.672507e+00,3,3,8.328058e+00,8.328059e+00
2.836047e+00,2.672776e+00,3,3,5.911013e+00,5.911016e+00
2.837666e+00,2.671638e+00,3,3,3.995913e+00,3.995914e+00
2.833119e+00,2.670028e+00,3,3,3.242556e+00,3.242556e+00
2.846302e+00,2.672065e+00,3,3,2.823340e+00,2.823340e+00
2.841695e+00,2.665124e+00,3,3,2.718373e+00,2.718373e+00
2.839291e+00,2.674236e+00,3,3,2.492674e+00,2.492673e+00
2.841327e+00,2.666489e+00,3,3,2.117858e+00,2.117858e+00
2.847946e+00,2.674602e+00,3,3,2.094573e+00,2.094573e+00
2.834370e+00,2.666662e+00,3,3,1.816016e+00,1.816016e+00
2.844793e+00,2.672681e+00,3,3,2.205007e+00,2.205006e+00
2.835822e+00,2.665776e+00,3,3,2.414741e+00,2.414741e+00
2.843296e+00,2.672428e+00,3,3,2.788999e+00,2.788998e+00
2.842416e+00,2.666757e+00,3,3,3.218601e+00,3.218600e+00
2.845442e+00,2.675154e+00,3,3,3.046066e+00,3.046066e+00
2.844208e+00,2.670967e+00,3,3,3.530996e+00,3.531065e+00
2.840709e+00,2.672573e+00,3,3,2.039395e+00,2.039404e+00
2.844085e+00,2.670128e+00,3,3,3.223013e+00,3.223012e+00
2.835608e+00,2.672660e+00,3,3,2.186897e+00,2.186897e+00
2.842085e+00,2.674354e+00,3,3,1.744588e+00,1.744587e+00
2.839524e+00,2.672482e+00,3,3,1.619824e+00,1.619824e+00
2.843801e+00,2.672047e+00,3,3,1.664214e+00,1.664214e+00
2.830078e+00,2.675011e+00,3,3,1.655540e+00,1.655540e+00
2.840527e+00,2.674825e+00,3,3,1.086000e+00,1.086001e+00
2.841920e+00,2.670538e+00,3,3,1.292450e+00,1.292449e+00
2.840774e+00,2.674812e+00,3,3,6.647535e-01,6.647534e-01
2.843926e+00,2.669058e+00,3,3,9.422098e-01,9.422095e-01
2.840747e+00,2.671690e+00,3,3,1.600472e+00,1.600471e+00
2.841540e+00,2.667258e+00,3,3,2.429688e+00,2.429687e+00
2.844844e+00,2.670501e+00,3,3,3.294515e+00,3.294514e+00
2.839020e+00,2.666688e+00,3,3,2.943267e+00,2.943268e+00
2.844625e+00,2.670947e+00,3,3,1.234291e+00,1.234291e+00
2.836555e+00,2.666184e+00,3,3,1.400990e+00,1.400990e+00
2.850915e+00,2.672476e+00,3,3,1.643235e+00,1.643234e+00
2.842641e+00,2.665636e+00,3,3,1.270229e+00,1.270228e+00
2.839507e+00,2.671983e+00,3,3,1.039081e+00,1.039081e+00
2.844286e+00,2.667098e+00,3,3,9.870579e-01,9.870578e-01
2.838385e+00,2.672095e+00,3,3,1.345554e+00,1.345554e+00
2.838389e+00,2.665173e+00,3,3,1.238950e+00,1.238950e+00
2.846872e+00,2.672848e+00,3,3,1.154382e+00,1.154382e+00
2.848719e+00,2.666058e+00,3,3,1.959893e+00,1.959892e+00
2.862927e+00,2.673062e+00,3,3,1.463424e+00,1.463424e+00
2.841076e+00,2.671507e+00,3,3,1.478461e+00,1.478461e+00
2.844745e+00,2.672927e+00,3,3,1.421870e+00,1.421870e+00
2.847688e+00,2.673350e+00,3,3,3.336188e+00,3.336186e+00
2.838545e+00,2.673895e+00,3,3,2.002375e+00,2.002376e+00
2.838244e+00,2.675339e+00,3,3,1.956548e+00,1.956548e+00
2.848063e+00,2.667191e+00,3,3,3.081002e+00,3.081002e+00
2.838467e+00,2.670831e+00,3,3,4.863613e+00,4.863621e+00
2.841860e+00,2.666055e+00,3,3,2.649473e+00,2.649475e+00
2.855700e+00,2.676149e+00,3,3,2.254465e+00,2.254465e+00
2.851133e+00,2.667507e+00,3,3,2.064764e+00,2.064764e+00
2.841904e+00,2.673135e+00,3,3,2.177926e+00,2.177926e+00
2.844075e+00,2.665094e+00,3,3,1.786456e+00,1.786456e+00
2.842748e+00,2.673143e+00,3,3,1.549910e+00,1.549910e+00
2.840627e+00,2.666750e+00,3,3,1.626751e+00,1.626750e+00
2.845861e+00,2.672214e+00,3,3,1.299160e+00,1.299160e+00
2.848563e+00,2.666577e+00,3,3,3.463036e+00,3.463034e+00
2.845582e+00,2.671499e+00,3,3,1.927920e+00,1.927921e+00
2.843868e+00,2.666421e+00,3,3,1.591379e+00,1.591379e+00
2.831527e+00,2.672879e+00,3,3,2.360541e+00,2.360541e+00
2.845133e+00,2.672111e+00,3,3,3.125231e+00,3.125230e+00
2.840823e+00,2.703495e+00,3,3,3.479036e+00,3.479035e+00
2.847616e+00,2.673043e+00,3,3,1.402024e+00,1.402024e+00
2.841868e+00,2.671112e+00,3,3,8.818663e-01,8.818663e-01
2.838223e+00,2.674165e+00,3,3,1.314825e+00,1.314824e+00
2.837217e+00,2.666733e+00,3,3,2.062683e+00,2.062682e+00
2.844305e+00,2.674708e+00,3,3,2.548552e+00,2.548551e+00
2.837819e+00,2.665452e+00,3,3,2.057823e+00,2.057824e+00
2.843294e+00,2.672275e+00,3,3,1.760862e+00,1.760861e+00
2.841111e+00,2.667758e+00,3,3,1.029614e+00,1.029614e+00
2.841744e+00,2.671157e+00,3,3,1.438019e+00,1.438019e+00
2.843955e+00,2.667156e+00,3,3,7.388890e-01,7.388891e-01
2.844460e+00,2.672146e+00,3,3,5.790255e-01,5.790255e-01
2.841000e+00,2.664629e+00,3,3,1.519916e+00,1.519915e+00
2.841271e+00,2.671762e+00,3,3,1.790200e+00,1.790199e+00
2.843718e+00,2.667690e+00,3,3,1.258276e+00,1.258276e+00
2.838414e+00,2.673238e+00,3,3,1.017551e+00,1.017551e+00
2.845436e+00,2.665972e+00,3,3,9.776409e-01,9.776405e-01
2.848286e+00,2.672710e+00,3,3,1.632338e+00,1.632337e+00
2.845580e+00,2.671010e+00,3,3,2.838119e+00,2.838119e+00
2.831927e+00,2.671839e+00,3,3,2.687789e+00,2.687789e+00
2.839373e+00,2.671423e+00,3,3,5.935242e+00,5.935240e+00
2.836019e+00,2.672312e+00,3,3,4.280948e+00,4.280949e+00
2.840303e+00,2.673421e+00,3,3,8.421305e+00,8.421230e+00
4.718451e+00,4.448206e+00,5,5,6.040842e+00,6.040080e+00
3.796183e+00,2.666282e+00,4,3,4.512724e+00,4.512737e+00
2.843233e+00,2.675491e+00,3,3,3.740370e+00,3.740371e+00
2.837324e+00,2.665504e+00,3,3,2.998562e+00,2.998563e+00
2.842324e+00,2.671386e+00,3,3,2.653263e+00,2.653263e+00
2.838428e+00,2.667230e+00,3,3,2.487918e+00,2.487917e+00
2.847407e+00,2.673951e+00,3,3,3.229353e+00,3.229352e+00
2.844421e+00,2.666839e+00,3,3,2.125003e+00,2.125003e+00
2.838807e+00,2.670017e+00,3,3,2.868164e+00,2.868162e+00
2.843019e+00,2.665507e+00,3,3,1.222936e+00,1.222936e+00
2.850073e+00,2.671880e+00,3,3,1.898667e+00,1.898667e+00
2.843845e+00,2.667192e+00,3,3,1.043148e+00,1.043148e+00
2.842658e+00,2.671612e+00,3,3,1.051730e+00,1.051730e+00
2.842135e+00,2.671345e+00,3,3,1.035906e+00,1.035906e+00
2.839198e+00,2.671040e+00,3,3,1.010111e+00,1.010111e+00
2.847141e+00,2.673805e+00,3,3,1.082853e+00,1.082852e+00
2.834988e+00,2.670070e+00,3,3,1.095828e+00,1.095828e+00
2.846621e+00,2.700769e+00,3,3,1.132018e+00,1.132018e+00
2.841285e+00,2.671213e+00,3,3,9.615286e-01,9.615285e-01
2.838949e+00,2.674217e+00,3,3,1.049270e+00,1.049270e+00
2.841951e+00,2.741748e+00,3,3,7.879088e-01,7.879087e-01
2.838129e+00,2.672911e+00,3,3,1.439363e+00,1.439362e+00
2.846812e+00,2.665847e+00,3,3,1.335670e+00,1.335670e+00
2.842488e+00,2.686038e+00,3,3,3.141573e+00,3.141572e+00
2.849150e+00,2.668318e+00,3,3,1.910718e+00,1.910719e+00
2.840334e+00,2.672711e+00,3,3,8.631936e-01,8.631938e-01
2.842732e+00,2.680581e+00,3,3,1.186081e+00,1.186080e+00
2.847231e+00,2.674076e+00,3,3,1.261711e+00,1.261710e+00
2.844917e+00,2.667673e+00,3,3,1.672320e+00,1.672320e+00
2.833180e+00,2.671524e+00,3,3,2.347209e+00,2.347208e+00
2.845520e+00,2.671018e+00,3,3,2.956519e+00,2.956518e+00
2.837264e+00,2.671450e+00,3,3,2.625336e+00,2.625335e+00
2.845344e+00,2.680722e+00,3,3,2.381874e+00,2.381874e+00
2.843034e+00,2.671662e+00,3,3,2.840120e+00,2.840119e+00
2.841433e+00,2.703322e+00,3,3,4.242098e+00,4.242097e+00
2.841394e+00,2.668088e+00,3,3,3.232897e+00,3.232898e+00
2.835570e+00,2.673184e+00,3,3,2.060546e+00,2.060546e+00
2.846116e+00,2.665985e+00,3,3,1.917774e+00,1.917774e+00
2.839553e+00,2.672425e+00,3,3,1.570783e+00,1.570783e+00
2.845926e+00,2.667554e+00,3,3,1.788717e+00,1.788717e+00
2.843231e+00,2.700919e+00,3,3,1.670397e+00,1.670397e+00
2.851369e+00,2.665885e+00,3,3,1.852885e+00,1.852885e+00
2.852621e+00,2.672434e+00,3,3,1.575074e+00,1.575074e+00
2.841993e+00,2.683628e+00,3,3,1.322500e+00,1.322500e+00
2.845144e+00,2.672364e+00,3,3,1.608497e+00,1.608497e+00
2.845583e+00,2.668512e+00,3,3,1.947952e+00,1.947951e+00
2.835084e+00,2.673200e+00,3,3,3.513622e+00,3.513620e+00
2.842753e+00,2.675217e+00,3,3,3.981975e+00,3.981975e+00
2.838514e+00,2.671940e+00,3,3,3.370380e+00,3.370380e+00
2.839563e+00,2.693778e+00,3,3,4.707157e+00,4.707159e+00
2.835575e+00,2.671888e+00,3,3,6.499834e+00,6.499837e+00
2.842236e+00,2.673930e+00,3,3,7.406377e+00,7.406397e+00
2.834656e+00,2.672206e+00,3,3,5.772756e+00,5.772763e+00
2.840975e+00,2.673250e+00,3,3,3.672912e+00,3.672913e+00
2.840695e+00,2.668006e+00,3,3,3.393920e+00,3.393919e+00
2.841303e+00,2.689388e+00,3,3,2.305089e+00,2.305089e+00
2.852861e+00,2.667768e+00,3,3,2.182125e+00,2.182125e+00
2.869637e+00,2.671136e+00,3,3,1.942341e+00,1.942341e+00
2.843050e+00,2.666719e+00,3,3,1.774993e+00,1.774992e+00
2.847401e+00,2.672693e+00,3,3,1.636768e+00,1.636767e+00
2.858210e+00,2.670035e+00,3,3,1.690944e+00,1.690944e+00
2.843816e+00,2.673741e+00,3,3,1.753688e+00,1.753688e+00
2.843605e+00,2.667407e+00,3,3,1.618223e+00,1.618223e+00
2.842666e+00,2.673208e+00,3,3,1.499648e+00,1.499648e+00
2.837367e+00,2.673987e+00,3,3,2.850304e+00,2.850303e+00
2.840773e+00,2.674706e+00,3,3,2.594243e+00,2.594243e+00
2.851400e+00,2.674279e+00,3,3,4.129187e+00,4.129186e+00
2.843041e+00,2.672743e+00,3,3,3.962295e+00,3.962294e+00
2.873897e+00,2.673379e+00,3,3,4.596367e+00,4.596367e+00
2.847773e+00,2.695016e+00,3,3,6.442923e+00,6.442923e+00
2.846695e+00,2.676316e+00,3,3,7.415846e+00,7.415905e+00
2.843292e+00,2.665868e+00,3,3,5.716735e+00,5.716740e+00
2.842388e+00,2.673405e+00,3,3,4.806163e+00,4.806163e+00
2.842490e+00,2.669270e+00,3,3,4.709871e+00,4.709871e+00
2.851000e+00,2.672153e+00,3,3,3.777732e+00,3.777732e+00
2.840985e+00,2.665272e+00,3,3,3.416251e+00,3.416250e+00
2.848658e+00,2.672610e+00,3,3,2.955894e+00,2.955893e+00
2.847016e+00,2.667313e+00,3,3,2.458325e+00,2.458325e+00
2.840495e+00,2.674224e+00,3,3,2.550069e+00,2.550069e+00
2.839317e+00,2.667878e+00,3,3,2.255615e+00,2.255615e+00
2.838850e+00,2.671379e+00,3,3,1.336178e+00,1.336178e+00
2.841222e+00,2.666716e+00,3,3,1.991934e+00,1.991934e+00
2.845394e+00,2.675505e+00,3,3,1.945321e+00,1.945323e+00
2.844204e+00,2.674251e+00,3,3,2.295225e+00,2.295228e+00
2.835640e+00,2.672705e+00,3,3,1.917948e+00,1.917948e+00
2.840158e+00,2.671369e+00,3,3,2.861790e+00,2.861788e+00
2.832389e+00,2.672849e+00,3,3,1.172088e+00,1.172089e+00
2.849264e+00,2.672195e+00,3,3,1.207366e+00,1.207366e+00
2.834678e+00,2.669685e+00,3,3,3.169206e+00,3.169205e+00
2.844287e+00,2.673936e+00,3,3,4.162678e+00,4.162677e+00
2.843478e+00,2.666412e+00,3,3,2.831877e+00,2.831878e+00
2.844672e+00,2.673929e+00,3,3,3.689524e+00,3.689523e+00
2.847531e+00,2.667062e+00,3,3,3.553527e+00,3.553527e+00
2.844990e+00,2.673926e+00,3,3,2.756447e+00,2.756447e+00
2.835777e+00,2.666744e+00,3,3,2.418443e+00,2.418443e+00
2.844355e+00,2.673238e+00,3,3,4.230816e+00,4.230963e+00
2.837568e+00,2.662658e+00,3,3,2.672076e+00,2.672069e+00
2.839443e+00,2.673078e+00,3,3,1.647522e+00,1.647523e+00
2.840270e+00,2.665358e+00,3,3,2.018341e+00,2.018340e+00
2.840711e+00,2.672107e+00,3,3,1.763221e+00,1.763221e+00
2.847788e+00,2.667470e+00,3,3,1.355416e+00,1.355416e+00
2.840319e+00,2.672255e+00,3,3,1.132915e+00,1.132915e+00
2.839073e+00,2.666379e+00,3,3,1.383428e+00,1.383427e+00
2.841470e+00,2.673122e+00,3,3,1.589472e+00,1.589471e+00
2.840615e+00,2.672466e+00,3,3,1.614565e+00,1.614565e+00
2.832772e+00,2.672697e+00,3,3,6.387642e-01,6.387643e-01
2.839992e+00,2.670999e+00,3,3,1.263129e+00,1.263128e+00
2.835809e+00,2.673505e+00,3,3,1.756925e+00,1.756924e+00
2.840666e+00,2.693573e+00,3,3,1.214975e+00,1.214976e+00
2.835280e+00,2.672258e+00,3,3,6.896474e-01,6.896473e-01
2.840155e+00,2.673720e+00,3,3,1.322707e+00,1.322706e+00
2.828842e+00,2.672094e+00,3,3,2.747684e+00,2.747683e+00
2.839936e+00,2.674755e+00,3,3,3.122748e+00,3.122748e+00
2.843602e+00,2.667684e+00,3,3,3.745935e+00,3.745934e+00
2.838711e+00,2.672083e+00,3,3,2.934402e+00,2.934402e+00
2.837174e+00,2.667545e+00,3,3,2.319153e+00,2.319153e+00
2.843643e+00,2.671886e+00,3,3,1.680245e+00,1.680245e+00
2.841901e+00,2.665191e+00,3,3,1.510748e+00,1.510748e+00
2.838123e+00,2.671157e+00,3,3,3.475020e+00,3.475018e+00
2.835639e+00,2.665772e+00,3,3,4.952406e+00,4.952409e+00
3.793083e+00,3.560474e+00,4,4,2.345955e+00,2.345958e+00
2.834035e+00,2.668373e+00,3,3,2.364500e+00,2.364500e+00
2.845259e+00,2.673991e+00,3,3,1.781333e+00,1.781333e+00
2.842243e+00,2.665224e+00,3,3,1.292388e+00,1.292388e+00
2.843954e+00,2.671938e+00,3,3,5.982890e-01,5.982889e-01
2.842909e+00,2.665001e+00,3,3,8.724916e-01,8.724914e-01
2.839210e+00,2.674885e+00,3,3,6.429651e-01,6.429651e-01
2.837351e+00,2.666893e+00,3,3,7.267693e-01,7.267690e-01
2.845034e+00,2.671486e+00,3,3,7.403457e-01,7.403454e-01
2.836571e+00,2.665961e+00,3,3,3.214886e+00,3.214884e+00
2.838395e+00,2.672753e+00,3,3,5.166954e+00,5.167224e+00
2.847916e+00,3.556316e+00,3,4,6.496184e+00,6.496022e+00
2.848615e+00,2.674686e+00,3,3,3.328825e+00,3.328824e+00
2.845073e+00,2.666024e+00,3,3,2.543168e+00,2.543168e+00
2.844325e+00,2.674299e+00,3,3,2.612517e+00,2.612517e+00
2.842658e+00,2.666996e+00,3,3,2.705704e+00,2.705704e+00
2.849045e+00,2.675171e+00,3,3,2.846806e+00,2.846806e+00
2.854435e+00,2.666654e+00,3,3,5.080861e+00,5.080865e+00
2.837338e+00,2.675525e+00,3,3,1.008151e+01,1.007972e+01
5.673127e+00,5.333587e+00,6,6,1.225672e+01,1.226639e+01
5.682819e+00,4.442871e+00,6,5,7.547308e+00,7.569017e+00
3.789709e+00,5.330406e+00,4,6,9.436417e+00,9.438850e+00
3.785946e+00,3.558702e+00,4,4,7.125081e+00,7.125461e+00
2.832995e+00,2.669879e+00,3,3,5.271544e+00,5.271855e+00
2.839345e+00,2.673768e+00,3,3,6.471873e+00,6.471910e+00
2.835808e+00,2.668669e+00,3,3,5.618434e+00,5.618434e+00
2.842270e+00,2.671542e+00,3,3,7.608868e+00,7.608866e+00
2.865900e+00,2.666561e+00,3,3,5.902795e+00,5.902795e+00
2.848949e+00,2.672518e+00,3,3,4.483681e+00,4.483681e+00
2.838968e+00,2.669790e+00,3,3,4.020976e+00,4.020976e+00
2.847024e+00,2.673233e+00,3,3,3.094427e+00,3.094427e+00
2.838360e+00,2.667250e+00,3,3,2.888103e+00,2.888103e+00
2.845038e+00,2.673265e+00,3,3,3.291346e+00,3.291346e+00
2.846141e+00,2.667309e+00,3,3,2.571925e+00,2.571925e+00
2.841722e+00,2.672435e+00,3,3,1.174217e+00,1.174217e+00
2.837490e+00,2.665724e+00,3,3,1.972185e+00,1.972184e+00
2.841708e+00,2.672280e+00,3,3,1.997746e+00,1.997747e+00
2.842281e+00,2.668032e+00,3,3,1.105918e+00,1.105918e+00
2.834975e+00,2.671825e+00,3,3,1.114494e+00,1.114494e+00
2.842049e+00,2.672998e+00,3,3,9.310651e-01,9.310650e-01
2.833355e+00,2.672953e+00,3,3,7.802638e-01,7.802636e-01
2.848582e+00,2.673616e+00,3,3,1.263091e+00,1.263091e+00
2.830866e+00,2.672590e+00,3,3,8.592391e-01,8.592390e-01
2.845090e+00,2.670788e+00,3,3,1.329574e+00,1.329573e+00
2.831063e+00,2.672748e+00,3,3,2.423947e+00,2.423947e+00
2.844886e+00,2.672174e+00,3,3,2.648755e+00,2.648756e+00
2.831650e+00,2.670198e+00,3,3,2.116984e+00,2.116984e+00
2.847521e+00,2.673699e+00,3,3,1.666201e+00,1.666200e+00
2.833820e+00,2.666022e+00,3,3,1.109046e+00,1.109046e+00
2.845210e+00,2.673779e+00,3,3,2.155936e+00,2.155935e+00
2.839670e+00,2.667767e+00,3,3,1.948723e+00,1.948723e+00
2.839553e+00,2.670520e+00,3,3,4.287806e+00,4.287804e+00
2.842333e+00,2.667509e+00,3,3,2.829841e+00,2.829842e+00
2.838900e+00,2.672565e+00,3,3,1.982913e+00,1.982913e+00
2.843447e+00,2.666218e+00,3,3,3.599257e+00,3.599255e+00
2.845796e+00,2.673381e+00,3,3,3.308568e+00,3.308568e+00
2.841810e+00,2.666269e+00,3,3,3.792307e+00,3.792306e+00
2.844216e+00,2.673212e+00,3,3,3.616082e+00,3.616081e+00
2.842101e+00,2.667499e+00,3,3,3.168031e+00,3.168030e+00
2.849852e+00,2.671652e+00,3,3,2.862350e+00,2.862350e+00
2.839292e+00,2.666756e+00,3,3,3.123848e+00,3.123848e+00
2.844479e+00,2.673541e+00,3,3,2.293018e+00,2.293018e+00
2.843388e+00,2.676604e+00,3,3,2.090619e+00,2.090619e+00
2.837318e+00,2.676813e+00,3,3,2.032072e+00,2.032071e+00
2.843951e+00,2.671317e+00,3,3,2.145502e+00,2.145501e+00
2.839840e+00,2.671691e+00,3,3,1.756338e+00,1.756338e+00
2.838757e+00,2.673583e+00,3,3,2.950886e+00,2.950885e+00
2.835610e+00,2.671233e+00,3,3,3.588799e+00,3.588799e+00
2.840568e+00,2.673800e+00,3,3,5.137349e+00,5.137348e+00
2.841024e+00,2.666866e+00,3,3,7.576455e+00,7.576454e+00
2.844063e+00,2.672533e+00,3,3,7.613250e+00,7.613250e+00
2.835332e+00,2.667070e+00,3,3,4.682868e+00,4.682869e+00
2.846259e+00,2.673290e+00,3,3,4.125087e+00,4.125086e+00
2.841231e+00,2.666719e+00,3,3,3.396980e+00,3.396980e+00
2.842012e+00,2.671278e+00,3,3,2.239274e+00,2.239275e+00
2.837594e+00,2.666168e+00,3,3,2.243202e+00,2.243203e+00
2.840717e+00,2.676330e+00,3,3,2.909488e+00,2.909489e+00
2.843064e+00,2.666991e+00,3,3,2.670832e+00,2.670831e+00
2.845579e+00,2.675899e+00,3,3,4.180717e+00,4.180714e+00
2.846085e+00,2.668110e+00,3,3,4.148641e+00,4.148642e+00
2.840110e+00,2.672712e+00,3,3,4.158757e+00,4.158758e+00
2.842454e+00,2.665937e+00,3,3,4.007576e+00,4.007576e+00
2.842491e+00,2.670019e+00,3,3,3.549812e+00,3.549815e+00
2.844505e+00,2.673554e+00,3,3,3.682443e+00,3.682443e+00
2.832403e+00,2.671214e+00,3,3,1.671085e+00,1.671085e+00
2.839072e+00,2.673306e+00,3,3,1.546731e+00,1.546731e+00
2.839707e+00,2.680512e+00,3,3,1.173817e+00,1.173817e+00
2.843970e+00,2.674957e+00,3,3,2.043508e+00,2.043507e+00
2.833280e+00,2.672767e+00,3,3,1.503401e+00,1.503401e+00
2.843332e+00,2.673798e+00,3,3,1.253273e+00,1.253272e+00
2.834407e+00,2.670820e+00,3,3,8.426970e-01,8.426968e-01
2.845844e+00,2.674907e+00,3,3,8.052929e-01,8.052927e-01
2.837896e+00,2.667498e+00,3,3,9.850239e-01,9.850237e-01
2.841750e+00,2.672621e+00,3,3,8.358680e-01,8.358680e-01
2.835577e+00,2.667246e+00,3,3,2.317594e+00,2.317593e+00
2.843406e+00,2.680187e+00,3,3,2.152668e+00,2.152668e+00
2.849473e+00,2.667270e+00,3,3,2.328922e+00,2.328922e+00
2.839944e+00,2.671642e+00,3,3,1.935999e+00,1.935999e+00
2.843834e+00,2.665020e+00,3,3,2.556836e+00,2.556836e+00
2.839909e+00,2.669484e+00,3,3,7.753507e+00,7.753581e+00
6.631550e+00,5.330869e+00,7,6,1.122668e+01,1.123666e+01
6.626563e+00,5.337809e+00,7,6,6.409954e+00,6.412722e+00
2.846631e+00,3.554768e+00,3,4,6.722059e+00,6.720932e+00
4.736167e+00,3.556087e+00,5,4,5.386229e+00,5.386647e+00
3.795220e+00,2.672518e+00,4,3,4.609931e+00,4.610075e+00
2.842419e+00,2.671828e+00,3,3,3.415360e+00,3.415361e+00
2.835730e+00,2.674801e+00,3,3,2.811436e+00,2.811436e+00
2.842073e+00,2.672040e+00,3,3,3.462090e+00,3.462089e+00
2.830454e+00,2.671331e+00,3,3,2.836194e+00,2.836194e+00
2.841764e+00,2.671274e+00,3,3,2.157823e+00,2.157823e+00
2.837761e+00,2.671037e+00,3,3,2.170133e+00,2.170133e+00
2.837837e+00,2.674302e+00,3,3,2.997184e+00,2.997183e+00
2.848339e+00,2.668465e+00,3,3,3.287193e+00,3.287192e+00
2.843759e+00,2.671401e+00,3,3,2.308765e+00,2.308765e+00
2.838538e+00,2.668474e+00,3,3,1.605628e+00,1.605628e+00
2.836702e+00,2.671990e+00,3,3,1.055688e+00,1.055686e+00
2.833116e+00,2.667540e+00,3,3,8.252304e-01,8.252303e-01
2.842901e+00,2.671577e+00,3,3,1.579785e+00,1.579785e+00
2.838839e+00,2.666687e+00,3,3,4.245297e+00,4.245295e+00
2.847887e+00,2.674587e+00,3,3,3.410456e+00,3.410456e+00
2.836988e+00,2.666716e+00,3,3,3.589409e+00,3.589409e+00
2.840354e+00,2.672597e+00,3,3,3.625135e+00,3.625139e+00
2.843233e+00,2.667395e+00,3,3,4.496771e+00,4.496968e+00
2.847682e+00,2.672394e+00,3,3,4.059654e+00,4.059674e+00
2.844646e+00,2.666673e+00,3,3,8.874701e+00,8.874600e+00
3.782354e+00,3.572875e+00,4,4,6.774891e+00,6.774893e+00
2.840665e+00,2.668035e+00,3,3,4.146104e+00,4.146105e+00
2.840466e+00,2.673809e+00,3,3,4.658729e+00,4.658728e+00
2.838186e+00,2.666362e+00,3,3,3.161513e+00,3.161512e+00
2.838760e+00,2.675753e+00,3,3,4.325414e+00,4.325413e+00
2.838431e+00,2.665196e+00,3,3,4.016904e+00,4.016905e+00
2.850462e+00,2.672936e+00,3,3,4.397163e+00,4.397180e+00
2.849895e+00,2.668020e+00,3,3,2.409206e+00,2.409222e+00
2.847913e+00,2.670644e+00,3,3,1.762131e+00,1.762131e+00

