4.962818e+00,1.131058e+00,6,20
2.420279e+00,6.730556e-01,3,15
7.312755e+00,7.600784e-01,9,17
4.162938e+00,8.001328e-01,5,18
6.503175e+00,6.499290e-01,8,14
4.855795e+00,6.861687e-01,6,15
5.702033e+00,7.739067e-01,7,17
2.462486e+00,7.460117e-01,3,16
2.452701e+00,6.110668e-01,3,13
4.903674e+00,6.649494e-01,6,14
3.233728e+00,7.259846e-01,4,15
3.246332e+00,4.959106e-01,4,10
2.448825e+00,5.049706e-01,3,10
4.018356e+00,4.661083e-01,5,9
4.841940e+00,5.261898e-01,6,10

