4.927800e+00,1.136065e+00,6,20
2.441810e+00,6.608963e-01,3,15
7.273248e+00,7.519722e-01,9,17
4.047020e+00,8.080006e-01,5,18
6.518108e+00,6.392002e-01,8,14
4.890927e+00,6.840229e-01,6,15
5.708767e+00,7.820129e-01,7,17
2.433574e+00,7.498264e-01,3,16
2.434915e+00,6.182194e-01,3,13
4.925760e+00,6.701946e-01,6,14
3.284471e+00,7.309914e-01,4,15
3.245867e+00,5.149841e-01,4,10
2.449048e+00,5.080700e-01,3,10
4.053560e+00,4.692078e-01,5,9
4.864509e+00,5.159378e-01,6,10

