1.985317e+00,5.705294e+00,4.302979e+00,2,0,0.000000e+00,0.000000e+00
2.965914e+00,1.059778e+00,1.027822e+00,3,0,7.551209e-02,7.551224e-02
2.995754e+00,1.046085e+00,1.024008e+00,3,0,1.395620e-01,1.395623e-01
2.969305e+00,1.034563e+00,1.013994e+00,3,0,2.946822e-01,2.946826e-01
2.968022e+00,1.028589e+00,1.007080e+00,3,0,2.716495e-01,2.716496e-01
2.967179e+00,1.021204e+00,1.001120e+00,3,0,1.276166e+00,1.276168e+00
2.972870e+00,1.015978e+00,9.949207e-01,3,0,1.779663e+00,1.779664e+00
2.971010e+00,1.020996e+00,1.001120e+00,3,0,2.335722e+00,2.335722e+00
2.972435e+00,1.020106e+00,1.000166e+00,3,0,1.148687e+00,1.148686e+00
2.972761e+00,1.026019e+00,1.005888e+00,3,0,1.018461e+00,1.018461e+00
2.969875e+00,1.014307e+00,9.930134e-01,3,0,8.424528e-01,8.424531e-01
2.967614e+00,1.016269e+00,9.949207e-01,3,0,9.746404e-01,9.746410e-01
2.970301e+00,1.012752e+00,9.918213e-01,3,0,1.616753e+00,1.616754e+00
2.968946e+00,9.992960e-01,9.779930e-01,3,0,2.206612e+00,2.206613e+00
2.977729e+00,9.967110e-01,9.748936e-01,3,0,2.022702e+00,2.022702e+00
2.970694e+00,1.017001e+00,9.961128e-01,3,0,2.825380e+00,2.825382e+00
2.970879e+00,1.015427e+00,9.939671e-01,3,0,2.206349e+00,2.206349e+00
2.971838e+00,1.017258e+00,9.958744e-01,3,0,1.931090e+00,1.931090e+00
2.975587e+00,1.019308e+00,9.980202e-01,3,0,1.844837e+00,1.844838e+00
2.971396e+00,1.016963e+00,9.958744e-01,3,0,1.758302e+00,1.758303e+00
2.972672e+00,1.018658e+00,9.980202e-01,3,0,1.840509e+00,1.840510e+00
2.969235e+00,1.011044e+00,9.911060e-01,3,0,1.533955e+00,1.533956e+00
2.969701e+00,1.017196e+00,9.958744e-01,3,0,1.381534e+00,1.381534e+00
2.970799e+00,1.016232e+00,9.958744e-01,3,0,1.204581e+00,1.204581e+00
2.971720e+00,1.020815e+00,9.999275e-01,3,0,1.188903e+00,1.188903e+00
2.968704e+00,1.017597e+00,9.968281e-01,3,0,1.149710e+00,1.149710e+00
2.969283e+00,1.020497e+00,9.989738e-01,3,0,9.518773e-01,9.518776e-01
2.963759e+00,1.019762e+00,9.989738e-01,3,0,6.794437e-01,6.794439e-01
2.971666e+00,1.014815e+00,9.851456e-01,3,0,3.431006e-01,3.431010e-01
2.967472e+00,1.018004e+00,9.980202e-01,3,0,2.960828e-01,2.960829e-01
2.967619e+00,1.017722e+00,9.961128e-01,3,0,5.896100e-01,5.896108e-01
2.966908e+00,1.019634e+00,9.989738e-01,3,0,6.941781e-01,6.941785e-01
2.969513e+00,1.022818e+00,1.002073e+00,3,0,5.984791e-01,5.984792e-01
2.966454e+00,1.017130e+00,9.961128e-01,3,0,9.215441e-01,9.215449e-01
2.967883e+00,1.017828e+00,9.970665e-01,3,0,7.538886e-01,7.538887e-01
2.967548e+00,1.017781e+00,9.961128e-01,3,0,5.559930e-01,5.559929e-01
2.973845e+00,1.009172e+00,9.880066e-01,3,0,4.066880e-01,4.066882e-01
2.967596e+00,1.008082e+00,9.870529e-01,3,0,3.376782e-01,3.376784e-01
2.965144e+00,1.011929e+00,9.911060e-01,3,0,8.606972e-01,8.606981e-01
2.967957e+00,1.016097e+00,9.958744e-01,3,0,9.504779e-01,9.504782e-01
2.970057e+00,1.015151e+00,9.939671e-01,3,0,2.139476e+00,2.139478e+00
2.970978e+00,1.016587e+00,9.961128e-01,3,0,2.927873e+00,2.927875e+00
2.971700e+00,1.018507e+00,9.980202e-01,3,0,1.852340e+00,1.852339e+00
2.968087e+00,1.014774e+00,9.939671e-01,3,0,2.797935e+00,2.797937e+00
2.967411e+00,1.014437e+00,9.939671e-01,3,0,2.235884e+00,2.235884e+00
2.970545e+00,1.015130e+00,9.951591e-01,3,0,1.808748e+00,1.808748e+00
2.969775e+00,1.016784e+00,9.951591e-01,3,0,1.619818e+00,1.619818e+00
2.970935e+00,1.018145e+00,9.970665e-01,3,0,1.344300e+00,1.344300e+00
2.967327e+00,1.017215e+00,9.961128e-01,3,0,1.080028e+00,1.080028e+00
2.968031e+00,1.013760e+00,9.930134e-01,3,0,6.876477e-01,6.876477e-01
2.968335e+00,1.013287e+00,9.930134e-01,3,0,6.177118e-01,6.177121e-01
2.968984e+00,1.013915e+00,9.930134e-01,3,0,9.829237e-01,9.829245e-01
2.969619e+00,1.016996e+00,9.958744e-01,3,0,7.168845e-01,7.168846e-01
2.967806e+00,1.018462e+00,9.970665e-01,3,0,6.110375e-01,6.110375e-01
2.962582e+00,1.015602e+00,9.949207e-01,3,0,8.078105e-01,8.078110e-01
2.967412e+00,1.011331e+00,9.858608e-01,3,0,1.109397e+00,1.109398e+00
2.970445e+00,1.012241e+00,9.908676e-01,3,0,5.988311e-01,5.988310e-01
2.967155e+00,1.014412e+00,9.939671e-01,3,0,9.244303e-01,9.244309e-01
2.968035e+00,1.018832e+00,9.989738e-01,3,0,1.306200e+00,1.306201e+00
2.966001e+00,1.011221e+00,9.911060e-01,3,0,1.969784e+00,1.969785e+00
3.005256e+00,1.012083e+00,9.918213e-01,3,0,8.942516e-01,8.942522e-01
3.006139e+00,1.067240e+00,1.044989e+00,3,0,1.939670e+00,1.939672e+00
2.966400e+00,1.022489e+00,1.002073e+00,3,0,3.653224e+00,3.653227e+00
2.971742e+00,1.020891e+00,9.999275e-01,3,0,1.983768e+00,1.983767e+00
2.967567e+00,1.023083e+00,1.003027e+00,3,0,2.724662e+00,2.724664e+00
3.006224e+00,1.014505e+00,9.939671e-01,3,0,1.182476e+00,1.182476e+00
3.031607e+00,1.060264e+00,1.039982e+00,3,0,1.263766e+00,1.263766e+00
3.032837e+00,1.038314e+00,1.019001e+00,3,0,9.845569e-01,9.845572e-01
3.015887e+00,1.038844e+00,1.018047e+00,3,0,7.762216e-01,7.762219e-01
2.963253e+00,1.055243e+00,1.019001e+00,3,0,5.908725e-01,5.908728e-01
3.034676e+00,1.039266e+00,1.019001e+00,3,0,8.816922e-01,8.816928e-01
2.979376e+00,1.036181e+00,1.014948e+00,3,0,9.003221e-01,9.003223e-01
2.968239e+00,1.016939e+00,9.961128e-01,3,0,9.129589e-01,9.129592e-01
2.969029e+00,1.011150e+00,9.908676e-01,3,0,1.029772e+00,1.029772e+00
2.976077e+00,1.015580e+00,9.951591e-01,3,0,1.502112e+00,1.502113e+00
2.969209e+00,1.017940e+00,9.970665e-01,3,0,2.017964e+00,2.017965e+00
2.971850e+00,1.011595e+00,9.908676e-01,3,0,1.214734e+00,1.214733e+00
2.979090e+00,1.015518e+00,9.951591e-01,3,0,1.209877e+00,1.209877e+00
2.993627e+00,1.016565e+00,9.961128e-01,3,0,8.937066e-01,8.937066e-01
2.967507e+00,1.019385e+00,9.980202e-01,3,0,4.433705e-01,4.433705e-01
2.965948e+00,9.800180e-01,9.591579e-01,3,0,1.527408e+00,1.527410e+00
2.971435e+00,9.930530e-01,9.729862e-01,3,0,1.130289e+00,1.130289e+00
2.968713e+00,1.005939e+00,9.849072e-01,3,0,1.011827e+00,1.011827e+00
2.967842e+00,9.775240e-01,9.570122e-01,3,0,9.740373e-01,9.740379e-01
2.965885e+00,9.904350e-01,9.698868e-01,3,0,1.400943e+00,1.400945e+00
2.967920e+00,1.045963e+00,1.025200e+00,3,0,2.512776e+00,2.512778e+00
3.045516e+00,1.053622e+00,1.033068e+00,3,0,3.760615e+00,3.760617e+00
3.050962e+00,2.920281e+00,2.898932e+00,3,1,5.483422e+00,5.483971e+00
3.076515e+00,4.470518e+00,4.447937e+00,3,2,4.458068e+00,4.458223e+00
2.972770e+00,4.425469e+00,4.404068e+00,3,2,3.182344e+00,3.185208e+00
2.971861e+00,2.548466e+00,2.522945e+00,3,1,2.454092e+00,2.454092e+00
2.972585e+00,9.766760e-01,9.479523e-01,3,0,1.719396e+00,1.719396e+00
2.974454e+00,1.027362e+00,1.007080e+00,3,0,2.433286e+00,2.433288e+00
2.973312e+00,1.026578e+00,1.006126e+00,3,0,1.807900e+00,1.807900e+00
2.976579e+00,1.027106e+00,1.005888e+00,3,0,2.327531e+00,2.327532e+00
2.997970e+00,1.022562e+00,1.002073e+00,3,0,2.510070e+00,2.510071e+00
3.047652e+00,1.023367e+00,1.002073e+00,3,0,1.084533e+00,1.084532e+00
3.045600e+00,1.055574e+00,1.034975e+00,3,0,9.374212e-01,9.374215e-01
3.073716e+00,1.044844e+00,1.024008e+00,3,0,1.319559e+00,1.319560e+00
3.023118e+00,1.053466e+00,1.031876e+00,3,0,1.415890e+00,1.415891e+00
2.972649e+00,1.020340e+00,9.989738e-01,3,0,1.066767e+00,1.066767e+00
2.967758e+00,1.021291e+00,1.001120e+00,3,0,1.238102e+00,1.238103e+00
2.969348e+00,1.021461e+00,1.000881e+00,3,0,7.214974e-01,7.214975e-01
2.971435e+00,1.025972e+00,1.006126e+00,3,0,6.568652e-01,6.568654e-01
2.972992e+00,1.026306e+00,1.006126e+00,3,0,5.438516e-01,5.438517e-01
2.972847e+00,1.025203e+00,1.003981e+00,3,0,5.784203e-01,5.784208e-01
2.970954e+00,1.019854e+00,9.989738e-01,3,0,8.078970e-01,8.078976e-01
2.996350e+00,1.020977e+00,9.999275e-01,3,0,8.817771e-01,8.817774e-01
2.970667e+00,1.038189e+00,1.017094e+00,3,0,5.667882e-01,5.667882e-01
2.969344e+00,1.021174e+00,1.001120e+00,3,0,5.720608e-01,5.720612e-01
2.964529e+00,1.001007e+00,9.801388e-01,3,0,5.279838e-01,5.279840e-01
2.966500e+00,9.617330e-01,9.419918e-01,3,0,4.518010e-01,4.518013e-01
3.031137e+00,1.051130e+00,1.029968e+00,3,0,3.135726e-01,3.135727e-01
2.976152e+00,1.192964e+00,1.168013e+00,3,0,5.541243e-01,5.541249e-01
3.007051e+00,1.239156e+00,1.214027e+00,3,0,2.932878e-01,2.932879e-01
2.977702e+00,1.211224e+00,1.186848e+00,3,0,3.389798e-01,3.389800e-01
2.966838e+00,1.068547e+00,1.047134e+00,3,0,8.799551e-01,8.799560e-01
2.968515e+00,1.036497e+00,1.015186e+00,3,0,6.417447e-01,6.417448e-01
2.967995e+00,1.023307e+00,1.003027e+00,3,0,2.071143e+00,2.071145e+00
2.972701e+00,1.019672e+00,9.989738e-01,3,0,1.435506e+00,1.435506e+00
2.968127e+00,1.016764e+00,9.961128e-01,3,0,1.390175e+00,1.390176e+00
2.965731e+00,1.015812e+00,9.939671e-01,3,0,1.731344e+00,1.731345e+00
2.965347e+00,1.019220e+00,9.989738e-01,3,0,1.563279e+00,1.563279e+00
2.967027e+00,1.014611e+00,9.939671e-01,3,0,1.722313e+00,1.722313e+00
2.969182e+00,1.034724e+00,1.013994e+00,3,0,3.041310e+00,3.041312e+00
2.970135e+00,1.014735e+00,9.942055e-01,3,0,1.973577e+00,1.973577e+00
2.982187e+00,1.010337e+00,9.889603e-01,3,0,1.500037e+00,1.500037e+00
2.970467e+00,1.008397e+00,9.870529e-01,3,0,1.307087e+00,1.307087e+00
2.970901e+00,1.008744e+00,9.880066e-01,3,0,7.837205e-01,7.837210e-01
2.971037e+00,1.004909e+00,9.839535e-01,3,0,8.577163e-01,8.577173e-01
2.969072e+00,1.010886e+00,9.899139e-01,3,0,5.381583e-01,5.381585e-01
2.968396e+00,1.010938e+00,9.899139e-01,3,0,7.102337e-01,7.102342e-01
2.971748e+00,1.015153e+00,9.949207e-01,3,0,3.163725e-01,3.163726e-01
2.971490e+00,1.012687e+00,9.920597e-01,3,0,2.572585e-01,2.572586e-01
2.964605e+00,1.010132e+00,9.889603e-01,3,0,2.640277e-01,2.640279e-01
2.966789e+00,1.012319e+00,9.908676e-01,3,0,5.737760e-01,5.737767e-01
2.967333e+00,1.012127e+00,9.920597e-01,3,0,5.918176e-01,5.918179e-01
2.970087e+00,1.007648e+00,9.870529e-01,3,0,5.015504e-01,5.015505e-01
2.967367e+00,1.011862e+00,9.911060e-01,3,0,5.462995e-01,5.462998e-01
2.966498e+00,1.009603e+00,9.889603e-01,3,0,4.626903e-01,4.626905e-01
2.967951e+00,1.014302e+00,9.930134e-01,3,0,8.631048e-01,8.631056e-01
2.975024e+00,1.012902e+00,9.920597e-01,3,0,1.472360e+00,1.472361e+00
2.968700e+00,1.013163e+00,9.920597e-01,3,0,1.662220e+00,1.662221e+00
2.968226e+00,1.013537e+00,9.930134e-01,3,0,1.301747e+00,1.301748e+00
2.967706e+00,1.008653e+00,9.880066e-01,3,0,1.159393e+00,1.159394e+00
2.969745e+00,1.016209e+00,9.949207e-01,3,0,1.072057e+00,1.072057e+00
2.970266e+00,1.014079e+00,9.930134e-01,3,0,7.684551e-01,7.684551e-01
2.970043e+00,1.018456e+00,9.968281e-01,3,0,6.784222e-01,6.784231e-01
2.967729e+00,1.006198e+00,9.851456e-01,3,0,1.196364e+00,1.196365e+00
2.966779e+00,1.005229e+00,9.849072e-01,3,0,1.709869e+00,1.709870e+00
2.972220e+00,1.008913e+00,9.880066e-01,3,0,1.043961e+00,1.043960e+00
2.969698e+00,1.008532e+00,9.880066e-01,3,0,9.875629e-01,9.875632e-01
2.968564e+00,1.006548e+00,9.858608e-01,3,0,8.865498e-01,8.865500e-01
2.971535e+00,1.008794e+00,9.880066e-01,3,0,8.128656e-01,8.128658e-01
2.967480e+00,1.013532e+00,9.930134e-01,3,0,6.697429e-01,6.697431e-01
2.968433e+00,1.034812e+00,1.013994e+00,3,0,7.530456e-01,7.530460e-01
2.968613e+00,1.011436e+00,9.908676e-01,3,0,1.230953e+00,1.230954e+00
2.970001e+00,1.009858e+00,9.889603e-01,3,0,1.183055e+00,1.183055e+00
2.970563e+00,1.012956e+00,9.920597e-01,3,0,1.252972e+00,1.252972e+00
2.968005e+00,1.011571e+00,9.911060e-01,3,0,1.423245e+00,1.423247e+00
2.968607e+00,1.013558e+00,9.918213e-01,3,0,6.507798e-01,6.507799e-01
2.965996e+00,1.011113e+00,9.908676e-01,3,0,5.206112e-01,5.206114e-01
3.003987e+00,1.008917e+00,9.880066e-01,3,0,5.456167e-01,5.456171e-01
2.971345e+00,1.008629e+00,9.870529e-01,3,0,2.479465e-01,2.479468e-01
2.967891e+00,1.011431e+00,9.899139e-01,3,0,2.496598e-01,2.496599e-01
2.965243e+00,1.009080e+00,9.889603e-01,3,0,4.269944e-01,4.269948e-01
2.966969e+00,1.007264e+00,9.870529e-01,3,0,3.637094e-01,3.637095e-01
2.968341e+00,1.007586e+00,9.858608e-01,3,0,9.785973e-01,9.785988e-01
2.969298e+00,1.005276e+00,9.841919e-01,3,0,7.268656e-01,7.268662e-01
2.967002e+00,1.012672e+00,9.920597e-01,3,0,5.136780e-01,5.136781e-01
2.965989e+00,1.006811e+00,9.870529e-01,3,0,4.576684e-01,4.576686e-01
2.966297e+00,1.006780e+00,9.858608e-01,3,0,4.659262e-01,4.659265e-01
2.968689e+00,1.008165e+00,9.880066e-01,3,0,4.789425e-01,4.789428e-01
2.967867e+00,1.003115e+00,9.829998e-01,3,0,3.020692e-01,3.020693e-01
2.969249e+00,1.009902e+00,9.889603e-01,3,0,3.394996e-01,3.394999e-01
2.968804e+00,1.007733e+00,9.868145e-01,3,0,2.773580e-01,2.773582e-01
2.966297e+00,1.007140e+00,9.860992e-01,3,0,2.395138e-01,2.395140e-01
2.960816e+00,1.007976e+00,9.870529e-01,3,0,6.457985e-01,6.457994e-01
2.966267e+00,1.000782e+00,9.760857e-01,3,0,4.074309e-01,4.074312e-01
2.966552e+00,1.007034e+00,9.870529e-01,3,0,6.452891e-01,6.452896e-01
2.965870e+00,1.007639e+00,9.860992e-01,3,0,1.041436e+00,1.041437e+00
2.968676e+00,1.009695e+00,9.889603e-01,3,0,8.929570e-01,8.929576e-01
2.968827e+00,1.007267e+00,9.858608e-01,3,0,1.012420e+00,1.012421e+00
2.968561e+00,1.000625e+00,9.789467e-01,3,0,7.096699e-01,7.096700e-01
2.967632e+00,1.003679e+00,9.839535e-01,3,0,7.097770e-01,7.097773e-01
2.967400e+00,1.010153e+00,9.889603e-01,3,0,8.114542e-01,8.114547e-01
2.969018e+00,1.005759e+00,9.851456e-01,3,0,1.782574e+00,1.782575e+00
2.971054e+00,1.009203e+00,9.880066e-01,3,0,2.360399e+00,2.360400e+00
2.970939e+00,1.008773e+00,9.877682e-01,3,0,2.091286e+00,2.091286e+00
2.971468e+00,1.006538e+00,9.860992e-01,3,0,1.700507e+00,1.700508e+00
2.969844e+00,1.011050e+00,9.908676e-01,3,0,1.573464e+00,1.573464e+00
2.969311e+00,1.007623e+00,9.870529e-01,3,0,1.068439e+00,1.068439e+00
2.967700e+00,1.000948e+00,9.801388e-01,3,0,1.055490e+00,1.055491e+00
2.967340e+00,1.012045e+00,9.908676e-01,3,0,1.037041e+00,1.037041e+00
2.976868e+00,1.013052e+00,9.920597e-01,3,0,7.956397e-01,7.956398e-01
2.967675e+00,1.017657e+00,9.958744e-01,3,0,7.031926e-01,7.031928e-01
2.969135e+00,1.002670e+00,9.820461e-01,3,0,1.431417e+00,1.431418e+00
3.056608e+00,1.004347e+00,9.829998e-01,3,0,2.982530e+00,2.982533e+00
3.067417e+00,1.149063e+00,1.124859e+00,3,0,3.031353e+00,3.031354e+00
3.061859e+00,1.168884e+00,1.146078e+00,3,0,3.054807e+00,3.054807e+00
3.061114e+00,1.150435e+00,1.127005e+00,3,0,3.560093e+00,3.560094e+00
3.065574e+00,1.141844e+00,1.117945e+00,3,0,5.094647e+00,5.094650e+00
3.062534e+00,1.116336e+00,1.092911e+00,3,0,3.266820e+00,3.266819e+00
3.056274e+00,1.063569e+00,1.041889e+00,3,0,3.985970e+00,3.985972e+00
3.059459e+00,1.063368e+00,1.041889e+00,3,0,3.077073e+00,3.077073e+00
3.063515e+00,1.021901e+00,9.999275e-01,3,0,2.875826e+00,2.875827e+00
3.070195e+00,1.040627e+00,1.018047e+00,3,0,1.974572e+00,1.974572e+00
3.062613e+00,1.039803e+00,1.017809e+00,3,0,2.489593e+00,2.489595e+00
3.059873e+00,1.041806e+00,1.019955e+00,3,0,1.671669e+00,1.671669e+00
3.057340e+00,1.040078e+00,1.019001e+00,3,0,2.163023e+00,2.163024e+00
3.057807e+00,1.046103e+00,1.024008e+00,3,0,7.060766e-01,7.060765e-01
3.055592e+00,1.036705e+00,1.014948e+00,3,0,9.278438e-01,9.278446e-01
3.056112e+00,1.038365e+00,1.016855e+00,3,0,1.801418e+00,1.801419e+00
3.054963e+00,1.031777e+00,1.010180e+00,3,0,1.390242e+00,1.390242e+00
3.055305e+00,1.028067e+00,1.007080e+00,3,0,2.192524e+00,2.192526e+00
3.055025e+00,1.035199e+00,1.013994e+00,3,0,1.943534e+00,1.943534e+00
3.059137e+00,1.033825e+00,1.012087e+00,3,0,3.271277e+00,3.271279e+00
3.063841e+00,1.034870e+00,1.013994e+00,3,0,1.690167e+00,1.690166e+00
3.057040e+00,1.033767e+00,1.012087e+00,3,0,1.412965e+00,1.412965e+00
3.060259e+00,1.049205e+00,1.027107e+00,3,0,1.101832e+00,1.101833e+00
3.061687e+00,1.089311e+00,1.065969e+00,3,0,1.109889e+00,1.109889e+00
3.058869e+00,1.110578e+00,1.088142e+00,3,0,1.180572e+00,1.180572e+00
3.060374e+00,1.118227e+00,1.094818e+00,3,0,1.771003e+00,1.771004e+00
3.056751e+00,1.149039e+00,1.124859e+00,3,0,7.989905e-01,7.989901e-01
3.055856e+00,1.066072e+00,1.044989e+00,3,0,5.277676e-01,5.277677e-01
3.072944e+00,1.058457e+00,1.037121e+00,3,0,5.981898e-01,5.981901e-01
3.018920e+00,1.022528e+00,1.001120e+00,3,0,5.715107e-01,5.715110e-01
3.046941e+00,1.026000e+00,1.005888e+00,3,0,4.452615e-01,4.452615e-01
3.017881e+00,1.042965e+00,1.023054e+00,3,0,7.191408e-01,7.191417e-01
3.022675e+00,1.014914e+00,9.949207e-01,3,0,1.052376e+00,1.052377e+00
3.020642e+00,1.041628e+00,1.021147e+00,3,0,1.601037e+00,1.601038e+00
3.044242e+00,1.034738e+00,1.013994e+00,3,0,3.478609e+00,3.478612e+00
3.045115e+00,1.005688e+00,9.841919e-01,3,0,4.514008e+00,4.514010e+00
2.999720e+00,1.026330e+00,9.880066e-01,3,0,3.065471e+00,3.065471e+00
3.046508e+00,1.033888e+00,1.013041e+00,3,0,3.784558e+00,3.784559e+00
3.022285e+00,1.022334e+00,1.001120e+00,3,0,2.730909e+00,2.730909e+00
2.994945e+00,1.029836e+00,1.008987e+00,3,0,2.168827e+00,2.168827e+00
3.045118e+00,1.019936e+00,9.989738e-01,3,0,2.418019e+00,2.418020e+00
3.021415e+00,1.018643e+00,9.980202e-01,3,0,1.306380e+00,1.306380e+00
3.021284e+00,1.026168e+00,1.004934e+00,3,0,9.994597e-01,9.994608e-01
3.043919e+00,1.023339e+00,1.001835e+00,3,0,7.696714e-01,7.696715e-01
3.022240e+00,1.007717e+00,9.860992e-01,3,0,7.205177e-01,7.205179e-01
3.046282e+00,1.000682e+00,9.799004e-01,3,0,6.833545e-01,6.833547e-01
3.019110e+00,1.023716e+00,1.002073e+00,3,0,1.060751e+00,1.060751e+00
3.046080e+00,9.935110e-01,9.732246e-01,3,0,3.632652e-01,3.632651e-01
3.024604e+00,9.993050e-01,9.789467e-01,3,0,1.456896e+00,1.456898e+00
3.045338e+00,1.021814e+00,1.000881e+00,3,0,3.221339e+00,3.221342e+00
3.053897e+00,9.958900e-01,9.751320e-01,3,0,1.879967e+00,1.879966e+00
3.022245e+00,9.921450e-01,9.710789e-01,3,0,1.342877e+00,1.342876e+00
3.050221e+00,1.009512e+00,9.889603e-01,3,0,1.100848e+00,1.100849e+00
3.020328e+00,1.036361e+00,1.014948e+00,3,0,9.350394e-01,9.350395e-01
2.994095e+00,1.034509e+00,1.013994e+00,3,0,8.765799e-01,8.765802e-01
3.018471e+00,1.032574e+00,1.011848e+00,3,0,1.483488e+00,1.483489e+00
3.024109e+00,1.032050e+00,1.010895e+00,3,0,1.146398e+00,1.146398e+00
3.017823e+00,1.034578e+00,1.013994e+00,3,0,8.245377e-01,8.245377e-01
3.045679e+00,1.033211e+00,1.012087e+00,3,0,9.175513e-01,9.175517e-01
2.993519e+00,1.039707e+00,1.019001e+00,3,0,1.572601e+00,1.572602e+00
3.046015e+00,1.039303e+00,1.002073e+00,3,0,2.548007e+00,2.548009e+00
3.021503e+00,1.032886e+00,1.012087e+00,3,0,4.638469e+00,4.638472e+00
3.022259e+00,1.013723e+00,9.920597e-01,3,0,5.660154e+00,5.660156e+00
3.052077e+00,1.013135e+00,9.918213e-01,3,0,5.111812e+00,5.111812e+00
3.046505e+00,1.062518e+00,1.029968e+00,3,0,5.361427e+00,5.361429e+00
3.047768e+00,1.010089e+00,9.889603e-01,3,0,4.518845e+00,4.518845e+00
3.022608e+00,1.015670e+00,9.949207e-01,3,0,4.751985e+00,4.751987e+00
3.059249e+00,1.012837e+00,9.918213e-01,3,0,4.746635e+00,4.746636e+00
3.023628e+00,1.031747e+00,1.009941e+00,3,0,3.913832e+00,3.913833e+00
2.997759e+00,1.034522e+00,1.013994e+00,3,0,3.373796e+00,3.373796e+00
3.023736e+00,1.032950e+00,1.012087e+00,3,0,2.596153e+00,2.596153e+00
3.023458e+00,1.026051e+00,1.004934e+00,3,0,2.364516e+00,2.364516e+00
3.022641e+00,1.032707e+00,1.012087e+00,3,0,2.377071e+00,2.377072e+00
3.026560e+00,2.849235e+00,2.827883e+00,3,1,3.044290e+00,3.044577e+00
3.027337e+00,2.059314e+01,2.057195e+01,3,11,5.471064e+00,5.570654e+00
6.002556e+00,1.443895e+01,1.441693e+01,6,8,5.713008e+00,5.734039e+00
5.024230e+00,1.534333e+01,1.532102e+01,5,9,6.257296e+00,6.254156e+00
4.042907e+00,2.296652e+00,2.274990e+00,4,1,5.303524e+00,5.303524e+00
2.997351e+00,2.730729e+00,2.696991e+00,3,1,5.338698e+00,5.338985e+00
3.047657e+00,2.581295e+00,2.560139e+00,3,1,6.515689e+00,6.515692e+00
3.021782e+00,9.712970e-01,9.510517e-01,3,0,6.035014e+00,6.035015e+00
3.021862e+00,2.810566e+00,2.789021e+00,3,1,5.027705e+00,5.027733e+00
3.050128e+00,4.354062e+00,4.332781e+00,3,2,4.242569e+00,4.242801e+00
3.029280e+00,2.617945e+00,2.596855e+00,3,1,3.761766e+00,3.761767e+00
2.995111e+00,9.679860e-01,9.469986e-01,3,0,3.222006e+00,3.222006e+00
3.046016e+00,9.996550e-01,9.789467e-01,3,0,2.958957e+00,2.958957e+00
3.021635e+00,1.018989e+00,9.977818e-01,3,0,3.072665e+00,3.072666e+00
3.049207e+00,1.026046e+00,9.939671e-01,3,0,1.689578e+00,1.689577e+00
3.019737e+00,1.042704e+00,1.022100e+00,3,0,1.466483e+00,1.466484e+00
3.018994e+00,1.010720e+00,9.899139e-01,3,0,1.622638e+00,1.622639e+00
3.035108e+00,1.034780e+00,1.013041e+00,3,0,1.120965e+00,1.120965e+00
3.022285e+00,1.009944e+00,9.880066e-01,3,0,9.459925e-01,9.459927e-01
3.020872e+00,1.015295e+00,9.939671e-01,3,0,7.684231e-01,7.684234e-01
3.020951e+00,1.033903e+00,1.012802e+00,3,0,4.885171e-01,4.885172e-01
3.055183e+00,1.014871e+00,9.930134e-01,3,0,3.703970e-01,3.703977e-01
3.018824e+00,1.035550e+00,1.014948e+00,3,0,2.797296e-01,2.797300e-01
3.018013e+00,1.040898e+00,1.019955e+00,3,0,3.974023e-01,3.974027e-01
2.995319e+00,1.035728e+00,1.014948e+00,3,0,5.354262e-01,5.354266e-01
3.018920e+00,1.034041e+00,1.013041e+00,3,0,3.592152e-01,3.592153e-01
3.019568e+00,1.011452e+00,9.899139e-01,3,0,4.040960e-01,4.040965e-01
3.044395e+00,1.014004e+00,9.930134e-01,3,0,1.113163e+00,1.113164e+00
3.018886e+00,1.007097e+00,9.860992e-01,3,0,2.515820e+00,2.515822e+00
3.044847e+00,1.035126e+00,1.013994e+00,3,0,3.426457e+00,3.426459e+00
3.022709e+00,1.034407e+00,1.013041e+00,3,0,2.879434e+00,2.879434e+00
3.019223e+00,1.034084e+00,1.013041e+00,3,0,3.110359e+00,3.110360e+00
3.047967e+00,1.034855e+00,1.013994e+00,3,0,3.024906e+00,3.024907e+00
3.020708e+00,1.034020e+00,1.013041e+00,3,0,2.671659e+00,2.671659e+00
3.021212e+00,1.007250e+00,9.858608e-01,3,0,2.112219e+00,2.112219e+00
3.020293e+00,1.039859e+00,1.019001e+00,3,0,2.070677e+00,2.070677e+00
3.045142e+00,1.009399e+00,9.880066e-01,3,0,3.677847e+00,3.677850e+00
3.021134e+00,1.038711e+00,1.017809e+00,3,0,4.748284e+00,4.748286e+00
3.070514e+00,9.899067e+00,9.878159e+00,3,5,5.601877e+00,5.604116e+00
3.027679e+00,5.782002e+00,5.759954e+00,3,3,4.561991e+00,4.561990e+00
3.027155e+00,1.026343e+00,1.004934e+00,3,0,3.478403e+00,3.478403e+00
3.024328e+00,1.034661e+00,1.013041e+00,3,0,2.544122e+00,2.544122e+00
3.033382e+00,1.034062e+00,1.013041e+00,3,0,2.076842e+00,2.076842e+00
3.047627e+00,1.038498e+00,1.005173e+00,3,0,2.759520e+00,2.759522e+00
3.045727e+00,1.034367e+00,1.012802e+00,3,0,2.751328e+00,2.751329e+00
3.063851e+00,1.006791e+00,9.860992e-01,3,0,2.069404e+00,2.069404e+00
3.050491e+00,1.026683e+00,1.006126e+00,3,0,2.024263e+00,2.024264e+00
3.021357e+00,1.047261e+00,1.025915e+00,3,0,2.326176e+00,2.326177e+00
2.973783e+00,1.008642e+00,9.880066e-01,3,0,2.414221e+00,2.414222e+00
2.971413e+00,1.013946e+00,9.930134e-01,3,0,2.956549e+00,2.956551e+00
2.971647e+00,1.007648e+00,9.860992e-01,3,0,2.350925e+00,2.350925e+00
2.971386e+00,1.004219e+00,9.839535e-01,3,0,3.067180e+00,3.067182e+00
2.972510e+00,1.018540e+00,9.980202e-01,3,0,3.023788e+00,3.023789e+00
2.972512e+00,1.011714e+00,9.911060e-01,3,0,2.527912e+00,2.527912e+00
2.993792e+00,1.008087e+00,9.870529e-01,3,0,2.091118e+00,2.091118e+00
3.050627e+00,1.031093e+00,1.009941e+00,3,0,2.201044e+00,2.201044e+00
2.971349e+00,1.167305e+00,1.142979e+00,3,0,2.211135e+00,2.211135e+00
3.002922e+00,1.166097e+00,1.142979e+00,3,0,1.630545e+00,1.630544e+00
2.969604e+00,1.151201e+00,1.127005e+00,3,0,1.629960e+00,1.629961e+00
2.968968e+00,1.056378e+00,1.034975e+00,3,0,1.065575e+00,1.065575e+00
2.965691e+00,1.028980e+00,1.008034e+00,3,0,8.781366e-01,8.781368e-01
2.966178e+00,1.016537e+00,9.961128e-01,3,0,5.657122e-01,5.657124e-01
2.967281e+00,1.010197e+00,9.899139e-01,3,0,3.838167e-01,3.838169e-01
2.963939e+00,1.011091e+00,9.908676e-01,3,0,2.168859e-01,2.168859e-01
2.963556e+00,1.010686e+00,9.899139e-01,3,0,4.077928e-01,4.077935e-01
2.963700e+00,1.008648e+00,9.870529e-01,3,0,2.298410e-01,2.298411e-01
2.991513e+00,1.005827e+00,9.849072e-01,3,0,2.219914e-01,2.219917e-01
2.966783e+00,1.012434e+00,9.911060e-01,3,0,1.341587e-01,1.341589e-01
2.964858e+00,1.008448e+00,9.880066e-01,3,0,1.470553e-01,1.470554e-01
2.991490e+00,1.012212e+00,9.920597e-01,3,0,1.317567e-01,1.317568e-01
2.964244e+00,1.020006e+00,9.989738e-01,3,0,3.249662e-01,3.249666e-01
2.966077e+00,1.015175e+00,9.949207e-01,3,0,2.494327e-01,2.494329e-01
2.965718e+00,1.008285e+00,9.870529e-01,3,0,2.719721e-01,2.719728e-01
2.960015e+00,1.016160e+00,9.958744e-01,3,0,5.470060e-01,5.470065e-01
2.964864e+00,1.048656e+00,1.022816e+00,3,0,2.990695e-01,2.990695e-01
2.966442e+00,1.007850e+00,9.880066e-01,3,0,4.258675e-01,4.258677e-01
2.964949e+00,1.014739e+00,9.930134e-01,3,0,4.303105e-01,4.303107e-01
2.966076e+00,1.014818e+00,9.939671e-01,3,0,7.248234e-01,7.248241e-01
2.993059e+00,1.020270e+00,9.989738e-01,3,0,5.522407e-01,5.522407e-01
2.967409e+00,1.022978e+00,1.001835e+00,3,0,3.638420e-01,3.638421e-01
2.969439e+00,1.014654e+00,9.939671e-01,3,0,2.660242e-01,2.660245e-01
2.966749e+00,1.017139e+00,9.970665e-01,3,0,3.563769e-01,3.563773e-01
2.965214e+00,1.020783e+00,9.999275e-01,3,0,3.281879e-01,3.281880e-01
2.964987e+00,1.017610e+00,9.968281e-01,3,0,2.648641e-01,2.648642e-01
2.967903e+00,1.017500e+00,9.961128e-01,3,0,4.637969e-01,4.637973e-01
2.968966e+00,1.021693e+00,1.000166e+00,3,0,3.516938e-01,3.516940e-01
2.965307e+00,1.027499e+00,1.006842e+00,3,0,5.227981e-01,5.227985e-01
2.965244e+00,1.026017e+00,1.004934e+00,3,0,9.247089e-01,9.247096e-01
2.967726e+00,1.015901e+00,9.949207e-01,3,0,8.107849e-01,8.107852e-01
2.960756e+00,1.011298e+00,9.911060e-01,3,0,7.181153e-01,7.181155e-01
3.030187e+00,1.008773e+00,9.829998e-01,3,0,1.643258e+00,1.643259e+00
2.967328e+00,1.027511e+00,1.007080e+00,3,0,1.994016e+00,1.994016e+00
2.971139e+00,1.023958e+00,1.003027e+00,3,0,1.134334e+00,1.134333e+00
2.966923e+00,1.013186e+00,9.920597e-01,3,0,8.482996e-01,8.482996e-01
2.966923e+00,1.013619e+00,9.930134e-01,3,0,6.537287e-01,6.537289e-01
2.963639e+00,1.004746e+00,9.851456e-01,3,0,4.364268e-01,4.364269e-01
2.981189e+00,1.006102e+00,9.849072e-01,3,0,3.864400e-01,3.864401e-01
2.964019e+00,1.016179e+00,9.951591e-01,3,0,5.548974e-01,5.548977e-01
2.967224e+00,1.015909e+00,9.949207e-01,3,0,5.307643e-01,5.307644e-01
2.968101e+00,1.027905e+00,1.006842e+00,3,0,2.639972e-01,2.639975e-01
2.962468e+00,1.010710e+00,9.901524e-01,3,0,7.177021e-01,7.177030e-01
2.966090e+00,1.011956e+00,9.920597e-01,3,0,3.984590e-01,3.984590e-01
2.992522e+00,1.021084e+00,9.999275e-01,3,0,3.519681e-01,3.519683e-01
2.975213e+00,1.016442e+00,9.949207e-01,3,0,4.923570e-01,4.923575e-01
2.968710e+00,1.015960e+00,9.949207e-01,3,0,4.030472e-01,4.030473e-01
2.960497e+00,1.021371e+00,9.999275e-01,3,0,4.731872e-01,4.731874e-01
2.963922e+00,1.016325e+00,9.961128e-01,3,0,6.026992e-01,6.026996e-01
2.967588e+00,1.018722e+00,9.980202e-01,3,0,4.756016e-01,4.756019e-01
2.966097e+00,1.012767e+00,9.918213e-01,3,0,4.945690e-01,4.945695e-01
2.966849e+00,1.006974e+00,9.858608e-01,3,0,6.169640e-01,6.169644e-01
2.967344e+00,1.015676e+00,9.951591e-01,3,0,7.574958e-01,7.574963e-01
2.965750e+00,1.014407e+00,9.942055e-01,3,0,1.135819e+00,1.135819e+00
2.975174e+00,1.016032e+00,9.961128e-01,3,0,7.866709e-01,7.866709e-01
2.995811e+00,1.010628e+00,9.889603e-01,3,0,7.566146e-01,7.566154e-01
3.017649e+00,1.010469e+00,9.889603e-01,3,0,7.321448e-01,7.321450e-01
2.975102e+00,1.015174e+00,9.939671e-01,3,0,7.926653e-01,7.926655e-01
2.964565e+00,1.012267e+00,9.920597e-01,3,0,6.555934e-01,6.555935e-01
2.967048e+00,1.016402e+00,9.961128e-01,3,0,1.115601e+00,1.115602e+00
2.968239e+00,1.020208e+00,9.999275e-01,3,0,8.292406e-01,8.292407e-01
2.993885e+00,1.004373e+00,9.829998e-01,3,0,7.751496e-01,7.751498e-01
2.967583e+00,1.014910e+00,9.939671e-01,3,0,7.596657e-01,7.596660e-01
2.965275e+00,1.018377e+00,9.980202e-01,3,0,6.878776e-01,6.878779e-01
2.965589e+00,1.009780e+00,9.891987e-01,3,0,4.928153e-01,4.928154e-01
2.964544e+00,1.012358e+00,9.920597e-01,3,0,6.019904e-01,6.019908e-01
2.967313e+00,1.021160e+00,9.999275e-01,3,0,6.788456e-01,6.788460e-01
2.966934e+00,1.014612e+00,9.939671e-01,3,0,4.668361e-01,4.668362e-01
2.993804e+00,1.008603e+00,9.880066e-01,3,0,8.782913e-01,8.782923e-01
2.967850e+00,1.019772e+00,9.992123e-01,3,0,6.180956e-01,6.180957e-01
2.965133e+00,1.015671e+00,9.951591e-01,3,0,5.652570e-01,5.652573e-01
2.968351e+00,1.018597e+00,9.980202e-01,3,0,5.058808e-01,5.058809e-01
2.970288e+00,1.016341e+00,9.951591e-01,3,0,3.970669e-01,3.970673e-01
2.968235e+00,1.011569e+00,9.908676e-01,3,0,2.920336e-01,2.920338e-01
2.964147e+00,1.011082e+00,9.911060e-01,3,0,5.797283e-01,5.797288e-01
2.967171e+00,1.012487e+00,9.911060e-01,3,0,4.997495e-01,4.997497e-01
2.968825e+00,1.011629e+00,9.911060e-01,3,0,5.083714e-01,5.083718e-01
2.965124e+00,1.015671e+00,9.949207e-01,3,0,4.754077e-01,4.754079e-01
2.965753e+00,1.011212e+00,9.911060e-01,3,0,3.696140e-01,3.696143e-01
2.966755e+00,1.006743e+00,9.858608e-01,3,0,4.437754e-01,4.437756e-01
2.991254e+00,1.016712e+00,9.949207e-01,3,0,3.442545e-01,3.442546e-01
2.965758e+00,1.010899e+00,9.899139e-01,3,0,1.454145e+00,1.454147e+00
2.969132e+00,1.011298e+00,9.899139e-01,3,0,3.218432e+00,3.218435e+00
2.968338e+00,1.012197e+00,9.908676e-01,3,0,2.417712e+00,2.417712e+00
2.969580e+00,1.013750e+00,9.927750e-01,3,0,1.723471e+00,1.723471e+00
2.968149e+00,1.015476e+00,9.949207e-01,3,0,1.264275e+00,1.264275e+00
2.967681e+00,1.014795e+00,9.930134e-01,3,0,1.366921e+00,1.366922e+00
2.970288e+00,1.013226e+00,9.920597e-01,3,0,1.080434e+00,1.080434e+00
2.967832e+00,1.015386e+00,9.949207e-01,3,0,1.043215e+00,1.043215e+00
2.967782e+00,1.017468e+00,9.970665e-01,3,0,1.256931e+00,1.256931e+00
2.966394e+00,1.016043e+00,9.958744e-01,3,0,1.434086e+00,1.434087e+00
2.960029e+00,1.013142e+00,9.930134e-01,3,0,1.312171e+00,1.312171e+00
2.992182e+00,1.023251e+00,9.939671e-01,3,0,1.397984e+00,1.397985e+00
2.969102e+00,1.007963e+00,9.870529e-01,3,0,1.863006e+00,1.863007e+00
2.971085e+00,1.008596e+00,9.880066e-01,3,0,1.373502e+00,1.373502e+00
2.974619e+00,9.887120e-01,9.670258e-01,3,0,9.297251e-01,9.297250e-01
2.965623e+00,9.922880e-01,9.720325e-01,3,0,5.499698e-01,5.499696e-01
2.965738e+00,1.001530e+00,9.810925e-01,3,0,3.668125e-01,3.668125e-01
2.963914e+00,1.007035e+00,9.860992e-01,3,0,2.877346e-01,2.877347e-01
2.964412e+00,1.010820e+00,9.901524e-01,3,0,3.947817e-01,3.947821e-01
2.968477e+00,1.019632e+00,9.989738e-01,3,0,2.789109e-01,2.789109e-01
2.966072e+00,1.013272e+00,9.930134e-01,3,0,4.675784e-01,4.675789e-01
2.967139e+00,1.008738e+00,9.880066e-01,3,0,4.970872e-01,4.970874e-01
2.967098e+00,1.009941e+00,9.889603e-01,3,0,4.618474e-01,4.618475e-01
2.993172e+00,1.018206e+00,9.970665e-01,3,0,5.953706e-01,5.953712e-01
2.966551e+00,1.013108e+00,9.920597e-01,3,0,3.315650e-01,3.315650e-01
2.968909e+00,1.016857e+00,9.961128e-01,3,0,2.690294e-01,2.690295e-01
2.970641e+00,1.016266e+00,9.949207e-01,3,0,1.439723e+00,1.439726e+00
2.963605e+00,1.011635e+00,9.901524e-01,3,0,1.497784e+00,1.497784e+00
2.966378e+00,1.021558e+00,9.920597e-01,3,0,7.278898e-01,7.278895e-01
2.967904e+00,1.014204e+00,9.930134e-01,3,0,7.181023e-01,7.181026e-01
2.969292e+00,1.041887e+00,1.020908e+00,3,0,6.287865e-01,6.287867e-01
2.978688e+00,1.013269e+00,9.920597e-01,3,0,6.738955e-01,6.738957e-01
2.968722e+00,1.022731e+00,1.001835e+00,3,0,3.442819e-01,3.442819e-01
2.964281e+00,1.013014e+00,9.920597e-01,3,0,2.891117e-01,2.891119e-01
2.965290e+00,1.014595e+00,9.930134e-01,3,0,5.501594e-01,5.501600e-01
2.989899e+00,1.016535e+00,9.958744e-01,3,0,6.853903e-01,6.853907e-01
2.966386e+00,1.012779e+00,9.911060e-01,3,0,8.436223e-01,8.436228e-01
2.968243e+00,1.005815e+00,9.849072e-01,3,0,5.492941e-01,5.492942e-01
2.962544e+00,1.012814e+00,9.920597e-01,3,0,5.278047e-01,5.278050e-01
2.968836e+00,1.006130e+00,9.860992e-01,3,0,7.921349e-01,7.921356e-01
2.969445e+00,1.190758e+00,1.168966e+00,3,0,1.174980e+00,1.174981e+00
2.970914e+00,1.030392e+00,1.008987e+00,3,0,1.302907e+00,1.302907e+00
2.966638e+00,1.014899e+00,9.939671e-01,3,0,1.817128e+00,1.817129e+00
2.968548e+00,1.016917e+00,9.961128e-01,3,0,1.715595e+00,1.715595e+00
2.969409e+00,1.015185e+00,9.939671e-01,3,0,2.668152e+00,2.668154e+00
2.970133e+00,1.015389e+00,9.939671e-01,3,0,1.115506e+00,1.115505e+00
2.967145e+00,1.015202e+00,9.949207e-01,3,0,9.496710e-01,9.496711e-01
2.992930e+00,1.012840e+00,9.920597e-01,3,0,1.501074e+00,1.501075e+00
2.966843e+00,1.020746e+00,9.992123e-01,3,0,7.347723e-01,7.347720e-01
2.970764e+00,1.023167e+00,1.003027e+00,3,0,6.039010e-01,6.039011e-01
2.968868e+00,1.016531e+00,9.958744e-01,3,0,4.902779e-01,4.902781e-01
2.967276e+00,1.019574e+00,9.989738e-01,3,0,3.288281e-01,3.288281e-01
2.968530e+00,1.007098e+00,9.858608e-01,3,0,6.713494e-01,6.713501e-01
2.967901e+00,9.975380e-01,9.770393e-01,3,0,4.977143e-01,4.977144e-01
2.967238e+00,1.012656e+00,9.920597e-01,3,0,2.836721e-01,2.836721e-01
2.968002e+00,1.012894e+00,9.918213e-01,3,0,6.883867e-01,6.883877e-01
2.968310e+00,1.013653e+00,9.930134e-01,3,0,4.772300e-01,4.772300e-01
2.970137e+00,1.011306e+00,9.908676e-01,3,0,2.511177e-01,2.511178e-01
2.967795e+00,1.013297e+00,9.930134e-01,3,0,2.738165e-01,2.738166e-01
2.990398e+00,1.017798e+00,9.970665e-01,3,0,3.426204e-01,3.426207e-01
2.966388e+00,1.018784e+00,9.980202e-01,3,0,5.175608e-01,5.175612e-01
2.967026e+00,1.015346e+00,9.949207e-01,3,0,1.085640e+00,1.085641e+00
2.970080e+00,1.011411e+00,9.899139e-01,3,0,7.889600e-01,7.889614e-01
2.965680e+00,1.013676e+00,9.930134e-01,3,0,1.428627e+00,1.428629e+00
2.968373e+00,1.015215e+00,9.949207e-01,3,0,6.237792e-01,6.237789e-01
2.969336e+00,1.010641e+00,9.901524e-01,3,0,4.968999e-01,4.969001e-01
2.967777e+00,1.012809e+00,9.920597e-01,3,0,3.323366e-01,3.323366e-01
2.968022e+00,1.014193e+00,9.930134e-01,3,0,3.054060e-01,3.054063e-01
2.965645e+00,1.011088e+00,9.899139e-01,3,0,8.581271e-01,8.581284e-01
2.971299e+00,1.008810e+00,9.870529e-01,3,0,8.560416e-01,8.560419e-01
2.962990e+00,1.009404e+00,9.889603e-01,3,0,1.314359e+00,1.314360e+00
2.969992e+00,1.016725e+00,9.908676e-01,3,0,1.349009e+00,1.349010e+00
2.971383e+00,1.011158e+00,9.901524e-01,3,0,1.548528e+00,1.548528e+00
2.970479e+00,1.013208e+00,9.920597e-01,3,0,2.537457e+00,2.537458e+00
2.970474e+00,1.011379e+00,9.911060e-01,3,0,2.841285e+00,2.841286e+00
2.970957e+00,1.014081e+00,9.930134e-01,3,0,2.122477e+00,2.122477e+00
2.969793e+00,1.010836e+00,9.901524e-01,3,0,1.906988e+00,1.906988e+00
2.970694e+00,1.011712e+00,9.899139e-01,3,0,2.680225e+00,2.680227e+00
2.971269e+00,1.005492e+00,9.849072e-01,3,0,1.820728e+00,1.820728e+00
2.997050e+00,1.008306e+00,9.868145e-01,3,0,1.509573e+00,1.509573e+00
2.969126e+00,9.794840e-01,9.589195e-01,3,0,1.527033e+00,1.527034e+00
2.971074e+00,9.841920e-01,9.639263e-01,3,0,1.650989e+00,1.650989e+00
2.967637e+00,9.998180e-01,9.789467e-01,3,0,1.808075e+00,1.808075e+00
2.971469e+00,9.674010e-01,9.469986e-01,3,0,1.332615e+00,1.332615e+00
2.968241e+00,9.875880e-01,9.679794e-01,3,0,1.278934e+00,1.278934e+00
2.968711e+00,1.006995e+00,9.870529e-01,3,0,1.640310e+00,1.640311e+00
2.968577e+00,1.012672e+00,9.930134e-01,3,0,1.799944e+00,1.799945e+00
2.973014e+00,1.013798e+00,9.930134e-01,3,0,1.140216e+00,1.140216e+00
2.965877e+00,1.006555e+00,9.860992e-01,3,0,1.096292e+00,1.096292e+00
2.967689e+00,1.011789e+00,9.908676e-01,3,0,6.438808e-01,6.438808e-01
2.966981e+00,1.012440e+00,9.920597e-01,3,0,6.245242e-01,6.245246e-01

