3.704980e+00,3.539525e+00,2,2,0.000000e+00,0.000000e+00
5.528863e+00,5.306870e+00,3,3,4.087661e-01,4.087661e-01
5.545042e+00,5.282890e+00,3,3,2.504695e+00,2.504694e+00
5.553205e+00,5.283829e+00,3,3,1.309156e+00,1.309156e+00
5.541548e+00,5.307044e+00,3,3,4.079359e+00,4.079357e+00
5.538630e+00,5.286113e+00,3,3,6.878809e+00,6.878843e+00
5.539269e+00,7.036954e+00,3,4,7.776623e+00,7.776626e+00
5.545065e+00,5.279132e+00,3,3,1.227831e+01,1.227910e+01
9.229697e+00,7.039228e+00,5,4,7.605678e+00,7.605686e+00
5.545073e+00,5.305914e+00,3,3,9.055331e+00,9.055383e+00
5.544445e+00,5.278442e+00,3,3,8.287322e+00,8.287340e+00
5.547596e+00,5.293992e+00,3,3,7.254214e+00,7.254223e+00
5.544769e+00,5.298789e+00,3,3,4.800588e+00,4.800590e+00
5.540774e+00,5.312401e+00,3,3,5.297160e+00,5.297159e+00
5.560920e+00,5.280486e+00,3,3,5.265046e+00,5.265045e+00
5.538305e+00,5.294062e+00,3,3,6.270095e+00,6.270093e+00
5.542602e+00,5.278835e+00,3,3,6.517665e+00,6.517665e+00
5.547494e+00,5.277362e+00,3,3,6.387956e+00,6.387956e+00
5.541621e+00,5.277559e+00,3,3,6.646388e+00,6.646387e+00
5.538182e+00,5.282233e+00,3,3,5.534216e+00,5.534217e+00
5.540014e+00,5.311064e+00,3,3,4.580708e+00,4.580708e+00
5.557722e+00,5.279916e+00,3,3,3.575494e+00,3.575494e+00
5.540615e+00,5.280885e+00,3,3,4.200307e+00,4.200305e+00
5.542850e+00,5.311365e+00,3,3,3.705817e+00,3.705816e+00
5.550476e+00,5.348272e+00,3,3,3.807167e+00,3.807166e+00
5.582681e+00,5.330477e+00,3,3,6.360196e+00,6.360193e+00
5.575189e+00,5.345849e+00,3,3,4.714039e+00,4.714040e+00
5.538757e+00,5.310181e+00,3,3,3.440040e+00,3.440040e+00
5.589277e+00,5.335490e+00,3,3,5.724549e+00,5.724546e+00
5.617803e+00,5.309857e+00,3,3,4.492685e+00,4.492686e+00
5.538146e+00,5.312366e+00,3,3,2.754647e+00,2.754646e+00
5.548195e+00,5.281567e+00,3,3,4.189859e+00,4.189857e+00
5.546815e+00,5.277417e+00,3,3,2.257506e+00,2.257507e+00
5.543306e+00,5.281049e+00,3,3,1.849664e+00,1.849664e+00
5.565975e+00,5.278807e+00,3,3,3.316973e+00,3.316972e+00
5.539731e+00,5.281865e+00,3,3,1.570906e+00,1.570906e+00
5.553270e+00,5.288991e+00,3,3,2.128037e+00,2.128036e+00
5.538132e+00,5.289722e+00,3,3,1.821784e+00,1.821783e+00
5.567772e+00,5.305000e+00,3,3,2.769307e+00,2.769306e+00
5.542686e+00,5.282407e+00,3,3,2.893553e+00,2.893552e+00
5.544707e+00,5.278823e+00,3,3,3.748850e+00,3.748849e+00
5.554193e+00,5.306281e+00,3,3,6.154654e+00,6.154652e+00
5.538626e+00,5.282834e+00,3,3,1.041084e+01,1.041013e+01
7.405966e+00,7.071909e+00,4,4,6.886053e+00,6.886133e+00
5.543085e+00,5.305149e+00,3,3,2.788647e+00,2.788651e+00
5.550427e+00,5.284539e+00,3,3,2.971390e+00,2.971390e+00
5.537549e+00,5.284137e+00,3,3,3.274975e+00,3.274975e+00
5.564082e+00,5.314461e+00,3,3,3.253645e+00,3.253645e+00
5.540676e+00,5.278404e+00,3,3,3.018839e+00,3.018839e+00
5.541760e+00,5.279427e+00,3,3,2.772937e+00,2.772937e+00
5.545130e+00,5.279262e+00,3,3,2.388740e+00,2.388740e+00
5.545003e+00,5.310099e+00,3,3,2.170193e+00,2.170192e+00
5.555590e+00,5.276261e+00,3,3,1.616611e+00,1.616611e+00
5.539128e+00,5.283054e+00,3,3,1.962494e+00,1.962493e+00
5.540585e+00,5.277191e+00,3,3,1.712973e+00,1.712973e+00
5.545732e+00,5.278654e+00,3,3,3.890135e+00,3.890133e+00
5.542462e+00,5.277798e+00,3,3,4.548388e+00,4.548387e+00
5.542433e+00,5.279182e+00,3,3,7.122569e+00,7.122567e+00
5.561631e+00,5.286068e+00,3,3,8.185076e+00,8.185137e+00
5.539192e+00,5.281703e+00,3,3,4.833564e+00,4.833575e+00
5.537410e+00,5.298547e+00,3,3,5.945172e+00,5.945212e+00
5.541238e+00,5.278443e+00,3,3,4.006300e+00,4.006303e+00
5.545027e+00,5.286180e+00,3,3,3.948666e+00,3.948666e+00
5.543837e+00,5.280972e+00,3,3,3.580226e+00,3.580226e+00
5.544311e+00,5.279116e+00,3,3,3.773123e+00,3.773123e+00
5.539199e+00,5.303250e+00,3,3,3.796249e+00,3.796249e+00
5.544009e+00,5.349458e+00,3,3,5.003918e+00,5.003915e+00
5.545064e+00,5.303252e+00,3,3,3.425633e+00,3.425633e+00
5.547573e+00,5.280915e+00,3,3,5.952866e+00,5.952863e+00
5.541646e+00,5.307011e+00,3,3,3.152552e+00,3.152552e+00
5.555054e+00,5.278527e+00,3,3,1.577541e+00,1.577541e+00
5.542478e+00,5.277786e+00,3,3,2.291311e+00,2.291310e+00
5.523964e+00,5.276411e+00,3,3,3.559311e+00,3.559310e+00
5.510852e+00,5.248168e+00,3,3,3.107568e+00,3.107567e+00
5.518840e+00,5.250387e+00,3,3,3.008507e+00,3.008506e+00
5.517697e+00,5.248190e+00,3,3,5.407372e+00,5.407370e+00
5.513057e+00,5.248847e+00,3,3,7.877126e+00,7.877279e+00
5.509907e+00,5.253392e+00,3,3,7.360203e+00,7.362843e+00
7.341335e+00,6.996903e+00,4,4,5.809914e+00,5.809914e+00
5.521375e+00,5.250897e+00,3,3,4.927896e+00,4.927897e+00
5.510484e+00,5.269926e+00,3,3,3.608671e+00,3.608672e+00
5.519712e+00,5.250570e+00,3,3,4.732200e+00,4.732198e+00
5.516181e+00,5.247080e+00,3,3,1.047608e+01,1.047602e+01
1.101324e+01,1.052622e+01,6,6,9.670575e+00,9.668290e+00
1.100895e+01,1.048763e+01,6,6,7.771657e+00,7.762980e+00
1.100573e+01,1.048801e+01,6,6,1.282742e+01,1.283199e+01
1.100712e+01,1.048272e+01,6,6,9.206446e+00,9.179859e+00
7.339483e+00,6.992445e+00,4,4,4.498974e+00,4.498976e+00
5.516718e+00,5.251207e+00,3,3,3.891306e+00,3.891307e+00
5.514032e+00,5.267914e+00,3,3,3.576416e+00,3.576415e+00
5.547618e+00,5.277879e+00,3,3,2.766291e+00,2.766291e+00
5.510791e+00,5.251928e+00,3,3,5.856835e+00,5.856830e+00
5.510331e+00,5.276493e+00,3,3,9.264242e+00,9.264282e+00
5.518023e+00,6.997604e+00,3,4,1.524391e+01,1.524400e+01
1.100380e+01,1.048549e+01,6,6,1.709453e+01,1.709361e+01
1.283638e+01,8.738972e+00,7,5,1.254686e+01,1.254488e+01
5.514753e+00,5.248007e+00,3,3,7.667278e+00,7.667253e+00
5.507239e+00,5.252487e+00,3,3,6.965102e+00,6.965102e+00
5.510560e+00,5.249431e+00,3,3,7.166302e+00,7.166302e+00
5.518769e+00,5.250467e+00,3,3,9.719563e+00,9.719403e+00
1.100850e+01,1.048992e+01,6,6,9.158605e+00,9.159235e+00
1.100101e+01,1.048558e+01,6,6,9.820621e+00,9.817281e+00
9.170218e+00,8.742182e+00,5,5,9.682207e+00,9.683636e+00
1.100540e+01,1.048765e+01,6,6,1.498778e+01,1.498623e+01
9.167415e+00,8.731221e+00,5,5,8.109662e+00,8.115862e+00
7.345423e+00,6.993018e+00,4,4,5.497557e+00,5.497611e+00
5.512884e+00,5.250870e+00,3,3,3.881302e+00,3.881304e+00
5.510855e+00,5.247136e+00,3,3,3.490087e+00,3.490087e+00
5.516141e+00,5.249174e+00,3,3,4.020144e+00,4.020142e+00
5.522637e+00,5.261425e+00,3,3,3.636317e+00,3.636316e+00
5.509468e+00,5.251948e+00,3,3,2.694789e+00,2.694789e+00
5.510469e+00,5.253446e+00,3,3,3.848003e+00,3.848000e+00
5.510654e+00,5.249830e+00,3,3,4.156236e+00,4.156235e+00
5.517509e+00,5.248319e+00,3,3,6.648973e+00,6.648986e+00
7.349949e+00,5.254249e+00,4,3,1.161815e+01,1.162276e+01
1.100365e+01,8.736723e+00,6,5,6.885643e+00,6.865090e+00
1.100730e+01,1.048531e+01,6,6,5.711663e+00,5.702684e+00
1.102394e+01,6.993360e+00,6,4,6.869261e+00,6.867151e+00
7.343175e+00,6.994177e+00,4,4,4.561661e+00,4.561661e+00
5.514976e+00,5.247489e+00,3,3,3.630131e+00,3.630132e+00
5.515197e+00,5.246284e+00,3,3,3.135753e+00,3.135753e+00
5.510765e+00,5.251001e+00,3,3,2.293072e+00,2.293072e+00
5.508415e+00,5.247601e+00,3,3,2.265456e+00,2.265455e+00
5.513226e+00,5.249523e+00,3,3,1.983507e+00,1.983507e+00
5.514215e+00,5.248553e+00,3,3,2.628639e+00,2.628639e+00
5.510050e+00,5.251611e+00,3,3,2.059046e+00,2.059046e+00
5.509962e+00,5.247664e+00,3,3,4.168020e+00,4.168018e+00
5.515863e+00,5.247286e+00,3,3,1.389332e+00,1.389333e+00
5.513202e+00,5.247589e+00,3,3,1.634399e+00,1.634398e+00
5.544041e+00,5.277619e+00,3,3,2.099869e+00,2.099869e+00
5.538291e+00,5.261954e+00,3,3,2.682249e+00,2.682249e+00
5.510546e+00,5.247285e+00,3,3,1.701003e+00,1.701002e+00
5.514771e+00,5.248019e+00,3,3,1.507741e+00,1.507741e+00
5.517061e+00,5.247135e+00,3,3,2.154891e+00,2.154890e+00
5.514462e+00,5.245990e+00,3,3,3.601919e+00,3.601917e+00
5.517587e+00,5.249699e+00,3,3,3.986972e+00,3.986971e+00
5.510456e+00,5.246802e+00,3,3,2.375940e+00,2.375940e+00
5.515573e+00,5.245406e+00,3,3,2.953981e+00,2.953980e+00
5.519663e+00,5.245659e+00,3,3,1.962108e+00,1.962107e+00
5.511287e+00,5.251804e+00,3,3,1.913176e+00,1.913176e+00
5.512829e+00,5.245910e+00,3,3,1.280660e+00,1.280660e+00
5.513437e+00,5.245466e+00,3,3,1.362405e+00,1.362404e+00
5.515997e+00,5.248616e+00,3,3,2.552948e+00,2.552947e+00
5.509682e+00,5.252017e+00,3,3,1.656187e+00,1.656187e+00
5.543965e+00,5.263785e+00,3,3,2.033765e+00,2.033764e+00
5.510839e+00,5.247285e+00,3,3,2.853264e+00,2.853261e+00
5.517661e+00,5.246112e+00,3,3,1.784270e+00,1.784270e+00
5.533045e+00,5.250042e+00,3,3,2.173741e+00,2.173740e+00
5.508426e+00,5.254442e+00,3,3,3.819935e+00,3.819934e+00
5.511196e+00,5.251623e+00,3,3,2.454217e+00,2.454217e+00
5.550944e+00,5.252014e+00,3,3,3.212566e+00,3.212566e+00
5.572689e+00,5.300404e+00,3,3,2.841800e+00,2.841801e+00
5.567085e+00,5.276418e+00,3,3,2.330512e+00,2.330512e+00
5.544634e+00,5.276342e+00,3,3,1.598284e+00,1.598283e+00
5.511508e+00,5.260175e+00,3,3,3.321471e+00,3.321467e+00
5.514173e+00,5.250079e+00,3,3,1.892429e+00,1.892429e+00
5.515036e+00,5.250290e+00,3,3,2.219421e+00,2.219420e+00
5.515022e+00,5.248032e+00,3,3,2.537547e+00,2.537547e+00
5.538328e+00,5.259394e+00,3,3,1.815944e+00,1.815944e+00
5.510257e+00,5.253143e+00,3,3,2.031591e+00,2.031591e+00
5.514621e+00,5.247854e+00,3,3,2.855317e+00,2.855316e+00
5.515045e+00,5.251169e+00,3,3,1.394708e+00,1.394708e+00
5.541805e+00,5.249165e+00,3,3,1.425076e+00,1.425076e+00
5.536905e+00,5.253141e+00,3,3,1.046359e+00,1.046359e+00
5.508427e+00,5.250379e+00,3,3,1.498502e+00,1.498502e+00
5.514784e+00,5.247939e+00,3,3,1.000646e+00,1.000646e+00
5.513840e+00,5.248931e+00,3,3,1.734549e+00,1.734548e+00
5.514923e+00,5.274130e+00,3,3,1.265318e+00,1.265316e+00
5.509028e+00,5.250689e+00,3,3,8.045737e-01,8.045736e-01
5.510929e+00,5.247778e+00,3,3,1.165436e+00,1.165435e+00
5.551042e+00,5.248939e+00,3,3,1.590682e+00,1.590681e+00
5.515007e+00,5.273015e+00,3,3,2.335114e+00,2.335114e+00
5.541396e+00,5.248275e+00,3,3,5.933914e+00,5.933912e+00
7.349676e+00,5.249399e+00,4,3,1.266738e+01,1.267292e+01
1.103933e+01,1.054333e+01,6,6,8.407648e+00,8.413907e+00
7.371896e+00,7.044816e+00,4,4,6.036286e+00,6.036287e+00
5.514244e+00,5.275040e+00,3,3,5.561379e+00,5.561379e+00
5.514823e+00,5.249430e+00,3,3,7.123585e+00,7.123584e+00
5.509175e+00,5.255995e+00,3,3,9.716064e+00,9.715986e+00
7.391470e+00,7.020236e+00,4,4,5.271212e+00,5.271214e+00
5.515290e+00,5.247504e+00,3,3,8.814879e+00,8.815098e+00
7.347477e+00,6.994603e+00,4,4,6.280269e+00,6.280270e+00
5.514480e+00,5.247397e+00,3,3,6.532963e+00,6.532969e+00
5.516778e+00,5.250816e+00,3,3,4.559675e+00,4.559675e+00
5.536042e+00,5.253476e+00,3,3,5.075760e+00,5.075759e+00
5.509095e+00,5.247178e+00,3,3,4.381486e+00,4.381486e+00
5.514587e+00,5.248189e+00,3,3,5.087322e+00,5.087321e+00
5.516057e+00,5.250370e+00,3,3,4.161200e+00,4.161200e+00
5.539558e+00,5.300506e+00,3,3,3.434790e+00,3.434790e+00
5.513094e+00,5.251632e+00,3,3,4.432481e+00,4.432480e+00
5.513979e+00,5.249819e+00,3,3,6.068026e+00,6.068024e+00
5.523992e+00,5.248078e+00,3,3,4.515264e+00,4.515265e+00
5.516634e+00,5.248464e+00,3,3,2.572835e+00,2.572835e+00
5.537640e+00,5.251527e+00,3,3,2.444018e+00,2.444017e+00
5.545689e+00,5.254046e+00,3,3,2.747460e+00,2.747459e+00
5.508912e+00,5.246308e+00,3,3,2.025137e+00,2.025137e+00
5.567960e+00,5.247522e+00,3,3,1.674369e+00,1.674369e+00
5.519087e+00,5.249054e+00,3,3,1.566185e+00,1.566184e+00
5.510348e+00,5.251802e+00,3,3,1.879681e+00,1.879680e+00
5.510480e+00,5.247150e+00,3,3,1.289448e+00,1.289447e+00
5.516456e+00,5.249898e+00,3,3,1.523360e+00,1.523359e+00
5.521743e+00,5.249403e+00,3,3,1.399685e+00,1.399685e+00
5.549810e+00,5.248332e+00,3,3,1.312094e+00,1.312094e+00
5.510797e+00,5.253143e+00,3,3,2.001976e+00,2.001975e+00
5.509909e+00,5.248964e+00,3,3,1.200496e+00,1.200495e+00
5.513245e+00,5.248702e+00,3,3,1.422310e+00,1.422310e+00
5.516615e+00,5.247319e+00,3,3,2.261238e+00,2.261237e+00
5.510400e+00,5.250567e+00,3,3,1.992419e+00,1.992418e+00
5.511052e+00,5.247428e+00,3,3,2.136504e+00,2.136504e+00
5.512945e+00,5.247619e+00,3,3,3.643976e+00,3.643975e+00
5.525117e+00,5.250226e+00,3,3,4.960801e+00,4.960800e+00
5.526873e+00,5.248383e+00,3,3,2.907523e+00,2.907524e+00
5.509852e+00,5.252455e+00,3,3,2.076657e+00,2.076657e+00
5.512204e+00,5.248157e+00,3,3,2.608887e+00,2.608886e+00
5.511987e+00,5.248735e+00,3,3,2.688811e+00,2.688811e+00
5.515170e+00,5.250615e+00,3,3,3.022142e+00,3.022147e+00
5.510642e+00,5.252349e+00,3,3,6.288345e+00,6.288373e+00
5.509578e+00,5.247767e+00,3,3,5.473696e+00,5.473698e+00
5.512975e+00,5.250900e+00,3,3,3.081917e+00,3.081918e+00
5.512006e+00,5.249105e+00,3,3,6.402770e+00,6.402768e+00
5.514715e+00,5.247720e+00,3,3,7.592459e+00,7.592458e+00
5.510512e+00,5.252381e+00,3,3,8.211309e+00,8.211314e+00
5.514067e+00,5.246537e+00,3,3,1.073431e+01,1.073457e+01
5.512589e+00,5.248456e+00,3,3,1.061264e+01,1.061244e+01
7.348130e+00,5.253680e+00,4,3,1.010189e+01,1.010211e+01
5.509979e+00,5.250793e+00,3,3,9.608122e+00,9.611986e+00
9.178113e+00,6.994306e+00,5,4,7.986777e+00,7.980796e+00
7.348721e+00,5.248516e+00,4,3,7.362221e+00,7.362244e+00
5.514207e+00,5.247665e+00,3,3,6.027778e+00,6.027814e+00
5.512346e+00,5.247502e+00,3,3,5.189534e+00,5.189534e+00
5.508759e+00,5.251548e+00,3,3,5.150385e+00,5.150384e+00
5.509559e+00,5.249894e+00,3,3,4.991104e+00,4.991103e+00
5.513764e+00,5.248141e+00,3,3,4.929215e+00,4.929216e+00
5.513687e+00,5.247618e+00,3,3,3.222962e+00,3.222962e+00
5.508052e+00,5.253056e+00,3,3,2.181992e+00,2.181992e+00
5.508475e+00,5.249420e+00,3,3,1.315061e+00,1.315061e+00
7.351956e+00,6.997980e+00,4,4,8.244294e+00,8.240037e+00
7.332481e+00,6.993325e+00,4,4,3.926504e+00,3.926805e+00
5.515022e+00,5.266423e+00,3,3,4.563137e+00,4.563152e+00
5.509688e+00,5.251042e+00,3,3,8.014675e+00,8.015293e+00
7.340386e+00,6.992411e+00,4,4,5.541490e+00,5.541492e+00
5.517235e+00,5.248262e+00,3,3,6.423692e+00,6.423772e+00
5.512522e+00,5.249551e+00,3,3,9.228301e+00,9.231703e+00
7.344295e+00,6.995396e+00,4,4,6.667159e+00,6.667049e+00
5.513241e+00,5.249616e+00,3,3,6.484219e+00,6.484223e+00
5.512252e+00,5.251893e+00,3,3,5.963820e+00,5.963820e+00
5.511525e+00,5.251518e+00,3,3,4.356064e+00,4.356063e+00
5.516699e+00,5.250232e+00,3,3,2.961091e+00,2.961092e+00
5.516271e+00,5.249297e+00,3,3,3.228161e+00,3.228160e+00
5.507541e+00,5.254712e+00,3,3,2.122579e+00,2.122579e+00
5.507057e+00,5.249374e+00,3,3,2.486062e+00,2.486061e+00
5.515971e+00,5.249700e+00,3,3,4.178895e+00,4.178893e+00
5.512675e+00,5.247037e+00,3,3,8.120613e+00,8.120240e+00
9.169652e+00,1.048695e+01,5,6,9.726985e+00,9.728800e+00
5.507815e+00,5.257591e+00,3,3,8.880337e+00,8.880367e+00
5.514470e+00,5.249312e+00,3,3,7.167483e+00,7.167498e+00
5.522309e+00,5.248888e+00,3,3,6.569898e+00,6.569961e+00
5.509562e+00,5.254166e+00,3,3,3.977614e+00,3.977612e+00
5.520529e+00,5.250030e+00,3,3,4.995101e+00,4.995099e+00
5.509789e+00,5.247494e+00,3,3,3.614482e+00,3.614483e+00
5.515668e+00,5.247714e+00,3,3,2.493876e+00,2.493876e+00
5.512003e+00,5.247401e+00,3,3,2.489594e+00,2.489594e+00
5.507374e+00,5.251986e+00,3,3,1.976036e+00,1.976036e+00
5.510636e+00,5.249311e+00,3,3,2.327354e+00,2.327353e+00
5.513470e+00,5.247119e+00,3,3,1.622235e+00,1.622235e+00
5.513186e+00,5.247235e+00,3,3,3.611582e+00,3.611579e+00
5.509709e+00,5.250662e+00,3,3,4.513307e+00,4.513305e+00
5.509654e+00,5.246736e+00,3,3,1.852596e+00,1.852597e+00
5.513692e+00,5.245821e+00,3,3,2.068475e+00,2.068474e+00
5.516507e+00,5.246634e+00,3,3,2.634956e+00,2.634955e+00
5.513986e+00,5.249397e+00,3,3,2.118660e+00,2.118660e+00
5.505302e+00,5.251992e+00,3,3,1.056125e+01,1.055933e+01
1.101660e+01,1.049162e+01,6,6,1.323209e+01,1.323378e+01
1.100336e+01,1.048351e+01,6,6,1.661716e+01,1.660377e+01
1.100167e+01,1.047914e+01,6,6,1.393979e+01,1.393922e+01
9.174447e+00,1.048633e+01,5,6,1.574142e+01,1.575711e+01
1.100084e+01,1.048367e+01,6,6,1.567215e+01,1.566821e+01
1.100589e+01,1.049116e+01,6,6,2.129163e+01,2.129293e+01
7.336810e+00,8.742199e+00,4,5,1.486504e+01,1.486728e+01
5.556704e+00,5.254360e+00,3,3,1.297745e+01,1.297753e+01
5.540783e+00,5.276958e+00,3,3,1.230611e+01,1.230631e+01
5.516366e+00,5.250139e+00,3,3,1.045746e+01,1.045748e+01
5.515822e+00,5.250420e+00,3,3,8.921636e+00,8.921636e+00
5.525372e+00,5.247892e+00,3,3,8.472620e+00,8.472619e+00
5.509260e+00,5.254460e+00,3,3,7.381704e+00,7.381704e+00
5.512943e+00,5.247988e+00,3,3,7.373443e+00,7.373443e+00
5.514324e+00,5.249134e+00,3,3,7.263353e+00,7.263353e+00
5.512704e+00,5.248350e+00,3,3,6.819191e+00,6.819190e+00
5.512946e+00,5.251370e+00,3,3,4.984013e+00,4.984013e+00
5.507932e+00,5.247626e+00,3,3,4.975678e+00,4.975677e+00
5.515358e+00,5.248315e+00,3,3,3.640362e+00,3.640362e+00
5.512907e+00,5.247839e+00,3,3,3.672625e+00,3.672624e+00
5.513069e+00,5.246809e+00,3,3,2.369900e+00,2.369900e+00
5.507085e+00,5.250816e+00,3,3,3.091301e+00,3.091300e+00
5.508932e+00,5.248041e+00,3,3,3.001545e+00,3.001545e+00
5.515285e+00,5.248550e+00,3,3,2.960299e+00,2.960299e+00
5.513906e+00,5.249949e+00,3,3,1.969163e+00,1.969163e+00
5.509530e+00,5.251396e+00,3,3,3.451674e+00,3.451673e+00
5.511141e+00,5.248986e+00,3,3,5.193544e+00,5.193542e+00
5.517856e+00,5.248076e+00,3,3,4.257343e+00,4.257343e+00
5.515083e+00,5.246916e+00,3,3,4.011880e+00,4.011880e+00
5.510844e+00,5.251002e+00,3,3,3.385428e+00,3.385428e+00
5.508419e+00,5.252099e+00,3,3,4.454203e+00,4.454352e+00
5.511521e+00,5.249262e+00,3,3,2.748295e+00,2.748309e+00
5.514887e+00,5.248265e+00,3,3,4.020142e+00,4.020140e+00
5.515671e+00,5.247168e+00,3,3,4.651399e+00,4.651398e+00
5.510892e+00,5.254529e+00,3,3,6.299206e+00,6.299204e+00
5.509869e+00,5.251459e+00,3,3,9.880085e+00,9.880082e+00
5.515669e+00,5.248393e+00,3,3,9.961800e+00,9.961801e+00
5.515296e+00,5.248283e+00,3,3,4.604280e+00,4.604283e+00
5.508109e+00,5.253407e+00,3,3,4.600243e+00,4.600242e+00
5.507876e+00,5.247291e+00,3,3,5.145418e+00,5.145417e+00
5.516336e+00,5.248250e+00,3,3,4.944900e+00,4.944899e+00
5.514504e+00,5.248824e+00,3,3,3.870627e+00,3.870626e+00
5.514980e+00,5.247339e+00,3,3,4.758043e+00,4.758042e+00
5.508665e+00,5.250857e+00,3,3,5.471335e+00,5.471338e+00
5.511754e+00,5.247248e+00,3,3,6.526563e+00,6.526592e+00
5.514399e+00,5.246246e+00,3,3,7.045644e+00,7.044803e+00
9.182152e+00,8.744118e+00,5,5,4.599824e+00,4.585631e+00
7.389875e+00,5.250993e+00,4,3,4.635128e+00,4.635227e+00
5.512365e+00,5.248359e+00,3,3,5.039222e+00,5.040469e+00
7.345915e+00,6.996789e+00,4,4,2.816403e+00,2.816403e+00
5.510938e+00,5.255283e+00,3,3,2.872339e+00,2.872339e+00
5.513290e+00,5.248841e+00,3,3,2.173478e+00,2.173478e+00
5.515267e+00,5.247074e+00,3,3,1.817580e+00,1.817580e+00
5.515298e+00,5.247080e+00,3,3,3.056219e+00,3.056218e+00
5.509764e+00,5.251346e+00,3,3,1.640141e+00,1.640141e+00
5.509235e+00,5.264838e+00,3,3,2.392934e+00,2.392940e+00
5.537147e+00,5.278237e+00,3,3,6.646867e+00,6.646121e+00
1.100611e+01,1.051197e+01,6,6,1.062597e+01,1.058042e+01
9.166977e+00,6.992792e+00,5,4,7.531420e+00,7.530596e+00
7.346151e+00,5.253063e+00,4,3,7.086226e+00,7.086271e+00
5.510732e+00,5.246454e+00,3,3,6.513736e+00,6.513740e+00
5.517926e+00,5.249589e+00,3,3,4.115153e+00,4.115155e+00
5.510357e+00,5.248290e+00,3,3,7.173492e+00,7.173204e+00
7.335041e+00,6.992264e+00,4,4,4.111175e+00,4.111175e+00
5.515768e+00,5.247378e+00,3,3,2.710622e+00,2.710622e+00
5.522107e+00,5.247969e+00,3,3,2.474527e+00,2.474527e+00
5.508804e+00,5.253143e+00,3,3,2.367786e+00,2.367786e+00
5.507962e+00,5.247145e+00,3,3,2.263449e+00,2.263449e+00
5.513861e+00,5.248722e+00,3,3,3.237912e+00,3.237911e+00
5.512797e+00,5.249152e+00,3,3,4.746980e+00,4.746979e+00
5.530800e+00,5.252096e+00,3,3,7.917618e+00,7.917615e+00
5.513726e+00,5.251467e+00,3,3,6.194719e+00,6.194720e+00
5.510491e+00,5.249733e+00,3,3,5.878982e+00,5.878982e+00
5.512165e+00,5.248189e+00,3,3,8.120863e+00,8.120709e+00
1.100502e+01,1.049391e+01,6,6,1.508725e+01,1.508146e+01
7.338235e+00,6.993202e+00,4,4,9.272871e+00,9.272893e+00
5.510303e+00,5.252114e+00,3,3,9.209160e+00,9.209415e+00
5.511859e+00,5.250656e+00,3,3,4.847439e+00,4.847454e+00
5.523109e+00,5.247440e+00,3,3,6.203348e+00,6.203346e+00
5.514541e+00,5.249501e+00,3,3,8.136280e+00,8.136279e+00
5.517485e+00,5.247527e+00,3,3,4.860574e+00,4.860576e+00
5.510107e+00,5.254605e+00,3,3,4.010258e+00,4.010258e+00
5.510485e+00,5.251366e+00,3,3,2.806445e+00,2.806445e+00
5.514625e+00,5.248124e+00,3,3,4.270436e+00,4.270435e+00
5.513410e+00,5.247938e+00,3,3,4.366897e+00,4.366897e+00
5.511110e+00,5.250427e+00,3,3,2.967366e+00,2.967367e+00
5.508683e+00,5.247635e+00,3,3,2.156445e+00,2.156445e+00
5.511650e+00,5.244993e+00,3,3,3.070251e+00,3.070249e+00
5.514241e+00,5.249205e+00,3,3,2.302021e+00,2.302021e+00
5.509628e+00,5.253408e+00,3,3,6.718820e+00,6.718817e+00
5.507804e+00,5.253029e+00,3,3,3.370457e+00,3.370459e+00
5.507807e+00,5.245729e+00,3,3,2.332479e+00,2.332479e+00
5.513643e+00,5.247328e+00,3,3,3.263858e+00,3.263856e+00
5.516922e+00,5.251195e+00,3,3,1.747025e+00,1.747025e+00
5.509224e+00,5.252593e+00,3,3,2.768925e+00,2.768924e+00
5.512430e+00,5.247648e+00,3,3,4.011144e+00,4.011143e+00
5.513759e+00,5.249722e+00,3,3,5.385739e+00,5.385938e+00
5.516792e+00,5.249105e+00,3,3,3.561035e+00,3.560978e+00
5.510414e+00,5.251485e+00,3,3,8.270400e+00,8.270220e+00
7.340472e+00,6.995814e+00,4,4,6.423442e+00,6.423416e+00
5.516908e+00,5.249714e+00,3,3,7.778224e+00,7.778506e+00
7.347430e+00,6.994151e+00,4,4,6.063104e+00,6.063105e+00
5.517015e+00,5.247261e+00,3,3,7.247372e+00,7.247455e+00
5.509144e+00,5.255982e+00,3,3,5.245532e+00,5.245534e+00
5.512625e+00,5.253975e+00,3,3,4.006917e+00,4.006917e+00
5.510928e+00,5.248723e+00,3,3,3.643758e+00,3.643757e+00
5.518179e+00,5.246838e+00,3,3,2.393529e+00,2.393529e+00
5.514164e+00,5.246904e+00,3,3,2.290422e+00,2.290422e+00
5.509244e+00,5.250778e+00,3,3,2.764933e+00,2.764932e+00
5.510408e+00,5.244574e+00,3,3,3.350514e+00,3.350512e+00
5.513552e+00,5.246853e+00,3,3,2.468079e+00,2.468079e+00
5.511861e+00,5.246605e+00,3,3,4.336311e+00,4.336308e+00
5.511570e+00,5.251776e+00,3,3,4.460823e+00,4.460834e+00
5.510981e+00,5.247172e+00,3,3,3.081200e+00,3.081201e+00
5.516440e+00,5.251257e+00,3,3,2.742514e+00,2.742513e+00
5.518417e+00,5.247829e+00,3,3,3.722352e+00,3.722351e+00
5.518730e+00,5.250397e+00,3,3,3.759091e+00,3.759090e+00
5.511172e+00,5.250289e+00,3,3,4.296888e+00,4.296888e+00
5.510622e+00,5.246514e+00,3,3,5.309811e+00,5.309813e+00
5.515249e+00,5.247860e+00,3,3,6.211942e+00,6.212039e+00
5.513633e+00,5.246532e+00,3,3,3.614864e+00,3.615043e+00
5.508866e+00,5.250844e+00,3,3,3.285194e+00,3.285189e+00
5.512823e+00,5.247811e+00,3,3,2.226608e+00,2.226607e+00
5.515757e+00,5.246315e+00,3,3,2.453815e+00,2.453814e+00
5.512747e+00,5.247272e+00,3,3,4.060112e+00,4.060110e+00
5.513737e+00,5.249260e+00,3,3,2.617963e+00,2.617963e+00
5.509851e+00,5.252040e+00,3,3,4.652530e+00,4.652529e+00
5.511577e+00,5.248847e+00,3,3,3.246135e+00,3.246142e+00
5.513397e+00,5.250092e+00,3,3,5.466380e+00,5.466394e+00
5.517360e+00,5.248822e+00,3,3,3.298347e+00,3.298349e+00
5.511960e+00,5.251000e+00,3,3,8.001377e+00,8.001373e+00
5.507365e+00,5.246643e+00,3,3,1.025881e+01,1.025865e+01
9.177852e+00,8.746009e+00,5,5,6.584596e+00,6.585349e+00
1.099850e+01,1.048503e+01,6,6,9.223152e+00,9.222539e+00
1.099839e+01,6.992873e+00,6,4,8.385861e+00,8.370803e+00
9.193171e+00,6.995552e+00,5,4,6.774237e+00,6.774203e+00
5.515357e+00,5.245669e+00,3,3,8.747213e+00,8.747226e+00
5.508447e+00,5.254769e+00,3,3,8.143688e+00,8.143718e+00
5.510523e+00,5.251439e+00,3,3,8.652998e+00,8.653002e+00
5.566912e+00,5.277771e+00,3,3,6.645617e+00,6.645622e+00
5.570809e+00,5.246884e+00,3,3,4.277070e+00,4.277074e+00
5.514230e+00,5.249768e+00,3,3,4.373110e+00,4.373107e+00
5.509385e+00,5.254270e+00,3,3,4.621537e+00,4.621539e+00
5.510748e+00,5.247968e+00,3,3,1.855843e+00,1.855844e+00
5.516264e+00,5.248047e+00,3,3,2.372668e+00,2.372667e+00
5.513499e+00,5.249965e+00,3,3,2.441406e+00,2.441406e+00
5.509321e+00,5.253169e+00,3,3,2.232353e+00,2.232352e+00
5.510892e+00,5.247890e+00,3,3,2.826114e+00,2.826113e+00
5.512779e+00,5.247761e+00,3,3,2.893240e+00,2.893239e+00
5.515975e+00,5.247651e+00,3,3,3.808417e+00,3.808416e+00
5.513058e+00,5.245892e+00,3,3,3.094471e+00,3.094471e+00
5.510469e+00,5.251752e+00,3,3,3.429737e+00,3.429737e+00
5.506701e+00,5.246677e+00,3,3,2.399659e+00,2.399659e+00
5.514313e+00,5.246594e+00,3,3,3.265366e+00,3.265368e+00
5.512914e+00,5.249256e+00,3,3,3.478625e+00,3.478664e+00
5.509203e+00,5.251226e+00,3,3,3.315806e+00,3.315804e+00
5.510550e+00,5.246812e+00,3,3,2.362101e+00,2.362101e+00
5.510572e+00,5.247634e+00,3,3,2.216874e+00,2.216874e+00
5.533199e+00,5.250482e+00,3,3,4.368857e+00,4.368942e+00
7.342956e+00,7.009320e+00,4,4,2.502945e+00,2.502945e+00
5.545219e+00,5.247805e+00,3,3,1.778594e+00,1.778594e+00
5.514633e+00,5.249239e+00,3,3,2.209986e+00,2.209986e+00
5.509075e+00,5.253514e+00,3,3,2.970055e+00,2.970054e+00
5.509346e+00,5.248199e+00,3,3,3.406088e+00,3.406087e+00
5.513975e+00,5.248004e+00,3,3,3.587664e+00,3.587663e+00
5.513387e+00,5.249233e+00,3,3,3.510941e+00,3.510941e+00
5.512911e+00,5.250516e+00,3,3,2.682903e+00,2.682903e+00
5.509487e+00,5.252402e+00,3,3,2.253304e+00,2.253304e+00
5.509097e+00,5.249014e+00,3,3,3.244246e+00,3.244244e+00
5.513662e+00,5.248299e+00,3,3,1.207315e+00,1.207316e+00
5.512910e+00,5.246564e+00,3,3,3.281035e+00,3.281034e+00
5.512147e+00,5.251277e+00,3,3,3.734755e+00,3.734864e+00
5.509651e+00,5.250566e+00,3,3,7.953306e+00,7.955607e+00
7.344973e+00,6.992650e+00,4,4,7.020367e+00,7.020376e+00
5.512450e+00,5.250193e+00,3,3,4.511462e+00,4.511464e+00
5.511284e+00,5.247532e+00,3,3,3.487181e+00,3.487181e+00
5.514249e+00,5.248158e+00,3,3,3.790114e+00,3.790114e+00
5.517215e+00,5.248256e+00,3,3,2.873121e+00,2.873119e+00
5.509652e+00,5.252707e+00,3,3,2.090328e+00,2.090328e+00
5.509496e+00,5.247362e+00,3,3,2.515106e+00,2.515105e+00
5.515667e+00,5.247007e+00,3,3,2.038095e+00,2.038095e+00
5.516543e+00,5.247130e+00,3,3,2.510057e+00,2.510056e+00
5.512945e+00,5.250754e+00,3,3,2.566159e+00,2.566159e+00
5.513547e+00,5.252493e+00,3,3,2.071899e+00,2.071899e+00
5.542988e+00,5.280544e+00,3,3,2.075268e+00,2.075267e+00
5.544563e+00,5.277041e+00,3,3,2.125789e+00,2.125788e+00
5.545191e+00,5.247158e+00,3,3,2.259399e+00,2.259398e+00
5.515741e+00,5.246606e+00,3,3,1.197678e+00,1.197678e+00
5.510120e+00,5.251178e+00,3,3,1.292533e+00,1.292533e+00
5.510128e+00,5.247228e+00,3,3,2.755014e+00,2.755012e+00
5.515464e+00,5.246687e+00,3,3,4.918349e+00,4.918350e+00
5.513130e+00,5.249873e+00,3,3,3.939565e+00,3.939910e+00
7.337408e+00,6.993737e+00,4,4,2.084354e+00,2.084354e+00
5.538518e+00,5.247765e+00,3,3,3.436024e+00,3.436022e+00
5.514899e+00,5.247519e+00,3,3,2.985680e+00,2.985681e+00
5.512329e+00,5.252240e+00,3,3,2.226109e+00,2.226109e+00
5.509522e+00,5.246968e+00,3,3,3.008351e+00,3.008350e+00
5.516542e+00,5.249855e+00,3,3,3.961941e+00,3.961939e+00
5.515414e+00,5.248876e+00,3,3,3.508352e+00,3.508351e+00
5.510525e+00,5.250754e+00,3,3,5.043758e+00,5.043756e+00
5.509026e+00,5.249548e+00,3,3,4.496435e+00,4.496438e+00
5.516192e+00,5.245792e+00,3,3,2.748110e+00,2.748111e+00
5.515506e+00,5.248054e+00,3,3,1.951312e+00,1.951312e+00
5.510458e+00,5.251963e+00,3,3,1.249719e+00,1.249719e+00
5.509339e+00,5.246886e+00,3,3,1.377922e+00,1.377922e+00
5.508180e+00,5.245963e+00,3,3,1.398272e+00,1.398272e+00
5.513170e+00,5.247970e+00,3,3,2.843497e+00,2.843496e+00
5.518460e+00,5.248281e+00,3,3,1.813523e+00,1.813522e+00
5.510542e+00,5.252524e+00,3,3,2.649012e+00,2.649011e+00
5.511058e+00,5.249993e+00,3,3,3.373143e+00,3.373142e+00
5.520153e+00,5.246980e+00,3,3,4.556059e+00,4.556058e+00
5.516988e+00,5.247854e+00,3,3,4.016188e+00,4.016188e+00
5.514099e+00,5.252260e+00,3,3,2.094681e+00,2.094680e+00
5.508488e+00,5.246658e+00,3,3,4.128027e+00,4.128025e+00
5.515673e+00,5.249315e+00,3,3,3.851147e+00,3.851146e+00
5.515590e+00,5.248905e+00,3,3,4.869917e+00,4.869916e+00
5.513621e+00,5.248800e+00,3,3,4.450315e+00,4.450316e+00
5.509194e+00,5.251571e+00,3,3,3.205502e+00,3.205502e+00
5.509618e+00,5.248795e+00,3,3,3.462635e+00,3.462640e+00
5.513328e+00,5.249994e+00,3,3,5.649401e+00,5.649397e+00
5.512893e+00,5.246083e+00,3,3,3.430046e+00,3.430047e+00
5.509706e+00,5.251586e+00,3,3,5.065708e+00,5.065706e+00
5.507516e+00,5.248624e+00,3,3,5.490503e+00,5.490539e+00
5.527833e+00,5.245285e+00,3,3,5.129279e+00,5.129296e+00
5.512601e+00,5.248922e+00,3,3,3.760759e+00,3.760760e+00
5.514157e+00,5.247925e+00,3,3,2.912920e+00,2.912920e+00
5.508262e+00,5.253401e+00,3,3,2.902347e+00,2.902346e+00
5.508596e+00,5.248623e+00,3,3,2.072873e+00,2.072873e+00

