3.684400e+00,3.494679e+00,2,2,0.000000e+00,0.000000e+00
5.490213e+00,5.269610e+00,3,3,4.087661e-01,4.087661e-01
5.496750e+00,5.243047e+00,3,3,2.504695e+00,2.504694e+00
5.505815e+00,5.249647e+00,3,3,1.309156e+00,1.309156e+00
5.495566e+00,5.247811e+00,3,3,4.079359e+00,4.079357e+00
5.500235e+00,5.244526e+00,3,3,6.878809e+00,6.878843e+00
5.498945e+00,6.989345e+00,3,4,7.776623e+00,7.776626e+00
5.492854e+00,5.246211e+00,3,3,1.227831e+01,1.227910e+01
9.161308e+00,6.988439e+00,5,4,7.605678e+00,7.605686e+00
5.494787e+00,5.245060e+00,3,3,9.055331e+00,9.055383e+00
5.498216e+00,5.245555e+00,3,3,8.287322e+00,8.287340e+00
5.499313e+00,5.246204e+00,3,3,7.254214e+00,7.254223e+00
5.494632e+00,5.271037e+00,3,3,4.800588e+00,4.800590e+00
5.504356e+00,5.244836e+00,3,3,5.297160e+00,5.297159e+00
5.496635e+00,5.245766e+00,3,3,5.265046e+00,5.265045e+00
5.498145e+00,5.243920e+00,3,3,6.270095e+00,6.270093e+00
5.494680e+00,5.271262e+00,3,3,6.517665e+00,6.517665e+00
5.493862e+00,5.243749e+00,3,3,6.387956e+00,6.387956e+00
5.496497e+00,5.243001e+00,3,3,6.646388e+00,6.646387e+00
5.497868e+00,5.243031e+00,3,3,5.534216e+00,5.534217e+00
5.494681e+00,5.248294e+00,3,3,4.580708e+00,4.580708e+00
5.506357e+00,5.244490e+00,3,3,3.575494e+00,3.575494e+00
5.499557e+00,5.253969e+00,3,3,4.200307e+00,4.200305e+00
5.497816e+00,5.273419e+00,3,3,3.705817e+00,3.705816e+00
5.494213e+00,5.248328e+00,3,3,3.807167e+00,3.807166e+00
5.493009e+00,5.243430e+00,3,3,6.360196e+00,6.360193e+00
5.499423e+00,5.243422e+00,3,3,4.714039e+00,4.714040e+00
5.499141e+00,5.245002e+00,3,3,3.440040e+00,3.440040e+00
5.492091e+00,5.242017e+00,3,3,5.724549e+00,5.724546e+00
5.492900e+00,5.243608e+00,3,3,4.492685e+00,4.492686e+00
5.490839e+00,5.239578e+00,3,3,2.754647e+00,2.754646e+00
5.495918e+00,5.242486e+00,3,3,4.189859e+00,4.189857e+00
5.494358e+00,5.247483e+00,3,3,2.257506e+00,2.257507e+00
5.490141e+00,5.242071e+00,3,3,1.849664e+00,1.849664e+00
5.500813e+00,5.292976e+00,3,3,3.316973e+00,3.316972e+00
5.509179e+00,5.245191e+00,3,3,1.570906e+00,1.570906e+00
5.496793e+00,5.241921e+00,3,3,2.128037e+00,2.128036e+00
5.496246e+00,5.245922e+00,3,3,1.821784e+00,1.821783e+00
5.495449e+00,5.243770e+00,3,3,2.769307e+00,2.769306e+00
5.499294e+00,5.242091e+00,3,3,2.893553e+00,2.893552e+00
5.497976e+00,5.241427e+00,3,3,3.748850e+00,3.748849e+00
5.494262e+00,5.245200e+00,3,3,6.154654e+00,6.154652e+00
5.491394e+00,5.243453e+00,3,3,1.041084e+01,1.041013e+01
7.324920e+00,6.988074e+00,4,4,6.886053e+00,6.886133e+00
5.492381e+00,5.245031e+00,3,3,2.788647e+00,2.788651e+00
5.495994e+00,5.243395e+00,3,3,2.971390e+00,2.971390e+00
5.503982e+00,5.243895e+00,3,3,3.274975e+00,3.274975e+00
5.495933e+00,5.247745e+00,3,3,3.253645e+00,3.253645e+00
5.494786e+00,5.243924e+00,3,3,3.018839e+00,3.018839e+00
5.502286e+00,5.246521e+00,3,3,2.772937e+00,2.772937e+00
5.499064e+00,5.242915e+00,3,3,2.388740e+00,2.388740e+00
5.494150e+00,5.247556e+00,3,3,2.170193e+00,2.170192e+00
5.492441e+00,5.242229e+00,3,3,1.616611e+00,1.616611e+00
5.498994e+00,5.246526e+00,3,3,1.962494e+00,1.962493e+00
5.497171e+00,5.244713e+00,3,3,1.712973e+00,1.712973e+00
5.492611e+00,5.250531e+00,3,3,3.890135e+00,3.890133e+00
5.493983e+00,5.243093e+00,3,3,4.548388e+00,4.548387e+00
5.502079e+00,5.243945e+00,3,3,7.122569e+00,7.122567e+00
5.499545e+00,5.243234e+00,3,3,8.185076e+00,8.185137e+00
5.495232e+00,5.247802e+00,3,3,4.833564e+00,4.833575e+00
5.491990e+00,5.241283e+00,3,3,5.945172e+00,5.945212e+00
5.500498e+00,5.244215e+00,3,3,4.006300e+00,4.006303e+00
5.495555e+00,5.241245e+00,3,3,3.948666e+00,3.948666e+00
5.493904e+00,5.247034e+00,3,3,3.580226e+00,3.580226e+00
5.492541e+00,5.244305e+00,3,3,3.773123e+00,3.773123e+00
5.506568e+00,5.241719e+00,3,3,3.796249e+00,3.796249e+00
5.498474e+00,5.243830e+00,3,3,5.003918e+00,5.003915e+00
5.491824e+00,5.247138e+00,3,3,3.425633e+00,3.425633e+00
5.494425e+00,5.244354e+00,3,3,5.952866e+00,5.952863e+00
5.498567e+00,5.242219e+00,3,3,3.152552e+00,3.152552e+00
5.498220e+00,5.243554e+00,3,3,1.577541e+00,1.577541e+00
5.493895e+00,5.244751e+00,3,3,2.291311e+00,2.291310e+00
5.494593e+00,5.243878e+00,3,3,3.559311e+00,3.559310e+00
5.494991e+00,5.243537e+00,3,3,3.107568e+00,3.107567e+00
5.500463e+00,5.246101e+00,3,3,3.008507e+00,3.008506e+00
5.499737e+00,5.249173e+00,3,3,5.407372e+00,5.407370e+00
5.493440e+00,5.275624e+00,3,3,7.877126e+00,7.877279e+00
5.494993e+00,5.245058e+00,3,3,7.360203e+00,7.362843e+00
7.324937e+00,6.986785e+00,4,4,5.809914e+00,5.809914e+00
5.495697e+00,5.244186e+00,3,3,4.927896e+00,4.927897e+00
5.496806e+00,5.242713e+00,3,3,3.608671e+00,3.608672e+00
5.499175e+00,5.241576e+00,3,3,4.732200e+00,4.732198e+00
5.495312e+00,5.245742e+00,3,3,1.047608e+01,1.047602e+01
1.097887e+01,1.047245e+01,6,6,9.670575e+00,9.668290e+00
1.097651e+01,1.048579e+01,6,6,7.771657e+00,7.762980e+00
1.097238e+01,1.047563e+01,6,6,1.282742e+01,1.283199e+01
1.097362e+01,1.047292e+01,6,6,9.206446e+00,9.179859e+00
7.320511e+00,6.989131e+00,4,4,4.498974e+00,4.498976e+00
5.495673e+00,5.249046e+00,3,3,3.891306e+00,3.891307e+00
5.492722e+00,5.243222e+00,3,3,3.576416e+00,3.576415e+00
5.495835e+00,5.242523e+00,3,3,2.766291e+00,2.766291e+00
5.498658e+00,5.243397e+00,3,3,5.856835e+00,5.856830e+00
5.494171e+00,5.247266e+00,3,3,9.264242e+00,9.264282e+00
5.489606e+00,6.987409e+00,3,4,1.524391e+01,1.524400e+01
1.096098e+01,1.047364e+01,6,6,1.709453e+01,1.709361e+01
1.278818e+01,8.755295e+00,7,5,1.254686e+01,1.254488e+01
5.533232e+00,5.253320e+00,3,3,7.667278e+00,7.667253e+00
5.494772e+00,5.246445e+00,3,3,6.965102e+00,6.965102e+00
5.492738e+00,5.242622e+00,3,3,7.166302e+00,7.166302e+00
5.498979e+00,5.244607e+00,3,3,9.719563e+00,9.719403e+00
1.097858e+01,1.048364e+01,6,6,9.158605e+00,9.159235e+00
1.097633e+01,1.047173e+01,6,6,9.820621e+00,9.817281e+00
9.142814e+00,8.731442e+00,5,5,9.682207e+00,9.683636e+00
1.097267e+01,1.047107e+01,6,6,1.498778e+01,1.498623e+01
9.145157e+00,8.725589e+00,5,5,8.109662e+00,8.115862e+00
7.325060e+00,6.987396e+00,4,4,5.497557e+00,5.497611e+00
5.493565e+00,5.243061e+00,3,3,3.881302e+00,3.881304e+00
5.496210e+00,5.243951e+00,3,3,3.490087e+00,3.490087e+00
5.499246e+00,5.240658e+00,3,3,4.020144e+00,4.020142e+00
5.492582e+00,5.249634e+00,3,3,3.636317e+00,3.636316e+00
5.494278e+00,5.243207e+00,3,3,2.694789e+00,2.694789e+00
5.497020e+00,5.243291e+00,3,3,3.848003e+00,3.848000e+00
5.503087e+00,5.240972e+00,3,3,4.156236e+00,4.156235e+00
5.494474e+00,5.245997e+00,3,3,6.648973e+00,6.648986e+00
7.323392e+00,5.264794e+00,4,3,1.161815e+01,1.162276e+01
1.096802e+01,8.730519e+00,6,5,6.885643e+00,6.865090e+00
1.097510e+01,1.049844e+01,6,6,5.711663e+00,5.702684e+00
1.101729e+01,6.988197e+00,6,4,6.869261e+00,6.867151e+00
7.324331e+00,6.989942e+00,4,4,4.561661e+00,4.561661e+00
5.496332e+00,5.243690e+00,3,3,3.630131e+00,3.630132e+00
5.498738e+00,5.243603e+00,3,3,3.135753e+00,3.135753e+00
5.498372e+00,5.244093e+00,3,3,2.293072e+00,2.293072e+00
5.497308e+00,5.247767e+00,3,3,2.265456e+00,2.265455e+00
5.493245e+00,5.244280e+00,3,3,1.983507e+00,1.983507e+00
5.494438e+00,5.243479e+00,3,3,2.628639e+00,2.628639e+00
5.500079e+00,5.242356e+00,3,3,2.059046e+00,2.059046e+00
5.497468e+00,5.242115e+00,3,3,4.168020e+00,4.168018e+00
5.494544e+00,5.248569e+00,3,3,1.389332e+00,1.389333e+00
5.491000e+00,5.242232e+00,3,3,1.634399e+00,1.634398e+00
5.500139e+00,5.242605e+00,3,3,2.099869e+00,2.099869e+00
5.498839e+00,5.246799e+00,3,3,2.682249e+00,2.682249e+00
5.491207e+00,5.246111e+00,3,3,1.701003e+00,1.701002e+00
5.492739e+00,5.240302e+00,3,3,1.507741e+00,1.507741e+00
5.499638e+00,5.242338e+00,3,3,2.154891e+00,2.154890e+00
5.496844e+00,5.240215e+00,3,3,3.601919e+00,3.601917e+00
5.495274e+00,5.245015e+00,3,3,3.986972e+00,3.986971e+00
5.494652e+00,5.241906e+00,3,3,2.375940e+00,2.375940e+00
5.498851e+00,5.244725e+00,3,3,2.953981e+00,2.953980e+00
5.500056e+00,5.241662e+00,3,3,1.962108e+00,1.962107e+00
5.490647e+00,5.246080e+00,3,3,1.913176e+00,1.913176e+00
5.494040e+00,5.243090e+00,3,3,1.280660e+00,1.280660e+00
5.500303e+00,5.240824e+00,3,3,1.362405e+00,1.362404e+00
5.497162e+00,5.241600e+00,3,3,2.552948e+00,2.552947e+00
5.492479e+00,5.248329e+00,3,3,1.656187e+00,1.656187e+00
5.495151e+00,5.248323e+00,3,3,2.033765e+00,2.033764e+00
5.497759e+00,5.245546e+00,3,3,2.853264e+00,2.853261e+00
5.498557e+00,5.243265e+00,3,3,1.784270e+00,1.784270e+00
5.494188e+00,5.250169e+00,3,3,2.173741e+00,2.173740e+00
5.491303e+00,5.243222e+00,3,3,3.819935e+00,3.819934e+00
5.496718e+00,5.244407e+00,3,3,2.454217e+00,2.454217e+00
5.498283e+00,5.243706e+00,3,3,3.212566e+00,3.212566e+00
5.493524e+00,5.246806e+00,3,3,2.841800e+00,2.841801e+00
5.492033e+00,5.242444e+00,3,3,2.330512e+00,2.330512e+00
5.523412e+00,5.253221e+00,3,3,1.598284e+00,1.598283e+00
5.499273e+00,5.254714e+00,3,3,3.321471e+00,3.321467e+00
5.496558e+00,5.246544e+00,3,3,1.892429e+00,1.892429e+00
5.496547e+00,5.244523e+00,3,3,2.219421e+00,2.219420e+00
5.499933e+00,5.245045e+00,3,3,2.537547e+00,2.537547e+00
5.499028e+00,5.240547e+00,3,3,1.815944e+00,1.815944e+00
5.492513e+00,5.247785e+00,3,3,2.031591e+00,2.031591e+00
5.493605e+00,5.240905e+00,3,3,2.855317e+00,2.855316e+00
5.497585e+00,5.241756e+00,3,3,1.394708e+00,1.394708e+00
5.494943e+00,5.242760e+00,3,3,1.425076e+00,1.425076e+00
5.492896e+00,5.246159e+00,3,3,1.046359e+00,1.046359e+00
5.491062e+00,5.240248e+00,3,3,1.498502e+00,1.498502e+00
5.496924e+00,5.240465e+00,3,3,1.000646e+00,1.000646e+00
5.500099e+00,5.242068e+00,3,3,1.734549e+00,1.734548e+00
5.494131e+00,5.245298e+00,3,3,1.265318e+00,1.265316e+00
5.492517e+00,5.243413e+00,3,3,8.045737e-01,8.045736e-01
5.494276e+00,5.241026e+00,3,3,1.165436e+00,1.165435e+00
5.495840e+00,5.243508e+00,3,3,1.590682e+00,1.590681e+00
5.523286e+00,5.247811e+00,3,3,2.335114e+00,2.335114e+00
5.495973e+00,5.248143e+00,3,3,5.933914e+00,5.933912e+00
7.333076e+00,5.242763e+00,4,3,1.266738e+01,1.267292e+01
1.097573e+01,1.047509e+01,6,6,8.407648e+00,8.413907e+00
7.324559e+00,6.986901e+00,4,4,6.036286e+00,6.036287e+00
5.492873e+00,5.248074e+00,3,3,5.561379e+00,5.561379e+00
5.491142e+00,5.243079e+00,3,3,7.123585e+00,7.123584e+00
5.503279e+00,5.242265e+00,3,3,9.716064e+00,9.715986e+00
7.319467e+00,6.990231e+00,4,4,5.271212e+00,5.271214e+00
5.501066e+00,5.244737e+00,3,3,8.814879e+00,8.815098e+00
7.327916e+00,6.989820e+00,4,4,6.280269e+00,6.280270e+00
5.498900e+00,5.244075e+00,3,3,6.532963e+00,6.532969e+00
5.498889e+00,5.242200e+00,3,3,4.559675e+00,4.559675e+00
5.490469e+00,5.246253e+00,3,3,5.075760e+00,5.075759e+00
5.490392e+00,5.242733e+00,3,3,4.381486e+00,4.381486e+00
5.496617e+00,5.241877e+00,3,3,5.087322e+00,5.087321e+00
5.497824e+00,5.241730e+00,3,3,4.161200e+00,4.161200e+00
5.493277e+00,5.248487e+00,3,3,3.434790e+00,3.434790e+00
5.493158e+00,5.242779e+00,3,3,4.432481e+00,4.432480e+00
5.496088e+00,5.241444e+00,3,3,6.068026e+00,6.068024e+00
5.501830e+00,5.243739e+00,3,3,4.515264e+00,4.515265e+00
5.492456e+00,5.247922e+00,3,3,2.572835e+00,2.572835e+00
5.495457e+00,5.242328e+00,3,3,2.444018e+00,2.444017e+00
5.498119e+00,5.242331e+00,3,3,2.747460e+00,2.747459e+00
5.499653e+00,5.243485e+00,3,3,2.025137e+00,2.025137e+00
5.493271e+00,5.245975e+00,3,3,1.674369e+00,1.674369e+00
5.490333e+00,5.241711e+00,3,3,1.566185e+00,1.566184e+00
5.497044e+00,5.241967e+00,3,3,1.879681e+00,1.879680e+00
5.495771e+00,5.243689e+00,3,3,1.289448e+00,1.289447e+00
5.496607e+00,5.246852e+00,3,3,1.523360e+00,1.523359e+00
5.491647e+00,5.282286e+00,3,3,1.399685e+00,1.399685e+00
5.494959e+00,5.269943e+00,3,3,1.312094e+00,1.312094e+00
5.498557e+00,5.243113e+00,3,3,2.001976e+00,2.001975e+00
5.498432e+00,5.242730e+00,3,3,1.200496e+00,1.200495e+00
5.489319e+00,5.245294e+00,3,3,1.422310e+00,1.422310e+00
5.494205e+00,5.242361e+00,3,3,2.261238e+00,2.261237e+00
5.498384e+00,5.268118e+00,3,3,1.992419e+00,1.992418e+00
5.541876e+00,5.242311e+00,3,3,2.136504e+00,2.136504e+00
5.492767e+00,5.244947e+00,3,3,3.643976e+00,3.643975e+00
5.492870e+00,5.242117e+00,3,3,4.960801e+00,4.960800e+00
5.547321e+00,5.269559e+00,3,3,2.907523e+00,2.907524e+00
5.552678e+00,5.268598e+00,3,3,2.076657e+00,2.076657e+00
5.502010e+00,5.241737e+00,3,3,2.608887e+00,2.608886e+00
5.492769e+00,5.246383e+00,3,3,2.688811e+00,2.688811e+00
5.496072e+00,5.243105e+00,3,3,3.022142e+00,3.022147e+00
5.501613e+00,5.243341e+00,3,3,6.288345e+00,6.288373e+00
5.523399e+00,5.242855e+00,3,3,5.473696e+00,5.473698e+00
5.492888e+00,5.247341e+00,3,3,3.081917e+00,3.081918e+00
5.490845e+00,5.242447e+00,3,3,6.402770e+00,6.402768e+00
5.497310e+00,5.240028e+00,3,3,7.592459e+00,7.592458e+00
5.497319e+00,5.268890e+00,3,3,8.211309e+00,8.211314e+00
5.493744e+00,5.248672e+00,3,3,1.073431e+01,1.073457e+01
5.493830e+00,5.245459e+00,3,3,1.061264e+01,1.061244e+01
7.331956e+00,5.241259e+00,4,3,1.010189e+01,1.010211e+01
5.493044e+00,5.242993e+00,3,3,9.608122e+00,9.611986e+00
9.181584e+00,6.988600e+00,5,4,7.986777e+00,7.980796e+00
7.325741e+00,5.242275e+00,4,3,7.362221e+00,7.362244e+00
5.497636e+00,5.265787e+00,3,3,6.027778e+00,6.027814e+00
5.497225e+00,5.239976e+00,3,3,5.189534e+00,5.189534e+00
5.515903e+00,5.247725e+00,3,3,5.150385e+00,5.150384e+00
5.496823e+00,5.246858e+00,3,3,4.991104e+00,4.991103e+00
5.498961e+00,5.246543e+00,3,3,4.929215e+00,4.929216e+00
5.523442e+00,5.247585e+00,3,3,3.222962e+00,3.222962e+00
5.549813e+00,5.296836e+00,3,3,2.181992e+00,2.181992e+00
5.522483e+00,5.247630e+00,3,3,1.315061e+00,1.315061e+00
7.323735e+00,6.992258e+00,4,4,8.244294e+00,8.240037e+00
7.319232e+00,6.987512e+00,4,4,3.926504e+00,3.926805e+00
5.500909e+00,5.270454e+00,3,3,4.563137e+00,4.563152e+00
5.500084e+00,5.242372e+00,3,3,8.014675e+00,8.015293e+00
7.318816e+00,6.987419e+00,4,4,5.541490e+00,5.541492e+00
5.499058e+00,5.243535e+00,3,3,6.423692e+00,6.423772e+00
5.493999e+00,5.246449e+00,3,3,9.228301e+00,9.231703e+00
7.347505e+00,6.984584e+00,4,4,6.667159e+00,6.667049e+00
5.498777e+00,5.243252e+00,3,3,6.484219e+00,6.484223e+00
5.493729e+00,5.246950e+00,3,3,5.963820e+00,5.963820e+00
5.493389e+00,5.241694e+00,3,3,4.356064e+00,4.356063e+00
5.525030e+00,5.244275e+00,3,3,2.961091e+00,2.961092e+00
5.497721e+00,5.244355e+00,3,3,3.228161e+00,3.228160e+00
5.494738e+00,5.245662e+00,3,3,2.122579e+00,2.122579e+00
5.492591e+00,5.242169e+00,3,3,2.486062e+00,2.486061e+00
5.495310e+00,5.240116e+00,3,3,4.178895e+00,4.178893e+00
5.493468e+00,5.240991e+00,3,3,8.120613e+00,8.120240e+00
9.143475e+00,1.047798e+01,5,6,9.726985e+00,9.728800e+00
5.496293e+00,5.245349e+00,3,3,8.880337e+00,8.880367e+00
5.498646e+00,5.243768e+00,3,3,7.167483e+00,7.167498e+00
5.496508e+00,5.247454e+00,3,3,6.569898e+00,6.569961e+00
5.495428e+00,5.242393e+00,3,3,3.977614e+00,3.977612e+00
5.500108e+00,5.243561e+00,3,3,4.995101e+00,4.995099e+00
5.520526e+00,5.244741e+00,3,3,3.614482e+00,3.614483e+00
5.492762e+00,5.248541e+00,3,3,2.493876e+00,2.493876e+00
5.491307e+00,5.244539e+00,3,3,2.489594e+00,2.489594e+00
5.495284e+00,5.242053e+00,3,3,1.976036e+00,1.976036e+00
5.497421e+00,5.241182e+00,3,3,2.327354e+00,2.327353e+00
5.494066e+00,5.247101e+00,3,3,1.622235e+00,1.622235e+00
5.492234e+00,5.242249e+00,3,3,3.611582e+00,3.611579e+00
5.495595e+00,5.242272e+00,3,3,4.513307e+00,4.513305e+00
5.495716e+00,5.241926e+00,3,3,1.852596e+00,1.852597e+00
5.495260e+00,5.248343e+00,3,3,2.068475e+00,2.068474e+00
5.495904e+00,5.240652e+00,3,3,2.634956e+00,2.634955e+00
5.500147e+00,5.241752e+00,3,3,2.118660e+00,2.118660e+00
5.497630e+00,5.243352e+00,3,3,1.056125e+01,1.055933e+01
1.097151e+01,1.047599e+01,6,6,1.323209e+01,1.323378e+01
1.097537e+01,1.047241e+01,6,6,1.661716e+01,1.660377e+01
1.097028e+01,1.046990e+01,6,6,1.393979e+01,1.393922e+01
9.152541e+00,1.047055e+01,5,6,1.574142e+01,1.575711e+01
1.097262e+01,1.047176e+01,6,6,1.567215e+01,1.566821e+01
1.097487e+01,1.047843e+01,6,6,2.129163e+01,2.129293e+01
7.318268e+00,8.731937e+00,4,5,1.486504e+01,1.486728e+01
5.490964e+00,5.245681e+00,3,3,1.297745e+01,1.297753e+01
5.492059e+00,5.242747e+00,3,3,1.230611e+01,1.230631e+01
5.497744e+00,5.242755e+00,3,3,1.045746e+01,1.045748e+01
5.523742e+00,5.241077e+00,3,3,8.921636e+00,8.921636e+00
5.493096e+00,5.243164e+00,3,3,8.472620e+00,8.472619e+00
5.494926e+00,5.243316e+00,3,3,7.381704e+00,7.381704e+00
5.493981e+00,5.245137e+00,3,3,7.373443e+00,7.373443e+00
5.495560e+00,5.243023e+00,3,3,7.263353e+00,7.263353e+00
5.509743e+00,5.243647e+00,3,3,6.819191e+00,6.819190e+00
5.508604e+00,5.246776e+00,3,3,4.984013e+00,4.984013e+00
5.490698e+00,5.252116e+00,3,3,4.975678e+00,4.975677e+00
5.498712e+00,5.247692e+00,3,3,3.640362e+00,3.640362e+00
5.524042e+00,5.245897e+00,3,3,3.672625e+00,3.672624e+00
5.492246e+00,5.247895e+00,3,3,2.369900e+00,2.369900e+00
5.488856e+00,5.243454e+00,3,3,3.091301e+00,3.091300e+00
5.499195e+00,5.240899e+00,3,3,3.001545e+00,3.001545e+00
5.502034e+00,5.243469e+00,3,3,2.960299e+00,2.960299e+00
5.493522e+00,5.248725e+00,3,3,1.969163e+00,1.969163e+00
5.492965e+00,5.243568e+00,3,3,3.451674e+00,3.451673e+00
5.501209e+00,5.242116e+00,3,3,5.193544e+00,5.193542e+00
5.501498e+00,5.241483e+00,3,3,4.257343e+00,4.257343e+00
5.493122e+00,5.243514e+00,3,3,4.011880e+00,4.011880e+00
5.494447e+00,5.242198e+00,3,3,3.385428e+00,3.385428e+00
5.500749e+00,5.244280e+00,3,3,4.454203e+00,4.454352e+00
5.500561e+00,5.239388e+00,3,3,2.748295e+00,2.748309e+00
5.492664e+00,5.245133e+00,3,3,4.020142e+00,4.020140e+00
5.494498e+00,5.242067e+00,3,3,4.651399e+00,4.651398e+00
5.496915e+00,5.241682e+00,3,3,6.299206e+00,6.299204e+00
5.494467e+00,5.241119e+00,3,3,9.880085e+00,9.880082e+00
5.495154e+00,5.248051e+00,3,3,9.961800e+00,9.961801e+00
5.494404e+00,5.243465e+00,3,3,4.604280e+00,4.604283e+00
5.497959e+00,5.243913e+00,3,3,4.600243e+00,4.600242e+00
5.502217e+00,5.245407e+00,3,3,5.145418e+00,5.145417e+00
5.493978e+00,5.247011e+00,3,3,4.944900e+00,4.944899e+00
5.494640e+00,5.242020e+00,3,3,3.870627e+00,3.870626e+00
5.500020e+00,5.241005e+00,3,3,4.758043e+00,4.758042e+00
5.499397e+00,5.240840e+00,3,3,5.471335e+00,5.471338e+00
5.492085e+00,5.245170e+00,3,3,6.526563e+00,6.526592e+00
5.487799e+00,5.242457e+00,3,3,7.045644e+00,7.044803e+00
9.158497e+00,8.730042e+00,5,5,4.599824e+00,4.585631e+00
7.331719e+00,5.242789e+00,4,3,4.635128e+00,4.635227e+00
5.492742e+00,5.249058e+00,3,3,5.039222e+00,5.040469e+00
7.321663e+00,6.987443e+00,4,4,2.816403e+00,2.816403e+00
5.495046e+00,5.248045e+00,3,3,2.872339e+00,2.872339e+00
5.492665e+00,5.242287e+00,3,3,2.173478e+00,2.173478e+00
5.497444e+00,5.241232e+00,3,3,1.817580e+00,1.817580e+00
5.496804e+00,5.244115e+00,3,3,3.056219e+00,3.056218e+00
5.492998e+00,5.245963e+00,3,3,1.640141e+00,1.640141e+00
5.494410e+00,5.242174e+00,3,3,2.392934e+00,2.392940e+00
5.496616e+00,5.241121e+00,3,3,6.646867e+00,6.646121e+00
1.096915e+01,1.047458e+01,6,6,1.062597e+01,1.058042e+01
9.146588e+00,6.987060e+00,5,4,7.531420e+00,7.530596e+00
7.375472e+00,5.243145e+00,4,3,7.086226e+00,7.086271e+00
5.499600e+00,5.242683e+00,3,3,6.513736e+00,6.513740e+00
5.499470e+00,5.243287e+00,3,3,4.115153e+00,4.115155e+00
5.489225e+00,5.244466e+00,3,3,7.173492e+00,7.173204e+00
7.315105e+00,6.985769e+00,4,4,4.111175e+00,4.111175e+00
5.494120e+00,5.245069e+00,3,3,2.710622e+00,2.710622e+00
5.492353e+00,5.244944e+00,3,3,2.474527e+00,2.474527e+00
5.497159e+00,5.242391e+00,3,3,2.367786e+00,2.367786e+00
5.498610e+00,5.244158e+00,3,3,2.263449e+00,2.263449e+00
5.497225e+00,5.246346e+00,3,3,3.237912e+00,3.237911e+00
5.491006e+00,5.245442e+00,3,3,4.746980e+00,4.746979e+00
5.498452e+00,5.242136e+00,3,3,7.917618e+00,7.917615e+00
5.521085e+00,5.243687e+00,3,3,6.194719e+00,6.194720e+00
5.498182e+00,5.241444e+00,3,3,5.878982e+00,5.878982e+00
5.488051e+00,5.246047e+00,3,3,8.120863e+00,8.120709e+00
1.096502e+01,1.047605e+01,6,6,1.508725e+01,1.508146e+01
7.321513e+00,6.983930e+00,4,4,9.272871e+00,9.272893e+00
5.498361e+00,5.242209e+00,3,3,9.209160e+00,9.209415e+00
5.497345e+00,5.242498e+00,3,3,4.847439e+00,4.847454e+00
5.491499e+00,5.245491e+00,3,3,6.203348e+00,6.203346e+00
5.491920e+00,5.241029e+00,3,3,8.136280e+00,8.136279e+00
5.503476e+00,5.247175e+00,3,3,4.860574e+00,4.860576e+00
5.499569e+00,5.243987e+00,3,3,4.010258e+00,4.010258e+00
5.492029e+00,5.247163e+00,3,3,2.806445e+00,2.806445e+00
5.492492e+00,5.243550e+00,3,3,4.270436e+00,4.270435e+00
5.497794e+00,5.242352e+00,3,3,4.366897e+00,4.366897e+00
5.498712e+00,5.240758e+00,3,3,2.967366e+00,2.967367e+00
5.493219e+00,5.246582e+00,3,3,2.156445e+00,2.156445e+00
5.496832e+00,5.242918e+00,3,3,3.070251e+00,3.070249e+00
5.499012e+00,5.244208e+00,3,3,2.302021e+00,2.302021e+00
5.499448e+00,5.244615e+00,3,3,6.718820e+00,6.718817e+00
5.491153e+00,5.249973e+00,3,3,3.370457e+00,3.370459e+00
5.494017e+00,5.243956e+00,3,3,2.332479e+00,2.332479e+00
5.502466e+00,5.243825e+00,3,3,3.263858e+00,3.263856e+00
5.498454e+00,5.242489e+00,3,3,1.747025e+00,1.747025e+00
5.496134e+00,5.248583e+00,3,3,2.768925e+00,2.768924e+00
5.498600e+00,5.241285e+00,3,3,4.011144e+00,4.011143e+00
5.504335e+00,5.245311e+00,3,3,5.385739e+00,5.385938e+00
5.501561e+00,5.242729e+00,3,3,3.561035e+00,3.560978e+00
5.492759e+00,5.247245e+00,3,3,8.270400e+00,8.270220e+00
7.321416e+00,6.987170e+00,4,4,6.423442e+00,6.423416e+00
5.494361e+00,5.246470e+00,3,3,7.778224e+00,7.778506e+00
7.325400e+00,6.988119e+00,4,4,6.063104e+00,6.063105e+00
5.493208e+00,5.245722e+00,3,3,7.247372e+00,7.247455e+00
5.516638e+00,5.248691e+00,3,3,5.245532e+00,5.245534e+00
5.494231e+00,5.241789e+00,3,3,4.006917e+00,4.006917e+00
5.498836e+00,5.241088e+00,3,3,3.643758e+00,3.643757e+00
5.516768e+00,5.241473e+00,3,3,2.393529e+00,2.393529e+00
5.493267e+00,5.245664e+00,3,3,2.290422e+00,2.290422e+00
5.494449e+00,5.242987e+00,3,3,2.764933e+00,2.764932e+00
5.497967e+00,5.242436e+00,3,3,3.350514e+00,3.350512e+00
5.498032e+00,5.241495e+00,3,3,2.468079e+00,2.468079e+00
5.494335e+00,5.246539e+00,3,3,4.336311e+00,4.336308e+00
5.493216e+00,5.242413e+00,3,3,4.460823e+00,4.460834e+00
5.500912e+00,5.244133e+00,3,3,3.081200e+00,3.081201e+00
5.495824e+00,5.244420e+00,3,3,2.742514e+00,2.742513e+00
5.495875e+00,5.247278e+00,3,3,3.722352e+00,3.722351e+00
5.498452e+00,5.242729e+00,3,3,3.759091e+00,3.759090e+00
5.500116e+00,5.239496e+00,3,3,4.296888e+00,4.296888e+00
5.495608e+00,5.240057e+00,3,3,5.309811e+00,5.309813e+00
5.494134e+00,5.247131e+00,3,3,6.211942e+00,6.212039e+00
5.491441e+00,5.240513e+00,3,3,3.614864e+00,3.615043e+00
5.496741e+00,5.241870e+00,3,3,3.285194e+00,3.285189e+00
5.496211e+00,5.238516e+00,3,3,2.226608e+00,2.226607e+00
5.492746e+00,5.246045e+00,3,3,2.453815e+00,2.453814e+00
5.495005e+00,5.243369e+00,3,3,4.060112e+00,4.060110e+00
5.496621e+00,5.242327e+00,3,3,2.617963e+00,2.617963e+00
5.496932e+00,5.240215e+00,3,3,4.652530e+00,4.652529e+00
5.497689e+00,5.248069e+00,3,3,3.246135e+00,3.246142e+00
5.495812e+00,5.241930e+00,3,3,5.466380e+00,5.466394e+00
5.498803e+00,5.241083e+00,3,3,3.298347e+00,3.298349e+00
5.500401e+00,5.244154e+00,3,3,8.001377e+00,8.001373e+00
5.494473e+00,5.246551e+00,3,3,1.025881e+01,1.025865e+01
9.147933e+00,8.725280e+00,5,5,6.584596e+00,6.585349e+00
1.097723e+01,1.047877e+01,6,6,9.223152e+00,9.222539e+00
1.096959e+01,6.987582e+00,6,4,8.385861e+00,8.370803e+00
9.155452e+00,6.987324e+00,5,4,6.774237e+00,6.774203e+00
5.497687e+00,5.244732e+00,3,3,8.747213e+00,8.747226e+00
5.494652e+00,5.248761e+00,3,3,8.143688e+00,8.143718e+00
5.494315e+00,5.243634e+00,3,3,8.652998e+00,8.653002e+00
5.499714e+00,5.244991e+00,3,3,6.645617e+00,6.645622e+00
5.498484e+00,5.241293e+00,3,3,4.277070e+00,4.277074e+00
5.493520e+00,5.247890e+00,3,3,4.373110e+00,4.373107e+00
5.491320e+00,5.244392e+00,3,3,4.621537e+00,4.621539e+00
5.498702e+00,5.244134e+00,3,3,1.855843e+00,1.855844e+00
5.498059e+00,5.244025e+00,3,3,2.372668e+00,2.372667e+00
5.492220e+00,5.245800e+00,3,3,2.441406e+00,2.441406e+00
5.494516e+00,5.241978e+00,3,3,2.232353e+00,2.232352e+00
5.499167e+00,5.245461e+00,3,3,2.826114e+00,2.826113e+00
5.501242e+00,5.244855e+00,3,3,2.893240e+00,2.893239e+00
5.497792e+00,5.247052e+00,3,3,3.808417e+00,3.808416e+00
5.506612e+00,5.241350e+00,3,3,3.094471e+00,3.094471e+00
5.496001e+00,5.242374e+00,3,3,3.429737e+00,3.429737e+00
5.496095e+00,5.248602e+00,3,3,2.399659e+00,2.399659e+00
5.494221e+00,5.245719e+00,3,3,3.265366e+00,3.265368e+00
5.492558e+00,5.254496e+00,3,3,3.478625e+00,3.478664e+00
5.498555e+00,5.243010e+00,3,3,3.315806e+00,3.315804e+00
5.498948e+00,5.242855e+00,3,3,2.362101e+00,2.362101e+00
5.493541e+00,5.249304e+00,3,3,2.216874e+00,2.216874e+00
5.492204e+00,5.244678e+00,3,3,4.368857e+00,4.368942e+00
7.324479e+00,7.002045e+00,4,4,2.502945e+00,2.502945e+00
5.496060e+00,5.241433e+00,3,3,1.778594e+00,1.778594e+00
5.495488e+00,5.242146e+00,3,3,2.209986e+00,2.209986e+00
5.497700e+00,5.240713e+00,3,3,2.970055e+00,2.970054e+00
5.493468e+00,5.247780e+00,3,3,3.406088e+00,3.406087e+00
5.492874e+00,5.242553e+00,3,3,3.587664e+00,3.587663e+00
5.495796e+00,5.240436e+00,3,3,3.510941e+00,3.510941e+00
5.494954e+00,5.240065e+00,3,3,2.682903e+00,2.682903e+00
5.492270e+00,5.245965e+00,3,3,2.253304e+00,2.253304e+00
5.493691e+00,5.239772e+00,3,3,3.244246e+00,3.244244e+00
5.497888e+00,5.240903e+00,3,3,1.207315e+00,1.207316e+00
5.496975e+00,5.241670e+00,3,3,3.281035e+00,3.281034e+00
5.497337e+00,5.249304e+00,3,3,3.734755e+00,3.734864e+00
5.497038e+00,5.244136e+00,3,3,7.953306e+00,7.955607e+00
7.327953e+00,6.986548e+00,4,4,7.020367e+00,7.020376e+00
5.495332e+00,5.246507e+00,3,3,4.511462e+00,4.511464e+00
5.492159e+00,5.242847e+00,3,3,3.487181e+00,3.487181e+00
5.498091e+00,5.242723e+00,3,3,3.790114e+00,3.790114e+00
5.499537e+00,5.243057e+00,3,3,2.873121e+00,2.873119e+00
5.496449e+00,5.247563e+00,3,3,2.090328e+00,2.090328e+00
5.491592e+00,5.243316e+00,3,3,2.515106e+00,2.515105e+00
5.524616e+00,5.245285e+00,3,3,2.038095e+00,2.038095e+00
5.503542e+00,5.243766e+00,3,3,2.510057e+00,2.510056e+00
5.494287e+00,5.248098e+00,3,3,2.566159e+00,2.566159e+00
5.494251e+00,5.245526e+00,3,3,2.071899e+00,2.071899e+00
5.523934e+00,5.243373e+00,3,3,2.075268e+00,2.075267e+00
5.499227e+00,5.252918e+00,3,3,2.125789e+00,2.125788e+00
5.493393e+00,5.247266e+00,3,3,2.259399e+00,2.259398e+00
5.491113e+00,5.241731e+00,3,3,1.197678e+00,1.197678e+00
5.496077e+00,5.263379e+00,3,3,1.292533e+00,1.292533e+00
5.498782e+00,5.241769e+00,3,3,2.755014e+00,2.755012e+00
5.495970e+00,5.246270e+00,3,3,4.918349e+00,4.918350e+00
5.489364e+00,5.253490e+00,3,3,3.939565e+00,3.939910e+00
7.321322e+00,7.028160e+00,4,4,2.084354e+00,2.084354e+00
5.506653e+00,5.250393e+00,3,3,3.436024e+00,3.436022e+00
5.493233e+00,5.272473e+00,3,3,2.985680e+00,2.985681e+00
5.502507e+00,5.243244e+00,3,3,2.226109e+00,2.226109e+00
5.500681e+00,5.243410e+00,3,3,3.008351e+00,3.008350e+00
5.496962e+00,5.269681e+00,3,3,3.961941e+00,3.961939e+00
5.496557e+00,5.244597e+00,3,3,3.508352e+00,3.508351e+00
5.498972e+00,5.242112e+00,3,3,5.043758e+00,5.043756e+00
5.498765e+00,5.244068e+00,3,3,4.496435e+00,4.496438e+00
5.497882e+00,5.245419e+00,3,3,2.748110e+00,2.748111e+00
5.492692e+00,5.243363e+00,3,3,1.951312e+00,1.951312e+00
5.499107e+00,5.243526e+00,3,3,1.249719e+00,1.249719e+00
5.498301e+00,5.243382e+00,3,3,1.377922e+00,1.377922e+00
5.497138e+00,5.246594e+00,3,3,1.398272e+00,1.398272e+00
5.493065e+00,5.240542e+00,3,3,2.843497e+00,2.843496e+00
5.498526e+00,5.241833e+00,3,3,1.813523e+00,1.813522e+00
5.498145e+00,5.240213e+00,3,3,2.649012e+00,2.649011e+00
5.493816e+00,5.244280e+00,3,3,3.373143e+00,3.373142e+00
5.494037e+00,5.243360e+00,3,3,4.556059e+00,4.556058e+00
5.497924e+00,5.239877e+00,3,3,4.016188e+00,4.016188e+00
5.497989e+00,5.240064e+00,3,3,2.094681e+00,2.094680e+00
5.492981e+00,5.245369e+00,3,3,4.128027e+00,4.128025e+00
5.494219e+00,5.242931e+00,3,3,3.851147e+00,3.851146e+00
5.499223e+00,5.240929e+00,3,3,4.869917e+00,4.869916e+00
5.498802e+00,5.242110e+00,3,3,4.450315e+00,4.450316e+00
5.493498e+00,5.244593e+00,3,3,3.205502e+00,3.205502e+00
5.495546e+00,5.241935e+00,3,3,3.462635e+00,3.462640e+00
5.497931e+00,5.240552e+00,3,3,5.649401e+00,5.649397e+00
5.497338e+00,5.241682e+00,3,3,3.430046e+00,3.430047e+00
5.496708e+00,5.246942e+00,3,3,5.065708e+00,5.065706e+00
5.497204e+00,5.241533e+00,3,3,5.490503e+00,5.490539e+00
5.501056e+00,5.242377e+00,3,3,5.129279e+00,5.129296e+00
5.500360e+00,5.241489e+00,3,3,3.760759e+00,3.760760e+00
5.494709e+00,5.247009e+00,3,3,2.912920e+00,2.912920e+00
5.492130e+00,5.243736e+00,3,3,2.902347e+00,2.902346e+00
5.500818e+00,5.239813e+00,3,3,2.072873e+00,2.072873e+00

