T,mehrotra,qpoases,cputime
10,0.762146,1.921974,1.91617
20,1.555629,244.5367,244.293
30,2.753362,528.5716,528.2359
40,3.655699,954.0266,953.407
50,4.630622,1466.879,1465.967
60,5.425088,2130.866,2129.577
70,6.349521,2835.65,2834.023
80,7.262777,4173.197,4171.217
90,8.181582,5648.95,5646.54
100,9.077424,9566.09,9563.258
