2.517853e+01,4.239917e+01,7,67
7.205908e+00,3.645897e+01,2,67
7.261375e+00,3.296113e+01,2,60
7.228105e+00,3.313398e+01,2,59
7.252206e+00,3.129888e+01,2,56
7.487652e+00,2.890491e+01,2,51
1.508843e+01,2.832294e+01,4,48
7.452602e+00,2.911496e+01,2,49
7.464647e+00,2.464986e+01,2,41
7.480546e+00,2.329803e+01,2,38
8.997428e+00,2.163696e+01,2,35
1.858508e+01,1.872993e+01,5,30
7.507964e+00,2.147889e+01,2,34
7.498022e+00,1.786590e+01,2,28
7.544109e+00,1.666307e+01,2,26

