2.425432e+01,4.664493e+01,7,67
6.944482e+00,3.627205e+01,2,67
6.977880e+00,3.239417e+01,2,60
6.953848e+00,3.265905e+01,2,59
7.016792e+00,3.126097e+01,2,56
7.005267e+00,3.082895e+01,2,51
1.419240e+01,2.731991e+01,4,48
7.258016e+00,2.870417e+01,2,49
7.275675e+00,2.419209e+01,2,41
7.201256e+00,2.284288e+01,2,38
7.215814e+00,2.126884e+01,2,35
1.804159e+01,1.841998e+01,5,30
7.190478e+00,2.233911e+01,2,34
7.236711e+00,1.761103e+01,2,28
7.205550e+00,1.643682e+01,2,26

