2.396775e+01,4.473686e+01,7,67
6.890596e+00,3.696990e+01,2,67
6.937681e+00,3.332019e+01,2,60
6.942903e+00,3.271914e+01,2,59
6.907400e+00,3.156400e+01,2,56
6.841249e+00,2.914786e+01,2,51
1.421768e+01,2.813292e+01,4,48
7.095383e+00,2.960992e+01,2,49
7.146345e+00,2.468610e+01,2,41
7.150389e+00,2.322817e+01,2,38
7.134983e+00,2.162790e+01,2,35
1.767077e+01,1.879883e+01,5,30
7.087110e+00,2.138996e+01,2,34
7.168577e+00,1.785398e+01,2,28
7.173151e+00,1.666307e+01,2,26

