4.257709e+00,5.051075e+00,3.901958e+00,2,0,0.000000e+00,0.000000e+00
6.332735e+00,9.101660e-01,8.709431e-01,3,0,3.954406e-01,3.954414e-01
6.356397e+00,8.875950e-01,8.590221e-01,3,0,2.938420e+00,2.938424e+00
6.342102e+00,8.823570e-01,8.528233e-01,3,0,1.134788e+00,1.134788e+00
6.343269e+00,8.796940e-01,8.509159e-01,3,0,5.924830e+00,5.924839e+00
6.351022e+00,2.536104e+00,2.506971e+00,3,1,1.018497e+01,1.018498e+01
6.347109e+00,2.322632e+00,2.294064e+00,3,1,8.682500e+00,8.682443e+00
6.345855e+00,1.033139e+01,1.029181e+01,3,3,1.555287e+01,2.531785e+01
1.056194e+01,6.302245e+00,6.261826e+00,5,0,1.601722e+01,2.121716e+01
8.241904e+00,3.380090e+00,3.350973e+00,4,2,1.236359e+01,1.236128e+01
1.232639e+01,3.154779e+00,3.126860e+00,6,2,1.439597e+01,1.439400e+01
8.208287e+00,1.976684e+00,1.947880e+00,4,1,1.009607e+01,1.009607e+01
6.160360e+00,8.483020e-01,8.199215e-01,3,0,1.092491e+01,1.092491e+01
6.160198e+00,8.534810e-01,8.258820e-01,3,0,1.359664e+01,1.359664e+01
6.193121e+00,8.318511e+00,8.285999e+00,3,5,1.857595e+01,1.858667e+01
1.439576e+01,6.886168e+00,6.857872e+00,7,4,1.825618e+01,1.825078e+01
1.437570e+01,4.757537e+00,4.729033e+00,7,3,1.738695e+01,1.738527e+01
6.193324e+00,8.523420e-01,8.239746e-01,3,0,1.893714e+01,1.893695e+01
8.242634e+00,8.685190e-01,8.399487e-01,4,0,1.543752e+01,1.543752e+01
6.167070e+00,8.688120e-01,8.351803e-01,3,0,1.290757e+01,1.290757e+01
6.165339e+00,8.651950e-01,8.368492e-01,3,0,9.427898e+00,9.427899e+00
6.176484e+00,8.562870e-01,8.277893e-01,3,0,1.036455e+01,1.036455e+01
6.161632e+00,8.601200e-01,8.318424e-01,3,0,8.116926e+00,8.116926e+00
6.164879e+00,8.569020e-01,8.289814e-01,3,0,7.545360e+00,7.545362e+00
6.210262e+00,8.563870e-01,8.280277e-01,3,0,7.419094e+00,7.419097e+00
6.186230e+00,8.605820e-01,8.330345e-01,3,0,6.219739e+00,6.219741e+00
6.185745e+00,8.804720e-01,8.530617e-01,3,0,5.130444e+00,5.130445e+00
6.182830e+00,8.548750e-01,8.270741e-01,3,0,5.139761e+00,5.139765e+00
6.159800e+00,8.545580e-01,8.220673e-01,3,0,4.197784e+00,4.197786e+00
6.200420e+00,1.346306e+01,1.343489e+01,3,8,7.812559e+00,7.853798e+00
6.166074e+00,1.203338e+01,1.200294e+01,3,8,3.636664e+00,3.636661e+00
6.161001e+00,8.505220e-01,8.230209e-01,3,0,3.409385e+00,3.409387e+00
6.162163e+00,8.534590e-01,8.251667e-01,3,0,4.083952e+00,4.083955e+00
6.160253e+00,8.528910e-01,8.251667e-01,3,0,2.234634e+00,2.234634e+00
6.159341e+00,8.718210e-01,8.299351e-01,3,0,2.530356e+00,2.530358e+00
6.160309e+00,8.803520e-01,8.518696e-01,3,0,1.817072e+00,1.817073e+00
6.183114e+00,8.539940e-01,8.261204e-01,3,0,2.950590e+00,2.950593e+00
6.187150e+00,8.615380e-01,8.339882e-01,3,0,3.131716e+00,3.131718e+00
6.168102e+00,8.550320e-01,8.268356e-01,3,0,4.134453e+00,4.134456e+00
6.161844e+00,8.464250e-01,8.189678e-01,3,0,6.417191e+00,6.417196e+00
8.223187e+00,7.851513e+00,7.822990e+00,4,5,9.655117e+00,9.657082e+00
1.435643e+01,6.114889e+00,6.085873e+00,7,4,6.817743e+00,6.811342e+00
8.220292e+00,1.967616e+00,1.939058e+00,4,1,4.300745e+00,4.300744e+00
6.160945e+00,8.571570e-01,8.289814e-01,3,0,5.174983e+00,5.174986e+00
6.160378e+00,8.514810e-01,8.239746e-01,3,0,6.341704e+00,6.341707e+00
6.167290e+00,8.541670e-01,8.270741e-01,3,0,7.640497e+00,7.640501e+00
6.177143e+00,8.473190e-01,8.199215e-01,3,0,6.564757e+00,6.564758e+00
6.167716e+00,8.708010e-01,8.430481e-01,3,0,8.415235e+00,8.415240e+00
6.188125e+00,8.572610e-01,8.289814e-01,3,0,5.087572e+00,5.087570e+00
6.159659e+00,8.557470e-01,8.280277e-01,3,0,7.623858e+00,7.623852e+00
6.159154e+00,2.012567e+00,1.985073e+00,3,1,7.792000e+00,7.788627e+00
1.230552e+01,8.498860e-01,8.220673e-01,6,0,7.326094e+00,7.314973e+00
1.231208e+01,3.999026e+00,3.970861e+00,6,2,1.252811e+01,1.252145e+01
8.207414e+00,5.054513e+00,5.025864e+00,4,3,9.029480e+00,9.029478e+00
6.162822e+00,2.531423e+00,2.502918e+00,3,1,1.195268e+01,1.195300e+01
6.171606e+00,7.254440e+00,7.227182e+00,3,4,1.364609e+01,1.364670e+01
8.223872e+00,7.510876e+00,7.481813e+00,4,5,8.848815e+00,8.847525e+00
6.177341e+00,8.498600e-01,8.211136e-01,3,0,7.136098e+00,7.136094e+00
6.172398e+00,8.634790e-01,8.358955e-01,3,0,6.927773e+00,6.927775e+00
6.171946e+00,8.513440e-01,8.230209e-01,3,0,6.021767e+00,6.021768e+00
6.170835e+00,8.523040e-01,8.249283e-01,3,0,6.882303e+00,6.882307e+00
6.175835e+00,8.635490e-01,8.370876e-01,3,0,7.706742e+00,7.706745e+00
6.181272e+00,4.725512e+00,4.686832e+00,3,0,7.151413e+00,8.269602e+00
6.175145e+00,4.721382e+00,4.683018e+00,3,0,7.442635e+00,9.682443e+00
1.026732e+01,4.709678e+00,4.671097e+00,5,0,7.174250e+00,1.609000e+01
6.178288e+00,4.734451e+00,4.695892e+00,3,0,5.656026e+00,1.158439e+01
6.168027e+00,8.699170e-01,8.418560e-01,3,0,2.178388e+00,2.178382e+00
6.172798e+00,8.512360e-01,8.239746e-01,3,0,2.357586e+00,2.357589e+00
6.166048e+00,8.532060e-01,8.261204e-01,3,0,3.242335e+00,3.242337e+00
6.160506e+00,8.478450e-01,8.211136e-01,3,0,2.966327e+00,2.966329e+00
6.161988e+00,8.535100e-01,8.258820e-01,3,0,2.567000e+00,2.567002e+00
6.159985e+00,8.530320e-01,8.261204e-01,3,0,5.656817e+00,5.656822e+00
6.182073e+00,4.108993e+00,4.081011e+00,3,2,9.282537e+00,9.282813e+00
6.174576e+00,3.649008e+00,3.620863e+00,3,2,6.820491e+00,6.820490e+00
6.164232e+00,8.448760e-01,8.170605e-01,3,0,4.505032e+00,4.505031e+00
6.161957e+00,8.549670e-01,8.261204e-01,3,0,4.766942e+00,4.766944e+00
6.159907e+00,8.540080e-01,8.261204e-01,3,0,3.913275e+00,3.913275e+00
6.159824e+00,8.519150e-01,8.239746e-01,3,0,4.531188e+00,4.531193e+00
6.164413e+00,4.052068e+00,4.024029e+00,3,2,5.577535e+00,5.632384e+00
6.162805e+00,3.639325e+00,3.611088e+00,3,2,3.365044e+00,3.365044e+00
6.167799e+00,1.068677e+01,1.064777e+01,3,3,6.362929e+00,1.098598e+01
6.163428e+00,5.037023e+00,5.008936e+00,3,3,3.791595e+00,3.791594e+00
6.160735e+00,8.476960e-01,8.199215e-01,3,0,3.135755e+00,3.135759e+00
6.170615e+00,8.687180e-01,8.411407e-01,3,0,3.895584e+00,3.895576e+00
6.156930e+00,8.473150e-01,8.189678e-01,3,0,2.582829e+00,2.582803e+00
6.162419e+00,8.525680e-01,8.251667e-01,3,0,1.727840e+00,1.727840e+00
6.160068e+00,8.508290e-01,8.239746e-01,3,0,6.356051e+00,6.356061e+00
6.163110e+00,8.816799e+00,8.789062e+00,3,5,1.006241e+01,1.010644e+01
8.214783e+00,6.139928e+00,6.101370e+00,4,0,1.866942e+01,4.440553e+01
1.231305e+01,6.160200e+00,6.123066e+00,6,0,2.380112e+01,6.093435e+01
1.230706e+01,1.632669e+01,1.628995e+01,6,7,1.435633e+01,1.994162e+01
8.268787e+00,6.590978e+00,6.561995e+00,4,4,8.763688e+00,8.768185e+00
8.208286e+00,3.650412e+00,3.621101e+00,4,2,5.696956e+00,5.696956e+00
6.166747e+00,8.499610e-01,8.211136e-01,3,0,4.601082e+00,4.601083e+00
6.059885e+00,7.398552e+00,7.369995e+00,3,4,6.106783e+00,6.131143e+00
6.032300e+00,2.640957e+00,2.614021e+00,3,1,6.002166e+00,6.019038e+00
6.104803e+00,5.324908e+00,5.296946e+00,3,3,5.662794e+00,5.696369e+00
8.225627e+00,2.091566e+01,2.088785e+01,4,13,9.388078e+00,9.697571e+00
1.027186e+01,1.891102e+01,1.888299e+01,5,13,4.265738e+00,4.244617e+00
8.217629e+00,8.503340e-01,8.218288e-01,4,0,3.709237e+00,3.709237e+00
6.165201e+00,8.516680e-01,8.239746e-01,3,0,2.978764e+00,2.978766e+00
6.163840e+00,8.536230e-01,8.258820e-01,3,0,3.429640e+00,3.429642e+00
6.165760e+00,8.532920e-01,8.261204e-01,3,0,3.451448e+00,3.451451e+00
6.166959e+00,8.544180e-01,8.270741e-01,3,0,2.646606e+00,2.646607e+00
6.176122e+00,9.300500e-01,8.978844e-01,3,0,1.933626e+00,1.933627e+00
6.203325e+00,9.234180e-01,8.928776e-01,3,0,2.585860e+00,2.585862e+00
6.214087e+00,9.050270e-01,8.749962e-01,3,0,3.300463e+00,3.300465e+00
6.192147e+00,8.665380e-01,8.380413e-01,3,0,5.401560e+00,5.401565e+00
6.185710e+00,8.521000e-01,8.239746e-01,3,0,5.151151e+00,5.151152e+00
6.161193e+00,8.576470e-01,8.299351e-01,3,0,3.159136e+00,3.159135e+00
6.160837e+00,8.554420e-01,8.280277e-01,3,0,3.106487e+00,3.106488e+00
6.158531e+00,8.550870e-01,8.270741e-01,3,0,3.049198e+00,3.049199e+00
6.166558e+00,8.560220e-01,8.289814e-01,3,0,3.512245e+00,3.512247e+00
6.162196e+00,8.494100e-01,8.208752e-01,3,0,2.716422e+00,2.716422e+00
6.160100e+00,8.528030e-01,8.258820e-01,3,0,2.011859e+00,2.011860e+00
6.192918e+00,8.537800e-01,8.258820e-01,3,0,2.219400e+00,2.219401e+00
6.188267e+00,8.540330e-01,8.258820e-01,3,0,1.617782e+00,1.617782e+00
6.166722e+00,8.548430e-01,8.268356e-01,3,0,2.381040e+00,2.381042e+00
6.165583e+00,8.471650e-01,8.201599e-01,3,0,2.075578e+00,2.075579e+00
6.161836e+00,8.544520e-01,8.268356e-01,3,0,3.422824e+00,3.422828e+00
6.165912e+00,8.555150e-01,8.280277e-01,3,0,1.292605e+00,1.292605e+00
6.171150e+00,8.671120e-01,8.399487e-01,3,0,1.846623e+00,1.846625e+00
6.189368e+00,8.538300e-01,8.258820e-01,3,0,1.724565e+00,1.724566e+00
6.165358e+00,8.569380e-01,8.280277e-01,3,0,2.360828e+00,2.360830e+00
6.180012e+00,8.580240e-01,8.299351e-01,3,0,2.391697e+00,2.391699e+00
6.159750e+00,8.556490e-01,8.280277e-01,3,0,1.952664e+00,1.952665e+00
6.159592e+00,8.558460e-01,8.280277e-01,3,0,2.006092e+00,2.006093e+00
6.156876e+00,8.514120e-01,8.189678e-01,3,0,2.776889e+00,2.776892e+00
6.160402e+00,8.783500e-01,8.511543e-01,3,0,1.972064e+00,1.972065e+00
6.189416e+00,8.715630e-01,8.440018e-01,3,0,2.681342e+00,2.681344e+00
6.185117e+00,8.559150e-01,8.280277e-01,3,0,1.689928e+00,1.689929e+00
6.165010e+00,8.567770e-01,8.289814e-01,3,0,1.811065e+00,1.811066e+00
6.159156e+00,8.499940e-01,8.220673e-01,3,0,1.781486e+00,1.781488e+00
6.158120e+00,8.537160e-01,8.261204e-01,3,0,1.210010e+00,1.210010e+00
6.158953e+00,8.522210e-01,8.249283e-01,3,0,2.657969e+00,2.657972e+00
6.162209e+00,8.795180e-01,8.521080e-01,3,0,1.668751e+00,1.668751e+00
6.196935e+00,8.570570e-01,8.299351e-01,3,0,2.292462e+00,2.292464e+00
6.159757e+00,8.488450e-01,8.211136e-01,3,0,2.901976e+00,2.901981e+00
6.159378e+00,8.520560e-01,8.249283e-01,3,0,1.969572e+00,1.969572e+00
6.161276e+00,8.527260e-01,8.249283e-01,3,0,3.389860e+00,3.389864e+00
6.159719e+00,8.546270e-01,8.280277e-01,3,0,3.114049e+00,3.114050e+00
6.189246e+00,8.518370e-01,8.249283e-01,3,0,3.624401e+00,3.624403e+00
6.157506e+00,8.496390e-01,8.220673e-01,3,0,4.811712e+00,4.811715e+00
6.185774e+00,8.535790e-01,8.258820e-01,3,0,2.996326e+00,2.996325e+00
6.209435e+00,2.015919e+00,1.988173e+00,3,1,4.193880e+00,4.193511e+00
8.200689e+00,1.972045e+00,1.943827e+00,4,1,1.369574e+00,1.369577e+00
6.158680e+00,8.497690e-01,8.208752e-01,3,0,2.162837e+00,2.162840e+00
6.158671e+00,8.535170e-01,8.249283e-01,3,0,1.690640e+00,1.690640e+00
6.184555e+00,8.509960e-01,8.230209e-01,3,0,1.532820e+00,1.532821e+00
6.163797e+00,8.669920e-01,8.399487e-01,3,0,1.343390e+00,1.343391e+00
6.299024e+00,8.470490e-01,8.201599e-01,3,0,1.350759e+00,1.350760e+00
6.347216e+00,9.418650e-01,9.109974e-01,3,0,3.292757e+00,3.292762e+00
6.252444e+00,9.489050e-01,9.169579e-01,3,0,1.210657e+00,1.210658e+00
6.240861e+00,8.968840e-01,8.668900e-01,3,0,1.299863e+00,1.299864e+00
6.189230e+00,8.681180e-01,8.411407e-01,3,0,1.200008e+00,1.200008e+00
6.192013e+00,8.926420e-01,8.649826e-01,3,0,9.818082e-01,9.818091e-01
6.226295e+00,8.516750e-01,8.239746e-01,3,0,9.610661e-01,9.610670e-01
6.191371e+00,8.599610e-01,8.320808e-01,3,0,2.278707e+00,2.278710e+00
6.165567e+00,8.576950e-01,8.299351e-01,3,0,1.685161e+00,1.685161e+00
6.174656e+00,8.581790e-01,8.299351e-01,3,0,1.924211e+00,1.924213e+00
6.160937e+00,8.496080e-01,8.220673e-01,3,0,2.385910e+00,2.385912e+00
6.161806e+00,8.523370e-01,8.249283e-01,3,0,5.104788e+00,5.104793e+00
6.166103e+00,2.447646e+00,2.420187e+00,3,1,1.015645e+01,1.015680e+01
6.171108e+00,2.250933e+01,2.248096e+01,3,14,1.537486e+01,1.544451e+01
1.232999e+01,2.403710e+01,2.400804e+01,6,16,1.083454e+01,1.083315e+01
1.236485e+01,7.860049e+00,7.831097e+00,6,5,7.693527e+00,7.692201e+00
1.034614e+01,8.521220e-01,8.242130e-01,5,0,6.956478e+00,6.949119e+00
8.219036e+00,2.433582e+00,2.404928e+00,4,1,6.861567e+00,6.862099e+00
6.159073e+00,2.615809e+00,2.587080e+00,3,1,8.003824e+00,8.003712e+00
8.209078e+00,3.661622e+00,3.633022e+00,4,2,4.807864e+00,4.807862e+00
6.159235e+00,8.581370e-01,8.299351e-01,3,0,6.613192e+00,6.613198e+00
6.185513e+00,8.607770e-01,8.320808e-01,3,0,4.487060e+00,4.487060e+00
6.162806e+00,8.563650e-01,8.280277e-01,3,0,4.728810e+00,4.728812e+00
6.167015e+00,8.930860e-01,8.649826e-01,3,0,3.792379e+00,3.792381e+00
6.185653e+00,8.629390e-01,8.349419e-01,3,0,4.114141e+00,4.114143e+00
6.161960e+00,8.567640e-01,8.289814e-01,3,0,3.759994e+00,3.759995e+00
6.162378e+00,8.671960e-01,8.399487e-01,3,0,4.625263e+00,4.625266e+00
6.159175e+00,8.556840e-01,8.280277e-01,3,0,3.964243e+00,3.964244e+00
6.189747e+00,8.542820e-01,8.270741e-01,3,0,4.218624e+00,4.218627e+00
6.202827e+00,8.598420e-01,8.318424e-01,3,0,4.343462e+00,4.343463e+00
6.174933e+00,8.555380e-01,8.268356e-01,3,0,3.869794e+00,3.869795e+00
6.173626e+00,8.685440e-01,8.399487e-01,3,0,3.613221e+00,3.613222e+00
6.165882e+00,8.567540e-01,8.289814e-01,3,0,5.028968e+00,5.028972e+00
6.160415e+00,8.567000e-01,8.289814e-01,3,0,3.979978e+00,3.979978e+00
6.160632e+00,8.673780e-01,8.389950e-01,3,0,4.938948e+00,4.938952e+00
6.187775e+00,8.545130e-01,8.268356e-01,3,0,4.386191e+00,4.386192e+00
6.185916e+00,8.540950e-01,8.268356e-01,3,0,4.417577e+00,4.417579e+00
6.165463e+00,8.546320e-01,8.270741e-01,3,0,6.270049e+00,6.270053e+00
6.156586e+00,8.732240e-01,8.459091e-01,3,0,4.145049e+00,4.145048e+00
6.160811e+00,8.558690e-01,8.289814e-01,3,0,3.465212e+00,3.465213e+00
6.162081e+00,8.563100e-01,8.299351e-01,3,0,3.509265e+00,3.509266e+00
6.157549e+00,8.548010e-01,8.268356e-01,3,0,4.050620e+00,4.050623e+00
6.194805e+00,8.534370e-01,8.258820e-01,3,0,3.091365e+00,3.091366e+00
6.158286e+00,8.496380e-01,8.220673e-01,3,0,3.682184e+00,3.682186e+00
6.160247e+00,8.537480e-01,8.261204e-01,3,0,2.969415e+00,2.969415e+00
6.156154e+00,2.018465e+00,1.991034e+00,3,1,4.099739e+00,4.099608e+00
8.214892e+00,1.967743e+00,1.940012e+00,4,1,3.173754e+00,3.173752e+00
6.161702e+00,8.515390e-01,8.230209e-01,3,0,3.976351e+00,3.976353e+00
6.159617e+00,8.544140e-01,8.270741e-01,3,0,5.363197e+00,5.363201e+00
6.158753e+00,8.820680e-01,8.540154e-01,3,0,4.108982e+00,4.108982e+00
6.206400e+00,8.540410e-01,8.270741e-01,3,0,1.873437e+00,1.873438e+00
6.184283e+00,8.509450e-01,8.220673e-01,3,0,2.517194e+00,2.517196e+00
6.163532e+00,8.632040e-01,8.349419e-01,3,0,2.800666e+00,2.800668e+00
6.216476e+00,8.538240e-01,8.270741e-01,3,0,2.572174e+00,2.572175e+00
6.167155e+00,8.560530e-01,8.280277e-01,3,0,5.375571e+00,5.375576e+00
6.190619e+00,8.559630e-01,8.270741e-01,3,0,4.686639e+00,4.686640e+00
6.160968e+00,8.525870e-01,8.239746e-01,3,0,3.189148e+00,3.189148e+00
6.160021e+00,8.589070e-01,8.320808e-01,3,0,7.758278e+00,7.758286e+00
6.159847e+00,8.637380e-01,8.361340e-01,3,0,9.764369e+00,9.764374e+00
6.163468e+00,1.066581e+01,1.062441e+01,3,3,1.463160e+01,1.637737e+01
1.237668e+01,1.350363e+01,1.346493e+01,6,5,1.740113e+01,1.752302e+01
1.452128e+01,8.294401e+00,8.265972e+00,7,5,1.670574e+01,1.671243e+01
1.028746e+01,4.783517e+00,4.755020e+00,5,3,1.447505e+01,1.447414e+01
8.215378e+00,2.014235e+00,1.986027e+00,4,1,1.538087e+01,1.538013e+01
1.024830e+01,1.967378e+00,1.940012e+00,5,1,1.485617e+01,1.485424e+01
8.217802e+00,8.515600e-01,8.230209e-01,4,0,1.096264e+01,1.096264e+01
6.159963e+00,8.489650e-01,8.211136e-01,3,0,7.829364e+00,7.829363e+00
6.163684e+00,8.575120e-01,8.301735e-01,3,0,6.996622e+00,6.996623e+00
6.160411e+00,8.560870e-01,8.289814e-01,3,0,7.451433e+00,7.451437e+00
6.159279e+00,8.562840e-01,8.289814e-01,3,0,5.883390e+00,5.883390e+00
6.165570e+00,8.636480e-01,8.361340e-01,3,0,4.847687e+00,4.847688e+00
6.157576e+00,8.503780e-01,8.220673e-01,3,0,3.799418e+00,3.799419e+00
6.159846e+00,8.552430e-01,8.280277e-01,3,0,2.946502e+00,2.946502e+00
6.175943e+00,2.968745e+01,2.965999e+01,3,18,1.031478e+01,1.062853e+01
8.249258e+00,2.617598e+01,2.614594e+01,4,18,4.540710e+00,4.540705e+00
6.190912e+00,8.566250e-01,8.280277e-01,3,0,5.458637e+00,5.458639e+00
6.165458e+00,1.016167e+01,1.013303e+01,3,6,7.638783e+00,7.645167e+00
8.210926e+00,9.252089e+00,9.222984e+00,4,6,5.028080e+00,5.028078e+00
6.188876e+00,8.534920e-01,8.249283e-01,3,0,2.787051e+00,2.787051e+00
6.179860e+00,8.534410e-01,8.258820e-01,3,0,4.599381e+00,4.599385e+00
6.170888e+00,8.749000e-01,8.380413e-01,3,0,3.808682e+00,3.808683e+00
6.164827e+00,8.721470e-01,8.440018e-01,3,0,3.417832e+00,3.417832e+00
6.161824e+00,8.562100e-01,8.280277e-01,3,0,3.258812e+00,3.258813e+00
6.163674e+00,8.557210e-01,8.277893e-01,3,0,3.415891e+00,3.415894e+00
6.165124e+00,8.543840e-01,8.270741e-01,3,0,2.284327e+00,2.284328e+00
6.190078e+00,8.562570e-01,8.289814e-01,3,0,1.443577e+00,1.443578e+00
6.186397e+00,8.693050e-01,8.418560e-01,3,0,1.610212e+00,1.610213e+00
6.187962e+00,8.545600e-01,8.270741e-01,3,0,3.718258e+00,3.718262e+00
6.159667e+00,8.519250e-01,8.239746e-01,3,0,7.436665e+00,7.436672e+00
6.172333e+00,1.491512e+01,1.488686e+01,3,9,1.079111e+01,1.088774e+01
1.230442e+01,1.421961e+01,1.419115e+01,6,9,8.371053e+00,8.364828e+00
1.230913e+01,6.778557e+00,6.749868e+00,6,4,7.877734e+00,7.874704e+00
1.438756e+01,6.146160e+00,6.117105e+00,7,4,6.018125e+00,6.016633e+00
8.265759e+00,8.536350e-01,8.251667e-01,4,0,3.609232e+00,3.609234e+00
6.163076e+00,8.600740e-01,8.320808e-01,3,0,4.024718e+00,4.024721e+00
6.158061e+00,8.570650e-01,8.299351e-01,3,0,3.725123e+00,3.725125e+00
6.159864e+00,8.594430e-01,8.320808e-01,3,0,2.843990e+00,2.843990e+00
6.188820e+00,8.567310e-01,8.299351e-01,3,0,3.451174e+00,3.451176e+00
6.160221e+00,8.554160e-01,8.208752e-01,3,0,2.965991e+00,2.965991e+00
6.161722e+00,8.566290e-01,8.289814e-01,3,0,3.420417e+00,3.420420e+00
6.160979e+00,8.541970e-01,8.268356e-01,3,0,6.718869e+00,6.718876e+00
6.166528e+00,3.170431e+00,3.143072e+00,3,2,8.939433e+00,8.937516e+00
1.439362e+01,3.078054e+00,3.050089e+00,7,2,5.019186e+00,5.019007e+00
6.200553e+00,8.542330e-01,8.249283e-01,3,0,3.277224e+00,3.277225e+00
6.175250e+00,8.772790e-01,8.258820e-01,3,0,2.775586e+00,2.775587e+00
6.179956e+00,9.010290e-01,8.721352e-01,3,0,2.096961e+00,2.096962e+00
6.166729e+00,7.537038e+00,7.500172e+00,3,1,9.107553e+00,1.857384e+01
6.171627e+00,6.156976e+00,6.118774e+00,3,0,1.012243e+01,2.210672e+01
1.230546e+01,6.195497e+00,6.157160e+00,6,0,1.503782e+01,4.674831e+01
1.025658e+01,6.158565e+00,6.119013e+00,5,0,1.244558e+01,3.296170e+01
1.233286e+01,6.150509e+00,6.113052e+00,6,0,1.938913e+01,5.825457e+01
1.232725e+01,6.192420e+00,6.153584e+00,6,0,2.607904e+01,7.313247e+01
1.231110e+01,7.613570e+00,7.574797e+00,6,1,2.543171e+01,5.320244e+01
1.256771e+01,6.237128e+00,6.197453e+00,6,0,2.223553e+01,2.869616e+01
1.044152e+01,1.081378e+01,1.077080e+01,5,3,1.683188e+01,1.669520e+01
8.363594e+00,2.606258e+00,2.577066e+00,4,1,1.525661e+01,1.526035e+01
6.293768e+00,2.559167e+00,2.531052e+00,3,1,1.412173e+01,1.413121e+01
6.267716e+00,2.304001e+00,2.275944e+00,3,1,1.217120e+01,1.217120e+01
6.275451e+00,8.797100e-01,8.509159e-01,3,0,1.039115e+01,1.039115e+01
6.316642e+00,8.812730e-01,8.530617e-01,3,0,8.882676e+00,8.882678e+00
6.344703e+00,8.833150e-01,8.561611e-01,3,0,8.120604e+00,8.120605e+00
6.309868e+00,8.507080e-01,8.230209e-01,3,0,7.550058e+00,7.550060e+00
6.308899e+00,8.805840e-01,8.528233e-01,3,0,5.516605e+00,5.516605e+00
6.345678e+00,8.827550e-01,8.549690e-01,3,0,5.023806e+00,5.023808e+00
6.351568e+00,8.831710e-01,8.549690e-01,3,0,4.315716e+00,4.315717e+00
6.356806e+00,2.074040e+00,2.045870e+00,3,1,5.535538e+00,5.535342e+00
8.450239e+00,2.046656e+00,2.017021e+00,4,1,3.857978e+00,3.857979e+00
6.345958e+00,4.227827e+00,4.198790e+00,3,2,5.834448e+00,5.834620e+00
6.196388e+00,1.422943e+01,1.420093e+01,3,8,9.414157e+00,9.575362e+00
8.210019e+00,1.483348e+01,1.480412e+01,4,10,5.345252e+00,5.345246e+00
6.171836e+00,4.207184e+00,4.177809e+00,3,2,8.534795e+00,8.534877e+00
6.167098e+00,4.016674e+00,3.988028e+00,3,2,9.954285e+00,9.956645e+00
1.025433e+01,5.039246e+00,5.012035e+00,5,3,8.088399e+00,8.088572e+00
1.232335e+01,2.259218e+00,2.230883e+00,6,1,7.236714e+00,7.236438e+00
8.210205e+00,8.539520e-01,8.249283e-01,4,0,5.511917e+00,5.511917e+00
6.192942e+00,8.590480e-01,8.308887e-01,3,0,6.728448e+00,6.728451e+00
6.184574e+00,8.600740e-01,8.320808e-01,3,0,4.037579e+00,4.037579e+00
6.193297e+00,3.588232e+00,3.559828e+00,3,2,7.023534e+00,7.023428e+00
8.207466e+00,3.368202e+00,3.339052e+00,4,2,7.972695e+00,7.972783e+00
6.165509e+00,2.421231e+00,2.392769e+00,3,1,9.385818e+00,9.385838e+00
6.236144e+00,6.132587e+00,6.099939e+00,3,4,1.440260e+01,1.439851e+01
1.230453e+01,6.970691e+00,6.942034e+00,6,4,1.232646e+01,1.233926e+01
8.387487e+00,2.258237e+00,2.229929e+00,4,1,6.497582e+00,6.497581e+00
6.364542e+00,9.371840e-01,9.050369e-01,3,0,6.358878e+00,6.358880e+00
6.348867e+00,9.417810e-01,9.109974e-01,3,0,6.878834e+00,6.878838e+00
6.349603e+00,9.087290e-01,8.780956e-01,3,0,5.560712e+00,5.560713e+00
6.361936e+00,2.619353e+00,2.591133e+00,3,1,6.599216e+00,6.619685e+00
6.361581e+00,6.378059e+00,6.337166e+00,3,0,6.810367e+00,1.086530e+01
6.497891e+00,6.346558e+00,6.306648e+00,3,0,7.362591e+00,1.681382e+01
1.267012e+01,1.049925e+01,1.046991e+01,6,6,5.533075e+00,5.841156e+00
1.265688e+01,8.273408e+00,8.244038e+00,6,5,4.793300e+00,4.777273e+00
1.266996e+01,8.876540e-01,8.580685e-01,6,0,5.896008e+00,5.876556e+00
8.206318e+00,3.624659e+00,3.596067e+00,4,2,6.916860e+00,6.916565e+00
1.233305e+01,3.357664e+00,3.329039e+00,6,2,4.098118e+00,4.091981e+00
6.160367e+00,8.542210e-01,8.261204e-01,3,0,2.457275e+00,2.457241e+00
6.161985e+00,8.540030e-01,8.270741e-01,3,0,2.629771e+00,2.629772e+00
6.167343e+00,8.558230e-01,8.289814e-01,3,0,2.062353e+00,2.062353e+00
6.214190e+00,8.817270e-01,8.540154e-01,3,0,3.907762e+00,3.907766e+00
6.191192e+00,8.607150e-01,8.320808e-01,3,0,1.672218e+00,1.672218e+00
6.193835e+00,8.869870e-01,8.590221e-01,3,0,2.562000e+00,2.562003e+00
6.166385e+00,4.209656e+00,4.182100e+00,3,2,8.540060e+00,8.549893e+00
6.181530e+00,1.040635e+01,1.037884e+01,3,6,9.105094e+00,9.108302e+00
6.195613e+00,6.473229e+00,6.445169e+00,3,4,8.067846e+00,8.067845e+00
6.189183e+00,2.524590e+00,2.496004e+00,3,1,7.686924e+00,7.692307e+00
6.162380e+00,2.256242e+00,2.227068e+00,3,1,5.212942e+00,5.212915e+00
6.158951e+00,8.498110e-01,8.220673e-01,3,0,5.585668e+00,5.585670e+00
6.161673e+00,2.020827e+00,1.993179e+00,3,1,8.005831e+00,8.005631e+00
8.230103e+00,1.964727e+00,1.936913e+00,4,1,3.756059e+00,3.756055e+00
6.176980e+00,8.509350e-01,8.230209e-01,3,0,2.034050e+00,2.034051e+00
6.169726e+00,8.578530e-01,8.299351e-01,3,0,1.764432e+00,1.764433e+00
6.198739e+00,8.590680e-01,8.308887e-01,3,0,1.784465e+00,1.784465e+00
6.166613e+00,8.550060e-01,8.270741e-01,3,0,2.536873e+00,2.536877e+00
6.159251e+00,8.503520e-01,8.230209e-01,3,0,3.027688e+00,3.027690e+00
6.161702e+00,8.540680e-01,8.261204e-01,3,0,5.765064e+00,5.765069e+00
6.188103e+00,8.565590e-01,8.289814e-01,3,0,4.918186e+00,4.918187e+00
6.188448e+00,8.571810e-01,8.299351e-01,3,0,4.571469e+00,4.571469e+00
6.183188e+00,8.569900e-01,8.239746e-01,3,0,5.597287e+00,5.597290e+00
6.163501e+00,6.883054e+00,6.855965e+00,3,4,1.292407e+01,1.292411e+01
8.207051e+00,6.154092e+00,6.124973e+00,4,4,6.701255e+00,6.701069e+00
6.200844e+00,8.556170e-01,8.268356e-01,3,0,8.117889e+00,8.117867e+00
6.188341e+00,8.562160e-01,8.270741e-01,3,0,5.789885e+00,5.789888e+00
6.159914e+00,8.574210e-01,8.299351e-01,3,0,6.746735e+00,6.746739e+00
6.161300e+00,8.535840e-01,8.270741e-01,3,0,5.073061e+00,5.073061e+00
6.191244e+00,8.575010e-01,8.299351e-01,3,0,4.693490e+00,4.693491e+00
6.159445e+00,8.494210e-01,8.220673e-01,3,0,4.680249e+00,4.680251e+00
6.165953e+00,2.519981e+00,2.491951e+00,3,1,7.646211e+00,7.646224e+00
6.186570e+00,2.279934e+00,2.250910e+00,3,1,6.858424e+00,6.858425e+00
6.159013e+00,8.550860e-01,8.270741e-01,3,0,6.462027e+00,6.462028e+00
6.168196e+00,8.806250e-01,8.528233e-01,3,0,5.085218e+00,5.085219e+00
6.162087e+00,8.543470e-01,8.268356e-01,3,0,3.507799e+00,3.507800e+00
6.161130e+00,8.533620e-01,8.258820e-01,3,0,2.606514e+00,2.606514e+00
6.161349e+00,4.733410e+00,4.694939e+00,3,0,7.737602e+00,1.129504e+01
6.188819e+00,8.634240e-01,8.349419e-01,3,0,4.015694e+00,4.015691e+00
6.165031e+00,8.553630e-01,8.280277e-01,3,0,2.998331e+00,2.998332e+00
6.159606e+00,8.493970e-01,8.220673e-01,3,0,2.896807e+00,2.896810e+00
6.161200e+00,8.548400e-01,8.280277e-01,3,0,1.433830e+00,1.433830e+00
6.157713e+00,8.568610e-01,8.299351e-01,3,0,1.933631e+00,1.933632e+00
6.158810e+00,8.555350e-01,8.280277e-01,3,0,2.430285e+00,2.430286e+00
6.164666e+00,8.543660e-01,8.270741e-01,3,0,2.447250e+00,2.447252e+00
6.186259e+00,8.481210e-01,8.199215e-01,3,0,3.413912e+00,3.413915e+00
6.221897e+00,8.555160e-01,8.270741e-01,3,0,4.089895e+00,4.089898e+00
6.189413e+00,8.576420e-01,8.301735e-01,3,0,3.324030e+00,3.324031e+00
6.161199e+00,8.658230e-01,8.380413e-01,3,0,3.489109e+00,3.489110e+00
6.219550e+00,8.543980e-01,8.270741e-01,3,0,4.132264e+00,4.132267e+00
6.160035e+00,8.548430e-01,8.280277e-01,3,0,2.164102e+00,2.164104e+00
6.160110e+00,8.551170e-01,8.280277e-01,3,0,2.125086e+00,2.125087e+00
6.185391e+00,8.528490e-01,8.249283e-01,3,0,3.683133e+00,3.683136e+00
6.162791e+00,8.638900e-01,8.358955e-01,3,0,3.038372e+00,3.038372e+00
6.158704e+00,8.533400e-01,8.218288e-01,3,0,1.405521e+00,1.405521e+00
6.156668e+00,8.555810e-01,8.289814e-01,3,0,2.566203e+00,2.566206e+00
6.158265e+00,8.520790e-01,8.239746e-01,3,0,2.060957e+00,2.060961e+00
6.158106e+00,8.545950e-01,8.268356e-01,3,0,2.230222e+00,2.230224e+00
6.161435e+00,8.517710e-01,8.239746e-01,3,0,2.657212e+00,2.657215e+00
6.162298e+00,8.551450e-01,8.280277e-01,3,0,5.414276e+00,5.414282e+00
6.184722e+00,8.542320e-01,8.270741e-01,3,0,1.841475e+00,1.841475e+00
6.185751e+00,8.530820e-01,8.249283e-01,3,0,2.052421e+00,2.052423e+00
6.157865e+00,8.545820e-01,8.270741e-01,3,0,1.726848e+00,1.726849e+00
6.159813e+00,8.550620e-01,8.280277e-01,3,0,1.675471e+00,1.675473e+00
6.156570e+00,8.543030e-01,8.218288e-01,3,0,1.921019e+00,1.921020e+00
6.159321e+00,8.543970e-01,8.270741e-01,3,0,3.453879e+00,3.453882e+00
6.160299e+00,8.781720e-01,8.499622e-01,3,0,2.168906e+00,2.168906e+00
6.159128e+00,8.543070e-01,8.270741e-01,3,0,5.113855e+00,5.113862e+00
6.160068e+00,8.527050e-01,8.251667e-01,3,0,6.212971e+00,6.212975e+00
6.163760e+00,8.545370e-01,8.208752e-01,3,0,5.148778e+00,5.148780e+00
6.167995e+00,2.535960e+00,2.507925e+00,3,1,6.700387e+00,6.702075e+00
6.161395e+00,2.248593e+00,2.220869e+00,3,1,5.420217e+00,5.420218e+00
6.187440e+00,8.512710e-01,8.230209e-01,3,0,6.094303e+00,6.094306e+00
6.193441e+00,8.550020e-01,8.270741e-01,3,0,5.495350e+00,5.495352e+00
6.186843e+00,8.499990e-01,8.220673e-01,3,0,7.324715e+00,7.324721e+00
6.164365e+00,8.554410e-01,8.270741e-01,3,0,5.525461e+00,5.525461e+00
6.164040e+00,2.532212e+00,2.504826e+00,3,1,1.011797e+01,1.018212e+01
6.192540e+00,1.493417e+01,1.489544e+01,3,6,1.328196e+01,1.723095e+01
1.233043e+01,6.701929e+00,6.672859e+00,6,4,9.682443e+00,9.670309e+00
1.230944e+01,1.342735e+01,1.338911e+01,6,5,9.875452e+00,1.001301e+01
1.025953e+01,6.131643e+00,6.092072e+00,5,0,1.199428e+01,1.627236e+01
1.024563e+01,1.102250e+01,1.098275e+01,5,4,1.057264e+01,1.056894e+01
1.229499e+01,2.242226e+00,2.213955e+00,6,1,9.196777e+00,9.175769e+00
8.205908e+00,1.959543e+00,1.931906e+00,4,1,9.363414e+00,9.363410e+00
6.165814e+00,8.440540e-01,8.170605e-01,3,0,7.476443e+00,7.476443e+00
6.157532e+00,8.429050e-01,8.158684e-01,3,0,5.758252e+00,5.758253e+00
6.157432e+00,8.462150e-01,8.192062e-01,3,0,7.684307e+00,7.684313e+00
6.159971e+00,2.504959e+00,2.477169e+00,3,1,7.618653e+00,7.622161e+00
6.162450e+00,2.241672e+00,2.213955e+00,3,1,3.342451e+00,3.342450e+00
6.190921e+00,8.451540e-01,8.180141e-01,3,0,2.683812e+00,2.683815e+00
6.243384e+00,8.485650e-01,8.211136e-01,3,0,2.868474e+00,2.868475e+00
6.163008e+00,8.550600e-01,8.270741e-01,3,0,2.133744e+00,2.133745e+00
6.165838e+00,8.558770e-01,8.277893e-01,3,0,1.816200e+00,1.816201e+00
6.164930e+00,2.011136e+00,1.983166e+00,3,1,3.419109e+00,3.418817e+00
8.204198e+00,1.980024e+00,1.951933e+00,4,1,4.062807e+00,4.062809e+00
6.160480e+00,8.522330e-01,8.239746e-01,3,0,2.334839e+00,2.334838e+00
6.163074e+00,8.549350e-01,8.270741e-01,3,0,2.148340e+00,2.148341e+00
6.163892e+00,8.689960e-01,8.420944e-01,3,0,4.918411e+00,4.918378e+00
8.211207e+00,2.414294e+00,2.387047e+00,4,1,8.764720e+00,8.764667e+00
6.159275e+00,2.254480e+00,2.226114e+00,3,1,7.716143e+00,7.716077e+00
6.159304e+00,8.482160e-01,8.201599e-01,3,0,4.556403e+00,4.556401e+00
6.188507e+00,8.523980e-01,8.239746e-01,3,0,4.712737e+00,4.712739e+00
6.212016e+00,8.542000e-01,8.270741e-01,3,0,7.242459e+00,7.242464e+00
6.190611e+00,8.495100e-01,8.208752e-01,3,0,5.765797e+00,5.765797e+00
6.163544e+00,8.765180e-01,8.478165e-01,3,0,4.506161e+00,4.506161e+00
6.162829e+00,8.555100e-01,8.280277e-01,3,0,5.124569e+00,5.124572e+00
6.159397e+00,8.557910e-01,8.280277e-01,3,0,5.783342e+00,5.783345e+00
6.292675e+00,8.549340e-01,8.270741e-01,3,0,5.843442e+00,5.843444e+00
6.191104e+00,8.614330e-01,8.330345e-01,3,0,6.995560e+00,6.995564e+00
6.163387e+00,8.652550e-01,8.380413e-01,3,0,7.999242e+00,7.999246e+00
6.161216e+00,8.547920e-01,8.268356e-01,3,0,6.533295e+00,6.533295e+00
6.163711e+00,8.552180e-01,8.280277e-01,3,0,5.821677e+00,5.821679e+00
6.161608e+00,8.498510e-01,8.220673e-01,3,0,4.402270e+00,4.402270e+00
6.160558e+00,8.523780e-01,8.249283e-01,3,0,4.445277e+00,4.445279e+00
6.164035e+00,8.613270e-01,8.339882e-01,3,0,3.681911e+00,3.681911e+00
6.187964e+00,8.536700e-01,8.258820e-01,3,0,6.358160e+00,6.358166e+00
6.206834e+00,8.561300e-01,8.280277e-01,3,0,5.392667e+00,5.392668e+00
6.186433e+00,8.550560e-01,8.268356e-01,3,0,3.049198e+00,3.049198e+00
6.156543e+00,8.547250e-01,8.258820e-01,3,0,2.220145e+00,2.220145e+00
6.160673e+00,8.546390e-01,8.270741e-01,3,0,2.150597e+00,2.150598e+00
6.157963e+00,8.524280e-01,8.249283e-01,3,0,3.335914e+00,3.335918e+00
6.163065e+00,8.539500e-01,8.258820e-01,3,0,2.181282e+00,2.181282e+00
6.190596e+00,8.478330e-01,8.199215e-01,3,0,1.077852e+00,1.077853e+00
6.163473e+00,8.888120e-01,8.599758e-01,3,0,8.749397e-01,8.749402e-01
6.196755e+00,9.126060e-01,8.831024e-01,3,0,7.841323e-01,7.841331e-01
6.201483e+00,9.013920e-01,8.718967e-01,3,0,1.043912e+00,1.043913e+00
6.188789e+00,8.644230e-01,8.361340e-01,3,0,8.828563e-01,8.828567e-01
6.156879e+00,8.668860e-01,8.389950e-01,3,0,1.998041e+00,1.998043e+00
6.157903e+00,8.572490e-01,8.299351e-01,3,0,1.776393e+00,1.776395e+00
6.168882e+00,8.637750e-01,8.361340e-01,3,0,2.882708e+00,2.882711e+00
6.162109e+00,8.477280e-01,8.211136e-01,3,0,4.669187e+00,4.669191e+00
6.188064e+00,8.540920e-01,8.268356e-01,3,0,7.569152e+00,7.569158e+00
6.173897e+00,7.038189e+00,7.001877e+00,3,2,1.080362e+01,1.195871e+01
1.232758e+01,5.293329e+00,5.264997e+00,6,3,1.312445e+01,1.311814e+01
8.247068e+00,4.758484e+00,4.729986e+00,4,3,6.037429e+00,6.037422e+00
6.194324e+00,8.739100e-01,8.459091e-01,3,0,7.096286e+00,7.096290e+00
6.170119e+00,8.505260e-01,8.230209e-01,3,0,8.304347e+00,8.304352e+00
6.171831e+00,8.561290e-01,8.289814e-01,3,0,6.482099e+00,6.482099e+00
6.170758e+00,8.544550e-01,8.270741e-01,3,0,5.400821e+00,5.400822e+00
6.197666e+00,8.522420e-01,8.249283e-01,3,0,6.650944e+00,6.650947e+00
6.203905e+00,8.559480e-01,8.280277e-01,3,0,4.990162e+00,4.990163e+00
6.171564e+00,8.565940e-01,8.289814e-01,3,0,7.219957e+00,7.219963e+00
6.172255e+00,8.708330e-01,8.440018e-01,3,0,5.315862e+00,5.315862e+00
6.169507e+00,8.547230e-01,8.268356e-01,3,0,3.849719e+00,3.849719e+00
6.175073e+00,8.590120e-01,8.318424e-01,3,0,3.043944e+00,3.043945e+00
6.168970e+00,8.479520e-01,8.208752e-01,3,0,4.376253e+00,4.376256e+00
6.168664e+00,8.543010e-01,8.258820e-01,3,0,5.602739e+00,5.602743e+00
6.183168e+00,3.595528e+01,3.592706e+01,3,22,1.163710e+01,1.214977e+01
6.187511e+00,2.899349e+01,2.896500e+01,3,20,4.007249e+00,4.007242e+00
6.176434e+00,8.475860e-01,8.189678e-01,3,0,3.709165e+00,3.709166e+00
6.174033e+00,8.543640e-01,8.249283e-01,3,0,1.354484e+00,1.354484e+00
6.197408e+00,8.701140e-01,8.418560e-01,3,0,1.009280e+00,1.009281e+00
6.175702e+00,8.631910e-01,8.349419e-01,3,0,1.137876e+00,1.137877e+00
6.184889e+00,8.470820e-01,8.189678e-01,3,0,3.526839e+00,3.526846e+00
6.171794e+00,8.808690e-01,8.528233e-01,3,0,7.671907e+00,7.671913e+00
6.181368e+00,8.541650e-01,8.268356e-01,3,0,6.860915e+00,6.860916e+00
6.171762e+00,8.554390e-01,8.280277e-01,3,0,7.398862e+00,7.398864e+00
6.245150e+00,2.016740e+00,1.989126e+00,3,1,5.993463e+00,5.993134e+00
1.483116e+01,2.049964e+00,2.019882e+00,7,1,4.488242e+00,4.486899e+00
6.415896e+00,1.019482e+00,9.851456e-01,3,0,3.712647e+00,3.712617e+00
6.405530e+00,8.895800e-01,8.618832e-01,3,0,6.250807e+00,6.250815e+00
6.339915e+00,8.858850e-01,8.587837e-01,3,0,4.134024e+00,4.134023e+00
6.348024e+00,8.847670e-01,8.559227e-01,3,0,5.526721e+00,5.526724e+00
6.344092e+00,8.997910e-01,8.709431e-01,3,0,4.287101e+00,4.287101e+00
6.351439e+00,8.876270e-01,8.590221e-01,3,0,4.269246e+00,4.269248e+00
6.343752e+00,8.846430e-01,8.559227e-01,3,0,5.176266e+00,5.176269e+00
6.353074e+00,8.791700e-01,8.499622e-01,3,0,5.397710e+00,5.397712e+00
6.229806e+00,8.756420e-01,8.480549e-01,3,0,3.821224e+00,3.821225e+00
6.160550e+00,8.570830e-01,8.289814e-01,3,0,4.378960e+00,4.378963e+00
6.162323e+00,8.557850e-01,8.280277e-01,3,0,4.098843e+00,4.098845e+00
6.160445e+00,8.559570e-01,8.280277e-01,3,0,4.580745e+00,4.580747e+00
6.189059e+00,3.696015e+00,3.669024e+00,3,2,8.119199e+00,8.118903e+00
1.434538e+01,6.207613e+00,6.154299e+00,7,0,9.725428e+00,1.549614e+01
1.025523e+01,3.373410e+00,3.345013e+00,5,2,7.391743e+00,7.384304e+00
8.221911e+00,5.726978e+00,5.698919e+00,4,3,8.860573e+00,8.884352e+00
6.222069e+00,7.831347e+00,7.791996e+00,3,1,1.076484e+01,1.631873e+01
1.231647e+01,6.493631e+00,6.464958e+00,6,4,4.941779e+00,4.909333e+00
8.223729e+00,8.537800e-01,8.249283e-01,4,0,4.510231e+00,4.510231e+00
6.186136e+00,8.531440e-01,8.251667e-01,3,0,4.090180e+00,4.090181e+00
6.190402e+00,8.554120e-01,8.270741e-01,3,0,3.396416e+00,3.396418e+00
6.172783e+00,4.160800e+00,4.132986e+00,3,2,5.709538e+00,5.710960e+00
6.170378e+00,3.644868e+00,3.616095e+00,3,2,3.587842e+00,3.587841e+00
6.161363e+00,8.436580e-01,8.158684e-01,3,0,2.502770e+00,2.502770e+00
6.162294e+00,8.542210e-01,8.258820e-01,3,0,2.045640e+00,2.045640e+00
6.200672e+00,8.544480e-01,8.261204e-01,3,0,3.060227e+00,3.060230e+00
6.166005e+00,8.576890e-01,8.299351e-01,3,0,1.557378e+00,1.557378e+00
6.183381e+00,8.780660e-01,8.499622e-01,3,0,1.543393e+00,1.543394e+00
6.158014e+00,8.492190e-01,8.211136e-01,3,0,2.537297e+00,2.537299e+00
6.187835e+00,8.548220e-01,8.270741e-01,3,0,2.597249e+00,2.597251e+00
6.158811e+00,8.544130e-01,8.270741e-01,3,0,3.421603e+00,3.421606e+00
6.163775e+00,2.537513e+00,2.510071e+00,3,1,8.053507e+00,8.054016e+00
6.188815e+00,2.249335e+00,2.220869e+00,3,1,7.977747e+00,7.977749e+00
6.162551e+00,3.714436e+00,3.685951e+00,3,2,9.484707e+00,9.484824e+00
1.230079e+01,3.358733e+00,3.329992e+00,6,2,7.455854e+00,7.450375e+00
8.289251e+00,8.506930e-01,8.220673e-01,4,0,7.880712e+00,7.880706e+00
6.161406e+00,8.603260e-01,8.311272e-01,3,0,6.907082e+00,6.907076e+00

