4.130287e+00,4.899736e+00,3.817081e+00,2,0,0.000000e+00,0.000000e+00
6.146382e+00,8.730290e-01,8.358955e-01,3,0,3.954406e-01,3.954414e-01
6.160987e+00,8.513670e-01,8.230209e-01,3,0,2.938420e+00,2.938424e+00
6.156628e+00,8.629540e-01,8.358955e-01,3,0,1.134788e+00,1.134788e+00
6.156164e+00,8.483000e-01,8.208752e-01,3,0,5.924830e+00,5.924839e+00
6.161913e+00,2.456520e+00,2.429962e+00,3,1,1.018497e+01,1.018498e+01
6.157769e+00,2.239954e+00,2.213001e+00,3,1,8.682500e+00,8.682443e+00
6.156902e+00,1.002955e+01,9.982109e+00,3,3,1.555287e+01,2.531785e+01
1.024968e+01,6.106665e+00,6.066799e+00,5,0,1.601722e+01,2.121716e+01
8.201620e+00,3.331245e+00,3.304005e+00,4,2,1.236359e+01,1.236128e+01
1.241075e+01,3.150508e+00,3.123045e+00,6,2,1.439597e+01,1.439400e+01
8.295977e+00,2.119709e+00,2.084017e+00,4,1,1.009607e+01,1.009607e+01
6.155837e+00,8.628180e-01,8.351803e-01,3,0,1.092491e+01,1.092491e+01
6.152264e+00,8.463650e-01,8.192062e-01,3,0,1.359664e+01,1.359664e+01
6.157623e+00,8.293589e+00,8.265972e+00,3,5,1.857595e+01,1.858667e+01
1.441322e+01,6.856586e+00,6.828070e+00,7,4,1.825618e+01,1.825078e+01
1.436819e+01,4.770533e+00,4.743099e+00,7,3,1.738695e+01,1.738527e+01
6.160759e+00,8.515000e-01,8.230209e-01,3,0,1.893714e+01,1.893695e+01
8.210329e+00,8.411780e-01,8.139610e-01,4,0,1.543752e+01,1.543752e+01
6.157054e+00,8.518630e-01,8.249283e-01,3,0,1.290757e+01,1.290757e+01
6.154286e+00,8.496430e-01,8.218288e-01,3,0,9.427898e+00,9.427899e+00
6.208818e+00,8.495760e-01,8.220673e-01,3,0,1.036455e+01,1.036455e+01
6.152575e+00,8.559920e-01,8.239746e-01,3,0,8.116926e+00,8.116926e+00
6.157427e+00,8.512790e-01,8.251667e-01,3,0,7.545360e+00,7.545362e+00
6.154366e+00,8.478310e-01,8.211136e-01,3,0,7.419094e+00,7.419097e+00
6.152927e+00,8.460660e-01,8.189678e-01,3,0,6.219739e+00,6.219741e+00
6.157901e+00,8.479920e-01,8.211136e-01,3,0,5.130444e+00,5.130445e+00
6.158281e+00,8.482560e-01,8.220673e-01,3,0,5.139761e+00,5.139765e+00
6.154032e+00,8.360550e-01,8.089542e-01,3,0,4.197784e+00,4.197786e+00
6.164141e+00,1.344174e+01,1.341510e+01,3,8,7.812559e+00,7.853798e+00
6.170250e+00,1.198861e+01,1.196194e+01,3,8,3.636664e+00,3.636661e+00
6.155455e+00,8.443180e-01,8.170605e-01,3,0,3.409385e+00,3.409387e+00
6.157551e+00,8.551450e-01,8.289814e-01,3,0,4.083952e+00,4.083955e+00
6.157016e+00,8.421410e-01,8.161068e-01,3,0,2.234634e+00,2.234634e+00
6.160528e+00,8.542590e-01,8.268356e-01,3,0,2.530356e+00,2.530358e+00
6.155051e+00,8.366140e-01,8.099079e-01,3,0,1.817072e+00,1.817073e+00
6.154950e+00,8.412200e-01,8.151531e-01,3,0,2.950590e+00,2.950593e+00
6.156506e+00,8.597410e-01,8.330345e-01,3,0,3.131716e+00,3.131718e+00
6.155777e+00,8.463610e-01,8.189678e-01,3,0,4.134453e+00,4.134456e+00
6.161603e+00,8.444340e-01,8.168221e-01,3,0,6.417191e+00,6.417196e+00
8.209918e+00,7.823353e+00,7.796049e+00,4,5,9.655117e+00,9.657082e+00
1.436351e+01,6.100418e+00,6.072998e+00,7,4,6.817743e+00,6.811342e+00
8.214624e+00,1.988424e+00,1.960039e+00,4,1,4.300745e+00,4.300744e+00
6.157313e+00,8.491100e-01,8.211136e-01,3,0,5.174983e+00,5.174986e+00
6.154993e+00,8.466600e-01,8.189678e-01,3,0,6.341704e+00,6.341707e+00
6.158181e+00,8.463210e-01,8.189678e-01,3,0,7.640497e+00,7.640501e+00
6.154913e+00,8.474240e-01,8.199215e-01,3,0,6.564757e+00,6.564758e+00
6.153759e+00,8.491970e-01,8.218288e-01,3,0,8.415235e+00,8.415240e+00
6.154166e+00,8.482740e-01,8.208752e-01,3,0,5.087572e+00,5.087570e+00
6.154234e+00,8.471090e-01,8.201599e-01,3,0,7.623858e+00,7.623852e+00
6.155076e+00,2.005146e+00,1.978159e+00,3,1,7.792000e+00,7.788627e+00
1.229711e+01,8.460840e-01,8.189678e-01,6,0,7.326094e+00,7.314973e+00
1.229611e+01,3.975445e+00,3.947973e+00,6,2,1.252811e+01,1.252145e+01
8.208722e+00,5.041291e+00,5.013943e+00,4,3,9.029480e+00,9.029478e+00
6.157564e+00,2.520399e+00,2.493143e+00,3,1,1.195268e+01,1.195300e+01
6.161768e+00,7.240295e+00,7.212877e+00,3,4,1.364609e+01,1.364670e+01
8.200629e+00,7.502187e+00,7.474899e+00,4,5,8.848815e+00,8.847525e+00
6.153728e+00,8.451630e-01,8.170605e-01,3,0,7.136098e+00,7.136094e+00
6.157110e+00,8.470380e-01,8.199215e-01,3,0,6.927773e+00,6.927775e+00
6.154006e+00,8.459520e-01,8.189678e-01,3,0,6.021767e+00,6.021768e+00
6.160149e+00,8.454870e-01,8.180141e-01,3,0,6.882303e+00,6.882307e+00
6.154656e+00,8.418130e-01,8.149147e-01,3,0,7.706742e+00,7.706745e+00
6.157887e+00,4.728150e+00,4.689217e+00,3,0,7.151413e+00,8.269602e+00
6.160215e+00,4.752654e+00,4.715204e+00,3,0,7.442635e+00,9.682443e+00
1.024333e+01,4.721991e+00,4.685879e+00,5,0,7.174250e+00,1.609000e+01
6.157376e+00,4.727993e+00,4.689932e+00,3,0,5.656026e+00,1.158439e+01
6.149707e+00,8.440350e-01,8.170605e-01,3,0,2.178388e+00,2.178382e+00
6.174913e+00,8.440690e-01,8.168221e-01,3,0,2.357586e+00,2.357589e+00
6.183987e+00,8.427520e-01,8.149147e-01,3,0,3.242335e+00,3.242337e+00
6.173113e+00,8.485530e-01,8.211136e-01,3,0,2.966327e+00,2.966329e+00
6.155975e+00,8.496890e-01,8.218288e-01,3,0,2.567000e+00,2.567002e+00
6.155411e+00,8.484730e-01,8.211136e-01,3,0,5.656817e+00,5.656822e+00
6.157094e+00,4.104526e+00,4.076958e+00,3,2,9.282537e+00,9.282813e+00
6.158289e+00,3.635588e+00,3.607988e+00,3,2,6.820491e+00,6.820490e+00
6.156080e+00,8.624760e-01,8.258820e-01,3,0,4.505032e+00,4.505031e+00
6.151463e+00,8.480530e-01,8.211136e-01,3,0,4.766942e+00,4.766944e+00
6.153532e+00,8.474270e-01,8.199215e-01,3,0,3.913275e+00,3.913275e+00
6.155509e+00,8.449440e-01,8.180141e-01,3,0,4.531188e+00,4.531193e+00
6.155749e+00,4.030566e+00,4.003048e+00,3,2,5.577535e+00,5.632384e+00
6.156246e+00,3.630725e+00,3.604174e+00,3,2,3.365044e+00,3.365044e+00
6.165859e+00,1.068672e+01,1.064992e+01,3,3,6.362929e+00,1.098598e+01
6.206252e+00,5.156900e+00,5.125999e+00,3,3,3.791595e+00,3.791594e+00
6.219953e+00,9.010320e-01,8.678436e-01,3,0,3.135755e+00,3.135759e+00
6.157630e+00,8.537940e-01,8.249283e-01,3,0,3.895584e+00,3.895576e+00
6.152105e+00,8.496620e-01,8.227825e-01,3,0,2.582829e+00,2.582803e+00
6.158736e+00,8.536050e-01,8.261204e-01,3,0,1.727840e+00,1.727840e+00
6.155249e+00,8.472320e-01,8.199215e-01,3,0,6.356051e+00,6.356061e+00
6.168102e+00,8.815824e+00,8.787870e+00,3,5,1.006241e+01,1.010644e+01
8.205573e+00,6.132352e+00,6.095171e+00,4,0,1.866942e+01,4.440553e+01
1.229868e+01,6.123922e+00,6.087303e+00,6,0,2.380112e+01,6.093435e+01
1.229275e+01,1.632084e+01,1.628280e+01,6,7,1.435633e+01,1.994162e+01
8.212403e+00,6.592829e+00,6.564856e+00,4,4,8.763688e+00,8.768185e+00
8.208101e+00,3.650841e+00,3.623962e+00,4,2,5.696956e+00,5.696956e+00
6.152185e+00,8.400920e-01,8.120537e-01,3,0,4.601082e+00,4.601083e+00
6.159170e+00,7.397872e+00,7.370949e+00,3,4,6.106783e+00,6.131143e+00
6.156879e+00,2.695225e+00,2.667904e+00,3,1,6.002166e+00,6.019038e+00
6.158633e+00,5.486884e+00,5.446196e+00,3,3,5.662794e+00,5.696369e+00
8.218505e+00,2.091150e+01,2.088404e+01,4,13,9.388078e+00,9.697571e+00
1.025690e+01,1.891027e+01,1.888180e+01,5,13,4.265738e+00,4.244617e+00
8.205015e+00,8.467680e-01,8.189678e-01,4,0,3.709237e+00,3.709237e+00
6.160232e+00,8.481130e-01,8.208752e-01,3,0,2.978764e+00,2.978766e+00
6.161471e+00,8.478700e-01,8.208752e-01,3,0,3.429640e+00,3.429642e+00
6.155911e+00,8.418970e-01,8.151531e-01,3,0,3.451448e+00,3.451451e+00
6.155593e+00,8.477520e-01,8.208752e-01,3,0,2.646606e+00,2.646607e+00
6.153312e+00,8.516220e-01,8.239746e-01,3,0,1.933626e+00,1.933627e+00
6.157181e+00,8.568590e-01,8.299351e-01,3,0,2.585860e+00,2.585862e+00
6.156021e+00,8.462820e-01,8.192062e-01,3,0,3.300463e+00,3.300465e+00
6.159245e+00,8.459110e-01,8.189678e-01,3,0,5.401560e+00,5.401565e+00
6.153428e+00,8.404760e-01,8.139610e-01,3,0,5.151151e+00,5.151152e+00
6.155327e+00,8.622560e-01,8.349419e-01,3,0,3.159136e+00,3.159135e+00
6.155901e+00,8.618810e-01,8.349419e-01,3,0,3.106487e+00,3.106488e+00
6.149777e+00,8.470660e-01,8.199215e-01,3,0,3.049198e+00,3.049199e+00
6.156819e+00,8.464350e-01,8.199215e-01,3,0,3.512245e+00,3.512247e+00
6.154425e+00,8.409330e-01,8.139610e-01,3,0,2.716422e+00,2.716422e+00
6.155149e+00,8.707780e-01,8.430481e-01,3,0,2.011859e+00,2.011860e+00
6.155335e+00,8.596670e-01,8.330345e-01,3,0,2.219400e+00,2.219401e+00
6.169409e+00,8.469010e-01,8.189678e-01,3,0,1.617782e+00,1.617782e+00
6.173530e+00,8.494010e-01,8.220673e-01,3,0,2.381040e+00,2.381042e+00
6.165068e+00,8.417160e-01,8.149147e-01,3,0,2.075578e+00,2.075579e+00
6.177718e+00,8.475120e-01,8.201599e-01,3,0,3.422824e+00,3.422828e+00
6.155218e+00,8.474920e-01,8.208752e-01,3,0,1.292605e+00,1.292605e+00
6.156097e+00,8.588950e-01,8.318424e-01,3,0,1.846623e+00,1.846625e+00
6.157387e+00,8.480160e-01,8.220673e-01,3,0,1.724565e+00,1.724566e+00
6.159525e+00,8.574890e-01,8.249283e-01,3,0,2.360828e+00,2.360830e+00
6.160879e+00,8.545990e-01,8.268356e-01,3,0,2.391697e+00,2.391699e+00
6.153819e+00,8.459700e-01,8.189678e-01,3,0,1.952664e+00,1.952665e+00
6.155530e+00,8.480540e-01,8.211136e-01,3,0,2.006092e+00,2.006093e+00
6.154218e+00,8.473990e-01,8.211136e-01,3,0,2.776889e+00,2.776892e+00
6.156721e+00,8.448320e-01,8.170605e-01,3,0,1.972064e+00,1.972065e+00
6.156224e+00,8.406150e-01,8.139610e-01,3,0,2.681342e+00,2.681344e+00
6.159352e+00,8.622590e-01,8.349419e-01,3,0,1.689928e+00,1.689929e+00
6.153453e+00,8.609370e-01,8.339882e-01,3,0,1.811065e+00,1.811066e+00
6.156975e+00,8.464510e-01,8.189678e-01,3,0,1.781486e+00,1.781488e+00
6.160646e+00,8.463720e-01,8.189678e-01,3,0,1.210010e+00,1.210010e+00
6.153415e+00,8.400810e-01,8.130074e-01,3,0,2.657969e+00,2.657972e+00
6.158444e+00,8.468990e-01,8.199215e-01,3,0,1.668751e+00,1.668751e+00
6.153912e+00,8.471070e-01,8.201599e-01,3,0,2.292462e+00,2.292464e+00
6.154976e+00,8.454280e-01,8.180141e-01,3,0,2.901976e+00,2.901981e+00
6.153888e+00,8.529390e-01,8.261204e-01,3,0,1.969572e+00,1.969572e+00
6.160981e+00,8.452450e-01,8.189678e-01,3,0,3.389860e+00,3.389864e+00
6.153532e+00,8.412690e-01,8.149147e-01,3,0,3.114049e+00,3.114050e+00
6.157080e+00,8.477520e-01,8.199215e-01,3,0,3.624401e+00,3.624403e+00
6.153804e+00,8.474680e-01,8.199215e-01,3,0,4.811712e+00,4.811715e+00
6.155339e+00,8.623110e-01,8.349419e-01,3,0,2.996326e+00,2.996325e+00
6.151873e+00,2.017943e+00,1.991034e+00,3,1,4.193880e+00,4.193511e+00
8.194080e+00,1.954417e+00,1.926899e+00,4,1,1.369574e+00,1.369577e+00
6.156287e+00,8.453600e-01,8.180141e-01,3,0,2.162837e+00,2.162840e+00
6.152915e+00,8.470570e-01,8.199215e-01,3,0,1.690640e+00,1.690640e+00
6.161059e+00,8.473060e-01,8.199215e-01,3,0,1.532820e+00,1.532821e+00
6.154829e+00,8.421880e-01,8.161068e-01,3,0,1.343390e+00,1.343391e+00
6.165228e+00,8.478570e-01,8.199215e-01,3,0,1.350759e+00,1.350760e+00
6.165756e+00,8.475530e-01,8.201599e-01,3,0,3.292757e+00,3.292762e+00
6.169086e+00,8.480790e-01,8.211136e-01,3,0,1.210657e+00,1.210658e+00
6.152436e+00,8.488170e-01,8.220673e-01,3,0,1.299863e+00,1.299864e+00
6.157846e+00,8.415420e-01,8.139610e-01,3,0,1.200008e+00,1.200008e+00
6.152957e+00,8.471060e-01,8.201599e-01,3,0,9.818082e-01,9.818091e-01
6.153067e+00,8.917840e-01,8.571148e-01,3,0,9.610661e-01,9.610670e-01
6.153503e+00,8.467780e-01,8.201599e-01,3,0,2.278707e+00,2.278710e+00
6.162161e+00,8.479140e-01,8.208752e-01,3,0,1.685161e+00,1.685161e+00
6.170292e+00,8.451500e-01,8.180141e-01,3,0,1.924211e+00,1.924213e+00
6.151897e+00,8.415450e-01,8.149147e-01,3,0,2.385910e+00,2.385912e+00
6.155566e+00,8.464100e-01,8.199215e-01,3,0,5.104788e+00,5.104793e+00
6.157300e+00,2.410108e+00,2.382994e+00,3,1,1.015645e+01,1.015680e+01
6.163312e+00,2.251576e+01,2.248907e+01,3,14,1.537486e+01,1.544451e+01
1.228870e+01,2.397709e+01,2.394915e+01,6,16,1.083454e+01,1.083315e+01
1.230591e+01,7.846701e+00,7.817984e+00,6,5,7.693527e+00,7.692201e+00
1.026110e+01,8.636580e-01,8.361340e-01,5,0,6.956478e+00,6.949119e+00
8.210204e+00,2.439831e+00,2.413034e+00,4,1,6.861567e+00,6.862099e+00
6.168221e+00,2.613336e+00,2.585888e+00,3,1,8.003824e+00,8.003712e+00
8.538063e+00,3.742112e+00,3.704071e+00,4,2,4.807864e+00,4.807862e+00
6.337675e+00,9.183270e-01,8.859634e-01,3,0,6.613192e+00,6.613198e+00
6.341492e+00,8.887250e-01,8.611679e-01,3,0,4.487060e+00,4.487060e+00
6.335706e+00,8.748720e-01,8.471012e-01,3,0,4.728810e+00,4.728812e+00
6.340165e+00,8.711860e-01,8.430481e-01,3,0,3.792379e+00,3.792381e+00
6.360321e+00,8.674050e-01,8.399487e-01,3,0,4.114141e+00,4.114143e+00
6.342023e+00,8.762810e-01,8.480549e-01,3,0,3.759994e+00,3.759995e+00
6.341511e+00,8.986620e-01,8.699894e-01,3,0,4.625263e+00,4.625266e+00
6.338540e+00,8.740110e-01,8.461475e-01,3,0,3.964243e+00,3.964244e+00
6.344363e+00,8.723030e-01,8.449554e-01,3,0,4.218624e+00,4.218627e+00
6.346761e+00,8.678080e-01,8.399487e-01,3,0,4.343462e+00,4.343463e+00
6.152078e+00,8.500110e-01,8.218288e-01,3,0,3.869794e+00,3.869795e+00
6.156244e+00,8.762740e-01,8.499622e-01,3,0,3.613221e+00,3.613222e+00
6.157843e+00,8.576650e-01,8.299351e-01,3,0,5.028968e+00,5.028972e+00
6.154396e+00,8.435900e-01,8.170605e-01,3,0,3.979978e+00,3.979978e+00
6.176074e+00,8.474400e-01,8.199215e-01,3,0,4.938948e+00,4.938952e+00
6.152156e+00,8.497510e-01,8.218288e-01,3,0,4.386191e+00,4.386192e+00
6.160407e+00,8.482530e-01,8.208752e-01,3,0,4.417577e+00,4.417579e+00
6.219380e+00,8.611310e-01,8.339882e-01,3,0,6.270049e+00,6.270053e+00
6.212355e+00,8.445160e-01,8.170605e-01,3,0,4.145049e+00,4.145048e+00
6.152684e+00,8.493870e-01,8.230209e-01,3,0,3.465212e+00,3.465213e+00
6.153414e+00,8.478610e-01,8.199215e-01,3,0,3.509265e+00,3.509266e+00
6.158676e+00,8.822090e-01,8.549690e-01,3,0,4.050620e+00,4.050623e+00
6.161406e+00,8.483060e-01,8.208752e-01,3,0,3.091365e+00,3.091366e+00
6.175963e+00,8.589560e-01,8.318424e-01,3,0,3.682184e+00,3.682186e+00
6.176766e+00,8.494140e-01,8.220673e-01,3,0,2.969415e+00,2.969415e+00
6.156678e+00,2.011466e+00,1.983881e+00,3,1,4.099739e+00,4.099608e+00
8.201642e+00,1.964159e+00,1.937151e+00,4,1,3.173754e+00,3.173752e+00
6.186193e+00,8.472660e-01,8.199215e-01,3,0,3.976351e+00,3.976353e+00
6.156367e+00,8.509880e-01,8.239746e-01,3,0,5.363197e+00,5.363201e+00
6.157124e+00,8.481360e-01,8.208752e-01,3,0,4.108982e+00,4.108982e+00
6.156055e+00,8.479930e-01,8.211136e-01,3,0,1.873437e+00,1.873438e+00
6.157017e+00,8.479540e-01,8.149147e-01,3,0,2.517194e+00,2.517196e+00
6.154194e+00,8.484900e-01,8.208752e-01,3,0,2.800666e+00,2.800668e+00
6.154392e+00,8.483040e-01,8.218288e-01,3,0,2.572174e+00,2.572175e+00
6.181535e+00,8.470070e-01,8.199215e-01,3,0,5.375571e+00,5.375576e+00
6.151901e+00,8.488530e-01,8.218288e-01,3,0,4.686639e+00,4.686640e+00
6.159519e+00,8.476650e-01,8.211136e-01,3,0,3.189148e+00,3.189148e+00
6.176111e+00,8.418060e-01,8.151531e-01,3,0,7.758278e+00,7.758286e+00
6.205492e+00,8.489530e-01,8.220673e-01,3,0,9.764369e+00,9.764374e+00
6.159176e+00,1.068923e+01,1.065087e+01,3,3,1.463160e+01,1.637737e+01
1.232339e+01,1.349175e+01,1.345301e+01,6,5,1.740113e+01,1.752302e+01
1.438084e+01,8.213992e+00,8.186102e+00,7,5,1.670574e+01,1.671243e+01
1.026057e+01,4.955226e+00,4.926920e+00,5,3,1.447505e+01,1.447414e+01
8.237086e+00,2.023865e+00,1.996040e+00,4,1,1.538087e+01,1.538013e+01
1.029792e+01,1.962462e+00,1.935005e+00,5,1,1.485617e+01,1.485424e+01
8.212626e+00,8.478620e-01,8.199215e-01,4,0,1.096264e+01,1.096264e+01
6.185813e+00,8.641940e-01,8.368492e-01,3,0,7.829364e+00,7.829363e+00
6.157853e+00,8.597850e-01,8.320808e-01,3,0,6.996622e+00,6.996623e+00
6.159480e+00,8.490040e-01,8.220673e-01,3,0,7.451433e+00,7.451437e+00
6.157875e+00,8.503470e-01,8.230209e-01,3,0,5.883390e+00,5.883390e+00
6.172974e+00,8.484010e-01,8.211136e-01,3,0,4.847687e+00,4.847688e+00
6.157792e+00,8.491380e-01,8.218288e-01,3,0,3.799418e+00,3.799419e+00
6.160371e+00,8.425280e-01,8.151531e-01,3,0,2.946502e+00,2.946502e+00
6.166042e+00,2.970607e+01,2.967882e+01,3,18,1.031478e+01,1.062853e+01
8.201634e+00,2.617476e+01,2.614689e+01,4,18,4.540710e+00,4.540705e+00
6.159310e+00,8.537210e-01,8.258820e-01,3,0,5.458637e+00,5.458639e+00
6.175584e+00,1.011260e+01,1.008511e+01,3,6,7.638783e+00,7.645167e+00
8.212337e+00,9.220014e+00,9.191990e+00,4,6,5.028080e+00,5.028078e+00
6.159353e+00,8.404560e-01,8.120537e-01,3,0,2.787051e+00,2.787051e+00
6.177103e+00,8.466860e-01,8.199215e-01,3,0,4.599381e+00,4.599385e+00
6.156893e+00,8.523710e-01,8.249283e-01,3,0,3.808682e+00,3.808683e+00
6.161643e+00,8.567660e-01,8.289814e-01,3,0,3.417832e+00,3.417832e+00
6.161365e+00,8.484320e-01,8.211136e-01,3,0,3.258812e+00,3.258813e+00
6.156983e+00,8.415540e-01,8.149147e-01,3,0,3.415891e+00,3.415894e+00
6.160202e+00,8.474610e-01,8.199215e-01,3,0,2.284327e+00,2.284328e+00
6.157563e+00,8.481190e-01,8.208752e-01,3,0,1.443577e+00,1.443578e+00
6.155720e+00,8.479460e-01,8.211136e-01,3,0,1.610212e+00,1.610213e+00
6.180393e+00,8.477750e-01,8.208752e-01,3,0,3.718258e+00,3.718262e+00
6.156356e+00,8.501210e-01,8.177757e-01,3,0,7.436665e+00,7.436672e+00
6.154911e+00,1.490151e+01,1.487398e+01,3,9,1.079111e+01,1.088774e+01
1.269821e+01,1.424845e+01,1.421809e+01,6,9,8.371053e+00,8.364828e+00
1.265766e+01,6.999362e+00,6.963015e+00,6,4,7.877734e+00,7.874704e+00
1.476404e+01,6.321544e+00,6.293058e+00,7,4,6.018125e+00,6.016633e+00
8.449870e+00,8.716820e-01,8.430481e-01,4,0,3.609232e+00,3.609234e+00
6.337771e+00,8.749920e-01,8.459091e-01,3,0,4.024718e+00,4.024721e+00
6.326060e+00,8.744000e-01,8.468628e-01,3,0,3.725123e+00,3.725125e+00
6.185452e+00,8.501730e-01,8.230209e-01,3,0,2.843990e+00,2.843990e+00
6.153422e+00,8.493100e-01,8.168221e-01,3,0,3.451174e+00,3.451176e+00
6.179651e+00,8.496060e-01,8.230209e-01,3,0,2.965991e+00,2.965991e+00
6.194368e+00,8.493470e-01,8.218288e-01,3,0,3.420417e+00,3.420420e+00
6.160752e+00,8.497990e-01,8.230209e-01,3,0,6.718869e+00,6.718876e+00
6.171559e+00,3.175219e+00,3.148079e+00,3,2,8.939433e+00,8.937516e+00
1.438346e+01,3.074037e+00,3.046036e+00,7,2,5.019186e+00,5.019007e+00
6.156163e+00,8.438040e-01,8.161068e-01,3,0,3.277224e+00,3.277225e+00
6.157623e+00,8.490960e-01,8.220673e-01,3,0,2.775586e+00,2.775587e+00
6.159377e+00,8.531950e-01,8.258820e-01,3,0,2.096961e+00,2.096962e+00
6.162471e+00,7.545923e+00,7.508755e+00,3,1,9.107553e+00,1.857384e+01
6.164589e+00,6.191598e+00,6.152630e+00,3,0,1.012243e+01,2.210672e+01
1.234601e+01,6.147748e+00,6.110907e+00,6,0,1.503782e+01,4.674831e+01
1.024029e+01,6.152836e+00,6.115913e+00,5,0,1.244558e+01,3.296170e+01
1.228856e+01,6.173363e+00,6.135702e+00,6,0,1.938913e+01,5.825457e+01
1.228745e+01,6.150936e+00,6.112099e+00,6,0,2.607904e+01,7.313247e+01
1.232250e+01,7.610574e+00,7.571936e+00,6,1,2.543171e+01,5.320244e+01
1.236426e+01,6.161395e+00,6.124496e+00,6,0,2.223553e+01,2.869616e+01
1.025753e+01,1.050870e+01,1.047063e+01,5,3,1.683188e+01,1.669520e+01
8.224524e+00,2.531825e+00,2.503872e+00,4,1,1.525661e+01,1.526035e+01
6.165441e+00,2.529034e+00,2.501965e+00,3,1,1.412173e+01,1.413121e+01
6.156366e+00,2.241598e+00,2.214193e+00,3,1,1.217120e+01,1.217120e+01
6.173419e+00,8.445650e-01,8.180141e-01,3,0,1.039115e+01,1.039115e+01
6.171944e+00,8.481280e-01,8.201599e-01,3,0,8.882676e+00,8.882678e+00
6.170248e+00,8.434760e-01,8.158684e-01,3,0,8.120604e+00,8.120605e+00
6.181456e+00,8.513010e-01,8.230209e-01,3,0,7.550058e+00,7.550060e+00
6.152527e+00,8.485950e-01,8.211136e-01,3,0,5.516605e+00,5.516605e+00
6.156235e+00,8.504310e-01,8.230209e-01,3,0,5.023806e+00,5.023808e+00
6.187205e+00,8.698100e-01,8.430481e-01,3,0,4.315716e+00,4.315717e+00
6.186143e+00,2.008792e+00,1.981974e+00,3,1,5.535538e+00,5.535342e+00
8.203023e+00,1.960495e+00,1.933098e+00,4,1,3.857978e+00,3.857979e+00
6.181453e+00,4.081534e+00,4.054070e+00,3,2,5.834448e+00,5.834620e+00
6.169297e+00,1.400721e+01,1.397991e+01,3,8,9.414157e+00,9.575362e+00
8.197989e+00,1.482628e+01,1.479793e+01,4,10,5.345252e+00,5.345246e+00
6.186743e+00,4.209958e+00,4.181862e+00,3,2,8.534795e+00,8.534877e+00
6.160117e+00,3.982978e+00,3.955126e+00,3,2,9.954285e+00,9.956645e+00
1.030177e+01,5.068721e+00,5.041122e+00,5,3,8.088399e+00,8.088572e+00
1.231598e+01,2.284337e+00,2.256155e+00,6,1,7.236714e+00,7.236438e+00
8.230602e+00,8.414030e-01,8.141994e-01,4,0,5.511917e+00,5.511917e+00
6.153306e+00,8.501480e-01,8.230209e-01,3,0,6.728448e+00,6.728451e+00
6.154585e+00,8.493980e-01,8.220673e-01,3,0,4.037579e+00,4.037579e+00
6.157448e+00,3.581924e+00,3.555059e+00,3,2,7.023534e+00,7.023428e+00
8.195003e+00,3.362340e+00,3.334999e+00,4,2,7.972695e+00,7.972783e+00
6.189135e+00,2.412464e+00,2.385855e+00,3,1,9.385818e+00,9.385838e+00
6.149152e+00,6.132762e+00,6.105185e+00,3,4,1.440260e+01,1.439851e+01
1.234084e+01,7.000855e+00,6.973982e+00,6,4,1.232646e+01,1.233926e+01
8.217528e+00,2.289632e+00,2.261877e+00,4,1,6.497582e+00,6.497581e+00
6.166421e+00,8.469090e-01,8.189678e-01,3,0,6.358878e+00,6.358880e+00
6.158523e+00,8.605550e-01,8.330345e-01,3,0,6.878834e+00,6.878838e+00
6.155077e+00,8.415770e-01,8.139610e-01,3,0,5.560712e+00,5.560713e+00
6.160306e+00,2.502667e+00,2.475977e+00,3,1,6.599216e+00,6.619685e+00
6.159048e+00,6.168581e+00,6.130934e+00,3,0,6.810367e+00,1.086530e+01
6.158681e+00,6.151906e+00,6.114006e+00,3,0,7.362591e+00,1.681382e+01
1.232336e+01,1.033423e+01,1.030684e+01,6,6,5.533075e+00,5.841156e+00
1.228906e+01,8.099056e+00,8.065939e+00,6,5,4.793300e+00,4.777273e+00
1.231420e+01,8.445390e-01,8.170605e-01,6,0,5.896008e+00,5.876556e+00
8.202477e+00,3.598129e+00,3.570080e+00,4,2,6.916860e+00,6.916565e+00
1.230316e+01,3.359924e+00,3.333092e+00,6,2,4.098118e+00,4.091981e+00
6.157843e+00,8.478030e-01,8.199215e-01,3,0,2.457275e+00,2.457241e+00
6.160441e+00,8.486210e-01,8.218288e-01,3,0,2.629771e+00,2.629772e+00
6.183175e+00,8.415170e-01,8.149147e-01,3,0,2.062353e+00,2.062353e+00
6.158117e+00,8.498220e-01,8.230209e-01,3,0,3.907762e+00,3.907766e+00
6.158177e+00,8.473800e-01,8.208752e-01,3,0,1.672218e+00,1.672218e+00
6.158933e+00,8.716110e-01,8.449554e-01,3,0,2.562000e+00,2.562003e+00
6.162084e+00,4.230233e+00,4.203796e+00,3,2,8.540060e+00,8.549893e+00
6.346567e+00,1.055679e+01,1.052904e+01,3,6,9.105094e+00,9.108302e+00
6.202181e+00,6.573776e+00,6.529808e+00,3,4,8.067846e+00,8.067845e+00
6.161815e+00,2.519899e+00,2.490997e+00,3,1,7.686924e+00,7.692307e+00
6.215335e+00,2.256106e+00,2.228975e+00,3,1,5.212942e+00,5.212915e+00
6.166799e+00,8.451220e-01,8.170605e-01,3,0,5.585668e+00,5.585670e+00
6.157030e+00,2.016800e+00,1.988888e+00,3,1,8.005831e+00,8.005631e+00
8.197023e+00,1.961249e+00,1.933813e+00,4,1,3.756059e+00,3.756055e+00
6.158565e+00,8.449020e-01,8.168221e-01,3,0,2.034050e+00,2.034051e+00
6.153293e+00,8.427920e-01,8.149147e-01,3,0,1.764432e+00,1.764433e+00
6.153131e+00,8.621480e-01,8.349419e-01,3,0,1.784465e+00,1.784465e+00
6.153852e+00,8.474150e-01,8.208752e-01,3,0,2.536873e+00,2.536877e+00
6.153547e+00,8.503000e-01,8.227825e-01,3,0,3.027688e+00,3.027690e+00
6.162086e+00,8.496790e-01,8.230209e-01,3,0,5.765064e+00,5.765069e+00
6.154114e+00,8.579250e-01,8.308887e-01,3,0,4.918186e+00,4.918187e+00
6.151626e+00,8.509680e-01,8.239746e-01,3,0,4.571469e+00,4.571469e+00
6.153899e+00,8.494350e-01,8.230209e-01,3,0,5.597287e+00,5.597290e+00
6.164461e+00,6.879876e+00,6.852865e+00,3,4,1.292407e+01,1.292411e+01
8.205283e+00,6.147192e+00,6.119013e+00,4,4,6.701255e+00,6.701069e+00
6.153132e+00,8.487220e-01,8.208752e-01,3,0,8.117889e+00,8.117867e+00
6.152656e+00,8.479290e-01,8.199215e-01,3,0,5.789885e+00,5.789888e+00
6.153813e+00,8.500780e-01,8.230209e-01,3,0,6.746735e+00,6.746739e+00
6.155078e+00,8.492850e-01,8.218288e-01,3,0,5.073061e+00,5.073061e+00
6.151477e+00,8.454380e-01,8.189678e-01,3,0,4.693490e+00,4.693491e+00
6.159741e+00,8.550690e-01,8.277893e-01,3,0,4.680249e+00,4.680251e+00
6.162844e+00,2.513293e+00,2.485991e+00,3,1,7.646211e+00,7.646224e+00
6.160841e+00,2.244527e+00,2.217054e+00,3,1,6.858424e+00,6.858425e+00
6.160393e+00,8.467580e-01,8.199215e-01,3,0,6.462027e+00,6.462028e+00
6.160338e+00,8.414160e-01,8.149147e-01,3,0,5.085218e+00,5.085219e+00
6.158781e+00,8.478680e-01,8.208752e-01,3,0,3.507799e+00,3.507800e+00
6.152269e+00,8.495530e-01,8.230209e-01,3,0,2.606514e+00,2.606514e+00
6.157849e+00,4.727494e+00,4.689217e+00,3,0,7.737602e+00,1.129504e+01
6.157447e+00,8.485970e-01,8.208752e-01,3,0,4.015694e+00,4.015691e+00
6.227600e+00,8.520230e-01,8.249283e-01,3,0,2.998331e+00,2.998332e+00
6.103086e+00,9.272100e-01,8.950233e-01,3,0,2.896807e+00,2.896810e+00
6.178488e+00,8.684230e-01,8.399487e-01,3,0,1.433830e+00,1.433830e+00
6.164900e+00,8.972630e-01,8.690357e-01,3,0,1.933631e+00,1.933632e+00
6.167638e+00,8.594930e-01,8.311272e-01,3,0,2.430285e+00,2.430286e+00
6.154556e+00,8.461980e-01,8.189678e-01,3,0,2.447250e+00,2.447252e+00
6.154170e+00,8.649750e-01,8.368492e-01,3,0,3.413912e+00,3.413915e+00
6.157326e+00,8.505260e-01,8.239746e-01,3,0,4.089895e+00,4.089898e+00
6.159420e+00,8.498750e-01,8.230209e-01,3,0,3.324030e+00,3.324031e+00
6.158484e+00,8.489970e-01,8.220673e-01,3,0,3.489109e+00,3.489110e+00
6.161942e+00,8.495920e-01,8.220673e-01,3,0,4.132264e+00,4.132267e+00
6.157430e+00,8.407460e-01,8.139610e-01,3,0,2.164102e+00,2.164104e+00
6.163115e+00,8.473620e-01,8.211136e-01,3,0,2.125086e+00,2.125087e+00
6.157451e+00,8.496570e-01,8.230209e-01,3,0,3.683133e+00,3.683136e+00
6.158814e+00,8.583030e-01,8.311272e-01,3,0,3.038372e+00,3.038372e+00
6.161938e+00,8.463410e-01,8.201599e-01,3,0,1.405521e+00,1.405521e+00
6.156686e+00,8.425740e-01,8.161068e-01,3,0,2.566203e+00,2.566206e+00
6.152832e+00,8.467690e-01,8.199215e-01,3,0,2.060957e+00,2.060961e+00
6.152359e+00,8.484560e-01,8.208752e-01,3,0,2.230222e+00,2.230224e+00
6.155313e+00,8.468020e-01,8.199215e-01,3,0,2.657212e+00,2.657215e+00
6.154958e+00,8.562040e-01,8.289814e-01,3,0,5.414276e+00,5.414282e+00
6.158861e+00,8.477110e-01,8.211136e-01,3,0,1.841475e+00,1.841475e+00
6.154590e+00,8.416810e-01,8.151531e-01,3,0,2.052421e+00,2.052423e+00
6.152484e+00,8.472660e-01,8.199215e-01,3,0,1.726848e+00,1.726849e+00
6.152118e+00,8.481810e-01,8.211136e-01,3,0,1.675471e+00,1.675473e+00
6.158631e+00,8.499170e-01,8.230209e-01,3,0,1.921019e+00,1.921020e+00
6.159538e+00,8.475240e-01,8.211136e-01,3,0,3.453879e+00,3.453882e+00
6.153621e+00,8.426130e-01,8.151531e-01,3,0,2.168906e+00,2.168906e+00
6.157233e+00,8.472480e-01,8.199215e-01,3,0,5.113855e+00,5.113862e+00
6.156647e+00,8.479460e-01,8.211136e-01,3,0,6.212971e+00,6.212975e+00
6.160727e+00,8.490990e-01,8.230209e-01,3,0,5.148778e+00,5.148780e+00
6.159398e+00,2.537840e+00,2.511978e+00,3,1,6.700387e+00,6.702075e+00
6.157021e+00,2.243856e+00,2.217054e+00,3,1,5.420217e+00,5.420218e+00
6.162106e+00,8.464180e-01,8.189678e-01,3,0,6.094303e+00,6.094306e+00
6.158325e+00,8.495900e-01,8.230209e-01,3,0,5.495350e+00,5.495352e+00
6.125395e+00,8.592190e-01,8.320808e-01,3,0,7.324715e+00,7.324721e+00
6.027428e+00,8.241140e-01,7.979870e-01,3,0,5.525461e+00,5.525461e+00
5.995416e+00,2.466959e+00,2.439976e+00,3,1,1.011797e+01,1.018212e+01
5.983355e+00,1.454339e+01,1.450634e+01,3,6,1.328196e+01,1.723095e+01
1.197746e+01,6.465021e+00,6.438971e+00,6,4,9.682443e+00,9.670309e+00
1.197754e+01,1.305660e+01,1.301789e+01,6,5,9.875452e+00,1.001301e+01
9.977393e+00,5.926559e+00,5.890369e+00,5,0,1.199428e+01,1.627236e+01
1.024544e+01,1.098155e+01,1.094294e+01,5,4,1.057264e+01,1.056894e+01
1.229587e+01,2.243934e+00,2.217054e+00,6,1,9.196777e+00,9.175769e+00
8.200585e+00,1.962005e+00,1.935005e+00,4,1,9.363414e+00,9.363410e+00
6.157967e+00,8.445890e-01,8.168221e-01,3,0,7.476443e+00,7.476443e+00
6.191450e+00,8.447830e-01,8.170605e-01,3,0,5.758252e+00,5.758253e+00
6.171726e+00,9.175610e-01,8.869171e-01,3,0,7.684307e+00,7.684313e+00
6.179991e+00,2.645670e+00,2.616167e+00,3,1,7.618653e+00,7.622161e+00
6.188639e+00,2.256978e+00,2.228022e+00,3,1,3.342451e+00,3.342450e+00
6.171112e+00,8.573600e-01,8.292198e-01,3,0,2.683812e+00,2.683815e+00
6.153315e+00,8.549020e-01,8.151531e-01,3,0,2.868474e+00,2.868475e+00
6.155595e+00,8.635410e-01,8.358955e-01,3,0,2.133744e+00,2.133745e+00
6.155295e+00,8.491210e-01,8.220673e-01,3,0,1.816200e+00,1.816201e+00
6.156989e+00,2.014664e+00,1.988173e+00,3,1,3.419109e+00,3.418817e+00
8.220693e+00,1.961475e+00,1.934052e+00,4,1,4.062807e+00,4.062809e+00
6.156111e+00,8.471610e-01,8.199215e-01,3,0,2.334839e+00,2.334838e+00
6.153976e+00,8.489570e-01,8.211136e-01,3,0,2.148340e+00,2.148341e+00
6.178939e+00,8.476040e-01,8.199215e-01,3,0,4.918411e+00,4.918378e+00
8.259655e+00,2.418245e+00,2.390862e+00,4,1,8.764720e+00,8.764667e+00
6.174898e+00,2.247830e+00,2.219915e+00,3,1,7.716143e+00,7.716077e+00
6.156128e+00,8.474900e-01,8.199215e-01,3,0,4.556403e+00,4.556401e+00
6.179290e+00,8.472530e-01,8.199215e-01,3,0,4.712737e+00,4.712739e+00
6.154454e+00,8.479150e-01,8.211136e-01,3,0,7.242459e+00,7.242464e+00
6.159189e+00,8.468240e-01,8.189678e-01,3,0,5.765797e+00,5.765797e+00
6.160607e+00,8.406840e-01,8.130074e-01,3,0,4.506161e+00,4.506161e+00
6.156977e+00,8.478950e-01,8.208752e-01,3,0,5.124569e+00,5.124572e+00
6.154625e+00,8.494620e-01,8.230209e-01,3,0,5.783342e+00,5.783345e+00
6.157057e+00,8.473880e-01,8.211136e-01,3,0,5.843442e+00,5.843444e+00
6.189390e+00,8.546680e-01,8.280277e-01,3,0,6.995560e+00,6.995564e+00
6.314633e+00,8.428560e-01,8.158684e-01,3,0,7.999242e+00,7.999246e+00
6.180194e+00,8.542250e-01,8.280277e-01,3,0,6.533295e+00,6.533295e+00
6.210787e+00,8.492630e-01,8.211136e-01,3,0,5.821677e+00,5.821679e+00
6.161710e+00,8.669520e-01,8.401871e-01,3,0,4.402270e+00,4.402270e+00
6.155763e+00,8.409690e-01,8.141994e-01,3,0,4.445277e+00,4.445279e+00
6.156821e+00,8.487570e-01,8.218288e-01,3,0,3.681911e+00,3.681911e+00
6.168179e+00,8.465320e-01,8.192062e-01,3,0,6.358160e+00,6.358166e+00
6.152040e+00,8.487440e-01,8.220673e-01,3,0,5.392667e+00,5.392668e+00
6.180593e+00,8.466150e-01,8.201599e-01,3,0,3.049198e+00,3.049198e+00
6.152554e+00,8.421760e-01,8.161068e-01,3,0,2.220145e+00,2.220145e+00
6.153949e+00,8.439570e-01,8.168221e-01,3,0,2.150597e+00,2.150598e+00
6.162762e+00,8.426400e-01,8.161068e-01,3,0,3.335914e+00,3.335918e+00
6.153694e+00,8.445960e-01,8.189678e-01,3,0,2.181282e+00,2.181282e+00
6.157573e+00,8.434530e-01,8.168221e-01,3,0,1.077852e+00,1.077853e+00
6.158742e+00,8.442270e-01,8.180141e-01,3,0,8.749397e-01,8.749402e-01
6.153317e+00,8.363970e-01,8.099079e-01,3,0,7.841323e-01,7.841331e-01
6.153905e+00,8.440380e-01,8.170605e-01,3,0,1.043912e+00,1.043913e+00
6.155179e+00,8.439600e-01,8.180141e-01,3,0,8.828563e-01,8.828567e-01
6.149967e+00,8.441700e-01,8.170605e-01,3,0,1.998041e+00,1.998043e+00
6.154781e+00,8.426560e-01,8.161068e-01,3,0,1.776393e+00,1.776395e+00
6.161500e+00,8.424060e-01,8.158684e-01,3,0,2.882708e+00,2.882711e+00
6.153569e+00,8.376910e-01,8.108616e-01,3,0,4.669187e+00,4.669191e+00
6.158551e+00,8.430240e-01,8.170605e-01,3,0,7.569152e+00,7.569158e+00
6.172014e+00,7.030464e+00,6.991625e+00,3,2,1.080362e+01,1.195871e+01
1.231974e+01,5.290023e+00,5.262136e+00,6,3,1.312445e+01,1.311814e+01
8.199815e+00,4.788963e+00,4.760981e+00,4,3,6.037429e+00,6.037422e+00
6.185537e+00,8.548970e-01,8.280277e-01,3,0,7.096286e+00,7.096290e+00
6.182343e+00,8.500250e-01,8.230209e-01,3,0,8.304347e+00,8.304352e+00
6.171734e+00,8.482550e-01,8.208752e-01,3,0,6.482099e+00,6.482099e+00
6.153474e+00,8.474090e-01,8.211136e-01,3,0,5.400821e+00,5.400822e+00
6.178399e+00,8.473550e-01,8.199215e-01,3,0,6.650944e+00,6.650947e+00
6.152756e+00,8.489470e-01,8.220673e-01,3,0,4.990162e+00,4.990163e+00
6.152954e+00,8.464460e-01,8.149147e-01,3,0,7.219957e+00,7.219963e+00
6.158216e+00,8.716680e-01,8.389950e-01,3,0,5.315862e+00,5.315862e+00
6.179700e+00,8.482640e-01,8.208752e-01,3,0,3.849719e+00,3.849719e+00
6.157789e+00,8.466400e-01,8.189678e-01,3,0,3.043944e+00,3.043945e+00
6.151667e+00,8.481320e-01,8.220673e-01,3,0,4.376253e+00,4.376256e+00
6.182147e+00,8.476800e-01,8.208752e-01,3,0,5.602739e+00,5.602743e+00
6.161343e+00,3.591646e+01,3.588891e+01,3,22,1.163710e+01,1.214977e+01
6.164186e+00,2.893384e+01,2.890587e+01,3,20,4.007249e+00,4.007242e+00
6.156107e+00,8.459240e-01,8.180141e-01,3,0,3.709165e+00,3.709166e+00
6.163407e+00,8.469090e-01,8.199215e-01,3,0,1.354484e+00,1.354484e+00
6.182204e+00,8.432000e-01,8.161068e-01,3,0,1.009280e+00,1.009281e+00
6.156962e+00,8.487940e-01,8.220673e-01,3,0,1.137876e+00,1.137877e+00
6.156343e+00,8.454140e-01,8.180141e-01,3,0,3.526839e+00,3.526846e+00
6.183724e+00,8.639790e-01,8.368492e-01,3,0,7.671907e+00,7.671913e+00
6.205318e+00,8.481120e-01,8.211136e-01,3,0,6.860915e+00,6.860916e+00
6.166970e+00,8.431260e-01,8.161068e-01,3,0,7.398862e+00,7.398864e+00
6.165216e+00,2.009330e+00,1.981974e+00,3,1,5.993463e+00,5.993134e+00
1.438132e+01,1.961893e+00,1.933813e+00,7,1,4.488242e+00,4.486899e+00
6.153284e+00,8.454010e-01,8.180141e-01,3,0,3.712647e+00,3.712617e+00
6.154745e+00,8.468970e-01,8.199215e-01,3,0,6.250807e+00,6.250815e+00
6.158089e+00,8.485940e-01,8.211136e-01,3,0,4.134024e+00,4.134023e+00
6.154355e+00,8.744800e-01,8.471012e-01,3,0,5.526721e+00,5.526724e+00
6.156741e+00,8.491370e-01,8.220673e-01,3,0,4.287101e+00,4.287101e+00
6.177055e+00,8.411430e-01,8.139610e-01,3,0,4.269246e+00,4.269248e+00
6.156554e+00,8.484590e-01,8.218288e-01,3,0,5.176266e+00,5.176269e+00
6.191142e+00,8.464720e-01,8.199215e-01,3,0,5.397710e+00,5.397712e+00
6.184303e+00,8.495080e-01,8.230209e-01,3,0,3.821224e+00,3.821225e+00
6.163212e+00,8.485730e-01,8.208752e-01,3,0,4.378960e+00,4.378963e+00
6.155681e+00,8.390350e-01,8.120537e-01,3,0,4.098843e+00,4.098845e+00
6.153259e+00,8.472570e-01,8.199215e-01,3,0,4.580745e+00,4.580747e+00
6.154860e+00,3.701601e+00,3.674030e+00,3,2,8.119199e+00,8.118903e+00
1.433916e+01,6.153178e+00,6.116152e+00,7,0,9.725428e+00,1.549614e+01
1.024518e+01,3.353855e+00,3.325939e+00,5,2,7.391743e+00,7.384304e+00
8.236332e+00,5.720157e+00,5.692005e+00,4,3,8.860573e+00,8.884352e+00
6.210602e+00,7.814929e+00,7.777929e+00,3,1,1.076484e+01,1.631873e+01
1.230285e+01,6.453448e+00,6.425858e+00,6,4,4.941779e+00,4.909333e+00
8.209189e+00,8.470630e-01,8.189678e-01,4,0,4.510231e+00,4.510231e+00
6.215915e+00,8.495690e-01,8.218288e-01,3,0,4.090180e+00,4.090181e+00
6.341252e+00,8.996630e-01,8.711815e-01,3,0,3.396416e+00,3.396418e+00
6.234482e+00,4.284531e+00,4.255056e+00,3,2,5.709538e+00,5.710960e+00
6.213764e+00,3.721145e+00,3.691196e+00,3,2,3.587842e+00,3.587841e+00
6.199323e+00,8.484210e-01,8.199215e-01,3,0,2.502770e+00,2.502770e+00
6.155408e+00,8.442930e-01,8.168221e-01,3,0,2.045640e+00,2.045640e+00
6.180351e+00,8.486500e-01,8.220673e-01,3,0,3.060227e+00,3.060230e+00
6.157207e+00,8.481600e-01,8.211136e-01,3,0,1.557378e+00,1.557378e+00
6.186421e+00,8.477330e-01,8.208752e-01,3,0,1.543393e+00,1.543394e+00
6.186708e+00,8.478830e-01,8.208752e-01,3,0,2.537297e+00,2.537299e+00
6.157595e+00,8.441910e-01,8.170605e-01,3,0,2.597249e+00,2.597251e+00
6.156698e+00,8.478630e-01,8.199215e-01,3,0,3.421603e+00,3.421606e+00
6.158995e+00,2.532286e+00,2.506018e+00,3,1,8.053507e+00,8.054016e+00
6.157761e+00,2.276819e+00,2.237082e+00,3,1,7.977747e+00,7.977749e+00
6.163123e+00,3.687540e+00,3.654003e+00,3,2,9.484707e+00,9.484824e+00
1.229313e+01,3.382903e+00,3.355980e+00,6,2,7.455854e+00,7.450375e+00
8.209509e+00,8.481510e-01,8.208752e-01,4,0,7.880712e+00,7.880706e+00
6.180299e+00,8.444120e-01,8.170605e-01,3,0,6.907082e+00,6.907076e+00

