6.087720e-01,3.786356e+01,3.744006e+01,2,82,0.000000e+00,7.365582e-21,1
8.623580e-01,4.484770e-01,4.339218e-01,3,0,1.124582e-01,1.124539e-01,1
1.147792e+00,7.527710e-01,7.419586e-01,4,1,1.516800e-01,1.514522e-01,1
1.997746e+00,1.085711e+00,1.075029e+00,7,2,3.399500e-01,3.382829e-01,1
1.998386e+00,1.033184e+00,1.024008e+00,7,2,2.724800e-01,2.724497e-01,1
2.001640e+00,2.918134e+00,2.908230e+00,7,8,7.753929e-01,7.615373e-01,1
2.012938e+00,4.223770e-01,4.119873e-01,7,0,1.057469e+00,1.047925e+00,1
1.995253e+00,7.173800e-01,7.081032e-01,7,1,1.394779e+00,1.388075e+00,1
2.852963e+00,2.782110e+00,2.772093e+00,10,8,6.608719e-01,6.525670e-01,1
1.716797e+00,1.387925e+00,1.378059e+00,6,3,6.534939e-01,6.528895e-01,1
2.000963e+00,1.647571e+00,1.636982e+00,7,4,4.843555e-01,4.826743e-01,1
1.995430e+00,1.053798e+00,1.044989e+00,7,2,4.630637e-01,4.603771e-01,1
1.996893e+00,1.041776e+00,1.033068e+00,7,2,7.521189e-01,7.479264e-01,1
1.996395e+00,1.618353e+00,1.609087e+00,7,4,1.153103e+00,1.149803e+00,1
2.284493e+00,1.614091e+00,1.605034e+00,8,4,9.252546e-01,9.242956e-01,1
1.997523e+00,2.290593e+00,2.280951e+00,7,6,1.365431e+00,1.357138e+00,1
2.002171e+00,2.827972e+00,2.816916e+00,7,8,1.149719e+00,1.146189e+00,1
2.281397e+00,1.013257e+00,1.003981e+00,8,2,9.577345e-01,9.560932e-01,1
1.997086e+00,1.339937e+00,1.330137e+00,7,3,1.016944e+00,1.012263e+00,1
1.717970e+00,2.222214e+00,2.212048e+00,6,6,1.179294e+00,1.178195e+00,1
1.997760e+00,2.215632e+00,2.205849e+00,7,6,1.209092e+00,1.201966e+00,1
1.147328e+00,2.772614e+00,2.763033e+00,4,8,1.075406e+00,1.065869e+00,1
1.999442e+00,1.960185e+00,1.950026e+00,7,5,8.576419e-01,8.523888e-01,1
2.000391e+00,2.815690e+00,2.807140e+00,7,8,1.063444e+00,1.060866e+00,1
1.995167e+00,1.610241e+00,1.600981e+00,7,4,1.117202e+00,1.113506e+00,1
1.995156e+00,1.024623e+00,1.013994e+00,7,2,1.087750e+00,1.085988e+00,1
2.853846e+00,3.182423e+00,3.173113e+00,10,9,8.550430e-01,8.374707e-01,1
1.995465e+00,2.223934e+00,2.213955e+00,7,6,6.569202e-01,6.511320e-01,1
1.710476e+00,1.631311e+00,1.621008e+00,6,4,4.274309e-01,4.270416e-01,1
3.133379e+00,4.498900e-01,4.401207e-01,11,0,3.076833e-01,3.075235e-01,1
1.145806e+00,1.066294e+00,1.056194e+00,4,2,5.399419e-01,5.391691e-01,1
2.279357e+00,2.571001e+00,2.562046e+00,8,7,6.401469e-01,6.379289e-01,1
2.847256e+00,1.347881e+00,1.337051e+00,10,3,5.069419e-01,5.053916e-01,1
1.997064e+00,1.938609e+00,1.928091e+00,7,5,6.672219e-01,6.643765e-01,1
1.994360e+00,1.014285e+00,1.004934e+00,7,2,3.833395e-01,3.807541e-01,1
1.996653e+00,1.322039e+00,1.312256e+00,7,3,2.706966e-01,2.702647e-01,1
1.999775e+00,1.048048e+00,1.039028e+00,7,2,4.413782e-01,4.409120e-01,1
1.995620e+00,1.357044e+00,1.347065e+00,7,3,4.712874e-01,4.691049e-01,1
1.997451e+00,2.254912e+00,2.243996e+00,7,6,8.496880e-01,8.385035e-01,1
1.996646e+00,1.894270e+00,1.884222e+00,7,5,7.506475e-01,7.435659e-01,1
1.995850e+00,1.016952e+00,1.008034e+00,7,2,1.465461e+00,1.454592e+00,1
1.995911e+00,7.184200e-01,7.081032e-01,7,1,1.951064e+00,1.932317e+00,1
1.998079e+00,2.439329e+00,2.429247e+00,7,7,1.257393e+00,1.252861e+00,1
1.997547e+00,1.941882e+00,1.930952e+00,7,5,1.706076e+00,1.697858e+00,1
1.997588e+00,2.182808e+00,2.171993e+00,7,6,1.425905e+00,1.422247e+00,1
1.146681e+00,2.822923e+00,2.814054e+00,4,8,1.111887e+00,1.106049e+00,1
1.994978e+00,1.029230e+00,1.019001e+00,7,2,9.681034e-01,9.624782e-01,1
1.999177e+00,1.343885e+00,1.333952e+00,7,3,8.052876e-01,8.031507e-01,1
1.999531e+00,2.878215e+00,2.869129e+00,7,8,5.420981e-01,5.398175e-01,1
2.846464e+00,1.642514e+00,1.631975e+00,10,4,1.792953e-01,1.728986e-01,1
1.144253e+00,7.553920e-01,7.448196e-01,4,1,2.959010e-01,2.953588e-01,1
2.573935e+00,1.675900e+00,1.667023e+00,9,4,5.910098e-01,5.891890e-01,1
1.998052e+00,1.652939e+00,1.642942e+00,7,4,5.188716e-01,5.172161e-01,1
2.844894e+00,1.055539e+00,1.040936e+00,10,2,4.433298e-01,4.271311e-01,1
2.002923e+00,2.560517e+00,2.549887e+00,7,7,4.202604e-01,4.182134e-01,1
1.996566e+00,1.030298e+00,1.019239e+00,7,2,6.096134e-01,6.048342e-01,1
2.000565e+00,1.916839e+00,1.906157e+00,7,5,3.098541e-01,3.097384e-01,1
1.996147e+00,1.060509e+00,1.049995e+00,7,2,3.499801e-01,3.482688e-01,1
1.997473e+00,1.360597e+00,1.349926e+00,7,3,5.251162e-01,5.221509e-01,1
1.999212e+00,7.301020e-01,7.209778e-01,7,1,7.633906e-01,7.602661e-01,1
1.147846e+00,4.955571e+00,4.945993e+00,4,15,4.028067e-01,3.960676e-01,1
1.999194e+00,2.165921e+00,2.156019e+00,7,6,1.375266e+00,1.360304e+00,1
1.998456e+00,1.856430e+00,1.846790e+00,7,5,3.026369e+00,2.999982e+00,1
2.000779e+00,4.305172e+00,4.295111e+00,7,14,1.482634e+00,1.474073e+00,1
1.999452e+00,1.574855e+00,1.564026e+00,7,4,1.866315e+00,1.858597e+00,1
2.004380e+00,5.180162e+00,5.168676e+00,7,16,8.435163e-01,8.382039e-01,1
1.999209e+00,2.506704e+00,2.495050e+00,7,7,8.209846e-01,8.183337e-01,1
1.432886e+00,1.339874e+00,1.329899e+00,5,3,5.174029e-01,5.167912e-01,1
2.575825e+00,2.297692e+00,2.286911e+00,9,6,4.919643e-01,4.913203e-01,1
1.997843e+00,1.946569e+00,1.935959e+00,7,5,2.720724e-01,2.719191e-01,1
8.615750e-01,4.465230e-01,4.370213e-01,3,0,5.188903e-01,5.178009e-01,1
1.433529e+00,4.385210e-01,4.291534e-01,5,0,6.318072e-01,6.316995e-01,1
1.150728e+00,4.362350e-01,4.270077e-01,4,0,7.162282e-01,7.159959e-01,1
1.146042e+00,1.999537e+00,1.989841e+00,4,5,8.439988e-01,8.386673e-01,1
1.997965e+00,1.939100e+00,1.929045e+00,7,5,1.167058e+00,1.155858e+00,1
1.999894e+00,2.874938e+00,2.866030e+00,7,7,1.358695e+00,1.349411e+00,1
2.284076e+00,4.251717e+00,4.240990e+00,8,10,9.848039e-01,9.719478e-01,1
1.997030e+00,1.120625e+00,1.111031e+00,7,2,8.551657e-01,8.525625e-01,1
1.995019e+00,1.932108e+00,1.921892e+00,7,5,8.025540e-01,8.001604e-01,1
1.995156e+00,4.377450e-01,4.260540e-01,7,0,3.199661e-01,3.195241e-01,1
1.997930e+00,3.455124e+00,3.446102e+00,7,10,1.274019e+00,1.255351e+00,1
2.000557e+00,2.457159e+00,2.445936e+00,7,7,9.666541e-01,9.616424e-01,1
1.997680e+00,1.642765e+00,1.631975e+00,7,4,6.845354e-01,6.807126e-01,1
1.438766e+00,3.196878e+00,3.186941e+00,5,9,9.370822e-01,9.330406e-01,1
1.148576e+00,5.189891e+00,5.178928e+00,4,16,1.272641e+00,1.246326e+00,1
1.998533e+00,7.116850e-01,7.019043e-01,7,1,2.320013e+00,2.293140e+00,1
2.003252e+00,2.390767e+00,2.382040e+00,7,7,3.664384e+00,3.609361e+00,1
2.288525e+00,5.540709e+00,5.529881e+00,8,16,5.324074e+00,5.325157e+00,1
2.002870e+00,7.450049e+00,7.437944e+00,7,23,4.235273e+00,4.203986e+00,1
1.431532e+00,5.848010e+00,5.837917e+00,5,20,2.820718e+00,2.796324e+00,1
1.147775e+00,3.228717e+00,3.217936e+00,4,10,1.780622e+00,1.757041e+00,1
2.001867e+00,3.571898e+00,3.561020e+00,7,11,1.102727e+00,1.098221e+00,1
2.001772e+00,5.409348e+00,5.398035e+00,7,17,1.671264e+00,1.648058e+00,1
2.001845e+00,1.498323e+00,1.486778e+00,7,4,1.094660e+00,1.077916e+00,1
1.998795e+00,6.947320e-01,6.852150e-01,7,1,1.534480e+00,1.523850e+00,1
2.001865e+00,9.753790e-01,9.660721e-01,7,2,1.840047e+00,1.815582e+00,1
2.001553e+00,3.318939e+00,3.308773e+00,7,10,8.897469e-01,8.875964e-01,1
2.003097e+00,1.979481e+00,1.967907e+00,7,5,6.603493e-01,6.579308e-01,1
1.997861e+00,1.047710e+00,1.039028e+00,7,2,9.908653e-01,9.858461e-01,1
2.850437e+00,1.919973e+00,1.910925e+00,10,5,8.893571e-01,8.888611e-01,1
2.002793e+00,2.269532e+00,2.258778e+00,7,6,6.534882e-01,6.504362e-01,1
2.002582e+00,2.251018e+00,2.241135e+00,7,6,6.759864e-01,6.733712e-01,1
2.857134e+00,1.667051e+00,1.656055e+00,10,4,3.168122e-01,3.056844e-01,1
1.453509e+00,1.398180e+00,1.388073e+00,5,3,2.555211e-01,2.544421e-01,1
1.999285e+00,1.050124e+00,1.039982e+00,7,2,2.227957e-01,2.226855e-01,1
1.718263e+00,1.068437e+00,1.059055e+00,6,2,5.131593e-01,5.075744e-01,1
1.997119e+00,1.689751e+00,1.681089e+00,7,4,6.819539e-01,6.804320e-01,1
1.998991e+00,1.683242e+00,1.673937e+00,7,4,6.015764e-01,5.996333e-01,1
2.284083e+00,1.994805e+00,1.984119e+00,8,5,3.986394e-01,3.981491e-01,1
1.995594e+00,1.069895e+00,1.060009e+00,7,2,3.574873e-01,3.555941e-01,1
1.998790e+00,1.042738e+00,1.032829e+00,7,2,3.741919e-01,3.738934e-01,1
1.997003e+00,1.997947e+00,1.986980e+00,7,5,4.886206e-01,4.862116e-01,1
1.999585e+00,1.948667e+00,1.938820e+00,7,5,3.478293e-01,3.454726e-01,1
1.714980e+00,1.077660e+00,1.069069e+00,6,2,4.916999e-01,4.901486e-01,1
1.995889e+00,1.050304e+00,1.039982e+00,7,2,2.088332e-01,2.082256e-01,1
3.137345e+00,1.079941e+00,1.070023e+00,11,2,2.103872e-01,2.087306e-01,1
1.993506e+00,1.374435e+00,1.363754e+00,7,3,5.830845e-01,5.778709e-01,1
1.998417e+00,1.650073e+00,1.640081e+00,7,4,3.412463e-01,3.407615e-01,1
1.998467e+00,2.615781e+00,2.605915e+00,7,7,1.054752e+00,1.046938e+00,1
1.151825e+00,2.537301e+00,2.527952e+00,4,7,9.044472e-01,8.963871e-01,1
1.440499e+00,2.566417e+00,2.557039e+00,5,7,1.219550e+00,1.217721e+00,1
1.997099e+00,2.238312e+00,2.228022e+00,7,6,1.834314e+00,1.820484e+00,1
1.999097e+00,2.758323e+00,2.749205e+00,7,8,1.598464e+00,1.589039e+00,1
1.997193e+00,2.763414e+00,2.753973e+00,7,8,1.469356e+00,1.462139e+00,1
1.997816e+00,1.299924e+00,1.289129e+00,7,3,2.150025e+00,2.138333e+00,1
2.001215e+00,3.341061e+00,3.331900e+00,7,10,1.591640e+00,1.589198e+00,1
1.999635e+00,1.629870e+00,1.620054e+00,7,4,1.040391e+00,1.038907e+00,1
1.997606e+00,1.371693e+00,1.363039e+00,7,3,6.897346e-01,6.890914e-01,1
1.430019e+00,2.920849e+00,2.910852e+00,5,8,5.065534e-01,5.008587e-01,1
1.145912e+00,2.565804e+00,2.554893e+00,4,7,4.288078e-01,4.234346e-01,1
3.139308e+00,1.066707e+00,1.056910e+00,11,2,4.514269e-01,4.503657e-01,1
1.995388e+00,1.385279e+00,1.374006e+00,7,3,5.407673e-01,5.360557e-01,1
1.147424e+00,2.284264e+00,2.273798e+00,4,6,3.417695e-01,3.322245e-01,1
2.852488e+00,1.664998e+00,1.653910e+00,10,4,2.921483e-01,2.920650e-01,1
2.571122e+00,4.537770e-01,4.429817e-01,9,0,2.375500e-01,2.267556e-01,1
1.427742e+00,7.763190e-01,7.669926e-01,5,1,6.791590e-01,6.777403e-01,1
2.851587e+00,1.075276e+00,1.065969e+00,10,2,7.837679e-01,7.836130e-01,1
1.996054e+00,4.478410e-01,4.370213e-01,7,0,6.164438e-01,6.155588e-01,1
2.570754e+00,1.382550e+00,1.372099e+00,9,3,7.058299e-01,7.043960e-01,1
1.997995e+00,1.066227e+00,1.055956e+00,7,2,5.418994e-01,5.411112e-01,1
1.996390e+00,1.376138e+00,1.365900e+00,7,3,7.889117e-01,7.844582e-01,1
1.995016e+00,4.405690e-01,4.301071e-01,7,0,1.171177e+00,1.164146e+00,1
1.996357e+00,1.945006e+00,1.935005e+00,7,5,1.642496e+00,1.637346e+00,1
1.434668e+00,3.476930e+00,3.466129e+00,5,10,1.551114e+00,1.546732e+00,1
2.000581e+00,3.440829e+00,3.431082e+00,7,10,1.273454e+00,1.266090e+00,1
1.995337e+00,1.292790e+00,1.281738e+00,7,3,1.150615e+00,1.143635e+00,1
1.995180e+00,1.898073e+00,1.888990e+00,7,5,9.290436e-01,9.263346e-01,1
1.431277e+00,3.409170e+00,3.394127e+00,5,9,1.033671e+00,1.030977e+00,1
1.998644e+00,4.001147e+00,3.990889e+00,7,11,1.089387e+00,1.082052e+00,1
1.995297e+00,7.097190e-01,6.990433e-01,7,1,1.245040e+00,1.230794e+00,1
1.999327e+00,2.768865e+00,2.758980e+00,7,8,7.793604e-01,7.722994e-01,1
1.994475e+00,1.352687e+00,1.342058e+00,7,3,7.546461e-01,7.505815e-01,1
2.285046e+00,1.678952e+00,1.669884e+00,8,4,6.050570e-01,6.034951e-01,1
1.998465e+00,1.376980e+00,1.367092e+00,7,3,5.174279e-01,5.152601e-01,1
2.000166e+00,1.353139e+00,1.343966e+00,7,3,3.771429e-01,3.766503e-01,1
3.151586e+00,1.080413e+00,1.070023e+00,11,2,5.248342e-01,5.237080e-01,1
1.995271e+00,7.537890e-01,7.431507e-01,7,1,1.063006e+00,1.060358e+00,1
1.997756e+00,1.371070e+00,1.362085e+00,7,3,8.804950e-01,8.786341e-01,1
1.995538e+00,1.354459e+00,1.346111e+00,7,3,9.587409e-01,9.566610e-01,1
1.434132e+00,3.788840e+00,3.777981e+00,5,11,1.083354e+00,1.076713e+00,1
2.000218e+00,3.362478e+00,3.353119e+00,7,10,4.688006e-01,4.679527e-01,1
1.426619e+00,1.378705e+00,1.368046e+00,5,3,3.521233e-01,3.504513e-01,1
2.281053e+00,1.698025e+00,1.688004e+00,8,4,2.626070e-01,2.586002e-01,1
2.851688e+00,1.672195e+00,1.662016e+00,10,4,1.744560e-01,1.598509e-01,1
2.850615e+00,7.488980e-01,7.390976e-01,10,1,2.209146e-01,2.208239e-01,1
1.714090e+00,1.078807e+00,1.069069e+00,6,2,3.765998e-01,3.758485e-01,1
1.994373e+00,7.488750e-01,7.390976e-01,7,1,2.780623e-01,2.718723e-01,1
1.145776e+00,3.233147e+00,3.224134e+00,4,9,8.766473e-01,8.580525e-01,1
2.571545e+00,2.526465e+00,2.516985e+00,9,7,1.011753e+00,9.960056e-01,1
1.145767e+00,1.386981e+00,1.376152e+00,4,3,5.934610e-01,5.909355e-01,1
1.995228e+00,1.062749e+00,1.053095e+00,7,2,5.786059e-01,5.774700e-01,1
1.996130e+00,7.541820e-01,7.438660e-01,7,1,5.147540e-01,5.142101e-01,1
1.995039e+00,7.628220e-01,7.522106e-01,7,1,4.163741e-01,4.157727e-01,1
1.148418e+00,1.368253e+00,1.359940e+00,4,3,3.911581e-01,3.871649e-01,1
1.996112e+00,1.686582e+00,1.677036e+00,7,4,4.911512e-01,4.874580e-01,1
1.996631e+00,1.645527e+00,1.636982e+00,7,4,4.141170e-01,4.139595e-01,1
1.995716e+00,1.068109e+00,1.059055e+00,7,2,3.353615e-01,3.348176e-01,1
1.995393e+00,2.303025e+00,2.293110e+00,7,6,6.488848e-01,6.422350e-01,1
1.717319e+00,2.845604e+00,2.836943e+00,6,8,8.290027e-01,8.265628e-01,1
1.995938e+00,1.388357e+00,1.379013e+00,7,3,1.118901e+00,1.115400e+00,1
2.852686e+00,2.680260e+00,2.669811e+00,10,6,1.460131e+00,1.457039e+00,1
1.445642e+00,4.367889e+00,4.358053e+00,5,12,1.354604e+00,1.351774e+00,1
1.999324e+00,2.507823e+00,2.496958e+00,7,7,1.424674e+00,1.408899e+00,1
2.282547e+00,3.008588e+00,2.997875e+00,8,9,1.034709e+00,1.032306e+00,1
1.723849e+00,1.914890e+00,1.903772e+00,6,5,7.886056e-01,7.764056e-01,1
1.995808e+00,7.319220e-01,7.219315e-01,7,1,9.001952e-01,8.965713e-01,1
1.996283e+00,1.046281e+00,1.038074e+00,7,2,1.293595e+00,1.281612e+00,1
1.997368e+00,2.512758e+00,2.502918e+00,7,7,1.582557e+00,1.567071e+00,1
1.990094e+00,2.156997e+00,2.147198e+00,7,6,1.163846e+00,1.158634e+00,1
2.854568e+00,2.506662e+00,2.496958e+00,10,7,1.048063e+00,1.040418e+00,1
1.999811e+00,3.067575e+00,3.057003e+00,7,9,1.042300e+00,1.030704e+00,1
1.997068e+00,2.155573e+00,2.146006e+00,7,6,5.812764e-01,5.778087e-01,1
1.996870e+00,3.138853e+00,3.128052e+00,7,9,8.543045e-01,8.527832e-01,1
1.998943e+00,1.376035e+00,1.365185e+00,7,3,7.809877e-01,7.774844e-01,1
1.997263e+00,1.335249e+00,1.324892e+00,7,3,5.638418e-01,5.624703e-01,1
3.142430e+00,1.996524e+00,1.986980e+00,11,5,5.163950e-01,5.054284e-01,1
1.436217e+00,3.507640e+00,3.498077e+00,5,10,1.000959e+00,9.936125e-01,1
1.999262e+00,3.101117e+00,3.091097e+00,7,9,2.031979e+00,2.022569e+00,1
1.997820e+00,2.141556e+00,2.133131e+00,7,6,1.895913e+00,1.864332e+00,1
1.997135e+00,1.278701e+00,1.270056e+00,7,3,1.882474e+00,1.858605e+00,1
1.998367e+00,1.869436e+00,1.859188e+00,7,5,2.356863e+00,2.331644e+00,1
1.997942e+00,1.576534e+00,1.566172e+00,7,4,3.741562e+00,3.706274e+00,1
1.998508e+00,3.871148e+00,3.860950e+00,7,12,2.014829e+00,2.008797e+00,1
1.996330e+00,1.623289e+00,1.613140e+00,7,4,2.244138e+00,2.236520e+00,1
1.160462e+00,3.684282e+00,3.674030e+00,4,11,1.767110e+00,1.753680e+00,1
1.997724e+00,1.918220e+00,1.908064e+00,7,5,1.678531e+00,1.669803e+00,1
1.996444e+00,3.070273e+00,3.060102e+00,7,9,7.518482e-01,7.444441e-01,1
1.997090e+00,2.252775e+00,2.242088e+00,7,6,1.360836e+00,1.347983e+00,1
1.997691e+00,1.613119e+00,1.603842e+00,7,4,8.620555e-01,8.593253e-01,1
1.996341e+00,1.053826e+00,1.044035e+00,7,2,9.383952e-01,9.289477e-01,1
1.145902e+00,3.179780e+00,3.170252e+00,4,9,4.976101e-01,4.936944e-01,1
1.996676e+00,1.070124e+00,1.060247e+00,7,2,1.184631e+00,1.179846e+00,1
1.999681e+00,4.729221e+00,4.719973e+00,7,11,2.439610e+00,2.434264e+00,1
2.001091e+00,4.923544e+00,4.914045e+00,7,13,1.420216e+00,1.407420e+00,1
1.999590e+00,1.610971e+00,1.600027e+00,7,4,2.136994e+00,2.116868e+00,1
1.996488e+00,1.582544e+00,1.573086e+00,7,4,1.899686e+00,1.885603e+00,1
1.998080e+00,1.879500e+00,1.869917e+00,7,5,2.516877e+00,2.500903e+00,1
2.284012e+00,4.239844e+00,4.230261e+00,8,13,1.267983e+00,1.266649e+00,1
1.718467e+00,1.964961e+00,1.954079e+00,6,5,9.660164e-01,9.632673e-01,1
1.997006e+00,1.652744e+00,1.642942e+00,7,4,5.908712e-01,5.900263e-01,1
1.997085e+00,2.915665e+00,2.905130e+00,7,8,5.135851e-01,5.045260e-01,1
1.996665e+00,1.024601e+00,1.014233e+00,7,2,5.126943e-01,5.059713e-01,1
1.995992e+00,1.325938e+00,1.316071e+00,7,3,9.140876e-01,9.031585e-01,1
1.997736e+00,3.368729e+00,3.358841e+00,7,10,4.334323e-01,4.330220e-01,1
2.851630e+00,1.055523e+00,1.046896e+00,10,2,4.909026e-01,4.698273e-01,1
1.997593e+00,1.400077e+00,1.390219e+00,7,3,5.836605e-01,5.776690e-01,1
1.995076e+00,1.358461e+00,1.348972e+00,7,3,6.924079e-01,6.879409e-01,1
1.717647e+00,7.683260e-01,7.569790e-01,6,1,4.539369e-01,4.532733e-01,1
1.732286e+00,1.395187e+00,1.384735e+00,6,3,4.732375e-01,4.705398e-01,1
1.996129e+00,1.398595e+00,1.388073e+00,7,3,5.073496e-01,5.049479e-01,1
1.997812e+00,7.527020e-01,7.419586e-01,7,1,7.233620e-01,7.178666e-01,1
2.000546e+00,1.658055e+00,1.647949e+00,7,4,1.714787e+00,1.701964e+00,1
1.998241e+00,1.326036e+00,1.314163e+00,7,3,2.474116e+00,2.453092e+00,1
2.000433e+00,4.268114e+00,4.257917e+00,7,13,1.593465e+00,1.588084e+00,1
1.999106e+00,1.637838e+00,1.626968e+00,7,4,1.998218e+00,1.990544e+00,1
1.999472e+00,2.248224e+00,2.238989e+00,7,6,1.326635e+00,1.323358e+00,1
3.146838e+00,1.649071e+00,1.640081e+00,11,4,7.846861e-01,7.818522e-01,1
2.000548e+00,3.658169e+00,3.646851e+00,7,10,1.019539e+00,1.012117e+00,1
1.997010e+00,3.490496e+00,3.479958e+00,7,10,4.423762e-01,4.384848e-01,1
1.146285e+00,2.910303e+00,2.899885e+00,4,8,6.183745e-01,6.138864e-01,1
3.146583e+00,1.345791e+00,1.335859e+00,11,3,3.882517e-01,3.856084e-01,1
2.850627e+00,1.074416e+00,1.065016e+00,10,2,4.056283e-01,3.954272e-01,1
1.996641e+00,7.587520e-01,7.481575e-01,7,1,4.210102e-01,4.191695e-01,1
1.996766e+00,2.621390e+00,2.611876e+00,7,7,6.255296e-01,6.180122e-01,1
2.295545e+00,3.190080e+00,3.180027e+00,8,9,3.136618e-01,3.116709e-01,1
1.429265e+00,4.147273e+00,4.136086e+00,5,12,7.519571e-01,7.458025e-01,1
1.997678e+00,1.613220e+00,1.604080e+00,7,4,1.932041e+00,1.911398e+00,1
2.000747e+00,3.038372e+00,3.029108e+00,7,9,1.148255e+00,1.144538e+00,1
1.428085e+00,2.907802e+00,2.897024e+00,5,8,8.435875e-01,8.370054e-01,1
1.709023e+00,1.958541e+00,1.948118e+00,6,5,6.065409e-01,6.064092e-01,1
1.709413e+00,4.486600e-01,4.382133e-01,6,0,5.875574e-01,5.723715e-01,1
1.995131e+00,7.651150e-01,7.550716e-01,7,1,6.216692e-01,6.204136e-01,1
2.001260e+00,3.240986e+00,3.230810e+00,7,9,1.212207e+00,1.195159e+00,1
2.002588e+00,2.504903e+00,2.495050e+00,7,7,1.033532e+00,1.032242e+00,1
1.997984e+00,1.373197e+00,1.363993e+00,7,3,8.973122e-01,8.960727e-01,1
1.995293e+00,1.678756e+00,1.668930e+00,7,4,9.109879e-01,9.074414e-01,1
1.997960e+00,2.270520e+00,2.260923e+00,7,6,1.089062e+00,1.077007e+00,1
1.998993e+00,1.313753e+00,1.302958e+00,7,3,1.611590e+00,1.597981e+00,1
2.001704e+00,2.442295e+00,2.432823e+00,7,7,3.017532e+00,2.990596e+00,1
2.002543e+00,3.464200e+00,3.453970e+00,7,11,3.860548e+00,3.823115e+00,1
2.003237e+00,3.686076e+00,3.675938e+00,7,12,3.314864e+00,3.293250e+00,1
2.019479e+00,4.037368e+00,4.025936e+00,7,10,3.317742e+00,3.298059e+00,1
2.040386e+00,5.631571e+00,5.622149e+00,7,14,2.544299e+00,2.534724e+00,1
2.016907e+00,1.947509e+00,1.937151e+00,7,5,2.362443e+00,2.351704e+00,1
2.004292e+00,1.619544e+00,1.609087e+00,7,4,2.240890e+00,2.231286e+00,1
1.167310e+00,5.069917e+00,5.058050e+00,4,16,1.710096e+00,1.686105e+00,1
2.022537e+00,3.249720e+00,3.239870e+00,7,10,1.478308e+00,1.469497e+00,1
2.000331e+00,2.536225e+00,2.525091e+00,7,7,1.111747e+00,1.108562e+00,1
2.577288e+00,2.877309e+00,2.867937e+00,9,8,1.025745e+00,1.023330e+00,1
1.997193e+00,1.529668e+00,1.519918e+00,7,3,1.329207e+00,1.321029e+00,1
1.998758e+00,2.785838e+00,2.776861e+00,7,6,1.757064e+00,1.742597e+00,1
2.290026e+00,4.608495e+00,4.599094e+00,8,11,3.520707e+00,3.527438e+00,1
2.289186e+00,5.025062e+00,5.012989e+00,8,13,4.060452e+00,4.055120e+00,1
2.291608e+00,4.253917e+00,4.241943e+00,8,11,4.411523e+00,4.403369e+00,1
1.999419e+00,3.518634e+00,3.507853e+00,7,11,3.966125e+00,3.933233e+00,1
1.997399e+00,1.543955e+00,1.532793e+00,7,4,3.594543e+00,3.572327e+00,1
1.999680e+00,2.911261e+00,2.901077e+00,7,9,3.956460e+00,3.928181e+00,1
1.433106e+00,4.726662e+00,4.717112e+00,5,16,3.620862e+00,3.603946e+00,1
1.999819e+00,3.629256e+00,3.619909e+00,7,12,2.959604e+00,2.939743e+00,1
2.000931e+00,2.561815e+00,2.551079e+00,7,8,2.045507e+00,2.033702e+00,1
3.426975e+00,4.367190e+00,4.355907e+00,12,14,1.450814e+00,1.436656e+00,1
1.430424e+00,2.204718e+00,2.194881e+00,5,6,1.114681e+00,1.104090e+00,1
1.998424e+00,1.651431e+00,1.641035e+00,7,4,1.177854e+00,1.168420e+00,1
1.997802e+00,2.502080e+00,2.491951e+00,7,7,1.416364e+00,1.402066e+00,1
2.290715e+00,3.930981e+00,3.921032e+00,8,12,7.592665e-01,7.583325e-01,1
2.853258e+00,1.067540e+00,1.055956e+00,10,2,7.063792e-01,7.048551e-01,1
2.852945e+00,1.689369e+00,1.680136e+00,10,4,8.059607e-01,8.039631e-01,1
1.995257e+00,1.662293e+00,1.650810e+00,7,4,4.429088e-01,4.387990e-01,1
1.148204e+00,1.393798e+00,1.384974e+00,4,3,4.243400e-01,4.184341e-01,1
1.997765e+00,1.351545e+00,1.342058e+00,7,3,3.727756e-01,3.685652e-01,1
1.428473e+00,7.639180e-01,7.536411e-01,5,1,4.138454e-01,4.129565e-01,1
1.144862e+00,2.930173e+00,2.919912e+00,4,8,5.813163e-01,5.696762e-01,1
2.284004e+00,1.928104e+00,1.917124e+00,8,5,6.033715e-01,6.015702e-01,1
2.013103e+00,1.686179e+00,1.677036e+00,7,4,6.491732e-01,6.475913e-01,1
1.999753e+00,1.060019e+00,1.050949e+00,7,2,6.102361e-01,6.076718e-01,1
1.146746e+00,1.082376e+00,1.072884e+00,4,2,5.056878e-01,5.031822e-01,1
1.999689e+00,1.692893e+00,1.683950e+00,7,4,4.638407e-01,4.622419e-01,1
1.997111e+00,1.058028e+00,1.048088e+00,7,2,1.480012e+00,1.471192e+00,1
2.286106e+00,5.112261e+00,5.101919e+00,8,16,3.132204e+00,3.125177e+00,1
2.002791e+00,2.484441e+00,2.474070e+00,7,6,3.831036e+00,3.788437e+00,1
2.000682e+00,3.168946e+00,3.159046e+00,7,9,3.029725e+00,3.016459e+00,1
2.001090e+00,2.158982e+00,2.149105e+00,7,5,2.851655e+00,2.825884e+00,1
1.999116e+00,3.756227e+00,3.746033e+00,7,9,2.585738e+00,2.568310e+00,1
2.003069e+00,4.608698e+00,4.598856e+00,7,11,2.200829e+00,2.197533e+00,1
1.148341e+00,6.325291e+00,6.314039e+00,4,16,1.347322e+00,1.320400e+00,1
1.997994e+00,1.837906e+00,1.827002e+00,7,5,1.171158e+00,1.145379e+00,1
2.282481e+00,6.956580e-01,6.859303e-01,8,1,2.637564e+00,2.633400e+00,1
2.285453e+00,2.796898e+00,2.787113e+00,8,7,3.830365e+00,3.834564e+00,1
2.286926e+00,5.582814e+00,5.568027e+00,8,15,4.553758e+00,4.568355e+00,1
2.006115e+00,7.035243e+00,7.025003e+00,7,20,3.712721e+00,3.711336e+00,1
2.002316e+00,5.206296e+00,5.195141e+00,7,14,2.761053e+00,2.756208e+00,1
2.004611e+00,5.254374e+00,5.244017e+00,7,15,1.922061e+00,1.917295e+00,1
1.150699e+00,3.872720e+00,3.860950e+00,4,12,1.506939e+00,1.476571e+00,1
2.000029e+00,1.959876e+00,1.949072e+00,7,5,2.316548e+00,2.288976e+00,1
1.998819e+00,2.339626e+00,2.328873e+00,7,6,2.330361e+00,2.291896e+00,1
1.996981e+00,2.233988e+00,2.223969e+00,7,6,1.734554e+00,1.718187e+00,1
1.995687e+00,1.289727e+00,1.280069e+00,7,3,1.683883e+00,1.680605e+00,1
1.995847e+00,1.017506e+00,1.007080e+00,7,2,1.795514e+00,1.788023e+00,1
1.993763e+00,1.035023e+00,1.025915e+00,7,2,1.779648e+00,1.771704e+00,1
1.994861e+00,1.938712e+00,1.928091e+00,7,5,2.232066e+00,2.225744e+00,1
1.431582e+00,5.195921e+00,5.187035e+00,5,13,1.936291e+00,1.945341e+00,1
1.998692e+00,3.184573e+00,3.174067e+00,7,7,2.094984e+00,2.096879e+00,1
1.999674e+00,1.686169e+00,1.676083e+00,7,3,1.972831e+00,1.970721e+00,1
1.998170e+00,2.890645e+00,2.880096e+00,7,6,1.604923e+00,1.599878e+00,1
2.000707e+00,2.019886e+00,2.011061e+00,7,5,1.303459e+00,1.296571e+00,1
1.998725e+00,2.727490e+00,2.717018e+00,7,7,1.398131e+00,1.386246e+00,1
1.997866e+00,1.922210e+00,1.911879e+00,7,4,1.205012e+00,1.187502e+00,1
1.995207e+00,2.305261e+00,2.296209e+00,7,6,6.363582e-01,6.290214e-01,1
1.996820e+00,7.313820e-01,7.209778e-01,7,1,5.695805e-01,5.651931e-01,1
2.001102e+00,2.265938e+00,2.256870e+00,7,6,4.579093e-01,4.569947e-01,1
1.431928e+00,1.680375e+00,1.668692e+00,5,4,5.619601e-01,5.594265e-01,1
1.997823e+00,1.067102e+00,1.055956e+00,7,2,5.800164e-01,5.765661e-01,1
1.997856e+00,1.660753e+00,1.650095e+00,7,4,4.954817e-01,4.898394e-01,1
1.995948e+00,1.043775e+00,1.034021e+00,7,2,3.872732e-01,3.866173e-01,1
1.714910e+00,1.052408e+00,1.041889e+00,6,2,5.150397e-01,5.147509e-01,1
1.433765e+00,4.416300e-01,4.322529e-01,5,0,1.615657e-01,1.612344e-01,1
1.433877e+00,7.566110e-01,7.479191e-01,5,1,1.750244e-01,1.741793e-01,1
1.709200e+00,7.503840e-01,7.398129e-01,6,1,1.742587e-01,1.727351e-01,1
3.433214e+00,4.460360e-01,4.358292e-01,12,0,1.814311e-01,1.671643e-01,1
2.283076e+00,4.508040e-01,4.408360e-01,8,0,2.351333e-01,2.349095e-01,1
1.144881e+00,1.080138e+00,1.070976e+00,4,2,3.244895e-01,3.233181e-01,1
2.280384e+00,1.691534e+00,1.681805e+00,8,4,2.241251e-01,2.220946e-01,1
1.428173e+00,2.314533e+00,2.302885e+00,5,6,3.470006e-01,3.452868e-01,1
1.994772e+00,7.512270e-01,7.410049e-01,7,1,5.467328e-01,5.432605e-01,1
2.278507e+00,1.948047e+00,1.939058e+00,8,5,3.861298e-01,3.841134e-01,1
1.425862e+00,1.080594e+00,1.070023e+00,5,2,4.120209e-01,4.116309e-01,1
1.426704e+00,1.051211e+00,1.042128e+00,5,2,4.130117e-01,4.129406e-01,1
1.143905e+00,1.081914e+00,1.067162e+00,4,2,5.225159e-01,5.214796e-01,1
2.283661e+00,1.369002e+00,1.358986e+00,8,3,4.986402e-01,4.968199e-01,1
1.995261e+00,7.534600e-01,7.429123e-01,7,1,2.721019e-01,2.711629e-01,1
2.848208e+00,1.053663e+00,1.044035e+00,10,2,1.713195e-01,1.654805e-01,1
1.145253e+00,4.486670e-01,4.379749e-01,4,0,2.851309e-01,2.850020e-01,1
1.433112e+00,4.390280e-01,4.289150e-01,5,0,2.194686e-01,2.179986e-01,1
3.141092e+00,4.410390e-01,4.308224e-01,11,0,1.996549e-01,1.963827e-01,1
2.854545e+00,1.079852e+00,1.069069e+00,10,2,5.440597e-01,5.294844e-01,1
3.135964e+00,1.058223e+00,1.048088e+00,11,2,3.534947e-01,3.483450e-01,1
2.853242e+00,4.433140e-01,4.329681e-01,10,0,6.262368e-01,6.060533e-01,1
1.147197e+00,1.403175e+00,1.393080e+00,4,3,1.194500e+00,1.190491e+00,1
2.007844e+00,2.597059e+00,2.587080e+00,7,7,9.426376e-01,9.307091e-01,1
2.000898e+00,1.639104e+00,1.629829e+00,7,4,7.344554e-01,7.334575e-01,1
1.994881e+00,1.989470e+00,1.980066e+00,7,5,1.219568e+00,1.214463e+00,1
1.997300e+00,1.502177e+00,1.490831e+00,7,3,1.614090e+00,1.608867e+00,1
1.429047e+00,2.024025e+00,2.014160e+00,5,5,7.237649e-01,7.231321e-01,1
2.282684e+00,7.528960e-01,7.429123e-01,8,1,5.124551e-01,5.101034e-01,1
1.145995e+00,1.099934e+00,1.090050e+00,4,2,5.763766e-01,5.741153e-01,1
1.995929e+00,1.063155e+00,1.054049e+00,7,2,2.153992e-01,2.145346e-01,1
2.284147e+00,1.374127e+00,1.363993e+00,8,3,1.401699e-01,1.388451e-01,1
1.996212e+00,7.592250e-01,7.491112e-01,7,1,3.038262e-01,3.031652e-01,1
2.290556e+00,7.571870e-01,7.481575e-01,8,1,3.462316e-01,3.384969e-01,1
1.144840e+00,1.709371e+00,1.698971e+00,4,4,3.930053e-01,3.900265e-01,1
1.995355e+00,1.059345e+00,1.049995e+00,7,2,8.614577e-01,8.535084e-01,1
1.997956e+00,1.342537e+00,1.331806e+00,7,3,5.929377e-01,5.922346e-01,1
2.570160e+00,1.057514e+00,1.047134e+00,9,2,5.965588e-01,5.950550e-01,1
2.855502e+00,4.419150e-01,4.329681e-01,10,0,5.705757e-01,5.540600e-01,1
3.138198e+00,7.664850e-01,7.569790e-01,11,1,4.702828e-01,4.693276e-01,1
1.996732e+00,1.077710e+00,1.068115e+00,7,2,5.266807e-01,5.250380e-01,1
2.001263e+00,1.982002e+00,1.971722e+00,7,5,6.905838e-01,6.895037e-01,1
2.853767e+00,2.000256e+00,1.990080e+00,10,5,4.927599e-01,4.855103e-01,1
1.435211e+00,2.924511e+00,2.913952e+00,5,8,5.318632e-01,5.302621e-01,1
1.995438e+00,7.317540e-01,7.231236e-01,7,1,6.076506e-01,6.056324e-01,1
1.995154e+00,4.397360e-01,4.298687e-01,7,0,6.795299e-01,6.773274e-01,1
1.995340e+00,1.364833e+00,1.354218e+00,7,3,8.859525e-01,8.817084e-01,1
2.278270e+00,1.345816e+00,1.334906e+00,8,3,4.874052e-01,4.850813e-01,1
1.146523e+00,2.929230e+00,2.920151e+00,4,8,3.967814e-01,3.840880e-01,1
1.996609e+00,1.347962e+00,1.337051e+00,7,3,4.349561e-01,4.313954e-01,1
1.995463e+00,1.044960e+00,1.034737e+00,7,2,4.611975e-01,4.572241e-01,1
2.850080e+00,1.652622e+00,1.643181e+00,10,4,3.883499e-01,3.807299e-01,1
1.716101e+00,2.896157e+00,2.887011e+00,6,8,1.303653e+00,1.287812e+00,1
1.997395e+00,2.520994e+00,2.511024e+00,7,7,8.708576e-01,8.641543e-01,1
2.845965e+00,1.914066e+00,1.904011e+00,10,5,8.342097e-01,8.338200e-01,1
1.999915e+00,1.064470e+00,1.054049e+00,7,2,7.174559e-01,7.153436e-01,1
1.999536e+00,2.578030e+00,2.568960e+00,7,7,7.132257e-01,7.110460e-01,1
1.996504e+00,1.042204e+00,1.030922e+00,7,2,5.291629e-01,5.261295e-01,1
1.995291e+00,1.357927e+00,1.347065e+00,7,3,7.517641e-01,7.500353e-01,1
1.996356e+00,7.395330e-01,7.300377e-01,7,1,8.252664e-01,8.243440e-01,1
2.851394e+00,1.684826e+00,1.676083e+00,10,4,7.082733e-01,6.949156e-01,1
1.718188e+00,2.013955e+00,2.002716e+00,6,5,6.629144e-01,6.606296e-01,1
2.000904e+00,1.684303e+00,1.674891e+00,7,4,5.350028e-01,5.336362e-01,1
1.428540e+00,2.284502e+00,2.275229e+00,5,6,4.636152e-01,4.584740e-01,1
1.997299e+00,1.951264e+00,1.935959e+00,7,5,4.110852e-01,4.074715e-01,1
1.434329e+00,2.593147e+00,2.583027e+00,5,7,3.322894e-01,3.309660e-01,1
2.850961e+00,1.048931e+00,1.039982e+00,10,2,2.885363e-01,2.881128e-01,1
1.996590e+00,1.071187e+00,1.062870e+00,7,2,3.693035e-01,3.669816e-01,1
2.853309e+00,1.660335e+00,1.650095e+00,10,4,3.061569e-01,2.997914e-01,1
2.850658e+00,1.066848e+00,1.056910e+00,10,2,4.145715e-01,4.009927e-01,1
2.279726e+00,1.699956e+00,1.690149e+00,8,4,3.657447e-01,3.623221e-01,1
1.427539e+00,1.359462e+00,1.350164e+00,5,3,4.455842e-01,4.455781e-01,1
8.612320e-01,4.489340e-01,4.410744e-01,3,0,5.752898e-01,5.752060e-01,1
1.144550e+00,4.385390e-01,4.291534e-01,4,0,4.547077e-01,4.546408e-01,1
1.148270e+00,3.818917e+00,3.808975e+00,4,11,1.041670e+00,1.034028e+00,1
1.995528e+00,2.168965e+00,2.157927e+00,7,6,2.435478e+00,2.410889e+00,1
1.996852e+00,2.390918e+00,2.380848e+00,7,7,1.826284e+00,1.810206e+00,1
1.998503e+00,3.647274e+00,3.638029e+00,7,11,1.302381e+00,1.297675e+00,1
1.427894e+00,1.955145e+00,1.945972e+00,5,5,1.070660e+00,1.061331e+00,1
1.998403e+00,1.342675e+00,1.332998e+00,7,3,1.126803e+00,1.124215e+00,1
1.999200e+00,1.655821e+00,1.646042e+00,7,4,8.457427e-01,8.436199e-01,1
2.573667e+00,1.964423e+00,1.955032e+00,9,5,7.360404e-01,7.329658e-01,1
1.997578e+00,1.667585e+00,1.656771e+00,7,4,6.481587e-01,6.455404e-01,1
1.997000e+00,1.353687e+00,1.344919e+00,7,3,6.376689e-01,6.361743e-01,1
1.998766e+00,1.369848e+00,1.359940e+00,7,3,5.218580e-01,5.210979e-01,1
1.146327e+00,4.137085e+00,4.126072e+00,4,12,6.982642e-01,6.786975e-01,1
1.997179e+00,1.584017e+00,1.574993e+00,7,4,1.083437e+00,1.066980e+00,1
1.997462e+00,1.836051e+00,1.821041e+00,7,5,7.883263e-01,7.776429e-01,1
1.996258e+00,2.184275e+00,2.175093e+00,7,6,3.668718e-01,3.626504e-01,1
1.997218e+00,1.951121e+00,1.940012e+00,7,5,1.931258e-01,1.921121e-01,1
1.146249e+00,4.421780e-01,4.329681e-01,4,0,2.436227e-01,2.430845e-01,1
1.144707e+00,7.642370e-01,7.541180e-01,4,1,3.320834e-01,3.310727e-01,1
3.133665e+00,7.498700e-01,7.410049e-01,11,1,4.483130e-01,4.457724e-01,1
3.132965e+00,4.454150e-01,4.360676e-01,11,0,2.611366e-01,2.535054e-01,1
1.145699e+00,7.666120e-01,7.572174e-01,4,1,3.090710e-01,3.089603e-01,1
1.999213e+00,4.385180e-01,4.298687e-01,7,0,4.069843e-01,4.067467e-01,1
2.567603e+00,7.498470e-01,7.410049e-01,9,1,4.454150e-01,4.444334e-01,1
1.144451e+00,1.391656e+00,1.381874e+00,4,3,7.523332e-01,7.511317e-01,1
2.853462e+00,1.365317e+00,1.354933e+00,10,3,4.421745e-01,4.403311e-01,1
2.285188e+00,4.417330e-01,4.310608e-01,8,0,4.068398e-01,4.055179e-01,1
1.153061e+00,3.832500e+00,3.823042e+00,4,11,1.249207e+00,1.243405e+00,1
1.992196e+00,1.897985e+00,1.882076e+00,7,5,1.501340e+00,1.492270e+00,1
1.997289e+00,2.828251e+00,2.819061e+00,7,8,6.283141e-01,6.272599e-01,1
1.145229e+00,1.078945e+00,1.069069e+00,4,2,6.981038e-01,6.945242e-01,1
1.994074e+00,7.439920e-01,7.348061e-01,7,1,6.247920e-01,6.239675e-01,1
1.996921e+00,1.385766e+00,1.376867e+00,7,3,5.974438e-01,5.952814e-01,1
1.426284e+00,1.660017e+00,1.650095e+00,5,4,2.952885e-01,2.951981e-01,1
8.538660e-01,4.464310e-01,4.360676e-01,3,0,2.199396e-01,2.192452e-01,1
1.709961e+00,1.081965e+00,1.068115e+00,6,2,3.928366e-01,3.916865e-01,1
1.994016e+00,1.058099e+00,1.048088e+00,7,2,4.673665e-01,4.657779e-01,1
1.994861e+00,4.435690e-01,4.341602e-01,7,0,7.266354e-01,7.260092e-01,1
1.999637e+00,1.051600e+00,1.042128e+00,7,2,4.071061e-01,4.050986e-01,1
1.146168e+00,1.705202e+00,1.695156e+00,4,4,3.341641e-01,3.313421e-01,1
1.996921e+00,1.663315e+00,1.654148e+00,7,4,4.758118e-01,4.678342e-01,1
1.996603e+00,1.030514e+00,1.020908e+00,7,2,7.215405e-01,7.161068e-01,1
1.998132e+00,1.319331e+00,1.309156e+00,7,3,8.125123e-01,8.092253e-01,1
1.997066e+00,1.658876e+00,1.648188e+00,7,4,9.310686e-01,9.270640e-01,1
1.997354e+00,1.968822e+00,1.958847e+00,7,5,8.264098e-01,8.249199e-01,1
1.997921e+00,1.986535e+00,1.976013e+00,7,5,1.223747e+00,1.218481e+00,1
2.290500e+00,2.254113e+00,2.243996e+00,8,6,5.570435e-01,5.559350e-01,1
1.996742e+00,1.383066e+00,1.372099e+00,7,3,5.410219e-01,5.381495e-01,1
2.001520e+00,3.785582e+00,3.775835e+00,7,11,9.833572e-01,9.707205e-01,1
1.996344e+00,2.449954e+00,2.439022e+00,7,7,4.862385e-01,4.828702e-01,1
1.996800e+00,1.642092e+00,1.632214e+00,7,4,5.500378e-01,5.474870e-01,1
2.849384e+00,1.659376e+00,1.650095e+00,10,4,4.310525e-01,4.308723e-01,1
1.145457e+00,4.403700e-01,4.298687e-01,4,0,1.918509e-01,1.918470e-01,1
8.610720e-01,7.642420e-01,7.560253e-01,3,1,3.060397e-01,3.050277e-01,1
1.996482e+00,7.482670e-01,7.381439e-01,7,1,3.604810e-01,3.600912e-01,1
2.853765e+00,1.078128e+00,1.069784e+00,10,2,2.750019e-01,2.650824e-01,1
1.996345e+00,2.287282e+00,2.278090e+00,7,6,8.382970e-01,8.274278e-01,1
1.996702e+00,1.324400e+00,1.315117e+00,7,3,4.542879e-01,4.510181e-01,1
2.280391e+00,1.950423e+00,1.940966e+00,8,5,2.729131e-01,2.717541e-01,1
3.139859e+00,4.412600e-01,4.310608e-01,11,0,2.858408e-01,2.808405e-01,1
1.707317e+00,7.607580e-01,7.510185e-01,6,1,4.225512e-01,4.188058e-01,1
2.277543e+00,7.531370e-01,7.438660e-01,8,1,6.917780e-01,6.891632e-01,1
1.146864e+00,1.705631e+00,1.696110e+00,4,4,9.790842e-01,9.765945e-01,1
1.146388e+00,4.732632e+00,4.721642e+00,4,14,1.130628e+00,1.119314e+00,1
1.997532e+00,1.604865e+00,1.595974e+00,7,4,1.573669e+00,1.555365e+00,1
1.997409e+00,3.023881e+00,3.015041e+00,7,9,7.083538e-01,7.048909e-01,1
2.281298e+00,1.945821e+00,1.936913e+00,8,5,5.709369e-01,5.675767e-01,1
1.150625e+00,1.078981e+00,1.068115e+00,4,2,3.052942e-01,3.030049e-01,1
1.994222e+00,4.353320e-01,4.248619e-01,7,0,3.419212e-01,3.407205e-01,1
1.998530e+00,3.479405e+00,3.469944e+00,7,10,5.609727e-01,5.527437e-01,1
1.999817e+00,2.470653e+00,2.460241e+00,7,7,7.107608e-01,7.077717e-01,1
2.010854e+00,1.964227e+00,1.953125e+00,7,5,8.220156e-01,8.119167e-01,1
1.997616e+00,1.602392e+00,1.592875e+00,7,4,7.196050e-01,7.147389e-01,1
1.997067e+00,1.331034e+00,1.322031e+00,7,3,7.968958e-01,7.947715e-01,1
1.996165e+00,1.973745e+00,1.964808e+00,7,5,1.116301e+00,1.109826e+00,1
1.997797e+00,2.239796e+00,2.228975e+00,7,6,1.298393e+00,1.293275e+00,1
1.996557e+00,2.804424e+00,2.794981e+00,7,8,9.627634e-01,9.604000e-01,1
1.995891e+00,1.667289e+00,1.657009e+00,7,4,8.050635e-01,8.012177e-01,1
2.290868e+00,3.180302e+00,3.171921e+00,8,9,1.020968e+00,1.000729e+00,1
1.150942e+00,2.610949e+00,2.600908e+00,4,7,5.575157e-01,5.530851e-01,1
1.999170e+00,2.278073e+00,2.269983e+00,7,6,4.289272e-01,4.261368e-01,1
2.001937e+00,2.911640e+00,2.901793e+00,7,8,6.798057e-01,6.748990e-01,1
1.429002e+00,2.646165e+00,2.635956e+00,5,7,8.709997e-01,8.673934e-01,1
1.997815e+00,1.677574e+00,1.667976e+00,7,4,1.169569e+00,1.163708e+00,1
2.857492e+00,2.863944e+00,2.854824e+00,10,8,4.790661e-01,4.688634e-01,1
1.997618e+00,2.005972e+00,1.995087e+00,7,5,4.759648e-01,4.709718e-01,1
1.997523e+00,1.955592e+00,1.945019e+00,7,5,6.191696e-01,6.094252e-01,1
2.001174e+00,7.168080e-01,7.069111e-01,7,1,7.425947e-01,7.356458e-01,1
2.852776e+00,3.450635e+00,3.441095e+00,10,10,6.301373e-01,6.283312e-01,1
1.998313e+00,7.615500e-01,7.510185e-01,7,1,6.613832e-01,6.599965e-01,1
1.998897e+00,1.360296e+00,1.350880e+00,7,3,4.963217e-01,4.958713e-01,1
2.852051e+00,7.512220e-01,7.410049e-01,10,1,3.644320e-01,3.644043e-01,1

