6.083010e-01,3.758637e+01,3.716087e+01,2,82,0.000000e+00,7.365582e-21,1
8.611170e-01,4.441690e-01,4.301071e-01,3,0,1.124582e-01,1.124539e-01,1
1.148554e+00,7.510840e-01,7.410049e-01,4,1,1.516800e-01,1.514522e-01,1
1.994069e+00,1.070300e+00,1.060963e+00,7,2,3.399500e-01,3.382829e-01,1
1.994294e+00,1.029047e+00,1.019001e+00,7,2,2.724800e-01,2.724497e-01,1
1.998374e+00,2.910465e+00,2.900839e+00,7,8,7.753929e-01,7.615373e-01,1
1.996391e+00,4.198300e-01,4.100800e-01,7,0,1.057469e+00,1.047925e+00,1
1.995652e+00,7.145500e-01,7.050037e-01,7,1,1.394779e+00,1.388075e+00,1
2.852921e+00,2.786782e+00,2.776861e+00,10,8,6.608719e-01,6.525670e-01,1
1.714302e+00,1.387036e+00,1.378059e+00,6,3,6.534939e-01,6.528895e-01,1
1.998198e+00,1.647728e+00,1.636982e+00,7,4,4.843555e-01,4.826743e-01,1
1.995149e+00,1.061938e+00,1.053095e+00,7,2,4.630637e-01,4.603771e-01,1
1.995081e+00,1.039965e+00,1.029968e+00,7,2,7.521189e-01,7.479264e-01,1
2.007747e+00,1.624012e+00,1.615047e+00,7,4,1.153103e+00,1.149803e+00,1
2.283244e+00,1.616219e+00,1.605988e+00,8,4,9.252546e-01,9.242956e-01,1
1.995323e+00,2.289624e+00,2.280951e+00,7,6,1.365431e+00,1.357138e+00,1
1.999443e+00,2.817398e+00,2.808094e+00,7,8,1.149719e+00,1.146189e+00,1
2.276579e+00,1.012613e+00,1.003027e+00,8,2,9.577345e-01,9.560932e-01,1
1.995644e+00,1.337056e+00,1.327991e+00,7,3,1.016944e+00,1.012263e+00,1
1.714082e+00,2.223950e+00,2.216101e+00,6,6,1.179294e+00,1.178195e+00,1
1.995236e+00,2.215885e+00,2.206087e+00,7,6,1.209092e+00,1.201966e+00,1
1.144692e+00,2.759722e+00,2.750158e+00,4,8,1.075406e+00,1.065869e+00,1
1.997958e+00,1.956552e+00,1.945972e+00,7,5,8.576419e-01,8.523888e-01,1
1.997685e+00,2.811656e+00,2.803087e+00,7,8,1.063444e+00,1.060866e+00,1
1.994834e+00,1.605792e+00,1.596928e+00,7,4,1.117202e+00,1.113506e+00,1
1.994150e+00,1.021143e+00,1.012087e+00,7,2,1.087750e+00,1.085988e+00,1
2.854611e+00,3.181908e+00,3.172159e+00,10,9,8.550430e-01,8.374707e-01,1
1.993661e+00,2.221938e+00,2.212048e+00,7,6,6.569202e-01,6.511320e-01,1
1.708309e+00,1.628702e+00,1.619101e+00,6,4,4.274309e-01,4.270416e-01,1
3.132925e+00,4.381620e-01,4.279613e-01,11,0,3.076833e-01,3.075235e-01,1
1.144862e+00,1.061588e+00,1.051903e+00,4,2,5.399419e-01,5.391691e-01,1
2.277462e+00,2.567173e+00,2.558947e+00,8,7,6.401469e-01,6.379289e-01,1
2.844746e+00,1.330406e+00,1.321077e+00,10,3,5.069419e-01,5.053916e-01,1
1.994813e+00,1.925686e+00,1.917124e+00,7,5,6.672219e-01,6.643765e-01,1
1.993918e+00,1.017022e+00,1.005888e+00,7,2,3.833395e-01,3.807541e-01,1
1.995197e+00,1.325146e+00,1.316071e+00,7,3,2.706966e-01,2.702647e-01,1
1.999225e+00,1.049313e+00,1.040936e+00,7,2,4.413782e-01,4.409120e-01,1
1.994891e+00,1.359341e+00,1.348972e+00,7,3,4.712874e-01,4.691049e-01,1
1.994760e+00,2.256316e+00,2.247095e+00,7,6,8.496880e-01,8.385035e-01,1
1.996357e+00,1.888835e+00,1.878977e+00,7,5,7.506475e-01,7.435659e-01,1
1.994927e+00,1.015501e+00,1.006126e+00,7,2,1.465461e+00,1.454592e+00,1
1.994879e+00,7.102080e-01,7.011890e-01,7,1,1.951064e+00,1.932317e+00,1
1.995844e+00,2.435478e+00,2.426147e+00,7,7,1.257393e+00,1.252861e+00,1
1.995169e+00,1.937033e+00,1.926899e+00,7,5,1.706076e+00,1.697858e+00,1
1.996837e+00,2.178955e+00,2.169132e+00,7,6,1.425905e+00,1.422247e+00,1
1.146164e+00,2.814848e+00,2.805948e+00,4,8,1.111887e+00,1.106049e+00,1
1.995750e+00,1.024250e+00,1.015186e+00,7,2,9.681034e-01,9.624782e-01,1
1.996892e+00,1.333281e+00,1.324177e+00,7,3,8.052876e-01,8.031507e-01,1
1.994651e+00,2.872484e+00,2.862930e+00,7,8,5.420981e-01,5.398175e-01,1
2.849355e+00,1.628531e+00,1.619101e+00,10,4,1.792953e-01,1.728986e-01,1
1.144765e+00,7.530410e-01,7.429123e-01,4,1,2.959010e-01,2.953588e-01,1
2.569693e+00,1.669891e+00,1.661777e+00,9,4,5.910098e-01,5.891890e-01,1
1.996006e+00,1.645442e+00,1.635075e+00,7,4,5.188716e-01,5.172161e-01,1
2.849809e+00,1.042312e+00,1.033068e+00,10,2,4.433298e-01,4.271311e-01,1
2.000096e+00,2.557648e+00,2.549171e+00,7,7,4.202604e-01,4.182134e-01,1
1.995428e+00,1.025049e+00,1.016140e+00,7,2,6.096134e-01,6.048342e-01,1
1.994295e+00,1.915095e+00,1.905918e+00,7,5,3.098541e-01,3.097384e-01,1
1.993988e+00,1.058671e+00,1.048803e+00,7,2,3.499801e-01,3.482688e-01,1
1.995196e+00,1.344986e+00,1.336098e+00,7,3,5.251162e-01,5.221509e-01,1
1.996119e+00,7.243780e-01,7.150173e-01,7,1,7.633906e-01,7.602661e-01,1
1.145682e+00,4.937843e+00,4.928112e+00,4,15,4.028067e-01,3.960676e-01,1
1.999043e+00,2.165687e+00,2.154827e+00,7,6,1.375266e+00,1.360304e+00,1
1.996378e+00,1.853765e+00,1.845121e+00,7,5,3.026369e+00,2.999982e+00,1
1.997938e+00,4.300002e+00,4.290104e+00,7,14,1.482634e+00,1.474073e+00,1
1.996487e+00,1.571723e+00,1.560926e+00,7,4,1.866315e+00,1.858597e+00,1
2.000347e+00,5.179605e+00,5.170107e+00,7,16,8.435163e-01,8.382039e-01,1
1.995717e+00,2.492724e+00,2.484083e+00,7,7,8.209846e-01,8.183337e-01,1
1.425888e+00,1.341961e+00,1.332045e+00,5,3,5.174029e-01,5.167912e-01,1
2.564219e+00,2.299382e+00,2.290964e+00,9,6,4.919643e-01,4.913203e-01,1
1.995818e+00,1.937845e+00,1.929045e+00,7,5,2.720724e-01,2.719191e-01,1
8.598270e-01,4.416180e-01,4.329681e-01,3,0,5.188903e-01,5.178009e-01,1
1.428446e+00,4.375080e-01,4.289150e-01,5,0,6.318072e-01,6.316995e-01,1
1.144966e+00,4.417770e-01,4.329681e-01,4,0,7.162282e-01,7.159959e-01,1
1.144469e+00,1.994560e+00,1.985073e+00,4,5,8.439988e-01,8.386673e-01,1
1.994146e+00,1.938035e+00,1.927853e+00,7,5,1.167058e+00,1.155858e+00,1
1.996828e+00,2.848808e+00,2.837896e+00,7,7,1.358695e+00,1.349411e+00,1
2.284928e+00,4.238074e+00,4.228115e+00,8,10,9.848039e-01,9.719478e-01,1
1.997937e+00,1.140695e+00,1.130104e+00,7,2,8.551657e-01,8.525625e-01,1
1.998260e+00,1.947726e+00,1.936674e+00,7,5,8.025540e-01,8.001604e-01,1
1.995217e+00,4.470350e-01,4.360676e-01,7,0,3.199661e-01,3.195241e-01,1
2.000642e+00,3.455652e+00,3.446102e+00,7,10,1.274019e+00,1.255351e+00,1
1.997213e+00,2.457363e+00,2.448082e+00,7,7,9.666541e-01,9.616424e-01,1
1.994771e+00,1.628714e+00,1.620054e+00,7,4,6.845354e-01,6.807126e-01,1
1.426187e+00,3.179256e+00,3.169060e+00,5,9,9.370822e-01,9.330406e-01,1
1.145418e+00,5.186877e+00,5.176783e+00,4,16,1.272641e+00,1.246326e+00,1
1.993949e+00,7.067250e-01,6.971359e-01,7,1,2.320013e+00,2.293140e+00,1
1.998977e+00,2.394689e+00,2.386093e+00,7,7,3.664384e+00,3.609361e+00,1
2.292033e+00,5.539441e+00,5.528927e+00,8,16,5.324074e+00,5.325157e+00,1
2.001792e+00,7.443567e+00,7.433891e+00,7,23,4.235273e+00,4.203986e+00,1
1.429662e+00,5.842830e+00,5.832911e+00,5,20,2.820718e+00,2.796324e+00,1
1.146515e+00,3.221840e+00,3.212929e+00,4,10,1.780622e+00,1.757041e+00,1
1.995551e+00,3.553332e+00,3.543854e+00,7,11,1.102727e+00,1.098221e+00,1
1.998655e+00,5.400201e+00,5.390882e+00,7,17,1.671264e+00,1.648058e+00,1
1.995071e+00,1.496946e+00,1.486063e+00,7,4,1.094660e+00,1.077916e+00,1
1.994150e+00,6.848880e-01,6.759167e-01,7,1,1.534480e+00,1.523850e+00,1
1.994663e+00,9.727370e-01,9.639263e-01,7,2,1.840047e+00,1.815582e+00,1
1.997846e+00,3.313387e+00,3.304958e+00,7,10,8.897469e-01,8.875964e-01,1
1.996180e+00,1.972161e+00,1.963139e+00,7,5,6.603493e-01,6.579308e-01,1
1.993413e+00,1.045284e+00,1.034975e+00,7,2,9.908653e-01,9.858461e-01,1
2.850687e+00,1.920686e+00,1.910925e+00,10,5,8.893571e-01,8.888611e-01,1
1.996771e+00,2.255473e+00,2.247095e+00,7,6,6.534882e-01,6.504362e-01,1
1.994696e+00,2.239422e+00,2.229929e+00,7,6,6.759864e-01,6.733712e-01,1
2.851274e+00,1.650229e+00,1.640081e+00,10,4,3.168122e-01,3.056844e-01,1
1.432783e+00,1.392903e+00,1.383066e+00,5,3,2.555211e-01,2.544421e-01,1
1.995529e+00,1.041860e+00,1.032829e+00,7,2,2.227957e-01,2.226855e-01,1
1.713910e+00,1.062900e+00,1.054049e+00,6,2,5.131593e-01,5.075744e-01,1
1.993092e+00,1.686377e+00,1.677990e+00,7,4,6.819539e-01,6.804320e-01,1
1.995796e+00,1.685711e+00,1.675844e+00,7,4,6.015764e-01,5.996333e-01,1
2.285523e+00,1.986938e+00,1.976967e+00,8,5,3.986394e-01,3.981491e-01,1
1.996552e+00,1.067459e+00,1.059055e+00,7,2,3.574873e-01,3.555941e-01,1
1.996537e+00,1.042750e+00,1.032114e+00,7,2,3.741919e-01,3.738934e-01,1
2.012148e+00,1.992975e+00,1.983881e+00,7,5,4.886206e-01,4.862116e-01,1
1.996783e+00,1.951253e+00,1.941919e+00,7,5,3.478293e-01,3.454726e-01,1
1.716924e+00,1.088163e+00,1.079082e+00,6,2,4.916999e-01,4.901486e-01,1
1.995460e+00,1.056876e+00,1.046181e+00,7,2,2.088332e-01,2.082256e-01,1
3.135183e+00,1.084247e+00,1.074076e+00,11,2,2.103872e-01,2.087306e-01,1
1.994368e+00,1.387904e+00,1.378775e+00,7,3,5.830845e-01,5.778709e-01,1
1.994572e+00,1.642673e+00,1.632929e+00,7,4,3.412463e-01,3.407615e-01,1
1.997123e+00,2.601021e+00,2.592087e+00,7,7,1.054752e+00,1.046938e+00,1
1.143551e+00,2.535468e+00,2.525806e+00,4,7,9.044472e-01,8.963871e-01,1
1.432674e+00,2.559909e+00,2.549887e+00,5,7,1.219550e+00,1.217721e+00,1
1.996109e+00,2.229400e+00,2.220154e+00,7,6,1.834314e+00,1.820484e+00,1
1.997647e+00,2.751794e+00,2.742052e+00,7,8,1.598464e+00,1.589039e+00,1
1.996390e+00,2.756501e+00,2.747059e+00,7,8,1.469356e+00,1.462139e+00,1
1.995600e+00,1.296908e+00,1.287937e+00,7,3,2.150025e+00,2.138333e+00,1
1.998348e+00,3.332936e+00,3.323078e+00,7,10,1.591640e+00,1.589198e+00,1
1.996194e+00,1.618023e+00,1.609087e+00,7,4,1.040391e+00,1.038907e+00,1
1.995803e+00,1.364382e+00,1.355886e+00,7,3,6.897346e-01,6.890914e-01,1
1.428802e+00,2.918376e+00,2.908945e+00,5,8,5.065534e-01,5.008587e-01,1
1.143703e+00,2.554488e+00,2.545118e+00,4,7,4.288078e-01,4.234346e-01,1
3.139737e+00,1.061412e+00,1.053095e+00,11,2,4.514269e-01,4.503657e-01,1
1.993916e+00,1.379326e+00,1.369953e+00,7,3,5.407673e-01,5.360557e-01,1
1.144333e+00,2.273347e+00,2.263069e+00,4,6,3.417695e-01,3.322245e-01,1
2.850234e+00,1.649503e+00,1.639843e+00,10,4,2.921483e-01,2.920650e-01,1
2.567389e+00,4.398670e-01,4.296303e-01,9,0,2.375500e-01,2.267556e-01,1
1.428256e+00,7.625840e-01,7.519722e-01,5,1,6.791590e-01,6.777403e-01,1
2.849327e+00,1.069538e+00,1.059771e+00,10,2,7.837679e-01,7.836130e-01,1
2.009825e+00,4.393500e-01,4.301071e-01,7,0,6.164438e-01,6.155588e-01,1
2.563389e+00,1.386550e+00,1.375914e+00,9,3,7.058299e-01,7.043960e-01,1
1.996114e+00,1.065442e+00,1.056910e+00,7,2,5.418994e-01,5.411112e-01,1
1.994505e+00,1.369169e+00,1.359940e+00,7,3,7.889117e-01,7.844582e-01,1
1.992234e+00,4.312010e-01,4.220009e-01,7,0,1.171177e+00,1.164146e+00,1
1.994815e+00,1.934547e+00,1.925945e+00,7,5,1.642496e+00,1.637346e+00,1
1.432097e+00,3.464675e+00,3.456116e+00,5,10,1.551114e+00,1.546732e+00,1
1.997043e+00,3.428108e+00,3.417969e+00,7,10,1.273454e+00,1.266090e+00,1
1.994357e+00,1.284862e+00,1.275778e+00,7,3,1.150615e+00,1.143635e+00,1
1.993884e+00,1.897260e+00,1.888037e+00,7,5,9.290436e-01,9.263346e-01,1
1.430844e+00,3.400410e+00,3.390789e+00,5,9,1.033671e+00,1.030977e+00,1
1.997651e+00,3.991151e+00,3.981113e+00,7,11,1.089387e+00,1.082052e+00,1
1.997947e+00,7.080450e-01,6.980896e-01,7,1,1.245040e+00,1.230794e+00,1
1.995083e+00,2.764527e+00,2.755165e+00,7,8,7.793604e-01,7.722994e-01,1
1.995925e+00,1.347808e+00,1.339197e+00,7,3,7.546461e-01,7.505815e-01,1
2.279141e+00,1.678978e+00,1.670122e+00,8,4,6.050570e-01,6.034951e-01,1
1.995376e+00,1.375618e+00,1.366854e+00,7,3,5.174279e-01,5.152601e-01,1
1.998812e+00,1.346208e+00,1.336098e+00,7,3,3.771429e-01,3.766503e-01,1
3.136194e+00,1.075156e+00,1.065016e+00,11,2,5.248342e-01,5.237080e-01,1
1.994721e+00,7.521090e-01,7.419586e-01,7,1,1.063006e+00,1.060358e+00,1
1.995929e+00,1.371062e+00,1.363039e+00,7,3,8.804950e-01,8.786341e-01,1
1.996296e+00,1.349934e+00,1.339912e+00,7,3,9.587409e-01,9.566610e-01,1
1.429878e+00,3.785231e+00,3.777027e+00,5,11,1.083354e+00,1.076713e+00,1
1.999500e+00,3.358489e+00,3.347874e+00,7,10,4.688006e-01,4.679527e-01,1
1.431941e+00,1.372306e+00,1.362085e+00,5,3,3.521233e-01,3.504513e-01,1
2.299007e+00,1.695796e+00,1.685858e+00,8,4,2.626070e-01,2.586002e-01,1
2.846518e+00,1.664392e+00,1.653671e+00,10,4,1.744560e-01,1.598509e-01,1
2.848460e+00,7.481260e-01,7.379055e-01,10,1,2.209146e-01,2.208239e-01,1
1.712988e+00,1.076820e+00,1.067877e+00,6,2,3.765998e-01,3.758485e-01,1
1.991781e+00,7.441540e-01,7.350445e-01,7,1,2.780623e-01,2.718723e-01,1
1.145202e+00,3.228964e+00,3.220081e+00,4,9,8.766473e-01,8.580525e-01,1
2.565944e+00,2.518521e+00,2.508879e+00,9,7,1.011753e+00,9.960056e-01,1
1.146281e+00,1.384614e+00,1.374960e+00,4,3,5.934610e-01,5.909355e-01,1
1.994896e+00,1.058335e+00,1.048088e+00,7,2,5.786059e-01,5.774700e-01,1
1.995731e+00,7.464110e-01,7.371902e-01,7,1,5.147540e-01,5.142101e-01,1
1.997823e+00,7.560060e-01,7.469654e-01,7,1,4.163741e-01,4.157727e-01,1
1.143801e+00,1.374581e+00,1.363993e+00,4,3,3.911581e-01,3.871649e-01,1
1.997030e+00,1.689996e+00,1.679897e+00,7,4,4.911512e-01,4.874580e-01,1
1.998581e+00,1.644604e+00,1.633883e+00,7,4,4.141170e-01,4.139595e-01,1
1.994889e+00,1.063767e+00,1.054049e+00,7,2,3.353615e-01,3.348176e-01,1
1.995629e+00,2.300501e+00,2.290964e+00,7,6,6.488848e-01,6.422350e-01,1
1.714729e+00,2.848144e+00,2.839088e+00,6,8,8.290027e-01,8.265628e-01,1
1.993860e+00,1.379199e+00,1.368761e+00,7,3,1.118901e+00,1.115400e+00,1
2.850286e+00,2.677138e+00,2.666712e+00,10,6,1.460131e+00,1.457039e+00,1
1.432409e+00,4.345457e+00,4.336834e+00,5,12,1.354604e+00,1.351774e+00,1
1.996679e+00,2.495619e+00,2.485991e+00,7,7,1.424674e+00,1.408899e+00,1
2.283789e+00,3.002166e+00,2.993107e+00,8,9,1.034709e+00,1.032306e+00,1
1.711790e+00,1.904776e+00,1.895189e+00,6,5,7.886056e-01,7.764056e-01,1
1.994484e+00,7.286460e-01,7.190704e-01,7,1,9.001952e-01,8.965713e-01,1
1.994814e+00,1.042064e+00,1.033068e+00,7,2,1.293595e+00,1.281612e+00,1
1.997299e+00,2.513450e+00,2.504110e+00,7,7,1.582557e+00,1.567071e+00,1
2.012185e+00,2.159857e+00,2.149105e+00,7,6,1.163846e+00,1.158634e+00,1
2.845194e+00,2.505610e+00,2.495050e+00,10,7,1.048063e+00,1.040418e+00,1
1.995899e+00,3.064360e+00,3.056049e+00,7,9,1.042300e+00,1.030704e+00,1
1.996476e+00,2.152173e+00,2.141953e+00,7,6,5.812764e-01,5.778087e-01,1
1.997788e+00,3.128784e+00,3.119946e+00,7,9,8.543045e-01,8.527832e-01,1
1.994388e+00,1.368321e+00,1.358986e+00,7,3,7.809877e-01,7.774844e-01,1
1.995663e+00,1.336258e+00,1.327991e+00,7,3,5.638418e-01,5.624703e-01,1
3.134332e+00,1.993518e+00,1.984119e+00,11,5,5.163950e-01,5.054284e-01,1
1.427859e+00,3.481803e+00,3.473043e+00,5,10,1.000959e+00,9.936125e-01,1
1.997829e+00,3.090792e+00,3.081083e+00,7,9,2.031979e+00,2.022569e+00,1
1.994949e+00,2.136594e+00,2.127171e+00,7,6,1.895913e+00,1.864332e+00,1
1.995512e+00,1.281852e+00,1.273155e+00,7,3,1.882474e+00,1.858605e+00,1
1.995115e+00,1.862142e+00,1.853943e+00,7,5,2.356863e+00,2.331644e+00,1
1.995815e+00,1.566119e+00,1.556158e+00,7,4,3.741562e+00,3.706274e+00,1
1.996819e+00,3.857940e+00,3.848076e+00,7,12,2.014829e+00,2.008797e+00,1
1.995283e+00,1.626668e+00,1.616955e+00,7,4,2.244138e+00,2.236520e+00,1
1.145400e+00,3.673833e+00,3.664970e+00,4,11,1.767110e+00,1.753680e+00,1
1.998309e+00,1.909003e+00,1.899004e+00,7,5,1.678531e+00,1.669803e+00,1
1.995259e+00,3.057124e+00,3.047228e+00,7,9,7.518482e-01,7.444441e-01,1
1.997504e+00,2.242833e+00,2.233982e+00,7,6,1.360836e+00,1.347983e+00,1
1.996723e+00,1.608843e+00,1.600027e+00,7,4,8.620555e-01,8.593253e-01,1
1.994702e+00,1.050198e+00,1.039982e+00,7,2,9.383952e-01,9.289477e-01,1
1.147778e+00,3.166007e+00,3.157139e+00,4,9,4.976101e-01,4.936944e-01,1
2.008229e+00,1.066961e+00,1.058102e+00,7,2,1.184631e+00,1.179846e+00,1
1.997701e+00,4.733407e+00,4.723072e+00,7,11,2.439610e+00,2.434264e+00,1
2.000092e+00,4.913511e+00,4.903078e+00,7,13,1.420216e+00,1.407420e+00,1
1.997106e+00,1.604060e+00,1.594067e+00,7,4,2.136994e+00,2.116868e+00,1
1.997094e+00,1.582216e+00,1.574039e+00,7,4,1.899686e+00,1.885603e+00,1
1.995677e+00,1.866721e+00,1.857042e+00,7,5,2.516877e+00,2.500903e+00,1
2.283073e+00,4.221362e+00,4.211903e+00,8,13,1.267983e+00,1.266649e+00,1
1.715075e+00,1.954723e+00,1.945972e+00,6,5,9.660164e-01,9.632673e-01,1
1.994316e+00,1.640600e+00,1.629829e+00,7,4,5.908712e-01,5.900263e-01,1
1.995924e+00,2.904736e+00,2.895117e+00,7,8,5.135851e-01,5.045260e-01,1
1.995710e+00,1.020801e+00,1.010895e+00,7,2,5.126943e-01,5.059713e-01,1
1.994972e+00,1.317946e+00,1.307964e+00,7,3,9.140876e-01,9.031585e-01,1
1.996337e+00,3.358365e+00,3.350019e+00,7,10,4.334323e-01,4.330220e-01,1
2.847317e+00,1.052953e+00,1.041889e+00,10,2,4.909026e-01,4.698273e-01,1
1.997239e+00,1.394098e+00,1.384974e+00,7,3,5.836605e-01,5.776690e-01,1
2.001174e+00,1.351788e+00,1.343012e+00,7,3,6.924079e-01,6.879409e-01,1
1.713207e+00,7.646690e-01,7.538795e-01,6,1,4.539369e-01,4.532733e-01,1
1.713644e+00,1.382916e+00,1.374006e+00,6,3,4.732375e-01,4.705398e-01,1
1.995155e+00,1.371830e+00,1.362085e+00,7,3,5.073496e-01,5.049479e-01,1
1.996942e+00,7.446200e-01,7.359982e-01,7,1,7.233620e-01,7.178666e-01,1
1.996375e+00,1.643244e+00,1.633883e+00,7,4,1.714787e+00,1.701964e+00,1
1.997712e+00,1.314462e+00,1.305103e+00,7,3,2.474116e+00,2.453092e+00,1
1.999618e+00,4.256303e+00,4.246950e+00,7,13,1.593465e+00,1.588084e+00,1
1.993235e+00,1.628782e+00,1.620054e+00,7,4,1.998218e+00,1.990544e+00,1
2.014300e+00,2.239251e+00,2.230167e+00,7,6,1.326635e+00,1.323358e+00,1
3.151274e+00,1.652122e+00,1.640797e+00,11,4,7.846861e-01,7.818522e-01,1
1.998336e+00,3.658781e+00,3.648043e+00,7,10,1.019539e+00,1.012117e+00,1
1.996819e+00,3.478728e+00,3.470182e+00,7,10,4.423762e-01,4.384848e-01,1
1.146921e+00,2.900156e+00,2.890110e+00,4,8,6.183745e-01,6.138864e-01,1
3.131163e+00,1.341972e+00,1.332045e+00,11,3,3.882517e-01,3.856084e-01,1
2.842570e+00,1.073956e+00,1.060009e+00,10,2,4.056283e-01,3.954272e-01,1
1.992286e+00,7.610920e-01,7.510185e-01,7,1,4.210102e-01,4.191695e-01,1
1.995495e+00,2.612434e+00,2.602816e+00,7,7,6.255296e-01,6.180122e-01,1
2.286207e+00,3.173856e+00,3.164053e+00,8,9,3.136618e-01,3.116709e-01,1
1.427271e+00,4.136405e+00,4.127979e+00,5,12,7.519571e-01,7.458025e-01,1
1.997085e+00,1.608128e+00,1.598120e+00,7,4,1.932041e+00,1.911398e+00,1
1.997388e+00,3.026160e+00,3.016949e+00,7,9,1.148255e+00,1.144538e+00,1
1.426468e+00,2.896781e+00,2.886057e+00,5,8,8.435875e-01,8.370054e-01,1
1.712687e+00,1.949428e+00,1.938820e+00,6,5,6.065409e-01,6.064092e-01,1
1.706953e+00,4.399190e-01,4.310608e-01,6,0,5.875574e-01,5.723715e-01,1
1.994288e+00,7.626300e-01,7.538795e-01,7,1,6.216692e-01,6.204136e-01,1
1.995166e+00,3.212375e+00,3.202677e+00,7,9,1.212207e+00,1.195159e+00,1
2.001069e+00,2.494024e+00,2.483845e+00,7,7,1.033532e+00,1.032242e+00,1
1.996439e+00,1.362511e+00,1.351833e+00,7,3,8.973122e-01,8.960727e-01,1
1.995416e+00,1.676713e+00,1.667023e+00,7,4,9.109879e-01,9.074414e-01,1
1.996007e+00,2.263824e+00,2.254963e+00,7,6,1.089062e+00,1.077007e+00,1
1.995286e+00,1.315197e+00,1.306057e+00,7,3,1.611590e+00,1.597981e+00,1
1.997361e+00,2.427408e+00,2.417803e+00,7,7,3.017532e+00,2.990596e+00,1
2.000340e+00,3.469926e+00,3.459215e+00,7,11,3.860548e+00,3.823115e+00,1
1.998427e+00,3.672766e+00,3.661871e+00,7,12,3.314864e+00,3.293250e+00,1
1.999083e+00,3.932028e+00,3.922939e+00,7,10,3.317742e+00,3.298059e+00,1
2.002471e+00,5.511371e+00,5.501032e+00,7,14,2.544299e+00,2.534724e+00,1
1.998304e+00,1.914793e+00,1.905203e+00,7,5,2.362443e+00,2.351704e+00,1
1.997329e+00,1.583033e+00,1.574039e+00,7,4,2.240890e+00,2.231286e+00,1
1.147159e+00,5.003870e+00,4.993677e+00,4,16,1.710096e+00,1.686105e+00,1
1.998681e+00,3.171555e+00,3.162146e+00,7,10,1.478308e+00,1.469497e+00,1
1.996931e+00,2.467927e+00,2.460003e+00,7,7,1.111747e+00,1.108562e+00,1
2.565585e+00,2.869029e+00,2.860069e+00,9,8,1.025745e+00,1.023330e+00,1
1.995961e+00,1.515819e+00,1.505852e+00,7,3,1.329207e+00,1.321029e+00,1
1.997436e+00,2.779433e+00,2.769947e+00,7,6,1.757064e+00,1.742597e+00,1
2.288385e+00,4.598957e+00,4.588842e+00,8,11,3.520707e+00,3.527438e+00,1
2.282845e+00,5.003388e+00,4.994869e+00,8,13,4.060452e+00,4.055120e+00,1
2.286999e+00,4.230259e+00,4.220009e+00,8,11,4.411523e+00,4.403369e+00,1
1.997017e+00,3.509359e+00,3.500938e+00,7,11,3.966125e+00,3.933233e+00,1
1.997024e+00,1.534245e+00,1.524210e+00,7,4,3.594543e+00,3.572327e+00,1
1.997413e+00,2.902575e+00,2.893209e+00,7,9,3.956460e+00,3.928181e+00,1
1.431608e+00,4.723547e+00,4.714251e+00,5,16,3.620862e+00,3.603946e+00,1
1.998331e+00,3.621249e+00,3.611088e+00,7,12,2.959604e+00,2.939743e+00,1
2.000166e+00,2.555501e+00,2.547026e+00,7,8,2.045507e+00,2.033702e+00,1
3.422065e+00,4.360326e+00,4.350901e+00,12,14,1.450814e+00,1.436656e+00,1
1.433346e+00,2.185346e+00,2.176046e+00,5,6,1.114681e+00,1.104090e+00,1
1.997681e+00,1.640326e+00,1.629829e+00,7,4,1.177854e+00,1.168420e+00,1
2.003874e+00,2.521182e+00,2.509832e+00,7,7,1.416364e+00,1.402066e+00,1
2.298925e+00,3.975128e+00,3.963232e+00,8,12,7.592665e-01,7.583325e-01,1
2.849654e+00,1.085884e+00,1.073122e+00,10,2,7.063792e-01,7.048551e-01,1
2.849971e+00,1.686171e+00,1.677990e+00,10,4,8.059607e-01,8.039631e-01,1
1.993694e+00,1.654741e+00,1.645088e+00,7,4,4.429088e-01,4.387990e-01,1
1.142873e+00,1.390294e+00,1.380920e+00,4,3,4.243400e-01,4.184341e-01,1
1.997357e+00,1.356357e+00,1.345873e+00,7,3,3.727756e-01,3.685652e-01,1
1.427814e+00,7.638960e-01,7.538795e-01,5,1,4.138454e-01,4.129565e-01,1
1.144754e+00,2.927348e+00,2.919197e+00,4,8,5.813163e-01,5.696762e-01,1
2.281522e+00,1.925661e+00,1.916170e+00,8,5,6.033715e-01,6.015702e-01,1
1.994630e+00,1.677003e+00,1.667976e+00,7,4,6.491732e-01,6.475913e-01,1
1.993958e+00,1.054815e+00,1.045942e+00,7,2,6.102361e-01,6.076718e-01,1
1.143607e+00,1.075181e+00,1.067162e+00,4,2,5.056878e-01,5.031822e-01,1
1.995700e+00,1.676402e+00,1.666784e+00,7,4,4.638407e-01,4.622419e-01,1
1.994171e+00,1.053318e+00,1.043081e+00,7,2,1.480012e+00,1.471192e+00,1
2.283462e+00,5.099423e+00,5.090952e+00,8,16,3.132204e+00,3.125177e+00,1
1.999133e+00,2.472865e+00,2.464056e+00,7,6,3.831036e+00,3.788437e+00,1
2.011929e+00,3.172516e+00,3.162146e+00,7,9,3.029725e+00,3.016459e+00,1
2.000209e+00,2.157346e+00,2.146959e+00,7,5,2.851655e+00,2.825884e+00,1
1.999150e+00,3.756003e+00,3.746033e+00,7,9,2.585738e+00,2.568310e+00,1
2.000690e+00,4.593315e+00,4.584074e+00,7,11,2.200829e+00,2.197533e+00,1
1.147072e+00,6.314128e+00,6.304979e+00,4,16,1.347322e+00,1.320400e+00,1
1.998085e+00,1.834969e+00,1.826048e+00,7,5,1.171158e+00,1.145379e+00,1
2.281385e+00,6.958130e-01,6.861687e-01,8,1,2.637564e+00,2.633400e+00,1
2.282415e+00,2.792288e+00,2.783060e+00,8,7,3.830365e+00,3.834564e+00,1
2.284635e+00,5.578416e+00,5.568027e+00,8,15,4.553758e+00,4.568355e+00,1
1.999735e+00,7.028828e+00,7.019043e+00,7,20,3.712721e+00,3.711336e+00,1
1.997769e+00,5.192748e+00,5.182981e+00,7,14,2.761053e+00,2.756208e+00,1
2.004051e+00,5.247883e+00,5.237818e+00,7,15,1.922061e+00,1.917295e+00,1
1.145872e+00,3.854353e+00,3.844261e+00,4,12,1.506939e+00,1.476571e+00,1
1.997526e+00,1.952668e+00,1.944065e+00,7,5,2.316548e+00,2.288976e+00,1
1.997500e+00,2.322920e+00,2.312899e+00,7,6,2.330361e+00,2.291896e+00,1
1.996617e+00,2.224999e+00,2.214909e+00,7,6,1.734554e+00,1.718187e+00,1
1.996551e+00,1.284004e+00,1.276016e+00,7,3,1.683883e+00,1.680605e+00,1
1.996104e+00,1.013020e+00,1.003027e+00,7,2,1.795514e+00,1.788023e+00,1
1.994736e+00,1.034105e+00,1.024008e+00,7,2,1.779648e+00,1.771704e+00,1
2.007095e+00,1.936549e+00,1.926899e+00,7,5,2.232066e+00,2.225744e+00,1
1.436029e+00,5.187925e+00,5.177975e+00,5,13,1.936291e+00,1.945341e+00,1
2.000166e+00,3.176753e+00,3.166676e+00,7,7,2.094984e+00,2.096879e+00,1
2.012024e+00,1.697413e+00,1.686811e+00,7,3,1.972831e+00,1.970721e+00,1
1.995396e+00,2.885987e+00,2.876997e+00,7,6,1.604923e+00,1.599878e+00,1
2.002252e+00,2.012999e+00,2.002954e+00,7,5,1.303459e+00,1.296571e+00,1
1.997258e+00,2.718083e+00,2.708912e+00,7,7,1.398131e+00,1.386246e+00,1
1.997323e+00,1.913272e+00,1.903057e+00,7,4,1.205012e+00,1.187502e+00,1
1.996570e+00,2.302140e+00,2.293110e+00,7,6,6.363582e-01,6.290214e-01,1
1.994576e+00,7.316120e-01,7.219315e-01,7,1,5.695805e-01,5.651931e-01,1
2.000654e+00,2.252862e+00,2.243996e+00,7,6,4.579093e-01,4.569947e-01,1
1.426305e+00,1.680499e+00,1.670599e+00,5,4,5.619601e-01,5.594265e-01,1
1.994485e+00,1.063328e+00,1.052856e+00,7,2,5.800164e-01,5.765661e-01,1
1.994405e+00,1.652696e+00,1.644135e+00,7,4,4.954817e-01,4.898394e-01,1
1.995206e+00,1.042707e+00,1.032114e+00,7,2,3.872732e-01,3.866173e-01,1
1.714565e+00,1.050798e+00,1.041889e+00,6,2,5.150397e-01,5.147509e-01,1
1.426959e+00,4.519340e-01,4.420280e-01,5,0,1.615657e-01,1.612344e-01,1
1.427904e+00,7.634810e-01,7.548332e-01,5,1,1.750244e-01,1.741793e-01,1
1.715316e+00,7.644000e-01,7.548332e-01,6,1,1.742587e-01,1.727351e-01,1
3.426249e+00,4.430910e-01,4.329681e-01,12,0,1.814311e-01,1.671643e-01,1
2.286285e+00,4.547010e-01,4.441738e-01,8,0,2.351333e-01,2.349095e-01,1
1.144977e+00,1.084782e+00,1.075983e+00,4,2,3.244895e-01,3.233181e-01,1
2.277261e+00,1.689173e+00,1.679182e+00,8,4,2.241251e-01,2.220946e-01,1
1.432442e+00,2.308048e+00,2.299070e+00,5,6,3.470006e-01,3.452868e-01,1
1.992200e+00,7.411040e-01,7.331371e-01,7,1,5.467328e-01,5.432605e-01,1
2.277668e+00,1.942790e+00,1.933098e+00,8,5,3.861298e-01,3.841134e-01,1
1.426171e+00,1.078068e+00,1.068115e+00,5,2,4.120209e-01,4.116309e-01,1
1.426109e+00,1.062569e+00,1.053095e+00,5,2,4.130117e-01,4.129406e-01,1
1.143242e+00,1.075587e+00,1.065016e+00,4,2,5.225159e-01,5.214796e-01,1
2.279828e+00,1.388446e+00,1.379251e+00,8,3,4.986402e-01,4.968199e-01,1
1.994789e+00,7.609400e-01,7.510185e-01,7,1,2.721019e-01,2.711629e-01,1
2.848666e+00,1.052233e+00,1.044035e+00,10,2,1.713195e-01,1.654805e-01,1
1.144645e+00,4.444910e-01,4.351139e-01,4,0,2.851309e-01,2.850020e-01,1
1.428335e+00,4.420610e-01,4.341602e-01,5,0,2.194686e-01,2.179986e-01,1
3.133068e+00,4.474980e-01,4.391670e-01,11,0,1.996549e-01,1.963827e-01,1
2.850679e+00,1.084156e+00,1.075029e+00,10,2,5.440597e-01,5.294844e-01,1
3.132943e+00,1.055423e+00,1.047134e+00,11,2,3.534947e-01,3.483450e-01,1
2.849037e+00,4.466910e-01,4.370213e-01,10,0,6.262368e-01,6.060533e-01,1
1.146267e+00,1.395812e+00,1.386166e+00,4,3,1.194500e+00,1.190491e+00,1
1.995667e+00,2.593392e+00,2.583981e+00,7,7,9.426376e-01,9.307091e-01,1
1.994488e+00,1.635589e+00,1.626015e+00,7,4,7.344554e-01,7.334575e-01,1
1.995844e+00,1.984338e+00,1.974821e+00,7,5,1.219568e+00,1.214463e+00,1
1.994723e+00,1.492393e+00,1.483917e+00,7,3,1.614090e+00,1.608867e+00,1
1.432761e+00,2.020986e+00,2.010822e+00,5,5,7.237649e-01,7.231321e-01,1
2.281250e+00,7.522690e-01,7.431507e-01,8,1,5.124551e-01,5.101034e-01,1
1.145145e+00,1.078387e+00,1.069069e+00,4,2,5.763766e-01,5.741153e-01,1
1.993531e+00,1.058834e+00,1.049995e+00,7,2,2.153992e-01,2.145346e-01,1
2.278632e+00,1.374972e+00,1.364946e+00,8,3,1.401699e-01,1.388451e-01,1
1.993526e+00,7.586870e-01,7.488728e-01,7,1,3.038262e-01,3.031652e-01,1
2.281306e+00,7.446490e-01,7.350445e-01,8,1,3.462316e-01,3.384969e-01,1
1.144183e+00,1.696947e+00,1.688004e+00,4,4,3.930053e-01,3.900265e-01,1
1.994733e+00,1.056009e+00,1.047134e+00,7,2,8.614577e-01,8.535084e-01,1
1.996402e+00,1.338380e+00,1.327991e+00,7,3,5.929377e-01,5.922346e-01,1
2.565274e+00,1.056096e+00,1.045942e+00,9,2,5.965588e-01,5.950550e-01,1
2.847016e+00,4.417570e-01,4.317760e-01,10,0,5.705757e-01,5.540600e-01,1
3.134356e+00,7.632330e-01,7.541180e-01,11,1,4.702828e-01,4.693276e-01,1
1.993259e+00,1.073913e+00,1.065016e+00,7,2,5.266807e-01,5.250380e-01,1
1.996958e+00,1.973666e+00,1.964092e+00,7,5,6.905838e-01,6.895037e-01,1
2.872005e+00,1.997370e+00,1.986742e+00,10,5,4.927599e-01,4.855103e-01,1
1.433234e+00,2.916803e+00,2.907991e+00,5,8,5.318632e-01,5.302621e-01,1
1.996021e+00,7.394840e-01,7.290840e-01,7,1,6.076506e-01,6.056324e-01,1
1.995388e+00,4.369430e-01,4.279613e-01,7,0,6.795299e-01,6.773274e-01,1
1.994606e+00,1.362295e+00,1.351833e+00,7,3,8.859525e-01,8.817084e-01,1
2.279062e+00,1.337147e+00,1.327038e+00,8,3,4.874052e-01,4.850813e-01,1
1.148854e+00,2.937633e+00,2.928019e+00,4,8,3.967814e-01,3.840880e-01,1
1.996369e+00,1.338338e+00,1.328707e+00,7,3,4.349561e-01,4.313954e-01,1
1.994425e+00,1.040951e+00,1.031876e+00,7,2,4.611975e-01,4.572241e-01,1
2.849143e+00,1.652990e+00,1.643896e+00,10,4,3.883499e-01,3.807299e-01,1
1.710644e+00,2.889080e+00,2.878904e+00,6,8,1.303653e+00,1.287812e+00,1
1.997465e+00,2.517384e+00,2.507925e+00,7,7,8.708576e-01,8.641543e-01,1
2.850133e+00,1.915562e+00,1.905918e+00,10,5,8.342097e-01,8.338200e-01,1
1.999115e+00,1.062954e+00,1.052856e+00,7,2,7.174559e-01,7.153436e-01,1
1.996739e+00,2.572796e+00,2.563000e+00,7,7,7.132257e-01,7.110460e-01,1
1.995655e+00,1.027754e+00,1.019001e+00,7,2,5.291629e-01,5.261295e-01,1
1.994772e+00,1.344897e+00,1.335144e+00,7,3,7.517641e-01,7.500353e-01,1
1.996044e+00,7.447810e-01,7.359982e-01,7,1,8.252664e-01,8.243440e-01,1
2.843667e+00,1.683704e+00,1.674891e+00,10,4,7.082733e-01,6.949156e-01,1
1.716427e+00,1.996837e+00,1.986742e+00,6,5,6.629144e-01,6.606296e-01,1
1.999119e+00,1.680605e+00,1.670122e+00,7,4,5.350028e-01,5.336362e-01,1
1.434150e+00,2.278209e+00,2.269030e+00,5,6,4.636152e-01,4.584740e-01,1
1.992804e+00,1.943710e+00,1.935005e+00,7,5,4.110852e-01,4.074715e-01,1
1.431954e+00,2.588777e+00,2.579927e+00,5,7,3.322894e-01,3.309660e-01,1
2.848265e+00,1.044311e+00,1.034975e+00,10,2,2.885363e-01,2.881128e-01,1
1.993436e+00,1.069245e+00,1.059055e+00,7,2,3.693035e-01,3.669816e-01,1
2.856142e+00,1.662633e+00,1.653194e+00,10,4,3.061569e-01,2.997914e-01,1
2.855302e+00,1.072901e+00,1.062870e+00,10,2,4.145715e-01,4.009927e-01,1
2.278723e+00,1.697352e+00,1.688004e+00,8,4,3.657447e-01,3.623221e-01,1
1.427999e+00,1.357507e+00,1.342773e+00,5,3,4.455842e-01,4.455781e-01,1
8.612230e-01,4.433360e-01,4.329681e-01,3,0,5.752898e-01,5.752060e-01,1
1.144602e+00,4.393200e-01,4.310608e-01,4,0,4.547077e-01,4.546408e-01,1
1.146710e+00,3.808218e+00,3.798962e+00,4,11,1.041670e+00,1.034028e+00,1
2.001933e+00,2.166671e+00,2.157927e+00,7,6,2.435478e+00,2.410889e+00,1
1.997570e+00,2.386850e+00,2.377987e+00,7,7,1.826284e+00,1.810206e+00,1
1.997263e+00,3.646735e+00,3.636837e+00,7,11,1.302381e+00,1.297675e+00,1
1.427289e+00,1.950784e+00,1.940250e+00,5,5,1.070660e+00,1.061331e+00,1
1.996997e+00,1.344973e+00,1.336098e+00,7,3,1.126803e+00,1.124215e+00,1
2.002264e+00,1.650621e+00,1.641035e+00,7,4,8.457427e-01,8.436199e-01,1
2.568076e+00,1.953754e+00,1.945019e+00,9,5,7.360404e-01,7.329658e-01,1
1.996711e+00,1.665213e+00,1.655102e+00,7,4,6.481587e-01,6.455404e-01,1
1.994624e+00,1.348877e+00,1.338720e+00,7,3,6.376689e-01,6.361743e-01,1
1.994097e+00,1.364073e+00,1.353979e+00,7,3,5.218580e-01,5.210979e-01,1
1.144743e+00,4.104807e+00,4.094839e+00,4,12,6.982642e-01,6.786975e-01,1
1.994574e+00,1.580998e+00,1.571178e+00,7,4,1.083437e+00,1.066980e+00,1
1.993375e+00,1.821388e+00,1.811981e+00,7,5,7.883263e-01,7.776429e-01,1
1.993646e+00,2.176068e+00,2.166033e+00,7,6,3.668718e-01,3.626504e-01,1
1.994305e+00,1.939568e+00,1.929998e+00,7,5,1.931258e-01,1.921121e-01,1
1.143019e+00,4.382660e-01,4.289150e-01,4,0,2.436227e-01,2.430845e-01,1
1.143554e+00,7.623170e-01,7.541180e-01,4,1,3.320834e-01,3.310727e-01,1
3.132059e+00,7.451960e-01,7.350445e-01,11,1,4.483130e-01,4.457724e-01,1
3.129568e+00,4.462670e-01,4.370213e-01,11,0,2.611366e-01,2.535054e-01,1
1.143676e+00,7.627140e-01,7.541180e-01,4,1,3.090710e-01,3.089603e-01,1
1.992526e+00,4.365680e-01,4.279613e-01,7,0,4.069843e-01,4.067467e-01,1
2.562635e+00,7.465500e-01,7.381439e-01,9,1,4.454150e-01,4.444334e-01,1
1.145707e+00,1.399756e+00,1.389027e+00,4,3,7.523332e-01,7.511317e-01,1
2.851237e+00,1.354975e+00,1.346111e+00,10,3,4.421745e-01,4.403311e-01,1
2.283940e+00,4.420740e-01,4.329681e-01,8,0,4.068398e-01,4.055179e-01,1
1.147510e+00,3.819078e+00,3.808975e+00,4,11,1.249207e+00,1.243405e+00,1
1.994534e+00,1.888206e+00,1.878023e+00,7,5,1.501340e+00,1.492270e+00,1
1.995833e+00,2.825335e+00,2.815962e+00,7,8,6.283141e-01,6.272599e-01,1
1.147997e+00,1.081700e+00,1.071692e+00,4,2,6.981038e-01,6.945242e-01,1
1.994910e+00,7.419620e-01,7.319450e-01,7,1,6.247920e-01,6.239675e-01,1
1.996263e+00,1.387245e+00,1.376867e+00,7,3,5.974438e-01,5.952814e-01,1
1.424134e+00,1.643827e+00,1.634121e+00,5,4,2.952885e-01,2.951981e-01,1
8.589710e-01,4.384430e-01,4.301071e-01,3,0,2.199396e-01,2.192452e-01,1
1.714759e+00,1.071862e+00,1.062632e+00,6,2,3.928366e-01,3.916865e-01,1
1.993067e+00,1.057230e+00,1.049042e+00,7,2,4.673665e-01,4.657779e-01,1
1.993462e+00,4.428850e-01,4.332066e-01,7,0,7.266354e-01,7.260092e-01,1
1.998667e+00,1.048630e+00,1.039028e+00,7,2,4.071061e-01,4.050986e-01,1
1.145796e+00,1.700955e+00,1.691103e+00,4,4,3.341641e-01,3.313421e-01,1
1.994125e+00,1.661704e+00,1.652241e+00,7,4,4.758118e-01,4.678342e-01,1
1.993836e+00,1.024871e+00,1.016140e+00,7,2,7.215405e-01,7.161068e-01,1
1.995536e+00,1.311725e+00,1.302958e+00,7,3,8.125123e-01,8.092253e-01,1
1.998321e+00,1.654988e+00,1.646042e+00,7,4,9.310686e-01,9.270640e-01,1
1.997320e+00,1.970213e+00,1.960039e+00,7,5,8.264098e-01,8.249199e-01,1
1.997110e+00,1.983016e+00,1.972675e+00,7,5,1.223747e+00,1.218481e+00,1
2.283837e+00,2.252832e+00,2.243042e+00,8,6,5.570435e-01,5.559350e-01,1
1.996423e+00,1.390028e+00,1.380205e+00,7,3,5.410219e-01,5.381495e-01,1
1.997595e+00,3.783073e+00,3.773928e+00,7,11,9.833572e-01,9.707205e-01,1
1.996479e+00,2.442653e+00,2.433062e+00,7,7,4.862385e-01,4.828702e-01,1
1.995719e+00,1.645183e+00,1.635790e+00,7,4,5.500378e-01,5.474870e-01,1
2.850075e+00,1.655284e+00,1.646996e+00,10,4,4.310525e-01,4.308723e-01,1
1.146960e+00,4.532360e-01,4.439354e-01,4,0,1.918509e-01,1.918470e-01,1
8.619500e-01,7.619690e-01,7.531643e-01,3,1,3.060397e-01,3.050277e-01,1
1.994235e+00,7.488530e-01,7.388592e-01,7,1,3.604810e-01,3.600912e-01,1
2.850679e+00,1.076090e+00,1.066208e+00,10,2,2.750019e-01,2.650824e-01,1
1.997976e+00,2.285563e+00,2.275944e+00,7,6,8.382970e-01,8.274278e-01,1
1.994540e+00,1.317269e+00,1.306772e+00,7,3,4.542879e-01,4.510181e-01,1
2.283603e+00,1.944319e+00,1.935005e+00,8,5,2.729131e-01,2.717541e-01,1
3.142973e+00,4.420950e-01,4.329681e-01,11,0,2.858408e-01,2.808405e-01,1
1.714073e+00,7.626910e-01,7.531643e-01,6,1,4.225512e-01,4.188058e-01,1
2.277895e+00,7.536420e-01,7.429123e-01,8,1,6.917780e-01,6.891632e-01,1
1.144722e+00,1.701487e+00,1.692057e+00,4,4,9.790842e-01,9.765945e-01,1
1.145963e+00,4.726786e+00,4.718065e+00,4,14,1.130628e+00,1.119314e+00,1
1.995482e+00,1.602024e+00,1.592159e+00,7,4,1.573669e+00,1.555365e+00,1
1.995634e+00,3.016736e+00,3.007174e+00,7,9,7.083538e-01,7.048909e-01,1
2.281118e+00,1.942119e+00,1.932859e+00,8,5,5.709369e-01,5.675767e-01,1
1.143578e+00,1.075446e+00,1.067162e+00,4,2,3.052942e-01,3.030049e-01,1
1.992440e+00,4.402890e-01,4.310608e-01,7,0,3.419212e-01,3.407205e-01,1
1.995222e+00,3.472819e+00,3.464937e+00,7,10,5.609727e-01,5.527437e-01,1
1.995596e+00,2.466583e+00,2.456903e+00,7,7,7.107608e-01,7.077717e-01,1
1.995928e+00,1.951063e+00,1.941919e+00,7,5,8.220156e-01,8.119167e-01,1
1.992378e+00,1.602297e+00,1.592875e+00,7,4,7.196050e-01,7.147389e-01,1
1.995085e+00,1.323753e+00,1.314163e+00,7,3,7.968958e-01,7.947715e-01,1
1.997047e+00,1.972286e+00,1.961946e+00,7,5,1.116301e+00,1.109826e+00,1
1.995171e+00,2.226236e+00,2.217054e+00,7,6,1.298393e+00,1.293275e+00,1
1.997763e+00,2.806419e+00,2.796888e+00,7,8,9.627634e-01,9.604000e-01,1
1.996426e+00,1.668078e+00,1.658916e+00,7,4,8.050635e-01,8.012177e-01,1
2.298971e+00,3.173935e+00,3.165007e+00,8,9,1.020968e+00,1.000729e+00,1
1.146458e+00,2.613993e+00,2.604008e+00,4,7,5.575157e-01,5.530851e-01,1
1.995903e+00,2.273573e+00,2.263069e+00,7,6,4.289272e-01,4.261368e-01,1
1.999135e+00,2.901118e+00,2.890825e+00,7,8,6.798057e-01,6.748990e-01,1
1.433389e+00,2.577253e+00,2.568007e+00,5,7,8.709997e-01,8.673934e-01,1
1.998242e+00,1.727263e+00,1.717091e+00,7,4,1.169569e+00,1.163708e+00,1
2.854334e+00,2.866651e+00,2.856970e+00,10,8,4.790661e-01,4.688634e-01,1
1.998894e+00,2.013566e+00,2.004147e+00,7,5,4.759648e-01,4.709718e-01,1
1.997749e+00,1.961195e+00,1.950979e+00,7,5,6.191696e-01,6.094252e-01,1
1.995506e+00,7.250610e-01,7.138252e-01,7,1,7.425947e-01,7.356458e-01,1
2.844606e+00,3.439826e+00,3.430128e+00,10,10,6.301373e-01,6.283312e-01,1
1.995849e+00,7.554990e-01,7.469654e-01,7,1,6.613832e-01,6.599965e-01,1
1.996487e+00,1.362431e+00,1.353025e+00,7,3,4.963217e-01,4.958713e-01,1
2.841269e+00,7.429540e-01,7.340908e-01,10,1,3.644320e-01,3.644043e-01,1

