5.107730e-01,8.447441e+01,8.433890e+01,2,1000,0.000000e+00,9.215718e-19,0
7.287210e-01,2.859012e+00,2.850056e+00,3,38,2.400979e-01,2.400984e-01,1
7.234300e-01,1.040860e-01,9.608269e-02,3,0,4.597438e-01,4.597450e-01,1
7.289590e-01,1.032340e-01,9.584427e-02,3,0,1.030507e+00,1.030509e+00,1
7.166180e-01,1.102840e-01,1.029968e-01,3,0,1.400278e+00,1.400279e+00,1
7.214780e-01,3.023510e-01,2.958775e-01,3,3,4.551517e+00,4.567492e+00,1
9.541410e-01,1.735860e-01,1.659393e-01,4,1,5.771602e+00,5.976012e+00,1
7.173900e-01,1.164950e-01,1.091957e-01,3,0,7.852251e+00,8.345311e+00,1
7.199960e-01,3.089770e-01,3.018379e-01,3,3,4.573502e+00,4.808800e+00,1
7.225540e-01,1.093810e-01,1.010895e-01,3,0,4.752998e+00,5.046690e+00,1
7.228860e-01,2.505390e-01,2.417564e-01,3,2,5.060154e+00,5.255166e+00,1
7.236800e-01,2.449400e-01,2.379417e-01,3,2,5.443247e+00,5.549969e+00,1
7.238090e-01,2.380790e-01,2.300739e-01,3,2,6.901960e+00,7.189645e+00,1
7.229130e-01,1.811690e-01,1.730919e-01,3,1,8.423918e+00,9.106838e+00,1
7.231290e-01,2.445240e-01,2.360344e-01,3,2,8.328930e+00,9.030799e+00,1
7.213100e-01,5.812510e-01,5.741119e-01,3,7,9.681417e+00,1.110816e+01,1
7.256920e-01,6.145250e-01,6.070137e-01,3,8,9.154616e+00,1.115464e+01,1
7.268730e-01,3.856200e-01,3.767014e-01,3,4,8.370537e+00,1.045196e+01,1
7.247460e-01,2.556210e-01,2.489090e-01,3,2,8.326246e+00,1.043430e+01,1
1.202090e+00,4.941750e-01,4.868507e-01,5,6,8.184828e+00,9.761921e+00,1
9.657050e-01,6.249000e-01,6.179810e-01,4,8,8.363705e+00,9.652370e+00,1
7.245820e-01,2.886310e-01,2.810955e-01,3,3,7.742896e+00,9.239198e+00,1
1.435948e+00,4.407430e-01,4.339218e-01,6,5,7.463043e+00,9.923937e+00,1
1.439528e+00,5.410960e-01,5.309582e-01,6,4,8.336136e+00,1.035334e+01,0
1.202971e+00,3.652810e-01,3.557205e-01,5,1,9.728935e+00,1.128299e+01,0
7.238610e-01,3.670930e-01,3.600121e-01,3,4,1.078060e+01,1.159704e+01,1
9.598490e-01,1.106770e-01,1.039505e-01,4,0,9.729702e+00,1.063651e+01,1
7.260060e-01,3.675250e-01,3.600121e-01,3,4,1.015945e+01,1.041164e+01,1
7.236700e-01,1.759970e-01,1.690388e-01,3,1,9.437787e+00,9.518176e+00,1
7.254200e-01,3.633060e-01,3.559589e-01,3,4,8.253796e+00,8.400617e+00,1
7.236440e-01,2.394350e-01,2.331734e-01,3,2,7.112332e+00,7.289286e+00,1
7.232750e-01,1.806430e-01,1.740456e-01,3,1,5.808942e+00,5.815218e+00,1
7.234300e-01,2.280020e-01,2.210140e-01,3,2,6.402637e+00,6.403339e+00,1
7.234570e-01,1.706700e-01,1.640320e-01,3,1,7.612693e+00,8.459868e+00,1
7.236010e-01,1.699480e-01,1.630783e-01,3,1,5.460296e+00,5.921026e+00,1
7.173740e-01,1.810320e-01,1.740456e-01,3,1,6.199236e+00,6.264573e+00,1
7.170710e-01,1.603350e-01,1.530647e-01,3,1,5.586116e+00,5.586117e+00,1
7.171410e-01,1.759320e-01,1.690388e-01,3,1,5.612212e+00,5.619681e+00,1
7.172840e-01,2.981120e-01,2.911091e-01,3,3,5.772218e+00,5.774003e+00,1
7.171200e-01,2.910910e-01,2.841949e-01,3,3,5.920539e+00,5.920477e+00,1
7.272060e-01,4.889290e-01,4.830360e-01,3,6,9.782269e+00,9.886921e+00,1
1.444872e+00,8.997950e-01,8.919239e-01,6,13,1.192308e+01,1.245965e+01,1
1.438932e+00,6.380240e-01,6.310940e-01,6,9,8.514962e+00,9.103684e+00,1
1.439174e+00,3.008070e-01,2.939701e-01,6,3,1.197847e+01,1.323399e+01,1
9.633500e-01,9.208450e-01,9.126663e-01,4,13,9.236805e+00,1.049772e+01,1
9.622670e-01,6.456690e-01,6.370544e-01,4,8,7.987510e+00,9.021599e+00,1
7.179420e-01,2.420300e-01,2.350807e-01,3,2,8.004162e+00,9.190720e+00,1
7.294810e-01,4.288500e-01,4.220009e-01,3,5,8.377835e+00,1.002272e+01,1
7.173280e-01,1.202130e-01,1.130104e-01,3,0,6.753734e+00,8.100871e+00,1
7.206840e-01,3.879750e-01,3.809929e-01,3,4,5.298223e+00,6.399293e+00,1
7.178160e-01,2.474950e-01,2.398491e-01,3,2,5.849641e+00,6.693545e+00,1
7.200400e-01,3.658280e-01,3.588200e-01,3,4,7.241531e+00,9.880460e+00,1
7.178310e-01,2.505930e-01,2.439022e-01,3,2,6.401219e+00,8.567672e+00,1
9.616010e-01,2.514280e-01,2.439022e-01,4,2,5.488831e+00,7.338463e+00,1
1.442547e+00,5.498530e-01,5.421638e-01,6,7,6.208673e+00,8.505728e+00,1
1.199019e+00,5.603520e-01,5.538464e-01,5,7,7.576181e+00,9.512941e+00,1
1.916527e+00,4.787880e-01,4.699230e-01,8,6,6.849651e+00,7.732455e+00,1
7.240200e-01,3.715140e-01,3.650188e-01,3,4,8.015619e+00,8.614578e+00,1
7.234490e-01,1.728850e-01,1.668930e-01,3,1,8.763528e+00,8.991918e+00,1
7.272600e-01,3.057340e-01,2.989769e-01,3,3,1.159478e+01,1.166586e+01,1
7.233750e-01,2.199540e-01,2.119541e-01,3,2,6.803328e+00,6.803324e+00,1
7.247880e-01,2.356930e-01,2.279282e-01,3,2,1.023130e+01,1.028418e+01,1
7.251810e-01,4.119740e-01,4.029274e-01,3,2,1.389846e+01,1.641865e+01,0
1.439327e+00,4.902000e-01,4.820824e-01,6,6,1.011812e+01,1.035922e+01,1
1.438264e+00,4.007820e-01,3.921986e-01,6,2,1.197218e+01,1.394096e+01,0
1.198373e+00,4.120230e-01,4.038811e-01,5,5,6.839998e+00,6.907367e+00,1
7.172320e-01,2.603760e-01,2.529621e-01,3,2,7.178411e+00,7.384242e+00,1
7.173040e-01,1.873810e-01,1.790524e-01,3,1,7.900474e+00,8.414458e+00,1
9.611610e-01,4.512020e-01,4.439354e-01,4,5,7.546646e+00,8.150456e+00,1
7.284630e-01,3.112040e-01,3.039837e-01,3,3,7.157012e+00,7.864133e+00,1
9.614670e-01,4.840840e-01,4.770756e-01,4,6,7.943304e+00,8.786106e+00,1
7.213520e-01,3.952770e-01,3.881454e-01,3,4,8.610013e+00,9.364507e+00,1
7.207760e-01,3.092890e-01,3.020763e-01,3,3,9.551019e+00,1.029603e+01,1
7.279070e-01,5.624090e-01,5.559921e-01,3,7,9.296221e+00,1.088144e+01,1
7.287380e-01,4.887910e-01,4.811287e-01,3,6,9.397203e+00,1.137687e+01,1
7.308500e-01,9.552690e-01,9.479523e-01,3,13,1.238657e+01,1.495876e+01,1
7.282600e-01,1.299615e+00,1.290083e+00,3,16,1.069287e+01,1.262536e+01,0
1.443053e+00,6.176950e-01,6.079674e-01,6,5,9.283416e+00,1.250511e+01,0
1.432754e+00,2.936170e-01,2.841949e-01,6,0,9.509918e+00,1.222679e+01,0
1.199794e+00,7.499530e-01,7.431507e-01,5,10,6.226577e+00,6.850236e+00,1
7.204210e-01,2.998700e-01,2.920628e-01,3,3,7.109542e+00,7.124473e+00,1
7.174430e-01,2.382530e-01,2.260208e-01,3,2,5.242694e+00,5.242688e+00,1
7.291290e-01,2.478940e-01,2.398491e-01,3,2,3.975845e+00,4.021746e+00,1
7.172250e-01,1.894760e-01,1.821518e-01,3,1,3.771634e+00,3.782252e+00,1
7.168310e-01,1.658840e-01,1.590252e-01,3,1,4.922834e+00,4.922843e+00,1
7.172300e-01,2.400800e-01,2.281666e-01,3,2,8.028116e+00,8.183525e+00,1
7.188200e-01,3.694750e-01,3.621578e-01,3,4,1.124128e+01,1.185582e+01,1
1.434217e+00,6.688370e-01,6.589890e-01,6,6,1.619758e+01,2.041339e+01,0
1.438919e+00,7.174920e-01,7.071495e-01,6,7,1.516432e+01,1.830386e+01,0
9.652640e-01,9.689030e-01,9.608269e-01,4,14,1.240077e+01,1.307090e+01,1
9.627820e-01,7.003420e-01,6.928444e-01,4,10,9.918366e+00,9.924658e+00,1
1.435686e+00,2.966450e-01,2.901554e-01,6,3,7.785621e+00,7.798596e+00,1
9.665690e-01,9.461890e-01,9.391308e-01,4,14,9.985159e+00,1.023944e+01,1
1.439644e+00,5.176000e-01,5.099773e-01,6,7,8.229494e+00,8.423554e+00,1
1.439177e+00,4.033730e-01,3.950596e-01,6,5,1.051876e+01,1.073073e+01,1
1.435716e+00,9.139100e-01,9.069443e-01,6,13,1.197126e+01,1.259702e+01,1
9.627200e-01,6.475060e-01,6.411076e-01,4,9,8.837604e+00,8.899712e+00,1
7.290660e-01,3.196400e-01,3.128052e-01,3,3,7.425198e+00,7.528206e+00,1
7.241650e-01,2.289140e-01,2.210140e-01,3,2,1.038096e+01,1.068821e+01,1
1.679042e+00,3.091950e-01,3.008842e-01,7,3,1.144453e+01,1.192703e+01,1
1.196416e+00,4.762980e-01,4.658699e-01,5,3,9.749458e+00,1.069522e+01,0
7.245720e-01,3.755580e-01,3.681183e-01,3,4,1.017987e+01,1.104328e+01,1
7.266680e-01,6.706690e-01,6.611347e-01,3,6,6.743683e+00,7.449895e+00,0
1.437574e+00,2.854730e-01,2.751350e-01,6,0,7.298598e+00,1.040193e+01,0
1.438984e+00,7.391650e-01,7.309914e-01,6,10,6.569091e+00,7.812041e+00,1
1.205355e+00,4.758040e-01,4.689693e-01,5,6,7.816957e+00,9.096456e+00,1
9.608980e-01,6.213700e-01,6.120205e-01,4,5,1.035968e+01,1.254178e+01,0
9.648510e-01,5.644490e-01,5.550385e-01,4,4,1.039104e+01,1.396983e+01,0
1.441530e+00,6.679750e-01,6.580353e-01,6,6,1.067847e+01,1.362123e+01,0
1.442566e+00,5.082310e-01,5.009174e-01,6,6,9.078598e+00,1.111227e+01,1
9.614140e-01,8.209630e-01,8.139610e-01,4,11,8.422987e+00,9.915866e+00,1
7.285740e-01,4.251070e-01,4.179478e-01,3,5,8.117281e+00,8.350717e+00,1
7.234610e-01,1.839060e-01,1.769066e-01,3,1,8.576503e+00,8.667036e+00,1
7.219700e-01,1.625080e-01,1.559258e-01,3,1,9.253218e+00,9.253194e+00,1
7.245570e-01,1.042490e-01,9.608269e-02,3,0,6.682212e+00,6.682206e+00,1
7.170090e-01,1.105490e-01,1.029968e-01,3,0,5.287231e+00,5.287229e+00,1
7.218790e-01,1.038260e-01,9.584427e-02,3,0,7.903617e+00,7.903561e+00,1
7.236700e-01,1.039190e-01,9.703636e-02,3,0,6.711099e+00,6.710775e+00,1
9.616960e-01,2.432060e-01,2.369881e-01,4,2,1.143534e+01,1.193428e+01,1
1.200914e+00,2.426310e-01,2.360344e-01,5,2,7.539933e+00,7.562106e+00,1
7.278080e-01,3.464960e-01,3.399849e-01,3,4,7.619612e+00,7.618982e+00,1
1.433576e+00,2.151070e-01,2.090931e-01,6,2,1.035098e+01,1.033693e+01,1
1.433484e+00,3.798040e-01,3.721714e-01,6,2,9.371257e+00,1.029286e+01,0
1.436846e+00,7.027190e-01,6.949902e-01,6,7,1.042048e+01,1.185844e+01,0
1.433006e+00,2.852910e-01,2.782345e-01,6,0,1.365873e+01,1.782250e+01,0
1.435943e+00,6.613420e-01,6.539822e-01,6,9,9.773224e+00,1.017174e+01,1
9.640220e-01,6.119880e-01,6.039143e-01,4,8,8.709983e+00,9.167328e+00,1
1.203142e+00,5.259530e-01,5.190372e-01,5,7,8.654427e+00,9.258167e+00,1
1.678504e+00,4.906860e-01,4.830360e-01,7,6,6.759806e+00,7.293114e+00,1
1.675956e+00,3.168350e-01,3.099442e-01,7,3,7.763439e+00,8.416019e+00,1
9.602430e-01,2.289390e-01,2.219677e-01,4,2,6.474265e+00,7.103620e+00,1
7.238900e-01,4.387820e-01,4.320145e-01,3,5,5.172230e+00,6.450295e+00,1
7.237640e-01,2.442990e-01,2.360344e-01,3,2,4.180894e+00,4.580547e+00,1
7.226870e-01,2.416280e-01,2.336502e-01,3,2,4.223924e+00,4.733694e+00,1
7.241400e-01,3.693730e-01,3.619194e-01,3,4,4.536343e+00,5.663128e+00,1
7.186180e-01,4.924200e-01,4.837513e-01,3,6,6.782055e+00,7.783780e+00,1
7.177800e-01,2.389990e-01,2.312660e-01,3,2,7.399462e+00,7.679940e+00,1
7.186320e-01,3.738910e-01,3.659725e-01,3,4,6.797997e+00,6.800713e+00,1
7.178560e-01,3.038490e-01,2.970695e-01,3,3,7.862929e+00,7.867237e+00,1
7.175820e-01,2.286440e-01,2.200603e-01,3,2,7.209934e+00,7.209934e+00,1
7.172590e-01,1.801640e-01,1.730919e-01,3,1,1.013760e+01,1.024677e+01,1
7.191900e-01,3.713900e-01,3.616810e-01,3,1,1.437863e+01,1.592826e+01,0
1.197026e+00,3.592910e-01,3.499985e-01,5,1,1.926965e+01,2.262968e+01,0
9.560540e-01,5.401010e-01,5.309582e-01,4,4,2.018957e+01,2.291666e+01,0
1.197838e+00,2.840760e-01,2.739429e-01,5,0,2.024135e+01,2.210107e+01,0
9.627050e-01,8.741050e-01,8.649826e-01,4,10,1.982213e+01,2.597058e+01,0
9.604890e-01,2.811500e-01,2.720356e-01,4,0,1.891360e+01,2.659166e+01,0
9.603730e-01,5.758640e-01,5.652905e-01,4,5,1.766774e+01,2.687407e+01,0
1.434515e+00,2.885870e-01,2.787113e-01,6,0,1.519862e+01,2.536337e+01,0
1.197649e+00,6.206070e-01,6.122589e-01,5,5,1.216500e+01,1.902505e+01,0
9.713860e-01,5.427210e-01,5.321503e-01,4,4,9.304028e+00,1.300270e+01,0
9.648390e-01,1.390042e+00,1.380682e+00,4,17,9.599759e+00,1.483986e+01,0
1.438433e+00,2.948330e-01,2.851486e-01,6,0,8.317286e+00,1.295958e+01,0
1.198105e+00,9.587260e-01,9.491444e-01,5,11,7.122533e+00,1.257481e+01,0
1.195430e+00,2.883080e-01,2.801418e-01,5,0,5.892030e+00,9.603828e+00,0
1.670409e+00,1.728660e-01,1.602173e-01,7,1,5.147326e+00,5.147112e+00,1
7.178910e-01,1.667170e-01,1.599789e-01,3,1,7.242746e+00,7.242542e+00,1
9.589540e-01,2.254610e-01,2.179146e-01,4,2,6.197619e+00,6.201017e+00,1
7.160400e-01,1.156140e-01,1.089573e-01,3,0,6.059088e+00,6.397302e+00,1
7.190820e-01,3.046450e-01,2.980232e-01,3,3,6.072774e+00,6.072803e+00,1
7.224860e-01,1.609510e-01,1.540184e-01,3,1,2.757707e+00,2.757703e+00,1
7.224390e-01,1.035080e-01,9.703636e-02,3,0,2.405365e+00,2.405366e+00,1
7.228180e-01,1.031680e-01,9.560585e-02,3,0,2.635298e+00,2.635300e+00,1
7.218840e-01,1.026910e-01,9.608269e-02,3,0,1.237488e+00,1.237488e+00,1
7.228430e-01,1.025400e-01,9.393692e-02,3,0,1.203135e+00,1.203136e+00,1
7.160990e-01,1.026800e-01,9.608269e-02,3,0,2.339173e+00,2.339177e+00,1
7.213030e-01,1.031150e-01,9.608269e-02,3,0,2.622252e+00,2.622254e+00,1
7.218270e-01,1.725260e-01,1.659393e-01,3,1,5.806939e+00,5.807520e+00,1
7.228300e-01,1.624260e-01,1.549721e-01,3,1,6.111280e+00,6.111278e+00,1
7.229960e-01,1.708180e-01,1.640320e-01,3,1,5.227143e+00,5.232754e+00,1
7.233710e-01,2.297110e-01,2.217293e-01,3,2,5.949890e+00,5.953668e+00,1
9.603210e-01,1.616920e-01,1.549721e-01,4,1,5.449281e+00,5.449278e+00,1
7.226330e-01,2.376000e-01,2.298355e-01,3,2,5.754447e+00,5.763927e+00,1
7.237190e-01,2.197040e-01,2.119541e-01,3,2,5.017375e+00,5.017369e+00,1
7.243010e-01,1.715180e-01,1.640320e-01,3,1,4.373984e+00,4.472404e+00,1
7.237770e-01,1.615720e-01,1.549721e-01,3,1,4.573762e+00,4.573764e+00,1
7.268860e-01,1.040640e-01,9.608269e-02,3,0,5.014800e+00,5.014802e+00,1
7.233900e-01,2.411560e-01,2.329350e-01,3,2,8.166818e+00,8.203289e+00,1
7.226010e-01,2.409920e-01,2.341270e-01,3,2,9.005096e+00,9.039727e+00,1
7.176250e-01,1.777690e-01,1.690388e-01,3,1,1.060880e+01,1.075979e+01,1
7.228050e-01,3.620190e-01,3.530979e-01,3,1,1.418689e+01,1.505875e+01,0
9.618310e-01,4.123720e-01,4.031658e-01,4,2,1.243986e+01,1.428079e+01,0
9.639670e-01,6.868720e-01,6.766319e-01,4,6,1.403529e+01,1.612003e+01,0
1.439773e+00,4.862330e-01,4.758835e-01,6,3,1.307500e+01,1.511993e+01,0
1.440699e+00,7.478290e-01,7.379055e-01,6,7,1.322585e+01,1.528354e+01,0
1.440344e+00,4.171710e-01,4.072189e-01,6,2,1.481396e+01,1.835650e+01,0
1.676328e+00,2.860340e-01,2.768040e-01,7,0,1.742088e+01,2.400357e+01,0
1.675596e+00,2.877210e-01,2.777576e-01,7,0,1.743885e+01,2.296333e+01,0
9.609050e-01,8.584830e-01,8.490086e-01,4,9,1.593179e+01,2.256342e+01,0
1.453384e+00,8.067270e-01,7.967949e-01,6,8,1.709262e+01,2.320472e+01,0
1.441298e+00,4.707070e-01,4.611015e-01,6,3,1.696073e+01,2.272000e+01,0
1.439724e+00,1.236767e+00,1.226902e+00,6,15,1.547723e+01,2.084516e+01,0
1.434676e+00,2.908220e-01,2.810955e-01,6,0,1.675957e+01,2.602581e+01,0
1.448678e+00,2.858100e-01,2.760887e-01,6,0,1.719527e+01,2.808997e+01,0
1.440004e+00,1.241108e+00,1.231194e+00,6,15,1.650059e+01,2.485854e+01,0
1.434294e+00,2.934250e-01,2.841949e-01,6,0,1.455089e+01,1.727566e+01,0
1.444636e+00,2.095405e+00,2.085924e+00,6,28,1.567235e+01,1.933323e+01,0
1.433605e+00,2.907680e-01,2.806187e-01,6,0,2.001833e+01,2.570514e+01,0
1.439388e+00,1.268631e+00,1.258850e+00,6,15,2.065967e+01,2.511483e+01,0
1.438586e+00,2.983250e-01,2.877712e-01,6,0,2.144300e+01,2.215744e+01,0
1.437917e+00,2.965550e-01,2.880096e-01,6,0,2.802685e+01,2.722554e+01,0
9.671960e-01,1.132885e+00,1.123190e+00,4,13,3.771156e+01,4.108114e+01,0
1.439915e+00,2.912070e-01,2.822876e-01,6,0,2.795532e+01,3.129281e+01,0
1.681712e+00,3.572200e-01,3.471375e-01,7,1,3.423535e+01,4.107885e+01,0
1.441438e+00,6.811600e-01,6.709099e-01,6,6,3.234451e+01,4.232170e+01,0
1.439743e+00,8.052980e-01,7.979870e-01,6,8,2.912474e+01,4.210646e+01,0
9.609970e-01,3.514730e-01,3.418922e-01,4,1,2.379480e+01,3.710259e+01,0
1.438695e+00,6.123440e-01,6.031990e-01,6,5,2.712006e+01,4.189722e+01,0
1.438068e+00,4.269110e-01,4.181862e-01,6,2,2.426999e+01,3.712853e+01,0
1.439545e+00,4.258660e-01,4.162788e-01,6,2,2.478425e+01,3.786039e+01,0
1.440803e+00,8.569900e-01,8.456707e-01,6,9,1.563565e+01,2.020073e+01,0
1.201382e+00,1.112518e+00,1.104116e+00,5,13,1.492203e+01,1.821081e+01,0
1.204324e+00,1.102987e+00,1.094341e+00,5,13,1.709281e+01,1.979924e+01,0
9.773650e-01,6.206030e-01,6.113052e-01,4,5,1.166656e+01,1.340711e+01,0
7.295550e-01,1.105324e+00,1.096249e+00,3,13,1.472535e+01,1.580998e+01,0
9.632860e-01,6.097800e-01,6.000996e-01,4,5,1.549669e+01,1.940900e+01,0
9.634040e-01,1.256382e+00,1.246691e+00,4,16,1.657823e+01,2.274523e+01,0
1.201050e+00,8.680650e-01,8.580685e-01,5,9,1.296517e+01,1.668301e+01,0
1.199450e+00,2.988860e-01,2.901554e-01,5,0,1.398015e+01,1.699613e+01,0
1.202389e+00,1.015549e+00,1.006126e+00,5,12,1.158755e+01,1.792442e+01,0
1.437023e+00,2.684800e-01,2.601147e-01,6,0,1.091630e+01,1.746111e+01,0
7.233280e-01,4.163130e-01,4.072189e-01,3,2,1.087938e+01,1.359826e+01,0
1.438714e+00,2.864500e-01,2.768040e-01,6,0,1.212157e+01,1.843033e+01,0
1.436154e+00,9.568920e-01,9.489059e-01,6,11,9.611461e+00,1.137089e+01,0
9.588270e-01,2.850810e-01,2.748966e-01,4,0,9.673923e+00,9.855676e+00,0
7.262290e-01,7.777420e-01,7.684231e-01,3,8,9.757089e+00,1.145475e+01,0
7.247940e-01,3.482860e-01,3.376007e-01,3,1,9.240462e+00,9.996475e+00,0
7.226790e-01,2.297200e-01,2.219677e-01,3,2,8.032400e+00,8.279178e+00,1
7.242540e-01,3.218740e-01,3.151894e-01,3,3,7.856984e+00,7.883768e+00,1
7.229570e-01,1.695420e-01,1.618862e-01,3,1,8.910291e+00,9.164169e+00,1
7.229260e-01,2.468430e-01,2.400875e-01,3,2,1.005464e+01,1.068038e+01,1
7.187490e-01,6.239770e-01,6.151199e-01,3,5,1.422467e+01,1.666856e+01,0
1.433546e+00,2.935680e-01,2.837181e-01,6,0,1.783524e+01,2.108986e+01,0
1.199775e+00,1.003930e+00,9.970665e-01,5,14,1.522818e+01,1.706171e+01,1
7.175480e-01,3.773850e-01,3.700256e-01,3,4,1.757648e+01,1.990328e+01,1
7.255960e-01,8.615180e-01,8.549690e-01,3,11,1.453522e+01,1.701560e+01,1
7.268480e-01,1.428559e+00,1.422167e+00,3,21,1.046597e+01,1.271885e+01,1
9.634370e-01,1.238992e+00,1.231909e+00,4,17,1.104082e+01,1.436487e+01,1
1.437024e+00,1.253176e+00,1.245022e+00,6,18,9.503731e+00,1.190659e+01,1
9.642420e-01,8.166550e-01,8.099079e-01,4,11,8.732323e+00,9.928887e+00,1
7.251620e-01,5.107910e-01,5.030632e-01,3,6,6.988810e+00,8.975464e+00,1
7.178070e-01,5.514490e-01,5.450249e-01,3,7,7.869287e+00,1.044131e+01,1
7.257930e-01,6.401440e-01,6.330013e-01,3,8,6.394494e+00,8.719968e+00,1
9.621420e-01,8.976000e-01,8.890629e-01,4,9,7.490214e+00,1.065901e+01,0
1.215279e+00,8.520350e-01,8.449554e-01,5,12,4.922876e+00,7.180166e+00,1
1.450875e+00,6.223240e-01,6.120205e-01,6,5,7.704254e+00,1.247822e+01,0
1.441196e+00,1.532840e+00,1.524210e+00,6,20,1.317928e+01,1.805712e+01,0
1.439444e+00,6.660890e-01,6.589890e-01,6,9,8.268384e+00,9.502627e+00,1
9.621110e-01,4.089230e-01,4.019737e-01,4,5,6.502439e+00,6.512379e+00,1
7.223340e-01,1.632360e-01,1.552105e-01,3,1,7.012104e+00,7.012101e+00,1
7.222250e-01,1.046780e-01,9.584427e-02,3,0,6.703115e+00,6.703065e+00,1
7.224400e-01,1.035520e-01,9.703636e-02,3,0,7.020335e+00,7.019413e+00,1
9.628130e-01,3.765670e-01,3.681183e-01,4,2,8.712119e+00,9.947916e+00,0
1.438411e+00,2.600040e-01,2.498627e-01,6,0,7.880117e+00,1.045786e+01,0
1.438014e+00,4.814670e-01,4.720688e-01,6,4,7.634170e+00,8.622413e+00,0
1.438547e+00,3.711270e-01,3.609657e-01,6,2,8.844263e+00,1.064046e+01,0
1.433054e+00,2.600330e-01,2.512932e-01,6,0,1.284081e+01,1.747803e+01,0
1.440780e+00,8.447440e-01,8.358955e-01,6,9,1.716247e+01,1.960835e+01,0
1.433740e+00,2.827000e-01,2.737045e-01,6,0,2.550490e+01,2.911629e+01,0
1.433243e+00,2.854340e-01,2.772808e-01,6,0,3.069155e+01,3.448903e+01,0
1.441348e+00,1.094318e+00,1.084566e+00,6,13,3.033220e+01,3.848176e+01,0
1.441872e+00,8.119790e-01,8.020401e-01,6,8,3.230229e+01,4.181050e+01,0
1.438273e+00,1.912287e+00,1.903296e+00,6,25,2.871194e+01,3.996480e+01,0
1.435249e+00,2.957350e-01,2.851486e-01,6,0,3.010523e+01,4.411877e+01,0
1.438115e+00,7.894860e-01,7.820129e-01,6,8,2.981929e+01,4.412307e+01,0
1.444422e+00,2.155706e+00,2.146244e+00,6,29,2.647539e+01,3.648311e+01,0
1.439328e+00,2.924820e-01,2.832413e-01,6,0,2.481461e+01,3.501780e+01,0
1.434117e+00,2.921100e-01,2.832413e-01,6,0,2.082896e+01,3.021444e+01,0
1.442626e+00,2.726861e+00,2.717733e+00,6,38,2.025270e+01,3.309608e+01,0
1.436245e+00,3.054910e-01,2.949238e-01,6,0,2.086087e+01,3.714034e+01,0
1.437398e+00,5.010460e-01,4.918575e-01,6,3,2.583383e+01,4.568664e+01,0
1.436078e+00,3.057810e-01,2.949238e-01,6,0,4.211240e+01,6.616182e+01,0
1.683074e+00,1.335937e+00,1.325607e+00,7,16,4.987492e+01,7.146977e+01,0
1.441817e+00,1.395778e+00,1.385450e+00,6,17,5.760745e+01,7.344633e+01,0
1.437966e+00,2.904530e-01,2.808571e-01,6,0,5.600303e+01,6.817478e+01,0
1.435951e+00,2.885200e-01,2.789497e-01,6,0,6.044852e+01,7.147343e+01,0
1.673633e+00,2.949210e-01,2.849102e-01,7,0,7.116692e+01,8.342878e+01,0
1.675096e+00,2.944040e-01,2.851486e-01,7,0,7.265954e+01,8.408536e+01,0
1.673202e+00,2.939210e-01,2.841949e-01,7,0,6.796870e+01,8.194380e+01,0
1.440848e+00,2.384511e+00,2.374172e+00,6,33,6.428344e+01,8.050490e+01,0
1.678170e+00,2.866440e-01,2.779961e-01,7,0,5.655264e+01,7.451255e+01,0
1.439200e+00,2.868830e-01,2.777576e-01,6,0,5.085362e+01,6.934576e+01,0
1.446899e+00,7.276570e-01,7.181168e-01,6,7,4.722763e+01,6.676829e+01,0
1.672120e+00,4.707580e-01,4.613400e-01,7,3,5.028481e+01,7.087508e+01,0
1.437601e+00,2.818010e-01,2.729893e-01,6,0,3.696111e+01,5.497578e+01,0
1.437015e+00,5.924530e-01,5.841255e-01,6,5,3.549144e+01,5.021403e+01,0
1.196431e+00,2.758390e-01,2.660751e-01,5,0,3.910779e+01,5.385881e+01,0
1.442700e+00,6.936680e-01,6.840229e-01,6,7,3.658754e+01,4.865911e+01,0
9.618190e-01,6.909460e-01,6.816387e-01,4,7,3.777699e+01,4.759396e+01,0
1.436509e+00,4.127770e-01,4.029274e-01,6,2,3.838539e+01,4.590923e+01,0
9.620580e-01,6.657630e-01,6.561279e-01,4,6,3.550045e+01,4.197462e+01,0
9.561880e-01,7.321350e-01,7.219315e-01,4,7,2.643934e+01,3.255955e+01,0
1.438409e+00,1.191106e+00,1.181841e+00,6,13,2.279243e+01,2.836559e+01,0
1.443788e+00,1.324141e+00,1.313686e+00,6,15,2.183024e+01,2.787148e+01,0
1.447870e+00,2.963750e-01,2.870560e-01,6,0,2.288386e+01,2.763061e+01,0
9.646150e-01,1.439994e+00,1.430035e+00,4,17,2.029696e+01,2.705849e+01,0
1.442579e+00,1.376302e+00,1.367092e+00,6,16,1.582780e+01,2.228416e+01,0
1.444538e+00,1.367447e+00,1.360893e+00,6,19,1.546196e+01,2.130113e+01,1
1.443609e+00,1.456072e+00,1.447916e+00,6,21,1.536783e+01,1.918774e+01,1
1.438681e+00,1.366069e+00,1.359224e+00,6,20,1.362299e+01,1.675723e+01,1
1.436124e+00,1.075376e+00,1.065969e+00,6,12,1.287036e+01,1.591878e+01,0
9.596180e-01,2.914430e-01,2.822876e-01,4,0,1.062389e+01,1.156349e+01,0
1.436471e+00,7.029600e-01,6.952286e-01,6,9,1.169443e+01,1.336544e+01,1
1.435112e+00,6.343550e-01,6.270409e-01,6,8,1.190512e+01,1.308593e+01,1
1.434445e+00,3.627560e-01,3.559589e-01,6,4,1.185979e+01,1.326891e+01,1
9.622040e-01,5.742960e-01,5.669594e-01,4,7,1.278707e+01,1.374097e+01,1
1.434422e+00,6.553850e-01,6.461143e-01,6,6,2.022970e+01,2.397304e+01,0
1.438727e+00,2.867790e-01,2.770424e-01,6,0,2.617634e+01,3.237806e+01,0
1.433018e+00,2.863550e-01,2.770424e-01,6,0,3.042194e+01,3.920106e+01,0
1.433947e+00,2.915680e-01,2.830029e-01,6,0,3.128535e+01,3.928154e+01,0
1.441552e+00,1.149027e+00,1.139879e+00,6,14,3.074038e+01,3.677359e+01,0
1.679684e+00,3.458110e-01,3.361702e-01,7,1,2.727853e+01,3.063763e+01,0
9.656810e-01,8.366020e-01,8.270741e-01,4,9,2.355243e+01,2.696079e+01,0
1.433534e+00,2.790660e-01,2.691746e-01,6,0,2.516054e+01,3.253558e+01,0
1.439438e+00,4.073680e-01,3.967285e-01,6,2,2.540111e+01,3.608998e+01,0
1.672495e+00,4.353850e-01,4.258156e-01,7,3,2.685311e+01,3.818996e+01,0
1.211743e+00,4.319050e-01,4.229546e-01,5,3,2.926864e+01,4.015502e+01,0
1.205830e+00,4.519680e-01,4.420280e-01,5,3,3.311522e+01,4.290515e+01,0
1.443847e+00,5.373110e-01,5.276203e-01,6,4,3.498780e+01,4.291821e+01,0
1.440898e+00,4.688980e-01,4.599094e-01,6,3,3.822179e+01,4.772164e+01,0
1.439590e+00,1.125654e+00,1.116753e+00,6,13,3.293468e+01,4.321872e+01,0
1.438757e+00,2.909870e-01,2.808571e-01,6,0,3.996812e+01,5.565870e+01,0
1.441691e+00,5.529950e-01,5.419254e-01,6,4,4.046725e+01,5.987691e+01,0
9.613340e-01,6.985410e-01,6.880760e-01,4,6,3.803414e+01,5.875093e+01,0
1.437197e+00,1.240110e+00,1.231194e+00,6,15,3.322608e+01,5.191665e+01,0
1.683193e+00,1.064133e+00,1.055241e+00,7,12,3.318861e+01,5.385033e+01,0
1.436877e+00,8.400280e-01,8.301735e-01,6,8,3.087719e+01,5.224047e+01,0
1.441866e+00,1.599462e+00,1.590252e+00,6,20,2.742628e+01,4.755279e+01,0
1.435181e+00,2.990590e-01,2.889633e-01,6,0,2.635941e+01,5.018680e+01,0
1.437834e+00,2.914580e-01,2.830029e-01,6,0,2.198808e+01,4.528545e+01,0
1.442626e+00,1.657934e+00,1.649141e+00,6,21,2.278890e+01,4.577221e+01,0
1.204739e+00,1.382531e+00,1.372814e+00,5,17,1.907995e+01,3.309524e+01,0
1.434554e+00,2.866100e-01,2.770424e-01,6,0,1.477294e+01,2.062022e+01,0
9.674970e-01,1.728888e+00,1.718998e+00,4,23,1.492081e+01,1.656512e+01,0
1.199654e+00,5.971190e-01,5.869865e-01,5,5,1.593037e+01,1.691326e+01,0
1.437666e+00,2.793720e-01,2.703667e-01,6,0,1.499633e+01,1.521732e+01,0
1.436851e+00,1.012314e+00,1.003981e+00,6,12,1.296733e+01,1.414955e+01,0
1.201899e+00,5.877070e-01,5.781651e-01,5,5,1.265775e+01,1.291399e+01,0
1.439588e+00,5.059230e-01,4.990101e-01,6,7,1.206665e+01,1.206211e+01,1
1.442094e+00,4.282140e-01,4.179478e-01,6,3,1.141797e+01,1.159183e+01,0
1.446343e+00,2.108960e-01,2.028942e-01,6,2,1.266870e+01,1.264759e+01,1
1.444300e+00,2.861490e-01,2.789497e-01,6,3,1.220740e+01,1.219657e+01,1
1.437106e+00,3.980770e-01,3.900528e-01,6,5,9.771026e+00,9.760507e+00,1
9.605160e-01,4.291130e-01,4.189014e-01,4,3,1.043106e+01,1.068140e+01,0
1.438229e+00,3.786610e-01,3.690720e-01,6,2,1.157947e+01,1.323190e+01,0
9.599160e-01,2.242800e-01,2.169609e-01,4,2,1.047980e+01,1.051340e+01,1
7.181100e-01,3.299750e-01,3.201962e-01,3,1,1.163688e+01,1.210760e+01,0
7.283120e-01,4.925810e-01,4.849434e-01,3,6,1.300001e+01,1.329741e+01,1
7.252060e-01,5.924330e-01,5.810261e-01,3,5,1.302809e+01,1.364242e+01,0
7.231960e-01,2.849410e-01,2.751350e-01,3,0,1.215043e+01,1.375187e+01,0
7.235840e-01,2.199860e-01,2.121925e-01,3,2,8.449951e+00,8.449944e+00,1
7.233150e-01,2.652780e-01,2.563000e-01,3,0,1.230096e+01,1.243695e+01,0
7.270280e-01,2.990700e-01,2.920628e-01,3,3,1.313324e+01,1.306271e+01,1
7.237920e-01,4.248890e-01,4.189014e-01,3,5,1.169701e+01,1.181980e+01,1
7.263490e-01,3.479460e-01,3.390312e-01,3,1,1.280927e+01,1.364346e+01,0
7.206930e-01,5.438470e-01,5.357265e-01,3,4,1.234201e+01,1.287206e+01,0
7.278750e-01,5.314330e-01,5.209446e-01,3,4,1.403467e+01,1.514610e+01,0
1.449669e+00,5.978220e-01,5.879402e-01,6,5,1.788124e+01,2.034682e+01,0
1.437718e+00,2.842360e-01,2.741814e-01,6,0,1.829572e+01,2.449853e+01,0
1.440518e+00,9.366490e-01,9.279251e-01,6,11,1.682020e+01,2.322431e+01,0
1.439080e+00,4.800960e-01,4.713535e-01,6,3,1.757920e+01,2.318276e+01,0
1.439062e+00,2.853930e-01,2.768040e-01,6,0,1.934820e+01,2.593913e+01,0
1.443259e+00,6.614680e-01,6.518364e-01,6,6,1.604880e+01,2.089674e+01,0
1.443716e+00,7.452880e-01,7.390976e-01,6,10,1.384507e+01,1.412714e+01,1
1.442379e+00,5.261480e-01,5.190372e-01,6,7,1.577037e+01,1.619511e+01,1
1.437557e+00,7.890600e-01,7.801056e-01,6,8,1.517720e+01,1.595903e+01,0
1.438532e+00,3.634900e-01,3.559589e-01,6,4,1.222101e+01,1.279663e+01,1
1.202317e+00,4.167570e-01,4.091263e-01,5,5,1.459819e+01,1.514236e+01,1
9.607600e-01,6.638410e-01,6.539822e-01,4,6,1.582366e+01,1.828908e+01,0
7.197680e-01,5.545620e-01,5.452633e-01,3,4,1.329144e+01,1.474770e+01,0
7.245630e-01,4.942920e-01,4.839897e-01,3,3,1.618728e+01,1.705323e+01,0
9.622560e-01,4.043210e-01,3.962517e-01,4,2,1.277490e+01,1.646270e+01,0
9.715770e-01,2.860560e-01,2.772808e-01,4,0,1.261334e+01,1.836723e+01,0
9.649200e-01,5.449050e-01,5.352497e-01,4,4,1.311174e+01,1.902948e+01,0
1.438212e+00,2.850460e-01,2.760887e-01,6,0,1.492021e+01,1.791581e+01,0
1.440495e+00,7.659260e-01,7.560253e-01,6,8,1.388861e+01,1.522916e+01,0
1.440238e+00,3.954150e-01,3.862381e-01,6,2,1.256968e+01,1.412869e+01,0
1.439725e+00,6.943190e-01,6.840229e-01,6,7,1.066971e+01,1.138993e+01,0
1.437764e+00,4.614340e-01,4.520416e-01,6,3,1.007476e+01,1.104040e+01,0
1.442702e+00,4.369230e-01,4.298687e-01,6,5,9.821985e+00,1.006125e+01,1
9.596400e-01,2.828020e-01,2.741814e-01,4,3,8.846542e+00,9.185609e+00,1
9.622180e-01,4.903610e-01,4.827976e-01,4,6,1.106223e+01,1.143626e+01,1
9.640010e-01,8.799880e-01,8.699894e-01,4,9,8.983936e+00,1.050414e+01,0
1.434184e+00,4.828760e-01,4.761219e-01,6,6,8.184166e+00,9.082444e+00,1
9.648240e-01,4.838630e-01,4.761219e-01,4,6,7.340838e+00,8.121044e+00,1
7.165630e-01,1.096670e-01,1.029968e-01,3,0,6.227323e+00,6.319553e+00,1
7.195010e-01,3.145930e-01,3.080368e-01,3,3,5.126110e+00,5.250085e+00,1
7.232330e-01,3.115740e-01,3.037453e-01,3,3,5.302644e+00,5.573229e+00,1
7.232140e-01,2.969830e-01,2.889633e-01,3,3,5.377221e+00,5.867278e+00,1
7.175750e-01,1.753920e-01,1.668930e-01,3,1,5.085954e+00,5.538501e+00,1
7.177080e-01,1.863600e-01,1.790524e-01,3,1,5.385348e+00,5.671955e+00,1
7.253810e-01,3.868180e-01,3.788471e-01,3,4,4.515170e+00,4.527279e+00,1
7.169690e-01,1.608300e-01,1.537800e-01,3,1,4.896327e+00,4.896329e+00,1
7.207120e-01,3.550470e-01,3.447533e-01,3,1,5.962383e+00,7.162578e+00,0
9.606120e-01,3.517540e-01,3.421307e-01,4,1,8.325323e+00,9.753575e+00,0
9.603160e-01,1.676220e-01,1.590252e-01,4,1,7.194364e+00,7.485406e+00,1
7.256310e-01,3.629140e-01,3.559589e-01,3,4,8.551802e+00,8.633629e+00,1
1.439835e+00,3.665430e-01,3.600121e-01,6,4,8.361771e+00,8.371354e+00,1
1.439256e+00,4.050830e-01,3.981590e-01,6,5,8.168923e+00,8.157299e+00,1
1.441114e+00,3.658580e-01,3.590584e-01,6,4,8.589833e+00,8.623308e+00,1
1.433118e+00,2.942360e-01,2.861023e-01,6,3,6.726907e+00,6.908032e+00,1
1.436586e+00,1.095130e-01,1.029968e-01,6,0,5.449750e+00,5.650053e+00,1
9.596290e-01,2.393050e-01,2.329350e-01,4,2,6.140341e+00,6.200005e+00,1
7.225840e-01,2.465680e-01,2.388954e-01,3,2,5.002867e+00,5.035214e+00,1
7.274530e-01,3.079020e-01,2.999306e-01,3,3,4.668705e+00,4.931012e+00,1
7.235450e-01,1.104410e-01,1.029968e-01,3,0,3.665885e+00,3.888853e+00,1
7.238830e-01,1.825970e-01,1.740456e-01,3,1,4.458020e+00,4.473441e+00,1
7.240230e-01,2.329250e-01,2.260208e-01,3,2,6.428961e+00,6.578148e+00,1
7.219780e-01,1.814130e-01,1.749992e-01,3,1,5.311448e+00,5.515049e+00,1
7.289200e-01,4.990950e-01,4.911423e-01,3,6,8.681961e+00,9.889763e+00,1
1.444347e+00,5.405930e-01,5.297661e-01,6,4,1.387166e+01,1.612225e+01,0
1.204418e+00,4.777700e-01,4.701614e-01,5,6,1.176852e+01,1.235525e+01,1
1.198761e+00,4.721690e-01,4.639626e-01,5,6,9.154047e+00,9.384943e+00,1
9.603840e-01,2.264520e-01,2.200603e-01,4,2,7.202049e+00,7.202049e+00,1
7.168440e-01,1.712770e-01,1.649857e-01,3,1,9.167343e+00,9.167428e+00,1
7.167260e-01,1.698380e-01,1.621246e-01,3,1,8.297977e+00,8.297970e+00,1
7.169810e-01,1.757380e-01,1.680851e-01,3,1,9.339497e+00,9.354330e+00,1
7.231200e-01,2.297550e-01,2.222061e-01,3,2,1.018502e+01,1.018590e+01,1
7.231180e-01,1.610230e-01,1.540184e-01,3,1,9.543066e+00,9.541095e+00,1
9.614190e-01,2.869350e-01,2.799034e-01,4,3,8.539974e+00,8.539525e+00,1
1.436632e+00,3.966070e-01,3.881454e-01,6,5,7.232483e+00,7.230788e+00,1
9.625130e-01,6.454740e-01,6.389618e-01,4,9,8.767869e+00,8.800090e+00,1
1.438896e+00,2.817750e-01,2.739429e-01,6,3,7.706902e+00,7.786405e+00,1
1.434003e+00,2.829090e-01,2.760887e-01,6,3,6.621122e+00,6.647804e+00,1
1.435192e+00,2.409800e-01,2.341270e-01,6,2,5.693960e+00,5.693406e+00,1
1.442636e+00,3.583990e-01,3.499985e-01,6,4,4.933584e+00,4.948749e+00,1
1.434365e+00,2.379350e-01,2.310276e-01,6,2,4.157961e+00,4.169533e+00,1
9.628100e-01,3.130420e-01,3.061295e-01,4,3,4.593215e+00,4.978595e+00,1
7.234420e-01,1.685500e-01,1.618862e-01,3,1,3.617848e+00,3.928937e+00,1
7.168200e-01,1.106910e-01,1.041889e-01,3,0,4.346818e+00,4.794401e+00,1
7.176180e-01,1.762040e-01,1.678467e-01,3,1,4.672444e+00,4.934282e+00,1
7.173480e-01,1.873090e-01,1.788139e-01,3,1,5.426785e+00,5.776846e+00,1
7.214110e-01,3.690390e-01,3.619194e-01,3,4,7.192746e+00,8.242915e+00,1
7.239550e-01,3.058220e-01,2.980232e-01,3,3,6.769466e+00,7.591329e+00,1
7.170550e-01,1.774990e-01,1.690388e-01,3,1,5.937445e+00,6.311459e+00,1
7.260770e-01,5.203660e-01,5.130768e-01,3,6,6.933120e+00,7.038647e+00,1
7.228310e-01,1.754280e-01,1.680851e-01,3,1,7.235936e+00,7.403603e+00,1
7.258580e-01,3.101270e-01,3.030300e-01,3,3,4.177083e+00,4.448385e+00,1
7.176660e-01,1.101840e-01,1.029968e-01,3,0,4.337874e+00,4.691874e+00,1
7.165190e-01,1.150900e-01,1.080036e-01,3,0,4.577674e+00,4.755519e+00,1
7.221890e-01,4.504720e-01,4.439354e-01,3,5,4.827613e+00,4.932823e+00,1
7.175300e-01,1.732430e-01,1.659393e-01,3,1,4.312998e+00,4.393025e+00,1
7.174930e-01,1.864590e-01,1.790524e-01,3,1,3.724831e+00,3.782748e+00,1
7.204620e-01,3.045770e-01,2.970695e-01,3,3,4.093739e+00,4.093747e+00,1
7.231450e-01,1.751910e-01,1.678467e-01,3,1,5.527265e+00,5.665142e+00,1
7.235820e-01,2.311480e-01,2.241135e-01,3,2,6.892321e+00,6.928935e+00,1
7.231330e-01,2.334090e-01,2.260208e-01,3,2,4.943102e+00,5.016347e+00,1
7.222570e-01,1.096630e-01,1.029968e-01,3,0,5.210269e+00,5.758415e+00,1
7.238290e-01,1.101130e-01,1.029968e-01,3,0,4.365294e+00,4.513644e+00,1
7.240390e-01,2.398010e-01,2.329350e-01,3,2,6.361660e+00,6.401369e+00,1
1.434032e+00,1.758900e-01,1.688004e-01,6,1,8.056460e+00,8.374452e+00,1
1.214642e+00,3.080230e-01,2.999306e-01,5,3,9.733310e+00,1.052868e+01,1
9.653380e-01,3.019590e-01,2.949238e-01,4,3,8.305559e+00,8.705466e+00,1
7.218160e-01,3.597870e-01,3.521442e-01,3,4,1.206529e+01,1.326983e+01,1
9.635840e-01,3.670070e-01,3.600121e-01,4,4,7.168878e+00,7.210273e+00,1
7.235090e-01,1.744690e-01,1.678467e-01,3,1,7.461167e+00,7.465387e+00,1
7.280500e-01,4.094870e-01,4.022121e-01,3,5,8.334619e+00,8.341183e+00,1
9.649180e-01,3.389520e-01,3.309250e-01,4,4,7.963639e+00,7.963763e+00,1
7.263490e-01,3.000380e-01,2.920628e-01,3,3,7.627976e+00,7.629666e+00,1
7.239420e-01,1.104760e-01,1.027584e-01,3,0,7.203901e+00,7.256543e+00,1
7.234370e-01,1.099350e-01,1.029968e-01,3,0,6.024209e+00,6.027237e+00,1
7.230880e-01,2.925340e-01,2.849102e-01,3,3,7.188293e+00,7.222061e+00,1
7.282630e-01,3.093790e-01,3.018379e-01,3,3,6.853110e+00,7.057074e+00,1
7.241090e-01,1.809380e-01,1.730919e-01,3,1,4.636613e+00,4.808669e+00,1
7.235930e-01,2.312700e-01,2.241135e-01,3,2,3.780741e+00,3.780742e+00,1
7.231210e-01,1.706820e-01,1.630783e-01,3,1,4.557140e+00,4.557759e+00,1
7.244650e-01,2.511430e-01,2.441406e-01,3,2,4.871432e+00,4.940096e+00,1
7.228520e-01,1.809380e-01,1.738071e-01,3,1,5.099581e+00,5.507135e+00,1
7.171760e-01,1.095410e-01,1.020432e-01,3,0,5.600661e+00,5.836346e+00,1
7.170950e-01,2.341930e-01,2.272129e-01,3,2,6.185383e+00,6.187178e+00,1
7.212670e-01,3.838270e-01,3.762245e-01,3,4,8.228436e+00,9.090175e+00,1
7.267490e-01,4.962020e-01,4.892349e-01,3,6,6.931187e+00,7.147802e+00,1
7.270520e-01,3.471990e-01,3.411770e-01,3,4,8.282636e+00,8.351277e+00,1
7.255900e-01,3.056660e-01,2.992153e-01,3,3,5.309104e+00,5.309344e+00,1
7.283910e-01,3.084560e-01,3.020763e-01,3,3,5.423599e+00,5.735415e+00,1
7.235080e-01,1.101520e-01,1.029968e-01,3,0,4.196122e+00,4.702348e+00,1
7.236390e-01,1.093480e-01,1.020432e-01,3,0,3.291553e+00,3.349853e+00,1
7.231120e-01,2.457550e-01,2.381802e-01,3,2,5.414613e+00,5.881965e+00,1
7.227380e-01,2.284850e-01,2.207756e-01,3,2,6.930222e+00,7.710369e+00,1
7.250840e-01,3.105340e-01,3.042221e-01,3,3,9.188717e+00,1.025972e+01,1
1.435843e+00,3.612480e-01,3.528595e-01,6,4,8.932917e+00,9.316451e+00,1
1.436339e+00,1.100510e-01,1.029968e-01,6,0,7.726739e+00,7.992704e+00,1
1.438535e+00,2.293640e-01,2.229214e-01,6,2,1.144122e+01,1.212095e+01,1
9.617190e-01,3.573200e-01,3.490448e-01,4,4,1.288263e+01,1.347780e+01,1
7.243260e-01,4.742560e-01,4.639626e-01,3,3,1.068321e+01,1.078517e+01,0
7.226450e-01,2.856750e-01,2.760887e-01,3,0,1.081456e+01,1.122603e+01,0
9.635320e-01,3.546640e-01,3.449917e-01,4,1,1.335806e+01,1.475711e+01,0
9.639000e-01,3.242860e-01,3.142357e-01,4,1,1.003345e+01,1.077341e+01,0
9.598570e-01,1.033840e-01,9.584427e-02,4,0,8.500757e+00,8.500731e+00,1
7.217310e-01,1.033370e-01,9.703636e-02,3,0,8.073953e+00,8.073943e+00,1
7.226410e-01,1.035210e-01,9.703636e-02,3,0,8.455079e+00,8.455080e+00,1
7.163120e-01,1.025500e-01,9.512901e-02,3,0,7.864979e+00,7.864974e+00,1
7.173260e-01,2.369960e-01,2.298355e-01,3,2,7.339740e+00,7.339966e+00,1
9.534100e-01,1.737640e-01,1.652241e-01,4,1,8.078953e+00,8.085409e+00,1
7.297180e-01,5.604800e-01,5.540848e-01,3,7,9.389206e+00,9.581312e+00,1
1.435539e+00,7.159150e-01,7.078648e-01,6,10,1.134656e+01,1.169455e+01,1
1.434397e+00,6.027090e-01,5.929470e-01,6,5,1.101157e+01,1.109807e+01,0
1.446160e+00,2.815600e-01,2.720356e-01,6,0,1.172840e+01,1.172318e+01,0
1.440104e+00,9.686890e-01,9.591579e-01,6,11,1.145051e+01,1.199583e+01,0
1.438623e+00,2.828300e-01,2.729893e-01,6,0,1.214329e+01,1.184822e+01,0

