5.173400e-01,8.462209e+01,8.448505e+01,2,1000,0.000000e+00,9.215718e-19,0
7.294740e-01,2.838437e+00,2.830029e+00,3,38,2.400979e-01,2.400984e-01,1
7.274100e-01,1.023290e-01,9.393692e-02,3,0,4.597438e-01,4.597450e-01,1
7.339650e-01,1.015850e-01,9.369850e-02,3,0,1.030507e+00,1.030509e+00,1
7.340510e-01,1.020840e-01,9.512901e-02,3,0,1.400278e+00,1.400279e+00,1
7.347140e-01,2.932080e-01,2.870560e-01,3,3,4.551517e+00,4.567492e+00,1
9.754670e-01,1.668530e-01,1.590252e-01,4,1,5.771602e+00,5.976012e+00,1
7.338950e-01,1.088330e-01,1.018047e-01,3,0,7.852251e+00,8.345311e+00,1
7.365050e-01,2.997110e-01,2.930164e-01,3,3,4.573502e+00,4.808800e+00,1
7.338250e-01,1.083230e-01,1.020432e-01,3,0,4.752998e+00,5.046690e+00,1
7.345090e-01,2.486790e-01,2.410412e-01,3,2,5.060154e+00,5.255166e+00,1
7.316850e-01,2.420820e-01,2.360344e-01,3,2,5.443247e+00,5.549969e+00,1
7.318900e-01,2.361650e-01,2.298355e-01,3,2,6.901960e+00,7.189645e+00,1
7.358490e-01,1.786480e-01,1.718998e-01,3,1,8.423918e+00,9.106838e+00,1
7.364650e-01,2.426880e-01,2.360344e-01,3,2,8.328930e+00,9.030799e+00,1
7.426080e-01,5.719020e-01,5.650520e-01,3,7,9.681417e+00,1.110816e+01,1
7.291170e-01,6.115080e-01,6.029606e-01,3,8,9.154616e+00,1.115464e+01,1
7.334470e-01,3.827090e-01,3.750324e-01,3,4,8.370537e+00,1.045196e+01,1
7.353030e-01,2.529850e-01,2.450943e-01,3,2,8.326246e+00,1.043430e+01,1
1.217370e+00,4.902420e-01,4.827976e-01,5,6,8.184828e+00,9.761921e+00,1
9.695750e-01,6.245910e-01,6.179810e-01,4,8,8.363705e+00,9.652370e+00,1
7.414630e-01,2.848710e-01,2.770424e-01,3,3,7.742896e+00,9.239198e+00,1
1.468833e+00,4.299640e-01,4.220009e-01,6,5,7.463043e+00,9.923937e+00,1
1.459960e+00,5.307670e-01,5.214214e-01,6,4,8.336136e+00,1.035334e+01,0
1.219865e+00,3.599450e-01,3.497601e-01,5,1,9.728935e+00,1.128299e+01,0
7.326910e-01,3.636010e-01,3.569126e-01,3,4,1.078060e+01,1.159704e+01,1
9.758000e-01,1.096700e-01,1.029968e-01,4,0,9.729702e+00,1.063651e+01,1
7.332060e-01,3.601500e-01,3.540516e-01,3,4,1.015945e+01,1.041164e+01,1
7.357240e-01,1.726380e-01,1.659393e-01,3,1,9.437787e+00,9.518176e+00,1
7.320500e-01,3.570960e-01,3.509521e-01,3,4,8.253796e+00,8.400617e+00,1
7.355780e-01,2.363720e-01,2.298355e-01,3,2,7.112332e+00,7.289286e+00,1
7.283840e-01,1.784250e-01,1.718998e-01,3,1,5.808942e+00,5.815218e+00,1
7.354770e-01,2.247120e-01,2.169609e-01,3,2,6.402637e+00,6.403339e+00,1
7.355100e-01,1.671190e-01,1.599789e-01,3,1,7.612693e+00,8.459868e+00,1
7.414090e-01,1.677520e-01,1.621246e-01,3,1,5.460296e+00,5.921026e+00,1
7.288530e-01,1.804660e-01,1.730919e-01,3,1,6.199236e+00,6.264573e+00,1
7.251650e-01,1.631780e-01,1.518726e-01,3,1,5.586116e+00,5.586117e+00,1
7.280870e-01,1.746970e-01,1.678467e-01,3,1,5.612212e+00,5.619681e+00,1
7.290180e-01,2.955620e-01,2.870560e-01,3,3,5.772218e+00,5.774003e+00,1
7.293360e-01,2.875780e-01,2.810955e-01,3,3,5.920539e+00,5.920477e+00,1
7.267670e-01,4.826250e-01,4.749298e-01,3,6,9.782269e+00,9.886921e+00,1
1.456465e+00,9.106540e-01,9.031296e-01,6,13,1.192308e+01,1.245965e+01,1
1.448510e+00,6.334280e-01,6.258488e-01,6,9,8.514962e+00,9.103684e+00,1
1.451746e+00,2.977700e-01,2.899170e-01,6,3,1.197847e+01,1.323399e+01,1
9.716460e-01,9.114620e-01,9.050369e-01,4,13,9.236805e+00,1.049772e+01,1
9.744800e-01,6.285000e-01,6.208420e-01,4,8,7.987510e+00,9.021599e+00,1
7.287470e-01,2.374400e-01,2.310276e-01,3,2,8.004162e+00,9.190720e+00,1
7.271460e-01,4.211590e-01,4.148483e-01,3,5,8.377835e+00,1.002272e+01,1
7.292110e-01,1.159860e-01,1.089573e-01,3,0,6.753734e+00,8.100871e+00,1
7.239540e-01,3.837180e-01,3.771782e-01,3,4,5.298223e+00,6.399293e+00,1
7.291410e-01,2.453460e-01,2.369881e-01,3,2,5.849641e+00,6.693545e+00,1
7.368900e-01,3.627760e-01,3.561974e-01,3,4,7.241531e+00,9.880460e+00,1
7.345560e-01,2.417320e-01,2.348423e-01,3,2,6.401219e+00,8.567672e+00,1
9.759600e-01,2.447440e-01,2.372265e-01,4,2,5.488831e+00,7.338463e+00,1
1.457655e+00,5.465300e-01,5.390644e-01,6,7,6.208673e+00,8.505728e+00,1
1.216143e+00,5.537210e-01,5.469322e-01,5,7,7.576181e+00,9.512941e+00,1
1.950796e+00,4.663230e-01,4.599094e-01,8,6,6.849651e+00,7.732455e+00,1
7.346500e-01,3.662140e-01,3.590584e-01,3,4,8.015619e+00,8.614578e+00,1
7.341090e-01,1.692070e-01,1.618862e-01,3,1,8.763528e+00,8.991918e+00,1
7.384130e-01,3.026670e-01,2.949238e-01,3,3,1.159478e+01,1.166586e+01,1
7.350970e-01,2.173470e-01,2.100468e-01,3,2,6.803328e+00,6.803324e+00,1
7.358760e-01,2.323360e-01,2.260208e-01,3,2,1.023130e+01,1.028418e+01,1
7.322120e-01,4.089240e-01,4.000664e-01,3,2,1.389846e+01,1.641865e+01,0
1.450523e+00,4.907150e-01,4.839897e-01,6,6,1.011812e+01,1.035922e+01,1
1.455239e+00,4.036370e-01,3.938675e-01,6,2,1.197218e+01,1.394096e+01,0
1.215931e+00,4.061810e-01,3.981590e-01,5,5,6.839998e+00,6.907367e+00,1
7.346670e-01,2.506460e-01,2.439022e-01,3,2,7.178411e+00,7.384242e+00,1
7.356150e-01,1.791590e-01,1.730919e-01,3,1,7.900474e+00,8.414458e+00,1
9.732270e-01,4.405030e-01,4.341602e-01,4,5,7.546646e+00,8.150456e+00,1
7.352070e-01,3.066260e-01,2.992153e-01,3,3,7.157012e+00,7.864133e+00,1
9.727050e-01,4.845440e-01,4.780293e-01,4,6,7.943304e+00,8.786106e+00,1
7.394510e-01,3.806300e-01,3.731251e-01,3,4,8.610013e+00,9.364507e+00,1
7.369670e-01,3.075130e-01,3.001690e-01,3,3,9.551019e+00,1.029603e+01,1
7.299930e-01,5.520560e-01,5.440712e-01,3,7,9.296221e+00,1.088144e+01,1
7.347290e-01,4.859400e-01,4.789829e-01,3,6,9.397203e+00,1.137687e+01,1
7.308590e-01,9.431210e-01,9.360313e-01,3,13,1.238657e+01,1.495876e+01,1
7.291470e-01,1.290786e+00,1.281261e+00,3,16,1.069287e+01,1.262536e+01,0
1.452010e+00,6.173280e-01,6.082058e-01,6,5,9.283416e+00,1.250511e+01,0
1.457112e+00,2.908670e-01,2.813339e-01,6,0,9.509918e+00,1.222679e+01,0
1.227080e+00,7.515150e-01,7.438660e-01,5,10,6.226577e+00,6.850236e+00,1
7.347830e-01,2.917750e-01,2.839565e-01,3,3,7.109542e+00,7.124473e+00,1
7.351880e-01,2.320780e-01,2.260208e-01,3,2,5.242694e+00,5.242688e+00,1
7.349670e-01,2.412270e-01,2.338886e-01,3,2,3.975845e+00,4.021746e+00,1
7.337750e-01,1.800050e-01,1.728535e-01,3,1,3.771634e+00,3.782252e+00,1
7.347110e-01,1.597110e-01,1.530647e-01,3,1,4.922834e+00,4.922843e+00,1
7.345770e-01,2.334610e-01,2.269745e-01,3,2,8.028116e+00,8.183525e+00,1
7.278940e-01,3.599300e-01,3.528595e-01,3,4,1.124128e+01,1.185582e+01,1
1.461369e+00,6.569890e-01,6.480217e-01,6,6,1.619758e+01,2.041339e+01,0
1.448783e+00,7.121360e-01,7.033348e-01,6,7,1.516432e+01,1.830386e+01,0
9.796030e-01,9.591730e-01,9.510517e-01,4,14,1.240077e+01,1.307090e+01,1
9.644810e-01,7.001710e-01,6.928444e-01,4,10,9.918366e+00,9.924658e+00,1
1.458548e+00,2.884420e-01,2.810955e-01,6,3,7.785621e+00,7.798596e+00,1
9.778620e-01,9.371180e-01,9.291172e-01,4,14,9.985159e+00,1.023944e+01,1
1.460219e+00,5.178020e-01,5.111694e-01,6,7,8.229494e+00,8.423554e+00,1
1.458443e+00,4.085930e-01,4.010201e-01,6,5,1.051876e+01,1.073073e+01,1
1.458713e+00,9.084230e-01,9.012222e-01,6,13,1.197126e+01,1.259702e+01,1
9.789730e-01,6.384430e-01,6.299019e-01,4,9,8.837604e+00,8.899712e+00,1
7.266800e-01,3.167860e-01,3.089905e-01,3,3,7.425198e+00,7.528206e+00,1
7.343560e-01,2.270750e-01,2.200603e-01,3,2,1.038096e+01,1.068821e+01,1
1.700356e+00,3.117480e-01,3.051758e-01,7,3,1.144453e+01,1.192703e+01,1
1.217953e+00,4.786050e-01,4.699230e-01,5,3,9.749458e+00,1.069522e+01,0
7.355210e-01,3.659280e-01,3.581047e-01,3,4,1.017987e+01,1.104328e+01,1
7.211710e-01,6.718340e-01,6.630421e-01,3,6,6.743683e+00,7.449895e+00,0
1.454412e+00,2.877320e-01,2.775192e-01,6,0,7.298598e+00,1.040193e+01,0
1.459843e+00,7.385850e-01,7.309914e-01,6,10,6.569091e+00,7.812041e+00,1
1.217670e+00,4.792080e-01,4.711151e-01,5,6,7.816957e+00,9.096456e+00,1
9.773830e-01,6.239580e-01,6.141663e-01,4,5,1.035968e+01,1.254178e+01,0
9.658710e-01,5.521780e-01,5.431175e-01,4,4,1.039104e+01,1.396983e+01,0
1.459092e+00,6.715880e-01,6.616116e-01,6,6,1.067847e+01,1.362123e+01,0
1.454449e+00,5.111450e-01,5.028248e-01,6,6,9.078598e+00,1.111227e+01,1
9.719980e-01,8.135040e-01,8.058548e-01,4,11,8.422987e+00,9.915866e+00,1
7.297780e-01,4.312330e-01,4.229546e-01,3,5,8.117281e+00,8.350717e+00,1
7.286480e-01,1.890710e-01,1.809597e-01,3,1,8.576503e+00,8.667036e+00,1
7.336470e-01,1.616630e-01,1.540184e-01,3,1,9.253218e+00,9.253194e+00,1
7.339820e-01,1.038300e-01,9.703636e-02,3,0,6.682212e+00,6.682206e+00,1
7.343670e-01,1.030800e-01,9.703636e-02,3,0,5.287231e+00,5.287229e+00,1
7.342290e-01,1.034870e-01,9.703636e-02,3,0,7.903617e+00,7.903561e+00,1
7.340330e-01,1.025870e-01,9.584427e-02,3,0,6.711099e+00,6.710775e+00,1
9.768410e-01,2.333080e-01,2.272129e-01,4,2,1.143534e+01,1.193428e+01,1
1.216953e+00,2.399490e-01,2.338886e-01,5,2,7.539933e+00,7.562106e+00,1
7.199770e-01,3.493690e-01,3.411770e-01,3,4,7.619612e+00,7.618982e+00,1
1.454374e+00,2.184130e-01,2.110004e-01,6,2,1.035098e+01,1.033693e+01,1
1.461738e+00,3.715420e-01,3.640652e-01,6,2,9.371257e+00,1.029286e+01,0
1.454906e+00,6.972430e-01,6.880760e-01,6,7,1.042048e+01,1.185844e+01,0
1.460350e+00,2.769290e-01,2.691746e-01,6,0,1.365873e+01,1.782250e+01,0
1.459043e+00,6.506230e-01,6.439686e-01,6,9,9.773224e+00,1.017174e+01,1
9.671350e-01,6.078610e-01,6.010532e-01,4,8,8.709983e+00,9.167328e+00,1
1.210331e+00,5.280150e-01,5.209446e-01,5,7,8.654427e+00,9.258167e+00,1
1.699609e+00,4.882050e-01,4.799366e-01,7,6,6.759806e+00,7.293114e+00,1
1.700446e+00,3.171780e-01,3.108978e-01,7,3,7.763439e+00,8.416019e+00,1
9.759190e-01,2.314690e-01,2.200603e-01,4,2,6.474265e+00,7.103620e+00,1
7.367140e-01,4.361820e-01,4.279613e-01,3,5,5.172230e+00,6.450295e+00,1
7.375010e-01,2.418970e-01,2.338886e-01,3,2,4.180894e+00,4.580547e+00,1
7.354820e-01,2.385530e-01,2.319813e-01,3,2,4.223924e+00,4.733694e+00,1
7.395530e-01,3.662160e-01,3.600121e-01,3,4,4.536343e+00,5.663128e+00,1
7.375680e-01,4.811630e-01,4.730225e-01,3,6,6.782055e+00,7.783780e+00,1
7.351680e-01,2.301850e-01,2.231598e-01,3,2,7.399462e+00,7.679940e+00,1
7.234980e-01,3.671650e-01,3.597736e-01,3,4,6.797997e+00,6.800713e+00,1
7.333230e-01,3.005960e-01,2.930164e-01,3,3,7.862929e+00,7.867237e+00,1
7.409650e-01,2.255680e-01,2.191067e-01,3,2,7.209934e+00,7.209934e+00,1
7.294610e-01,1.730130e-01,1.661777e-01,3,1,1.013760e+01,1.024677e+01,1
7.235130e-01,3.655580e-01,3.559589e-01,3,1,1.437863e+01,1.592826e+01,0
1.219537e+00,3.561540e-01,3.466606e-01,5,1,1.926965e+01,2.262968e+01,0
9.711680e-01,5.303350e-01,5.230904e-01,4,4,2.018957e+01,2.291666e+01,0
1.217851e+00,2.824340e-01,2.729893e-01,5,0,2.024135e+01,2.210107e+01,0
9.672530e-01,8.665320e-01,8.571148e-01,4,10,1.982213e+01,2.597058e+01,0
9.718420e-01,2.793720e-01,2.701283e-01,4,0,1.891360e+01,2.659166e+01,0
9.775380e-01,5.724640e-01,5.621910e-01,4,5,1.766774e+01,2.687407e+01,0
1.457553e+00,2.858070e-01,2.772808e-01,6,0,1.519862e+01,2.536337e+01,0
1.217631e+00,6.167620e-01,6.060600e-01,5,5,1.216500e+01,1.902505e+01,0
9.799280e-01,5.349420e-01,5.271435e-01,4,4,9.304028e+00,1.300270e+01,0
9.785630e-01,1.360752e+00,1.350403e+00,4,17,9.599759e+00,1.483986e+01,0
1.462240e+00,2.921510e-01,2.830029e-01,6,0,8.317286e+00,1.295958e+01,0
1.210444e+00,9.523620e-01,9.429455e-01,5,11,7.122533e+00,1.257481e+01,0
1.221199e+00,2.855350e-01,2.758503e-01,5,0,5.892030e+00,9.603828e+00,0
1.699454e+00,1.614280e-01,1.530647e-01,7,1,5.147326e+00,5.147112e+00,1
7.292890e-01,1.649900e-01,1.590252e-01,3,1,7.242746e+00,7.242542e+00,1
9.689530e-01,2.274250e-01,2.210140e-01,4,2,6.197619e+00,6.201017e+00,1
7.284770e-01,1.084630e-01,1.008511e-01,3,0,6.059088e+00,6.397302e+00,1
7.321570e-01,3.021090e-01,2.949238e-01,3,3,6.072774e+00,6.072803e+00,1
7.289990e-01,1.658770e-01,1.580715e-01,3,1,2.757707e+00,2.757703e+00,1
7.341490e-01,1.022010e-01,9.393692e-02,3,0,2.405365e+00,2.405366e+00,1
7.343490e-01,1.022020e-01,9.584427e-02,3,0,2.635298e+00,2.635300e+00,1
7.335200e-01,1.016130e-01,9.512901e-02,3,0,1.237488e+00,1.237488e+00,1
7.343360e-01,1.015150e-01,9.489059e-02,3,0,1.203135e+00,1.203136e+00,1
7.356080e-01,1.022200e-01,9.608269e-02,3,0,2.339173e+00,2.339177e+00,1
7.298880e-01,1.032980e-01,9.703636e-02,3,0,2.622252e+00,2.622254e+00,1
7.297210e-01,1.767510e-01,1.699924e-01,3,1,5.806939e+00,5.807520e+00,1
7.292180e-01,1.658560e-01,1.590252e-01,3,1,6.111280e+00,6.111278e+00,1
7.248550e-01,1.692840e-01,1.618862e-01,3,1,5.227143e+00,5.232754e+00,1
7.351280e-01,2.275930e-01,2.210140e-01,3,2,5.949890e+00,5.953668e+00,1
9.768800e-01,1.610990e-01,1.540184e-01,4,1,5.449281e+00,5.449278e+00,1
7.296190e-01,2.415890e-01,2.341270e-01,3,2,5.754447e+00,5.763927e+00,1
7.338740e-01,2.172280e-01,2.088547e-01,3,2,5.017375e+00,5.017369e+00,1
7.351390e-01,1.699050e-01,1.628399e-01,3,1,4.373984e+00,4.472404e+00,1
7.351820e-01,1.602790e-01,1.528263e-01,3,1,4.573762e+00,4.573764e+00,1
7.346230e-01,1.021780e-01,9.489059e-02,3,0,5.014800e+00,5.014802e+00,1
7.347510e-01,2.345160e-01,2.272129e-01,3,2,8.166818e+00,8.203289e+00,1
7.347390e-01,2.394560e-01,2.329350e-01,3,2,9.005096e+00,9.039727e+00,1
7.349020e-01,1.758570e-01,1.690388e-01,3,1,1.060880e+01,1.075979e+01,1
7.359990e-01,3.527690e-01,3.426075e-01,3,1,1.418689e+01,1.505875e+01,0
9.794520e-01,4.197410e-01,4.100800e-01,4,2,1.243986e+01,1.428079e+01,0
9.693330e-01,6.798470e-01,6.699562e-01,4,6,1.403529e+01,1.612003e+01,0
1.456311e+00,4.822900e-01,4.730225e-01,6,3,1.307500e+01,1.511993e+01,0
1.468484e+00,7.464550e-01,7.369518e-01,6,7,1.322585e+01,1.528354e+01,0
1.463013e+00,4.201660e-01,4.110336e-01,6,2,1.481396e+01,1.835650e+01,0
1.703049e+00,2.836180e-01,2.737045e-01,7,0,1.742088e+01,2.400357e+01,0
1.702486e+00,2.838350e-01,2.741814e-01,7,0,1.743885e+01,2.296333e+01,0
9.726330e-01,8.569330e-01,8.471012e-01,4,9,1.593179e+01,2.256342e+01,0
1.449715e+00,8.020310e-01,7.929802e-01,6,8,1.709262e+01,2.320472e+01,0
1.457971e+00,4.722240e-01,4.618168e-01,6,3,1.696073e+01,2.272000e+01,0
1.461089e+00,1.218321e+00,1.208782e+00,6,15,1.547723e+01,2.084516e+01,0
1.457089e+00,2.832820e-01,2.729893e-01,6,0,1.675957e+01,2.602581e+01,0
1.465873e+00,2.824280e-01,2.729893e-01,6,0,1.719527e+01,2.808997e+01,0
1.456731e+00,1.236721e+00,1.227140e+00,6,15,1.650059e+01,2.485854e+01,0
1.451879e+00,2.857840e-01,2.763271e-01,6,0,1.455089e+01,1.727566e+01,0
1.453560e+00,2.082808e+00,2.074242e+00,6,28,1.567235e+01,1.933323e+01,0
1.455784e+00,2.933870e-01,2.830029e-01,6,0,2.001833e+01,2.570514e+01,0
1.461589e+00,1.257266e+00,1.248121e+00,6,15,2.065967e+01,2.511483e+01,0
1.461180e+00,2.946510e-01,2.870560e-01,6,0,2.144300e+01,2.215744e+01,0
1.457552e+00,2.933860e-01,2.841949e-01,6,0,2.802685e+01,2.722554e+01,0
9.696780e-01,1.124604e+00,1.116753e+00,4,13,3.771156e+01,4.108114e+01,0
1.457008e+00,2.943740e-01,2.844334e-01,6,0,2.795532e+01,3.129281e+01,0
1.694457e+00,3.590940e-01,3.507137e-01,7,1,3.423535e+01,4.107885e+01,0
1.448772e+00,6.829410e-01,6.737709e-01,6,6,3.234451e+01,4.232170e+01,0
1.471066e+00,7.970490e-01,7.860661e-01,6,8,2.912474e+01,4.210646e+01,0
9.781240e-01,3.508750e-01,3.421307e-01,4,1,2.379480e+01,3.710259e+01,0
1.445960e+00,6.092610e-01,6.000996e-01,6,5,2.712006e+01,4.189722e+01,0
1.457198e+00,4.152300e-01,4.060268e-01,6,2,2.426999e+01,3.712853e+01,0
1.458761e+00,4.135770e-01,4.038811e-01,6,2,2.478425e+01,3.786039e+01,0
1.450978e+00,8.523760e-01,8.428097e-01,6,9,1.563565e+01,2.020073e+01,0
1.213082e+00,1.087393e+00,1.078129e+00,5,13,1.492203e+01,1.821081e+01,0
1.211518e+00,1.099112e+00,1.089096e+00,5,13,1.709281e+01,1.979924e+01,0
9.783160e-01,6.085320e-01,5.991459e-01,4,5,1.166656e+01,1.340711e+01,0
7.278350e-01,1.093097e+00,1.084089e+00,3,13,1.472535e+01,1.580998e+01,0
9.766560e-01,6.111690e-01,6.017685e-01,4,5,1.549669e+01,1.940900e+01,0
9.687840e-01,1.252423e+00,1.242876e+00,4,16,1.657823e+01,2.274523e+01,0
1.220140e+00,8.556210e-01,8.461475e-01,5,9,1.296517e+01,1.668301e+01,0
1.220607e+00,2.917110e-01,2.820492e-01,5,0,1.398015e+01,1.699613e+01,0
1.214469e+00,1.004953e+00,9.951591e-01,5,12,1.158755e+01,1.792442e+01,0
1.454868e+00,2.642720e-01,2.560616e-01,6,0,1.091630e+01,1.746111e+01,0
7.284450e-01,4.118470e-01,4.029274e-01,3,2,1.087938e+01,1.359826e+01,0
1.460870e+00,2.841850e-01,2.751350e-01,6,0,1.212157e+01,1.843033e+01,0
1.457981e+00,9.431390e-01,9.338856e-01,6,11,9.611461e+00,1.137089e+01,0
9.753890e-01,2.817900e-01,2.729893e-01,4,0,9.673923e+00,9.855676e+00,0
7.246630e-01,7.711630e-01,7.619858e-01,3,8,9.757089e+00,1.145475e+01,0
7.330940e-01,3.425280e-01,3.323555e-01,3,1,9.240462e+00,9.996475e+00,0
7.338160e-01,2.269230e-01,2.188683e-01,3,2,8.032400e+00,8.279178e+00,1
7.282770e-01,3.162080e-01,3.080368e-01,3,3,7.856984e+00,7.883768e+00,1
7.338430e-01,1.679880e-01,1.609325e-01,3,1,8.910291e+00,9.164169e+00,1
7.342940e-01,2.446120e-01,2.379417e-01,3,2,1.005464e+01,1.068038e+01,1
7.368030e-01,6.105570e-01,6.012917e-01,3,5,1.422467e+01,1.666856e+01,0
1.462179e+00,2.873470e-01,2.777576e-01,6,0,1.783524e+01,2.108986e+01,0
1.212130e+00,9.969620e-01,9.887218e-01,5,14,1.522818e+01,1.706171e+01,1
7.376030e-01,3.681330e-01,3.609657e-01,3,4,1.757648e+01,1.990328e+01,1
7.379980e-01,8.635240e-01,8.561611e-01,3,11,1.453522e+01,1.701560e+01,1
7.294970e-01,1.418589e+00,1.411915e+00,3,21,1.046597e+01,1.271885e+01,1
9.724870e-01,1.229192e+00,1.221895e+00,4,17,1.104082e+01,1.436487e+01,1
1.461552e+00,1.245706e+00,1.239061e+00,6,18,9.503731e+00,1.190659e+01,1
9.703660e-01,8.131420e-01,8.060932e-01,4,11,8.732323e+00,9.928887e+00,1
7.369200e-01,5.086530e-01,5.021095e-01,3,6,6.988810e+00,8.975464e+00,1
7.332150e-01,5.403330e-01,5.328655e-01,3,7,7.869287e+00,1.044131e+01,1
7.275370e-01,6.322480e-01,6.260872e-01,3,8,6.394494e+00,8.719968e+00,1
9.698070e-01,8.815870e-01,8.721352e-01,4,9,7.490214e+00,1.065901e+01,0
1.213346e+00,8.505840e-01,8.430481e-01,5,12,4.922876e+00,7.180166e+00,1
1.463079e+00,6.158200e-01,6.062984e-01,6,5,7.704254e+00,1.247822e+01,0
1.454736e+00,1.518574e+00,1.509190e+00,6,20,1.317928e+01,1.805712e+01,0
1.461636e+00,6.597870e-01,6.530285e-01,6,9,8.268384e+00,9.502627e+00,1
9.779260e-01,4.056800e-01,3.979206e-01,4,5,6.502439e+00,6.512379e+00,1
7.335540e-01,1.612800e-01,1.540184e-01,3,1,7.012104e+00,7.012101e+00,1
7.353350e-01,1.027480e-01,9.512901e-02,3,0,6.703115e+00,6.703065e+00,1
7.335880e-01,1.024190e-01,9.608269e-02,3,0,7.020335e+00,7.019413e+00,1
9.770940e-01,3.753400e-01,3.659725e-01,4,2,8.712119e+00,9.947916e+00,0
1.461235e+00,2.607160e-01,2.510548e-01,6,0,7.880117e+00,1.045786e+01,0
1.461948e+00,4.803770e-01,4.720688e-01,6,4,7.634170e+00,8.622413e+00,0
1.462060e+00,3.692950e-01,3.600121e-01,6,2,8.844263e+00,1.064046e+01,0
1.456127e+00,2.589970e-01,2.503395e-01,6,0,1.284081e+01,1.747803e+01,0
1.463267e+00,8.380500e-01,8.289814e-01,6,9,1.716247e+01,1.960835e+01,0
1.458367e+00,2.808140e-01,2.741814e-01,6,0,2.550490e+01,2.911629e+01,0
1.454096e+00,2.827490e-01,2.739429e-01,6,0,3.069155e+01,3.448903e+01,0
1.455635e+00,1.083732e+00,1.073837e+00,6,13,3.033220e+01,3.848176e+01,0
1.451647e+00,8.130110e-01,8.041859e-01,6,8,3.230229e+01,4.181050e+01,0
1.457875e+00,1.914181e+00,1.905203e+00,6,25,2.871194e+01,3.996480e+01,0
1.457399e+00,2.938790e-01,2.841949e-01,6,0,3.010523e+01,4.411877e+01,0
1.455952e+00,7.859120e-01,7.770061e-01,6,8,2.981929e+01,4.412307e+01,0
1.452510e+00,2.145753e+00,2.136230e+00,6,29,2.647539e+01,3.648311e+01,0
1.462165e+00,2.912910e-01,2.822876e-01,6,0,2.481461e+01,3.501780e+01,0
1.462176e+00,2.903460e-01,2.803802e-01,6,0,2.082896e+01,3.021444e+01,0
1.462214e+00,2.715662e+00,2.706051e+00,6,38,2.025270e+01,3.309608e+01,0
1.457874e+00,2.937880e-01,2.851486e-01,6,0,2.086087e+01,3.714034e+01,0
1.455325e+00,4.917340e-01,4.820824e-01,6,3,2.583383e+01,4.568664e+01,0
1.458134e+00,3.028660e-01,2.930164e-01,6,0,4.211240e+01,6.616182e+01,0
1.694692e+00,1.327549e+00,1.318932e+00,7,16,4.987492e+01,7.146977e+01,0
1.455967e+00,1.392363e+00,1.383066e+00,6,17,5.760745e+01,7.344633e+01,0
1.459783e+00,2.878440e-01,2.779961e-01,6,0,5.600303e+01,6.817478e+01,0
1.459039e+00,2.856270e-01,2.760887e-01,6,0,6.044852e+01,7.147343e+01,0
1.699737e+00,2.852880e-01,2.760887e-01,7,0,7.116692e+01,8.342878e+01,0
1.697607e+00,2.870290e-01,2.779961e-01,7,0,7.265954e+01,8.408536e+01,0
1.699504e+00,2.853520e-01,2.768040e-01,7,0,6.796870e+01,8.194380e+01,0
1.451699e+00,2.366124e+00,2.357960e+00,6,33,6.428344e+01,8.050490e+01,0
1.696165e+00,2.885170e-01,2.789497e-01,7,0,5.655264e+01,7.451255e+01,0
1.455769e+00,2.889410e-01,2.801418e-01,6,0,5.085362e+01,6.934576e+01,0
1.452584e+00,7.202920e-01,7.107258e-01,6,7,4.722763e+01,6.676829e+01,0
1.704358e+00,4.672320e-01,4.572868e-01,7,3,5.028481e+01,7.087508e+01,0
1.456078e+00,2.817620e-01,2.710819e-01,6,0,3.696111e+01,5.497578e+01,0
1.451790e+00,5.889340e-01,5.803108e-01,6,5,3.549144e+01,5.021403e+01,0
1.212711e+00,2.803450e-01,2.713203e-01,5,0,3.910779e+01,5.385881e+01,0
1.462996e+00,6.895160e-01,6.799698e-01,6,7,3.658754e+01,4.865911e+01,0
9.739170e-01,6.952960e-01,6.859303e-01,4,7,3.777699e+01,4.759396e+01,0
1.461219e+00,4.033610e-01,3.960133e-01,6,2,3.838539e+01,4.590923e+01,0
9.703100e-01,6.535680e-01,6.442070e-01,4,6,3.550045e+01,4.197462e+01,0
9.732620e-01,7.277550e-01,7.193089e-01,4,7,2.643934e+01,3.255955e+01,0
1.457200e+00,1.172607e+00,1.163006e+00,6,13,2.279243e+01,2.836559e+01,0
1.454484e+00,1.301221e+00,1.291990e+00,6,15,2.183024e+01,2.787148e+01,0
1.458771e+00,2.985560e-01,2.892017e-01,6,0,2.288386e+01,2.763061e+01,0
9.755390e-01,1.432537e+00,1.423120e+00,4,17,2.029696e+01,2.705849e+01,0
1.453763e+00,1.369681e+00,1.361132e+00,6,16,1.582780e+01,2.228416e+01,0
1.445627e+00,1.362489e+00,1.355886e+00,6,19,1.546196e+01,2.130113e+01,1
1.456693e+00,1.454368e+00,1.446009e+00,6,21,1.536783e+01,1.918774e+01,1
1.449937e+00,1.359080e+00,1.352072e+00,6,20,1.362299e+01,1.675723e+01,1
1.457897e+00,1.064589e+00,1.055241e+00,6,12,1.287036e+01,1.591878e+01,0
9.752720e-01,2.940930e-01,2.808571e-01,4,0,1.062389e+01,1.156349e+01,0
1.458171e+00,6.913720e-01,6.840229e-01,6,9,1.169443e+01,1.336544e+01,1
1.456932e+00,6.303480e-01,6.229877e-01,6,8,1.190512e+01,1.308593e+01,1
1.462888e+00,3.544620e-01,3.480911e-01,6,4,1.185979e+01,1.326891e+01,1
9.796060e-01,5.642590e-01,5.571842e-01,4,7,1.278707e+01,1.374097e+01,1
1.457189e+00,6.547870e-01,6.449223e-01,6,6,2.022970e+01,2.397304e+01,0
1.463778e+00,2.843740e-01,2.748966e-01,6,0,2.617634e+01,3.237806e+01,0
1.455654e+00,2.905020e-01,2.822876e-01,6,0,3.042194e+01,3.920106e+01,0
1.461360e+00,2.825900e-01,2.729893e-01,6,0,3.128535e+01,3.928154e+01,0
1.449418e+00,1.140613e+00,1.130581e+00,6,14,3.074038e+01,3.677359e+01,0
1.692829e+00,3.486900e-01,3.392696e-01,7,1,2.727853e+01,3.063763e+01,0
9.714260e-01,8.291100e-01,8.199215e-01,4,9,2.355243e+01,2.696079e+01,0
1.456995e+00,2.821440e-01,2.741814e-01,6,0,2.516054e+01,3.253558e+01,0
1.455907e+00,3.974680e-01,3.881454e-01,6,2,2.540111e+01,3.608998e+01,0
1.703105e+00,4.251190e-01,4.160404e-01,7,3,2.685311e+01,3.818996e+01,0
1.217910e+00,4.233430e-01,4.150867e-01,5,3,2.926864e+01,4.015502e+01,0
1.220463e+00,4.464840e-01,4.367828e-01,5,3,3.311522e+01,4.290515e+01,0
1.456939e+00,5.400970e-01,5.302429e-01,6,4,3.498780e+01,4.291821e+01,0
1.457422e+00,4.699240e-01,4.603863e-01,6,3,3.822179e+01,4.772164e+01,0
1.459611e+00,1.118075e+00,1.108408e+00,6,13,3.293468e+01,4.321872e+01,0
1.462123e+00,2.890230e-01,2.813339e-01,6,0,3.996812e+01,5.565870e+01,0
1.461630e+00,5.480690e-01,5.388260e-01,6,4,4.046725e+01,5.987691e+01,0
9.718120e-01,6.872830e-01,6.771088e-01,4,6,3.803414e+01,5.875093e+01,0
1.454132e+00,1.236956e+00,1.226902e+00,6,15,3.322608e+01,5.191665e+01,0
1.698307e+00,1.054577e+00,1.044035e+00,7,12,3.318861e+01,5.385033e+01,0
1.457139e+00,8.324820e-01,8.223057e-01,6,8,3.087719e+01,5.224047e+01,0
1.454645e+00,1.585763e+00,1.576185e+00,6,20,2.742628e+01,4.755279e+01,0
1.462024e+00,2.894190e-01,2.799034e-01,6,0,2.635941e+01,5.018680e+01,0
1.460182e+00,2.892310e-01,2.791882e-01,6,0,2.198808e+01,4.528545e+01,0
1.455861e+00,1.647606e+00,1.637459e+00,6,21,2.278890e+01,4.577221e+01,0
1.210478e+00,1.381797e+00,1.371861e+00,5,17,1.907995e+01,3.309524e+01,0
1.458843e+00,2.901220e-01,2.808571e-01,6,0,1.477294e+01,2.062022e+01,0
9.678400e-01,1.713401e+00,1.705170e+00,4,23,1.492081e+01,1.656512e+01,0
1.223969e+00,5.954110e-01,5.860329e-01,5,5,1.593037e+01,1.691326e+01,0
1.457449e+00,2.785000e-01,2.698898e-01,6,0,1.499633e+01,1.521732e+01,0
1.454890e+00,1.005422e+00,9.958744e-01,6,12,1.296733e+01,1.414955e+01,0
1.211214e+00,5.849310e-01,5.772114e-01,5,5,1.265775e+01,1.291399e+01,0
1.458489e+00,5.036160e-01,4.971027e-01,6,7,1.206665e+01,1.206211e+01,1
1.459862e+00,4.245640e-01,4.158020e-01,6,3,1.141797e+01,1.159183e+01,0
1.457683e+00,2.088950e-01,2.021790e-01,6,2,1.266870e+01,1.264759e+01,1
1.458100e+00,2.817470e-01,2.760887e-01,6,3,1.220740e+01,1.219657e+01,1
1.466883e+00,3.928480e-01,3.850460e-01,6,5,9.771026e+00,9.760507e+00,1
9.766650e-01,4.266220e-01,4.181862e-01,4,3,1.043106e+01,1.068140e+01,0
1.465135e+00,3.769170e-01,3.671646e-01,6,2,1.157947e+01,1.323190e+01,0
9.672310e-01,2.224580e-01,2.150536e-01,4,2,1.047980e+01,1.051340e+01,1
7.336780e-01,3.255720e-01,3.149509e-01,3,1,1.163688e+01,1.210760e+01,0
7.282050e-01,4.875790e-01,4.808903e-01,3,6,1.300001e+01,1.329741e+01,1
7.303580e-01,5.884220e-01,5.788803e-01,3,5,1.302809e+01,1.364242e+01,0
7.314470e-01,2.820100e-01,2.727509e-01,3,0,1.215043e+01,1.375187e+01,0
7.313400e-01,2.177740e-01,2.110004e-01,3,2,8.449951e+00,8.449944e+00,1
7.337680e-01,2.613220e-01,2.532005e-01,3,0,1.230096e+01,1.243695e+01,0
7.331340e-01,2.962850e-01,2.899170e-01,3,3,1.313324e+01,1.306271e+01,1
7.318250e-01,4.223660e-01,4.160404e-01,3,5,1.169701e+01,1.181980e+01,1
7.291820e-01,3.503730e-01,3.411770e-01,3,1,1.280927e+01,1.364346e+01,0
7.388950e-01,5.379610e-01,5.292892e-01,3,4,1.234201e+01,1.287206e+01,0
7.297830e-01,5.226470e-01,5.140305e-01,3,4,1.403467e+01,1.514610e+01,0
1.460051e+00,5.934040e-01,5.850792e-01,6,5,1.788124e+01,2.034682e+01,0
1.461849e+00,2.824660e-01,2.727509e-01,6,0,1.829572e+01,2.449853e+01,0
1.448987e+00,9.363280e-01,9.267330e-01,6,11,1.682020e+01,2.322431e+01,0
1.450362e+00,4.818840e-01,4.732609e-01,6,3,1.757920e+01,2.318276e+01,0
1.472462e+00,2.833470e-01,2.751350e-01,6,0,1.934820e+01,2.593913e+01,0
1.462432e+00,6.568260e-01,6.468296e-01,6,6,1.604880e+01,2.089674e+01,0
1.455463e+00,7.448930e-01,7.369518e-01,6,10,1.384507e+01,1.412714e+01,1
1.456696e+00,5.288940e-01,5.221367e-01,6,7,1.577037e+01,1.619511e+01,1
1.454852e+00,7.794270e-01,7.710457e-01,6,8,1.517720e+01,1.595903e+01,0
1.457852e+00,3.651700e-01,3.569126e-01,6,4,1.222101e+01,1.279663e+01,1
1.215153e+00,4.185980e-01,4.119873e-01,5,5,1.459819e+01,1.514236e+01,1
9.621100e-01,6.663080e-01,6.582737e-01,4,6,1.582366e+01,1.828908e+01,0
7.294300e-01,5.483340e-01,5.390644e-01,3,4,1.329144e+01,1.474770e+01,0
7.297170e-01,4.838830e-01,4.751682e-01,3,3,1.618728e+01,1.705323e+01,0
9.687680e-01,4.005870e-01,3.907681e-01,4,2,1.277490e+01,1.646270e+01,0
9.764000e-01,2.876570e-01,2.789497e-01,4,0,1.261334e+01,1.836723e+01,0
9.705360e-01,5.291580e-01,5.199909e-01,4,4,1.311174e+01,1.902948e+01,0
1.461430e+00,2.823780e-01,2.729893e-01,6,0,1.492021e+01,1.791581e+01,0
1.450920e+00,7.668640e-01,7.579327e-01,6,8,1.388861e+01,1.522916e+01,0
1.461873e+00,3.971130e-01,3.883839e-01,6,2,1.256968e+01,1.412869e+01,0
1.457896e+00,6.958230e-01,6.859303e-01,6,7,1.066971e+01,1.138993e+01,0
1.456750e+00,4.687370e-01,4.596710e-01,6,3,1.007476e+01,1.104040e+01,0
1.451037e+00,4.382490e-01,4.310608e-01,6,5,9.821985e+00,1.006125e+01,1
9.769960e-01,2.800220e-01,2.729893e-01,4,3,8.846542e+00,9.185609e+00,1
9.766880e-01,4.964080e-01,4.889965e-01,4,6,1.106223e+01,1.143626e+01,1
9.713820e-01,8.730290e-01,8.640289e-01,4,9,8.983936e+00,1.050414e+01,0
1.460576e+00,4.730300e-01,4.670620e-01,6,6,8.184166e+00,9.082444e+00,1
9.677030e-01,4.740540e-01,4.670620e-01,4,6,7.340838e+00,8.121044e+00,1
7.346150e-01,1.080100e-01,1.018047e-01,3,0,6.227323e+00,6.319553e+00,1
7.304380e-01,3.056500e-01,2.989769e-01,3,3,5.126110e+00,5.250085e+00,1
7.304680e-01,3.026510e-01,2.961159e-01,3,3,5.302644e+00,5.573229e+00,1
7.338950e-01,2.947840e-01,2.880096e-01,3,3,5.377221e+00,5.867278e+00,1
7.343160e-01,1.748810e-01,1.668930e-01,3,1,5.085954e+00,5.538501e+00,1
7.344850e-01,1.795680e-01,1.730919e-01,3,1,5.385348e+00,5.671955e+00,1
7.313300e-01,3.769960e-01,3.700256e-01,3,4,4.515170e+00,4.527279e+00,1
7.351500e-01,1.591690e-01,1.521111e-01,3,1,4.896327e+00,4.896329e+00,1
7.317660e-01,3.462920e-01,3.371239e-01,3,1,5.962383e+00,7.162578e+00,0
9.909140e-01,3.453260e-01,3.371239e-01,4,1,8.325323e+00,9.753575e+00,0
9.649030e-01,1.728250e-01,1.609325e-01,4,1,7.194364e+00,7.485406e+00,1
7.332830e-01,3.667730e-01,3.600121e-01,3,4,8.551802e+00,8.633629e+00,1
1.458401e+00,3.635410e-01,3.559589e-01,6,4,8.361771e+00,8.371354e+00,1
1.459386e+00,4.073530e-01,3.998280e-01,6,5,8.168923e+00,8.157299e+00,1
1.452370e+00,3.774990e-01,3.678799e-01,6,4,8.589833e+00,8.623308e+00,1
1.457509e+00,2.903410e-01,2.820492e-01,6,3,6.726907e+00,6.908032e+00,1
1.456334e+00,1.081190e-01,1.020432e-01,6,0,5.449750e+00,5.650053e+00,1
9.752240e-01,2.421660e-01,2.338886e-01,4,2,6.140341e+00,6.200005e+00,1
7.337450e-01,2.431240e-01,2.369881e-01,3,2,5.002867e+00,5.035214e+00,1
7.386380e-01,3.057450e-01,2.989769e-01,3,3,4.668705e+00,4.931012e+00,1
7.342460e-01,1.085450e-01,1.008511e-01,3,0,3.665885e+00,3.888853e+00,1
7.348530e-01,1.802470e-01,1.718998e-01,3,1,4.458020e+00,4.473441e+00,1
7.337030e-01,2.305810e-01,2.229214e-01,3,2,6.428961e+00,6.578148e+00,1
7.259920e-01,1.786610e-01,1.721382e-01,3,1,5.311448e+00,5.515049e+00,1
7.389530e-01,4.918000e-01,4.849434e-01,3,6,8.681961e+00,9.889763e+00,1
1.467111e+00,5.313380e-01,5.214214e-01,6,4,1.387166e+01,1.612225e+01,0
1.221031e+00,4.706960e-01,4.630089e-01,5,6,1.176852e+01,1.235525e+01,1
1.220402e+00,4.721330e-01,4.649162e-01,5,6,9.154047e+00,9.384943e+00,1
9.646060e-01,2.179250e-01,2.119541e-01,4,2,7.202049e+00,7.202049e+00,1
7.347010e-01,1.694160e-01,1.630783e-01,3,1,9.167343e+00,9.167428e+00,1
7.344990e-01,1.603850e-01,1.540184e-01,3,1,8.297977e+00,8.297970e+00,1
7.339820e-01,1.692580e-01,1.609325e-01,3,1,9.339497e+00,9.354330e+00,1
7.342990e-01,2.274630e-01,2.210140e-01,3,2,1.018502e+01,1.018590e+01,1
7.350380e-01,1.597320e-01,1.521111e-01,3,1,9.543066e+00,9.541095e+00,1
9.729670e-01,2.835980e-01,2.770424e-01,4,3,8.539974e+00,8.539525e+00,1
1.452142e+00,3.920930e-01,3.850460e-01,6,5,7.232483e+00,7.230788e+00,1
9.696270e-01,6.393650e-01,6.330013e-01,4,9,8.767869e+00,8.800090e+00,1
1.457817e+00,2.794760e-01,2.720356e-01,6,3,7.706902e+00,7.786405e+00,1
1.457402e+00,2.855000e-01,2.779961e-01,6,3,6.621122e+00,6.647804e+00,1
1.461698e+00,2.330170e-01,2.257824e-01,6,2,5.693960e+00,5.693406e+00,1
1.459591e+00,3.547140e-01,3.480911e-01,6,4,4.933584e+00,4.948749e+00,1
1.457926e+00,2.355120e-01,2.279282e-01,6,2,4.157961e+00,4.169533e+00,1
9.848910e-01,3.115840e-01,3.049374e-01,4,3,4.593215e+00,4.978595e+00,1
7.341190e-01,1.675170e-01,1.611710e-01,3,1,3.617848e+00,3.928937e+00,1
7.266020e-01,1.097090e-01,1.020432e-01,3,0,4.346818e+00,4.794401e+00,1
7.299190e-01,1.793930e-01,1.721382e-01,3,1,4.672444e+00,4.934282e+00,1
7.220910e-01,1.850130e-01,1.780987e-01,3,1,5.426785e+00,5.776846e+00,1
7.447050e-01,3.656630e-01,3.590584e-01,3,4,7.192746e+00,8.242915e+00,1
7.351900e-01,3.051130e-01,2.977848e-01,3,3,6.769466e+00,7.591329e+00,1
7.256520e-01,1.746770e-01,1.671314e-01,3,1,5.937445e+00,6.311459e+00,1
7.355390e-01,5.147750e-01,5.080700e-01,3,6,6.933120e+00,7.038647e+00,1
7.349090e-01,1.739950e-01,1.680851e-01,3,1,7.235936e+00,7.403603e+00,1
7.371160e-01,3.077150e-01,2.999306e-01,3,3,4.177083e+00,4.448385e+00,1
7.295670e-01,1.085620e-01,1.020432e-01,3,0,4.337874e+00,4.691874e+00,1
7.292250e-01,1.132080e-01,1.051426e-01,3,0,4.577674e+00,4.755519e+00,1
7.375260e-01,4.471110e-01,4.401207e-01,3,5,4.827613e+00,4.932823e+00,1
7.288200e-01,1.661740e-01,1.599789e-01,3,1,4.312998e+00,4.393025e+00,1
7.287510e-01,1.839010e-01,1.761913e-01,3,1,3.724831e+00,3.782748e+00,1
7.312080e-01,3.002160e-01,2.930164e-01,3,3,4.093739e+00,4.093747e+00,1
7.261050e-01,1.783450e-01,1.721382e-01,3,1,5.527265e+00,5.665142e+00,1
7.294200e-01,2.345020e-01,2.281666e-01,3,2,6.892321e+00,6.928935e+00,1
7.285110e-01,2.344640e-01,2.269745e-01,3,2,4.943102e+00,5.016347e+00,1
7.347470e-01,1.081610e-01,1.010895e-01,3,0,5.210269e+00,5.758415e+00,1
7.343110e-01,1.084430e-01,1.008511e-01,3,0,4.365294e+00,4.513644e+00,1
7.339240e-01,2.364940e-01,2.298355e-01,3,2,6.361660e+00,6.401369e+00,1
1.462015e+00,1.740610e-01,1.668930e-01,6,1,8.056460e+00,8.374452e+00,1
1.207878e+00,2.990140e-01,2.908707e-01,5,3,9.733310e+00,1.052868e+01,1
9.757210e-01,2.971360e-01,2.889633e-01,4,3,8.305559e+00,8.705466e+00,1
7.255140e-01,3.543960e-01,3.459454e-01,3,4,1.206529e+01,1.326983e+01,1
9.763600e-01,3.632190e-01,3.569126e-01,4,4,7.168878e+00,7.210273e+00,1
7.347920e-01,1.727550e-01,1.649857e-01,3,1,7.461167e+00,7.465387e+00,1
7.255730e-01,4.066920e-01,3.991127e-01,3,5,8.334619e+00,8.341183e+00,1
9.701560e-01,3.348610e-01,3.268719e-01,4,4,7.963639e+00,7.963763e+00,1
7.206280e-01,3.015700e-01,2.942085e-01,3,3,7.627976e+00,7.629666e+00,1
7.305780e-01,1.084570e-01,1.010895e-01,3,0,7.203901e+00,7.256543e+00,1
7.334680e-01,1.084550e-01,1.020432e-01,3,0,6.024209e+00,6.027237e+00,1
7.332480e-01,2.887120e-01,2.820492e-01,3,3,7.188293e+00,7.222061e+00,1
7.342590e-01,3.069360e-01,2.999306e-01,3,3,6.853110e+00,7.057074e+00,1
7.351130e-01,1.783440e-01,1.721382e-01,3,1,4.636613e+00,4.808669e+00,1
7.348090e-01,2.285860e-01,2.210140e-01,3,2,3.780741e+00,3.780742e+00,1
7.349290e-01,1.680610e-01,1.611710e-01,3,1,4.557140e+00,4.557759e+00,1
7.342840e-01,2.486110e-01,2.410412e-01,3,2,4.871432e+00,4.940096e+00,1
7.305680e-01,1.789800e-01,1.709461e-01,3,1,5.099581e+00,5.507135e+00,1
7.337320e-01,1.078070e-01,1.020432e-01,3,0,5.600661e+00,5.836346e+00,1
7.340860e-01,2.263290e-01,2.179146e-01,3,2,6.185383e+00,6.187178e+00,1
7.283450e-01,3.720360e-01,3.640652e-01,3,4,8.228436e+00,9.090175e+00,1
7.288570e-01,4.879810e-01,4.820824e-01,3,6,6.931187e+00,7.147802e+00,1
7.356260e-01,3.446930e-01,3.380775e-01,3,4,8.282636e+00,8.351277e+00,1
7.355430e-01,3.023070e-01,2.949238e-01,3,3,5.309104e+00,5.309344e+00,1
7.356070e-01,3.052000e-01,2.989769e-01,3,3,5.423599e+00,5.735415e+00,1
7.346610e-01,1.086290e-01,1.020432e-01,3,0,4.196122e+00,4.702348e+00,1
7.335500e-01,1.077100e-01,9.989738e-02,3,0,3.291553e+00,3.349853e+00,1
7.343730e-01,2.430980e-01,2.350807e-01,3,2,5.414613e+00,5.881965e+00,1
7.343200e-01,2.251800e-01,2.191067e-01,3,2,6.930222e+00,7.710369e+00,1
7.360150e-01,3.054650e-01,2.980232e-01,3,3,9.188717e+00,1.025972e+01,1
1.461055e+00,3.571600e-01,3.490448e-01,6,4,8.932917e+00,9.316451e+00,1
1.456360e+00,1.101350e-01,1.029968e-01,6,0,7.726739e+00,7.992704e+00,1
1.457170e+00,2.267160e-01,2.198219e-01,6,2,1.144122e+01,1.212095e+01,1
9.773720e-01,3.526850e-01,3.459454e-01,4,4,1.288263e+01,1.347780e+01,1
7.447570e-01,4.787480e-01,4.687309e-01,3,3,1.068321e+01,1.078517e+01,0
7.402900e-01,2.871890e-01,2.779961e-01,3,0,1.081456e+01,1.122603e+01,0
9.767620e-01,3.475560e-01,3.390312e-01,4,1,1.335806e+01,1.475711e+01,0
9.767300e-01,3.200370e-01,3.111362e-01,4,1,1.003345e+01,1.077341e+01,0
9.753060e-01,1.020450e-01,9.584427e-02,4,0,8.500757e+00,8.500731e+00,1
7.335780e-01,1.025490e-01,9.512901e-02,3,0,8.073953e+00,8.073943e+00,1
7.345950e-01,1.025540e-01,9.584427e-02,3,0,8.455079e+00,8.455080e+00,1
7.350610e-01,1.018640e-01,9.489059e-02,3,0,7.864979e+00,7.864974e+00,1
7.359900e-01,2.300860e-01,2.231598e-01,3,2,7.339740e+00,7.339966e+00,1
9.751720e-01,1.664030e-01,1.599789e-01,4,1,8.078953e+00,8.085409e+00,1
7.274260e-01,5.573380e-01,5.509853e-01,3,7,9.389206e+00,9.581312e+00,1
1.452586e+00,7.130850e-01,7.059574e-01,6,10,1.134656e+01,1.169455e+01,1
1.457762e+00,5.876810e-01,5.791187e-01,6,5,1.101157e+01,1.109807e+01,0
1.458366e+00,2.839560e-01,2.748966e-01,6,0,1.172840e+01,1.172318e+01,0
1.456433e+00,9.603460e-01,9.508133e-01,6,11,1.145051e+01,1.199583e+01,0
1.457713e+00,2.810990e-01,2.708435e-01,6,0,1.214329e+01,1.184822e+01,0

