6.581540e-01,1.619029e+00,1.128912e+00,2,0,0.000000e+00,0.000000e+00
9.479810e-01,2.692820e-01,2.570152e-01,3,0,5.599925e-02,5.599875e-02
9.494000e-01,2.448650e-01,2.357960e-01,3,0,6.481755e-02,6.481375e-02
9.928020e-01,2.531130e-01,2.441406e-01,3,0,1.593668e-01,1.592123e-01
1.582203e+00,2.530860e-01,2.439022e-01,5,0,9.930685e-02,9.917797e-02
1.605460e+00,1.676207e+00,1.667023e+00,5,4,2.786146e-01,2.757624e-01
2.210426e+00,1.269276e+00,1.256943e+00,7,3,3.254334e-01,3.236700e-01
3.143415e+00,1.283361e+00,1.271963e+00,10,3,4.204066e-01,4.202133e-01
3.171046e+00,9.317600e-01,9.210110e-01,10,2,2.234649e-01,2.199461e-01
1.575685e+00,2.753370e-01,2.639294e-01,5,0,2.602265e-01,2.601382e-01
1.266364e+00,2.701860e-01,2.591610e-01,4,0,1.706769e-01,1.704124e-01
1.262356e+00,9.397670e-01,9.307861e-01,4,2,1.758239e-01,1.744313e-01
2.192788e+00,6.044700e-01,5.950928e-01,7,1,3.153046e-01,3.133347e-01
2.526861e+00,1.249009e+00,1.240015e+00,8,3,4.406201e-01,4.378556e-01
2.506601e+00,9.491640e-01,9.369850e-01,8,2,3.696445e-01,3.669959e-01
1.264499e+00,1.650872e+00,1.641989e+00,4,4,5.083524e-01,5.063959e-01
1.889025e+00,8.998540e-01,8.888245e-01,6,2,4.216826e-01,4.169035e-01
1.266137e+00,1.272054e+00,1.262903e+00,4,3,3.094527e-01,3.071458e-01
1.887930e+00,2.485630e-01,2.379417e-01,6,0,3.450568e-01,3.425045e-01
1.260801e+00,5.719760e-01,5.631447e-01,4,1,3.828921e-01,3.812863e-01
1.566792e+00,9.635510e-01,9.539127e-01,5,2,4.115840e-01,4.043988e-01
3.470053e+00,9.039100e-01,8.950233e-01,11,2,3.651286e-01,3.503849e-01
3.139728e+00,2.727250e-01,2.620220e-01,10,0,2.885213e-01,2.821283e-01
1.890488e+00,1.323453e+00,1.312017e+00,6,3,3.996540e-01,3.986889e-01
2.207534e+00,9.023410e-01,8.931160e-01,7,2,4.377253e-01,4.373989e-01
1.881891e+00,6.134920e-01,6.020069e-01,6,1,4.449616e-01,4.424483e-01
3.465552e+00,9.135820e-01,9.038448e-01,11,2,3.591882e-01,3.512303e-01
1.891488e+00,9.696890e-01,9.591579e-01,6,2,2.834026e-01,2.820173e-01
3.468261e+00,9.443010e-01,9.338856e-01,11,2,2.250993e-01,2.099309e-01
3.135481e+00,6.618120e-01,6.508827e-01,10,1,1.455173e-01,1.376169e-01
1.261252e+00,1.277189e+00,1.267910e+00,4,3,2.485357e-01,2.462449e-01
1.888307e+00,1.270454e+00,1.260996e+00,6,3,2.743029e-01,2.739939e-01
3.782067e+00,5.772070e-01,5.688667e-01,12,1,2.336521e-01,2.251293e-01
1.265739e+00,1.660334e+00,1.649141e+00,4,4,2.936336e-01,2.897929e-01
2.190867e+00,5.807980e-01,5.700588e-01,7,1,1.646376e-01,1.631200e-01
1.886955e+00,9.055170e-01,8.969307e-01,6,2,1.133624e-01,1.129434e-01
2.511649e+00,9.468370e-01,9.381771e-01,8,2,1.687212e-01,1.671068e-01
1.891164e+00,2.555650e-01,2.460480e-01,6,0,1.719678e-01,1.695712e-01
2.192619e+00,1.275498e+00,1.266003e+00,7,3,2.925087e-01,2.902723e-01
2.199294e+00,1.595378e+00,1.584053e+00,7,4,2.208572e-01,2.192220e-01
1.891987e+00,2.655292e+00,2.645969e+00,6,7,4.691031e-01,4.574632e-01
2.202475e+00,1.548063e+00,1.537800e+00,7,4,4.646750e-01,4.623026e-01
2.196541e+00,1.906189e+00,1.894951e+00,7,5,3.058570e-01,3.006928e-01
1.885714e+00,6.242520e-01,6.120205e-01,6,1,3.896830e-01,3.890447e-01
1.891149e+00,5.713020e-01,5.631447e-01,6,1,3.401029e-01,3.400375e-01
1.263994e+00,6.197260e-01,6.070137e-01,4,1,2.901342e-01,2.899467e-01
1.573596e+00,5.777140e-01,5.691051e-01,5,1,2.943609e-01,2.940447e-01
3.157606e+00,2.449080e-01,2.360344e-01,10,0,2.622241e-01,2.514010e-01
1.581874e+00,2.607190e-01,2.501011e-01,5,0,1.599527e-01,1.598887e-01
1.262814e+00,2.388610e-01,2.298355e-01,4,0,5.930507e-02,5.928857e-02
9.389430e-01,2.512180e-01,2.419949e-01,3,0,1.388369e-01,1.385552e-01
2.532260e+00,5.947410e-01,5.810261e-01,8,1,2.622142e-01,2.586802e-01
2.198726e+00,5.986660e-01,5.891323e-01,7,1,2.353545e-01,2.346133e-01
1.260165e+00,5.989000e-01,5.900860e-01,4,1,1.955533e-01,1.927070e-01
2.836969e+00,9.364390e-01,9.269714e-01,9,2,1.930323e-01,1.786216e-01
2.196076e+00,1.622286e+00,1.612902e+00,7,4,2.276771e-01,2.247802e-01
3.138630e+00,1.903261e+00,1.892805e+00,10,5,1.017441e-01,1.004819e-01
3.160063e+00,2.754850e-01,2.651215e-01,10,0,1.526782e-01,1.414461e-01
1.892897e+00,6.114830e-01,6.029606e-01,6,1,2.432053e-01,2.428971e-01
2.193136e+00,5.932740e-01,5.838871e-01,7,1,2.621280e-01,2.608543e-01
1.273543e+00,2.999395e+00,2.990007e+00,4,8,2.428912e-01,2.396118e-01
2.203400e+00,1.588878e+00,1.580000e+00,7,4,6.090566e-01,5.984834e-01
2.198248e+00,1.561675e+00,1.550913e+00,7,4,1.096543e+00,1.081581e+00
2.201454e+00,3.778271e+00,3.767967e+00,7,11,5.847505e-01,5.804651e-01
2.202985e+00,5.990970e-01,5.879402e-01,7,1,6.302560e-01,6.294939e-01
1.263001e+00,2.305447e+00,2.296925e+00,4,6,3.471937e-01,3.447774e-01
2.201982e+00,1.228558e+00,1.219034e+00,7,3,2.954759e-01,2.950909e-01
3.467616e+00,6.036680e-01,5.931854e-01,11,1,1.677321e-01,1.638809e-01
2.526426e+00,1.327524e+00,1.316071e+00,8,3,1.942391e-01,1.938497e-01
2.829840e+00,1.242212e+00,1.233101e+00,9,3,9.452624e-02,9.411785e-02
1.261290e+00,2.588390e-01,2.479553e-01,4,0,2.107252e-01,2.102074e-01
1.576265e+00,5.971340e-01,5.888939e-01,5,1,2.459584e-01,2.457363e-01
2.512635e+00,5.930060e-01,5.829334e-01,8,1,2.716876e-01,2.703246e-01
1.898249e+00,5.909260e-01,5.819798e-01,6,1,3.225268e-01,3.222710e-01
2.195685e+00,1.300147e+00,1.290083e+00,7,3,4.461018e-01,4.435307e-01
2.200688e+00,1.261359e+00,1.252174e+00,7,3,4.604049e-01,4.579725e-01
1.258195e+00,1.227673e+00,1.218081e+00,4,3,3.379143e-01,3.335708e-01
1.881953e+00,5.999060e-01,5.910397e-01,6,1,2.756638e-01,2.717292e-01
2.507271e+00,1.287462e+00,1.277924e+00,8,3,2.802039e-01,2.775657e-01
1.883337e+00,9.455780e-01,9.350777e-01,6,2,1.216655e-01,1.196595e-01
2.215825e+00,2.982142e+00,2.974033e+00,7,8,4.869929e-01,4.798298e-01
1.890185e+00,2.196769e+00,2.185822e+00,6,6,3.532821e-01,3.483014e-01
1.886338e+00,9.088030e-01,8.990765e-01,6,2,2.713484e-01,2.675257e-01
1.880644e+00,9.595870e-01,9.479523e-01,6,2,3.945073e-01,3.938531e-01
2.199417e+00,3.605111e+00,3.597021e+00,7,10,4.945086e-01,4.848115e-01
2.197818e+00,5.654620e-01,5.550385e-01,7,1,7.926230e-01,7.806477e-01
2.193397e+00,5.589180e-01,5.490780e-01,7,1,1.144703e+00,1.134760e+00
2.209740e+00,2.287930e-01,2.200603e-01,7,0,1.626222e+00,1.616430e+00
2.203641e+00,2.818945e+00,2.808094e+00,7,8,1.292574e+00,1.290104e+00
1.889322e+00,1.580251e+00,1.569033e+00,6,4,8.638166e-01,8.632945e-01
1.885853e+00,1.300756e+00,1.291990e+00,6,3,5.172218e-01,5.161273e-01
2.207067e+00,1.243686e+00,1.234055e+00,7,3,2.832157e-01,2.773754e-01
1.896807e+00,3.986545e+00,3.975868e+00,6,11,4.378293e-01,4.348936e-01
2.204111e+00,2.490388e+00,2.479076e+00,7,7,2.734519e-01,2.708563e-01
2.196991e+00,1.281143e+00,1.269817e+00,7,3,3.688368e-01,3.647490e-01
2.196798e+00,1.890194e+00,1.882076e+00,7,5,3.775778e-01,3.742723e-01
3.471691e+00,1.592683e+00,1.583099e+00,11,4,3.041584e-01,3.014148e-01
1.892049e+00,5.872590e-01,5.772114e-01,6,1,1.732908e-01,1.718511e-01
2.197969e+00,9.521340e-01,9.419918e-01,7,2,3.105633e-01,3.100419e-01
1.890398e+00,5.949270e-01,5.860329e-01,6,1,2.779150e-01,2.774659e-01
2.515751e+00,9.547030e-01,9.450912e-01,8,2,2.172439e-01,2.168677e-01
1.894628e+00,9.334680e-01,9.250641e-01,6,2,2.471369e-01,2.443235e-01
2.850599e+00,9.118450e-01,9.021759e-01,9,2,1.291659e-01,1.095503e-01
3.159604e+00,2.648240e-01,2.541542e-01,10,0,1.002567e-01,8.915479e-02
1.269067e+00,5.922770e-01,5.829334e-01,4,1,9.099266e-02,9.023853e-02
3.140122e+00,5.927040e-01,5.829334e-01,10,1,2.432813e-01,2.406035e-01
2.201501e+00,6.055900e-01,5.960464e-01,7,1,3.236350e-01,3.214011e-01
1.885045e+00,2.530830e-01,2.439022e-01,6,0,3.020532e-01,2.999000e-01
3.471313e+00,5.757230e-01,5.669594e-01,11,1,1.921653e-01,1.919817e-01
1.898917e+00,2.577200e-01,2.470016e-01,6,0,1.638317e-01,1.637067e-01
1.884474e+00,2.660960e-01,2.560616e-01,6,0,1.777211e-01,1.740846e-01
1.883913e+00,5.938710e-01,5.860329e-01,6,1,2.319853e-01,2.317318e-01
3.139558e+00,6.005280e-01,5.910397e-01,10,1,1.649622e-01,1.625348e-01
1.575137e+00,6.086630e-01,5.979538e-01,5,1,2.342697e-01,2.340579e-01
3.458938e+00,5.961860e-01,5.869865e-01,11,1,1.111885e-01,1.009324e-01
1.885166e+00,2.433660e-01,2.350807e-01,6,0,9.448311e-02,9.392303e-02
2.199048e+00,9.566510e-01,9.469986e-01,7,2,2.358463e-01,2.346440e-01
1.884106e+00,9.167620e-01,9.090900e-01,6,2,1.279643e-01,1.263724e-01
2.196602e+00,2.312310e+00,2.302885e+00,7,6,3.847099e-01,3.782034e-01
1.571564e+00,1.579384e+00,1.569033e+00,5,4,2.864194e-01,2.859748e-01
2.203214e+00,1.629649e+00,1.621008e+00,7,4,4.389197e-01,4.361070e-01
2.205409e+00,1.608823e+00,1.599073e+00,7,4,6.650158e-01,6.624628e-01
1.886533e+00,1.577938e+00,1.566887e+00,6,4,5.876906e-01,5.768948e-01
2.832040e+00,1.628031e+00,1.618862e+00,9,4,5.103458e-01,5.081360e-01
2.199668e+00,2.291685e+00,2.282143e+00,7,6,6.850608e-01,6.775992e-01
1.893411e+00,2.544483e+00,2.533913e+00,6,7,5.248502e-01,5.081131e-01
2.200173e+00,1.902675e+00,1.891851e+00,7,5,3.394337e-01,3.392295e-01
2.541653e+00,2.624360e-01,2.508163e-01,8,0,3.004362e-01,2.872960e-01
1.263063e+00,6.008640e-01,5.919933e-01,4,1,1.921962e-01,1.919628e-01
3.453963e+00,5.863190e-01,5.757809e-01,11,1,1.720017e-01,1.600582e-01
1.886605e+00,2.564280e-01,2.470016e-01,6,0,1.927138e-01,1.926445e-01
1.262227e+00,6.033180e-01,5.941391e-01,4,1,2.202280e-01,2.197343e-01
3.458575e+00,5.807720e-01,5.719662e-01,11,1,1.544435e-01,1.442634e-01
2.201279e+00,2.663850e-01,2.551079e-01,7,0,1.298540e-01,1.295006e-01
1.262863e+00,2.576080e-01,2.479553e-01,4,0,9.601527e-02,9.600721e-02
9.471820e-01,5.991030e-01,5.898476e-01,3,1,2.617410e-01,2.610952e-01
3.143159e+00,5.818150e-01,5.729198e-01,10,1,3.272118e-01,3.221252e-01
1.262224e+00,2.660640e-01,2.560616e-01,4,0,2.476787e-01,2.474254e-01
3.160832e+00,5.981170e-01,5.900860e-01,10,1,2.909419e-01,2.739091e-01
2.193048e+00,6.155890e-01,6.039143e-01,7,1,2.039234e-01,2.026681e-01
1.883171e+00,1.297942e+00,1.288891e+00,6,3,2.982009e-01,2.972711e-01
2.196249e+00,2.628190e-01,2.529621e-01,7,0,4.395492e-01,4.382483e-01
1.899515e+00,9.395970e-01,9.310246e-01,6,2,6.113071e-01,6.032515e-01
3.143200e+00,9.056270e-01,8.959770e-01,10,2,5.691552e-01,5.615177e-01
3.143367e+00,2.004172e+00,1.992941e+00,10,5,4.714767e-01,4.697605e-01
2.203982e+00,9.650720e-01,9.529591e-01,7,2,4.136542e-01,4.118359e-01
1.892556e+00,1.624710e+00,1.616001e+00,6,4,3.443799e-01,3.359885e-01
2.197305e+00,9.402790e-01,9.291172e-01,7,2,3.964098e-01,3.924061e-01
2.197323e+00,1.643377e+00,1.630783e+00,7,4,4.213407e-01,4.156196e-01
2.205963e+00,1.233701e+00,1.224041e+00,7,3,4.969627e-01,4.928731e-01
1.891149e+00,2.224846e+00,2.213955e+00,6,6,3.637136e-01,3.623598e-01
1.888168e+00,9.623850e-01,9.508133e-01,6,2,3.474009e-01,3.470966e-01
1.267522e+00,5.736630e-01,5.650520e-01,4,1,2.784011e-01,2.777791e-01
2.519737e+00,2.544320e-01,2.441406e-01,8,0,2.324384e-01,2.319927e-01
2.515763e+00,2.396920e-01,2.310276e-01,8,0,1.752157e-01,1.735697e-01
1.579062e+00,6.442470e-01,6.330013e-01,5,1,2.268425e-01,2.262063e-01
1.887751e+00,5.848190e-01,5.757809e-01,6,1,4.446105e-01,4.359245e-01
1.886068e+00,9.433060e-01,9.331703e-01,6,2,3.756690e-01,3.696210e-01
2.205345e+00,2.402070e-01,2.310276e-01,7,0,3.618044e-01,3.604428e-01
2.525362e+00,2.329144e+00,2.318859e+00,8,6,4.498106e-01,4.493933e-01
2.192240e+00,2.241825e+00,2.232075e+00,7,6,1.795929e-01,1.765190e-01
1.580164e+00,2.481940e-01,2.388954e-01,5,0,1.433088e-01,1.428517e-01
1.574993e+00,6.109400e-01,6.010532e-01,5,1,1.033030e-01,1.030034e-01
3.457415e+00,5.877690e-01,5.791187e-01,11,1,8.083418e-02,7.331370e-02
2.826824e+00,2.897930e-01,2.779961e-01,9,0,8.508180e-02,8.496285e-02
3.792113e+00,2.619470e-01,2.520084e-01,12,0,1.633227e-01,1.633212e-01
9.474220e-01,2.716140e-01,2.620220e-01,3,0,1.190660e-01,1.189291e-01
1.759730e+00,1.319718e+00,1.311064e+00,5,3,3.318929e-01,3.308646e-01
1.264829e+00,1.265451e+00,1.255035e+00,4,3,4.313165e-01,4.261955e-01
2.554766e+00,2.602880e-01,2.510548e-01,8,0,2.511739e-01,2.511665e-01
1.262334e+00,2.484940e-01,2.388954e-01,4,0,2.395638e-01,2.395193e-01
2.535054e+00,5.995630e-01,5.919933e-01,8,1,2.026630e-01,2.023463e-01
2.831177e+00,6.196720e-01,6.091595e-01,9,1,1.703299e-01,1.696379e-01
1.579574e+00,2.672630e-01,2.558231e-01,5,0,1.655745e-01,1.655297e-01
1.258679e+00,9.459180e-01,9.379387e-01,4,2,1.957824e-01,1.950250e-01
1.886290e+00,9.186710e-01,9.100437e-01,6,2,1.794737e-01,1.782943e-01
1.260781e+00,2.532210e-01,2.429485e-01,4,0,1.310514e-01,1.297277e-01
1.267139e+00,5.890000e-01,5.810261e-01,4,1,2.771573e-01,2.755826e-01
1.580672e+00,6.051590e-01,5.950928e-01,5,1,3.720715e-01,3.710643e-01
1.572200e+00,1.290137e+00,1.282215e+00,5,3,4.542365e-01,4.493988e-01
3.144000e+00,2.316900e+00,2.306938e+00,10,6,5.785620e-01,5.782257e-01
3.466717e+00,1.975566e+00,1.964092e+00,11,5,5.212663e-01,5.126712e-01
2.197024e+00,2.670870e-01,2.560616e-01,7,0,5.074848e-01,5.061688e-01
1.889433e+00,1.632102e+00,1.622915e+00,6,4,4.036355e-01,4.020456e-01
2.523828e+00,2.006135e+00,1.993895e+00,8,5,2.813886e-01,2.785108e-01
2.190736e+00,9.688870e-01,9.570122e-01,7,2,3.406109e-01,3.393661e-01
2.205858e+00,1.611471e+00,1.601934e+00,7,4,4.544526e-01,4.517056e-01
2.223378e+00,1.597942e+00,1.586914e+00,7,4,5.549860e-01,5.537565e-01
2.210383e+00,1.635036e+00,1.622915e+00,7,4,3.849438e-01,3.841948e-01
2.209644e+00,6.042090e-01,5.948544e-01,7,1,3.738296e-01,3.718979e-01
2.515097e+00,2.325237e+00,2.315044e+00,8,6,3.552495e-01,3.534760e-01
2.197852e+00,1.923744e+00,1.911879e+00,7,5,2.152098e-01,2.149863e-01
3.143880e+00,1.314361e+00,1.302958e+00,10,3,3.629769e-01,3.573346e-01
2.518358e+00,9.445460e-01,9.350777e-01,8,2,3.218195e-01,3.209564e-01
1.887931e+00,9.061940e-01,8.959770e-01,6,2,2.273751e-01,2.246745e-01
1.894949e+00,2.755850e-01,2.651215e-01,6,0,2.101145e-01,2.085364e-01
2.849114e+00,1.975876e+00,1.966953e+00,9,5,4.081304e-01,3.853071e-01
2.197703e+00,1.937278e+00,1.927137e+00,7,5,7.122586e-01,7.034605e-01
2.193132e+00,9.035280e-01,8.928776e-01,7,2,6.622561e-01,6.550015e-01
2.201075e+00,1.547645e+00,1.538992e+00,7,4,6.149266e-01,6.122871e-01
2.210094e+00,9.150890e-01,9.050369e-01,7,2,6.612548e-01,6.598386e-01
2.200774e+00,1.630341e+00,1.619816e+00,7,4,9.838887e-01,9.805032e-01
1.886741e+00,2.592049e+00,2.583027e+00,6,7,4.797919e-01,4.794660e-01
1.907507e+00,1.290605e+00,1.281023e+00,6,3,5.382116e-01,5.368873e-01
3.478799e+00,2.323069e+00,2.312183e+00,11,6,4.516050e-01,4.501213e-01
2.199496e+00,1.973698e+00,1.962185e+00,7,5,4.415066e-01,4.379754e-01
3.145603e+00,2.287173e+00,2.275944e+00,10,6,1.910995e-01,1.847027e-01
1.578974e+00,1.671343e+00,1.660109e+00,5,4,3.200491e-01,3.188297e-01
2.204116e+00,1.261247e+00,1.251936e+00,7,3,2.272110e-01,2.271855e-01
1.575432e+00,6.086540e-01,5.979538e-01,5,1,2.262724e-01,2.249627e-01
1.256612e+00,1.305057e+00,1.296043e+00,4,3,2.247863e-01,2.218766e-01
2.198785e+00,1.275981e+00,1.267195e+00,7,3,5.394782e-01,5.360141e-01
2.201307e+00,2.285333e+00,2.274990e+00,7,6,1.040405e+00,1.032235e+00
2.197152e+00,2.910128e+00,2.900124e+00,7,8,6.266897e-01,6.221630e-01
2.195606e+00,2.525290e-01,2.419949e-01,7,0,7.640920e-01,7.593312e-01
2.199848e+00,1.895965e+00,1.886129e+00,7,5,6.238792e-01,6.229393e-01
2.200093e+00,1.994252e+00,1.983881e+00,7,5,7.442626e-01,7.417413e-01
1.574030e+00,2.624267e+00,2.614021e+00,5,7,3.462625e-01,3.415399e-01
2.196513e+00,9.413220e-01,9.319782e-01,7,2,2.817320e-01,2.787669e-01
1.570353e+00,1.600153e+00,1.590014e+00,5,4,1.461774e-01,1.461123e-01
1.268518e+00,2.502650e-01,2.419949e-01,4,0,1.416944e-01,1.408966e-01
1.888004e+00,9.523880e-01,9.429455e-01,6,2,1.641983e-01,1.610179e-01
2.195668e+00,9.393480e-01,9.300709e-01,7,2,2.946494e-01,2.921437e-01
3.143579e+00,1.578061e+00,1.567125e+00,10,4,1.683448e-01,1.683317e-01
1.263794e+00,2.720530e-01,2.608299e-01,4,0,1.972012e-01,1.971086e-01
2.519643e+00,5.975620e-01,5.888939e-01,8,1,1.962388e-01,1.958054e-01
2.829490e+00,6.214470e-01,6.098747e-01,9,1,2.601771e-01,2.592250e-01
1.266739e+00,2.451820e-01,2.369881e-01,4,0,1.585058e-01,1.577639e-01
1.581815e+00,6.152550e-01,6.048679e-01,5,1,1.872274e-01,1.856297e-01
2.201712e+00,1.282618e+00,1.273870e+00,7,3,1.866164e-01,1.854907e-01
1.887565e+00,6.116270e-01,6.010532e-01,6,1,2.528733e-01,2.477583e-01
2.200595e+00,2.308485e+00,2.300024e+00,7,6,5.676925e-01,5.628858e-01
2.198599e+00,5.747130e-01,5.650520e-01,7,1,7.238450e-01,7.190992e-01
3.144239e+00,2.571639e+00,2.559900e+00,10,7,4.840378e-01,4.838092e-01
2.192619e+00,1.317456e+00,1.304865e+00,7,3,5.308543e-01,5.274474e-01
1.258972e+00,9.312840e-01,9.222031e-01,4,2,3.580389e-01,3.555377e-01
1.888010e+00,2.436410e-01,2.341270e-01,6,0,1.866145e-01,1.858874e-01
1.264013e+00,2.334917e+00,2.326965e+00,4,6,2.888452e-01,2.800552e-01
2.514434e+00,2.229475e+00,2.218962e+00,8,6,1.569388e-01,1.539596e-01
1.256953e+00,1.319368e+00,1.308918e+00,4,3,2.718429e-01,2.681885e-01
3.460159e+00,9.111670e-01,9.019375e-01,11,2,1.767519e-01,1.688323e-01
2.194256e+00,5.986150e-01,5.879402e-01,7,1,1.877582e-01,1.775841e-01
1.886757e+00,6.240770e-01,6.129742e-01,6,1,2.116934e-01,2.092003e-01
2.202298e+00,5.929030e-01,5.841255e-01,7,1,2.817336e-01,2.807946e-01
2.834961e+00,9.515390e-01,9.410381e-01,9,2,1.755924e-01,1.583512e-01
1.259183e+00,9.625680e-01,9.529591e-01,4,2,2.642392e-01,2.547560e-01
2.195819e+00,2.300242e+00,2.290964e+00,7,6,5.768777e-01,5.687179e-01
2.508442e+00,2.903079e+00,2.892971e+00,8,8,3.738678e-01,3.724727e-01
1.583318e+00,6.295920e-01,6.189346e-01,5,1,2.815235e-01,2.809444e-01
1.888574e+00,5.756820e-01,5.669594e-01,6,1,1.850091e-01,1.840589e-01
1.884636e+00,6.236490e-01,6.129742e-01,6,1,2.035704e-01,1.996962e-01
2.194795e+00,9.314690e-01,9.219646e-01,7,2,2.311447e-01,2.299373e-01
2.193799e+00,1.655216e+00,1.645088e+00,7,4,4.491426e-01,4.438979e-01
1.888490e+00,1.943973e+00,1.934052e+00,6,5,3.714463e-01,3.660843e-01
3.144014e+00,9.200610e-01,9.109974e-01,10,2,3.181209e-01,3.175197e-01
1.895955e+00,2.632760e-01,2.529621e-01,6,0,3.012030e-01,2.997914e-01
1.584532e+00,9.557270e-01,9.469986e-01,5,2,3.289661e-01,3.273054e-01
2.221228e+00,1.616783e+00,1.605988e+00,7,4,4.285441e-01,4.251221e-01
2.193686e+00,1.271913e+00,1.261950e+00,7,3,7.128419e-01,7.048968e-01
2.195692e+00,5.598090e-01,5.509853e-01,7,1,8.777951e-01,8.730311e-01
2.515803e+00,2.221553e+00,2.212048e+00,8,6,7.457192e-01,7.447348e-01
2.192640e+00,1.636678e+00,1.626015e+00,7,4,6.672442e-01,6.652990e-01
2.192682e+00,9.328650e-01,9.238720e-01,7,2,4.756478e-01,4.754535e-01
2.205754e+00,2.487820e-01,2.398491e-01,7,0,4.552668e-01,4.541139e-01
2.204933e+00,2.624200e-01,2.541542e-01,7,0,4.779850e-01,4.756901e-01
1.262110e+00,1.639480e+00,1.630068e+00,4,4,3.906517e-01,3.860604e-01
2.200245e+00,1.271889e+00,1.261950e+00,7,3,4.231703e-01,4.216402e-01
2.194819e+00,1.245407e+00,1.236916e+00,7,3,3.492748e-01,3.490107e-01
1.261735e+00,9.646610e-01,9.539127e-01,4,2,3.052726e-01,3.023914e-01
2.202789e+00,2.427580e-01,2.341270e-01,7,0,4.518239e-01,4.511852e-01
2.202183e+00,9.588610e-01,9.491444e-01,7,2,5.304467e-01,5.284608e-01
2.200698e+00,2.266258e+00,2.257109e+00,7,6,9.381040e-01,9.267394e-01
2.194927e+00,8.810670e-01,8.711815e-01,7,2,1.096508e+00,1.088972e+00
2.203370e+00,1.265242e+00,1.255035e+00,7,3,1.125941e+00,1.119467e+00
1.891279e+00,2.539132e+00,2.529144e+00,6,7,1.003532e+00,9.927450e-01
3.152062e+00,1.236670e+00,1.225948e+00,10,3,8.421448e-01,8.414410e-01
2.210272e+00,3.295959e+00,3.285885e+00,7,9,8.887445e-01,8.860444e-01
1.888681e+00,1.575880e+00,1.564980e+00,6,4,8.513612e-01,8.390385e-01
1.892586e+00,1.889011e+00,1.878023e+00,6,5,7.458056e-01,7.420674e-01
2.199406e+00,9.290860e-01,9.181499e-01,7,2,4.852182e-01,4.840532e-01
1.263419e+00,5.764180e-01,5.669594e-01,4,1,3.521767e-01,3.510902e-01
3.156129e+00,2.869560e-01,2.739429e-01,10,0,2.939526e-01,2.864961e-01
1.593976e+00,9.612880e-01,9.520054e-01,5,2,3.853208e-01,3.837901e-01
1.576114e+00,1.679583e+00,1.667023e+00,5,4,4.751363e-01,4.734217e-01
1.587487e+00,1.616292e+00,1.605034e+00,5,4,3.075465e-01,3.074850e-01
1.262348e+00,2.789650e-01,2.670288e-01,4,0,2.903930e-01,2.898900e-01
1.584578e+00,2.392180e-01,2.300739e-01,5,0,3.355994e-01,3.354047e-01
3.797831e+00,2.562950e-01,2.470016e-01,12,0,1.830229e-01,1.828324e-01
1.271823e+00,2.544280e-01,2.448559e-01,4,0,1.743391e-01,1.742030e-01
3.160112e+00,2.585550e-01,2.439022e-01,10,0,1.727760e-01,1.652729e-01
1.266362e+00,2.430650e-01,2.348423e-01,4,0,1.944418e-01,1.943128e-01
1.583725e+00,1.300372e+00,1.291037e+00,5,3,2.430699e-01,2.424817e-01
2.206468e+00,1.589957e+00,1.580954e+00,7,4,2.124413e-01,2.121022e-01
1.575561e+00,9.601420e-01,9.500980e-01,5,2,2.558982e-01,2.554865e-01
2.513422e+00,9.285530e-01,9.200573e-01,8,2,2.559879e-01,2.528774e-01
3.140210e+00,6.024150e-01,5.919933e-01,10,1,2.104566e-01,2.090165e-01
1.266783e+00,9.710690e-01,9.598732e-01,4,2,1.593834e-01,1.578216e-01
2.204407e+00,9.302680e-01,9.219646e-01,7,2,5.045610e-01,5.028337e-01
2.194398e+00,2.965219e+00,2.954006e+00,7,8,1.040626e+00,1.033274e+00
2.199481e+00,2.871230e+00,2.860069e+00,7,8,1.180557e+00,1.169048e+00
3.150971e+00,3.111517e+00,3.099918e+00,10,9,9.170681e-01,9.161244e-01
2.196974e+00,1.249454e+00,1.236916e+00,7,3,7.542540e-01,7.511907e-01
1.890481e+00,6.037210e-01,5.941391e-01,6,1,6.443967e-01,6.320641e-01
1.889620e+00,2.256950e+00,2.247095e+00,6,6,5.698860e-01,5.598772e-01
1.269415e+00,6.159380e-01,6.041527e-01,4,1,3.486041e-01,3.444511e-01
2.193996e+00,1.588050e+00,1.579046e+00,7,4,2.997600e-01,2.954756e-01
2.197814e+00,2.900882e+00,2.890110e+00,7,8,6.517026e-01,6.388082e-01
2.193122e+00,5.684990e-01,5.578995e-01,7,1,9.236788e-01,9.127787e-01
2.199854e+00,8.567210e-01,8.480549e-01,7,2,1.072088e+00,1.066739e+00
2.205944e+00,3.201418e+00,3.190994e+00,7,9,9.302465e-01,9.263723e-01
1.891784e+00,2.569069e+00,2.557993e+00,6,7,7.258054e-01,7.182078e-01
1.577505e+00,1.271921e+00,1.260042e+00,5,3,5.419751e-01,5.408569e-01
1.571734e+00,2.664000e+00,2.654791e+00,5,7,4.914041e-01,4.852494e-01
2.199028e+00,2.302054e+00,2.291203e+00,7,6,7.842066e-01,7.699987e-01
2.208614e+00,1.183028e+00,1.172066e+00,7,3,7.235570e-01,7.125804e-01
2.207253e+00,1.886913e+00,1.875162e+00,7,5,5.996393e-01,5.972864e-01
2.219145e+00,8.993860e-01,8.900166e-01,7,2,5.200857e-01,5.195507e-01
1.888110e+00,1.276309e+00,1.266956e+00,6,3,4.515085e-01,4.409976e-01
2.198438e+00,5.825380e-01,5.722046e-01,7,1,4.073721e-01,4.033269e-01
1.887722e+00,9.237080e-01,9.138584e-01,6,2,5.962545e-01,5.902071e-01
2.206920e+00,9.880250e-01,9.760857e-01,7,2,6.020996e-01,5.967863e-01
2.534409e+00,9.934830e-01,9.789467e-01,8,2,6.036212e-01,6.033077e-01
2.831644e+00,1.356569e+00,1.341105e+00,9,3,5.749242e-01,5.729689e-01
1.574079e+00,6.152140e-01,6.031990e-01,5,1,4.606805e-01,4.601039e-01
2.199545e+00,9.717800e-01,9.601116e-01,7,2,3.665616e-01,3.650990e-01
2.202316e+00,1.338941e+00,1.325846e+00,7,3,4.322834e-01,4.270298e-01
2.199549e+00,9.400120e-01,9.279251e-01,7,2,3.104013e-01,3.085870e-01
2.205045e+00,1.277579e+00,1.265049e+00,7,3,1.590479e-01,1.560140e-01
2.512714e+00,6.005450e-01,5.898476e-01,8,1,1.211133e-01,1.194563e-01
1.579512e+00,2.618250e-01,2.520084e-01,5,0,1.669736e-01,1.669266e-01
1.266533e+00,5.972560e-01,5.891323e-01,4,1,2.365315e-01,2.357983e-01
1.881206e+00,5.975990e-01,5.879402e-01,6,1,2.828723e-01,2.767676e-01
2.843777e+00,9.149250e-01,9.059906e-01,9,2,2.397384e-01,2.389362e-01
1.579493e+00,2.548900e-01,2.439022e-01,5,0,1.849313e-01,1.848487e-01
1.261960e+00,9.504150e-01,9.419918e-01,4,2,2.654032e-01,2.644811e-01
3.140511e+00,9.234770e-01,9.140968e-01,10,2,8.655303e-02,8.654863e-02
9.465580e-01,2.783420e-01,2.679825e-01,3,0,8.166467e-02,8.158838e-02
1.260433e+00,2.387410e-01,2.310276e-01,4,0,8.346266e-02,8.326529e-02
3.155001e+00,2.448360e-01,2.360344e-01,10,0,9.649577e-02,8.109207e-02
3.472108e+00,2.629000e-01,2.529621e-01,11,0,1.168969e-01,1.164260e-01
1.261797e+00,2.496740e-01,2.400875e-01,4,0,1.466968e-01,1.465853e-01
3.463051e+00,2.569190e-01,2.479553e-01,11,0,1.121866e-01,1.114487e-01
1.263065e+00,9.589880e-01,9.498596e-01,4,2,1.640449e-01,1.609603e-01
2.192770e+00,9.327150e-01,9.238720e-01,7,2,2.248922e-01,2.234461e-01
1.263592e+00,9.290890e-01,9.200573e-01,4,2,1.436258e-01,1.430353e-01
1.583949e+00,2.428170e-01,2.341270e-01,5,0,1.589170e-01,1.589069e-01
3.476898e+00,2.391110e-01,2.310276e-01,11,0,1.571997e-01,1.414511e-01
2.826074e+00,2.736680e-01,2.629757e-01,9,0,1.913468e-01,1.909897e-01
3.150624e+00,2.667010e-01,2.567768e-01,10,0,2.210512e-01,1.991180e-01
1.585445e+00,2.516490e-01,2.429485e-01,5,0,1.008273e-01,1.004571e-01
1.266390e+00,2.662250e-01,2.570152e-01,4,0,8.063640e-02,8.056458e-02
1.258883e+00,2.457560e-01,2.369881e-01,4,0,1.323121e-01,1.321627e-01
1.263957e+00,2.391850e-01,2.307892e-01,4,0,1.003076e-01,1.002674e-01
3.161599e+00,2.417880e-01,2.341270e-01,10,0,1.064914e-01,8.954593e-02
3.467874e+00,6.189720e-01,6.098747e-01,11,1,2.133139e-01,2.107509e-01
1.572627e+00,6.209850e-01,6.108284e-01,5,1,1.581599e-01,1.578599e-01
3.497278e+00,5.930120e-01,5.838871e-01,11,1,2.907471e-01,2.820544e-01
1.576010e+00,2.653140e-01,2.539158e-01,5,0,5.349046e-01,5.329577e-01
2.513913e+00,1.289471e+00,1.281023e+00,8,3,4.049950e-01,4.020997e-01
1.255997e+00,9.114340e-01,9.019375e-01,4,2,2.956342e-01,2.906555e-01
1.570362e+00,2.001032e+00,1.991987e+00,5,5,4.344532e-01,4.336087e-01
2.199106e+00,9.010770e-01,8.919239e-01,7,2,5.800507e-01,5.786914e-01
3.141044e+00,1.262545e+00,1.251936e+00,10,3,2.709126e-01,2.704540e-01
9.468180e-01,2.656420e-01,2.551079e-01,3,0,2.097637e-01,2.086809e-01
1.574394e+00,9.465810e-01,9.379387e-01,5,2,2.373262e-01,2.368309e-01
3.464162e+00,9.276190e-01,9.188652e-01,11,2,9.280733e-02,9.270820e-02
3.156290e+00,2.557850e-01,2.458096e-01,10,0,6.206366e-02,4.469013e-02
3.153258e+00,2.644650e-01,2.539158e-01,10,0,1.250037e-01,1.136958e-01
2.200356e+00,2.746160e-01,2.641678e-01,7,0,1.699279e-01,1.691561e-01
1.259397e+00,6.044620e-01,5.948544e-01,4,1,1.717888e-01,1.713008e-01
2.196195e+00,1.300930e+00,1.291037e+00,7,3,3.630281e-01,3.599802e-01
1.885070e+00,1.249160e+00,1.239061e+00,6,3,2.521454e-01,2.480529e-01
3.468327e+00,6.044880e-01,5.950928e-01,11,1,2.461760e-01,2.459768e-01
1.582330e+00,2.499240e-01,2.410412e-01,5,0,2.250818e-01,2.250328e-01
3.157033e+00,2.577570e-01,2.481937e-01,10,0,1.967700e-01,1.935546e-01
3.468245e+00,2.476860e-01,2.388954e-01,11,0,2.411000e-01,2.394274e-01
2.507857e+00,6.225270e-01,6.129742e-01,8,1,2.962559e-01,2.943702e-01
3.462493e+00,6.131420e-01,6.031990e-01,11,1,2.296695e-01,2.251234e-01
1.893403e+00,6.329680e-01,6.229877e-01,6,1,2.320651e-01,2.312479e-01
2.195437e+00,5.951760e-01,5.860329e-01,7,1,2.485198e-01,2.476544e-01
1.885880e+00,2.570430e-01,2.470016e-01,6,0,2.397594e-01,2.359822e-01
2.210756e+00,9.323120e-01,9.238720e-01,7,2,2.800444e-01,2.768394e-01
3.214275e+00,1.331194e+00,1.322031e+00,10,3,1.971281e-01,1.740595e-01
1.265938e+00,2.362361e+00,2.352953e+00,4,6,1.888719e-01,1.861501e-01
2.195766e+00,1.232702e+00,1.223087e+00,7,3,2.068735e-01,2.062334e-01
2.192074e+00,6.011560e-01,5.910397e-01,7,1,2.215457e-01,2.209841e-01
1.891408e+00,9.354330e-01,9.269714e-01,6,2,2.054194e-01,2.049584e-01
1.572893e+00,2.325429e+00,2.315044e+00,5,6,5.631814e-01,5.599219e-01
2.195363e+00,1.954149e+00,1.944065e+00,7,5,3.554458e-01,3.539774e-01
2.513522e+00,1.244910e+00,1.235008e+00,8,3,3.295089e-01,3.273064e-01
1.883743e+00,5.887400e-01,5.791187e-01,6,1,2.857119e-01,2.842400e-01
2.197070e+00,1.652607e+00,1.641989e+00,7,4,2.748684e-01,2.706971e-01
2.208327e+00,9.070750e-01,8.969307e-01,7,2,1.900173e-01,1.890819e-01
3.145367e+00,6.010940e-01,5.910397e-01,10,1,2.722944e-01,2.721809e-01
1.886750e+00,2.812900e-01,2.708435e-01,6,0,3.291496e-01,3.274901e-01
3.144621e+00,5.777470e-01,5.688667e-01,10,1,2.811567e-01,2.670599e-01
1.582347e+00,6.336110e-01,6.229877e-01,5,1,2.557129e-01,2.550741e-01
2.198477e+00,5.756580e-01,5.669594e-01,7,1,2.115601e-01,2.111924e-01
1.890115e+00,6.255210e-01,6.158352e-01,6,1,1.842787e-01,1.821699e-01
2.831732e+00,9.334890e-01,9.250641e-01,9,2,1.506880e-01,1.492936e-01
1.883631e+00,6.174950e-01,6.070137e-01,6,1,1.166026e-01,1.162001e-01
1.262327e+00,5.925700e-01,5.841255e-01,4,1,1.424246e-01,1.412612e-01
1.572155e+00,6.090300e-01,5.950928e-01,5,1,1.601692e-01,1.589313e-01
1.268282e+00,5.908870e-01,5.819798e-01,4,1,1.425817e-01,1.409688e-01
1.261338e+00,9.490830e-01,9.400845e-01,4,2,1.830959e-01,1.806715e-01
3.138637e+00,5.807580e-01,5.719662e-01,10,1,1.801736e-01,1.736396e-01
3.149133e+00,2.579800e-01,2.479553e-01,10,0,2.084665e-01,1.865800e-01
3.149541e+00,2.411080e-01,2.319813e-01,10,0,2.432595e-01,2.243525e-01
1.583909e+00,2.652180e-01,2.548695e-01,5,0,1.865470e-01,1.864604e-01
1.271703e+00,2.667409e+00,2.659082e+00,4,7,3.279037e-01,3.255993e-01
2.195040e+00,1.245560e+00,1.235962e+00,7,3,6.535035e-01,6.449911e-01
2.199535e+00,2.532864e+00,2.521992e+00,7,7,4.795888e-01,4.780572e-01
3.458614e+00,9.383310e-01,9.269714e-01,11,2,2.992349e-01,2.911015e-01
2.210438e+00,9.456650e-01,9.360313e-01,7,2,2.622162e-01,2.621428e-01
3.144165e+00,5.814780e-01,5.710125e-01,10,1,2.801981e-01,2.743183e-01
1.260885e+00,2.704150e-01,2.598763e-01,4,0,2.043588e-01,2.037072e-01
1.258377e+00,5.983040e-01,5.900860e-01,4,1,2.251424e-01,2.228810e-01
2.195290e+00,5.982050e-01,5.888939e-01,7,1,2.443332e-01,2.434810e-01
2.196020e+00,1.620947e+00,1.610994e+00,7,4,2.713529e-01,2.678684e-01
2.190828e+00,9.419120e-01,9.310246e-01,7,2,2.243451e-01,2.238034e-01
1.269832e+00,1.987799e+00,1.977921e+00,4,5,2.578904e-01,2.560473e-01
2.197170e+00,2.602133e+00,2.591133e+00,7,7,2.864619e-01,2.802502e-01
2.517586e+00,1.888845e+00,1.878023e+00,8,5,1.879739e-01,1.868159e-01
3.150202e+00,1.267993e+00,1.256943e+00,10,3,1.229225e-01,1.081579e-01
3.471565e+00,2.543410e-01,2.450943e-01,11,0,7.110399e-02,7.105724e-02
9.466260e-01,2.484900e-01,2.391338e-01,3,0,1.412626e-01,1.399452e-01
3.469545e+00,2.443880e-01,2.360344e-01,11,0,1.808867e-01,1.798139e-01
1.261216e+00,6.120490e-01,6.031990e-01,4,1,2.022964e-01,2.005160e-01
2.192909e+00,6.016220e-01,5.910397e-01,7,1,1.087573e-01,1.051874e-01
2.518696e+00,5.929890e-01,5.838871e-01,8,1,1.392809e-01,1.383683e-01
2.190532e+00,6.082840e-01,5.979538e-01,7,1,1.858448e-01,1.854686e-01
1.261462e+00,2.391200e-01,2.310276e-01,4,0,1.986145e-01,1.985117e-01
1.576571e+00,2.554200e-01,2.458096e-01,5,0,3.160636e-01,3.160093e-01
1.894619e+00,2.534050e-01,2.448559e-01,6,0,1.878395e-01,1.878214e-01
9.451000e-01,2.388080e-01,2.300739e-01,3,0,1.752753e-01,1.752326e-01
1.264115e+00,2.659121e+00,2.650023e+00,4,7,4.796743e-01,4.768183e-01
2.207900e+00,1.543624e+00,1.534939e+00,7,4,5.121613e-01,5.069875e-01
2.510288e+00,1.255493e+00,1.244068e+00,8,3,2.187043e-01,2.174608e-01
1.576747e+00,2.629700e-01,2.520084e-01,5,0,2.665833e-01,2.664887e-01
1.888938e+00,2.444940e-01,2.360344e-01,6,0,2.375646e-01,2.365229e-01
1.890276e+00,5.986860e-01,5.898476e-01,6,1,2.107831e-01,2.102471e-01
3.138459e+00,5.872060e-01,5.779266e-01,10,1,9.684862e-02,9.476097e-02
3.792261e+00,2.590870e-01,2.481937e-01,12,0,9.258406e-02,8.361435e-02
1.264322e+00,6.106190e-01,6.010532e-01,4,1,1.579595e-01,1.577691e-01
3.142814e+00,9.398180e-01,9.300709e-01,10,2,2.079903e-01,2.078399e-01
2.191276e+00,1.305541e+00,1.296043e+00,7,3,3.224827e-01,3.211266e-01
1.266663e+00,9.096590e-01,9.009838e-01,4,2,1.779573e-01,1.769635e-01
2.533544e+00,2.536050e-01,2.448559e-01,8,0,1.554327e-01,1.487780e-01
2.194488e+00,5.916240e-01,5.829334e-01,7,1,1.608196e-01,1.598032e-01
1.571975e+00,6.058050e-01,5.960464e-01,5,1,2.693875e-01,2.621675e-01
2.193982e+00,2.380100e-01,2.300739e-01,7,0,3.081799e-01,3.075838e-01
2.198184e+00,1.294678e+00,1.284122e+00,7,3,3.188794e-01,3.179369e-01
3.139376e+00,5.814770e-01,5.731583e-01,10,1,2.683438e-01,2.640675e-01
2.530661e+00,1.312974e+00,1.300812e+00,8,3,3.731691e-01,3.614110e-01
1.574171e+00,1.629398e+00,1.617908e+00,5,4,2.110237e-01,2.109210e-01
2.507460e+00,5.830550e-01,5.741119e-01,8,1,2.293853e-01,2.276015e-01
1.578038e+00,2.683172e+00,2.673149e+00,5,7,3.613474e-01,3.588765e-01
3.140002e+00,1.889888e+00,1.879930e+00,10,5,1.881372e-01,1.874906e-01
2.515067e+00,1.299238e+00,1.288176e+00,8,3,2.081661e-01,2.055202e-01
1.887843e+00,5.933740e-01,5.838871e-01,6,1,1.633419e-01,1.633296e-01
9.451390e-01,2.490240e-01,2.400875e-01,3,0,6.580044e-02,6.578160e-02
1.259980e+00,2.439560e-01,2.360344e-01,4,0,9.406787e-02,9.405855e-02
2.849356e+00,2.487020e-01,2.400875e-01,9,0,1.439377e-01,1.246174e-01
2.513294e+00,2.516470e-01,2.429485e-01,8,0,9.776818e-02,9.592096e-02
1.259270e+00,1.660482e+00,1.651049e+00,4,4,2.569376e-01,2.547999e-01
3.142246e+00,1.574045e+00,1.564980e+00,10,4,1.491545e-01,1.490812e-01
1.579562e+00,2.620640e-01,2.520084e-01,5,0,1.217414e-01,1.213684e-01
3.785534e+00,2.392200e-01,2.310276e-01,12,0,1.293312e-01,1.219548e-01
1.261004e+00,2.534550e-01,2.439022e-01,4,0,1.893794e-01,1.891953e-01
1.582419e+00,6.110070e-01,6.008148e-01,5,1,2.776706e-01,2.776116e-01
1.576816e+00,1.280751e+00,1.271009e+00,5,3,4.298615e-01,4.282636e-01
1.259458e+00,2.308152e+00,2.299070e+00,4,6,4.351694e-01,4.321695e-01
2.197248e+00,1.260304e+00,1.250982e+00,7,3,5.385054e-01,5.327546e-01
1.882440e+00,2.555074e+00,2.546072e+00,6,7,2.069125e-01,2.035154e-01
3.460927e+00,9.625970e-01,9.520054e-01,11,2,2.117963e-01,1.953189e-01
3.136813e+00,9.399640e-01,9.300709e-01,10,2,1.087707e-01,1.009015e-01
1.261399e+00,2.435210e-01,2.341270e-01,4,0,1.272010e-01,1.271399e-01
1.259038e+00,1.319036e+00,1.308918e+00,4,3,1.910192e-01,1.893389e-01
2.197312e+00,1.254269e+00,1.245022e+00,7,3,2.118728e-01,2.098160e-01
2.193074e+00,9.511430e-01,9.398460e-01,7,2,2.456015e-01,2.446080e-01
3.144529e+00,9.142050e-01,9.059906e-01,10,2,1.823797e-01,1.747069e-01
1.570949e+00,2.802750e-01,2.679825e-01,5,0,1.639968e-01,1.635149e-01
1.263958e+00,1.291996e+00,1.284122e+00,4,3,2.928545e-01,2.905431e-01
1.890234e+00,5.803880e-01,5.710125e-01,6,1,3.364803e-01,3.306697e-01
1.888416e+00,9.527090e-01,9.407997e-01,6,2,3.000192e-01,2.998395e-01
1.888607e+00,2.417650e-01,2.319813e-01,6,0,2.621017e-01,2.620952e-01
1.268906e+00,1.658872e+00,1.649141e+00,4,4,3.482456e-01,3.476439e-01
2.522476e+00,1.619246e+00,1.608133e+00,8,4,1.996474e-01,1.989211e-01
1.263864e+00,2.486430e-01,2.400875e-01,4,0,1.667027e-01,1.658580e-01
1.576366e+00,6.172190e-01,6.079674e-01,5,1,3.215693e-01,3.209346e-01
1.584158e+00,1.646508e+00,1.636982e+00,5,4,3.689739e-01,3.678669e-01
2.199247e+00,2.367150e-01,2.269745e-01,7,0,4.386081e-01,4.371028e-01
1.262671e+00,1.269526e+00,1.258850e+00,4,3,1.676369e-01,1.669720e-01
1.901206e+00,9.454920e-01,9.369850e-01,6,2,1.786250e-01,1.756023e-01
2.196032e+00,2.642320e-01,2.529621e-01,7,0,2.291404e-01,2.279554e-01
2.198563e+00,1.608294e+00,1.598835e+00,7,4,2.703188e-01,2.691462e-01
1.256956e+00,9.227710e-01,9.119511e-01,4,2,2.576962e-01,2.545571e-01
1.887685e+00,9.481820e-01,9.388924e-01,6,2,2.750191e-01,2.747482e-01
2.198102e+00,1.263577e+00,1.253843e+00,7,3,2.125543e-01,2.114303e-01
1.881012e+00,2.653250e-01,2.551079e-01,6,0,1.592221e-01,1.579672e-01

