6.291250e-01,1.604082e+00,1.166105e+00,2,0,0.000000e+00,0.000000e+00
9.155300e-01,2.433280e-01,2.331734e-01,3,0,5.599925e-02,5.599875e-02
9.181800e-01,2.308440e-01,2.219677e-01,3,0,6.481755e-02,6.481375e-02
9.436290e-01,2.348620e-01,2.260208e-01,3,0,1.593668e-01,1.592123e-01
1.557354e+00,2.367670e-01,2.279282e-01,5,0,9.930685e-02,9.917797e-02
1.550276e+00,1.647131e+00,1.637936e+00,5,4,2.786146e-01,2.757624e-01
2.161666e+00,1.216823e+00,1.207829e+00,7,3,3.254334e-01,3.236700e-01
3.052830e+00,1.218703e+00,1.209974e+00,10,3,4.204066e-01,4.202133e-01
3.054736e+00,8.917660e-01,8.819103e-01,10,2,2.234649e-01,2.199461e-01
1.524435e+00,2.468200e-01,2.369881e-01,5,0,2.602265e-01,2.601382e-01
1.220556e+00,2.302400e-01,2.219677e-01,4,0,1.706769e-01,1.704124e-01
1.224664e+00,9.111210e-01,9.028912e-01,4,2,1.758239e-01,1.744313e-01
2.124625e+00,5.622860e-01,5.538464e-01,7,1,3.153046e-01,3.133347e-01
2.430610e+00,1.223516e+00,1.214981e+00,8,3,4.406201e-01,4.378556e-01
2.436223e+00,8.865630e-01,8.769035e-01,8,2,3.696445e-01,3.669959e-01
1.220077e+00,1.584573e+00,1.575947e+00,4,4,5.083524e-01,5.063959e-01
1.829578e+00,8.712880e-01,8.630753e-01,6,2,4.216826e-01,4.169035e-01
1.222224e+00,1.234646e+00,1.226187e+00,4,3,3.094527e-01,3.071458e-01
1.829698e+00,2.303040e-01,2.219677e-01,6,0,3.450568e-01,3.425045e-01
1.223414e+00,5.676960e-01,5.590916e-01,4,1,3.828921e-01,3.812863e-01
1.518185e+00,9.360390e-01,9.269714e-01,5,2,4.115840e-01,4.043988e-01
3.353905e+00,8.878000e-01,8.790493e-01,11,2,3.651286e-01,3.503849e-01
3.038624e+00,2.432280e-01,2.338886e-01,10,0,2.885213e-01,2.821283e-01
1.830273e+00,1.249991e+00,1.242161e+00,6,3,3.996540e-01,3.986889e-01
2.133410e+00,8.787120e-01,8.699894e-01,7,2,4.377253e-01,4.373989e-01
1.822827e+00,5.726540e-01,5.638599e-01,6,1,4.449616e-01,4.424483e-01
3.353560e+00,8.881080e-01,8.790493e-01,11,2,3.591882e-01,3.512303e-01
1.828580e+00,9.265010e-01,9.169579e-01,6,2,2.834026e-01,2.820173e-01
3.346238e+00,8.791810e-01,8.709431e-01,11,2,2.250993e-01,2.099309e-01
3.037780e+00,5.756260e-01,5.669594e-01,10,1,1.455173e-01,1.376169e-01
1.220351e+00,1.234062e+00,1.225948e+00,4,3,2.485357e-01,2.462449e-01
1.828137e+00,1.215681e+00,1.206875e+00,6,3,2.743029e-01,2.739939e-01
3.659386e+00,5.647710e-01,5.559921e-01,12,1,2.336521e-01,2.251293e-01
1.223246e+00,1.593266e+00,1.585007e+00,4,4,2.936336e-01,2.897929e-01
2.121555e+00,5.524750e-01,5.438328e-01,7,1,1.646376e-01,1.631200e-01
1.852305e+00,8.740110e-01,8.659363e-01,6,2,1.133624e-01,1.129434e-01
2.429263e+00,9.124110e-01,9.040833e-01,8,2,1.687212e-01,1.671068e-01
1.822081e+00,2.433830e-01,2.350807e-01,6,0,1.719678e-01,1.695712e-01
2.124973e+00,1.238522e+00,1.230001e+00,7,3,2.925087e-01,2.902723e-01
2.131256e+00,1.520663e+00,1.511097e+00,7,4,2.208572e-01,2.192220e-01
1.828772e+00,2.570706e+00,2.562046e+00,6,7,4.691031e-01,4.574632e-01
2.127044e+00,1.506934e+00,1.497030e+00,7,4,4.646750e-01,4.623026e-01
2.122690e+00,1.865250e+00,1.857042e+00,7,5,3.058570e-01,3.006928e-01
1.829595e+00,5.803520e-01,5.710125e-01,6,1,3.896830e-01,3.890447e-01
1.832840e+00,5.598890e-01,5.509853e-01,6,1,3.401029e-01,3.400375e-01
1.227778e+00,5.758300e-01,5.669594e-01,4,1,2.901342e-01,2.899467e-01
1.529212e+00,5.542740e-01,5.459785e-01,5,1,2.943609e-01,2.940447e-01
3.060291e+00,2.320360e-01,2.238750e-01,10,0,2.622241e-01,2.514010e-01
1.532861e+00,2.404020e-01,2.319813e-01,5,0,1.599527e-01,1.598887e-01
1.220820e+00,2.308190e-01,2.229214e-01,4,0,5.930507e-02,5.928857e-02
9.166490e-01,2.360070e-01,2.279282e-01,3,0,1.388369e-01,1.385552e-01
2.453112e+00,5.739710e-01,5.660057e-01,8,1,2.622142e-01,2.586802e-01
2.128405e+00,5.573840e-01,5.490780e-01,7,1,2.353545e-01,2.346133e-01
1.246447e+00,5.807140e-01,5.719662e-01,4,1,1.955533e-01,1.927070e-01
2.740636e+00,9.041840e-01,8.959770e-01,9,2,1.930323e-01,1.786216e-01
2.124729e+00,1.571547e+00,1.564026e+00,7,4,2.276771e-01,2.247802e-01
3.042221e+00,1.866554e+00,1.857996e+00,10,5,1.017441e-01,1.004819e-01
3.061011e+00,2.394130e-01,2.300739e-01,10,0,1.526782e-01,1.414461e-01
1.838022e+00,5.850880e-01,5.769730e-01,6,1,2.432053e-01,2.428971e-01
2.125310e+00,5.699530e-01,5.609989e-01,7,1,2.621280e-01,2.608543e-01
1.223510e+00,2.892073e+00,2.884150e+00,4,8,2.428912e-01,2.396118e-01
2.126081e+00,1.537330e+00,1.528978e+00,7,4,6.090566e-01,5.984834e-01
2.126320e+00,1.511566e+00,1.502991e+00,7,4,1.096543e+00,1.081581e+00
2.129601e+00,3.625570e+00,3.616810e+00,7,11,5.847505e-01,5.804651e-01
2.130047e+00,5.563560e-01,5.469322e-01,7,1,6.302560e-01,6.294939e-01
1.220888e+00,2.225800e+00,2.217054e+00,4,6,3.471937e-01,3.447774e-01
2.136477e+00,1.193051e+00,1.184940e+00,7,3,2.954759e-01,2.950909e-01
3.375562e+00,5.558790e-01,5.478859e-01,11,1,1.677321e-01,1.638809e-01
2.439143e+00,1.263873e+00,1.255035e+00,8,3,1.942391e-01,1.938497e-01
2.732387e+00,1.215424e+00,1.205921e+00,9,3,9.452624e-02,9.411785e-02
1.221708e+00,2.456830e-01,2.360344e-01,4,0,2.107252e-01,2.102074e-01
1.518285e+00,5.720520e-01,5.640984e-01,5,1,2.459584e-01,2.457363e-01
2.426796e+00,5.686410e-01,5.600452e-01,8,1,2.716876e-01,2.703246e-01
1.837464e+00,5.820380e-01,5.741119e-01,6,1,3.225268e-01,3.222710e-01
2.126819e+00,1.238333e+00,1.230001e+00,7,3,4.461018e-01,4.435307e-01
2.128831e+00,1.227498e+00,1.219034e+00,7,3,4.604049e-01,4.579725e-01
1.217523e+00,1.199690e+00,1.190901e+00,4,3,3.379143e-01,3.335708e-01
1.823193e+00,5.519030e-01,5.440712e-01,6,1,2.756638e-01,2.717292e-01
2.429473e+00,1.246669e+00,1.237869e+00,8,3,2.802039e-01,2.775657e-01
1.824713e+00,8.909820e-01,8.821487e-01,6,2,1.216655e-01,1.196595e-01
2.124529e+00,2.893432e+00,2.884865e+00,7,8,4.869929e-01,4.798298e-01
1.830290e+00,2.133254e+00,2.125025e+00,6,6,3.532821e-01,3.483014e-01
1.851656e+00,8.891240e-01,8.800030e-01,6,2,2.713484e-01,2.675257e-01
1.831073e+00,9.152070e-01,9.069443e-01,6,2,3.945073e-01,3.938531e-01
2.127132e+00,3.490009e+00,3.480911e+00,7,10,4.945086e-01,4.848115e-01
2.126603e+00,5.409350e-01,5.321503e-01,7,1,7.926230e-01,7.806477e-01
2.126075e+00,5.302520e-01,5.209446e-01,7,1,1.144703e+00,1.134760e+00
2.125438e+00,2.260790e-01,2.179146e-01,7,0,1.626222e+00,1.616430e+00
2.125842e+00,2.710372e+00,2.701998e+00,7,8,1.292574e+00,1.290104e+00
1.823657e+00,1.526281e+00,1.518011e+00,6,4,8.638166e-01,8.632945e-01
1.829465e+00,1.250325e+00,1.242161e+00,6,3,5.172218e-01,5.161273e-01
2.127228e+00,1.204229e+00,1.194954e+00,7,3,2.832157e-01,2.773754e-01
1.829729e+00,3.857825e+00,3.849030e+00,6,11,4.378293e-01,4.348936e-01
2.127155e+00,2.404496e+00,2.396107e+00,7,7,2.734519e-01,2.708563e-01
2.127329e+00,1.222930e+00,1.214027e+00,7,3,3.688368e-01,3.647490e-01
2.124869e+00,1.823241e+00,1.814127e+00,7,5,3.775778e-01,3.742723e-01
3.359854e+00,1.561108e+00,1.552105e+00,11,4,3.041584e-01,3.014148e-01
1.828537e+00,5.585780e-01,5.488396e-01,6,1,1.732908e-01,1.718511e-01
2.173383e+00,9.152970e-01,9.069443e-01,7,2,3.105633e-01,3.100419e-01
1.829246e+00,5.687160e-01,5.600452e-01,6,1,2.779150e-01,2.774659e-01
2.433961e+00,9.215250e-01,9.140968e-01,8,2,2.172439e-01,2.168677e-01
1.828012e+00,9.081580e-01,9.000301e-01,6,2,2.471369e-01,2.443235e-01
2.744838e+00,8.957990e-01,8.871555e-01,9,2,1.291659e-01,1.095503e-01
3.060321e+00,2.350260e-01,2.260208e-01,10,0,1.002567e-01,8.915479e-02
1.221982e+00,5.860970e-01,5.779266e-01,4,1,9.099266e-02,9.023853e-02
3.040233e+00,5.613890e-01,5.528927e-01,10,1,2.432813e-01,2.406035e-01
2.162802e+00,5.811630e-01,5.729198e-01,7,1,3.236350e-01,3.214011e-01
1.828877e+00,2.381190e-01,2.300739e-01,6,0,3.020532e-01,2.999000e-01
3.361434e+00,5.643400e-01,5.559921e-01,11,1,1.921653e-01,1.919817e-01
1.835939e+00,2.375480e-01,2.288818e-01,6,0,1.638317e-01,1.637067e-01
1.825737e+00,2.385290e-01,2.300739e-01,6,0,1.777211e-01,1.740846e-01
1.821523e+00,5.708960e-01,5.629063e-01,6,1,2.319853e-01,2.317318e-01
3.092967e+00,5.672420e-01,5.590916e-01,10,1,1.649622e-01,1.625348e-01
1.532179e+00,5.916750e-01,5.829334e-01,5,1,2.342697e-01,2.340579e-01
3.344027e+00,5.819400e-01,5.729198e-01,11,1,1.111885e-01,1.009324e-01
1.820335e+00,2.430610e-01,2.341270e-01,6,0,9.448311e-02,9.392303e-02
2.134356e+00,9.177450e-01,9.090900e-01,7,2,2.358463e-01,2.346440e-01
1.823121e+00,8.859110e-01,8.780956e-01,6,2,1.279643e-01,1.263724e-01
2.126932e+00,2.246829e+00,2.238035e+00,7,6,3.847099e-01,3.782034e-01
1.521538e+00,1.500634e+00,1.492977e+00,5,4,2.864194e-01,2.859748e-01
2.137561e+00,1.562464e+00,1.554012e+00,7,4,4.389197e-01,4.361070e-01
2.136127e+00,1.556696e+00,1.548052e+00,7,4,6.650158e-01,6.624628e-01
1.829214e+00,1.540605e+00,1.530886e+00,6,4,5.876906e-01,5.768948e-01
2.740961e+00,1.560467e+00,1.551867e+00,9,4,5.103458e-01,5.081360e-01
2.130956e+00,2.222364e+00,2.213001e+00,7,6,6.850608e-01,6.775992e-01
1.832059e+00,2.459762e+00,2.451897e+00,6,7,5.248502e-01,5.081131e-01
2.155847e+00,1.846566e+00,1.837015e+00,7,5,3.394337e-01,3.392295e-01
2.453759e+00,2.431540e-01,2.338886e-01,8,0,3.004362e-01,2.872960e-01
1.227740e+00,5.734930e-01,5.660057e-01,4,1,1.921962e-01,1.919628e-01
3.349319e+00,5.624090e-01,5.540848e-01,11,1,1.720017e-01,1.600582e-01
1.825717e+00,2.338770e-01,2.250671e-01,6,0,1.927138e-01,1.926445e-01
1.227451e+00,5.844420e-01,5.769730e-01,4,1,2.202280e-01,2.197343e-01
3.350747e+00,5.566750e-01,5.488396e-01,11,1,1.544435e-01,1.442634e-01
2.133909e+00,2.424420e-01,2.331734e-01,7,0,1.298540e-01,1.295006e-01
1.225622e+00,2.320720e-01,2.241135e-01,4,0,9.601527e-02,9.600721e-02
9.179330e-01,5.798140e-01,5.722046e-01,3,1,2.617410e-01,2.610952e-01
3.040871e+00,5.660280e-01,5.581379e-01,10,1,3.272118e-01,3.221252e-01
1.222645e+00,2.386460e-01,2.310276e-01,4,0,2.476787e-01,2.474254e-01
3.061237e+00,5.791920e-01,5.710125e-01,10,1,2.909419e-01,2.739091e-01
2.122424e+00,5.744330e-01,5.650520e-01,7,1,2.039234e-01,2.026681e-01
1.854029e+00,1.258892e+00,1.250029e+00,6,3,2.982009e-01,2.972711e-01
2.125873e+00,2.311800e-01,2.229214e-01,7,0,4.395492e-01,4.382483e-01
1.828177e+00,8.921460e-01,8.840561e-01,6,2,6.113071e-01,6.032515e-01
3.043733e+00,8.859670e-01,8.769035e-01,10,2,5.691552e-01,5.615177e-01
3.069564e+00,1.927301e+00,1.919031e+00,10,5,4.714767e-01,4.697605e-01
2.133380e+00,8.931270e-01,8.840561e-01,7,2,4.136542e-01,4.118359e-01
1.827564e+00,1.543025e+00,1.533985e+00,6,4,3.443799e-01,3.359885e-01
2.123800e+00,9.035990e-01,8.950233e-01,7,2,3.964098e-01,3.924061e-01
2.132001e+00,1.556773e+00,1.547813e+00,7,4,4.213407e-01,4.156196e-01
2.124863e+00,1.177335e+00,1.168966e+00,7,3,4.969627e-01,4.928731e-01
1.828321e+00,2.154795e+00,2.146006e+00,6,6,3.637136e-01,3.623598e-01
1.826973e+00,9.114930e-01,9.031296e-01,6,2,3.474009e-01,3.470966e-01
1.224423e+00,5.605250e-01,5.519390e-01,4,1,2.784011e-01,2.777791e-01
2.435479e+00,2.320410e-01,2.241135e-01,8,0,2.324384e-01,2.319927e-01
2.434840e+00,2.441740e-01,2.360344e-01,8,0,1.752157e-01,1.735697e-01
1.527084e+00,5.774810e-01,5.700588e-01,5,1,2.268425e-01,2.262063e-01
1.831363e+00,5.777220e-01,5.688667e-01,6,1,4.446105e-01,4.359245e-01
1.826236e+00,8.842840e-01,8.759499e-01,6,2,3.756690e-01,3.696210e-01
2.126469e+00,2.321670e-01,2.238750e-01,7,0,3.618044e-01,3.604428e-01
2.443498e+00,2.254050e+00,2.246141e+00,8,6,4.498106e-01,4.493933e-01
2.147480e+00,2.160040e+00,2.151012e+00,7,6,1.795929e-01,1.765190e-01
1.530336e+00,2.380130e-01,2.288818e-01,5,0,1.433088e-01,1.428517e-01
1.525135e+00,5.846020e-01,5.760193e-01,5,1,1.033030e-01,1.030034e-01
3.344800e+00,5.693600e-01,5.600452e-01,11,1,8.083418e-02,7.331370e-02
2.804271e+00,2.399400e-01,2.307892e-01,9,0,8.508180e-02,8.496285e-02
3.666040e+00,2.354620e-01,2.269745e-01,12,0,1.633227e-01,1.633212e-01
9.156850e-01,2.379220e-01,2.300739e-01,3,0,1.190660e-01,1.189291e-01
1.528681e+00,1.253792e+00,1.245975e+00,5,3,3.318929e-01,3.308646e-01
1.217226e+00,1.204804e+00,1.197100e+00,4,3,4.313165e-01,4.261955e-01
2.449116e+00,2.318570e-01,2.241135e-01,8,0,2.511739e-01,2.511665e-01
1.222759e+00,2.397240e-01,2.310276e-01,4,0,2.395638e-01,2.395193e-01
2.438302e+00,5.848000e-01,5.760193e-01,8,1,2.026630e-01,2.023463e-01
2.735459e+00,5.691840e-01,5.600452e-01,9,1,1.703299e-01,1.696379e-01
1.525479e+00,2.397950e-01,2.319813e-01,5,0,1.655745e-01,1.655297e-01
1.220415e+00,9.145420e-01,9.059906e-01,4,2,1.957824e-01,1.950250e-01
1.850898e+00,8.839810e-01,8.709431e-01,6,2,1.794737e-01,1.782943e-01
1.216749e+00,2.374570e-01,2.300739e-01,4,0,1.310514e-01,1.297277e-01
1.226444e+00,5.718250e-01,5.638599e-01,4,1,2.771573e-01,2.755826e-01
1.531783e+00,5.648230e-01,5.569458e-01,5,1,3.720715e-01,3.710643e-01
1.525307e+00,1.249320e+00,1.240969e+00,5,3,4.542365e-01,4.493988e-01
3.043750e+00,2.253728e+00,2.245188e+00,10,6,5.785620e-01,5.782257e-01
3.352750e+00,1.894556e+00,1.886129e+00,11,5,5.212663e-01,5.126712e-01
2.127476e+00,2.394760e-01,2.310276e-01,7,0,5.074848e-01,5.061688e-01
1.827503e+00,1.565902e+00,1.558065e+00,6,4,4.036355e-01,4.020456e-01
2.434672e+00,1.910804e+00,1.902103e+00,8,5,2.813886e-01,2.785108e-01
2.124836e+00,8.954590e-01,8.878708e-01,7,2,3.406109e-01,3.393661e-01
2.124335e+00,1.554968e+00,1.547098e+00,7,4,4.544526e-01,4.517056e-01
2.134190e+00,1.541211e+00,1.533031e+00,7,4,5.549860e-01,5.537565e-01
2.127404e+00,1.551088e+00,1.543045e+00,7,4,3.849438e-01,3.841948e-01
2.134576e+00,5.811300e-01,5.731583e-01,7,1,3.738296e-01,3.718979e-01
2.432377e+00,2.223789e+00,2.214909e+00,8,6,3.552495e-01,3.534760e-01
2.124478e+00,1.830486e+00,1.821995e+00,7,5,2.152098e-01,2.149863e-01
3.042984e+00,1.243106e+00,1.233816e+00,10,3,3.629769e-01,3.573346e-01
2.430946e+00,9.273160e-01,9.179115e-01,8,2,3.218195e-01,3.209564e-01
1.824214e+00,8.871710e-01,8.780956e-01,6,2,2.273751e-01,2.246745e-01
1.835349e+00,2.343390e-01,2.260208e-01,6,0,2.101145e-01,2.085364e-01
2.764558e+00,1.916500e+00,1.908064e+00,9,5,4.081304e-01,3.853071e-01
2.127742e+00,1.858997e+00,1.850843e+00,7,5,7.122586e-01,7.034605e-01
2.125169e+00,8.472750e-01,8.389950e-01,7,2,6.622561e-01,6.550015e-01
2.129015e+00,1.495017e+00,1.485825e+00,7,4,6.149266e-01,6.122871e-01
2.133703e+00,8.832870e-01,8.740425e-01,7,2,6.612548e-01,6.598386e-01
2.135096e+00,1.549014e+00,1.540899e+00,7,4,9.838887e-01,9.805032e-01
1.830688e+00,2.510261e+00,2.501965e+00,6,7,4.797919e-01,4.794660e-01
1.829281e+00,1.253714e+00,1.245022e+00,6,3,5.382116e-01,5.368873e-01
3.367736e+00,2.241089e+00,2.233028e+00,11,6,4.516050e-01,4.501213e-01
2.135295e+00,1.890800e+00,1.882076e+00,7,5,4.415066e-01,4.379754e-01
3.068932e+00,2.199426e+00,2.191067e+00,10,6,1.910995e-01,1.847027e-01
1.523563e+00,1.594619e+00,1.585007e+00,5,4,3.200491e-01,3.188297e-01
2.126278e+00,1.217015e+00,1.208782e+00,7,3,2.272110e-01,2.271855e-01
1.549458e+00,5.776270e-01,5.691051e-01,5,1,2.262724e-01,2.249627e-01
1.219196e+00,1.249587e+00,1.241207e+00,4,3,2.247863e-01,2.218766e-01
2.124448e+00,1.238850e+00,1.230001e+00,7,3,5.394782e-01,5.360141e-01
2.149833e+00,2.192237e+00,2.183914e+00,7,6,1.040405e+00,1.032235e+00
2.126015e+00,2.804280e+00,2.794981e+00,7,8,6.266897e-01,6.221630e-01
2.124042e+00,2.358110e-01,2.269745e-01,7,0,7.640920e-01,7.593312e-01
2.129139e+00,1.828363e+00,1.820087e+00,7,5,6.238792e-01,6.229393e-01
2.132618e+00,1.901914e+00,1.893044e+00,7,5,7.442626e-01,7.417413e-01
1.544728e+00,2.521002e+00,2.511978e+00,5,7,3.462625e-01,3.415399e-01
2.152063e+00,9.079490e-01,8.988380e-01,7,2,2.817320e-01,2.787669e-01
1.521647e+00,1.537585e+00,1.528978e+00,5,4,1.461774e-01,1.461123e-01
1.219113e+00,2.420210e-01,2.338886e-01,4,0,1.416944e-01,1.408966e-01
1.829887e+00,9.525420e-01,9.441376e-01,6,2,1.641983e-01,1.610179e-01
2.123929e+00,9.124570e-01,9.038448e-01,7,2,2.946494e-01,2.921437e-01
3.038815e+00,1.530773e+00,1.522064e+00,10,4,1.683448e-01,1.683317e-01
1.222137e+00,2.443160e-01,2.360344e-01,4,0,1.972012e-01,1.971086e-01
2.433848e+00,5.786490e-01,5.710125e-01,8,1,1.962388e-01,1.958054e-01
2.733990e+00,5.708150e-01,5.619526e-01,9,1,2.601771e-01,2.592250e-01
1.220116e+00,2.398430e-01,2.310276e-01,4,0,1.585058e-01,1.577639e-01
1.527049e+00,5.859350e-01,5.779266e-01,5,1,1.872274e-01,1.856297e-01
2.129590e+00,1.247600e+00,1.239061e+00,7,3,1.866164e-01,1.854907e-01
1.827478e+00,5.563270e-01,5.469322e-01,6,1,2.528733e-01,2.477583e-01
2.124882e+00,2.270431e+00,2.261877e+00,7,6,5.676925e-01,5.628858e-01
2.124522e+00,5.644960e-01,5.559921e-01,7,1,7.238450e-01,7.190992e-01
3.041601e+00,2.473827e+00,2.465963e+00,10,7,4.840378e-01,4.838092e-01
2.126001e+00,1.247471e+00,1.238823e+00,7,3,5.308543e-01,5.274474e-01
1.217838e+00,9.032170e-01,8.940697e-01,4,2,3.580389e-01,3.555377e-01
1.855486e+00,2.371000e-01,2.291203e-01,6,0,1.866145e-01,1.858874e-01
1.220471e+00,2.281371e+00,2.272129e+00,4,6,2.888452e-01,2.800552e-01
2.434154e+00,2.165914e+00,2.156973e+00,8,6,1.569388e-01,1.539596e-01
1.218337e+00,1.266394e+00,1.257896e+00,4,3,2.718429e-01,2.681885e-01
3.351388e+00,8.809890e-01,8.728504e-01,11,2,1.767519e-01,1.688323e-01
2.124764e+00,5.628290e-01,5.550385e-01,7,1,1.877582e-01,1.775841e-01
1.829754e+00,5.905460e-01,5.829334e-01,6,1,2.116934e-01,2.092003e-01
2.134233e+00,5.759860e-01,5.679131e-01,7,1,2.817336e-01,2.807946e-01
2.740472e+00,8.933900e-01,8.850098e-01,9,2,1.755924e-01,1.583512e-01
1.221727e+00,9.190930e-01,9.109974e-01,4,2,2.642392e-01,2.547560e-01
2.125335e+00,2.229177e+00,2.219915e+00,7,6,5.768777e-01,5.687179e-01
2.430101e+00,2.803984e+00,2.794981e+00,8,8,3.738678e-01,3.724727e-01
1.527091e+00,5.867820e-01,5.788803e-01,5,1,2.815235e-01,2.809444e-01
1.828869e+00,5.662040e-01,5.578995e-01,6,1,1.850091e-01,1.840589e-01
1.821741e+00,5.791910e-01,5.710125e-01,6,1,2.035704e-01,1.996962e-01
2.126751e+00,9.136010e-01,9.050369e-01,7,2,2.311447e-01,2.299373e-01
2.152141e+00,1.575276e+00,1.567125e+00,7,4,4.491426e-01,4.438979e-01
1.827226e+00,1.860944e+00,1.852036e+00,6,5,3.714463e-01,3.660843e-01
3.040300e+00,8.940610e-01,8.850098e-01,10,2,3.181209e-01,3.175197e-01
1.873706e+00,2.411590e-01,2.319813e-01,6,0,3.012030e-01,2.997914e-01
1.578416e+00,9.760740e-01,9.670258e-01,5,2,3.289661e-01,3.273054e-01
2.196693e+00,1.617216e+00,1.609087e+00,7,4,4.285441e-01,4.251221e-01
2.193241e+00,1.252603e+00,1.243114e+00,7,3,7.128419e-01,7.048968e-01
2.197731e+00,5.877740e-01,5.769730e-01,7,1,8.777951e-01,8.730311e-01
2.687797e+00,2.229440e+00,2.218962e+00,8,6,7.457192e-01,7.447348e-01
2.186295e+00,1.654672e+00,1.641989e+00,7,4,6.672442e-01,6.652990e-01
2.187754e+00,9.355270e-01,9.260178e-01,7,2,4.756478e-01,4.754535e-01
2.199218e+00,2.390580e-01,2.310276e-01,7,0,4.552668e-01,4.541139e-01
2.200215e+00,2.509550e-01,2.419949e-01,7,0,4.779850e-01,4.756901e-01
1.259503e+00,1.638266e+00,1.630068e+00,4,4,3.906517e-01,3.860604e-01
2.187285e+00,1.264113e+00,1.255989e+00,7,3,4.231703e-01,4.216402e-01
2.202226e+00,1.253437e+00,1.243830e+00,7,3,3.492748e-01,3.490107e-01
1.262319e+00,9.559250e-01,9.460449e-01,4,2,3.052726e-01,3.023914e-01
2.194178e+00,2.378300e-01,2.291203e-01,7,0,4.518239e-01,4.511852e-01
2.196639e+00,9.399670e-01,9.310246e-01,7,2,5.304467e-01,5.284608e-01
2.187527e+00,2.266367e+00,2.258062e+00,7,6,9.381040e-01,9.267394e-01
2.187556e+00,8.840430e-01,8.740425e-01,7,2,1.096508e+00,1.088972e+00
2.196462e+00,1.220584e+00,1.211882e+00,7,3,1.125941e+00,1.119467e+00
1.885423e+00,2.520035e+00,2.511024e+00,6,7,1.003532e+00,9.927450e-01
3.138540e+00,1.223500e+00,1.214981e+00,10,3,8.421448e-01,8.414410e-01
2.198727e+00,3.281247e+00,3.271818e+00,7,9,8.887445e-01,8.860444e-01
1.880166e+00,1.577841e+00,1.567841e+00,6,4,8.513612e-01,8.390385e-01
1.884332e+00,1.885573e+00,1.877069e+00,6,5,7.458056e-01,7.420674e-01
2.189375e+00,9.061970e-01,8.978844e-01,7,2,4.852182e-01,4.840532e-01
1.254621e+00,5.875420e-01,5.781651e-01,4,1,3.521767e-01,3.510902e-01
3.146253e+00,2.437730e-01,2.350807e-01,10,0,2.939526e-01,2.864961e-01
1.572523e+00,9.443110e-01,9.360313e-01,5,2,3.853208e-01,3.837901e-01
1.571578e+00,1.630781e+00,1.621008e+00,5,4,4.751363e-01,4.734217e-01
1.572182e+00,1.584336e+00,1.574993e+00,5,4,3.075465e-01,3.074850e-01
1.258822e+00,2.405870e-01,2.319813e-01,4,0,2.903930e-01,2.898900e-01
1.572744e+00,2.557340e-01,2.479553e-01,5,0,3.355994e-01,3.354047e-01
3.777344e+00,2.439790e-01,2.360344e-01,12,0,1.830229e-01,1.828324e-01
1.257868e+00,2.702440e-01,2.589226e-01,4,0,1.743391e-01,1.742030e-01
3.149888e+00,2.429590e-01,2.338886e-01,10,0,1.727760e-01,1.652729e-01
1.260359e+00,2.553300e-01,2.470016e-01,4,0,1.944418e-01,1.943128e-01
1.576808e+00,1.292360e+00,1.283884e+00,5,3,2.430699e-01,2.424817e-01
2.197277e+00,1.598690e+00,1.590014e+00,7,4,2.124413e-01,2.121022e-01
1.566824e+00,9.329580e-01,9.241104e-01,5,2,2.558982e-01,2.554865e-01
2.507744e+00,9.353170e-01,9.260178e-01,8,2,2.559879e-01,2.528774e-01
3.133807e+00,5.836800e-01,5.750656e-01,10,1,2.104566e-01,2.090165e-01
1.259594e+00,9.470520e-01,9.388924e-01,4,2,1.593834e-01,1.578216e-01
2.196271e+00,9.310460e-01,9.219646e-01,7,2,5.045610e-01,5.028337e-01
2.188086e+00,2.939292e+00,2.931118e+00,7,8,1.040626e+00,1.033274e+00
2.190405e+00,2.844086e+00,2.835035e+00,7,8,1.180557e+00,1.169048e+00
3.139156e+00,3.082089e+00,3.068924e+00,10,9,9.170681e-01,9.161244e-01
2.188103e+00,1.213779e+00,1.204014e+00,7,3,7.542540e-01,7.511907e-01
1.882205e+00,5.857540e-01,5.772114e-01,6,1,6.443967e-01,6.320641e-01
1.889334e+00,2.251723e+00,2.243042e+00,6,6,5.698860e-01,5.598772e-01
1.254915e+00,5.899200e-01,5.810261e-01,4,1,3.486041e-01,3.444511e-01
2.186331e+00,1.586591e+00,1.579046e+00,7,4,2.997600e-01,2.954756e-01
2.190329e+00,2.878322e+00,2.869129e+00,7,8,6.517026e-01,6.388082e-01
2.199769e+00,5.360020e-01,5.269051e-01,7,1,9.236788e-01,9.127787e-01
2.189897e+00,8.587200e-01,8.499622e-01,7,2,1.072088e+00,1.066739e+00
2.201120e+00,3.186590e+00,3.177166e+00,7,9,9.302465e-01,9.263723e-01
1.884359e+00,2.560332e+00,2.551079e+00,6,7,7.258054e-01,7.182078e-01
1.583545e+00,1.242364e+00,1.232862e+00,5,3,5.419751e-01,5.408569e-01
1.568183e+00,2.657779e+00,2.648830e+00,5,7,4.914041e-01,4.852494e-01
2.189348e+00,2.235316e+00,2.225876e+00,7,6,7.842066e-01,7.699987e-01
2.187797e+00,1.185807e+00,1.175880e+00,7,3,7.235570e-01,7.125804e-01
2.196575e+00,1.854564e+00,1.845121e+00,7,5,5.996393e-01,5.972864e-01
2.191914e+00,9.065710e-01,8.981228e-01,7,2,5.200857e-01,5.195507e-01
1.878714e+00,1.269985e+00,1.261950e+00,6,3,4.515085e-01,4.409976e-01
2.189542e+00,5.747040e-01,5.660057e-01,7,1,4.073721e-01,4.033269e-01
1.882941e+00,9.158060e-01,9.069443e-01,6,2,5.962545e-01,5.902071e-01
2.187383e+00,9.286030e-01,9.198189e-01,7,2,6.020996e-01,5.967863e-01
2.519838e+00,9.323350e-01,9.229183e-01,8,2,6.036212e-01,6.033077e-01
2.827858e+00,1.293102e+00,1.285076e+00,9,3,5.749242e-01,5.729689e-01
1.561049e+00,6.318430e-01,6.198883e-01,5,1,4.606805e-01,4.601039e-01
2.196864e+00,9.440600e-01,9.360313e-01,7,2,3.665616e-01,3.650990e-01
2.194018e+00,1.317333e+00,1.304865e+00,7,3,4.322834e-01,4.270298e-01
2.187108e+00,9.739620e-01,9.610653e-01,7,2,3.104013e-01,3.085870e-01
2.190326e+00,1.266499e+00,1.255989e+00,7,3,1.590479e-01,1.560140e-01
2.508050e+00,5.765570e-01,5.679131e-01,8,1,1.211133e-01,1.194563e-01
1.575381e+00,2.528620e-01,2.360344e-01,5,0,1.669736e-01,1.669266e-01
1.254334e+00,5.982080e-01,5.888939e-01,4,1,2.365315e-01,2.357983e-01
1.877432e+00,5.865250e-01,5.781651e-01,6,1,2.828723e-01,2.767676e-01
2.822047e+00,9.219390e-01,9.129047e-01,9,2,2.397384e-01,2.389362e-01
1.574178e+00,2.420740e-01,2.329350e-01,5,0,1.849313e-01,1.848487e-01
1.257927e+00,9.482200e-01,9.398460e-01,4,2,2.654032e-01,2.644811e-01
3.130280e+00,9.141520e-01,9.050369e-01,10,2,8.655303e-02,8.654863e-02
9.440600e-01,2.446020e-01,2.360344e-01,3,0,8.166467e-02,8.158838e-02
1.256118e+00,2.418520e-01,2.329350e-01,4,0,8.346266e-02,8.326529e-02
3.147015e+00,2.394360e-01,2.310276e-01,10,0,9.649577e-02,8.109207e-02
3.458628e+00,2.496400e-01,2.400875e-01,11,0,1.168969e-01,1.164260e-01
1.256826e+00,2.536400e-01,2.450943e-01,4,0,1.466968e-01,1.465853e-01
3.451521e+00,2.382300e-01,2.300739e-01,11,0,1.121866e-01,1.114487e-01
1.257518e+00,9.539880e-01,9.448528e-01,4,2,1.640449e-01,1.609603e-01
2.186775e+00,9.298710e-01,9.222031e-01,7,2,2.248922e-01,2.234461e-01
1.251115e+00,9.138100e-01,9.050369e-01,4,2,1.436258e-01,1.430353e-01
1.573924e+00,2.519720e-01,2.431870e-01,5,0,1.589170e-01,1.589069e-01
3.473644e+00,2.439610e-01,2.360344e-01,11,0,1.571997e-01,1.414511e-01
2.818262e+00,2.470760e-01,2.379417e-01,9,0,1.913468e-01,1.909897e-01
3.142300e+00,2.542590e-01,2.450943e-01,10,0,2.210512e-01,1.991180e-01
1.583755e+00,2.516580e-01,2.419949e-01,5,0,1.008273e-01,1.004571e-01
1.259374e+00,2.396020e-01,2.310276e-01,4,0,8.063640e-02,8.056458e-02
1.256096e+00,2.393780e-01,2.319813e-01,4,0,1.323121e-01,1.321627e-01
1.257644e+00,2.476180e-01,2.391338e-01,4,0,1.003076e-01,1.002674e-01
3.153194e+00,2.438440e-01,2.350807e-01,10,0,1.064914e-01,8.954593e-02
3.467883e+00,6.010850e-01,5.919933e-01,11,1,2.133139e-01,2.107509e-01
1.563448e+00,5.934480e-01,5.829334e-01,5,1,1.581599e-01,1.578599e-01
3.470687e+00,5.984560e-01,5.898476e-01,11,1,2.907471e-01,2.820544e-01
1.567571e+00,2.479850e-01,2.388954e-01,5,0,5.349046e-01,5.329577e-01
2.501261e+00,1.283314e+00,1.273870e+00,8,3,4.049950e-01,4.020997e-01
1.253588e+00,9.235500e-01,9.150505e-01,4,2,2.956342e-01,2.906555e-01
1.577955e+00,1.978684e+00,1.970053e+00,5,5,4.344532e-01,4.336087e-01
2.190327e+00,9.113430e-01,9.019375e-01,7,2,5.800507e-01,5.786914e-01
3.134345e+00,1.263312e+00,1.254082e+00,10,3,2.709126e-01,2.704540e-01
9.432770e-01,2.477970e-01,2.388954e-01,3,0,2.097637e-01,2.086809e-01
1.567051e+00,9.456330e-01,9.379387e-01,5,2,2.373262e-01,2.368309e-01
3.456083e+00,9.219610e-01,9.131432e-01,11,2,9.280733e-02,9.270820e-02
3.144837e+00,2.508620e-01,2.410412e-01,10,0,6.206366e-02,4.469013e-02
3.142997e+00,2.455370e-01,2.369881e-01,10,0,1.250037e-01,1.136958e-01
2.192054e+00,2.441740e-01,2.348423e-01,7,0,1.699279e-01,1.691561e-01
1.256418e+00,6.056440e-01,5.960464e-01,4,1,1.717888e-01,1.713008e-01
2.186570e+00,1.282932e+00,1.275063e+00,7,3,3.630281e-01,3.599802e-01
1.878848e+00,1.243525e+00,1.235008e+00,6,3,2.521454e-01,2.480529e-01
3.452979e+00,5.906110e-01,5.810261e-01,11,1,2.461760e-01,2.459768e-01
1.574691e+00,2.466000e-01,2.379417e-01,5,0,2.250818e-01,2.250328e-01
3.168536e+00,2.392930e-01,2.310276e-01,10,0,1.967700e-01,1.935546e-01
3.459657e+00,2.549620e-01,2.450943e-01,11,0,2.411000e-01,2.394274e-01
2.501636e+00,6.104240e-01,6.008148e-01,8,1,2.962559e-01,2.943702e-01
3.459997e+00,5.963060e-01,5.869865e-01,11,1,2.296695e-01,2.251234e-01
1.885872e+00,6.086150e-01,5.989075e-01,6,1,2.320651e-01,2.312479e-01
2.188342e+00,5.918860e-01,5.838871e-01,7,1,2.485198e-01,2.476544e-01
1.878870e+00,2.500300e-01,2.400875e-01,6,0,2.397594e-01,2.359822e-01
2.187059e+00,9.335430e-01,9.248257e-01,7,2,2.800444e-01,2.768394e-01
3.142480e+00,1.268879e+00,1.260042e+00,10,3,1.971281e-01,1.740595e-01
1.255906e+00,2.333495e+00,2.324104e+00,4,6,1.888719e-01,1.861501e-01
2.188321e+00,1.247803e+00,1.239061e+00,7,3,2.068735e-01,2.062334e-01
2.183521e+00,5.882450e-01,5.779266e-01,7,1,2.215457e-01,2.209841e-01
1.880639e+00,9.358100e-01,9.279251e-01,6,2,2.054194e-01,2.049584e-01
1.567500e+00,2.303253e+00,2.294064e+00,5,6,5.631814e-01,5.599219e-01
2.189860e+00,1.927633e+00,1.917839e+00,7,5,3.554458e-01,3.539774e-01
2.512031e+00,1.248551e+00,1.238823e+00,8,3,3.295089e-01,3.273064e-01
1.881203e+00,5.852750e-01,5.760193e-01,6,1,2.857119e-01,2.842400e-01
2.191135e+00,1.640920e+00,1.631975e+00,7,4,2.748684e-01,2.706971e-01
2.194243e+00,9.091620e-01,9.000301e-01,7,2,1.900173e-01,1.890819e-01
3.130444e+00,5.803910e-01,5.719662e-01,10,1,2.722944e-01,2.721809e-01
1.879560e+00,2.497020e-01,2.410412e-01,6,0,3.291496e-01,3.274901e-01
3.131889e+00,5.901610e-01,5.819798e-01,10,1,2.811567e-01,2.670599e-01
1.570837e+00,5.979300e-01,5.888939e-01,5,1,2.557129e-01,2.550741e-01
2.184695e+00,5.896940e-01,5.810261e-01,7,1,2.115601e-01,2.111924e-01
1.901871e+00,6.049200e-01,5.950928e-01,6,1,1.842787e-01,1.821699e-01
2.816609e+00,9.321910e-01,9.229183e-01,9,2,1.506880e-01,1.492936e-01
1.881168e+00,5.885060e-01,5.798340e-01,6,1,1.166026e-01,1.162001e-01
1.222041e+00,6.201120e-01,6.108284e-01,4,1,1.424246e-01,1.412612e-01
1.523744e+00,5.615670e-01,5.540848e-01,5,1,1.601692e-01,1.589313e-01
1.222448e+00,5.870230e-01,5.779266e-01,4,1,1.425817e-01,1.409688e-01
1.219216e+00,9.054680e-01,8.981228e-01,4,2,1.830959e-01,1.806715e-01
3.044709e+00,5.708610e-01,5.619526e-01,10,1,1.801736e-01,1.736396e-01
3.049050e+00,2.333400e-01,2.250671e-01,10,0,2.084665e-01,1.865800e-01
3.048885e+00,2.332460e-01,2.250671e-01,10,0,2.432595e-01,2.243525e-01
1.527280e+00,2.461650e-01,2.369881e-01,5,0,1.865470e-01,1.864604e-01
1.222744e+00,2.587049e+00,2.578974e+00,4,7,3.279037e-01,3.255993e-01
2.154010e+00,1.204043e+00,1.194954e+00,7,3,6.535035e-01,6.449911e-01
2.128977e+00,2.431122e+00,2.423048e+00,7,7,4.795888e-01,4.780572e-01
3.355246e+00,8.856790e-01,8.759499e-01,11,2,2.992349e-01,2.911015e-01
2.134057e+00,9.057780e-01,8.969307e-01,7,2,2.622162e-01,2.621428e-01
3.040331e+00,5.580740e-01,5.500317e-01,10,1,2.801981e-01,2.743183e-01
1.220484e+00,2.467820e-01,2.369881e-01,4,0,2.043588e-01,2.037072e-01
1.222322e+00,5.736360e-01,5.660057e-01,4,1,2.251424e-01,2.228810e-01
2.125817e+00,5.754420e-01,5.660057e-01,7,1,2.443332e-01,2.434810e-01
2.124822e+00,1.571046e+00,1.562119e+00,7,4,2.713529e-01,2.678684e-01
2.123637e+00,8.857840e-01,8.778572e-01,7,2,2.243451e-01,2.238034e-01
1.227544e+00,1.945519e+00,1.937151e+00,4,5,2.578904e-01,2.560473e-01
2.125765e+00,2.530163e+00,2.521992e+00,7,7,2.864619e-01,2.802502e-01
2.434815e+00,1.823102e+00,1.813889e+00,8,5,1.879739e-01,1.868159e-01
3.047444e+00,1.214818e+00,1.204967e+00,10,3,1.229225e-01,1.081579e-01
3.384339e+00,2.424050e-01,2.331734e-01,11,0,7.110399e-02,7.105724e-02
9.173770e-01,2.458350e-01,2.360344e-01,3,0,1.412626e-01,1.399452e-01
3.387735e+00,2.320440e-01,2.238750e-01,11,0,1.808867e-01,1.798139e-01
1.221460e+00,5.892320e-01,5.798340e-01,4,1,2.022964e-01,2.005160e-01
2.129162e+00,5.734140e-01,5.650520e-01,7,1,1.087573e-01,1.051874e-01
2.434184e+00,5.820320e-01,5.741119e-01,8,1,1.392809e-01,1.383683e-01
2.123717e+00,5.824400e-01,5.729198e-01,7,1,1.858448e-01,1.854686e-01
1.226093e+00,2.386690e-01,2.291203e-01,4,0,1.986145e-01,1.985117e-01
1.524403e+00,2.320610e-01,2.241135e-01,5,0,3.160636e-01,3.160093e-01
1.863442e+00,2.360360e-01,2.279282e-01,6,0,1.878395e-01,1.878214e-01
9.160510e-01,2.364120e-01,2.279282e-01,3,0,1.752753e-01,1.752326e-01
1.228546e+00,2.574286e+00,2.566099e+00,4,7,4.796743e-01,4.768183e-01
2.125496e+00,1.497299e+00,1.488924e+00,7,4,5.121613e-01,5.069875e-01
2.458461e+00,1.223001e+00,1.214027e+00,8,3,2.187043e-01,2.174608e-01
1.531599e+00,2.393170e-01,2.300739e-01,5,0,2.665833e-01,2.664887e-01
1.832793e+00,2.336300e-01,2.250671e-01,6,0,2.375646e-01,2.365229e-01
1.831504e+00,5.976140e-01,5.888939e-01,6,1,2.107831e-01,2.102471e-01
3.044107e+00,6.161420e-01,6.051064e-01,10,1,9.684862e-02,9.476097e-02
3.673024e+00,2.752630e-01,2.639294e-01,12,0,9.258406e-02,8.361435e-02
1.237545e+00,6.223580e-01,6.110668e-01,4,1,1.579595e-01,1.577691e-01
3.046996e+00,9.451070e-01,9.229183e-01,10,2,2.079903e-01,2.078399e-01
2.135757e+00,1.288407e+00,1.276970e+00,7,3,3.224827e-01,3.211266e-01
1.218333e+00,8.984930e-01,8.888245e-01,4,2,1.779573e-01,1.769635e-01
2.453592e+00,2.359090e-01,2.279282e-01,8,0,1.554327e-01,1.487780e-01
2.128724e+00,5.787900e-01,5.710125e-01,7,1,1.608196e-01,1.598032e-01
1.521952e+00,5.698140e-01,5.609989e-01,5,1,2.693875e-01,2.621675e-01
2.155705e+00,2.364840e-01,2.279282e-01,7,0,3.081799e-01,3.075838e-01
2.157960e+00,1.222423e+00,1.214027e+00,7,3,3.188794e-01,3.179369e-01
3.065508e+00,5.586270e-01,5.500317e-01,10,1,2.683438e-01,2.640675e-01
2.447030e+00,1.264336e+00,1.255035e+00,8,3,3.731691e-01,3.614110e-01
1.520163e+00,1.556092e+00,1.544952e+00,5,4,2.110237e-01,2.109210e-01
2.427411e+00,5.663520e-01,5.578995e-01,8,1,2.293853e-01,2.276015e-01
1.521774e+00,2.578973e+00,2.569914e+00,5,7,3.613474e-01,3.588765e-01
3.038975e+00,1.822265e+00,1.813889e+00,10,5,1.881372e-01,1.874906e-01
2.426403e+00,1.238458e+00,1.229048e+00,8,3,2.081661e-01,2.055202e-01
1.826766e+00,5.946510e-01,5.860329e-01,6,1,1.633419e-01,1.633296e-01
9.158270e-01,2.319060e-01,2.229214e-01,3,0,6.580044e-02,6.578160e-02
1.222504e+00,2.322950e-01,2.238750e-01,4,0,9.406787e-02,9.405855e-02
2.753164e+00,2.405800e-01,2.319813e-01,9,0,1.439377e-01,1.246174e-01
2.429884e+00,2.372950e-01,2.288818e-01,8,0,9.776818e-02,9.592096e-02
1.219035e+00,1.588271e+00,1.580000e+00,4,4,2.569376e-01,2.547999e-01
3.041357e+00,1.534195e+00,1.517057e+00,10,4,1.491545e-01,1.490812e-01
1.525913e+00,2.391000e-01,2.298355e-01,5,0,1.217414e-01,1.213684e-01
3.659745e+00,2.365510e-01,2.288818e-01,12,0,1.293312e-01,1.219548e-01
1.221467e+00,2.441670e-01,2.360344e-01,4,0,1.893794e-01,1.891953e-01
1.524823e+00,5.836830e-01,5.741119e-01,5,1,2.776706e-01,2.776116e-01
1.531472e+00,1.240184e+00,1.231909e+00,5,3,4.298615e-01,4.282636e-01
1.219458e+00,2.238108e+00,2.229214e+00,4,6,4.351694e-01,4.321695e-01
2.124903e+00,1.232963e+00,1.222134e+00,7,3,5.385054e-01,5.327546e-01
1.822267e+00,2.470490e+00,2.462864e+00,6,7,2.069125e-01,2.035154e-01
3.355265e+00,9.176930e-01,9.090900e-01,11,2,2.117963e-01,1.953189e-01
3.062726e+00,8.891170e-01,8.800030e-01,10,2,1.087707e-01,1.009015e-01
1.222202e+00,2.354840e-01,2.269745e-01,4,0,1.272010e-01,1.271399e-01
1.223916e+00,1.257338e+00,1.248837e+00,4,3,1.910192e-01,1.893389e-01
2.121766e+00,1.219228e+00,1.210928e+00,7,3,2.118728e-01,2.098160e-01
2.124688e+00,8.961140e-01,8.878708e-01,7,2,2.456015e-01,2.446080e-01
3.041059e+00,8.871720e-01,8.780956e-01,10,2,1.823797e-01,1.747069e-01
1.522512e+00,2.408600e-01,2.319813e-01,5,0,1.639968e-01,1.635149e-01
1.225256e+00,1.253152e+00,1.245022e+00,4,3,2.928545e-01,2.905431e-01
1.826456e+00,5.523080e-01,5.440712e-01,6,1,3.364803e-01,3.306697e-01
1.826918e+00,8.927280e-01,8.840561e-01,6,2,3.000192e-01,2.998395e-01
1.827952e+00,2.324240e-01,2.238750e-01,6,0,2.621017e-01,2.620952e-01
1.223425e+00,1.586296e+00,1.576900e+00,4,4,3.482456e-01,3.476439e-01
2.446448e+00,1.524005e+00,1.515150e+00,8,4,1.996474e-01,1.989211e-01
1.224505e+00,2.319680e-01,2.238750e-01,4,0,1.667027e-01,1.658580e-01
1.530759e+00,5.774720e-01,5.698204e-01,5,1,3.215693e-01,3.209346e-01
1.526132e+00,1.574996e+00,1.567125e+00,5,4,3.689739e-01,3.678669e-01
2.125455e+00,2.294950e-01,2.210140e-01,7,0,4.386081e-01,4.371028e-01
1.222902e+00,1.208771e+00,1.200914e+00,4,3,1.676369e-01,1.669720e-01
1.829082e+00,9.148850e-01,9.059906e-01,6,2,1.786250e-01,1.756023e-01
2.150498e+00,2.440220e-01,2.350807e-01,7,0,2.291404e-01,2.279554e-01
2.128963e+00,1.555985e+00,1.548052e+00,7,4,2.703188e-01,2.691462e-01
1.217610e+00,8.796030e-01,8.709431e-01,4,2,2.576962e-01,2.545571e-01
1.826686e+00,9.203390e-01,9.109974e-01,6,2,2.750191e-01,2.747482e-01
2.122997e+00,1.226768e+00,1.218081e+00,7,3,2.125543e-01,2.114303e-01
1.821803e+00,2.321550e-01,2.229214e-01,6,0,1.592221e-01,1.579672e-01

