5.313394e+00,3.761053e+00,6,36
1.772701e+00,2.358913e+00,2,29
1.964257e+00,2.395868e+00,2,27
1.780825e+00,2.544165e+00,2,27
1.799412e+00,1.800060e+00,2,18
1.787766e+00,9.140968e-01,2,9
1.763630e+00,2.810955e-01,2,2
1.769071e+00,7.700920e-02,2,0
1.745278e+00,7.700920e-02,2,0
8.932680e-01,7.700920e-02,1,0
8.736900e-01,7.700920e-02,1,0
8.771140e-01,7.700920e-02,1,0
8.794150e-01,7.700920e-02,1,0
8.741620e-01,7.700920e-02,1,0
8.624730e-01,7.581711e-02,1,0

