6.254070e-01,5.607730e-01,2,2,0.000000e+00,0.000000e+00
8.882130e-01,8.255030e-01,3,3,6.146605e-02,6.146589e-02
8.950190e-01,8.257620e-01,3,3,1.071135e-01,1.071125e-01
9.223630e-01,8.270230e-01,3,3,2.395170e-01,2.395094e-01
1.789767e+00,1.924608e+00,6,7,2.182489e-01,2.172543e-01
1.190576e+00,1.098703e+00,4,4,7.254577e-01,7.249502e-01
2.078416e+00,1.915252e+00,7,7,9.801481e-01,9.813076e-01
2.071982e+00,1.912183e+00,7,7,1.245128e+00,1.246492e+00
1.187013e+00,1.095868e+00,4,4,6.389644e-01,6.394192e-01
2.380091e+00,1.917158e+00,8,7,5.915604e-01,5.916124e-01
1.486092e+00,1.645098e+00,5,6,4.613551e-01,4.609968e-01
1.777317e+00,1.097018e+00,6,4,4.374909e-01,4.388991e-01
1.781876e+00,1.914083e+00,6,7,6.784898e-01,6.712419e-01
1.784489e+00,1.912270e+00,6,7,1.026450e+00,1.022595e+00
2.072483e+00,1.913197e+00,7,7,8.277684e-01,8.281657e-01
2.079627e+00,1.643887e+00,7,6,1.242992e+00,1.242757e+00
1.187198e+00,1.096887e+00,4,4,1.001991e+00,1.003034e+00
2.375333e+00,2.187480e+00,8,8,8.374427e-01,8.377643e-01
2.071286e+00,1.913797e+00,7,7,8.304892e-01,8.307927e-01
1.192173e+00,1.916607e+00,4,7,9.382565e-01,9.378412e-01
1.193689e+00,1.097792e+00,4,4,9.853446e-01,9.818041e-01
1.785112e+00,2.459586e+00,6,9,8.788991e-01,8.795841e-01
8.965120e-01,1.098864e+00,3,4,7.495568e-01,7.488639e-01
1.188101e+00,1.095707e+00,4,4,7.635589e-01,7.642669e-01
1.780961e+00,1.642464e+00,6,6,7.422433e-01,7.434564e-01
1.780677e+00,1.907474e+00,6,7,6.817738e-01,6.763088e-01
1.186575e+00,1.096046e+00,4,4,5.669005e-01,5.675426e-01
2.069939e+00,1.914065e+00,7,7,4.019724e-01,4.029027e-01
3.259293e+00,1.367751e+00,11,5,2.345025e-01,2.263473e-01
3.277535e+00,1.369219e+00,11,5,1.651284e-01,1.649207e-01
1.488592e+00,8.196020e-01,5,3,2.769557e-01,2.768323e-01
1.190791e+00,2.730351e+00,4,10,3.744538e-01,3.796400e-01
1.485276e+00,1.914051e+00,5,7,2.983947e-01,2.989089e-01
2.072560e+00,1.914438e+00,7,7,4.674628e-01,4.663162e-01
2.071607e+00,1.912305e+00,7,7,3.387856e-01,3.402105e-01
1.775797e+00,1.912801e+00,6,7,2.463856e-01,2.425333e-01
2.371850e+00,1.913134e+00,8,7,2.519494e-01,2.566757e-01
1.189952e+00,1.097413e+00,4,4,2.808212e-01,2.809824e-01
2.070771e+00,1.914780e+00,7,7,6.224525e-01,6.233033e-01
2.072748e+00,1.912913e+00,7,7,5.621245e-01,5.630304e-01
2.072889e+00,1.912808e+00,7,7,1.147992e+00,1.149841e+00
2.068854e+00,1.914463e+00,7,7,1.761972e+00,1.763968e+00
1.783280e+00,1.914734e+00,6,7,1.142166e+00,1.137192e+00
2.079569e+00,1.913256e+00,7,7,1.622088e+00,1.623812e+00
1.484339e+00,1.095761e+00,5,4,1.380221e+00,1.383971e+00
1.486161e+00,1.639911e+00,5,6,1.040088e+00,1.038258e+00
2.073843e+00,1.913325e+00,7,7,9.009051e-01,9.000914e-01
2.069992e+00,1.913282e+00,7,7,7.249251e-01,7.242835e-01
2.081537e+00,2.190229e+00,7,8,5.298179e-01,5.351790e-01
1.190149e+00,1.913107e+00,4,7,2.325861e-01,2.322077e-01
3.575879e+00,1.375359e+00,12,5,2.613767e-01,2.612297e-01
1.190161e+00,8.241550e-01,4,3,4.175933e-01,4.219259e-01
2.071707e+00,1.912892e+00,7,7,3.296406e-01,3.297930e-01
3.566905e+00,3.283122e+00,12,12,2.845186e-01,2.845386e-01
2.981783e+00,2.732037e+00,10,10,3.526019e-01,3.531485e-01
2.074023e+00,1.914237e+00,7,7,5.248161e-01,5.249255e-01
2.368849e+00,2.183669e+00,8,8,2.724853e-01,2.722421e-01
1.187127e+00,1.366635e+00,4,5,3.844337e-01,3.832331e-01
2.078702e+00,1.909279e+00,7,7,5.250030e-01,5.259694e-01
2.081589e+00,1.909188e+00,7,7,8.460034e-01,8.472468e-01
1.191098e+00,1.095883e+00,4,4,2.893778e-01,2.903619e-01
2.073344e+00,1.912969e+00,7,7,8.843674e-01,8.837858e-01
2.072120e+00,1.914120e+00,7,7,1.912480e+00,1.910796e+00
2.069704e+00,1.368921e+00,7,5,8.666602e-01,8.751152e-01
2.073306e+00,1.923340e+00,7,7,1.243751e+00,1.243977e+00
3.571734e+00,3.282102e+00,12,12,4.783352e-01,4.767867e-01
1.780615e+00,1.639129e+00,6,6,5.775875e-01,5.766038e-01
1.492014e+00,1.369729e+00,5,5,4.530213e-01,4.524283e-01
1.493109e+00,1.097413e+00,5,4,3.496165e-01,3.504757e-01
1.781085e+00,1.367448e+00,6,5,2.738178e-01,2.732585e-01
1.191117e+00,8.264350e-01,4,3,4.619110e-01,4.618489e-01
3.587220e+00,1.369578e+00,12,5,5.080196e-01,4.970857e-01
2.686196e+00,8.262130e-01,9,3,5.599798e-01,5.480453e-01
1.189176e+00,1.098220e+00,4,4,5.979551e-01,5.953747e-01
2.073315e+00,1.913240e+00,7,7,8.002730e-01,8.012576e-01
2.075265e+00,1.914119e+00,7,7,1.060811e+00,1.062529e+00
1.780667e+00,1.914111e+00,6,7,6.921234e-01,6.917069e-01
1.770770e+00,1.913492e+00,6,7,6.377091e-01,6.371273e-01
1.187785e+00,8.250060e-01,4,3,5.157709e-01,5.148353e-01
1.482335e+00,1.097132e+00,5,4,2.035726e-01,2.030839e-01
2.071286e+00,1.913934e+00,7,7,8.762038e-01,8.794491e-01
1.781828e+00,1.912037e+00,6,7,6.424875e-01,6.383145e-01
1.776898e+00,1.911832e+00,6,7,4.539850e-01,4.523061e-01
1.781130e+00,1.367792e+00,6,5,4.178526e-01,4.174297e-01
1.190536e+00,1.095625e+00,4,4,8.015966e-01,7.969210e-01
2.071915e+00,1.913297e+00,7,7,1.593566e+00,1.593709e+00
2.071485e+00,1.912942e+00,7,7,2.488277e+00,2.489016e+00
2.070483e+00,1.912779e+00,7,7,3.643363e+00,3.645634e+00
2.076804e+00,1.914984e+00,7,7,2.820371e+00,2.827842e+00
1.776402e+00,1.914492e+00,6,7,1.881776e+00,1.862934e+00
1.192079e+00,1.096414e+00,4,4,1.278910e+00,1.277627e+00
2.073326e+00,1.914491e+00,7,7,8.323104e-01,8.320695e-01
2.072315e+00,1.915341e+00,7,7,1.309597e+00,1.309069e+00
2.069978e+00,1.914565e+00,7,7,9.188566e-01,9.187560e-01
2.071092e+00,1.915293e+00,7,7,1.257208e+00,1.258078e+00
2.071781e+00,1.915593e+00,7,7,1.482480e+00,1.483950e+00
2.075679e+00,1.913553e+00,7,7,5.424886e-01,5.429901e-01
1.776076e+00,1.913183e+00,6,7,4.182925e-01,4.135629e-01
1.782366e+00,1.913765e+00,6,7,6.053248e-01,6.001174e-01
1.781766e+00,1.915632e+00,6,7,5.980443e-01,5.933396e-01
3.264515e+00,3.278128e+00,11,12,4.359348e-01,4.291220e-01
3.271601e+00,1.095945e+00,11,4,5.416426e-01,5.421182e-01
1.486287e+00,1.097272e+00,5,4,2.453029e-01,2.459739e-01
1.493708e+00,1.368300e+00,5,5,2.009972e-01,2.004517e-01
2.072115e+00,1.913149e+00,7,7,1.626106e-01,1.626454e-01
2.370929e+00,1.909034e+00,8,7,3.193439e-01,3.246309e-01
1.191663e+00,1.368531e+00,4,5,4.096022e-01,4.075574e-01
1.781850e+00,1.913900e+00,6,7,3.838174e-01,3.826389e-01
3.558266e+00,3.283075e+00,12,12,2.688668e-01,2.651598e-01
1.784054e+00,1.097098e+00,6,4,2.741290e-01,2.739170e-01
2.382882e+00,1.916056e+00,8,7,2.855952e-01,2.881204e-01
1.482725e+00,1.643685e+00,5,6,3.019233e-01,3.016087e-01
2.366623e+00,2.185243e+00,8,8,2.130930e-01,2.130420e-01
1.492024e+00,2.462569e+00,5,9,3.267548e-01,3.327400e-01
1.492985e+00,1.911118e+00,5,7,1.500777e-01,1.499046e-01
1.189113e+00,1.095879e+00,4,4,1.544841e-01,1.540366e-01
2.072035e+00,1.912935e+00,7,7,3.703215e-01,3.704144e-01
1.779930e+00,1.913708e+00,6,7,2.523835e-01,2.502681e-01
2.070724e+00,1.913368e+00,7,7,8.842126e-01,8.851666e-01
1.481097e+00,3.006325e+00,5,11,7.437259e-01,7.438604e-01
1.189050e+00,1.100059e+00,4,4,8.116979e-01,8.115741e-01
2.071835e+00,1.913024e+00,7,7,1.114821e+00,1.115682e+00
1.776945e+00,1.912727e+00,6,7,9.697232e-01,9.643255e-01
1.779583e+00,1.913206e+00,6,7,9.614431e-01,9.572908e-01
2.078570e+00,1.913921e+00,7,7,1.572331e+00,1.573393e+00
1.185890e+00,1.646390e+00,4,6,1.107300e+00,1.104424e+00
2.974235e+00,2.737404e+00,10,10,7.441376e-01,7.437170e-01
1.192442e+00,2.190126e+00,4,8,5.459478e-01,5.561953e-01
1.190114e+00,1.097084e+00,4,4,3.299720e-01,3.314315e-01
1.185934e+00,2.735201e+00,4,10,3.624809e-01,3.776487e-01
1.187922e+00,3.006481e+00,4,11,2.827659e-01,2.825115e-01
1.192199e+00,1.095994e+00,4,4,3.730693e-01,3.727506e-01
1.186488e+00,2.186192e+00,4,8,2.040528e-01,2.035772e-01
1.185767e+00,1.095794e+00,4,4,1.769789e-01,1.775674e-01
1.190505e+00,1.373700e+00,4,5,1.691594e-01,1.691506e-01
1.191113e+00,8.250300e-01,4,3,4.239216e-01,4.240638e-01
1.185792e+00,2.735395e+00,4,10,4.868048e-01,4.947606e-01
2.078600e+00,1.644203e+00,7,6,3.974131e-01,3.960224e-01
2.975025e+00,8.199650e-01,10,3,4.587531e-01,4.433630e-01
2.071187e+00,1.911838e+00,7,7,3.342884e-01,3.343656e-01
1.483330e+00,1.365491e+00,5,5,4.413057e-01,4.418001e-01
1.781352e+00,1.913137e+00,6,7,6.694119e-01,6.601566e-01
2.074092e+00,1.914283e+00,7,7,8.817989e-01,8.818597e-01
2.973505e+00,2.739609e+00,10,10,8.340892e-01,8.329547e-01
2.070755e+00,1.914615e+00,7,7,7.332021e-01,7.329881e-01
2.071920e+00,1.913654e+00,7,7,6.430584e-01,6.432060e-01
2.070285e+00,1.914162e+00,7,7,5.051654e-01,5.051821e-01
1.187566e+00,1.638693e+00,4,6,5.134677e-01,5.129488e-01
1.192423e+00,1.095459e+00,4,4,6.926243e-01,6.935010e-01
2.070072e+00,1.914725e+00,7,7,8.513350e-01,8.524614e-01
1.779323e+00,1.909489e+00,6,7,4.410622e-01,4.373836e-01
2.073279e+00,1.912993e+00,7,7,4.951018e-01,4.951079e-01
1.193926e+00,1.368963e+00,4,5,3.674399e-01,3.673115e-01
2.087020e+00,1.097414e+00,7,4,3.048437e-01,3.041396e-01
2.076269e+00,1.914315e+00,7,7,2.472978e-01,2.482484e-01
2.673017e+00,3.008858e+00,9,11,3.833804e-01,3.824092e-01
1.187845e+00,3.282631e+00,4,12,7.638264e-01,7.730618e-01
2.069159e+00,1.913262e+00,7,7,6.417476e-01,6.416775e-01
3.563742e+00,3.279260e+00,12,12,7.180717e-01,7.184843e-01
1.187332e+00,1.097629e+00,4,4,7.537708e-01,7.513448e-01
2.073420e+00,1.637463e+00,7,6,3.497901e-01,3.505360e-01
8.943510e-01,1.916158e+00,3,7,2.848491e-01,2.862766e-01
1.191282e+00,1.096419e+00,4,4,2.483534e-01,2.475375e-01
1.194353e+00,1.097971e+00,4,4,1.244523e-01,1.241948e-01
2.974377e+00,3.281002e+00,10,12,1.626235e-01,1.397469e-01
1.782516e+00,8.192220e-01,6,3,2.782791e-01,2.754226e-01
2.371411e+00,2.183975e+00,8,8,2.044924e-01,2.050171e-01
1.190261e+00,1.095961e+00,4,4,5.895566e-01,5.890939e-01
2.367827e+00,2.183622e+00,8,8,5.601014e-01,5.598499e-01
2.977360e+00,3.279675e+00,10,12,3.740823e-01,3.676026e-01
1.780820e+00,1.370275e+00,6,5,3.340246e-01,3.336383e-01
2.070849e+00,1.912680e+00,7,7,3.180848e-01,3.181048e-01
1.779170e+00,1.912517e+00,6,7,2.976406e-01,2.962597e-01
1.184594e+00,1.095012e+00,4,4,2.461684e-01,2.463250e-01
1.191103e+00,1.372926e+00,4,5,2.999815e-01,2.999661e-01
1.793495e+00,8.197380e-01,6,3,2.349444e-01,2.346860e-01
1.195853e+00,1.098042e+00,4,4,1.944988e-01,1.945783e-01
1.190346e+00,1.098608e+00,4,4,4.198391e-01,4.197176e-01
2.966898e+00,2.737500e+00,10,10,4.273409e-01,4.266326e-01
2.086778e+00,1.096850e+00,7,4,5.827845e-01,5.827240e-01
1.480163e+00,1.370806e+00,5,5,7.530315e-01,7.514114e-01
1.783405e+00,1.095827e+00,6,4,7.301748e-01,7.326545e-01
1.485714e+00,1.371968e+00,5,5,8.081581e-01,8.088429e-01
2.075654e+00,1.915570e+00,7,7,5.686019e-01,5.698878e-01
1.192211e+00,1.095637e+00,4,4,4.545510e-01,4.540736e-01
2.073001e+00,1.913594e+00,7,7,5.340307e-01,5.346684e-01
2.069179e+00,1.914667e+00,7,7,9.243143e-01,9.256298e-01
2.071698e+00,1.912281e+00,7,7,1.223154e+00,1.225488e+00
1.782186e+00,1.913783e+00,6,7,1.012026e+00,1.002906e+00
1.778273e+00,1.371870e+00,6,5,7.020405e-01,7.112593e-01
2.072929e+00,1.913543e+00,7,7,6.854797e-01,6.844469e-01
2.073200e+00,1.913224e+00,7,7,3.793830e-01,3.794987e-01
2.664965e+00,2.189246e+00,9,8,5.404406e-01,5.425916e-01
1.480641e+00,1.366730e+00,5,5,5.405585e-01,5.405306e-01
2.371141e+00,2.185157e+00,8,8,3.974372e-01,3.973882e-01
2.385780e+00,2.736504e+00,8,10,3.586719e-01,3.661243e-01
1.493402e+00,1.370256e+00,5,5,7.650335e-01,7.646106e-01
2.072090e+00,1.915401e+00,7,7,1.551547e+00,1.551019e+00
2.070588e+00,1.914543e+00,7,7,1.439134e+00,1.441268e+00
2.071762e+00,1.914103e+00,7,7,1.439232e+00,1.441236e+00
2.071563e+00,1.913401e+00,7,7,1.808217e+00,1.810399e+00
2.069787e+00,1.914210e+00,7,7,2.806771e+00,2.809046e+00
2.074345e+00,1.914434e+00,7,7,1.639635e+00,1.640110e+00
2.076564e+00,1.913554e+00,7,7,1.894235e+00,1.897286e+00
1.188709e+00,2.738092e+00,4,10,1.498916e+00,1.503073e+00
2.074697e+00,1.915972e+00,7,7,1.381515e+00,1.380532e+00
1.782336e+00,1.914499e+00,6,7,7.512798e-01,7.435648e-01
2.075444e+00,1.912859e+00,7,7,1.168657e+00,1.169037e+00
1.778923e+00,2.731060e+00,6,10,7.415750e-01,7.408090e-01
2.073922e+00,1.913590e+00,7,7,8.787236e-01,8.745899e-01
1.781597e+00,1.643758e+00,6,6,3.005483e-01,3.001138e-01
2.980875e+00,1.098250e+00,10,4,6.981235e-01,6.802961e-01
1.191802e+00,8.259860e-01,4,3,1.405877e+00,1.408008e+00
2.074460e+00,1.913582e+00,7,7,8.170851e-01,8.176905e-01
2.072512e+00,1.913883e+00,7,7,1.340015e+00,1.341171e+00
1.775151e+00,1.911994e+00,6,7,1.254220e+00,1.247071e+00
2.068702e+00,1.913787e+00,7,7,1.692296e+00,1.694156e+00
2.072713e+00,1.913705e+00,7,7,8.903787e-01,8.905486e-01
3.279476e+00,2.732247e+00,11,10,7.317355e-01,7.395725e-01
2.072500e+00,1.913910e+00,7,7,4.829226e-01,4.828811e-01
1.195723e+00,1.097071e+00,4,4,4.636801e-01,4.624672e-01
2.071905e+00,1.912915e+00,7,7,4.386704e-01,4.392517e-01
2.069665e+00,1.910890e+00,7,7,7.754782e-01,7.760568e-01
2.962565e+00,2.729585e+00,10,10,3.251700e-01,3.229659e-01
3.566489e+00,3.277607e+00,12,12,3.190037e-01,3.158497e-01
1.190101e+00,3.010028e+00,4,11,4.034090e-01,4.034409e-01
8.948670e-01,1.373408e+00,3,5,4.441890e-01,4.442725e-01
1.190795e+00,1.098071e+00,4,4,3.022140e-01,3.022149e-01
8.939730e-01,8.241150e-01,3,3,3.900917e-01,3.888401e-01
2.075513e+00,1.912546e+00,7,7,5.140155e-01,5.144095e-01
1.776543e+00,1.913347e+00,6,7,7.291327e-01,7.220240e-01
2.069256e+00,1.912782e+00,7,7,1.540286e+00,1.541752e+00
2.070498e+00,1.913878e+00,7,7,2.171717e+00,2.174743e+00
1.782741e+00,1.914354e+00,6,7,1.445912e+00,1.436395e+00
2.079660e+00,1.914544e+00,7,7,1.806123e+00,1.808125e+00
3.573588e+00,3.281163e+00,12,12,1.268166e+00,1.267957e+00
2.074601e+00,1.913872e+00,7,7,8.700758e-01,8.700938e-01
2.071105e+00,1.914009e+00,7,7,1.033095e+00,1.033199e+00
2.078636e+00,1.913767e+00,7,7,4.854935e-01,4.857571e-01
2.372691e+00,2.463440e+00,8,9,4.948873e-01,4.819430e-01
3.568030e+00,3.285712e+00,12,12,3.381003e-01,3.356868e-01
1.192218e+00,1.097625e+00,4,4,3.310904e-01,3.303401e-01
1.187642e+00,1.096509e+00,4,4,3.106460e-01,3.109280e-01
2.079125e+00,1.914515e+00,7,7,4.374257e-01,4.386273e-01
3.563544e+00,3.278026e+00,12,12,1.976618e-01,1.919879e-01
1.191120e+00,1.096717e+00,4,4,6.596350e-01,6.587996e-01
2.070999e+00,1.913818e+00,7,7,1.642373e+00,1.643922e+00
1.781056e+00,1.914672e+00,6,7,9.178051e-01,9.157076e-01
3.576507e+00,3.281924e+00,12,12,6.609202e-01,6.567983e-01
3.576167e+00,3.010441e+00,12,11,4.983729e-01,4.969502e-01
3.571103e+00,3.288217e+00,12,12,4.330215e-01,4.265079e-01
1.196223e+00,2.463971e+00,4,9,4.427822e-01,4.552774e-01
1.191158e+00,1.097733e+00,4,4,7.905792e-01,7.885197e-01
2.072306e+00,1.914401e+00,7,7,6.630964e-01,6.630109e-01
1.189943e+00,1.096313e+00,4,4,5.574930e-01,5.578745e-01
3.276889e+00,2.739978e+00,11,10,6.080897e-01,6.085903e-01
1.189085e+00,1.098084e+00,4,4,8.286763e-01,8.274311e-01
2.071523e+00,1.914136e+00,7,7,1.325654e+00,1.326456e+00
2.070850e+00,1.913489e+00,7,7,2.557643e+00,2.558196e+00
2.070044e+00,1.913388e+00,7,7,3.227996e+00,3.231056e+00
2.072186e+00,1.911981e+00,7,7,2.749091e+00,2.754972e+00
2.079940e+00,1.913199e+00,7,7,2.970416e+00,2.976616e+00
1.785531e+00,1.915782e+00,6,7,2.376991e+00,2.366655e+00
2.079327e+00,1.914449e+00,7,7,2.301740e+00,2.305459e+00
2.074533e+00,1.913046e+00,7,7,2.236251e+00,2.239400e+00
2.070946e+00,1.914953e+00,7,7,1.719476e+00,1.718998e+00
2.074998e+00,1.914141e+00,7,7,1.415740e+00,1.416137e+00
2.074914e+00,1.914378e+00,7,7,1.070060e+00,1.070139e+00
2.076115e+00,1.912867e+00,7,7,1.001110e+00,1.001176e+00
2.071821e+00,1.914532e+00,7,7,1.092890e+00,1.092917e+00
2.072467e+00,1.913367e+00,7,7,1.481117e+00,1.481098e+00
2.075592e+00,1.914362e+00,7,7,2.902642e+00,2.908594e+00
2.070670e+00,1.914771e+00,7,7,3.206614e+00,3.209626e+00
2.072824e+00,1.915619e+00,7,7,3.477922e+00,3.480594e+00
2.071210e+00,1.914888e+00,7,7,3.057087e+00,3.059731e+00
2.074358e+00,1.914499e+00,7,7,2.915719e+00,2.919107e+00
2.070835e+00,1.913755e+00,7,7,3.367543e+00,3.373161e+00
2.072495e+00,1.912784e+00,7,7,2.979828e+00,2.986337e+00
1.779785e+00,1.914991e+00,6,7,2.434255e+00,2.422648e+00
1.490370e+00,1.095857e+00,5,4,1.803104e+00,1.819009e+00
2.072950e+00,1.914391e+00,7,7,1.430909e+00,1.431683e+00
2.071891e+00,1.914577e+00,7,7,1.117720e+00,1.117380e+00
2.071516e+00,1.913263e+00,7,7,1.066654e+00,1.064847e+00
2.071944e+00,1.913646e+00,7,7,1.213136e+00,1.212982e+00
2.071990e+00,1.912384e+00,7,7,6.126590e-01,6.132780e-01
1.780461e+00,1.913574e+00,6,7,5.236736e-01,5.174751e-01
1.777283e+00,1.912355e+00,6,7,6.070083e-01,6.025880e-01
1.779830e+00,1.913875e+00,6,7,3.447632e-01,3.443009e-01
2.964549e+00,2.731789e+00,10,10,3.514908e-01,3.498571e-01
1.191385e+00,1.097886e+00,4,4,2.649715e-01,2.654206e-01
2.088629e+00,2.737421e+00,7,10,2.600187e-01,2.623495e-01
2.983212e+00,1.096795e+00,10,4,3.432857e-01,3.415235e-01
3.564351e+00,3.281739e+00,12,12,3.467110e-01,3.420982e-01
1.191700e+00,1.096037e+00,4,4,3.542219e-01,3.544859e-01
1.480886e+00,1.372249e+00,5,5,3.303954e-01,3.297342e-01
2.382690e+00,1.096430e+00,8,4,2.814968e-01,2.660070e-01
1.775440e+00,1.642504e+00,6,6,2.856534e-01,2.879161e-01
2.070061e+00,1.368831e+00,7,5,8.840024e-01,8.841499e-01
2.973334e+00,1.644712e+00,10,6,1.966030e+00,1.965440e+00
2.072215e+00,1.914311e+00,7,7,2.526375e+00,2.524967e+00
2.072972e+00,1.914517e+00,7,7,1.966779e+00,1.970669e+00
1.780097e+00,1.914198e+00,6,7,2.120715e+00,2.123504e+00
2.072532e+00,1.914379e+00,7,7,1.918038e+00,1.921561e+00
1.779585e+00,1.913779e+00,6,7,1.629157e+00,1.606357e+00
1.488730e+00,1.096374e+00,5,4,1.084185e+00,1.095534e+00
2.071733e+00,1.912747e+00,7,7,1.003230e+00,1.008162e+00
2.071695e+00,1.915421e+00,7,7,2.061922e+00,2.057460e+00
2.071008e+00,1.914341e+00,7,7,2.846521e+00,2.842420e+00
2.071020e+00,1.915559e+00,7,7,3.293975e+00,3.289980e+00
2.071293e+00,1.914731e+00,7,7,2.529631e+00,2.530165e+00
1.781381e+00,1.909311e+00,6,7,1.867703e+00,1.845650e+00
2.078073e+00,1.909699e+00,7,7,1.264919e+00,1.265421e+00
1.191018e+00,1.093990e+00,4,4,9.397971e-01,9.356578e-01
2.071501e+00,1.913779e+00,7,7,1.399100e+00,1.399069e+00
2.070354e+00,1.915175e+00,7,7,1.408992e+00,1.410706e+00
2.071930e+00,1.913366e+00,7,7,1.011330e+00,1.012242e+00
2.070067e+00,1.922475e+00,7,7,1.067114e+00,1.067011e+00
2.080139e+00,1.913765e+00,7,7,1.249731e+00,1.250646e+00
1.782445e+00,1.908261e+00,6,7,1.297192e+00,1.289570e+00
2.083171e+00,1.908691e+00,7,7,1.603573e+00,1.604640e+00
3.270079e+00,3.282777e+00,11,12,1.335718e+00,1.334313e+00
1.186373e+00,1.645867e+00,4,6,1.701195e+00,1.699206e+00
2.073689e+00,1.914360e+00,7,7,1.645876e+00,1.645861e+00
1.782979e+00,1.640841e+00,6,6,1.348244e+00,1.350791e+00
2.388364e+00,1.639507e+00,8,6,1.059665e+00,1.062004e+00
2.071540e+00,1.914412e+00,7,7,1.095909e+00,1.095857e+00
2.070406e+00,1.913135e+00,7,7,1.022454e+00,1.022414e+00
2.069192e+00,1.911851e+00,7,7,6.102906e-01,6.105843e-01
1.782533e+00,1.913660e+00,6,7,5.881144e-01,5.832755e-01
2.366453e+00,1.914954e+00,8,7,3.655405e-01,3.699763e-01
1.490236e+00,1.640374e+00,5,6,3.852149e-01,3.851366e-01
1.485995e+00,1.642258e+00,5,6,3.075601e-01,3.066395e-01
2.964706e+00,2.730616e+00,10,10,2.625738e-01,2.625755e-01
1.489263e+00,1.368689e+00,5,5,2.191912e-01,2.182617e-01
2.080147e+00,1.097203e+00,7,4,2.789562e-01,2.773881e-01
2.971315e+00,2.734081e+00,10,10,1.233848e-01,1.226645e-01
1.486157e+00,1.368093e+00,5,5,9.655984e-02,9.654320e-02
1.190463e+00,1.369115e+00,4,5,1.059369e-01,1.061694e-01
8.932930e-01,1.918997e+00,3,7,1.000807e-01,1.000837e-01
8.922700e-01,8.248830e-01,3,3,1.225679e-01,1.225656e-01
8.937670e-01,8.256530e-01,3,3,2.196501e-01,2.196466e-01
1.189935e+00,8.243050e-01,4,3,1.385334e-01,1.387267e-01
1.486566e+00,1.644882e+00,5,6,2.162722e-01,2.156387e-01
2.073131e+00,1.914736e+00,7,7,3.748248e-01,3.748667e-01
2.967016e+00,2.734645e+00,10,10,2.375605e-01,2.378548e-01
8.888850e-01,1.101962e+00,3,4,2.927191e-01,2.928824e-01
1.193042e+00,1.101473e+00,4,4,3.124515e-01,3.129907e-01
8.949170e-01,1.096430e+00,3,4,4.048634e-01,4.050190e-01
2.964099e+00,2.733552e+00,10,10,3.263875e-01,3.263985e-01
8.890970e-01,8.237810e-01,3,3,2.130559e-01,2.130406e-01
3.281106e+00,2.732851e+00,11,10,1.410983e-01,1.378129e-01
1.192635e+00,8.194860e-01,4,3,2.111653e-01,2.100511e-01
2.974892e+00,8.243500e-01,10,3,1.948304e-01,1.734100e-01
2.981677e+00,3.012016e+00,10,11,1.580195e-01,1.449316e-01
3.581672e+00,1.370172e+00,12,5,3.409171e-01,3.402159e-01
2.983934e+00,1.098906e+00,10,4,2.433147e-01,2.355515e-01
1.191056e+00,8.248780e-01,4,3,3.858624e-01,3.858638e-01
8.941650e-01,8.256360e-01,3,3,7.722440e-01,7.722431e-01
8.932840e-01,8.251120e-01,3,3,5.718900e-01,5.730029e-01
1.773895e+00,1.912568e+00,6,7,4.588808e-01,4.579999e-01
2.073662e+00,1.911799e+00,7,7,9.180444e-01,9.185469e-01
1.781972e+00,1.914165e+00,6,7,1.166767e+00,1.163385e+00
1.778330e+00,1.912679e+00,6,7,5.002994e-01,4.984284e-01
2.365567e+00,2.184010e+00,8,8,3.304059e-01,3.302560e-01
1.195059e+00,1.098185e+00,4,4,3.419008e-01,3.417464e-01
1.774385e+00,1.640060e+00,6,6,1.520437e-01,1.519206e-01
1.482905e+00,1.365342e+00,5,5,1.190791e-01,1.189992e-01
2.072614e+00,1.911919e+00,7,7,2.287429e-01,2.287800e-01
1.779814e+00,1.912576e+00,6,7,1.987016e-01,1.978223e-01
1.185473e+00,1.095797e+00,4,4,2.348555e-01,2.358149e-01
2.070605e+00,1.912785e+00,7,7,5.225265e-01,5.230101e-01
1.779159e+00,1.913725e+00,6,7,3.651892e-01,3.647936e-01
3.270590e+00,3.007250e+00,11,11,3.311899e-01,3.310217e-01
8.933680e-01,8.247800e-01,3,3,3.414497e-01,3.426945e-01
3.561004e+00,3.280087e+00,12,12,2.648179e-01,2.648189e-01
1.491901e+00,1.370511e+00,5,5,2.931927e-01,2.930620e-01
1.780974e+00,2.188424e+00,6,8,4.268864e-01,4.268565e-01
1.492129e+00,1.369085e+00,5,5,2.858878e-01,2.857977e-01
2.389434e+00,2.731206e+00,8,10,3.562103e-01,3.608640e-01
8.946310e-01,1.645627e+00,3,6,4.115423e-01,4.121220e-01
1.190393e+00,1.370062e+00,4,5,4.715564e-01,4.714841e-01
1.194844e+00,8.195310e-01,4,3,6.298355e-01,6.326262e-01
1.782182e+00,1.913481e+00,6,7,3.276399e-01,3.257664e-01
1.186143e+00,1.096507e+00,4,4,3.299182e-01,3.308382e-01
2.069493e+00,1.912753e+00,7,7,3.433245e-01,3.430311e-01
1.777653e+00,1.914007e+00,6,7,3.639360e-01,3.596762e-01
1.780116e+00,1.914892e+00,6,7,2.207557e-01,2.170501e-01
3.267620e+00,2.186305e+00,11,8,6.929875e-01,6.866482e-01
1.779150e+00,3.279439e+00,6,12,4.656166e-01,4.617337e-01
2.962830e+00,1.916128e+00,10,7,4.304851e-01,4.236405e-01
2.070567e+00,1.915575e+00,7,7,3.862214e-01,3.860299e-01
1.188836e+00,1.098517e+00,4,4,3.622152e-01,3.615179e-01
1.775308e+00,1.912482e+00,6,7,2.571927e-01,2.529568e-01
2.371759e+00,2.183439e+00,8,8,3.862117e-01,3.859969e-01
1.782901e+00,1.909152e+00,6,7,4.421403e-01,4.410897e-01
3.570427e+00,3.280139e+00,12,12,3.953280e-01,3.933357e-01
1.192943e+00,1.096191e+00,4,4,4.379813e-01,4.376356e-01
1.777117e+00,1.641991e+00,6,6,3.093124e-01,3.108405e-01
1.188117e+00,1.643767e+00,4,6,3.014366e-01,3.066534e-01
2.070923e+00,1.913852e+00,7,7,2.308988e-01,2.307407e-01
1.187416e+00,1.645075e+00,4,6,1.956381e-01,1.950617e-01
2.375762e+00,1.097598e+00,8,4,1.686204e-01,1.696848e-01
1.190179e+00,2.194879e+00,4,8,2.757341e-01,2.756436e-01
1.481955e+00,2.733112e+00,5,10,1.646901e-01,1.639931e-01
1.188538e+00,3.280583e+00,4,12,2.349580e-01,2.372239e-01
1.189887e+00,1.101121e+00,4,4,2.060615e-01,2.063952e-01
1.187548e+00,1.098354e+00,4,4,2.451539e-01,2.449962e-01
1.190132e+00,8.248170e-01,4,3,3.174562e-01,3.174406e-01
1.191184e+00,8.250890e-01,4,3,2.548788e-01,2.551421e-01
1.191134e+00,1.096603e+00,4,4,7.727434e-01,7.721961e-01
2.070371e+00,1.914537e+00,7,7,1.813397e+00,1.816943e+00
2.072421e+00,1.912929e+00,7,7,1.337553e+00,1.339936e+00
2.072962e+00,1.912646e+00,7,7,1.039036e+00,1.039156e+00
1.188048e+00,1.095594e+00,4,4,8.486687e-01,8.490633e-01
1.491321e+00,1.916404e+00,5,7,9.129708e-01,9.129479e-01
1.193421e+00,8.250800e-01,4,3,7.047881e-01,7.051504e-01
1.190303e+00,1.099288e+00,4,4,5.912713e-01,5.919411e-01
1.782485e+00,1.914313e+00,6,7,5.439997e-01,5.392313e-01
2.073581e+00,1.914635e+00,7,7,5.436099e-01,5.438368e-01
2.071027e+00,1.913083e+00,7,7,4.154613e-01,4.155769e-01
1.190574e+00,1.097051e+00,4,4,5.594731e-01,5.559668e-01
2.070584e+00,1.913715e+00,7,7,9.471104e-01,9.493946e-01
2.070915e+00,1.913131e+00,7,7,6.976100e-01,6.988305e-01
2.071671e+00,1.912503e+00,7,7,3.207740e-01,3.217192e-01
2.074189e+00,1.913233e+00,7,7,1.779523e-01,1.780146e-01
1.186571e+00,1.371429e+00,4,5,1.894071e-01,1.891433e-01
1.190099e+00,8.260600e-01,4,3,2.266060e-01,2.263837e-01
1.187587e+00,3.281517e+00,4,12,3.133705e-01,3.139319e-01
1.189356e+00,1.917112e+00,4,7,2.059275e-01,2.059324e-01
8.940480e-01,8.237930e-01,3,3,2.504787e-01,2.504443e-01
2.070599e+00,1.914447e+00,7,7,2.940128e-01,2.940654e-01
1.191680e+00,1.097088e+00,4,4,3.001747e-01,3.001782e-01
8.947000e-01,8.236260e-01,3,3,5.056992e-01,5.056619e-01
2.962656e+00,2.732003e+00,10,10,2.739486e-01,2.739391e-01
8.945730e-01,8.239270e-01,3,3,2.251678e-01,2.251717e-01
1.189976e+00,1.096474e+00,4,4,8.753034e-01,8.737034e-01
2.073797e+00,1.912655e+00,7,7,1.064447e+00,1.064770e+00
1.481747e+00,2.734045e+00,5,10,4.794447e-01,4.803451e-01
1.493331e+00,1.096134e+00,5,4,5.058719e-01,5.058710e-01
1.190962e+00,1.097643e+00,4,4,4.422209e-01,4.425682e-01
8.947640e-01,1.369593e+00,3,5,4.526313e-01,4.525081e-01
1.191541e+00,8.241950e-01,4,3,2.127323e-01,2.128137e-01
8.939080e-01,1.096560e+00,3,4,1.703140e-01,1.703032e-01
8.952260e-01,8.248730e-01,3,3,2.756602e-01,2.754145e-01
2.070814e+00,1.913140e+00,7,7,3.396390e-01,3.396606e-01
1.782059e+00,1.914276e+00,6,7,4.146578e-01,4.132304e-01
2.974525e+00,3.279269e+00,10,12,2.940517e-01,2.716290e-01
1.488279e+00,8.251660e-01,5,3,2.630254e-01,2.662116e-01
2.070566e+00,1.912544e+00,7,7,4.164582e-01,4.175709e-01
2.071677e+00,1.913550e+00,7,7,5.336998e-01,5.347412e-01
2.080146e+00,1.910899e+00,7,7,5.634959e-01,5.642663e-01
1.781621e+00,1.912864e+00,6,7,8.469066e-01,8.418690e-01
1.781472e+00,1.912214e+00,6,7,7.949161e-01,7.913380e-01
2.080382e+00,1.912827e+00,7,7,1.248434e+00,1.248897e+00
3.563718e+00,3.280979e+00,12,12,4.984132e-01,5.012480e-01
1.195163e+00,1.097665e+00,4,4,4.373831e-01,4.367552e-01
2.071079e+00,1.913974e+00,7,7,7.471964e-01,7.472810e-01
2.074728e+00,1.912579e+00,7,7,3.787629e-01,3.788856e-01
2.368782e+00,2.187401e+00,8,8,3.990374e-01,3.989862e-01
1.485880e+00,1.367682e+00,5,5,2.744824e-01,2.744777e-01
2.071280e+00,1.911336e+00,7,7,1.383455e-01,1.385070e-01
1.190013e+00,1.096061e+00,4,4,3.255574e-01,3.247761e-01
3.274610e+00,3.277095e+00,11,12,3.253081e-01,3.256542e-01
1.185663e+00,1.099553e+00,4,4,2.090000e-01,2.087420e-01
1.197280e+00,8.200710e-01,4,3,5.616837e-01,5.614930e-01
2.369897e+00,2.184889e+00,8,8,2.946054e-01,2.948355e-01
2.972592e+00,2.732946e+00,10,10,1.642542e-01,1.635418e-01
3.270538e+00,3.006096e+00,11,11,1.635475e-01,1.635273e-01
2.380581e+00,2.734572e+00,8,10,2.392570e-01,2.383944e-01
1.192168e+00,2.463162e+00,4,9,3.735783e-01,3.850317e-01
1.193109e+00,2.189326e+00,4,8,6.209146e-01,6.213258e-01
1.187067e+00,1.095598e+00,4,4,6.386884e-01,6.387336e-01
2.069534e+00,1.915987e+00,7,7,9.675673e-01,9.673789e-01
2.072258e+00,1.913640e+00,7,7,4.131800e-01,4.132302e-01
2.979032e+00,2.734544e+00,10,10,3.418267e-01,3.417232e-01
1.492845e+00,1.097542e+00,5,4,2.165522e-01,2.168281e-01
1.479253e+00,1.912787e+00,5,7,2.101994e-01,2.102202e-01
2.070591e+00,1.913873e+00,7,7,4.712246e-01,4.718556e-01
2.071608e+00,1.914330e+00,7,7,5.843464e-01,5.844015e-01
2.072439e+00,1.914171e+00,7,7,6.526445e-01,6.534301e-01
2.079416e+00,1.913519e+00,7,7,5.761556e-01,5.771222e-01
1.782883e+00,1.914469e+00,6,7,6.648487e-01,6.602714e-01
2.071824e+00,1.914879e+00,7,7,9.961490e-01,9.977617e-01
2.080201e+00,1.913115e+00,7,7,1.146464e+00,1.148817e+00
1.782054e+00,1.909879e+00,6,7,7.681594e-01,7.642977e-01
3.272820e+00,3.277930e+00,11,12,6.408966e-01,6.382970e-01
2.071595e+00,1.915679e+00,7,7,1.007495e+00,1.009883e+00
1.186506e+00,1.096325e+00,4,4,5.367668e-01,5.396865e-01
2.070427e+00,1.912783e+00,7,7,4.178110e-01,4.178484e-01
1.781088e+00,1.917207e+00,6,7,5.379105e-01,5.325014e-01
1.186502e+00,1.094902e+00,4,4,6.772995e-01,6.773205e-01
3.278953e+00,1.098382e+00,11,4,9.167598e-01,9.129604e-01
2.075764e+00,1.096650e+00,7,4,4.113482e-01,4.084170e-01
2.070562e+00,1.913828e+00,7,7,4.021897e-01,4.024433e-01
2.070082e+00,1.913492e+00,7,7,5.378088e-01,5.388820e-01
2.076301e+00,1.913135e+00,7,7,6.476571e-01,6.487240e-01
2.069952e+00,1.912131e+00,7,7,4.354644e-01,4.354986e-01
1.778897e+00,1.637985e+00,6,6,4.542263e-01,4.524525e-01
2.067719e+00,1.911528e+00,7,7,2.791360e-01,2.790132e-01
1.777008e+00,1.644076e+00,6,6,2.251385e-01,2.250050e-01

