6.325170e-01,5.558650e-01,2,2,0.000000e+00,0.000000e+00
8.995280e-01,8.275730e-01,3,3,6.146605e-02,6.146589e-02
9.009410e-01,8.277140e-01,3,3,1.071135e-01,1.071125e-01
9.018390e-01,8.520150e-01,3,3,2.395170e-01,2.395094e-01
1.804290e+00,1.918028e+00,6,7,2.182489e-01,2.172543e-01
1.205897e+00,1.099882e+00,4,4,7.254577e-01,7.249502e-01
2.091870e+00,1.917974e+00,7,7,9.801481e-01,9.813076e-01
2.094964e+00,1.916620e+00,7,7,1.245128e+00,1.246492e+00
1.195820e+00,1.097595e+00,4,4,6.389644e-01,6.394192e-01
2.399445e+00,1.916740e+00,8,7,5.915604e-01,5.916124e-01
1.495783e+00,1.646146e+00,5,6,4.613551e-01,4.609968e-01
1.788772e+00,1.097821e+00,6,4,4.374909e-01,4.388991e-01
1.794084e+00,1.915306e+00,6,7,6.784898e-01,6.712419e-01
1.795328e+00,1.919450e+00,6,7,1.026450e+00,1.022595e+00
2.087827e+00,1.915687e+00,7,7,8.277684e-01,8.281657e-01
2.097519e+00,1.647348e+00,7,6,1.242992e+00,1.242757e+00
1.194977e+00,1.098546e+00,4,4,1.001991e+00,1.003034e+00
2.393548e+00,2.195464e+00,8,8,8.374427e-01,8.377643e-01
2.084177e+00,1.915027e+00,7,7,8.304892e-01,8.307927e-01
1.194594e+00,1.920073e+00,4,7,9.382565e-01,9.378412e-01
1.199493e+00,1.098727e+00,4,4,9.853446e-01,9.818041e-01
1.795986e+00,2.465359e+00,6,9,8.788991e-01,8.795841e-01
9.002550e-01,1.098570e+00,3,4,7.495568e-01,7.488639e-01
1.195699e+00,1.103495e+00,4,4,7.635589e-01,7.642669e-01
1.789234e+00,1.643612e+00,6,6,7.422433e-01,7.434564e-01
1.793838e+00,1.915724e+00,6,7,6.817738e-01,6.763088e-01
1.194926e+00,1.097081e+00,4,4,5.669005e-01,5.675426e-01
2.085649e+00,1.914591e+00,7,7,4.019724e-01,4.029027e-01
3.281822e+00,1.375948e+00,11,5,2.345025e-01,2.263473e-01
3.304013e+00,1.372188e+00,11,5,1.651284e-01,1.649207e-01
1.496724e+00,8.269210e-01,5,3,2.769557e-01,2.768323e-01
1.194848e+00,2.737190e+00,4,10,3.744538e-01,3.796400e-01
1.491087e+00,1.918209e+00,5,7,2.983947e-01,2.989089e-01
2.085099e+00,1.916823e+00,7,7,4.674628e-01,4.663162e-01
2.085598e+00,1.914474e+00,7,7,3.387856e-01,3.402105e-01
1.790025e+00,1.914700e+00,6,7,2.463856e-01,2.425333e-01
2.383370e+00,1.914584e+00,8,7,2.519494e-01,2.566757e-01
1.198577e+00,1.097559e+00,4,4,2.808212e-01,2.809824e-01
2.087840e+00,1.911103e+00,7,7,6.224525e-01,6.233033e-01
2.088489e+00,1.912043e+00,7,7,5.621245e-01,5.630304e-01
2.088683e+00,1.912298e+00,7,7,1.147992e+00,1.149841e+00
2.087954e+00,1.912296e+00,7,7,1.761972e+00,1.763968e+00
1.792782e+00,1.914486e+00,6,7,1.142166e+00,1.137192e+00
2.093427e+00,1.916467e+00,7,7,1.622088e+00,1.623812e+00
1.498197e+00,1.096729e+00,5,4,1.380221e+00,1.383971e+00
1.492123e+00,1.645694e+00,5,6,1.040088e+00,1.038258e+00
2.087172e+00,1.916931e+00,7,7,9.009051e-01,9.000914e-01
2.083162e+00,1.917020e+00,7,7,7.249251e-01,7.242835e-01
2.095416e+00,2.189959e+00,7,8,5.298179e-01,5.351790e-01
1.197549e+00,1.915138e+00,4,7,2.325861e-01,2.322077e-01
3.602981e+00,1.370745e+00,12,5,2.613767e-01,2.612297e-01
1.202670e+00,8.207100e-01,4,3,4.175933e-01,4.219259e-01
2.084786e+00,1.913389e+00,7,7,3.296406e-01,3.297930e-01
3.592974e+00,3.282414e+00,12,12,2.845186e-01,2.845386e-01
2.998455e+00,2.739818e+00,10,10,3.526019e-01,3.531485e-01
2.087873e+00,1.915786e+00,7,7,5.248161e-01,5.249255e-01
2.381650e+00,2.191228e+00,8,8,2.724853e-01,2.722421e-01
1.195644e+00,1.369426e+00,4,5,3.844337e-01,3.832331e-01
2.090900e+00,1.914072e+00,7,7,5.250030e-01,5.259694e-01
2.090674e+00,1.914233e+00,7,7,8.460034e-01,8.472468e-01
1.192391e+00,1.101117e+00,4,4,2.893778e-01,2.903619e-01
2.086011e+00,1.916682e+00,7,7,8.843674e-01,8.837858e-01
2.084899e+00,1.915500e+00,7,7,1.912480e+00,1.910796e+00
2.083756e+00,1.370461e+00,7,5,8.666602e-01,8.751152e-01
2.086712e+00,1.915216e+00,7,7,1.243751e+00,1.243977e+00
3.595435e+00,3.285057e+00,12,12,4.783352e-01,4.767867e-01
1.790818e+00,1.640318e+00,6,6,5.775875e-01,5.766038e-01
1.500581e+00,1.370445e+00,5,5,4.530213e-01,4.524283e-01
1.500990e+00,1.098621e+00,5,4,3.496165e-01,3.504757e-01
1.792525e+00,1.371003e+00,6,5,2.738178e-01,2.732585e-01
1.199633e+00,8.261240e-01,4,3,4.619110e-01,4.618489e-01
3.607481e+00,1.371122e+00,12,5,5.080196e-01,4.970857e-01
2.706164e+00,8.260680e-01,9,3,5.599798e-01,5.480453e-01
1.195069e+00,1.097944e+00,4,4,5.979551e-01,5.953747e-01
2.085215e+00,1.915553e+00,7,7,8.002730e-01,8.012576e-01
2.089313e+00,1.916020e+00,7,7,1.060811e+00,1.062529e+00
1.793170e+00,1.916606e+00,6,7,6.921234e-01,6.917069e-01
1.781900e+00,1.913457e+00,6,7,6.377091e-01,6.371273e-01
1.196208e+00,8.246540e-01,4,3,5.157709e-01,5.148353e-01
1.492506e+00,1.098169e+00,5,4,2.035726e-01,2.030839e-01
2.084913e+00,1.917306e+00,7,7,8.762038e-01,8.794491e-01
1.793544e+00,1.916966e+00,6,7,6.424875e-01,6.383145e-01
1.787523e+00,1.916384e+00,6,7,4.539850e-01,4.523061e-01
1.794564e+00,1.374766e+00,6,5,4.178526e-01,4.174297e-01
1.194948e+00,1.098644e+00,4,4,8.015966e-01,7.969210e-01
2.083669e+00,1.916551e+00,7,7,1.593566e+00,1.593709e+00
2.084905e+00,1.917992e+00,7,7,2.488277e+00,2.489016e+00
2.084574e+00,1.916962e+00,7,7,3.643363e+00,3.645634e+00
2.089475e+00,1.916626e+00,7,7,2.820371e+00,2.827842e+00
1.794901e+00,1.917305e+00,6,7,1.881776e+00,1.862934e+00
1.192292e+00,1.099021e+00,4,4,1.278910e+00,1.277627e+00
2.086665e+00,1.915564e+00,7,7,8.323104e-01,8.320695e-01
2.086148e+00,1.916641e+00,7,7,1.309597e+00,1.309069e+00
2.084836e+00,1.915841e+00,7,7,9.188566e-01,9.187560e-01
2.083952e+00,1.915560e+00,7,7,1.257208e+00,1.258078e+00
2.083937e+00,1.917202e+00,7,7,1.482480e+00,1.483950e+00
2.088302e+00,1.915493e+00,7,7,5.424886e-01,5.429901e-01
1.796198e+00,1.915872e+00,6,7,4.182925e-01,4.135629e-01
1.787491e+00,1.914984e+00,6,7,6.053248e-01,6.001174e-01
1.794104e+00,1.916851e+00,6,7,5.980443e-01,5.933396e-01
3.287437e+00,3.287619e+00,11,12,4.359348e-01,4.291220e-01
3.288584e+00,1.097723e+00,11,4,5.416426e-01,5.421182e-01
1.500138e+00,1.098750e+00,5,4,2.453029e-01,2.459739e-01
1.497454e+00,1.373135e+00,5,5,2.009972e-01,2.004517e-01
2.084994e+00,1.915488e+00,7,7,1.626106e-01,1.626454e-01
2.386294e+00,1.917378e+00,8,7,3.193439e-01,3.246309e-01
1.196163e+00,1.369296e+00,4,5,4.096022e-01,4.075574e-01
1.794915e+00,1.916577e+00,6,7,3.838174e-01,3.826389e-01
3.593046e+00,3.282702e+00,12,12,2.688668e-01,2.651598e-01
1.798090e+00,1.099679e+00,6,4,2.741290e-01,2.739170e-01
2.392841e+00,1.918201e+00,8,7,2.855952e-01,2.881204e-01
1.496721e+00,1.638913e+00,5,6,3.019233e-01,3.016087e-01
2.385641e+00,2.187054e+00,8,8,2.130930e-01,2.130420e-01
1.501879e+00,2.464858e+00,5,9,3.267548e-01,3.327400e-01
1.497416e+00,1.913946e+00,5,7,1.500777e-01,1.499046e-01
1.201118e+00,1.097154e+00,4,4,1.544841e-01,1.540366e-01
2.083316e+00,1.914123e+00,7,7,3.703215e-01,3.704144e-01
1.787563e+00,1.911011e+00,6,7,2.523835e-01,2.502681e-01
2.085241e+00,1.910387e+00,7,7,8.842126e-01,8.851666e-01
1.495239e+00,3.012144e+00,5,11,7.437259e-01,7.438604e-01
1.196530e+00,1.097970e+00,4,4,8.116979e-01,8.115741e-01
2.084997e+00,1.914938e+00,7,7,1.114821e+00,1.115682e+00
1.793091e+00,1.915070e+00,6,7,9.697232e-01,9.643255e-01
1.791899e+00,1.914729e+00,6,7,9.614431e-01,9.572908e-01
2.091759e+00,1.915556e+00,7,7,1.572331e+00,1.573393e+00
1.193901e+00,1.645384e+00,4,6,1.107300e+00,1.104424e+00
2.991509e+00,2.735225e+00,10,10,7.441376e-01,7.437170e-01
1.197315e+00,2.197034e+00,4,8,5.459478e-01,5.561953e-01
1.197467e+00,1.097581e+00,4,4,3.299720e-01,3.314315e-01
1.193889e+00,2.738935e+00,4,10,3.624809e-01,3.776487e-01
1.194667e+00,3.010212e+00,4,11,2.827659e-01,2.825115e-01
1.195679e+00,1.096999e+00,4,4,3.730693e-01,3.727506e-01
1.199146e+00,2.190521e+00,4,8,2.040528e-01,2.035772e-01
1.193768e+00,1.097593e+00,4,4,1.769789e-01,1.775674e-01
1.199272e+00,1.376192e+00,4,5,1.691594e-01,1.691506e-01
1.199215e+00,8.252090e-01,4,3,4.239216e-01,4.240638e-01
1.192588e+00,2.737052e+00,4,10,4.868048e-01,4.947606e-01
2.091259e+00,1.640041e+00,7,6,3.974131e-01,3.960224e-01
2.990759e+00,8.260060e-01,10,3,4.587531e-01,4.433630e-01
2.084670e+00,1.915698e+00,7,7,3.342884e-01,3.343656e-01
1.492910e+00,1.368887e+00,5,5,4.413057e-01,4.418001e-01
1.792464e+00,1.917043e+00,6,7,6.694119e-01,6.601566e-01
2.088608e+00,1.914565e+00,7,7,8.817989e-01,8.818597e-01
2.990916e+00,2.739106e+00,10,10,8.340892e-01,8.329547e-01
2.084434e+00,1.915480e+00,7,7,7.332021e-01,7.329881e-01
2.084689e+00,1.915286e+00,7,7,6.430584e-01,6.432060e-01
2.083137e+00,1.914499e+00,7,7,5.051654e-01,5.051821e-01
1.194855e+00,1.641120e+00,4,6,5.134677e-01,5.129488e-01
1.198208e+00,1.095843e+00,4,4,6.926243e-01,6.935010e-01
2.082865e+00,1.917067e+00,7,7,8.513350e-01,8.524614e-01
1.792441e+00,1.911365e+00,6,7,4.410622e-01,4.373836e-01
2.091168e+00,1.910530e+00,7,7,4.951018e-01,4.951079e-01
1.202390e+00,1.370375e+00,4,5,3.674399e-01,3.673115e-01
2.101109e+00,1.099342e+00,7,4,3.048437e-01,3.041396e-01
2.089987e+00,1.917190e+00,7,7,2.472978e-01,2.482484e-01
2.691005e+00,3.011152e+00,9,11,3.833804e-01,3.824092e-01
1.196168e+00,3.284866e+00,4,12,7.638264e-01,7.730618e-01
2.087699e+00,1.910902e+00,7,7,6.417476e-01,6.416775e-01
3.589474e+00,3.294373e+00,12,12,7.180717e-01,7.184843e-01
1.200080e+00,1.098550e+00,4,4,7.537708e-01,7.513448e-01
2.083402e+00,1.639452e+00,7,6,3.497901e-01,3.505360e-01
9.001470e-01,1.919648e+00,3,7,2.848491e-01,2.862766e-01
1.197875e+00,1.102169e+00,4,4,2.483534e-01,2.475375e-01
1.197256e+00,1.099047e+00,4,4,1.244523e-01,1.241948e-01
2.993542e+00,3.287252e+00,10,12,1.626235e-01,1.397469e-01
1.794925e+00,8.267580e-01,6,3,2.782791e-01,2.754226e-01
2.385016e+00,2.188460e+00,8,8,2.044924e-01,2.050171e-01
1.201480e+00,1.098985e+00,4,4,5.895566e-01,5.890939e-01
2.382490e+00,2.190460e+00,8,8,5.601014e-01,5.598499e-01
2.995809e+00,3.289874e+00,10,12,3.740823e-01,3.676026e-01
1.789737e+00,1.375290e+00,6,5,3.340246e-01,3.336383e-01
2.084606e+00,1.914097e+00,7,7,3.180848e-01,3.181048e-01
1.790383e+00,1.910366e+00,6,7,2.976406e-01,2.962597e-01
1.196447e+00,1.096381e+00,4,4,2.461684e-01,2.463250e-01
1.197927e+00,1.371280e+00,4,5,2.999815e-01,2.999661e-01
1.801867e+00,8.253010e-01,6,3,2.349444e-01,2.346860e-01
1.198505e+00,1.097490e+00,4,4,1.944988e-01,1.945783e-01
1.197965e+00,1.103504e+00,4,4,4.198391e-01,4.197176e-01
2.983373e+00,2.732008e+00,10,10,4.273409e-01,4.266326e-01
2.098774e+00,1.097832e+00,7,4,5.827845e-01,5.827240e-01
1.495036e+00,1.369132e+00,5,5,7.530315e-01,7.514114e-01
1.792957e+00,1.097395e+00,6,4,7.301748e-01,7.326545e-01
1.497639e+00,1.369693e+00,5,5,8.081581e-01,8.088429e-01
2.087599e+00,1.916207e+00,7,7,5.686019e-01,5.698878e-01
1.199619e+00,1.096854e+00,4,4,4.545510e-01,4.540736e-01
2.087985e+00,1.910986e+00,7,7,5.340307e-01,5.346684e-01
2.087161e+00,1.910813e+00,7,7,9.243143e-01,9.256298e-01
2.089302e+00,1.911740e+00,7,7,1.223154e+00,1.225488e+00
1.792201e+00,1.918421e+00,6,7,1.012026e+00,1.002906e+00
1.792921e+00,1.369053e+00,6,5,7.020405e-01,7.112593e-01
2.085499e+00,1.915024e+00,7,7,6.854797e-01,6.844469e-01
2.084327e+00,1.914820e+00,7,7,3.793830e-01,3.794987e-01
2.685474e+00,2.188822e+00,9,8,5.404406e-01,5.425916e-01
1.496194e+00,1.369443e+00,5,5,5.405585e-01,5.405306e-01
2.400785e+00,2.188517e+00,8,8,3.974372e-01,3.973882e-01
2.398514e+00,2.742006e+00,8,10,3.586719e-01,3.661243e-01
1.497068e+00,1.376473e+00,5,5,7.650335e-01,7.646106e-01
2.085239e+00,1.916723e+00,7,7,1.551547e+00,1.551019e+00
2.085300e+00,1.915934e+00,7,7,1.439134e+00,1.441268e+00
2.084306e+00,1.915877e+00,7,7,1.439232e+00,1.441236e+00
2.086685e+00,1.915112e+00,7,7,1.808217e+00,1.810399e+00
2.088234e+00,1.915152e+00,7,7,2.806771e+00,2.809046e+00
2.089432e+00,1.915264e+00,7,7,1.639635e+00,1.640110e+00
2.088198e+00,1.917118e+00,7,7,1.894235e+00,1.897286e+00
1.195978e+00,2.739736e+00,4,10,1.498916e+00,1.503073e+00
2.085483e+00,1.916088e+00,7,7,1.381515e+00,1.380532e+00
1.795096e+00,1.914603e+00,6,7,7.512798e-01,7.435648e-01
2.090910e+00,1.912070e+00,7,7,1.168657e+00,1.169037e+00
1.792143e+00,2.735866e+00,6,10,7.415750e-01,7.408090e-01
2.086423e+00,1.915256e+00,7,7,8.787236e-01,8.745899e-01
1.793774e+00,1.641231e+00,6,6,3.005483e-01,3.001138e-01
2.999128e+00,1.102612e+00,10,4,6.981235e-01,6.802961e-01
1.198226e+00,8.260020e-01,4,3,1.405877e+00,1.408008e+00
2.085621e+00,1.916185e+00,7,7,8.170851e-01,8.176905e-01
2.085521e+00,1.915454e+00,7,7,1.340015e+00,1.341171e+00
1.787386e+00,1.916091e+00,6,7,1.254220e+00,1.247071e+00
2.084694e+00,1.916536e+00,7,7,1.692296e+00,1.694156e+00
2.086700e+00,1.915046e+00,7,7,8.903787e-01,8.905486e-01
3.299184e+00,2.737320e+00,11,10,7.317355e-01,7.395725e-01
2.087704e+00,1.911766e+00,7,7,4.829226e-01,4.828811e-01
1.202202e+00,1.097782e+00,4,4,4.636801e-01,4.624672e-01
2.085105e+00,1.913777e+00,7,7,4.386704e-01,4.392517e-01
2.083118e+00,1.914882e+00,7,7,7.754782e-01,7.760568e-01
2.981408e+00,2.730765e+00,10,10,3.251700e-01,3.229659e-01
3.585855e+00,3.280820e+00,12,12,3.190037e-01,3.158497e-01
1.202025e+00,3.012044e+00,4,11,4.034090e-01,4.034409e-01
8.951660e-01,1.374913e+00,3,5,4.441890e-01,4.442725e-01
1.197196e+00,1.099832e+00,4,4,3.022140e-01,3.022149e-01
8.991080e-01,8.267800e-01,3,3,3.900917e-01,3.888401e-01
2.090400e+00,1.914719e+00,7,7,5.140155e-01,5.144095e-01
1.792361e+00,1.914157e+00,6,7,7.291327e-01,7.220240e-01
2.083611e+00,1.915302e+00,7,7,1.540286e+00,1.541752e+00
2.082869e+00,1.914328e+00,7,7,2.171717e+00,2.174743e+00
1.789121e+00,1.915590e+00,6,7,1.445912e+00,1.436395e+00
2.094991e+00,1.913640e+00,7,7,1.806123e+00,1.808125e+00
3.594026e+00,3.282521e+00,12,12,1.268166e+00,1.267957e+00
2.084988e+00,1.915493e+00,7,7,8.700758e-01,8.700938e-01
2.085030e+00,1.915195e+00,7,7,1.033095e+00,1.033199e+00
2.089533e+00,1.916432e+00,7,7,4.854935e-01,4.857571e-01
2.391381e+00,2.459907e+00,8,9,4.948873e-01,4.819430e-01
3.594400e+00,3.281449e+00,12,12,3.381003e-01,3.356868e-01
1.199254e+00,1.097932e+00,4,4,3.310904e-01,3.303401e-01
1.194134e+00,1.100143e+00,4,4,3.106460e-01,3.109280e-01
2.091178e+00,1.914292e+00,7,7,4.374257e-01,4.386273e-01
3.583697e+00,3.281512e+00,12,12,1.976618e-01,1.919879e-01
1.202072e+00,1.097909e+00,4,4,6.596350e-01,6.587996e-01
2.082781e+00,1.915159e+00,7,7,1.642373e+00,1.643922e+00
1.794404e+00,1.914574e+00,6,7,9.178051e-01,9.157076e-01
3.590966e+00,3.283398e+00,12,12,6.609202e-01,6.567983e-01
3.600344e+00,3.012705e+00,12,11,4.983729e-01,4.969502e-01
3.599358e+00,3.284520e+00,12,12,4.330215e-01,4.265079e-01
1.198197e+00,2.469117e+00,4,9,4.427822e-01,4.552774e-01
1.199005e+00,1.101141e+00,4,4,7.905792e-01,7.885197e-01
2.084860e+00,1.917282e+00,7,7,6.630964e-01,6.630109e-01
1.194400e+00,1.097006e+00,4,4,5.574930e-01,5.578745e-01
3.306229e+00,2.739460e+00,11,10,6.080897e-01,6.085903e-01
1.198483e+00,1.102946e+00,4,4,8.286763e-01,8.274311e-01
2.084888e+00,1.915912e+00,7,7,1.325654e+00,1.326456e+00
2.083578e+00,1.916155e+00,7,7,2.557643e+00,2.558196e+00
2.083529e+00,1.916321e+00,7,7,3.227996e+00,3.231056e+00
2.086319e+00,1.916660e+00,7,7,2.749091e+00,2.754972e+00
2.093332e+00,1.915771e+00,7,7,2.970416e+00,2.976616e+00
1.788607e+00,1.915037e+00,6,7,2.376991e+00,2.366655e+00
2.090499e+00,1.917343e+00,7,7,2.301740e+00,2.305459e+00
2.084790e+00,1.916162e+00,7,7,2.236251e+00,2.239400e+00
2.085592e+00,1.915734e+00,7,7,1.719476e+00,1.718998e+00
2.086792e+00,1.915271e+00,7,7,1.415740e+00,1.416137e+00
2.086144e+00,1.916452e+00,7,7,1.070060e+00,1.070139e+00
2.086667e+00,1.915572e+00,7,7,1.001110e+00,1.001176e+00
2.085307e+00,1.914317e+00,7,7,1.092890e+00,1.092917e+00
2.082605e+00,1.915050e+00,7,7,1.481117e+00,1.481098e+00
2.086190e+00,1.914994e+00,7,7,2.902642e+00,2.908594e+00
2.083620e+00,1.914624e+00,7,7,3.206614e+00,3.209626e+00
2.087543e+00,1.910437e+00,7,7,3.477922e+00,3.480594e+00
2.088127e+00,1.910727e+00,7,7,3.057087e+00,3.059731e+00
2.087411e+00,1.910298e+00,7,7,2.915719e+00,2.919107e+00
2.087671e+00,1.910370e+00,7,7,3.367543e+00,3.373161e+00
2.089945e+00,1.910759e+00,7,7,2.979828e+00,2.986337e+00
1.794990e+00,1.917261e+00,6,7,2.434255e+00,2.422648e+00
1.500933e+00,1.097109e+00,5,4,1.803104e+00,1.819009e+00
2.084900e+00,1.916427e+00,7,7,1.430909e+00,1.431683e+00
2.086669e+00,1.915015e+00,7,7,1.117720e+00,1.117380e+00
2.086350e+00,1.915852e+00,7,7,1.066654e+00,1.064847e+00
2.085660e+00,1.914488e+00,7,7,1.213136e+00,1.212982e+00
2.085448e+00,1.916999e+00,7,7,6.126590e-01,6.132780e-01
1.791677e+00,1.913775e+00,6,7,5.236736e-01,5.174751e-01
1.789783e+00,1.915413e+00,6,7,6.070083e-01,6.025880e-01
1.791863e+00,1.916077e+00,6,7,3.447632e-01,3.443009e-01
2.980575e+00,2.736482e+00,10,10,3.514908e-01,3.498571e-01
1.199929e+00,1.098713e+00,4,4,2.649715e-01,2.654206e-01
2.101119e+00,2.741050e+00,7,10,2.600187e-01,2.623495e-01
3.001590e+00,1.098458e+00,10,4,3.432857e-01,3.415235e-01
3.589431e+00,3.282591e+00,12,12,3.467110e-01,3.420982e-01
1.198778e+00,1.098108e+00,4,4,3.542219e-01,3.544859e-01
1.494057e+00,1.369184e+00,5,5,3.303954e-01,3.297342e-01
2.395607e+00,1.101233e+00,8,4,2.814968e-01,2.660070e-01
1.784413e+00,1.644159e+00,6,6,2.856534e-01,2.879161e-01
2.084350e+00,1.369129e+00,7,5,8.840024e-01,8.841499e-01
2.991738e+00,1.647181e+00,10,6,1.966030e+00,1.965440e+00
2.085991e+00,1.916193e+00,7,7,2.526375e+00,2.524967e+00
2.084789e+00,1.915661e+00,7,7,1.966779e+00,1.970669e+00
1.788311e+00,1.914577e+00,6,7,2.120715e+00,2.123504e+00
2.083972e+00,1.915949e+00,7,7,1.918038e+00,1.921561e+00
1.794680e+00,1.911936e+00,6,7,1.629157e+00,1.606357e+00
1.492454e+00,1.098819e+00,5,4,1.084185e+00,1.095534e+00
2.086127e+00,1.915596e+00,7,7,1.003230e+00,1.008162e+00
2.086297e+00,1.917735e+00,7,7,2.061922e+00,2.057460e+00
2.085267e+00,1.916905e+00,7,7,2.846521e+00,2.842420e+00
2.085609e+00,1.914586e+00,7,7,3.293975e+00,3.289980e+00
2.085955e+00,1.915491e+00,7,7,2.529631e+00,2.530165e+00
1.794982e+00,1.916918e+00,6,7,1.867703e+00,1.845650e+00
2.089642e+00,1.916345e+00,7,7,1.264919e+00,1.265421e+00
1.195000e+00,1.097950e+00,4,4,9.397971e-01,9.356578e-01
2.083771e+00,1.915351e+00,7,7,1.399100e+00,1.399069e+00
2.082402e+00,1.914615e+00,7,7,1.408992e+00,1.410706e+00
2.084634e+00,1.914979e+00,7,7,1.011330e+00,1.012242e+00
2.083195e+00,1.914051e+00,7,7,1.067114e+00,1.067011e+00
2.090828e+00,1.914577e+00,7,7,1.249731e+00,1.250646e+00
1.793345e+00,1.915835e+00,6,7,1.297192e+00,1.289570e+00
2.092179e+00,1.914612e+00,7,7,1.603573e+00,1.604640e+00
3.286709e+00,3.287706e+00,11,12,1.335718e+00,1.334313e+00
1.194495e+00,1.642844e+00,4,6,1.701195e+00,1.699206e+00
2.086447e+00,1.915414e+00,7,7,1.645876e+00,1.645861e+00
1.793904e+00,1.646672e+00,6,6,1.348244e+00,1.350791e+00
2.398932e+00,1.647886e+00,8,6,1.059665e+00,1.062004e+00
2.086111e+00,1.916528e+00,7,7,1.095909e+00,1.095857e+00
2.085128e+00,1.916400e+00,7,7,1.022454e+00,1.022414e+00
2.084934e+00,1.915868e+00,7,7,6.102906e-01,6.105843e-01
1.793597e+00,1.914715e+00,6,7,5.881144e-01,5.832755e-01
2.384121e+00,1.916263e+00,8,7,3.655405e-01,3.699763e-01
1.494876e+00,1.643384e+00,5,6,3.852149e-01,3.851366e-01
1.494597e+00,1.640470e+00,5,6,3.075601e-01,3.066395e-01
2.985528e+00,2.736295e+00,10,10,2.625738e-01,2.625755e-01
1.494158e+00,1.374136e+00,5,5,2.191912e-01,2.182617e-01
2.094631e+00,1.096322e+00,7,4,2.789562e-01,2.773881e-01
2.989496e+00,2.741063e+00,10,10,1.233848e-01,1.226645e-01
1.495776e+00,1.374289e+00,5,5,9.655984e-02,9.654320e-02
1.197147e+00,1.369272e+00,4,5,1.059369e-01,1.061694e-01
9.000090e-01,1.918652e+00,3,7,1.000807e-01,1.000837e-01
8.992690e-01,8.259620e-01,3,3,1.225679e-01,1.225656e-01
9.000930e-01,8.239580e-01,3,3,2.196501e-01,2.196466e-01
1.198967e+00,8.248920e-01,4,3,1.385334e-01,1.387267e-01
1.494395e+00,1.644317e+00,5,6,2.162722e-01,2.156387e-01
2.085215e+00,1.914687e+00,7,7,3.748248e-01,3.748667e-01
2.985563e+00,2.731394e+00,10,10,2.375605e-01,2.378548e-01
9.007110e-01,1.097865e+00,3,4,2.927191e-01,2.928824e-01
1.203895e+00,1.098473e+00,4,4,3.124515e-01,3.129907e-01
9.003910e-01,1.098403e+00,3,4,4.048634e-01,4.050190e-01
2.985784e+00,2.730295e+00,10,10,3.263875e-01,3.263985e-01
8.999900e-01,8.253830e-01,3,3,2.130559e-01,2.130406e-01
3.301633e+00,2.736271e+00,11,10,1.410983e-01,1.378129e-01
1.193642e+00,8.262000e-01,4,3,2.111653e-01,2.100511e-01
2.992884e+00,8.256300e-01,10,3,1.948304e-01,1.734100e-01
3.001094e+00,3.014701e+00,10,11,1.580195e-01,1.449316e-01
3.604172e+00,1.372103e+00,12,5,3.409171e-01,3.402159e-01
3.004275e+00,1.099603e+00,10,4,2.433147e-01,2.355515e-01
1.198972e+00,8.259100e-01,4,3,3.858624e-01,3.858638e-01
8.991810e-01,8.268600e-01,3,3,7.722440e-01,7.722431e-01
8.994840e-01,8.255490e-01,3,3,5.718900e-01,5.730029e-01
1.789950e+00,1.911399e+00,6,7,4.588808e-01,4.579999e-01
2.090297e+00,1.910069e+00,7,7,9.180444e-01,9.185469e-01
1.793085e+00,1.914578e+00,6,7,1.166767e+00,1.163385e+00
1.790263e+00,1.915524e+00,6,7,5.002994e-01,4.984284e-01
2.382414e+00,2.185661e+00,8,8,3.304059e-01,3.302560e-01
1.202256e+00,1.098712e+00,4,4,3.419008e-01,3.417464e-01
1.789834e+00,1.637839e+00,6,6,1.520437e-01,1.519206e-01
1.492414e+00,1.369273e+00,5,5,1.190791e-01,1.189992e-01
2.086505e+00,1.915273e+00,7,7,2.287429e-01,2.287800e-01
1.790298e+00,1.913317e+00,6,7,1.987016e-01,1.978223e-01
1.192802e+00,1.096935e+00,4,4,2.348555e-01,2.358149e-01
2.084508e+00,1.913675e+00,7,7,5.225265e-01,5.230101e-01
1.791939e+00,1.916181e+00,6,7,3.651892e-01,3.647936e-01
3.292527e+00,3.009919e+00,11,11,3.311899e-01,3.310217e-01
9.004380e-01,8.250920e-01,3,3,3.414497e-01,3.426945e-01
3.586144e+00,3.286761e+00,12,12,2.648179e-01,2.648189e-01
1.496953e+00,1.374403e+00,5,5,2.931927e-01,2.930620e-01
1.787960e+00,2.193999e+00,6,8,4.268864e-01,4.268565e-01
1.497659e+00,1.371484e+00,5,5,2.858878e-01,2.857977e-01
2.402474e+00,2.739707e+00,8,10,3.562103e-01,3.608640e-01
8.982450e-01,1.643633e+00,3,6,4.115423e-01,4.121220e-01
1.197835e+00,1.375676e+00,4,5,4.715564e-01,4.714841e-01
1.199577e+00,8.259880e-01,4,3,6.298355e-01,6.326262e-01
1.794400e+00,1.910820e+00,6,7,3.276399e-01,3.257664e-01
1.197562e+00,1.097117e+00,4,4,3.299182e-01,3.308382e-01
2.084252e+00,1.915233e+00,7,7,3.433245e-01,3.430311e-01
1.790425e+00,1.914974e+00,6,7,3.639360e-01,3.596762e-01
1.786193e+00,1.914903e+00,6,7,2.207557e-01,2.170501e-01
3.290845e+00,2.188507e+00,11,8,6.929875e-01,6.866482e-01
1.787118e+00,3.283862e+00,6,12,4.656166e-01,4.617337e-01
2.985053e+00,1.916219e+00,10,7,4.304851e-01,4.236405e-01
2.082252e+00,1.918315e+00,7,7,3.862214e-01,3.860299e-01
1.196840e+00,1.096427e+00,4,4,3.622152e-01,3.615179e-01
1.792618e+00,1.915844e+00,6,7,2.571927e-01,2.529568e-01
2.382509e+00,2.187022e+00,8,8,3.862117e-01,3.859969e-01
1.793100e+00,1.913409e+00,6,7,4.421403e-01,4.410897e-01
3.591432e+00,3.282506e+00,12,12,3.953280e-01,3.933357e-01
1.196293e+00,1.097931e+00,4,4,4.379813e-01,4.376356e-01
1.791608e+00,1.642911e+00,6,6,3.093124e-01,3.108405e-01
1.194494e+00,1.640634e+00,4,6,3.014366e-01,3.066534e-01
2.086159e+00,1.910872e+00,7,7,2.308988e-01,2.307407e-01
1.198531e+00,1.642532e+00,4,6,1.956381e-01,1.950617e-01
2.395727e+00,1.098279e+00,8,4,1.686204e-01,1.696848e-01
1.198414e+00,2.192059e+00,4,8,2.757341e-01,2.756436e-01
1.496331e+00,2.734267e+00,5,10,1.646901e-01,1.639931e-01
1.198221e+00,3.284066e+00,4,12,2.349580e-01,2.372239e-01
1.197921e+00,1.097560e+00,4,4,2.060615e-01,2.063952e-01
1.195279e+00,1.101425e+00,4,4,2.451539e-01,2.449962e-01
1.197151e+00,8.257440e-01,4,3,3.174562e-01,3.174406e-01
1.198635e+00,8.259370e-01,4,3,2.548788e-01,2.551421e-01
1.198633e+00,1.099003e+00,4,4,7.727434e-01,7.721961e-01
2.083018e+00,1.915979e+00,7,7,1.813397e+00,1.816943e+00
2.084899e+00,1.915505e+00,7,7,1.337553e+00,1.339936e+00
2.084758e+00,1.926900e+00,7,7,1.039036e+00,1.039156e+00
1.196501e+00,1.098009e+00,4,4,8.486687e-01,8.490633e-01
1.501044e+00,1.920909e+00,5,7,9.129708e-01,9.129479e-01
1.200263e+00,8.266030e-01,4,3,7.047881e-01,7.051504e-01
1.200956e+00,1.098407e+00,4,4,5.912713e-01,5.919411e-01
1.793850e+00,1.915041e+00,6,7,5.439997e-01,5.392313e-01
2.088559e+00,1.914994e+00,7,7,5.436099e-01,5.438368e-01
2.085765e+00,1.915544e+00,7,7,4.154613e-01,4.155769e-01
1.199033e+00,1.098164e+00,4,4,5.594731e-01,5.559668e-01
2.085486e+00,1.915919e+00,7,7,9.471104e-01,9.493946e-01
2.086314e+00,1.914788e+00,7,7,6.976100e-01,6.988305e-01
2.085914e+00,1.915548e+00,7,7,3.207740e-01,3.217192e-01
2.086313e+00,1.916240e+00,7,7,1.779523e-01,1.780146e-01
1.193156e+00,1.372575e+00,4,5,1.894071e-01,1.891433e-01
1.197461e+00,8.262360e-01,4,3,2.266060e-01,2.263837e-01
1.195740e+00,3.286372e+00,4,12,3.133705e-01,3.139319e-01
1.198080e+00,1.919630e+00,4,7,2.059275e-01,2.059324e-01
8.987920e-01,8.256400e-01,3,3,2.504787e-01,2.504443e-01
2.083763e+00,1.915327e+00,7,7,2.940128e-01,2.940654e-01
1.199072e+00,1.098856e+00,4,4,3.001747e-01,3.001782e-01
8.989140e-01,8.262380e-01,3,3,5.056992e-01,5.056619e-01
2.981985e+00,2.738913e+00,10,10,2.739486e-01,2.739391e-01
8.996010e-01,8.257890e-01,3,3,2.251678e-01,2.251717e-01
1.198661e+00,1.100271e+00,4,4,8.753034e-01,8.737034e-01
2.085776e+00,1.916421e+00,7,7,1.064447e+00,1.064770e+00
1.492656e+00,2.738140e+00,5,10,4.794447e-01,4.803451e-01
1.502805e+00,1.098488e+00,5,4,5.058719e-01,5.058710e-01
1.198504e+00,1.099095e+00,4,4,4.422209e-01,4.425682e-01
9.000920e-01,1.371689e+00,3,5,4.526313e-01,4.525081e-01
1.206632e+00,8.214310e-01,4,3,2.127323e-01,2.128137e-01
8.999680e-01,1.098691e+00,3,4,1.703140e-01,1.703032e-01
9.007880e-01,8.256920e-01,3,3,2.756602e-01,2.754145e-01
2.084611e+00,1.914929e+00,7,7,3.396390e-01,3.396606e-01
1.792796e+00,1.915167e+00,6,7,4.146578e-01,4.132304e-01
2.992874e+00,3.284012e+00,10,12,2.940517e-01,2.716290e-01
1.500262e+00,8.197710e-01,5,3,2.630254e-01,2.662116e-01
2.089653e+00,1.908969e+00,7,7,4.164582e-01,4.175709e-01
2.088996e+00,1.911415e+00,7,7,5.336998e-01,5.347412e-01
2.096823e+00,1.910468e+00,7,7,5.634959e-01,5.642663e-01
1.792751e+00,1.914419e+00,6,7,8.469066e-01,8.418690e-01
1.790983e+00,1.914536e+00,6,7,7.949161e-01,7.913380e-01
2.093819e+00,1.914175e+00,7,7,1.248434e+00,1.248897e+00
3.590087e+00,3.286507e+00,12,12,4.984132e-01,5.012480e-01
1.197960e+00,1.099090e+00,4,4,4.373831e-01,4.367552e-01
2.085327e+00,1.915405e+00,7,7,7.471964e-01,7.472810e-01
2.086195e+00,1.915794e+00,7,7,3.787629e-01,3.788856e-01
2.384852e+00,2.188149e+00,8,8,3.990374e-01,3.989862e-01
1.489906e+00,1.372981e+00,5,5,2.744824e-01,2.744777e-01
2.083051e+00,1.915065e+00,7,7,1.383455e-01,1.385070e-01
1.196630e+00,1.097227e+00,4,4,3.255574e-01,3.247761e-01
3.292033e+00,3.282365e+00,11,12,3.253081e-01,3.256542e-01
1.195874e+00,1.097737e+00,4,4,2.090000e-01,2.087420e-01
1.200026e+00,8.256120e-01,4,3,5.616837e-01,5.614930e-01
2.382793e+00,2.186842e+00,8,8,2.946054e-01,2.948355e-01
2.990965e+00,2.736758e+00,10,10,1.642542e-01,1.635418e-01
3.290685e+00,3.008629e+00,11,11,1.635475e-01,1.635273e-01
2.400307e+00,2.741169e+00,8,10,2.392570e-01,2.383944e-01
1.198915e+00,2.464636e+00,4,9,3.735783e-01,3.850317e-01
1.197995e+00,2.196415e+00,4,8,6.209146e-01,6.213258e-01
1.195652e+00,1.096353e+00,4,4,6.386884e-01,6.387336e-01
2.086228e+00,1.916270e+00,7,7,9.675673e-01,9.673789e-01
2.085634e+00,1.915773e+00,7,7,4.131800e-01,4.132302e-01
2.989883e+00,2.744085e+00,10,10,3.418267e-01,3.417232e-01
1.500948e+00,1.099174e+00,5,4,2.165522e-01,2.168281e-01
1.490949e+00,1.915246e+00,5,7,2.101994e-01,2.102202e-01
2.084775e+00,1.914645e+00,7,7,4.712246e-01,4.718556e-01
2.085644e+00,1.915447e+00,7,7,5.843464e-01,5.844015e-01
2.084928e+00,1.914550e+00,7,7,6.526445e-01,6.534301e-01
2.090621e+00,1.915013e+00,7,7,5.761556e-01,5.771222e-01
1.793390e+00,1.912113e+00,6,7,6.648487e-01,6.602714e-01
2.089122e+00,1.909887e+00,7,7,9.961490e-01,9.977617e-01
2.095328e+00,1.910529e+00,7,7,1.146464e+00,1.148817e+00
1.794183e+00,1.915871e+00,6,7,7.681594e-01,7.642977e-01
3.286510e+00,3.288260e+00,11,12,6.408966e-01,6.382970e-01
2.085554e+00,1.918493e+00,7,7,1.007495e+00,1.009883e+00
1.195677e+00,1.097288e+00,4,4,5.367668e-01,5.396865e-01
2.085508e+00,1.916007e+00,7,7,4.178110e-01,4.178484e-01
1.795027e+00,1.920056e+00,6,7,5.379105e-01,5.325014e-01
1.194286e+00,1.097362e+00,4,4,6.772995e-01,6.773205e-01
3.300017e+00,1.102128e+00,11,4,9.167598e-01,9.129604e-01
2.091378e+00,1.098895e+00,7,4,4.113482e-01,4.084170e-01
2.085785e+00,1.915650e+00,7,7,4.021897e-01,4.024433e-01
2.085154e+00,1.915185e+00,7,7,5.378088e-01,5.388820e-01
2.088571e+00,1.915471e+00,7,7,6.476571e-01,6.487240e-01
2.082819e+00,1.914514e+00,7,7,4.354644e-01,4.354986e-01
1.793081e+00,1.641099e+00,6,6,4.542263e-01,4.524525e-01
2.081509e+00,1.914836e+00,7,7,2.791360e-01,2.790132e-01
1.790513e+00,1.645256e+00,6,6,2.251385e-01,2.250050e-01

