7.164950e-01,1.383675e+01,1.359010e+01,2,49,0.000000e+00,9.995977e-23,1
1.034268e+00,2.933810e-01,2.808571e-01,3,0,1.314509e-01,1.314512e-01,1
1.195347e+00,2.822380e-01,2.720356e-01,3,0,4.940149e-01,4.940159e-01,1
1.034858e+00,2.846110e-01,2.751350e-01,3,0,9.258856e-01,9.258868e-01,1
1.035289e+00,3.001610e-01,2.849102e-01,3,0,1.362930e+00,1.362932e+00,1
1.037278e+00,2.829980e-01,2.729893e-01,3,0,2.242815e+00,2.242817e+00,1
1.030600e+00,2.879720e-01,2.770424e-01,3,0,3.154928e+00,3.154931e+00,1
1.034192e+00,2.820120e-01,2.729893e-01,3,0,1.574358e+00,1.574358e+00,1
1.064018e+00,2.822660e-01,2.729893e-01,3,0,1.476354e+00,1.476354e+00,1
1.033727e+00,2.884780e-01,2.779961e-01,3,0,1.187294e+00,1.187295e+00,1
1.035772e+00,2.818080e-01,2.720356e-01,3,0,2.767074e+00,2.767080e+00,1
1.031555e+00,2.816260e-01,2.720356e-01,3,0,5.495143e+00,5.495151e+00,1
1.035090e+00,2.881740e-01,2.789497e-01,3,0,4.760570e+00,4.760570e+00,1
1.034401e+00,2.824150e-01,2.720356e-01,3,0,6.842999e+00,6.843005e+00,1
1.031971e+00,2.822330e-01,2.717972e-01,3,0,6.361047e+00,6.361048e+00,1
1.039103e+00,2.886630e-01,2.779961e-01,3,0,5.994194e+00,5.994195e+00,1
1.031157e+00,5.537330e-01,5.440712e-01,3,1,6.471995e+00,6.502229e+00,1
1.041671e+00,4.990050e-01,4.878044e-01,3,1,6.555008e+00,6.555011e+00,1
1.032940e+00,2.821620e-01,2.720356e-01,3,0,5.152332e+00,5.152332e+00,1
1.034409e+00,5.443490e-01,5.340576e-01,3,1,4.709677e+00,4.713401e+00,1
1.036426e+00,4.939730e-01,4.842281e-01,3,1,3.622340e+00,3.622340e+00,1
1.041040e+00,2.819980e-01,2.729893e-01,3,0,2.995651e+00,2.995652e+00,1
1.035608e+00,5.509470e-01,5.409718e-01,3,1,3.007168e+00,3.007176e+00,1
1.034960e+00,5.877040e-01,5.791187e-01,3,1,2.281587e+00,2.282204e+00,1
1.037816e+00,8.053230e-01,7.948875e-01,3,2,1.769945e+00,1.813152e+00,1
1.037752e+00,8.481530e-01,8.389950e-01,3,2,1.555683e+00,1.590262e+00,1
1.029893e+00,6.363180e-01,6.256104e-01,3,1,2.682745e+00,2.719003e+00,1
1.030594e+00,3.395320e-01,3.299713e-01,3,0,3.014120e+00,3.038037e+00,1
1.033267e+00,5.001290e-01,4.909039e-01,3,1,2.190475e+00,2.190475e+00,1
1.034005e+00,2.840890e-01,2.751350e-01,3,0,1.901048e+00,1.901049e+00,1
1.034804e+00,2.841230e-01,2.748966e-01,3,0,1.535260e+00,1.535260e+00,1
1.030399e+00,2.895910e-01,2.799034e-01,3,0,1.500921e+00,1.500922e+00,1
1.032767e+00,2.837960e-01,2.739429e-01,3,0,1.551106e+00,1.551108e+00,1
1.032573e+00,2.842790e-01,2.751350e-01,3,0,2.556527e+00,2.556530e+00,1
1.030294e+00,2.893850e-01,2.799034e-01,3,0,2.395257e+00,2.395258e+00,1
1.030070e+00,2.834320e-01,2.739429e-01,3,0,6.892723e+00,6.892729e+00,1
1.028182e+00,2.840290e-01,2.729893e-01,3,0,4.131475e+00,4.131470e+00,1
1.051257e+00,2.888280e-01,2.789497e-01,3,0,6.312285e+00,6.312292e+00,1
1.031746e+00,2.841310e-01,2.751350e-01,3,0,4.130753e+00,4.130751e+00,1
1.035031e+00,5.603690e-01,5.500317e-01,3,1,4.824234e+00,4.829662e+00,1
1.030818e+00,3.397210e-01,3.297329e-01,3,0,4.929836e+00,4.952759e+00,1
1.030512e+00,5.010910e-01,4.911423e-01,3,1,4.300913e+00,4.300913e+00,1
1.034054e+00,2.842400e-01,2.748966e-01,3,0,4.035779e+00,4.035781e+00,1
1.038416e+00,2.836650e-01,2.748966e-01,3,0,4.442715e+00,4.442717e+00,1
1.026839e+00,2.838960e-01,2.741814e-01,3,0,3.889660e+00,3.889662e+00,1
1.030156e+00,2.842690e-01,2.748966e-01,3,0,3.736208e+00,3.736172e+00,1
1.033965e+00,1.037531e+00,1.027107e+00,3,3,4.728449e+00,4.770243e+00,1
1.034975e+00,1.538147e+00,1.528025e+00,3,5,5.745784e+00,5.896271e+00,1
1.035500e+00,1.888027e+00,1.878023e+00,3,7,4.275134e+00,4.355423e+00,1
1.039732e+00,2.202954e+00,2.192974e+00,3,8,5.023420e+00,5.054921e+00,1
2.059156e+00,2.548295e+00,2.538919e+00,6,10,7.411421e+00,7.531888e+00,1
1.377144e+00,1.609235e+00,1.599073e+00,4,6,5.230835e+00,5.370471e+00,1
1.039393e+00,1.056731e+00,1.045942e+00,3,3,2.982791e+00,3.019659e+00,1
1.048069e+00,7.896890e-01,7.789135e-01,3,2,3.112606e+00,3.112612e+00,1
1.032291e+00,2.838380e-01,2.751350e-01,3,0,2.223744e+00,2.223743e+00,1
1.038298e+00,5.461500e-01,5.359650e-01,3,1,3.002735e+00,3.002806e+00,1
1.032823e+00,4.951340e-01,4.849434e-01,3,1,1.510665e+00,1.510666e+00,1
1.034604e+00,2.902850e-01,2.801418e-01,3,0,1.145238e+00,1.145238e+00,1
1.037249e+00,2.834780e-01,2.748966e-01,3,0,1.325652e+00,1.325653e+00,1
1.026714e+00,2.827280e-01,2.732277e-01,3,0,1.278900e+00,1.278901e+00,1
1.029524e+00,2.890630e-01,2.799034e-01,3,0,2.691207e+00,2.691212e+00,1
1.034953e+00,2.830520e-01,2.729893e-01,3,0,2.569895e+00,2.569896e+00,1
1.035294e+00,2.834060e-01,2.739429e-01,3,0,3.107929e+00,3.107931e+00,1
1.030536e+00,2.831680e-01,2.729893e-01,3,0,1.972110e+00,1.972109e+00,1
1.031028e+00,5.531470e-01,5.440712e-01,3,1,1.882382e+00,1.882725e+00,1
1.037278e+00,6.347070e-01,6.210804e-01,3,1,1.852462e+00,1.856686e+00,1
1.031867e+00,5.020720e-01,4.920959e-01,3,1,9.896858e-01,9.896854e-01,1
1.036828e+00,2.824980e-01,2.739429e-01,3,0,7.381438e-01,7.381446e-01,1
1.054674e+00,2.830240e-01,2.729893e-01,3,0,1.456786e+00,1.456789e+00,1
1.038948e+00,2.841540e-01,2.739429e-01,3,0,2.838762e+00,2.838765e+00,1
1.038177e+00,2.833670e-01,2.729893e-01,3,0,1.623391e+00,1.623390e+00,1
1.032645e+00,2.879240e-01,2.779961e-01,3,0,2.258155e+00,2.258158e+00,1
1.037794e+00,4.712340e-01,4.608631e-01,3,1,5.153408e+00,5.153252e+00,1
1.379118e+00,2.920577e+00,2.909899e+00,4,11,8.999950e+00,9.235509e+00,1
1.379815e+00,4.203505e+00,4.192114e+00,4,17,1.049154e+01,1.099988e+01,1
1.035714e+00,4.782850e+00,4.765511e+00,3,16,1.373074e+01,1.596184e+01,0
1.718507e+00,4.542114e+00,4.528284e+00,5,16,1.003729e+01,1.141599e+01,0
1.032390e+00,2.331382e+00,2.321005e+00,3,9,7.291664e+00,7.368737e+00,1
1.034956e+00,1.238912e+00,1.229048e+00,3,4,7.830589e+00,7.840184e+00,1
1.373725e+00,1.652279e+00,1.642227e+00,4,6,5.177856e+00,5.178106e+00,1
1.031371e+00,5.000960e-01,4.899502e-01,3,1,4.062781e+00,4.062780e+00,1
1.033641e+00,2.828360e-01,2.729893e-01,3,0,4.529541e+00,4.529543e+00,1
1.035562e+00,2.826720e-01,2.729893e-01,3,0,3.180365e+00,3.180367e+00,1
1.036490e+00,7.985790e-01,7.879734e-01,3,2,3.520022e+00,3.523167e+00,1
1.027520e+00,9.733400e-01,9.639263e-01,3,3,3.344481e+00,3.347321e+00,1
1.069844e+00,8.407940e-01,8.306503e-01,3,2,3.716166e+00,3.734438e+00,1
1.036490e+00,3.387010e-01,3.290176e-01,3,0,2.841074e+00,2.887695e+00,1
1.032556e+00,9.147420e-01,9.059906e-01,3,3,1.247875e+00,1.247874e+00,1
1.034786e+00,2.832980e-01,2.729893e-01,3,0,2.428865e+00,2.428827e+00,1
1.031519e+00,5.529960e-01,5.428791e-01,3,1,1.153286e+00,1.153281e+00,1
1.043764e+00,4.941320e-01,4.849434e-01,3,1,1.855423e+00,1.855425e+00,1
1.028945e+00,2.829120e-01,2.729893e-01,3,0,9.525124e-01,9.525125e-01,1
1.035188e+00,2.870670e-01,2.779961e-01,3,0,8.130654e-01,8.130657e-01,1
1.037420e+00,2.827100e-01,2.720356e-01,3,0,7.873252e-01,7.873257e-01,1
1.033264e+00,2.825490e-01,2.717972e-01,3,0,8.057810e-01,8.057815e-01,1
1.034574e+00,5.519660e-01,5.419254e-01,3,1,6.459225e-01,6.459938e-01,1
1.054671e+00,4.994200e-01,4.889965e-01,3,1,6.236536e-01,6.236543e-01,1
1.030308e+00,5.541860e-01,5.440712e-01,3,1,1.492713e+00,1.495536e+00,1
1.031049e+00,7.902120e-01,7.791519e-01,3,2,1.267963e+00,1.267964e+00,1
1.030169e+00,2.829460e-01,2.720356e-01,3,0,1.555775e+00,1.555776e+00,1
1.035597e+00,2.832300e-01,2.729893e-01,3,0,5.203243e+00,5.203252e+00,1
1.028822e+00,2.847810e-01,2.739429e-01,3,0,7.507499e+00,7.507506e+00,1
1.063282e+00,5.582300e-01,5.481243e-01,3,1,6.902623e+00,6.906384e+00,1
1.045088e+00,4.948680e-01,4.849434e-01,3,1,5.194719e+00,5.194718e+00,1
1.037823e+00,2.833760e-01,2.741814e-01,3,0,4.821992e+00,4.821993e+00,1
1.037963e+00,5.521510e-01,5.421638e-01,3,1,4.537287e+00,4.548434e+00,1
1.038942e+00,1.085013e+00,1.070023e+00,3,3,6.993929e+00,7.250934e+00,1
1.037852e+00,1.220287e+00,1.205921e+00,3,1,6.706506e+00,7.977828e+00,0
1.031523e+00,1.435593e+00,1.425982e+00,3,5,5.187638e+00,5.210493e+00,1
1.031443e+00,1.230220e+00,1.219749e+00,3,4,6.008695e+00,6.012615e+00,1
1.036445e+00,7.038090e-01,6.949902e-01,3,2,2.380472e+00,2.380467e+00,1
1.028496e+00,5.510680e-01,5.407333e-01,3,1,2.954347e+00,2.955076e+00,1
1.030839e+00,4.987580e-01,4.887581e-01,3,1,2.133094e+00,2.133094e+00,1
1.030310e+00,2.825130e-01,2.739429e-01,3,0,1.451943e+00,1.451943e+00,1
1.029862e+00,2.822370e-01,2.720356e-01,3,0,1.147491e+00,1.147492e+00,1
1.032500e+00,2.879750e-01,2.779961e-01,3,0,1.411638e+00,1.411639e+00,1
1.031858e+00,2.818770e-01,2.717972e-01,3,0,1.359958e+00,1.359959e+00,1
1.047660e+00,2.827240e-01,2.720356e-01,3,0,1.312937e+00,1.312937e+00,1
1.030732e+00,2.886810e-01,2.791882e-01,3,0,1.230351e+00,1.230157e+00,1
1.374193e+00,2.828460e-01,2.720356e-01,4,0,8.450487e-01,8.450489e-01,1
1.028912e+00,2.827180e-01,2.739429e-01,3,0,9.848379e-01,9.848393e-01,1
1.030110e+00,2.832190e-01,2.729893e-01,3,0,1.729820e+00,1.729821e+00,1
1.032303e+00,2.876620e-01,2.789497e-01,3,0,1.736138e+00,1.736067e+00,1
1.030345e+00,2.827050e-01,2.720356e-01,3,0,9.952081e-01,9.952073e-01,1
1.029153e+00,2.827960e-01,2.729893e-01,3,0,1.203443e+00,1.203444e+00,1
1.031524e+00,2.876220e-01,2.779961e-01,3,0,9.893219e-01,9.893221e-01,1
1.030229e+00,2.827100e-01,2.729893e-01,3,0,2.398179e+00,2.398184e+00,1
1.027606e+00,2.829930e-01,2.729893e-01,3,0,4.260854e+00,4.260780e+00,1
1.033095e+00,5.600990e-01,5.509853e-01,3,1,5.401500e+00,5.400507e+00,1
1.028110e+00,4.948060e-01,4.839897e-01,3,1,3.545457e+00,3.545447e+00,1
1.028505e+00,2.828170e-01,2.739429e-01,3,0,3.323576e+00,3.323576e+00,1
1.028320e+00,2.829140e-01,2.739429e-01,3,0,3.104414e+00,3.104415e+00,1
1.033229e+00,5.576650e-01,5.471706e-01,3,1,2.977996e+00,2.979667e+00,1
1.031677e+00,4.932460e-01,4.830360e-01,3,1,3.539322e+00,3.539325e+00,1
1.035081e+00,2.885430e-01,2.779961e-01,3,0,4.188185e+00,4.188187e+00,1
1.031697e+00,2.830750e-01,2.729893e-01,3,0,5.229805e+00,5.229809e+00,1
1.027097e+00,2.823830e-01,2.729893e-01,3,0,3.250425e+00,3.250425e+00,1
1.029363e+00,2.889600e-01,2.779961e-01,3,0,3.548666e+00,3.548669e+00,1
1.034169e+00,8.084560e-01,7.979870e-01,3,2,3.314646e+00,3.320485e+00,1
1.032288e+00,1.091961e+00,1.082182e+00,3,3,3.000107e+00,3.001075e+00,1
1.033272e+00,1.242055e+00,1.232147e+00,3,4,1.684606e+00,1.691819e+00,1
1.028832e+00,5.566970e-01,5.459785e-01,3,1,1.628750e+00,1.644334e+00,1
1.043522e+00,6.286290e-01,6.191730e-01,3,1,1.427332e+00,1.459116e+00,1
1.031273e+00,3.392390e-01,3.292561e-01,3,0,3.751019e+00,3.753446e+00,1
1.029185e+00,4.940650e-01,4.839897e-01,3,1,1.986011e+00,1.986011e+00,1
1.031513e+00,2.922460e-01,2.820492e-01,3,0,1.858285e+00,1.858285e+00,1
1.031375e+00,2.831900e-01,2.729893e-01,3,0,1.604543e+00,1.604433e+00,1
1.046545e+00,2.828350e-01,2.729893e-01,3,0,2.516843e+00,2.516585e+00,1
1.040379e+00,2.838010e-01,2.751350e-01,3,0,1.960072e+00,1.960072e+00,1
1.032908e+00,2.831890e-01,2.741814e-01,3,0,1.297494e+00,1.297494e+00,1
1.031722e+00,2.896400e-01,2.789497e-01,3,0,9.944097e-01,9.944103e-01,1
1.032738e+00,5.528080e-01,5.428791e-01,3,1,1.042014e+00,1.046215e+00,1
1.033670e+00,3.436720e-01,3.330708e-01,3,0,1.856878e+00,1.880433e+00,1
1.030134e+00,6.272440e-01,6.179810e-01,3,1,1.720434e+00,1.731689e+00,1
1.030753e+00,4.998990e-01,4.911423e-01,3,1,1.237658e+00,1.237658e+00,1
1.029507e+00,2.827890e-01,2.720356e-01,3,0,2.001356e+00,2.001359e+00,1
1.048090e+00,2.882480e-01,2.779961e-01,3,0,1.979455e+00,1.979456e+00,1
1.032941e+00,2.826490e-01,2.729893e-01,3,0,1.612717e+00,1.612717e+00,1
1.028984e+00,2.828560e-01,2.732277e-01,3,0,1.632465e+00,1.632466e+00,1
1.032854e+00,2.885350e-01,2.789497e-01,3,0,1.778174e+00,1.778103e+00,1
1.037229e+00,2.827080e-01,2.729893e-01,3,0,3.010068e+00,3.009953e+00,1
1.035303e+00,5.585360e-01,5.490780e-01,3,1,4.083840e+00,4.089117e+00,1
1.033577e+00,7.630070e-01,7.541180e-01,3,2,3.030576e+00,3.033967e+00,1
1.035920e+00,4.944080e-01,4.849434e-01,3,1,3.045953e+00,3.045938e+00,1
1.031654e+00,5.583520e-01,5.500317e-01,3,1,2.564885e+00,2.636613e+00,1
1.031044e+00,3.382880e-01,3.280640e-01,3,0,2.087432e+00,2.093323e+00,1
1.031486e+00,5.005180e-01,4.911423e-01,3,1,1.960172e+00,1.960174e+00,1
1.029643e+00,2.832360e-01,2.729893e-01,3,0,1.787222e+00,1.787223e+00,1
1.033796e+00,8.036930e-01,7.932186e-01,3,2,6.079219e+00,6.087034e+00,1
1.035466e+00,1.960866e+00,1.951218e+00,3,7,1.085388e+01,1.113117e+01,1
2.051589e+00,7.950230e-01,7.848740e-01,6,2,1.204020e+01,1.229087e+01,1
2.054695e+00,3.404516e+00,3.390789e+00,6,10,1.434198e+01,1.544225e+01,0
2.058177e+00,9.598170e-01,9.462833e-01,6,0,1.744586e+01,2.302022e+01,0
2.055616e+00,4.369546e+00,4.356861e+00,6,15,1.288985e+01,1.453799e+01,0
1.373883e+00,9.714120e-01,9.598732e-01,4,0,1.469781e+01,1.721102e+01,0
1.372271e+00,2.776030e+00,2.765894e+00,4,11,9.385333e+00,9.392889e+00,1
1.032506e+00,1.210108e+00,1.200914e+00,3,4,8.332115e+00,8.332190e+00,1
1.032655e+00,2.376482e+00,2.364159e+00,3,6,8.223066e+00,1.092357e+01,0
2.070850e+00,9.680920e-01,9.548664e-01,6,0,6.011372e+00,6.562445e+00,0
1.377369e+00,2.320506e+00,2.308130e+00,4,6,6.106025e+00,9.682358e+00,0
2.052234e+00,9.218430e-01,9.119511e-01,6,3,3.476332e+00,3.467927e+00,1
1.403459e+00,2.833390e-01,2.729893e-01,4,0,3.077513e+00,3.077426e+00,1
1.039706e+00,2.888550e-01,2.789497e-01,3,0,2.975381e+00,2.975310e+00,1
1.035439e+00,2.842480e-01,2.751350e-01,3,0,3.359608e+00,3.359613e+00,1
1.038638e+00,2.909000e-01,2.808571e-01,3,0,3.656666e+00,3.656667e+00,1
1.044582e+00,5.505630e-01,5.402565e-01,3,1,4.570787e+00,4.572342e+00,1
1.067483e+00,5.007620e-01,4.911423e-01,3,1,2.613980e+00,2.613978e+00,1
1.040075e+00,5.658750e-01,5.559921e-01,3,1,2.991469e+00,2.991888e+00,1
1.042046e+00,4.950070e-01,4.842281e-01,3,1,2.348782e+00,2.348782e+00,1
1.036267e+00,2.889680e-01,2.801418e-01,3,0,2.813290e+00,2.813292e+00,1
1.035048e+00,2.907010e-01,2.820492e-01,3,0,3.856443e+00,3.856446e+00,1
1.029863e+00,2.833880e-01,2.741814e-01,3,0,3.212224e+00,3.212224e+00,1
1.057199e+00,2.899320e-01,2.799034e-01,3,0,2.057881e+00,2.057880e+00,1
1.033446e+00,2.840680e-01,2.751350e-01,3,0,2.841804e+00,2.841807e+00,1
1.032482e+00,2.832660e-01,2.748966e-01,3,0,2.210092e+00,2.210091e+00,1
1.031444e+00,2.892290e-01,2.810955e-01,3,0,1.419063e+00,1.419062e+00,1
1.031918e+00,2.821840e-01,2.729893e-01,3,0,3.369189e+00,3.369198e+00,1
1.025090e+00,2.832560e-01,2.729893e-01,3,0,4.040882e+00,4.040885e+00,1
1.028484e+00,7.999760e-01,7.901192e-01,3,2,8.532706e+00,8.539134e+00,1
1.029053e+00,8.391020e-01,8.289814e-01,3,2,1.008494e+01,1.014765e+01,1
1.031941e+00,1.431394e+00,1.422882e+00,3,5,8.155451e+00,8.155548e+00,1
1.033682e+00,1.017096e+00,1.005888e+00,3,3,8.407995e+00,8.409423e+00,1
1.046117e+00,9.759530e-01,9.660721e-01,3,3,6.058665e+00,6.058971e+00,1
1.032305e+00,1.076305e+00,1.066923e+00,3,3,6.162538e+00,6.193425e+00,1
1.034703e+00,1.135065e+00,1.126051e+00,3,4,3.718564e+00,3.718557e+00,1
1.029797e+00,2.831050e-01,2.729893e-01,3,0,3.424517e+00,3.424523e+00,1
1.034114e+00,2.820320e-01,2.729893e-01,3,0,2.546549e+00,2.546547e+00,1
1.031022e+00,2.828650e-01,2.720356e-01,3,0,2.099015e+00,2.098980e+00,1
1.054090e+00,4.718290e-01,4.618168e-01,3,1,1.984070e+00,1.982434e+00,1
1.375215e+00,7.352250e-01,7.247925e-01,4,2,1.755382e+00,1.798329e+00,1
1.038139e+00,7.692840e-01,7.591248e-01,3,2,5.054269e+00,5.054280e+00,1
1.037796e+00,3.645248e+00,3.633976e+00,3,11,1.142326e+01,1.306171e+01,0
1.037879e+00,3.189309e+00,3.178835e+00,3,13,6.763923e+00,6.799740e+00,1
1.371469e+00,7.665810e-01,7.560253e-01,4,2,4.624779e+00,4.625370e+00,1
1.033304e+00,7.682960e-01,7.579327e-01,3,2,4.089339e+00,4.089310e+00,1
1.030038e+00,4.945610e-01,4.849434e-01,3,1,3.561601e+00,3.561544e+00,1
1.036129e+00,2.883260e-01,2.779961e-01,3,0,2.710542e+00,2.710545e+00,1
1.034718e+00,2.827430e-01,2.729893e-01,3,0,2.346636e+00,2.346636e+00,1
1.028380e+00,2.827750e-01,2.729893e-01,3,0,1.907042e+00,1.907042e+00,1
1.053568e+00,2.879800e-01,2.779961e-01,3,0,1.794388e+00,1.794389e+00,1
1.030826e+00,4.708070e-01,4.620552e-01,3,1,3.094394e+00,3.094148e+00,1
2.065430e+00,1.971014e+00,1.961231e+00,6,7,6.384063e+00,6.458980e+00,1
1.515166e+00,2.058016e+00,2.045155e+00,4,5,8.930516e+00,9.294364e+00,0
2.063557e+00,1.635951e+00,1.625061e+00,6,6,8.299470e+00,8.342519e+00,1
1.378027e+00,1.017619e+00,1.007080e+00,4,3,8.542487e+00,8.545005e+00,1
1.031577e+00,1.039149e+00,1.028061e+00,3,3,7.566109e+00,7.571853e+00,1
1.040908e+00,1.746871e+00,1.737118e+00,3,6,1.258248e+01,1.277928e+01,1
1.376560e+00,2.549332e+00,2.540112e+00,4,10,8.858688e+00,8.877245e+00,1
1.032154e+00,1.722816e+00,1.708984e+00,3,3,1.131036e+01,1.238780e+01,0
1.044345e+00,1.516711e+00,1.505852e+00,3,5,1.121075e+01,1.131845e+01,1
1.040495e+00,1.877026e+00,1.865864e+00,3,7,8.742385e+00,8.833604e+00,1
1.038286e+00,2.310805e+00,2.300024e+00,3,8,7.601932e+00,7.839823e+00,1
1.045953e+00,3.318911e+00,3.305197e+00,3,10,8.996141e+00,1.197947e+01,0
2.062730e+00,9.477930e-01,9.350777e-01,6,0,1.117503e+01,1.820344e+01,0
2.065405e+00,2.247084e+00,2.234936e+00,6,6,1.259148e+01,2.027308e+01,0
2.065975e+00,6.096037e+00,6.082058e+00,6,23,1.157495e+01,1.577160e+01,0
2.065709e+00,9.426390e-01,9.284019e-01,6,0,1.359971e+01,1.743455e+01,0
2.090872e+00,9.407620e-01,9.293556e-01,6,0,1.592463e+01,2.118777e+01,0
2.060295e+00,5.601474e+00,5.588055e+00,6,21,1.575513e+01,2.062712e+01,0
2.052764e+00,3.051347e+00,3.041029e+00,6,12,1.347838e+01,1.411599e+01,1
2.146316e+00,9.680600e-01,9.551048e-01,6,0,1.885761e+01,2.371663e+01,0
1.717123e+00,3.386374e+00,3.374338e+00,5,11,1.759876e+01,2.072549e+01,0
1.373675e+00,1.631778e+00,1.617432e+00,4,3,1.504509e+01,1.925814e+01,0
1.031718e+00,9.685780e-01,9.560585e-01,3,0,1.152785e+01,1.606379e+01,0
1.037295e+00,3.442283e+00,3.432035e+00,3,14,9.017776e+00,9.021549e+00,1
1.037668e+00,2.194444e+00,2.181292e+00,3,5,8.140132e+00,1.075609e+01,0
1.036787e+00,2.152867e+00,2.143145e+00,3,8,5.848777e+00,5.853073e+00,1
1.035093e+00,1.500526e+00,1.491070e+00,3,5,4.966768e+00,4.970193e+00,1
1.035908e+00,1.347723e+00,1.337051e+00,3,5,4.219670e+00,4.217704e+00,1
1.719440e+00,7.363320e-01,7.262230e-01,5,2,2.026957e+00,2.028049e+00,1
1.027507e+00,4.955090e-01,4.861355e-01,3,1,1.365707e+00,1.365708e+00,1
1.043138e+00,2.838570e-01,2.739429e-01,3,0,1.108217e+00,1.108218e+00,1
1.029614e+00,2.848180e-01,2.751350e-01,3,0,2.008978e+00,2.008981e+00,1
1.030414e+00,2.833370e-01,2.729893e-01,3,0,7.662816e-01,7.662816e-01,1
1.034827e+00,2.891390e-01,2.789497e-01,3,0,1.876959e+00,1.876962e+00,1
1.033254e+00,2.840670e-01,2.748966e-01,3,0,2.916799e+00,2.916803e+00,1
1.034570e+00,8.059610e-01,7.960796e-01,3,2,3.445789e+00,3.447633e+00,1
1.030935e+00,7.133990e-01,7.040501e-01,3,2,3.150122e+00,3.150123e+00,1
1.031923e+00,5.492090e-01,5.400181e-01,3,1,4.136153e+00,4.137190e+00,1
1.034237e+00,5.013190e-01,4.918575e-01,3,1,3.435072e+00,3.435054e+00,1
1.028611e+00,2.846310e-01,2.751350e-01,3,0,3.914645e+00,3.914649e+00,1
1.028758e+00,5.611250e-01,5.509853e-01,3,1,2.963562e+00,3.006276e+00,1
1.030121e+00,4.958530e-01,4.851818e-01,3,1,2.928797e+00,2.928798e+00,1
1.034120e+00,5.536480e-01,5.440712e-01,3,1,4.437326e+00,4.437322e+00,1
1.035098e+00,1.771693e+00,1.761198e+00,3,6,6.367136e+00,6.474035e+00,1
2.060375e+00,1.646075e+00,1.636028e+00,6,6,5.126979e+00,5.116495e+00,1
2.049567e+00,1.089331e+00,1.079082e+00,6,4,3.081123e+00,3.079602e+00,1
1.372992e+00,4.599820e-01,4.498959e-01,4,1,1.986636e+00,1.986439e+00,1
1.036841e+00,2.835530e-01,2.751350e-01,3,0,1.475453e+00,1.475457e+00,1
1.028430e+00,2.842160e-01,2.748966e-01,3,0,2.331887e+00,2.331889e+00,1
1.030956e+00,2.901370e-01,2.810955e-01,3,0,1.283058e+00,1.283058e+00,1
1.035860e+00,2.833320e-01,2.729893e-01,3,0,1.338111e+00,1.338111e+00,1
1.027497e+00,2.834050e-01,2.748966e-01,3,0,2.063411e+00,2.063413e+00,1
1.032498e+00,1.170890e+00,1.159906e+00,3,4,4.500891e+00,4.496494e+00,1
2.049067e+00,6.990110e-01,6.890297e-01,6,2,5.527769e+00,5.510092e+00,1
1.374193e+00,9.800870e-01,9.701252e-01,4,3,8.872881e+00,8.876796e+00,1
1.034391e+00,3.394660e-01,3.292561e-01,3,0,9.708094e+00,9.710622e+00,1
1.034607e+00,7.990610e-01,7.891655e-01,3,2,7.416643e+00,7.418219e+00,1
1.032032e+00,1.010864e+00,1.000881e+00,3,3,6.401076e+00,6.401154e+00,1
1.031509e+00,8.033640e-01,7.948875e-01,3,2,5.550531e+00,5.582302e+00,1
1.035689e+00,1.038927e+00,1.028061e+00,3,3,4.367659e+00,4.374100e+00,1
1.035209e+00,8.396620e-01,8.301735e-01,3,2,4.381292e+00,4.459679e+00,1
1.029230e+00,1.263517e+00,1.253843e+00,3,4,3.579251e+00,3.608240e+00,1
1.033523e+00,1.059540e+00,1.048803e+00,3,3,2.499486e+00,2.524229e+00,1
1.034943e+00,4.949870e-01,4.849434e-01,3,1,1.855180e+00,1.855165e+00,1
1.027587e+00,2.835010e-01,2.751350e-01,3,0,1.287089e+00,1.287089e+00,1
1.030798e+00,6.511540e-01,6.411076e-01,3,2,3.576605e+00,3.575878e+00,1
1.363432e+00,6.398350e-01,6.299019e-01,4,2,1.782208e+00,1.782205e+00,1
1.036551e+00,2.837300e-01,2.748966e-01,3,0,6.807537e-01,6.807529e-01,1
1.033438e+00,2.835690e-01,2.751350e-01,3,0,1.133630e+00,1.133631e+00,1
1.030633e+00,2.834980e-01,2.729893e-01,3,0,1.018113e+00,1.018113e+00,1
1.037517e+00,2.902260e-01,2.808571e-01,3,0,4.308558e-01,4.308557e-01,1
1.029038e+00,2.836700e-01,2.729893e-01,3,0,1.449814e+00,1.449817e+00,1
1.027965e+00,2.840950e-01,2.739429e-01,3,0,2.503499e+00,2.503502e+00,1
1.031030e+00,2.901190e-01,2.808571e-01,3,0,3.788766e+00,3.788770e+00,1
1.033081e+00,2.838480e-01,2.739429e-01,3,0,2.967991e+00,2.967991e+00,1
1.032996e+00,5.740760e-01,5.640984e-01,3,1,3.806355e+00,3.806358e+00,1
1.028594e+00,4.951420e-01,4.851818e-01,3,1,2.915444e+00,2.915444e+00,1
1.030757e+00,5.604270e-01,5.500317e-01,3,1,2.696360e+00,2.756915e+00,1
1.031897e+00,3.387110e-01,3.290176e-01,3,0,2.396785e+00,2.431332e+00,1
1.032775e+00,5.015080e-01,4.909039e-01,3,1,2.195577e+00,2.195578e+00,1
1.033123e+00,2.839900e-01,2.739429e-01,3,0,1.906076e+00,1.906077e+00,1
1.034643e+00,2.838050e-01,2.741814e-01,3,0,1.700722e+00,1.700723e+00,1
1.031008e+00,2.837110e-01,2.729893e-01,3,0,2.048405e+00,2.048368e+00,1
1.027607e+00,2.830580e-01,2.729893e-01,3,0,9.509044e-01,9.509045e-01,1
1.031387e+00,2.893210e-01,2.799034e-01,3,0,1.390583e+00,1.390585e+00,1
1.034111e+00,2.836810e-01,2.739429e-01,3,0,1.798624e+00,1.798625e+00,1
1.027193e+00,2.832390e-01,2.739429e-01,3,0,1.273817e+00,1.273817e+00,1
1.033508e+00,3.101970e-01,3.008842e-01,3,0,1.142399e+00,1.142400e+00,1
1.031472e+00,2.837670e-01,2.729893e-01,3,0,2.084397e+00,2.084400e+00,1
1.029788e+00,2.837470e-01,2.739429e-01,3,0,1.886037e+00,1.886039e+00,1
1.040969e+00,2.889950e-01,2.791882e-01,3,0,1.612757e+00,1.612757e+00,1
1.035994e+00,2.836880e-01,2.739429e-01,3,0,1.736087e+00,1.736088e+00,1
1.027356e+00,2.832740e-01,2.741814e-01,3,0,1.327791e+00,1.327791e+00,1
1.029502e+00,2.892550e-01,2.789497e-01,3,0,1.991906e+00,1.991908e+00,1
1.037756e+00,2.834790e-01,2.739429e-01,3,0,1.179292e+00,1.179292e+00,1
1.029935e+00,5.603820e-01,5.500317e-01,3,1,1.848395e+00,1.848556e+00,1
1.028551e+00,4.940200e-01,4.849434e-01,3,1,9.497216e-01,9.497221e-01,1
1.029618e+00,2.891890e-01,2.799034e-01,3,0,7.902351e-01,7.902356e-01,1
1.034225e+00,2.835790e-01,2.739429e-01,3,0,6.986982e-01,6.986990e-01,1
1.029240e+00,2.832050e-01,2.739429e-01,3,0,6.358373e-01,6.358381e-01,1
1.031552e+00,2.886080e-01,2.779961e-01,3,0,8.537472e-01,8.537481e-01,1
1.031239e+00,2.836420e-01,2.729893e-01,3,0,2.183326e+00,2.183330e+00,1
1.029268e+00,2.839860e-01,2.739429e-01,3,0,1.083572e+00,1.083572e+00,1
1.030457e+00,2.889450e-01,2.789497e-01,3,0,2.829597e+00,2.829602e+00,1
1.031648e+00,2.838120e-01,2.751350e-01,3,0,3.507990e+00,3.507993e+00,1
1.036663e+00,2.845290e-01,2.748966e-01,3,0,4.728600e+00,4.728592e+00,1
1.033835e+00,2.843910e-01,2.739429e-01,3,0,3.888237e+00,3.888222e+00,1
1.038429e+00,8.205590e-01,8.101463e-01,3,2,3.607722e+00,3.608496e+00,1
1.032393e+00,7.108430e-01,7.021427e-01,3,2,2.409427e+00,2.409427e+00,1
1.039787e+00,2.837190e-01,2.739429e-01,3,0,1.896605e+00,1.896606e+00,1
1.028522e+00,2.837260e-01,2.741814e-01,3,0,1.367710e+00,1.367710e+00,1
1.034712e+00,5.614900e-01,5.531311e-01,3,1,2.236211e+00,2.236270e+00,1
1.028447e+00,3.391200e-01,3.290176e-01,3,0,2.153198e+00,2.154512e+00,1
1.037258e+00,7.711230e-01,7.610321e-01,3,2,2.680945e+00,2.693111e+00,1
1.033159e+00,5.968610e-01,5.869865e-01,3,1,3.360404e+00,3.420639e+00,1
1.027095e+00,5.510210e-01,5.421638e-01,3,1,1.669063e+00,1.676658e+00,1
1.029701e+00,6.360750e-01,6.260872e-01,3,1,2.355633e+00,2.355666e+00,1
1.033932e+00,6.226150e-01,6.129742e-01,3,1,1.679268e+00,1.679268e+00,1
1.028587e+00,5.543660e-01,5.440712e-01,3,1,1.347605e+00,1.349724e+00,1
1.032745e+00,5.004070e-01,4.911423e-01,3,1,1.107817e+00,1.107817e+00,1
1.027857e+00,2.832990e-01,2.729893e-01,3,0,1.202970e+00,1.202971e+00,1
1.029486e+00,2.887290e-01,2.779961e-01,3,0,1.200920e+00,1.200921e+00,1
1.033680e+00,2.836480e-01,2.748966e-01,3,0,2.187614e+00,2.187617e+00,1
1.027673e+00,2.835570e-01,2.729893e-01,3,0,2.860698e+00,2.860700e+00,1
1.035281e+00,2.891040e-01,2.789497e-01,3,0,3.622740e+00,3.622739e+00,1
1.030253e+00,2.840590e-01,2.739429e-01,3,0,2.611443e+00,2.611403e+00,1
1.026702e+00,2.839220e-01,2.748966e-01,3,0,1.866720e+00,1.866713e+00,1
1.029653e+00,5.587710e-01,5.481243e-01,3,1,2.276119e+00,2.276186e+00,1
1.034936e+00,3.389380e-01,3.302097e-01,3,0,2.689013e+00,2.691579e+00,1
1.028728e+00,8.001850e-01,7.901192e-01,3,2,1.875998e+00,1.875997e+00,1
1.032213e+00,2.890200e-01,2.799034e-01,3,0,2.954721e+00,2.954727e+00,1
1.036358e+00,2.835950e-01,2.751350e-01,3,0,3.839067e+00,3.839069e+00,1
1.027727e+00,2.838400e-01,2.748966e-01,3,0,3.096922e+00,3.096921e+00,1
1.033213e+00,2.881330e-01,2.777576e-01,3,0,1.524349e+00,1.524348e+00,1
1.029536e+00,2.838470e-01,2.739429e-01,3,0,2.059312e+00,2.059314e+00,1
1.037074e+00,3.025970e-01,2.920628e-01,3,0,2.255935e+00,2.255937e+00,1
1.029686e+00,2.842820e-01,2.739429e-01,3,0,4.426807e+00,4.426666e+00,1
1.026290e+00,2.842340e-01,2.748966e-01,3,0,5.903888e+00,5.903890e+00,1
1.030397e+00,2.889640e-01,2.801418e-01,3,0,5.937525e+00,5.937527e+00,1
1.029443e+00,5.541090e-01,5.447865e-01,3,1,4.035498e+00,4.043284e+00,1
1.031788e+00,5.002180e-01,4.911423e-01,3,1,3.482887e+00,3.482888e+00,1
1.033701e+00,2.844550e-01,2.748966e-01,3,0,3.071256e+00,3.071258e+00,1
1.028760e+00,2.842120e-01,2.741814e-01,3,0,2.817423e+00,2.817424e+00,1
1.034285e+00,2.894370e-01,2.801418e-01,3,0,1.943145e+00,1.943145e+00,1
1.036761e+00,2.833080e-01,2.739429e-01,3,0,1.421769e+00,1.421769e+00,1
1.030446e+00,2.838290e-01,2.751350e-01,3,0,1.578978e+00,1.578979e+00,1
1.039968e+00,2.833360e-01,2.729893e-01,3,0,1.564958e+00,1.564958e+00,1
1.050589e+00,4.659710e-01,4.560947e-01,3,1,2.111410e+00,2.111226e+00,1
1.376523e+00,4.658610e-01,4.570484e-01,4,1,1.503684e+00,1.503683e+00,1
1.033314e+00,2.896710e-01,2.789497e-01,3,0,6.106705e-01,6.106704e-01,1
1.033130e+00,2.831630e-01,2.729893e-01,3,0,6.163065e-01,6.163071e-01,1
1.030542e+00,2.834390e-01,2.741814e-01,3,0,9.869390e-01,9.869400e-01,1
1.033347e+00,2.892530e-01,2.789497e-01,3,0,5.466492e+00,5.466503e+00,1
1.034779e+00,2.839520e-01,2.739429e-01,3,0,3.287017e+00,3.287016e+00,1
1.032515e+00,2.837480e-01,2.729893e-01,3,0,2.362560e+00,2.362559e+00,1
1.037157e+00,2.883320e-01,2.789497e-01,3,0,1.839401e+00,1.839402e+00,1
1.036725e+00,2.841590e-01,2.751350e-01,3,0,1.681157e+00,1.681157e+00,1
1.035862e+00,2.830390e-01,2.739429e-01,3,0,1.277719e+00,1.277719e+00,1
1.037083e+00,2.832910e-01,2.729893e-01,3,0,1.138370e+00,1.138370e+00,1
1.038976e+00,5.534860e-01,5.450249e-01,3,1,1.347054e+00,1.349215e+00,1
1.036963e+00,3.396610e-01,3.309250e-01,3,0,1.740667e+00,1.741045e+00,1
1.031429e+00,8.876650e-01,8.780956e-01,3,2,2.526672e+00,2.551613e+00,1
1.036036e+00,1.096048e+00,1.086950e+00,3,3,1.509873e+00,1.514397e+00,1
1.032719e+00,6.356330e-01,6.258488e-01,3,1,1.704362e+00,1.734900e+00,1
1.029301e+00,1.003210e+00,9.930134e-01,3,3,1.989913e+00,1.989914e+00,1
1.028676e+00,2.845860e-01,2.748966e-01,3,0,2.641112e+00,2.641114e+00,1
1.036241e+00,5.580410e-01,5.476475e-01,3,1,5.277575e+00,5.277625e+00,1
1.036777e+00,5.579780e-01,5.488396e-01,3,1,6.743872e+00,6.749922e+00,1
1.386530e+00,9.829670e-01,9.741783e-01,4,3,3.830497e+00,3.832094e+00,1
1.038044e+00,4.961240e-01,4.868507e-01,3,1,2.924816e+00,2.924816e+00,1
1.036571e+00,2.892510e-01,2.791882e-01,3,0,3.238520e+00,3.238523e+00,1
1.035413e+00,2.841080e-01,2.741814e-01,3,0,2.834839e+00,2.834840e+00,1
1.036944e+00,2.836600e-01,2.729893e-01,3,0,1.371840e+00,1.371839e+00,1
1.032491e+00,2.835850e-01,2.741814e-01,3,0,1.373480e+00,1.373481e+00,1
1.033170e+00,2.833260e-01,2.751350e-01,3,0,2.074463e+00,2.074465e+00,1
1.033443e+00,2.888760e-01,2.789497e-01,3,0,1.422145e+00,1.422145e+00,1
1.032229e+00,2.829150e-01,2.739429e-01,3,0,8.863764e-01,8.863764e-01,1
1.032708e+00,5.529650e-01,5.431175e-01,3,1,9.676907e-01,9.898571e-01,1
1.038144e+00,3.389830e-01,3.290176e-01,3,0,1.307981e+00,1.325854e+00,1
1.041031e+00,4.948990e-01,4.851818e-01,3,1,1.362826e+00,1.362826e+00,1
1.054686e+00,2.834280e-01,2.729893e-01,3,0,1.758458e+00,1.758459e+00,1
1.033076e+00,2.841240e-01,2.741814e-01,3,0,1.366770e+00,1.366770e+00,1
1.043098e+00,4.699110e-01,4.601479e-01,3,1,1.499100e+00,1.498839e+00,1
1.376610e+00,4.595710e-01,4.501343e-01,4,1,1.671178e+00,1.671181e+00,1
1.039821e+00,1.101307e+00,1.090765e+00,3,3,3.948457e+00,3.948947e+00,1
1.050340e+00,5.516630e-01,5.412102e-01,3,1,1.943208e+00,1.943254e+00,1
1.044446e+00,4.948760e-01,4.849434e-01,3,1,1.544553e+00,1.544553e+00,1
1.028685e+00,2.849170e-01,2.739429e-01,3,0,2.184233e+00,2.184235e+00,1
1.035159e+00,2.895630e-01,2.801418e-01,3,0,1.777463e+00,1.777465e+00,1
1.041493e+00,1.117929e+00,1.101017e+00,3,3,1.507375e+00,1.549731e+00,1
1.038237e+00,8.470090e-01,8.380413e-01,3,2,2.477625e+00,2.530288e+00,1
1.033012e+00,3.399930e-01,3.302097e-01,3,0,3.404051e+00,3.411539e+00,1
1.029754e+00,5.022660e-01,4.920959e-01,3,1,3.803420e+00,3.803424e+00,1
1.034187e+00,5.488320e-01,5.400181e-01,3,1,5.846971e+00,5.848394e+00,1
1.045493e+00,4.958190e-01,4.870892e-01,3,1,4.259145e+00,4.259144e+00,1
1.045738e+00,7.779930e-01,7.679462e-01,3,2,5.501163e+00,5.502199e+00,1
1.400411e+00,1.533729e+00,1.523256e+00,4,5,6.707722e+00,6.707245e+00,1
1.373747e+00,8.839430e-01,8.749962e-01,4,3,3.598276e+00,3.598273e+00,1
1.029334e+00,2.894790e-01,2.799034e-01,3,0,5.556129e+00,5.556136e+00,1
1.036218e+00,2.836910e-01,2.751350e-01,3,0,8.146264e+00,8.146271e+00,1
1.043722e+00,8.021340e-01,7.920265e-01,3,2,8.621659e+00,8.624026e+00,1
1.033250e+00,7.265040e-01,7.159710e-01,3,2,5.857639e+00,5.857637e+00,1
1.037282e+00,2.839310e-01,2.739429e-01,3,0,4.966164e+00,4.966164e+00,1
1.036070e+00,2.839410e-01,2.751350e-01,3,0,4.812888e+00,4.812889e+00,1
1.036440e+00,2.895170e-01,2.799034e-01,3,0,3.384043e+00,3.384042e+00,1
1.039040e+00,2.840370e-01,2.739429e-01,3,0,2.995420e+00,2.995421e+00,1
1.031262e+00,2.834170e-01,2.751350e-01,3,0,2.043519e+00,2.043518e+00,1
1.033037e+00,2.893640e-01,2.799034e-01,3,0,2.354440e+00,2.354439e+00,1
1.030905e+00,2.833870e-01,2.729893e-01,3,0,1.563519e+00,1.563515e+00,1
1.034405e+00,5.592620e-01,5.500317e-01,3,1,1.058749e+00,1.094158e+00,1
1.032101e+00,4.942590e-01,4.837513e-01,3,1,6.503063e-01,6.503066e-01,1
1.036778e+00,2.893680e-01,2.791882e-01,3,0,1.213809e+00,1.213811e+00,1
1.056213e+00,2.835790e-01,2.739429e-01,3,0,1.227741e+00,1.227742e+00,1
1.035328e+00,2.837070e-01,2.739429e-01,3,0,1.067869e+00,1.067869e+00,1
1.046876e+00,2.885760e-01,2.779961e-01,3,0,2.095319e+00,2.095323e+00,1
1.031259e+00,2.836450e-01,2.748966e-01,3,0,1.178200e+00,1.178201e+00,1
1.033982e+00,2.832830e-01,2.729893e-01,3,0,9.296979e-01,9.296986e-01,1
1.032106e+00,2.829320e-01,2.729893e-01,3,0,6.994403e-01,6.994407e-01,1
1.051855e+00,2.830350e-01,2.741814e-01,3,0,1.053355e+00,1.053357e+00,1
1.044022e+00,2.898360e-01,2.789497e-01,3,0,4.498978e-01,4.498984e-01,1
1.033878e+00,2.838920e-01,2.741814e-01,3,0,1.271909e+00,1.271911e+00,1
1.031143e+00,2.834730e-01,2.741814e-01,3,0,1.036304e+00,1.036304e+00,1
1.034924e+00,2.890860e-01,2.789497e-01,3,0,7.617060e-01,7.617065e-01,1
1.033615e+00,2.838570e-01,2.741814e-01,3,0,1.133718e+00,1.133720e+00,1
1.030448e+00,2.838680e-01,2.748966e-01,3,0,7.475783e-01,7.475784e-01,1
1.032314e+00,2.894920e-01,2.810955e-01,3,0,5.025808e-01,5.025812e-01,1
1.028504e+00,2.828220e-01,2.739429e-01,3,0,4.518626e-01,4.518629e-01,1
1.031645e+00,2.829700e-01,2.729893e-01,3,0,4.973358e-01,4.973366e-01,1
1.039063e+00,2.883360e-01,2.779961e-01,3,0,4.044082e-01,4.044086e-01,1
1.036793e+00,2.829760e-01,2.729893e-01,3,0,5.780715e-01,5.780723e-01,1
1.040278e+00,2.836370e-01,2.741814e-01,3,0,7.065053e-01,7.065061e-01,1
1.046332e+00,2.831490e-01,2.739429e-01,3,0,9.999809e-01,9.999818e-01,1
1.030929e+00,2.835390e-01,2.741814e-01,3,0,9.524142e-01,9.524146e-01,1
1.032092e+00,2.880810e-01,2.789497e-01,3,0,9.291908e-01,9.291917e-01,1
1.032030e+00,2.836690e-01,2.729893e-01,3,0,1.183821e+00,1.183822e+00,1
1.034075e+00,2.834610e-01,2.739429e-01,3,0,7.580977e-01,7.580981e-01,1
1.028812e+00,2.885490e-01,2.779961e-01,3,0,9.257589e-01,9.257596e-01,1
1.036433e+00,2.837850e-01,2.741814e-01,3,0,3.503534e+00,3.503475e+00,1
1.052496e+00,5.596680e-01,5.500317e-01,3,1,3.851797e+00,3.851710e+00,1
1.029847e+00,7.646520e-01,7.548332e-01,3,2,4.174532e+00,4.177475e+00,1
1.031451e+00,5.956080e-01,5.862713e-01,3,1,5.813471e+00,5.838330e+00,1
1.035813e+00,3.390730e-01,3.299713e-01,3,0,3.387545e+00,3.440044e+00,1
1.032550e+00,8.430720e-01,8.339882e-01,3,2,3.081354e+00,3.129012e+00,1
1.039611e+00,3.443070e-01,3.349781e-01,3,0,3.144821e+00,3.215497e+00,1
1.037702e+00,6.353740e-01,6.260872e-01,3,1,4.185430e+00,4.264909e+00,1
1.035037e+00,1.294129e+00,1.284122e+00,3,4,5.610712e+00,5.644712e+00,1
1.042636e+00,1.724807e+00,1.714706e+00,3,6,6.768703e+00,6.972259e+00,1
1.374237e+00,1.055182e+00,9.639263e-01,4,3,4.774656e+00,4.835328e+00,1
1.037285e+00,1.268573e+00,1.260042e+00,3,4,4.411339e+00,4.439806e+00,1
1.036915e+00,1.028586e+00,1.019001e+00,3,3,3.059961e+00,3.061425e+00,1
1.708777e+00,1.014303e+00,1.004696e+00,5,3,2.917594e+00,2.932324e+00,1
1.028053e+00,8.064260e-01,7.979870e-01,3,2,2.648218e+00,2.655333e+00,1
1.032463e+00,5.958770e-01,5.860329e-01,3,1,3.282506e+00,3.295476e+00,1
1.033522e+00,1.135113e+00,1.125097e+00,3,3,3.221842e+00,3.253432e+00,1
1.035076e+00,9.231300e-01,9.138584e-01,3,2,3.170425e+00,3.200354e+00,1
1.030992e+00,3.444540e-01,3.337860e-01,3,0,3.244447e+00,3.282492e+00,1
1.030145e+00,3.383780e-01,3.280640e-01,3,0,3.021424e+00,3.061524e+00,1
1.033715e+00,6.344850e-01,6.241798e-01,3,1,3.124717e+00,3.164916e+00,1
1.037598e+00,6.293530e-01,6.201267e-01,3,1,3.427681e+00,3.495386e+00,1
1.033732e+00,1.093076e+00,1.083851e+00,3,3,3.337341e+00,3.404014e+00,1
1.028673e+00,6.292620e-01,6.198883e-01,3,1,3.022023e+00,3.233835e+00,1
1.036759e+00,8.486920e-01,8.399487e-01,3,2,2.629180e+00,2.759744e+00,1
1.375727e+00,5.000220e-01,4.909039e-01,4,1,1.301742e+00,1.301742e+00,1
1.027692e+00,2.841490e-01,2.751350e-01,3,0,1.317475e+00,1.317475e+00,1
1.034337e+00,2.892230e-01,2.799034e-01,3,0,1.143923e+00,1.143923e+00,1
1.035187e+00,2.835910e-01,2.729893e-01,3,0,1.457383e+00,1.457385e+00,1
1.035621e+00,2.836800e-01,2.729893e-01,3,0,1.514866e+00,1.514866e+00,1
1.030866e+00,2.837020e-01,2.729893e-01,3,0,1.299606e+00,1.299606e+00,1
1.028693e+00,2.836880e-01,2.748966e-01,3,0,1.499025e+00,1.499026e+00,1
1.032299e+00,5.601660e-01,5.500317e-01,3,1,1.501485e+00,1.515876e+00,1
1.055047e+00,4.945430e-01,4.851818e-01,3,1,1.275351e+00,1.275352e+00,1
1.030500e+00,2.897540e-01,2.799034e-01,3,0,2.445466e+00,2.445469e+00,1
1.039117e+00,2.843230e-01,2.760887e-01,3,0,2.384176e+00,2.384176e+00,1
1.029639e+00,2.835620e-01,2.751350e-01,3,0,1.956721e+00,1.956722e+00,1
1.032655e+00,5.544120e-01,5.447865e-01,3,1,2.310831e+00,2.310989e+00,1
1.034825e+00,1.022295e+00,1.012087e+00,3,3,2.412216e+00,2.414181e+00,1
1.036082e+00,6.348130e-01,6.248951e-01,3,1,1.415298e+00,1.469687e+00,1
1.036226e+00,5.501600e-01,5.412102e-01,3,1,1.450876e+00,1.490513e+00,1
1.035657e+00,4.951320e-01,4.849434e-01,3,1,8.371849e-01,8.371833e-01,1

