7.231780e-01,1.379433e+01,1.354194e+01,2,49,0.000000e+00,9.995977e-23,1
1.017738e+00,2.846870e-01,2.739429e-01,3,0,1.314509e-01,1.314512e-01,1
1.020109e+00,2.864580e-01,2.770424e-01,3,0,4.940149e-01,4.940159e-01,1
1.022517e+00,2.815850e-01,2.720356e-01,3,0,9.258856e-01,9.258868e-01,1
1.017932e+00,2.812160e-01,2.710819e-01,3,0,1.362930e+00,1.362932e+00,1
1.023827e+00,2.871140e-01,2.779961e-01,3,0,2.242815e+00,2.242817e+00,1
1.017674e+00,2.815840e-01,2.720356e-01,3,0,3.154928e+00,3.154931e+00,1
1.014057e+00,2.809250e-01,2.717972e-01,3,0,1.574358e+00,1.574358e+00,1
1.021888e+00,2.858000e-01,2.760887e-01,3,0,1.476354e+00,1.476354e+00,1
1.027884e+00,2.815950e-01,2.710819e-01,3,0,1.187294e+00,1.187295e+00,1
1.018202e+00,2.905480e-01,2.799034e-01,3,0,2.767074e+00,2.767080e+00,1
1.023369e+00,2.866590e-01,2.770424e-01,3,0,5.495143e+00,5.495151e+00,1
1.018638e+00,2.824720e-01,2.729893e-01,3,0,4.760570e+00,4.760570e+00,1
1.019380e+00,2.820910e-01,2.739429e-01,3,0,6.842999e+00,6.843005e+00,1
1.016627e+00,2.945820e-01,2.839565e-01,3,0,6.361047e+00,6.361048e+00,1
1.022086e+00,2.835650e-01,2.729893e-01,3,0,5.994194e+00,5.994195e+00,1
1.021904e+00,5.602060e-01,5.500317e-01,3,1,6.471995e+00,6.502229e+00,1
1.014893e+00,4.942750e-01,4.851818e-01,3,1,6.555008e+00,6.555011e+00,1
1.022809e+00,2.820670e-01,2.729893e-01,3,0,5.152332e+00,5.152332e+00,1
1.023391e+00,5.379500e-01,5.280972e-01,3,1,4.709677e+00,4.713401e+00,1
1.017500e+00,4.995570e-01,4.889965e-01,3,1,3.622340e+00,3.622340e+00,1
1.023059e+00,2.811960e-01,2.729893e-01,3,0,2.995651e+00,2.995652e+00,1
1.016427e+00,5.559980e-01,5.462170e-01,3,1,3.007168e+00,3.007176e+00,1
1.017904e+00,5.875460e-01,5.781651e-01,3,1,2.281587e+00,2.282204e+00,1
1.025936e+00,8.054820e-01,7.960796e-01,3,2,1.769945e+00,1.813152e+00,1
1.024508e+00,8.471780e-01,8.370876e-01,3,2,1.555683e+00,1.590262e+00,1
1.017636e+00,6.354090e-01,6.251335e-01,3,1,2.682745e+00,2.719003e+00,1
1.016957e+00,3.390440e-01,3.292561e-01,3,0,3.014120e+00,3.038037e+00,1
1.016839e+00,4.993120e-01,4.899502e-01,3,1,2.190475e+00,2.190475e+00,1
1.014479e+00,2.827160e-01,2.729893e-01,3,0,1.901048e+00,1.901049e+00,1
1.013758e+00,2.832330e-01,2.729893e-01,3,0,1.535260e+00,1.535260e+00,1
1.017465e+00,2.890180e-01,2.791882e-01,3,0,1.500921e+00,1.500922e+00,1
1.014819e+00,2.833340e-01,2.739429e-01,3,0,1.551106e+00,1.551108e+00,1
1.012888e+00,2.831820e-01,2.729893e-01,3,0,2.556527e+00,2.556530e+00,1
1.015002e+00,2.887200e-01,2.799034e-01,3,0,2.395257e+00,2.395258e+00,1
1.011700e+00,2.828850e-01,2.739429e-01,3,0,6.892723e+00,6.892729e+00,1
1.012641e+00,2.828360e-01,2.720356e-01,3,0,4.131475e+00,4.131470e+00,1
1.017297e+00,2.888520e-01,2.789497e-01,3,0,6.312285e+00,6.312292e+00,1
1.018793e+00,2.827450e-01,2.739429e-01,3,0,4.130753e+00,4.130751e+00,1
1.013092e+00,5.595380e-01,5.500317e-01,3,1,4.824234e+00,4.829662e+00,1
1.012917e+00,3.386830e-01,3.290176e-01,3,0,4.929836e+00,4.952759e+00,1
1.018994e+00,4.998110e-01,4.889965e-01,3,1,4.300913e+00,4.300913e+00,1
1.015162e+00,2.836420e-01,2.751350e-01,3,0,4.035779e+00,4.035781e+00,1
1.016119e+00,2.832840e-01,2.739429e-01,3,0,4.442715e+00,4.442717e+00,1
1.016209e+00,2.883000e-01,2.789497e-01,3,0,3.889660e+00,3.889662e+00,1
1.014295e+00,2.832480e-01,2.741814e-01,3,0,3.736208e+00,3.736172e+00,1
1.015339e+00,1.036093e+00,1.028061e+00,3,3,4.728449e+00,4.770243e+00,1
1.020514e+00,1.537318e+00,1.527071e+00,3,5,5.745784e+00,5.896271e+00,1
1.015134e+00,1.857004e+00,1.847982e+00,3,7,4.275134e+00,4.355423e+00,1
1.015387e+00,2.201571e+00,2.190828e+00,3,8,5.023420e+00,5.054921e+00,1
2.020290e+00,2.538673e+00,2.527952e+00,6,10,7.411421e+00,7.531888e+00,1
1.352156e+00,1.612572e+00,1.601696e+00,4,6,5.230835e+00,5.370471e+00,1
1.014511e+00,1.052943e+00,1.042128e+00,3,3,2.982791e+00,3.019659e+00,1
1.014623e+00,7.823130e-01,7.719994e-01,3,2,3.112606e+00,3.112612e+00,1
1.014131e+00,2.892830e-01,2.799034e-01,3,0,2.223744e+00,2.223743e+00,1
1.014029e+00,5.392210e-01,5.300045e-01,3,1,3.002735e+00,3.002806e+00,1
1.014587e+00,5.000010e-01,4.889965e-01,3,1,1.510665e+00,1.510666e+00,1
1.014884e+00,2.826400e-01,2.729893e-01,3,0,1.145238e+00,1.145238e+00,1
1.012303e+00,2.826170e-01,2.729893e-01,3,0,1.325652e+00,1.325653e+00,1
1.020763e+00,2.868490e-01,2.779961e-01,3,0,1.278900e+00,1.278901e+00,1
1.012401e+00,2.827130e-01,2.729893e-01,3,0,2.691207e+00,2.691212e+00,1
1.013489e+00,2.827800e-01,2.741814e-01,3,0,2.569895e+00,2.569896e+00,1
1.018345e+00,2.865500e-01,2.779961e-01,3,0,3.107929e+00,3.107931e+00,1
1.012899e+00,2.826480e-01,2.729893e-01,3,0,1.972110e+00,1.972109e+00,1
1.018773e+00,5.577360e-01,5.481243e-01,3,1,1.882382e+00,1.882725e+00,1
1.017501e+00,6.291540e-01,6.191730e-01,3,1,1.852462e+00,1.856686e+00,1
1.023566e+00,4.996990e-01,4.911423e-01,3,1,9.896858e-01,9.896854e-01,1
1.016373e+00,2.819030e-01,2.717972e-01,3,0,7.381438e-01,7.381446e-01,1
1.023117e+00,2.887330e-01,2.739429e-01,3,0,1.456786e+00,1.456789e+00,1
1.016608e+00,2.824800e-01,2.739429e-01,3,0,2.838762e+00,2.838765e+00,1
1.020538e+00,2.825640e-01,2.720356e-01,3,0,1.623391e+00,1.623390e+00,1
1.024140e+00,2.871540e-01,2.768040e-01,3,0,2.258155e+00,2.258158e+00,1
1.016490e+00,4.707850e-01,4.608631e-01,3,1,5.153408e+00,5.153252e+00,1
1.360308e+00,2.911070e+00,2.901077e+00,4,11,8.999950e+00,9.235509e+00,1
1.355514e+00,4.187707e+00,4.177094e+00,4,17,1.049154e+01,1.099988e+01,1
1.022821e+00,4.655268e+00,4.643202e+00,3,16,1.373074e+01,1.596184e+01,0
1.690266e+00,4.534046e+00,4.522562e+00,5,16,1.003729e+01,1.141599e+01,0
1.015352e+00,2.306666e+00,2.295971e+00,3,9,7.291664e+00,7.368737e+00,1
1.016723e+00,1.242909e+00,1.232862e+00,3,4,7.830589e+00,7.840184e+00,1
1.354070e+00,1.645202e+00,1.634836e+00,4,6,5.177856e+00,5.178106e+00,1
1.016977e+00,4.939970e-01,4.849434e-01,3,1,4.062781e+00,4.062780e+00,1
1.017013e+00,2.867670e-01,2.770424e-01,3,0,4.529541e+00,4.529543e+00,1
1.019716e+00,2.815460e-01,2.717972e-01,3,0,3.180365e+00,3.180367e+00,1
1.015622e+00,7.962260e-01,7.860661e-01,3,2,3.520022e+00,3.523167e+00,1
1.017417e+00,9.727910e-01,9.622574e-01,3,3,3.344481e+00,3.347321e+00,1
1.016817e+00,8.403550e-01,8.311272e-01,3,2,3.716166e+00,3.734438e+00,1
1.014787e+00,3.374960e-01,3.280640e-01,3,0,2.841074e+00,2.887695e+00,1
1.017555e+00,9.202770e-01,9.109974e-01,3,3,1.247875e+00,1.247874e+00,1
1.013522e+00,2.819890e-01,2.729893e-01,3,0,2.428865e+00,2.428827e+00,1
1.020141e+00,5.561750e-01,5.457401e-01,3,1,1.153286e+00,1.153281e+00,1
1.015007e+00,4.983810e-01,4.889965e-01,3,1,1.855423e+00,1.855425e+00,1
1.014181e+00,2.820320e-01,2.729893e-01,3,0,9.525124e-01,9.525125e-01,1
1.016252e+00,2.814670e-01,2.710819e-01,3,0,8.130654e-01,8.130657e-01,1
1.014927e+00,2.870890e-01,2.779961e-01,3,0,7.873252e-01,7.873257e-01,1
1.017726e+00,2.814310e-01,2.720356e-01,3,0,8.057810e-01,8.057815e-01,1
1.015253e+00,5.568710e-01,5.478859e-01,3,1,6.459225e-01,6.459938e-01,1
1.017467e+00,4.913650e-01,4.808903e-01,3,1,6.236536e-01,6.236543e-01,1
1.018218e+00,5.582070e-01,5.478859e-01,3,1,1.492713e+00,1.495536e+00,1
1.014652e+00,7.876620e-01,7.779598e-01,3,2,1.267963e+00,1.267964e+00,1
1.022707e+00,2.820090e-01,2.720356e-01,3,0,1.555775e+00,1.555776e+00,1
1.015881e+00,2.818650e-01,2.729893e-01,3,0,5.203243e+00,5.203252e+00,1
1.016211e+00,2.884560e-01,2.789497e-01,3,0,7.507499e+00,7.507506e+00,1
1.013748e+00,5.513940e-01,5.419254e-01,3,1,6.902623e+00,6.906384e+00,1
1.017182e+00,4.983110e-01,4.889965e-01,3,1,5.194719e+00,5.194718e+00,1
1.020820e+00,2.825200e-01,2.729893e-01,3,0,4.821992e+00,4.821993e+00,1
1.021664e+00,5.572380e-01,5.471706e-01,3,1,4.537287e+00,4.548434e+00,1
1.018906e+00,1.080080e+00,1.071930e+00,3,3,6.993929e+00,7.250934e+00,1
1.017120e+00,1.219071e+00,1.205683e+00,3,1,6.706506e+00,7.977828e+00,0
1.012649e+00,1.440226e+00,1.430035e+00,3,5,5.187638e+00,5.210493e+00,1
1.022954e+00,1.223566e+00,1.214027e+00,3,4,6.008695e+00,6.012615e+00,1
1.018728e+00,7.086510e-01,6.999969e-01,3,2,2.380472e+00,2.380467e+00,1
1.018679e+00,5.500110e-01,5.409718e-01,3,1,2.954347e+00,2.955076e+00,1
1.012122e+00,4.978630e-01,4.880428e-01,3,1,2.133094e+00,2.133094e+00,1
1.022345e+00,2.813180e-01,2.710819e-01,3,0,1.451943e+00,1.451943e+00,1
1.014630e+00,2.812850e-01,2.729893e-01,3,0,1.147491e+00,1.147492e+00,1
1.022479e+00,2.859660e-01,2.770424e-01,3,0,1.411638e+00,1.411639e+00,1
1.017965e+00,2.816880e-01,2.720356e-01,3,0,1.359958e+00,1.359959e+00,1
1.048965e+00,2.819960e-01,2.720356e-01,3,0,1.312937e+00,1.312937e+00,1
1.016353e+00,2.836140e-01,2.741814e-01,3,0,1.230351e+00,1.230157e+00,1
1.350418e+00,2.818240e-01,2.720356e-01,4,0,8.450487e-01,8.450489e-01,1
1.015024e+00,2.817580e-01,2.720356e-01,3,0,9.848379e-01,9.848393e-01,1
1.011240e+00,2.818020e-01,2.720356e-01,3,0,1.729820e+00,1.729821e+00,1
1.014449e+00,2.823950e-01,2.729893e-01,3,0,1.736138e+00,1.736067e+00,1
1.016770e+00,2.825830e-01,2.720356e-01,3,0,9.952081e-01,9.952073e-01,1
1.012101e+00,2.818560e-01,2.720356e-01,3,0,1.203443e+00,1.203444e+00,1
1.014778e+00,2.818070e-01,2.729893e-01,3,0,9.893219e-01,9.893221e-01,1
1.012217e+00,2.826790e-01,2.720356e-01,3,0,2.398179e+00,2.398184e+00,1
1.013383e+00,2.825740e-01,2.729893e-01,3,0,4.260854e+00,4.260780e+00,1
1.018068e+00,5.638960e-01,5.540848e-01,3,1,5.401500e+00,5.400507e+00,1
1.019383e+00,4.936610e-01,4.849434e-01,3,1,3.545457e+00,3.545447e+00,1
1.029910e+00,2.873490e-01,2.770424e-01,3,0,3.323576e+00,3.323576e+00,1
1.015943e+00,2.836020e-01,2.739429e-01,3,0,3.104414e+00,3.104415e+00,1
1.016119e+00,5.574230e-01,5.471706e-01,3,1,2.977996e+00,2.979667e+00,1
1.014026e+00,4.927480e-01,4.839897e-01,3,1,3.539322e+00,3.539325e+00,1
1.017229e+00,2.818730e-01,2.729893e-01,3,0,4.188185e+00,4.188187e+00,1
1.017332e+00,2.816960e-01,2.729893e-01,3,0,5.229805e+00,5.229809e+00,1
1.016131e+00,2.815850e-01,2.729893e-01,3,0,3.250425e+00,3.250425e+00,1
1.018361e+00,2.881320e-01,2.789497e-01,3,0,3.548666e+00,3.548669e+00,1
1.014849e+00,8.015060e-01,7.908344e-01,3,2,3.314646e+00,3.320485e+00,1
1.015214e+00,1.097905e+00,1.086950e+00,3,3,3.000107e+00,3.001075e+00,1
1.015393e+00,1.227262e+00,1.217842e+00,3,4,1.684606e+00,1.691819e+00,1
1.013023e+00,5.489810e-01,5.400181e-01,3,1,1.628750e+00,1.644334e+00,1
1.017484e+00,6.332240e-01,6.239414e-01,3,1,1.427332e+00,1.459116e+00,1
1.015270e+00,3.377460e-01,3.280640e-01,3,0,3.751019e+00,3.753446e+00,1
1.018483e+00,4.930190e-01,4.839897e-01,3,1,1.986011e+00,1.986011e+00,1
1.013885e+00,2.822690e-01,2.720356e-01,3,0,1.858285e+00,1.858285e+00,1
1.017809e+00,2.870300e-01,2.779961e-01,3,0,1.604543e+00,1.604433e+00,1
1.016929e+00,2.823200e-01,2.729893e-01,3,0,2.516843e+00,2.516585e+00,1
1.012324e+00,2.819450e-01,2.720356e-01,3,0,1.960072e+00,1.960072e+00,1
1.016841e+00,2.873280e-01,2.779961e-01,3,0,1.297494e+00,1.297494e+00,1
1.015608e+00,2.818590e-01,2.720356e-01,3,0,9.944097e-01,9.944103e-01,1
1.017756e+00,5.582520e-01,5.478859e-01,3,1,1.042014e+00,1.046215e+00,1
1.014862e+00,3.368390e-01,3.280640e-01,3,0,1.856878e+00,1.880433e+00,1
1.012167e+00,6.321620e-01,6.222725e-01,3,1,1.720434e+00,1.731689e+00,1
1.014945e+00,4.924660e-01,4.830360e-01,3,1,1.237658e+00,1.237658e+00,1
1.016598e+00,2.864790e-01,2.770424e-01,3,0,2.001356e+00,2.001359e+00,1
1.013463e+00,2.819160e-01,2.729893e-01,3,0,1.979455e+00,1.979456e+00,1
1.016370e+00,2.816570e-01,2.722740e-01,3,0,1.612717e+00,1.612717e+00,1
1.016040e+00,2.878850e-01,2.789497e-01,3,0,1.632465e+00,1.632466e+00,1
1.014676e+00,2.817130e-01,2.729893e-01,3,0,1.778174e+00,1.778103e+00,1
1.016025e+00,2.815830e-01,2.720356e-01,3,0,3.010068e+00,3.009953e+00,1
1.013954e+00,5.571350e-01,5.481243e-01,3,1,4.083840e+00,4.089117e+00,1
1.018704e+00,7.673200e-01,7.569790e-01,3,2,3.030576e+00,3.033967e+00,1
1.013690e+00,4.927860e-01,4.816055e-01,3,1,3.045953e+00,3.045938e+00,1
1.016541e+00,5.573450e-01,5.490780e-01,3,1,2.564885e+00,2.636613e+00,1
1.014150e+00,3.372460e-01,3.280640e-01,3,0,2.087432e+00,2.093323e+00,1
1.015243e+00,4.984750e-01,4.892349e-01,3,1,1.960172e+00,1.960174e+00,1
1.015823e+00,2.821820e-01,2.732277e-01,3,0,1.787222e+00,1.787223e+00,1
1.016959e+00,8.023690e-01,7.920265e-01,3,2,6.079219e+00,6.087034e+00,1
1.020954e+00,1.959696e+00,1.949072e+00,3,7,1.085388e+01,1.113117e+01,1
2.022296e+00,7.947650e-01,7.851124e-01,6,2,1.204020e+01,1.229087e+01,1
2.019831e+00,3.278827e+00,3.263950e+00,6,10,1.434198e+01,1.544225e+01,0
2.021041e+00,9.794460e-01,9.660721e-01,6,0,1.744586e+01,2.302022e+01,0
2.018998e+00,4.346900e+00,4.334211e+00,6,15,1.288985e+01,1.453799e+01,0
1.348924e+00,9.699490e-01,9.579659e-01,4,0,1.469781e+01,1.721102e+01,0
1.352729e+00,2.773696e+00,2.763987e+00,4,11,9.385333e+00,9.392889e+00,1
1.015253e+00,1.186368e+00,1.177073e+00,3,4,8.332115e+00,8.332190e+00,1
1.017852e+00,2.380501e+00,2.369165e+00,3,6,8.223066e+00,1.092357e+01,0
2.023869e+00,9.686600e-01,9.546280e-01,6,0,6.011372e+00,6.562445e+00,0
1.357022e+00,2.309121e+00,2.295494e+00,4,6,6.106025e+00,9.682358e+00,0
2.016005e+00,9.145590e-01,9.050369e-01,6,3,3.476332e+00,3.467927e+00,1
1.350456e+00,2.820830e-01,2.729893e-01,4,0,3.077513e+00,3.077426e+00,1
1.016828e+00,2.873140e-01,2.779961e-01,3,0,2.975381e+00,2.975310e+00,1
1.015778e+00,2.822810e-01,2.720356e-01,3,0,3.359608e+00,3.359613e+00,1
1.014860e+00,2.821840e-01,2.720356e-01,3,0,3.656666e+00,3.656667e+00,1
1.017353e+00,5.545360e-01,5.440712e-01,3,1,4.570787e+00,4.572342e+00,1
1.015038e+00,4.922890e-01,4.820824e-01,3,1,2.613980e+00,2.613978e+00,1
1.014832e+00,5.563120e-01,5.469322e-01,3,1,2.991469e+00,2.991888e+00,1
1.013176e+00,4.934830e-01,4.839897e-01,3,1,2.348782e+00,2.348782e+00,1
1.013993e+00,2.824000e-01,2.739429e-01,3,0,2.813290e+00,2.813292e+00,1
1.013318e+00,2.822560e-01,2.729893e-01,3,0,3.856443e+00,3.856446e+00,1
1.014756e+00,2.820670e-01,2.720356e-01,3,0,3.212224e+00,3.212224e+00,1
1.013762e+00,2.817960e-01,2.720356e-01,3,0,2.057881e+00,2.057880e+00,1
1.012898e+00,2.817560e-01,2.729893e-01,3,0,2.841804e+00,2.841807e+00,1
1.013042e+00,2.813800e-01,2.729893e-01,3,0,2.210092e+00,2.210091e+00,1
1.016290e+00,2.816570e-01,2.710819e-01,3,0,1.419063e+00,1.419062e+00,1
1.011503e+00,2.818020e-01,2.729893e-01,3,0,3.369189e+00,3.369198e+00,1
1.014017e+00,2.818620e-01,2.732277e-01,3,0,4.040882e+00,4.040885e+00,1
1.013977e+00,7.922660e-01,7.820129e-01,3,2,8.532706e+00,8.539134e+00,1
1.014284e+00,8.360180e-01,8.270741e-01,3,2,1.008494e+01,1.014765e+01,1
1.014930e+00,1.429311e+00,1.420021e+00,3,5,8.155451e+00,8.155548e+00,1
1.017719e+00,1.015659e+00,1.005650e+00,3,3,8.407995e+00,8.409423e+00,1
1.014227e+00,9.752850e-01,9.648800e-01,3,3,6.058665e+00,6.058971e+00,1
1.017329e+00,1.073106e+00,1.062870e+00,3,3,6.162538e+00,6.193425e+00,1
1.014488e+00,1.132092e+00,1.121998e+00,3,4,3.718564e+00,3.718557e+00,1
1.014879e+00,2.833390e-01,2.741814e-01,3,0,3.424517e+00,3.424523e+00,1
1.015234e+00,2.879000e-01,2.770424e-01,3,0,2.546549e+00,2.546547e+00,1
1.017737e+00,2.831160e-01,2.739429e-01,3,0,2.099015e+00,2.098980e+00,1
1.017208e+00,4.707050e-01,4.611015e-01,3,1,1.984070e+00,1.982434e+00,1
1.353768e+00,7.264900e-01,7.181168e-01,4,2,1.755382e+00,1.798329e+00,1
1.014573e+00,7.674380e-01,7.579327e-01,3,2,5.054269e+00,5.054280e+00,1
1.017870e+00,3.636101e+00,3.620625e+00,3,11,1.142326e+01,1.306171e+01,0
1.015623e+00,3.183840e+00,3.173113e+00,3,13,6.763923e+00,6.799740e+00,1
1.357244e+00,7.596960e-01,7.500648e-01,4,2,4.624779e+00,4.625370e+00,1
1.021433e+00,7.601910e-01,7.510185e-01,3,2,4.089339e+00,4.089310e+00,1
1.017467e+00,4.940520e-01,4.839897e-01,3,1,3.561601e+00,3.561544e+00,1
1.012854e+00,2.812200e-01,2.729893e-01,3,0,2.710542e+00,2.710545e+00,1
1.017210e+00,2.868750e-01,2.770424e-01,3,0,2.346636e+00,2.346636e+00,1
1.015025e+00,2.819240e-01,2.720356e-01,3,0,1.907042e+00,1.907042e+00,1
1.013304e+00,2.812020e-01,2.720356e-01,3,0,1.794388e+00,1.794389e+00,1
1.020731e+00,4.741180e-01,4.642010e-01,3,1,3.094394e+00,3.094148e+00,1
2.025749e+00,1.967355e+00,1.956701e+00,6,7,6.384063e+00,6.458980e+00,1
1.348505e+00,2.058990e+00,2.044678e+00,4,5,8.930516e+00,9.294364e+00,0
2.025564e+00,1.633556e+00,1.623154e+00,6,6,8.299470e+00,8.342519e+00,1
1.349078e+00,1.016153e+00,1.006126e+00,4,3,8.542487e+00,8.545005e+00,1
1.014314e+00,1.037898e+00,1.026630e+00,3,3,7.566109e+00,7.571853e+00,1
1.014441e+00,1.740036e+00,1.730204e+00,3,6,1.258248e+01,1.277928e+01,1
1.348566e+00,2.549090e+00,2.539158e+00,4,10,8.858688e+00,8.877245e+00,1
1.018341e+00,1.707721e+00,1.694202e+00,3,3,1.131036e+01,1.238780e+01,0
1.017519e+00,1.520413e+00,1.512051e+00,3,5,1.121075e+01,1.131845e+01,1
1.016929e+00,1.875050e+00,1.866102e+00,3,7,8.742385e+00,8.833604e+00,1
1.018108e+00,2.304021e+00,2.294064e+00,3,8,7.601932e+00,7.839823e+00,1
1.018065e+00,3.288348e+00,3.274679e+00,3,10,8.996141e+00,1.197947e+01,0
2.019087e+00,9.444950e-01,9.319782e-01,6,0,1.117503e+01,1.820344e+01,0
2.024218e+00,2.237861e+00,2.224922e+00,6,6,1.259148e+01,2.027308e+01,0
2.025043e+00,6.062790e+00,6.048679e+00,6,23,1.157495e+01,1.577160e+01,0
2.018184e+00,9.408200e-01,9.272099e-01,6,0,1.359971e+01,1.743455e+01,0
2.022019e+00,9.390350e-01,9.260178e-01,6,0,1.592463e+01,2.118777e+01,0
2.032693e+00,5.603647e+00,5.589962e+00,6,21,1.575513e+01,2.062712e+01,0
2.027226e+00,3.053607e+00,3.043890e+00,6,12,1.347838e+01,1.411599e+01,1
2.030108e+00,9.672660e-01,9.520054e-01,6,0,1.885761e+01,2.371663e+01,0
1.693857e+00,3.395146e+00,3.381968e+00,5,11,1.759876e+01,2.072549e+01,0
1.356101e+00,1.627368e+00,1.615047e+00,4,3,1.504509e+01,1.925814e+01,0
1.019452e+00,9.656640e-01,9.531975e-01,3,0,1.152785e+01,1.606379e+01,0
1.020655e+00,3.436925e+00,3.426790e+00,3,14,9.017776e+00,9.021549e+00,1
1.015626e+00,2.157676e+00,2.144098e+00,3,5,8.140132e+00,1.075609e+01,0
1.026533e+00,2.157016e+00,2.147198e+00,3,8,5.848777e+00,5.853073e+00,1
1.018399e+00,1.488196e+00,1.479149e+00,3,5,4.966768e+00,4.970193e+00,1
1.017072e+00,1.323556e+00,1.315117e+00,3,5,4.219670e+00,4.217704e+00,1
1.694474e+00,7.238030e-01,7.147789e-01,5,2,2.026957e+00,2.028049e+00,1
1.020042e+00,4.943040e-01,4.839897e-01,3,1,1.365707e+00,1.365708e+00,1
1.017589e+00,2.832700e-01,2.751350e-01,3,0,1.108217e+00,1.108218e+00,1
1.020959e+00,2.830590e-01,2.739429e-01,3,0,2.008978e+00,2.008981e+00,1
1.016760e+00,2.883720e-01,2.789497e-01,3,0,7.662816e-01,7.662816e-01,1
1.021840e+00,2.830820e-01,2.729893e-01,3,0,1.876959e+00,1.876962e+00,1
1.018676e+00,2.833610e-01,2.739429e-01,3,0,2.916799e+00,2.916803e+00,1
1.022483e+00,8.043330e-01,7.951260e-01,3,2,3.445789e+00,3.447633e+00,1
1.023738e+00,7.128040e-01,7.021427e-01,3,2,3.150122e+00,3.150123e+00,1
1.017417e+00,5.481060e-01,5.390644e-01,3,1,4.136153e+00,4.137190e+00,1
1.012884e+00,4.995320e-01,4.870892e-01,3,1,3.435072e+00,3.435054e+00,1
1.017850e+00,2.833150e-01,2.729893e-01,3,0,3.914645e+00,3.914649e+00,1
1.023420e+00,5.589950e-01,5.488396e-01,3,1,2.963562e+00,3.006276e+00,1
1.017453e+00,4.950330e-01,4.849434e-01,3,1,2.928797e+00,2.928798e+00,1
1.018384e+00,5.473570e-01,5.381107e-01,3,1,4.437326e+00,4.437322e+00,1
1.024705e+00,1.769498e+00,1.759052e+00,3,6,6.367136e+00,6.474035e+00,1
2.024263e+00,1.651137e+00,1.641273e+00,6,6,5.126979e+00,5.116495e+00,1
2.020518e+00,1.089128e+00,1.080036e+00,6,4,3.081123e+00,3.079602e+00,1
1.360297e+00,4.596930e-01,4.498959e-01,4,1,1.986636e+00,1.986439e+00,1
1.016793e+00,2.825270e-01,2.729893e-01,3,0,1.475453e+00,1.475457e+00,1
1.019171e+00,2.835550e-01,2.739429e-01,3,0,2.331887e+00,2.331889e+00,1
1.017573e+00,2.881160e-01,2.789497e-01,3,0,1.283058e+00,1.283058e+00,1
1.037708e+00,2.835890e-01,2.729893e-01,3,0,1.338111e+00,1.338111e+00,1
1.022403e+00,2.930890e-01,2.830029e-01,3,0,2.063411e+00,2.063413e+00,1
1.032528e+00,1.215209e+00,1.204014e+00,3,4,4.500891e+00,4.496494e+00,1
2.026195e+00,6.993460e-01,6.899834e-01,6,2,5.527769e+00,5.510092e+00,1
1.349221e+00,9.859610e-01,9.748936e-01,4,3,8.872881e+00,8.876796e+00,1
1.019205e+00,3.394470e-01,3.309250e-01,3,0,9.708094e+00,9.710622e+00,1
1.016355e+00,7.987180e-01,7.898808e-01,3,2,7.416643e+00,7.418219e+00,1
1.022744e+00,1.009493e+00,1.000166e+00,3,3,6.401076e+00,6.401154e+00,1
1.022145e+00,8.025940e-01,7.920265e-01,3,2,5.550531e+00,5.582302e+00,1
1.023113e+00,1.018415e+00,1.009226e+00,3,3,4.367659e+00,4.374100e+00,1
1.020882e+00,8.402660e-01,8.301735e-01,3,2,4.381292e+00,4.459679e+00,1
1.020005e+00,1.262239e+00,1.254082e+00,3,4,3.579251e+00,3.608240e+00,1
1.019179e+00,1.059696e+00,1.049042e+00,3,3,2.499486e+00,2.524229e+00,1
1.017563e+00,4.991200e-01,4.889965e-01,3,1,1.855180e+00,1.855165e+00,1
1.018031e+00,2.834910e-01,2.729893e-01,3,0,1.287089e+00,1.287089e+00,1
1.017626e+00,6.504320e-01,6.408691e-01,3,2,3.576605e+00,3.575878e+00,1
1.352787e+00,6.381420e-01,6.289482e-01,4,2,1.782208e+00,1.782205e+00,1
1.017596e+00,2.835200e-01,2.739429e-01,3,0,6.807537e-01,6.807529e-01,1
1.023730e+00,2.884620e-01,2.799034e-01,3,0,1.133630e+00,1.133631e+00,1
1.017092e+00,2.828420e-01,2.739429e-01,3,0,1.018113e+00,1.018113e+00,1
1.017232e+00,2.823910e-01,2.729893e-01,3,0,4.308558e-01,4.308557e-01,1
1.015834e+00,2.880910e-01,2.779961e-01,3,0,1.449814e+00,1.449817e+00,1
1.017446e+00,2.837070e-01,2.748966e-01,3,0,2.503499e+00,2.503502e+00,1
1.016931e+00,2.833220e-01,2.729893e-01,3,0,3.788766e+00,3.788770e+00,1
1.020608e+00,2.882070e-01,2.789497e-01,3,0,2.967991e+00,2.967991e+00,1
1.019435e+00,5.517790e-01,5.428791e-01,3,1,3.806355e+00,3.806358e+00,1
1.018986e+00,4.988090e-01,4.887581e-01,3,1,2.915444e+00,2.915444e+00,1
1.018837e+00,5.593100e-01,5.509853e-01,3,1,2.696360e+00,2.756915e+00,1
1.013890e+00,3.387140e-01,3.299713e-01,3,0,2.396785e+00,2.431332e+00,1
1.019332e+00,4.943500e-01,4.861355e-01,3,1,2.195577e+00,2.195578e+00,1
1.017266e+00,2.828040e-01,2.729893e-01,3,0,1.906076e+00,1.906077e+00,1
1.012820e+00,2.830290e-01,2.729893e-01,3,0,1.700722e+00,1.700723e+00,1
1.017103e+00,2.827720e-01,2.729893e-01,3,0,2.048405e+00,2.048368e+00,1
1.013895e+00,2.819020e-01,2.729893e-01,3,0,9.509044e-01,9.509045e-01,1
1.011304e+00,2.824190e-01,2.729893e-01,3,0,1.390583e+00,1.390585e+00,1
1.017634e+00,2.829590e-01,2.729893e-01,3,0,1.798624e+00,1.798625e+00,1
1.014955e+00,2.820300e-01,2.729893e-01,3,0,1.273817e+00,1.273817e+00,1
1.014202e+00,2.824940e-01,2.741814e-01,3,0,1.142399e+00,1.142400e+00,1
1.019102e+00,2.827620e-01,2.741814e-01,3,0,2.084397e+00,2.084400e+00,1
1.013278e+00,2.827830e-01,2.729893e-01,3,0,1.886037e+00,1.886039e+00,1
1.011507e+00,2.828160e-01,2.732277e-01,3,0,1.612757e+00,1.612757e+00,1
1.017077e+00,2.827270e-01,2.729893e-01,3,0,1.736087e+00,1.736088e+00,1
1.014625e+00,2.830450e-01,2.751350e-01,3,0,1.327791e+00,1.327791e+00,1
1.019831e+00,2.832330e-01,2.739429e-01,3,0,1.991906e+00,1.991908e+00,1
1.014332e+00,2.826410e-01,2.729893e-01,3,0,1.179292e+00,1.179292e+00,1
1.017365e+00,5.536040e-01,5.450249e-01,3,1,1.848395e+00,1.848556e+00,1
1.013480e+00,4.994150e-01,4.899502e-01,3,1,9.497216e-01,9.497221e-01,1
1.012799e+00,2.827300e-01,2.739429e-01,3,0,7.902351e-01,7.902356e-01,1
1.017370e+00,2.821920e-01,2.729893e-01,3,0,6.986982e-01,6.986990e-01,1
1.020283e+00,2.875880e-01,2.779961e-01,3,0,6.358373e-01,6.358381e-01,1
1.015315e+00,2.829040e-01,2.751350e-01,3,0,8.537472e-01,8.537481e-01,1
1.017672e+00,2.830190e-01,2.739429e-01,3,0,2.183326e+00,2.183330e+00,1
1.018705e+00,2.881170e-01,2.789497e-01,3,0,1.083572e+00,1.083572e+00,1
1.013241e+00,2.828580e-01,2.732277e-01,3,0,2.829597e+00,2.829602e+00,1
1.014391e+00,2.828240e-01,2.729893e-01,3,0,3.507990e+00,3.507993e+00,1
1.014341e+00,2.889040e-01,2.789497e-01,3,0,4.728600e+00,4.728592e+00,1
1.017862e+00,2.830230e-01,2.739429e-01,3,0,3.888237e+00,3.888222e+00,1
1.023460e+00,8.054030e-01,7.960796e-01,3,2,3.607722e+00,3.608496e+00,1
1.018799e+00,7.109680e-01,7.009506e-01,3,2,2.409427e+00,2.409427e+00,1
1.014823e+00,2.829950e-01,2.729893e-01,3,0,1.896605e+00,1.896606e+00,1
1.015256e+00,2.822320e-01,2.720356e-01,3,0,1.367710e+00,1.367710e+00,1
1.025173e+00,5.605660e-01,5.521774e-01,3,1,2.236211e+00,2.236270e+00,1
1.014679e+00,3.390210e-01,3.299713e-01,3,0,2.153198e+00,2.154512e+00,1
1.019480e+00,7.690840e-01,7.596016e-01,3,2,2.680945e+00,2.693111e+00,1
1.015683e+00,5.952180e-01,5.860329e-01,3,1,3.360404e+00,3.420639e+00,1
1.014769e+00,5.491560e-01,5.388260e-01,3,1,1.669063e+00,1.676658e+00,1
1.015919e+00,6.350700e-01,6.248951e-01,3,1,2.355633e+00,2.355666e+00,1
1.016346e+00,5.000510e-01,4.911423e-01,3,1,1.679268e+00,1.679268e+00,1
1.014295e+00,5.529210e-01,5.431175e-01,3,1,1.347605e+00,1.349724e+00,1
1.016934e+00,4.998570e-01,4.901886e-01,3,1,1.107817e+00,1.107817e+00,1
1.014797e+00,2.827190e-01,2.741814e-01,3,0,1.202970e+00,1.202971e+00,1
1.014413e+00,2.828320e-01,2.729893e-01,3,0,1.200920e+00,1.200921e+00,1
1.017267e+00,2.878220e-01,2.789497e-01,3,0,2.187614e+00,2.187617e+00,1
1.020750e+00,2.834660e-01,2.751350e-01,3,0,2.860698e+00,2.860700e+00,1
1.011726e+00,2.830470e-01,2.739429e-01,3,0,3.622740e+00,3.622739e+00,1
1.017256e+00,2.830240e-01,2.729893e-01,3,0,2.611443e+00,2.611403e+00,1
1.012399e+00,2.829190e-01,2.729893e-01,3,0,1.866720e+00,1.866713e+00,1
1.015728e+00,5.602840e-01,5.500317e-01,3,1,2.276119e+00,2.276186e+00,1
1.014642e+00,3.380570e-01,3.290176e-01,3,0,2.689013e+00,2.691579e+00,1
1.017996e+00,7.899810e-01,7.798672e-01,3,2,1.875998e+00,1.875997e+00,1
1.017655e+00,2.828680e-01,2.732277e-01,3,0,2.954721e+00,2.954727e+00,1
1.018908e+00,2.886920e-01,2.789497e-01,3,0,3.839067e+00,3.839069e+00,1
1.014515e+00,2.830620e-01,2.729893e-01,3,0,3.096922e+00,3.096921e+00,1
1.016279e+00,2.826610e-01,2.729893e-01,3,0,1.524349e+00,1.524348e+00,1
1.022597e+00,2.886360e-01,2.789497e-01,3,0,2.059312e+00,2.059314e+00,1
1.017105e+00,2.828950e-01,2.729893e-01,3,0,2.255935e+00,2.255937e+00,1
1.014229e+00,2.833890e-01,2.739429e-01,3,0,4.426807e+00,4.426666e+00,1
1.018276e+00,2.889680e-01,2.791882e-01,3,0,5.903888e+00,5.903890e+00,1
1.015975e+00,2.829750e-01,2.732277e-01,3,0,5.937525e+00,5.937527e+00,1
1.018933e+00,5.599570e-01,5.497932e-01,3,1,4.035498e+00,4.043284e+00,1
1.014676e+00,4.940570e-01,4.849434e-01,3,1,3.482887e+00,3.482888e+00,1
1.019125e+00,2.887290e-01,2.801418e-01,3,0,3.071256e+00,3.071258e+00,1
1.015212e+00,2.828150e-01,2.729893e-01,3,0,2.817423e+00,2.817424e+00,1
1.016233e+00,2.829170e-01,2.739429e-01,3,0,1.943145e+00,1.943145e+00,1
1.013796e+00,2.878630e-01,2.779961e-01,3,0,1.421769e+00,1.421769e+00,1
1.020900e+00,2.832180e-01,2.729893e-01,3,0,1.578978e+00,1.578979e+00,1
1.014767e+00,2.827130e-01,2.739429e-01,3,0,1.564958e+00,1.564958e+00,1
1.021683e+00,4.715030e-01,4.630089e-01,3,1,2.111410e+00,2.111226e+00,1
1.353641e+00,4.585770e-01,4.489422e-01,4,1,1.503684e+00,1.503683e+00,1
1.020936e+00,2.824380e-01,2.729893e-01,3,0,6.106705e-01,6.106704e-01,1
1.013916e+00,2.826730e-01,2.729893e-01,3,0,6.163065e-01,6.163071e-01,1
1.012339e+00,2.883210e-01,2.779961e-01,3,0,9.869390e-01,9.869400e-01,1
1.014348e+00,2.821760e-01,2.720356e-01,3,0,5.466492e+00,5.466503e+00,1
1.016985e+00,2.832330e-01,2.741814e-01,3,0,3.287017e+00,3.287016e+00,1
1.018687e+00,2.890790e-01,2.789497e-01,3,0,2.362560e+00,2.362559e+00,1
1.020229e+00,2.824720e-01,2.729893e-01,3,0,1.839401e+00,1.839402e+00,1
1.013487e+00,2.826240e-01,2.729893e-01,3,0,1.681157e+00,1.681157e+00,1
1.014423e+00,2.885850e-01,2.789497e-01,3,0,1.277719e+00,1.277719e+00,1
1.020166e+00,2.822920e-01,2.729893e-01,3,0,1.138370e+00,1.138370e+00,1
1.020222e+00,5.585400e-01,5.490780e-01,3,1,1.347054e+00,1.349215e+00,1
1.017358e+00,3.380500e-01,3.299713e-01,3,0,1.740667e+00,1.741045e+00,1
1.016456e+00,8.850270e-01,8.752346e-01,3,2,2.526672e+00,2.551613e+00,1
1.018358e+00,1.095230e+00,1.085997e+00,3,3,1.509873e+00,1.514397e+00,1
1.015493e+00,6.338060e-01,6.237030e-01,3,1,1.704362e+00,1.734900e+00,1
1.019568e+00,1.013347e+00,1.002073e+00,3,3,1.989913e+00,1.989914e+00,1
1.017392e+00,2.847330e-01,2.760887e-01,3,0,2.641112e+00,2.641114e+00,1
1.015278e+00,5.570940e-01,5.478859e-01,3,1,5.277575e+00,5.277625e+00,1
1.018521e+00,5.584500e-01,5.490780e-01,3,1,6.743872e+00,6.749922e+00,1
1.354659e+00,9.909160e-01,9.818077e-01,4,3,3.830497e+00,3.832094e+00,1
1.016687e+00,4.946670e-01,4.861355e-01,3,1,2.924816e+00,2.924816e+00,1
1.018346e+00,2.940890e-01,2.839565e-01,3,0,3.238520e+00,3.238523e+00,1
1.014951e+00,2.835220e-01,2.729893e-01,3,0,2.834839e+00,2.834840e+00,1
1.013125e+00,2.832000e-01,2.739429e-01,3,0,1.371840e+00,1.371839e+00,1
1.017784e+00,2.934520e-01,2.839565e-01,3,0,1.373480e+00,1.373481e+00,1
1.016315e+00,2.825570e-01,2.741814e-01,3,0,2.074463e+00,2.074465e+00,1
1.013252e+00,2.828710e-01,2.748966e-01,3,0,1.422145e+00,1.422145e+00,1
1.021010e+00,2.972720e-01,2.870560e-01,3,0,8.863764e-01,8.863764e-01,1
1.016931e+00,5.534650e-01,5.428791e-01,3,1,9.676907e-01,9.898571e-01,1
1.017540e+00,3.434390e-01,3.340244e-01,3,0,1.307981e+00,1.325854e+00,1
1.013384e+00,4.944180e-01,4.851818e-01,3,1,1.362826e+00,1.362826e+00,1
1.013327e+00,2.884990e-01,2.801418e-01,3,0,1.758458e+00,1.758459e+00,1
1.022359e+00,2.829650e-01,2.729893e-01,3,0,1.366770e+00,1.366770e+00,1
1.014510e+00,4.634140e-01,4.532337e-01,3,1,1.499100e+00,1.498839e+00,1
1.350585e+00,4.628950e-01,4.539490e-01,4,1,1.671178e+00,1.671181e+00,1
1.017339e+00,1.093822e+00,1.084089e+00,3,3,3.948457e+00,3.948947e+00,1
1.015508e+00,5.556120e-01,5.469322e-01,3,1,1.943208e+00,1.943254e+00,1
1.019308e+00,4.992750e-01,4.889965e-01,3,1,1.544553e+00,1.544553e+00,1
1.012821e+00,2.829360e-01,2.729893e-01,3,0,2.184233e+00,2.184235e+00,1
1.014506e+00,2.826980e-01,2.729893e-01,3,0,1.777463e+00,1.777465e+00,1
1.018019e+00,1.098027e+00,1.089096e+00,3,3,1.507375e+00,1.549731e+00,1
1.016304e+00,8.444950e-01,8.339882e-01,3,2,2.477625e+00,2.530288e+00,1
1.019394e+00,3.445140e-01,3.359318e-01,3,0,3.404051e+00,3.411539e+00,1
1.013275e+00,4.945540e-01,4.858971e-01,3,1,3.803420e+00,3.803424e+00,1
1.020830e+00,5.535860e-01,5.450249e-01,3,1,5.846971e+00,5.848394e+00,1
1.016151e+00,4.951790e-01,4.851818e-01,3,1,4.259145e+00,4.259144e+00,1
1.016044e+00,7.914640e-01,7.820129e-01,3,2,5.501163e+00,5.502199e+00,1
1.354138e+00,1.399878e+00,1.389980e+00,4,5,6.707722e+00,6.707245e+00,1
1.351362e+00,8.968630e-01,8.859634e-01,4,3,3.598276e+00,3.598273e+00,1
1.014571e+00,2.894670e-01,2.799034e-01,3,0,5.556129e+00,5.556136e+00,1
1.025761e+00,2.832760e-01,2.748966e-01,3,0,8.146264e+00,8.146271e+00,1
1.020403e+00,8.031820e-01,7.929802e-01,3,2,8.621659e+00,8.624026e+00,1
1.017729e+00,7.131020e-01,7.030964e-01,3,2,5.857639e+00,5.857637e+00,1
1.015938e+00,2.828430e-01,2.729893e-01,3,0,4.966164e+00,4.966164e+00,1
1.014388e+00,2.826930e-01,2.732277e-01,3,0,4.812888e+00,4.812889e+00,1
1.019671e+00,2.896500e-01,2.810955e-01,3,0,3.384043e+00,3.384042e+00,1
1.021482e+00,2.828040e-01,2.739429e-01,3,0,2.995420e+00,2.995421e+00,1
1.014844e+00,2.827210e-01,2.739429e-01,3,0,2.043519e+00,2.043518e+00,1
1.017130e+00,2.890440e-01,2.791882e-01,3,0,2.354440e+00,2.354439e+00,1
1.014744e+00,2.823700e-01,2.739429e-01,3,0,1.563519e+00,1.563515e+00,1
1.011410e+00,5.590600e-01,5.490780e-01,3,1,1.058749e+00,1.094158e+00,1
1.017101e+00,4.935230e-01,4.839897e-01,3,1,6.503063e-01,6.503066e-01,1
1.020642e+00,2.828480e-01,2.729893e-01,3,0,1.213809e+00,1.213811e+00,1
1.018060e+00,2.826000e-01,2.729893e-01,3,0,1.227741e+00,1.227742e+00,1
1.013746e+00,2.825280e-01,2.739429e-01,3,0,1.067869e+00,1.067869e+00,1
1.017039e+00,2.826960e-01,2.732277e-01,3,0,2.095319e+00,2.095323e+00,1
1.016709e+00,2.826500e-01,2.739429e-01,3,0,1.178200e+00,1.178201e+00,1
1.012603e+00,2.828250e-01,2.741814e-01,3,0,9.296979e-01,9.296986e-01,1
1.015098e+00,2.824200e-01,2.739429e-01,3,0,6.994403e-01,6.994407e-01,1
1.017014e+00,2.823820e-01,2.720356e-01,3,0,1.053355e+00,1.053357e+00,1
1.013990e+00,2.822990e-01,2.720356e-01,3,0,4.498978e-01,4.498984e-01,1
1.015556e+00,2.824000e-01,2.739429e-01,3,0,1.271909e+00,1.271911e+00,1
1.016612e+00,2.828350e-01,2.729893e-01,3,0,1.036304e+00,1.036304e+00,1
1.016601e+00,2.824280e-01,2.729893e-01,3,0,7.617060e-01,7.617065e-01,1
1.016794e+00,2.874580e-01,2.779961e-01,3,0,1.133718e+00,1.133720e+00,1
1.016530e+00,2.826870e-01,2.729893e-01,3,0,7.475783e-01,7.475784e-01,1
1.012917e+00,2.820760e-01,2.729893e-01,3,0,5.025808e-01,5.025812e-01,1
1.012891e+00,2.867690e-01,2.770424e-01,3,0,4.518626e-01,4.518629e-01,1
1.012859e+00,2.819220e-01,2.729893e-01,3,0,4.973358e-01,4.973366e-01,1
1.015252e+00,2.822020e-01,2.729893e-01,3,0,4.044082e-01,4.044086e-01,1
1.014902e+00,2.874050e-01,2.779961e-01,3,0,5.780715e-01,5.780723e-01,1
1.015574e+00,2.826130e-01,2.729893e-01,3,0,7.065053e-01,7.065061e-01,1
1.014730e+00,2.820930e-01,2.720356e-01,3,0,9.999809e-01,9.999818e-01,1
1.019226e+00,2.877630e-01,2.789497e-01,3,0,9.524142e-01,9.524146e-01,1
1.014833e+00,2.818380e-01,2.720356e-01,3,0,9.291908e-01,9.291917e-01,1
1.013165e+00,2.829770e-01,2.729893e-01,3,0,1.183821e+00,1.183822e+00,1
1.014586e+00,2.876130e-01,2.789497e-01,3,0,7.580977e-01,7.580981e-01,1
1.015271e+00,2.823930e-01,2.729893e-01,3,0,9.257589e-01,9.257596e-01,1
1.017017e+00,2.834530e-01,2.739429e-01,3,0,3.503534e+00,3.503475e+00,1
1.014732e+00,5.583140e-01,5.481243e-01,3,1,3.851797e+00,3.851710e+00,1
1.018965e+00,7.690540e-01,7.600784e-01,3,2,4.174532e+00,4.177475e+00,1
1.013921e+00,5.892370e-01,5.798340e-01,3,1,5.813471e+00,5.838330e+00,1
1.018207e+00,3.435040e-01,3.349781e-01,3,0,3.387545e+00,3.440044e+00,1
1.017049e+00,8.482880e-01,8.389950e-01,3,2,3.081354e+00,3.129012e+00,1
1.013629e+00,3.386200e-01,3.290176e-01,3,0,3.144821e+00,3.215497e+00,1
1.019210e+00,6.346360e-01,6.248951e-01,3,1,4.185430e+00,4.264909e+00,1
1.021835e+00,1.292224e+00,1.283884e+00,3,4,5.610712e+00,5.644712e+00,1
1.016305e+00,1.724158e+00,1.713991e+00,3,6,6.768703e+00,6.972259e+00,1
1.347461e+00,9.729720e-01,9.639263e-01,4,3,4.774656e+00,4.835328e+00,1
1.014270e+00,1.263575e+00,1.254082e+00,3,4,4.411339e+00,4.439806e+00,1
1.019116e+00,1.031437e+00,1.017809e+00,3,3,3.059961e+00,3.061425e+00,1
1.682778e+00,1.012695e+00,1.003981e+00,5,3,2.917594e+00,2.932324e+00,1
1.018493e+00,8.051860e-01,7.960796e-01,3,2,2.648218e+00,2.655333e+00,1
1.018487e+00,5.963970e-01,5.860329e-01,3,1,3.282506e+00,3.295476e+00,1
1.017229e+00,1.135422e+00,1.125813e+00,3,3,3.221842e+00,3.253432e+00,1
1.019161e+00,9.232860e-01,9.140968e-01,3,2,3.170425e+00,3.200354e+00,1
1.014612e+00,3.388030e-01,3.290176e-01,3,0,3.244447e+00,3.282492e+00,1
1.013795e+00,3.440370e-01,3.340244e-01,3,0,3.021424e+00,3.061524e+00,1
1.017156e+00,6.282110e-01,6.201267e-01,3,1,3.124717e+00,3.164916e+00,1
1.015060e+00,6.344790e-01,6.251335e-01,3,1,3.427681e+00,3.495386e+00,1
1.016577e+00,1.093290e+00,1.083851e+00,3,3,3.337341e+00,3.404014e+00,1
1.014836e+00,6.344710e-01,6.260872e-01,3,1,3.022023e+00,3.233835e+00,1
1.019568e+00,8.465760e-01,8.370876e-01,3,2,2.629180e+00,2.759744e+00,1
1.360511e+00,4.941790e-01,4.858971e-01,4,1,1.301742e+00,1.301742e+00,1
1.021635e+00,2.831450e-01,2.732277e-01,3,0,1.317475e+00,1.317475e+00,1
1.013252e+00,2.835360e-01,2.739429e-01,3,0,1.143923e+00,1.143923e+00,1
1.018312e+00,2.874550e-01,2.789497e-01,3,0,1.457383e+00,1.457385e+00,1
1.012995e+00,2.826090e-01,2.729893e-01,3,0,1.514866e+00,1.514866e+00,1
1.012042e+00,2.829060e-01,2.729893e-01,3,0,1.299606e+00,1.299606e+00,1
1.014750e+00,2.872250e-01,2.770424e-01,3,0,1.499025e+00,1.499026e+00,1
1.018104e+00,5.534790e-01,5.450249e-01,3,1,1.501485e+00,1.515876e+00,1
1.017432e+00,4.993280e-01,4.889965e-01,3,1,1.275351e+00,1.275352e+00,1
1.013917e+00,2.832730e-01,2.741814e-01,3,0,2.445466e+00,2.445469e+00,1
1.014433e+00,2.878800e-01,2.779961e-01,3,0,2.384176e+00,2.384176e+00,1
1.020730e+00,2.824460e-01,2.729893e-01,3,0,1.956721e+00,1.956722e+00,1
1.016572e+00,5.580710e-01,5.481243e-01,3,1,2.310831e+00,2.310989e+00,1
1.015217e+00,1.019894e+00,1.009941e+00,3,3,2.412216e+00,2.414181e+00,1
1.013930e+00,6.280590e-01,6.201267e-01,3,1,1.415298e+00,1.469687e+00,1
1.019563e+00,5.551310e-01,5.471706e-01,3,1,1.450876e+00,1.490513e+00,1
1.015284e+00,4.945330e-01,4.861355e-01,3,1,8.371849e-01,8.371833e-01,1

