6.352710e-01,3.500176e+01,3.451490e+01,2,64,0.000000e+00,-1.818545e-12,1
8.761840e-01,5.077220e-01,4.940033e-01,3,0,1.097619e-01,1.097576e-01,1
1.161768e+00,5.007290e-01,4.911423e-01,4,0,1.270840e-01,1.269688e-01,1
3.182185e+00,1.620928e+00,1.610041e+00,11,3,3.246283e-01,3.162770e-01,1
1.453586e+00,1.936084e+00,1.924992e+00,5,4,1.822385e-01,1.821582e-01,1
2.026772e+00,3.400296e+00,3.389120e+00,7,8,5.673700e-01,5.584367e-01,1
2.023592e+00,8.413880e-01,8.301735e-01,7,1,7.175220e-01,7.103163e-01,1
2.024983e+00,1.508690e+00,1.498938e+00,7,3,9.894590e-01,9.858116e-01,1
2.896514e+00,2.923279e+00,2.912998e+00,10,7,4.771390e-01,4.573240e-01,1
1.448221e+00,8.818970e-01,8.711815e-01,5,1,5.305765e-01,5.291775e-01,1
2.312091e+00,1.225242e+00,1.215219e+00,8,2,3.568710e-01,3.560267e-01,1
1.451514e+00,1.233468e+00,1.222134e+00,5,2,3.577558e-01,3.494157e-01,1
2.023301e+00,1.216607e+00,1.205683e+00,7,2,6.686130e-01,6.638256e-01,1
2.025775e+00,2.273491e+00,2.262115e+00,7,5,9.709426e-01,9.672550e-01,1
2.033631e+00,3.284921e+00,3.273010e+00,7,8,8.161958e-01,8.152713e-01,1
1.162268e+00,2.321527e+00,2.310038e+00,4,5,1.106240e+00,1.100269e+00,1
2.028472e+00,3.011636e+00,2.999783e+00,7,7,8.954556e-01,8.932135e-01,1
1.452367e+00,1.903409e+00,1.893044e+00,5,4,6.707502e-01,6.663140e-01,1
2.028650e+00,1.203581e+00,1.191616e+00,7,2,7.343320e-01,7.302274e-01,1
2.318523e+00,2.314719e+00,2.301931e+00,8,5,8.058290e-01,8.052075e-01,1
2.026430e+00,3.315393e+00,3.303051e+00,7,8,8.491716e-01,8.443874e-01,1
1.453885e+00,3.654164e+00,3.643036e+00,5,9,7.307066e-01,7.245622e-01,1
2.026275e+00,1.916192e+00,1.904011e+00,7,4,6.032923e-01,5.994665e-01,1
2.903505e+00,2.627121e+00,2.617121e+00,10,6,7.909222e-01,7.901844e-01,1
2.044233e+00,1.200083e+00,1.189947e+00,7,2,8.911908e-01,8.890996e-01,1
2.025016e+00,1.541601e+00,1.530170e+00,7,3,9.297977e-01,9.281504e-01,1
2.892278e+00,2.674038e+00,2.662897e+00,10,6,7.300021e-01,7.158945e-01,1
2.029235e+00,1.937443e+00,1.925945e+00,7,4,5.719862e-01,5.701515e-01,1
1.163308e+00,3.009291e+00,2.997875e+00,4,7,3.882811e-01,3.789717e-01,1
2.031968e+00,1.563452e+00,1.553059e+00,7,3,2.781713e-01,2.777712e-01,1
2.900183e+00,1.609120e+00,1.595974e+00,10,3,5.812133e-01,5.599533e-01,1
2.031804e+00,4.147829e+00,4.135132e+00,7,10,6.380325e-01,6.351476e-01,1
1.745669e+00,2.615227e+00,2.602100e+00,6,6,5.082154e-01,5.064152e-01,1
2.025819e+00,2.251546e+00,2.239943e+00,7,5,6.489863e-01,6.451689e-01,1
2.029438e+00,8.410380e-01,8.301735e-01,7,1,3.863463e-01,3.836854e-01,1
2.028410e+00,1.913287e+00,1.901150e+00,7,4,2.667384e-01,2.662208e-01,1
2.029039e+00,1.998928e+00,1.986980e+00,7,4,3.808747e-01,3.798444e-01,1
2.025288e+00,1.940933e+00,1.929045e+00,7,4,3.783539e-01,3.766806e-01,1
2.023747e+00,3.035245e+00,3.013849e+00,7,7,6.627604e-01,6.544485e-01,1
2.024202e+00,2.920063e+00,2.907991e+00,7,7,5.431913e-01,5.386985e-01,1
2.025320e+00,1.910687e+00,1.899004e+00,7,4,1.181624e+00,1.176842e+00,1
2.027333e+00,1.178028e+00,1.165867e+00,7,2,1.280984e+00,1.274648e+00,1
2.027946e+00,2.910014e+00,2.899170e+00,7,7,8.042226e-01,8.030282e-01,1
2.022650e+00,8.701400e-01,8.590221e-01,7,1,1.019276e+00,1.017203e+00,1
2.320228e+00,1.929010e+00,1.918077e+00,8,4,8.440187e-01,8.421007e-01,1
1.161100e+00,2.671028e+00,2.660036e+00,4,6,6.810521e-01,6.732407e-01,1
2.313999e+00,2.615745e+00,2.599955e+00,8,6,6.491917e-01,6.448782e-01,1
2.903859e+00,2.639178e+00,2.628088e+00,10,6,5.556679e-01,5.455728e-01,1
2.310440e+00,1.964230e+00,1.954079e+00,8,4,3.610018e-01,3.584370e-01,1
2.596931e+00,1.217242e+00,1.200914e+00,9,2,1.323877e-01,1.314537e-01,1
2.893339e+00,1.252116e+00,1.240969e+00,10,2,3.015218e-01,2.801795e-01,1
2.311957e+00,2.314827e+00,2.302885e+00,8,5,5.131173e-01,5.100949e-01,1
2.025137e+00,1.945802e+00,1.935005e+00,7,4,4.848700e-01,4.836199e-01,1
3.176486e+00,1.227247e+00,1.215935e+00,11,2,3.964844e-01,3.888491e-01,1
2.029499e+00,2.658204e+00,2.646923e+00,7,6,3.594468e-01,3.547132e-01,1
2.024623e+00,1.915549e+00,1.904011e+00,7,4,4.925297e-01,4.875287e-01,1
2.023620e+00,2.582714e+00,2.571821e+00,7,6,2.338879e-01,2.324692e-01,1
2.025614e+00,8.770370e-01,8.656979e-01,7,1,3.106726e-01,3.095033e-01,1
2.024385e+00,1.594104e+00,1.583099e+00,7,3,4.986061e-01,4.962368e-01,1
2.030357e+00,1.585657e+00,1.574993e+00,7,3,6.080671e-01,6.044786e-01,1
1.162950e+00,6.168538e+00,6.159067e+00,4,16,4.280064e-01,4.168114e-01,1
2.030623e+00,3.719837e+00,3.707170e+00,7,9,1.349372e+00,1.321193e+00,1
2.029676e+00,3.960588e+00,3.947973e+00,7,8,2.747860e+00,2.719693e+00,1
2.032106e+00,7.242715e+00,7.231951e+00,7,19,1.415257e+00,1.403101e+00,1
2.027352e+00,1.538101e+00,1.525164e+00,7,3,1.680641e+00,1.666192e+00,1
1.451799e+00,6.785003e+00,6.773949e+00,5,18,8.123411e-01,8.070457e-01,1
2.027537e+00,2.600890e+00,2.588987e+00,7,6,7.431412e-01,7.400027e-01,1
1.461772e+00,1.568110e+00,1.557112e+00,5,3,4.533221e-01,4.514849e-01,1
2.027177e+00,2.335092e+00,2.323866e+00,7,5,4.663559e-01,4.612419e-01,1
2.024321e+00,2.279281e+00,2.267838e+00,7,5,2.268979e-01,2.266834e-01,1
1.159929e+00,8.891800e-01,8.790493e-01,4,1,4.286016e-01,4.279519e-01,1
2.023380e+00,5.075020e-01,4.968643e-01,7,0,4.955123e-01,4.944256e-01,1
2.022824e+00,1.606768e+00,1.596928e+00,7,3,5.488903e-01,5.464247e-01,1
2.025855e+00,2.319343e+00,2.309084e+00,7,5,6.756375e-01,6.674742e-01,1
2.026084e+00,1.211097e+00,1.199961e+00,7,2,9.944602e-01,9.873594e-01,1
2.027335e+00,2.847293e+00,2.836227e+00,7,6,1.096015e+00,1.085921e+00,1
2.894026e+00,4.487790e+00,4.476786e+00,10,11,7.675128e-01,7.663878e-01,1
2.027835e+00,1.599056e+00,1.588106e+00,7,3,6.430303e-01,6.397311e-01,1
2.025685e+00,1.924396e+00,1.913071e+00,7,4,6.253337e-01,6.243843e-01,1
2.022128e+00,1.237956e+00,1.225948e+00,7,2,2.602876e-01,2.587753e-01,1
2.024981e+00,4.726979e+00,4.715919e+00,7,12,1.120215e+00,1.099296e+00,1
2.031810e+00,3.523051e+00,3.513098e+00,7,9,8.283629e-01,8.223788e-01,1
2.025451e+00,2.283799e+00,2.273083e+00,7,5,6.545632e-01,6.510960e-01,1
2.609987e+00,4.437437e+00,4.426003e+00,9,11,8.640091e-01,8.595570e-01,1
2.028695e+00,6.074271e+00,6.061792e+00,7,16,1.093094e+00,1.063863e+00,1
2.027892e+00,8.215120e-01,8.108616e-01,7,1,1.982568e+00,1.952784e+00,1
2.025445e+00,1.497187e+00,1.487017e+00,7,3,3.039390e+00,3.001091e+00,1
2.029057e+00,5.868862e+00,5.857944e+00,7,14,4.513278e+00,4.475645e+00,1
2.031351e+00,1.086719e+01,1.085591e+01,7,26,3.575197e+00,3.563255e+00,1
2.031087e+00,9.105111e+00,9.094000e+00,7,20,2.369387e+00,2.368467e+00,1
1.164813e+00,4.193283e+00,4.179955e+00,4,10,1.446585e+00,1.430469e+00,1
2.024590e+00,3.219590e+00,3.208160e+00,7,8,8.811062e-01,8.729771e-01,1
2.027634e+00,7.516489e+00,7.504940e+00,7,20,1.246034e+00,1.224048e+00,1
2.026489e+00,2.801088e+00,2.789974e+00,7,7,7.781979e-01,7.634162e-01,1
2.022744e+00,8.192140e-01,8.080006e-01,7,1,1.130747e+00,1.117536e+00,1
2.023671e+00,8.200620e-01,8.099079e-01,7,1,1.264584e+00,1.254726e+00,1
2.315902e+00,4.239599e+00,4.229069e+00,8,11,7.389797e-01,7.376706e-01,1
2.027896e+00,1.953898e+00,1.941919e+00,7,4,5.382105e-01,5.361517e-01,1
2.028146e+00,1.600855e+00,1.589775e+00,7,3,8.695658e-01,8.649651e-01,1
2.599824e+00,2.292665e+00,2.279043e+00,9,5,7.985162e-01,7.942907e-01,1
2.024539e+00,2.666083e+00,2.653837e+00,7,6,6.043066e-01,6.008854e-01,1
2.024717e+00,2.998763e+00,2.988100e+00,7,7,6.169792e-01,6.136583e-01,1
2.892767e+00,2.302348e+00,2.290964e+00,10,5,2.808347e-01,2.694551e-01,1
1.457544e+00,1.633884e+00,1.622915e+00,5,3,2.412548e-01,2.402881e-01,1
2.022874e+00,1.229585e+00,1.219034e+00,7,2,2.142057e-01,2.140910e-01,1
2.026843e+00,1.618416e+00,1.606941e+00,7,3,4.804755e-01,4.795364e-01,1
2.030836e+00,2.337689e+00,2.325773e+00,7,5,6.409524e-01,6.381260e-01,1
2.026652e+00,1.968667e+00,1.956940e+00,7,4,5.894537e-01,5.875124e-01,1
2.318866e+00,2.341405e+00,2.329826e+00,8,5,3.797873e-01,3.793165e-01,1
2.026594e+00,1.268196e+00,1.255751e+00,7,2,3.239403e-01,3.221683e-01,1
2.031629e+00,1.247902e+00,1.235962e+00,7,2,3.425266e-01,3.422031e-01,1
2.025697e+00,1.628590e+00,1.617193e+00,7,3,4.622012e-01,4.603675e-01,1
2.053877e+00,1.598594e+00,1.586914e+00,7,3,3.215657e-01,3.190978e-01,1
1.739063e+00,1.634716e+00,1.622915e+00,6,3,4.434434e-01,4.412912e-01,1
2.883537e+00,1.595866e+00,1.584053e+00,10,3,2.127633e-01,1.957385e-01,1
2.021044e+00,1.272601e+00,1.256943e+00,7,2,2.320755e-01,2.311450e-01,1
2.021158e+00,1.611276e+00,1.600027e+00,7,3,6.084966e-01,6.038606e-01,1
2.025560e+00,1.923405e+00,1.913071e+00,7,4,3.533161e-01,3.526491e-01,1
2.029000e+00,3.756450e+00,3.744602e+00,7,9,9.660001e-01,9.565251e-01,1
1.451238e+00,3.668076e+00,3.656149e+00,5,9,7.361436e-01,7.347329e-01,1
2.029158e+00,3.013223e+00,3.002167e+00,7,7,1.019613e+00,1.016273e+00,1
2.027886e+00,2.608269e+00,2.597094e+00,7,6,1.540625e+00,1.534981e+00,1
2.032540e+00,3.940379e+00,3.920078e+00,7,10,1.366898e+00,1.356280e+00,1
2.026274e+00,3.229021e+00,3.217936e+00,7,8,1.236105e+00,1.225812e+00,1
2.026171e+00,3.881707e+00,3.870010e+00,7,8,1.780646e+00,1.773289e+00,1
2.029764e+00,6.129786e+00,6.117105e+00,7,15,1.289369e+00,1.279642e+00,1
2.027594e+00,2.621166e+00,2.609015e+00,7,6,8.416463e-01,8.393149e-01,1
2.889980e+00,1.975683e+00,1.962900e+00,10,4,6.466572e-01,6.422919e-01,1
1.165411e+00,3.468500e+00,3.456831e+00,4,8,4.886968e-01,4.841759e-01,1
2.315698e+00,2.990043e+00,2.977848e+00,8,7,3.553265e-01,3.548801e-01,1
1.740580e+00,5.234050e-01,5.128384e-01,6,0,4.292545e-01,4.291540e-01,1
1.445699e+00,2.369700e+00,2.357721e+00,5,5,4.773173e-01,4.721561e-01,1
1.456816e+00,2.300196e+00,2.289057e+00,5,5,3.037383e-01,3.024513e-01,1
2.892183e+00,1.234513e+00,1.224995e+00,10,2,2.643422e-01,2.640931e-01,1
2.894496e+00,5.503700e-01,5.381107e-01,10,0,2.064780e-01,1.850845e-01,1
2.606789e+00,1.279656e+00,1.268864e+00,9,2,5.532176e-01,5.408582e-01,1
2.892808e+00,1.637526e+00,1.624823e+00,10,3,6.621422e-01,6.620396e-01,1
1.449628e+00,5.476900e-01,5.338192e-01,5,0,5.195345e-01,5.168877e-01,1
1.454155e+00,2.357376e+00,2.346039e+00,5,5,5.801916e-01,5.719678e-01,1
2.023336e+00,1.952072e+00,1.940966e+00,7,4,4.179793e-01,4.156158e-01,1
2.026787e+00,2.301498e+00,2.290249e+00,7,5,6.569637e-01,6.512949e-01,1
2.026190e+00,1.576095e+00,1.563787e+00,7,3,1.034089e+00,1.027163e+00,1
2.025983e+00,4.047837e+00,4.035950e+00,7,10,1.402951e+00,1.395430e+00,1
1.740369e+00,3.311302e+00,3.299713e+00,6,8,1.245809e+00,1.243349e+00,1
2.321436e+00,5.400112e+00,5.387783e+00,8,14,1.003260e+00,1.001834e+00,1
2.024978e+00,2.230967e+00,2.218962e+00,7,5,9.106852e-01,9.024477e-01,1
2.025920e+00,2.925840e+00,2.913952e+00,7,7,7.243659e-01,7.212149e-01,1
2.025851e+00,2.662235e+00,2.650738e+00,7,6,8.278414e-01,8.177068e-01,1
2.025451e+00,2.978171e+00,2.965927e+00,7,7,9.233298e-01,9.067929e-01,1
2.024894e+00,8.361890e-01,8.251667e-01,7,1,1.145428e+00,1.136717e+00,1
2.041324e+00,3.621228e+00,3.609896e+00,7,9,7.955141e-01,7.931085e-01,1
2.605365e+00,1.599092e+00,1.585960e+00,9,3,7.547250e-01,7.536863e-01,1
1.449629e+00,1.980415e+00,1.969814e+00,5,4,6.071070e-01,6.041461e-01,1
2.024151e+00,1.236604e+00,1.225948e+00,7,2,5.012038e-01,4.988957e-01,1
2.038025e+00,1.612179e+00,1.600981e+00,7,3,3.752569e-01,3.728859e-01,1
1.447950e+00,1.252463e+00,1.240969e+00,5,2,4.684006e-01,4.668162e-01,1
2.020815e+00,1.963363e+00,1.952887e+00,7,4,9.038264e-01,8.979706e-01,1
2.029288e+00,3.004562e+00,2.993107e+00,7,7,7.601527e-01,7.570597e-01,1
2.024961e+00,2.659409e+00,2.648115e+00,7,6,7.594876e-01,7.562337e-01,1
1.161767e+00,5.100792e+00,5.089760e+00,4,13,9.820466e-01,9.610619e-01,1
2.030296e+00,4.958175e+00,4.946947e+00,7,13,3.750984e-01,3.741791e-01,1
1.446068e+00,1.605861e+00,1.594067e+00,5,3,2.905487e-01,2.887979e-01,1
2.891275e+00,1.619177e+00,1.608849e+00,10,3,2.350702e-01,2.151480e-01,1
2.887505e+00,1.237537e+00,1.227856e+00,10,2,1.342944e-01,1.208690e-01,1
3.189102e+00,5.217590e-01,5.099773e-01,11,0,1.825629e-01,1.821918e-01,1
1.161325e+00,1.284181e+00,1.272917e+00,4,2,3.361476e-01,3.342381e-01,1
2.020048e+00,8.768800e-01,8.661747e-01,7,1,2.473679e-01,2.472015e-01,1
1.451456e+00,3.452992e+00,3.442049e+00,5,8,6.766884e-01,6.745863e-01,1
1.453303e+00,3.731696e+00,3.719091e+00,5,9,8.617307e-01,8.606239e-01,1
2.022799e+00,1.983120e+00,1.971006e+00,7,4,5.151674e-01,5.111331e-01,1
2.025472e+00,2.339068e+00,2.326965e+00,7,5,4.801844e-01,4.769264e-01,1
2.025047e+00,1.576160e+00,1.564026e+00,7,3,4.121267e-01,4.110398e-01,1
2.023377e+00,8.791890e-01,8.680820e-01,7,1,3.545516e-01,3.540540e-01,1
1.445146e+00,1.249361e+00,1.237869e+00,5,2,3.389212e-01,3.359899e-01,1
2.021012e+00,1.988627e+00,1.977921e+00,7,4,3.982220e-01,3.958991e-01,1
2.033240e+00,1.250063e+00,1.232147e+00,7,2,3.624198e-01,3.622622e-01,1
2.310156e+00,8.847550e-01,8.730888e-01,8,1,2.650690e-01,2.630522e-01,1
1.159885e+00,2.724010e+00,2.712727e+00,4,6,5.885186e-01,5.842305e-01,1
2.891813e+00,3.007127e+00,2.995014e+00,10,7,7.366195e-01,7.360146e-01,1
2.023142e+00,1.629894e+00,1.617908e+00,7,3,9.102378e-01,9.058479e-01,1
2.027316e+00,3.727511e+00,3.715754e+00,7,9,1.191179e+00,1.185008e+00,1
2.895730e+00,4.398853e+00,4.387856e+00,10,11,1.096390e+00,1.074740e+00,1
2.023840e+00,2.271388e+00,2.259970e+00,7,5,1.090967e+00,1.082227e+00,1
2.312500e+00,4.377220e+00,4.366875e+00,8,11,8.327746e-01,8.295444e-01,1
2.026255e+00,2.966708e+00,2.955914e+00,7,7,6.183328e-01,6.105650e-01,1
2.022009e+00,1.572205e+00,1.560211e+00,7,3,7.412598e-01,7.378103e-01,1
2.023289e+00,1.219292e+00,1.209974e+00,7,2,1.110407e+00,1.101222e+00,1
2.022659e+00,2.986994e+00,2.976179e+00,7,7,1.374586e+00,1.359201e+00,1
2.024868e+00,2.921633e+00,2.910137e+00,7,7,9.954122e-01,9.895976e-01,1
3.471342e+00,3.301038e+00,3.288746e+00,12,8,9.250588e-01,9.127238e-01,1
2.031415e+00,3.342809e+00,3.329992e+00,7,8,8.702759e-01,8.602144e-01,1
2.024970e+00,2.566195e+00,2.553940e+00,7,6,5.211525e-01,5.182119e-01,1
2.025759e+00,4.084012e+00,4.071951e+00,7,10,7.652304e-01,7.619389e-01,1
2.025353e+00,2.306429e+00,2.295971e+00,7,5,7.310201e-01,7.287130e-01,1
2.028883e+00,1.579160e+00,1.566887e+00,7,3,5.230505e-01,5.220794e-01,1
3.197334e+00,2.351363e+00,2.338886e+00,11,5,4.872710e-01,4.782638e-01,1
2.319278e+00,5.039724e+00,5.027056e+00,8,12,8.451656e-01,8.429094e-01,1
2.028271e+00,5.038126e+00,5.025625e+00,7,10,1.664710e+00,1.649881e+00,1
2.026014e+00,3.368766e+00,3.357887e+00,7,8,1.605584e+00,1.576233e+00,1
2.025331e+00,1.500260e+00,1.483917e+00,7,3,1.554517e+00,1.535599e+00,1
2.025672e+00,1.880109e+00,1.868963e+00,7,4,1.795259e+00,1.776969e+00,1
2.028503e+00,4.014178e+00,4.003048e+00,7,9,2.757248e+00,2.732796e+00,1
2.026660e+00,5.919165e+00,5.906820e+00,7,15,1.423512e+00,1.415130e+00,1
2.026413e+00,3.985759e+00,3.973007e+00,7,10,1.587771e+00,1.581122e+00,1
2.025295e+00,3.359896e+00,3.348827e+00,7,8,1.214865e+00,1.207796e+00,1
2.026274e+00,3.304262e+00,3.292084e+00,7,8,1.148980e+00,1.140339e+00,1
2.318824e+00,4.993490e+00,4.981995e+00,8,13,4.975581e-01,4.956950e-01,1
2.024698e+00,3.736728e+00,3.725052e+00,7,9,9.190466e-01,9.135826e-01,1
2.025385e+00,2.939504e+00,2.923965e+00,7,7,6.036204e-01,6.010681e-01,1
2.023177e+00,2.332191e+00,2.321005e+00,7,5,6.407800e-01,6.334583e-01,1
1.451827e+00,4.809886e+00,4.798889e+00,5,12,4.087444e-01,4.078295e-01,1
2.026780e+00,1.595507e+00,1.585007e+00,7,3,9.923023e-01,9.839959e-01,1
2.028808e+00,6.362161e+00,6.351233e+00,7,14,2.068239e+00,2.040083e+00,1
2.027973e+00,2.210103e+00,2.198219e+00,7,5,1.273146e+00,1.257205e+00,1
2.024136e+00,1.179101e+00,1.168013e+00,7,2,1.792095e+00,1.774576e+00,1
2.022103e+00,2.186135e+00,2.173901e+00,7,5,1.542703e+00,1.533590e+00,1
2.024821e+00,2.267780e+00,2.258062e+00,7,5,2.056848e+00,2.047962e+00,1
2.025390e+00,4.366132e+00,4.355907e+00,7,11,9.504487e-01,9.481723e-01,1
2.023967e+00,2.336949e+00,2.326012e+00,7,5,7.027675e-01,6.955102e-01,1
2.892362e+00,3.024860e+00,3.012657e+00,10,7,4.239507e-01,4.231667e-01,1
2.023446e+00,3.069913e+00,3.057241e+00,7,7,3.804638e-01,3.717361e-01,1
2.024996e+00,1.903527e+00,1.892090e+00,7,4,4.187061e-01,4.112282e-01,1
2.024862e+00,2.254977e+00,2.242804e+00,7,5,7.347554e-01,7.227020e-01,1
2.026888e+00,3.632540e+00,3.620863e+00,7,9,3.919092e-01,3.891199e-01,1
2.028575e+00,2.349890e+00,2.338886e+00,7,5,4.028496e-01,3.996674e-01,1
2.026331e+00,1.599846e+00,1.588106e+00,7,3,4.386236e-01,4.372782e-01,1
2.021713e+00,1.248148e+00,1.236677e+00,7,2,5.562371e-01,5.559340e-01,1
1.448256e+00,8.884160e-01,8.780956e-01,5,1,3.472106e-01,3.461786e-01,1
1.731903e+00,1.623061e+00,1.611948e+00,6,3,3.792249e-01,3.781415e-01,1
2.025334e+00,1.252900e+00,1.243114e+00,7,2,3.934044e-01,3.917541e-01,1
2.025486e+00,1.232674e+00,1.221657e+00,7,2,5.348384e-01,5.312685e-01,1
2.025635e+00,3.377392e+00,3.366232e+00,7,8,1.272860e+00,1.261338e+00,1
2.023926e+00,1.526562e+00,1.515865e+00,7,3,1.777543e+00,1.764621e+00,1
2.026888e+00,3.291176e+00,3.279686e+00,7,8,1.162432e+00,1.159996e+00,1
2.022681e+00,1.589844e+00,1.580000e+00,7,3,1.365416e+00,1.361597e+00,1
2.024559e+00,3.011017e+00,3.000021e+00,7,7,8.901366e-01,8.880480e-01,1
2.023690e+00,5.169120e-01,5.059242e-01,7,0,4.805999e-01,4.794263e-01,1
2.026165e+00,5.162218e+00,5.151033e+00,7,13,7.034370e-01,6.860492e-01,1
2.033017e+00,4.646660e+00,4.633188e+00,7,12,3.342503e-01,3.322992e-01,1
1.167518e+00,3.053100e+00,3.041983e+00,4,7,5.410868e-01,5.353580e-01,1
3.178734e+00,1.920233e+00,1.909733e+00,11,4,3.471520e-01,3.445313e-01,1
1.451911e+00,1.262792e+00,1.250982e+00,5,2,3.648389e-01,3.643293e-01,1
2.023335e+00,1.243585e+00,1.233101e+00,7,2,3.961179e-01,3.957369e-01,1
2.024508e+00,2.350790e+00,2.338648e+00,7,5,5.796651e-01,5.738412e-01,1
2.317413e+00,3.400351e+00,3.390074e+00,8,8,3.071252e-01,3.067584e-01,1
2.895636e+00,4.519724e+00,4.508972e+00,10,11,6.344366e-01,6.218091e-01,1
2.023437e+00,1.904060e+00,1.893044e+00,7,4,1.499280e+00,1.483568e+00,1
2.026352e+00,3.591661e+00,3.579855e+00,7,9,9.246372e-01,9.217481e-01,1
2.023874e+00,2.346978e+00,2.335072e+00,7,5,6.437864e-01,6.411991e-01,1
2.894532e+00,2.679899e+00,2.667904e+00,10,6,4.108764e-01,4.106258e-01,1
2.028201e+00,1.245486e+00,1.233816e+00,7,2,4.157714e-01,4.144691e-01,1
2.024157e+00,8.700470e-01,8.599758e-01,7,1,4.764557e-01,4.754330e-01,1
2.026630e+00,4.101001e+00,4.091024e+00,7,10,9.812778e-01,9.658152e-01,1
2.028917e+00,3.612668e+00,3.599882e+00,7,9,8.105113e-01,8.071541e-01,1
2.026480e+00,2.324001e+00,2.312183e+00,7,5,6.871653e-01,6.842891e-01,1
2.024220e+00,1.599756e+00,1.588106e+00,7,3,6.703881e-01,6.683711e-01,1
2.025743e+00,2.715194e+00,2.702713e+00,7,6,7.730661e-01,7.675977e-01,1
2.024077e+00,1.571347e+00,1.561165e+00,7,3,1.071433e+00,1.061994e+00,1
2.024662e+00,1.891111e+00,1.880884e+00,7,4,1.919764e+00,1.903807e+00,1
2.030530e+00,3.237196e+00,3.221035e+00,7,8,2.446201e+00,2.429258e+00,1
2.026477e+00,4.377246e+00,4.364729e+00,7,11,2.139699e+00,2.130903e+00,1
1.456523e+00,5.748289e+00,5.737066e+00,5,14,1.989914e+00,1.983143e+00,1
2.028588e+00,3.073196e+00,3.062010e+00,7,7,1.465495e+00,1.460738e+00,1
2.025008e+00,2.623436e+00,2.611160e+00,7,6,1.385050e+00,1.381487e+00,1
2.025568e+00,2.284175e+00,2.272129e+00,7,5,1.337563e+00,1.329998e+00,1
1.451698e+00,4.754856e+00,4.744053e+00,5,12,1.023487e+00,1.016402e+00,1
2.028028e+00,3.934689e+00,3.921986e+00,7,10,1.007888e+00,1.000441e+00,1
2.031482e+00,2.279526e+00,2.269030e+00,7,5,7.612796e-01,7.577012e-01,1
2.026233e+00,3.013561e+00,3.002167e+00,7,7,6.790668e-01,6.768510e-01,1
2.025541e+00,2.828793e+00,2.817154e+00,7,5,9.879081e-01,9.827582e-01,1
2.028178e+00,6.133200e+00,6.121874e+00,7,12,1.243212e+00,1.230843e+00,1
2.028039e+00,4.119824e+00,4.109144e+00,7,8,2.502416e+00,2.458646e+00,1
2.027569e+00,6.047399e+00,6.036043e+00,7,13,2.932397e+00,2.885322e+00,1
2.027956e+00,3.333690e+00,3.321886e+00,7,8,3.102115e+00,3.056661e+00,1
2.026987e+00,3.095378e+00,3.084898e+00,7,8,2.720274e+00,2.698770e+00,1
2.026316e+00,2.148686e+00,2.136707e+00,7,5,2.382497e+00,2.372532e+00,1
2.028270e+00,4.570640e+00,4.557848e+00,7,12,2.620727e+00,2.605700e+00,1
2.032944e+00,6.315280e+00,6.303072e+00,7,17,2.474141e+00,2.451767e+00,1
2.031266e+00,3.471354e+00,3.458977e+00,7,9,2.051574e+00,2.042059e+00,1
1.449154e+00,3.848880e+00,3.837109e+00,5,10,1.427399e+00,1.404799e+00,1
1.454822e+00,4.971899e+00,4.960775e+00,5,13,1.029617e+00,1.024050e+00,1
2.023001e+00,1.572597e+00,1.563072e+00,7,3,8.010225e-01,7.917327e-01,1
2.025340e+00,2.293540e+00,2.284050e+00,7,5,8.966320e-01,8.890712e-01,1
2.026019e+00,3.307150e+00,3.295183e+00,7,8,1.124237e+00,1.110168e+00,1
2.030990e+00,5.036804e+00,5.024910e+00,7,13,6.166460e-01,6.119942e-01,1
2.024936e+00,1.987796e+00,1.976013e+00,7,4,5.860290e-01,5.842877e-01,1
1.451349e+00,1.988705e+00,1.977205e+00,5,4,6.940275e-01,6.924014e-01,1
2.309387e+00,1.234702e+00,1.222849e+00,8,2,3.880453e-01,3.867977e-01,1
1.447321e+00,8.930210e-01,8.828640e-01,5,1,3.624089e-01,3.620207e-01,1
3.176941e+00,8.733110e-01,8.630753e-01,11,1,3.402714e-01,3.380653e-01,1
3.194238e+00,9.033260e-01,8.931160e-01,11,1,3.979153e-01,3.955857e-01,1
1.164067e+00,3.472225e+00,3.461123e+00,4,8,5.460338e-01,5.380711e-01,1
2.604180e+00,2.642660e+00,2.629757e+00,9,6,4.767288e-01,4.750302e-01,1
1.452657e+00,1.621378e+00,1.610994e+00,5,3,5.438119e-01,5.428252e-01,1
2.025217e+00,2.354177e+00,2.342224e+00,7,5,5.245733e-01,5.205458e-01,1
2.312982e+00,2.345013e+00,2.333879e+00,8,5,4.422944e-01,4.404540e-01,1
2.029406e+00,2.702329e+00,2.691984e+00,7,6,3.724133e-01,3.706866e-01,1
2.023939e+00,1.942386e+00,1.930952e+00,7,4,1.205522e+00,1.193865e+00,1
2.317795e+00,4.919606e+00,4.909039e+00,8,13,2.510070e+00,2.503591e+00,1
2.025781e+00,2.776874e+00,2.766848e+00,7,7,3.052110e+00,3.013016e+00,1
2.027757e+00,4.022602e+00,4.012108e+00,7,10,2.440184e+00,2.433120e+00,1
2.021947e+00,1.590956e+00,1.579046e+00,7,3,2.152601e+00,2.123647e+00,1
2.027028e+00,3.573630e+00,3.562927e+00,7,9,1.908752e+00,1.895733e+00,1
2.027645e+00,4.024356e+00,4.014015e+00,7,9,1.641355e+00,1.634161e+00,1
1.162952e+00,5.645274e+00,5.632877e+00,4,14,9.551228e-01,9.328289e-01,1
2.025606e+00,2.196936e+00,2.186060e+00,7,5,8.262250e-01,8.061624e-01,1
2.029384e+00,2.144464e+00,2.132893e+00,7,5,1.983060e+00,1.950964e+00,1
2.027449e+00,2.702295e+00,2.691984e+00,7,6,2.926295e+00,2.892575e+00,1
2.029012e+00,5.898404e+00,5.885839e+00,7,13,3.610294e+00,3.587847e+00,1
2.029265e+00,6.806856e+00,6.794930e+00,7,17,3.094807e+00,3.070236e+00,1
2.032925e+00,4.821822e+00,4.808903e+00,7,13,2.352424e+00,2.334971e+00,1
2.911801e+00,3.871515e+00,3.858805e+00,10,10,1.667195e+00,1.649828e+00,1
2.027594e+00,4.581786e+00,4.570007e+00,7,12,1.403011e+00,1.390148e+00,1
2.028304e+00,5.214856e+00,5.203009e+00,7,11,2.121765e+00,2.282824e+00,1
2.025762e+00,3.967922e+00,3.956795e+00,7,8,2.060818e+00,2.178665e+00,1
2.030111e+00,4.901024e+00,4.889011e+00,7,10,1.666689e+00,1.672795e+00,1
2.024546e+00,3.580939e+00,3.568888e+00,7,8,1.529748e+00,1.520225e+00,1
2.023036e+00,1.554021e+00,1.542091e+00,7,3,1.467809e+00,1.461583e+00,1
2.024487e+00,1.536336e+00,1.523972e+00,7,3,1.386538e+00,1.382349e+00,1
2.027337e+00,2.994523e+00,2.983093e+00,7,7,1.737966e+00,1.725103e+00,1
2.031191e+00,4.384472e+00,4.373074e+00,7,11,1.553070e+00,1.547766e+00,1
2.025416e+00,2.253874e+00,2.242088e+00,7,5,1.559597e+00,1.553419e+00,1
2.023274e+00,1.218789e+00,1.207829e+00,7,2,1.449543e+00,1.446173e+00,1
2.025149e+00,1.949010e+00,1.937866e+00,7,4,1.147053e+00,1.141989e+00,1
2.027051e+00,2.985875e+00,2.974033e+00,7,6,9.108812e-01,9.054721e-01,1
2.028686e+00,3.781829e+00,3.770113e+00,7,7,1.026900e+00,1.019303e+00,1
2.023817e+00,1.605424e+00,1.594067e+00,7,3,8.209407e-01,8.095534e-01,1
2.024303e+00,2.233295e+00,2.222061e+00,7,5,4.306679e-01,4.281827e-01,1
2.026936e+00,1.571746e+00,1.560926e+00,7,3,3.570376e-01,3.558194e-01,1
1.743147e+00,1.991844e+00,1.980066e+00,6,4,3.789866e-01,3.784470e-01,1
2.024851e+00,1.639224e+00,1.626015e+00,7,3,5.093329e-01,5.032842e-01,1
2.021975e+00,8.862190e-01,8.749962e-01,7,1,5.859539e-01,5.823438e-01,1
2.039143e+00,2.310926e+00,2.300024e+00,7,5,4.893654e-01,4.850900e-01,1
1.159294e+00,1.938607e+00,1.926899e+00,4,4,3.663593e-01,3.629805e-01,1
2.889571e+00,1.626945e+00,1.616955e+00,10,3,5.012047e-01,4.920568e-01,1
2.315311e+00,1.260363e+00,1.249075e+00,8,2,1.574970e-01,1.544449e-01,1
1.453257e+00,5.326130e-01,5.218983e-01,5,0,1.653565e-01,1.652405e-01,1
1.452010e+00,5.121590e-01,5.018711e-01,5,0,1.604732e-01,1.600971e-01,1
1.161372e+00,8.891330e-01,8.790493e-01,4,1,1.603980e-01,1.600593e-01,1
2.891419e+00,8.751680e-01,8.649826e-01,10,1,2.059936e-01,1.965254e-01,1
1.161706e+00,1.272209e+00,1.261950e+00,4,2,2.742071e-01,2.736228e-01,1
2.607889e+00,1.999947e+00,1.989126e+00,9,4,2.133749e-01,2.121349e-01,1
1.737304e+00,2.362662e+00,2.349854e+00,6,5,3.001446e-01,2.984952e-01,1
2.025365e+00,1.245755e+00,1.236200e+00,7,2,4.447110e-01,4.411057e-01,1
2.311210e+00,2.328273e+00,2.316952e+00,8,5,2.968583e-01,2.885128e-01,1
2.894368e+00,1.275296e+00,1.261950e+00,10,2,3.399678e-01,3.332745e-01,1
2.899887e+00,1.258908e+00,1.246214e+00,10,2,3.433937e-01,3.310169e-01,1
2.893107e+00,9.195350e-01,9.059906e-01,10,1,4.408609e-01,4.300783e-01,1
2.311012e+00,8.929510e-01,8.809566e-01,8,1,3.945823e-01,3.924010e-01,1
1.447871e+00,9.311730e-01,9.191036e-01,5,1,1.980706e-01,1.976703e-01,1
1.737560e+00,8.929360e-01,8.821487e-01,6,1,1.567002e-01,1.566260e-01,1
2.600266e+00,5.349130e-01,5.249977e-01,9,0,2.732580e-01,2.557867e-01,1
1.447341e+00,5.175840e-01,5.090237e-01,5,0,1.943987e-01,1.940671e-01,1
2.311433e+00,5.221490e-01,5.109310e-01,8,0,1.744150e-01,1.739455e-01,1
1.159893e+00,8.918930e-01,8.811951e-01,4,1,4.062967e-01,4.056262e-01,1
2.316935e+00,8.753260e-01,8.621216e-01,8,1,2.951167e-01,2.948365e-01,1
1.162142e+00,1.260025e+00,1.249075e+00,4,2,5.252515e-01,5.243995e-01,1
2.023611e+00,1.978720e+00,1.968861e+00,7,4,1.045221e+00,1.040238e+00,1
2.027803e+00,3.387234e+00,3.376961e+00,7,8,8.028751e-01,7.980350e-01,1
2.315376e+00,1.969077e+00,1.956940e+00,8,4,5.872247e-01,5.839251e-01,1
2.032842e+00,2.676433e+00,2.665997e+00,7,6,9.658693e-01,9.565884e-01,1
2.024869e+00,2.108435e+00,2.098083e+00,7,4,1.306993e+00,1.299507e+00,1
2.023419e+00,3.761176e+00,3.750086e+00,7,9,6.234307e-01,6.204661e-01,1
2.311076e+00,8.806260e-01,8.709431e-01,8,1,4.723967e-01,4.703248e-01,1
1.462740e+00,1.645280e+00,1.633883e+00,5,3,4.868820e-01,4.856895e-01,1
2.023186e+00,1.600234e+00,1.590014e+00,7,3,2.030934e-01,2.020191e-01,1
2.596494e+00,1.245793e+00,1.236200e+00,9,2,9.948878e-02,9.846763e-02,1
1.158020e+00,9.063220e-01,8.950233e-01,4,1,2.245199e-01,2.231527e-01,1
2.020421e+00,5.232310e-01,5.137920e-01,7,0,3.137763e-01,3.129194e-01,1
1.162077e+00,2.000150e+00,1.990080e+00,4,4,3.520674e-01,3.493056e-01,1
2.025687e+00,1.614485e+00,1.603127e+00,7,3,7.996314e-01,7.910277e-01,1
2.024560e+00,1.941973e+00,1.931190e+00,7,4,5.377334e-01,5.367920e-01,1
2.893647e+00,1.983781e+00,1.973152e+00,10,4,5.250847e-01,5.028047e-01,1
2.024528e+00,1.626666e+00,1.617193e+00,7,3,4.560220e-01,4.527949e-01,1
2.024473e+00,1.971311e+00,1.960039e+00,7,4,3.980381e-01,3.970260e-01,1
2.023332e+00,8.945390e-01,8.838177e-01,7,1,4.792752e-01,4.772585e-01,1
2.028821e+00,1.611739e+00,1.596212e+00,7,3,5.870357e-01,5.862123e-01,1
2.894133e+00,2.003295e+00,1.992941e+00,10,4,4.631633e-01,4.453476e-01,1
2.316728e+00,2.733661e+00,2.722025e+00,8,6,4.209254e-01,4.187806e-01,1
2.022491e+00,8.870780e-01,8.749962e-01,7,1,4.921745e-01,4.905468e-01,1
2.023101e+00,1.228847e+00,1.219988e+00,7,2,4.671447e-01,4.658480e-01,1
2.022651e+00,1.254995e+00,1.245022e+00,7,2,5.717928e-01,5.692895e-01,1
3.179436e+00,2.324580e+00,2.315044e+00,11,5,3.515067e-01,3.495242e-01,1
1.163772e+00,2.722256e+00,2.705097e+00,4,6,3.011061e-01,2.906111e-01,1
2.022507e+00,8.688650e-01,8.590221e-01,7,1,3.313565e-01,3.285412e-01,1
2.023012e+00,1.964690e+00,1.954794e+00,7,4,4.144167e-01,4.115972e-01,1
1.739668e+00,1.599505e+00,1.589060e+00,6,3,4.077559e-01,4.073449e-01,1
1.736396e+00,4.131856e+00,4.118681e+00,6,10,1.155399e+00,1.137170e+00,1
2.027081e+00,3.289707e+00,3.278017e+00,7,8,7.687576e-01,7.622187e-01,1
2.025184e+00,2.607688e+00,2.595901e+00,7,6,7.273567e-01,7.218383e-01,1
2.029263e+00,5.132870e-01,5.030632e-01,7,0,6.220583e-01,6.200308e-01,1
2.028458e+00,3.073326e+00,3.062248e+00,7,7,6.175619e-01,6.147206e-01,1
2.025660e+00,1.566969e+00,1.556158e+00,7,3,4.381191e-01,4.338601e-01,1
2.021240e+00,1.587831e+00,1.575947e+00,7,3,6.020555e-01,5.991270e-01,1
2.023717e+00,1.218799e+00,1.209021e+00,7,2,7.132692e-01,7.120719e-01,1
1.159573e+00,1.983533e+00,1.973867e+00,4,4,5.777266e-01,5.696533e-01,1
1.161047e+00,3.446949e+00,3.434896e+00,4,8,6.084218e-01,6.000889e-01,1
2.027175e+00,3.011768e+00,3.001213e+00,7,7,4.955277e-01,4.939469e-01,1
1.733814e+00,2.318127e+00,2.307892e+00,6,5,4.014845e-01,4.008400e-01,1
2.022380e+00,2.664523e+00,2.653837e+00,7,6,3.501941e-01,3.434066e-01,1
1.733642e+00,1.581507e+00,1.571178e+00,6,3,2.686123e-01,2.681685e-01,1
1.742898e+00,1.252780e+00,1.241684e+00,6,2,2.866373e-01,2.863677e-01,1
2.023931e+00,1.267233e+00,1.255989e+00,7,2,3.360455e-01,3.344192e-01,1
2.313156e+00,1.976065e+00,1.965046e+00,8,4,2.871726e-01,2.860108e-01,1
2.899343e+00,2.008893e+00,1.998186e+00,10,4,3.652127e-01,3.511888e-01,1
2.605623e+00,2.705443e+00,2.693176e+00,9,6,3.501134e-01,3.476212e-01,1
1.446202e+00,1.975220e+00,1.965046e+00,5,4,3.777243e-01,3.766155e-01,1
2.021820e+00,8.762000e-01,8.649826e-01,7,1,4.662073e-01,4.657616e-01,1
1.736188e+00,8.933150e-01,8.821487e-01,6,1,3.664751e-01,3.660646e-01,1
2.897911e+00,4.155730e+00,4.146099e+00,10,10,7.656715e-01,7.521684e-01,1
2.043961e+00,2.944541e+00,2.932072e+00,7,7,1.695766e+00,1.678174e+00,1
2.024407e+00,2.538550e+00,2.526045e+00,7,6,1.257728e+00,1.248059e+00,1
2.025279e+00,2.941835e+00,2.930880e+00,7,7,8.156205e-01,8.142925e-01,1
1.461646e+00,3.447393e+00,3.435850e+00,5,8,6.688138e-01,6.669746e-01,1
2.891633e+00,1.223320e+00,1.212120e+00,10,2,6.846412e-01,6.838378e-01,1
2.026386e+00,3.406358e+00,3.394127e+00,7,8,5.057346e-01,4.980591e-01,1
2.022973e+00,3.345316e+00,3.334045e+00,7,8,4.825087e-01,4.803434e-01,1
1.737714e+00,1.217931e+00,1.206875e+00,6,2,4.991907e-01,4.937469e-01,1
2.021300e+00,1.240113e+00,1.229048e+00,7,2,5.509297e-01,5.493433e-01,1
2.025098e+00,1.606075e+00,1.595020e+00,7,3,4.539470e-01,4.532886e-01,1
1.161358e+00,3.800386e+00,3.789186e+00,4,9,5.672417e-01,5.490177e-01,1
2.025061e+00,2.925240e+00,2.915144e+00,7,7,7.334530e-01,7.169527e-01,1
2.023393e+00,2.875009e+00,2.864122e+00,7,7,5.023625e-01,4.957680e-01,1
1.452266e+00,1.938579e+00,1.927137e+00,5,4,2.833734e-01,2.807555e-01,1
1.450602e+00,2.287708e+00,2.278090e+00,5,5,1.585187e-01,1.580994e-01,1
1.160621e+00,5.105100e-01,5.009174e-01,4,0,2.428398e-01,2.423769e-01,1
2.316956e+00,8.899100e-01,8.790493e-01,8,1,3.289930e-01,3.265387e-01,1
3.251522e+00,1.618953e+00,1.608133e+00,11,3,3.812248e-01,3.796765e-01,1
2.024811e+00,1.239351e+00,1.229048e+00,7,2,2.082669e-01,2.081952e-01,1
1.162219e+00,8.975730e-01,8.859634e-01,4,1,2.480747e-01,2.478741e-01,1
2.025877e+00,5.135370e-01,5.030632e-01,7,0,3.543169e-01,3.539664e-01,1
2.310373e+00,1.249849e+00,1.239061e+00,8,2,3.865336e-01,3.841807e-01,1
2.021328e+00,8.903620e-01,8.790493e-01,7,1,6.224304e-01,6.208566e-01,1
2.891363e+00,1.241551e+00,1.231194e+00,10,2,3.749599e-01,3.720935e-01,1
2.028230e+00,5.137140e-01,5.018711e-01,7,0,3.560035e-01,3.529498e-01,1
1.177099e+00,4.859104e+00,4.848957e+00,4,12,1.089196e+00,1.073641e+00,1
2.030584e+00,2.933203e+00,2.921104e+00,7,7,1.223251e+00,1.217466e+00,1
2.029452e+00,4.004383e+00,3.993034e+00,7,10,5.318770e-01,5.314949e-01,1
1.448190e+00,2.357717e+00,2.347946e+00,5,5,5.802047e-01,5.741786e-01,1
2.022374e+00,1.966078e+00,1.956940e+00,7,4,5.062912e-01,5.032132e-01,1
2.024153e+00,1.240077e+00,1.224995e+00,7,2,4.628307e-01,4.608112e-01,1
2.023768e+00,1.967431e+00,1.956224e+00,7,4,2.183881e-01,2.154675e-01,1
2.023878e+00,5.347130e-01,5.240440e-01,7,0,1.707053e-01,1.705565e-01,1
1.739596e+00,1.645572e+00,1.632929e+00,6,3,3.259749e-01,3.246177e-01,1
2.026171e+00,1.611512e+00,1.599789e+00,7,3,4.342360e-01,4.314911e-01,1
2.024615e+00,9.114740e-01,8.981228e-01,7,1,6.595130e-01,6.580066e-01,1
1.740938e+00,2.352372e+00,2.340794e+00,6,5,3.647338e-01,3.576095e-01,1
2.896927e+00,2.741137e+00,2.728939e+00,10,6,3.159978e-01,3.087019e-01,1
2.023215e+00,1.607123e+00,1.593828e+00,7,3,3.544380e-01,3.485361e-01,1
2.020538e+00,1.927334e+00,1.912832e+00,7,4,6.083207e-01,6.044378e-01,1
2.022324e+00,1.569877e+00,1.559973e+00,7,3,6.988525e-01,6.961550e-01,1
2.020154e+00,1.236363e+00,1.226187e+00,7,2,7.740165e-01,7.702020e-01,1
2.023696e+00,2.671941e+00,2.660036e+00,7,6,6.416772e-01,6.362580e-01,1
2.024229e+00,3.035248e+00,3.024101e+00,7,7,9.296819e-01,9.231842e-01,1
1.748510e+00,3.360911e+00,3.345966e+00,6,8,4.768380e-01,4.741049e-01,1
2.024058e+00,1.629891e+00,1.617908e+00,7,3,4.936118e-01,4.916126e-01,1
2.026700e+00,5.113648e+00,5.103111e+00,7,12,8.315921e-01,8.137027e-01,1
2.024659e+00,3.663552e+00,3.651142e+00,7,9,3.998338e-01,3.949353e-01,1
2.037569e+00,1.588845e+00,1.577854e+00,7,3,4.401239e-01,4.382016e-01,1
1.452307e+00,1.947556e+00,1.937151e+00,5,4,3.508150e-01,3.508093e-01,1
8.743820e-01,5.039420e-01,4.940033e-01,3,0,1.456841e-01,1.456198e-01,1
1.165731e+00,1.277521e+00,1.265764e+00,4,2,2.143899e-01,2.141457e-01,1
2.318547e+00,1.224544e+00,1.214027e+00,8,2,2.696957e-01,2.672437e-01,1
2.900777e+00,5.249150e-01,5.149841e-01,10,0,2.140571e-01,2.050643e-01,1
1.739915e+00,3.448511e+00,3.436804e+00,6,8,6.067459e-01,5.916031e-01,1
2.024386e+00,2.268890e+00,2.257824e+00,7,5,3.652598e-01,3.625677e-01,1
1.740561e+00,1.609905e+00,1.599073e+00,6,3,2.582505e-01,2.558230e-01,1
2.609204e+00,5.155470e-01,5.049706e-01,9,0,2.782472e-01,2.674188e-01,1
1.452312e+00,8.979590e-01,8.871555e-01,5,1,3.931842e-01,3.928796e-01,1
2.023189e+00,5.160460e-01,5.068779e-01,7,0,5.688521e-01,5.678254e-01,1
2.344433e+00,3.099564e+00,3.087044e+00,8,7,8.637211e-01,8.624574e-01,1
1.177056e+00,6.624929e+00,6.612062e+00,4,17,9.506195e-01,9.344566e-01,1
2.036715e+00,1.525244e+00,1.512051e+00,7,2,1.314580e+00,1.300203e+00,1
2.027912e+00,3.812204e+00,3.801107e+00,7,9,5.308219e-01,5.287133e-01,1
1.447229e+00,2.692627e+00,2.681017e+00,5,6,4.528472e-01,4.479862e-01,1
2.024760e+00,1.995900e+00,1.985073e+00,7,4,2.425579e-01,2.411466e-01,1
2.029256e+00,8.795660e-01,8.676052e-01,7,1,2.987629e-01,2.964482e-01,1
2.026566e+00,4.102121e+00,4.091024e+00,7,10,4.686885e-01,4.602149e-01,1
2.024205e+00,2.230183e+00,2.218246e+00,7,5,5.207779e-01,5.190531e-01,1
2.024559e+00,1.936391e+00,1.924992e+00,7,4,6.468263e-01,6.394762e-01,1
2.022648e+00,1.203288e+00,1.193047e+00,7,2,5.195988e-01,5.165158e-01,1
2.026290e+00,1.928375e+00,1.917839e+00,7,4,5.193776e-01,5.178371e-01,1
2.894342e+00,1.596505e+00,1.585960e+00,10,3,8.010634e-01,8.006528e-01,1
2.034214e+00,3.059493e+00,3.048897e+00,7,7,9.096285e-01,9.052223e-01,1
2.314858e+00,3.354421e+00,3.342628e+00,8,8,7.538839e-01,7.510490e-01,1
2.025931e+00,1.626800e+00,1.614809e+00,7,3,6.377908e-01,6.354046e-01,1
2.606269e+00,3.805330e+00,3.793955e+00,9,9,8.009880e-01,7.973704e-01,1
1.450140e+00,3.402623e+00,3.391027e+00,5,8,4.585258e-01,4.578531e-01,1
2.021158e+00,1.243953e+00,1.232862e+00,7,2,3.658539e-01,3.644516e-01,1
2.033362e+00,3.073833e+00,3.062963e+00,7,7,6.559545e-01,6.445357e-01,1
2.894784e+00,3.743135e+00,3.731966e+00,10,9,7.652662e-01,7.641196e-01,1
2.025542e+00,1.964037e+00,1.954079e+00,7,4,9.539966e-01,9.494272e-01,1
2.028855e+00,3.014001e+00,3.004074e+00,7,7,3.593567e-01,3.582810e-01,1
2.026097e+00,1.254156e+00,1.242876e+00,7,2,3.813086e-01,3.771356e-01,1
2.024821e+00,1.614538e+00,1.602173e+00,7,3,5.356859e-01,5.294393e-01,1
2.044816e+00,2.336072e+00,2.325058e+00,7,5,6.483631e-01,6.406482e-01,1
1.463284e+00,4.409147e+00,4.397869e+00,5,11,5.837038e-01,5.819799e-01,1
2.022281e+00,1.251641e+00,1.235962e+00,7,2,6.102237e-01,6.082061e-01,1
2.023462e+00,1.577950e+00,1.566887e+00,7,3,4.659783e-01,4.646952e-01,1
2.889512e+00,1.228712e+00,1.218081e+00,10,2,3.453355e-01,3.452234e-01,1

