5.627990e-01,5.094410e-01,2,2,0.000000e+00,0.000000e+00
8.159660e-01,7.479300e-01,3,3,9.908744e-02,9.908743e-02
8.107000e-01,7.465940e-01,3,3,1.830848e-01,1.830848e-01
8.154930e-01,7.476590e-01,3,3,3.864811e-01,3.864809e-01
8.098000e-01,7.661840e-01,3,3,4.004133e-01,4.004132e-01
8.176170e-01,7.473130e-01,3,3,1.918494e+00,1.918493e+00
8.223270e-01,7.412700e-01,3,3,2.527490e+00,2.527490e+00
8.175370e-01,7.471660e-01,3,3,3.552445e+00,3.552445e+00
8.170490e-01,7.468420e-01,3,3,2.030777e+00,2.030777e+00
8.115930e-01,7.472700e-01,3,3,2.053681e+00,2.053680e+00
8.168770e-01,7.529420e-01,3,3,2.090158e+00,2.090158e+00
8.099830e-01,7.476090e-01,3,3,2.228142e+00,2.228142e+00
8.159580e-01,7.478600e-01,3,3,2.966620e+00,2.966619e+00
8.158960e-01,7.418990e-01,3,3,3.719657e+00,3.719657e+00
8.158880e-01,7.469100e-01,3,3,3.608146e+00,3.608146e+00
8.152250e-01,7.463710e-01,3,3,4.378298e+00,4.378297e+00
8.102380e-01,7.469470e-01,3,3,3.707490e+00,3.707490e+00
8.158990e-01,7.474570e-01,3,3,3.390156e+00,3.390156e+00
8.103870e-01,7.457440e-01,3,3,3.082943e+00,3.082943e+00
8.166130e-01,7.462980e-01,3,3,2.781092e+00,2.781092e+00
8.156110e-01,7.410460e-01,3,3,3.038366e+00,3.038365e+00
8.152210e-01,7.476070e-01,3,3,2.594647e+00,2.594647e+00
8.169370e-01,7.415640e-01,3,3,2.608640e+00,2.608640e+00
8.158560e-01,7.469720e-01,3,3,2.541393e+00,2.541392e+00
8.152150e-01,7.469820e-01,3,3,2.792866e+00,2.792866e+00
8.103940e-01,7.464140e-01,3,3,3.060493e+00,3.060492e+00
8.159160e-01,7.460940e-01,3,3,2.897606e+00,2.897606e+00
8.149770e-01,7.409020e-01,3,3,3.112618e+00,3.112618e+00
8.151920e-01,7.466880e-01,3,3,2.546094e+00,2.546094e+00
8.155890e-01,7.412380e-01,3,3,2.203587e+00,2.203587e+00
8.140360e-01,7.476550e-01,3,3,2.028661e+00,2.028661e+00
8.149280e-01,7.461380e-01,3,3,1.528637e+00,1.528637e+00
8.094450e-01,7.471030e-01,3,3,1.391296e+00,1.391296e+00
8.145400e-01,7.467700e-01,3,3,1.867830e+00,1.867830e+00
8.148530e-01,7.403460e-01,3,3,1.291775e+00,1.291775e+00
8.158120e-01,7.468450e-01,3,3,1.416054e+00,1.416053e+00
8.164870e-01,7.411650e-01,3,3,1.081417e+00,1.081417e+00
8.150810e-01,7.472580e-01,3,3,1.069540e+00,1.069540e+00
8.146180e-01,7.459170e-01,3,3,1.420408e+00,1.420407e+00
8.101310e-01,7.456400e-01,3,3,1.504707e+00,1.504707e+00
8.149840e-01,7.471180e-01,3,3,3.236998e+00,3.236997e+00
8.107510e-01,7.460500e-01,3,3,4.485951e+00,4.485952e+00
8.152630e-01,7.462860e-01,3,3,3.104511e+00,3.104518e+00
8.151370e-01,7.411630e-01,3,3,4.548691e+00,4.548704e+00
8.160140e-01,7.463350e-01,3,3,3.578503e+00,3.578505e+00
8.152110e-01,7.420750e-01,3,3,3.266055e+00,3.266055e+00
8.101500e-01,7.467350e-01,3,3,3.272182e+00,3.272182e+00
8.164960e-01,7.470130e-01,3,3,3.130258e+00,3.130258e+00
8.094310e-01,7.464940e-01,3,3,2.667689e+00,2.667690e+00
8.169830e-01,7.488450e-01,3,3,1.781321e+00,1.781321e+00
8.173550e-01,7.410160e-01,3,3,1.745463e+00,1.745462e+00
8.149240e-01,7.465560e-01,3,3,2.233033e+00,2.233033e+00
8.166020e-01,7.411780e-01,3,3,1.661500e+00,1.661500e+00
8.153330e-01,7.458770e-01,3,3,1.421423e+00,1.421423e+00
8.157650e-01,7.469660e-01,3,3,1.689385e+00,1.689386e+00
8.085700e-01,7.462390e-01,3,3,2.190710e+00,2.191300e+00
1.080670e+00,9.925800e-01,4,4,1.530992e+00,1.530992e+00
8.162930e-01,7.473290e-01,3,3,2.360318e+00,2.360317e+00
8.158120e-01,7.411230e-01,3,3,3.150872e+00,3.150872e+00
8.173970e-01,7.471520e-01,3,3,4.373944e+00,4.373944e+00
8.155580e-01,7.469340e-01,3,3,2.455006e+00,2.455006e+00
8.097550e-01,7.470290e-01,3,3,3.968519e+00,3.968518e+00
8.163400e-01,7.485370e-01,3,3,6.119308e+00,6.119347e+00
8.098040e-01,7.470050e-01,3,3,4.278523e+00,4.278572e+00
8.149830e-01,7.465420e-01,3,3,5.068578e+00,5.068681e+00
1.081537e+00,9.926930e-01,4,4,2.274826e+00,2.274826e+00
8.145420e-01,7.414250e-01,3,3,2.477333e+00,2.477349e+00
8.152890e-01,7.476770e-01,3,3,2.541243e+00,2.541243e+00
8.158000e-01,7.462460e-01,3,3,1.803083e+00,1.803083e+00
8.093050e-01,7.456390e-01,3,3,1.864154e+00,1.864153e+00
8.158790e-01,7.469970e-01,3,3,2.382283e+00,2.382283e+00
8.147230e-01,7.415700e-01,3,3,2.542669e+00,2.542668e+00
8.155380e-01,7.480830e-01,3,3,2.697453e+00,2.697453e+00
8.151020e-01,7.409640e-01,3,3,2.732533e+00,2.732533e+00
8.163160e-01,7.473050e-01,3,3,3.225733e+00,3.225732e+00
8.163660e-01,7.471940e-01,3,3,4.639273e+00,4.639272e+00
8.103330e-01,7.460330e-01,3,3,3.460144e+00,3.460144e+00
8.150330e-01,7.487150e-01,3,3,3.398097e+00,3.398097e+00
8.103960e-01,7.470930e-01,3,3,3.052349e+00,3.052349e+00
8.158870e-01,7.461410e-01,3,3,1.620253e+00,1.620254e+00
8.159270e-01,7.414040e-01,3,3,2.298991e+00,2.298990e+00
8.146940e-01,7.472680e-01,3,3,1.924072e+00,1.924072e+00
8.142430e-01,7.454090e-01,3,3,1.552300e+00,1.552300e+00
8.100720e-01,7.467080e-01,3,3,1.426329e+00,1.426328e+00
8.159500e-01,7.463220e-01,3,3,2.432690e+00,2.432690e+00
8.099540e-01,7.465800e-01,3,3,3.818957e+00,3.818956e+00
8.161160e-01,7.475430e-01,3,3,5.342808e+00,5.342807e+00
8.149030e-01,7.412420e-01,3,3,8.007202e+00,8.007203e+00
8.154130e-01,7.473090e-01,3,3,7.407870e+00,7.407873e+00
8.154370e-01,7.410960e-01,3,3,5.837881e+00,5.837883e+00
8.154430e-01,7.471620e-01,3,3,4.566741e+00,4.566744e+00
8.157940e-01,7.478040e-01,3,3,3.473572e+00,3.473573e+00
8.104020e-01,7.463220e-01,3,3,4.502647e+00,4.502651e+00
8.157550e-01,7.473070e-01,3,3,3.657851e+00,3.657864e+00
8.139010e-01,7.404580e-01,3,3,4.215314e+00,4.214901e+00
1.891815e+00,9.917360e-01,7,4,4.593059e+00,4.585343e+00
1.082052e+00,9.909820e-01,4,4,2.497557e+00,2.497557e+00
8.150400e-01,7.468160e-01,3,3,2.133626e+00,2.133627e+00
8.161930e-01,7.410950e-01,3,3,2.617786e+00,2.617786e+00
8.154640e-01,7.477520e-01,3,3,2.914690e+00,2.914690e+00
8.154770e-01,7.465190e-01,3,3,2.223575e+00,2.223575e+00
8.097210e-01,7.461960e-01,3,3,2.503944e+00,2.503944e+00
8.150080e-01,7.468560e-01,3,3,1.777513e+00,1.777513e+00
8.096530e-01,7.464590e-01,3,3,1.624392e+00,1.624392e+00
8.153460e-01,7.473590e-01,3,3,1.363900e+00,1.363901e+00
8.153950e-01,7.414800e-01,3,3,1.328357e+00,1.328357e+00
8.151930e-01,7.467940e-01,3,3,1.974501e+00,1.974500e+00
8.165120e-01,7.467110e-01,3,3,2.126135e+00,2.126135e+00
8.111340e-01,7.471560e-01,3,3,2.027877e+00,2.027877e+00
8.151000e-01,7.473670e-01,3,3,1.623192e+00,1.623193e+00
8.092030e-01,7.470530e-01,3,3,1.517089e+00,1.517089e+00
8.162330e-01,7.472790e-01,3,3,1.328343e+00,1.328342e+00
8.154090e-01,7.419640e-01,3,3,1.522571e+00,1.522571e+00
8.144650e-01,7.468700e-01,3,3,1.943279e+00,1.943279e+00
8.154040e-01,7.406380e-01,3,3,1.205772e+00,1.205772e+00
8.151820e-01,7.464080e-01,3,3,9.240598e-01,9.240598e-01
8.151100e-01,7.478660e-01,3,3,1.799914e+00,1.799914e+00
8.095700e-01,7.469310e-01,3,3,1.679150e+00,1.679150e+00
8.143520e-01,7.472670e-01,3,3,3.642152e+00,3.642150e+00
8.143400e-01,7.406710e-01,3,3,2.785940e+00,2.785941e+00
8.147120e-01,7.476450e-01,3,3,3.126841e+00,3.126840e+00
8.158920e-01,7.412530e-01,3,3,4.228689e+00,4.228688e+00
8.146230e-01,7.466760e-01,3,3,3.861128e+00,3.861128e+00
8.150630e-01,7.475130e-01,3,3,4.115997e+00,4.115997e+00
8.103170e-01,7.466190e-01,3,3,5.705301e+00,5.705326e+00
8.155370e-01,7.468530e-01,3,3,4.050924e+00,4.050959e+00
8.142770e-01,7.414760e-01,3,3,3.627890e+00,3.627892e+00
8.156840e-01,7.470060e-01,3,3,3.448386e+00,3.448386e+00
8.169550e-01,7.414950e-01,3,3,2.349688e+00,2.349688e+00
8.153520e-01,7.473830e-01,3,3,3.007672e+00,3.007671e+00
8.162640e-01,7.475830e-01,3,3,2.631415e+00,2.631415e+00
8.103910e-01,7.463340e-01,3,3,2.218170e+00,2.218170e+00
8.167720e-01,7.481220e-01,3,3,1.688155e+00,1.688155e+00
8.092120e-01,7.452130e-01,3,3,1.533558e+00,1.533558e+00
8.164490e-01,7.475490e-01,3,3,1.485565e+00,1.485565e+00
8.162880e-01,7.410150e-01,3,3,1.671858e+00,1.671857e+00
8.160400e-01,7.467770e-01,3,3,1.855017e+00,1.855016e+00
8.157500e-01,7.461010e-01,3,3,1.475156e+00,1.475157e+00
8.100340e-01,7.475940e-01,3,3,1.665585e+00,1.665585e+00
8.154010e-01,7.471940e-01,3,3,1.467621e+00,1.467621e+00
8.094260e-01,7.468710e-01,3,3,2.333417e+00,2.333416e+00
8.162550e-01,7.473260e-01,3,3,3.605091e+00,3.605090e+00
8.154600e-01,7.415100e-01,3,3,4.568632e+00,4.568631e+00
8.160650e-01,7.479150e-01,3,3,4.261223e+00,4.261228e+00
8.150740e-01,7.417680e-01,3,3,4.285569e+00,4.285575e+00
8.145330e-01,7.465330e-01,3,3,3.905530e+00,3.905533e+00
8.163100e-01,7.473760e-01,3,3,3.413203e+00,3.413207e+00
8.097960e-01,7.450380e-01,3,3,3.128338e+00,3.128362e+00
8.161480e-01,7.474350e-01,3,3,2.988037e+00,2.988201e+00
8.153820e-01,7.412790e-01,3,3,3.031119e+00,3.031115e+00
8.161790e-01,7.489070e-01,3,3,2.181170e+00,2.181170e+00
8.156420e-01,7.411500e-01,3,3,2.614776e+00,2.614776e+00
8.153200e-01,7.477510e-01,3,3,2.254792e+00,2.254792e+00
8.161520e-01,7.472700e-01,3,3,1.836183e+00,1.836183e+00
8.095780e-01,7.461250e-01,3,3,1.411363e+00,1.411363e+00
8.165370e-01,7.474530e-01,3,3,1.350339e+00,1.350339e+00
8.153380e-01,7.413030e-01,3,3,2.127462e+00,2.127461e+00
8.143800e-01,7.472560e-01,3,3,1.830995e+00,1.830995e+00
8.170880e-01,7.422240e-01,3,3,1.993370e+00,1.993370e+00
8.154480e-01,7.476980e-01,3,3,2.277235e+00,2.277235e+00
8.160390e-01,7.473150e-01,3,3,1.177537e+00,1.177537e+00
8.092270e-01,7.466880e-01,3,3,9.813271e-01,9.813269e-01
8.155920e-01,7.466210e-01,3,3,1.014523e+00,1.014523e+00
8.157010e-01,7.420650e-01,3,3,5.392685e-01,5.392684e-01
8.154360e-01,7.474950e-01,3,3,4.426792e-01,4.426791e-01
8.145210e-01,7.418350e-01,3,3,7.662471e-01,7.662468e-01
8.143880e-01,7.471280e-01,3,3,6.333886e-01,6.333886e-01
8.143470e-01,7.466320e-01,3,3,1.481482e+00,1.481481e+00
8.103190e-01,7.477610e-01,3,3,1.311582e+00,1.311581e+00
8.172150e-01,7.470730e-01,3,3,9.149925e-01,9.149925e-01
8.102820e-01,7.468780e-01,3,3,9.289488e-01,9.289487e-01
8.154760e-01,7.475520e-01,3,3,9.930077e-01,9.930074e-01
8.147800e-01,7.414000e-01,3,3,1.162190e+00,1.162190e+00
8.154530e-01,7.470000e-01,3,3,8.621851e-01,8.621851e-01
8.145690e-01,7.417110e-01,3,3,8.592674e-01,8.592673e-01
8.150970e-01,7.461690e-01,3,3,9.540822e-01,9.540819e-01
8.159560e-01,7.496340e-01,3,3,9.152085e-01,9.152084e-01
8.098950e-01,7.462590e-01,3,3,2.005621e+00,2.005621e+00
8.156970e-01,7.468070e-01,3,3,2.233354e+00,2.233353e+00
8.155390e-01,7.414240e-01,3,3,2.603931e+00,2.603931e+00
8.152600e-01,7.478180e-01,3,3,3.533052e+00,3.533052e+00
8.160810e-01,7.412810e-01,3,3,3.124837e+00,3.124837e+00
8.163710e-01,7.462270e-01,3,3,3.461928e+00,3.461928e+00
8.158910e-01,7.471770e-01,3,3,3.187952e+00,3.187952e+00
8.095150e-01,7.470280e-01,3,3,2.933725e+00,2.933725e+00
8.159740e-01,7.468530e-01,3,3,3.492194e+00,3.492194e+00
8.163480e-01,7.414970e-01,3,3,4.590567e+00,4.590566e+00
8.149640e-01,7.467620e-01,3,3,5.112532e+00,5.112532e+00
8.159120e-01,7.422150e-01,3,3,4.447342e+00,4.447342e+00
8.152240e-01,7.465860e-01,3,3,4.295995e+00,4.295995e+00
8.155470e-01,7.474480e-01,3,3,4.191386e+00,4.191387e+00
8.108740e-01,7.457610e-01,3,3,3.769928e+00,3.769929e+00
8.147600e-01,7.459360e-01,3,3,3.753979e+00,3.753987e+00
8.136210e-01,7.411050e-01,3,3,3.421219e+00,3.421308e+00
1.080903e+00,9.916680e-01,4,4,2.896835e+00,2.896835e+00
8.147930e-01,7.467370e-01,3,3,2.392925e+00,2.392925e+00
8.143120e-01,7.411650e-01,3,3,3.622258e+00,3.622323e+00
8.147330e-01,9.908430e-01,3,4,5.472756e+00,5.471883e+00
1.892267e+00,1.488747e+00,7,6,5.899352e+00,5.901368e+00
1.620430e+00,1.486046e+00,6,6,6.115935e+00,6.105755e+00
1.348650e+00,9.920530e-01,5,4,7.204726e+00,7.207773e+00
1.085342e+00,7.472910e-01,4,3,9.397677e+00,9.397696e+00
8.169310e-01,7.465810e-01,3,3,6.575524e+00,6.575538e+00
8.095530e-01,7.471500e-01,3,3,8.316423e+00,8.316447e+00
8.154870e-01,7.469810e-01,3,3,7.192597e+00,7.192616e+00
8.096020e-01,7.467250e-01,3,3,6.453886e+00,6.454001e+00
8.143410e-01,7.461840e-01,3,3,5.235356e+00,5.235571e+00
8.155170e-01,7.407400e-01,3,3,5.694258e+00,5.695957e+00
1.622456e+00,9.910130e-01,6,4,4.836116e+00,4.837998e+00
1.622270e+00,1.482318e+00,6,6,5.720423e+00,5.722479e+00
1.353494e+00,9.902320e-01,5,4,2.768204e+00,2.765648e+00
8.129310e-01,7.469240e-01,3,3,2.548097e+00,2.548074e+00
8.153220e-01,7.473920e-01,3,3,3.147424e+00,3.147424e+00
8.100920e-01,7.470220e-01,3,3,2.197661e+00,2.197663e+00
8.152570e-01,7.463420e-01,3,3,3.088294e+00,3.088292e+00
8.145280e-01,7.413530e-01,3,3,3.215869e+00,3.215869e+00
8.150150e-01,7.466740e-01,3,3,4.939711e+00,4.939755e+00
8.156920e-01,7.411570e-01,3,3,3.018269e+00,3.018278e+00
8.150640e-01,7.473340e-01,3,3,3.113265e+00,3.113265e+00
8.169000e-01,7.498250e-01,3,3,2.885547e+00,2.885547e+00
8.099570e-01,7.470760e-01,3,3,2.765954e+00,2.765953e+00
8.157010e-01,7.469170e-01,3,3,2.950658e+00,2.950658e+00
8.151150e-01,7.411580e-01,3,3,4.039804e+00,4.039803e+00
8.158060e-01,7.465650e-01,3,3,2.786400e+00,2.786401e+00
8.166880e-01,7.415400e-01,3,3,2.206831e+00,2.206831e+00
8.155690e-01,7.470820e-01,3,3,2.451651e+00,2.451651e+00
8.160750e-01,7.458360e-01,3,3,2.519328e+00,2.519327e+00
8.093660e-01,7.468040e-01,3,3,2.001430e+00,2.001430e+00
8.148980e-01,7.472120e-01,3,3,2.147694e+00,2.147694e+00
8.095710e-01,7.458340e-01,3,3,2.812806e+00,2.812806e+00
8.161130e-01,7.464960e-01,3,3,3.675509e+00,3.675509e+00
8.149200e-01,7.409020e-01,3,3,6.007857e+00,6.007855e+00
8.140640e-01,7.471880e-01,3,3,7.789494e+00,7.789501e+00
8.155660e-01,7.411340e-01,3,3,6.328865e+00,6.328870e+00
8.154150e-01,7.491090e-01,3,3,7.586266e+00,7.586268e+00
8.171710e-01,7.472690e-01,3,3,5.909374e+00,5.909376e+00
8.105050e-01,7.476360e-01,3,3,4.473771e+00,4.473773e+00
8.166240e-01,7.468780e-01,3,3,5.146766e+00,5.146776e+00
8.151030e-01,7.417810e-01,3,3,3.941951e+00,3.941956e+00
8.143700e-01,7.463750e-01,3,3,3.163595e+00,3.163594e+00
8.151450e-01,7.415690e-01,3,3,2.100495e+00,2.100495e+00
8.161100e-01,7.467140e-01,3,3,1.958993e+00,1.958993e+00
8.143900e-01,7.470550e-01,3,3,1.860498e+00,1.860498e+00
8.098740e-01,7.467240e-01,3,3,2.491525e+00,2.491524e+00
8.157640e-01,7.462340e-01,3,3,1.118816e+00,1.118816e+00
8.140600e-01,7.422280e-01,3,3,2.734525e+00,2.734548e+00
8.152760e-01,7.482720e-01,3,3,5.159402e+00,5.160938e+00
1.899073e+00,1.237694e+00,7,5,3.059235e+00,3.072040e+00
8.151460e-01,7.470820e-01,3,3,2.016788e+00,2.016803e+00
8.099630e-01,7.465560e-01,3,3,2.082794e+00,2.082794e+00
8.154930e-01,7.470270e-01,3,3,2.003212e+00,2.003212e+00
8.149250e-01,7.415900e-01,3,3,1.854253e+00,1.854253e+00
8.154750e-01,7.480280e-01,3,3,2.630193e+00,2.630192e+00
8.163130e-01,7.413620e-01,3,3,2.160530e+00,2.160531e+00
8.154030e-01,7.473180e-01,3,3,1.642397e+00,1.642397e+00
8.147360e-01,7.465260e-01,3,3,1.794676e+00,1.794678e+00
8.091600e-01,7.471360e-01,3,3,3.246681e+00,3.247192e+00
1.626156e+00,1.482507e+00,6,6,5.106671e+00,5.089439e+00
1.894441e+00,1.487394e+00,7,6,8.574018e+00,8.568843e+00
1.349082e+00,1.236891e+00,5,5,1.002274e+01,1.002939e+01
1.085370e+00,9.918130e-01,4,4,9.425961e+00,9.425963e+00
8.148730e-01,7.477080e-01,3,3,1.023035e+01,1.023092e+01
8.158330e-01,7.416610e-01,3,3,9.147323e+00,9.150291e+00
8.155240e-01,9.921650e-01,3,4,9.796306e+00,9.795140e+00
1.086682e+00,1.488557e+00,4,6,9.621782e+00,9.630854e+00
1.624087e+00,1.487109e+00,6,6,8.091302e+00,8.099141e+00
1.624536e+00,1.482493e+00,6,6,7.219551e+00,7.228604e+00
1.624564e+00,1.483298e+00,6,6,5.846923e+00,5.843502e+00
1.085253e+00,9.924120e-01,4,4,5.657363e+00,5.657812e+00
1.622826e+00,1.482170e+00,6,6,5.912424e+00,5.931046e+00
1.624449e+00,1.483462e+00,6,6,7.298653e+00,7.294508e+00
1.625538e+00,1.488601e+00,6,6,1.216031e+01,1.215639e+01
1.618063e+00,1.487983e+00,6,6,1.380437e+01,1.380439e+01
2.168987e+00,1.482444e+00,8,6,1.548385e+01,1.547261e+01
1.623061e+00,1.481870e+00,6,6,1.408666e+01,1.409167e+01
1.624488e+00,9.924710e-01,6,4,1.510060e+01,1.473676e+01
1.082946e+00,1.486846e+00,4,6,1.825347e+01,1.826344e+01
1.350014e+00,1.484960e+00,5,6,1.738369e+01,1.740929e+01
1.620963e+00,1.489195e+00,6,6,1.563716e+01,1.565794e+01
1.622113e+00,1.486533e+00,6,6,1.382023e+01,1.384144e+01
1.617498e+00,1.487649e+00,6,6,1.259986e+01,1.258588e+01
1.084357e+00,1.481983e+00,4,6,1.102046e+01,1.104332e+01
1.622829e+00,1.488753e+00,6,6,1.019029e+01,1.018893e+01
1.622157e+00,1.489614e+00,6,6,1.091349e+01,1.090715e+01
1.618760e+00,1.486335e+00,6,6,7.920284e+00,7.920816e+00
1.621488e+00,1.487322e+00,6,6,7.265713e+00,7.264906e+00
1.626084e+00,1.483433e+00,6,6,7.525616e+00,7.524043e+00
1.622657e+00,1.483579e+00,6,6,6.242123e+00,6.237499e+00
1.082217e+00,1.486654e+00,4,6,5.391051e+00,5.407294e+00
1.893589e+00,1.481964e+00,7,6,5.078479e+00,5.079881e+00
1.083848e+00,9.911810e-01,4,4,4.060099e+00,4.060141e+00
8.157670e-01,7.467330e-01,3,3,1.990783e+00,1.990787e+00
8.149490e-01,7.415830e-01,3,3,2.070152e+00,2.070152e+00
8.143570e-01,7.470970e-01,3,3,2.285529e+00,2.285529e+00
8.139700e-01,7.414160e-01,3,3,2.377009e+00,2.377009e+00
8.147910e-01,7.473470e-01,3,3,2.379837e+00,2.379837e+00
8.159840e-01,7.474860e-01,3,3,1.665998e+00,1.665998e+00
8.105140e-01,7.473380e-01,3,3,2.402465e+00,2.402464e+00
8.155780e-01,7.472450e-01,3,3,3.570747e+00,3.570746e+00
8.148800e-01,7.413250e-01,3,3,4.046288e+00,4.046288e+00
8.157990e-01,7.482050e-01,3,3,3.646139e+00,3.646139e+00
8.153380e-01,7.419200e-01,3,3,3.447836e+00,3.447836e+00
8.150370e-01,7.484660e-01,3,3,3.307715e+00,3.307715e+00
8.149190e-01,7.463190e-01,3,3,3.260138e+00,3.260138e+00
8.094330e-01,7.454710e-01,3,3,2.620375e+00,2.620375e+00
8.168440e-01,7.469060e-01,3,3,2.829010e+00,2.829010e+00
8.108100e-01,7.469000e-01,3,3,5.565123e+00,5.565222e+00
8.146830e-01,7.475260e-01,3,3,7.030485e+00,7.031217e+00
1.617867e+00,1.486916e+00,6,6,8.564257e+00,8.567939e+00
1.621683e+00,1.236213e+00,6,5,7.678077e+00,7.679457e+00
1.890337e+00,1.480725e+00,7,6,6.771391e+00,6.771825e+00
1.081894e+00,9.920360e-01,4,4,5.895535e+00,5.895536e+00
8.156740e-01,7.463860e-01,3,3,4.914702e+00,4.914709e+00
8.150430e-01,7.411720e-01,3,3,5.071329e+00,5.071814e+00
1.623669e+00,1.481424e+00,6,6,4.700332e+00,4.693805e+00
1.620377e+00,1.486583e+00,6,6,4.346733e+00,4.344931e+00
1.619414e+00,1.485700e+00,6,6,4.858864e+00,4.856423e+00
1.617456e+00,1.487465e+00,6,6,5.835149e+00,5.833248e+00
1.354812e+00,1.978840e+00,5,8,6.525754e+00,6.536862e+00
1.358769e+00,9.923960e-01,5,4,7.801938e+00,7.801913e+00
8.099400e-01,7.464120e-01,3,3,6.628641e+00,6.628642e+00
8.161290e-01,7.470600e-01,3,3,8.778428e+00,8.778429e+00
8.103370e-01,7.467980e-01,3,3,8.946025e+00,8.946045e+00
8.155050e-01,7.469080e-01,3,3,7.906368e+00,7.906387e+00
8.163290e-01,7.415910e-01,3,3,7.196097e+00,7.196108e+00
8.151500e-01,7.471400e-01,3,3,7.764534e+00,7.764579e+00
8.149970e-01,7.412300e-01,3,3,7.230067e+00,7.230608e+00
8.153450e-01,7.471630e-01,3,3,6.192459e+00,6.194444e+00
8.165550e-01,1.238114e+00,3,5,5.242743e+00,5.255079e+00
1.893347e+00,1.236820e+00,7,5,3.744005e+00,3.754082e+00
1.084911e+00,9.921520e-01,4,4,3.311607e+00,3.313333e+00
1.081677e+00,9.911460e-01,4,4,2.183971e+00,2.184269e+00
8.145670e-01,7.470140e-01,3,3,1.462304e+00,1.462313e+00
8.146250e-01,7.468660e-01,3,3,1.584626e+00,1.584625e+00
8.096230e-01,7.467200e-01,3,3,2.097501e+00,2.097500e+00
8.147910e-01,7.469090e-01,3,3,1.451960e+00,1.451960e+00
8.095810e-01,7.420500e-01,3,3,1.841211e+00,1.841211e+00
8.147600e-01,7.474490e-01,3,3,1.945730e+00,1.945730e+00
8.151510e-01,7.424440e-01,3,3,1.790305e+00,1.790305e+00
8.140980e-01,7.469610e-01,3,3,1.817844e+00,1.817844e+00
8.147190e-01,7.454820e-01,3,3,2.031074e+00,2.031074e+00
8.102320e-01,7.468570e-01,3,3,1.875204e+00,1.875204e+00
8.154130e-01,7.475610e-01,3,3,1.529072e+00,1.529071e+00
8.102120e-01,7.459040e-01,3,3,2.085934e+00,2.085934e+00
8.154590e-01,7.464020e-01,3,3,2.067874e+00,2.067874e+00
8.148590e-01,7.416860e-01,3,3,2.175335e+00,2.175335e+00
8.143430e-01,7.475950e-01,3,3,2.007302e+00,2.007302e+00
8.157490e-01,7.415390e-01,3,3,2.966648e+00,2.966647e+00
8.153210e-01,7.474010e-01,3,3,2.841148e+00,2.841148e+00
8.161520e-01,7.466830e-01,3,3,2.393067e+00,2.393067e+00
8.102930e-01,7.459490e-01,3,3,1.803911e+00,1.803911e+00
8.162210e-01,7.465880e-01,3,3,2.764925e+00,2.764925e+00
8.140870e-01,7.414040e-01,3,3,2.640770e+00,2.640770e+00
8.146430e-01,7.481890e-01,3,3,1.918041e+00,1.918041e+00
8.164870e-01,7.416940e-01,3,3,1.888256e+00,1.888256e+00
8.151340e-01,7.465210e-01,3,3,1.693855e+00,1.693855e+00
8.148240e-01,7.460470e-01,3,3,1.928967e+00,1.928967e+00
8.100700e-01,7.458200e-01,3,3,2.706847e+00,2.706846e+00
8.157870e-01,7.478810e-01,3,3,2.874555e+00,2.874555e+00
8.156800e-01,7.408840e-01,3,3,2.797974e+00,2.797974e+00
8.142890e-01,7.470090e-01,3,3,3.941334e+00,3.941334e+00
8.156560e-01,7.416880e-01,3,3,4.567673e+00,4.567672e+00
8.153970e-01,7.469220e-01,3,3,3.291151e+00,3.291151e+00
8.157620e-01,7.466110e-01,3,3,2.677025e+00,2.677025e+00
8.096920e-01,7.471590e-01,3,3,2.876605e+00,2.876605e+00
8.160300e-01,7.467950e-01,3,3,2.351866e+00,2.351866e+00
8.097510e-01,7.464290e-01,3,3,1.867592e+00,1.867592e+00
8.156390e-01,7.475850e-01,3,3,2.564866e+00,2.564865e+00
8.167160e-01,7.410050e-01,3,3,2.737124e+00,2.737124e+00
8.162770e-01,7.472870e-01,3,3,2.141108e+00,2.141108e+00
8.150020e-01,7.457940e-01,3,3,2.867944e+00,2.867943e+00
8.106490e-01,7.470580e-01,3,3,1.975932e+00,1.975932e+00
8.149020e-01,7.460370e-01,3,3,2.148474e+00,2.148473e+00
8.099790e-01,7.461580e-01,3,3,2.114130e+00,2.114130e+00
8.143660e-01,7.465480e-01,3,3,2.473750e+00,2.473749e+00
8.153040e-01,7.414370e-01,3,3,2.220506e+00,2.220506e+00
8.142920e-01,7.468880e-01,3,3,2.322423e+00,2.322423e+00
8.151970e-01,7.416070e-01,3,3,1.825783e+00,1.825783e+00
8.151430e-01,7.460860e-01,3,3,1.652132e+00,1.652131e+00
8.158660e-01,7.488710e-01,3,3,1.969687e+00,1.969688e+00
8.100450e-01,7.461960e-01,3,3,1.885468e+00,1.885468e+00
8.154040e-01,7.470550e-01,3,3,2.503962e+00,2.503962e+00
8.164870e-01,7.423580e-01,3,3,1.995302e+00,1.995302e+00
8.143610e-01,7.467390e-01,3,3,1.526293e+00,1.526293e+00
8.172620e-01,7.408320e-01,3,3,1.267565e+00,1.267565e+00
8.167660e-01,7.464080e-01,3,3,1.170402e+00,1.170402e+00
8.152160e-01,7.467250e-01,3,3,1.167621e+00,1.167621e+00
8.104120e-01,7.460400e-01,3,3,1.770381e+00,1.770380e+00
8.157430e-01,7.468870e-01,3,3,1.519057e+00,1.519056e+00
8.133430e-01,7.424290e-01,3,3,1.728503e+00,1.728503e+00
8.148190e-01,7.470360e-01,3,3,1.602183e+00,1.602183e+00
8.156140e-01,7.413350e-01,3,3,1.392266e+00,1.392266e+00
8.143760e-01,7.465510e-01,3,3,1.729262e+00,1.729262e+00
8.157160e-01,7.462840e-01,3,3,2.235150e+00,2.235150e+00
8.103130e-01,7.468860e-01,3,3,2.576544e+00,2.576543e+00
8.154200e-01,7.466240e-01,3,3,1.628819e+00,1.628819e+00
8.090360e-01,7.461070e-01,3,3,2.108230e+00,2.108229e+00
8.160710e-01,7.468470e-01,3,3,1.666254e+00,1.666254e+00
8.156000e-01,7.406900e-01,3,3,1.557765e+00,1.557765e+00
8.155860e-01,7.470770e-01,3,3,1.721628e+00,1.721628e+00
8.147150e-01,7.456750e-01,3,3,1.539845e+00,1.539845e+00
8.112760e-01,7.466710e-01,3,3,1.166276e+00,1.166276e+00
8.152740e-01,7.481690e-01,3,3,1.380908e+00,1.380908e+00
8.100460e-01,7.458760e-01,3,3,8.373372e-01,8.373373e-01
8.150510e-01,7.471810e-01,3,3,8.652590e-01,8.652588e-01
8.166220e-01,7.421730e-01,3,3,6.799163e-01,6.799163e-01
8.159760e-01,7.486620e-01,3,3,7.864041e-01,7.864039e-01
8.170050e-01,7.408860e-01,3,3,1.031856e+00,1.031856e+00
8.143670e-01,7.469380e-01,3,3,8.944607e-01,8.944607e-01
8.152020e-01,7.471850e-01,3,3,2.480148e+00,2.480235e+00
1.084562e+00,9.924010e-01,4,4,4.774719e+00,4.774997e+00
1.353966e+00,9.928520e-01,5,4,3.761604e+00,3.761385e+00
8.155370e-01,7.472010e-01,3,3,2.660128e+00,2.660126e+00
8.096100e-01,7.453760e-01,3,3,1.812431e+00,1.812431e+00
8.155710e-01,7.474170e-01,3,3,2.224166e+00,2.224166e+00
8.149960e-01,7.423910e-01,3,3,1.797202e+00,1.797202e+00
8.149400e-01,7.472410e-01,3,3,1.887202e+00,1.887202e+00
8.155240e-01,7.409460e-01,3,3,2.215105e+00,2.215104e+00
8.144990e-01,7.468160e-01,3,3,2.486269e+00,2.486269e+00
8.154630e-01,7.470700e-01,3,3,2.175349e+00,2.175349e+00
8.096680e-01,7.472670e-01,3,3,2.495654e+00,2.495653e+00
8.154410e-01,7.479640e-01,3,3,3.203973e+00,3.203973e+00
8.172890e-01,7.412050e-01,3,3,2.845022e+00,2.845023e+00
8.156080e-01,7.478710e-01,3,3,2.249232e+00,2.249232e+00
8.160890e-01,7.403330e-01,3,3,1.614840e+00,1.614841e+00
8.159070e-01,7.473640e-01,3,3,1.327046e+00,1.327047e+00
8.161040e-01,7.472650e-01,3,3,1.116158e+00,1.116158e+00
8.093080e-01,7.467900e-01,3,3,1.630427e+00,1.630426e+00
8.160270e-01,7.476430e-01,3,3,1.224435e+00,1.224435e+00
8.145090e-01,7.420770e-01,3,3,1.549808e+00,1.549807e+00
8.156520e-01,7.481190e-01,3,3,1.428276e+00,1.428276e+00
8.154770e-01,7.411970e-01,3,3,1.647991e+00,1.647990e+00
8.151070e-01,7.473440e-01,3,3,2.263045e+00,2.263044e+00
8.151330e-01,7.465390e-01,3,3,1.964371e+00,1.964371e+00
8.101650e-01,7.465040e-01,3,3,1.665065e+00,1.665066e+00
8.173630e-01,7.472320e-01,3,3,2.479846e+00,2.479846e+00
8.093640e-01,7.460110e-01,3,3,2.559614e+00,2.559614e+00
8.157510e-01,7.469400e-01,3,3,1.395358e+00,1.395358e+00
8.340550e-01,7.196430e-01,3,3,1.489859e+00,1.489859e+00
8.155960e-01,7.527350e-01,3,3,1.666374e+00,1.666374e+00
8.195840e-01,7.194500e-01,3,3,1.828933e+00,1.828933e+00
8.167920e-01,7.508730e-01,3,3,1.399468e+00,1.399468e+00
8.176740e-01,7.405560e-01,3,3,1.158725e+00,1.158725e+00
8.104930e-01,7.404740e-01,3,3,1.474663e+00,1.474662e+00
8.167480e-01,7.514500e-01,3,3,2.003372e+00,2.003371e+00
8.065550e-01,7.332470e-01,3,3,2.322817e+00,2.322816e+00
8.173310e-01,7.509840e-01,3,3,1.817265e+00,1.817265e+00
8.184940e-01,7.205680e-01,3,3,1.874526e+00,1.874526e+00
8.165620e-01,7.504610e-01,3,3,1.693972e+00,1.693972e+00
8.175400e-01,7.383140e-01,3,3,2.282652e+00,2.282651e+00
7.992110e-01,7.500900e-01,3,3,2.684286e+00,2.684286e+00
8.181120e-01,7.505120e-01,3,3,3.679943e+00,3.679942e+00
7.867490e-01,7.751290e-01,3,3,3.506583e+00,3.506583e+00
8.157780e-01,7.756480e-01,3,3,5.280017e+00,5.279950e+00
1.076599e+00,9.889950e-01,4,4,2.901809e+00,2.901809e+00
8.176480e-01,7.456840e-01,3,3,2.791306e+00,2.791306e+00
8.169160e-01,7.501220e-01,3,3,3.252010e+00,3.252009e+00
8.191470e-01,7.510860e-01,3,3,3.315821e+00,3.315820e+00
7.865760e-01,7.509470e-01,3,3,3.506553e+00,3.506553e+00
8.182620e-01,7.463110e-01,3,3,3.356558e+00,3.356558e+00
8.145520e-01,7.405720e-01,3,3,2.528903e+00,2.528903e+00
8.157750e-01,7.474380e-01,3,3,3.041811e+00,3.041810e+00
8.159790e-01,7.409580e-01,3,3,2.670955e+00,2.670955e+00
8.155410e-01,7.458680e-01,3,3,1.827527e+00,1.827528e+00
8.154200e-01,7.464010e-01,3,3,1.522044e+00,1.522044e+00
8.088980e-01,7.468400e-01,3,3,1.524727e+00,1.524727e+00
8.156320e-01,7.476020e-01,3,3,1.424028e+00,1.424028e+00
8.151970e-01,7.413260e-01,3,3,1.286875e+00,1.286875e+00
8.145550e-01,7.469340e-01,3,3,1.436565e+00,1.436565e+00
8.154870e-01,7.415230e-01,3,3,1.632984e+00,1.632983e+00
8.158080e-01,7.482880e-01,3,3,2.837291e+00,2.837289e+00
8.166450e-01,7.467380e-01,3,3,2.167057e+00,2.167056e+00
8.101090e-01,7.465550e-01,3,3,2.871060e+00,2.871060e+00
8.161290e-01,7.474790e-01,3,3,1.569096e+00,1.569096e+00
8.141250e-01,7.419290e-01,3,3,1.496851e+00,1.496851e+00
8.160440e-01,7.480230e-01,3,3,1.149647e+00,1.149647e+00
8.158520e-01,7.411820e-01,3,3,8.732170e-01,8.732169e-01
8.146160e-01,7.467680e-01,3,3,1.659078e+00,1.659077e+00
8.154650e-01,7.454220e-01,3,3,1.925224e+00,1.925224e+00
8.092940e-01,7.455390e-01,3,3,2.817887e+00,2.817886e+00
8.151970e-01,7.466390e-01,3,3,2.754762e+00,2.754762e+00
8.098360e-01,7.474810e-01,3,3,2.781997e+00,2.781997e+00
8.151670e-01,7.467490e-01,3,3,4.362834e+00,4.362833e+00
8.159240e-01,7.414970e-01,3,3,4.859261e+00,4.859261e+00
8.159680e-01,7.473930e-01,3,3,3.831587e+00,3.831588e+00
8.152330e-01,7.410260e-01,3,3,3.561611e+00,3.561612e+00
8.152210e-01,7.471080e-01,3,3,4.736139e+00,4.736137e+00
8.159460e-01,7.475240e-01,3,3,3.264612e+00,3.264613e+00
8.100180e-01,7.463010e-01,3,3,2.808606e+00,2.808607e+00
8.164010e-01,7.471250e-01,3,3,2.685665e+00,2.685664e+00
8.145520e-01,7.413280e-01,3,3,2.725045e+00,2.725044e+00
8.145680e-01,7.471490e-01,3,3,2.645758e+00,2.645757e+00
8.154850e-01,7.408440e-01,3,3,2.394701e+00,2.394700e+00
8.143080e-01,7.463060e-01,3,3,2.533945e+00,2.533945e+00
8.156450e-01,7.463910e-01,3,3,3.060525e+00,3.060527e+00
8.097700e-01,7.461220e-01,3,3,3.662159e+00,3.662219e+00
8.166600e-01,7.467350e-01,3,3,2.935457e+00,2.935727e+00
8.150180e-01,9.915590e-01,3,4,3.018212e+00,3.018216e+00
8.102320e-01,7.463070e-01,3,3,2.485155e+00,2.485157e+00
8.158480e-01,7.464940e-01,3,3,2.642244e+00,2.642264e+00

