5.704170e-01,5.031670e-01,2,2,0.000000e+00,0.000000e+00
8.167150e-01,7.473120e-01,3,3,9.908744e-02,9.908743e-02
8.189320e-01,7.413270e-01,3,3,1.830848e-01,1.830848e-01
8.183620e-01,7.472160e-01,3,3,3.864811e-01,3.864809e-01
8.182120e-01,7.463360e-01,3,3,4.004133e-01,4.004132e-01
8.123820e-01,7.464580e-01,3,3,1.918494e+00,1.918493e+00
8.200610e-01,7.463940e-01,3,3,2.527490e+00,2.527490e+00
8.193820e-01,7.419150e-01,3,3,3.552445e+00,3.552445e+00
8.407090e-01,7.486560e-01,3,3,2.030777e+00,2.030777e+00
8.193960e-01,7.414810e-01,3,3,2.053681e+00,2.053680e+00
8.193430e-01,7.556730e-01,3,3,2.090158e+00,2.090158e+00
8.203920e-01,7.468540e-01,3,3,2.228142e+00,2.228142e+00
8.131620e-01,7.458850e-01,3,3,2.966620e+00,2.966619e+00
8.195820e-01,7.532900e-01,3,3,3.719657e+00,3.719657e+00
8.188270e-01,7.419020e-01,3,3,3.608146e+00,3.608146e+00
8.174190e-01,7.474570e-01,3,3,4.378298e+00,4.378297e+00
8.190050e-01,7.415730e-01,3,3,3.707490e+00,3.707490e+00
8.181240e-01,7.465120e-01,3,3,3.390156e+00,3.390156e+00
8.186120e-01,7.464570e-01,3,3,3.082943e+00,3.082943e+00
8.125990e-01,7.464060e-01,3,3,2.781092e+00,2.781092e+00
8.192390e-01,7.464460e-01,3,3,3.038366e+00,3.038365e+00
8.181000e-01,7.415650e-01,3,3,2.594647e+00,2.594647e+00
8.185060e-01,7.463200e-01,3,3,2.608640e+00,2.608640e+00
8.202580e-01,7.410100e-01,3,3,2.541393e+00,2.541392e+00
8.189630e-01,7.460230e-01,3,3,2.792866e+00,2.792866e+00
8.186800e-01,7.459710e-01,3,3,3.060493e+00,3.060492e+00
8.136610e-01,7.459170e-01,3,3,2.897606e+00,2.897606e+00
8.195360e-01,7.451810e-01,3,3,3.112618e+00,3.112618e+00
8.183760e-01,7.416270e-01,3,3,2.546094e+00,2.546094e+00
8.178650e-01,7.467820e-01,3,3,2.203587e+00,2.203587e+00
8.184510e-01,7.416500e-01,3,3,2.028661e+00,2.028661e+00
8.182840e-01,7.470230e-01,3,3,1.528637e+00,1.528637e+00
8.182110e-01,7.460040e-01,3,3,1.391296e+00,1.391296e+00
8.121810e-01,7.463680e-01,3,3,1.867830e+00,1.867830e+00
8.177370e-01,7.458190e-01,3,3,1.291775e+00,1.291775e+00
8.128760e-01,7.449410e-01,3,3,1.416054e+00,1.416053e+00
8.183090e-01,7.469100e-01,3,3,1.081417e+00,1.081417e+00
8.179570e-01,7.410930e-01,3,3,1.069540e+00,1.069540e+00
8.176980e-01,7.462900e-01,3,3,1.420408e+00,1.420407e+00
8.176600e-01,7.451070e-01,3,3,1.504707e+00,1.504707e+00
8.133690e-01,7.459740e-01,3,3,3.236998e+00,3.236997e+00
8.191680e-01,7.455700e-01,3,3,4.485951e+00,4.485952e+00
8.136900e-01,7.461400e-01,3,3,3.104511e+00,3.104518e+00
8.183050e-01,7.464770e-01,3,3,4.548691e+00,4.548704e+00
8.190550e-01,7.414270e-01,3,3,3.578503e+00,3.578505e+00
8.184540e-01,7.468210e-01,3,3,3.266055e+00,3.266055e+00
8.170000e-01,7.460760e-01,3,3,3.272182e+00,3.272182e+00
8.135250e-01,7.463080e-01,3,3,3.130258e+00,3.130258e+00
8.194220e-01,7.474930e-01,3,3,2.667689e+00,2.667690e+00
8.131030e-01,7.462110e-01,3,3,1.781321e+00,1.781321e+00
8.192980e-01,7.469660e-01,3,3,1.745463e+00,1.745462e+00
8.206770e-01,7.411670e-01,3,3,2.233033e+00,2.233033e+00
8.193810e-01,7.464430e-01,3,3,1.661500e+00,1.661500e+00
8.182740e-01,7.403180e-01,3,3,1.421423e+00,1.421423e+00
8.175290e-01,7.465490e-01,3,3,1.689385e+00,1.689386e+00
8.184550e-01,7.463860e-01,3,3,2.190710e+00,2.191300e+00
1.085399e+00,9.916700e-01,4,4,1.530992e+00,1.530992e+00
8.180360e-01,7.412560e-01,3,3,2.360318e+00,2.360317e+00
8.184440e-01,7.458360e-01,3,3,3.150872e+00,3.150872e+00
8.195320e-01,7.415220e-01,3,3,4.373944e+00,4.373944e+00
8.184150e-01,7.463710e-01,3,3,2.455006e+00,2.455006e+00
8.182650e-01,7.466550e-01,3,3,3.968519e+00,3.968518e+00
8.130430e-01,7.462890e-01,3,3,6.119308e+00,6.119347e+00
8.180170e-01,7.468560e-01,3,3,4.278523e+00,4.278572e+00
8.172820e-01,7.413550e-01,3,3,5.068578e+00,5.068681e+00
1.086346e+00,9.901610e-01,4,4,2.274826e+00,2.274826e+00
8.184710e-01,7.463140e-01,3,3,2.477333e+00,2.477349e+00
8.182810e-01,7.412310e-01,3,3,2.541243e+00,2.541243e+00
8.170680e-01,7.460920e-01,3,3,1.803083e+00,1.803083e+00
8.182590e-01,7.475100e-01,3,3,1.864154e+00,1.864153e+00
8.131610e-01,7.467600e-01,3,3,2.382283e+00,2.382283e+00
8.186630e-01,7.471080e-01,3,3,2.542669e+00,2.542668e+00
8.187210e-01,7.410870e-01,3,3,2.697453e+00,2.697453e+00
8.182330e-01,7.463960e-01,3,3,2.732533e+00,2.732533e+00
8.187810e-01,7.413890e-01,3,3,3.225733e+00,3.225732e+00
8.184880e-01,7.455650e-01,3,3,4.639273e+00,4.639272e+00
8.187940e-01,7.459290e-01,3,3,3.460144e+00,3.460144e+00
8.131220e-01,7.465300e-01,3,3,3.398097e+00,3.398097e+00
8.195250e-01,7.459940e-01,3,3,3.052349e+00,3.052349e+00
8.185350e-01,7.416260e-01,3,3,1.620253e+00,1.620254e+00
8.183070e-01,7.465620e-01,3,3,2.298991e+00,2.298990e+00
8.188100e-01,7.403380e-01,3,3,1.924072e+00,1.924072e+00
8.174910e-01,7.456230e-01,3,3,1.552300e+00,1.552300e+00
8.180430e-01,7.459630e-01,3,3,1.426329e+00,1.426328e+00
8.124010e-01,7.461800e-01,3,3,2.432690e+00,2.432690e+00
8.194230e-01,7.474560e-01,3,3,3.818957e+00,3.818956e+00
8.183200e-01,7.407740e-01,3,3,5.342808e+00,5.342807e+00
8.182010e-01,7.471330e-01,3,3,8.007202e+00,8.007203e+00
8.178130e-01,7.421860e-01,3,3,7.407870e+00,7.407873e+00
8.183680e-01,7.462270e-01,3,3,5.837881e+00,5.837883e+00
8.192150e-01,7.467790e-01,3,3,4.566741e+00,4.566744e+00
8.132390e-01,7.462000e-01,3,3,3.473572e+00,3.473573e+00
8.181830e-01,7.470870e-01,3,3,4.502647e+00,4.502651e+00
8.183740e-01,7.407300e-01,3,3,3.657851e+00,3.657864e+00
8.170290e-01,7.466340e-01,3,3,4.215314e+00,4.214901e+00
1.899514e+00,9.916710e-01,7,4,4.593059e+00,4.585343e+00
1.086156e+00,9.922360e-01,4,4,2.497557e+00,2.497557e+00
8.184950e-01,7.413260e-01,3,3,2.133626e+00,2.133627e+00
8.176450e-01,7.465330e-01,3,3,2.617786e+00,2.617786e+00
8.176480e-01,7.462830e-01,3,3,2.914690e+00,2.914690e+00
8.135130e-01,7.461230e-01,3,3,2.223575e+00,2.223575e+00
8.181950e-01,7.467960e-01,3,3,2.503944e+00,2.503944e+00
8.175080e-01,7.417840e-01,3,3,1.777513e+00,1.777513e+00
8.175640e-01,7.467460e-01,3,3,1.624392e+00,1.624392e+00
8.184180e-01,7.408360e-01,3,3,1.363900e+00,1.363901e+00
8.170860e-01,7.460840e-01,3,3,1.328357e+00,1.328357e+00
8.185580e-01,7.456550e-01,3,3,1.974501e+00,1.974500e+00
8.126200e-01,7.463530e-01,3,3,2.126135e+00,2.126135e+00
8.184790e-01,7.458000e-01,3,3,2.027877e+00,2.027877e+00
8.128670e-01,7.455960e-01,3,3,1.623192e+00,1.623193e+00
8.179180e-01,7.469430e-01,3,3,1.517089e+00,1.517089e+00
8.184980e-01,7.407380e-01,3,3,1.328343e+00,1.328342e+00
8.171220e-01,7.468370e-01,3,3,1.522571e+00,1.522571e+00
8.188950e-01,7.453310e-01,3,3,1.943279e+00,1.943279e+00
8.130120e-01,7.474830e-01,3,3,1.205772e+00,1.205772e+00
8.185760e-01,7.469190e-01,3,3,9.240598e-01,9.240598e-01
8.127710e-01,7.460450e-01,3,3,1.799914e+00,1.799914e+00
8.180460e-01,7.462840e-01,3,3,1.679150e+00,1.679150e+00
8.184920e-01,7.409060e-01,3,3,3.642152e+00,3.642150e+00
8.182550e-01,7.480530e-01,3,3,2.785940e+00,2.785941e+00
8.191120e-01,7.460320e-01,3,3,3.126841e+00,3.126840e+00
8.141100e-01,7.469400e-01,3,3,4.228689e+00,4.228688e+00
8.191960e-01,7.472670e-01,3,3,3.861128e+00,3.861128e+00
8.130540e-01,7.466960e-01,3,3,4.115997e+00,4.115997e+00
8.185350e-01,7.468500e-01,3,3,5.705301e+00,5.705326e+00
8.173810e-01,7.418760e-01,3,3,4.050924e+00,4.050959e+00
8.182110e-01,7.456110e-01,3,3,3.627890e+00,3.627892e+00
8.186200e-01,7.407570e-01,3,3,3.448386e+00,3.448386e+00
8.175750e-01,7.457450e-01,3,3,2.349688e+00,2.349688e+00
8.185940e-01,7.461530e-01,3,3,3.007672e+00,3.007671e+00
8.128140e-01,7.462720e-01,3,3,2.631415e+00,2.631415e+00
8.195330e-01,7.471070e-01,3,3,2.218170e+00,2.218170e+00
8.184260e-01,7.400120e-01,3,3,1.688155e+00,1.688155e+00
8.172740e-01,7.466580e-01,3,3,1.533558e+00,1.533558e+00
8.180510e-01,7.407900e-01,3,3,1.485565e+00,1.485565e+00
8.186630e-01,7.451450e-01,3,3,1.671858e+00,1.671857e+00
8.187750e-01,7.462940e-01,3,3,1.855017e+00,1.855016e+00
8.127250e-01,7.460350e-01,3,3,1.475156e+00,1.475157e+00
8.186890e-01,7.468360e-01,3,3,1.665585e+00,1.665585e+00
8.183600e-01,7.408560e-01,3,3,1.467621e+00,1.467621e+00
8.277630e-01,7.478380e-01,3,3,2.333417e+00,2.333416e+00
8.185830e-01,7.409420e-01,3,3,3.605091e+00,3.605090e+00
8.183780e-01,7.463200e-01,3,3,4.568632e+00,4.568631e+00
8.189600e-01,7.464840e-01,3,3,4.261223e+00,4.261228e+00
8.132180e-01,7.468170e-01,3,3,4.285569e+00,4.285575e+00
8.191990e-01,7.470820e-01,3,3,3.905530e+00,3.905533e+00
8.185870e-01,7.411830e-01,3,3,3.413203e+00,3.413207e+00
8.182640e-01,7.466160e-01,3,3,3.128338e+00,3.128362e+00
8.191050e-01,7.407380e-01,3,3,2.988037e+00,2.988201e+00
8.188390e-01,7.460170e-01,3,3,3.031119e+00,3.031115e+00
8.179900e-01,7.477600e-01,3,3,2.181170e+00,2.181170e+00
8.129160e-01,7.463750e-01,3,3,2.614776e+00,2.614776e+00
8.186520e-01,7.458390e-01,3,3,2.254792e+00,2.254792e+00
8.184300e-01,7.406410e-01,3,3,1.836183e+00,1.836183e+00
8.178110e-01,7.463090e-01,3,3,1.411363e+00,1.411363e+00
8.194260e-01,7.413600e-01,3,3,1.350339e+00,1.350339e+00
8.173680e-01,7.457620e-01,3,3,2.127462e+00,2.127461e+00
8.176240e-01,7.466170e-01,3,3,1.830995e+00,1.830995e+00
8.119660e-01,7.469130e-01,3,3,1.993370e+00,1.993370e+00
8.184470e-01,7.468180e-01,3,3,2.277235e+00,2.277235e+00
8.177770e-01,7.410050e-01,3,3,1.177537e+00,1.177537e+00
8.183190e-01,7.464390e-01,3,3,9.813271e-01,9.813269e-01
8.184350e-01,7.408090e-01,3,3,1.014523e+00,1.014523e+00
8.187170e-01,7.458550e-01,3,3,5.392685e-01,5.392684e-01
8.175400e-01,7.464580e-01,3,3,4.426792e-01,4.426791e-01
8.127190e-01,7.464460e-01,3,3,7.662471e-01,7.662468e-01
8.186330e-01,7.461420e-01,3,3,6.333886e-01,6.333886e-01
8.174570e-01,7.408420e-01,3,3,1.481482e+00,1.481481e+00
8.175090e-01,7.467880e-01,3,3,1.311582e+00,1.311581e+00
8.179910e-01,7.411090e-01,3,3,9.149925e-01,9.149925e-01
8.178670e-01,7.465300e-01,3,3,9.289488e-01,9.289487e-01
8.175310e-01,7.465420e-01,3,3,9.930077e-01,9.930074e-01
8.131120e-01,7.466540e-01,3,3,1.162190e+00,1.162190e+00
8.179720e-01,7.457900e-01,3,3,8.621851e-01,8.621851e-01
8.169500e-01,7.420050e-01,3,3,8.592674e-01,8.592673e-01
8.175060e-01,7.464080e-01,3,3,9.540822e-01,9.540819e-01
8.189310e-01,7.412050e-01,3,3,9.152085e-01,9.152084e-01
8.173080e-01,7.454990e-01,3,3,2.005621e+00,2.005621e+00
8.188120e-01,7.459280e-01,3,3,2.233354e+00,2.233353e+00
8.129250e-01,7.466990e-01,3,3,2.603931e+00,2.603931e+00
8.181600e-01,7.463590e-01,3,3,3.533052e+00,3.533052e+00
8.125650e-01,7.461730e-01,3,3,3.124837e+00,3.124837e+00
8.174280e-01,7.466950e-01,3,3,3.461928e+00,3.461928e+00
8.181300e-01,7.413440e-01,3,3,3.187952e+00,3.187952e+00
8.184170e-01,7.465280e-01,3,3,2.933725e+00,2.933725e+00
8.182890e-01,7.450560e-01,3,3,3.492194e+00,3.492194e+00
8.122270e-01,7.462160e-01,3,3,4.590567e+00,4.590566e+00
8.182620e-01,7.469870e-01,3,3,5.112532e+00,5.112532e+00
8.132620e-01,7.458670e-01,3,3,4.447342e+00,4.447342e+00
8.182520e-01,7.467230e-01,3,3,4.295995e+00,4.295995e+00
8.185870e-01,7.421790e-01,3,3,4.191386e+00,4.191387e+00
8.187620e-01,7.461690e-01,3,3,3.769928e+00,3.769929e+00
8.171870e-01,7.408840e-01,3,3,3.753979e+00,3.753987e+00
8.161620e-01,7.465730e-01,3,3,3.421219e+00,3.421308e+00
1.085235e+00,9.918750e-01,4,4,2.896835e+00,2.896835e+00
8.187610e-01,7.465820e-01,3,3,2.392925e+00,2.392925e+00
8.179880e-01,7.416940e-01,3,3,3.622258e+00,3.622323e+00
8.184260e-01,9.918140e-01,3,4,5.472756e+00,5.471883e+00
1.898855e+00,1.481820e+00,7,6,5.899352e+00,5.901368e+00
1.628188e+00,1.486875e+00,6,6,6.115935e+00,6.105755e+00
1.355040e+00,9.905840e-01,5,4,7.204726e+00,7.207773e+00
1.089153e+00,7.470370e-01,4,3,9.397677e+00,9.397696e+00
8.194930e-01,7.409050e-01,3,3,6.575524e+00,6.575538e+00
8.178710e-01,7.467680e-01,3,3,8.316423e+00,8.316447e+00
8.182990e-01,7.457550e-01,3,3,7.192597e+00,7.192616e+00
8.131950e-01,7.469360e-01,3,3,6.453886e+00,6.454001e+00
8.188560e-01,7.469020e-01,3,3,5.235356e+00,5.235571e+00
8.127050e-01,7.454530e-01,3,3,5.694258e+00,5.695957e+00
1.628777e+00,9.924760e-01,6,4,4.836116e+00,4.837998e+00
1.624071e+00,1.486740e+00,6,6,5.720423e+00,5.722479e+00
1.359589e+00,9.912050e-01,5,4,2.768204e+00,2.765648e+00
8.177290e-01,7.470610e-01,3,3,2.548097e+00,2.548074e+00
8.171130e-01,7.411220e-01,3,3,3.147424e+00,3.147424e+00
8.181390e-01,7.464540e-01,3,3,2.197661e+00,2.197663e+00
8.186180e-01,7.457400e-01,3,3,3.088294e+00,3.088292e+00
8.136790e-01,7.463570e-01,3,3,3.215869e+00,3.215869e+00
8.191970e-01,7.463960e-01,3,3,4.939711e+00,4.939755e+00
8.191120e-01,7.406360e-01,3,3,3.018269e+00,3.018278e+00
8.176390e-01,7.466150e-01,3,3,3.113265e+00,3.113265e+00
8.185430e-01,7.411520e-01,3,3,2.885547e+00,2.885547e+00
8.173650e-01,7.471590e-01,3,3,2.765954e+00,2.765953e+00
8.191690e-01,7.463060e-01,3,3,2.950658e+00,2.950658e+00
8.134310e-01,7.459820e-01,3,3,4.039804e+00,4.039803e+00
8.189710e-01,7.469930e-01,3,3,2.786400e+00,2.786401e+00
8.197320e-01,7.411040e-01,3,3,2.206831e+00,2.206831e+00
8.183290e-01,7.486210e-01,3,3,2.451651e+00,2.451651e+00
8.196010e-01,7.405470e-01,3,3,2.519328e+00,2.519327e+00
8.178200e-01,7.470020e-01,3,3,2.001430e+00,2.001430e+00
8.196170e-01,7.460120e-01,3,3,2.147694e+00,2.147694e+00
8.136760e-01,7.461090e-01,3,3,2.812806e+00,2.812806e+00
8.206650e-01,7.468680e-01,3,3,3.675509e+00,3.675509e+00
8.173790e-01,7.419790e-01,3,3,6.007857e+00,6.007855e+00
8.177170e-01,7.465500e-01,3,3,7.789494e+00,7.789501e+00
8.190620e-01,7.412710e-01,3,3,6.328865e+00,6.328870e+00
8.177750e-01,7.468410e-01,3,3,7.586266e+00,7.586268e+00
8.196040e-01,7.460490e-01,3,3,5.909374e+00,5.909376e+00
8.133870e-01,7.470970e-01,3,3,4.473771e+00,4.473773e+00
8.182410e-01,7.479690e-01,3,3,5.146766e+00,5.146776e+00
8.176410e-01,7.413320e-01,3,3,3.941951e+00,3.941956e+00
8.185500e-01,7.467740e-01,3,3,3.163595e+00,3.163594e+00
8.195700e-01,7.415410e-01,3,3,2.100495e+00,2.100495e+00
8.181800e-01,7.472080e-01,3,3,1.958993e+00,1.958993e+00
8.182440e-01,7.457790e-01,3,3,1.860498e+00,1.860498e+00
8.128360e-01,7.464120e-01,3,3,2.491525e+00,2.491524e+00
8.181810e-01,7.460980e-01,3,3,1.118816e+00,1.118816e+00
8.167360e-01,7.426230e-01,3,3,2.734525e+00,2.734548e+00
8.177310e-01,7.470410e-01,3,3,5.159402e+00,5.160938e+00
1.904592e+00,1.237215e+00,7,5,3.059235e+00,3.072040e+00
8.177300e-01,7.460320e-01,3,3,2.016788e+00,2.016803e+00
8.132810e-01,7.465070e-01,3,3,2.082794e+00,2.082794e+00
8.196140e-01,7.471530e-01,3,3,2.003212e+00,2.003212e+00
8.129970e-01,7.423280e-01,3,3,1.854253e+00,1.854253e+00
8.175050e-01,7.466290e-01,3,3,2.630193e+00,2.630192e+00
8.194770e-01,7.414590e-01,3,3,2.160530e+00,2.160531e+00
8.182120e-01,7.457840e-01,3,3,1.642397e+00,1.642397e+00
8.185930e-01,7.454920e-01,3,3,1.794676e+00,1.794678e+00
8.127300e-01,7.450580e-01,3,3,3.246681e+00,3.247192e+00
1.628820e+00,1.481772e+00,6,6,5.106671e+00,5.089439e+00
1.899786e+00,1.486581e+00,7,6,8.574018e+00,8.568843e+00
1.354052e+00,1.237889e+00,5,5,1.002274e+01,1.002939e+01
1.089445e+00,9.917340e-01,4,4,9.425961e+00,9.425963e+00
8.185240e-01,7.466250e-01,3,3,1.023035e+01,1.023092e+01
8.187490e-01,7.412980e-01,3,3,9.147323e+00,9.150291e+00
8.178700e-01,9.935340e-01,3,4,9.796306e+00,9.795140e+00
1.091838e+00,1.487716e+00,4,6,9.621782e+00,9.630854e+00
1.627810e+00,1.488480e+00,6,6,8.091302e+00,8.099141e+00
1.631747e+00,1.483133e+00,6,6,7.219551e+00,7.228604e+00
1.633133e+00,1.483285e+00,6,6,5.846923e+00,5.843502e+00
1.090011e+00,9.920460e-01,4,4,5.657363e+00,5.657812e+00
1.629712e+00,1.483408e+00,6,6,5.912424e+00,5.931046e+00
1.629021e+00,1.487185e+00,6,6,7.298653e+00,7.294508e+00
1.627975e+00,1.488221e+00,6,6,1.216031e+01,1.215639e+01
1.624577e+00,1.486064e+00,6,6,1.380437e+01,1.380439e+01
2.174982e+00,1.482056e+00,8,6,1.548385e+01,1.547261e+01
1.627764e+00,1.488107e+00,6,6,1.408666e+01,1.409167e+01
1.624126e+00,9.919410e-01,6,4,1.510060e+01,1.473676e+01
1.086204e+00,1.485798e+00,4,6,1.825347e+01,1.826344e+01
1.354528e+00,1.486764e+00,5,6,1.738369e+01,1.740929e+01
1.625746e+00,1.488320e+00,6,6,1.563716e+01,1.565794e+01
1.627495e+00,1.489012e+00,6,6,1.382023e+01,1.384144e+01
1.625445e+00,1.487107e+00,6,6,1.259986e+01,1.258588e+01
1.088991e+00,1.486987e+00,4,6,1.102046e+01,1.104332e+01
1.625573e+00,1.488175e+00,6,6,1.019029e+01,1.018893e+01
1.627104e+00,1.486974e+00,6,6,1.091349e+01,1.090715e+01
1.623790e+00,1.486818e+00,6,6,7.920284e+00,7.920816e+00
1.629532e+00,1.481569e+00,6,6,7.265713e+00,7.264906e+00
1.630858e+00,1.482007e+00,6,6,7.525616e+00,7.524043e+00
1.627895e+00,1.481076e+00,6,6,6.242123e+00,6.237499e+00
1.085746e+00,1.485648e+00,4,6,5.391051e+00,5.407294e+00
1.898411e+00,1.481515e+00,7,6,5.078479e+00,5.079881e+00
1.084746e+00,9.909300e-01,4,4,4.060099e+00,4.060141e+00
8.167160e-01,7.465320e-01,3,3,1.990783e+00,1.990787e+00
8.187110e-01,7.410030e-01,3,3,2.070152e+00,2.070152e+00
8.179500e-01,7.456050e-01,3,3,2.285529e+00,2.285529e+00
8.181350e-01,7.472300e-01,3,3,2.377009e+00,2.377009e+00
8.122530e-01,7.460810e-01,3,3,2.379837e+00,2.379837e+00
8.182580e-01,7.465990e-01,3,3,1.665998e+00,1.665998e+00
8.182230e-01,7.414530e-01,3,3,2.402465e+00,2.402464e+00
8.190260e-01,7.462150e-01,3,3,3.570747e+00,3.570746e+00
8.187750e-01,7.406730e-01,3,3,4.046288e+00,4.046288e+00
8.174810e-01,7.462170e-01,3,3,3.646139e+00,3.646139e+00
8.177990e-01,7.478270e-01,3,3,3.447836e+00,3.447836e+00
8.126370e-01,7.453700e-01,3,3,3.307715e+00,3.307715e+00
8.181640e-01,7.466040e-01,3,3,3.260138e+00,3.260138e+00
8.172040e-01,7.413860e-01,3,3,2.620375e+00,2.620375e+00
8.185530e-01,7.470220e-01,3,3,2.829010e+00,2.829010e+00
8.180970e-01,7.412780e-01,3,3,5.565123e+00,5.565222e+00
8.168660e-01,7.463430e-01,3,3,7.030485e+00,7.031217e+00
1.628925e+00,1.482914e+00,6,6,8.564257e+00,8.567939e+00
1.626919e+00,1.234955e+00,6,5,7.678077e+00,7.679457e+00
1.896284e+00,1.482275e+00,7,6,6.771391e+00,6.771825e+00
1.086221e+00,9.924330e-01,4,4,5.895535e+00,5.895536e+00
8.198230e-01,7.462990e-01,3,3,4.914702e+00,4.914709e+00
8.192800e-01,7.467380e-01,3,3,5.071329e+00,5.071814e+00
1.624615e+00,1.485792e+00,6,6,4.700332e+00,4.693805e+00
1.622820e+00,1.485947e+00,6,6,4.346733e+00,4.344931e+00
1.623627e+00,1.487543e+00,6,6,4.858864e+00,4.856423e+00
1.627732e+00,1.482560e+00,6,6,5.835149e+00,5.833248e+00
1.358068e+00,1.976939e+00,5,8,6.525754e+00,6.536862e+00
1.362973e+00,9.922040e-01,5,4,7.801938e+00,7.801913e+00
8.189950e-01,7.412210e-01,3,3,6.628641e+00,6.628642e+00
8.199180e-01,7.468770e-01,3,3,8.778428e+00,8.778429e+00
8.185740e-01,7.411050e-01,3,3,8.946025e+00,8.946045e+00
8.175480e-01,7.464190e-01,3,3,7.906368e+00,7.906387e+00
8.191550e-01,7.471290e-01,3,3,7.196097e+00,7.196108e+00
8.132970e-01,7.465200e-01,3,3,7.764534e+00,7.764579e+00
8.272100e-01,7.483100e-01,3,3,7.230067e+00,7.230608e+00
8.185690e-01,7.403760e-01,3,3,6.192459e+00,6.194444e+00
8.184320e-01,1.237487e+00,3,5,5.242743e+00,5.255079e+00
1.898567e+00,1.241278e+00,7,5,3.744005e+00,3.754082e+00
1.088142e+00,9.917790e-01,4,4,3.311607e+00,3.313333e+00
1.087677e+00,9.913190e-01,4,4,2.183971e+00,2.184269e+00
8.178960e-01,7.416460e-01,3,3,1.462304e+00,1.462313e+00
8.182000e-01,7.473390e-01,3,3,1.584626e+00,1.584625e+00
8.176210e-01,7.414950e-01,3,3,2.097501e+00,2.097500e+00
8.187580e-01,7.474840e-01,3,3,1.451960e+00,1.451960e+00
8.183520e-01,7.453750e-01,3,3,1.841211e+00,1.841211e+00
8.126550e-01,7.463980e-01,3,3,1.945730e+00,1.945730e+00
8.209940e-01,7.461000e-01,3,3,1.790305e+00,1.790305e+00
8.168870e-01,7.421680e-01,3,3,1.817844e+00,1.817844e+00
8.183000e-01,7.475180e-01,3,3,2.031074e+00,2.031074e+00
8.185550e-01,7.402110e-01,3,3,1.875204e+00,1.875204e+00
8.177580e-01,7.466110e-01,3,3,1.529072e+00,1.529071e+00
8.182940e-01,7.461560e-01,3,3,2.085934e+00,2.085934e+00
8.133410e-01,7.466110e-01,3,3,2.067874e+00,2.067874e+00
8.201510e-01,7.474740e-01,3,3,2.175335e+00,2.175335e+00
8.125020e-01,7.478650e-01,3,3,2.007302e+00,2.007302e+00
8.181730e-01,7.465750e-01,3,3,2.966648e+00,2.966647e+00
8.187420e-01,7.416760e-01,3,3,2.841148e+00,2.841148e+00
8.177550e-01,7.461770e-01,3,3,2.393067e+00,2.393067e+00
8.180600e-01,7.471390e-01,3,3,1.803911e+00,1.803911e+00
8.131960e-01,7.462970e-01,3,3,2.764925e+00,2.764925e+00
8.184360e-01,7.459600e-01,3,3,2.640770e+00,2.640770e+00
8.112310e-01,7.463290e-01,3,3,1.918041e+00,1.918041e+00
8.179570e-01,7.469930e-01,3,3,1.888256e+00,1.888256e+00
8.188220e-01,7.419160e-01,3,3,1.693855e+00,1.693855e+00
8.175720e-01,7.469130e-01,3,3,1.928967e+00,1.928967e+00
8.186180e-01,7.461140e-01,3,3,2.706847e+00,2.706846e+00
8.125680e-01,7.463490e-01,3,3,2.874555e+00,2.874555e+00
8.179000e-01,7.469470e-01,3,3,2.797974e+00,2.797974e+00
8.129940e-01,7.467090e-01,3,3,3.941334e+00,3.941334e+00
8.188370e-01,7.464040e-01,3,3,4.567673e+00,4.567672e+00
8.183800e-01,7.406440e-01,3,3,3.291151e+00,3.291151e+00
8.180090e-01,7.467650e-01,3,3,2.677025e+00,2.677025e+00
8.185290e-01,7.413330e-01,3,3,2.876605e+00,2.876605e+00
8.182010e-01,7.468130e-01,3,3,2.351866e+00,2.351866e+00
8.182490e-01,7.465450e-01,3,3,1.867592e+00,1.867592e+00
8.135670e-01,7.474590e-01,3,3,2.564866e+00,2.564865e+00
8.184340e-01,7.460520e-01,3,3,2.737124e+00,2.737124e+00
8.184280e-01,7.417250e-01,3,3,2.141108e+00,2.141108e+00
8.179250e-01,7.467400e-01,3,3,2.867944e+00,2.867943e+00
8.187830e-01,7.413680e-01,3,3,1.975932e+00,1.975932e+00
8.166540e-01,7.458360e-01,3,3,2.148474e+00,2.148473e+00
8.185880e-01,7.468000e-01,3,3,2.114130e+00,2.114130e+00
8.117670e-01,7.469600e-01,3,3,2.473750e+00,2.473749e+00
8.187820e-01,7.464420e-01,3,3,2.220506e+00,2.220506e+00
8.179520e-01,7.410110e-01,3,3,2.322423e+00,2.322423e+00
8.186540e-01,7.464340e-01,3,3,1.825783e+00,1.825783e+00
8.190830e-01,7.411210e-01,3,3,1.652132e+00,1.652131e+00
8.181310e-01,7.450170e-01,3,3,1.969687e+00,1.969688e+00
8.193080e-01,7.461350e-01,3,3,1.885468e+00,1.885468e+00
8.131090e-01,7.462470e-01,3,3,2.503962e+00,2.503962e+00
8.185380e-01,7.463070e-01,3,3,1.995302e+00,1.995302e+00
8.182110e-01,7.410570e-01,3,3,1.526293e+00,1.526293e+00
8.185930e-01,7.454670e-01,3,3,1.267565e+00,1.267565e+00
8.181120e-01,7.408280e-01,3,3,1.170402e+00,1.170402e+00
8.182170e-01,7.463150e-01,3,3,1.167621e+00,1.167621e+00
8.188310e-01,7.465130e-01,3,3,1.770381e+00,1.770380e+00
8.132030e-01,7.473620e-01,3,3,1.519057e+00,1.519056e+00
8.177980e-01,7.462510e-01,3,3,1.728503e+00,1.728503e+00
8.176770e-01,7.413630e-01,3,3,1.602183e+00,1.602183e+00
8.179440e-01,7.462880e-01,3,3,1.392266e+00,1.392266e+00
8.179180e-01,7.409370e-01,3,3,1.729262e+00,1.729262e+00
8.181460e-01,7.467670e-01,3,3,2.235150e+00,2.235150e+00
8.192790e-01,7.456530e-01,3,3,2.576544e+00,2.576543e+00
8.122260e-01,7.461260e-01,3,3,1.628819e+00,1.628819e+00
8.185860e-01,7.469970e-01,3,3,2.108230e+00,2.108229e+00
8.178780e-01,7.412360e-01,3,3,1.666254e+00,1.666254e+00
8.180660e-01,7.460990e-01,3,3,1.557765e+00,1.557765e+00
8.196320e-01,7.418550e-01,3,3,1.721628e+00,1.721628e+00
8.177050e-01,7.464010e-01,3,3,1.539845e+00,1.539845e+00
8.172800e-01,7.457800e-01,3,3,1.166276e+00,1.166276e+00
8.132930e-01,7.471430e-01,3,3,1.380908e+00,1.380908e+00
8.186190e-01,7.463340e-01,3,3,8.373372e-01,8.373373e-01
8.170920e-01,7.413330e-01,3,3,8.652590e-01,8.652588e-01
8.182850e-01,7.464080e-01,3,3,6.799163e-01,6.799163e-01
8.181480e-01,7.407550e-01,3,3,7.864041e-01,7.864039e-01
8.184130e-01,7.468270e-01,3,3,1.031856e+00,1.031856e+00
8.181010e-01,7.464880e-01,3,3,8.944607e-01,8.944607e-01
8.126110e-01,7.462340e-01,3,3,2.480148e+00,2.480235e+00
1.090292e+00,9.902180e-01,4,4,4.774719e+00,4.774997e+00
1.362280e+00,9.920500e-01,5,4,3.761604e+00,3.761385e+00
8.127720e-01,7.452360e-01,3,3,2.660128e+00,2.660126e+00
8.201050e-01,7.462280e-01,3,3,1.812431e+00,1.812431e+00
8.173900e-01,7.415000e-01,3,3,2.224166e+00,2.224166e+00
8.171970e-01,7.467430e-01,3,3,1.797202e+00,1.797202e+00
8.194760e-01,7.404890e-01,3,3,1.887202e+00,1.887202e+00
8.181900e-01,7.461280e-01,3,3,2.215105e+00,2.215104e+00
8.186470e-01,7.464840e-01,3,3,2.486269e+00,2.486269e+00
8.131250e-01,7.476450e-01,3,3,2.175349e+00,2.175349e+00
8.181120e-01,7.460420e-01,3,3,2.495654e+00,2.495653e+00
8.129230e-01,7.473870e-01,3,3,3.203973e+00,3.203973e+00
8.181990e-01,7.471640e-01,3,3,2.845022e+00,2.845023e+00
8.192000e-01,7.412580e-01,3,3,2.249232e+00,2.249232e+00
8.189680e-01,7.462150e-01,3,3,1.614840e+00,1.614841e+00
8.186230e-01,7.459720e-01,3,3,1.327046e+00,1.327047e+00
8.120180e-01,7.473470e-01,3,3,1.116158e+00,1.116158e+00
8.194380e-01,7.457190e-01,3,3,1.630427e+00,1.630426e+00
8.128580e-01,7.467520e-01,3,3,1.224435e+00,1.224435e+00
8.188050e-01,7.465410e-01,3,3,1.549808e+00,1.549807e+00
8.185020e-01,7.408090e-01,3,3,1.428276e+00,1.428276e+00
8.168250e-01,7.475340e-01,3,3,1.647991e+00,1.647990e+00
8.186630e-01,7.456100e-01,3,3,2.263045e+00,2.263044e+00
8.139190e-01,7.464180e-01,3,3,1.964371e+00,1.964371e+00
8.183810e-01,7.468820e-01,3,3,1.665065e+00,1.665066e+00
8.119190e-01,7.460780e-01,3,3,2.479846e+00,2.479846e+00
8.183800e-01,7.475490e-01,3,3,2.559614e+00,2.559614e+00
8.188710e-01,7.411370e-01,3,3,1.395358e+00,1.395358e+00
8.187060e-01,7.460650e-01,3,3,1.489859e+00,1.489859e+00
8.189030e-01,7.409930e-01,3,3,1.666374e+00,1.666374e+00
8.180140e-01,7.458210e-01,3,3,1.828933e+00,1.828933e+00
8.188820e-01,7.465110e-01,3,3,1.399468e+00,1.399468e+00
8.132050e-01,7.472390e-01,3,3,1.158725e+00,1.158725e+00
8.188620e-01,7.480660e-01,3,3,1.474663e+00,1.474662e+00
8.180640e-01,7.408630e-01,3,3,2.003372e+00,2.003371e+00
8.179350e-01,7.468140e-01,3,3,2.322817e+00,2.322816e+00
8.184360e-01,7.410530e-01,3,3,1.817265e+00,1.817265e+00
8.172840e-01,7.466100e-01,3,3,1.874526e+00,1.874526e+00
8.183650e-01,7.467400e-01,3,3,1.693972e+00,1.693972e+00
8.131060e-01,7.461360e-01,3,3,2.282652e+00,2.282651e+00
8.198460e-01,7.459740e-01,3,3,2.684286e+00,2.684286e+00
8.181690e-01,7.408970e-01,3,3,3.679943e+00,3.679942e+00
8.181480e-01,7.472040e-01,3,3,3.506583e+00,3.506583e+00
8.170430e-01,7.401580e-01,3,3,5.280017e+00,5.279950e+00
1.088902e+00,9.920940e-01,4,4,2.901809e+00,2.901809e+00
8.119910e-01,7.463960e-01,3,3,2.791306e+00,2.791306e+00
8.185990e-01,7.473700e-01,3,3,3.252010e+00,3.252009e+00
8.182410e-01,7.500820e-01,3,3,3.315821e+00,3.315820e+00
8.457790e-01,7.507260e-01,3,3,3.506553e+00,3.506553e+00
8.086000e-01,7.458910e-01,3,3,3.356558e+00,3.356558e+00
8.457920e-01,7.517540e-01,3,3,2.528903e+00,2.528903e+00
8.466600e-01,7.769300e-01,3,3,3.041811e+00,3.041810e+00
8.149030e-01,7.630050e-01,3,3,2.670955e+00,2.670955e+00
8.085160e-01,7.776070e-01,3,3,1.827527e+00,1.827528e+00
8.208610e-01,7.199530e-01,3,3,1.522044e+00,1.522044e+00
8.444070e-01,7.507180e-01,3,3,1.524727e+00,1.524727e+00
8.217320e-01,7.388730e-01,3,3,1.424028e+00,1.424028e+00
8.261130e-01,7.753960e-01,3,3,1.286875e+00,1.286875e+00
8.444890e-01,7.751190e-01,3,3,1.436565e+00,1.436565e+00
8.196100e-01,7.450630e-01,3,3,1.632984e+00,1.632983e+00
8.437020e-01,7.253360e-01,3,3,2.837291e+00,2.837289e+00
8.459580e-01,7.622440e-01,3,3,2.167057e+00,2.167056e+00
8.270730e-01,7.512780e-01,3,3,2.871060e+00,2.871060e+00
8.452610e-01,7.529780e-01,3,3,1.569096e+00,1.569096e+00
8.166400e-01,7.407670e-01,3,3,1.496851e+00,1.496851e+00
8.178970e-01,7.467030e-01,3,3,1.149647e+00,1.149647e+00
8.181630e-01,7.413700e-01,3,3,8.732170e-01,8.732169e-01
8.171180e-01,7.471520e-01,3,3,1.659078e+00,1.659077e+00
8.187030e-01,7.463780e-01,3,3,1.925224e+00,1.925224e+00
8.133280e-01,7.464190e-01,3,3,2.817887e+00,2.817886e+00
8.192460e-01,7.462650e-01,3,3,2.754762e+00,2.754762e+00
8.172550e-01,7.412980e-01,3,3,2.781997e+00,2.781997e+00
8.175880e-01,7.478200e-01,3,3,4.362834e+00,4.362833e+00
8.194580e-01,7.412560e-01,3,3,4.859261e+00,4.859261e+00
8.187930e-01,7.459880e-01,3,3,3.831587e+00,3.831588e+00
8.181080e-01,7.463500e-01,3,3,3.561611e+00,3.561612e+00
8.125680e-01,7.462770e-01,3,3,4.736139e+00,4.736137e+00
8.189660e-01,7.464280e-01,3,3,3.264612e+00,3.264613e+00
8.180770e-01,7.413750e-01,3,3,2.808606e+00,2.808607e+00
8.180560e-01,7.466380e-01,3,3,2.685665e+00,2.685664e+00
8.181970e-01,7.411590e-01,3,3,2.725045e+00,2.725044e+00
8.170870e-01,7.466480e-01,3,3,2.645758e+00,2.645757e+00
8.188090e-01,7.482730e-01,3,3,2.394701e+00,2.394700e+00
8.134020e-01,7.463780e-01,3,3,2.533945e+00,2.533945e+00
8.190600e-01,7.458710e-01,3,3,3.060525e+00,3.060527e+00
8.190810e-01,7.407590e-01,3,3,3.662159e+00,3.662219e+00
8.179370e-01,7.466610e-01,3,3,2.935457e+00,2.935727e+00
8.188330e-01,9.913730e-01,3,4,3.018212e+00,3.018216e+00
8.133040e-01,7.463520e-01,3,3,2.485155e+00,2.485157e+00
8.176870e-01,7.465410e-01,3,3,2.642244e+00,2.642264e+00

