5.722590e-01,5.021000e-01,2,2,0.000000e+00,0.000000e+00
8.142210e-01,7.553070e-01,3,3,9.908744e-02,9.908743e-02
8.178940e-01,7.404610e-01,3,3,1.830848e-01,1.830848e-01
8.154100e-01,7.445930e-01,3,3,3.864811e-01,3.864809e-01
8.164710e-01,7.460270e-01,3,3,4.004133e-01,4.004132e-01
8.106030e-01,7.466950e-01,3,3,1.918494e+00,1.918493e+00
8.332790e-01,7.470680e-01,3,3,2.527490e+00,2.527490e+00
8.287470e-01,7.403220e-01,3,3,3.552445e+00,3.552445e+00
8.172180e-01,7.457410e-01,3,3,2.030777e+00,2.030777e+00
8.154540e-01,7.393820e-01,3,3,2.053681e+00,2.053680e+00
8.219390e-01,7.463970e-01,3,3,2.090158e+00,2.090158e+00
8.157830e-01,7.451800e-01,3,3,2.228142e+00,2.228142e+00
8.105680e-01,7.466290e-01,3,3,2.966620e+00,2.966619e+00
8.214110e-01,7.458210e-01,3,3,3.719657e+00,3.719657e+00
8.153480e-01,7.407170e-01,3,3,3.608146e+00,3.608146e+00
8.162110e-01,7.452330e-01,3,3,4.378298e+00,4.378297e+00
8.165140e-01,7.391790e-01,3,3,3.707490e+00,3.707490e+00
8.148650e-01,7.454400e-01,3,3,3.390156e+00,3.390156e+00
8.150690e-01,7.448640e-01,3,3,3.082943e+00,3.082943e+00
8.095630e-01,7.449710e-01,3,3,2.781092e+00,2.781092e+00
8.158290e-01,7.460760e-01,3,3,3.038366e+00,3.038365e+00
8.104110e-01,7.439620e-01,3,3,2.594647e+00,2.594647e+00
8.155810e-01,7.454600e-01,3,3,2.608640e+00,2.608640e+00
8.160200e-01,7.392210e-01,3,3,2.541393e+00,2.541392e+00
8.157460e-01,7.454680e-01,3,3,2.792866e+00,2.792866e+00
8.164880e-01,7.395090e-01,3,3,3.060493e+00,3.060492e+00
8.153820e-01,7.456860e-01,3,3,2.897606e+00,2.897606e+00
8.160390e-01,7.453780e-01,3,3,3.112618e+00,3.112618e+00
8.097140e-01,7.440130e-01,3,3,2.546094e+00,2.546094e+00
8.147040e-01,7.447660e-01,3,3,2.203587e+00,2.203587e+00
8.139240e-01,7.397970e-01,3,3,2.028661e+00,2.028661e+00
8.136780e-01,7.456960e-01,3,3,1.528637e+00,1.528637e+00
8.151910e-01,7.394380e-01,3,3,1.391296e+00,1.391296e+00
8.140090e-01,7.447950e-01,3,3,1.867830e+00,1.867830e+00
8.147830e-01,7.443640e-01,3,3,1.291775e+00,1.291775e+00
8.095300e-01,7.441750e-01,3,3,1.416054e+00,1.416053e+00
8.157440e-01,7.440510e-01,3,3,1.081417e+00,1.081417e+00
8.136540e-01,7.393540e-01,3,3,1.069540e+00,1.069540e+00
8.152720e-01,7.442900e-01,3,3,1.420408e+00,1.420407e+00
8.148460e-01,7.390010e-01,3,3,1.504707e+00,1.504707e+00
8.154260e-01,7.447070e-01,3,3,3.236998e+00,3.236997e+00
8.150010e-01,7.443940e-01,3,3,4.485951e+00,4.485952e+00
8.100190e-01,7.443320e-01,3,3,3.104511e+00,3.104518e+00
8.153670e-01,7.456180e-01,3,3,4.548691e+00,4.548704e+00
8.086650e-01,7.450640e-01,3,3,3.578503e+00,3.578505e+00
8.145250e-01,7.449530e-01,3,3,3.266055e+00,3.266055e+00
8.147000e-01,7.399010e-01,3,3,3.272182e+00,3.272182e+00
8.161820e-01,7.458300e-01,3,3,3.130258e+00,3.130258e+00
8.152980e-01,7.393290e-01,3,3,2.667689e+00,2.667690e+00
8.151140e-01,7.440910e-01,3,3,1.781321e+00,1.781321e+00
8.150520e-01,7.449520e-01,3,3,1.745463e+00,1.745462e+00
8.098990e-01,7.443980e-01,3,3,2.233033e+00,2.233033e+00
8.155220e-01,7.447610e-01,3,3,1.661500e+00,1.661500e+00
8.341090e-01,7.401620e-01,3,3,1.421423e+00,1.421423e+00
8.168000e-01,7.456310e-01,3,3,1.689385e+00,1.689386e+00
8.150630e-01,7.391210e-01,3,3,2.190710e+00,2.191300e+00
1.097979e+00,9.886670e-01,4,4,1.530992e+00,1.530992e+00
8.097320e-01,7.446600e-01,3,3,2.360318e+00,2.360317e+00
8.149020e-01,7.516300e-01,3,3,3.150872e+00,3.150872e+00
8.096800e-01,7.458410e-01,3,3,4.373944e+00,4.373944e+00
8.176980e-01,7.451040e-01,3,3,2.455006e+00,2.455006e+00
8.156240e-01,7.393800e-01,3,3,3.968519e+00,3.968518e+00
8.152050e-01,7.455180e-01,3,3,6.119308e+00,6.119347e+00
8.156700e-01,7.389180e-01,3,3,4.278523e+00,4.278572e+00
8.140450e-01,7.440840e-01,3,3,5.068578e+00,5.068681e+00
1.081970e+00,9.901210e-01,4,4,2.274826e+00,2.274826e+00
8.158460e-01,7.444700e-01,3,3,2.477333e+00,2.477349e+00
8.145080e-01,7.393580e-01,3,3,2.541243e+00,2.541243e+00
8.152510e-01,7.451280e-01,3,3,1.803083e+00,1.803083e+00
8.165700e-01,7.386510e-01,3,3,1.864154e+00,1.864153e+00
8.147610e-01,7.450670e-01,3,3,2.382283e+00,2.382283e+00
8.152910e-01,7.439960e-01,3,3,2.542669e+00,2.542668e+00
8.101070e-01,7.450150e-01,3,3,2.697453e+00,2.697453e+00
8.153350e-01,7.457360e-01,3,3,2.732533e+00,2.732533e+00
8.100320e-01,7.448460e-01,3,3,3.225733e+00,3.225732e+00
8.156870e-01,7.450620e-01,3,3,4.639273e+00,4.639272e+00
8.169550e-01,7.394170e-01,3,3,3.460144e+00,3.460144e+00
8.154770e-01,7.444290e-01,3,3,3.398097e+00,3.398097e+00
8.150050e-01,7.392250e-01,3,3,3.052349e+00,3.052349e+00
8.148550e-01,7.447400e-01,3,3,1.620253e+00,1.620254e+00
8.151390e-01,7.449530e-01,3,3,2.298991e+00,2.298990e+00
8.094850e-01,7.442770e-01,3,3,1.924072e+00,1.924072e+00
8.158540e-01,7.448810e-01,3,3,1.552300e+00,1.552300e+00
8.150680e-01,7.387680e-01,3,3,1.426329e+00,1.426328e+00
8.150170e-01,7.452610e-01,3,3,2.432690e+00,2.432690e+00
8.157090e-01,7.395730e-01,3,3,3.818957e+00,3.818956e+00
8.148290e-01,7.442950e-01,3,3,5.342808e+00,5.342807e+00
8.161510e-01,7.453500e-01,3,3,8.007202e+00,8.007203e+00
8.104390e-01,7.442980e-01,3,3,7.407870e+00,7.407873e+00
8.165790e-01,7.456730e-01,3,3,5.837881e+00,5.837883e+00
8.099290e-01,7.443720e-01,3,3,4.566741e+00,4.566744e+00
8.148640e-01,7.443790e-01,3,3,3.473572e+00,3.473573e+00
8.158990e-01,7.392670e-01,3,3,4.502647e+00,4.502651e+00
8.136800e-01,7.447160e-01,3,3,3.657851e+00,3.657864e+00
8.142220e-01,7.387660e-01,3,3,4.215314e+00,4.214901e+00
1.891918e+00,9.884160e-01,7,4,4.593059e+00,4.585343e+00
1.081428e+00,9.880840e-01,4,4,2.497557e+00,2.497557e+00
8.138730e-01,7.449680e-01,3,3,2.133626e+00,2.133627e+00
8.158640e-01,7.445420e-01,3,3,2.617786e+00,2.617786e+00
8.100940e-01,7.445940e-01,3,3,2.914690e+00,2.914690e+00
8.147640e-01,7.450370e-01,3,3,2.223575e+00,2.223575e+00
8.151170e-01,7.398520e-01,3,3,2.503944e+00,2.503944e+00
8.155090e-01,7.448990e-01,3,3,1.777513e+00,1.777513e+00
8.149490e-01,7.389960e-01,3,3,1.624392e+00,1.624392e+00
8.147900e-01,7.454120e-01,3,3,1.363900e+00,1.363901e+00
8.165310e-01,7.446000e-01,3,3,1.328357e+00,1.328357e+00
8.099670e-01,7.444700e-01,3,3,1.974501e+00,1.974500e+00
8.147590e-01,7.451360e-01,3,3,2.126135e+00,2.126135e+00
8.104640e-01,7.441510e-01,3,3,2.027877e+00,2.027877e+00
8.152460e-01,7.445480e-01,3,3,1.623192e+00,1.623193e+00
8.152480e-01,7.393270e-01,3,3,1.517089e+00,1.517089e+00
8.158640e-01,7.457030e-01,3,3,1.328343e+00,1.328342e+00
8.152700e-01,7.391950e-01,3,3,1.522571e+00,1.522571e+00
8.141120e-01,7.451770e-01,3,3,1.943279e+00,1.943279e+00
8.154580e-01,7.450460e-01,3,3,1.205772e+00,1.205772e+00
8.101750e-01,7.446070e-01,3,3,9.240598e-01,9.240598e-01
8.146950e-01,7.448300e-01,3,3,1.799914e+00,1.799914e+00
8.144680e-01,7.400690e-01,3,3,1.679150e+00,1.679150e+00
8.147430e-01,7.450690e-01,3,3,3.642152e+00,3.642150e+00
8.154560e-01,7.389240e-01,3,3,2.785940e+00,2.785941e+00
8.143390e-01,7.445930e-01,3,3,3.126841e+00,3.126840e+00
8.139820e-01,7.452540e-01,3,3,4.228689e+00,4.228688e+00
8.092340e-01,7.452240e-01,3,3,3.861128e+00,3.861128e+00
8.148030e-01,7.448010e-01,3,3,4.115997e+00,4.115997e+00
8.137790e-01,7.398960e-01,3,3,5.705301e+00,5.705326e+00
8.154120e-01,7.446870e-01,3,3,4.050924e+00,4.050959e+00
8.150040e-01,7.395810e-01,3,3,3.627890e+00,3.627892e+00
8.150130e-01,7.454270e-01,3,3,3.448386e+00,3.448386e+00
8.154350e-01,7.444600e-01,3,3,2.349688e+00,2.349688e+00
8.103800e-01,7.443000e-01,3,3,3.007672e+00,3.007671e+00
8.149780e-01,7.456880e-01,3,3,2.631415e+00,2.631415e+00
8.099210e-01,7.444270e-01,3,3,2.218170e+00,2.218170e+00
8.154530e-01,7.454250e-01,3,3,1.688155e+00,1.688155e+00
8.144910e-01,7.390020e-01,3,3,1.533558e+00,1.533558e+00
8.146340e-01,7.448990e-01,3,3,1.485565e+00,1.485565e+00
8.152140e-01,7.393410e-01,3,3,1.671858e+00,1.671857e+00
8.152110e-01,7.450690e-01,3,3,1.855017e+00,1.855016e+00
8.154370e-01,7.448820e-01,3,3,1.475156e+00,1.475157e+00
8.101020e-01,7.448560e-01,3,3,1.665585e+00,1.665585e+00
8.152440e-01,7.446220e-01,3,3,1.467621e+00,1.467621e+00
8.170420e-01,7.384740e-01,3,3,2.333417e+00,2.333416e+00
8.151200e-01,7.455490e-01,3,3,3.605091e+00,3.605090e+00
8.151830e-01,7.396710e-01,3,3,4.568632e+00,4.568631e+00
8.148290e-01,7.446730e-01,3,3,4.261223e+00,4.261228e+00
8.154360e-01,7.456120e-01,3,3,4.285569e+00,4.285575e+00
8.098550e-01,7.453430e-01,3,3,3.905530e+00,3.905533e+00
8.162270e-01,7.446040e-01,3,3,3.413203e+00,3.413207e+00
8.092030e-01,7.438630e-01,3,3,3.128338e+00,3.128362e+00
8.150500e-01,7.441470e-01,3,3,2.988037e+00,2.988201e+00
8.150650e-01,7.388670e-01,3,3,3.031119e+00,3.031115e+00
8.153610e-01,7.448220e-01,3,3,2.181170e+00,2.181170e+00
8.153870e-01,7.390030e-01,3,3,2.614776e+00,2.614776e+00
8.094110e-01,7.449830e-01,3,3,2.254792e+00,2.254792e+00
8.147450e-01,7.441820e-01,3,3,1.836183e+00,1.836183e+00
8.105040e-01,7.451620e-01,3,3,1.411363e+00,1.411363e+00
8.145930e-01,7.451010e-01,3,3,1.350339e+00,1.350339e+00
8.132320e-01,7.383050e-01,3,3,2.127462e+00,2.127461e+00
8.149380e-01,7.448130e-01,3,3,1.830995e+00,1.830995e+00
8.143950e-01,7.387200e-01,3,3,1.993370e+00,1.993370e+00
8.146910e-01,7.451450e-01,3,3,2.277235e+00,2.277235e+00
8.148100e-01,7.439730e-01,3,3,1.177537e+00,1.177537e+00
8.091520e-01,7.440550e-01,3,3,9.813271e-01,9.813269e-01
8.140180e-01,7.442660e-01,3,3,1.014523e+00,1.014523e+00
8.143300e-01,7.390610e-01,3,3,5.392685e-01,5.392684e-01
8.161740e-01,7.454310e-01,3,3,4.426792e-01,4.426791e-01
8.149050e-01,7.389390e-01,3,3,7.662471e-01,7.662468e-01
8.144690e-01,7.454220e-01,3,3,6.333886e-01,6.333886e-01
8.144080e-01,7.441690e-01,3,3,1.481482e+00,1.481481e+00
8.096060e-01,7.445010e-01,3,3,1.311582e+00,1.311581e+00
8.150640e-01,7.452300e-01,3,3,9.149925e-01,9.149925e-01
8.090670e-01,7.439200e-01,3,3,9.289488e-01,9.289487e-01
8.161230e-01,7.458530e-01,3,3,9.930077e-01,9.930074e-01
8.142590e-01,7.393310e-01,3,3,1.162190e+00,1.162190e+00
8.138400e-01,7.457550e-01,3,3,8.621851e-01,8.621851e-01
8.168440e-01,7.388100e-01,3,3,8.592674e-01,8.592673e-01
8.144910e-01,7.436400e-01,3,3,9.540822e-01,9.540819e-01
8.162370e-01,7.441030e-01,3,3,9.152085e-01,9.152084e-01
8.093100e-01,7.446030e-01,3,3,2.005621e+00,2.005621e+00
8.159810e-01,7.443370e-01,3,3,2.233354e+00,2.233353e+00
8.141610e-01,7.395430e-01,3,3,2.603931e+00,2.603931e+00
8.148590e-01,7.438740e-01,3,3,3.533052e+00,3.533052e+00
8.149370e-01,7.387770e-01,3,3,3.124837e+00,3.124837e+00
8.146570e-01,7.444230e-01,3,3,3.461928e+00,3.461928e+00
8.151000e-01,7.442240e-01,3,3,3.187952e+00,3.187952e+00
8.090990e-01,7.447230e-01,3,3,2.933725e+00,2.933725e+00
8.154870e-01,7.443910e-01,3,3,3.492194e+00,3.492194e+00
8.092270e-01,7.449450e-01,3,3,4.590567e+00,4.590566e+00
8.153240e-01,7.449160e-01,3,3,5.112532e+00,5.112532e+00
8.156610e-01,7.391260e-01,3,3,4.447342e+00,4.447342e+00
8.145400e-01,7.446120e-01,3,3,4.295995e+00,4.295995e+00
8.151150e-01,7.393200e-01,3,3,4.191386e+00,4.191387e+00
8.141650e-01,7.434690e-01,3,3,3.769928e+00,3.769929e+00
8.155260e-01,7.445650e-01,3,3,3.753979e+00,3.753987e+00
8.088020e-01,7.437490e-01,3,3,3.421219e+00,3.421308e+00
1.080941e+00,9.872750e-01,4,4,2.896835e+00,2.896835e+00
8.154710e-01,7.444140e-01,3,3,2.392925e+00,2.392925e+00
8.148330e-01,7.383850e-01,3,3,3.622258e+00,3.622323e+00
8.145330e-01,9.907550e-01,3,4,5.472756e+00,5.471883e+00
1.893054e+00,1.482839e+00,7,6,5.899352e+00,5.901368e+00
1.619923e+00,1.482347e+00,6,6,6.115935e+00,6.105755e+00
1.347541e+00,9.884430e-01,5,4,7.204726e+00,7.207773e+00
1.085882e+00,7.448180e-01,4,3,9.397677e+00,9.397696e+00
8.159840e-01,7.393460e-01,3,3,6.575524e+00,6.575538e+00
8.144220e-01,7.444620e-01,3,3,8.316423e+00,8.316447e+00
8.144370e-01,7.443950e-01,3,3,7.192597e+00,7.192616e+00
8.097210e-01,7.445330e-01,3,3,6.453886e+00,6.454001e+00
8.159550e-01,7.449570e-01,3,3,5.235356e+00,5.235571e+00
8.101050e-01,7.396930e-01,3,3,5.694258e+00,5.695957e+00
1.622874e+00,9.898770e-01,6,4,4.836116e+00,4.837998e+00
1.617276e+00,1.481879e+00,6,6,5.720423e+00,5.722479e+00
1.354060e+00,9.888450e-01,5,4,2.768204e+00,2.765648e+00
8.137080e-01,7.449210e-01,3,3,2.548097e+00,2.548074e+00
8.139870e-01,7.387920e-01,3,3,3.147424e+00,3.147424e+00
8.158040e-01,7.436890e-01,3,3,2.197661e+00,2.197663e+00
8.154270e-01,7.438810e-01,3,3,3.088294e+00,3.088292e+00
8.107770e-01,7.436770e-01,3,3,3.215869e+00,3.215869e+00
8.155900e-01,7.464040e-01,3,3,4.939711e+00,4.939755e+00
8.153890e-01,7.398800e-01,3,3,3.018269e+00,3.018278e+00
8.149630e-01,7.448200e-01,3,3,3.113265e+00,3.113265e+00
8.154380e-01,7.398210e-01,3,3,2.885547e+00,2.885547e+00
8.151920e-01,7.447810e-01,3,3,2.765954e+00,2.765953e+00
8.156390e-01,7.447230e-01,3,3,2.950658e+00,2.950658e+00
8.099450e-01,7.439000e-01,3,3,4.039804e+00,4.039803e+00
8.158410e-01,7.443980e-01,3,3,2.786400e+00,2.786401e+00
8.093790e-01,7.429460e-01,3,3,2.206831e+00,2.206831e+00
8.152280e-01,7.446450e-01,3,3,2.451651e+00,2.451651e+00
8.153440e-01,7.394280e-01,3,3,2.519328e+00,2.519327e+00
8.137710e-01,7.442650e-01,3,3,2.001430e+00,2.001430e+00
8.155000e-01,7.382140e-01,3,3,2.147694e+00,2.147694e+00
8.144420e-01,7.438660e-01,3,3,2.812806e+00,2.812806e+00
8.149900e-01,7.440700e-01,3,3,3.675509e+00,3.675509e+00
8.088370e-01,7.448090e-01,3,3,6.007857e+00,6.007855e+00
8.151980e-01,7.446740e-01,3,3,7.789494e+00,7.789501e+00
8.153210e-01,7.393170e-01,3,3,6.328865e+00,6.328870e+00
8.145030e-01,7.452000e-01,3,3,7.586266e+00,7.586268e+00
8.157790e-01,7.386830e-01,3,3,5.909374e+00,5.909376e+00
8.138600e-01,7.445830e-01,3,3,4.473771e+00,4.473773e+00
8.152590e-01,7.449640e-01,3,3,5.146766e+00,5.146776e+00
8.093900e-01,7.449980e-01,3,3,3.941951e+00,3.941956e+00
8.151750e-01,7.443510e-01,3,3,3.163595e+00,3.163594e+00
8.088070e-01,7.440230e-01,3,3,2.100495e+00,2.100495e+00
8.147470e-01,7.449660e-01,3,3,1.958993e+00,1.958993e+00
8.143170e-01,7.384170e-01,3,3,1.860498e+00,1.860498e+00
8.149450e-01,7.446440e-01,3,3,2.491525e+00,2.491524e+00
8.155050e-01,7.384960e-01,3,3,1.118816e+00,1.118816e+00
8.134180e-01,7.444870e-01,3,3,2.734525e+00,2.734548e+00
8.147650e-01,7.447320e-01,3,3,5.159402e+00,5.160938e+00
1.895305e+00,1.234422e+00,7,5,3.059235e+00,3.072040e+00
8.144470e-01,7.384610e-01,3,3,2.016788e+00,2.016803e+00
8.149210e-01,7.443420e-01,3,3,2.082794e+00,2.082794e+00
8.155030e-01,7.391700e-01,3,3,2.003212e+00,2.003212e+00
8.152760e-01,7.448730e-01,3,3,1.854253e+00,1.854253e+00
8.149080e-01,7.452480e-01,3,3,2.630193e+00,2.630192e+00
8.097290e-01,7.442580e-01,3,3,2.160530e+00,2.160531e+00
8.153890e-01,7.446450e-01,3,3,1.642397e+00,1.642397e+00
8.142500e-01,7.387190e-01,3,3,1.794676e+00,1.794678e+00
8.141810e-01,7.438710e-01,3,3,3.246681e+00,3.247192e+00
1.618459e+00,1.482926e+00,6,6,5.106671e+00,5.089439e+00
1.892178e+00,1.477039e+00,7,6,8.574018e+00,8.568843e+00
1.351307e+00,1.235310e+00,5,5,1.002274e+01,1.002939e+01
1.084681e+00,9.896230e-01,4,4,9.425961e+00,9.425963e+00
8.158800e-01,7.439650e-01,3,3,1.023035e+01,1.023092e+01
8.102470e-01,7.433440e-01,3,3,9.147323e+00,9.150291e+00
8.151500e-01,9.890710e-01,3,4,9.796306e+00,9.795140e+00
1.086557e+00,1.477683e+00,4,6,9.621782e+00,9.630854e+00
1.624034e+00,1.483686e+00,6,6,8.091302e+00,8.099141e+00
1.620525e+00,1.482724e+00,6,6,7.219551e+00,7.228604e+00
1.621281e+00,1.483008e+00,6,6,5.846923e+00,5.843502e+00
1.084088e+00,9.884840e-01,4,4,5.657363e+00,5.657812e+00
1.621607e+00,1.476579e+00,6,6,5.912424e+00,5.931046e+00
1.623259e+00,1.477875e+00,6,6,7.298653e+00,7.294508e+00
1.625404e+00,1.477333e+00,6,6,1.216031e+01,1.215639e+01
1.622773e+00,1.478479e+00,6,6,1.380437e+01,1.380439e+01
2.170579e+00,1.478650e+00,8,6,1.548385e+01,1.547261e+01
1.621983e+00,1.476972e+00,6,6,1.408666e+01,1.409167e+01
1.622928e+00,9.896670e-01,6,4,1.510060e+01,1.473676e+01
1.083284e+00,1.478048e+00,4,6,1.825347e+01,1.826344e+01
1.354156e+00,1.477723e+00,5,6,1.738369e+01,1.740929e+01
1.628238e+00,1.479488e+00,6,6,1.563716e+01,1.565794e+01
1.625202e+00,1.479005e+00,6,6,1.382023e+01,1.384144e+01
1.624910e+00,1.479700e+00,6,6,1.259986e+01,1.258588e+01
1.088119e+00,1.477458e+00,4,6,1.102046e+01,1.104332e+01
1.623020e+00,1.479531e+00,6,6,1.019029e+01,1.018893e+01
1.623231e+00,1.478480e+00,6,6,1.091349e+01,1.090715e+01
1.622475e+00,1.477553e+00,6,6,7.920284e+00,7.920816e+00
1.622385e+00,1.477836e+00,6,6,7.265713e+00,7.264906e+00
1.621897e+00,1.481561e+00,6,6,7.525616e+00,7.524043e+00
1.617884e+00,1.483364e+00,6,6,6.242123e+00,6.237499e+00
1.083170e+00,1.477316e+00,4,6,5.391051e+00,5.407294e+00
1.891008e+00,1.482080e+00,7,6,5.078479e+00,5.079881e+00
1.081474e+00,9.890070e-01,4,4,4.060099e+00,4.060141e+00
8.157400e-01,7.394410e-01,3,3,1.990783e+00,1.990787e+00
8.151190e-01,7.448440e-01,3,3,2.070152e+00,2.070152e+00
8.155810e-01,7.394880e-01,3,3,2.285529e+00,2.285529e+00
8.153060e-01,7.449550e-01,3,3,2.377009e+00,2.377009e+00
8.140910e-01,7.439860e-01,3,3,2.379837e+00,2.379837e+00
8.099090e-01,7.450190e-01,3,3,1.665998e+00,1.665998e+00
8.171380e-01,7.452960e-01,3,3,2.402465e+00,2.402464e+00
8.091880e-01,7.453250e-01,3,3,3.570747e+00,3.570746e+00
8.156340e-01,7.457830e-01,3,3,4.046288e+00,4.046288e+00
8.143350e-01,7.391070e-01,3,3,3.646139e+00,3.646139e+00
8.142020e-01,7.462120e-01,3,3,3.447836e+00,3.447836e+00
8.149460e-01,7.390720e-01,3,3,3.307715e+00,3.307715e+00
8.141420e-01,7.447760e-01,3,3,3.260138e+00,3.260138e+00
8.156310e-01,7.466580e-01,3,3,2.620375e+00,2.620375e+00
8.098490e-01,7.574120e-01,3,3,2.829010e+00,2.829010e+00
8.158810e-01,7.448850e-01,3,3,5.565123e+00,5.565222e+00
8.151620e-01,7.386770e-01,3,3,7.030485e+00,7.031217e+00
1.622397e+00,1.478872e+00,6,6,8.564257e+00,8.567939e+00
1.621305e+00,1.232598e+00,6,5,7.678077e+00,7.679457e+00
1.889518e+00,1.483695e+00,7,6,6.771391e+00,6.771825e+00
1.082103e+00,9.888020e-01,4,4,5.895535e+00,5.895536e+00
8.153990e-01,7.400110e-01,3,3,4.914702e+00,4.914709e+00
8.153030e-01,7.442020e-01,3,3,5.071329e+00,5.071814e+00
1.618738e+00,1.482694e+00,6,6,4.700332e+00,4.693805e+00
1.621008e+00,1.477475e+00,6,6,4.346733e+00,4.344931e+00
1.621559e+00,1.478139e+00,6,6,4.858864e+00,4.856423e+00
1.620571e+00,1.476648e+00,6,6,5.835149e+00,5.833248e+00
1.357487e+00,1.970716e+00,5,8,6.525754e+00,6.536862e+00
1.352720e+00,9.881660e-01,5,4,7.801938e+00,7.801913e+00
8.150560e-01,7.440660e-01,3,3,6.628641e+00,6.628642e+00
8.102300e-01,7.437100e-01,3,3,8.778428e+00,8.778429e+00
8.165710e-01,7.445390e-01,3,3,8.946025e+00,8.946045e+00
8.102620e-01,7.445240e-01,3,3,7.906368e+00,7.906387e+00
8.155720e-01,7.454790e-01,3,3,7.196097e+00,7.196108e+00
8.153160e-01,7.388770e-01,3,3,7.764534e+00,7.764579e+00
8.152640e-01,7.449960e-01,3,3,7.230067e+00,7.230608e+00
8.160320e-01,7.396290e-01,3,3,6.192459e+00,6.194444e+00
8.158170e-01,1.238209e+00,3,5,5.242743e+00,5.255079e+00
1.885308e+00,1.236355e+00,7,5,3.744005e+00,3.754082e+00
1.084243e+00,9.879570e-01,4,4,3.311607e+00,3.313333e+00
1.081370e+00,9.891690e-01,4,4,2.183971e+00,2.184269e+00
8.142200e-01,7.388120e-01,3,3,1.462304e+00,1.462313e+00
8.144800e-01,7.446930e-01,3,3,1.584626e+00,1.584625e+00
8.146300e-01,7.434270e-01,3,3,2.097501e+00,2.097500e+00
8.101690e-01,7.441900e-01,3,3,1.451960e+00,1.451960e+00
8.144770e-01,7.444600e-01,3,3,1.841211e+00,1.841211e+00
8.092230e-01,7.434340e-01,3,3,1.945730e+00,1.945730e+00
8.145730e-01,7.448530e-01,3,3,1.790305e+00,1.790305e+00
8.144450e-01,7.385540e-01,3,3,1.817844e+00,1.817844e+00
8.143570e-01,7.449760e-01,3,3,2.031074e+00,2.031074e+00
8.167410e-01,7.391750e-01,3,3,1.875204e+00,1.875204e+00
8.150730e-01,7.441390e-01,3,3,1.529072e+00,1.529071e+00
8.141670e-01,7.443850e-01,3,3,2.085934e+00,2.085934e+00
8.101380e-01,7.440760e-01,3,3,2.067874e+00,2.067874e+00
8.147750e-01,7.447660e-01,3,3,2.175335e+00,2.175335e+00
8.155140e-01,7.388380e-01,3,3,2.007302e+00,2.007302e+00
8.153570e-01,7.447470e-01,3,3,2.966648e+00,2.966647e+00
8.147300e-01,7.387350e-01,3,3,2.841148e+00,2.841148e+00
8.155390e-01,7.440910e-01,3,3,2.393067e+00,2.393067e+00
8.146530e-01,7.446750e-01,3,3,1.803911e+00,1.803911e+00
8.103190e-01,7.440970e-01,3,3,2.764925e+00,2.764925e+00
8.151090e-01,7.442940e-01,3,3,2.640770e+00,2.640770e+00
8.084760e-01,7.445780e-01,3,3,1.918041e+00,1.918041e+00
8.143180e-01,7.448910e-01,3,3,1.888256e+00,1.888256e+00
8.147710e-01,7.390740e-01,3,3,1.693855e+00,1.693855e+00
8.143910e-01,7.441780e-01,3,3,1.928967e+00,1.928967e+00
8.151340e-01,7.390200e-01,3,3,2.706847e+00,2.706846e+00
8.144180e-01,7.443460e-01,3,3,2.874555e+00,2.874555e+00
8.155210e-01,7.448820e-01,3,3,2.797974e+00,2.797974e+00
8.096750e-01,7.442050e-01,3,3,3.941334e+00,3.941334e+00
8.147210e-01,7.445950e-01,3,3,4.567673e+00,4.567672e+00
8.143740e-01,7.388960e-01,3,3,3.291151e+00,3.291151e+00
8.147080e-01,7.448620e-01,3,3,2.677025e+00,2.677025e+00
8.143020e-01,7.388870e-01,3,3,2.876605e+00,2.876605e+00
8.147070e-01,7.446710e-01,3,3,2.351866e+00,2.351866e+00
8.156300e-01,7.445160e-01,3,3,1.867592e+00,1.867592e+00
8.097740e-01,7.448410e-01,3,3,2.564866e+00,2.564865e+00
8.154600e-01,7.437290e-01,3,3,2.737124e+00,2.737124e+00
8.145670e-01,7.399930e-01,3,3,2.141108e+00,2.141108e+00
8.148800e-01,7.449670e-01,3,3,2.867944e+00,2.867943e+00
8.145170e-01,7.390120e-01,3,3,1.975932e+00,1.975932e+00
8.152920e-01,7.453260e-01,3,3,2.148474e+00,2.148473e+00
8.158830e-01,7.433260e-01,3,3,2.114130e+00,2.114130e+00
8.098130e-01,7.448000e-01,3,3,2.473750e+00,2.473749e+00
8.150890e-01,7.441120e-01,3,3,2.220506e+00,2.220506e+00
8.084060e-01,7.436100e-01,3,3,2.322423e+00,2.322423e+00
8.147210e-01,7.445180e-01,3,3,1.825783e+00,1.825783e+00
8.151400e-01,7.383350e-01,3,3,1.652132e+00,1.652131e+00
8.156010e-01,7.466080e-01,3,3,1.969687e+00,1.969688e+00
8.146580e-01,7.387790e-01,3,3,1.885468e+00,1.885468e+00
8.150040e-01,7.450100e-01,3,3,2.503962e+00,2.503962e+00
8.151460e-01,7.450180e-01,3,3,1.995302e+00,1.995302e+00
8.092280e-01,7.440170e-01,3,3,1.526293e+00,1.526293e+00
8.156190e-01,7.455000e-01,3,3,1.267565e+00,1.267565e+00
8.140210e-01,7.390030e-01,3,3,1.170402e+00,1.170402e+00
8.148580e-01,7.444290e-01,3,3,1.167621e+00,1.167621e+00
8.155890e-01,7.389550e-01,3,3,1.770381e+00,1.770380e+00
8.147140e-01,7.454310e-01,3,3,1.519057e+00,1.519056e+00
8.145470e-01,7.443080e-01,3,3,1.728503e+00,1.728503e+00
8.091240e-01,7.439720e-01,3,3,1.602183e+00,1.602183e+00
8.209920e-01,7.444120e-01,3,3,1.392266e+00,1.392266e+00
8.091490e-01,7.438730e-01,3,3,1.729262e+00,1.729262e+00
8.152790e-01,7.454550e-01,3,3,2.235150e+00,2.235150e+00
8.150230e-01,7.400620e-01,3,3,2.576544e+00,2.576543e+00
8.149630e-01,7.456190e-01,3,3,1.628819e+00,1.628819e+00
8.153990e-01,7.389140e-01,3,3,2.108230e+00,2.108229e+00
8.150880e-01,7.443050e-01,3,3,1.666254e+00,1.666254e+00
8.146800e-01,7.442040e-01,3,3,1.557765e+00,1.557765e+00
8.093750e-01,7.436180e-01,3,3,1.721628e+00,1.721628e+00
8.147430e-01,7.443730e-01,3,3,1.539845e+00,1.539845e+00
8.144640e-01,7.394170e-01,3,3,1.166276e+00,1.166276e+00
8.155160e-01,7.447420e-01,3,3,1.380908e+00,1.380908e+00
8.149790e-01,7.389720e-01,3,3,8.373372e-01,8.373373e-01
8.141230e-01,7.450610e-01,3,3,8.652590e-01,8.652588e-01
8.151530e-01,7.446950e-01,3,3,6.799163e-01,6.799163e-01
8.091060e-01,7.442910e-01,3,3,7.864041e-01,7.864039e-01
8.159180e-01,7.454020e-01,3,3,1.031856e+00,1.031856e+00
8.083800e-01,7.434390e-01,3,3,8.944607e-01,8.944607e-01
8.152440e-01,7.442150e-01,3,3,2.480148e+00,2.480235e+00
1.084052e+00,9.885560e-01,4,4,4.774719e+00,4.774997e+00
1.354200e+00,9.890740e-01,5,4,3.761604e+00,3.761385e+00
8.142510e-01,7.450970e-01,3,3,2.660128e+00,2.660126e+00
8.154940e-01,7.393420e-01,3,3,1.812431e+00,1.812431e+00
8.134190e-01,7.449940e-01,3,3,2.224166e+00,2.224166e+00
8.147710e-01,7.390780e-01,3,3,1.797202e+00,1.797202e+00
8.153440e-01,7.439370e-01,3,3,1.887202e+00,1.887202e+00
8.161000e-01,7.448400e-01,3,3,2.215105e+00,2.215104e+00
8.087220e-01,7.445520e-01,3,3,2.486269e+00,2.486269e+00
8.151320e-01,7.436750e-01,3,3,2.175349e+00,2.175349e+00
8.154500e-01,7.392550e-01,3,3,2.495654e+00,2.495653e+00
8.154400e-01,7.452990e-01,3,3,3.203973e+00,3.203973e+00
8.162880e-01,7.384850e-01,3,3,2.845022e+00,2.845023e+00
8.139010e-01,7.444760e-01,3,3,2.249232e+00,2.249232e+00
8.148530e-01,7.440990e-01,3,3,1.614840e+00,1.614841e+00
8.087650e-01,7.446390e-01,3,3,1.327046e+00,1.327047e+00
8.144150e-01,7.444650e-01,3,3,1.116158e+00,1.116158e+00
8.144620e-01,7.390070e-01,3,3,1.630427e+00,1.630426e+00
8.143810e-01,7.450030e-01,3,3,1.224435e+00,1.224435e+00
8.143010e-01,7.388730e-01,3,3,1.549808e+00,1.549807e+00
8.140730e-01,7.455060e-01,3,3,1.428276e+00,1.428276e+00
8.141660e-01,7.442460e-01,3,3,1.647991e+00,1.647990e+00
8.095490e-01,7.432110e-01,3,3,2.263045e+00,2.263044e+00
8.154700e-01,7.443910e-01,3,3,1.964371e+00,1.964371e+00
8.099470e-01,7.442160e-01,3,3,1.665065e+00,1.665066e+00
8.153500e-01,7.448990e-01,3,3,2.479846e+00,2.479846e+00
8.145690e-01,7.393490e-01,3,3,2.559614e+00,2.559614e+00
8.138430e-01,7.440710e-01,3,3,1.395358e+00,1.395358e+00
8.143200e-01,7.393750e-01,3,3,1.489859e+00,1.489859e+00
8.144450e-01,7.436280e-01,3,3,1.666374e+00,1.666374e+00
8.134960e-01,7.445520e-01,3,3,1.828933e+00,1.828933e+00
8.099840e-01,7.450730e-01,3,3,1.399468e+00,1.399468e+00
8.148810e-01,7.449650e-01,3,3,1.158725e+00,1.158725e+00
8.139090e-01,7.392720e-01,3,3,1.474663e+00,1.474662e+00
8.141920e-01,7.449700e-01,3,3,2.003372e+00,2.003371e+00
8.137760e-01,7.390020e-01,3,3,2.322817e+00,2.322816e+00
8.147000e-01,7.450330e-01,3,3,1.817265e+00,1.817265e+00
8.153620e-01,7.455450e-01,3,3,1.874526e+00,1.874526e+00
8.092610e-01,7.452580e-01,3,3,1.693972e+00,1.693972e+00
8.158870e-01,7.446180e-01,3,3,2.282652e+00,2.282651e+00
8.090170e-01,7.442440e-01,3,3,2.684286e+00,2.684286e+00
8.155880e-01,7.444850e-01,3,3,3.679943e+00,3.679942e+00
8.149740e-01,7.390260e-01,3,3,3.506583e+00,3.506583e+00
8.134110e-01,7.453330e-01,3,3,5.280017e+00,5.279950e+00
1.079619e+00,9.893140e-01,4,4,2.901809e+00,2.901809e+00
8.150960e-01,7.455840e-01,3,3,2.791306e+00,2.791306e+00
8.092960e-01,7.439190e-01,3,3,3.252010e+00,3.252009e+00
8.145960e-01,7.447220e-01,3,3,3.315821e+00,3.315820e+00
8.099360e-01,7.400660e-01,3,3,3.506553e+00,3.506553e+00
8.142010e-01,7.452160e-01,3,3,3.356558e+00,3.356558e+00
8.144030e-01,7.384380e-01,3,3,2.528903e+00,2.528903e+00
8.145150e-01,7.448170e-01,3,3,3.041811e+00,3.041810e+00
8.144670e-01,7.394480e-01,3,3,2.670955e+00,2.670955e+00
8.097180e-01,7.440920e-01,3,3,1.827527e+00,1.827528e+00
8.147960e-01,7.445820e-01,3,3,1.522044e+00,1.522044e+00
8.088890e-01,7.448030e-01,3,3,1.524727e+00,1.524727e+00
8.155670e-01,7.461680e-01,3,3,1.424028e+00,1.424028e+00
8.144100e-01,7.389980e-01,3,3,1.286875e+00,1.286875e+00
8.147580e-01,7.445970e-01,3,3,1.436565e+00,1.436565e+00
8.162320e-01,7.390810e-01,3,3,1.632984e+00,1.632983e+00
8.149570e-01,7.442220e-01,3,3,2.837291e+00,2.837289e+00
8.152040e-01,7.445260e-01,3,3,2.167057e+00,2.167056e+00
8.109150e-01,7.446830e-01,3,3,2.871060e+00,2.871060e+00
8.153700e-01,7.449030e-01,3,3,1.569096e+00,1.569096e+00
8.145910e-01,7.385880e-01,3,3,1.496851e+00,1.496851e+00
8.147930e-01,7.445110e-01,3,3,1.149647e+00,1.149647e+00
8.155920e-01,7.391720e-01,3,3,8.732170e-01,8.732169e-01
8.134930e-01,7.441870e-01,3,3,1.659078e+00,1.659077e+00
8.149860e-01,7.449300e-01,3,3,1.925224e+00,1.925224e+00
8.101040e-01,7.439840e-01,3,3,2.817887e+00,2.817886e+00
8.152360e-01,7.449540e-01,3,3,2.754762e+00,2.754762e+00
8.093150e-01,7.436710e-01,3,3,2.781997e+00,2.781997e+00
8.145240e-01,7.434680e-01,3,3,4.362834e+00,4.362833e+00
8.147800e-01,7.390050e-01,3,3,4.859261e+00,4.859261e+00
8.156140e-01,7.450840e-01,3,3,3.831587e+00,3.831588e+00
8.144850e-01,7.387960e-01,3,3,3.561611e+00,3.561612e+00
8.142550e-01,7.440250e-01,3,3,4.736139e+00,4.736137e+00
8.147160e-01,7.445090e-01,3,3,3.264612e+00,3.264613e+00
8.096660e-01,7.447410e-01,3,3,2.808606e+00,2.808607e+00
8.145720e-01,7.449070e-01,3,3,2.685665e+00,2.685664e+00
8.137420e-01,7.395770e-01,3,3,2.725045e+00,2.725044e+00
8.141230e-01,7.442170e-01,3,3,2.645758e+00,2.645757e+00
8.140740e-01,7.394260e-01,3,3,2.394701e+00,2.394700e+00
8.143660e-01,7.447630e-01,3,3,2.533945e+00,2.533945e+00
8.155830e-01,7.454980e-01,3,3,3.060525e+00,3.060527e+00
8.097630e-01,7.446510e-01,3,3,3.662159e+00,3.662219e+00
8.152970e-01,7.442500e-01,3,3,2.935457e+00,2.935727e+00
8.098280e-01,9.897070e-01,3,4,3.018212e+00,3.018216e+00
8.155420e-01,7.438800e-01,3,3,2.485155e+00,2.485157e+00
8.158700e-01,7.453340e-01,3,3,2.642244e+00,2.642264e+00

