5.578080e-01,5.067700e-01,2,2,0.000000e+00,0.000000e+00
8.156420e-01,7.396340e-01,3,3,9.908744e-02,9.908743e-02
8.149920e-01,7.655360e-01,3,3,1.830848e-01,1.830848e-01
8.172780e-01,7.384580e-01,3,3,3.864811e-01,3.864809e-01
8.151720e-01,7.450580e-01,3,3,4.004133e-01,4.004132e-01
8.223890e-01,7.459760e-01,3,3,1.918494e+00,1.918493e+00
8.105940e-01,7.504220e-01,3,3,2.527490e+00,2.527490e+00
8.182820e-01,7.452560e-01,3,3,3.552445e+00,3.552445e+00
8.160870e-01,7.395610e-01,3,3,2.030777e+00,2.030777e+00
8.163960e-01,7.450950e-01,3,3,2.053681e+00,2.053680e+00
8.167870e-01,7.392330e-01,3,3,2.090158e+00,2.090158e+00
8.146320e-01,7.446290e-01,3,3,2.228142e+00,2.228142e+00
8.165170e-01,7.444190e-01,3,3,2.966620e+00,2.966619e+00
8.100500e-01,7.446480e-01,3,3,3.719657e+00,3.719657e+00
8.164060e-01,7.450830e-01,3,3,3.608146e+00,3.608146e+00
8.153770e-01,7.395310e-01,3,3,4.378298e+00,4.378297e+00
8.171630e-01,7.449560e-01,3,3,3.707490e+00,3.707490e+00
8.166950e-01,7.389900e-01,3,3,3.390156e+00,3.390156e+00
8.154980e-01,7.453060e-01,3,3,3.082943e+00,3.082943e+00
8.166650e-01,7.439220e-01,3,3,2.781092e+00,2.781092e+00
8.106740e-01,7.447630e-01,3,3,3.038366e+00,3.038365e+00
8.164270e-01,7.444440e-01,3,3,2.594647e+00,2.594647e+00
8.114270e-01,7.439090e-01,3,3,2.608640e+00,2.608640e+00
8.169100e-01,7.445500e-01,3,3,2.541393e+00,2.541392e+00
8.154260e-01,7.388220e-01,3,3,2.792866e+00,2.792866e+00
8.161350e-01,7.444750e-01,3,3,3.060493e+00,3.060492e+00
8.153110e-01,7.389150e-01,3,3,2.897606e+00,2.897606e+00
8.150420e-01,7.439970e-01,3,3,3.112618e+00,3.112618e+00
8.164670e-01,7.445250e-01,3,3,2.546094e+00,2.546094e+00
8.108190e-01,7.440370e-01,3,3,2.203587e+00,2.203587e+00
8.156560e-01,7.448940e-01,3,3,2.028661e+00,2.028661e+00
8.151220e-01,7.397150e-01,3,3,1.528637e+00,1.528637e+00
8.150490e-01,7.446140e-01,3,3,1.391296e+00,1.391296e+00
8.150820e-01,7.388740e-01,3,3,1.867830e+00,1.867830e+00
8.157920e-01,7.443280e-01,3,3,1.291775e+00,1.291775e+00
8.153000e-01,7.438210e-01,3,3,1.416054e+00,1.416053e+00
8.108230e-01,7.449030e-01,3,3,1.081417e+00,1.081417e+00
8.150230e-01,7.442010e-01,3,3,1.069540e+00,1.069540e+00
8.102540e-01,7.439590e-01,3,3,1.420408e+00,1.420407e+00
8.158070e-01,7.445810e-01,3,3,1.504707e+00,1.504707e+00
8.152240e-01,7.390230e-01,3,3,3.236998e+00,3.236997e+00
8.157640e-01,7.448860e-01,3,3,4.485951e+00,4.485952e+00
8.169530e-01,7.433010e-01,3,3,3.104511e+00,3.104518e+00
8.110940e-01,7.445660e-01,3,3,4.548691e+00,4.548704e+00
8.178700e-01,7.438870e-01,3,3,3.578503e+00,3.578505e+00
8.107940e-01,7.440080e-01,3,3,3.266055e+00,3.266055e+00
8.155040e-01,7.447310e-01,3,3,3.272182e+00,3.272182e+00
8.160950e-01,7.387800e-01,3,3,3.130258e+00,3.130258e+00
8.155030e-01,7.450260e-01,3,3,2.667689e+00,2.667690e+00
8.151990e-01,7.385810e-01,3,3,1.781321e+00,1.781321e+00
8.154610e-01,7.429960e-01,3,3,1.745463e+00,1.745462e+00
8.160170e-01,7.438720e-01,3,3,2.233033e+00,2.233033e+00
8.105160e-01,7.431990e-01,3,3,1.661500e+00,1.661500e+00
8.159520e-01,7.445290e-01,3,3,1.421423e+00,1.421423e+00
8.138880e-01,7.392420e-01,3,3,1.689385e+00,1.689386e+00
8.143180e-01,7.446800e-01,3,3,2.190710e+00,2.191300e+00
1.086053e+00,9.888530e-01,4,4,1.530992e+00,1.530992e+00
8.160300e-01,7.388750e-01,3,3,2.360318e+00,2.360317e+00
8.154620e-01,7.439190e-01,3,3,3.150872e+00,3.150872e+00
8.161400e-01,7.448270e-01,3,3,4.373944e+00,4.373944e+00
8.113370e-01,7.448180e-01,3,3,2.455006e+00,2.455006e+00
8.160950e-01,7.459470e-01,3,3,3.968519e+00,3.968518e+00
8.466930e-01,7.440850e-01,3,3,6.119308e+00,6.119347e+00
8.174370e-01,7.483490e-01,3,3,4.278523e+00,4.278572e+00
8.166680e-01,7.437760e-01,3,3,5.068578e+00,5.068681e+00
1.105820e+00,1.012083e+00,4,4,2.274826e+00,2.274826e+00
8.002870e-01,7.340140e-01,3,3,2.477333e+00,2.477349e+00
8.419590e-01,7.474050e-01,3,3,2.541243e+00,2.541243e+00
8.054790e-01,7.556090e-01,3,3,1.803083e+00,1.803083e+00
8.439290e-01,7.734200e-01,3,3,1.864154e+00,1.864153e+00
8.183350e-01,7.597220e-01,3,3,2.382283e+00,2.382283e+00
8.263790e-01,7.479670e-01,3,3,2.542669e+00,2.542668e+00
8.176790e-01,7.498370e-01,3,3,2.697453e+00,2.697453e+00
8.126480e-01,7.687180e-01,3,3,2.732533e+00,2.732533e+00
8.178680e-01,7.749670e-01,3,3,3.225733e+00,3.225732e+00
8.186690e-01,7.477690e-01,3,3,4.639273e+00,4.639272e+00
8.183760e-01,7.726440e-01,3,3,3.460144e+00,3.460144e+00
8.426870e-01,7.469360e-01,3,3,3.398097e+00,3.398097e+00
7.879350e-01,7.486130e-01,3,3,3.052349e+00,3.052349e+00
8.169440e-01,7.730200e-01,3,3,1.620253e+00,1.620254e+00
7.918450e-01,7.684350e-01,3,3,2.298991e+00,2.298990e+00
8.410910e-01,7.454210e-01,3,3,1.924072e+00,1.924072e+00
8.166250e-01,7.437920e-01,3,3,1.552300e+00,1.552300e+00
8.108670e-01,7.445380e-01,3,3,1.426329e+00,1.426328e+00
8.158930e-01,7.452450e-01,3,3,2.432690e+00,2.432690e+00
8.112260e-01,7.441230e-01,3,3,3.818957e+00,3.818956e+00
8.168100e-01,7.444690e-01,3,3,5.342808e+00,5.342807e+00
8.152800e-01,7.392370e-01,3,3,8.007202e+00,8.007203e+00
8.153760e-01,7.447580e-01,3,3,7.407870e+00,7.407873e+00
8.154120e-01,7.393670e-01,3,3,5.837881e+00,5.837883e+00
8.151230e-01,7.445800e-01,3,3,4.566741e+00,4.566744e+00
8.159510e-01,7.440830e-01,3,3,3.473572e+00,3.473573e+00
8.106750e-01,7.444510e-01,3,3,4.502647e+00,4.502651e+00
8.164110e-01,7.440670e-01,3,3,3.657851e+00,3.657864e+00
8.136980e-01,7.385860e-01,3,3,4.215314e+00,4.214901e+00
1.892921e+00,9.900290e-01,7,4,4.593059e+00,4.585343e+00
1.083461e+00,9.891210e-01,4,4,2.497557e+00,2.497557e+00
8.145230e-01,7.447480e-01,3,3,2.133626e+00,2.133627e+00
8.159240e-01,7.385110e-01,3,3,2.617786e+00,2.617786e+00
8.146700e-01,7.445300e-01,3,3,2.914690e+00,2.914690e+00
8.154440e-01,7.433350e-01,3,3,2.223575e+00,2.223575e+00
8.103170e-01,7.442670e-01,3,3,2.503944e+00,2.503944e+00
8.157500e-01,7.449010e-01,3,3,1.777513e+00,1.777513e+00
8.100270e-01,7.443460e-01,3,3,1.624392e+00,1.624392e+00
8.155280e-01,7.446100e-01,3,3,1.363900e+00,1.363901e+00
8.160990e-01,7.389590e-01,3,3,1.328357e+00,1.328357e+00
8.153510e-01,7.447560e-01,3,3,1.974501e+00,1.974500e+00
8.159410e-01,7.386510e-01,3,3,2.126135e+00,2.126135e+00
8.155010e-01,7.433010e-01,3,3,2.027877e+00,2.027877e+00
8.140330e-01,7.443910e-01,3,3,1.623192e+00,1.623193e+00
8.102290e-01,7.444490e-01,3,3,1.517089e+00,1.517089e+00
8.154380e-01,7.437840e-01,3,3,1.328343e+00,1.328342e+00
8.150170e-01,7.394990e-01,3,3,1.522571e+00,1.522571e+00
8.143330e-01,7.450110e-01,3,3,1.943279e+00,1.943279e+00
8.163070e-01,7.388720e-01,3,3,1.205772e+00,1.205772e+00
8.151080e-01,7.445030e-01,3,3,9.240598e-01,9.240598e-01
8.162430e-01,7.448420e-01,3,3,1.799914e+00,1.799914e+00
8.107450e-01,7.449120e-01,3,3,1.679150e+00,1.679150e+00
8.156840e-01,7.445810e-01,3,3,3.642152e+00,3.642150e+00
8.099920e-01,7.438390e-01,3,3,2.785940e+00,2.785941e+00
8.152360e-01,7.443390e-01,3,3,3.126841e+00,3.126840e+00
8.149450e-01,7.388640e-01,3,3,4.228689e+00,4.228688e+00
8.156490e-01,7.445470e-01,3,3,3.861128e+00,3.861128e+00
8.147170e-01,7.392740e-01,3,3,4.115997e+00,4.115997e+00
8.172890e-01,7.437730e-01,3,3,5.705301e+00,5.705326e+00
8.155440e-01,7.442130e-01,3,3,4.050924e+00,4.050959e+00
8.098550e-01,7.438170e-01,3,3,3.627890e+00,3.627892e+00
8.166690e-01,7.445420e-01,3,3,3.448386e+00,3.448386e+00
8.157330e-01,7.389850e-01,3,3,2.349688e+00,2.349688e+00
8.150850e-01,7.445520e-01,3,3,3.007672e+00,3.007671e+00
8.252660e-01,7.387270e-01,3,3,2.631415e+00,2.631415e+00
8.169020e-01,7.451110e-01,3,3,2.218170e+00,2.218170e+00
8.176680e-01,7.440080e-01,3,3,1.688155e+00,1.688155e+00
8.107150e-01,7.595750e-01,3,3,1.533558e+00,1.533558e+00
8.162410e-01,7.448810e-01,3,3,1.485565e+00,1.485565e+00
8.161560e-01,7.395310e-01,3,3,1.671858e+00,1.671857e+00
8.229230e-01,7.450040e-01,3,3,1.855017e+00,1.855016e+00
8.157490e-01,7.382160e-01,3,3,1.475156e+00,1.475157e+00
8.155920e-01,7.519150e-01,3,3,1.665585e+00,1.665585e+00
8.220170e-01,7.446970e-01,3,3,1.467621e+00,1.467621e+00
8.107830e-01,7.436400e-01,3,3,2.333417e+00,2.333416e+00
8.154780e-01,7.447900e-01,3,3,3.605091e+00,3.605090e+00
8.236950e-01,7.401790e-01,3,3,4.568632e+00,4.568631e+00
8.168920e-01,7.453230e-01,3,3,4.261223e+00,4.261228e+00
8.166930e-01,7.394800e-01,3,3,4.285569e+00,4.285575e+00
8.218650e-01,7.446410e-01,3,3,3.905530e+00,3.905533e+00
8.161480e-01,7.449610e-01,3,3,3.413203e+00,3.413207e+00
8.105470e-01,7.520830e-01,3,3,3.128338e+00,3.128362e+00
8.175310e-01,7.450480e-01,3,3,2.988037e+00,2.988201e+00
8.110480e-01,7.397830e-01,3,3,3.031119e+00,3.031115e+00
8.253090e-01,7.457100e-01,3,3,2.181170e+00,2.181170e+00
8.169530e-01,7.389750e-01,3,3,2.614776e+00,2.614776e+00
8.152130e-01,7.452860e-01,3,3,2.254792e+00,2.254792e+00
8.162500e-01,7.442980e-01,3,3,1.836183e+00,1.836183e+00
8.101210e-01,7.441080e-01,3,3,1.411363e+00,1.411363e+00
8.149860e-01,7.450750e-01,3,3,1.350339e+00,1.350339e+00
8.106320e-01,7.435880e-01,3,3,2.127462e+00,2.127461e+00
8.156800e-01,7.437110e-01,3,3,1.830995e+00,1.830995e+00
8.140360e-01,7.382780e-01,3,3,1.993370e+00,1.993370e+00
8.152000e-01,7.452120e-01,3,3,2.277235e+00,2.277235e+00
8.172050e-01,7.391230e-01,3,3,1.177537e+00,1.177537e+00
8.154290e-01,7.443290e-01,3,3,9.813271e-01,9.813269e-01
8.155780e-01,7.443430e-01,3,3,1.014523e+00,1.014523e+00
8.109410e-01,7.436300e-01,3,3,5.392685e-01,5.392684e-01
8.159130e-01,7.440420e-01,3,3,4.426792e-01,4.426791e-01
8.153650e-01,7.391300e-01,3,3,7.662471e-01,7.662468e-01
8.154020e-01,7.450530e-01,3,3,6.333886e-01,6.333886e-01
8.146190e-01,7.380530e-01,3,3,1.481482e+00,1.481481e+00
8.156400e-01,7.434660e-01,3,3,1.311582e+00,1.311581e+00
8.156650e-01,7.429340e-01,3,3,9.149925e-01,9.149925e-01
8.100100e-01,7.443320e-01,3,3,9.289488e-01,9.289487e-01
8.140880e-01,7.441280e-01,3,3,9.930077e-01,9.930074e-01
8.104550e-01,7.439990e-01,3,3,1.162190e+00,1.162190e+00
8.158900e-01,7.435960e-01,3,3,8.621851e-01,8.621851e-01
8.161450e-01,7.388340e-01,3,3,8.592674e-01,8.592673e-01
8.147460e-01,7.436100e-01,3,3,9.540822e-01,9.540819e-01
8.150390e-01,7.388820e-01,3,3,9.152085e-01,9.152084e-01
8.148130e-01,7.446380e-01,3,3,2.005621e+00,2.005621e+00
8.167790e-01,7.439510e-01,3,3,2.233354e+00,2.233353e+00
8.098570e-01,7.446770e-01,3,3,2.603931e+00,2.603931e+00
8.168100e-01,7.614550e-01,3,3,3.533052e+00,3.533052e+00
8.161570e-01,7.391030e-01,3,3,3.124837e+00,3.124837e+00
8.152080e-01,7.448200e-01,3,3,3.461928e+00,3.461928e+00
8.159010e-01,7.388380e-01,3,3,3.187952e+00,3.187952e+00
8.151640e-01,7.439130e-01,3,3,2.933725e+00,2.933725e+00
8.156020e-01,7.449920e-01,3,3,3.492194e+00,3.492194e+00
8.097740e-01,7.438330e-01,3,3,4.590567e+00,4.590566e+00
8.172860e-01,7.445630e-01,3,3,5.112532e+00,5.112532e+00
8.163630e-01,7.387280e-01,3,3,4.447342e+00,4.447342e+00
8.167260e-01,7.449840e-01,3,3,4.295995e+00,4.295995e+00
8.172390e-01,7.387740e-01,3,3,4.191386e+00,4.191387e+00
8.162290e-01,7.440170e-01,3,3,3.769928e+00,3.769929e+00
8.159260e-01,7.444580e-01,3,3,3.753979e+00,3.753987e+00
8.096710e-01,7.435180e-01,3,3,3.421219e+00,3.421308e+00
1.083059e+00,9.885530e-01,4,4,2.896835e+00,2.896835e+00
8.163810e-01,7.444730e-01,3,3,2.392925e+00,2.392925e+00
8.153710e-01,7.381110e-01,3,3,3.622258e+00,3.622323e+00
8.147190e-01,9.883420e-01,3,4,5.472756e+00,5.471883e+00
1.893978e+00,1.480748e+00,7,6,5.899352e+00,5.901368e+00
1.621205e+00,1.482093e+00,6,6,6.115935e+00,6.105755e+00
1.348881e+00,9.891980e-01,5,4,7.204726e+00,7.207773e+00
1.085928e+00,7.445680e-01,4,3,9.397677e+00,9.397696e+00
8.173680e-01,7.388020e-01,3,3,6.575524e+00,6.575538e+00
8.151510e-01,7.443280e-01,3,3,8.316423e+00,8.316447e+00
8.150770e-01,7.390780e-01,3,3,7.192597e+00,7.192616e+00
8.152950e-01,7.441910e-01,3,3,6.453886e+00,6.454001e+00
8.156700e-01,7.441850e-01,3,3,5.235356e+00,5.235571e+00
8.102310e-01,7.441100e-01,3,3,5.694258e+00,5.695957e+00
1.623727e+00,9.892760e-01,6,4,4.836116e+00,4.837998e+00
1.619284e+00,1.481558e+00,6,6,5.720423e+00,5.722479e+00
1.354477e+00,9.890050e-01,5,4,2.768204e+00,2.765648e+00
8.156790e-01,7.443990e-01,3,3,2.548097e+00,2.548074e+00
8.145960e-01,7.390730e-01,3,3,3.147424e+00,3.147424e+00
8.159550e-01,7.443140e-01,3,3,2.197661e+00,2.197663e+00
8.157300e-01,7.433020e-01,3,3,3.088294e+00,3.088292e+00
8.106060e-01,7.436110e-01,3,3,3.215869e+00,3.215869e+00
8.156530e-01,7.452400e-01,3,3,4.939711e+00,4.939755e+00
8.104450e-01,7.432680e-01,3,3,3.018269e+00,3.018278e+00
8.149280e-01,7.440880e-01,3,3,3.113265e+00,3.113265e+00
8.158370e-01,7.387150e-01,3,3,2.885547e+00,2.885547e+00
8.148130e-01,7.440880e-01,3,3,2.765954e+00,2.765953e+00
8.159350e-01,7.386430e-01,3,3,2.950658e+00,2.950658e+00
8.150130e-01,7.429400e-01,3,3,4.039804e+00,4.039803e+00
8.164920e-01,7.444470e-01,3,3,2.786400e+00,2.786401e+00
8.113870e-01,7.441710e-01,3,3,2.206831e+00,2.206831e+00
8.152300e-01,7.443960e-01,3,3,2.451651e+00,2.451651e+00
8.152070e-01,7.383560e-01,3,3,2.519328e+00,2.519327e+00
8.140820e-01,7.444550e-01,3,3,2.001430e+00,2.001430e+00
8.152390e-01,7.385250e-01,3,3,2.147694e+00,2.147694e+00
8.152870e-01,7.440790e-01,3,3,2.812806e+00,2.812806e+00
8.146670e-01,7.440080e-01,3,3,3.675509e+00,3.675509e+00
8.091910e-01,7.433010e-01,3,3,6.007857e+00,6.007855e+00
8.159520e-01,7.444710e-01,3,3,7.789494e+00,7.789501e+00
8.113870e-01,7.447950e-01,3,3,6.328865e+00,6.328870e+00
8.159490e-01,7.453340e-01,3,3,7.586266e+00,7.586268e+00
8.296310e-01,7.390460e-01,3,3,5.909374e+00,5.909376e+00
8.182110e-01,7.451890e-01,3,3,4.473771e+00,4.473773e+00
8.163230e-01,7.446430e-01,3,3,5.146766e+00,5.146776e+00
8.107990e-01,7.441480e-01,3,3,3.941951e+00,3.941956e+00
8.173110e-01,7.442180e-01,3,3,3.163595e+00,3.163594e+00
8.108260e-01,7.442990e-01,3,3,2.100495e+00,2.100495e+00
8.157430e-01,7.448670e-01,3,3,1.958993e+00,1.958993e+00
8.161290e-01,7.389990e-01,3,3,1.860498e+00,1.860498e+00
8.162470e-01,7.453270e-01,3,3,2.491525e+00,2.491524e+00
8.156620e-01,7.394190e-01,3,3,1.118816e+00,1.118816e+00
8.149650e-01,7.438300e-01,3,3,2.734525e+00,2.734548e+00
8.153170e-01,7.444150e-01,3,3,5.159402e+00,5.160938e+00
1.895580e+00,1.233684e+00,7,5,3.059235e+00,3.072040e+00
8.153020e-01,7.390480e-01,3,3,2.016788e+00,2.016803e+00
8.145030e-01,7.448540e-01,3,3,2.082794e+00,2.082794e+00
8.152240e-01,7.389060e-01,3,3,2.003212e+00,2.003212e+00
8.155110e-01,7.442300e-01,3,3,1.854253e+00,1.854253e+00
8.153180e-01,7.439360e-01,3,3,2.630193e+00,2.630192e+00
8.107950e-01,7.441410e-01,3,3,2.160530e+00,2.160531e+00
8.161250e-01,7.443160e-01,3,3,1.642397e+00,1.642397e+00
8.140210e-01,7.397220e-01,3,3,1.794676e+00,1.794678e+00
8.147430e-01,7.452800e-01,3,3,3.246681e+00,3.247192e+00
1.618228e+00,1.482404e+00,6,6,5.106671e+00,5.089439e+00
1.894239e+00,1.476437e+00,7,6,8.574018e+00,8.568843e+00
1.351833e+00,1.234306e+00,5,5,1.002274e+01,1.002939e+01
1.085803e+00,9.889160e-01,4,4,9.425961e+00,9.425963e+00
8.153480e-01,7.441120e-01,3,3,1.023035e+01,1.023092e+01
8.106990e-01,7.446970e-01,3,3,9.147323e+00,9.150291e+00
8.153780e-01,9.899920e-01,3,4,9.796306e+00,9.795140e+00
1.086783e+00,1.479228e+00,4,6,9.621782e+00,9.630854e+00
1.625822e+00,1.483092e+00,6,6,8.091302e+00,8.099141e+00
1.620809e+00,1.482327e+00,6,6,7.219551e+00,7.228604e+00
1.621882e+00,1.482299e+00,6,6,5.846923e+00,5.843502e+00
1.085708e+00,9.878830e-01,4,4,5.657363e+00,5.657812e+00
1.624037e+00,1.477216e+00,6,6,5.912424e+00,5.931046e+00
1.624322e+00,1.477050e+00,6,6,7.298653e+00,7.294508e+00
1.626875e+00,1.476711e+00,6,6,1.216031e+01,1.215639e+01
1.624325e+00,1.478060e+00,6,6,1.380437e+01,1.380439e+01
2.173106e+00,1.478543e+00,8,6,1.548385e+01,1.547261e+01
1.621450e+00,1.477703e+00,6,6,1.408666e+01,1.409167e+01
1.624163e+00,9.884050e-01,6,4,1.510060e+01,1.473676e+01
1.082820e+00,1.477215e+00,4,6,1.825347e+01,1.826344e+01
1.354055e+00,1.478910e+00,5,6,1.738369e+01,1.740929e+01
1.626472e+00,1.478889e+00,6,6,1.563716e+01,1.565794e+01
1.627368e+00,1.478240e+00,6,6,1.382023e+01,1.384144e+01
1.624168e+00,1.477703e+00,6,6,1.259986e+01,1.258588e+01
1.087485e+00,1.477295e+00,4,6,1.102046e+01,1.104332e+01
1.621949e+00,1.478424e+00,6,6,1.019029e+01,1.018893e+01
1.625449e+00,1.477685e+00,6,6,1.091349e+01,1.090715e+01
1.621689e+00,1.478515e+00,6,6,7.920284e+00,7.920816e+00
1.624365e+00,1.476732e+00,6,6,7.265713e+00,7.264906e+00
1.623775e+00,1.482123e+00,6,6,7.525616e+00,7.524043e+00
1.617817e+00,1.482031e+00,6,6,6.242123e+00,6.237499e+00
1.084275e+00,1.477937e+00,4,6,5.391051e+00,5.407294e+00
1.891307e+00,1.481919e+00,7,6,5.078479e+00,5.079881e+00
1.082768e+00,9.885470e-01,4,4,4.060099e+00,4.060141e+00
8.147210e-01,7.383940e-01,3,3,1.990783e+00,1.990787e+00
8.151870e-01,7.457360e-01,3,3,2.070152e+00,2.070152e+00
8.155010e-01,7.394820e-01,3,3,2.285529e+00,2.285529e+00
8.160610e-01,7.444050e-01,3,3,2.377009e+00,2.377009e+00
8.160990e-01,7.444430e-01,3,3,2.379837e+00,2.379837e+00
8.109710e-01,7.443120e-01,3,3,1.665998e+00,1.665998e+00
8.159420e-01,7.445880e-01,3,3,2.402465e+00,2.402464e+00
8.095590e-01,7.429430e-01,3,3,3.570747e+00,3.570746e+00
8.165250e-01,7.449240e-01,3,3,4.046288e+00,4.046288e+00
8.160300e-01,7.391860e-01,3,3,3.646139e+00,3.646139e+00
8.160060e-01,7.445210e-01,3,3,3.447836e+00,3.447836e+00
8.150470e-01,7.394540e-01,3,3,3.307715e+00,3.307715e+00
8.146900e-01,7.440280e-01,3,3,3.260138e+00,3.260138e+00
8.155560e-01,7.438920e-01,3,3,2.620375e+00,2.620375e+00
8.101820e-01,7.434340e-01,3,3,2.829010e+00,2.829010e+00
8.160290e-01,7.443870e-01,3,3,5.565123e+00,5.565222e+00
8.146010e-01,7.385710e-01,3,3,7.030485e+00,7.031217e+00
1.622659e+00,1.477262e+00,6,6,8.564257e+00,8.567939e+00
1.622476e+00,1.231456e+00,6,5,7.678077e+00,7.679457e+00
1.889940e+00,1.482362e+00,7,6,6.771391e+00,6.771825e+00
1.082838e+00,9.889120e-01,4,4,5.895535e+00,5.895536e+00
8.153600e-01,7.394040e-01,3,3,4.914702e+00,4.914709e+00
8.146150e-01,7.436330e-01,3,3,5.071329e+00,5.071814e+00
1.618726e+00,1.481428e+00,6,6,4.700332e+00,4.693805e+00
1.623258e+00,1.476977e+00,6,6,4.346733e+00,4.344931e+00
1.623494e+00,1.476825e+00,6,6,4.858864e+00,4.856423e+00
1.623862e+00,1.476998e+00,6,6,5.835149e+00,5.833248e+00
1.358055e+00,1.971103e+00,5,8,6.525754e+00,6.536862e+00
1.355505e+00,9.899320e-01,5,4,7.801938e+00,7.801913e+00
8.162240e-01,7.436580e-01,3,3,6.628641e+00,6.628642e+00
8.106140e-01,7.436930e-01,3,3,8.778428e+00,8.778429e+00
8.158070e-01,7.451430e-01,3,3,8.946025e+00,8.946045e+00
8.110410e-01,7.435510e-01,3,3,7.906368e+00,7.906387e+00
8.161740e-01,7.452030e-01,3,3,7.196097e+00,7.196108e+00
8.147890e-01,7.384880e-01,3,3,7.764534e+00,7.764579e+00
8.146620e-01,7.467390e-01,3,3,7.230067e+00,7.230608e+00
8.161910e-01,7.384040e-01,3,3,6.192459e+00,6.194444e+00
8.149590e-01,1.237433e+00,3,5,5.242743e+00,5.255079e+00
1.887892e+00,1.236950e+00,7,5,3.744005e+00,3.754082e+00
1.085245e+00,9.886600e-01,4,4,3.311607e+00,3.313333e+00
1.084234e+00,9.891000e-01,4,4,2.183971e+00,2.184269e+00
8.156530e-01,7.386680e-01,3,3,1.462304e+00,1.462313e+00
8.155320e-01,7.440480e-01,3,3,1.584626e+00,1.584625e+00
8.155830e-01,7.446420e-01,3,3,2.097501e+00,2.097500e+00
8.098490e-01,7.449780e-01,3,3,1.451960e+00,1.451960e+00
8.160650e-01,7.439530e-01,3,3,1.841211e+00,1.841211e+00
8.100950e-01,7.458270e-01,3,3,1.945730e+00,1.945730e+00
8.155450e-01,7.449130e-01,3,3,1.790305e+00,1.790305e+00
8.153970e-01,7.386380e-01,3,3,1.817844e+00,1.817844e+00
8.149860e-01,7.446810e-01,3,3,2.031074e+00,2.031074e+00
8.162840e-01,7.387700e-01,3,3,1.875204e+00,1.875204e+00
8.154000e-01,7.447610e-01,3,3,1.529072e+00,1.529071e+00
8.162370e-01,7.442740e-01,3,3,2.085934e+00,2.085934e+00
8.106200e-01,7.434740e-01,3,3,2.067874e+00,2.067874e+00
8.155690e-01,7.442420e-01,3,3,2.175335e+00,2.175335e+00
8.147550e-01,7.391450e-01,3,3,2.007302e+00,2.007302e+00
8.151020e-01,7.441720e-01,3,3,2.966648e+00,2.966647e+00
8.157380e-01,7.389390e-01,3,3,2.841148e+00,2.841148e+00
8.153360e-01,7.441290e-01,3,3,2.393067e+00,2.393067e+00
8.152460e-01,7.439050e-01,3,3,1.803911e+00,1.803911e+00
8.099990e-01,7.435830e-01,3,3,2.764925e+00,2.764925e+00
8.148980e-01,7.445280e-01,3,3,2.640770e+00,2.640770e+00
8.153640e-01,7.387040e-01,3,3,1.918041e+00,1.918041e+00
8.142690e-01,7.446930e-01,3,3,1.888256e+00,1.888256e+00
8.166370e-01,7.389020e-01,3,3,1.693855e+00,1.693855e+00
8.150880e-01,7.443280e-01,3,3,1.928967e+00,1.928967e+00
8.148610e-01,7.430670e-01,3,3,2.706847e+00,2.706846e+00
8.103030e-01,7.453140e-01,3,3,2.874555e+00,2.874555e+00
8.164320e-01,7.447530e-01,3,3,2.797974e+00,2.797974e+00
8.105720e-01,7.430980e-01,3,3,3.941334e+00,3.941334e+00
8.155740e-01,7.446190e-01,3,3,4.567673e+00,4.567672e+00
8.161780e-01,7.390280e-01,3,3,3.291151e+00,3.291151e+00
8.168060e-01,7.452140e-01,3,3,2.677025e+00,2.677025e+00
8.161900e-01,7.381450e-01,3,3,2.876605e+00,2.876605e+00
8.162670e-01,7.444380e-01,3,3,2.351866e+00,2.351866e+00
8.153970e-01,7.442330e-01,3,3,1.867592e+00,1.867592e+00
8.108490e-01,7.437870e-01,3,3,2.564866e+00,2.564865e+00
8.164390e-01,7.454110e-01,3,3,2.737124e+00,2.737124e+00
8.152300e-01,7.391040e-01,3,3,2.141108e+00,2.141108e+00
8.155770e-01,7.444770e-01,3,3,2.867944e+00,2.867943e+00
8.168650e-01,7.396370e-01,3,3,1.975932e+00,1.975932e+00
8.162360e-01,7.447740e-01,3,3,2.148474e+00,2.148473e+00
8.157060e-01,7.442760e-01,3,3,2.114130e+00,2.114130e+00
8.095850e-01,7.441500e-01,3,3,2.473750e+00,2.473749e+00
8.151280e-01,7.442420e-01,3,3,2.220506e+00,2.220506e+00
8.103000e-01,7.442160e-01,3,3,2.322423e+00,2.322423e+00
8.159570e-01,7.443290e-01,3,3,1.825783e+00,1.825783e+00
8.160070e-01,7.387390e-01,3,3,1.652132e+00,1.652131e+00
8.155880e-01,7.448510e-01,3,3,1.969687e+00,1.969688e+00
8.146260e-01,7.386770e-01,3,3,1.885468e+00,1.885468e+00
8.158210e-01,7.447110e-01,3,3,2.503962e+00,2.503962e+00
8.158310e-01,7.439470e-01,3,3,1.995302e+00,1.995302e+00
8.105910e-01,7.440530e-01,3,3,1.526293e+00,1.526293e+00
8.160500e-01,7.445280e-01,3,3,1.267565e+00,1.267565e+00
8.147400e-01,7.391570e-01,3,3,1.170402e+00,1.170402e+00
8.153980e-01,7.447720e-01,3,3,1.167621e+00,1.167621e+00
8.151950e-01,7.385240e-01,3,3,1.770381e+00,1.770380e+00
8.154540e-01,7.454250e-01,3,3,1.519057e+00,1.519056e+00
8.148260e-01,7.444250e-01,3,3,1.728503e+00,1.728503e+00
8.106630e-01,7.442430e-01,3,3,1.602183e+00,1.602183e+00
8.149760e-01,7.439980e-01,3,3,1.392266e+00,1.392266e+00
8.146770e-01,7.393900e-01,3,3,1.729262e+00,1.729262e+00
8.156880e-01,7.440550e-01,3,3,2.235150e+00,2.235150e+00
8.153900e-01,7.380990e-01,3,3,2.576544e+00,2.576543e+00
8.147380e-01,7.447670e-01,3,3,1.628819e+00,1.628819e+00
8.153270e-01,7.431360e-01,3,3,2.108230e+00,2.108229e+00
8.108720e-01,7.430830e-01,3,3,1.666254e+00,1.666254e+00
8.162240e-01,7.461580e-01,3,3,1.557765e+00,1.557765e+00
8.097680e-01,7.429760e-01,3,3,1.721628e+00,1.721628e+00
8.149620e-01,7.442990e-01,3,3,1.539845e+00,1.539845e+00
8.157980e-01,7.384990e-01,3,3,1.166276e+00,1.166276e+00
8.170670e-01,7.448090e-01,3,3,1.380908e+00,1.380908e+00
8.154320e-01,7.388040e-01,3,3,8.373372e-01,8.373373e-01
8.155890e-01,7.441880e-01,3,3,8.652590e-01,8.652588e-01
8.155350e-01,7.446250e-01,3,3,6.799163e-01,6.799163e-01
8.110460e-01,7.462180e-01,3,3,7.864041e-01,7.864039e-01
8.155220e-01,7.449240e-01,3,3,1.031856e+00,1.031856e+00
8.153850e-01,7.385440e-01,3,3,8.944607e-01,8.944607e-01
8.146160e-01,7.443760e-01,3,3,2.480148e+00,2.480235e+00
1.086043e+00,9.883490e-01,4,4,4.774719e+00,4.774997e+00
1.354403e+00,9.898040e-01,5,4,3.761604e+00,3.761385e+00
8.181200e-01,7.450250e-01,3,3,2.660128e+00,2.660126e+00
8.153870e-01,7.380750e-01,3,3,1.812431e+00,1.812431e+00
8.154190e-01,7.449210e-01,3,3,2.224166e+00,2.224166e+00
8.159920e-01,7.493110e-01,3,3,1.797202e+00,1.797202e+00
8.102530e-01,7.442720e-01,3,3,1.887202e+00,1.887202e+00
8.168840e-01,7.454270e-01,3,3,2.215105e+00,2.215104e+00
8.146230e-01,7.393120e-01,3,3,2.486269e+00,2.486269e+00
8.155570e-01,7.457400e-01,3,3,2.175349e+00,2.175349e+00
8.159300e-01,7.391200e-01,3,3,2.495654e+00,2.495653e+00
8.159050e-01,7.446560e-01,3,3,3.203973e+00,3.203973e+00
8.171030e-01,7.440060e-01,3,3,2.845022e+00,2.845023e+00
8.102330e-01,7.438910e-01,3,3,2.249232e+00,2.249232e+00
8.154540e-01,7.441150e-01,3,3,1.614840e+00,1.614841e+00
8.100120e-01,7.463170e-01,3,3,1.327046e+00,1.327047e+00
8.159810e-01,7.439380e-01,3,3,1.116158e+00,1.116158e+00
8.161520e-01,7.388020e-01,3,3,1.630427e+00,1.630426e+00
8.152050e-01,7.455830e-01,3,3,1.224435e+00,1.224435e+00
8.148580e-01,7.390330e-01,3,3,1.549808e+00,1.549807e+00
8.139740e-01,7.439220e-01,3,3,1.428276e+00,1.428276e+00
8.152750e-01,7.442000e-01,3,3,1.647991e+00,1.647990e+00
8.106560e-01,7.442980e-01,3,3,2.263045e+00,2.263044e+00
8.160620e-01,7.445370e-01,3,3,1.964371e+00,1.964371e+00
8.150250e-01,7.391030e-01,3,3,1.665065e+00,1.665066e+00
8.164910e-01,7.437510e-01,3,3,2.479846e+00,2.479846e+00
8.152460e-01,7.393030e-01,3,3,2.559614e+00,2.559614e+00
8.151600e-01,7.444390e-01,3,3,1.395358e+00,1.395358e+00
8.150730e-01,7.440180e-01,3,3,1.489859e+00,1.489859e+00
8.107790e-01,7.440280e-01,3,3,1.666374e+00,1.666374e+00
8.150120e-01,7.438860e-01,3,3,1.828933e+00,1.828933e+00
8.110320e-01,7.429780e-01,3,3,1.399468e+00,1.399468e+00
8.148950e-01,7.437120e-01,3,3,1.158725e+00,1.158725e+00
8.151000e-01,7.390130e-01,3,3,1.474663e+00,1.474662e+00
8.160170e-01,7.454140e-01,3,3,2.003372e+00,2.003371e+00
8.157940e-01,7.385840e-01,3,3,2.322817e+00,2.322816e+00
8.143300e-01,7.443100e-01,3,3,1.817265e+00,1.817265e+00
8.150120e-01,7.442580e-01,3,3,1.874526e+00,1.874526e+00
8.104480e-01,7.435730e-01,3,3,1.693972e+00,1.693972e+00
8.154510e-01,7.437840e-01,3,3,2.282652e+00,2.282651e+00
8.159500e-01,7.389470e-01,3,3,2.684286e+00,2.684286e+00
8.158700e-01,7.443040e-01,3,3,3.679943e+00,3.679942e+00
8.152980e-01,7.385980e-01,3,3,3.506583e+00,3.506583e+00
8.151240e-01,7.443170e-01,3,3,5.280017e+00,5.279950e+00
1.082162e+00,9.893850e-01,4,4,2.901809e+00,2.901809e+00
8.161010e-01,7.447690e-01,3,3,2.791306e+00,2.791306e+00
8.102510e-01,7.443230e-01,3,3,3.252010e+00,3.252009e+00
8.166350e-01,7.436400e-01,3,3,3.315821e+00,3.315820e+00
8.153630e-01,7.389040e-01,3,3,3.506553e+00,3.506553e+00
8.155690e-01,7.446330e-01,3,3,3.356558e+00,3.356558e+00
8.158040e-01,7.388630e-01,3,3,2.528903e+00,2.528903e+00
8.157480e-01,7.435100e-01,3,3,3.041811e+00,3.041810e+00
8.157340e-01,7.437300e-01,3,3,2.670955e+00,2.670955e+00
8.101340e-01,7.435110e-01,3,3,1.827527e+00,1.827528e+00
8.160700e-01,7.440300e-01,3,3,1.522044e+00,1.522044e+00
8.149190e-01,7.393930e-01,3,3,1.524727e+00,1.524727e+00
8.156730e-01,7.447480e-01,3,3,1.424028e+00,1.424028e+00
8.147000e-01,7.392240e-01,3,3,1.286875e+00,1.286875e+00
8.152480e-01,7.438840e-01,3,3,1.436565e+00,1.436565e+00
8.164090e-01,7.441650e-01,3,3,1.632984e+00,1.632983e+00
8.100830e-01,7.441710e-01,3,3,2.837291e+00,2.837289e+00
8.168110e-01,7.447940e-01,3,3,2.167057e+00,2.167056e+00
8.109720e-01,7.441870e-01,3,3,2.871060e+00,2.871060e+00
8.147420e-01,7.446440e-01,3,3,1.569096e+00,1.569096e+00
8.159270e-01,7.385180e-01,3,3,1.496851e+00,1.496851e+00
8.139440e-01,7.436060e-01,3,3,1.149647e+00,1.149647e+00
8.154640e-01,7.385240e-01,3,3,8.732170e-01,8.732169e-01
8.132760e-01,7.439340e-01,3,3,1.659078e+00,1.659077e+00
8.160490e-01,7.447480e-01,3,3,1.925224e+00,1.925224e+00
8.095520e-01,7.442680e-01,3,3,2.817887e+00,2.817886e+00
8.145540e-01,7.459200e-01,3,3,2.754762e+00,2.754762e+00
8.165160e-01,7.379720e-01,3,3,2.781997e+00,2.781997e+00
8.156580e-01,7.444190e-01,3,3,4.362834e+00,4.362833e+00
8.167320e-01,7.393370e-01,3,3,4.859261e+00,4.859261e+00
8.159020e-01,7.443700e-01,3,3,3.831587e+00,3.831588e+00
8.163650e-01,7.452580e-01,3,3,3.561611e+00,3.561612e+00
8.097880e-01,7.468920e-01,3,3,4.736139e+00,4.736137e+00
8.170810e-01,7.441210e-01,3,3,3.264612e+00,3.264613e+00
8.152270e-01,7.387240e-01,3,3,2.808606e+00,2.808607e+00
8.160930e-01,7.447790e-01,3,3,2.685665e+00,2.685664e+00
8.154760e-01,7.391800e-01,3,3,2.725045e+00,2.725044e+00
8.150720e-01,7.450820e-01,3,3,2.645758e+00,2.645757e+00
8.165530e-01,7.453690e-01,3,3,2.394701e+00,2.394700e+00
8.104930e-01,7.449730e-01,3,3,2.533945e+00,2.533945e+00
8.156560e-01,7.444980e-01,3,3,3.060525e+00,3.060527e+00
8.110580e-01,7.432450e-01,3,3,3.662159e+00,3.662219e+00
8.150940e-01,7.455170e-01,3,3,2.935457e+00,2.935727e+00
8.166520e-01,9.887940e-01,3,4,3.018212e+00,3.018216e+00
8.113080e-01,7.446040e-01,3,3,2.485155e+00,2.485157e+00
8.156390e-01,7.440040e-01,3,3,2.642244e+00,2.642264e+00

