2.011580e+01,1.224685e+01,6,50
1.039574e+01,7.425070e+00,3,36
1.718928e+01,6.133080e+00,5,30
1.018220e+01,6.754875e+00,3,34
2.050092e+01,6.557941e+00,6,32
1.717629e+01,5.779028e+00,5,28
1.044779e+01,6.237030e+00,3,30
1.019288e+01,5.999088e+00,3,30
1.042626e+01,5.408049e+00,3,26
1.731734e+01,5.471945e+00,5,26
1.413969e+01,6.164074e+00,4,26
3.467541e+01,5.913973e+00,10,28
1.065239e+01,6.285906e+00,3,30
2.444762e+01,7.179022e+00,7,34
1.405750e+01,9.611130e+00,4,46

