2.902339e+00,1.255023e+01,1.002407e+01,2,0,0.000000e+00,0.000000e+00
4.372365e+00,2.499006e+00,2.439976e+00,3,0,7.551209e-02,7.551224e-02
4.351603e+00,2.501442e+00,2.463102e+00,3,0,1.395621e-01,1.395623e-01
4.371911e+00,2.484728e+00,2.447128e+00,3,0,2.946823e-01,2.946826e-01
4.395967e+00,2.522201e+00,2.485991e+00,3,0,2.716495e-01,2.716497e-01
4.350035e+00,2.514295e+00,2.475023e+00,3,0,1.276167e+00,1.276169e+00
4.353185e+00,2.443658e+00,2.406836e+00,3,0,1.779663e+00,1.779664e+00
4.366413e+00,2.497665e+00,2.460003e+00,3,0,2.335722e+00,2.335723e+00
4.353395e+00,2.491208e+00,2.451897e+00,3,0,1.148687e+00,1.148686e+00
4.358604e+00,2.490833e+00,2.450943e+00,3,0,1.018461e+00,1.018461e+00
4.403922e+00,2.481923e+00,2.443075e+00,3,0,8.424528e-01,8.424531e-01
4.382606e+00,2.517984e+00,2.476931e+00,3,0,9.746404e-01,9.746411e-01
4.495404e+00,2.563874e+00,2.522945e+00,3,0,1.616753e+00,1.616754e+00
4.488472e+00,2.617280e+00,2.578020e+00,3,0,2.206613e+00,2.206614e+00
4.411829e+00,2.567024e+00,2.517939e+00,3,0,2.022702e+00,2.022702e+00
4.395699e+00,2.487204e+00,2.449036e+00,3,0,2.825381e+00,2.825382e+00
4.412057e+00,2.424291e+00,2.388000e+00,3,0,2.206349e+00,2.206349e+00
4.398381e+00,2.471131e+00,2.433062e+00,3,0,1.931090e+00,1.931091e+00
4.397063e+00,2.405780e+00,2.370119e+00,3,0,1.844838e+00,1.844838e+00
4.395229e+00,2.488906e+00,2.452135e+00,3,0,1.758303e+00,1.758304e+00
4.405524e+00,2.493189e+00,2.457142e+00,3,0,1.840510e+00,1.840511e+00
4.403832e+00,2.493727e+00,2.455950e+00,3,0,1.533956e+00,1.533956e+00
4.415467e+00,2.506600e+00,2.467871e+00,3,0,1.381534e+00,1.381535e+00
4.414271e+00,2.498659e+00,2.454996e+00,3,0,1.204581e+00,1.204582e+00
4.397650e+00,2.486338e+00,2.449036e+00,3,0,1.188903e+00,1.188904e+00
4.410595e+00,2.483153e+00,2.444983e+00,3,0,1.149710e+00,1.149710e+00
4.420814e+00,2.498371e+00,2.460957e+00,3,0,9.518776e-01,9.518779e-01
4.405807e+00,2.506108e+00,2.468109e+00,3,0,6.794439e-01,6.794440e-01
4.413367e+00,2.494830e+00,2.455950e+00,3,0,3.431008e-01,3.431012e-01
4.419801e+00,2.490574e+00,2.450943e+00,3,0,2.960831e-01,2.960832e-01
4.405979e+00,2.528443e+00,2.490044e+00,3,0,5.896103e-01,5.896111e-01
4.397414e+00,2.502868e+00,2.465010e+00,3,0,6.941784e-01,6.941788e-01
4.408429e+00,2.496488e+00,2.457142e+00,3,0,5.984793e-01,5.984794e-01
4.399817e+00,2.516640e+00,2.478838e+00,3,0,9.215445e-01,9.215452e-01
4.399455e+00,2.475658e+00,2.438068e+00,3,0,7.538888e-01,7.538889e-01
4.395070e+00,2.495086e+00,2.458096e+00,3,0,5.559930e-01,5.559930e-01
4.406855e+00,2.544701e+00,2.503157e+00,3,0,4.066880e-01,4.066882e-01
4.404832e+00,2.478900e+00,2.435207e+00,3,0,3.376784e-01,3.376786e-01
4.398785e+00,2.481228e+00,2.443075e+00,3,0,8.606976e-01,8.606985e-01
4.400050e+00,2.520416e+00,2.481937e+00,3,0,9.504783e-01,9.504785e-01
4.375219e+00,2.472443e+00,2.435923e+00,3,0,2.139477e+00,2.139478e+00
4.385085e+00,2.528723e+00,2.491951e+00,3,0,2.927873e+00,2.927875e+00
4.357421e+00,2.486309e+00,2.449036e+00,3,0,1.852340e+00,1.852339e+00
4.343450e+00,2.498592e+00,2.460957e+00,3,0,2.797935e+00,2.797936e+00
4.355890e+00,2.475728e+00,2.439976e+00,3,0,2.235884e+00,2.235884e+00
4.366936e+00,2.481225e+00,2.444029e+00,3,0,1.808748e+00,1.808748e+00
4.359609e+00,2.468902e+00,2.430916e+00,3,0,1.619818e+00,1.619818e+00
4.351063e+00,2.494826e+00,2.459049e+00,3,0,1.344299e+00,1.344299e+00
4.351791e+00,2.503845e+00,2.467871e+00,3,0,1.080027e+00,1.080027e+00
4.352400e+00,2.466016e+00,2.429008e+00,3,0,6.876476e-01,6.876475e-01
4.417815e+00,2.494169e+00,2.455950e+00,3,0,6.177118e-01,6.177121e-01
4.355477e+00,2.458943e+00,2.420902e+00,3,0,9.829236e-01,9.829244e-01
4.347826e+00,2.478911e+00,2.440929e+00,3,0,7.168842e-01,7.168844e-01
4.351436e+00,2.531417e+00,2.494097e+00,3,0,6.110373e-01,6.110373e-01
4.364569e+00,2.501028e+00,2.464056e+00,3,0,8.078102e-01,8.078107e-01
4.347329e+00,2.519395e+00,2.482176e+00,3,0,1.109397e+00,1.109397e+00
4.386595e+00,2.503988e+00,2.465963e+00,3,0,5.988307e-01,5.988306e-01
4.363695e+00,2.446736e+00,2.410889e+00,3,0,9.244299e-01,9.244306e-01
4.348086e+00,2.493718e+00,2.456903e+00,3,0,1.306199e+00,1.306200e+00
4.360446e+00,2.555529e+00,2.518892e+00,3,0,1.969784e+00,1.969785e+00
4.368786e+00,2.492011e+00,2.454042e+00,3,0,8.942516e-01,8.942522e-01
4.381683e+00,2.446289e+00,2.409220e+00,3,0,1.939671e+00,1.939673e+00
4.379182e+00,2.455991e+00,2.418995e+00,3,0,3.653225e+00,3.653228e+00
4.386440e+00,2.476584e+00,2.440929e+00,3,0,1.983769e+00,1.983768e+00
4.351284e+00,2.508804e+00,2.474070e+00,3,0,2.724662e+00,2.724664e+00
4.366060e+00,2.509266e+00,2.470970e+00,3,0,1.182477e+00,1.182476e+00
4.363952e+00,2.491850e+00,2.454042e+00,3,0,1.263766e+00,1.263766e+00
4.344616e+00,2.508537e+00,2.471924e+00,3,0,9.845565e-01,9.845568e-01
4.417224e+00,2.516442e+00,2.480030e+00,3,0,7.762216e-01,7.762219e-01
4.346187e+00,2.454673e+00,2.417803e+00,3,0,5.908721e-01,5.908725e-01
4.345832e+00,2.490426e+00,2.453089e+00,3,0,8.816919e-01,8.816925e-01
4.355986e+00,2.554307e+00,2.518177e+00,3,0,9.003219e-01,9.003221e-01
4.366528e+00,2.487330e+00,2.449989e+00,3,0,9.129587e-01,9.129590e-01
4.345419e+00,2.486386e+00,2.449036e+00,3,0,1.029772e+00,1.029772e+00
4.402949e+00,2.485109e+00,2.449036e+00,3,0,1.502112e+00,1.502113e+00
4.368135e+00,2.477109e+00,2.439976e+00,3,0,2.017964e+00,2.017965e+00
4.388529e+00,2.488732e+00,2.447128e+00,3,0,1.214733e+00,1.214733e+00
4.354715e+00,2.510590e+00,2.474070e+00,3,0,1.209876e+00,1.209876e+00
4.346897e+00,2.479723e+00,2.441883e+00,3,0,8.937062e-01,8.937062e-01
4.349151e+00,2.471226e+00,2.434015e+00,3,0,4.433706e-01,4.433706e-01
4.415591e+00,2.503920e+00,2.466917e+00,3,0,1.527410e+00,1.527412e+00
4.380021e+00,2.497171e+00,2.459049e+00,3,0,1.130290e+00,1.130290e+00
4.326108e+00,2.495713e+00,2.458096e+00,3,0,1.011827e+00,1.011828e+00
4.360709e+00,2.487459e+00,2.449989e+00,3,0,9.740378e-01,9.740384e-01
4.355606e+00,2.478388e+00,2.431154e+00,3,0,1.400945e+00,1.400946e+00
4.351689e+00,2.455982e+00,2.418995e+00,3,0,2.512778e+00,2.512780e+00
4.325158e+00,2.487423e+00,2.449036e+00,3,0,3.760617e+00,3.760619e+00
4.386921e+00,1.073361e+01,1.069498e+01,3,2,5.483424e+00,5.483433e+00
4.368143e+00,1.411594e+01,1.407599e+01,3,3,4.458069e+00,4.458430e+00
4.380409e+00,1.043451e+01,1.039290e+01,3,2,3.182345e+00,3.182347e+00
4.364351e+00,6.235104e+00,6.195068e+00,3,1,2.454093e+00,2.454093e+00
4.407068e+00,2.442874e+00,2.403021e+00,3,0,1.719397e+00,1.719397e+00
4.362840e+00,2.374792e+00,2.336979e+00,3,0,2.433287e+00,2.433289e+00
4.345153e+00,2.459438e+00,2.420902e+00,3,0,1.807901e+00,1.807900e+00
4.378628e+00,2.459267e+00,2.424002e+00,3,0,2.327531e+00,2.327533e+00
4.374136e+00,2.480506e+00,2.426147e+00,3,0,2.510070e+00,2.510071e+00
4.385905e+00,2.420977e+00,2.384901e+00,3,0,1.084532e+00,1.084532e+00
4.348730e+00,2.507421e+00,2.470016e+00,3,0,9.374207e-01,9.374209e-01
4.433172e+00,2.438139e+00,2.402067e+00,3,0,1.319558e+00,1.319559e+00
4.352019e+00,2.465782e+00,2.429008e+00,3,0,1.415889e+00,1.415890e+00
4.348166e+00,2.519762e+00,2.482891e+00,3,0,1.066766e+00,1.066766e+00
4.398796e+00,2.524253e+00,2.488852e+00,3,0,1.238101e+00,1.238102e+00
4.345863e+00,2.445442e+00,2.406836e+00,3,0,7.214969e-01,7.214970e-01
4.403315e+00,2.553679e+00,2.516031e+00,3,0,6.568648e-01,6.568650e-01
4.389401e+00,2.515810e+00,2.477169e+00,3,0,5.438513e-01,5.438514e-01
4.353847e+00,2.523143e+00,2.485991e+00,3,0,5.784202e-01,5.784206e-01
4.362259e+00,2.520616e+00,2.483130e+00,3,0,8.078967e-01,8.078973e-01
4.392389e+00,2.515424e+00,2.476931e+00,3,0,8.817768e-01,8.817771e-01
4.354632e+00,2.456989e+00,2.418995e+00,3,0,5.667879e-01,5.667879e-01
4.358734e+00,2.489887e+00,2.452135e+00,3,0,5.720606e-01,5.720609e-01
4.406782e+00,2.422784e+00,2.373934e+00,3,0,5.279835e-01,5.279837e-01
4.380636e+00,2.471500e+00,2.434969e+00,3,0,4.518010e-01,4.518014e-01
4.410003e+00,2.537746e+00,2.498865e+00,3,0,3.135725e-01,3.135725e-01
4.391309e+00,2.484134e+00,2.444983e+00,3,0,5.541243e-01,5.541249e-01
4.403946e+00,2.414538e+00,2.377987e+00,3,0,2.932877e-01,2.932878e-01
4.406870e+00,2.522243e+00,2.485037e+00,3,0,3.389797e-01,3.389799e-01
4.393819e+00,2.489566e+00,2.449989e+00,3,0,8.799552e-01,8.799561e-01
4.400382e+00,2.476279e+00,2.439022e+00,3,0,6.417448e-01,6.417449e-01
4.394913e+00,2.480027e+00,2.442122e+00,3,0,2.071143e+00,2.071146e+00
4.339826e+00,2.453752e+00,2.417088e+00,3,0,1.435506e+00,1.435506e+00
4.356309e+00,2.459518e+00,2.420902e+00,3,0,1.390175e+00,1.390176e+00
4.347920e+00,2.511985e+00,2.473116e+00,3,0,1.731344e+00,1.731345e+00
4.372897e+00,2.458846e+00,2.419949e+00,3,0,1.563279e+00,1.563280e+00
4.343918e+00,2.460400e+00,2.424002e+00,3,0,1.722313e+00,1.722313e+00
4.339929e+00,2.515402e+00,2.477169e+00,3,0,3.041310e+00,3.041313e+00
4.386482e+00,2.492987e+00,2.438068e+00,3,0,1.973577e+00,1.973577e+00
4.360604e+00,2.456910e+00,2.418995e+00,3,0,1.500037e+00,1.500037e+00
4.332555e+00,2.499452e+00,2.460957e+00,3,0,1.307087e+00,1.307087e+00
4.365016e+00,2.501038e+00,2.460957e+00,3,0,7.837207e-01,7.837211e-01
4.344627e+00,2.450693e+00,2.413034e+00,3,0,8.577162e-01,8.577172e-01
4.356042e+00,2.469160e+00,2.430916e+00,3,0,5.381583e-01,5.381585e-01
4.394819e+00,2.523660e+00,2.483845e+00,3,0,7.102339e-01,7.102344e-01
4.388179e+00,2.450198e+00,2.410889e+00,3,0,3.163725e-01,3.163726e-01
4.343458e+00,2.481322e+00,2.441883e+00,3,0,2.572584e-01,2.572586e-01
4.363733e+00,2.489494e+00,2.451897e+00,3,0,2.640276e-01,2.640278e-01
4.410326e+00,2.505312e+00,2.465963e+00,3,0,5.737759e-01,5.737766e-01
4.422415e+00,2.564781e+00,2.522945e+00,3,0,5.918175e-01,5.918178e-01
4.539371e+00,2.596327e+00,2.557039e+00,3,0,5.015503e-01,5.015504e-01
4.403983e+00,2.529148e+00,2.490044e+00,3,0,5.462994e-01,5.462997e-01
4.406630e+00,2.513151e+00,2.474785e+00,3,0,4.626902e-01,4.626904e-01
4.405608e+00,2.506387e+00,2.465010e+00,3,0,8.631047e-01,8.631055e-01
4.413378e+00,2.509126e+00,2.470970e+00,3,0,1.472360e+00,1.472361e+00
4.399729e+00,2.493959e+00,2.454042e+00,3,0,1.662220e+00,1.662221e+00
4.407688e+00,2.480318e+00,2.441883e+00,3,0,1.301747e+00,1.301748e+00
4.395406e+00,2.496378e+00,2.456188e+00,3,0,1.159393e+00,1.159394e+00
4.406065e+00,2.467765e+00,2.430201e+00,3,0,1.072057e+00,1.072057e+00
4.398589e+00,2.494067e+00,2.454042e+00,3,0,7.684550e-01,7.684550e-01
4.399062e+00,2.477297e+00,2.439022e+00,3,0,6.784226e-01,6.784235e-01
4.394522e+00,2.495334e+00,2.458096e+00,3,0,1.196365e+00,1.196366e+00
4.402026e+00,2.507394e+00,2.470016e+00,3,0,1.709870e+00,1.709871e+00
4.395154e+00,2.488998e+00,2.449989e+00,3,0,1.043961e+00,1.043961e+00
4.392546e+00,2.520961e+00,2.483130e+00,3,0,9.875633e-01,9.875636e-01
4.401022e+00,2.481263e+00,2.443790e+00,3,0,8.865501e-01,8.865503e-01
4.402012e+00,2.499955e+00,2.460957e+00,3,0,8.128659e-01,8.128661e-01
4.406345e+00,2.499928e+00,2.460957e+00,3,0,6.697431e-01,6.697433e-01
4.411775e+00,2.483194e+00,2.445936e+00,3,0,7.530458e-01,7.530462e-01
4.389901e+00,2.485985e+00,2.447128e+00,3,0,1.230954e+00,1.230955e+00
4.408162e+00,2.489667e+00,2.453089e+00,3,0,1.183055e+00,1.183055e+00
4.402660e+00,2.500154e+00,2.462864e+00,3,0,1.252972e+00,1.252972e+00
4.410165e+00,2.492464e+00,2.454996e+00,3,0,1.423246e+00,1.423247e+00
4.405944e+00,2.517519e+00,2.480030e+00,3,0,6.507800e-01,6.507801e-01
4.404133e+00,2.483813e+00,2.444983e+00,3,0,5.206114e-01,5.206116e-01
4.398919e+00,2.480800e+00,2.444029e+00,3,0,5.456169e-01,5.456173e-01
4.406293e+00,2.473610e+00,2.436161e+00,3,0,2.479467e-01,2.479470e-01
4.399410e+00,2.488357e+00,2.451897e+00,3,0,2.496599e-01,2.496601e-01
4.404107e+00,2.548031e+00,2.510071e+00,3,0,4.269947e-01,4.269950e-01
4.397866e+00,2.497926e+00,2.460003e+00,3,0,3.637096e-01,3.637097e-01
4.394198e+00,2.478765e+00,2.441168e+00,3,0,9.785977e-01,9.785992e-01
4.407024e+00,2.491771e+00,2.454042e+00,3,0,7.268657e-01,7.268664e-01
4.407375e+00,2.497025e+00,2.459049e+00,3,0,5.136781e-01,5.136782e-01
4.399004e+00,2.512269e+00,2.474070e+00,3,0,4.576685e-01,4.576686e-01
4.380879e+00,2.523001e+00,2.485037e+00,3,0,4.659262e-01,4.659265e-01
4.370591e+00,2.486719e+00,2.449036e+00,3,0,4.789425e-01,4.789428e-01
4.339506e+00,2.504070e+00,2.467155e+00,3,0,3.020691e-01,3.020692e-01
4.389204e+00,2.456148e+00,2.421141e+00,3,0,3.394996e-01,3.395000e-01
4.334739e+00,2.496261e+00,2.457857e+00,3,0,2.773580e-01,2.773582e-01
4.319169e+00,2.482154e+00,2.444029e+00,3,0,2.395138e-01,2.395139e-01
4.328006e+00,2.495557e+00,2.442122e+00,3,0,6.457986e-01,6.457994e-01
4.324350e+00,2.467892e+00,2.430916e+00,3,0,4.074308e-01,4.074311e-01
4.326175e+00,2.545551e+00,2.507925e+00,3,0,6.452892e-01,6.452897e-01
4.330195e+00,2.510460e+00,2.472878e+00,3,0,1.041436e+00,1.041437e+00
4.344366e+00,2.455422e+00,2.418041e+00,3,0,8.929571e-01,8.929577e-01
4.324515e+00,2.465591e+00,2.429008e+00,3,0,1.012421e+00,1.012421e+00
4.376977e+00,2.527641e+00,2.490997e+00,3,0,7.096699e-01,7.096700e-01
4.337030e+00,2.483085e+00,2.446175e+00,3,0,7.097771e-01,7.097774e-01
4.354263e+00,2.507321e+00,2.470970e+00,3,0,8.114543e-01,8.114547e-01
4.335542e+00,2.484026e+00,2.447128e+00,3,0,1.782574e+00,1.782576e+00
4.383602e+00,2.486070e+00,2.440929e+00,3,0,2.360399e+00,2.360400e+00
4.323363e+00,2.485766e+00,2.449036e+00,3,0,2.091286e+00,2.091286e+00
4.342387e+00,2.512613e+00,2.475977e+00,3,0,1.700508e+00,1.700508e+00
4.374876e+00,2.475291e+00,2.436876e+00,3,0,1.573464e+00,1.573465e+00
4.323923e+00,2.444046e+00,2.407789e+00,3,0,1.068439e+00,1.068439e+00
4.379168e+00,2.494284e+00,2.455950e+00,3,0,1.055490e+00,1.055491e+00
4.403224e+00,2.466657e+00,2.429962e+00,3,0,1.037041e+00,1.037041e+00
4.353147e+00,2.479977e+00,2.443075e+00,3,0,7.956397e-01,7.956398e-01
4.323789e+00,2.468445e+00,2.430916e+00,3,0,7.031926e-01,7.031927e-01
4.414055e+00,2.469313e+00,2.431154e+00,3,0,1.431417e+00,1.431419e+00
4.325245e+00,2.451040e+00,2.413034e+00,3,0,2.982531e+00,2.982533e+00
4.340938e+00,2.461229e+00,2.424002e+00,3,0,3.031353e+00,3.031354e+00
4.373370e+00,2.532660e+00,2.494812e+00,3,0,3.054806e+00,3.054807e+00
4.375988e+00,2.478134e+00,2.429008e+00,3,0,3.560092e+00,3.560093e+00
4.325387e+00,2.470326e+00,2.433062e+00,3,0,5.094646e+00,5.094649e+00
4.378731e+00,2.473615e+00,2.434969e+00,3,0,3.266819e+00,3.266818e+00
4.358663e+00,2.555613e+00,2.502918e+00,3,0,3.985969e+00,3.985971e+00
4.327097e+00,2.454132e+00,2.416134e+00,3,0,3.077072e+00,3.077072e+00
4.347170e+00,2.493502e+00,2.456188e+00,3,0,2.875826e+00,2.875826e+00
4.333739e+00,2.490203e+00,2.452850e+00,3,0,1.974571e+00,1.974571e+00
4.379827e+00,2.462174e+00,2.425909e+00,3,0,2.489593e+00,2.489594e+00
4.327207e+00,2.468045e+00,2.430916e+00,3,0,1.671669e+00,1.671668e+00
4.382218e+00,2.499240e+00,2.462149e+00,3,0,2.163022e+00,2.163023e+00
4.344711e+00,2.509752e+00,2.473116e+00,3,0,7.060763e-01,7.060763e-01
4.322658e+00,2.446472e+00,2.408981e+00,3,0,9.278443e-01,9.278451e-01
4.354501e+00,2.532671e+00,2.496004e+00,3,0,1.801419e+00,1.801421e+00
4.337407e+00,2.478864e+00,2.440929e+00,3,0,1.390243e+00,1.390243e+00
4.365243e+00,2.520178e+00,2.480984e+00,3,0,2.192526e+00,2.192528e+00
4.305642e+00,2.503839e+00,2.463818e+00,3,0,1.943535e+00,1.943535e+00
4.277001e+00,2.510456e+00,2.474070e+00,3,0,3.271278e+00,3.271281e+00
4.275301e+00,2.428887e+00,2.390862e+00,3,0,1.690168e+00,1.690167e+00
4.402269e+00,2.489091e+00,2.451897e+00,3,0,1.412966e+00,1.412966e+00
4.399662e+00,2.510564e+00,2.473116e+00,3,0,1.101833e+00,1.101833e+00
4.348971e+00,2.482065e+00,2.446175e+00,3,0,1.109890e+00,1.109890e+00
4.330854e+00,2.528633e+00,2.480030e+00,3,0,1.180572e+00,1.180573e+00
4.375604e+00,2.481530e+00,2.443790e+00,3,0,1.771004e+00,1.771005e+00
4.371198e+00,2.473598e+00,2.435923e+00,3,0,7.989906e-01,7.989901e-01
4.327882e+00,2.507811e+00,2.470970e+00,3,0,5.277676e-01,5.277677e-01
4.407610e+00,2.487540e+00,2.450943e+00,3,0,5.981896e-01,5.981899e-01
4.407704e+00,2.465043e+00,2.428055e+00,3,0,5.715104e-01,5.715106e-01
4.369261e+00,2.512996e+00,2.475977e+00,3,0,4.452613e-01,4.452613e-01
4.376605e+00,2.496517e+00,2.459049e+00,3,0,7.191406e-01,7.191415e-01
4.348238e+00,2.481324e+00,2.444029e+00,3,0,1.052376e+00,1.052377e+00
4.340941e+00,2.517931e+00,2.480030e+00,3,0,1.601037e+00,1.601038e+00
4.406489e+00,2.463769e+00,2.425909e+00,3,0,3.478609e+00,3.478612e+00
4.360801e+00,2.453041e+00,2.416134e+00,3,0,4.514009e+00,4.514011e+00
4.353626e+00,2.488017e+00,2.452135e+00,3,0,3.065471e+00,3.065471e+00
4.365317e+00,2.511109e+00,2.474070e+00,3,0,3.784558e+00,3.784560e+00
4.378903e+00,2.537212e+00,2.501011e+00,3,0,2.730909e+00,2.730909e+00
4.362471e+00,2.511820e+00,2.462864e+00,3,0,2.168827e+00,2.168827e+00
4.413870e+00,2.473499e+00,2.436876e+00,3,0,2.418019e+00,2.418020e+00
4.350444e+00,2.446075e+00,2.408028e+00,3,0,1.306380e+00,1.306380e+00
4.379190e+00,2.465739e+00,2.429008e+00,3,0,9.994601e-01,9.994613e-01
4.436112e+00,2.572437e+00,2.535105e+00,3,0,7.696718e-01,7.696718e-01
4.371168e+00,2.463556e+00,2.425194e+00,3,0,7.205178e-01,7.205180e-01
4.389726e+00,2.515033e+00,2.476931e+00,3,0,6.833545e-01,6.833547e-01
4.357926e+00,2.501892e+00,2.452850e+00,3,0,1.060750e+00,1.060751e+00
4.348390e+00,2.518659e+00,2.482176e+00,3,0,3.632652e-01,3.632650e-01
4.376370e+00,2.530271e+00,2.493858e+00,3,0,1.456896e+00,1.456898e+00
4.354642e+00,2.461123e+00,2.423048e+00,3,0,3.221339e+00,3.221342e+00
4.351331e+00,2.506372e+00,2.469063e+00,3,0,1.879966e+00,1.879966e+00
4.371275e+00,2.461299e+00,2.424002e+00,3,0,1.342876e+00,1.342876e+00
4.356114e+00,2.479463e+00,2.442837e+00,3,0,1.100848e+00,1.100848e+00
4.349724e+00,2.481659e+00,2.443075e+00,3,0,9.350391e-01,9.350392e-01
4.397288e+00,2.523380e+00,2.486944e+00,3,0,8.765797e-01,8.765799e-01
4.374307e+00,2.447819e+00,2.411127e+00,3,0,1.483488e+00,1.483489e+00
4.403971e+00,2.491150e+00,2.454996e+00,3,0,1.146398e+00,1.146398e+00
4.380523e+00,2.563302e+00,2.526045e+00,3,0,8.245375e-01,8.245376e-01
4.400552e+00,2.498067e+00,2.460003e+00,3,0,9.175511e-01,9.175515e-01
4.322469e+00,2.496185e+00,2.459049e+00,3,0,1.572600e+00,1.572602e+00
4.358962e+00,2.490802e+00,2.454996e+00,3,0,2.548006e+00,2.548008e+00
4.346962e+00,2.482783e+00,2.446175e+00,3,0,4.638468e+00,4.638472e+00
4.356100e+00,2.470373e+00,2.434015e+00,3,0,5.660153e+00,5.660155e+00
4.382920e+00,2.510418e+00,2.472878e+00,3,0,5.111811e+00,5.111811e+00
4.382665e+00,6.612838e+00,6.575108e+00,3,1,5.361426e+00,5.361444e+00
4.430649e+00,6.338776e+00,6.293058e+00,3,1,4.518844e+00,4.518844e+00
4.383941e+00,2.475015e+00,2.435923e+00,3,0,4.751984e+00,4.751986e+00
4.360165e+00,2.490134e+00,2.452135e+00,3,0,4.746634e+00,4.746636e+00
4.393570e+00,2.524219e+00,2.485991e+00,3,0,3.913832e+00,3.913832e+00
4.385210e+00,2.524735e+00,2.487183e+00,3,0,3.373795e+00,3.373796e+00
4.407762e+00,2.546590e+00,2.508879e+00,3,0,2.596153e+00,2.596153e+00
4.401493e+00,2.493679e+00,2.454042e+00,3,0,2.364516e+00,2.364516e+00
4.423165e+00,2.489030e+00,2.451181e+00,3,0,2.377071e+00,2.377071e+00
4.411528e+00,2.510548e+00,2.473116e+00,3,0,3.044289e+00,3.044290e+00
4.438800e+00,4.663970e+01,4.660082e+01,3,11,5.471063e+00,5.506680e+00
8.788116e+00,4.120266e+01,4.116106e+01,6,10,5.713012e+00,5.733537e+00
7.320352e+00,4.800896e+01,4.796600e+01,5,12,6.257297e+00,6.259094e+00
5.857091e+00,1.364970e+01,1.360798e+01,4,3,5.303546e+00,5.303546e+00
4.420706e+00,6.668860e+00,6.623983e+00,3,1,5.338722e+00,5.338723e+00
4.408346e+00,7.326903e+00,7.286072e+00,3,1,6.515728e+00,6.516897e+00
4.410206e+00,6.953684e+00,6.914139e+00,3,1,6.035056e+00,6.035206e+00
4.413694e+00,6.247846e+00,6.206989e+00,3,1,5.027739e+00,5.027739e+00
4.413744e+00,2.474582e+00,2.434969e+00,3,0,4.242600e+00,4.242601e+00
4.406412e+00,2.475530e+00,2.436876e+00,3,0,3.761797e+00,3.761798e+00
4.394821e+00,2.480249e+00,2.440929e+00,3,0,3.222031e+00,3.222031e+00
4.410838e+00,2.567373e+00,2.528906e+00,3,0,2.958978e+00,2.958978e+00
4.395165e+00,2.493487e+00,2.454996e+00,3,0,3.072684e+00,3.072685e+00
4.400042e+00,2.440137e+00,2.403021e+00,3,0,1.689590e+00,1.689589e+00
4.402693e+00,2.478367e+00,2.439976e+00,3,0,1.466493e+00,1.466493e+00
4.403935e+00,2.438043e+00,2.400875e+00,3,0,1.622647e+00,1.622648e+00
4.405666e+00,2.465437e+00,2.427101e+00,3,0,1.120972e+00,1.120972e+00
4.414440e+00,2.494947e+00,2.455950e+00,3,0,9.459976e-01,9.459978e-01
4.395512e+00,2.487792e+00,2.449989e+00,3,0,7.684265e-01,7.684268e-01
4.400161e+00,2.436791e+00,2.400160e+00,3,0,4.885190e-01,4.885190e-01
4.405254e+00,2.498083e+00,2.461195e+00,3,0,3.703970e-01,3.703977e-01
4.400191e+00,2.405536e+00,2.369165e+00,3,0,2.797297e-01,2.797301e-01
4.417574e+00,2.474788e+00,2.436876e+00,3,0,3.974026e-01,3.974030e-01
4.400179e+00,2.491584e+00,2.454042e+00,3,0,5.354266e-01,5.354270e-01
4.412084e+00,2.418639e+00,2.382040e+00,3,0,3.592155e-01,3.592156e-01
4.404770e+00,2.483246e+00,2.445936e+00,3,0,4.040960e-01,4.040965e-01
4.418299e+00,2.490993e+00,2.453089e+00,3,0,1.113163e+00,1.113164e+00
4.399329e+00,2.521880e+00,2.484083e+00,3,0,2.515819e+00,2.515822e+00
4.413945e+00,2.510259e+00,2.471924e+00,3,0,3.426457e+00,3.426458e+00
4.403947e+00,2.529897e+00,2.481937e+00,3,0,2.879434e+00,2.879434e+00
4.410432e+00,2.507262e+00,2.464056e+00,3,0,3.110357e+00,3.110359e+00
4.410312e+00,2.526401e+00,2.488136e+00,3,0,3.024905e+00,3.024906e+00
4.411733e+00,2.498400e+00,2.459049e+00,3,0,2.671658e+00,2.671658e+00
4.412749e+00,2.532809e+00,2.493858e+00,3,0,2.112219e+00,2.112219e+00
4.402369e+00,2.479953e+00,2.440929e+00,3,0,2.070677e+00,2.070677e+00
4.397769e+00,2.489919e+00,2.453089e+00,3,0,3.677848e+00,3.677850e+00
4.415880e+00,6.612037e+00,6.572962e+00,3,1,4.748285e+00,4.748879e+00
4.421915e+00,1.614382e+01,1.610303e+01,3,3,5.601877e+00,5.604441e+00
4.416918e+00,1.434431e+01,1.430202e+01,3,3,4.561990e+00,4.562020e+00
4.418589e+00,6.260287e+00,6.219149e+00,3,1,3.478402e+00,3.478402e+00
4.408914e+00,2.465881e+00,2.426147e+00,3,0,2.544122e+00,2.544122e+00
4.410716e+00,2.450885e+00,2.412081e+00,3,0,2.076842e+00,2.076842e+00
4.411048e+00,2.474722e+00,2.436161e+00,3,0,2.759522e+00,2.759524e+00
4.413830e+00,2.576858e+00,2.528191e+00,3,0,2.751330e+00,2.751330e+00
4.571205e+00,2.536095e+00,2.496004e+00,3,0,2.069405e+00,2.069405e+00
4.405155e+00,2.556058e+00,2.516985e+00,3,0,2.024263e+00,2.024264e+00
4.404513e+00,2.562341e+00,2.525091e+00,3,0,2.326175e+00,2.326176e+00
4.414978e+00,2.511274e+00,2.467155e+00,3,0,2.414221e+00,2.414222e+00
4.398119e+00,2.475017e+00,2.436876e+00,3,0,2.956548e+00,2.956550e+00
4.404888e+00,2.497418e+00,2.454996e+00,3,0,2.350924e+00,2.350924e+00
4.408514e+00,2.508240e+00,2.470970e+00,3,0,3.067178e+00,3.067180e+00
4.401511e+00,2.507859e+00,2.469063e+00,3,0,3.023787e+00,3.023788e+00
4.403653e+00,2.484567e+00,2.445936e+00,3,0,2.527911e+00,2.527911e+00
4.419436e+00,2.470210e+00,2.432108e+00,3,0,2.091117e+00,2.091118e+00
4.391525e+00,2.484434e+00,2.445936e+00,3,0,2.201043e+00,2.201044e+00
4.404287e+00,2.499476e+00,2.463102e+00,3,0,2.211135e+00,2.211135e+00
4.417930e+00,2.528972e+00,2.489090e+00,3,0,1.630544e+00,1.630544e+00
4.396318e+00,2.508560e+00,2.470016e+00,3,0,1.629960e+00,1.629960e+00
4.405887e+00,2.481777e+00,2.444029e+00,3,0,1.065575e+00,1.065575e+00
4.396015e+00,2.482195e+00,2.444029e+00,3,0,8.781361e-01,8.781363e-01
4.416802e+00,2.498884e+00,2.460003e+00,3,0,5.657123e-01,5.657125e-01
4.403440e+00,2.487577e+00,2.449989e+00,3,0,3.838170e-01,3.838171e-01
4.392911e+00,2.487933e+00,2.449989e+00,3,0,2.168859e-01,2.168860e-01
4.399862e+00,2.483848e+00,2.444983e+00,3,0,4.077928e-01,4.077934e-01
4.398797e+00,2.481454e+00,2.444029e+00,3,0,2.298410e-01,2.298410e-01
4.402821e+00,2.496126e+00,2.458096e+00,3,0,2.219913e-01,2.219916e-01
4.427970e+00,2.488013e+00,2.449989e+00,3,0,1.341587e-01,1.341588e-01
4.393395e+00,2.478473e+00,2.439022e+00,3,0,1.470552e-01,1.470553e-01
4.391930e+00,2.483980e+00,2.445936e+00,3,0,1.317567e-01,1.317568e-01
4.410436e+00,2.480858e+00,2.443075e+00,3,0,3.249661e-01,3.249665e-01
4.396976e+00,2.479584e+00,2.442122e+00,3,0,2.494326e-01,2.494328e-01
4.401650e+00,2.519933e+00,2.482891e+00,3,0,2.719725e-01,2.719731e-01
4.399800e+00,2.482445e+00,2.444983e+00,3,0,5.470065e-01,5.470070e-01
4.394730e+00,2.503692e+00,2.466202e+00,3,0,2.990698e-01,2.990697e-01
4.414451e+00,2.519467e+00,2.480984e+00,3,0,4.258677e-01,4.258680e-01
4.393808e+00,2.490055e+00,2.452135e+00,3,0,4.303108e-01,4.303110e-01
4.393802e+00,2.564316e+00,2.526045e+00,3,0,7.248237e-01,7.248243e-01
4.390282e+00,2.518282e+00,2.475023e+00,3,0,5.522409e-01,5.522409e-01
4.411460e+00,2.486331e+00,2.448082e+00,3,0,3.638423e-01,3.638423e-01
4.417652e+00,2.500375e+00,2.461195e+00,3,0,2.660243e-01,2.660245e-01
4.345930e+00,2.510738e+00,2.471924e+00,3,0,3.563770e-01,3.563773e-01
4.356572e+00,2.516475e+00,2.478838e+00,3,0,3.281880e-01,3.281881e-01
4.354379e+00,2.515876e+00,2.478123e+00,3,0,2.648641e-01,2.648642e-01
4.386766e+00,2.495477e+00,2.457857e+00,3,0,4.637969e-01,4.637974e-01
4.394166e+00,2.520791e+00,2.481937e+00,3,0,3.516939e-01,3.516941e-01
4.444344e+00,2.505715e+00,2.467871e+00,3,0,5.227982e-01,5.227986e-01
4.397817e+00,2.499930e+00,2.460957e+00,3,0,9.247090e-01,9.247098e-01
4.409832e+00,2.492551e+00,2.454042e+00,3,0,8.107850e-01,8.107854e-01
4.409857e+00,2.481629e+00,2.444983e+00,3,0,7.181155e-01,7.181157e-01
4.394046e+00,2.511016e+00,2.473116e+00,3,0,1.643258e+00,1.643260e+00
4.412044e+00,2.549240e+00,2.511024e+00,3,0,1.994016e+00,1.994017e+00
4.398516e+00,2.495655e+00,2.457142e+00,3,0,1.134334e+00,1.134333e+00
4.402219e+00,2.507283e+00,2.470016e+00,3,0,8.482995e-01,8.482995e-01
4.406829e+00,2.472744e+00,2.434969e+00,3,0,6.537288e-01,6.537290e-01
4.403590e+00,2.504682e+00,2.466917e+00,3,0,4.364268e-01,4.364269e-01
4.417089e+00,2.534496e+00,2.497196e+00,3,0,3.864401e-01,3.864402e-01
4.406939e+00,2.492640e+00,2.454996e+00,3,0,5.548976e-01,5.548979e-01
4.405268e+00,2.514462e+00,2.475977e+00,3,0,5.307643e-01,5.307645e-01
4.400175e+00,2.497364e+00,2.458811e+00,3,0,2.639973e-01,2.639977e-01
4.405544e+00,2.811340e+00,2.773046e+00,3,0,7.177026e-01,7.177035e-01
4.395322e+00,2.509185e+00,2.471924e+00,3,0,3.984592e-01,3.984591e-01
4.397769e+00,2.529975e+00,2.490997e+00,3,0,3.519681e-01,3.519683e-01
4.400575e+00,2.488144e+00,2.449989e+00,3,0,4.923571e-01,4.923576e-01
4.418622e+00,2.509503e+00,2.472162e+00,3,0,4.030473e-01,4.030474e-01
4.409501e+00,2.544689e+00,2.506018e+00,3,0,4.731872e-01,4.731875e-01
4.407701e+00,2.500077e+00,2.462864e+00,3,0,6.026992e-01,6.026997e-01
4.403870e+00,2.488664e+00,2.450943e+00,3,0,4.756017e-01,4.756020e-01
4.400121e+00,2.536456e+00,2.499104e+00,3,0,4.945690e-01,4.945695e-01
4.416616e+00,2.547184e+00,2.509832e+00,3,0,6.169641e-01,6.169645e-01
4.400034e+00,2.508840e+00,2.471209e+00,3,0,7.574959e-01,7.574964e-01
4.398311e+00,2.491770e+00,2.453804e+00,3,0,1.135819e+00,1.135820e+00
4.401508e+00,2.524240e+00,2.485991e+00,3,0,7.866710e-01,7.866710e-01
4.400878e+00,2.503932e+00,2.465010e+00,3,0,7.566152e-01,7.566160e-01
4.405788e+00,2.505404e+00,2.468109e+00,3,0,7.321452e-01,7.321454e-01
4.397861e+00,2.496141e+00,2.457857e+00,3,0,7.926656e-01,7.926659e-01
4.405875e+00,2.519143e+00,2.482176e+00,3,0,6.555935e-01,6.555937e-01
4.398986e+00,2.502236e+00,2.464056e+00,3,0,1.115601e+00,1.115602e+00
4.410174e+00,2.488343e+00,2.449989e+00,3,0,8.292409e-01,8.292410e-01
4.403823e+00,2.472527e+00,2.434015e+00,3,0,7.751496e-01,7.751498e-01
4.398969e+00,2.492146e+00,2.454042e+00,3,0,7.596656e-01,7.596659e-01
4.408045e+00,2.588084e+00,2.549171e+00,3,0,6.878775e-01,6.878778e-01
4.431221e+00,2.576308e+00,2.536058e+00,3,0,4.928153e-01,4.928154e-01
4.409415e+00,2.569784e+00,2.529860e+00,3,0,6.019904e-01,6.019908e-01
4.382608e+00,2.556913e+00,2.507925e+00,3,0,6.788456e-01,6.788460e-01
4.378696e+00,2.549062e+00,2.511978e+00,3,0,4.668361e-01,4.668362e-01
4.378902e+00,2.554233e+00,2.500057e+00,3,0,8.782914e-01,8.782924e-01
4.402308e+00,2.541277e+00,2.503157e+00,3,0,6.180956e-01,6.180957e-01
4.411597e+00,2.498538e+00,2.460957e+00,3,0,5.652572e-01,5.652575e-01
4.418637e+00,2.536905e+00,2.497911e+00,3,0,5.058808e-01,5.058810e-01
4.397370e+00,2.486072e+00,2.447844e+00,3,0,3.970669e-01,3.970673e-01
4.409040e+00,2.487716e+00,2.449989e+00,3,0,2.920336e-01,2.920338e-01
4.397058e+00,2.503839e+00,2.466917e+00,3,0,5.797284e-01,5.797289e-01
4.406878e+00,2.490305e+00,2.451897e+00,3,0,4.997496e-01,4.997498e-01
4.402060e+00,2.507446e+00,2.468109e+00,3,0,5.083716e-01,5.083720e-01
4.402983e+00,2.551175e+00,2.513170e+00,3,0,4.754079e-01,4.754080e-01
4.398127e+00,2.535791e+00,2.491951e+00,3,0,3.696141e-01,3.696143e-01
4.398126e+00,2.467728e+00,2.429962e+00,3,0,4.437754e-01,4.437756e-01
4.413339e+00,2.508378e+00,2.471209e+00,3,0,3.442546e-01,3.442547e-01
4.395990e+00,2.494911e+00,2.454996e+00,3,0,1.454145e+00,1.454148e+00
4.402216e+00,2.508340e+00,2.470970e+00,3,0,3.218433e+00,3.218436e+00
4.406098e+00,2.514553e+00,2.475977e+00,3,0,2.417712e+00,2.417712e+00
4.396797e+00,2.481833e+00,2.443075e+00,3,0,1.723471e+00,1.723471e+00
4.413209e+00,2.517930e+00,2.479076e+00,3,0,1.264275e+00,1.264275e+00
4.404510e+00,2.490089e+00,2.452135e+00,3,0,1.366921e+00,1.366922e+00
4.398913e+00,2.510485e+00,2.473116e+00,3,0,1.080434e+00,1.080434e+00
4.406497e+00,2.510310e+00,2.473116e+00,3,0,1.043215e+00,1.043215e+00
4.396490e+00,2.484164e+00,2.445936e+00,3,0,1.256931e+00,1.256931e+00
4.400279e+00,2.480929e+00,2.443075e+00,3,0,1.434086e+00,1.434087e+00
4.400869e+00,2.492956e+00,2.454996e+00,3,0,1.312171e+00,1.312172e+00
4.400252e+00,2.515689e+00,2.475977e+00,3,0,1.397984e+00,1.397985e+00
4.406052e+00,2.485634e+00,2.446890e+00,3,0,1.863006e+00,1.863007e+00
4.413030e+00,2.503413e+00,2.460003e+00,3,0,1.373502e+00,1.373502e+00
4.394170e+00,2.538805e+00,2.501011e+00,3,0,9.297248e-01,9.297247e-01
4.396322e+00,2.496541e+00,2.458096e+00,3,0,5.499694e-01,5.499693e-01
4.409691e+00,2.472144e+00,2.434015e+00,3,0,3.668122e-01,3.668123e-01
4.421779e+00,2.493344e+00,2.454996e+00,3,0,2.877344e-01,2.877345e-01
4.397354e+00,2.481607e+00,2.443790e+00,3,0,3.947813e-01,3.947817e-01
4.404753e+00,2.443738e+00,2.406120e+00,3,0,2.789106e-01,2.789106e-01
4.404703e+00,2.540374e+00,2.502918e+00,3,0,4.675782e-01,4.675786e-01
4.400086e+00,2.431564e+00,2.388954e+00,3,0,4.970870e-01,4.970872e-01
4.404803e+00,2.472152e+00,2.436161e+00,3,0,4.618472e-01,4.618473e-01
4.411502e+00,2.541807e+00,2.504826e+00,3,0,5.953705e-01,5.953710e-01
4.403663e+00,2.512760e+00,2.475023e+00,3,0,3.315649e-01,3.315649e-01
4.397072e+00,2.482731e+00,2.444029e+00,3,0,2.690293e-01,2.690294e-01
4.405335e+00,2.538101e+00,2.493143e+00,3,0,1.439724e+00,1.439727e+00
4.398129e+00,2.523343e+00,2.485991e+00,3,0,1.497785e+00,1.497785e+00
4.404073e+00,2.497902e+00,2.460003e+00,3,0,7.278902e-01,7.278898e-01
4.397963e+00,2.499875e+00,2.460957e+00,3,0,7.181027e-01,7.181029e-01
4.406165e+00,2.508889e+00,2.470970e+00,3,0,6.287868e-01,6.287870e-01
4.401997e+00,2.522130e+00,2.483845e+00,3,0,6.738957e-01,6.738959e-01
4.393797e+00,2.473336e+00,2.436161e+00,3,0,3.442821e-01,3.442821e-01
4.409332e+00,2.514017e+00,2.475023e+00,3,0,2.891120e-01,2.891122e-01
4.412805e+00,2.513453e+00,2.469063e+00,3,0,5.501599e-01,5.501605e-01
4.403916e+00,2.523295e+00,2.484798e+00,3,0,6.853907e-01,6.853911e-01
4.400940e+00,2.507895e+00,2.470016e+00,3,0,8.436226e-01,8.436231e-01
4.403329e+00,2.470979e+00,2.434015e+00,3,0,5.492943e-01,5.492944e-01
4.398194e+00,2.501303e+00,2.459049e+00,3,0,5.278050e-01,5.278053e-01
4.400078e+00,2.496607e+00,2.459049e+00,3,0,7.921355e-01,7.921362e-01
4.411252e+00,2.530901e+00,2.493143e+00,3,0,1.174981e+00,1.174981e+00
4.406761e+00,2.490466e+00,2.453089e+00,3,0,1.302907e+00,1.302908e+00
4.399442e+00,2.479454e+00,2.432108e+00,3,0,1.817128e+00,1.817129e+00
4.400478e+00,2.483002e+00,2.444983e+00,3,0,1.715595e+00,1.715595e+00
4.403831e+00,2.497623e+00,2.460003e+00,3,0,2.668153e+00,2.668154e+00
4.399154e+00,2.516646e+00,2.476931e+00,3,0,1.115506e+00,1.115505e+00
4.411623e+00,2.475540e+00,2.438068e+00,3,0,9.496711e-01,9.496712e-01
4.398212e+00,2.477679e+00,2.439976e+00,3,0,1.501075e+00,1.501076e+00
4.401631e+00,2.479438e+00,2.442122e+00,3,0,7.347724e-01,7.347722e-01
4.399604e+00,2.490793e+00,2.454042e+00,3,0,6.039009e-01,6.039010e-01
4.423148e+00,2.500082e+00,2.460957e+00,3,0,4.902778e-01,4.902780e-01
4.405955e+00,2.482120e+00,2.443075e+00,3,0,3.288280e-01,3.288279e-01
4.409250e+00,2.497665e+00,2.459049e+00,3,0,6.713491e-01,6.713497e-01
4.406570e+00,2.482206e+00,2.444029e+00,3,0,4.977139e-01,4.977140e-01
4.417784e+00,2.509080e+00,2.470970e+00,3,0,2.836719e-01,2.836719e-01
4.408006e+00,2.510487e+00,2.470016e+00,3,0,6.883872e-01,6.883882e-01
4.400877e+00,2.497668e+00,2.460003e+00,3,0,4.772303e-01,4.772303e-01
4.404131e+00,2.522764e+00,2.485037e+00,3,0,2.511179e-01,2.511180e-01
4.411717e+00,2.535531e+00,2.497911e+00,3,0,2.738165e-01,2.738167e-01
4.403845e+00,2.505452e+00,2.467871e+00,3,0,3.426205e-01,3.426208e-01
4.414093e+00,2.513263e+00,2.475023e+00,3,0,5.175609e-01,5.175613e-01
4.395587e+00,2.501140e+00,2.464056e+00,3,0,1.085640e+00,1.085641e+00
4.400319e+00,2.482892e+00,2.444983e+00,3,0,7.889606e-01,7.889620e-01
4.402677e+00,2.498377e+00,2.454042e+00,3,0,1.428628e+00,1.428629e+00
4.402983e+00,2.521452e+00,2.483130e+00,3,0,6.237796e-01,6.237793e-01
4.402679e+00,2.501392e+00,2.463102e+00,3,0,4.969001e-01,4.969004e-01
4.398613e+00,2.478147e+00,2.439976e+00,3,0,3.323368e-01,3.323368e-01
4.399530e+00,2.517380e+00,2.470970e+00,3,0,3.054061e-01,3.054064e-01
4.419702e+00,2.508086e+00,2.470970e+00,3,0,8.581275e-01,8.581289e-01
4.402406e+00,2.527525e+00,2.489090e+00,3,0,8.560419e-01,8.560421e-01
4.402567e+00,2.509464e+00,2.471924e+00,3,0,1.314360e+00,1.314360e+00
4.409526e+00,2.479230e+00,2.441883e+00,3,0,1.349009e+00,1.349010e+00
4.400856e+00,2.508638e+00,2.469063e+00,3,0,1.548528e+00,1.548528e+00
4.408097e+00,2.491331e+00,2.453089e+00,3,0,2.537457e+00,2.537458e+00
4.420144e+00,2.492043e+00,2.454042e+00,3,0,2.841284e+00,2.841285e+00
4.399337e+00,2.515936e+00,2.475977e+00,3,0,2.122476e+00,2.122476e+00
4.401770e+00,2.430687e+00,2.388000e+00,3,0,1.906988e+00,1.906988e+00
4.420073e+00,2.479185e+00,2.440929e+00,3,0,2.680225e+00,2.680227e+00
4.405680e+00,2.451663e+00,2.414942e+00,3,0,1.820728e+00,1.820728e+00
4.404411e+00,2.485487e+00,2.447844e+00,3,0,1.509573e+00,1.509573e+00
4.397001e+00,2.416892e+00,2.381086e+00,3,0,1.527033e+00,1.527034e+00
4.394536e+00,2.498488e+00,2.462149e+00,3,0,1.650989e+00,1.650990e+00
4.411644e+00,2.446467e+00,2.409935e+00,3,0,1.808075e+00,1.808076e+00
4.400354e+00,2.492667e+00,2.454042e+00,3,0,1.332615e+00,1.332615e+00
4.405460e+00,2.508994e+00,2.470970e+00,3,0,1.278934e+00,1.278934e+00
4.414835e+00,2.501422e+00,2.459049e+00,3,0,1.640311e+00,1.640311e+00
4.415671e+00,2.507900e+00,2.470016e+00,3,0,1.799944e+00,1.799945e+00
4.451915e+00,2.618805e+00,2.578020e+00,3,0,1.140216e+00,1.140216e+00
4.431621e+00,2.756685e+00,2.710819e+00,3,0,1.096292e+00,1.096292e+00
4.402445e+00,2.652225e+00,2.609015e+00,3,0,6.438806e-01,6.438805e-01
4.405148e+00,2.534921e+00,2.496004e+00,3,0,6.245239e-01,6.245243e-01

