2.944022e+00,1.255832e+01,1.003814e+01,2,0,0.000000e+00,0.000000e+00
4.395655e+00,2.559729e+00,2.503157e+00,3,0,7.551209e-02,7.551224e-02
4.390244e+00,2.530827e+00,2.491951e+00,3,0,1.395621e-01,1.395623e-01
4.398300e+00,2.519673e+00,2.480984e+00,3,0,2.946823e-01,2.946826e-01
4.387253e+00,2.519055e+00,2.481937e+00,3,0,2.716495e-01,2.716497e-01
4.388324e+00,2.499712e+00,2.461195e+00,3,0,1.276167e+00,1.276169e+00
4.392722e+00,2.517992e+00,2.479076e+00,3,0,1.779663e+00,1.779664e+00
4.392785e+00,2.504415e+00,2.466917e+00,3,0,2.335722e+00,2.335723e+00
4.390856e+00,2.505759e+00,2.469063e+00,3,0,1.148687e+00,1.148686e+00
4.397814e+00,2.496041e+00,2.459049e+00,3,0,1.018461e+00,1.018461e+00
4.394734e+00,2.492586e+00,2.452850e+00,3,0,8.424528e-01,8.424531e-01
4.398802e+00,2.510106e+00,2.471209e+00,3,0,9.746404e-01,9.746411e-01
4.402156e+00,2.476092e+00,2.437115e+00,3,0,1.616753e+00,1.616754e+00
4.388594e+00,2.485173e+00,2.447128e+00,3,0,2.206613e+00,2.206614e+00
4.394797e+00,2.484390e+00,2.445936e+00,3,0,2.022702e+00,2.022702e+00
4.387482e+00,2.475138e+00,2.435923e+00,3,0,2.825381e+00,2.825382e+00
4.384953e+00,2.476429e+00,2.436876e+00,3,0,2.206349e+00,2.206349e+00
4.395457e+00,2.495317e+00,2.455950e+00,3,0,1.931090e+00,1.931091e+00
4.388588e+00,2.499566e+00,2.460957e+00,3,0,1.844838e+00,1.844838e+00
4.384456e+00,2.504183e+00,2.466917e+00,3,0,1.758303e+00,1.758304e+00
4.391638e+00,2.456442e+00,2.418995e+00,3,0,1.840510e+00,1.840511e+00
4.383204e+00,2.477101e+00,2.439976e+00,3,0,1.533956e+00,1.533956e+00
4.409094e+00,2.464675e+00,2.427816e+00,3,0,1.381534e+00,1.381535e+00
4.388053e+00,2.485815e+00,2.449036e+00,3,0,1.204581e+00,1.204582e+00
4.382002e+00,2.478109e+00,2.440929e+00,3,0,1.188903e+00,1.188904e+00
4.380621e+00,2.491994e+00,2.454996e+00,3,0,1.149710e+00,1.149710e+00
4.390006e+00,2.493203e+00,2.455950e+00,3,0,9.518776e-01,9.518779e-01
4.380136e+00,2.504606e+00,2.466917e+00,3,0,6.794439e-01,6.794440e-01
4.381802e+00,2.481444e+00,2.444029e+00,3,0,3.431008e-01,3.431012e-01
4.383233e+00,2.480665e+00,2.443075e+00,3,0,2.960831e-01,2.960832e-01
4.383765e+00,2.491721e+00,2.454996e+00,3,0,5.896103e-01,5.896111e-01
4.377354e+00,2.471827e+00,2.434015e+00,3,0,6.941784e-01,6.941788e-01
4.391365e+00,2.481418e+00,2.444029e+00,3,0,5.984793e-01,5.984794e-01
4.387609e+00,2.498820e+00,2.462149e+00,3,0,9.215445e-01,9.215452e-01
4.386848e+00,2.494907e+00,2.456903e+00,3,0,7.538888e-01,7.538889e-01
4.385300e+00,2.487592e+00,2.449989e+00,3,0,5.559930e-01,5.559930e-01
4.385667e+00,2.487013e+00,2.449989e+00,3,0,4.066880e-01,4.066882e-01
4.381479e+00,2.496313e+00,2.460003e+00,3,0,3.376784e-01,3.376786e-01
4.392920e+00,2.506650e+00,2.465010e+00,3,0,8.606976e-01,8.606985e-01
4.392380e+00,2.488717e+00,2.451181e+00,3,0,9.504783e-01,9.504785e-01
4.391846e+00,2.495618e+00,2.458096e+00,3,0,2.139477e+00,2.139478e+00
4.381158e+00,2.495791e+00,2.458096e+00,3,0,2.927873e+00,2.927875e+00
4.390429e+00,2.476616e+00,2.439022e+00,3,0,1.852340e+00,1.852339e+00
4.393667e+00,2.579899e+00,2.541065e+00,3,0,2.797935e+00,2.797936e+00
4.387295e+00,2.538209e+00,2.500057e+00,3,0,2.235884e+00,2.235884e+00
4.388124e+00,2.558619e+00,2.521038e+00,3,0,1.808748e+00,1.808748e+00
4.384030e+00,2.515391e+00,2.478838e+00,3,0,1.619818e+00,1.619818e+00
4.392258e+00,2.495392e+00,2.457142e+00,3,0,1.344299e+00,1.344299e+00
4.389060e+00,2.522039e+00,2.483845e+00,3,0,1.080027e+00,1.080027e+00
4.383087e+00,2.495639e+00,2.458096e+00,3,0,6.876476e-01,6.876475e-01
4.384879e+00,2.489158e+00,2.452135e+00,3,0,6.177118e-01,6.177121e-01
4.386888e+00,2.484039e+00,2.446890e+00,3,0,9.829236e-01,9.829244e-01
4.382096e+00,2.498621e+00,2.460957e+00,3,0,7.168842e-01,7.168844e-01
4.394272e+00,2.484440e+00,2.448082e+00,3,0,6.110373e-01,6.110373e-01
4.387990e+00,2.526679e+00,2.490044e+00,3,0,8.078102e-01,8.078107e-01
4.383782e+00,2.502731e+00,2.465010e+00,3,0,1.109397e+00,1.109397e+00
4.387698e+00,2.491740e+00,2.453804e+00,3,0,5.988307e-01,5.988306e-01
4.385478e+00,2.482264e+00,2.445936e+00,3,0,9.244299e-01,9.244306e-01
4.384282e+00,2.483923e+00,2.447844e+00,3,0,1.306199e+00,1.306200e+00
4.389429e+00,2.508144e+00,2.470970e+00,3,0,1.969784e+00,1.969785e+00
4.380752e+00,2.470140e+00,2.433062e+00,3,0,8.942516e-01,8.942522e-01
4.379401e+00,2.487029e+00,2.449989e+00,3,0,1.939671e+00,1.939673e+00
4.387946e+00,2.498872e+00,2.461195e+00,3,0,3.653225e+00,3.653228e+00
4.381657e+00,2.471258e+00,2.434015e+00,3,0,1.983769e+00,1.983768e+00
4.390087e+00,2.484623e+00,2.447128e+00,3,0,2.724662e+00,2.724664e+00
4.387454e+00,2.493639e+00,2.456903e+00,3,0,1.182477e+00,1.182476e+00
4.383193e+00,2.484036e+00,2.446890e+00,3,0,1.263766e+00,1.263766e+00
4.381718e+00,2.504064e+00,2.466917e+00,3,0,9.845565e-01,9.845568e-01
4.390948e+00,2.485800e+00,2.448082e+00,3,0,7.762216e-01,7.762219e-01
4.385213e+00,2.491532e+00,2.454042e+00,3,0,5.908721e-01,5.908725e-01
4.384816e+00,2.491844e+00,2.453089e+00,3,0,8.816919e-01,8.816925e-01
4.391466e+00,2.507362e+00,2.471209e+00,3,0,9.003219e-01,9.003221e-01
4.383532e+00,2.505870e+00,2.469063e+00,3,0,9.129587e-01,9.129590e-01
4.381797e+00,2.505627e+00,2.469063e+00,3,0,1.029772e+00,1.029772e+00
4.391031e+00,2.474079e+00,2.436876e+00,3,0,1.502112e+00,1.502113e+00
4.379933e+00,2.482013e+00,2.444983e+00,3,0,2.017964e+00,2.017965e+00
4.383328e+00,2.450583e+00,2.413034e+00,3,0,1.214733e+00,1.214733e+00
4.384090e+00,2.483816e+00,2.447128e+00,3,0,1.209876e+00,1.209876e+00
4.330099e+00,2.474673e+00,2.437830e+00,3,0,8.937062e-01,8.937062e-01
4.357934e+00,2.432073e+00,2.394915e+00,3,0,4.433706e-01,4.433706e-01
4.370755e+00,2.457422e+00,2.422094e+00,3,0,1.527410e+00,1.527412e+00
4.331204e+00,2.504782e+00,2.457142e+00,3,0,1.130290e+00,1.130290e+00
4.331929e+00,2.450279e+00,2.414942e+00,3,0,1.011827e+00,1.011828e+00
4.327449e+00,2.479345e+00,2.444029e+00,3,0,9.740378e-01,9.740384e-01
4.359162e+00,2.474067e+00,2.439022e+00,3,0,1.400945e+00,1.400946e+00
4.355509e+00,2.417382e+00,2.382040e+00,3,0,2.512778e+00,2.512780e+00
4.333715e+00,2.464458e+00,2.429008e+00,3,0,3.760617e+00,3.760619e+00
4.374872e+00,1.065239e+01,1.061606e+01,3,2,5.483424e+00,5.483433e+00
4.346160e+00,1.372066e+01,1.368213e+01,3,3,4.458069e+00,4.458430e+00
4.399188e+00,1.030422e+01,1.026678e+01,3,2,3.182345e+00,3.182347e+00
4.393877e+00,6.266821e+00,6.227970e+00,3,1,2.454093e+00,2.454093e+00
4.410332e+00,2.472887e+00,2.435923e+00,3,0,1.719397e+00,1.719397e+00
4.385031e+00,2.494503e+00,2.455950e+00,3,0,2.433287e+00,2.433289e+00
4.393465e+00,2.510442e+00,2.472162e+00,3,0,1.807901e+00,1.807900e+00
4.376495e+00,2.486236e+00,2.449036e+00,3,0,2.327531e+00,2.327533e+00
4.311356e+00,2.450649e+00,2.413988e+00,3,0,2.510070e+00,2.510071e+00
4.310728e+00,2.508260e+00,2.470970e+00,3,0,1.084532e+00,1.084532e+00
4.367537e+00,2.476071e+00,2.439022e+00,3,0,9.374207e-01,9.374209e-01
4.332113e+00,2.457127e+00,2.419949e+00,3,0,1.319558e+00,1.319559e+00
4.337969e+00,2.453681e+00,2.418041e+00,3,0,1.415889e+00,1.415890e+00
4.310829e+00,2.439294e+00,2.403021e+00,3,0,1.066766e+00,1.066766e+00
4.339771e+00,2.474938e+00,2.439976e+00,3,0,1.238101e+00,1.238102e+00
4.332644e+00,2.507677e+00,2.470970e+00,3,0,7.214969e-01,7.214970e-01
4.365135e+00,2.505677e+00,2.455950e+00,3,0,6.568648e-01,6.568650e-01
4.371862e+00,2.483256e+00,2.447128e+00,3,0,5.438513e-01,5.438514e-01
4.358837e+00,2.433558e+00,2.398014e+00,3,0,5.784202e-01,5.784206e-01
4.334188e+00,2.515467e+00,2.478123e+00,3,0,8.078967e-01,8.078973e-01
4.363773e+00,2.510339e+00,2.473116e+00,3,0,8.817768e-01,8.817771e-01
4.381038e+00,2.486483e+00,2.450943e+00,3,0,5.667879e-01,5.667879e-01
4.338097e+00,2.451849e+00,2.416134e+00,3,0,5.720606e-01,5.720609e-01
4.416442e+00,2.551715e+00,2.515078e+00,3,0,5.279835e-01,5.279837e-01
4.311021e+00,2.479925e+00,2.441883e+00,3,0,4.518010e-01,4.518014e-01
4.360751e+00,2.491263e+00,2.453089e+00,3,0,3.135725e-01,3.135725e-01
4.320408e+00,2.573103e+00,2.534866e+00,3,0,5.541243e-01,5.541249e-01
4.362458e+00,2.495710e+00,2.458811e+00,3,0,2.932877e-01,2.932878e-01
4.434353e+00,2.453392e+00,2.417088e+00,3,0,3.389797e-01,3.389799e-01
4.420153e+00,2.569218e+00,2.528906e+00,3,0,8.799552e-01,8.799561e-01
4.401504e+00,2.701481e+00,2.658129e+00,3,0,6.417448e-01,6.417449e-01
4.388799e+00,2.621021e+00,2.578974e+00,3,0,2.071143e+00,2.071146e+00
4.383626e+00,2.511561e+00,2.474070e+00,3,0,1.435506e+00,1.435506e+00
4.387724e+00,2.503993e+00,2.465963e+00,3,0,1.390175e+00,1.390176e+00
4.381227e+00,2.481673e+00,2.444983e+00,3,0,1.731344e+00,1.731345e+00
4.387635e+00,2.500503e+00,2.464056e+00,3,0,1.563279e+00,1.563280e+00
4.389803e+00,2.512931e+00,2.475977e+00,3,0,1.722313e+00,1.722313e+00
4.382661e+00,2.480580e+00,2.444029e+00,3,0,3.041310e+00,3.041313e+00
4.391510e+00,2.477498e+00,2.440929e+00,3,0,1.973577e+00,1.973577e+00
4.389994e+00,2.484616e+00,2.446890e+00,3,0,1.500037e+00,1.500037e+00
4.383480e+00,2.490296e+00,2.453089e+00,3,0,1.307087e+00,1.307087e+00
4.385283e+00,2.489583e+00,2.452850e+00,3,0,7.837207e-01,7.837211e-01
4.389754e+00,2.476308e+00,2.440929e+00,3,0,8.577162e-01,8.577172e-01
4.383510e+00,2.516951e+00,2.480984e+00,3,0,5.381583e-01,5.381585e-01
4.382280e+00,2.541349e+00,2.504110e+00,3,0,7.102339e-01,7.102344e-01
4.381194e+00,2.507910e+00,2.469063e+00,3,0,3.163725e-01,3.163726e-01
4.387557e+00,2.625084e+00,2.587795e+00,3,0,2.572584e-01,2.572586e-01
4.384278e+00,2.524154e+00,2.486944e+00,3,0,2.640276e-01,2.640278e-01
4.384884e+00,2.492293e+00,2.454042e+00,3,0,5.737759e-01,5.737766e-01
4.386894e+00,2.525285e+00,2.489090e+00,3,0,5.918175e-01,5.918178e-01
4.387558e+00,2.489457e+00,2.444029e+00,3,0,5.015503e-01,5.015504e-01
4.382221e+00,2.508045e+00,2.470970e+00,3,0,5.462994e-01,5.462997e-01
4.387024e+00,2.491530e+00,2.454042e+00,3,0,4.626902e-01,4.626904e-01
4.377934e+00,2.478544e+00,2.440929e+00,3,0,8.631047e-01,8.631055e-01
4.383174e+00,2.487362e+00,2.451181e+00,3,0,1.472360e+00,1.472361e+00
4.387338e+00,2.491078e+00,2.454996e+00,3,0,1.662220e+00,1.662221e+00
4.383919e+00,2.486335e+00,2.450943e+00,3,0,1.301747e+00,1.301748e+00
4.382030e+00,2.488193e+00,2.450943e+00,3,0,1.159393e+00,1.159394e+00
4.383694e+00,2.485608e+00,2.449036e+00,3,0,1.072057e+00,1.072057e+00
4.379342e+00,2.488284e+00,2.451181e+00,3,0,7.684550e-01,7.684550e-01
4.379863e+00,2.482963e+00,2.445936e+00,3,0,6.784226e-01,6.784235e-01
4.386332e+00,2.478486e+00,2.443075e+00,3,0,1.196365e+00,1.196366e+00
4.378641e+00,2.485851e+00,2.449036e+00,3,0,1.709870e+00,1.709871e+00
4.389420e+00,2.491556e+00,2.454996e+00,3,0,1.043961e+00,1.043961e+00
4.391390e+00,2.506235e+00,2.470016e+00,3,0,9.875633e-01,9.875636e-01
4.382060e+00,2.485610e+00,2.448797e+00,3,0,8.865501e-01,8.865503e-01
4.383998e+00,2.481467e+00,2.444029e+00,3,0,8.128659e-01,8.128661e-01
4.408439e+00,2.487887e+00,2.451897e+00,3,0,6.697431e-01,6.697433e-01
4.383817e+00,2.485278e+00,2.449036e+00,3,0,7.530458e-01,7.530462e-01
4.377220e+00,2.482234e+00,2.445936e+00,3,0,1.230954e+00,1.230955e+00
4.384631e+00,2.492187e+00,2.455950e+00,3,0,1.183055e+00,1.183055e+00
4.379779e+00,2.487340e+00,2.449989e+00,3,0,1.252972e+00,1.252972e+00
4.382350e+00,2.503840e+00,2.467155e+00,3,0,1.423246e+00,1.423247e+00
4.404620e+00,2.494987e+00,2.459049e+00,3,0,6.507800e-01,6.507801e-01
4.392030e+00,2.469937e+00,2.434015e+00,3,0,5.206114e-01,5.206116e-01
4.383282e+00,2.483407e+00,2.448082e+00,3,0,5.456169e-01,5.456173e-01
4.384316e+00,2.480803e+00,2.443075e+00,3,0,2.479467e-01,2.479470e-01
4.376887e+00,2.466533e+00,2.429008e+00,3,0,2.496599e-01,2.496601e-01
4.380674e+00,2.486006e+00,2.449036e+00,3,0,4.269947e-01,4.269950e-01
4.380268e+00,2.492342e+00,2.454996e+00,3,0,3.637096e-01,3.637097e-01
4.379773e+00,2.481643e+00,2.446175e+00,3,0,9.785977e-01,9.785992e-01
4.382966e+00,2.495275e+00,2.458096e+00,3,0,7.268657e-01,7.268664e-01
4.383362e+00,2.504646e+00,2.467155e+00,3,0,5.136781e-01,5.136782e-01
4.382974e+00,2.491375e+00,2.454996e+00,3,0,4.576685e-01,4.576686e-01
4.386486e+00,2.531634e+00,2.495050e+00,3,0,4.659262e-01,4.659265e-01
4.390704e+00,2.499457e+00,2.454996e+00,3,0,4.789425e-01,4.789428e-01
4.397689e+00,2.493202e+00,2.456903e+00,3,0,3.020691e-01,3.020692e-01
4.386246e+00,2.499714e+00,2.462864e+00,3,0,3.394996e-01,3.395000e-01
4.383458e+00,2.512830e+00,2.477169e+00,3,0,2.773580e-01,2.773582e-01
4.379577e+00,2.508082e+00,2.470970e+00,3,0,2.395138e-01,2.395139e-01
4.384566e+00,2.511496e+00,2.473831e+00,3,0,6.457986e-01,6.457994e-01
4.380969e+00,2.483283e+00,2.446890e+00,3,0,4.074308e-01,4.074311e-01
4.382064e+00,2.497729e+00,2.458811e+00,3,0,6.452892e-01,6.452897e-01
4.388529e+00,2.513217e+00,2.474070e+00,3,0,1.041436e+00,1.041437e+00
4.379552e+00,2.484261e+00,2.448082e+00,3,0,8.929571e-01,8.929577e-01
4.380799e+00,2.493631e+00,2.457142e+00,3,0,1.012421e+00,1.012421e+00
4.386176e+00,2.494293e+00,2.454996e+00,3,0,7.096699e-01,7.096700e-01
4.378307e+00,2.476164e+00,2.439976e+00,3,0,7.097771e-01,7.097774e-01
4.400765e+00,2.517808e+00,2.473116e+00,3,0,8.114543e-01,8.114547e-01
4.418778e+00,2.528789e+00,2.478123e+00,3,0,1.782574e+00,1.782576e+00
4.390540e+00,2.513748e+00,2.475977e+00,3,0,2.360399e+00,2.360400e+00
4.390479e+00,2.484485e+00,2.447128e+00,3,0,2.091286e+00,2.091286e+00
4.389275e+00,2.477007e+00,2.439976e+00,3,0,1.700508e+00,1.700508e+00
4.401862e+00,2.493294e+00,2.454996e+00,3,0,1.573464e+00,1.573465e+00
4.391048e+00,2.503747e+00,2.465963e+00,3,0,1.068439e+00,1.068439e+00
4.392964e+00,2.510518e+00,2.474070e+00,3,0,1.055490e+00,1.055491e+00
4.380203e+00,2.467125e+00,2.429962e+00,3,0,1.037041e+00,1.037041e+00
4.388445e+00,2.472517e+00,2.434969e+00,3,0,7.956397e-01,7.956398e-01
4.400447e+00,2.529475e+00,2.491951e+00,3,0,7.031926e-01,7.031927e-01
4.408076e+00,2.596321e+00,2.557039e+00,3,0,1.431417e+00,1.431419e+00
4.387463e+00,2.560285e+00,2.518892e+00,3,0,2.982531e+00,2.982533e+00
4.407090e+00,2.646298e+00,2.605915e+00,3,0,3.031353e+00,3.031354e+00
4.398860e+00,2.522703e+00,2.482891e+00,3,0,3.054806e+00,3.054807e+00
4.394554e+00,2.523225e+00,2.484083e+00,3,0,3.560092e+00,3.560093e+00
4.386646e+00,2.569135e+00,2.529860e+00,3,0,5.094646e+00,5.094649e+00
4.387884e+00,2.477278e+00,2.439976e+00,3,0,3.266819e+00,3.266818e+00
4.394927e+00,2.500469e+00,2.464056e+00,3,0,3.985969e+00,3.985971e+00
4.387426e+00,2.431176e+00,2.395868e+00,3,0,3.077072e+00,3.077072e+00
4.382009e+00,2.462260e+00,2.425909e+00,3,0,2.875826e+00,2.875826e+00
4.385052e+00,2.485542e+00,2.449036e+00,3,0,1.974571e+00,1.974571e+00
4.383767e+00,2.500255e+00,2.460003e+00,3,0,2.489593e+00,2.489594e+00
4.383928e+00,2.492578e+00,2.455950e+00,3,0,1.671669e+00,1.671668e+00
4.392482e+00,2.525846e+00,2.490044e+00,3,0,2.163022e+00,2.163023e+00
4.398575e+00,2.495147e+00,2.457857e+00,3,0,7.060763e-01,7.060763e-01
4.388047e+00,2.513337e+00,2.475023e+00,3,0,9.278443e-01,9.278451e-01
4.392470e+00,2.512144e+00,2.475023e+00,3,0,1.801419e+00,1.801421e+00
4.402669e+00,2.470733e+00,2.434969e+00,3,0,1.390243e+00,1.390243e+00
4.398461e+00,2.483829e+00,2.447128e+00,3,0,2.192526e+00,2.192528e+00
4.388565e+00,2.487891e+00,2.450943e+00,3,0,1.943535e+00,1.943535e+00
4.392094e+00,2.495480e+00,2.458096e+00,3,0,3.271278e+00,3.271281e+00
4.393636e+00,2.500786e+00,2.463102e+00,3,0,1.690168e+00,1.690167e+00
4.406656e+00,2.487008e+00,2.450943e+00,3,0,1.412966e+00,1.412966e+00
4.384482e+00,2.503804e+00,2.465963e+00,3,0,1.101833e+00,1.101833e+00
4.395114e+00,2.523080e+00,2.484798e+00,3,0,1.109890e+00,1.109890e+00
4.394374e+00,2.474765e+00,2.437115e+00,3,0,1.180572e+00,1.180573e+00
4.401693e+00,2.471232e+00,2.434969e+00,3,0,1.771004e+00,1.771005e+00
4.397763e+00,2.465405e+00,2.428055e+00,3,0,7.989906e-01,7.989901e-01
4.394840e+00,2.477949e+00,2.441168e+00,3,0,5.277676e-01,5.277677e-01
4.386829e+00,2.468461e+00,2.430916e+00,3,0,5.981896e-01,5.981899e-01
4.390816e+00,2.481551e+00,2.444029e+00,3,0,5.715104e-01,5.715106e-01
4.383886e+00,2.483471e+00,2.446175e+00,3,0,4.452613e-01,4.452613e-01
4.385403e+00,2.470945e+00,2.431870e+00,3,0,7.191406e-01,7.191415e-01
4.384793e+00,2.479585e+00,2.441883e+00,3,0,1.052376e+00,1.052377e+00
4.390703e+00,2.445258e+00,2.408981e+00,3,0,1.601037e+00,1.601038e+00
4.387412e+00,2.463638e+00,2.426147e+00,3,0,3.478609e+00,3.478612e+00
4.400944e+00,2.486723e+00,2.448797e+00,3,0,4.514009e+00,4.514011e+00
4.397460e+00,2.472519e+00,2.434015e+00,3,0,3.065471e+00,3.065471e+00
4.393506e+00,2.471275e+00,2.433062e+00,3,0,3.784558e+00,3.784560e+00
4.389575e+00,2.485187e+00,2.447128e+00,3,0,2.730909e+00,2.730909e+00
4.386651e+00,2.488054e+00,2.450943e+00,3,0,2.168827e+00,2.168827e+00
4.393265e+00,2.486571e+00,2.449036e+00,3,0,2.418019e+00,2.418020e+00
4.408722e+00,2.474673e+00,2.436876e+00,3,0,1.306380e+00,1.306380e+00
4.387517e+00,2.506739e+00,2.468109e+00,3,0,9.994601e-01,9.994613e-01
4.378420e+00,2.491084e+00,2.452850e+00,3,0,7.696718e-01,7.696718e-01
4.396202e+00,2.440440e+00,2.403975e+00,3,0,7.205178e-01,7.205180e-01
4.391008e+00,2.473912e+00,2.436876e+00,3,0,6.833545e-01,6.833547e-01
4.398509e+00,2.482320e+00,2.444983e+00,3,0,1.060750e+00,1.060751e+00
4.397264e+00,2.485371e+00,2.446890e+00,3,0,3.632652e-01,3.632650e-01
4.402718e+00,2.550367e+00,2.511024e+00,3,0,1.456896e+00,1.456898e+00
4.402149e+00,2.575866e+00,2.535820e+00,3,0,3.221339e+00,3.221342e+00
4.398418e+00,2.545871e+00,2.506018e+00,3,0,1.879966e+00,1.879966e+00
4.402592e+00,2.502131e+00,2.462149e+00,3,0,1.342876e+00,1.342876e+00
4.397319e+00,2.509104e+00,2.470970e+00,3,0,1.100848e+00,1.100848e+00
4.390661e+00,2.477048e+00,2.439022e+00,3,0,9.350391e-01,9.350392e-01
4.382141e+00,2.481547e+00,2.444029e+00,3,0,8.765797e-01,8.765799e-01
4.392615e+00,2.459935e+00,2.424002e+00,3,0,1.483488e+00,1.483489e+00
4.378905e+00,2.449242e+00,2.411842e+00,3,0,1.146398e+00,1.146398e+00
4.339336e+00,2.439887e+00,2.402782e+00,3,0,8.245375e-01,8.245376e-01
4.391875e+00,2.466386e+00,2.429008e+00,3,0,9.175511e-01,9.175515e-01
4.357688e+00,2.447433e+00,2.410173e+00,3,0,1.572600e+00,1.572602e+00
4.354225e+00,2.410050e+00,2.375841e+00,3,0,2.548006e+00,2.548008e+00
4.356004e+00,2.432372e+00,2.397060e+00,3,0,4.638468e+00,4.638472e+00
4.379552e+00,2.467564e+00,2.433062e+00,3,0,5.660153e+00,5.660155e+00
4.383815e+00,2.470159e+00,2.434015e+00,3,0,5.111811e+00,5.111811e+00
4.396728e+00,6.963680e+00,6.926060e+00,3,1,5.361426e+00,5.361444e+00
4.399228e+00,6.185154e+00,6.145954e+00,3,1,4.518844e+00,4.518844e+00
4.391413e+00,2.455618e+00,2.417803e+00,3,0,4.751984e+00,4.751986e+00
4.393912e+00,2.483767e+00,2.445936e+00,3,0,4.746634e+00,4.746636e+00
4.390133e+00,2.485301e+00,2.443790e+00,3,0,3.913832e+00,3.913832e+00
4.391505e+00,2.478021e+00,2.440929e+00,3,0,3.373795e+00,3.373796e+00
4.390031e+00,2.491820e+00,2.454042e+00,3,0,2.596153e+00,2.596153e+00
4.386035e+00,2.468663e+00,2.433062e+00,3,0,2.364516e+00,2.364516e+00
4.384406e+00,2.471877e+00,2.437115e+00,3,0,2.377071e+00,2.377071e+00
4.390545e+00,2.500353e+00,2.464056e+00,3,0,3.044289e+00,3.044290e+00
4.398560e+00,4.671121e+01,4.667377e+01,3,11,5.471063e+00,5.506680e+00
8.738956e+00,4.122449e+01,4.118395e+01,6,10,5.713012e+00,5.733537e+00
7.295183e+00,4.810403e+01,4.806399e+01,5,12,6.257297e+00,6.259094e+00
5.803255e+00,1.360884e+01,1.357007e+01,4,3,5.303546e+00,5.303546e+00
4.328608e+00,6.621308e+00,6.582975e+00,3,1,5.338722e+00,5.338723e+00
4.354689e+00,7.207709e+00,7.169962e+00,3,1,6.515728e+00,6.516897e+00
4.349928e+00,6.804855e+00,6.766081e+00,3,1,6.035056e+00,6.035206e+00
4.374219e+00,6.104428e+00,6.066084e+00,3,1,5.027739e+00,5.027739e+00
4.343797e+00,2.471129e+00,2.433062e+00,3,0,4.242600e+00,4.242601e+00
4.392356e+00,2.480275e+00,2.444983e+00,3,0,3.761797e+00,3.761798e+00
4.337486e+00,2.483514e+00,2.445936e+00,3,0,3.222031e+00,3.222031e+00
4.258358e+00,2.429160e+00,2.393007e+00,3,0,2.958978e+00,2.958978e+00
4.265277e+00,2.418809e+00,2.385139e+00,3,0,3.072684e+00,3.072685e+00
4.296138e+00,2.400896e+00,2.366066e+00,3,0,1.689590e+00,1.689589e+00
4.267760e+00,2.410655e+00,2.377033e+00,3,0,1.466493e+00,1.466493e+00
4.256428e+00,2.395133e+00,2.360106e+00,3,0,1.622647e+00,1.622648e+00
4.256482e+00,2.397222e+00,2.362013e+00,3,0,1.120972e+00,1.120972e+00
4.256054e+00,2.398860e+00,2.363920e+00,3,0,9.459976e-01,9.459978e-01
4.379776e+00,2.491314e+00,2.449989e+00,3,0,7.684265e-01,7.684268e-01
4.390507e+00,2.488685e+00,2.451897e+00,3,0,4.885190e-01,4.885190e-01
4.384114e+00,2.468560e+00,2.431870e+00,3,0,3.703970e-01,3.703977e-01
4.381630e+00,2.484983e+00,2.448082e+00,3,0,2.797297e-01,2.797301e-01
4.397058e+00,2.498633e+00,2.461195e+00,3,0,3.974026e-01,3.974030e-01
4.390713e+00,2.480837e+00,2.443075e+00,3,0,5.354266e-01,5.354270e-01
4.389104e+00,2.488388e+00,2.449989e+00,3,0,3.592155e-01,3.592156e-01
4.394923e+00,2.478758e+00,2.441883e+00,3,0,4.040960e-01,4.040965e-01
4.378503e+00,2.488088e+00,2.450943e+00,3,0,1.113163e+00,1.113164e+00
4.384127e+00,2.456368e+00,2.419949e+00,3,0,2.515819e+00,2.515822e+00
4.390833e+00,2.481537e+00,2.444983e+00,3,0,3.426457e+00,3.426458e+00
4.385806e+00,2.478693e+00,2.440929e+00,3,0,2.879434e+00,2.879434e+00
4.383848e+00,2.501987e+00,2.465963e+00,3,0,3.110357e+00,3.110359e+00
4.388700e+00,2.476325e+00,2.439022e+00,3,0,3.024905e+00,3.024906e+00
4.384426e+00,2.489567e+00,2.452850e+00,3,0,2.671658e+00,2.671658e+00
4.382305e+00,2.488414e+00,2.451181e+00,3,0,2.112219e+00,2.112219e+00
4.392411e+00,2.481412e+00,2.445936e+00,3,0,2.070677e+00,2.070677e+00
4.387306e+00,2.482940e+00,2.445936e+00,3,0,3.677848e+00,3.677850e+00
4.395619e+00,6.702273e+00,6.663799e+00,3,1,4.748285e+00,4.748879e+00
4.398393e+00,1.598402e+01,1.594520e+01,3,3,5.601877e+00,5.604441e+00
4.416196e+00,1.434018e+01,1.430106e+01,3,3,4.561990e+00,4.562020e+00
4.409962e+00,6.209735e+00,6.170034e+00,3,1,3.478402e+00,3.478402e+00
4.395712e+00,2.534480e+00,2.495050e+00,3,0,2.544122e+00,2.544122e+00
4.394142e+00,2.514539e+00,2.476931e+00,3,0,2.076842e+00,2.076842e+00
4.391274e+00,2.822101e+00,2.784014e+00,3,0,2.759522e+00,2.759524e+00
4.393059e+00,2.529675e+00,2.490997e+00,3,0,2.751330e+00,2.751330e+00
4.386894e+00,2.490149e+00,2.452850e+00,3,0,2.069405e+00,2.069405e+00
4.381071e+00,2.492736e+00,2.454996e+00,3,0,2.024263e+00,2.024264e+00
4.389696e+00,2.497952e+00,2.460957e+00,3,0,2.326175e+00,2.326176e+00
4.387002e+00,2.504617e+00,2.468109e+00,3,0,2.414221e+00,2.414222e+00
4.383785e+00,2.492501e+00,2.455950e+00,3,0,2.956548e+00,2.956550e+00
4.392628e+00,2.468217e+00,2.432108e+00,3,0,2.350924e+00,2.350924e+00
4.381498e+00,2.472979e+00,2.436876e+00,3,0,3.067178e+00,3.067180e+00
4.381138e+00,2.497234e+00,2.460003e+00,3,0,3.023787e+00,3.023788e+00
4.391710e+00,2.479062e+00,2.443075e+00,3,0,2.527911e+00,2.527911e+00
4.384707e+00,2.484655e+00,2.448082e+00,3,0,2.091117e+00,2.091118e+00
4.382946e+00,2.502442e+00,2.464771e+00,3,0,2.201043e+00,2.201044e+00
4.388747e+00,2.510510e+00,2.474070e+00,3,0,2.211135e+00,2.211135e+00
4.386896e+00,2.495672e+00,2.459049e+00,3,0,1.630544e+00,1.630544e+00
4.386291e+00,2.480775e+00,2.444029e+00,3,0,1.629960e+00,1.629960e+00
4.390838e+00,2.489463e+00,2.447128e+00,3,0,1.065575e+00,1.065575e+00
4.381900e+00,2.486332e+00,2.449989e+00,3,0,8.781361e-01,8.781363e-01
4.368072e+00,2.476236e+00,2.439976e+00,3,0,5.657123e-01,5.657125e-01
4.262260e+00,2.430789e+00,2.388954e+00,3,0,3.838170e-01,3.838171e-01
4.256841e+00,2.400969e+00,2.367020e+00,3,0,2.168859e-01,2.168860e-01
4.275333e+00,2.409172e+00,2.372980e+00,3,0,4.077928e-01,4.077934e-01
4.282081e+00,2.407372e+00,2.372980e+00,3,0,2.298410e-01,2.298410e-01
4.353280e+00,2.396476e+00,2.361059e+00,3,0,2.219913e-01,2.219916e-01
4.373856e+00,2.453890e+00,2.418041e+00,3,0,1.341587e-01,1.341588e-01
4.372572e+00,2.448966e+00,2.413988e+00,3,0,1.470552e-01,1.470553e-01
4.379747e+00,2.463309e+00,2.428055e+00,3,0,1.317567e-01,1.317568e-01
4.383087e+00,2.478603e+00,2.444029e+00,3,0,3.249661e-01,3.249665e-01
4.382722e+00,2.490199e+00,2.454042e+00,3,0,2.494326e-01,2.494328e-01
4.384110e+00,2.487720e+00,2.449989e+00,3,0,2.719725e-01,2.719731e-01
4.379950e+00,2.484492e+00,2.447128e+00,3,0,5.470065e-01,5.470070e-01
4.383297e+00,2.490395e+00,2.454042e+00,3,0,2.990698e-01,2.990697e-01
4.379463e+00,2.493752e+00,2.456903e+00,3,0,4.258677e-01,4.258680e-01
4.383570e+00,2.485482e+00,2.447844e+00,3,0,4.303108e-01,4.303110e-01
4.394681e+00,2.496686e+00,2.460003e+00,3,0,7.248237e-01,7.248243e-01
4.390380e+00,2.503884e+00,2.465963e+00,3,0,5.522409e-01,5.522409e-01
4.391275e+00,2.491867e+00,2.454996e+00,3,0,3.638423e-01,3.638423e-01
4.395776e+00,2.487730e+00,2.449989e+00,3,0,2.660243e-01,2.660245e-01
4.379780e+00,2.488455e+00,2.450943e+00,3,0,3.563770e-01,3.563773e-01
4.386300e+00,2.453769e+00,2.417088e+00,3,0,3.281880e-01,3.281881e-01
4.385920e+00,2.478568e+00,2.444029e+00,3,0,2.648641e-01,2.648642e-01
4.386700e+00,2.529152e+00,2.494097e+00,3,0,4.637969e-01,4.637974e-01
4.386483e+00,2.532537e+00,2.493858e+00,3,0,3.516939e-01,3.516941e-01
4.380945e+00,2.474193e+00,2.436876e+00,3,0,5.227982e-01,5.227986e-01
4.382146e+00,2.480136e+00,2.441883e+00,3,0,9.247090e-01,9.247098e-01
4.402168e+00,2.479150e+00,2.441883e+00,3,0,8.107850e-01,8.107854e-01
4.379669e+00,2.484388e+00,2.447128e+00,3,0,7.181155e-01,7.181157e-01
4.381892e+00,2.472074e+00,2.434969e+00,3,0,1.643258e+00,1.643260e+00
4.389933e+00,2.507801e+00,2.470970e+00,3,0,1.994016e+00,1.994017e+00
4.384392e+00,2.480581e+00,2.444029e+00,3,0,1.134334e+00,1.134333e+00
4.385965e+00,2.484589e+00,2.447128e+00,3,0,8.482995e-01,8.482995e-01
4.395384e+00,2.493693e+00,2.457142e+00,3,0,6.537288e-01,6.537290e-01
4.381250e+00,2.470543e+00,2.434015e+00,3,0,4.364268e-01,4.364269e-01
4.379690e+00,2.480867e+00,2.439976e+00,3,0,3.864401e-01,3.864402e-01
4.386511e+00,2.490480e+00,2.454042e+00,3,0,5.548976e-01,5.548979e-01
4.383586e+00,2.481735e+00,2.444983e+00,3,0,5.307643e-01,5.307645e-01
4.384732e+00,2.486199e+00,2.448797e+00,3,0,2.639973e-01,2.639977e-01
4.683564e+00,2.480904e+00,2.444029e+00,3,0,7.177026e-01,7.177035e-01
4.381566e+00,2.490179e+00,2.454042e+00,3,0,3.984592e-01,3.984591e-01
4.388053e+00,2.503103e+00,2.465963e+00,3,0,3.519681e-01,3.519683e-01
4.384328e+00,2.485390e+00,2.449036e+00,3,0,4.923571e-01,4.923576e-01
4.386183e+00,2.530926e+00,2.492905e+00,3,0,4.030473e-01,4.030474e-01
4.388241e+00,2.552647e+00,2.512932e+00,3,0,4.731872e-01,4.731875e-01
4.383811e+00,2.551776e+00,2.512932e+00,3,0,6.026992e-01,6.026997e-01
4.390460e+00,2.518917e+00,2.480984e+00,3,0,4.756017e-01,4.756020e-01
4.382153e+00,2.500635e+00,2.463818e+00,3,0,4.945690e-01,4.945695e-01
4.386532e+00,2.502382e+00,2.464056e+00,3,0,6.169641e-01,6.169645e-01
4.406789e+00,2.512087e+00,2.473831e+00,3,0,7.574959e-01,7.574964e-01
4.382078e+00,2.511232e+00,2.473116e+00,3,0,1.135819e+00,1.135820e+00
4.402815e+00,2.545933e+00,2.508879e+00,3,0,7.866710e-01,7.866710e-01
4.383735e+00,2.490361e+00,2.452850e+00,3,0,7.566152e-01,7.566160e-01
4.386593e+00,2.496125e+00,2.458811e+00,3,0,7.321452e-01,7.321454e-01
4.387740e+00,2.496538e+00,2.460957e+00,3,0,7.926656e-01,7.926659e-01
4.380719e+00,2.493586e+00,2.456903e+00,3,0,6.555935e-01,6.555937e-01
4.373856e+00,2.482681e+00,2.446890e+00,3,0,1.115601e+00,1.115602e+00
4.389505e+00,2.448271e+00,2.412081e+00,3,0,8.292409e-01,8.292410e-01
4.377879e+00,2.482563e+00,2.446890e+00,3,0,7.751496e-01,7.751498e-01
4.389380e+00,2.500596e+00,2.465010e+00,3,0,7.596656e-01,7.596659e-01
4.385431e+00,2.500185e+00,2.462864e+00,3,0,6.878775e-01,6.878778e-01
4.386538e+00,2.489259e+00,2.453089e+00,3,0,4.928153e-01,4.928154e-01
4.381631e+00,2.448501e+00,2.412081e+00,3,0,6.019904e-01,6.019908e-01
4.384580e+00,2.494470e+00,2.458096e+00,3,0,6.788456e-01,6.788460e-01
4.406968e+00,2.438169e+00,2.403021e+00,3,0,4.668361e-01,4.668362e-01
4.380167e+00,2.499615e+00,2.463102e+00,3,0,8.782914e-01,8.782924e-01
4.397274e+00,2.463004e+00,2.428055e+00,3,0,6.180956e-01,6.180957e-01
4.379579e+00,2.494440e+00,2.458096e+00,3,0,5.652572e-01,5.652575e-01
4.392318e+00,2.509816e+00,2.473116e+00,3,0,5.058808e-01,5.058810e-01
4.392883e+00,2.508821e+00,2.472162e+00,3,0,3.970669e-01,3.970673e-01
4.386510e+00,2.515574e+00,2.480030e+00,3,0,2.920336e-01,2.920338e-01
4.391695e+00,2.532848e+00,2.494812e+00,3,0,5.797284e-01,5.797289e-01
4.384794e+00,2.496574e+00,2.460003e+00,3,0,4.997496e-01,4.997498e-01
4.380686e+00,2.464440e+00,2.428055e+00,3,0,5.083716e-01,5.083720e-01
4.383501e+00,2.499078e+00,2.462864e+00,3,0,4.754079e-01,4.754080e-01
4.385649e+00,2.508268e+00,2.471924e+00,3,0,3.696141e-01,3.696143e-01
4.375853e+00,2.483329e+00,2.446890e+00,3,0,4.437754e-01,4.437756e-01
4.378316e+00,2.490518e+00,2.453804e+00,3,0,3.442546e-01,3.442547e-01
4.387426e+00,2.486236e+00,2.450943e+00,3,0,1.454145e+00,1.454148e+00
4.381929e+00,2.473253e+00,2.435923e+00,3,0,3.218433e+00,3.218436e+00
4.380558e+00,2.488142e+00,2.452135e+00,3,0,2.417712e+00,2.417712e+00
4.388161e+00,2.495038e+00,2.457857e+00,3,0,1.723471e+00,1.723471e+00
4.328941e+00,2.488987e+00,2.451897e+00,3,0,1.264275e+00,1.264275e+00
4.255622e+00,2.430711e+00,2.393007e+00,3,0,1.366921e+00,1.366922e+00
4.258792e+00,2.438943e+00,2.403975e+00,3,0,1.080434e+00,1.080434e+00
4.292160e+00,2.478298e+00,2.443075e+00,3,0,1.043215e+00,1.043215e+00
4.315198e+00,2.424010e+00,2.388000e+00,3,0,1.256931e+00,1.256931e+00
4.264510e+00,2.383446e+00,2.348900e+00,3,0,1.434086e+00,1.434087e+00
4.262510e+00,2.397149e+00,2.362967e+00,3,0,1.312171e+00,1.312172e+00
4.255233e+00,2.412450e+00,2.378941e+00,3,0,1.397984e+00,1.397985e+00
4.257426e+00,2.387086e+00,2.352953e+00,3,0,1.863006e+00,1.863007e+00
4.267323e+00,2.407427e+00,2.372026e+00,3,0,1.373502e+00,1.373502e+00
4.319396e+00,2.422131e+00,2.387047e+00,3,0,9.297248e-01,9.297247e-01
4.400672e+00,2.517689e+00,2.470970e+00,3,0,5.499694e-01,5.499693e-01
4.391612e+00,2.567777e+00,2.528906e+00,3,0,3.668122e-01,3.668123e-01
4.390464e+00,2.551659e+00,2.513885e+00,3,0,2.877344e-01,2.877345e-01
4.389585e+00,2.519931e+00,2.482891e+00,3,0,3.947813e-01,3.947817e-01
4.389694e+00,2.538640e+00,2.501011e+00,3,0,2.789106e-01,2.789106e-01
4.386651e+00,2.520131e+00,2.483130e+00,3,0,4.675782e-01,4.675786e-01
4.384388e+00,2.542641e+00,2.497911e+00,3,0,4.970870e-01,4.970872e-01
4.385567e+00,2.521913e+00,2.485037e+00,3,0,4.618472e-01,4.618473e-01
4.379843e+00,2.518254e+00,2.482176e+00,3,0,5.953705e-01,5.953710e-01
4.383309e+00,2.499974e+00,2.462864e+00,3,0,3.315649e-01,3.315649e-01
4.393368e+00,2.498128e+00,2.460003e+00,3,0,2.690293e-01,2.690294e-01
4.395261e+00,2.485834e+00,2.449036e+00,3,0,1.439724e+00,1.439727e+00
4.409531e+00,2.517223e+00,2.480030e+00,3,0,1.497785e+00,1.497785e+00
4.387769e+00,2.511212e+00,2.474785e+00,3,0,7.278902e-01,7.278898e-01
4.383063e+00,2.477923e+00,2.441168e+00,3,0,7.181027e-01,7.181029e-01
4.382856e+00,2.485039e+00,2.449036e+00,3,0,6.287868e-01,6.287870e-01
4.375555e+00,2.483632e+00,2.447128e+00,3,0,6.738957e-01,6.738959e-01
4.377921e+00,2.502792e+00,2.465963e+00,3,0,3.442821e-01,3.442821e-01
4.383262e+00,2.495776e+00,2.459049e+00,3,0,2.891120e-01,2.891122e-01
4.391176e+00,2.483247e+00,2.447128e+00,3,0,5.501599e-01,5.501605e-01
4.378348e+00,2.492339e+00,2.454996e+00,3,0,6.853907e-01,6.853911e-01
4.396595e+00,2.500019e+00,2.463102e+00,3,0,8.436226e-01,8.436231e-01
4.390248e+00,2.478698e+00,2.439976e+00,3,0,5.492943e-01,5.492944e-01
4.388776e+00,2.520597e+00,2.481937e+00,3,0,5.278050e-01,5.278053e-01
4.393787e+00,2.478806e+00,2.439976e+00,3,0,7.921355e-01,7.921362e-01
4.386021e+00,2.517732e+00,2.480030e+00,3,0,1.174981e+00,1.174981e+00
4.392017e+00,2.539223e+00,2.501011e+00,3,0,1.302907e+00,1.302908e+00
4.412288e+00,2.484746e+00,2.447128e+00,3,0,1.817128e+00,1.817129e+00
4.402291e+00,2.473972e+00,2.435207e+00,3,0,1.715595e+00,1.715595e+00
4.391531e+00,2.505527e+00,2.467871e+00,3,0,2.668153e+00,2.668154e+00
4.386766e+00,2.485153e+00,2.448082e+00,3,0,1.115506e+00,1.115505e+00
4.379323e+00,2.485467e+00,2.449036e+00,3,0,9.496711e-01,9.496712e-01
4.387870e+00,2.464791e+00,2.428055e+00,3,0,1.501075e+00,1.501076e+00
4.385995e+00,2.502256e+00,2.465963e+00,3,0,7.347724e-01,7.347722e-01
4.387772e+00,2.475162e+00,2.438784e+00,3,0,6.039009e-01,6.039010e-01
4.398811e+00,2.483668e+00,2.446890e+00,3,0,4.902778e-01,4.902780e-01
4.382079e+00,2.477232e+00,2.440929e+00,3,0,3.288280e-01,3.288279e-01
4.376196e+00,2.479805e+00,2.443075e+00,3,0,6.713491e-01,6.713497e-01
4.386488e+00,2.481519e+00,2.444983e+00,3,0,4.977139e-01,4.977140e-01
4.383187e+00,2.528056e+00,2.491951e+00,3,0,2.836719e-01,2.836719e-01
4.380451e+00,2.494436e+00,2.456903e+00,3,0,6.883872e-01,6.883882e-01
4.393325e+00,2.490679e+00,2.454042e+00,3,0,4.772303e-01,4.772303e-01
4.381309e+00,2.477248e+00,2.440929e+00,3,0,2.511179e-01,2.511180e-01
4.377152e+00,2.483397e+00,2.446890e+00,3,0,2.738165e-01,2.738167e-01
4.386431e+00,2.508120e+00,2.470970e+00,3,0,3.426205e-01,3.426208e-01
4.391828e+00,2.483080e+00,2.446175e+00,3,0,5.175609e-01,5.175613e-01
4.383431e+00,2.505407e+00,2.469063e+00,3,0,1.085640e+00,1.085641e+00
4.392219e+00,2.532150e+00,2.495050e+00,3,0,7.889606e-01,7.889620e-01
4.382661e+00,2.526147e+00,2.489090e+00,3,0,1.428628e+00,1.428629e+00
4.397860e+00,2.522399e+00,2.485991e+00,3,0,6.237796e-01,6.237793e-01
4.386801e+00,2.490245e+00,2.451897e+00,3,0,4.969001e-01,4.969004e-01
4.387267e+00,2.488344e+00,2.450943e+00,3,0,3.323368e-01,3.323368e-01
4.393714e+00,2.487635e+00,2.450943e+00,3,0,3.054061e-01,3.054064e-01
4.392392e+00,2.487100e+00,2.449989e+00,3,0,8.581275e-01,8.581289e-01
4.381073e+00,2.477763e+00,2.440929e+00,3,0,8.560419e-01,8.560421e-01
4.384514e+00,2.517601e+00,2.482176e+00,3,0,1.314360e+00,1.314360e+00
4.380921e+00,2.487962e+00,2.452135e+00,3,0,1.349009e+00,1.349010e+00
4.381730e+00,2.497816e+00,2.461910e+00,3,0,1.548528e+00,1.548528e+00
4.389381e+00,2.482161e+00,2.446175e+00,3,0,2.537457e+00,2.537458e+00
4.403183e+00,2.493732e+00,2.455950e+00,3,0,2.841284e+00,2.841285e+00
4.420246e+00,2.551707e+00,2.513885e+00,3,0,2.122476e+00,2.122476e+00
4.404113e+00,2.497603e+00,2.460003e+00,3,0,1.906988e+00,1.906988e+00
4.393087e+00,2.510524e+00,2.473831e+00,3,0,2.680225e+00,2.680227e+00
4.408596e+00,2.509479e+00,2.471924e+00,3,0,1.820728e+00,1.820728e+00
4.384627e+00,2.508488e+00,2.471924e+00,3,0,1.509573e+00,1.509573e+00
4.380644e+00,2.480154e+00,2.444029e+00,3,0,1.527033e+00,1.527034e+00
4.391862e+00,2.483181e+00,2.446890e+00,3,0,1.650989e+00,1.650990e+00
4.388649e+00,2.515831e+00,2.479076e+00,3,0,1.808075e+00,1.808076e+00
4.386413e+00,2.541575e+00,2.506018e+00,3,0,1.332615e+00,1.332615e+00
4.386170e+00,2.486386e+00,2.449989e+00,3,0,1.278934e+00,1.278934e+00
4.382932e+00,2.486773e+00,2.449989e+00,3,0,1.640311e+00,1.640311e+00
4.403059e+00,2.504838e+00,2.468109e+00,3,0,1.799944e+00,1.799945e+00
4.377557e+00,2.500754e+00,2.465010e+00,3,0,1.140216e+00,1.140216e+00
4.304719e+00,2.464171e+00,2.429008e+00,3,0,1.096292e+00,1.096292e+00
4.300839e+00,2.447511e+00,2.412081e+00,3,0,6.438806e-01,6.438805e-01
4.288882e+00,2.443234e+00,2.407074e+00,3,0,6.245239e-01,6.245243e-01

