5.557460e-01,4.361530e-01,2.670288e-01,2,0,0.000000e+00,0.000000e+00
8.063470e-01,7.882400e-02,7.104874e-02,3,0,8.343323e-02,8.343339e-02
8.073040e-01,7.671300e-02,7.009506e-02,3,0,1.619629e-01,1.619633e-01
8.020600e-01,7.686000e-02,6.985664e-02,3,0,3.267581e-01,3.267585e-01
8.027100e-01,7.622400e-02,7.009506e-02,3,0,3.476349e-01,3.476352e-01
8.082620e-01,7.673400e-02,6.985664e-02,3,0,1.753847e+00,1.753850e+00
8.085050e-01,7.681000e-02,7.009506e-02,3,0,2.359742e+00,2.359743e+00
8.163380e-01,7.654800e-02,6.985664e-02,3,0,3.137285e+00,3.137286e+00
8.102850e-01,7.718300e-02,6.985664e-02,3,0,1.546770e+00,1.546769e+00
8.086940e-01,7.657000e-02,6.890297e-02,3,0,1.425135e+00,1.425135e+00
8.091410e-01,7.646800e-02,7.009506e-02,3,0,1.377342e+00,1.377342e+00
8.161690e-01,7.687100e-02,7.009506e-02,3,0,1.588965e+00,1.588966e+00
8.088880e-01,7.720800e-02,7.009506e-02,3,0,2.326815e+00,2.326816e+00
8.028650e-01,7.629600e-02,7.009506e-02,3,0,3.041874e+00,3.041876e+00
8.034770e-01,8.135200e-02,7.390976e-02,3,0,2.858488e+00,2.858489e+00
8.080640e-01,7.688500e-02,7.009506e-02,3,0,3.754235e+00,3.754237e+00
8.089190e-01,7.629600e-02,6.914139e-02,3,0,3.092490e+00,3.092490e+00
8.085090e-01,7.702000e-02,7.104874e-02,3,0,2.682747e+00,2.682748e+00
8.257410e-01,7.701100e-02,6.985664e-02,3,0,2.525769e+00,2.525770e+00
8.096190e-01,7.716300e-02,6.985664e-02,3,0,2.279976e+00,2.279977e+00
8.080860e-01,7.699200e-02,6.985664e-02,3,0,2.347222e+00,2.347223e+00
8.077480e-01,7.658700e-02,7.009506e-02,3,0,1.994320e+00,1.994320e+00
8.084560e-01,7.652200e-02,7.009506e-02,3,0,1.985252e+00,1.985253e+00
8.037380e-01,7.705400e-02,7.104874e-02,3,0,1.725429e+00,1.725430e+00
8.030490e-01,8.067100e-02,7.390976e-02,3,0,1.778476e+00,1.778476e+00
8.081570e-01,7.651400e-02,7.009506e-02,3,0,1.930316e+00,1.930316e+00
8.075220e-01,7.707000e-02,7.104874e-02,3,0,1.790563e+00,1.790563e+00
8.082680e-01,7.662900e-02,7.009506e-02,3,0,1.643546e+00,1.643547e+00
8.088540e-01,7.651800e-02,7.009506e-02,3,0,1.112916e+00,1.112916e+00
8.094610e-01,7.630500e-02,7.009506e-02,3,0,9.305468e-01,9.305469e-01
8.087100e-01,7.672000e-02,6.985664e-02,3,0,9.143106e-01,9.143113e-01
8.084370e-01,7.687300e-02,7.009506e-02,3,0,7.706814e-01,7.706817e-01
8.068170e-01,7.626900e-02,7.009506e-02,3,0,7.141587e-01,7.141589e-01
8.026920e-01,7.661100e-02,7.009506e-02,3,0,1.101326e+00,1.101327e+00
8.074030e-01,7.674900e-02,6.985664e-02,3,0,9.192404e-01,9.192405e-01
8.090510e-01,7.650500e-02,6.890297e-02,3,0,9.033415e-01,9.033417e-01
8.077270e-01,7.671600e-02,6.985664e-02,3,0,6.090849e-01,6.090850e-01
8.332620e-01,7.640900e-02,7.009506e-02,3,0,4.772046e-01,4.772048e-01
8.082790e-01,7.682200e-02,7.009506e-02,3,0,9.785006e-01,9.785016e-01
8.087880e-01,7.684700e-02,7.009506e-02,3,0,1.080476e+00,1.080476e+00
8.089980e-01,7.618600e-02,6.985664e-02,3,0,2.742847e+00,2.742850e+00
8.086410e-01,7.671900e-02,7.009506e-02,3,0,3.994963e+00,3.994966e+00
8.071950e-01,7.651200e-02,6.985664e-02,3,0,2.836817e+00,2.836816e+00
8.031810e-01,7.666900e-02,7.009506e-02,3,0,4.241288e+00,4.241291e+00
8.067050e-01,7.733900e-02,6.985664e-02,3,0,3.538368e+00,3.538368e+00
8.084700e-01,7.690000e-02,7.104874e-02,3,0,3.101683e+00,3.101683e+00
8.072280e-01,7.636700e-02,7.009506e-02,3,0,2.969792e+00,2.969792e+00
8.085570e-01,7.692800e-02,6.985664e-02,3,0,2.666433e+00,2.666433e+00
8.081410e-01,7.657900e-02,6.914139e-02,3,0,2.221964e+00,2.221964e+00
8.080200e-01,7.648500e-02,6.890297e-02,3,0,1.450439e+00,1.450439e+00
8.085600e-01,7.673700e-02,7.009506e-02,3,0,1.269345e+00,1.269345e+00
8.079340e-01,7.725800e-02,6.985664e-02,3,0,1.661192e+00,1.661193e+00
8.023440e-01,7.628600e-02,7.009506e-02,3,0,1.227646e+00,1.227646e+00
8.035170e-01,8.150800e-02,7.486343e-02,3,0,1.041284e+00,1.041284e+00
8.073070e-01,7.684100e-02,6.985664e-02,3,0,1.320517e+00,1.320518e+00
8.071840e-01,7.648600e-02,6.890297e-02,3,0,1.760652e+00,1.760653e+00
8.071910e-01,7.642900e-02,6.914139e-02,3,0,1.045400e+00,1.045399e+00
8.072450e-01,7.650900e-02,6.914139e-02,3,0,1.609210e+00,1.609211e+00
8.080690e-01,7.804200e-02,7.104874e-02,3,0,2.211782e+00,2.211783e+00
8.072800e-01,7.845500e-02,7.200241e-02,3,0,3.319026e+00,3.319028e+00
8.084640e-01,7.639300e-02,7.009506e-02,3,0,1.627112e+00,1.627113e+00
8.076820e-01,7.639600e-02,6.985664e-02,3,0,2.731742e+00,2.731745e+00
8.029850e-01,7.626200e-02,6.985664e-02,3,0,4.624699e+00,4.624703e+00
8.040870e-01,8.109200e-02,7.414818e-02,3,0,2.808789e+00,2.808787e+00
8.080970e-01,7.656000e-02,6.985664e-02,3,0,3.771093e+00,3.771094e+00
8.091310e-01,7.646400e-02,7.009506e-02,3,0,1.523493e+00,1.523492e+00
8.080300e-01,7.652400e-02,7.009506e-02,3,0,1.718545e+00,1.718545e+00
8.078410e-01,7.666100e-02,6.985664e-02,3,0,1.671766e+00,1.671767e+00
8.084850e-01,7.761400e-02,7.104874e-02,3,0,1.127477e+00,1.127477e+00
8.084110e-01,7.788400e-02,7.081032e-02,3,0,1.128516e+00,1.128516e+00
8.085890e-01,7.625200e-02,6.890297e-02,3,0,1.542608e+00,1.542609e+00
8.079370e-01,7.641100e-02,6.890297e-02,3,0,1.518157e+00,1.518157e+00
8.036660e-01,7.680800e-02,7.009506e-02,3,0,1.504971e+00,1.504971e+00
8.036190e-01,8.095600e-02,7.390976e-02,3,0,1.637096e+00,1.637097e+00
8.074290e-01,7.611600e-02,6.890297e-02,3,0,2.292767e+00,2.292768e+00
8.070120e-01,7.688000e-02,6.985664e-02,3,0,3.443353e+00,3.443355e+00
8.074590e-01,7.669600e-02,6.890297e-02,3,0,2.310065e+00,2.310064e+00
8.098390e-01,7.685100e-02,7.009506e-02,3,0,2.311338e+00,2.311339e+00
8.078930e-01,7.715200e-02,7.009506e-02,3,0,1.860542e+00,1.860542e+00
8.078430e-01,7.669300e-02,6.985664e-02,3,0,8.652770e-01,8.652765e-01
8.078120e-01,7.626000e-02,6.914139e-02,3,0,1.576332e+00,1.576334e+00
8.077500e-01,7.639400e-02,6.985664e-02,3,0,1.194159e+00,1.194159e+00
8.020340e-01,7.649500e-02,7.009506e-02,3,0,1.018273e+00,1.018273e+00
8.072000e-01,7.613600e-02,7.009506e-02,3,0,8.795656e-01,8.795661e-01
8.069850e-01,7.604700e-02,6.914139e-02,3,0,1.582606e+00,1.582608e+00
8.075730e-01,7.644600e-02,6.985664e-02,3,0,3.107567e+00,3.107569e+00
8.085360e-01,7.650900e-02,6.985664e-02,3,0,4.648756e+00,4.648759e+00
8.116680e-01,4.304560e-01,4.231930e-01,3,3,6.778135e+00,6.792749e+00
8.134530e-01,5.092400e-01,5.028248e-01,3,4,5.763632e+00,5.779360e+00
8.031490e-01,9.409600e-02,8.678436e-02,3,0,4.093736e+00,4.093964e+00
8.040360e-01,1.845730e-01,1.730919e-01,3,1,3.373064e+00,3.373064e+00
8.038050e-01,8.092100e-02,6.985664e-02,3,0,2.522424e+00,2.522424e+00
8.284250e-01,1.980150e-01,1.909733e-01,3,1,3.418169e+00,3.426041e+00
8.119140e-01,4.279500e-01,4.208088e-01,3,3,2.657678e+00,2.657678e+00
8.079330e-01,1.783550e-01,1.721382e-01,3,1,3.384143e+00,3.383983e+00
1.881755e+00,2.829270e-01,2.758503e-01,7,2,3.825287e+00,3.835030e+00
8.096340e-01,1.803830e-01,1.740456e-01,3,1,1.695769e+00,1.695765e+00
8.087210e-01,7.652300e-02,6.890297e-02,3,0,1.543651e+00,1.543651e+00
8.094070e-01,7.660500e-02,7.009506e-02,3,0,2.053396e+00,2.053397e+00
8.076660e-01,7.710500e-02,7.009506e-02,3,0,2.270998e+00,2.270998e+00
8.029580e-01,7.658500e-02,6.890297e-02,3,0,1.681381e+00,1.681381e+00
8.035020e-01,8.084600e-02,7.390976e-02,3,0,1.939880e+00,1.939881e+00
8.078180e-01,7.703600e-02,7.009506e-02,3,0,1.298651e+00,1.298651e+00
8.072300e-01,7.673400e-02,7.009506e-02,3,0,1.189222e+00,1.189223e+00
8.080500e-01,7.672500e-02,7.009506e-02,3,0,1.033072e+00,1.033072e+00
8.086920e-01,7.625300e-02,7.009506e-02,3,0,1.073920e+00,1.073920e+00
8.088560e-01,7.653700e-02,7.009506e-02,3,0,1.425732e+00,1.425733e+00
8.081830e-01,7.676900e-02,7.009506e-02,3,0,1.539875e+00,1.539875e+00
8.088770e-01,7.680300e-02,6.985664e-02,3,0,1.371808e+00,1.371808e+00
8.083250e-01,7.622000e-02,7.009506e-02,3,0,1.178948e+00,1.178949e+00
8.031310e-01,7.653500e-02,6.985664e-02,3,0,1.070077e+00,1.070078e+00
8.025320e-01,8.140400e-02,7.510185e-02,3,0,8.164570e-01,8.164574e-01
8.074330e-01,7.646800e-02,6.890297e-02,3,0,8.671842e-01,8.671845e-01
8.078760e-01,7.649800e-02,6.985664e-02,3,0,1.233751e+00,1.233752e+00
8.073320e-01,7.680100e-02,7.009506e-02,3,0,7.320307e-01,7.320306e-01
8.084190e-01,7.649800e-02,6.985664e-02,3,0,6.162768e-01,6.162769e-01
8.074090e-01,7.669000e-02,7.009506e-02,3,0,1.332049e+00,1.332050e+00
8.084190e-01,7.710800e-02,7.081032e-02,3,0,1.069605e+00,1.069606e+00
8.076600e-01,7.603300e-02,6.914139e-02,3,0,2.827608e+00,2.827611e+00
8.077200e-01,7.668400e-02,6.985664e-02,3,0,2.072384e+00,2.072384e+00
8.035300e-01,7.647300e-02,6.985664e-02,3,0,1.946084e+00,1.946085e+00
8.071370e-01,7.700800e-02,7.104874e-02,3,0,2.284218e+00,2.284219e+00
8.079570e-01,7.645000e-02,6.985664e-02,3,0,2.198809e+00,2.198810e+00
8.074750e-01,7.638100e-02,6.914139e-02,3,0,2.523438e+00,2.523439e+00
8.094070e-01,7.666800e-02,7.104874e-02,3,0,4.347265e+00,4.347268e+00
8.089680e-01,7.596900e-02,6.914139e-02,3,0,2.933520e+00,2.933519e+00
8.090970e-01,7.657800e-02,6.985664e-02,3,0,2.483004e+00,2.483004e+00
8.092090e-01,7.601500e-02,6.914139e-02,3,0,2.378332e+00,2.378332e+00
8.083630e-01,7.614600e-02,7.009506e-02,3,0,1.284705e+00,1.284705e+00
8.028680e-01,7.630400e-02,7.009506e-02,3,0,1.833695e+00,1.833697e+00
8.037740e-01,8.064800e-02,7.390976e-02,3,0,1.440283e+00,1.440283e+00
8.078780e-01,7.648600e-02,7.009506e-02,3,0,1.311386e+00,1.311386e+00
8.081780e-01,7.638300e-02,6.890297e-02,3,0,8.900476e-01,8.900477e-01
8.080900e-01,7.656900e-02,7.009506e-02,3,0,7.834317e-01,7.834318e-01
8.081170e-01,7.667400e-02,7.009506e-02,3,0,7.232690e-01,7.232692e-01
8.089620e-01,7.649200e-02,7.009506e-02,3,0,9.537493e-01,9.537501e-01
8.079560e-01,7.674200e-02,6.985664e-02,3,0,1.115143e+00,1.115143e+00
8.089430e-01,7.659600e-02,7.009506e-02,3,0,8.168281e-01,8.168281e-01
8.070650e-01,7.623900e-02,6.985664e-02,3,0,8.776136e-01,8.776140e-01
8.020140e-01,7.643700e-02,7.009506e-02,3,0,7.946710e-01,7.946713e-01
8.037170e-01,8.067400e-02,7.414818e-02,3,0,1.390894e+00,1.390895e+00
8.075380e-01,7.616200e-02,6.890297e-02,3,0,2.342794e+00,2.342795e+00
8.074050e-01,7.647900e-02,7.009506e-02,3,0,2.539739e+00,2.539740e+00
8.089340e-01,7.638700e-02,7.009506e-02,3,0,1.781722e+00,1.781722e+00
8.085800e-01,7.661900e-02,7.009506e-02,3,0,1.512357e+00,1.512358e+00
8.091750e-01,7.660200e-02,7.009506e-02,3,0,1.503071e+00,1.503071e+00
8.088270e-01,7.642600e-02,7.009506e-02,3,0,1.205961e+00,1.205961e+00
8.090240e-01,7.639100e-02,6.985664e-02,3,0,9.609378e-01,9.609387e-01
8.078820e-01,7.640800e-02,7.009506e-02,3,0,1.561544e+00,1.561546e+00
8.028320e-01,7.669900e-02,6.985664e-02,3,0,2.129703e+00,2.129704e+00
8.033530e-01,8.065800e-02,7.390976e-02,3,0,1.254036e+00,1.254035e+00
8.069790e-01,7.667400e-02,6.985664e-02,3,0,1.268466e+00,1.268466e+00
8.076960e-01,7.704900e-02,6.985664e-02,3,0,1.165688e+00,1.165688e+00
8.085840e-01,7.668500e-02,7.009506e-02,3,0,1.184622e+00,1.184623e+00
8.089220e-01,7.681100e-02,7.009506e-02,3,0,1.055016e+00,1.055017e+00
8.079410e-01,7.683900e-02,7.081032e-02,3,0,1.154781e+00,1.154781e+00
8.079590e-01,7.646800e-02,7.009506e-02,3,0,1.584077e+00,1.584078e+00
8.375790e-01,7.647600e-02,6.985664e-02,3,0,1.547700e+00,1.547701e+00
8.076040e-01,7.710500e-02,7.104874e-02,3,0,1.587400e+00,1.587401e+00
8.029920e-01,7.650400e-02,6.914139e-02,3,0,1.917123e+00,1.917125e+00
8.028390e-01,8.094500e-02,7.390976e-02,3,0,9.905254e-01,9.905255e-01
8.066990e-01,7.663300e-02,7.009506e-02,3,0,6.742081e-01,6.742082e-01
8.068370e-01,7.606400e-02,7.009506e-02,3,0,8.074827e-01,8.074833e-01
8.081160e-01,7.598500e-02,6.914139e-02,3,0,2.781776e-01,2.781778e-01
8.076690e-01,7.623900e-02,6.985664e-02,3,0,2.659609e-01,2.659610e-01
8.080610e-01,7.676900e-02,7.009506e-02,3,0,4.341921e-01,4.341926e-01
8.319140e-01,7.580000e-02,6.890297e-02,3,0,3.823888e-01,3.823888e-01
8.083890e-01,7.648600e-02,6.985664e-02,3,0,1.159444e+00,1.159446e+00
8.101230e-01,7.623300e-02,7.009506e-02,3,0,8.600543e-01,8.600551e-01
8.035980e-01,7.636100e-02,6.985664e-02,3,0,6.426085e-01,6.426087e-01
8.023690e-01,8.123000e-02,7.510185e-02,3,0,6.179497e-01,6.179500e-01
8.073520e-01,7.645200e-02,6.985664e-02,3,0,6.785454e-01,6.785458e-01
8.078250e-01,7.648400e-02,7.009506e-02,3,0,6.971777e-01,6.971780e-01
8.069810e-01,7.667400e-02,7.104874e-02,3,0,4.200892e-01,4.200892e-01
8.075860e-01,7.602500e-02,6.985664e-02,3,0,3.875720e-01,3.875724e-01
8.078630e-01,7.627900e-02,6.985664e-02,3,0,3.515934e-01,3.515937e-01
8.065870e-01,7.627500e-02,7.009506e-02,3,0,2.967396e-01,2.967397e-01
8.070910e-01,7.642400e-02,7.009506e-02,3,0,9.237276e-01,9.237288e-01
8.027510e-01,7.631300e-02,6.890297e-02,3,0,8.476291e-01,8.476295e-01
8.020040e-01,7.622200e-02,6.985664e-02,3,0,1.124621e+00,1.124621e+00
8.075340e-01,7.633100e-02,6.914139e-02,3,0,1.736780e+00,1.736781e+00
8.075790e-01,7.628200e-02,6.914139e-02,3,0,1.430085e+00,1.430085e+00
8.086810e-01,7.646200e-02,6.985664e-02,3,0,1.738141e+00,1.738142e+00
8.080440e-01,7.695100e-02,7.009506e-02,3,0,1.475730e+00,1.475730e+00
8.080240e-01,7.625200e-02,6.985664e-02,3,0,1.427553e+00,1.427553e+00
8.085240e-01,7.667700e-02,7.009506e-02,3,0,1.418553e+00,1.418553e+00
8.073180e-01,7.685300e-02,6.985664e-02,3,0,2.442579e+00,2.442581e+00
8.074460e-01,7.624900e-02,7.009506e-02,3,0,3.134044e+00,3.134046e+00
8.025070e-01,7.617700e-02,7.009506e-02,3,0,2.834520e+00,2.834520e+00
8.029290e-01,8.120900e-02,7.486343e-02,3,0,2.344008e+00,2.344008e+00
8.070750e-01,7.630300e-02,6.890297e-02,3,0,2.106704e+00,2.106705e+00
8.078820e-01,7.604600e-02,7.009506e-02,3,0,1.700916e+00,1.700916e+00
8.086150e-01,7.652100e-02,7.009506e-02,3,0,1.734661e+00,1.734662e+00
8.084450e-01,7.647000e-02,6.914139e-02,3,0,1.699211e+00,1.699212e+00
8.081880e-01,7.639500e-02,6.985664e-02,3,0,1.300082e+00,1.300082e+00
8.083880e-01,7.705300e-02,7.104874e-02,3,0,1.052825e+00,1.052826e+00
8.079820e-01,7.588700e-02,6.890297e-02,3,0,2.096617e+00,2.096620e+00
8.087880e-01,1.650130e-01,1.590252e-01,3,1,4.142989e+00,4.142944e+00
1.605956e+00,7.671800e-02,6.985664e-02,6,0,4.533133e+00,4.511282e+00
1.337520e+00,1.626730e-01,1.561642e-01,5,1,4.760784e+00,4.760404e+00
1.076298e+00,7.610600e-02,7.009506e-02,4,0,5.703633e+00,5.703633e+00
8.083440e-01,1.938720e-01,1.869202e-01,3,1,7.896354e+00,7.896360e+00
8.089070e-01,1.789740e-01,1.721382e-01,3,1,5.365320e+00,5.365318e+00
8.100950e-01,4.180070e-01,4.107952e-01,3,3,6.671469e+00,6.672990e+00
8.058970e-01,3.223480e-01,3.159046e-01,3,2,5.472792e+00,5.473430e+00
8.086530e-01,3.166720e-01,3.099442e-01,3,2,4.972535e+00,4.981052e+00
8.137380e-01,3.115900e-01,3.051758e-01,3,2,3.844186e+00,3.848077e+00
8.119380e-01,4.376830e-01,4.310608e-01,3,3,4.366484e+00,4.379671e+00
8.090790e-01,1.959580e-01,1.890659e-01,3,1,3.354854e+00,3.363375e+00
8.111440e-01,3.140630e-01,3.080368e-01,3,2,4.106713e+00,4.126738e+00
1.075911e+00,3.858210e-01,3.790855e-01,4,3,1.542214e+00,1.542210e+00
8.023570e-01,7.639400e-02,6.985664e-02,3,0,1.336062e+00,1.336062e+00
8.032340e-01,8.041400e-02,7.390976e-02,3,0,1.787843e+00,1.787844e+00
8.075000e-01,7.642000e-02,7.009506e-02,3,0,1.253325e+00,1.253325e+00
8.078340e-01,7.671700e-02,6.985664e-02,3,0,2.032744e+00,2.032745e+00
8.088700e-01,7.702900e-02,7.104874e-02,3,0,2.145835e+00,2.145836e+00
8.081710e-01,7.650500e-02,6.985664e-02,3,0,3.866348e+00,3.866352e+00
8.094760e-01,7.642200e-02,7.009506e-02,3,0,2.141371e+00,2.141369e+00
8.081280e-01,7.640100e-02,7.009506e-02,3,0,1.925465e+00,1.925466e+00
8.096060e-01,7.677200e-02,7.009506e-02,3,0,1.832707e+00,1.832708e+00
8.088570e-01,7.636700e-02,6.914139e-02,3,0,1.666227e+00,1.666227e+00
8.030340e-01,7.676500e-02,6.985664e-02,3,0,1.692619e+00,1.692620e+00
8.033190e-01,8.183600e-02,7.510185e-02,3,0,2.326853e+00,2.326854e+00
8.072890e-01,7.664600e-02,6.985664e-02,3,0,1.246855e+00,1.246854e+00
8.076590e-01,7.650900e-02,6.914139e-02,3,0,8.863440e-01,8.863441e-01
8.085040e-01,7.652200e-02,6.985664e-02,3,0,1.008155e+00,1.008156e+00
8.083110e-01,7.635800e-02,7.009506e-02,3,0,9.884120e-01,9.884124e-01
8.083690e-01,7.618200e-02,6.985664e-02,3,0,7.695091e-01,7.695092e-01
8.086490e-01,7.654700e-02,7.009506e-02,3,0,1.062038e+00,1.062040e+00
8.080570e-01,7.690500e-02,7.081032e-02,3,0,1.523594e+00,1.523595e+00
8.077920e-01,7.633600e-02,7.009506e-02,3,0,2.216548e+00,2.216549e+00
8.023270e-01,7.664600e-02,7.009506e-02,3,0,4.575213e+00,4.575217e+00
8.021200e-01,8.141600e-02,7.486343e-02,3,0,6.165843e+00,6.165847e+00
8.081390e-01,7.619600e-02,6.890297e-02,3,0,4.531522e+00,4.531521e+00
8.079220e-01,7.621000e-02,7.009506e-02,3,0,5.673546e+00,5.673549e+00
8.094350e-01,7.652800e-02,6.985664e-02,3,0,4.268549e+00,4.268548e+00
8.092030e-01,7.634800e-02,6.985664e-02,3,0,3.449822e+00,3.449822e+00
8.086550e-01,7.645900e-02,7.009506e-02,3,0,3.835842e+00,3.835844e+00
8.083910e-01,7.598500e-02,6.985664e-02,3,0,2.674952e+00,2.674951e+00
8.088680e-01,7.606300e-02,6.914139e-02,3,0,1.811033e+00,1.811034e+00
8.075890e-01,7.609400e-02,6.890297e-02,3,0,1.301817e+00,1.301817e+00
8.040820e-01,7.629000e-02,7.009506e-02,3,0,1.190021e+00,1.190022e+00
8.031960e-01,7.628100e-02,7.009506e-02,3,0,1.245009e+00,1.245009e+00
8.081050e-01,7.608200e-02,6.985664e-02,3,0,1.794867e+00,1.794868e+00
8.082960e-01,7.665700e-02,7.009506e-02,3,0,6.418178e-01,6.418172e-01
8.078310e-01,7.595900e-02,6.890297e-02,3,0,2.307310e+00,2.307313e+00
8.080120e-01,7.585600e-02,6.890297e-02,3,0,4.681941e+00,4.681946e+00
8.082850e-01,7.676100e-02,7.009506e-02,3,0,2.744956e+00,2.744954e+00
8.079880e-01,7.644900e-02,6.985664e-02,3,0,1.915828e+00,1.915827e+00
8.073900e-01,7.628500e-02,7.009506e-02,3,0,1.709393e+00,1.709393e+00
8.023920e-01,7.609400e-02,6.890297e-02,3,0,1.521551e+00,1.521551e+00
8.032620e-01,8.115700e-02,7.390976e-02,3,0,1.404134e+00,1.404134e+00
8.070060e-01,7.621200e-02,7.009506e-02,3,0,2.026227e+00,2.026228e+00
8.084990e-01,7.684800e-02,7.009506e-02,3,0,1.627521e+00,1.627521e+00
8.085040e-01,7.611500e-02,7.009506e-02,3,0,1.170592e+00,1.170592e+00
8.079420e-01,7.639600e-02,7.009506e-02,3,0,1.347169e+00,1.347170e+00
8.093040e-01,7.597300e-02,6.890297e-02,3,0,2.410565e+00,2.410567e+00
8.081620e-01,7.643000e-02,7.009506e-02,3,0,3.850855e+00,3.850858e+00
8.082330e-01,7.667500e-02,7.009506e-02,3,0,6.806215e+00,6.806221e+00
8.085290e-01,1.991480e-01,1.931190e-01,3,1,8.268655e+00,8.268970e+00
8.078540e-01,1.794460e-01,1.728535e-01,3,1,7.582368e+00,7.582368e+00
8.084280e-01,7.656100e-02,7.009506e-02,3,0,8.301695e+00,8.301698e+00
8.037690e-01,7.560000e-02,6.890297e-02,3,0,7.254189e+00,7.254189e+00
8.037330e-01,8.096400e-02,7.414818e-02,3,0,7.690783e+00,7.690785e+00
8.078870e-01,7.625100e-02,6.890297e-02,3,0,7.659148e+00,7.659149e+00
8.082640e-01,1.923360e-01,1.859665e-01,3,1,6.454913e+00,6.460133e+00
8.075860e-01,9.358000e-02,8.702278e-02,3,0,5.684479e+00,5.685959e+00
8.077330e-01,1.807070e-01,1.740456e-01,3,1,4.610414e+00,4.610281e+00
8.074360e-01,7.651800e-02,6.985664e-02,3,0,4.396721e+00,4.396690e+00
8.086350e-01,2.609670e-01,2.539158e-01,3,2,4.430236e+00,4.427479e+00
1.606279e+00,4.635990e-01,4.570484e-01,6,4,5.609770e+00,5.593584e+00
1.610748e+00,6.564640e-01,6.501675e-01,6,5,9.524737e+00,9.703073e+00
1.611436e+00,8.282760e-01,8.218288e-01,6,7,1.066676e+01,1.113674e+01
1.607119e+00,6.179360e-01,6.108284e-01,6,5,1.206662e+01,1.259907e+01
1.610543e+00,8.474700e-01,8.409023e-01,6,7,1.102203e+01,1.116242e+01
1.880976e+00,9.402210e-01,9.329319e-01,7,8,1.129553e+01,1.139783e+01
1.880404e+00,1.071034e+00,1.065016e+00,7,9,1.339692e+01,1.363856e+01
1.080000e+00,6.146120e-01,6.067753e-01,4,5,1.221202e+01,1.228588e+01
1.340591e+00,6.400410e-01,6.330013e-01,5,5,1.044902e+01,1.046813e+01
1.612641e+00,3.078480e-01,3.011227e-01,6,2,9.151557e+00,9.179262e+00
1.614077e+00,3.003080e-01,2.930164e-01,6,2,8.219425e+00,8.215820e+00
1.081446e+00,4.347590e-01,4.279613e-01,4,3,7.105255e+00,7.105770e+00
8.114940e-01,3.146190e-01,3.080368e-01,3,2,6.446211e+00,6.465368e+00
8.124030e-01,6.353490e-01,6.279945e-01,3,5,6.722108e+00,6.812531e+00
1.879142e+00,6.326080e-01,6.260872e-01,7,5,4.609730e+00,4.592177e+00
1.607257e+00,9.454200e-02,8.797646e-02,6,0,4.136186e+00,4.134563e+00
1.078898e+00,5.527790e-01,5.459785e-01,4,4,4.535722e+00,4.571591e+00
1.610545e+00,2.996230e-01,2.930164e-01,6,2,3.598322e+00,3.575946e+00
1.071790e+00,2.675170e-01,2.610683e-01,4,2,3.070147e+00,3.070075e+00
8.076580e-01,7.748400e-02,7.104874e-02,3,0,2.635855e+00,2.635713e+00
8.073920e-01,7.752700e-02,7.104874e-02,3,0,2.061842e+00,2.061842e+00
8.084760e-01,7.718300e-02,7.009506e-02,3,0,1.011526e+00,1.011526e+00
8.085820e-01,7.731000e-02,6.985664e-02,3,0,9.835022e-01,9.835029e-01
8.075470e-01,7.777500e-02,7.104874e-02,3,0,1.049562e+00,1.049562e+00
8.075220e-01,7.750600e-02,7.009506e-02,3,0,1.163436e+00,1.163437e+00
8.087720e-01,7.709000e-02,6.985664e-02,3,0,1.063144e+00,1.063144e+00
8.073950e-01,7.753800e-02,7.104874e-02,3,0,7.885247e-01,7.885250e-01
8.022060e-01,7.737500e-02,6.985664e-02,3,0,1.443047e+00,1.443049e+00
8.026150e-01,8.170500e-02,7.510185e-02,3,0,2.582080e+00,2.582082e+00
8.075310e-01,7.736300e-02,7.081032e-02,3,0,3.349790e+00,3.349792e+00
8.089650e-01,7.699700e-02,7.104874e-02,3,0,2.862155e+00,2.862155e+00
8.085290e-01,7.715600e-02,7.081032e-02,3,0,3.068756e+00,3.068758e+00
8.070880e-01,7.821000e-02,7.081032e-02,3,0,3.098677e+00,3.098678e+00
8.079550e-01,7.725000e-02,7.104874e-02,3,0,2.877990e+00,2.877990e+00
8.076100e-01,7.726300e-02,6.985664e-02,3,0,2.577194e+00,2.577195e+00
8.087470e-01,7.805800e-02,7.104874e-02,3,0,2.709579e+00,2.709580e+00
8.093800e-01,1.991400e-01,1.919270e-01,3,1,5.131463e+00,5.136378e+00
8.089870e-01,9.508100e-02,8.797646e-02,3,0,6.623694e+00,6.657624e+00
1.614777e+00,7.865790e-01,7.798672e-01,6,6,7.867430e+00,7.933489e+00
1.343904e+00,8.685760e-01,8.621216e-01,5,7,6.547647e+00,6.556652e+00
8.083680e-01,5.361420e-01,5.290508e-01,3,4,5.098494e+00,5.098558e+00
1.074339e+00,2.854680e-01,2.789497e-01,4,2,3.873208e+00,3.873207e+00
8.101870e-01,7.781900e-02,7.104874e-02,3,0,3.095140e+00,3.095140e+00
8.090940e-01,7.725000e-02,7.009506e-02,3,0,3.517269e+00,3.517271e+00
8.085130e-01,7.783500e-02,7.104874e-02,3,0,3.529240e+00,3.529241e+00
8.085840e-01,7.727900e-02,7.104874e-02,3,0,2.745196e+00,2.745195e+00
8.088500e-01,1.693440e-01,1.618862e-01,3,1,2.878997e+00,2.878722e+00
1.628972e+00,7.875700e-02,7.200241e-02,6,0,3.692724e+00,3.636805e+00
1.610648e+00,1.658790e-01,1.590252e-01,6,1,4.354236e+00,4.329803e+00
1.073178e+00,7.770100e-02,7.104874e-02,4,0,5.246256e+00,5.246259e+00
8.085030e-01,7.946000e-02,7.200241e-02,3,0,4.168766e+00,4.168765e+00
8.098130e-01,7.777000e-02,7.104874e-02,3,0,5.806678e+00,5.806681e+00
8.090810e-01,7.741100e-02,7.104874e-02,3,0,5.792959e+00,5.792960e+00
8.094870e-01,7.721300e-02,7.104874e-02,3,0,4.849468e+00,4.849468e+00
8.076800e-01,1.982060e-01,1.919270e-01,3,1,4.214259e+00,4.214916e+00
8.119480e-01,4.202000e-01,4.141331e-01,3,3,4.417576e+00,4.438826e+00
8.085540e-01,1.977860e-01,1.912117e-01,3,1,4.237714e+00,4.255358e+00
8.095560e-01,1.808870e-01,1.738071e-01,3,1,3.440969e+00,3.440969e+00
8.085310e-01,7.715800e-02,6.985664e-02,3,0,3.188086e+00,3.188086e+00
8.083000e-01,7.704800e-02,7.009506e-02,3,0,2.192114e+00,2.192113e+00
8.085600e-01,7.740000e-02,7.104874e-02,3,0,1.848468e+00,1.848468e+00
8.079740e-01,7.742600e-02,7.081032e-02,3,0,1.123750e+00,1.123750e+00
8.340720e-01,7.671500e-02,7.009506e-02,3,0,6.372466e-01,6.372466e-01
8.084020e-01,7.785500e-02,7.104874e-02,3,0,6.332713e-01,6.332716e-01
8.021110e-01,7.723800e-02,6.985664e-02,3,0,9.652059e-01,9.652068e-01
8.031480e-01,8.257500e-02,7.605553e-02,3,0,7.133421e-01,7.133422e-01
8.080270e-01,7.706200e-02,7.081032e-02,3,0,6.848607e-01,6.848611e-01
8.076610e-01,7.708700e-02,7.009506e-02,3,0,6.452512e-01,6.452516e-01
8.081810e-01,7.678700e-02,6.985664e-02,3,0,5.572393e-01,5.572395e-01
8.075800e-01,7.712500e-02,7.009506e-02,3,0,4.563667e-01,4.563668e-01
8.078960e-01,7.718600e-02,6.985664e-02,3,0,7.113378e-01,7.113384e-01
8.069280e-01,7.680700e-02,7.104874e-02,3,0,6.352612e-01,6.352615e-01
8.094980e-01,7.710300e-02,7.081032e-02,3,0,2.774972e-01,2.774977e-01
8.071190e-01,7.759400e-02,7.104874e-02,3,0,5.957588e-01,5.957594e-01
8.026710e-01,7.688300e-02,7.104874e-02,3,0,3.935402e-01,3.935402e-01
8.025880e-01,8.118400e-02,7.009506e-02,3,0,4.915585e-01,4.915588e-01
8.067370e-01,7.757900e-02,7.081032e-02,3,0,4.725766e-01,4.725768e-01
8.073270e-01,7.722900e-02,7.009506e-02,3,0,9.154022e-01,9.154031e-01
8.074750e-01,7.771600e-02,7.081032e-02,3,0,7.541745e-01,7.541746e-01
8.072920e-01,7.717400e-02,7.009506e-02,3,0,5.553319e-01,5.553319e-01
8.082680e-01,7.694100e-02,6.985664e-02,3,0,3.624988e-01,3.624990e-01
8.080310e-01,7.749800e-02,7.104874e-02,3,0,5.884225e-01,5.884231e-01
8.078080e-01,7.696000e-02,6.985664e-02,3,0,5.476067e-01,5.476068e-01
8.018170e-01,7.700500e-02,7.009506e-02,3,0,3.684071e-01,3.684072e-01
8.013810e-01,7.738800e-02,6.985664e-02,3,0,5.138568e-01,5.138573e-01
8.064030e-01,7.660700e-02,6.985664e-02,3,0,4.511803e-01,4.511806e-01
8.066410e-01,7.682200e-02,7.009506e-02,3,0,7.081678e-01,7.081684e-01
8.071580e-01,7.713700e-02,7.104874e-02,3,0,1.236978e+00,1.236979e+00
8.073750e-01,7.708800e-02,7.104874e-02,3,0,1.062968e+00,1.062968e+00
8.075450e-01,7.708700e-02,7.009506e-02,3,0,1.088682e+00,1.088682e+00
8.078630e-01,7.707900e-02,6.985664e-02,3,0,2.345956e+00,2.345958e+00
8.364650e-01,7.715300e-02,7.009506e-02,3,0,2.827971e+00,2.827972e+00
8.093660e-01,7.739200e-02,7.104874e-02,3,0,1.713073e+00,1.713072e+00
8.076620e-01,7.745900e-02,7.104874e-02,3,0,1.285180e+00,1.285180e+00
8.033790e-01,7.730400e-02,6.985664e-02,3,0,9.282644e-01,9.282645e-01
8.070490e-01,7.703700e-02,6.985664e-02,3,0,7.703726e-01,7.703727e-01
8.075670e-01,7.719000e-02,7.104874e-02,3,0,6.060767e-01,6.060768e-01
8.080690e-01,7.734300e-02,7.081032e-02,3,0,8.452112e-01,8.452117e-01
8.083160e-01,7.660900e-02,7.009506e-02,3,0,8.130139e-01,8.130141e-01
8.083720e-01,7.684200e-02,6.985664e-02,3,0,4.702709e-01,4.702712e-01
8.078080e-01,7.705600e-02,7.009506e-02,3,0,9.252700e-01,9.252710e-01
8.071570e-01,7.733900e-02,7.081032e-02,3,0,5.487246e-01,5.487245e-01
8.069970e-01,7.712800e-02,7.104874e-02,3,0,4.755824e-01,4.755827e-01
8.025700e-01,7.713100e-02,6.985664e-02,3,0,5.930727e-01,5.930732e-01
8.025130e-01,8.177600e-02,7.510185e-02,3,0,5.657455e-01,5.657458e-01
8.067040e-01,7.718500e-02,7.104874e-02,3,0,6.308861e-01,6.308865e-01
8.066920e-01,7.726400e-02,7.104874e-02,3,0,7.621475e-01,7.621479e-01
8.079020e-01,7.697100e-02,7.104874e-02,3,0,6.155265e-01,6.155267e-01
8.075700e-01,7.753400e-02,6.985664e-02,3,0,5.796816e-01,5.796822e-01
8.080020e-01,7.729000e-02,7.009506e-02,3,0,7.592742e-01,7.592747e-01
8.067650e-01,7.704400e-02,7.081032e-02,3,0,8.397252e-01,8.397257e-01
8.080140e-01,7.753800e-02,7.104874e-02,3,0,1.336243e+00,1.336244e+00
8.070470e-01,7.681000e-02,6.985664e-02,3,0,9.722446e-01,9.722445e-01
8.014770e-01,7.675800e-02,7.009506e-02,3,0,8.505416e-01,8.505425e-01
8.030780e-01,8.175100e-02,7.510185e-02,3,0,7.461931e-01,7.461932e-01
8.070250e-01,7.703500e-02,6.985664e-02,3,0,8.361173e-01,8.361176e-01
8.078490e-01,7.740600e-02,7.009506e-02,3,0,6.656270e-01,6.656272e-01
8.087370e-01,7.698500e-02,6.985664e-02,3,0,1.086183e+00,1.086184e+00
8.081180e-01,7.709700e-02,7.104874e-02,3,0,8.574223e-01,8.574224e-01
8.082390e-01,7.703200e-02,7.009506e-02,3,0,8.749755e-01,8.749759e-01
8.077460e-01,7.677200e-02,6.985664e-02,3,0,8.496718e-01,8.496721e-01
8.078410e-01,7.676000e-02,7.009506e-02,3,0,7.305225e-01,7.305227e-01
8.072040e-01,7.647800e-02,7.009506e-02,3,0,5.809631e-01,5.809633e-01
8.015090e-01,7.782400e-02,7.104874e-02,3,0,7.175586e-01,7.175591e-01
8.023900e-01,8.106100e-02,7.510185e-02,3,0,1.025641e+00,1.025642e+00
8.075600e-01,7.734900e-02,7.104874e-02,3,0,6.256796e-01,6.256796e-01
8.071000e-01,7.716200e-02,7.104874e-02,3,0,1.173297e+00,1.173298e+00
8.072860e-01,7.723000e-02,7.009506e-02,3,0,7.611834e-01,7.611834e-01
8.067610e-01,7.692800e-02,7.104874e-02,3,0,6.915476e-01,6.915479e-01
8.075050e-01,7.669000e-02,7.009506e-02,3,0,6.960835e-01,6.960837e-01
8.073400e-01,7.705300e-02,7.009506e-02,3,0,6.622373e-01,6.622379e-01
8.076650e-01,7.715800e-02,7.104874e-02,3,0,5.063789e-01,5.063791e-01
8.014460e-01,7.705700e-02,7.104874e-02,3,0,8.183046e-01,8.183052e-01
8.023780e-01,8.213200e-02,6.985664e-02,3,0,5.943272e-01,5.943272e-01
8.066230e-01,7.664900e-02,7.009506e-02,3,0,5.411985e-01,5.411989e-01
8.072840e-01,7.729300e-02,7.104874e-02,3,0,4.767013e-01,4.767014e-01
8.079780e-01,7.686500e-02,6.985664e-02,3,0,3.702837e-01,3.702839e-01
8.145470e-01,7.711200e-02,7.104874e-02,3,0,5.091853e-01,5.091856e-01
8.079620e-01,7.730300e-02,7.104874e-02,3,0,3.743374e-01,3.743375e-01
8.077130e-01,7.664400e-02,6.985664e-02,3,0,1.813198e+00,1.813201e+00
8.084740e-01,7.739000e-02,7.104874e-02,3,0,4.128630e+00,4.128634e+00
8.084540e-01,7.712500e-02,7.081032e-02,3,0,3.185975e+00,3.185974e+00
8.028010e-01,7.696900e-02,7.104874e-02,3,0,2.360146e+00,2.360145e+00
8.029780e-01,8.154200e-02,7.486343e-02,3,0,1.710828e+00,1.710828e+00
8.070520e-01,7.718200e-02,7.009506e-02,3,0,2.005593e+00,2.005594e+00
8.069570e-01,7.717600e-02,7.081032e-02,3,0,1.575928e+00,1.575928e+00
8.070020e-01,7.728800e-02,7.009506e-02,3,0,1.561705e+00,1.561706e+00
8.099650e-01,7.719600e-02,7.081032e-02,3,0,1.881949e+00,1.881951e+00
8.076090e-01,7.723300e-02,6.985664e-02,3,0,2.014806e+00,2.014807e+00
8.078390e-01,7.768900e-02,7.104874e-02,3,0,1.820472e+00,1.820472e+00
8.074830e-01,7.686000e-02,6.985664e-02,3,0,2.024443e+00,2.024445e+00
8.083460e-01,7.693600e-02,7.009506e-02,3,0,2.714123e+00,2.714125e+00
8.040460e-01,7.759500e-02,7.104874e-02,3,0,2.468475e+00,2.468475e+00
8.043300e-01,8.142600e-02,7.390976e-02,3,0,1.872314e+00,1.872314e+00
8.077130e-01,7.713700e-02,7.009506e-02,3,0,1.345168e+00,1.345168e+00
8.076860e-01,7.703000e-02,6.985664e-02,3,0,9.800449e-01,9.800449e-01
8.077100e-01,7.755600e-02,7.104874e-02,3,0,7.727082e-01,7.727084e-01
8.081780e-01,7.686100e-02,7.104874e-02,3,0,1.058834e+00,1.058835e+00
8.081460e-01,7.740300e-02,7.104874e-02,3,0,8.159314e-01,8.159314e-01
8.080290e-01,7.706400e-02,7.009506e-02,3,0,9.704779e-01,9.704785e-01
8.079220e-01,7.703000e-02,6.985664e-02,3,0,8.590866e-01,8.590869e-01
8.069800e-01,7.693500e-02,7.104874e-02,3,0,8.244808e-01,8.244810e-01
8.021500e-01,7.697800e-02,6.985664e-02,3,0,1.018749e+00,1.018750e+00
8.023370e-01,8.168600e-02,7.510185e-02,3,0,7.692264e-01,7.692264e-01
8.078510e-01,7.735000e-02,7.104874e-02,3,0,6.234525e-01,6.234526e-01
8.078260e-01,7.720300e-02,7.009506e-02,3,0,1.714176e+00,1.714179e+00
8.085120e-01,7.659200e-02,7.009506e-02,3,0,1.756884e+00,1.756885e+00
8.075570e-01,7.734200e-02,7.104874e-02,3,0,8.942660e-01,8.942656e-01
8.076070e-01,7.693200e-02,7.009506e-02,3,0,9.075150e-01,9.075153e-01
8.084320e-01,7.699400e-02,6.985664e-02,3,0,9.136585e-01,9.136588e-01
8.080300e-01,7.741800e-02,6.985664e-02,3,0,1.037513e+00,1.037513e+00
8.072040e-01,7.689300e-02,7.104874e-02,3,0,5.982897e-01,5.982896e-01
8.025370e-01,7.703000e-02,7.009506e-02,3,0,4.504679e-01,4.504680e-01
8.032550e-01,7.707200e-02,7.009506e-02,3,0,8.063387e-01,8.063394e-01
8.070110e-01,7.727900e-02,7.104874e-02,3,0,1.094714e+00,1.094715e+00
8.077440e-01,7.700500e-02,7.009506e-02,3,0,1.241824e+00,1.241825e+00
8.081490e-01,7.668700e-02,7.009506e-02,3,0,8.534665e-01,8.534667e-01
8.073430e-01,7.786200e-02,7.104874e-02,3,0,9.159279e-01,9.159284e-01
8.080910e-01,7.695700e-02,6.985664e-02,3,0,1.078687e+00,1.078688e+00
8.078830e-01,7.751200e-02,7.104874e-02,3,0,1.457301e+00,1.457301e+00
8.087970e-01,7.771700e-02,7.104874e-02,3,0,1.629181e+00,1.629181e+00
8.028680e-01,7.717000e-02,6.985664e-02,3,0,2.458082e+00,2.458084e+00
8.027560e-01,8.185100e-02,7.510185e-02,3,0,2.412487e+00,2.412488e+00
8.016770e-01,1.721640e-01,1.649857e-01,3,1,3.915440e+00,3.915271e+00
1.071233e+00,1.690720e-01,1.630783e-01,4,1,1.802634e+00,1.802631e+00
8.069790e-01,7.718500e-02,7.104874e-02,3,0,1.708464e+00,1.708464e+00
8.023100e-01,7.692400e-02,6.985664e-02,3,0,2.092009e+00,2.092011e+00
8.037260e-01,8.144700e-02,7.104874e-02,3,0,1.727483e+00,1.727483e+00
8.069180e-01,7.733000e-02,7.081032e-02,3,0,1.617513e+00,1.617513e+00
8.076310e-01,7.704300e-02,7.009506e-02,3,0,1.365793e+00,1.365793e+00
8.081660e-01,7.728400e-02,6.985664e-02,3,0,8.082931e-01,8.082929e-01
8.086200e-01,7.744400e-02,7.104874e-02,3,0,1.251416e+00,1.251417e+00
8.081660e-01,7.693800e-02,7.104874e-02,3,0,9.800499e-01,9.800498e-01
8.081870e-01,7.688900e-02,7.009506e-02,3,0,5.807843e-01,5.807842e-01
8.080780e-01,7.711200e-02,7.104874e-02,3,0,7.561538e-01,7.561547e-01
8.150030e-01,7.718500e-02,6.985664e-02,3,0,5.978919e-01,5.978920e-01
8.020610e-01,7.712700e-02,6.985664e-02,3,0,4.827770e-01,4.827773e-01
8.058290e-01,7.723500e-02,7.009506e-02,3,0,5.144599e-01,5.144601e-01
8.071490e-01,7.668200e-02,7.009506e-02,3,0,5.747258e-01,5.747262e-01
8.072360e-01,7.784900e-02,7.081032e-02,3,0,7.187249e-01,7.187254e-01
8.072000e-01,7.710600e-02,7.104874e-02,3,0,1.871043e+00,1.871045e+00
8.081620e-01,7.700100e-02,7.009506e-02,3,0,1.443372e+00,1.443373e+00
8.079740e-01,7.684300e-02,7.009506e-02,3,0,2.157230e+00,2.157232e+00
8.077220e-01,7.700900e-02,7.104874e-02,3,0,1.123261e+00,1.123260e+00
8.081880e-01,7.757400e-02,7.009506e-02,3,0,9.484319e-01,9.484322e-01
8.019940e-01,7.713400e-02,7.081032e-02,3,0,7.739823e-01,7.739824e-01
8.018560e-01,8.188400e-02,7.510185e-02,3,0,6.407763e-01,6.407766e-01
8.060940e-01,7.742700e-02,7.104874e-02,3,0,1.206100e+00,1.206102e+00
8.088210e-01,7.711100e-02,6.985664e-02,3,0,1.227004e+00,1.227004e+00
8.080800e-01,7.734200e-02,7.009506e-02,3,0,1.984645e+00,1.984647e+00
8.081460e-01,7.731600e-02,7.009506e-02,3,0,2.081285e+00,2.081285e+00
8.086520e-01,7.690900e-02,7.081032e-02,3,0,2.408719e+00,2.408720e+00
8.080050e-01,7.764700e-02,7.104874e-02,3,0,3.708382e+00,3.708385e+00
8.079000e-01,7.729900e-02,7.104874e-02,3,0,4.144207e+00,4.144209e+00
8.084140e-01,7.701100e-02,6.985664e-02,3,0,3.160658e+00,3.160658e+00
8.032720e-01,7.756200e-02,7.009506e-02,3,0,2.821761e+00,2.821761e+00
8.017560e-01,8.168400e-02,7.390976e-02,3,0,3.916099e+00,3.916103e+00
8.075890e-01,7.637900e-02,7.009506e-02,3,0,2.674151e+00,2.674151e+00
8.079160e-01,7.754500e-02,6.985664e-02,3,0,2.291913e+00,2.291913e+00
8.079530e-01,7.704600e-02,7.104874e-02,3,0,2.197615e+00,2.197617e+00
8.079390e-01,7.683100e-02,6.985664e-02,3,0,2.252706e+00,2.252707e+00
8.082180e-01,7.741800e-02,7.009506e-02,3,0,2.342486e+00,2.342487e+00
8.081960e-01,7.649900e-02,6.985664e-02,3,0,1.955094e+00,1.955094e+00
8.086810e-01,7.686100e-02,7.104874e-02,3,0,1.962215e+00,1.962216e+00
8.075240e-01,7.691600e-02,7.104874e-02,3,0,2.479278e+00,2.479280e+00
8.029990e-01,7.696500e-02,7.009506e-02,3,0,2.774524e+00,2.774524e+00
8.027030e-01,8.117600e-02,7.486343e-02,3,0,1.744580e+00,1.744579e+00
8.061770e-01,7.757700e-02,7.104874e-02,3,0,1.872418e+00,1.872418e+00
8.072040e-01,7.726800e-02,7.104874e-02,3,0,1.258861e+00,1.258861e+00
8.068000e-01,7.720300e-02,7.104874e-02,3,0,1.282178e+00,1.282179e+00

