5.501300e-01,4.249410e-01,2.710819e-01,2,0,0.000000e+00,0.000000e+00
8.086290e-01,7.944200e-02,7.200241e-02,3,0,8.343323e-02,8.343339e-02
8.100650e-01,7.763500e-02,7.104874e-02,3,0,1.619629e-01,1.619633e-01
8.396010e-01,7.786800e-02,7.104874e-02,3,0,3.267581e-01,3.267585e-01
8.111250e-01,7.780500e-02,7.104874e-02,3,0,3.476349e-01,3.476352e-01
8.114310e-01,7.784400e-02,7.081032e-02,3,0,1.753847e+00,1.753850e+00
8.122020e-01,7.792900e-02,7.104874e-02,3,0,2.359742e+00,2.359743e+00
8.382400e-01,7.768400e-02,7.104874e-02,3,0,3.137285e+00,3.137286e+00
8.320630e-01,7.819400e-02,7.104874e-02,3,0,1.546770e+00,1.546769e+00
8.055600e-01,7.762600e-02,6.985664e-02,3,0,1.425135e+00,1.425135e+00
8.048180e-01,7.760800e-02,7.104874e-02,3,0,1.377342e+00,1.377342e+00
8.103290e-01,7.798100e-02,7.104874e-02,3,0,1.588965e+00,1.588966e+00
8.350310e-01,7.805400e-02,7.104874e-02,3,0,2.326815e+00,2.326816e+00
8.176110e-01,7.763000e-02,7.104874e-02,3,0,3.041874e+00,3.041876e+00
8.119010e-01,7.857300e-02,7.081032e-02,3,0,2.858488e+00,2.858489e+00
8.118680e-01,7.801800e-02,7.104874e-02,3,0,3.754235e+00,3.754237e+00
8.360820e-01,7.756700e-02,6.985664e-02,3,0,3.092490e+00,3.092490e+00
8.113940e-01,7.838500e-02,7.104874e-02,3,0,2.682747e+00,2.682748e+00
8.193190e-01,7.794200e-02,7.104874e-02,3,0,2.525769e+00,2.525770e+00
8.118540e-01,7.790100e-02,7.200241e-02,3,0,2.279976e+00,2.279977e+00
8.045750e-01,7.820100e-02,7.104874e-02,3,0,2.347222e+00,2.347223e+00
8.053440e-01,8.288000e-02,7.605553e-02,3,0,1.994320e+00,1.994320e+00
8.356950e-01,7.751900e-02,7.104874e-02,3,0,1.985252e+00,1.985253e+00
8.102060e-01,7.836800e-02,7.104874e-02,3,0,1.725429e+00,1.725430e+00
8.096930e-01,7.753400e-02,7.104874e-02,3,0,1.778476e+00,1.778476e+00
8.103900e-01,7.742400e-02,7.104874e-02,3,0,1.930316e+00,1.930316e+00
8.105820e-01,7.815200e-02,7.104874e-02,3,0,1.790563e+00,1.790563e+00
8.365770e-01,7.767400e-02,7.081032e-02,3,0,1.643546e+00,1.643547e+00
8.107140e-01,7.764400e-02,6.985664e-02,3,0,1.112916e+00,1.112916e+00
8.101610e-01,7.713700e-02,7.104874e-02,3,0,9.305468e-01,9.305469e-01
8.106370e-01,7.774500e-02,7.104874e-02,3,0,9.143106e-01,9.143113e-01
8.042440e-01,7.791700e-02,7.104874e-02,3,0,7.706814e-01,7.706817e-01
8.047600e-01,8.243000e-02,7.510185e-02,3,0,7.141587e-01,7.141589e-01
8.097800e-01,7.752100e-02,7.104874e-02,3,0,1.101326e+00,1.101327e+00
8.101720e-01,7.785600e-02,7.104874e-02,3,0,9.192404e-01,9.192405e-01
8.111990e-01,7.754600e-02,7.104874e-02,3,0,9.033415e-01,9.033417e-01
8.112790e-01,7.774300e-02,7.104874e-02,3,0,6.090849e-01,6.090850e-01
8.095850e-01,7.732400e-02,7.104874e-02,3,0,4.772046e-01,4.772048e-01
8.101800e-01,7.727800e-02,7.081032e-02,3,0,9.785006e-01,9.785016e-01
8.107770e-01,7.768000e-02,7.081032e-02,3,0,1.080476e+00,1.080476e+00
8.115670e-01,7.726800e-02,7.009506e-02,3,0,2.742847e+00,2.742850e+00
8.053500e-01,7.779200e-02,7.104874e-02,3,0,3.994963e+00,3.994966e+00
8.052490e-01,8.221700e-02,7.510185e-02,3,0,2.836817e+00,2.836816e+00
8.110090e-01,7.758800e-02,7.009506e-02,3,0,4.241288e+00,4.241291e+00
8.104960e-01,7.813900e-02,7.104874e-02,3,0,3.538368e+00,3.538368e+00
8.104910e-01,7.814000e-02,7.081032e-02,3,0,3.101683e+00,3.101683e+00
8.104010e-01,7.758200e-02,7.104874e-02,3,0,2.969792e+00,2.969792e+00
8.113670e-01,7.756500e-02,7.104874e-02,3,0,2.666433e+00,2.666433e+00
8.110210e-01,7.745900e-02,7.104874e-02,3,0,2.221964e+00,2.221964e+00
8.109660e-01,7.745200e-02,7.081032e-02,3,0,1.450439e+00,1.450439e+00
8.104290e-01,7.756800e-02,6.985664e-02,3,0,1.269345e+00,1.269345e+00
8.049300e-01,7.835600e-02,7.104874e-02,3,0,1.661192e+00,1.661193e+00
8.174950e-01,1.148580e-01,1.080036e-01,3,0,1.227646e+00,1.227646e+00
8.104000e-01,7.826600e-02,7.104874e-02,3,0,1.041284e+00,1.041284e+00
8.100740e-01,7.773400e-02,7.104874e-02,3,0,1.320517e+00,1.320518e+00
8.104800e-01,7.764900e-02,7.009506e-02,3,0,1.760652e+00,1.760653e+00
8.108980e-01,7.756700e-02,7.081032e-02,3,0,1.045400e+00,1.045399e+00
8.106710e-01,7.770800e-02,6.985664e-02,3,0,1.609210e+00,1.609211e+00
8.109370e-01,7.900100e-02,7.200241e-02,3,0,2.211782e+00,2.211783e+00
8.113950e-01,7.941200e-02,7.319450e-02,3,0,3.319026e+00,3.319028e+00
8.112930e-01,7.718200e-02,7.104874e-02,3,0,1.627112e+00,1.627113e+00
8.105220e-01,7.720800e-02,7.104874e-02,3,0,2.731742e+00,2.731745e+00
8.051720e-01,7.725400e-02,7.104874e-02,3,0,4.624699e+00,4.624703e+00
8.056120e-01,8.230400e-02,7.510185e-02,3,0,2.808789e+00,2.808787e+00
8.101100e-01,7.775300e-02,7.104874e-02,3,0,3.771093e+00,3.771094e+00
8.106440e-01,7.759500e-02,7.081032e-02,3,0,1.523493e+00,1.523492e+00
8.106510e-01,7.767100e-02,7.104874e-02,3,0,1.718545e+00,1.718545e+00
8.111690e-01,7.736900e-02,7.104874e-02,3,0,1.671766e+00,1.671767e+00
8.108800e-01,7.875300e-02,7.200241e-02,3,0,1.127477e+00,1.127477e+00
8.107130e-01,7.930500e-02,7.200241e-02,3,0,1.128516e+00,1.128516e+00
8.106860e-01,7.753100e-02,7.104874e-02,3,0,1.542608e+00,1.542609e+00
8.112080e-01,7.765800e-02,7.009506e-02,3,0,1.518157e+00,1.518157e+00
8.048350e-01,7.803500e-02,7.081032e-02,3,0,1.504971e+00,1.504971e+00
8.047340e-01,8.187300e-02,7.486343e-02,3,0,1.637096e+00,1.637097e+00
8.103390e-01,7.710500e-02,6.985664e-02,3,0,2.292767e+00,2.292768e+00
8.099920e-01,7.802800e-02,7.104874e-02,3,0,3.443353e+00,3.443355e+00
8.106110e-01,7.764800e-02,6.985664e-02,3,0,2.310065e+00,2.310064e+00
8.111100e-01,7.741400e-02,7.104874e-02,3,0,2.311338e+00,2.311339e+00
8.114600e-01,7.804900e-02,7.104874e-02,3,0,1.860542e+00,1.860542e+00
8.110920e-01,7.763000e-02,7.009506e-02,3,0,8.652770e-01,8.652765e-01
8.101400e-01,7.709100e-02,7.081032e-02,3,0,1.576332e+00,1.576334e+00
8.121200e-01,7.738000e-02,7.081032e-02,3,0,1.194159e+00,1.194159e+00
8.050180e-01,7.753900e-02,7.104874e-02,3,0,1.018273e+00,1.018273e+00
8.301560e-01,8.202300e-02,7.510185e-02,3,0,8.795656e-01,8.795661e-01
8.100100e-01,7.756800e-02,7.104874e-02,3,0,1.582606e+00,1.582608e+00
8.105550e-01,7.779600e-02,7.104874e-02,3,0,3.107567e+00,3.107569e+00
8.268810e-01,7.747400e-02,7.104874e-02,3,0,4.648756e+00,4.648759e+00
8.380130e-01,4.557420e-01,4.479885e-01,3,3,6.778135e+00,6.792749e+00
8.127200e-01,5.122500e-01,5.049706e-01,3,4,5.763632e+00,5.779360e+00
8.132500e-01,9.533300e-02,8.893013e-02,3,0,4.093736e+00,4.093964e+00
8.388060e-01,1.814310e-01,1.740456e-01,3,1,3.373064e+00,3.373064e+00
8.117150e-01,8.061100e-02,7.295609e-02,3,0,2.522424e+00,2.522424e+00
8.128130e-01,1.953380e-01,1.881123e-01,3,1,3.418169e+00,3.426041e+00
8.164800e-01,3.988540e-01,3.919601e-01,3,3,2.657678e+00,2.657678e+00
8.383390e-01,1.749910e-01,1.678467e-01,3,1,3.384143e+00,3.383983e+00
1.886267e+00,2.843730e-01,2.779961e-01,7,2,3.825287e+00,3.835030e+00
8.125500e-01,1.812470e-01,1.749992e-01,3,1,1.695769e+00,1.695765e+00
8.368650e-01,7.761700e-02,7.009506e-02,3,0,1.543651e+00,1.543651e+00
8.115920e-01,7.807700e-02,7.104874e-02,3,0,2.053396e+00,2.053397e+00
8.111800e-01,7.859200e-02,7.200241e-02,3,0,2.270998e+00,2.270998e+00
8.113380e-01,7.759400e-02,7.104874e-02,3,0,1.681381e+00,1.681381e+00
8.373890e-01,7.743500e-02,6.985664e-02,3,0,1.939880e+00,1.939881e+00
8.109880e-01,7.836800e-02,7.104874e-02,3,0,1.298651e+00,1.298651e+00
8.050240e-01,7.779000e-02,7.104874e-02,3,0,1.189222e+00,1.189223e+00
8.053860e-01,8.274400e-02,7.581711e-02,3,0,1.033072e+00,1.033072e+00
8.104000e-01,7.731200e-02,7.009506e-02,3,0,1.073920e+00,1.073920e+00
8.103300e-01,7.734300e-02,7.104874e-02,3,0,1.425732e+00,1.425733e+00
8.132670e-01,7.800500e-02,7.200241e-02,3,0,1.539875e+00,1.539875e+00
8.121820e-01,7.789100e-02,7.104874e-02,3,0,1.371808e+00,1.371808e+00
8.105640e-01,7.758300e-02,7.104874e-02,3,0,1.178948e+00,1.178949e+00
8.116980e-01,7.731400e-02,7.104874e-02,3,0,1.070077e+00,1.070078e+00
8.114110e-01,7.784000e-02,7.104874e-02,3,0,8.164570e-01,8.164574e-01
8.109850e-01,7.763200e-02,7.104874e-02,3,0,8.671842e-01,8.671845e-01
8.045080e-01,7.743600e-02,7.104874e-02,3,0,1.233751e+00,1.233752e+00
8.044080e-01,8.274500e-02,7.605553e-02,3,0,7.320307e-01,7.320306e-01
8.098740e-01,7.764500e-02,7.009506e-02,3,0,6.162768e-01,6.162769e-01
8.102780e-01,7.782500e-02,7.104874e-02,3,0,1.332049e+00,1.332050e+00
8.114250e-01,7.816600e-02,7.104874e-02,3,0,1.069605e+00,1.069606e+00
8.105240e-01,7.731300e-02,7.081032e-02,3,0,2.827608e+00,2.827611e+00
8.366840e-01,7.767300e-02,7.104874e-02,3,0,2.072384e+00,2.072384e+00
8.118070e-01,7.782200e-02,7.104874e-02,3,0,1.946084e+00,1.946085e+00
8.110340e-01,7.806600e-02,7.104874e-02,3,0,2.284218e+00,2.284219e+00
8.118940e-01,7.762700e-02,7.104874e-02,3,0,2.198809e+00,2.198810e+00
8.056310e-01,7.750600e-02,7.104874e-02,3,0,2.523438e+00,2.523439e+00
8.052960e-01,8.289100e-02,7.605553e-02,3,0,4.347265e+00,4.347268e+00
8.116830e-01,7.731000e-02,6.985664e-02,3,0,2.933520e+00,2.933519e+00
8.098850e-01,7.780000e-02,7.104874e-02,3,0,2.483004e+00,2.483004e+00
8.111720e-01,7.683900e-02,6.985664e-02,3,0,2.378332e+00,2.378332e+00
8.118520e-01,7.730200e-02,7.104874e-02,3,0,1.284705e+00,1.284705e+00
8.115820e-01,7.760900e-02,7.104874e-02,3,0,1.833695e+00,1.833697e+00
8.368850e-01,7.725400e-02,6.985664e-02,3,0,1.440283e+00,1.440283e+00
8.113200e-01,7.828300e-02,7.104874e-02,3,0,1.311386e+00,1.311386e+00
8.116500e-01,7.732200e-02,7.104874e-02,3,0,8.900476e-01,8.900477e-01
8.104210e-01,7.766300e-02,7.104874e-02,3,0,7.834317e-01,7.834318e-01
8.052030e-01,7.800400e-02,7.104874e-02,3,0,7.232690e-01,7.232692e-01
8.297370e-01,8.233400e-02,7.510185e-02,3,0,9.537493e-01,9.537501e-01
8.102100e-01,7.771700e-02,7.104874e-02,3,0,1.115143e+00,1.115143e+00
8.111210e-01,7.783900e-02,7.104874e-02,3,0,8.168281e-01,8.168281e-01
8.126260e-01,7.725800e-02,7.104874e-02,3,0,8.776136e-01,8.776140e-01
8.111380e-01,7.751100e-02,6.985664e-02,3,0,7.946710e-01,7.946713e-01
8.112610e-01,7.732900e-02,7.009506e-02,3,0,1.390894e+00,1.390895e+00
8.113510e-01,7.745000e-02,7.104874e-02,3,0,2.342794e+00,2.342795e+00
8.116950e-01,7.726600e-02,7.104874e-02,3,0,2.539739e+00,2.539740e+00
8.118220e-01,7.716100e-02,7.081032e-02,3,0,1.781722e+00,1.781722e+00
8.061660e-01,7.732100e-02,7.009506e-02,3,0,1.512357e+00,1.512358e+00
8.057690e-01,8.211200e-02,7.605553e-02,3,0,1.503071e+00,1.503071e+00
8.105240e-01,7.760400e-02,7.009506e-02,3,0,1.205961e+00,1.205961e+00
8.106750e-01,7.760500e-02,7.081032e-02,3,0,9.609378e-01,9.609387e-01
8.115560e-01,7.729500e-02,7.081032e-02,3,0,1.561544e+00,1.561546e+00
8.110020e-01,7.793100e-02,7.200241e-02,3,0,2.129703e+00,2.129704e+00
8.125060e-01,7.717400e-02,7.104874e-02,3,0,1.254036e+00,1.254035e+00
8.112660e-01,7.750000e-02,7.081032e-02,3,0,1.268466e+00,1.268466e+00
8.114070e-01,7.786000e-02,7.104874e-02,3,0,1.165688e+00,1.165688e+00
8.114650e-01,7.731800e-02,7.009506e-02,3,0,1.184622e+00,1.184623e+00
8.057130e-01,7.765200e-02,7.081032e-02,3,0,1.055016e+00,1.055017e+00
8.057650e-01,8.255000e-02,7.581711e-02,3,0,1.154781e+00,1.154781e+00
8.103880e-01,7.697800e-02,7.009506e-02,3,0,1.584077e+00,1.584078e+00
8.112390e-01,7.757300e-02,7.104874e-02,3,0,1.547700e+00,1.547701e+00
8.113170e-01,7.802000e-02,7.104874e-02,3,0,1.587400e+00,1.587401e+00
8.116770e-01,7.707400e-02,7.104874e-02,3,0,1.917123e+00,1.917125e+00
8.122540e-01,7.751800e-02,7.104874e-02,3,0,9.905254e-01,9.905255e-01
8.106480e-01,7.795100e-02,7.104874e-02,3,0,6.742081e-01,6.742082e-01
8.115340e-01,7.747400e-02,7.104874e-02,3,0,8.074827e-01,8.074833e-01
8.116360e-01,7.703800e-02,7.104874e-02,3,0,2.781776e-01,2.781778e-01
8.042010e-01,7.749300e-02,7.104874e-02,3,0,2.659609e-01,2.659610e-01
8.045640e-01,8.252000e-02,7.605553e-02,3,0,4.341921e-01,4.341926e-01
8.098460e-01,7.688400e-02,7.104874e-02,3,0,3.823888e-01,3.823888e-01
8.101280e-01,7.717900e-02,7.081032e-02,3,0,1.159444e+00,1.159446e+00
8.110030e-01,7.717100e-02,6.985664e-02,3,0,8.600543e-01,8.600551e-01
8.113900e-01,7.739000e-02,7.104874e-02,3,0,6.426085e-01,6.426087e-01
8.116760e-01,7.813400e-02,7.104874e-02,3,0,6.179497e-01,6.179500e-01
8.108030e-01,7.764500e-02,7.081032e-02,3,0,6.785454e-01,6.785458e-01
8.108300e-01,7.745200e-02,6.985664e-02,3,0,6.971777e-01,6.971780e-01
8.116900e-01,7.754000e-02,7.104874e-02,3,0,4.200892e-01,4.200892e-01
8.043960e-01,7.696900e-02,7.104874e-02,3,0,3.875720e-01,3.875724e-01
8.051630e-01,7.755400e-02,7.104874e-02,3,0,3.515934e-01,3.515937e-01
8.099110e-01,7.694300e-02,7.009506e-02,3,0,2.967396e-01,2.967397e-01
8.107500e-01,7.740200e-02,7.104874e-02,3,0,9.237276e-01,9.237288e-01
8.116540e-01,7.722100e-02,7.009506e-02,3,0,8.476291e-01,8.476295e-01
8.119020e-01,7.712400e-02,7.009506e-02,3,0,1.124621e+00,1.124621e+00
8.112410e-01,7.732300e-02,6.985664e-02,3,0,1.736780e+00,1.736781e+00
8.114820e-01,7.707700e-02,7.009506e-02,3,0,1.430085e+00,1.430085e+00
8.111350e-01,7.748500e-02,7.104874e-02,3,0,1.738141e+00,1.738142e+00
8.122730e-01,7.796400e-02,7.200241e-02,3,0,1.475730e+00,1.475730e+00
8.104560e-01,7.731900e-02,7.009506e-02,3,0,1.427553e+00,1.427553e+00
8.052730e-01,7.786700e-02,7.104874e-02,3,0,1.418553e+00,1.418553e+00
8.050360e-01,7.778800e-02,7.104874e-02,3,0,2.442579e+00,2.442581e+00
8.119120e-01,7.715100e-02,7.009506e-02,3,0,3.134044e+00,3.134046e+00
8.108380e-01,7.741900e-02,7.104874e-02,3,0,2.834520e+00,2.834520e+00
8.114430e-01,7.761000e-02,6.985664e-02,3,0,2.344008e+00,2.344008e+00
8.367880e-01,7.722600e-02,7.009506e-02,3,0,2.106704e+00,2.106705e+00
8.123780e-01,7.779900e-02,7.104874e-02,3,0,1.700916e+00,1.700916e+00
8.116440e-01,7.775100e-02,7.104874e-02,3,0,1.734661e+00,1.734662e+00
8.112540e-01,7.735800e-02,7.104874e-02,3,0,1.699211e+00,1.699212e+00
8.114110e-01,7.751700e-02,7.104874e-02,3,0,1.300082e+00,1.300082e+00
8.055660e-01,7.776800e-02,7.081032e-02,3,0,1.052825e+00,1.052826e+00
8.056100e-01,8.173000e-02,7.486343e-02,3,0,2.096617e+00,2.096620e+00
8.061440e-01,1.713640e-01,1.640320e-01,3,1,4.142989e+00,4.142944e+00
1.615413e+00,7.770300e-02,7.104874e-02,6,0,4.533133e+00,4.511282e+00
1.347107e+00,1.638350e-01,1.568794e-01,5,1,4.760784e+00,4.760404e+00
1.079864e+00,7.745700e-02,7.104874e-02,4,0,5.703633e+00,5.703633e+00
8.118870e-01,1.958900e-01,1.888275e-01,3,1,7.896354e+00,7.896360e+00
8.119370e-01,1.801250e-01,1.730919e-01,3,1,5.365320e+00,5.365318e+00
8.145000e-01,4.200100e-01,4.131794e-01,3,3,6.671469e+00,6.672990e+00
8.155080e-01,3.188360e-01,3.111362e-01,3,2,5.472792e+00,5.473430e+00
8.118840e-01,3.148740e-01,3.080368e-01,3,2,4.972535e+00,4.981052e+00
8.093570e-01,3.193820e-01,3.130436e-01,3,2,3.844186e+00,3.848077e+00
8.169090e-01,4.457720e-01,4.389286e-01,3,3,4.366484e+00,4.379671e+00
8.122510e-01,1.977070e-01,1.909733e-01,3,1,3.354854e+00,3.363375e+00
8.153820e-01,3.174330e-01,3.101826e-01,3,2,4.106713e+00,4.126738e+00
1.079885e+00,3.839080e-01,3.769398e-01,4,3,1.542214e+00,1.542210e+00
8.106920e-01,7.766400e-02,7.104874e-02,3,0,1.336062e+00,1.336062e+00
8.103300e-01,7.718200e-02,6.985664e-02,3,0,1.787843e+00,1.787844e+00
8.112710e-01,7.748800e-02,7.104874e-02,3,0,1.253325e+00,1.253325e+00
8.117810e-01,7.781900e-02,7.104874e-02,3,0,2.032744e+00,2.032745e+00
8.122870e-01,7.796600e-02,7.104874e-02,3,0,2.145835e+00,2.145836e+00
8.116780e-01,7.751600e-02,7.081032e-02,3,0,3.866348e+00,3.866352e+00
8.122730e-01,7.737700e-02,7.009506e-02,3,0,2.141371e+00,2.141369e+00
8.111310e-01,7.752200e-02,6.985664e-02,3,0,1.925465e+00,1.925466e+00
8.056800e-01,7.789600e-02,7.104874e-02,3,0,1.832707e+00,1.832708e+00
8.062670e-01,8.208800e-02,6.985664e-02,3,0,1.666227e+00,1.666227e+00
8.111800e-01,7.744900e-02,7.104874e-02,3,0,1.692619e+00,1.692620e+00
8.121840e-01,7.815100e-02,7.104874e-02,3,0,2.326853e+00,2.326854e+00
8.114390e-01,7.752400e-02,7.104874e-02,3,0,1.246855e+00,1.246854e+00
8.125960e-01,7.762500e-02,7.104874e-02,3,0,8.863440e-01,8.863441e-01
8.117830e-01,7.753600e-02,7.104874e-02,3,0,1.008155e+00,1.008156e+00
8.115820e-01,7.740000e-02,7.104874e-02,3,0,9.884120e-01,9.884124e-01
8.112230e-01,7.707100e-02,7.104874e-02,3,0,7.695091e-01,7.695092e-01
8.112900e-01,7.763200e-02,7.081032e-02,3,0,1.062038e+00,1.062040e+00
8.109370e-01,7.744400e-02,7.104874e-02,3,0,1.523594e+00,1.523595e+00
8.056730e-01,7.725200e-02,7.104874e-02,3,0,2.216548e+00,2.216549e+00
8.052080e-01,7.766500e-02,7.104874e-02,3,0,4.575213e+00,4.575217e+00
8.106810e-01,7.742000e-02,7.104874e-02,3,0,6.165843e+00,6.165847e+00
8.117670e-01,7.731500e-02,7.104874e-02,3,0,4.531522e+00,4.531521e+00
8.121120e-01,7.739000e-02,7.081032e-02,3,0,5.673546e+00,5.673549e+00
8.121450e-01,7.790100e-02,7.104874e-02,3,0,4.268549e+00,4.268548e+00
8.368250e-01,7.740500e-02,7.081032e-02,3,0,3.449822e+00,3.449822e+00
8.126870e-01,7.771600e-02,7.104874e-02,3,0,3.835842e+00,3.835844e+00
8.119980e-01,7.717900e-02,7.104874e-02,3,0,2.674952e+00,2.674951e+00
8.116680e-01,7.732600e-02,7.104874e-02,3,0,1.811033e+00,1.811034e+00
8.051710e-01,7.769600e-02,7.104874e-02,3,0,1.301817e+00,1.301817e+00
8.301530e-01,8.204100e-02,7.605553e-02,3,0,1.190021e+00,1.190022e+00
8.117580e-01,7.793800e-02,7.104874e-02,3,0,1.245009e+00,1.245009e+00
8.109710e-01,7.731600e-02,7.009506e-02,3,0,1.794867e+00,1.794868e+00
8.124990e-01,7.747700e-02,7.081032e-02,3,0,6.418178e-01,6.418172e-01
8.103570e-01,7.708300e-02,7.104874e-02,3,0,2.307310e+00,2.307313e+00
8.118710e-01,7.719100e-02,7.009506e-02,3,0,4.681941e+00,4.681946e+00
8.118860e-01,7.758100e-02,7.104874e-02,3,0,2.744956e+00,2.744954e+00
8.111460e-01,7.755900e-02,7.104874e-02,3,0,1.915828e+00,1.915827e+00
8.112550e-01,7.741400e-02,7.104874e-02,3,0,1.709393e+00,1.709393e+00
8.052280e-01,7.736000e-02,7.009506e-02,3,0,1.521551e+00,1.521551e+00
8.057560e-01,8.239500e-02,7.104874e-02,3,0,1.404134e+00,1.404134e+00
8.101850e-01,7.707200e-02,7.009506e-02,3,0,2.026227e+00,2.026228e+00
8.115950e-01,7.769800e-02,7.104874e-02,3,0,1.627521e+00,1.627521e+00
8.120420e-01,7.697700e-02,6.985664e-02,3,0,1.170592e+00,1.170592e+00
8.115170e-01,7.772600e-02,7.104874e-02,3,0,1.347169e+00,1.347170e+00
8.111930e-01,7.719500e-02,6.985664e-02,3,0,2.410565e+00,2.410567e+00
8.124810e-01,7.728100e-02,7.081032e-02,3,0,3.850855e+00,3.850858e+00
8.118520e-01,7.753200e-02,7.104874e-02,3,0,6.806215e+00,6.806221e+00
8.118230e-01,2.007130e-01,1.938343e-01,3,1,8.268655e+00,8.268970e+00
8.128550e-01,1.810490e-01,1.740456e-01,3,1,7.582368e+00,7.582368e+00
8.127180e-01,7.764400e-02,7.104874e-02,3,0,8.301695e+00,8.301698e+00
8.118720e-01,7.685300e-02,7.009506e-02,3,0,7.254189e+00,7.254189e+00
8.061040e-01,7.748500e-02,7.081032e-02,3,0,7.690783e+00,7.690785e+00
8.062310e-01,8.274100e-02,7.605553e-02,3,0,7.659148e+00,7.659149e+00
8.063860e-01,2.002610e-01,1.931190e-01,3,1,6.454913e+00,6.460133e+00
8.113560e-01,9.492400e-02,8.797646e-02,3,0,5.684479e+00,5.685959e+00
8.107320e-01,1.824720e-01,1.759529e-01,3,1,4.610414e+00,4.610281e+00
8.116370e-01,7.753100e-02,7.081032e-02,3,0,4.396721e+00,4.396690e+00
8.111210e-01,2.620420e-01,2.560616e-01,3,2,4.430236e+00,4.427479e+00
1.612423e+00,4.657240e-01,4.589558e-01,6,4,5.609770e+00,5.593584e+00
1.623338e+00,6.591670e-01,6.527901e-01,6,5,9.524737e+00,9.703073e+00
1.613384e+00,8.345700e-01,8.280277e-01,6,7,1.066676e+01,1.113674e+01
1.615401e+00,6.217450e-01,6.151199e-01,6,5,1.206662e+01,1.259907e+01
1.618636e+00,8.512280e-01,8.440018e-01,6,7,1.102203e+01,1.116242e+01
1.888466e+00,9.435990e-01,9.369850e-01,7,8,1.129553e+01,1.139783e+01
1.886222e+00,1.076266e+00,1.069069e+00,7,9,1.339692e+01,1.363856e+01
1.080736e+00,6.168190e-01,6.101131e-01,4,5,1.221202e+01,1.228588e+01
1.344624e+00,6.423640e-01,6.349087e-01,5,5,1.044902e+01,1.046813e+01
1.617066e+00,3.110640e-01,3.039837e-01,6,2,9.151557e+00,9.179262e+00
1.641275e+00,3.087450e-01,3.020763e-01,6,2,8.219425e+00,8.215820e+00
1.084918e+00,4.393950e-01,4.320145e-01,4,3,7.105255e+00,7.105770e+00
8.157120e-01,3.165790e-01,3.089905e-01,3,2,6.446211e+00,6.465368e+00
8.105670e-01,6.430670e-01,6.358624e-01,3,5,6.722108e+00,6.812531e+00
1.883541e+00,6.363230e-01,6.289482e-01,7,5,4.609730e+00,4.592177e+00
1.614549e+00,9.621100e-02,8.893013e-02,6,0,4.136186e+00,4.134563e+00
1.082652e+00,5.501990e-01,5.428791e-01,4,4,4.535722e+00,4.571591e+00
1.610693e+00,3.079360e-01,3.008842e-01,6,2,3.598322e+00,3.575946e+00
1.077065e+00,2.740380e-01,2.679825e-01,4,2,3.070147e+00,3.070075e+00
8.106630e-01,7.857600e-02,7.200241e-02,3,0,2.635855e+00,2.635713e+00
8.052340e-01,7.830500e-02,7.104874e-02,3,0,2.061842e+00,2.061842e+00
8.056920e-01,8.349900e-02,7.700920e-02,3,0,1.011526e+00,1.011526e+00
8.101250e-01,7.837200e-02,7.104874e-02,3,0,9.835022e-01,9.835029e-01
8.100430e-01,7.881200e-02,7.200241e-02,3,0,1.049562e+00,1.049562e+00
8.353570e-01,7.820200e-02,7.200241e-02,3,0,1.163436e+00,1.163437e+00
8.110660e-01,7.832800e-02,7.200241e-02,3,0,1.063144e+00,1.063144e+00
8.116870e-01,7.859900e-02,7.200241e-02,3,0,7.885247e-01,7.885250e-01
8.107320e-01,7.859900e-02,7.104874e-02,3,0,1.443047e+00,1.443049e+00
8.111080e-01,7.863900e-02,7.200241e-02,3,0,2.582080e+00,2.582082e+00
8.121690e-01,7.835600e-02,7.200241e-02,3,0,3.349790e+00,3.349792e+00
8.102250e-01,7.783500e-02,7.104874e-02,3,0,2.862155e+00,2.862155e+00
8.056620e-01,7.807300e-02,7.200241e-02,3,0,3.068756e+00,3.068758e+00
8.060560e-01,8.333100e-02,7.700920e-02,3,0,3.098677e+00,3.098678e+00
8.111630e-01,7.831500e-02,7.200241e-02,3,0,2.877990e+00,2.877990e+00
8.109900e-01,7.820700e-02,7.081032e-02,3,0,2.577194e+00,2.577195e+00
8.115640e-01,7.885300e-02,7.200241e-02,3,0,2.709579e+00,2.709580e+00
8.126350e-01,2.000270e-01,1.928806e-01,3,1,5.131463e+00,5.136378e+00
8.111780e-01,9.608100e-02,8.893013e-02,3,0,6.623694e+00,6.657624e+00
1.615057e+00,7.952660e-01,7.879734e-01,6,6,7.867430e+00,7.933489e+00
1.352726e+00,8.691130e-01,8.621216e-01,5,7,6.547647e+00,6.556652e+00
8.136450e-01,5.312740e-01,5.240440e-01,3,4,5.098494e+00,5.098558e+00
1.077679e+00,2.862120e-01,2.799034e-01,4,2,3.873208e+00,3.873207e+00
8.118220e-01,7.833000e-02,7.104874e-02,3,0,3.095140e+00,3.095140e+00
8.106560e-01,7.805900e-02,7.104874e-02,3,0,3.517269e+00,3.517271e+00
8.112140e-01,7.840900e-02,7.104874e-02,3,0,3.529240e+00,3.529241e+00
8.109480e-01,7.825800e-02,7.081032e-02,3,0,2.745196e+00,2.745195e+00
8.117830e-01,1.674990e-01,1.609325e-01,3,1,2.878997e+00,2.878722e+00
1.638617e+00,7.872600e-02,7.200241e-02,6,0,3.692724e+00,3.636805e+00
1.614728e+00,1.664540e-01,1.590252e-01,6,1,4.354236e+00,4.329803e+00
1.076845e+00,7.838300e-02,7.104874e-02,4,0,5.246256e+00,5.246259e+00
8.118930e-01,7.855100e-02,7.200241e-02,3,0,4.168766e+00,4.168765e+00
8.362440e-01,7.879200e-02,7.200241e-02,3,0,5.806678e+00,5.806681e+00
8.051650e-01,7.892500e-02,7.200241e-02,3,0,5.792959e+00,5.792960e+00
8.108130e-01,7.789400e-02,7.104874e-02,3,0,4.849468e+00,4.849468e+00
8.064160e-01,2.025020e-01,1.950264e-01,3,1,4.214259e+00,4.214916e+00
8.138620e-01,4.266240e-01,4.200935e-01,3,3,4.417576e+00,4.438826e+00
8.121280e-01,1.987350e-01,1.919270e-01,3,1,4.237714e+00,4.255358e+00
8.123660e-01,1.816690e-01,1.749992e-01,3,1,3.440969e+00,3.440969e+00
8.109600e-01,7.814800e-02,7.104874e-02,3,0,3.188086e+00,3.188086e+00
8.051460e-01,7.816500e-02,7.200241e-02,3,0,2.192114e+00,2.192113e+00
8.058460e-01,7.793900e-02,7.104874e-02,3,0,1.848468e+00,1.848468e+00
8.111260e-01,7.801800e-02,7.104874e-02,3,0,1.123750e+00,1.123750e+00
8.102360e-01,7.804700e-02,7.104874e-02,3,0,6.372466e-01,6.372466e-01
8.101970e-01,7.824200e-02,7.200241e-02,3,0,6.332713e-01,6.332716e-01
8.101280e-01,7.824000e-02,7.200241e-02,3,0,9.652059e-01,9.652068e-01
8.103700e-01,7.820200e-02,7.081032e-02,3,0,7.133421e-01,7.133422e-01
8.103840e-01,7.804100e-02,7.104874e-02,3,0,6.848607e-01,6.848611e-01
8.116540e-01,7.826400e-02,7.200241e-02,3,0,6.452512e-01,6.452516e-01
8.098740e-01,7.818100e-02,7.200241e-02,3,0,5.572393e-01,5.572395e-01
8.051900e-01,7.813600e-02,7.081032e-02,3,0,4.563667e-01,4.563668e-01
8.049170e-01,8.272700e-02,7.581711e-02,3,0,7.113378e-01,7.113384e-01
8.102640e-01,7.765500e-02,7.104874e-02,3,0,6.352612e-01,6.352615e-01
8.104160e-01,7.821700e-02,7.200241e-02,3,0,2.774972e-01,2.774977e-01
8.103460e-01,7.813300e-02,7.104874e-02,3,0,5.957588e-01,5.957594e-01
8.113490e-01,7.817200e-02,7.104874e-02,3,0,3.935402e-01,3.935402e-01
8.111140e-01,7.807400e-02,7.104874e-02,3,0,4.915585e-01,4.915588e-01
8.114580e-01,7.823800e-02,7.104874e-02,3,0,4.725766e-01,4.725768e-01
8.105710e-01,7.803900e-02,7.081032e-02,3,0,9.154022e-01,9.154031e-01
8.108740e-01,7.839700e-02,7.200241e-02,3,0,7.541745e-01,7.541746e-01
8.050140e-01,7.815700e-02,7.200241e-02,3,0,5.553319e-01,5.553319e-01
8.050890e-01,8.335100e-02,7.605553e-02,3,0,3.624988e-01,3.624990e-01
8.100840e-01,7.861200e-02,7.081032e-02,3,0,5.884225e-01,5.884231e-01
8.105230e-01,7.803100e-02,7.200241e-02,3,0,5.476067e-01,5.476068e-01
8.111770e-01,7.816500e-02,7.200241e-02,3,0,3.684071e-01,3.684072e-01
8.176610e-01,7.836400e-02,7.104874e-02,3,0,5.138568e-01,5.138573e-01
8.114970e-01,7.796900e-02,7.104874e-02,3,0,4.511803e-01,4.511806e-01
8.113560e-01,7.797500e-02,7.081032e-02,3,0,7.081678e-01,7.081684e-01
8.108350e-01,7.820300e-02,7.200241e-02,3,0,1.236978e+00,1.236979e+00
8.117890e-01,7.801500e-02,7.104874e-02,3,0,1.062968e+00,1.062968e+00
8.048610e-01,7.786900e-02,7.081032e-02,3,0,1.088682e+00,1.088682e+00
8.316190e-01,8.283600e-02,7.605553e-02,3,0,2.345956e+00,2.345958e+00
8.102880e-01,7.876100e-02,7.200241e-02,3,0,2.827971e+00,2.827972e+00
8.106850e-01,7.778400e-02,7.104874e-02,3,0,1.713073e+00,1.713072e+00
8.101460e-01,7.859700e-02,7.200241e-02,3,0,1.285180e+00,1.285180e+00
8.110590e-01,7.815400e-02,7.104874e-02,3,0,9.282644e-01,9.282645e-01
8.104870e-01,7.803900e-02,7.104874e-02,3,0,7.703726e-01,7.703727e-01
8.386710e-01,7.853900e-02,7.200241e-02,3,0,6.060767e-01,6.060768e-01
8.107820e-01,7.810700e-02,7.200241e-02,3,0,8.452112e-01,8.452117e-01
8.114640e-01,7.797100e-02,7.104874e-02,3,0,8.130139e-01,8.130141e-01
8.111060e-01,7.788600e-02,7.104874e-02,3,0,4.702709e-01,4.702712e-01
8.291270e-01,7.801700e-02,7.104874e-02,3,0,9.252700e-01,9.252710e-01
8.051430e-01,8.345800e-02,7.700920e-02,3,0,5.487246e-01,5.487245e-01
8.103790e-01,7.790100e-02,7.104874e-02,3,0,4.755824e-01,4.755827e-01
8.106250e-01,7.808800e-02,7.104874e-02,3,0,5.930727e-01,5.930732e-01
8.108050e-01,7.788200e-02,7.200241e-02,3,0,5.657455e-01,5.657458e-01
8.104770e-01,7.822100e-02,7.200241e-02,3,0,6.308861e-01,6.308865e-01
8.349990e-01,7.827200e-02,7.200241e-02,3,0,7.621475e-01,7.621479e-01
8.146380e-01,7.832100e-02,7.200241e-02,3,0,6.155265e-01,6.155267e-01
8.112210e-01,7.840900e-02,7.176399e-02,3,0,5.796816e-01,5.796822e-01
8.108000e-01,7.790100e-02,7.104874e-02,3,0,7.592742e-01,7.592747e-01
8.098670e-01,7.789000e-02,7.104874e-02,3,0,8.397252e-01,8.397257e-01
8.046620e-01,7.842300e-02,7.104874e-02,3,0,1.336243e+00,1.336244e+00
8.091400e-01,7.778900e-02,7.081032e-02,3,0,9.722446e-01,9.722445e-01
8.106470e-01,7.801500e-02,7.104874e-02,3,0,8.505416e-01,8.505425e-01
8.105090e-01,7.823800e-02,7.104874e-02,3,0,7.461931e-01,7.461932e-01
8.121090e-01,7.831000e-02,7.104874e-02,3,0,8.361173e-01,8.361176e-01
8.116850e-01,7.828400e-02,7.200241e-02,3,0,6.656270e-01,6.656272e-01
8.117580e-01,7.783000e-02,7.104874e-02,3,0,1.086183e+00,1.086184e+00
8.104490e-01,7.780500e-02,7.104874e-02,3,0,8.574223e-01,8.574224e-01
8.108060e-01,7.783600e-02,7.081032e-02,3,0,8.749755e-01,8.749759e-01
8.100570e-01,7.814200e-02,7.200241e-02,3,0,8.496718e-01,8.496721e-01
8.045560e-01,7.765800e-02,7.104874e-02,3,0,7.305225e-01,7.305227e-01
8.052070e-01,8.199100e-02,7.486343e-02,3,0,5.809631e-01,5.809633e-01
8.101130e-01,7.878600e-02,7.200241e-02,3,0,7.175586e-01,7.175591e-01
8.102200e-01,7.819800e-02,7.104874e-02,3,0,1.025641e+00,1.025642e+00
8.108010e-01,7.796400e-02,7.104874e-02,3,0,6.256796e-01,6.256796e-01
8.100300e-01,7.793300e-02,7.081032e-02,3,0,1.173297e+00,1.173298e+00
8.106490e-01,7.859800e-02,7.200241e-02,3,0,7.611834e-01,7.611834e-01
8.109480e-01,7.784900e-02,7.104874e-02,3,0,6.915476e-01,6.915479e-01
8.109540e-01,7.778900e-02,7.104874e-02,3,0,6.960835e-01,6.960837e-01
8.099070e-01,7.810900e-02,7.200241e-02,3,0,6.622373e-01,6.622379e-01
8.044760e-01,7.826000e-02,7.104874e-02,3,0,5.063789e-01,5.063791e-01
8.052260e-01,8.263100e-02,7.486343e-02,3,0,8.183046e-01,8.183052e-01
8.101480e-01,7.829700e-02,7.104874e-02,3,0,5.943272e-01,5.943272e-01
8.100300e-01,7.759100e-02,7.104874e-02,3,0,5.411985e-01,5.411989e-01
8.107030e-01,7.818300e-02,7.200241e-02,3,0,4.767013e-01,4.767014e-01
8.107720e-01,7.800800e-02,7.104874e-02,3,0,3.702837e-01,3.702839e-01
8.105590e-01,7.789200e-02,7.081032e-02,3,0,5.091853e-01,5.091856e-01
8.106820e-01,7.810100e-02,7.104874e-02,3,0,3.743374e-01,3.743375e-01
8.097400e-01,7.798500e-02,7.104874e-02,3,0,1.813198e+00,1.813201e+00
8.106580e-01,7.807800e-02,7.104874e-02,3,0,4.128630e+00,4.128634e+00
8.056310e-01,7.777200e-02,7.104874e-02,3,0,3.185975e+00,3.185974e+00
8.052790e-01,8.273000e-02,7.581711e-02,3,0,2.360146e+00,2.360145e+00
8.112010e-01,7.797100e-02,7.104874e-02,3,0,1.710828e+00,1.710828e+00
8.104970e-01,7.854100e-02,7.200241e-02,3,0,2.005593e+00,2.005594e+00
8.107680e-01,7.801700e-02,7.200241e-02,3,0,1.575928e+00,1.575928e+00
8.112880e-01,7.833700e-02,7.200241e-02,3,0,1.561705e+00,1.561706e+00
8.110340e-01,7.799000e-02,7.104874e-02,3,0,1.881949e+00,1.881951e+00
8.109890e-01,7.805600e-02,7.200241e-02,3,0,2.014806e+00,2.014807e+00
8.115490e-01,7.825900e-02,7.104874e-02,3,0,1.820472e+00,1.820472e+00
8.111950e-01,7.761900e-02,7.104874e-02,3,0,2.024443e+00,2.024445e+00
8.058700e-01,7.785500e-02,7.104874e-02,3,0,2.714123e+00,2.714125e+00
8.062830e-01,8.320500e-02,7.605553e-02,3,0,2.468475e+00,2.468475e+00
8.108720e-01,7.829900e-02,7.200241e-02,3,0,1.872314e+00,1.872314e+00
8.115920e-01,7.800900e-02,7.104874e-02,3,0,1.345168e+00,1.345168e+00
8.112630e-01,7.814100e-02,7.104874e-02,3,0,9.800449e-01,9.800449e-01
8.354510e-01,7.847200e-02,7.200241e-02,3,0,7.727082e-01,7.727084e-01
8.106890e-01,7.845600e-02,7.200241e-02,3,0,1.058834e+00,1.058835e+00
8.103920e-01,7.827600e-02,7.104874e-02,3,0,8.159314e-01,8.159314e-01
8.107930e-01,7.808200e-02,7.104874e-02,3,0,9.704779e-01,9.704785e-01
8.112800e-01,7.781800e-02,7.081032e-02,3,0,8.590866e-01,8.590869e-01
8.358530e-01,7.794200e-02,7.104874e-02,3,0,8.244808e-01,8.244810e-01
8.050120e-01,7.837200e-02,7.104874e-02,3,0,1.018749e+00,1.018750e+00
8.056450e-01,8.254800e-02,7.605553e-02,3,0,7.692264e-01,7.692264e-01
8.105570e-01,7.783400e-02,7.200241e-02,3,0,6.234525e-01,6.234526e-01
8.106970e-01,7.775300e-02,7.081032e-02,3,0,1.714176e+00,1.714179e+00
8.116930e-01,7.787600e-02,7.104874e-02,3,0,1.756884e+00,1.756885e+00
8.115650e-01,7.820800e-02,7.104874e-02,3,0,8.942660e-01,8.942656e-01
8.109640e-01,7.771000e-02,7.081032e-02,3,0,9.075150e-01,9.075153e-01
8.108050e-01,7.787100e-02,7.104874e-02,3,0,9.136585e-01,9.136588e-01
8.108460e-01,7.785800e-02,7.104874e-02,3,0,1.037513e+00,1.037513e+00
8.108600e-01,7.782900e-02,7.104874e-02,3,0,5.982897e-01,5.982896e-01
8.050160e-01,7.763100e-02,7.081032e-02,3,0,4.504679e-01,4.504680e-01
8.054530e-01,8.289100e-02,7.581711e-02,3,0,8.063387e-01,8.063394e-01
8.098690e-01,7.816200e-02,7.104874e-02,3,0,1.094714e+00,1.094715e+00
8.108450e-01,7.796000e-02,7.104874e-02,3,0,1.241824e+00,1.241825e+00
8.109490e-01,7.790600e-02,7.104874e-02,3,0,8.534665e-01,8.534667e-01
8.104910e-01,7.844400e-02,7.200241e-02,3,0,9.159279e-01,9.159284e-01
8.118010e-01,7.760100e-02,7.104874e-02,3,0,1.078687e+00,1.078688e+00
8.108800e-01,7.801000e-02,7.104874e-02,3,0,1.457301e+00,1.457301e+00
8.113340e-01,7.874400e-02,7.200241e-02,3,0,1.629181e+00,1.629181e+00
8.108860e-01,7.759200e-02,7.104874e-02,3,0,2.458082e+00,2.458084e+00
8.057630e-01,7.802300e-02,7.104874e-02,3,0,2.412487e+00,2.412488e+00
8.047680e-01,1.730110e-01,1.659393e-01,3,1,3.915440e+00,3.915271e+00
1.076797e+00,1.709650e-01,1.640320e-01,4,1,1.802634e+00,1.802631e+00
8.109780e-01,7.830200e-02,7.200241e-02,3,0,1.708464e+00,1.708464e+00
8.100740e-01,7.777600e-02,7.081032e-02,3,0,2.092009e+00,2.092011e+00
8.057820e-01,7.826100e-02,7.081032e-02,3,0,1.727483e+00,1.727483e+00
8.060910e-01,7.806800e-02,7.104874e-02,3,0,1.617513e+00,1.617513e+00
8.105630e-01,7.801700e-02,7.104874e-02,3,0,1.365793e+00,1.365793e+00
8.106160e-01,7.838100e-02,7.200241e-02,3,0,8.082931e-01,8.082929e-01
8.109480e-01,7.820200e-02,7.200241e-02,3,0,1.251416e+00,1.251417e+00
8.113660e-01,7.795600e-02,7.104874e-02,3,0,9.800499e-01,9.800498e-01
8.113110e-01,7.776400e-02,7.104874e-02,3,0,5.807843e-01,5.807842e-01
8.105220e-01,7.805100e-02,7.200241e-02,3,0,7.561538e-01,7.561547e-01
8.125780e-01,7.800900e-02,7.104874e-02,3,0,5.978919e-01,5.978920e-01
8.100300e-01,7.824200e-02,7.081032e-02,3,0,4.827770e-01,4.827773e-01
8.045340e-01,7.813100e-02,7.200241e-02,3,0,5.144599e-01,5.144601e-01
8.043770e-01,8.245300e-02,7.605553e-02,3,0,5.747258e-01,5.747262e-01
8.099730e-01,7.884800e-02,7.200241e-02,3,0,7.187249e-01,7.187254e-01
8.103100e-01,7.786100e-02,7.104874e-02,3,0,1.871043e+00,1.871045e+00
8.114710e-01,7.777000e-02,7.104874e-02,3,0,1.443372e+00,1.443373e+00
8.113950e-01,7.778400e-02,7.081032e-02,3,0,2.157230e+00,2.157232e+00
8.117630e-01,7.812800e-02,7.104874e-02,3,0,1.123261e+00,1.123260e+00
8.107550e-01,7.862700e-02,7.081032e-02,3,0,9.484319e-01,9.484322e-01
8.109900e-01,7.804900e-02,7.200241e-02,3,0,7.739823e-01,7.739824e-01
8.103430e-01,7.821100e-02,7.104874e-02,3,0,6.407763e-01,6.407766e-01
8.045360e-01,7.807500e-02,7.200241e-02,3,0,1.206100e+00,1.206102e+00
8.061090e-01,8.345100e-02,7.700920e-02,3,0,1.227004e+00,1.227004e+00
8.111450e-01,7.836100e-02,7.104874e-02,3,0,1.984645e+00,1.984647e+00
8.111820e-01,7.812600e-02,7.104874e-02,3,0,2.081285e+00,2.081285e+00
8.112310e-01,7.792500e-02,7.081032e-02,3,0,2.408719e+00,2.408720e+00
8.118190e-01,7.827000e-02,7.200241e-02,3,0,3.708382e+00,3.708385e+00
8.115520e-01,7.801900e-02,7.081032e-02,3,0,4.144207e+00,4.144209e+00
8.114360e-01,7.798800e-02,7.104874e-02,3,0,3.160658e+00,3.160658e+00
8.113300e-01,7.852900e-02,7.200241e-02,3,0,2.821761e+00,2.821761e+00
8.367420e-01,7.773600e-02,7.081032e-02,3,0,3.916099e+00,3.916103e+00
8.058930e-01,7.775300e-02,7.104874e-02,3,0,2.674151e+00,2.674151e+00
8.053620e-01,8.358400e-02,7.200241e-02,3,0,2.291913e+00,2.291913e+00
8.114990e-01,7.761800e-02,7.081032e-02,3,0,2.197615e+00,2.197617e+00
8.114720e-01,7.772200e-02,7.104874e-02,3,0,2.252706e+00,2.252707e+00
8.097500e-01,7.831500e-02,7.200241e-02,3,0,2.342486e+00,2.342487e+00
8.113380e-01,7.781500e-02,7.081032e-02,3,0,1.955094e+00,1.955094e+00
8.118170e-01,7.778500e-02,7.104874e-02,3,0,1.962215e+00,1.962216e+00
8.114010e-01,7.806100e-02,7.104874e-02,3,0,2.479278e+00,2.479280e+00
8.118860e-01,7.816800e-02,7.081032e-02,3,0,2.774524e+00,2.774524e+00
8.106450e-01,7.744400e-02,7.104874e-02,3,0,1.744580e+00,1.744579e+00
8.367280e-01,7.836200e-02,7.200241e-02,3,0,1.872418e+00,1.872418e+00
8.051930e-01,7.857800e-02,7.104874e-02,3,0,1.258861e+00,1.258861e+00
8.057690e-01,8.298200e-02,7.700920e-02,3,0,1.282178e+00,1.282179e+00

