5.625480e-01,2.689044e+01,2.660108e+01,2,112,0.000000e+00,4.769182e-22,1
7.984810e-01,2.600880e-01,2.491474e-01,3,0,1.208196e-01,1.208169e-01,1
7.901270e-01,2.632780e-01,2.548695e-01,3,0,2.305071e-01,2.304749e-01,1
7.984030e-01,4.396260e-01,4.301071e-01,3,1,5.009250e-01,4.992298e-01,1
2.109866e+00,4.222330e-01,4.127026e-01,8,1,4.706362e-01,4.697348e-01,1
1.061498e+00,1.949100e+00,1.940012e+00,4,10,1.988094e+00,1.985533e+00,1
1.848318e+00,7.384190e-01,7.300377e-01,7,3,2.802648e+00,2.793259e+00,1
1.322488e+00,5.623890e-01,5.550385e-01,5,2,3.704662e+00,3.689254e+00,1
1.846574e+00,1.507395e+00,1.498699e+00,7,8,1.763522e+00,1.755382e+00,1
1.848448e+00,1.660329e+00,1.653194e+00,7,7,1.551751e+00,1.566128e+00,1
3.169184e+00,1.622897e+00,1.614094e+00,12,7,1.300592e+00,1.286027e+00,1
1.866991e+00,7.421580e-01,7.328987e-01,7,3,1.395630e+00,1.391782e+00,1
1.848715e+00,5.819330e-01,5.729198e-01,7,2,2.249921e+00,2.247049e+00,1
1.848943e+00,5.726770e-01,5.640984e-01,7,2,3.157534e+00,3.148496e+00,1
1.858829e+00,7.307600e-01,7.228851e-01,7,3,2.742627e+00,2.737780e+00,1
1.841052e+00,7.330730e-01,7.250309e-01,7,3,3.948045e+00,3.938896e+00,1
1.062222e+00,2.260718e+00,2.251148e+00,4,11,3.057652e+00,3.045122e+00,1
1.845973e+00,1.267899e+00,1.259089e+00,7,5,2.623586e+00,2.632546e+00,1
1.846849e+00,2.183490e+00,2.175093e+00,7,9,2.560934e+00,2.569956e+00,1
2.115599e+00,2.492310e+00,2.485037e+00,8,11,2.543385e+00,2.543206e+00,1
1.849543e+00,1.361261e+00,1.353025e+00,7,6,2.615167e+00,2.611297e+00,1
1.325579e+00,1.422663e+00,1.413584e+00,5,6,2.281380e+00,2.279588e+00,1
1.589063e+00,1.369695e+00,1.359940e+00,6,5,2.046504e+00,2.073799e+00,1
1.845712e+00,1.914894e+00,1.907110e+00,7,8,1.871122e+00,1.886291e+00,1
1.848472e+00,8.944410e-01,8.859634e-01,7,3,1.806938e+00,1.809581e+00,1
1.852039e+00,7.723360e-01,7.629395e-01,7,3,1.682533e+00,1.681156e+00,1
1.060045e+00,1.068174e+00,1.060009e+00,4,5,1.487029e+00,1.480270e+00,1
1.848981e+00,7.439400e-01,7.350445e-01,7,3,1.090166e+00,1.085368e+00,1
1.322837e+00,1.085379e+00,1.076937e+00,5,5,5.283876e-01,5.283563e-01,1
2.116995e+00,2.599150e-01,2.520084e-01,8,0,3.979981e-01,3.979398e-01,1
7.919270e-01,1.099367e+00,1.091242e+00,3,5,7.049456e-01,7.011948e-01,1
1.324109e+00,9.102310e-01,9.009838e-01,5,4,9.270719e-01,9.264750e-01,1
1.849039e+00,4.187480e-01,4.091263e-01,7,1,7.755671e-01,7.739655e-01,1
1.841156e+00,5.820090e-01,5.741119e-01,7,2,1.326054e+00,1.325003e+00,1
1.847308e+00,2.622730e-01,2.539158e-01,7,0,1.052502e+00,1.049584e+00,1
1.848175e+00,4.184170e-01,4.100800e-01,7,1,7.654327e-01,7.624599e-01,1
1.847042e+00,1.082840e+00,1.075029e+00,7,5,6.290495e-01,6.271091e-01,1
1.849571e+00,1.246979e+00,1.239061e+00,7,6,5.874500e-01,5.829384e-01,1
1.847976e+00,4.206990e-01,4.129410e-01,7,1,1.486646e+00,1.484692e+00,1
1.844959e+00,4.230680e-01,4.150867e-01,7,1,1.520741e+00,1.520100e+00,1
1.586980e+00,1.542093e+00,1.533985e+00,6,8,3.493027e+00,3.482238e+00,1
1.846245e+00,4.141070e-01,4.048347e-01,7,1,5.020094e+00,4.996804e+00,1
1.846687e+00,7.222180e-01,7.138252e-01,7,3,3.173706e+00,3.163169e+00,1
1.848341e+00,4.085230e-01,4.010201e-01,7,1,4.712701e+00,4.701326e+00,1
1.320099e+00,7.240860e-01,7.147789e-01,5,3,3.830910e+00,3.827449e+00,1
1.850095e+00,1.287173e+00,1.277924e+00,7,6,2.970705e+00,2.969123e+00,1
1.848558e+00,7.622020e-01,7.529259e-01,7,3,2.624151e+00,2.622305e+00,1
1.842175e+00,6.614900e-01,6.520748e-01,7,2,2.133201e+00,2.128367e+00,1
1.859531e+00,5.003410e-01,4.911423e-01,7,1,1.639679e+00,1.637482e+00,1
1.841808e+00,7.714170e-01,7.627010e-01,7,3,9.397443e-01,9.384685e-01,1
1.846109e+00,9.090210e-01,9.012222e-01,7,4,8.755217e-01,8.727610e-01,1
1.846587e+00,8.504040e-01,8.420944e-01,7,3,1.394026e+00,1.392463e+00,1
1.846676e+00,7.867830e-01,7.767677e-01,7,3,1.008807e+00,1.008452e+00,1
1.845261e+00,2.592680e-01,2.510548e-01,7,0,8.377117e-01,8.376074e-01,1
1.058700e+00,6.750190e-01,6.656647e-01,4,2,1.146323e+00,1.146279e+00,1
1.059363e+00,9.717180e-01,9.629726e-01,4,4,1.617513e+00,1.616835e+00,1
1.848752e+00,7.499410e-01,7.419586e-01,7,3,8.652443e-01,8.640880e-01,1
1.059672e+00,7.715170e-01,7.638931e-01,4,3,1.266664e+00,1.264602e+00,1
1.845590e+00,1.080369e+00,1.072884e+00,7,5,1.834203e+00,1.825457e+00,1
1.846104e+00,5.786700e-01,5.700588e-01,7,2,2.904584e+00,2.888692e+00,1
1.058861e+00,2.170256e+00,2.161264e+00,4,12,1.021074e+00,1.011785e+00,1
1.842553e+00,6.690370e-01,6.589890e-01,7,2,2.658930e+00,2.655591e+00,1
1.849213e+00,1.744842e+00,1.735926e+00,7,9,5.458338e+00,5.443568e+00,1
1.326041e+00,1.361096e+00,1.351833e+00,5,7,2.736566e+00,2.733478e+00,1
1.841538e+00,7.373030e-01,7.290840e-01,7,3,3.973611e+00,3.961078e+00,1
2.111580e+00,1.860641e+00,1.852036e+00,8,10,1.509895e+00,1.509320e+00,1
2.634381e+00,1.250308e+00,1.240969e+00,10,6,1.770443e+00,1.770331e+00,1
1.587783e+00,9.366510e-01,9.291172e-01,6,4,1.455637e+00,1.451411e+00,1
1.845815e+00,1.584737e+00,1.576900e+00,7,8,1.082758e+00,1.075636e+00,1
2.113002e+00,1.075656e+00,1.066208e+00,8,5,8.961541e-01,8.949178e-01,1
2.641657e+00,4.303280e-01,4.210472e-01,10,1,1.371427e+00,1.353955e+00,1
1.058657e+00,4.263420e-01,4.169941e-01,4,1,1.397763e+00,1.393219e+00,1
1.847629e+00,2.602560e-01,2.520084e-01,7,0,1.461964e+00,1.460436e+00,1
2.905278e+00,1.767048e+00,1.759052e+00,11,7,1.669973e+00,1.668745e+00,1
1.847138e+00,7.454340e-01,7.359982e-01,7,2,2.431870e+00,2.445454e+00,1
1.841979e+00,9.407010e-01,9.319782e-01,7,3,3.271402e+00,3.298494e+00,1
1.846571e+00,1.784695e+00,1.777172e+00,7,7,2.022085e+00,2.082257e+00,1
1.844328e+00,3.137230e-01,3.049374e-01,7,0,1.955777e+00,1.980279e+00,1
3.163336e+00,7.247030e-01,7.169247e-01,12,2,1.484709e+00,1.476513e+00,1
1.060299e+00,4.675340e-01,4.589558e-01,4,1,6.080286e-01,6.079191e-01,1
1.060745e+00,9.354210e-01,9.269714e-01,4,4,2.216645e+00,2.214438e+00,1
1.845224e+00,4.175710e-01,4.076958e-01,7,1,1.612343e+00,1.609393e+00,1
1.846570e+00,2.569710e-01,2.481937e-01,7,0,1.371454e+00,1.370102e+00,1
1.845682e+00,1.418823e+00,1.410961e+00,7,7,1.266968e+00,1.263642e+00,1
1.333719e+00,1.063246e+00,1.053810e+00,5,5,1.983448e+00,1.982857e+00,1
1.849148e+00,1.379569e+00,1.370907e+00,7,7,3.901119e+00,3.874174e+00,1
1.846191e+00,9.467220e-01,9.379387e-01,7,4,6.071766e+00,6.038881e+00,1
1.847745e+00,1.624122e+00,1.610994e+00,7,4,9.082468e+00,9.921243e+00,0
1.849437e+00,1.478725e+00,1.468897e+00,7,7,7.271402e+00,7.265157e+00,1
1.847356e+00,1.457648e+00,1.448870e+00,7,7,5.024379e+00,5.015981e+00,1
1.847531e+00,9.861240e-01,9.770393e-01,7,4,3.744403e+00,3.740798e+00,1
1.840879e+00,2.533260e-01,2.441406e-01,7,0,2.537245e+00,2.532797e+00,1
1.848481e+00,6.471550e-01,6.377697e-01,7,2,3.772259e+00,3.804192e+00,1
1.845639e+00,4.985670e-01,4.909039e-01,7,1,2.761787e+00,2.761921e+00,1
1.849342e+00,1.899573e+00,1.889944e+00,7,8,3.697423e+00,3.683081e+00,1
1.848373e+00,8.670790e-01,8.578300e-01,7,3,4.176252e+00,4.156774e+00,1
1.847445e+00,2.253006e+00,2.243996e+00,7,12,1.664553e+00,1.660540e+00,1
1.848563e+00,9.057920e-01,8.981228e-01,7,4,1.407198e+00,1.402272e+00,1
1.847514e+00,4.190880e-01,4.112720e-01,7,1,2.060665e+00,2.055438e+00,1
1.846332e+00,2.545630e-01,2.460480e-01,7,0,2.167402e+00,2.162952e+00,1
1.059492e+00,1.065429e+00,1.056910e+00,4,5,1.581138e+00,1.574473e+00,1
1.848941e+00,1.072752e+00,1.064062e+00,7,5,1.880294e+00,1.878157e+00,1
2.110551e+00,1.272338e+00,1.263857e+00,8,6,9.806885e-01,9.796647e-01,1
1.847163e+00,1.237111e+00,1.228094e+00,7,6,8.939906e-01,8.921195e-01,1
1.586676e+00,2.557620e-01,2.481937e-01,6,0,7.324413e-01,7.231937e-01,1
1.064540e+00,7.429840e-01,7.350445e-01,4,3,9.063530e-01,9.013212e-01,1
1.847795e+00,4.261220e-01,4.181862e-01,7,1,1.217322e+00,1.216459e+00,1
1.842577e+00,7.166510e-01,7.069111e-01,7,2,1.293569e+00,1.296814e+00,1
1.846773e+00,7.937830e-01,7.860661e-01,7,3,8.324019e-01,8.323174e-01,1
1.059625e+00,5.253060e-01,5.156994e-01,4,1,8.357701e-01,8.363207e-01,1
2.112268e+00,4.631460e-01,4.549026e-01,8,1,7.986092e-01,7.978162e-01,1
1.060117e+00,7.730210e-01,7.641315e-01,4,3,6.832446e-01,6.824906e-01,1
1.847143e+00,5.926540e-01,5.838871e-01,7,2,4.940580e-01,4.939751e-01,1
1.841545e+00,7.648730e-01,7.560253e-01,7,3,8.081851e-01,8.058444e-01,1
1.847113e+00,5.987030e-01,5.900860e-01,7,2,4.161783e-01,4.142022e-01,1
1.846999e+00,5.899420e-01,5.810261e-01,7,2,4.567469e-01,4.560841e-01,1
1.846937e+00,1.088707e+00,1.080036e+00,7,5,1.283498e+00,1.276947e+00,1
1.846182e+00,1.066988e+00,1.056910e+00,7,5,8.993710e-01,8.953397e-01,1
1.847730e+00,1.229165e+00,1.219988e+00,7,6,3.079374e+00,3.066380e+00,1
2.110124e+00,2.273314e+00,2.264023e+00,8,11,2.250758e+00,2.256449e+00,1
1.856265e+00,7.195110e-01,7.109642e-01,7,2,2.220154e+00,2.254007e+00,1
1.845792e+00,9.374190e-01,9.281635e-01,7,3,2.889281e+00,2.901645e+00,1
1.849149e+00,6.265540e-01,6.170273e-01,7,2,2.588161e+00,2.587388e+00,1
1.847620e+00,2.591150e-01,2.501011e-01,7,0,2.795037e+00,2.794334e+00,1
1.846065e+00,4.361330e-01,4.277229e-01,7,1,4.875356e+00,4.871615e+00,1
1.320377e+00,7.583380e-01,7.500648e-01,5,3,3.243102e+00,3.241268e+00,1
2.636914e+00,2.657830e-01,2.582073e-01,10,0,2.387554e+00,2.378477e+00,1
1.308130e+00,4.460030e-01,4.370213e-01,5,1,2.014794e+00,2.013840e+00,1
1.028313e+00,9.098430e-01,9.009838e-01,4,4,1.112332e+00,1.110338e+00,1
1.563071e+00,7.608820e-01,7.529259e-01,6,3,1.256451e+00,1.242739e+00,1
2.586044e+00,2.845810e-01,2.760887e-01,10,0,8.492989e-01,8.318597e-01,1
1.283701e+00,6.147130e-01,6.060600e-01,5,2,1.067923e+00,1.066628e+00,1
1.309385e+00,7.676500e-01,7.588863e-01,5,3,4.861675e-01,4.858603e-01,1
1.537109e+00,4.457040e-01,4.360676e-01,6,1,4.088722e-01,4.087679e-01,1
1.054819e+00,2.581300e-01,2.501011e-01,4,0,4.382216e-01,4.380334e-01,1
1.282661e+00,1.097142e+00,1.088142e+00,5,5,9.703615e-01,9.685642e-01,1
1.561617e+00,5.693860e-01,5.619526e-01,6,2,1.084842e+00,1.079971e+00,1
1.542292e+00,7.631090e-01,7.538795e-01,6,3,9.077670e-01,9.047990e-01,1
2.643071e+00,5.833230e-01,5.750656e-01,10,2,1.008932e+00,1.001583e+00,1
1.866950e+00,2.598680e-01,2.508163e-01,7,0,7.923033e-01,7.919123e-01,1
1.820987e+00,7.686550e-01,7.600784e-01,7,3,1.338644e+00,1.334375e+00,1
1.844090e+00,5.656860e-01,5.578995e-01,7,2,2.249266e+00,2.240190e+00,1
1.845864e+00,1.046997e+00,1.039028e+00,7,4,2.626305e+00,2.624989e+00,1
1.070625e+00,1.459312e+00,1.451015e+00,4,6,2.126897e+00,2.117104e+00,1
1.816699e+00,9.792500e-01,9.720325e-01,7,4,1.848415e+00,1.846521e+00,1
1.819524e+00,6.439650e-01,6.358624e-01,7,2,1.685096e+00,1.684586e+00,1
1.795297e+00,9.425770e-01,9.331703e-01,7,3,1.234265e+00,1.233328e+00,1
1.564384e+00,1.201254e+00,1.193047e+00,6,5,1.103762e+00,1.101775e+00,1
1.054273e+00,1.183024e+00,1.173973e+00,4,5,1.700427e+00,1.698347e+00,1
1.815243e+00,1.387593e+00,1.379013e+00,7,7,2.360889e+00,2.347365e+00,1
1.847144e+00,8.923240e-01,8.838177e-01,7,4,1.330928e+00,1.324695e+00,1
1.843150e+00,7.408870e-01,7.317066e-01,7,3,1.337098e+00,1.333067e+00,1
1.846234e+00,5.837430e-01,5.750656e-01,7,2,1.095544e+00,1.092989e+00,1
1.845484e+00,5.797240e-01,5.707741e-01,7,2,9.658338e-01,9.628079e-01,1
1.845552e+00,1.249319e+00,1.240015e+00,7,6,7.877299e-01,7.854966e-01,1
1.059154e+00,5.950540e-01,5.869865e-01,4,2,1.021806e+00,1.020742e+00,1
1.061204e+00,9.401330e-01,9.329319e-01,4,4,1.835589e+00,1.831432e+00,1
1.848317e+00,7.572460e-01,7.500648e-01,7,3,1.640789e+00,1.637317e+00,1
1.320165e+00,9.146970e-01,9.059906e-01,5,4,1.809123e+00,1.800670e+00,1
1.843488e+00,4.295750e-01,4.220009e-01,7,1,2.144428e+00,2.143054e+00,1
1.587765e+00,7.520580e-01,7.431507e-01,6,3,9.063787e-01,9.052218e-01,1
1.324696e+00,4.264600e-01,4.169941e-01,5,1,7.253018e-01,7.246074e-01,1
1.581875e+00,9.525040e-01,9.450912e-01,6,4,7.067560e-01,7.056163e-01,1
1.588079e+00,9.169260e-01,9.088516e-01,6,4,3.248177e-01,3.246743e-01,1
1.059751e+00,2.599370e-01,2.520084e-01,4,0,3.454292e-01,3.453527e-01,1
1.063918e+00,4.310040e-01,4.222393e-01,4,1,5.801813e-01,5.797945e-01,1
1.845636e+00,4.277000e-01,4.200935e-01,7,1,4.567338e-01,4.559846e-01,1
1.059037e+00,1.095182e+00,1.085758e+00,4,5,1.605618e+00,1.602091e+00,1
1.585947e+00,1.168611e+00,1.158714e+00,6,5,1.256976e+00,1.262936e+00,1
1.840649e+00,6.262940e-01,6.179810e-01,7,2,8.972953e-01,8.941116e-01,1
2.631493e+00,2.670630e-01,2.579689e-01,10,0,7.897181e-01,7.868760e-01,1
1.319121e+00,4.390280e-01,4.298687e-01,5,1,7.639787e-01,7.639343e-01,1
1.841413e+00,4.316920e-01,4.229546e-01,7,1,7.600187e-01,7.590005e-01,1
3.166397e+00,2.659500e-01,2.570152e-01,12,0,5.451070e-01,5.365061e-01,1
1.063343e+00,6.000370e-01,5.919933e-01,4,2,5.863789e-01,5.857054e-01,1
1.846997e+00,4.232560e-01,4.150867e-01,7,1,4.862477e-01,4.856706e-01,1
1.840880e+00,5.963400e-01,5.881786e-01,7,2,4.042191e-01,4.029017e-01,1
1.848029e+00,4.303520e-01,4.220009e-01,7,1,1.067604e+00,1.066989e+00,1
1.842743e+00,9.156490e-01,9.059906e-01,7,4,7.883426e-01,7.877881e-01,1
1.057987e+00,4.358600e-01,4.270077e-01,4,1,1.130210e+00,1.128244e+00,1
1.847489e+00,6.889620e-01,6.799698e-01,7,2,1.714166e+00,1.718807e+00,1
2.121225e+00,1.619955e+00,1.611948e+00,8,8,1.494528e+00,1.492082e+00,1
1.841474e+00,2.632580e-01,2.541542e-01,7,0,1.702929e+00,1.699574e+00,1
1.846976e+00,7.475670e-01,7.379055e-01,7,3,1.171994e+00,1.169545e+00,1
1.851573e+00,5.932400e-01,5.838871e-01,7,2,1.077822e+00,1.074643e+00,1
1.847579e+00,6.001250e-01,5.900860e-01,7,2,1.289505e+00,1.286499e+00,1
1.849271e+00,7.480710e-01,7.398129e-01,7,3,2.822583e+00,2.809389e+00,1
1.848909e+00,4.177240e-01,4.079342e-01,7,1,3.806562e+00,3.785549e+00,1
1.847124e+00,7.413530e-01,7.319450e-01,7,3,3.302503e+00,3.293337e+00,1
1.846872e+00,1.051621e+00,1.044035e+00,7,5,2.560100e+00,2.554328e+00,1
1.849146e+00,8.189480e-01,8.101463e-01,7,3,2.377813e+00,2.376471e+00,1
1.847951e+00,5.101490e-01,5.009174e-01,7,1,1.515007e+00,1.514041e+00,1
1.841724e+00,9.123580e-01,9.040833e-01,7,3,1.613043e+00,1.614988e+00,1
1.847091e+00,4.630650e-01,4.551411e-01,7,1,1.569922e+00,1.569359e+00,1
1.847724e+00,4.241330e-01,4.169941e-01,7,1,1.177485e+00,1.177382e+00,1
1.846265e+00,6.042740e-01,5.950928e-01,7,2,1.013393e+00,1.011754e+00,1
1.323836e+00,2.181808e+00,2.173185e+00,5,9,2.156210e+00,2.186850e+00,1
1.848656e+00,2.269902e+00,2.260923e+00,7,10,4.559079e+00,4.615333e+00,1
1.847493e+00,1.343279e+00,1.333952e+00,7,6,4.632652e+00,4.616818e+00,1
1.847720e+00,8.641970e-01,8.549690e-01,7,4,4.790502e+00,4.770323e+00,1
1.847363e+00,4.137980e-01,4.038811e-01,7,1,5.714200e+00,5.692642e+00,1
1.861562e+00,1.065210e+00,1.056910e+00,7,4,8.465048e+00,8.500682e+00,1
1.847408e+00,1.274027e+00,1.265049e+00,7,6,5.244976e+00,5.235614e+00,1
1.846795e+00,4.094080e-01,4.010201e-01,7,1,6.416217e+00,6.406598e+00,1
1.325186e+00,1.191782e+00,1.183033e+00,5,6,4.866193e+00,4.865053e+00,1
2.109261e+00,7.233320e-01,7.140636e-01,8,3,4.478460e+00,4.477364e+00,1
1.847691e+00,4.159320e-01,4.067421e-01,7,1,2.912360e+00,2.906771e+00,1
1.848561e+00,2.536360e-01,2.458096e-01,7,0,3.811102e+00,3.806451e+00,1
1.846860e+00,4.117800e-01,4.029274e-01,7,1,2.512287e+00,2.507382e+00,1
1.847814e+00,1.079858e+00,1.071930e+00,7,4,3.270992e+00,3.270039e+00,1
1.846753e+00,1.298917e+00,1.290083e+00,7,6,9.850209e-01,9.849908e-01,1
2.638541e+00,6.914200e-01,6.830692e-01,10,2,1.403771e+00,1.407318e+00,1
1.846934e+00,1.602888e+00,1.594067e+00,7,6,2.905662e+00,2.907218e+00,1
1.848640e+00,1.012293e+00,1.003027e+00,7,4,2.040839e+00,2.037771e+00,1
1.847459e+00,1.249121e+00,1.240253e+00,7,6,3.434728e+00,3.429281e+00,1
1.848532e+00,5.828300e-01,5.750656e-01,7,2,3.121751e+00,3.115510e+00,1
1.847090e+00,1.124176e+00,1.116037e+00,7,5,5.061434e+00,5.045008e+00,1
1.849040e+00,1.410976e+00,1.401901e+00,7,7,2.576331e+00,2.570508e+00,1
3.164599e+00,1.053026e+00,1.044989e+00,12,5,2.066914e+00,2.058987e+00,1
1.848644e+00,7.425850e-01,7.340908e-01,7,3,1.566295e+00,1.562972e+00,1
1.847732e+00,4.141810e-01,4.060268e-01,7,1,1.528345e+00,1.526727e+00,1
1.847057e+00,5.857080e-01,5.779266e-01,7,2,1.624845e+00,1.624040e+00,1
1.846870e+00,2.572230e-01,2.491474e-01,7,0,2.640061e+00,2.635386e+00,1
1.846993e+00,5.825640e-01,5.729198e-01,7,2,1.150238e+00,1.149200e+00,1
3.159427e+00,5.960830e-01,5.888939e-01,12,2,8.177404e-01,8.064865e-01,1
1.058927e+00,2.610250e-01,2.522469e-01,4,0,1.076268e+00,1.075868e+00,1
2.108157e+00,2.657080e-01,2.567768e-01,8,0,1.106034e+00,1.105547e+00,1
1.059124e+00,4.305310e-01,4.231930e-01,4,1,8.007721e-01,8.005517e-01,1
1.058614e+00,9.365760e-01,9.279251e-01,4,4,1.186319e+00,1.183330e+00,1
1.852594e+00,9.220940e-01,9.129047e-01,7,4,1.659204e+00,1.654112e+00,1
1.847446e+00,5.833080e-01,5.750656e-01,7,2,2.432253e+00,2.423252e+00,1
1.846895e+00,7.265160e-01,7.190704e-01,7,3,5.310773e+00,5.301797e+00,1
1.847078e+00,2.538370e-01,2.441406e-01,7,0,7.086340e+00,7.060013e+00,1
1.846814e+00,8.754220e-01,8.661747e-01,7,4,4.745889e+00,4.738966e+00,1
1.841397e+00,4.179690e-01,4.100800e-01,7,1,5.836151e+00,5.827780e+00,1
1.060403e+00,1.548048e+00,1.539946e+00,4,7,4.158144e+00,4.150024e+00,1
1.849489e+00,8.218020e-01,8.120537e-01,7,3,3.152865e+00,3.149241e+00,1
1.849023e+00,7.276480e-01,7.190704e-01,7,3,3.580888e+00,3.579958e+00,1
1.843193e+00,2.608030e-01,2.529621e-01,7,0,1.807472e+00,1.804129e+00,1
1.844414e+00,1.075036e+00,1.066923e+00,7,5,1.416303e+00,1.411117e+00,1
1.320974e+00,1.076297e+00,1.067162e+00,5,5,1.050247e+00,1.048261e+00,1
1.848282e+00,7.466430e-01,7.381439e-01,7,3,1.005435e+00,1.003947e+00,1
1.848720e+00,5.803150e-01,5.722046e-01,7,2,9.954162e-01,9.945109e-01,1
1.847210e+00,2.581500e-01,2.491474e-01,7,0,1.610500e+00,1.608955e+00,1
2.107800e+00,7.576630e-01,7.491112e-01,8,3,5.253437e-01,5.224934e-01,1
1.058779e+00,7.715620e-01,7.617474e-01,4,3,2.230302e+00,2.229484e+00,1
1.848578e+00,1.902441e+00,1.894951e+00,7,9,5.116363e+00,5.104201e+00,1
1.847995e+00,2.160157e+00,2.151966e+00,7,10,2.953518e+00,2.948675e+00,1
2.636541e+00,1.763110e+00,1.754045e+00,10,8,2.052861e+00,2.050843e+00,1
1.846898e+00,7.702690e-01,7.629395e-01,7,3,1.599733e+00,1.597977e+00,1
1.847289e+00,5.904560e-01,5.819798e-01,7,2,1.335312e+00,1.330894e+00,1
1.842093e+00,2.623180e-01,2.541542e-01,7,0,1.280577e+00,1.278176e+00,1
1.847215e+00,5.875420e-01,5.781651e-01,7,2,2.312376e+00,2.310406e+00,1
1.840427e+00,5.807340e-01,5.722046e-01,7,2,1.823283e+00,1.822397e+00,1
3.164387e+00,7.596620e-01,7.510185e-01,12,3,1.372907e+00,1.364703e+00,1
2.642400e+00,9.419550e-01,9.331703e-01,10,4,1.540964e+00,1.539226e+00,1
1.848098e+00,1.236774e+00,1.227856e+00,7,6,2.664772e+00,2.653261e+00,1
1.847982e+00,8.841780e-01,8.771420e-01,7,4,4.365057e+00,4.341461e+00,1
1.846899e+00,6.257420e-01,6.167889e-01,7,2,8.022132e+00,7.990264e+00,1
1.842840e+00,1.210455e+00,1.202106e+00,7,5,9.811433e+00,9.797079e+00,1
1.846754e+00,1.243531e+00,1.234055e+00,7,5,8.699489e+00,8.721560e+00,1
1.842140e+00,1.031286e+00,1.023054e+00,7,4,9.144315e+00,9.138795e+00,1
1.848691e+00,1.483287e+00,1.475096e+00,7,6,7.538172e+00,7.546744e+00,1
1.845599e+00,1.037722e+00,1.029968e+00,7,4,7.619781e+00,7.615007e+00,1
1.846846e+00,8.961810e-01,8.869171e-01,7,3,7.389056e+00,7.382207e+00,1
1.850252e+00,1.449504e+00,1.441956e+00,7,6,6.009836e+00,6.006069e+00,1
1.843346e+00,7.176830e-01,7.090569e-01,7,2,5.022904e+00,5.045776e+00,1
1.847605e+00,1.207721e+00,1.198053e+00,7,5,3.681107e+00,3.677577e+00,1
1.847443e+00,1.086455e+00,1.078129e+00,7,4,3.398808e+00,3.418050e+00,1
1.845731e+00,8.923680e-01,8.850098e-01,7,3,3.508039e+00,3.598852e+00,1
1.847795e+00,2.085550e+00,2.077103e+00,7,9,4.704495e+00,4.887387e+00,1
1.847383e+00,1.637434e+00,1.627207e+00,7,4,9.078079e+00,1.425308e+01,0
1.858200e+00,8.320830e-01,8.218288e-01,7,0,1.018821e+01,1.465850e+01,0
1.847312e+00,8.278110e-01,8.170605e-01,7,0,1.162046e+01,1.251941e+01,0
1.846626e+00,8.330960e-01,8.218288e-01,7,0,1.014532e+01,7.117363e+00,0
1.849143e+00,4.239270e+00,4.228115e+00,7,18,1.014033e+01,1.160907e+01,0
1.846905e+00,8.310290e-01,8.199215e-01,7,0,1.239179e+01,1.615654e+01,0
1.850883e+00,4.156489e+00,4.148006e+00,7,20,1.140048e+01,1.152824e+01,1
1.845756e+00,2.771293e+00,2.763033e+00,7,13,9.374972e+00,9.482955e+00,1
1.851162e+00,1.453338e+00,1.443863e+00,7,6,7.687883e+00,7.715113e+00,1
1.847993e+00,1.064237e+00,1.055956e+00,7,4,6.530072e+00,6.526682e+00,1
1.847422e+00,9.851600e-01,9.758472e-01,7,4,5.404100e+00,5.396740e+00,1
1.849185e+00,6.925820e-01,6.816387e-01,7,0,4.871391e+00,5.622559e+00,0
1.847923e+00,6.945720e-01,6.842613e-01,7,0,5.102663e+00,7.179340e+00,0
1.848014e+00,5.690620e-01,5.609989e-01,7,2,2.657684e+00,2.654391e+00,1
1.848218e+00,7.430390e-01,7.338524e-01,7,3,2.284550e+00,2.276383e+00,1
1.844325e+00,2.578450e-01,2.501011e-01,7,0,2.594379e+00,2.592193e+00,1
1.847906e+00,4.198970e-01,4.107952e-01,7,1,1.760004e+00,1.758733e+00,1
1.841463e+00,2.636770e-01,2.560616e-01,7,0,1.546683e+00,1.545747e+00,1
1.845624e+00,4.305260e-01,4.229546e-01,7,1,1.232363e+00,1.230133e+00,1
1.841362e+00,7.536240e-01,7.460117e-01,7,3,8.931023e-01,8.927202e-01,1
1.059975e+00,7.700610e-01,7.629395e-01,4,3,6.413991e-01,6.391056e-01,1
1.582114e+00,5.952040e-01,5.879402e-01,6,2,5.554399e-01,5.548729e-01,1
2.373688e+00,4.370590e-01,4.279613e-01,9,1,6.963170e-01,6.926121e-01,1
1.841085e+00,2.652020e-01,2.570152e-01,7,0,8.167994e-01,8.166660e-01,1
1.057551e+00,9.366210e-01,9.281635e-01,4,4,5.780323e-01,5.745159e-01,1
2.636535e+00,7.566130e-01,7.448196e-01,10,3,6.247119e-01,6.246787e-01,1
1.061255e+00,7.731940e-01,7.650852e-01,4,3,1.854839e+00,1.854176e+00,1
1.060721e+00,2.597425e+00,2.588987e+00,4,12,4.305915e+00,4.305514e+00,1
1.847507e+00,1.283613e+00,1.275063e+00,7,5,5.792327e+00,5.793427e+00,1
1.847966e+00,1.810762e+00,1.801014e+00,7,8,4.716363e+00,4.759442e+00,1
1.841980e+00,1.267673e+00,1.259089e+00,7,5,5.155722e+00,5.147853e+00,1
1.842344e+00,9.992700e-01,9.870529e-01,7,4,4.917555e+00,4.911198e+00,1
1.856296e+00,8.830380e-01,8.749962e-01,7,4,4.277150e+00,4.271434e+00,1
1.058586e+00,1.054038e+00,1.044989e+00,4,5,3.240124e+00,3.228707e+00,1
1.848540e+00,4.181700e-01,4.098415e-01,7,1,3.164471e+00,3.157806e+00,1
1.851311e+00,2.046453e+00,2.038002e+00,7,9,5.956039e+00,6.004795e+00,1
1.844886e+00,1.069874e+00,1.058102e+00,7,4,7.959313e+00,8.082995e+00,1
2.110664e+00,1.222596e+00,1.204729e+00,8,2,9.374406e+00,1.297931e+01,0
1.848308e+00,3.331176e+00,3.319502e+00,7,13,7.561826e+00,9.026857e+00,0
1.584453e+00,2.609805e+00,2.601862e+00,6,12,5.719044e+00,5.723476e+00,1
1.321677e+00,1.449045e+00,1.440048e+00,5,6,4.069217e+00,4.069786e+00,1
1.847496e+00,9.271580e-01,9.188652e-01,7,4,3.195441e+00,3.191666e+00,1
1.847417e+00,1.084496e+00,1.076937e+00,7,4,4.296940e+00,4.300420e+00,1
1.849078e+00,1.148599e+00,1.141071e+00,7,4,4.327969e+00,4.322921e+00,1
1.845663e+00,1.014991e+00,1.006842e+00,7,4,3.232150e+00,3.230552e+00,1
1.847806e+00,4.237990e-01,4.160404e-01,7,1,3.250199e+00,3.249075e+00,1
1.847794e+00,1.592332e+00,1.583815e+00,7,8,3.814754e+00,3.805003e+00,1
1.840083e+00,8.889830e-01,8.800030e-01,7,4,4.084828e+00,4.072669e+00,1
1.847189e+00,7.294410e-01,7.200241e-01,7,3,4.968644e+00,4.954316e+00,1
1.849076e+00,2.729503e+00,2.721071e+00,7,13,3.892836e+00,3.895279e+00,1
1.848782e+00,2.442682e+00,2.434969e+00,7,11,5.068049e+00,5.066043e+00,1
1.847160e+00,8.915440e-01,8.840561e-01,7,3,4.883965e+00,4.883532e+00,1
1.059903e+00,1.452497e+00,1.444101e+00,4,6,4.052061e+00,4.055989e+00,1
1.848125e+00,1.467904e+00,1.459837e+00,7,6,3.268464e+00,3.284981e+00,1
1.847820e+00,1.518354e+00,1.510859e+00,7,6,3.468291e+00,3.472012e+00,1
1.846484e+00,1.160495e+00,1.152992e+00,7,4,3.459533e+00,3.468631e+00,1
1.845883e+00,1.246837e+00,1.237154e+00,7,5,2.449490e+00,2.447682e+00,1
1.843949e+00,2.590230e-01,2.501011e-01,7,0,2.464524e+00,2.462685e+00,1
1.847979e+00,5.950030e-01,5.860329e-01,7,2,1.557325e+00,1.557239e+00,1
1.586255e+00,4.271400e-01,4.191399e-01,6,1,1.303141e+00,1.300867e+00,1
1.322898e+00,6.015900e-01,5.929470e-01,5,2,8.005088e-01,8.002123e-01,1
1.845594e+00,4.277770e-01,4.200935e-01,7,1,5.564373e-01,5.555561e-01,1
1.320772e+00,7.612890e-01,7.541180e-01,5,3,4.241991e-01,4.241785e-01,1
7.906170e-01,2.666010e-01,2.579689e-01,3,0,6.734018e-01,6.733426e-01,1
7.985830e-01,4.392070e-01,4.301071e-01,3,1,3.446477e-01,3.419261e-01,1
1.586507e+00,4.260580e-01,4.169941e-01,6,1,3.263075e-01,3.223742e-01,1
1.585986e+00,2.607060e-01,2.529621e-01,6,0,2.329670e-01,2.329556e-01,1
7.971090e-01,2.606540e-01,2.517700e-01,3,0,2.607951e-01,2.607929e-01,1
7.969590e-01,2.604460e-01,2.510548e-01,3,0,2.488416e-01,2.488408e-01,1
7.970260e-01,4.320670e-01,4.229546e-01,3,1,5.380097e-01,5.377529e-01,1
1.842107e+00,6.019520e-01,5.929470e-01,7,2,3.752896e-01,3.740295e-01,1
2.376950e+00,7.585450e-01,7.486343e-01,9,3,4.253885e-01,4.240075e-01,1
1.062746e+00,7.697690e-01,7.619858e-01,4,3,8.056011e-01,8.045760e-01,1
1.340685e+00,7.542040e-01,7.469654e-01,5,3,4.704279e-01,4.699070e-01,1
1.059379e+00,2.634530e-01,2.551079e-01,4,0,6.344866e-01,6.343525e-01,1
3.165241e+00,2.610690e-01,2.529621e-01,12,0,6.682583e-01,6.640088e-01,1
1.059967e+00,6.069700e-01,5.979538e-01,4,2,1.022291e+00,1.021717e+00,1
1.840598e+00,4.305390e-01,4.208088e-01,7,1,7.763486e-01,7.755790e-01,1
1.319152e+00,4.319390e-01,4.239082e-01,5,1,4.662554e-01,4.648504e-01,1
2.632704e+00,2.665910e-01,2.589226e-01,10,0,3.487033e-01,3.453631e-01,1
1.848987e+00,4.391280e-01,4.301071e-01,7,1,5.193989e-01,5.182763e-01,1
2.637181e+00,4.272190e-01,4.189014e-01,10,1,4.458615e-01,4.458077e-01,1
2.640765e+00,2.610770e-01,2.539158e-01,10,0,3.612961e-01,3.575911e-01,1
2.636814e+00,9.372300e-01,9.276867e-01,10,4,7.106741e-01,7.007377e-01,1
1.846846e+00,9.234180e-01,9.160042e-01,7,4,5.256099e-01,5.246765e-01,1
3.163833e+00,2.621800e-01,2.548695e-01,12,0,8.481495e-01,8.456492e-01,1
2.638660e+00,1.204516e+00,1.197100e+00,10,4,1.624181e+00,1.623672e+00,1
1.060966e+00,1.259923e+00,1.250982e+00,4,5,1.376317e+00,1.375383e+00,1
1.845147e+00,2.587250e-01,2.510548e-01,7,0,1.177243e+00,1.175925e+00,1
1.846554e+00,4.265070e-01,4.191399e-01,7,1,2.600395e+00,2.597417e+00,1
1.845532e+00,2.577830e-01,2.501011e-01,7,0,3.216259e+00,3.211974e+00,1
1.846715e+00,9.219950e-01,9.140968e-01,7,4,1.653431e+00,1.649483e+00,1
1.844298e+00,5.914060e-01,5.831718e-01,7,2,1.192508e+00,1.189531e+00,1
2.636552e+00,9.127520e-01,9.038448e-01,10,4,9.478095e-01,9.438777e-01,1
1.848147e+00,5.906240e-01,5.831718e-01,7,2,5.605309e-01,5.590257e-01,1
1.848207e+00,5.856910e-01,5.781651e-01,7,2,4.512747e-01,4.506129e-01,1
1.847429e+00,2.608880e-01,2.522469e-01,7,0,7.622949e-01,7.606642e-01,1
1.846386e+00,4.294090e-01,4.200935e-01,7,1,7.237419e-01,7.224154e-01,1
1.324460e+00,7.560170e-01,7.472038e-01,5,3,4.640140e-01,4.609829e-01,1
1.324887e+00,7.702090e-01,7.612705e-01,5,3,1.106416e+00,1.105380e+00,1
1.839544e+00,7.641920e-01,7.548332e-01,7,3,7.087455e-01,7.084564e-01,1
1.058615e+00,2.687250e-01,2.601147e-01,4,0,6.374757e-01,6.374650e-01,1
1.059858e+00,4.319120e-01,4.239082e-01,4,1,7.330631e-01,7.329199e-01,1
2.116192e+00,7.699340e-01,7.619858e-01,8,3,5.715916e-01,5.683306e-01,1
1.847696e+00,6.029450e-01,5.948544e-01,7,2,6.708202e-01,6.690644e-01,1
1.582351e+00,9.229320e-01,9.100437e-01,6,4,9.461259e-01,9.439958e-01,1
1.848547e+00,1.104503e+00,1.096010e+00,7,5,6.647710e-01,6.618929e-01,1
2.638257e+00,1.083166e+00,1.075983e+00,10,5,8.049257e-01,8.048810e-01,1
7.959490e-01,2.614160e-01,2.529621e-01,3,0,1.002659e+00,1.002624e+00,1
1.058951e+00,4.391610e-01,4.298687e-01,4,1,1.197396e+00,1.197355e+00,1
1.846703e+00,7.659030e-01,7.579327e-01,7,3,1.698529e+00,1.694204e+00,1
1.842001e+00,1.253277e+00,1.245022e+00,7,6,1.017324e+00,1.013063e+00,1
1.058420e+00,1.906164e+00,1.897812e+00,4,10,8.909923e-01,8.850944e-01,1
1.847495e+00,4.313940e-01,4.220009e-01,7,1,9.026839e-01,9.005638e-01,1
1.847073e+00,4.195740e-01,4.098415e-01,7,1,9.981731e-01,9.965880e-01,1
1.842535e+00,5.913300e-01,5.838871e-01,7,2,7.153005e-01,7.147114e-01,1
1.843160e+00,1.103031e+00,1.095057e+00,7,5,1.567807e+00,1.565591e+00,1
1.586208e+00,7.511930e-01,7.431507e-01,6,3,1.090037e+00,1.089629e+00,1
1.847109e+00,5.058940e-01,4.971027e-01,7,1,1.057048e+00,1.057965e+00,1
1.848154e+00,7.183120e-01,7.100105e-01,7,2,1.073489e+00,1.074581e+00,1
1.853998e+00,1.291096e+00,1.283884e+00,7,5,9.738882e-01,9.866975e-01,1
1.847122e+00,3.127190e-01,3.039837e-01,7,0,7.068337e-01,7.056186e-01,1
1.848187e+00,6.276090e-01,6.179810e-01,7,2,9.504591e-01,9.494048e-01,1
1.846182e+00,4.288250e-01,4.208088e-01,7,1,1.081318e+00,1.079359e+00,1
2.631875e+00,7.639010e-01,7.557869e-01,10,3,8.521848e-01,8.521240e-01,1
1.059006e+00,6.069850e-01,5.981922e-01,4,2,1.216898e+00,1.215735e+00,1
1.847135e+00,1.096195e+00,1.088142e+00,7,5,8.205541e-01,8.187968e-01,1
1.059086e+00,9.165620e-01,9.090900e-01,4,4,7.994145e-01,7.962203e-01,1
1.841140e+00,4.239970e-01,4.150867e-01,7,1,6.753197e-01,6.738596e-01,1
1.323900e+00,9.196660e-01,9.100437e-01,5,4,4.928251e-01,4.928141e-01,1
1.059506e+00,2.609140e-01,2.520084e-01,4,0,3.729857e-01,3.728490e-01,1
7.995180e-01,7.752650e-01,7.669926e-01,3,3,7.320915e-01,7.274189e-01,1
1.847188e+00,1.098505e+00,1.090050e+00,7,5,5.201356e-01,5.168517e-01,1
2.372994e+00,9.205080e-01,9.109974e-01,9,4,6.028710e-01,6.014164e-01,1
1.842854e+00,5.944260e-01,5.860329e-01,7,2,5.651436e-01,5.642355e-01,1
1.847712e+00,9.202330e-01,9.121895e-01,7,4,5.711389e-01,5.708114e-01,1
1.320438e+00,2.670470e-01,2.601147e-01,5,0,7.127165e-01,7.125716e-01,1
3.164256e+00,2.673590e-01,2.591610e-01,12,0,5.780420e-01,5.650421e-01,1
1.060533e+00,1.601530e+00,1.591921e+00,4,8,2.081129e+00,2.077456e+00,1
1.848451e+00,1.209639e+00,1.199722e+00,7,6,5.032171e+00,5.005840e+00,1
1.846578e+00,5.667680e-01,5.590916e-01,7,2,3.751832e+00,3.736613e+00,1
1.847031e+00,7.162790e-01,7.081032e-01,7,3,2.703680e+00,2.697119e+00,1
1.320913e+00,1.550576e+00,1.541853e+00,5,8,2.023674e+00,2.022575e+00,1
1.848477e+00,7.706070e-01,7.629395e-01,7,3,2.253484e+00,2.250712e+00,1
1.586573e+00,1.415011e+00,1.405954e+00,6,7,1.738124e+00,1.730469e+00,1
1.842156e+00,7.478960e-01,7.390976e-01,7,3,1.592654e+00,1.586392e+00,1
1.850309e+00,5.880240e-01,5.788803e-01,7,2,1.712532e+00,1.709418e+00,1
1.843158e+00,5.734200e-01,5.650520e-01,7,2,1.831624e+00,1.828929e+00,1
1.846512e+00,7.380900e-01,7.300377e-01,7,3,1.594545e+00,1.591769e+00,1
1.057931e+00,1.065136e+00,1.056671e+00,4,5,1.892253e+00,1.887177e+00,1
1.841996e+00,4.234700e-01,4.148483e-01,7,1,2.802723e+00,2.796662e+00,1
1.845289e+00,2.617380e-01,2.529621e-01,7,0,2.034734e+00,2.029413e+00,1
1.857600e+00,4.189540e-01,4.100800e-01,7,1,1.253784e+00,1.250788e+00,1
1.841766e+00,5.924830e-01,5.831718e-01,7,2,7.001944e-01,7.000307e-01,1
1.319991e+00,5.974880e-01,5.900860e-01,5,2,5.353883e-01,5.353863e-01,1
7.974730e-01,4.393110e-01,4.308224e-01,3,1,4.674110e-01,4.669820e-01,1
2.110098e+00,4.275370e-01,4.179478e-01,8,1,7.313643e-01,7.313346e-01,1
7.960330e-01,2.609890e-01,2.529621e-01,3,0,5.174740e-01,5.174514e-01,1
7.962300e-01,4.387840e-01,4.301071e-01,3,1,7.063627e-01,7.056549e-01,1
1.846550e+00,4.297240e-01,4.210472e-01,7,1,7.590309e-01,7.576562e-01,1
1.846496e+00,5.921360e-01,5.841255e-01,7,2,7.496254e-01,7.477078e-01,1
2.638689e+00,9.428740e-01,9.350777e-01,10,3,1.111362e+00,1.107366e+00,1
2.633059e+00,8.762590e-01,8.671284e-01,10,3,6.092315e-01,6.087303e-01,1
1.059202e+00,2.620390e-01,2.541542e-01,4,0,5.109751e-01,5.109326e-01,1
1.059952e+00,7.759960e-01,7.679462e-01,4,3,2.101028e+00,2.098614e+00,1
1.846456e+00,5.892360e-01,5.800724e-01,7,2,2.363929e+00,2.362488e+00,1
1.058783e+00,4.331400e-01,4.241467e-01,4,1,1.068544e+00,1.066822e+00,1
2.112801e+00,4.320510e-01,4.229546e-01,8,1,1.105886e+00,1.105098e+00,1
1.580087e+00,4.351710e-01,4.270077e-01,6,1,9.876095e-01,9.874983e-01,1
1.059279e+00,1.181773e+00,1.174212e+00,4,4,1.049154e+00,1.052196e+00,1
2.634373e+00,1.075033e+00,1.065969e+00,10,4,4.939652e-01,4.913224e-01,1
2.637574e+00,2.670680e-01,2.579689e-01,10,0,4.028587e-01,3.926991e-01,1
1.321448e+00,6.095990e-01,6.020069e-01,5,2,7.270312e-01,7.269461e-01,1
1.841895e+00,2.653750e-01,2.579689e-01,7,0,9.421532e-01,9.409574e-01,1
1.841169e+00,1.104962e+00,1.095772e+00,7,5,1.162156e+00,1.158810e+00,1
2.640523e+00,1.428459e+00,1.419783e+00,10,7,7.347704e-01,7.322200e-01,1
1.848969e+00,7.597880e-01,7.507801e-01,7,3,6.497284e-01,6.473549e-01,1
1.842198e+00,4.243440e-01,4.160404e-01,7,1,1.085885e+00,1.083537e+00,1
1.845206e+00,4.266930e-01,4.181862e-01,7,1,1.657588e+00,1.655792e+00,1
1.846319e+00,9.286740e-01,9.210110e-01,7,4,1.857069e+00,1.855960e+00,1
1.846274e+00,7.491520e-01,7.400513e-01,7,3,2.723290e+00,2.717754e+00,1
1.846705e+00,1.580345e+00,1.572132e+00,7,8,2.565540e+00,2.561320e+00,1
1.848256e+00,2.509024e+00,2.501011e+00,7,13,4.031394e+00,4.022465e+00,1
1.322349e+00,1.894842e+00,1.885891e+00,5,10,1.691366e+00,1.689916e+00,1
1.848764e+00,7.515900e-01,7.441044e-01,7,3,1.419507e+00,1.418017e+00,1
1.847616e+00,1.080494e+00,1.072884e+00,7,5,2.236272e+00,2.233084e+00,1
1.846602e+00,4.189520e-01,4.110336e-01,7,1,1.049969e+00,1.047248e+00,1
2.637451e+00,9.228900e-01,9.150505e-01,10,4,9.350349e-01,9.341649e-01,1
1.846090e+00,9.255020e-01,9.169579e-01,7,4,7.112627e-01,7.099045e-01,1
1.846511e+00,4.208730e-01,4.119873e-01,7,1,4.317348e-01,4.312192e-01,1
1.845055e+00,2.585420e-01,2.496243e-01,7,0,1.006794e+00,1.006074e+00,1
1.847383e+00,7.628040e-01,7.541180e-01,7,3,8.238048e-01,8.236523e-01,1
1.060672e+00,2.680820e-01,2.589226e-01,4,0,4.618518e-01,4.618460e-01,1
1.059794e+00,1.068352e+00,1.060009e+00,4,4,1.104798e+00,1.110553e+00,1
1.846946e+00,6.281780e-01,6.198883e-01,7,2,6.840088e-01,6.833244e-01,1
3.163677e+00,5.919690e-01,5.829334e-01,12,2,3.747545e-01,3.622528e-01,1
3.165593e+00,2.624180e-01,2.548695e-01,12,0,4.225072e-01,4.225069e-01,1
7.980210e-01,2.614720e-01,2.520084e-01,3,0,5.378751e-01,5.378452e-01,1
1.058346e+00,4.391400e-01,4.310608e-01,4,1,8.386870e-01,8.381156e-01,1
1.846224e+00,6.840190e-01,6.749630e-01,7,2,1.625226e+00,1.633523e+00,1
1.058676e+00,1.554356e+00,1.545906e+00,4,7,1.342158e+00,1.338555e+00,1
1.848265e+00,9.212320e-01,9.131432e-01,7,4,2.381151e+00,2.370783e+00,1
1.846509e+00,1.226996e+00,1.218796e+00,7,6,1.004158e+00,1.003593e+00,1
1.319556e+00,9.366420e-01,9.279251e-01,5,4,7.468758e-01,7.440171e-01,1
1.846427e+00,5.999990e-01,5.908012e-01,7,2,4.323352e-01,4.304907e-01,1
1.847006e+00,4.211690e-01,4.131794e-01,7,1,4.432011e-01,4.427749e-01,1
1.845461e+00,4.250090e-01,4.169941e-01,7,1,1.248390e+00,1.246231e+00,1
1.844954e+00,2.579420e-01,2.486706e-01,7,0,1.340580e+00,1.338152e+00,1
1.845663e+00,4.274050e-01,4.179478e-01,7,1,1.981950e+00,1.975595e+00,1
1.841019e+00,9.250580e-01,9.171963e-01,7,4,1.998260e+00,1.990041e+00,1
1.846363e+00,5.823170e-01,5.729198e-01,7,2,2.334461e+00,2.326162e+00,1
1.840614e+00,7.438840e-01,7.350445e-01,7,3,3.838135e+00,3.822086e+00,1
1.847615e+00,5.725070e-01,5.631447e-01,7,2,4.336735e+00,4.325846e+00,1
1.847700e+00,8.901200e-01,8.831024e-01,7,4,3.115002e+00,3.111769e+00,1
1.058503e+00,5.729720e-01,5.638599e-01,4,2,2.718867e+00,2.702170e+00,1
1.846384e+00,1.052181e+00,1.043797e+00,7,5,3.864381e+00,3.860395e+00,1
1.847143e+00,1.375116e+00,1.367092e+00,7,7,2.455384e+00,2.452380e+00,1
1.845525e+00,4.129350e-01,4.038811e-01,7,1,1.960543e+00,1.956995e+00,1
1.843133e+00,7.439020e-01,7.359982e-01,7,3,2.035819e+00,2.032031e+00,1
1.848013e+00,4.171070e-01,4.060268e-01,7,1,2.270216e+00,2.266851e+00,1
1.849125e+00,1.573623e+00,1.564980e+00,7,8,2.655014e+00,2.653242e+00,1
1.848750e+00,1.603184e+00,1.594782e+00,7,8,1.708224e+00,1.704954e+00,1
1.849376e+00,5.781910e-01,5.700588e-01,7,2,1.684378e+00,1.684124e+00,1
1.843759e+00,4.250960e-01,4.160404e-01,7,1,2.292660e+00,2.291240e+00,1
1.846169e+00,4.205670e-01,4.110336e-01,7,1,2.618217e+00,2.615839e+00,1
1.848617e+00,5.880170e-01,5.810261e-01,7,2,1.629964e+00,1.629909e+00,1
1.845151e+00,4.346690e-01,4.260540e-01,7,1,1.574554e+00,1.574458e+00,1
1.058389e+00,6.019850e-01,5.950928e-01,4,2,8.612352e-01,8.591738e-01,1
1.580426e+00,4.306730e-01,4.229546e-01,6,1,8.317880e-01,8.298129e-01,1

