4.175940e-01,2.203383e+01,2.185702e+01,2,133,0.000000e+00,-9.090506e-13,1
5.923160e-01,1.554910e-01,1.471043e-01,3,0,1.139308e-01,1.139310e-01,1
5.918790e-01,1.538360e-01,1.461506e-01,3,0,4.039196e-01,4.039206e-01,1
5.859320e-01,1.542830e-01,1.480579e-01,3,0,2.754526e-01,2.754529e-01,1
5.858130e-01,1.589800e-01,1.518726e-01,3,0,5.061881e-01,5.061888e-01,1
5.908160e-01,1.540960e-01,1.471043e-01,3,0,5.524563e-01,5.524567e-01,1
5.914880e-01,1.534090e-01,1.480579e-01,3,0,9.239006e-01,9.239031e-01,1
5.855720e-01,1.538920e-01,1.480579e-01,3,0,1.221556e+00,1.221557e+00,1
5.856200e-01,1.584430e-01,1.518726e-01,3,0,1.862356e+00,1.862357e+00,1
5.912000e-01,1.535810e-01,1.461506e-01,3,0,1.510234e+00,1.510234e+00,1
5.906970e-01,1.543660e-01,1.471043e-01,3,0,1.605514e+00,1.605516e+00,1
5.859220e-01,1.542670e-01,1.471043e-01,3,0,1.632241e+00,1.632241e+00,1
5.858670e-01,1.591520e-01,1.480579e-01,3,0,5.662526e-01,5.662518e-01,1
5.911060e-01,1.532280e-01,1.468658e-01,3,0,4.900934e-01,4.900939e-01,1
5.922990e-01,1.534460e-01,1.461506e-01,3,0,1.042487e+00,1.042490e+00,1
5.920730e-01,1.540830e-01,1.471043e-01,3,0,2.821956e+00,2.821960e+00,1
5.862220e-01,1.532780e-01,1.459122e-01,3,0,2.857670e+00,2.857670e+00,1
5.916570e-01,1.542750e-01,1.471043e-01,3,0,2.998489e+00,2.998490e+00,1
5.913710e-01,1.537700e-01,1.461506e-01,3,0,4.732204e+00,4.732209e+00,1
5.925660e-01,1.532890e-01,1.471043e-01,3,0,3.679981e+00,3.679981e+00,1
5.865030e-01,2.872390e-01,2.810955e-01,3,1,3.607750e+00,3.607888e+00,1
5.867100e-01,2.638230e-01,2.570152e-01,3,1,3.189563e+00,3.189564e+00,1
5.861360e-01,2.970090e-01,2.911091e-01,3,1,3.047794e+00,3.082553e+00,1
5.906950e-01,1.802030e-01,1.738071e-01,3,0,2.477748e+00,2.494659e+00,1
5.918080e-01,1.818830e-01,1.761913e-01,3,0,2.562272e+00,2.562661e+00,1
5.913100e-01,2.633640e-01,2.558231e-01,3,1,2.105071e+00,2.105071e+00,1
5.857690e-01,1.528260e-01,1.461506e-01,3,0,2.122406e+00,2.122407e+00,1
5.856420e-01,1.540650e-01,1.466274e-01,3,0,3.933159e+00,3.933139e+00,1
5.919680e-01,1.522230e-01,1.461506e-01,3,0,1.554744e+00,1.554738e+00,1
5.911790e-01,1.535380e-01,1.468658e-01,3,0,1.587004e+00,1.587005e+00,1
5.925600e-01,1.540030e-01,1.471043e-01,3,0,9.602165e-01,9.602161e-01,1
5.856210e-01,1.544700e-01,1.490116e-01,3,0,1.146999e+00,1.147000e+00,1
5.907520e-01,1.535280e-01,1.468658e-01,3,0,6.912672e-01,6.912675e-01,1
5.920210e-01,2.929160e-01,2.870560e-01,3,1,1.397474e+00,1.430963e+00,1
5.925230e-01,2.626210e-01,2.560616e-01,3,1,6.037515e-01,6.037513e-01,1
5.919980e-01,1.535100e-01,1.471043e-01,3,0,5.766975e-01,5.766977e-01,1
5.860350e-01,1.536090e-01,1.461506e-01,3,0,1.547619e+00,1.547623e+00,1
5.860870e-01,1.588010e-01,1.518726e-01,3,0,8.851192e-01,8.851194e-01,1
5.909720e-01,1.525820e-01,1.461506e-01,3,0,6.852201e-01,6.852202e-01,1
5.913060e-01,1.538010e-01,1.478195e-01,3,0,6.159803e-01,6.159802e-01,1
5.860200e-01,1.540780e-01,1.471043e-01,3,0,4.688555e-01,4.688562e-01,1
5.851600e-01,1.588730e-01,1.518726e-01,3,0,4.271921e-01,4.271925e-01,1
5.910530e-01,1.526670e-01,1.461506e-01,3,0,5.501552e-01,5.501556e-01,1
5.919700e-01,1.530930e-01,1.459122e-01,3,0,7.959477e-01,7.959488e-01,1
5.935770e-01,1.538720e-01,1.480579e-01,3,0,1.171220e+00,1.171222e+00,1
5.858420e-01,1.607810e-01,1.540184e-01,3,0,2.095111e+00,2.095113e+00,1
5.866350e-01,2.978890e-01,2.911091e-01,3,1,2.860633e+00,2.861369e+00,1
5.916150e-01,2.626110e-01,2.570152e-01,3,1,2.261662e+00,2.261661e+00,1
5.915450e-01,2.923340e-01,2.858639e-01,3,1,4.440146e+00,4.485058e+00,1
5.922260e-01,4.119110e-01,4.060268e-01,3,2,6.600566e+00,6.600993e+00,1
5.923620e-01,3.937990e-01,3.879070e-01,3,2,4.619419e+00,4.627700e+00,1
5.915630e-01,1.804660e-01,1.728535e-01,3,0,4.519413e+00,4.533416e+00,1
5.919640e-01,1.805400e-01,1.730919e-01,3,0,4.825620e+00,4.826832e+00,1
5.917470e-01,5.404960e-01,5.328655e-01,3,3,3.942584e+00,3.947836e+00,1
5.916570e-01,3.713150e-01,3.650188e-01,3,2,3.620491e+00,3.620493e+00,1
5.863130e-01,1.538570e-01,1.478195e-01,3,0,3.049015e+00,3.049015e+00,1
5.854010e-01,1.591520e-01,1.530647e-01,3,0,1.822568e+00,1.822566e+00,1
5.904940e-01,1.534550e-01,1.459122e-01,3,0,1.641524e+00,1.641525e+00,1
5.915890e-01,1.533240e-01,1.461506e-01,3,0,6.546747e-01,6.546740e-01,1
5.917140e-01,1.526280e-01,1.468658e-01,3,0,5.160525e-01,5.160525e-01,1
5.861130e-01,1.532270e-01,1.471043e-01,3,0,2.761952e-01,2.761958e-01,1
5.903360e-01,1.529530e-01,1.468658e-01,3,0,6.147916e-01,6.147926e-01,1
5.913520e-01,1.527720e-01,1.468658e-01,3,0,4.114309e-01,4.114313e-01,1
5.907300e-01,1.536460e-01,1.480579e-01,3,0,5.949574e-01,5.949581e-01,1
5.859090e-01,1.535780e-01,1.471043e-01,3,0,7.371588e-01,7.371597e-01,1
5.856310e-01,1.537280e-01,1.468658e-01,3,0,6.336887e-01,6.336887e-01,1
5.910090e-01,1.539350e-01,1.461506e-01,3,0,1.295107e+00,1.295108e+00,1
5.910230e-01,1.525630e-01,1.461506e-01,3,0,8.561989e-01,8.561989e-01,1
5.857370e-01,1.537430e-01,1.478195e-01,3,0,9.604318e-01,9.604323e-01,1
5.857830e-01,1.583760e-01,1.511574e-01,3,0,1.028503e+00,1.028504e+00,1
5.908100e-01,1.533240e-01,1.468658e-01,3,0,1.287237e+00,1.287238e+00,1
5.911980e-01,1.535570e-01,1.480579e-01,3,0,1.181944e+00,1.181944e+00,1
5.853790e-01,1.530080e-01,1.459122e-01,3,0,2.034953e+00,2.034957e+00,1
5.853390e-01,1.581640e-01,1.521111e-01,3,0,3.922460e+00,3.922465e+00,1
5.856240e-01,6.270660e-01,6.179810e-01,3,1,5.583396e+00,6.307037e+00,0
5.918570e-01,5.329060e-01,5.240440e-01,3,1,5.945878e+00,7.529168e+00,0
5.867310e-01,2.920710e-01,2.851486e-01,3,1,4.459902e+00,4.464119e+00,1
5.918460e-01,7.223730e-01,7.140636e-01,3,2,5.594803e+00,5.684891e+00,0
5.932720e-01,2.622460e-01,2.539158e-01,3,1,3.194958e+00,3.194957e+00,1
5.863870e-01,1.565580e-01,1.490116e-01,3,0,2.610601e+00,2.610602e+00,1
5.862700e-01,1.603270e-01,1.540184e-01,3,0,2.376931e+00,2.376931e+00,1
5.915430e-01,1.540400e-01,1.471043e-01,3,0,1.835380e+00,1.835379e+00,1
5.919390e-01,1.532270e-01,1.459122e-01,3,0,1.839763e+00,1.839746e+00,1
5.911360e-01,1.535310e-01,1.459122e-01,3,0,8.891310e-01,8.891321e-01,1
5.857530e-01,1.538320e-01,1.480579e-01,3,0,8.648924e-01,8.648930e-01,1
5.917070e-01,1.534020e-01,1.480579e-01,3,0,8.281342e-01,8.281345e-01,1
5.918620e-01,1.542650e-01,1.471043e-01,3,0,8.760393e-01,8.760398e-01,1
5.905610e-01,1.544570e-01,1.471043e-01,3,0,7.986195e-01,7.986197e-01,1
5.854850e-01,1.536650e-01,1.459122e-01,3,0,6.860815e-01,6.860822e-01,1
5.915980e-01,1.537010e-01,1.461506e-01,3,0,1.818045e+00,1.818048e+00,1
5.917790e-01,1.538790e-01,1.459122e-01,3,0,3.494440e+00,3.494443e+00,1
5.922150e-01,2.876410e-01,2.810955e-01,3,1,2.799542e+00,2.799591e+00,1
5.925450e-01,2.631150e-01,2.570152e-01,3,1,1.778896e+00,1.778895e+00,1
5.855120e-01,1.529160e-01,1.461506e-01,3,0,1.564868e+00,1.564868e+00,1
5.855270e-01,1.598710e-01,1.537800e-01,3,0,1.515218e+00,1.515220e+00,1
5.911230e-01,1.532250e-01,1.451969e-01,3,0,1.883149e+00,1.883150e+00,1
5.923140e-01,4.090270e-01,4.019737e-01,3,2,4.532383e+00,4.539319e+00,1
5.913900e-01,3.706790e-01,3.640652e-01,3,2,3.429826e+00,3.429824e+00,1
5.918800e-01,1.539270e-01,1.459122e-01,3,0,2.110298e+00,2.110296e+00,1
5.858150e-01,1.540810e-01,1.480579e-01,3,0,1.914202e+00,1.914204e+00,1
5.857350e-01,1.599320e-01,1.530647e-01,3,0,1.793771e+00,1.793585e+00,1
7.846850e-01,1.540880e-01,1.478195e-01,4,0,1.829696e+00,1.829698e+00,1
5.911050e-01,1.544240e-01,1.478195e-01,3,0,4.307066e+00,4.307057e+00,1
5.857300e-01,7.476410e-01,7.381439e-01,3,2,5.559068e+00,5.784385e+00,0
5.864180e-01,5.106790e-01,5.009174e-01,3,0,6.977340e+00,8.192739e+00,0
5.914530e-01,5.091120e-01,5.011559e-01,3,0,7.209208e+00,9.341410e+00,0
5.884860e-01,2.899820e-01,2.830029e-01,3,1,5.405099e+00,5.404987e+00,1
5.857720e-01,4.008380e-01,3.941059e-01,3,2,4.277193e+00,4.277602e+00,1
5.867420e-01,2.669800e-01,2.601147e-01,3,1,4.048630e+00,4.048631e+00,1
5.911950e-01,1.538260e-01,1.456738e-01,3,0,2.608179e+00,2.608177e+00,1
5.914720e-01,2.522000e-01,2.450943e-01,3,1,4.656841e+00,4.656610e+00,1
7.862350e-01,2.482250e-01,2.419949e-01,4,1,4.547264e+00,4.545937e+00,1
5.919300e-01,1.533520e-01,1.456738e-01,3,0,2.995028e+00,2.995010e+00,1
5.913180e-01,1.542800e-01,1.478195e-01,3,0,4.334945e+00,4.334948e+00,1
5.857790e-01,2.902590e-01,2.830029e-01,3,1,4.588921e+00,4.588975e+00,1
5.859250e-01,2.677720e-01,2.620220e-01,3,1,2.284834e+00,2.284835e+00,1
5.912890e-01,1.545500e-01,1.480579e-01,3,0,1.728666e+00,1.728666e+00,1
5.918340e-01,1.543200e-01,1.480579e-01,3,0,1.571878e+00,1.571878e+00,1
5.911830e-01,1.535550e-01,1.456738e-01,3,0,1.670051e+00,1.670053e+00,1
5.853500e-01,1.539570e-01,1.480579e-01,3,0,1.905047e+00,1.905048e+00,1
5.861060e-01,1.605860e-01,1.528263e-01,3,0,1.615633e+00,1.615633e+00,1
5.927020e-01,1.542900e-01,1.480579e-01,3,0,1.660263e+00,1.660265e+00,1
5.912890e-01,1.537590e-01,1.456738e-01,3,0,1.690985e+00,1.690987e+00,1
5.853600e-01,1.531370e-01,1.471043e-01,3,0,6.730106e-01,6.730110e-01,1
5.854010e-01,1.600690e-01,1.537800e-01,3,0,1.202603e+00,1.202605e+00,1
5.909560e-01,1.545520e-01,1.478195e-01,3,0,1.467666e+00,1.467666e+00,1
5.908950e-01,1.541100e-01,1.480579e-01,3,0,6.696347e-01,6.696346e-01,1
5.855130e-01,1.537200e-01,1.456738e-01,3,0,7.180433e-01,7.180439e-01,1
5.854270e-01,1.585250e-01,1.530647e-01,3,0,7.875628e-01,7.875635e-01,1
5.909220e-01,1.542370e-01,1.478195e-01,3,0,1.229531e+00,1.229532e+00,1
5.915980e-01,1.535860e-01,1.480579e-01,3,0,8.106381e-01,8.106381e-01,1
5.916490e-01,1.534070e-01,1.468658e-01,3,0,1.122860e+00,1.122861e+00,1
5.862200e-01,1.533670e-01,1.461506e-01,3,0,1.124752e+00,1.124752e+00,1
5.915980e-01,1.533480e-01,1.471043e-01,3,0,1.105211e+00,1.105212e+00,1
5.913890e-01,1.534430e-01,1.459122e-01,3,0,5.521460e-01,5.521457e-01,1
5.920800e-01,1.539170e-01,1.480579e-01,3,0,4.214820e-01,4.214822e-01,1
5.853160e-01,1.539170e-01,1.468658e-01,3,0,6.952082e-01,6.952091e-01,1
5.859960e-01,1.523280e-01,1.461506e-01,3,0,3.698208e-01,3.698207e-01,1
5.912440e-01,1.534860e-01,1.459122e-01,3,0,2.351776e-01,2.351778e-01,1
5.916650e-01,1.534540e-01,1.461506e-01,3,0,4.704297e-01,4.704305e-01,1
5.858240e-01,1.532790e-01,1.456738e-01,3,0,7.509349e-01,7.509361e-01,1
5.861050e-01,1.600760e-01,1.540184e-01,3,0,1.077595e+00,1.077596e+00,1
5.914850e-01,1.537400e-01,1.471043e-01,3,0,3.870843e+00,3.870849e+00,1
5.921770e-01,2.894740e-01,2.839565e-01,3,1,2.086769e+00,2.102088e+00,1
5.916200e-01,1.804740e-01,1.740456e-01,3,0,2.286210e+00,2.354648e+00,1
5.854920e-01,1.803550e-01,1.730919e-01,3,0,2.067088e+00,2.072320e+00,1
5.863810e-01,2.689200e-01,2.617836e-01,3,1,1.457225e+00,1.457225e+00,1
5.911250e-01,1.541970e-01,1.480579e-01,3,0,2.231494e+00,2.231496e+00,1
5.920450e-01,2.860060e-01,2.789497e-01,3,1,3.659758e+00,3.662328e+00,1
5.934070e-01,5.051310e-01,4.992485e-01,3,0,6.848018e+00,9.070164e+00,0
1.176891e+00,2.634500e-01,2.570152e-01,6,1,3.809093e+00,3.808468e+00,1
5.856740e-01,1.547650e-01,1.480579e-01,3,0,2.755759e+00,2.755757e+00,1
5.916710e-01,1.542470e-01,1.471043e-01,3,0,2.584663e+00,2.584664e+00,1
5.929610e-01,1.537590e-01,1.471043e-01,3,0,2.058567e+00,2.058567e+00,1
5.916430e-01,1.538940e-01,1.480579e-01,3,0,2.809111e+00,2.809115e+00,1
5.863170e-01,1.531400e-01,1.459122e-01,3,0,1.355514e+00,1.355514e+00,1
5.865250e-01,1.541280e-01,1.461506e-01,3,0,1.684670e+00,1.684672e+00,1
5.911380e-01,1.538310e-01,1.480579e-01,3,0,2.025800e+00,2.025731e+00,1
5.912170e-01,1.536780e-01,1.459122e-01,3,0,1.663539e+00,1.663537e+00,1
5.854940e-01,1.537090e-01,1.471043e-01,3,0,7.731188e-01,7.731186e-01,1
5.853020e-01,1.587550e-01,1.530647e-01,3,0,1.217944e+00,1.217946e+00,1
5.909150e-01,1.539820e-01,1.471043e-01,3,0,1.224429e+00,1.224429e+00,1
5.924780e-01,2.905660e-01,2.830029e-01,3,1,9.791525e-01,1.007772e+00,1
5.919810e-01,3.287190e-01,3.230572e-01,3,1,1.131330e+00,1.135509e+00,1
5.930340e-01,4.094640e-01,4.029274e-01,3,2,9.637876e-01,9.637880e-01,1
5.915140e-01,1.540580e-01,1.480579e-01,3,0,8.931087e-01,8.931093e-01,1
5.859020e-01,1.539300e-01,1.456738e-01,3,0,9.314471e-01,9.314477e-01,1
5.918870e-01,1.549610e-01,1.487732e-01,3,0,4.968357e-01,4.968357e-01,1
5.924580e-01,1.540350e-01,1.468658e-01,3,0,1.022234e+00,1.022235e+00,1
5.916810e-01,1.543750e-01,1.471043e-01,3,0,1.521642e+00,1.521644e+00,1
5.857750e-01,1.540000e-01,1.471043e-01,3,0,1.831228e+00,1.831230e+00,1
5.867590e-01,2.959750e-01,2.899170e-01,3,1,1.424340e+00,1.427431e+00,1
5.885840e-01,5.374220e-01,5.300045e-01,3,3,1.876555e+00,1.888886e+00,1
5.881520e-01,2.945570e-01,2.882481e-01,3,1,1.634204e+00,1.640657e+00,1
5.862010e-01,2.685400e-01,2.610683e-01,3,1,1.791896e+00,1.791897e+00,1
5.945430e-01,2.920310e-01,2.861023e-01,3,1,1.594111e+00,1.595899e+00,1
5.917200e-01,2.618470e-01,2.551079e-01,3,1,9.675573e-01,9.675583e-01,1
5.922520e-01,1.535870e-01,1.471043e-01,3,0,1.473190e+00,1.473192e+00,1
5.906880e-01,1.549680e-01,1.480579e-01,3,0,1.964248e+00,1.964250e+00,1
5.865880e-01,1.552340e-01,1.490116e-01,3,0,3.810957e+00,3.810961e+00,1
5.916300e-01,1.540290e-01,1.478195e-01,3,0,2.300380e+00,2.300378e+00,1
5.916620e-01,1.541070e-01,1.480579e-01,3,0,2.682155e+00,2.682146e+00,1
5.920860e-01,1.538720e-01,1.461506e-01,3,0,1.934501e+00,1.934501e+00,1
5.861650e-01,2.912600e-01,2.849102e-01,3,1,1.603853e+00,1.603870e+00,1
5.861370e-01,2.688500e-01,2.610683e-01,3,1,1.854341e+00,1.854343e+00,1
5.861150e-01,1.537560e-01,1.480579e-01,3,0,1.991766e+00,1.991767e+00,1
5.929560e-01,2.924460e-01,2.858639e-01,3,1,2.072831e+00,2.072940e+00,1
5.919950e-01,1.804520e-01,1.728535e-01,3,0,2.636240e+00,2.636375e+00,1
5.919200e-01,2.627550e-01,2.546310e-01,3,1,2.665865e+00,2.665866e+00,1
5.857690e-01,1.539190e-01,1.480579e-01,3,0,3.006769e+00,3.006772e+00,1
5.857750e-01,1.586800e-01,1.509190e-01,3,0,2.461468e+00,2.461470e+00,1
5.910440e-01,2.526390e-01,2.458096e-01,3,1,3.420936e+00,3.420642e+00,1
7.843700e-01,2.465320e-01,2.400875e-01,4,1,1.327108e+00,1.327107e+00,1
5.916470e-01,1.536710e-01,1.480579e-01,3,0,1.346586e+00,1.346586e+00,1
5.909320e-01,1.542410e-01,1.471043e-01,3,0,9.150175e-01,9.150165e-01,1
5.853850e-01,1.536160e-01,1.468658e-01,3,0,5.487005e-01,5.486996e-01,1
5.857370e-01,1.593910e-01,1.521111e-01,3,0,1.646616e-01,1.646616e-01,1
5.904750e-01,1.533710e-01,1.468658e-01,3,0,2.655914e-01,2.655918e-01,1
5.907610e-01,1.536700e-01,1.471043e-01,3,0,2.602400e-01,2.602407e-01,1
5.850390e-01,1.531000e-01,1.456738e-01,3,0,1.873528e-01,1.873530e-01,1
5.854170e-01,1.589300e-01,1.511574e-01,3,0,1.227810e+00,1.227813e+00,1
5.912830e-01,1.541340e-01,1.468658e-01,3,0,2.345098e+00,2.345101e+00,1
5.915180e-01,1.536940e-01,1.461506e-01,3,0,1.026979e+00,1.026978e+00,1
5.904020e-01,1.537550e-01,1.468658e-01,3,0,1.020499e+00,1.020499e+00,1
5.860510e-01,1.540990e-01,1.471043e-01,3,0,9.453031e-01,9.453033e-01,1
5.905010e-01,1.533320e-01,1.459122e-01,3,0,9.110063e-01,9.110067e-01,1
5.914880e-01,1.540280e-01,1.471043e-01,3,0,1.374865e+00,1.374867e+00,1
5.918600e-01,1.536320e-01,1.471043e-01,3,0,8.145760e-01,8.145758e-01,1
5.850820e-01,1.531360e-01,1.459122e-01,3,0,9.989344e-01,9.989352e-01,1
5.911390e-01,1.534090e-01,1.461506e-01,3,0,1.462255e+00,1.462257e+00,1
5.916730e-01,1.537970e-01,1.480579e-01,3,0,4.656500e-01,4.656492e-01,1
5.924270e-01,1.532610e-01,1.471043e-01,3,0,9.227263e-01,9.227273e-01,1
5.854870e-01,1.536890e-01,1.456738e-01,3,0,7.097855e-01,7.097861e-01,1
5.855550e-01,1.598470e-01,1.521111e-01,3,0,5.686473e-01,5.686478e-01,1
5.907810e-01,1.535370e-01,1.471043e-01,3,0,1.460389e+00,1.460391e+00,1
5.916200e-01,1.533190e-01,1.461506e-01,3,0,1.380411e+00,1.380412e+00,1
5.863900e-01,1.540990e-01,1.461506e-01,3,0,1.050375e+00,1.050376e+00,1
5.854370e-01,1.589380e-01,1.518726e-01,3,0,1.057732e+00,1.057734e+00,1
5.907240e-01,1.540020e-01,1.461506e-01,3,0,1.453021e+00,1.453023e+00,1
5.916330e-01,1.536480e-01,1.478195e-01,3,0,8.815501e-01,8.815510e-01,1
5.859710e-01,1.536560e-01,1.471043e-01,3,0,7.618587e-01,7.618588e-01,1
5.859600e-01,1.589390e-01,1.521111e-01,3,0,6.536633e-01,6.536634e-01,1
5.919750e-01,1.535460e-01,1.459122e-01,3,0,8.157026e-01,8.157036e-01,1
5.916530e-01,1.539140e-01,1.471043e-01,3,0,1.052272e+00,1.052274e+00,1
5.918820e-01,1.540410e-01,1.480579e-01,3,0,1.649897e+00,1.649899e+00,1
5.858270e-01,1.543530e-01,1.466274e-01,3,0,2.404099e+00,2.404101e+00,1
5.913170e-01,1.533140e-01,1.471043e-01,3,0,2.021300e+00,2.021300e+00,1
5.915510e-01,1.538130e-01,1.468658e-01,3,0,1.688375e+00,1.688375e+00,1
5.923120e-01,1.536810e-01,1.480579e-01,3,0,1.523994e+00,1.523996e+00,1
5.998200e-01,1.535970e-01,1.471043e-01,3,0,7.995681e-01,7.995675e-01,1
5.858020e-01,1.614570e-01,1.528263e-01,3,0,7.362141e-01,7.362159e-01,1
5.917730e-01,1.530580e-01,1.471043e-01,3,0,5.975759e-01,5.975762e-01,1
5.911910e-01,1.538320e-01,1.466274e-01,3,0,8.259311e-01,8.259285e-01,1
5.851090e-01,1.534430e-01,1.471043e-01,3,0,5.097444e-01,5.097444e-01,1
5.854560e-01,1.593450e-01,1.528263e-01,3,0,5.476337e-01,5.476340e-01,1
5.903790e-01,1.534640e-01,1.471043e-01,3,0,3.007492e+00,3.007498e+00,1
5.924650e-01,1.537280e-01,1.471043e-01,3,0,4.509123e+00,4.509128e+00,1
5.858250e-01,1.537830e-01,1.480579e-01,3,0,4.006674e+00,4.006674e+00,1
5.865490e-01,2.979380e-01,2.899170e-01,3,1,4.740406e+00,4.745896e+00,1
5.856790e-01,3.143740e-01,3.080368e-01,3,1,4.838985e+00,4.839281e+00,1
5.870630e-01,2.963340e-01,2.899170e-01,3,1,5.092975e+00,5.093160e+00,1
5.862160e-01,5.623500e-01,5.559921e-01,3,3,6.269501e+00,6.273965e+00,1
5.923590e-01,5.933370e-01,5.869865e-01,3,4,4.821002e+00,4.821002e+00,1
5.856050e-01,2.899520e-01,2.839565e-01,3,1,4.302011e+00,4.305094e+00,1
5.853300e-01,1.845350e-01,1.730919e-01,3,0,3.926599e+00,3.929847e+00,1
5.861270e-01,2.676880e-01,2.620220e-01,3,1,3.618620e+00,3.618569e+00,1
5.855760e-01,4.118630e-01,4.038811e-01,3,2,3.566838e+00,3.575124e+00,1
7.786120e-01,5.141110e-01,5.071163e-01,4,3,1.451693e+00,1.447708e+00,1
5.925910e-01,7.274750e-01,7.200241e-01,3,5,3.710283e+00,3.709511e+00,1
1.199732e+00,4.783170e-01,4.720688e-01,6,3,2.368820e+00,2.360397e+00,1
7.849100e-01,2.486020e-01,2.419949e-01,4,1,1.334049e+00,1.334048e+00,1
5.858500e-01,1.542620e-01,1.459122e-01,3,0,2.350285e+00,2.350287e+00,1
5.855530e-01,1.585040e-01,1.521111e-01,3,0,1.383258e+00,1.383259e+00,1
5.913990e-01,1.536130e-01,1.480579e-01,3,0,2.607217e+00,2.607221e+00,1
5.911970e-01,1.544960e-01,1.480579e-01,3,0,4.734117e+00,4.734123e+00,1
5.855740e-01,1.547020e-01,1.490116e-01,3,0,4.122275e+00,4.122275e+00,1
5.933870e-01,8.005220e-01,7.941723e-01,3,5,6.370785e+00,6.413369e+00,1
5.865460e-01,7.501570e-01,7.429123e-01,3,5,5.541745e+00,5.577999e+00,1
5.907160e-01,2.910450e-01,2.841949e-01,3,1,4.961582e+00,4.969007e+00,1
5.873150e-01,4.400960e-01,4.327297e-01,3,2,5.640375e+00,5.645800e+00,1
5.893240e-01,4.875430e-01,4.801750e-01,3,3,4.441824e+00,4.441824e+00,1
5.911700e-01,1.543530e-01,1.478195e-01,3,0,3.736362e+00,3.736362e+00,1
5.918210e-01,1.542600e-01,1.471043e-01,3,0,3.122866e+00,3.122867e+00,1
5.938190e-01,1.534200e-01,1.461506e-01,3,0,2.615494e+00,2.615494e+00,1
5.862600e-01,3.048260e-01,2.980232e-01,3,1,2.845767e+00,2.845771e+00,1
7.839960e-01,2.695440e-01,2.622604e-01,4,1,2.356699e+00,2.356699e+00,1
5.871400e-01,2.900950e-01,2.839565e-01,3,1,3.021045e+00,3.026000e+00,1
5.854840e-01,2.686370e-01,2.610683e-01,3,1,1.736015e+00,1.736011e+00,1
6.036450e-01,1.534550e-01,1.471043e-01,3,0,1.350791e+00,1.350791e+00,1
5.927460e-01,1.545910e-01,1.480579e-01,3,0,8.311029e-01,8.311031e-01,1
5.917320e-01,1.537530e-01,1.480579e-01,3,0,7.744173e-01,7.744176e-01,1
5.851270e-01,1.541100e-01,1.461506e-01,3,0,8.473077e-01,8.473083e-01,1
5.852810e-01,1.591720e-01,1.518726e-01,3,0,6.161865e-01,6.161865e-01,1
5.934330e-01,1.537370e-01,1.461506e-01,3,0,9.425009e-01,9.425018e-01,1
5.914090e-01,1.533950e-01,1.480579e-01,3,0,8.178786e-01,8.178808e-01,1
5.856230e-01,1.536170e-01,1.480579e-01,3,0,1.018915e+00,1.018916e+00,1
5.856040e-01,1.595690e-01,1.530647e-01,3,0,1.704705e+00,1.704707e+00,1
5.903380e-01,1.540510e-01,1.468658e-01,3,0,3.415699e+00,3.415703e+00,1
5.873790e-01,6.706680e-01,6.639957e-01,3,4,6.226826e+00,6.257915e+00,1
5.865490e-01,5.127670e-01,5.049706e-01,3,3,4.377644e+00,4.377660e+00,1
5.864470e-01,2.689380e-01,2.620220e-01,3,1,3.942525e+00,3.942525e+00,1
5.867500e-01,2.888590e-01,2.830029e-01,3,1,3.435115e+00,3.435146e+00,1
5.918380e-01,2.641190e-01,2.582073e-01,3,1,3.232145e+00,3.232147e+00,1
5.911710e-01,1.538700e-01,1.468658e-01,3,0,2.782706e+00,2.782705e+00,1
5.866650e-01,7.842690e-01,7.779598e-01,3,5,4.566988e+00,4.672487e+00,1
1.171844e+00,4.871220e-01,4.808903e-01,6,3,2.637444e+00,2.636508e+00,1
5.920610e-01,1.541850e-01,1.471043e-01,3,0,1.464058e+00,1.464038e+00,1
5.851800e-01,1.539900e-01,1.480579e-01,3,0,1.611921e+00,1.611926e+00,1
5.855370e-01,1.590030e-01,1.530647e-01,3,0,8.331403e-01,8.331397e-01,1
5.909790e-01,1.536540e-01,1.461506e-01,3,0,4.823624e-01,4.823623e-01,1
5.911790e-01,1.537520e-01,1.461506e-01,3,0,5.251598e-01,5.251601e-01,1
5.849870e-01,1.535560e-01,1.471043e-01,3,0,5.128605e-01,5.128610e-01,1
5.859510e-01,1.593520e-01,1.521111e-01,3,0,1.090360e+00,1.090362e+00,1
5.904800e-01,1.534420e-01,1.471043e-01,3,0,4.677219e-01,4.677219e-01,1
5.913930e-01,1.543400e-01,1.480579e-01,3,0,2.166708e+00,2.166712e+00,1
5.855740e-01,1.539320e-01,1.480579e-01,3,0,4.368946e+00,4.368951e+00,1
5.854630e-01,1.582870e-01,1.509190e-01,3,0,3.418256e+00,3.418256e+00,1
5.917470e-01,1.540730e-01,1.480579e-01,3,0,2.919544e+00,2.919544e+00,1
5.921290e-01,2.914730e-01,2.849102e-01,3,1,2.536008e+00,2.536011e+00,1
5.915410e-01,1.800970e-01,1.718998e-01,3,0,2.513759e+00,2.526398e+00,1
5.905810e-01,4.161540e-01,4.091263e-01,3,2,1.783635e+00,1.790834e+00,1
5.855230e-01,1.805770e-01,1.730919e-01,3,0,1.773004e+00,1.817200e+00,1
5.909550e-01,4.215460e-01,4.138947e-01,3,2,2.718745e+00,2.722328e+00,1
5.914700e-01,4.207460e-01,4.138947e-01,3,2,4.617018e+00,4.625797e+00,1
7.842000e-01,3.987630e-01,3.921986e-01,4,2,3.252400e+00,3.261174e+00,1
5.914700e-01,2.625110e-01,2.560616e-01,3,1,1.405382e+00,1.405380e+00,1
5.856040e-01,1.545130e-01,1.490116e-01,3,0,1.230535e+00,1.230536e+00,1
5.853730e-01,1.600580e-01,1.540184e-01,3,0,1.896515e+00,1.896517e+00,1
5.911910e-01,1.534170e-01,1.459122e-01,3,0,2.688417e+00,2.688419e+00,1
5.919800e-01,1.544760e-01,1.480579e-01,3,0,3.923729e+00,3.923733e+00,1
5.928330e-01,4.159620e-01,4.088879e-01,3,2,6.423500e+00,6.430172e+00,1
5.933000e-01,2.899190e-01,2.820492e-01,3,1,6.212171e+00,6.219759e+00,1
5.859520e-01,2.632700e-01,2.570152e-01,3,1,5.473373e+00,5.473373e+00,1
5.932110e-01,6.788450e-01,6.670952e-01,3,4,5.927226e+00,5.938824e+00,1
5.918360e-01,6.352470e-01,6.289482e-01,3,4,4.895200e+00,4.908408e+00,1
5.922010e-01,4.186990e-01,4.117489e-01,3,2,4.238363e+00,4.268534e+00,1
5.915730e-01,2.902810e-01,2.830029e-01,3,1,4.535629e+00,4.535847e+00,1
5.908540e-01,2.635440e-01,2.570152e-01,3,1,4.161542e+00,4.161542e+00,1
5.916910e-01,5.077430e-01,5.009174e-01,3,3,4.221127e+00,4.222275e+00,1
7.842330e-01,4.636950e-01,4.568100e-01,4,3,2.827363e+00,2.827363e+00,1
5.917460e-01,1.538440e-01,1.480579e-01,3,0,2.190281e+00,2.190282e+00,1
5.923150e-01,1.544390e-01,1.468658e-01,3,0,2.599113e+00,2.599115e+00,1
5.914340e-01,4.183070e-01,4.119873e-01,3,2,3.119947e+00,3.121515e+00,1
5.916660e-01,3.077400e-01,3.008842e-01,3,1,3.660878e+00,3.699008e+00,1
5.910150e-01,4.164450e-01,4.088879e-01,3,2,4.419128e+00,4.504200e+00,1
5.895440e-01,9.792530e-01,9.691715e-01,3,4,7.963125e+00,9.982224e+00,0
1.171458e+00,5.049510e-01,4.949570e-01,6,0,1.039665e+01,1.181420e+01,0
1.174096e+00,5.076080e-01,4.980564e-01,6,0,9.244243e+00,7.975982e+00,0
7.864710e-01,1.166517e+00,1.153231e+00,4,6,9.160944e+00,9.374312e+00,0
5.922240e-01,2.648600e-01,2.579689e-01,3,1,7.310976e+00,7.310968e+00,1
5.866940e-01,2.924760e-01,2.861023e-01,3,1,6.549812e+00,6.550005e+00,1
5.862910e-01,4.065230e-01,4.000664e-01,3,2,6.042098e+00,6.042105e+00,1
5.920590e-01,5.266840e-01,5.209446e-01,3,3,5.415862e+00,5.418054e+00,1
5.925940e-01,6.345080e-01,6.279945e-01,3,4,4.803555e+00,4.814054e+00,1
5.917950e-01,3.726590e-01,3.659725e-01,3,2,3.390772e+00,3.390770e+00,1
5.914660e-01,1.544390e-01,1.480579e-01,3,0,2.074118e+00,2.074117e+00,1
5.858990e-01,1.534030e-01,1.480579e-01,3,0,1.045055e+00,1.045054e+00,1
5.862280e-01,1.590710e-01,1.528263e-01,3,0,8.680446e-01,8.680446e-01,1
5.904500e-01,1.543210e-01,1.480579e-01,3,0,5.438716e-01,5.438722e-01,1
5.916020e-01,1.531190e-01,1.468658e-01,3,0,5.542928e-01,5.542932e-01,1
5.859610e-01,1.530670e-01,1.449585e-01,3,0,5.229937e-01,5.229940e-01,1
5.858840e-01,1.588150e-01,1.521111e-01,3,0,7.688209e-01,7.688229e-01,1
5.911610e-01,1.533030e-01,1.471043e-01,3,0,6.297141e-01,6.297144e-01,1
5.909150e-01,1.537330e-01,1.480579e-01,3,0,5.842534e-01,5.842538e-01,1
5.905090e-01,1.535190e-01,1.459122e-01,3,0,8.946517e-01,8.946526e-01,1
5.851990e-01,1.533810e-01,1.471043e-01,3,0,8.139985e-01,8.139987e-01,1
5.906230e-01,1.539510e-01,1.471043e-01,3,0,1.210609e+00,1.210610e+00,1
5.924430e-01,1.539910e-01,1.478195e-01,3,0,1.231439e+00,1.231440e+00,1
5.910850e-01,1.530080e-01,1.459122e-01,3,0,1.410576e+00,1.410577e+00,1
5.923180e-01,4.200000e-01,4.138947e-01,3,2,2.825981e+00,2.828216e+00,1
5.917600e-01,6.362510e-01,6.289482e-01,3,4,2.697301e+00,2.707646e+00,1
5.911450e-01,1.796850e-01,1.716614e-01,3,0,2.103818e+00,2.118252e+00,1
5.916460e-01,5.621010e-01,5.559921e-01,3,3,2.264664e+00,2.322040e+00,1
5.931580e-01,2.905070e-01,2.832413e-01,3,1,2.830007e+00,2.905580e+00,1
5.912310e-01,2.624430e-01,2.570152e-01,3,1,1.207329e+00,1.207325e+00,1
5.912660e-01,3.415230e-01,3.349781e-01,3,2,2.286513e+00,2.286041e+00,1
9.788660e-01,2.453040e-01,2.381802e-01,5,1,4.662767e+00,4.661138e+00,1
7.862110e-01,5.105390e-01,5.040169e-01,4,3,6.094767e+00,6.122305e+00,1
5.922060e-01,2.899670e-01,2.827644e-01,3,1,6.133417e+00,6.153846e+00,1
5.931280e-01,1.036464e+00,1.030207e+00,3,7,8.518251e+00,8.688822e+00,1
5.946460e-01,3.979910e-01,3.910065e-01,3,2,7.066295e+00,7.150471e+00,1
5.923110e-01,7.926050e-01,7.860661e-01,3,5,8.195928e+00,8.334760e+00,1
5.931440e-01,1.125674e+00,1.118898e+00,3,8,6.866191e+00,6.987007e+00,1
5.873370e-01,8.941500e-01,8.881092e-01,3,6,5.931138e+00,6.052807e+00,1
5.884720e-01,5.142860e-01,5.080700e-01,3,3,4.938519e+00,4.947107e+00,1
5.916270e-01,5.365810e-01,5.300045e-01,3,3,5.083375e+00,5.139365e+00,1
9.787190e-01,7.504070e-01,7.431507e-01,5,5,5.262956e+00,5.342441e+00,1
1.174373e+00,7.196040e-01,7.097721e-01,6,2,8.925699e+00,1.116978e+01,0
1.171689e+00,5.037560e-01,4.942417e-01,6,0,1.177521e+01,1.639822e+01,0
1.178032e+00,4.994000e-01,4.901886e-01,6,0,8.622182e+00,9.559185e+00,0
7.858080e-01,4.951500e-01,4.856586e-01,4,0,8.982224e+00,1.005266e+01,0
7.894410e-01,1.300946e+00,1.292229e+00,4,7,8.566032e+00,9.637837e+00,0
7.915680e-01,7.438940e-01,7.371902e-01,4,5,7.164869e+00,7.165462e+00,1
5.920130e-01,3.715180e-01,3.650188e-01,3,2,5.780064e+00,5.780058e+00,1
5.851720e-01,1.540800e-01,1.471043e-01,3,0,4.758105e+00,4.758092e+00,1
5.911030e-01,5.355860e-01,5.280972e-01,3,3,5.345575e+00,5.347248e+00,1
1.173314e+00,1.070826e+00,1.060963e+00,6,5,8.302015e+00,1.244127e+01,0
7.868760e-01,4.861420e-01,4.768372e-01,4,0,6.817667e+00,7.424367e+00,0
1.176966e+00,1.530244e+00,1.522064e+00,6,12,5.823193e+00,5.812625e+00,1
1.172340e+00,8.622820e-01,8.559227e-01,6,6,6.835936e+00,6.825532e+00,1
9.777250e-01,2.907870e-01,2.841949e-01,5,1,7.523131e+00,7.504732e+00,1
7.804350e-01,5.341760e-01,5.269051e-01,4,3,7.299563e+00,7.304786e+00,1
5.868270e-01,1.178599e+00,1.171112e+00,3,8,1.045550e+01,1.064936e+01,1
5.944620e-01,1.114248e+00,1.106977e+00,3,8,1.116575e+01,1.153461e+01,1
5.945490e-01,1.227100e+00,1.219988e+00,3,9,8.614214e+00,8.765339e+00,1
5.926670e-01,5.081760e-01,5.011559e-01,3,3,7.860536e+00,8.013945e+00,1
5.867120e-01,7.980030e-01,7.898808e-01,3,5,6.890700e+00,7.064493e+00,1
5.870970e-01,1.129637e+00,1.121759e+00,3,8,6.116861e+00,6.301346e+00,1
5.957410e-01,8.470500e-01,8.401871e-01,3,6,5.211365e+00,5.388613e+00,1
5.894130e-01,1.096918e+00,1.088858e+00,3,5,5.230738e+00,5.660445e+00,0
5.854910e-01,5.139560e-01,5.047321e-01,3,0,5.742555e+00,8.200483e+00,0
1.171307e+00,8.388180e-01,8.287430e-01,6,3,5.516052e+00,7.042557e+00,0
7.871720e-01,7.458670e-01,7.390976e-01,4,5,3.976040e+00,3.979371e+00,1
9.777160e-01,2.907960e-01,2.839565e-01,5,1,4.751793e+00,4.751287e+00,1
5.862040e-01,4.165790e-01,4.091263e-01,3,2,3.634192e+00,3.633375e+00,1
5.906890e-01,1.553490e-01,1.480579e-01,3,0,2.718805e+00,2.718780e+00,1
5.913640e-01,1.553530e-01,1.490116e-01,3,0,2.548998e+00,2.548999e+00,1
5.918030e-01,1.542350e-01,1.471043e-01,3,0,2.477300e+00,2.477301e+00,1
5.860560e-01,1.539120e-01,1.480579e-01,3,0,2.217437e+00,2.217436e+00,1
5.857080e-01,1.605870e-01,1.537800e-01,3,0,1.525507e+00,1.525503e+00,1
5.906920e-01,1.550800e-01,1.490116e-01,3,0,1.262947e+00,1.262950e+00,1
5.904230e-01,1.541380e-01,1.471043e-01,3,0,8.374710e-01,8.374705e-01,1
5.852450e-01,1.545300e-01,1.466274e-01,3,0,4.179483e-01,4.179486e-01,1
5.852060e-01,1.602250e-01,1.540184e-01,3,0,6.047123e-01,6.047132e-01,1
5.901950e-01,1.547500e-01,1.480579e-01,3,0,2.055369e-01,2.055368e-01,1
5.915490e-01,1.541250e-01,1.478195e-01,3,0,2.740115e-01,2.740119e-01,1
5.857680e-01,1.550710e-01,1.471043e-01,3,0,2.353620e-01,2.353622e-01,1
5.852610e-01,1.597360e-01,1.530647e-01,3,0,3.204562e-01,3.204565e-01,1
5.906910e-01,1.540750e-01,1.480579e-01,3,0,5.166400e-01,5.166407e-01,1
5.909990e-01,1.532650e-01,1.461506e-01,3,0,2.631237e-01,2.631241e-01,1
5.913350e-01,1.538320e-01,1.456738e-01,3,0,3.736571e-01,3.736581e-01,1
5.854850e-01,1.552130e-01,1.490116e-01,3,0,1.453709e+00,1.453711e+00,1
5.912190e-01,1.543100e-01,1.480579e-01,3,0,2.363069e+00,2.363071e+00,1
5.910510e-01,1.539360e-01,1.480579e-01,3,0,1.536262e+00,1.536262e+00,1
5.917950e-01,1.538240e-01,1.471043e-01,3,0,1.781912e+00,1.781913e+00,1
5.872450e-01,2.920500e-01,2.849102e-01,3,1,1.829140e+00,1.855843e+00,1
5.858940e-01,2.705970e-01,2.629757e-01,3,1,1.575521e+00,1.575522e+00,1
5.861440e-01,1.611040e-01,1.549721e-01,3,0,1.623433e+00,1.623434e+00,1
5.913260e-01,1.545370e-01,1.471043e-01,3,0,1.372507e+00,1.372507e+00,1
5.916140e-01,1.542680e-01,1.478195e-01,3,0,1.273452e+00,1.273453e+00,1
5.855190e-01,1.539820e-01,1.461506e-01,3,0,9.958104e-01,9.958106e-01,1
5.851830e-01,1.593650e-01,1.530647e-01,3,0,9.448993e-01,9.448999e-01,1
5.910950e-01,1.554850e-01,1.502037e-01,3,0,8.725016e-01,8.725018e-01,1
5.912930e-01,1.559580e-01,1.490116e-01,3,0,8.839837e-01,8.839842e-01,1
5.856990e-01,1.549020e-01,1.490116e-01,3,0,1.876464e+00,1.876467e+00,1
5.862060e-01,1.588990e-01,1.521111e-01,3,0,8.835577e-01,8.835567e-01,1
5.913220e-01,1.537750e-01,1.478195e-01,3,0,4.196749e-01,4.196748e-01,1
5.919080e-01,1.538580e-01,1.461506e-01,3,0,7.801508e-01,7.801519e-01,1
5.909980e-01,1.542770e-01,1.480579e-01,3,0,1.288590e+00,1.288591e+00,1
5.856590e-01,1.539370e-01,1.478195e-01,3,0,3.878799e-01,3.878793e-01,1
5.905680e-01,1.530460e-01,1.461506e-01,3,0,3.889592e-01,3.889598e-01,1
5.911370e-01,1.536530e-01,1.468658e-01,3,0,5.094150e-01,5.094154e-01,1
5.928110e-01,2.926520e-01,2.870560e-01,3,1,1.780941e+00,1.781059e+00,1
5.917490e-01,3.964430e-01,3.900528e-01,3,2,2.518309e+00,2.522056e+00,1
5.908080e-01,2.632970e-01,2.560616e-01,3,1,1.151268e+00,1.151267e+00,1
5.851430e-01,1.545260e-01,1.471043e-01,3,0,1.320060e+00,1.320061e+00,1
5.859300e-01,2.987640e-01,2.908707e-01,3,1,1.440597e+00,1.440963e+00,1
5.851970e-01,2.691530e-01,2.620220e-01,3,1,1.463467e+00,1.463467e+00,1
5.908990e-01,1.547000e-01,1.478195e-01,3,0,1.149248e+00,1.149248e+00,1
5.958130e-01,2.898200e-01,2.830029e-01,3,1,1.488787e+00,1.506524e+00,1
5.917000e-01,1.805560e-01,1.740456e-01,3,0,2.245406e+00,2.252407e+00,1
5.853110e-01,2.632030e-01,2.570152e-01,3,1,1.816180e+00,1.816181e+00,1
5.859830e-01,1.605100e-01,1.540184e-01,3,0,2.178349e+00,2.178350e+00,1
5.906260e-01,1.546130e-01,1.478195e-01,3,0,1.984817e+00,1.984819e+00,1
5.917690e-01,1.546170e-01,1.480579e-01,3,0,3.312950e+00,3.312955e+00,1
5.899760e-01,1.542970e-01,1.471043e-01,3,0,2.676505e+00,2.676505e+00,1
5.852840e-01,1.532970e-01,1.459122e-01,3,0,1.435258e+00,1.435257e+00,1
5.902830e-01,1.543380e-01,1.480579e-01,3,0,1.266169e+00,1.266169e+00,1
5.914420e-01,1.539560e-01,1.471043e-01,3,0,1.969122e+00,1.969105e+00,1
5.909020e-01,1.539590e-01,1.471043e-01,3,0,1.495003e+00,1.495003e+00,1
5.856550e-01,1.540540e-01,1.478195e-01,3,0,1.206993e+00,1.206993e+00,1
5.860370e-01,1.608440e-01,1.530647e-01,3,0,1.469519e+00,1.469520e+00,1
5.902460e-01,1.557460e-01,1.490116e-01,3,0,1.434283e+00,1.434284e+00,1
5.912460e-01,1.557220e-01,1.490116e-01,3,0,8.422113e-01,8.422117e-01,1
5.855850e-01,1.548540e-01,1.490116e-01,3,0,9.586141e-01,9.586147e-01,1
5.856670e-01,1.596750e-01,1.530647e-01,3,0,1.262219e+00,1.262221e+00,1
5.910010e-01,1.540850e-01,1.480579e-01,3,0,1.368494e+00,1.368494e+00,1
5.901890e-01,1.539910e-01,1.480579e-01,3,0,1.603437e+00,1.603438e+00,1
5.845000e-01,1.553020e-01,1.480579e-01,3,0,1.380546e+00,1.380547e+00,1
5.853990e-01,1.609460e-01,1.540184e-01,3,0,1.069201e+00,1.069201e+00,1
5.903870e-01,1.542590e-01,1.478195e-01,3,0,2.358815e+00,2.358819e+00,1
5.911360e-01,1.542880e-01,1.480579e-01,3,0,2.169761e+00,2.169761e+00,1
5.901660e-01,1.536200e-01,1.478195e-01,3,0,2.201115e+00,2.201116e+00,1
5.848870e-01,1.545730e-01,1.480579e-01,3,0,8.226050e-01,8.226037e-01,1
5.852720e-01,2.947200e-01,2.889633e-01,3,1,1.315218e+00,1.325809e+00,1
5.877280e-01,4.056880e-01,3.988743e-01,3,2,1.055244e+00,1.055250e+00,1
5.910310e-01,2.632060e-01,2.560616e-01,3,1,9.379342e-01,9.379347e-01,1
5.912690e-01,1.541540e-01,1.461506e-01,3,0,1.178123e+00,1.178124e+00,1
5.913200e-01,1.536380e-01,1.459122e-01,3,0,1.633464e+00,1.633465e+00,1
5.858270e-01,1.551650e-01,1.471043e-01,3,0,1.141562e+00,1.141562e+00,1
5.857190e-01,1.593750e-01,1.530647e-01,3,0,6.587892e-01,6.587893e-01,1
5.905280e-01,1.546210e-01,1.478195e-01,3,0,8.084183e-01,8.084193e-01,1
5.917320e-01,1.545160e-01,1.480579e-01,3,0,1.022986e+00,1.022986e+00,1
5.856430e-01,1.537120e-01,1.461506e-01,3,0,8.265611e-01,8.265614e-01,1
5.852170e-01,1.597130e-01,1.528263e-01,3,0,9.345854e-01,9.345863e-01,1
5.911910e-01,1.542940e-01,1.480579e-01,3,0,1.028290e+00,1.028291e+00,1
5.907130e-01,1.537800e-01,1.456738e-01,3,0,4.339697e-01,4.339695e-01,1
5.850750e-01,1.541820e-01,1.480579e-01,3,0,2.985038e-01,2.985041e-01,1
5.853540e-01,1.587670e-01,1.518726e-01,3,0,4.313239e-01,4.313244e-01,1
5.905410e-01,1.532220e-01,1.461506e-01,3,0,4.501125e-01,4.501127e-01,1
5.916140e-01,1.540610e-01,1.480579e-01,3,0,1.530881e+00,1.530883e+00,1
5.904710e-01,1.543100e-01,1.471043e-01,3,0,1.514522e+00,1.514522e+00,1
5.857800e-01,1.546540e-01,1.466274e-01,3,0,2.157247e+00,2.157249e+00,1
5.903770e-01,1.538350e-01,1.480579e-01,3,0,1.943348e+00,1.943348e+00,1
5.910890e-01,1.546740e-01,1.480579e-01,3,0,1.880604e+00,1.880605e+00,1
5.911250e-01,1.543970e-01,1.490116e-01,3,0,1.470260e+00,1.470261e+00,1
5.854470e-01,1.545550e-01,1.480579e-01,3,0,1.456028e+00,1.456029e+00,1
5.851310e-01,1.597620e-01,1.530647e-01,3,0,8.792379e-01,8.792378e-01,1
5.912240e-01,1.538820e-01,1.480579e-01,3,0,9.004812e-01,9.004817e-01,1
5.910500e-01,1.542090e-01,1.471043e-01,3,0,4.641308e-01,4.641306e-01,1
5.856410e-01,1.546170e-01,1.487732e-01,3,0,4.928346e-01,4.928351e-01,1
5.852860e-01,1.598800e-01,1.521111e-01,3,0,2.298458e+00,2.298462e+00,1
5.916810e-01,2.918330e-01,2.846718e-01,3,1,4.978486e+00,4.978710e+00,1
5.923290e-01,4.015930e-01,3.941059e-01,3,2,4.424648e+00,4.436068e+00,1
5.910080e-01,2.648170e-01,2.579689e-01,3,1,3.991261e+00,3.991262e+00,1
5.913940e-01,2.924060e-01,2.868176e-01,3,1,3.514221e+00,3.525334e+00,1
5.953790e-01,3.093990e-01,3.018379e-01,3,1,3.742675e+00,3.805998e+00,1
5.913380e-01,2.899290e-01,2.830029e-01,3,1,2.738312e+00,2.750558e+00,1
5.913340e-01,3.095110e-01,3.030300e-01,3,1,2.628049e+00,2.645526e+00,1
5.930400e-01,4.377360e-01,4.308224e-01,3,2,1.562734e+00,1.570750e+00,1

