5.997790e-01,5.272970e-01,2,2,0.000000e+00,0.000000e+00
8.559220e-01,8.082250e-01,3,3,7.539545e-02,7.539544e-02
8.564260e-01,7.857970e-01,3,3,1.376321e-01,1.376320e-01
8.505840e-01,7.853970e-01,3,3,2.934707e-01,2.934706e-01
8.563870e-01,7.886230e-01,3,3,2.694861e-01,2.694861e-01
8.556670e-01,7.856820e-01,3,3,1.254802e+00,1.254801e+00
8.509330e-01,7.934580e-01,3,3,1.756505e+00,1.756504e+00
8.580980e-01,7.857850e-01,3,3,2.310508e+00,2.310508e+00
8.572780e-01,7.856860e-01,3,3,1.130837e+00,1.130837e+00
8.509370e-01,7.870540e-01,3,3,1.001612e+00,1.001612e+00
8.563900e-01,7.854640e-01,3,3,8.336068e-01,8.336068e-01
8.562900e-01,7.802400e-01,3,3,9.629342e-01,9.629340e-01
8.555900e-01,7.861960e-01,3,3,1.587834e+00,1.587833e+00
8.560570e-01,7.856760e-01,3,3,2.162954e+00,2.162953e+00
8.576840e-01,7.807210e-01,3,3,1.981320e+00,1.981320e+00
8.567500e-01,7.862870e-01,3,3,2.764890e+00,2.764889e+00
8.571080e-01,7.869810e-01,3,3,2.160226e+00,2.160226e+00
8.568220e-01,7.800000e-01,3,3,1.888243e+00,1.888242e+00
8.574410e-01,7.857640e-01,3,3,1.808789e+00,1.808789e+00
8.562080e-01,7.856780e-01,3,3,1.714912e+00,1.714912e+00
8.511070e-01,7.861460e-01,3,3,1.786460e+00,1.786460e+00
8.567470e-01,7.867270e-01,3,3,1.489483e+00,1.489483e+00
8.557650e-01,7.864070e-01,3,3,1.350344e+00,1.350343e+00
8.510650e-01,7.845380e-01,3,3,1.181708e+00,1.181708e+00
8.557510e-01,7.861690e-01,3,3,1.163048e+00,1.163048e+00
8.563430e-01,7.851490e-01,3,3,1.122189e+00,1.122189e+00
8.502180e-01,7.856190e-01,3,3,9.327395e-01,9.327395e-01
8.561150e-01,7.841940e-01,3,3,6.697031e-01,6.697031e-01
8.570140e-01,7.811530e-01,3,3,3.317620e-01,3.317618e-01
8.553710e-01,7.845260e-01,3,3,2.847486e-01,2.847486e-01
8.553750e-01,7.849520e-01,3,3,5.746734e-01,5.746733e-01
8.563790e-01,7.801140e-01,3,3,6.785120e-01,6.785118e-01
8.552020e-01,7.857100e-01,3,3,5.886633e-01,5.886632e-01
8.554910e-01,7.853440e-01,3,3,9.046022e-01,9.046020e-01
8.551000e-01,7.811010e-01,3,3,7.425771e-01,7.425771e-01
8.561950e-01,7.861510e-01,3,3,5.507321e-01,5.507322e-01
8.573200e-01,7.850210e-01,3,3,4.051342e-01,4.051341e-01
8.499960e-01,7.854400e-01,3,3,3.321687e-01,3.321687e-01
8.563030e-01,7.851520e-01,3,3,8.440177e-01,8.440175e-01
8.560820e-01,7.852260e-01,3,3,9.345924e-01,9.345924e-01
8.510820e-01,7.971060e-01,3,3,2.113311e+00,2.113310e+00
8.579080e-01,7.868720e-01,3,3,2.895594e+00,2.895593e+00
8.563430e-01,7.854740e-01,3,3,1.840142e+00,1.840143e+00
8.508640e-01,7.859370e-01,3,3,2.783683e+00,2.783682e+00
8.558840e-01,7.867640e-01,3,3,2.225772e+00,2.225772e+00
8.561420e-01,7.805210e-01,3,3,1.795047e+00,1.795047e+00
8.556820e-01,7.858170e-01,3,3,1.612535e+00,1.612535e+00
8.574090e-01,7.861940e-01,3,3,1.344273e+00,1.344273e+00
8.576950e-01,7.806080e-01,3,3,1.081679e+00,1.081679e+00
8.562730e-01,7.856090e-01,3,3,6.877546e-01,6.877546e-01
8.559930e-01,7.864690e-01,3,3,6.110293e-01,6.110292e-01
8.555420e-01,7.800280e-01,3,3,9.854031e-01,9.854028e-01
8.555100e-01,7.853960e-01,3,3,7.250155e-01,7.250155e-01
8.569860e-01,7.854960e-01,3,3,6.194853e-01,6.194853e-01
8.502390e-01,7.854090e-01,3,3,8.206624e-01,8.206622e-01
8.573340e-01,7.853370e-01,3,3,1.122914e+00,1.122914e+00
8.565450e-01,7.863820e-01,3,3,6.142229e-01,6.142230e-01
8.503630e-01,7.862600e-01,3,3,9.369085e-01,9.369084e-01
8.547740e-01,7.852960e-01,3,3,1.314886e+00,1.314886e+00
8.560470e-01,7.850300e-01,3,3,1.969159e+00,1.969158e+00
8.518500e-01,7.869460e-01,3,3,8.898526e-01,8.898524e-01
8.556610e-01,7.859520e-01,3,3,1.910652e+00,1.910651e+00
8.566480e-01,7.802770e-01,3,3,3.606268e+00,3.606266e+00
8.557240e-01,7.859540e-01,3,3,1.975417e+00,1.975418e+00
8.567070e-01,7.859610e-01,3,3,2.723683e+00,2.723682e+00
8.559790e-01,7.806210e-01,3,3,1.169084e+00,1.169084e+00
8.547570e-01,7.857040e-01,3,3,1.263230e+00,1.263229e+00
8.561320e-01,7.856670e-01,3,3,9.984229e-01,9.984228e-01
8.552370e-01,7.797250e-01,3,3,7.742218e-01,7.742218e-01
8.561550e-01,7.852350e-01,3,3,6.009269e-01,6.009268e-01
8.561050e-01,7.861300e-01,3,3,8.870310e-01,8.870309e-01
8.509290e-01,7.844090e-01,3,3,9.023889e-01,9.023888e-01
8.560110e-01,7.855810e-01,3,3,9.126757e-01,9.126756e-01
8.555480e-01,7.862880e-01,3,3,1.030194e+00,1.030194e+00
8.509870e-01,7.858750e-01,3,3,1.503318e+00,1.503318e+00
8.557740e-01,7.848550e-01,3,3,2.023180e+00,2.023180e+00
8.558920e-01,7.849140e-01,3,3,1.231910e+00,1.231910e+00
8.513370e-01,7.839770e-01,3,3,1.232612e+00,1.232612e+00
8.569370e-01,7.869570e-01,3,3,9.106059e-01,9.106059e-01
8.556020e-01,7.803860e-01,3,3,4.415008e-01,4.415008e-01
8.546660e-01,7.849630e-01,3,3,1.469211e+00,1.469210e+00
8.564100e-01,7.846570e-01,3,3,1.093927e+00,1.093927e+00
8.560260e-01,7.808060e-01,3,3,9.839060e-01,9.839060e-01
8.560090e-01,7.850810e-01,3,3,9.484037e-01,9.484035e-01
8.560410e-01,7.861600e-01,3,3,1.340376e+00,1.340375e+00
8.563380e-01,7.806670e-01,3,3,2.426739e+00,2.426739e+00
8.566300e-01,7.856600e-01,3,3,3.657854e+00,3.657853e+00
8.563830e-01,7.846970e-01,3,3,5.363844e+00,5.363843e+00
8.518420e-01,7.852560e-01,3,3,4.373634e+00,4.373634e+00
8.554870e-01,7.845710e-01,3,3,3.112641e+00,3.112642e+00
8.556860e-01,7.858060e-01,3,3,2.394087e+00,2.394087e+00
8.516950e-01,7.860160e-01,3,3,1.688656e+00,1.688656e+00
8.565510e-01,7.852760e-01,3,3,2.384602e+00,2.384601e+00
8.565840e-01,7.840880e-01,3,3,1.787173e+00,1.787173e+00
8.519590e-01,7.858740e-01,3,3,2.318071e+00,2.318071e+00
8.560750e-01,7.850370e-01,3,3,2.520931e+00,2.520932e+00
8.562550e-01,7.803570e-01,3,3,1.100126e+00,1.100127e+00
8.546760e-01,7.858160e-01,3,3,9.618320e-01,9.618319e-01
8.561330e-01,7.854980e-01,3,3,1.351688e+00,1.351688e+00
8.562080e-01,7.800140e-01,3,3,1.448054e+00,1.448054e+00
8.554050e-01,7.852090e-01,3,3,1.093162e+00,1.093162e+00
8.555170e-01,7.857520e-01,3,3,1.256484e+00,1.256483e+00
8.549650e-01,7.801000e-01,3,3,7.338232e-01,7.338232e-01
8.549290e-01,7.854650e-01,3,3,6.687876e-01,6.687875e-01
8.565970e-01,7.850120e-01,3,3,5.546592e-01,5.546592e-01
8.504510e-01,7.853820e-01,3,3,5.820472e-01,5.820471e-01
8.535600e-01,7.858420e-01,3,3,8.179784e-01,8.179782e-01
8.555240e-01,7.854040e-01,3,3,8.954412e-01,8.954411e-01
8.501890e-01,7.852930e-01,3,3,5.794090e-01,5.794091e-01
8.554040e-01,7.853130e-01,3,3,5.854888e-01,5.854887e-01
8.555790e-01,7.801890e-01,3,3,5.420893e-01,5.420892e-01
8.555670e-01,7.854000e-01,3,3,4.512420e-01,4.512419e-01
8.548140e-01,7.853390e-01,3,3,3.199590e-01,3.199590e-01
8.547980e-01,7.798620e-01,3,3,5.570476e-01,5.570474e-01
8.557050e-01,7.852010e-01,3,3,2.969425e-01,2.969425e-01
8.548620e-01,7.847160e-01,3,3,3.398680e-01,3.398680e-01
8.546890e-01,7.805720e-01,3,3,8.709419e-01,8.709415e-01
8.554750e-01,7.856510e-01,3,3,6.328207e-01,6.328207e-01
8.561340e-01,7.850810e-01,3,3,2.025278e+00,2.025277e+00
8.557850e-01,7.803850e-01,3,3,1.408769e+00,1.408769e+00
8.552150e-01,7.851050e-01,3,3,1.369022e+00,1.369022e+00
8.552440e-01,7.849960e-01,3,3,1.713030e+00,1.713030e+00
8.502890e-01,7.853850e-01,3,3,1.550057e+00,1.550057e+00
8.560900e-01,7.856150e-01,3,3,1.710002e+00,1.710002e+00
8.561770e-01,7.845640e-01,3,3,3.017659e+00,3.017658e+00
8.504140e-01,7.860960e-01,3,3,1.975120e+00,1.975120e+00
8.548330e-01,7.849810e-01,3,3,1.505443e+00,1.505444e+00
8.558100e-01,7.804430e-01,3,3,1.315035e+00,1.315035e+00
8.556770e-01,7.845990e-01,3,3,7.775207e-01,7.775204e-01
8.556680e-01,7.853470e-01,3,3,8.598513e-01,8.598510e-01
8.546410e-01,7.794760e-01,3,3,5.383564e-01,5.383563e-01
8.553920e-01,7.851940e-01,3,3,7.027548e-01,7.027546e-01
8.560410e-01,7.846840e-01,3,3,3.166074e-01,3.166073e-01
8.562110e-01,7.800610e-01,3,3,2.578552e-01,2.578552e-01
8.538020e-01,7.849060e-01,3,3,2.690208e-01,2.690207e-01
8.562970e-01,7.850720e-01,3,3,5.781329e-01,5.781326e-01
8.503970e-01,7.850430e-01,3,3,5.978219e-01,5.978218e-01
8.550930e-01,7.857070e-01,3,3,5.053834e-01,5.053834e-01
8.553860e-01,7.857800e-01,3,3,5.510604e-01,5.510603e-01
8.505180e-01,7.853350e-01,3,3,4.678502e-01,4.678502e-01
8.578080e-01,7.855540e-01,3,3,8.671481e-01,8.671477e-01
8.566780e-01,7.856130e-01,3,3,1.470053e+00,1.470052e+00
8.510130e-01,7.852110e-01,3,3,1.664422e+00,1.664422e+00
8.573570e-01,7.857850e-01,3,3,1.301451e+00,1.301451e+00
8.569770e-01,7.794240e-01,3,3,1.156650e+00,1.156650e+00
8.566140e-01,7.857310e-01,3,3,1.072100e+00,1.072100e+00
8.564650e-01,7.850180e-01,3,3,7.728983e-01,7.728986e-01
8.568810e-01,7.802840e-01,3,3,6.617629e-01,6.617624e-01
8.539980e-01,7.858100e-01,3,3,1.152295e+00,1.152294e+00
8.569270e-01,7.857160e-01,3,3,1.655924e+00,1.655924e+00
8.552420e-01,7.806350e-01,3,3,1.013204e+00,1.013204e+00
8.549560e-01,7.851230e-01,3,3,9.622535e-01,9.622535e-01
8.562480e-01,7.845780e-01,3,3,8.659567e-01,8.659566e-01
8.502300e-01,7.849150e-01,3,3,7.954315e-01,7.954314e-01
8.568040e-01,7.847980e-01,3,3,6.562090e-01,6.562090e-01
8.561300e-01,7.855060e-01,3,3,7.372112e-01,7.372110e-01
8.503470e-01,7.867520e-01,3,3,1.203657e+00,1.203656e+00
8.555210e-01,7.853720e-01,3,3,1.155230e+00,1.155230e+00
8.565390e-01,7.846640e-01,3,3,1.224534e+00,1.224534e+00
8.511980e-01,7.863000e-01,3,3,1.391972e+00,1.391972e+00
8.558530e-01,7.855230e-01,3,3,6.362730e-01,6.362729e-01
8.561000e-01,7.803180e-01,3,3,5.053670e-01,5.053669e-01
8.548390e-01,7.847390e-01,3,3,5.338890e-01,5.338889e-01
8.562100e-01,7.854270e-01,3,3,2.370515e-01,2.370514e-01
8.548720e-01,7.794050e-01,3,3,2.393576e-01,2.393575e-01
8.554470e-01,7.855240e-01,3,3,4.120253e-01,4.120253e-01
8.553810e-01,7.843940e-01,3,3,3.515092e-01,3.515092e-01
8.547710e-01,7.806760e-01,3,3,9.585719e-01,9.585714e-01
8.564620e-01,7.854950e-01,3,3,7.182278e-01,7.182277e-01
8.563710e-01,7.859850e-01,3,3,5.098746e-01,5.098746e-01
8.510400e-01,7.848430e-01,3,3,4.558847e-01,4.558847e-01
8.557990e-01,7.858210e-01,3,3,4.646784e-01,4.646783e-01
8.568740e-01,7.861370e-01,3,3,4.770056e-01,4.770055e-01
8.508650e-01,7.852980e-01,3,3,3.040839e-01,3.040839e-01
8.547680e-01,7.846150e-01,3,3,3.377664e-01,3.377663e-01
8.555350e-01,7.804440e-01,3,3,2.788534e-01,2.788533e-01
8.532520e-01,7.846120e-01,3,3,2.407059e-01,2.407058e-01
8.551470e-01,7.854740e-01,3,3,6.442230e-01,6.442227e-01
8.565440e-01,7.805300e-01,3,3,4.095452e-01,4.095451e-01
8.548670e-01,7.860270e-01,3,3,6.437721e-01,6.437719e-01
8.554150e-01,7.853350e-01,3,3,1.039902e+00,1.039901e+00
8.570640e-01,7.807600e-01,3,3,8.875855e-01,8.875853e-01
8.553600e-01,7.854340e-01,3,3,1.006186e+00,1.006185e+00
8.557030e-01,7.856810e-01,3,3,7.122620e-01,7.122620e-01
8.546110e-01,7.804780e-01,3,3,7.083473e-01,7.083472e-01
8.549270e-01,7.857360e-01,3,3,8.100302e-01,8.100300e-01
8.555100e-01,7.853180e-01,3,3,1.766688e+00,1.766687e+00
8.513480e-01,7.850420e-01,3,3,2.341985e+00,2.341984e+00
8.557600e-01,7.856180e-01,3,3,2.078283e+00,2.078283e+00
8.560720e-01,7.855490e-01,3,3,1.686164e+00,1.686164e+00
8.505920e-01,7.856160e-01,3,3,1.548802e+00,1.548802e+00
8.557440e-01,7.859590e-01,3,3,1.061556e+00,1.061556e+00
8.568890e-01,7.802760e-01,3,3,1.052392e+00,1.052391e+00
8.557000e-01,7.844660e-01,3,3,1.034730e+00,1.034731e+00
8.556660e-01,7.850140e-01,3,3,7.927306e-01,7.927305e-01
8.553770e-01,7.794660e-01,3,3,7.023906e-01,7.023906e-01
8.546690e-01,7.858800e-01,3,3,1.423105e+00,1.423104e+00
8.563520e-01,7.858010e-01,3,3,2.958255e+00,2.958256e+00
8.559430e-01,7.803800e-01,3,3,3.026537e+00,3.026555e+00
8.555410e-01,7.854770e-01,3,3,3.062268e+00,3.062270e+00
8.559460e-01,7.860010e-01,3,3,3.571487e+00,3.571487e+00
8.541270e-01,7.813030e-01,3,3,5.100197e+00,5.100195e+00
8.560920e-01,7.866200e-01,3,3,3.278300e+00,3.278301e+00
8.564660e-01,7.860110e-01,3,3,3.995907e+00,3.995906e+00
8.513850e-01,7.862010e-01,3,3,3.076641e+00,3.076641e+00
8.571370e-01,7.865310e-01,3,3,2.868580e+00,2.868580e+00
8.573860e-01,7.853530e-01,3,3,1.982004e+00,1.982004e+00
8.510790e-01,7.868610e-01,3,3,2.500428e+00,2.500428e+00
8.561460e-01,7.853320e-01,3,3,1.694900e+00,1.694901e+00
8.562480e-01,7.805350e-01,3,3,2.202419e+00,2.202419e+00
8.562040e-01,7.844340e-01,3,3,7.198395e-01,7.198397e-01
8.554700e-01,7.858940e-01,3,3,9.079751e-01,9.079748e-01
8.556660e-01,7.802040e-01,3,3,1.727905e+00,1.727904e+00
8.549720e-01,7.855450e-01,3,3,1.320268e+00,1.320268e+00
8.565360e-01,7.848970e-01,3,3,2.105952e+00,2.105951e+00
8.560320e-01,7.803650e-01,3,3,1.874714e+00,1.874714e+00
8.561440e-01,7.853340e-01,3,3,3.197580e+00,3.197579e+00
8.561010e-01,7.852910e-01,3,3,1.638093e+00,1.638094e+00
8.556190e-01,7.805090e-01,3,3,1.357662e+00,1.357662e+00
8.555930e-01,7.857440e-01,3,3,1.070695e+00,1.070695e+00
8.576880e-01,7.863800e-01,3,3,1.074448e+00,1.074447e+00
8.506600e-01,7.857300e-01,3,3,1.150461e+00,1.150461e+00
8.567010e-01,7.856680e-01,3,3,1.737571e+00,1.737571e+00
8.562320e-01,7.852820e-01,3,3,7.951804e-01,7.951808e-01
8.504670e-01,7.854810e-01,3,3,5.279798e-01,5.279797e-01
8.552000e-01,7.853570e-01,3,3,6.065543e-01,6.065542e-01
8.552850e-01,7.799580e-01,3,3,5.859223e-01,5.859222e-01
8.545550e-01,7.845280e-01,3,3,4.544746e-01,4.544746e-01
8.556620e-01,7.837650e-01,3,3,7.273237e-01,7.273235e-01
8.557630e-01,7.803030e-01,3,3,1.054653e+00,1.054653e+00
8.548650e-01,7.850850e-01,3,3,1.592878e+00,1.592877e+00
8.550730e-01,7.852980e-01,3,3,3.436945e+00,3.436943e+00
8.552510e-01,7.805560e-01,3,3,4.458252e+00,4.458252e+00
8.554920e-01,7.850100e-01,3,3,3.034823e+00,3.034823e+00
8.562210e-01,7.856910e-01,3,3,3.739701e+00,3.739700e+00
8.508180e-01,7.854270e-01,3,3,2.696262e+00,2.696262e+00
8.568010e-01,7.859240e-01,3,3,2.137313e+00,2.137313e+00
8.558310e-01,7.847210e-01,3,3,2.381990e+00,2.381990e+00
8.514160e-01,7.851080e-01,3,3,1.301140e+00,1.301140e+00
8.563370e-01,7.843150e-01,3,3,9.675367e-01,9.675361e-01
8.558670e-01,7.845670e-01,3,3,7.439905e-01,7.439905e-01
8.505130e-01,7.835020e-01,3,3,7.050904e-01,7.050904e-01
8.556600e-01,7.848590e-01,3,3,6.801899e-01,6.801899e-01
8.560640e-01,7.800050e-01,3,3,1.067872e+00,1.067872e+00
8.563870e-01,7.846480e-01,3,3,3.636401e-01,3.636402e-01
8.560480e-01,7.861760e-01,3,3,1.459904e+00,1.459903e+00
8.553260e-01,7.794950e-01,3,3,3.207473e+00,3.207472e+00
8.558540e-01,7.853220e-01,3,3,1.890641e+00,1.890642e+00
8.558210e-01,7.859710e-01,3,3,1.351988e+00,1.351988e+00
8.551610e-01,7.801050e-01,3,3,1.108379e+00,1.108379e+00
8.555260e-01,7.863690e-01,3,3,9.424709e-01,9.424709e-01
8.563130e-01,7.857890e-01,3,3,8.821413e-01,8.821412e-01
8.500510e-01,7.854690e-01,3,3,1.484896e+00,1.484895e+00
8.556060e-01,7.857620e-01,3,3,1.155477e+00,1.155477e+00
8.563060e-01,7.858530e-01,3,3,8.308275e-01,8.308275e-01
8.512040e-01,7.852970e-01,3,3,9.286501e-01,9.286500e-01
8.555560e-01,7.860960e-01,3,3,1.590914e+00,1.590913e+00
8.564280e-01,7.802960e-01,3,3,2.569067e+00,2.569066e+00
8.506530e-01,7.847260e-01,3,3,4.647755e+00,4.647753e+00
8.556920e-01,7.854330e-01,3,3,5.667842e+00,5.667841e+00
8.564800e-01,7.797970e-01,3,3,5.122846e+00,5.122846e+00
8.701010e-01,7.863540e-01,3,3,5.366623e+00,5.366623e+00
8.571040e-01,7.874010e-01,3,3,4.520514e+00,4.520514e+00
8.569650e-01,7.808450e-01,3,3,4.741373e+00,4.741373e+00
8.565320e-01,7.860530e-01,3,3,4.719997e+00,4.719996e+00
8.562020e-01,7.866130e-01,3,3,3.889055e+00,3.889055e+00
8.573070e-01,7.812840e-01,3,3,3.354371e+00,3.354371e+00
8.575800e-01,7.861580e-01,3,3,2.571330e+00,2.571330e+00
8.562630e-01,7.857530e-01,3,3,2.355249e+00,2.355249e+00
8.507140e-01,7.865060e-01,3,3,2.387999e+00,2.387999e+00
8.559970e-01,7.853580e-01,3,3,3.076475e+00,3.076478e+00
8.558600e-01,7.864650e-01,3,3,5.515769e+00,5.514907e+00
1.699407e+00,1.565743e+00,6,6,5.779056e+00,5.774943e+00
1.418138e+00,1.566578e+00,5,6,6.338930e+00,6.333055e+00
1.137019e+00,1.043643e+00,4,4,5.385154e+00,5.385154e+00
8.573790e-01,7.852460e-01,3,3,5.410946e+00,5.410948e+00
8.578660e-01,7.805240e-01,3,3,6.562613e+00,6.562613e+00
8.567790e-01,7.861110e-01,3,3,6.069971e+00,6.069971e+00
8.565900e-01,7.865050e-01,3,3,5.053625e+00,5.053626e+00
8.510530e-01,7.849780e-01,3,3,4.256742e+00,4.256742e+00
8.570290e-01,7.856310e-01,3,3,3.743721e+00,3.743721e+00
8.562150e-01,7.858630e-01,3,3,3.197473e+00,3.197473e+00
8.513820e-01,7.858000e-01,3,3,2.934418e+00,2.934418e+00
8.564110e-01,7.856160e-01,3,3,3.068115e+00,3.068115e+00
8.565290e-01,7.848770e-01,3,3,1.688217e+00,1.688218e+00
8.509440e-01,7.854910e-01,3,3,1.476138e+00,1.476138e+00
8.565340e-01,7.853640e-01,3,3,1.648484e+00,1.648484e+00
8.564930e-01,7.800880e-01,3,3,1.149411e+00,1.149411e+00
8.554760e-01,7.850290e-01,3,3,9.746521e-01,9.746522e-01
8.559810e-01,7.856900e-01,3,3,7.983474e-01,7.983472e-01
8.549900e-01,7.799550e-01,3,3,5.137608e-01,5.137609e-01
8.562470e-01,7.853450e-01,3,3,3.727217e-01,3.727215e-01
8.561640e-01,7.846240e-01,3,3,2.852823e-01,2.852822e-01
8.551030e-01,7.793770e-01,3,3,3.980860e-01,3.980859e-01
8.551660e-01,7.859870e-01,3,3,5.226316e-01,5.226315e-01
8.575140e-01,7.848080e-01,3,3,3.597099e-01,3.597099e-01
8.499420e-01,7.854770e-01,3,3,3.916197e-01,3.916195e-01
8.555470e-01,7.850610e-01,3,3,1.091919e+00,1.091919e+00
8.554750e-01,7.851630e-01,3,3,2.457323e+00,2.457322e+00
8.507310e-01,7.849180e-01,3,3,3.341935e+00,3.341934e+00
8.559960e-01,7.858430e-01,3,3,2.815515e+00,2.815515e+00
8.562990e-01,7.806570e-01,3,3,3.037638e+00,3.037638e+00
8.561260e-01,7.841250e-01,3,3,2.960966e+00,2.960965e+00
8.565400e-01,7.862940e-01,3,3,2.616533e+00,2.616533e+00
8.565440e-01,7.809330e-01,3,3,2.054233e+00,2.054233e+00
8.555840e-01,7.854760e-01,3,3,2.024359e+00,2.024359e+00
8.572070e-01,7.854800e-01,3,3,3.619191e+00,3.619190e+00
8.560350e-01,7.801600e-01,3,3,4.710444e+00,4.710443e+00
8.551730e-01,7.860050e-01,3,3,5.589759e+00,5.589759e+00
8.561340e-01,7.880900e-01,3,3,4.581102e+00,4.581104e+00
8.569980e-01,7.804910e-01,3,3,3.502569e+00,3.502570e+00
8.568970e-01,7.856530e-01,3,3,2.563124e+00,2.563125e+00
8.555870e-01,7.863940e-01,3,3,2.075944e+00,2.075944e+00
8.510660e-01,7.858720e-01,3,3,2.714942e+00,2.714941e+00
8.569650e-01,7.848450e-01,3,3,2.720042e+00,2.720042e+00
8.558470e-01,7.861110e-01,3,3,2.061630e+00,2.061630e+00
8.513420e-01,7.868840e-01,3,3,2.028900e+00,2.028901e+00
8.544800e-01,8.170870e-01,3,3,2.348377e+00,2.348421e+00
8.563750e-01,7.847510e-01,3,3,2.454774e+00,2.454776e+00
8.511000e-01,7.855620e-01,3,3,3.008110e+00,3.008109e+00
8.570780e-01,7.856200e-01,3,3,2.384947e+00,2.384947e+00
8.552900e-01,7.800280e-01,3,3,3.117955e+00,3.117954e+00
8.556880e-01,7.856850e-01,3,3,3.065566e+00,3.065566e+00
8.564190e-01,7.860260e-01,3,3,2.557292e+00,2.557292e+00
8.554650e-01,7.808210e-01,3,3,2.106663e+00,2.106663e+00
8.556590e-01,7.852320e-01,3,3,2.211412e+00,2.211412e+00
8.563620e-01,7.856840e-01,3,3,2.227023e+00,2.227023e+00
8.565690e-01,7.797860e-01,3,3,1.659078e+00,1.659078e+00
8.551800e-01,7.860230e-01,3,3,1.667724e+00,1.667723e+00
8.560530e-01,7.853510e-01,3,3,1.099130e+00,1.099130e+00
8.504380e-01,7.846180e-01,3,3,9.022113e-01,9.022113e-01
8.554730e-01,7.847620e-01,3,3,5.674390e-01,5.674390e-01
8.550580e-01,7.840530e-01,3,3,3.751871e-01,3.751871e-01
8.509620e-01,7.850790e-01,3,3,2.186422e-01,2.186422e-01
8.558960e-01,7.855360e-01,3,3,4.111152e-01,4.111150e-01
8.548140e-01,7.846190e-01,3,3,2.328079e-01,2.328079e-01
8.499080e-01,7.849700e-01,3,3,2.265187e-01,2.265186e-01
8.549770e-01,7.850440e-01,3,3,1.359835e-01,1.359834e-01
8.552540e-01,7.789250e-01,3,3,1.527804e-01,1.527804e-01
8.542060e-01,7.849710e-01,3,3,1.332161e-01,1.332161e-01
8.545990e-01,7.845070e-01,3,3,3.298570e-01,3.298569e-01
8.548930e-01,7.795670e-01,3,3,2.550311e-01,2.550311e-01
8.546090e-01,7.853640e-01,3,3,2.544629e-01,2.544628e-01
8.561270e-01,7.845440e-01,3,3,5.217731e-01,5.217729e-01
8.554380e-01,7.802710e-01,3,3,2.867224e-01,2.867224e-01
8.621430e-01,7.849060e-01,3,3,4.110207e-01,4.110206e-01
8.556650e-01,7.848870e-01,3,3,4.170100e-01,4.170100e-01
8.488010e-01,7.848560e-01,3,3,7.090291e-01,7.090289e-01
8.554870e-01,7.855360e-01,3,3,5.399893e-01,5.399893e-01
8.557050e-01,7.847440e-01,3,3,3.504812e-01,3.504812e-01
8.501220e-01,7.849880e-01,3,3,2.595418e-01,2.595417e-01
8.552780e-01,7.856940e-01,3,3,3.508181e-01,3.508180e-01
8.552050e-01,7.800970e-01,3,3,3.231019e-01,3.231019e-01
8.549270e-01,7.844780e-01,3,3,2.615448e-01,2.615447e-01
8.552070e-01,7.850410e-01,3,3,4.593716e-01,4.593715e-01
8.557900e-01,7.804420e-01,3,3,3.475158e-01,3.475157e-01
8.536910e-01,7.851680e-01,3,3,5.158213e-01,5.158212e-01
8.559600e-01,7.856810e-01,3,3,9.145396e-01,9.145393e-01
8.559050e-01,7.796620e-01,3,3,8.031674e-01,8.031672e-01
8.544680e-01,7.852570e-01,3,3,7.101309e-01,7.101308e-01
8.559150e-01,7.851130e-01,3,3,1.620586e+00,1.620586e+00
8.553400e-01,7.807750e-01,3,3,1.979796e+00,1.979796e+00
8.567480e-01,7.856360e-01,3,3,1.132997e+00,1.132997e+00
8.549460e-01,7.855710e-01,3,3,8.490297e-01,8.490297e-01
8.512520e-01,7.856830e-01,3,3,6.456044e-01,6.456044e-01
8.558630e-01,7.854210e-01,3,3,4.354735e-01,4.354735e-01
8.560880e-01,7.853800e-01,3,3,3.815785e-01,3.815785e-01
8.511950e-01,7.855460e-01,3,3,5.486857e-01,5.486856e-01
8.558640e-01,7.853740e-01,3,3,5.290712e-01,5.290711e-01
8.560760e-01,7.800070e-01,3,3,2.579665e-01,2.579664e-01
8.539390e-01,7.853530e-01,3,3,6.967598e-01,6.967596e-01
8.552800e-01,7.854740e-01,3,3,3.919490e-01,3.919491e-01
8.556960e-01,7.800600e-01,3,3,3.534010e-01,3.534010e-01
8.555240e-01,7.852190e-01,3,3,4.850318e-01,4.850316e-01
8.560140e-01,7.854090e-01,3,3,3.999567e-01,3.999567e-01
8.553100e-01,7.803240e-01,3,3,4.713089e-01,4.713089e-01
8.542530e-01,7.858100e-01,3,3,5.989256e-01,5.989254e-01
8.552720e-01,7.853670e-01,3,3,4.713876e-01,4.713875e-01
8.499980e-01,7.838480e-01,3,3,4.905612e-01,4.905610e-01
8.550930e-01,7.846630e-01,3,3,6.108603e-01,6.108601e-01
8.545760e-01,7.850460e-01,3,3,7.470375e-01,7.470373e-01
8.505690e-01,7.842750e-01,3,3,1.118033e+00,1.118033e+00
8.555040e-01,7.849600e-01,3,3,7.738547e-01,7.738547e-01
8.549070e-01,7.854330e-01,3,3,7.282347e-01,7.282344e-01
8.511050e-01,7.844890e-01,3,3,7.119240e-01,7.119240e-01
8.563140e-01,7.855600e-01,3,3,7.781483e-01,7.781482e-01
8.560240e-01,7.802080e-01,3,3,6.471715e-01,6.471715e-01
8.558300e-01,7.864010e-01,3,3,1.098068e+00,1.098067e+00
8.567400e-01,7.862330e-01,3,3,8.187841e-01,8.187841e-01
8.563370e-01,7.799750e-01,3,3,7.743098e-01,7.743097e-01
8.550630e-01,7.857710e-01,3,3,7.614110e-01,7.614109e-01
8.566250e-01,7.860040e-01,3,3,6.899914e-01,6.899913e-01
8.550050e-01,7.804330e-01,3,3,4.930596e-01,4.930596e-01
8.537640e-01,7.854080e-01,3,3,6.012258e-01,6.012257e-01
8.549380e-01,7.845000e-01,3,3,6.780122e-01,6.780121e-01
8.502250e-01,7.849540e-01,3,3,4.676081e-01,4.676081e-01
8.543140e-01,7.857520e-01,3,3,8.746392e-01,8.746389e-01
8.568340e-01,7.857980e-01,3,3,6.178420e-01,6.178420e-01
8.503620e-01,7.860140e-01,3,3,5.576305e-01,5.576305e-01
8.560680e-01,7.858300e-01,3,3,5.046116e-01,5.046116e-01
8.551770e-01,7.797040e-01,3,3,3.967175e-01,3.967173e-01
8.556130e-01,7.849270e-01,3,3,2.920719e-01,2.920719e-01
8.558320e-01,7.848030e-01,3,3,5.730694e-01,5.730693e-01
8.558280e-01,7.805880e-01,3,3,4.927671e-01,4.927670e-01
8.553860e-01,7.853460e-01,3,3,4.981755e-01,4.981754e-01
8.565290e-01,7.858800e-01,3,3,4.688683e-01,4.688682e-01
8.566470e-01,7.806200e-01,3,3,3.674338e-01,3.674338e-01
8.544420e-01,7.848550e-01,3,3,4.423480e-01,4.423479e-01
8.551610e-01,7.852440e-01,3,3,3.414488e-01,3.414488e-01
8.546180e-01,7.804320e-01,3,3,1.434873e+00,1.434872e+00
8.557380e-01,7.867200e-01,3,3,3.181126e+00,3.181124e+00
8.564600e-01,7.855610e-01,3,3,2.408614e+00,2.408615e+00
8.508040e-01,7.844470e-01,3,3,1.724162e+00,1.724163e+00
8.561820e-01,7.857030e-01,3,3,1.256671e+00,1.256671e+00
8.544770e-01,7.854670e-01,3,3,1.368063e+00,1.368063e+00
8.516280e-01,7.857540e-01,3,3,1.077320e+00,1.077320e+00
8.563320e-01,7.858750e-01,3,3,1.043494e+00,1.043494e+00
8.560820e-01,7.804380e-01,3,3,1.242604e+00,1.242604e+00
8.550720e-01,7.857940e-01,3,3,1.406409e+00,1.406409e+00
8.560020e-01,7.849820e-01,3,3,1.284407e+00,1.284407e+00
8.569450e-01,7.810410e-01,3,3,1.374070e+00,1.374070e+00
8.550600e-01,7.850750e-01,3,3,1.844400e+00,1.844399e+00
8.570610e-01,7.864530e-01,3,3,1.377107e+00,1.377108e+00
8.564230e-01,7.807430e-01,3,3,9.441333e-01,9.441334e-01
8.561960e-01,7.848480e-01,3,3,5.655942e-01,5.655943e-01
8.560320e-01,7.841100e-01,3,3,3.798159e-01,3.798159e-01
8.546890e-01,7.803890e-01,3,3,2.967605e-01,2.967604e-01
8.542990e-01,7.849640e-01,3,3,4.102474e-01,4.102472e-01
8.550020e-01,7.846850e-01,3,3,2.912585e-01,2.912585e-01
8.494620e-01,7.853670e-01,3,3,4.764578e-01,4.764577e-01
8.552620e-01,7.849680e-01,3,3,5.043371e-01,5.043371e-01
8.557010e-01,7.850360e-01,3,3,4.688270e-01,4.688269e-01
8.497510e-01,7.856310e-01,3,3,6.028402e-01,6.028400e-01
8.561110e-01,7.856840e-01,3,3,3.377127e-01,3.377127e-01
8.560790e-01,7.802220e-01,3,3,2.711839e-01,2.711838e-01
8.552990e-01,7.853630e-01,3,3,1.383306e+00,1.383306e+00
8.557200e-01,7.859180e-01,3,3,1.451329e+00,1.451329e+00
8.571810e-01,7.804460e-01,3,3,7.031839e-01,7.031841e-01
8.551750e-01,7.870200e-01,3,3,6.982511e-01,6.982511e-01
8.569150e-01,7.853950e-01,3,3,6.137516e-01,6.137515e-01
8.561380e-01,7.798190e-01,3,3,6.617285e-01,6.617284e-01
8.562170e-01,7.854250e-01,3,3,3.354983e-01,3.354983e-01
8.556180e-01,7.854960e-01,3,3,2.759661e-01,2.759661e-01
8.541930e-01,7.811470e-01,3,3,5.279966e-01,5.279965e-01
8.553820e-01,7.867110e-01,3,3,6.667663e-01,6.667662e-01
8.557190e-01,7.855960e-01,3,3,8.292178e-01,8.292177e-01
8.499170e-01,7.857870e-01,3,3,5.374542e-01,5.374542e-01
8.544390e-01,7.880490e-01,3,3,5.127800e-01,5.127799e-01
8.554040e-01,7.850680e-01,3,3,7.688165e-01,7.688162e-01
8.509260e-01,7.852570e-01,3,3,1.152271e+00,1.152271e+00
8.564700e-01,7.878840e-01,3,3,1.284036e+00,1.284036e+00
8.566970e-01,7.799940e-01,3,3,1.793355e+00,1.793354e+00
8.568140e-01,7.852200e-01,3,3,1.700294e+00,1.700293e+00
8.567210e-01,7.852420e-01,3,3,2.642651e+00,2.642665e+00
8.569550e-01,7.800060e-01,3,3,1.107416e+00,1.107417e+00
8.559150e-01,7.855440e-01,3,3,9.386903e-01,9.386903e-01
8.563920e-01,7.856460e-01,3,3,1.466584e+00,1.466583e+00
8.566830e-01,7.798820e-01,3,3,7.286371e-01,7.286373e-01
8.566970e-01,7.855090e-01,3,3,6.052259e-01,6.052259e-01
8.561700e-01,7.864190e-01,3,3,4.965911e-01,4.965910e-01
8.506630e-01,7.807040e-01,3,3,3.360130e-01,3.360130e-01
8.554490e-01,7.858280e-01,3,3,6.849909e-01,6.849906e-01
8.566480e-01,7.849740e-01,3,3,5.121156e-01,5.121155e-01
8.501150e-01,7.851700e-01,3,3,2.922550e-01,2.922550e-01
8.546540e-01,7.869470e-01,3,3,6.679345e-01,6.679343e-01
8.583580e-01,7.841840e-01,3,3,4.674127e-01,4.674127e-01
8.510570e-01,7.859710e-01,3,3,2.461262e-01,2.461262e-01
8.543020e-01,7.856530e-01,3,3,2.703545e-01,2.703545e-01
8.552110e-01,7.805540e-01,3,3,3.371024e-01,3.371023e-01
8.550930e-01,7.855200e-01,3,3,5.136953e-01,5.136952e-01
8.553050e-01,7.849840e-01,3,3,1.077991e+00,1.077990e+00
8.578510e-01,7.804890e-01,3,3,7.645050e-01,7.645045e-01
8.557350e-01,7.848980e-01,3,3,1.387647e+00,1.387647e+00
8.566200e-01,7.858320e-01,3,3,6.073496e-01,6.073499e-01
8.565190e-01,7.806420e-01,3,3,4.838976e-01,4.838976e-01
8.557120e-01,7.861830e-01,3,3,3.213725e-01,3.213726e-01
8.555870e-01,7.853210e-01,3,3,2.984320e-01,2.984320e-01
8.492930e-01,7.851410e-01,3,3,8.386706e-01,8.386702e-01
8.558910e-01,7.860790e-01,3,3,8.449806e-01,8.449804e-01
8.559760e-01,7.852160e-01,3,3,1.302749e+00,1.302749e+00
8.505400e-01,7.850960e-01,3,3,1.342942e+00,1.342942e+00
8.558470e-01,7.848430e-01,3,3,1.544383e+00,1.544383e+00
8.568900e-01,7.854830e-01,3,3,2.525370e+00,2.525369e+00
8.515810e-01,7.853240e-01,3,3,2.830332e+00,2.830331e+00
8.558530e-01,7.858990e-01,3,3,2.115056e+00,2.115056e+00
8.565630e-01,7.808940e-01,3,3,1.898372e+00,1.898372e+00
8.567940e-01,7.861070e-01,3,3,2.653305e+00,2.653304e+00
8.565090e-01,7.854310e-01,3,3,1.802900e+00,1.802900e+00
8.567080e-01,7.798730e-01,3,3,1.494907e+00,1.494907e+00
8.564750e-01,7.845580e-01,3,3,1.498995e+00,1.498995e+00
8.564410e-01,7.869570e-01,3,3,1.609108e+00,1.609108e+00
8.561800e-01,7.807180e-01,3,3,1.756702e+00,1.756701e+00
8.564050e-01,7.863800e-01,3,3,1.294859e+00,1.294859e+00
8.569580e-01,7.864530e-01,3,3,1.255283e+00,1.255283e+00
8.512530e-01,7.857880e-01,3,3,1.626537e+00,1.626537e+00
8.564550e-01,7.866500e-01,3,3,1.798403e+00,1.798403e+00
8.572770e-01,7.854250e-01,3,3,1.146720e+00,1.146720e+00
8.507350e-01,7.864420e-01,3,3,1.106796e+00,1.106796e+00
8.566620e-01,7.868080e-01,3,3,6.536678e-01,6.536681e-01
8.563970e-01,7.847990e-01,3,3,6.339582e-01,6.339582e-01

