5.669150e-01,3.819466e-01,6,13
1.877460e-01,1.931190e-01,2,11
1.874640e-01,1.771450e-01,2,10
1.875460e-01,1.661777e-01,2,9
1.820930e-01,1.201630e-01,2,6
1.814330e-01,6.794930e-02,2,3
1.808270e-01,5.412102e-02,2,2
1.812420e-01,1.716614e-02,2,0
1.787860e-01,1.597404e-02,2,0
9.051100e-02,1.597404e-02,1,0
1.776410e-01,1.692772e-02,2,0
9.060600e-02,1.597404e-02,1,0
9.053400e-02,1.597404e-02,1,0
9.062500e-02,1.692772e-02,1,0
9.068200e-02,1.597404e-02,1,0

