5.851520e-01,3.621578e-01,6,13
1.873780e-01,1.959801e-01,2,11
1.873320e-01,1.788139e-01,2,10
1.868190e-01,1.659393e-01,2,9
1.818020e-01,1.199245e-01,2,6
1.812900e-01,6.890297e-02,2,3
1.811240e-01,5.388260e-02,2,2
1.813540e-01,1.597404e-02,2,0
1.782640e-01,1.716614e-02,2,0
9.040400e-02,1.621246e-02,1,0
1.772310e-01,1.597404e-02,2,0
9.932700e-02,1.597404e-02,1,0
9.040800e-02,1.597404e-02,1,0
9.038400e-02,1.692772e-02,1,0
9.054700e-02,1.597404e-02,1,0

