5.610630e-01,3.509521e-01,6,13
1.886180e-01,2.048016e-01,2,11
1.873440e-01,1.831055e-01,2,10
1.866310e-01,1.699924e-01,2,9
1.824170e-01,1.239777e-01,2,6
1.815210e-01,7.104874e-02,2,3
1.812090e-01,5.483627e-02,2,2
1.812570e-01,1.692772e-02,2,0
1.784990e-01,1.621246e-02,2,0
9.062300e-02,1.597404e-02,1,0
1.771590e-01,1.597404e-02,2,0
9.044200e-02,1.621246e-02,1,0
9.042800e-02,1.597404e-02,1,0
9.046700e-02,1.692772e-02,1,0
9.051400e-02,1.597404e-02,1,0

