2.502305e+00,2.368457e+00,2,2,0.000000e+00,0.000000e+00
3.736224e+00,3.495283e+00,3,3,2.943502e-01,2.943501e-01
3.702798e+00,3.485529e+00,3,3,7.738568e-01,7.738566e-01
3.705440e+00,3.488425e+00,3,3,2.110699e+00,2.110699e+00
3.722921e+00,3.493813e+00,3,3,9.151715e-01,9.151716e-01
3.722759e+00,3.510070e+00,3,3,3.310158e+00,3.310155e+00
3.695858e+00,3.534073e+00,3,3,4.396029e+00,4.396036e+00
3.697269e+00,3.515106e+00,3,3,6.049184e+00,6.049392e+00
3.697971e+00,3.490161e+00,3,3,6.796466e+00,6.796660e+00
3.693458e+00,3.489275e+00,3,3,9.220863e+00,9.221132e+00
3.699951e+00,3.691964e+00,3,3,7.076029e+00,7.076057e+00
3.720037e+00,3.489806e+00,3,3,7.225058e+00,7.225085e+00
3.694240e+00,3.526956e+00,3,3,6.440358e+00,6.440359e+00
3.696862e+00,3.539335e+00,3,3,7.070589e+00,7.070602e+00
3.697084e+00,3.483674e+00,3,3,5.366433e+00,5.366435e+00
3.700595e+00,3.484837e+00,3,3,4.718849e+00,4.718849e+00
3.694140e+00,3.487950e+00,3,3,5.027944e+00,5.027943e+00
3.687308e+00,3.514533e+00,3,3,4.898086e+00,4.898085e+00
3.692052e+00,3.485333e+00,3,3,6.187872e+00,6.187871e+00
3.700343e+00,3.511342e+00,3,3,8.093107e+00,8.093106e+00
3.697220e+00,3.551815e+00,3,3,8.250017e+00,8.250016e+00
3.801965e+00,3.593997e+00,3,3,8.075628e+00,8.075636e+00
3.809104e+00,3.589310e+00,3,3,7.999811e+00,7.999832e+00
3.804935e+00,3.591175e+00,3,3,7.032232e+00,7.032234e+00
3.802908e+00,3.587106e+00,3,3,5.565580e+00,5.565581e+00
3.813212e+00,3.589356e+00,3,3,5.866769e+00,5.866768e+00
3.798491e+00,3.594656e+00,3,3,4.289288e+00,4.289287e+00
3.802367e+00,3.588140e+00,3,3,4.144728e+00,4.144727e+00
3.805429e+00,3.589447e+00,3,3,4.099341e+00,4.099340e+00
3.805948e+00,3.587930e+00,3,3,3.010831e+00,3.010831e+00
3.816482e+00,3.593417e+00,3,3,3.632744e+00,3.632743e+00
3.795102e+00,3.591083e+00,3,3,3.443847e+00,3.443847e+00
3.802238e+00,3.586621e+00,3,3,2.213546e+00,2.213546e+00
3.806559e+00,3.593201e+00,3,3,2.015604e+00,2.015604e+00
3.806825e+00,3.587132e+00,3,3,3.537603e+00,3.537601e+00
3.802122e+00,3.591859e+00,3,3,2.862344e+00,2.862344e+00
3.829634e+00,3.593534e+00,3,3,2.012374e+00,2.012373e+00
3.805562e+00,3.586993e+00,3,3,3.723258e+00,3.723257e+00
3.805577e+00,3.592763e+00,3,3,3.506795e+00,3.506794e+00
3.802559e+00,3.589492e+00,3,3,3.303820e+00,3.303820e+00
3.826842e+00,3.607401e+00,3,3,1.799392e+00,1.799393e+00
3.770369e+00,3.491305e+00,3,3,3.816012e+00,3.816010e+00
3.696187e+00,3.483720e+00,3,3,2.636189e+00,2.636189e+00
3.694492e+00,3.485482e+00,3,3,2.468861e+00,2.468861e+00
3.692714e+00,3.490228e+00,3,3,1.638367e+00,1.638367e+00
3.698507e+00,3.513508e+00,3,3,1.308424e+00,1.308423e+00
3.687985e+00,3.512533e+00,3,3,1.499527e+00,1.499527e+00
3.692211e+00,3.509030e+00,3,3,1.177837e+00,1.177837e+00
3.711177e+00,3.511041e+00,3,3,8.472224e-01,8.472224e-01
3.696117e+00,3.488766e+00,3,3,1.111874e+00,1.111873e+00
3.700250e+00,3.510436e+00,3,3,3.024757e+00,3.024755e+00
3.695102e+00,3.483530e+00,3,3,6.404152e+00,6.404150e+00
3.693729e+00,3.484662e+00,3,3,3.879767e+00,3.879768e+00
3.692698e+00,3.511001e+00,3,3,2.488073e+00,2.488073e+00
3.698369e+00,3.540652e+00,3,3,2.474610e+00,2.474610e+00
3.721951e+00,3.489323e+00,3,3,2.462520e+00,2.462520e+00
3.691518e+00,3.500975e+00,3,3,3.273766e+00,3.273765e+00
3.697291e+00,3.482306e+00,3,3,2.128115e+00,2.128116e+00
3.704630e+00,3.486845e+00,3,3,1.372840e+00,1.372840e+00
3.695976e+00,3.489224e+00,3,3,1.019340e+00,1.019339e+00
3.693155e+00,3.515213e+00,3,3,1.291427e+00,1.291427e+00
3.722120e+00,3.512883e+00,3,3,1.122847e+00,1.122847e+00
3.693174e+00,3.509693e+00,3,3,8.906360e-01,8.906359e-01
3.710778e+00,3.506969e+00,3,3,1.908737e+00,1.908737e+00
3.691142e+00,3.487762e+00,3,3,3.367062e+00,3.367061e+00
3.693975e+00,3.513051e+00,3,3,2.785949e+00,2.785949e+00
3.688110e+00,3.511125e+00,3,3,3.767122e+00,3.767121e+00
3.759612e+00,3.526329e+00,3,3,7.055469e+00,7.055470e+00
3.720089e+00,3.542957e+00,3,3,6.149421e+00,6.149421e+00
3.692304e+00,3.521239e+00,3,3,8.154454e+00,8.154453e+00
3.706451e+00,3.484781e+00,3,3,6.968053e+00,6.968054e+00
3.699394e+00,3.510742e+00,3,3,6.752393e+00,6.752393e+00
3.698403e+00,3.490748e+00,3,3,5.070212e+00,5.070215e+00
3.692772e+00,3.487755e+00,3,3,4.315196e+00,4.315196e+00
3.701668e+00,3.534995e+00,3,3,4.185394e+00,4.185394e+00
3.716312e+00,3.531657e+00,3,3,2.809427e+00,2.809428e+00
3.724346e+00,3.494696e+00,3,3,2.651844e+00,2.651843e+00
3.700551e+00,3.488077e+00,3,3,3.109754e+00,3.109753e+00
3.685941e+00,3.487130e+00,3,3,4.195332e+00,4.195332e+00
3.703283e+00,3.485361e+00,3,3,3.316977e+00,3.316978e+00
3.691665e+00,3.484901e+00,3,3,6.509702e+00,6.509847e+00
4.945437e+00,4.641454e+00,4,4,4.703765e+00,4.703766e+00
3.750374e+00,3.485246e+00,3,3,5.636955e+00,5.636955e+00
3.695969e+00,3.489732e+00,3,3,5.430749e+00,5.430750e+00
3.694529e+00,3.486116e+00,3,3,3.320933e+00,3.320933e+00
3.687872e+00,3.487406e+00,3,3,3.657562e+00,3.657561e+00
3.694280e+00,3.484159e+00,3,3,5.539689e+00,5.539688e+00
3.690651e+00,3.482854e+00,3,3,6.083959e+00,6.083968e+00
3.718056e+00,3.483807e+00,3,3,6.034668e+00,6.034680e+00
3.724695e+00,3.512001e+00,3,3,6.303631e+00,6.303680e+00
3.694166e+00,3.487452e+00,3,3,6.724687e+00,6.724440e+00
8.598216e+00,6.960573e+00,7,6,5.521227e+00,5.530043e+00
7.453508e+00,6.958772e+00,6,6,6.523966e+00,6.515804e+00
4.953048e+00,4.689969e+00,4,4,6.873727e+00,6.873806e+00
3.691799e+00,3.487876e+00,3,3,7.232455e+00,7.232871e+00
7.386064e+00,4.644302e+00,6,4,4.974623e+00,4.961276e+00
4.924196e+00,3.482033e+00,4,3,5.226757e+00,5.227292e+00
3.717267e+00,3.508678e+00,3,3,3.211760e+00,3.211798e+00
3.720438e+00,3.540135e+00,3,3,2.593122e+00,2.593121e+00
3.721623e+00,3.540573e+00,3,3,4.956568e+00,4.956565e+00
3.732068e+00,3.485824e+00,3,3,4.288620e+00,4.288621e+00
3.695254e+00,3.484212e+00,3,3,2.972799e+00,2.972800e+00
3.708273e+00,3.482020e+00,3,3,2.910543e+00,2.910544e+00
3.695706e+00,3.490078e+00,3,3,5.323566e+00,5.323080e+00
4.921529e+00,4.643535e+00,4,4,3.800284e+00,3.800285e+00
3.723397e+00,3.484720e+00,3,3,3.527421e+00,3.527444e+00
3.745522e+00,3.487604e+00,3,3,2.014509e+00,2.014510e+00
3.689188e+00,3.487853e+00,3,3,1.532552e+00,1.532552e+00
3.701925e+00,3.484708e+00,3,3,1.610091e+00,1.610090e+00
3.693402e+00,3.484024e+00,3,3,9.228754e-01,9.228754e-01
3.697093e+00,3.483942e+00,3,3,2.093515e+00,2.093514e+00
3.695796e+00,3.490511e+00,3,3,6.281803e+00,6.281800e+00
3.723315e+00,3.490319e+00,3,3,8.694862e+00,8.694899e+00
4.948811e+00,4.673738e+00,4,4,1.516299e+01,1.514925e+01
7.387889e+00,6.964535e+00,6,6,1.650787e+01,1.650502e+01
7.374118e+00,5.800139e+00,6,5,1.340435e+01,1.341757e+01
4.918623e+00,4.671565e+00,4,4,7.230196e+00,7.230198e+00
3.691626e+00,3.541266e+00,3,3,5.280200e+00,5.280200e+00
3.701267e+00,3.487122e+00,3,3,4.385274e+00,4.385273e+00
3.695636e+00,3.485026e+00,3,3,4.487674e+00,4.487673e+00
3.700573e+00,3.489275e+00,3,3,7.405902e+00,7.405907e+00
3.701379e+00,3.490091e+00,3,3,7.968609e+00,7.969651e+00
6.175822e+00,5.806526e+00,5,5,8.988689e+00,8.973344e+00
7.392763e+00,7.009696e+00,6,6,7.658340e+00,7.659039e+00
6.173128e+00,4.642428e+00,5,4,7.460334e+00,7.463071e+00
7.374385e+00,6.988546e+00,6,6,1.287743e+01,1.287266e+01
4.947706e+00,5.830960e+00,4,5,6.255206e+00,6.266264e+00
4.972429e+00,4.697376e+00,4,4,6.000990e+00,6.001200e+00
3.693453e+00,3.488276e+00,3,3,3.142335e+00,3.142344e+00
3.699539e+00,3.481408e+00,3,3,2.729577e+00,2.729577e+00
3.695345e+00,3.484739e+00,3,3,2.614599e+00,2.614599e+00
3.697725e+00,3.490877e+00,3,3,2.493856e+00,2.493855e+00
3.691669e+00,3.485424e+00,3,3,3.342561e+00,3.342560e+00
3.685535e+00,3.512503e+00,3,3,2.073159e+00,2.073159e+00
3.692138e+00,3.510399e+00,3,3,2.776812e+00,2.776811e+00
3.718132e+00,3.481107e+00,3,3,2.030324e+00,2.030324e+00
3.699078e+00,3.486376e+00,3,3,3.003127e+00,3.003126e+00
3.690326e+00,3.485262e+00,3,3,5.179120e+00,5.179119e+00
3.689892e+00,3.485882e+00,3,3,9.820808e+00,9.819690e+00
4.919874e+00,4.646165e+00,4,4,6.050881e+00,6.050989e+00
3.718259e+00,3.487891e+00,3,3,4.052534e+00,4.052632e+00
3.742683e+00,3.480678e+00,3,3,3.325520e+00,3.325543e+00
3.690840e+00,3.481029e+00,3,3,4.569673e+00,4.569694e+00
3.691765e+00,3.481095e+00,3,3,2.306430e+00,2.306436e+00
3.696140e+00,3.487956e+00,3,3,2.211195e+00,2.211194e+00
3.696687e+00,3.486673e+00,3,3,1.617141e+00,1.617141e+00
3.688321e+00,3.485748e+00,3,3,1.775676e+00,1.775675e+00
3.722346e+00,3.482853e+00,3,3,2.853577e+00,2.853575e+00
3.722471e+00,3.509495e+00,3,3,3.305863e+00,3.305862e+00
3.698056e+00,3.489309e+00,3,3,3.097319e+00,3.097319e+00
3.719657e+00,3.486341e+00,3,3,3.570088e+00,3.570087e+00
3.692969e+00,3.482113e+00,3,3,3.522204e+00,3.522207e+00
3.690167e+00,3.484303e+00,3,3,3.321794e+00,3.321761e+00
7.368220e+00,4.662164e+00,6,4,4.892920e+00,4.878847e+00
4.974206e+00,3.485620e+00,4,3,2.306900e+00,2.306989e+00
3.703210e+00,3.514343e+00,3,3,2.799719e+00,2.799718e+00
3.691293e+00,3.482468e+00,3,3,3.558301e+00,3.558300e+00
3.692469e+00,3.484173e+00,3,3,4.167696e+00,4.167695e+00
3.719001e+00,3.500082e+00,3,3,3.855786e+00,3.855786e+00
3.701408e+00,3.513509e+00,3,3,3.354423e+00,3.354423e+00
3.755401e+00,3.483195e+00,3,3,2.667023e+00,2.667023e+00
3.718890e+00,3.508238e+00,3,3,2.723555e+00,2.723554e+00
3.699331e+00,3.482189e+00,3,3,3.632854e+00,3.632853e+00
3.701033e+00,3.485572e+00,3,3,4.985992e+00,4.985993e+00
3.696163e+00,3.491829e+00,3,3,3.754074e+00,3.754085e+00
3.694502e+00,3.484792e+00,3,3,2.981566e+00,2.981569e+00
3.696702e+00,3.483366e+00,3,3,3.429917e+00,3.429917e+00
3.721025e+00,3.488377e+00,3,3,1.773222e+00,1.773223e+00
3.745973e+00,3.489644e+00,3,3,2.310445e+00,2.310447e+00
3.693821e+00,3.490191e+00,3,3,1.769403e+00,1.769404e+00
3.699471e+00,3.484957e+00,3,3,2.222336e+00,2.222335e+00
3.703254e+00,3.483806e+00,3,3,1.798044e+00,1.798044e+00
3.700984e+00,3.485093e+00,3,3,2.925571e+00,2.925570e+00
3.695276e+00,3.487216e+00,3,3,2.867887e+00,2.867887e+00
3.719974e+00,3.489974e+00,3,3,2.572568e+00,2.572568e+00
3.723409e+00,3.510472e+00,3,3,2.077559e+00,2.077559e+00
3.699628e+00,3.483079e+00,3,3,2.079005e+00,2.079002e+00
3.692309e+00,3.483541e+00,3,3,1.756995e+00,1.756995e+00
3.727449e+00,3.488057e+00,3,3,1.642100e+00,1.642100e+00
3.691441e+00,3.484865e+00,3,3,4.207816e+00,4.207692e+00
7.394233e+00,7.012776e+00,6,6,3.187179e+00,3.186047e+00
3.718988e+00,3.489598e+00,3,3,2.658732e+00,2.658720e+00
3.698318e+00,3.488225e+00,3,3,2.591596e+00,2.591595e+00
3.693611e+00,3.488241e+00,3,3,2.309567e+00,2.309569e+00
3.705271e+00,3.484307e+00,3,3,1.435713e+00,1.435713e+00
3.695552e+00,3.483874e+00,3,3,1.767386e+00,1.767386e+00
3.692349e+00,3.486059e+00,3,3,1.103547e+00,1.103547e+00
3.724328e+00,3.487924e+00,3,3,3.336382e+00,3.336380e+00
3.724117e+00,3.513979e+00,3,3,2.685376e+00,2.685376e+00
3.699696e+00,3.482818e+00,3,3,2.028989e+00,2.028989e+00
3.698829e+00,3.486200e+00,3,3,3.135567e+00,3.135565e+00
3.705084e+00,3.487889e+00,3,3,4.109252e+00,4.109262e+00
3.716588e+00,3.513101e+00,3,3,1.798459e+00,1.798460e+00
3.719842e+00,3.486950e+00,3,3,1.553122e+00,1.553122e+00
3.748789e+00,3.537252e+00,3,3,2.135773e+00,2.135773e+00
3.694002e+00,3.488072e+00,3,3,1.428018e+00,1.428018e+00
3.685823e+00,3.489967e+00,3,3,1.934787e+00,1.934786e+00
3.692180e+00,3.490168e+00,3,3,1.260185e+00,1.260185e+00
3.722806e+00,3.488458e+00,3,3,1.424758e+00,1.424758e+00
3.701286e+00,3.483518e+00,3,3,1.292300e+00,1.292300e+00
3.706399e+00,3.515245e+00,3,3,9.546574e-01,9.546572e-01
3.690490e+00,3.514145e+00,3,3,8.896162e-01,8.896160e-01
3.693726e+00,3.513808e+00,3,3,2.081078e+00,2.081076e+00
3.696396e+00,3.483341e+00,3,3,9.561507e-01,9.561507e-01
3.692547e+00,3.486647e+00,3,3,1.354896e+00,1.354896e+00
3.694962e+00,3.485986e+00,3,3,1.135734e+00,1.135733e+00
3.716266e+00,3.487958e+00,3,3,1.553032e+00,1.553031e+00
3.699223e+00,3.515011e+00,3,3,3.341175e+00,3.341173e+00
3.707240e+00,3.538881e+00,3,3,2.713586e+00,2.713586e+00
3.697105e+00,3.482742e+00,3,3,2.370907e+00,2.370907e+00
3.691392e+00,3.487339e+00,3,3,9.188416e+00,9.188150e+00
7.376004e+00,6.962221e+00,6,6,6.904343e+00,6.897515e+00
4.930857e+00,4.646154e+00,4,4,4.790216e+00,4.790216e+00
3.694638e+00,3.514364e+00,3,3,5.217198e+00,5.217197e+00
3.724921e+00,3.484185e+00,3,3,5.230823e+00,5.230823e+00
3.720825e+00,3.486241e+00,3,3,5.364297e+00,5.364297e+00
3.701284e+00,3.571678e+00,3,3,7.233877e+00,7.233904e+00
3.808432e+00,3.595201e+00,3,3,5.077922e+00,5.077926e+00
3.803814e+00,3.587744e+00,3,3,4.198243e+00,4.198242e+00
3.815425e+00,3.591910e+00,3,3,3.640930e+00,3.640930e+00
3.807388e+00,3.586331e+00,3,3,4.329281e+00,4.329281e+00
3.831397e+00,3.592762e+00,3,3,3.536917e+00,3.536917e+00
3.805059e+00,3.592100e+00,3,3,3.393125e+00,3.393124e+00
3.800967e+00,3.585130e+00,3,3,3.618699e+00,3.618698e+00
3.809546e+00,3.594820e+00,3,3,2.692856e+00,2.692856e+00
3.800685e+00,3.587986e+00,3,3,2.343506e+00,2.343506e+00
3.803505e+00,3.591181e+00,3,3,2.815578e+00,2.815577e+00
3.804279e+00,3.591729e+00,3,3,1.923835e+00,1.923835e+00
3.810424e+00,3.583585e+00,3,3,1.826420e+00,1.826420e+00
3.805060e+00,3.592277e+00,3,3,3.177283e+00,3.177282e+00
3.805532e+00,3.589275e+00,3,3,2.959612e+00,2.959612e+00
3.812186e+00,3.589979e+00,3,3,1.839261e+00,1.839262e+00
3.804820e+00,3.589455e+00,3,3,1.785615e+00,1.785615e+00
3.816759e+00,3.584288e+00,3,3,7.976561e-01,7.976558e-01
3.803739e+00,3.589993e+00,3,3,4.706168e-01,4.706168e-01
3.808730e+00,3.585890e+00,3,3,4.162991e-01,4.162990e-01
3.801243e+00,3.592221e+00,3,3,1.018298e+00,1.018298e+00
3.794014e+00,3.589473e+00,3,3,2.366419e+00,2.366418e+00
3.809440e+00,3.583892e+00,3,3,3.783975e+00,3.783974e+00
3.801981e+00,3.587185e+00,3,3,4.582415e+00,4.582414e+00
3.807709e+00,3.584739e+00,3,3,6.226779e+00,6.226784e+00
3.803338e+00,3.590264e+00,3,3,4.482309e+00,4.482312e+00
3.801771e+00,3.589319e+00,3,3,3.336196e+00,3.336196e+00
3.808037e+00,3.592705e+00,3,3,2.943437e+00,2.943437e+00
3.808357e+00,3.592506e+00,3,3,2.522391e+00,2.522391e+00
3.806019e+00,3.587814e+00,3,3,3.032511e+00,3.032511e+00
3.801491e+00,3.590125e+00,3,3,3.456886e+00,3.456884e+00
3.801602e+00,3.585268e+00,3,3,2.242254e+00,2.242254e+00
3.767326e+00,3.483745e+00,3,3,2.017916e+00,2.017915e+00
3.697909e+00,3.488003e+00,3,3,1.597608e+00,1.597608e+00
3.698006e+00,3.488331e+00,3,3,1.671926e+00,1.671926e+00
3.698527e+00,3.487590e+00,3,3,2.047242e+00,2.047242e+00
3.694995e+00,3.483475e+00,3,3,1.421585e+00,1.421586e+00
3.699750e+00,3.484160e+00,3,3,2.739543e+00,2.739542e+00
3.730163e+00,3.486636e+00,3,3,4.199642e+00,4.199644e+00
3.716840e+00,3.522807e+00,3,3,5.928770e+00,5.928805e+00
3.697634e+00,3.484420e+00,3,3,4.161643e+00,4.161646e+00
3.695202e+00,3.484917e+00,3,3,1.589852e+00,1.589853e+00
3.692993e+00,3.485872e+00,3,3,1.791703e+00,1.791703e+00
3.719088e+00,3.489972e+00,3,3,2.339039e+00,2.339039e+00
3.721932e+00,3.516655e+00,3,3,2.541469e+00,2.541472e+00
3.743808e+00,3.538364e+00,3,3,3.331810e+00,3.331809e+00
3.720975e+00,3.510517e+00,3,3,6.903008e+00,6.903011e+00
3.701045e+00,3.486566e+00,3,3,4.792142e+00,4.792145e+00
3.694360e+00,3.487963e+00,3,3,4.036393e+00,4.036393e+00
3.696330e+00,3.486415e+00,3,3,4.326546e+00,4.326545e+00
3.704813e+00,3.482888e+00,3,3,7.773648e+00,7.773710e+00
3.696448e+00,3.483462e+00,3,3,6.659506e+00,6.659585e+00
3.731339e+00,3.488514e+00,3,3,5.223939e+00,5.223984e+00
3.716070e+00,3.516373e+00,3,3,7.952374e+00,7.953061e+00
6.143778e+00,5.805603e+00,5,5,1.051842e+01,1.052054e+01
4.925436e+00,3.484470e+00,4,3,1.176301e+01,1.176422e+01
8.600271e+00,6.960568e+00,7,6,1.150883e+01,1.151742e+01
4.946697e+00,4.693520e+00,4,4,8.788686e+00,8.788687e+00
3.696123e+00,3.486843e+00,3,3,8.631488e+00,8.631488e+00
3.700311e+00,3.489039e+00,3,3,8.106698e+00,8.106698e+00
3.704316e+00,3.485722e+00,3,3,7.204660e+00,7.204660e+00
3.693939e+00,3.483314e+00,3,3,6.104625e+00,6.104625e+00
3.695855e+00,3.485007e+00,3,3,4.980099e+00,4.980099e+00
3.697604e+00,3.514587e+00,3,3,4.587683e+00,4.587683e+00
3.689718e+00,3.516054e+00,3,3,3.338082e+00,3.338082e+00
3.725395e+00,3.489372e+00,3,3,4.581268e+00,4.581266e+00
3.700316e+00,3.482409e+00,3,3,4.688991e+00,4.688996e+00
3.704914e+00,3.487002e+00,3,3,3.873939e+00,3.873981e+00
3.699485e+00,3.488990e+00,3,3,3.609327e+00,3.609442e+00
3.687317e+00,3.487880e+00,3,3,2.598881e+00,2.598980e+00
3.749200e+00,3.510214e+00,3,3,4.698141e+00,4.697950e+00
7.436016e+00,6.992317e+00,6,6,1.197597e+01,1.197333e+01
7.414036e+00,4.643965e+00,6,4,6.728040e+00,6.723885e+00
4.930285e+00,3.510812e+00,4,3,8.536181e+00,8.536179e+00
3.702842e+00,3.514530e+00,3,3,1.099212e+01,1.099296e+01
9.941646e+00,4.674181e+00,8,4,5.995136e+00,5.980364e+00
4.939856e+00,3.492151e+00,4,3,6.093524e+00,6.093686e+00
3.698558e+00,3.486977e+00,3,3,4.089704e+00,4.089706e+00
3.696976e+00,3.488211e+00,3,3,3.708844e+00,3.708844e+00
3.694368e+00,3.486038e+00,3,3,3.092194e+00,3.092193e+00
3.702850e+00,3.485117e+00,3,3,2.425441e+00,2.425440e+00
3.698050e+00,3.509280e+00,3,3,1.803063e+00,1.803063e+00
3.749699e+00,3.490413e+00,3,3,1.941692e+00,1.941692e+00
3.694952e+00,3.489967e+00,3,3,4.353152e+00,4.353165e+00
3.692578e+00,3.482795e+00,3,3,3.658480e+00,3.660020e+00
4.924592e+00,4.646878e+00,4,4,1.364080e+00,1.364080e+00
3.699638e+00,3.489261e+00,3,3,2.361011e+00,2.361010e+00
3.698747e+00,3.483501e+00,3,3,2.455755e+00,2.455755e+00
3.715110e+00,3.486281e+00,3,3,3.022535e+00,3.022535e+00
3.720275e+00,3.512238e+00,3,3,1.788576e+00,1.788577e+00
3.695729e+00,3.487673e+00,3,3,1.995499e+00,1.995498e+00
3.698314e+00,3.490505e+00,3,3,2.971568e+00,2.971568e+00
3.698515e+00,3.487322e+00,3,3,2.725308e+00,2.725308e+00
3.698609e+00,3.485085e+00,3,3,1.840622e+00,1.840622e+00
3.690814e+00,3.484549e+00,3,3,1.679198e+00,1.679198e+00
3.720018e+00,3.513346e+00,3,3,2.019618e+00,2.019617e+00
3.724827e+00,3.489184e+00,3,3,4.082909e+00,4.082906e+00
3.700420e+00,3.513226e+00,3,3,4.621446e+00,4.621446e+00
3.701562e+00,3.487469e+00,3,3,4.576738e+00,4.576738e+00
3.694264e+00,3.488874e+00,3,3,3.778982e+00,3.778982e+00
3.697970e+00,3.488323e+00,3,3,3.770301e+00,3.770301e+00
3.692793e+00,3.493002e+00,3,3,4.168633e+00,4.168632e+00
3.719136e+00,3.484324e+00,3,3,4.485210e+00,4.485210e+00
3.727094e+00,3.510846e+00,3,3,3.540991e+00,3.540992e+00
3.700590e+00,3.487169e+00,3,3,4.427200e+00,4.427199e+00
3.695825e+00,3.487917e+00,3,3,5.477882e+00,5.477882e+00
3.694150e+00,3.484971e+00,3,3,8.906170e+00,8.904962e+00
7.419591e+00,5.826995e+00,6,5,9.669510e+00,9.700501e+00
4.984632e+00,4.697715e+00,4,4,4.808811e+00,4.808814e+00
3.689973e+00,3.510568e+00,3,3,3.551482e+00,3.551482e+00
3.704205e+00,3.484826e+00,3,3,3.414315e+00,3.414314e+00
3.701929e+00,3.514561e+00,3,3,3.799390e+00,3.799390e+00
3.690386e+00,3.489933e+00,3,3,3.754078e+00,3.754078e+00
4.955695e+00,3.510638e+00,4,3,1.154891e+01,1.155655e+01
7.405751e+00,6.986962e+00,6,6,1.672569e+01,1.672799e+01
7.400402e+00,6.965235e+00,6,6,1.311130e+01,1.310815e+01
9.855790e+00,4.648474e+00,8,4,1.279651e+01,1.280256e+01
7.383936e+00,6.987482e+00,6,6,1.190215e+01,1.190647e+01
7.422264e+00,6.961902e+00,6,6,1.456208e+01,1.455846e+01
4.929769e+00,4.672402e+00,4,4,1.206187e+01,1.205999e+01
6.139415e+00,4.643848e+00,5,4,1.612955e+01,1.612379e+01
4.924036e+00,4.644128e+00,4,4,1.281998e+01,1.281999e+01
3.721336e+00,3.486987e+00,3,3,1.095365e+01,1.095365e+01
3.719254e+00,3.523699e+00,3,3,8.102391e+00,8.102393e+00
3.690426e+00,3.527194e+00,3,3,6.582274e+00,6.582275e+00
3.702566e+00,3.483875e+00,3,3,6.002305e+00,6.002305e+00
3.692928e+00,3.485202e+00,3,3,4.513115e+00,4.513116e+00
3.694668e+00,3.486743e+00,3,3,3.845873e+00,3.845873e+00
3.693550e+00,3.487845e+00,3,3,3.722838e+00,3.722838e+00
3.725445e+00,3.509656e+00,3,3,2.629667e+00,2.629667e+00
3.721265e+00,3.485364e+00,3,3,2.656381e+00,2.656380e+00
3.695141e+00,3.484798e+00,3,3,1.850317e+00,1.850317e+00
3.693756e+00,3.484266e+00,3,3,1.047555e+00,1.047555e+00
3.695229e+00,3.487232e+00,3,3,2.704134e+00,2.704133e+00
3.728483e+00,3.604372e+00,3,3,1.254604e+00,1.254604e+00
3.779832e+00,3.511715e+00,3,3,8.889712e-01,8.889709e-01
3.747919e+00,3.517127e+00,3,3,1.207745e+00,1.207745e+00
3.721327e+00,3.513463e+00,3,3,1.064289e+00,1.064289e+00
3.699179e+00,3.485847e+00,3,3,1.880616e+00,1.880615e+00
3.722230e+00,3.482221e+00,3,3,1.101737e+00,1.101738e+00
3.696668e+00,3.490304e+00,3,3,2.770470e+00,2.770468e+00
3.690857e+00,3.489111e+00,3,3,2.550560e+00,2.550560e+00
3.698846e+00,3.513851e+00,3,3,2.365976e+00,2.365976e+00
3.732678e+00,3.510537e+00,3,3,1.558908e+00,1.558908e+00
3.722783e+00,3.482753e+00,3,3,2.535408e+00,2.535407e+00
3.694538e+00,3.487839e+00,3,3,2.454961e+00,2.454961e+00
3.700982e+00,3.486408e+00,3,3,2.626964e+00,2.626963e+00
3.690945e+00,3.510755e+00,3,3,2.040742e+00,2.040742e+00
3.695299e+00,3.483107e+00,3,3,1.875050e+00,1.875050e+00
3.691826e+00,3.481857e+00,3,3,1.587148e+00,1.587148e+00
3.719732e+00,3.488153e+00,3,3,1.230955e+00,1.230955e+00
3.718014e+00,3.514018e+00,3,3,1.278793e+00,1.278793e+00
3.695476e+00,3.484771e+00,3,3,1.022407e+00,1.022407e+00
3.692652e+00,3.484991e+00,3,3,1.543585e+00,1.543584e+00
3.696224e+00,3.485134e+00,3,3,1.477633e+00,1.477633e+00
3.696205e+00,3.488635e+00,3,3,2.805497e+00,2.805496e+00
3.691721e+00,3.488637e+00,3,3,3.538421e+00,3.538421e+00
3.720787e+00,3.538380e+00,3,3,7.698572e+00,7.698569e+00
3.701262e+00,3.485347e+00,3,3,6.636430e+00,6.636435e+00
3.703110e+00,3.488092e+00,3,3,3.366050e+00,3.366051e+00
3.704358e+00,3.487323e+00,3,3,3.715297e+00,3.715296e+00
3.699636e+00,3.488083e+00,3,3,3.973241e+00,3.973241e+00
3.698391e+00,3.486930e+00,3,3,4.613007e+00,4.613006e+00
3.697354e+00,3.510722e+00,3,3,4.342410e+00,4.342410e+00
3.702955e+00,3.515733e+00,3,3,3.700611e+00,3.700610e+00
3.720328e+00,3.490181e+00,3,3,4.268945e+00,4.268943e+00
3.700785e+00,3.485345e+00,3,3,4.423437e+00,4.423437e+00
3.698996e+00,3.483565e+00,3,3,4.586933e+00,4.586932e+00
3.699988e+00,3.486126e+00,3,3,5.096225e+00,5.096225e+00
3.723583e+00,3.514162e+00,3,3,6.038832e+00,6.038838e+00
3.723207e+00,3.540713e+00,3,3,2.306173e+00,2.306175e+00
3.712462e+00,3.525426e+00,3,3,2.509675e+00,2.509675e+00
3.696641e+00,3.533219e+00,3,3,3.255081e+00,3.255081e+00
3.705540e+00,3.487196e+00,3,3,2.127946e+00,2.127947e+00
3.695198e+00,3.489104e+00,3,3,1.598678e+00,1.598677e+00
3.695348e+00,3.485340e+00,3,3,1.522938e+00,1.522938e+00
3.699306e+00,3.513784e+00,3,3,1.566273e+00,1.566273e+00
3.689777e+00,3.509628e+00,3,3,1.588308e+00,1.588307e+00
3.695420e+00,3.515352e+00,3,3,1.282278e+00,1.282278e+00
3.713724e+00,3.488415e+00,3,3,1.709831e+00,1.709831e+00
3.701003e+00,3.485511e+00,3,3,2.356897e+00,2.356895e+00
3.699889e+00,3.484661e+00,3,3,3.438205e+00,3.438204e+00
3.704164e+00,3.482584e+00,3,3,5.105882e+00,5.105879e+00
3.693313e+00,3.488250e+00,3,3,1.009198e+01,1.009215e+01
3.692323e+00,4.671933e+00,3,4,9.071002e+00,9.070577e+00
4.979865e+00,3.484190e+00,4,3,9.122450e+00,9.122925e+00
3.689580e+00,3.488805e+00,3,3,8.059125e+00,8.059227e+00
3.696875e+00,3.489189e+00,3,3,7.667674e+00,7.667812e+00
3.694426e+00,3.483024e+00,3,3,5.890774e+00,5.890788e+00
3.699672e+00,3.483847e+00,3,3,5.081142e+00,5.081144e+00
3.703768e+00,3.483613e+00,3,3,6.157650e+00,6.157749e+00
3.723190e+00,3.487166e+00,3,3,3.648162e+00,3.648169e+00
3.717780e+00,3.512992e+00,3,3,4.012717e+00,4.012716e+00
3.695655e+00,3.487265e+00,3,3,4.401239e+00,4.401238e+00
3.699690e+00,3.484368e+00,3,3,5.999107e+00,5.999177e+00
3.698360e+00,3.487536e+00,3,3,3.831817e+00,3.831761e+00
3.729629e+00,3.593185e+00,3,3,1.990552e+00,1.990552e+00
3.802600e+00,3.588386e+00,3,3,1.533872e+00,1.533872e+00
3.805037e+00,3.590636e+00,3,3,1.576811e+00,1.576810e+00
3.806228e+00,3.592542e+00,3,3,3.107624e+00,3.107622e+00
3.805982e+00,3.586531e+00,3,3,2.469162e+00,2.469162e+00
3.815054e+00,3.588528e+00,3,3,2.520327e+00,2.520327e+00
3.808611e+00,3.584978e+00,3,3,2.508417e+00,2.508417e+00
3.808118e+00,3.590359e+00,3,3,3.208301e+00,3.208300e+00
3.801373e+00,3.588241e+00,3,3,8.632316e+00,8.632107e+00
5.060447e+00,4.788032e+00,4,4,6.497508e+00,6.497511e+00
3.809448e+00,3.584266e+00,3,3,3.725296e+00,3.725297e+00
3.814623e+00,3.590342e+00,3,3,3.393167e+00,3.393166e+00
3.804020e+00,3.587501e+00,3,3,2.444499e+00,2.444498e+00
3.810533e+00,3.591095e+00,3,3,4.077829e+00,4.077827e+00
3.803243e+00,3.592711e+00,3,3,5.963876e+00,5.963873e+00
3.809423e+00,3.586358e+00,3,3,3.851657e+00,3.851658e+00
3.801305e+00,3.590154e+00,3,3,2.903419e+00,2.903419e+00
3.798779e+00,3.586718e+00,3,3,2.142724e+00,2.142723e+00
3.811402e+00,3.589553e+00,3,3,1.976376e+00,1.976376e+00
3.797958e+00,3.591438e+00,3,3,2.216800e+00,2.216798e+00
3.805916e+00,3.588624e+00,3,3,2.338784e+00,2.338783e+00
3.800889e+00,3.590960e+00,3,3,8.038378e-01,8.038380e-01
3.802167e+00,3.607177e+00,3,3,1.025675e+00,1.025675e+00
3.844208e+00,3.602189e+00,3,3,9.353343e-01,9.353341e-01
3.830123e+00,3.586547e+00,3,3,1.424047e+00,1.424046e+00
3.815673e+00,3.595701e+00,3,3,1.090306e+00,1.090306e+00
3.796836e+00,3.604316e+00,3,3,6.275622e+00,6.275617e+00
3.807405e+00,3.590126e+00,3,3,3.924268e+00,3.924270e+00
3.816033e+00,3.603255e+00,3,3,4.911938e+00,4.911941e+00
3.806420e+00,3.535014e+00,3,3,2.987617e+00,2.987618e+00
3.704132e+00,3.486126e+00,3,3,3.894830e+00,3.894827e+00
3.699023e+00,3.488192e+00,3,3,5.026864e+00,5.026863e+00
3.698067e+00,3.502413e+00,3,3,7.493912e+00,7.493952e+00
3.689693e+00,3.504171e+00,3,3,6.361314e+00,6.362732e+00
7.391248e+00,6.991553e+00,6,6,3.643108e+00,3.639319e+00
4.932892e+00,4.698187e+00,4,4,6.243747e+00,6.243572e+00
4.945610e+00,4.654408e+00,4,4,3.761127e+00,3.761128e+00
3.698274e+00,3.492828e+00,3,3,9.011503e+00,9.010203e+00
8.626764e+00,7.011001e+00,7,6,6.315722e+00,6.318776e+00
4.957551e+00,4.726577e+00,4,4,3.773140e+00,3.773141e+00
3.728876e+00,3.514200e+00,3,3,4.914312e+00,4.914311e+00
3.699418e+00,3.487075e+00,3,3,4.192922e+00,4.192923e+00
3.695798e+00,3.504196e+00,3,3,5.222406e+00,5.222406e+00
3.723635e+00,3.489101e+00,3,3,3.406828e+00,3.406828e+00
3.697835e+00,3.485146e+00,3,3,2.921190e+00,2.921189e+00
3.698430e+00,3.486668e+00,3,3,2.326068e+00,2.326068e+00
3.692918e+00,3.513424e+00,3,3,2.257396e+00,2.257395e+00
3.697843e+00,3.514556e+00,3,3,2.648310e+00,2.648309e+00
3.723666e+00,3.485510e+00,3,3,1.576956e+00,1.576957e+00
3.695566e+00,3.485522e+00,3,3,2.046848e+00,2.046847e+00
3.707298e+00,3.482250e+00,3,3,1.448918e+00,1.448918e+00
3.691721e+00,3.485291e+00,3,3,1.423209e+00,1.423208e+00
3.696599e+00,3.488270e+00,3,3,9.476562e-01,9.476558e-01
3.694491e+00,3.508072e+00,3,3,2.142607e+00,2.142605e+00
3.719362e+00,3.510056e+00,3,3,1.882697e+00,1.882696e+00
3.695410e+00,3.484937e+00,3,3,1.556191e+00,1.556191e+00
3.686414e+00,3.486816e+00,3,3,3.129242e+00,3.129240e+00
3.696575e+00,3.485809e+00,3,3,3.766259e+00,3.766258e+00
3.696160e+00,3.483356e+00,3,3,3.189997e+00,3.189997e+00
3.694402e+00,3.482425e+00,3,3,3.827248e+00,3.827247e+00
3.712329e+00,3.515353e+00,3,3,3.631623e+00,3.631623e+00
3.718830e+00,3.512695e+00,3,3,3.761470e+00,3.761471e+00
3.692710e+00,3.510344e+00,3,3,4.617822e+00,4.618160e+00
4.919605e+00,6.963598e+00,4,6,5.138446e+00,5.144333e+00
4.924002e+00,4.637505e+00,4,4,2.774775e+00,2.774775e+00
3.760610e+00,3.486007e+00,3,3,3.240882e+00,3.240880e+00
3.713855e+00,3.486439e+00,3,3,3.018051e+00,3.018051e+00
3.746280e+00,3.483218e+00,3,3,6.125261e+00,6.125167e+00
4.917680e+00,4.641977e+00,4,4,4.159384e+00,4.159447e+00
3.689870e+00,3.486033e+00,3,3,6.620801e+00,6.618053e+00
6.142612e+00,4.668440e+00,5,4,3.441918e+00,3.420865e+00
4.953116e+00,4.668300e+00,4,4,2.461978e+00,2.461977e+00
3.744304e+00,3.483810e+00,3,3,2.529576e+00,2.529575e+00
3.712167e+00,3.513525e+00,3,3,1.690591e+00,1.690590e+00
3.702347e+00,3.481559e+00,3,3,2.036742e+00,2.036742e+00
3.693977e+00,3.481970e+00,3,3,1.559496e+00,1.559496e+00
3.691727e+00,3.482759e+00,3,3,3.832666e+00,3.832666e+00
3.699213e+00,3.485287e+00,3,3,4.524415e+00,4.524430e+00
3.687446e+00,3.484316e+00,3,3,4.005165e+00,4.005168e+00
3.724017e+00,3.508711e+00,3,3,2.780146e+00,2.780149e+00
3.716137e+00,3.479953e+00,3,3,4.587536e+00,4.587538e+00
3.697625e+00,3.508984e+00,3,3,3.676150e+00,3.676151e+00
3.699496e+00,3.490716e+00,3,3,5.215791e+00,5.215792e+00
3.697015e+00,3.486685e+00,3,3,5.800993e+00,5.800994e+00
3.692933e+00,3.483377e+00,3,3,4.253186e+00,4.253187e+00
3.690437e+00,3.481429e+00,3,3,4.168061e+00,4.168060e+00
3.720296e+00,3.480968e+00,3,3,2.922177e+00,2.922178e+00
3.716319e+00,3.513001e+00,3,3,2.847135e+00,2.847135e+00

