2.558976e+00,2.399109e+00,2,2,0.000000e+00,0.000000e+00
3.809691e+00,3.593999e+00,3,3,2.943502e-01,2.943501e-01
3.775292e+00,3.565360e+00,3,3,7.738568e-01,7.738566e-01
3.772318e+00,3.588327e+00,3,3,2.110699e+00,2.110699e+00
3.799642e+00,3.529935e+00,3,3,9.151715e-01,9.151716e-01
3.779047e+00,3.613059e+00,3,3,3.310158e+00,3.310155e+00
3.799342e+00,3.588459e+00,3,3,4.396029e+00,4.396036e+00
3.795206e+00,3.605959e+00,3,3,6.049184e+00,6.049392e+00
3.768428e+00,3.583781e+00,3,3,6.796466e+00,6.796660e+00
3.777976e+00,3.555348e+00,3,3,9.220863e+00,9.221132e+00
3.803362e+00,3.593338e+00,3,3,7.076029e+00,7.076057e+00
3.743630e+00,3.612629e+00,3,3,7.225058e+00,7.225085e+00
3.822695e+00,3.615958e+00,3,3,6.440358e+00,6.440359e+00
3.796095e+00,3.613585e+00,3,3,7.070589e+00,7.070602e+00
3.799147e+00,3.556197e+00,3,3,5.366433e+00,5.366435e+00
3.796331e+00,3.584290e+00,3,3,4.718849e+00,4.718849e+00
3.792732e+00,3.581387e+00,3,3,5.027944e+00,5.027943e+00
3.817780e+00,3.554844e+00,3,3,4.898086e+00,4.898085e+00
3.796091e+00,3.611876e+00,3,3,6.187872e+00,6.187871e+00
3.825725e+00,3.554293e+00,3,3,8.093107e+00,8.093106e+00
3.809716e+00,3.619013e+00,3,3,8.250017e+00,8.250016e+00
3.764961e+00,3.559808e+00,3,3,8.075628e+00,8.075636e+00
3.825417e+00,3.581404e+00,3,3,7.999811e+00,7.999832e+00
3.824946e+00,3.593891e+00,3,3,7.032232e+00,7.032234e+00
3.800628e+00,3.591146e+00,3,3,5.565580e+00,5.565581e+00
3.836565e+00,3.603370e+00,3,3,5.866769e+00,5.866768e+00
3.851861e+00,3.638910e+00,3,3,4.289288e+00,4.289287e+00
3.928519e+00,3.703805e+00,3,3,4.144728e+00,4.144727e+00
3.896927e+00,3.630878e+00,3,3,4.099341e+00,4.099340e+00
3.835900e+00,3.610966e+00,3,3,3.010831e+00,3.010831e+00
3.826110e+00,3.606175e+00,3,3,3.632744e+00,3.632743e+00
3.828088e+00,3.610051e+00,3,3,3.443847e+00,3.443847e+00
3.828136e+00,3.607524e+00,3,3,2.213546e+00,2.213546e+00
3.826532e+00,3.612716e+00,3,3,2.015604e+00,2.015604e+00
3.830821e+00,3.607476e+00,3,3,3.537603e+00,3.537601e+00
3.828203e+00,3.609994e+00,3,3,2.862344e+00,2.862344e+00
3.820328e+00,3.611547e+00,3,3,2.012374e+00,2.012373e+00
3.834634e+00,3.608662e+00,3,3,3.723258e+00,3.723257e+00
3.831434e+00,3.611957e+00,3,3,3.506795e+00,3.506794e+00
3.828591e+00,3.583820e+00,3,3,3.303820e+00,3.303820e+00
3.797033e+00,3.586359e+00,3,3,1.799392e+00,1.799393e+00
3.818261e+00,3.580051e+00,3,3,3.816012e+00,3.816010e+00
3.818647e+00,3.570164e+00,3,3,2.636189e+00,2.636189e+00
3.779088e+00,3.583081e+00,3,3,2.468861e+00,2.468861e+00
3.803533e+00,3.558344e+00,3,3,1.638367e+00,1.638367e+00
3.852872e+00,3.589990e+00,3,3,1.308424e+00,1.308423e+00
3.867576e+00,3.556544e+00,3,3,1.499527e+00,1.499527e+00
3.795723e+00,3.586801e+00,3,3,1.177837e+00,1.177837e+00
3.794512e+00,3.588057e+00,3,3,8.472224e-01,8.472224e-01
3.800509e+00,3.554980e+00,3,3,1.111874e+00,1.111873e+00
3.807006e+00,3.613189e+00,3,3,3.024757e+00,3.024755e+00
3.788247e+00,3.567786e+00,3,3,6.404152e+00,6.404150e+00
3.851148e+00,3.579236e+00,3,3,3.879767e+00,3.879768e+00
3.795663e+00,3.587974e+00,3,3,2.488073e+00,2.488073e+00
3.797665e+00,3.581959e+00,3,3,2.474610e+00,2.474610e+00
3.850573e+00,3.612030e+00,3,3,2.462520e+00,2.462520e+00
3.812695e+00,3.610460e+00,3,3,3.273766e+00,3.273765e+00
3.833127e+00,3.612434e+00,3,3,2.128115e+00,2.128116e+00
3.830640e+00,3.607259e+00,3,3,1.372840e+00,1.372840e+00
3.825374e+00,3.612207e+00,3,3,1.019340e+00,1.019339e+00
3.834909e+00,3.612271e+00,3,3,1.291427e+00,1.291427e+00
3.829211e+00,3.612749e+00,3,3,1.122847e+00,1.122847e+00
3.825542e+00,3.613518e+00,3,3,8.906360e-01,8.906359e-01
3.826553e+00,3.605646e+00,3,3,1.908737e+00,1.908737e+00
3.808729e+00,3.588684e+00,3,3,3.367062e+00,3.367061e+00
3.774835e+00,3.609448e+00,3,3,2.785949e+00,2.785949e+00
3.799046e+00,3.615555e+00,3,3,3.767122e+00,3.767121e+00
3.768618e+00,3.630660e+00,3,3,7.055469e+00,7.055470e+00
3.794509e+00,3.584705e+00,3,3,6.149421e+00,6.149421e+00
3.775574e+00,3.603696e+00,3,3,8.154454e+00,8.154453e+00
3.772433e+00,3.560036e+00,3,3,6.968053e+00,6.968054e+00
3.795947e+00,3.608200e+00,3,3,6.752393e+00,6.752393e+00
3.816233e+00,3.558030e+00,3,3,5.070212e+00,5.070215e+00
3.807452e+00,3.562446e+00,3,3,4.315196e+00,4.315196e+00
3.774009e+00,3.561452e+00,3,3,4.185394e+00,4.185394e+00
3.802288e+00,3.579750e+00,3,3,2.809427e+00,2.809428e+00
3.795132e+00,3.564121e+00,3,3,2.651844e+00,2.651843e+00
3.805115e+00,3.560187e+00,3,3,3.109754e+00,3.109753e+00
3.770856e+00,3.553337e+00,3,3,4.195332e+00,4.195332e+00
3.848989e+00,3.602971e+00,3,3,3.316977e+00,3.316978e+00
3.791169e+00,3.657863e+00,3,3,6.509702e+00,6.509847e+00
5.023286e+00,4.747955e+00,4,4,4.703765e+00,4.703766e+00
3.777551e+00,3.555179e+00,3,3,5.636955e+00,5.636955e+00
3.799571e+00,3.590567e+00,3,3,5.430749e+00,5.430750e+00
3.767369e+00,3.609259e+00,3,3,3.320933e+00,3.320933e+00
3.796652e+00,3.605523e+00,3,3,3.657562e+00,3.657561e+00
3.773224e+00,3.583908e+00,3,3,5.539689e+00,5.539688e+00
3.795437e+00,3.555301e+00,3,3,6.083959e+00,6.083968e+00
3.783461e+00,3.593222e+00,3,3,6.034668e+00,6.034680e+00
3.810241e+00,3.584263e+00,3,3,6.303631e+00,6.303680e+00
3.801815e+00,3.554937e+00,3,3,6.724687e+00,6.724440e+00
8.789591e+00,7.187346e+00,7,6,5.521227e+00,5.530043e+00
7.609708e+00,7.155637e+00,6,6,6.523966e+00,6.515804e+00
5.038037e+00,4.793150e+00,4,4,6.873727e+00,6.873806e+00
3.802301e+00,3.581330e+00,3,3,7.232455e+00,7.232871e+00
7.607868e+00,4.776342e+00,6,4,4.974623e+00,4.961276e+00
5.054828e+00,3.588464e+00,4,3,5.226757e+00,5.227292e+00
3.799169e+00,3.584297e+00,3,3,3.211760e+00,3.211798e+00
3.781922e+00,3.583389e+00,3,3,2.593122e+00,2.593121e+00
3.822494e+00,3.595894e+00,3,3,4.956568e+00,4.956565e+00
3.801916e+00,3.589384e+00,3,3,4.288620e+00,4.288621e+00
3.798222e+00,3.555404e+00,3,3,2.972799e+00,2.972800e+00
3.795188e+00,3.637980e+00,3,3,2.910543e+00,2.910544e+00
3.820470e+00,3.582447e+00,3,3,5.323566e+00,5.323080e+00
5.067922e+00,4.779135e+00,4,4,3.800284e+00,3.800285e+00
3.799310e+00,3.559898e+00,3,3,3.527421e+00,3.527444e+00
3.797174e+00,3.582352e+00,3,3,2.014509e+00,2.014510e+00
3.819921e+00,3.554275e+00,3,3,1.532552e+00,1.532552e+00
3.795705e+00,3.581437e+00,3,3,1.610091e+00,1.610090e+00
3.790111e+00,3.610094e+00,3,3,9.228754e-01,9.228754e-01
3.800324e+00,3.586552e+00,3,3,2.093515e+00,2.093514e+00
3.798033e+00,3.609438e+00,3,3,6.281803e+00,6.281800e+00
3.792075e+00,3.557176e+00,3,3,8.694862e+00,8.694899e+00
5.069998e+00,4.750291e+00,4,4,1.516299e+01,1.514925e+01
7.585022e+00,7.229691e+00,6,6,1.650787e+01,1.650502e+01
7.574577e+00,5.941496e+00,6,5,1.340435e+01,1.341757e+01
5.082959e+00,4.801588e+00,4,4,7.230196e+00,7.230198e+00
3.825084e+00,3.616592e+00,3,3,5.280200e+00,5.280200e+00
3.791154e+00,3.568021e+00,3,3,4.385274e+00,4.385273e+00
3.829621e+00,3.561817e+00,3,3,4.487674e+00,4.487673e+00
3.829264e+00,3.612761e+00,3,3,7.405902e+00,7.405907e+00
3.805150e+00,3.578313e+00,3,3,7.968609e+00,7.969651e+00
6.360983e+00,5.939455e+00,5,5,8.988689e+00,8.973344e+00
7.575578e+00,7.127292e+00,6,6,7.658340e+00,7.659039e+00
6.347821e+00,4.811258e+00,5,4,7.460334e+00,7.463071e+00
7.605242e+00,7.136481e+00,6,6,1.287743e+01,1.287266e+01
5.056762e+00,5.967794e+00,4,5,6.255206e+00,6.266264e+00
5.109956e+00,4.795030e+00,4,4,6.000990e+00,6.001200e+00
3.804107e+00,3.584732e+00,3,3,3.142335e+00,3.142344e+00
3.769142e+00,3.609363e+00,3,3,2.729577e+00,2.729577e+00
3.803113e+00,3.607685e+00,3,3,2.614599e+00,2.614599e+00
3.834570e+00,3.605290e+00,3,3,2.493856e+00,2.493855e+00
3.797846e+00,3.563314e+00,3,3,3.342561e+00,3.342560e+00
3.796407e+00,3.585001e+00,3,3,2.073159e+00,2.073159e+00
3.769759e+00,3.583823e+00,3,3,2.776812e+00,2.776811e+00
3.826085e+00,3.558036e+00,3,3,2.030324e+00,2.030324e+00
3.832459e+00,3.595017e+00,3,3,3.003127e+00,3.003126e+00
3.825918e+00,3.584670e+00,3,3,5.179120e+00,5.179119e+00
3.796573e+00,3.593359e+00,3,3,9.820808e+00,9.819690e+00
5.025596e+00,4.758255e+00,4,4,6.050881e+00,6.050989e+00
3.790384e+00,3.584857e+00,3,3,4.052534e+00,4.052632e+00
3.796117e+00,3.583475e+00,3,3,3.325520e+00,3.325543e+00
3.792678e+00,3.612288e+00,3,3,4.569673e+00,4.569694e+00
3.809963e+00,3.622173e+00,3,3,2.306430e+00,2.306436e+00
3.798944e+00,3.533601e+00,3,3,2.211195e+00,2.211194e+00
3.788790e+00,3.586062e+00,3,3,1.617141e+00,1.617141e+00
3.831897e+00,3.585609e+00,3,3,1.775676e+00,1.775675e+00
3.825507e+00,3.612554e+00,3,3,2.853577e+00,2.853575e+00
3.823179e+00,3.611782e+00,3,3,3.305863e+00,3.305862e+00
3.828137e+00,3.623390e+00,3,3,3.097319e+00,3.097319e+00
3.831878e+00,3.606858e+00,3,3,3.570088e+00,3.570087e+00
3.829212e+00,3.617244e+00,3,3,3.522204e+00,3.522207e+00
3.820269e+00,3.613924e+00,3,3,3.321794e+00,3.321761e+00
7.649531e+00,4.808303e+00,6,4,4.892920e+00,4.878847e+00
5.093441e+00,3.605899e+00,4,3,2.306900e+00,2.306989e+00
3.825937e+00,3.628030e+00,3,3,2.799719e+00,2.799718e+00
3.837012e+00,3.609937e+00,3,3,3.558301e+00,3.558300e+00
3.827444e+00,3.612279e+00,3,3,4.167696e+00,4.167695e+00
3.823796e+00,3.610957e+00,3,3,3.855786e+00,3.855786e+00
3.830591e+00,3.606655e+00,3,3,3.354423e+00,3.354423e+00
3.830131e+00,3.611238e+00,3,3,2.667023e+00,2.667023e+00
3.826519e+00,3.605462e+00,3,3,2.723555e+00,2.723554e+00
3.827688e+00,3.611084e+00,3,3,3.632854e+00,3.632853e+00
3.833973e+00,3.607940e+00,3,3,4.985992e+00,4.985993e+00
3.831081e+00,3.611695e+00,3,3,3.754074e+00,3.754085e+00
3.830321e+00,3.611818e+00,3,3,2.981566e+00,2.981569e+00
3.831143e+00,3.617783e+00,3,3,3.429917e+00,3.429917e+00
3.824529e+00,3.612388e+00,3,3,1.773222e+00,1.773223e+00
3.826187e+00,3.611795e+00,3,3,2.310445e+00,2.310447e+00
3.825131e+00,3.611809e+00,3,3,1.769403e+00,1.769404e+00
3.834014e+00,3.607471e+00,3,3,2.222336e+00,2.222335e+00
3.826331e+00,3.612177e+00,3,3,1.798044e+00,1.798044e+00
3.827902e+00,3.630161e+00,3,3,2.925571e+00,2.925570e+00
3.832438e+00,3.613300e+00,3,3,2.867887e+00,2.867887e+00
3.833772e+00,3.607082e+00,3,3,2.572568e+00,2.572568e+00
3.829337e+00,3.614938e+00,3,3,2.077559e+00,2.077559e+00
3.836793e+00,3.608395e+00,3,3,2.079005e+00,2.079002e+00
3.825877e+00,3.612540e+00,3,3,1.756995e+00,1.756995e+00
3.823217e+00,3.614282e+00,3,3,1.642100e+00,1.642100e+00
3.834348e+00,3.616250e+00,3,3,4.207816e+00,4.207692e+00
7.643883e+00,7.258061e+00,6,6,3.187179e+00,3.186047e+00
3.834811e+00,3.612338e+00,3,3,2.658732e+00,2.658720e+00
3.826204e+00,3.609498e+00,3,3,2.591596e+00,2.591595e+00
3.827828e+00,3.611826e+00,3,3,2.309567e+00,2.309569e+00
3.831006e+00,3.607362e+00,3,3,1.435713e+00,1.435713e+00
3.861171e+00,3.613317e+00,3,3,1.767386e+00,1.767386e+00
3.837595e+00,3.610303e+00,3,3,1.103547e+00,1.103547e+00
3.835205e+00,3.609106e+00,3,3,3.336382e+00,3.336380e+00
3.823452e+00,3.606261e+00,3,3,2.685376e+00,2.685376e+00
3.853630e+00,3.632397e+00,3,3,2.028989e+00,2.028989e+00
3.835199e+00,3.610968e+00,3,3,3.135567e+00,3.135565e+00
3.833350e+00,3.610169e+00,3,3,4.109252e+00,4.109262e+00
3.836013e+00,3.614326e+00,3,3,1.798459e+00,1.798460e+00
3.828880e+00,3.627487e+00,3,3,1.553122e+00,1.553122e+00
3.834055e+00,3.612341e+00,3,3,2.135773e+00,2.135773e+00
3.833080e+00,3.631460e+00,3,3,1.428018e+00,1.428018e+00
3.834866e+00,3.643784e+00,3,3,1.934787e+00,1.934786e+00
3.832560e+00,3.605075e+00,3,3,1.260185e+00,1.260185e+00
3.830096e+00,3.609317e+00,3,3,1.424758e+00,1.424758e+00
3.853799e+00,3.605754e+00,3,3,1.292300e+00,1.292300e+00
3.826421e+00,3.609528e+00,3,3,9.546574e-01,9.546572e-01
3.824521e+00,3.611635e+00,3,3,8.896162e-01,8.896160e-01
3.828601e+00,3.625155e+00,3,3,2.081078e+00,2.081076e+00
3.828379e+00,3.610154e+00,3,3,9.561507e-01,9.561507e-01
3.828649e+00,3.609768e+00,3,3,1.354896e+00,1.354896e+00
3.825564e+00,3.615997e+00,3,3,1.135734e+00,1.135733e+00
3.834740e+00,3.606820e+00,3,3,1.553032e+00,1.553031e+00
3.832861e+00,3.609718e+00,3,3,3.341175e+00,3.341173e+00
3.867178e+00,3.607885e+00,3,3,2.713586e+00,2.713586e+00
3.864957e+00,3.639310e+00,3,3,2.370907e+00,2.370907e+00
3.843700e+00,3.638281e+00,3,3,9.188416e+00,9.188150e+00
7.657309e+00,7.209165e+00,6,6,6.904343e+00,6.897515e+00
5.103537e+00,4.820765e+00,4,4,4.790216e+00,4.790216e+00
3.834494e+00,3.612472e+00,3,3,5.217198e+00,5.217197e+00
3.822831e+00,3.615886e+00,3,3,5.230823e+00,5.230823e+00
3.833625e+00,3.636668e+00,3,3,5.364297e+00,5.364297e+00
3.853339e+00,3.620646e+00,3,3,7.233877e+00,7.233904e+00
3.837274e+00,3.614887e+00,3,3,5.077922e+00,5.077926e+00
3.827939e+00,3.619446e+00,3,3,4.198243e+00,4.198242e+00
3.833588e+00,3.605463e+00,3,3,3.640930e+00,3.640930e+00
3.830092e+00,3.614472e+00,3,3,4.329281e+00,4.329281e+00
3.835231e+00,3.607972e+00,3,3,3.536917e+00,3.536917e+00
3.831854e+00,3.612071e+00,3,3,3.393125e+00,3.393124e+00
3.827904e+00,3.605845e+00,3,3,3.618699e+00,3.618698e+00
3.833302e+00,3.610845e+00,3,3,2.692856e+00,2.692856e+00
3.833441e+00,3.607596e+00,3,3,2.343506e+00,2.343506e+00
3.840829e+00,3.640123e+00,3,3,2.815578e+00,2.815577e+00
3.832308e+00,3.611763e+00,3,3,1.923835e+00,1.923835e+00
3.828536e+00,3.610292e+00,3,3,1.826420e+00,1.826420e+00
3.824879e+00,3.613613e+00,3,3,3.177283e+00,3.177282e+00
3.856536e+00,3.630732e+00,3,3,2.959612e+00,2.959612e+00
3.834053e+00,3.612666e+00,3,3,1.839261e+00,1.839262e+00
3.828174e+00,3.609529e+00,3,3,1.785615e+00,1.785615e+00
3.826744e+00,3.616494e+00,3,3,7.976561e-01,7.976558e-01
3.831999e+00,3.608432e+00,3,3,4.706168e-01,4.706168e-01
3.830025e+00,3.611381e+00,3,3,4.162991e-01,4.162990e-01
3.828752e+00,3.606567e+00,3,3,1.018298e+00,1.018298e+00
3.829057e+00,3.615393e+00,3,3,2.366419e+00,2.366418e+00
3.835048e+00,3.612209e+00,3,3,3.783975e+00,3.783974e+00
3.832155e+00,3.614774e+00,3,3,4.582415e+00,4.582414e+00
3.826871e+00,3.609435e+00,3,3,6.226779e+00,6.226784e+00
3.832903e+00,3.613760e+00,3,3,4.482309e+00,4.482312e+00
3.828126e+00,3.610150e+00,3,3,3.336196e+00,3.336196e+00
3.833264e+00,3.607564e+00,3,3,2.943437e+00,2.943437e+00
3.827774e+00,3.610078e+00,3,3,2.522391e+00,2.522391e+00
3.829940e+00,3.605532e+00,3,3,3.032511e+00,3.032511e+00
3.828584e+00,3.616188e+00,3,3,3.456886e+00,3.456884e+00
3.832322e+00,3.606449e+00,3,3,2.242254e+00,2.242254e+00
3.831306e+00,3.612910e+00,3,3,2.017916e+00,2.017915e+00
3.822559e+00,3.611244e+00,3,3,1.597608e+00,1.597608e+00
3.831804e+00,3.612631e+00,3,3,1.671926e+00,1.671926e+00
3.823003e+00,3.611579e+00,3,3,2.047242e+00,2.047242e+00
3.835081e+00,3.607035e+00,3,3,1.421585e+00,1.421586e+00
3.830497e+00,3.608449e+00,3,3,2.739543e+00,2.739542e+00
3.832307e+00,3.611359e+00,3,3,4.199642e+00,4.199644e+00
3.830910e+00,3.621524e+00,3,3,5.928770e+00,5.928805e+00
3.859905e+00,3.607433e+00,3,3,4.161643e+00,4.161646e+00
3.826351e+00,3.610721e+00,3,3,1.589852e+00,1.589853e+00
3.828930e+00,3.611599e+00,3,3,1.791703e+00,1.791703e+00
3.832191e+00,3.610642e+00,3,3,2.339039e+00,2.339039e+00
3.822602e+00,3.612438e+00,3,3,2.541469e+00,2.541472e+00
3.829821e+00,3.628888e+00,3,3,3.331810e+00,3.331809e+00
3.834632e+00,3.612160e+00,3,3,6.903008e+00,6.903011e+00
3.829671e+00,3.609056e+00,3,3,4.792142e+00,4.792145e+00
3.824130e+00,3.613289e+00,3,3,4.036393e+00,4.036393e+00
3.828630e+00,3.630306e+00,3,3,4.326546e+00,4.326545e+00
3.829170e+00,3.613739e+00,3,3,7.773648e+00,7.773710e+00
3.828136e+00,3.608807e+00,3,3,6.659506e+00,6.659585e+00
3.834600e+00,3.611856e+00,3,3,5.223939e+00,5.223984e+00
3.825171e+00,3.609945e+00,3,3,7.952374e+00,7.953061e+00
6.368349e+00,6.014254e+00,5,5,1.051842e+01,1.052054e+01
5.104802e+00,3.609705e+00,4,3,1.176301e+01,1.176422e+01
8.914279e+00,7.212597e+00,7,6,1.150883e+01,1.151742e+01
5.104064e+00,4.803429e+00,4,4,8.788686e+00,8.788687e+00
3.827246e+00,3.616100e+00,3,3,8.631488e+00,8.631488e+00
3.843349e+00,3.612207e+00,3,3,8.106698e+00,8.106698e+00
3.827728e+00,3.611152e+00,3,3,7.204660e+00,7.204660e+00
3.828017e+00,3.606182e+00,3,3,6.104625e+00,6.104625e+00
3.833161e+00,3.610953e+00,3,3,4.980099e+00,4.980099e+00
3.826523e+00,3.615884e+00,3,3,4.587683e+00,4.587683e+00
3.837008e+00,3.615081e+00,3,3,3.338082e+00,3.338082e+00
3.828724e+00,3.616149e+00,3,3,4.581268e+00,4.581266e+00
3.825730e+00,3.613815e+00,3,3,4.688991e+00,4.688996e+00
3.827174e+00,3.616664e+00,3,3,3.873939e+00,3.873981e+00
3.837733e+00,3.616136e+00,3,3,3.609327e+00,3.609442e+00
3.833093e+00,3.609491e+00,3,3,2.598881e+00,2.598980e+00
3.831311e+00,3.607872e+00,3,3,4.698141e+00,4.697950e+00
7.652594e+00,7.211174e+00,6,6,1.197597e+01,1.197333e+01
7.658681e+00,4.809557e+00,6,4,6.728040e+00,6.723885e+00
5.104690e+00,3.606837e+00,4,3,8.536181e+00,8.536179e+00
3.824922e+00,3.613779e+00,3,3,1.099212e+01,1.099296e+01
1.020307e+01,4.809939e+00,8,4,5.995136e+00,5.980364e+00
5.093176e+00,3.611548e+00,4,3,6.093524e+00,6.093686e+00
3.828305e+00,3.636729e+00,3,3,4.089704e+00,4.089706e+00
3.805055e+00,3.580438e+00,3,3,3.708844e+00,3.708844e+00
3.793703e+00,3.583946e+00,3,3,3.092194e+00,3.092193e+00
3.851544e+00,3.578764e+00,3,3,2.425441e+00,2.425440e+00
3.797620e+00,3.568152e+00,3,3,1.803063e+00,1.803063e+00
3.793716e+00,3.581439e+00,3,3,1.941692e+00,1.941692e+00
3.799812e+00,3.554016e+00,3,3,4.353152e+00,4.353165e+00
3.776328e+00,3.559921e+00,3,3,3.658480e+00,3.660020e+00
5.053199e+00,4.751232e+00,4,4,1.364080e+00,1.364080e+00
3.858273e+00,3.612480e+00,3,3,2.361011e+00,2.361010e+00
3.796353e+00,3.564508e+00,3,3,2.455755e+00,2.455755e+00
3.779009e+00,3.611519e+00,3,3,3.022535e+00,3.022535e+00
3.822162e+00,3.582832e+00,3,3,1.788576e+00,1.788577e+00
3.798771e+00,3.610508e+00,3,3,1.995499e+00,1.995498e+00
3.794792e+00,3.632355e+00,3,3,2.971568e+00,2.971568e+00
3.819966e+00,3.608037e+00,3,3,2.725308e+00,2.725308e+00
3.827034e+00,3.642303e+00,3,3,1.840622e+00,1.840622e+00
3.830584e+00,3.609025e+00,3,3,1.679198e+00,1.679198e+00
3.827107e+00,3.609889e+00,3,3,2.019618e+00,2.019617e+00
3.838627e+00,3.606174e+00,3,3,4.082909e+00,4.082906e+00
3.832218e+00,3.609629e+00,3,3,4.621446e+00,4.621446e+00
3.831860e+00,3.605333e+00,3,3,4.576738e+00,4.576738e+00
3.829656e+00,3.611228e+00,3,3,3.778982e+00,3.778982e+00
3.832157e+00,3.608597e+00,3,3,3.770301e+00,3.770301e+00
3.829197e+00,3.610004e+00,3,3,4.168633e+00,4.168632e+00
3.825365e+00,3.610957e+00,3,3,4.485210e+00,4.485210e+00
3.831844e+00,3.607487e+00,3,3,3.540991e+00,3.540992e+00
3.829607e+00,3.608345e+00,3,3,4.427200e+00,4.427199e+00
3.825536e+00,3.607181e+00,3,3,5.477882e+00,5.477882e+00
3.826551e+00,3.610837e+00,3,3,8.906170e+00,8.904962e+00
7.631907e+00,6.004502e+00,6,5,9.669510e+00,9.700501e+00
5.100717e+00,4.806192e+00,4,4,4.808811e+00,4.808814e+00
3.830880e+00,3.610030e+00,3,3,3.551482e+00,3.551482e+00
3.833804e+00,3.606556e+00,3,3,3.414315e+00,3.414314e+00
3.832016e+00,3.612730e+00,3,3,3.799390e+00,3.799390e+00
3.830840e+00,3.606519e+00,3,3,3.754078e+00,3.754078e+00
5.104758e+00,3.612251e+00,4,3,1.154891e+01,1.155655e+01
7.644217e+00,7.259805e+00,6,6,1.672569e+01,1.672799e+01
7.639023e+00,7.217017e+00,6,6,1.311130e+01,1.310815e+01
1.019217e+01,4.809083e+00,8,4,1.279651e+01,1.280256e+01
7.633474e+00,7.220311e+00,6,6,1.190215e+01,1.190647e+01
7.636016e+00,7.240920e+00,6,6,1.456208e+01,1.455846e+01
5.102914e+00,4.811921e+00,4,4,1.206187e+01,1.205999e+01
6.372539e+00,4.811643e+00,5,4,1.612955e+01,1.612379e+01
5.102218e+00,4.810868e+00,4,4,1.281998e+01,1.281999e+01
3.825767e+00,3.610009e+00,3,3,1.095365e+01,1.095365e+01
3.839226e+00,3.610721e+00,3,3,8.102391e+00,8.102393e+00
3.825834e+00,3.612284e+00,3,3,6.582274e+00,6.582275e+00
3.826158e+00,3.609532e+00,3,3,6.002305e+00,6.002305e+00
3.830090e+00,3.638788e+00,3,3,4.513115e+00,4.513116e+00
3.828325e+00,3.605579e+00,3,3,3.845873e+00,3.845873e+00
3.840163e+00,3.611395e+00,3,3,3.722838e+00,3.722838e+00
3.835903e+00,3.611472e+00,3,3,2.629667e+00,2.629667e+00
3.825195e+00,3.621373e+00,3,3,2.656381e+00,2.656380e+00
3.820495e+00,3.609334e+00,3,3,1.850317e+00,1.850317e+00
3.828688e+00,3.606087e+00,3,3,1.047555e+00,1.047555e+00
3.821984e+00,3.610339e+00,3,3,2.704134e+00,2.704133e+00
3.838348e+00,3.607191e+00,3,3,1.254604e+00,1.254604e+00
3.826630e+00,3.612022e+00,3,3,8.889712e-01,8.889709e-01
3.832839e+00,3.606777e+00,3,3,1.207745e+00,1.207745e+00
3.829128e+00,3.620123e+00,3,3,1.064289e+00,1.064289e+00
3.835162e+00,3.606887e+00,3,3,1.880616e+00,1.880615e+00
3.829338e+00,3.614805e+00,3,3,1.101737e+00,1.101738e+00
3.819768e+00,3.612997e+00,3,3,2.770470e+00,2.770468e+00
3.828079e+00,3.620650e+00,3,3,2.550560e+00,2.550560e+00
3.828355e+00,3.610557e+00,3,3,2.365976e+00,2.365976e+00
3.826991e+00,3.608760e+00,3,3,1.558908e+00,1.558908e+00
3.829765e+00,3.611987e+00,3,3,2.535408e+00,2.535407e+00
3.831109e+00,3.606091e+00,3,3,2.454961e+00,2.454961e+00
3.853961e+00,3.635167e+00,3,3,2.626964e+00,2.626963e+00
3.838002e+00,3.608079e+00,3,3,2.040742e+00,2.040742e+00
3.838385e+00,3.615061e+00,3,3,1.875050e+00,1.875050e+00
3.834091e+00,3.610611e+00,3,3,1.587148e+00,1.587148e+00
3.827380e+00,3.611365e+00,3,3,1.230955e+00,1.230955e+00
3.830408e+00,3.609581e+00,3,3,1.278793e+00,1.278793e+00
3.828235e+00,3.612970e+00,3,3,1.022407e+00,1.022407e+00
3.824291e+00,3.613270e+00,3,3,1.543585e+00,1.543584e+00
3.828512e+00,3.603335e+00,3,3,1.477633e+00,1.477633e+00
3.823580e+00,3.611726e+00,3,3,2.805497e+00,2.805496e+00
3.828052e+00,3.605498e+00,3,3,3.538421e+00,3.538421e+00
3.834443e+00,3.611807e+00,3,3,7.698572e+00,7.698569e+00
3.825949e+00,3.608315e+00,3,3,6.636430e+00,6.636435e+00
3.827589e+00,3.615035e+00,3,3,3.366050e+00,3.366051e+00
3.832864e+00,3.608377e+00,3,3,3.715297e+00,3.715296e+00
3.828626e+00,3.635046e+00,3,3,3.973241e+00,3.973241e+00
3.832064e+00,3.609474e+00,3,3,4.613007e+00,4.613006e+00
3.828415e+00,3.610104e+00,3,3,4.342410e+00,4.342410e+00
3.828563e+00,3.612931e+00,3,3,3.700611e+00,3.700610e+00
3.826715e+00,3.607023e+00,3,3,4.268945e+00,4.268943e+00
3.828760e+00,3.613273e+00,3,3,4.423437e+00,4.423437e+00
3.837620e+00,3.610318e+00,3,3,4.586933e+00,4.586932e+00
3.832849e+00,3.614605e+00,3,3,5.096225e+00,5.096225e+00
3.835643e+00,3.609003e+00,3,3,6.038832e+00,6.038838e+00
3.834446e+00,3.613098e+00,3,3,2.306173e+00,2.306175e+00
3.829739e+00,3.607909e+00,3,3,2.509675e+00,2.509675e+00
3.832846e+00,3.611570e+00,3,3,3.255081e+00,3.255081e+00
3.824978e+00,3.611257e+00,3,3,2.127946e+00,2.127947e+00
3.829715e+00,3.614448e+00,3,3,1.598678e+00,1.598677e+00
3.829286e+00,3.614206e+00,3,3,1.522938e+00,1.522938e+00
3.829029e+00,3.604389e+00,3,3,1.566273e+00,1.566273e+00
3.830836e+00,3.619715e+00,3,3,1.588308e+00,1.588307e+00
3.829033e+00,3.608875e+00,3,3,1.282278e+00,1.282278e+00
3.840904e+00,3.615279e+00,3,3,1.709831e+00,1.709831e+00
3.833272e+00,3.607833e+00,3,3,2.356897e+00,2.356895e+00
3.830066e+00,3.613617e+00,3,3,3.438205e+00,3.438204e+00
3.835741e+00,3.607094e+00,3,3,5.105882e+00,5.105879e+00
3.830448e+00,3.612760e+00,3,3,1.009198e+01,1.009215e+01
3.836399e+00,4.815496e+00,3,4,9.071002e+00,9.070577e+00
5.107794e+00,3.612932e+00,4,3,9.122450e+00,9.122925e+00
3.829637e+00,3.605094e+00,3,3,8.059125e+00,8.059227e+00
3.827108e+00,3.612156e+00,3,3,7.667674e+00,7.667812e+00
3.828178e+00,3.608115e+00,3,3,5.890774e+00,5.890788e+00
3.832519e+00,3.616170e+00,3,3,5.081142e+00,5.081144e+00
3.832036e+00,3.611177e+00,3,3,6.157650e+00,6.157749e+00
3.827245e+00,3.610605e+00,3,3,3.648162e+00,3.648169e+00
3.831722e+00,3.606385e+00,3,3,4.012717e+00,4.012716e+00
3.832190e+00,3.612388e+00,3,3,4.401239e+00,4.401238e+00
3.825183e+00,3.612932e+00,3,3,5.999107e+00,5.999177e+00
3.823402e+00,3.611500e+00,3,3,3.831817e+00,3.831761e+00
3.827790e+00,3.610296e+00,3,3,1.990552e+00,1.990552e+00
3.828354e+00,3.607684e+00,3,3,1.533872e+00,1.533872e+00
3.825442e+00,3.614161e+00,3,3,1.576811e+00,1.576810e+00
3.825817e+00,3.608200e+00,3,3,3.107624e+00,3.107622e+00
3.826731e+00,3.613584e+00,3,3,2.469162e+00,2.469162e+00
3.822950e+00,3.606878e+00,3,3,2.520327e+00,2.520327e+00
3.824372e+00,3.618216e+00,3,3,2.508417e+00,2.508417e+00
3.826179e+00,3.608636e+00,3,3,3.208301e+00,3.208300e+00
3.835372e+00,3.610579e+00,3,3,8.632316e+00,8.632107e+00
5.095068e+00,4.805605e+00,4,4,6.497508e+00,6.497511e+00
3.825066e+00,3.621753e+00,3,3,3.725296e+00,3.725297e+00
3.857222e+00,3.630186e+00,3,3,3.393167e+00,3.393166e+00
3.841681e+00,3.610466e+00,3,3,2.444499e+00,2.444498e+00
3.834656e+00,3.607336e+00,3,3,4.077829e+00,4.077827e+00
3.826957e+00,3.618559e+00,3,3,5.963876e+00,5.963873e+00
3.831472e+00,3.609042e+00,3,3,3.851657e+00,3.851658e+00
3.831446e+00,3.610219e+00,3,3,2.903419e+00,2.903419e+00
3.826438e+00,3.605728e+00,3,3,2.142724e+00,2.142723e+00
3.830950e+00,3.612242e+00,3,3,1.976376e+00,1.976376e+00
3.829047e+00,3.614705e+00,3,3,2.216800e+00,2.216798e+00
3.829972e+00,3.613046e+00,3,3,2.338784e+00,2.338783e+00
3.828219e+00,3.608419e+00,3,3,8.038378e-01,8.038380e-01
3.828226e+00,3.606411e+00,3,3,1.025675e+00,1.025675e+00
3.829917e+00,3.614696e+00,3,3,9.353343e-01,9.353341e-01
3.831662e+00,3.608106e+00,3,3,1.424047e+00,1.424046e+00
3.841693e+00,3.613182e+00,3,3,1.090306e+00,1.090306e+00
3.838247e+00,3.610144e+00,3,3,6.275622e+00,6.275617e+00
3.834441e+00,3.616002e+00,3,3,3.924268e+00,3.924270e+00
3.830366e+00,3.611919e+00,3,3,4.911938e+00,4.911941e+00
3.827191e+00,3.612445e+00,3,3,2.987617e+00,2.987618e+00
3.822816e+00,3.610010e+00,3,3,3.894830e+00,3.894827e+00
3.829378e+00,3.610012e+00,3,3,5.026864e+00,5.026863e+00
3.827170e+00,3.611918e+00,3,3,7.493912e+00,7.493952e+00
3.829703e+00,3.609129e+00,3,3,6.361314e+00,6.362732e+00
7.643513e+00,7.210777e+00,6,6,3.643108e+00,3.639319e+00
5.101732e+00,4.809338e+00,4,4,6.243747e+00,6.243572e+00
5.096536e+00,4.808782e+00,4,4,3.761127e+00,3.761128e+00
3.824283e+00,3.609145e+00,3,3,9.011503e+00,9.010203e+00
8.907779e+00,7.214838e+00,7,6,6.315722e+00,6.318776e+00
5.106752e+00,4.804406e+00,4,4,3.773140e+00,3.773141e+00
3.825091e+00,3.636761e+00,3,3,4.914312e+00,4.914311e+00
3.835987e+00,3.613964e+00,3,3,4.192922e+00,4.192923e+00
3.821292e+00,3.612372e+00,3,3,5.222406e+00,5.222406e+00
3.827413e+00,3.610557e+00,3,3,3.406828e+00,3.406828e+00
3.832421e+00,3.613256e+00,3,3,2.921190e+00,2.921189e+00
3.827663e+00,3.613305e+00,3,3,2.326068e+00,2.326068e+00
3.824554e+00,3.608924e+00,3,3,2.257396e+00,2.257395e+00
3.831629e+00,3.605995e+00,3,3,2.648310e+00,2.648309e+00
3.831313e+00,3.613744e+00,3,3,1.576956e+00,1.576957e+00
3.829094e+00,3.608828e+00,3,3,2.046848e+00,2.046847e+00
3.831224e+00,3.614958e+00,3,3,1.448918e+00,1.448918e+00
3.823647e+00,3.611132e+00,3,3,1.423209e+00,1.423208e+00
3.828506e+00,3.611507e+00,3,3,9.476562e-01,9.476558e-01
3.827007e+00,3.613184e+00,3,3,2.142607e+00,2.142605e+00
3.828265e+00,3.605574e+00,3,3,1.882697e+00,1.882696e+00
3.829509e+00,3.613659e+00,3,3,1.556191e+00,1.556191e+00
3.827516e+00,3.609173e+00,3,3,3.129242e+00,3.129240e+00
3.836133e+00,3.612626e+00,3,3,3.766259e+00,3.766258e+00
3.833817e+00,3.605676e+00,3,3,3.189997e+00,3.189997e+00
3.833383e+00,3.610457e+00,3,3,3.827248e+00,3.827247e+00
3.830209e+00,3.605957e+00,3,3,3.631623e+00,3.631623e+00
3.826802e+00,3.609726e+00,3,3,3.761470e+00,3.761471e+00
3.825545e+00,3.611794e+00,3,3,4.617822e+00,4.618160e+00
5.106965e+00,7.231417e+00,4,6,5.138446e+00,5.144333e+00
5.098147e+00,4.810872e+00,4,4,2.774775e+00,2.774775e+00
3.833583e+00,3.612581e+00,3,3,3.240882e+00,3.240880e+00
3.834369e+00,3.608773e+00,3,3,3.018051e+00,3.018051e+00
3.827855e+00,3.611202e+00,3,3,6.125261e+00,6.125167e+00
5.101376e+00,4.808890e+00,4,4,4.159384e+00,4.159447e+00
3.820494e+00,3.609059e+00,3,3,6.620801e+00,6.618053e+00
6.360637e+00,4.811358e+00,5,4,3.441918e+00,3.420865e+00
5.099127e+00,4.811692e+00,4,4,2.461978e+00,2.461977e+00
3.848499e+00,3.611394e+00,3,3,2.529576e+00,2.529575e+00
3.828390e+00,3.611368e+00,3,3,1.690591e+00,1.690590e+00
3.827626e+00,3.606135e+00,3,3,2.036742e+00,2.036742e+00
3.832771e+00,3.610347e+00,3,3,1.559496e+00,1.559496e+00
3.826799e+00,3.606259e+00,3,3,3.832666e+00,3.832666e+00
3.832304e+00,3.610909e+00,3,3,4.524415e+00,4.524430e+00
3.828454e+00,3.606180e+00,3,3,4.005165e+00,4.005168e+00
3.832387e+00,3.610337e+00,3,3,2.780146e+00,2.780149e+00
3.831176e+00,3.605399e+00,3,3,4.587536e+00,4.587538e+00
3.833685e+00,3.613963e+00,3,3,3.676150e+00,3.676151e+00
3.829524e+00,3.613642e+00,3,3,5.215791e+00,5.215792e+00
3.833461e+00,3.611742e+00,3,3,5.800993e+00,5.800994e+00
3.825551e+00,3.613091e+00,3,3,4.253186e+00,4.253187e+00
3.835846e+00,3.618791e+00,3,3,4.168061e+00,4.168060e+00
3.828424e+00,3.617249e+00,3,3,2.922177e+00,2.922178e+00
3.831120e+00,3.606658e+00,3,3,2.847135e+00,2.847135e+00

