2.486998e+00,2.356536e+00,2,2,0.000000e+00,0.000000e+00
3.721097e+00,3.514814e+00,3,3,2.943502e-01,2.943501e-01
3.741120e+00,3.507818e+00,3,3,7.738568e-01,7.738566e-01
3.707921e+00,3.482975e+00,3,3,2.110699e+00,2.110699e+00
3.688770e+00,3.506874e+00,3,3,9.151715e-01,9.151716e-01
3.684708e+00,3.487312e+00,3,3,3.310158e+00,3.310155e+00
3.682125e+00,3.485883e+00,3,3,4.396029e+00,4.396036e+00
3.683757e+00,3.486085e+00,3,3,6.049184e+00,6.049392e+00
3.689200e+00,3.483250e+00,3,3,6.796466e+00,6.796660e+00
3.720669e+00,3.480555e+00,3,3,9.220863e+00,9.221132e+00
3.684986e+00,3.480336e+00,3,3,7.076029e+00,7.076057e+00
3.693279e+00,3.486248e+00,3,3,7.225058e+00,7.225085e+00
3.679672e+00,3.489221e+00,3,3,6.440358e+00,6.440359e+00
3.689386e+00,3.483395e+00,3,3,7.070589e+00,7.070602e+00
3.685623e+00,3.481002e+00,3,3,5.366433e+00,5.366435e+00
3.681876e+00,3.479699e+00,3,3,4.718849e+00,4.718849e+00
3.714407e+00,3.486626e+00,3,3,5.027944e+00,5.027943e+00
3.687618e+00,3.489063e+00,3,3,4.898086e+00,4.898085e+00
3.684648e+00,3.513337e+00,3,3,6.187872e+00,6.187871e+00
3.690490e+00,3.490010e+00,3,3,8.093107e+00,8.093106e+00
3.685966e+00,3.482490e+00,3,3,8.250017e+00,8.250016e+00
3.690565e+00,3.485711e+00,3,3,8.075628e+00,8.075636e+00
3.683962e+00,3.485719e+00,3,3,7.999811e+00,7.999832e+00
3.719202e+00,3.487436e+00,3,3,7.032232e+00,7.032234e+00
3.693476e+00,3.484167e+00,3,3,5.565580e+00,5.565581e+00
3.682836e+00,3.482554e+00,3,3,5.866769e+00,5.866768e+00
3.684461e+00,3.482454e+00,3,3,4.289288e+00,4.289287e+00
3.687670e+00,3.483749e+00,3,3,4.144728e+00,4.144727e+00
3.688337e+00,3.487517e+00,3,3,4.099341e+00,4.099340e+00
3.689277e+00,3.481599e+00,3,3,3.010831e+00,3.010831e+00
3.709829e+00,3.483961e+00,3,3,3.632744e+00,3.632743e+00
3.687341e+00,3.482471e+00,3,3,3.443847e+00,3.443847e+00
3.684618e+00,3.509279e+00,3,3,2.213546e+00,2.213546e+00
3.680793e+00,3.486058e+00,3,3,2.015604e+00,2.015604e+00
3.734895e+00,3.602776e+00,3,3,3.537603e+00,3.537601e+00
3.797444e+00,3.566822e+00,3,3,2.862344e+00,2.862344e+00
3.753844e+00,3.546981e+00,3,3,2.012374e+00,2.012373e+00
3.751990e+00,3.532562e+00,3,3,3.723258e+00,3.723257e+00
3.759803e+00,3.536411e+00,3,3,3.506795e+00,3.506794e+00
3.698831e+00,3.488166e+00,3,3,3.303820e+00,3.303820e+00
3.690025e+00,3.494652e+00,3,3,1.799392e+00,1.799393e+00
3.684898e+00,3.479087e+00,3,3,3.816012e+00,3.816010e+00
3.688622e+00,3.480110e+00,3,3,2.636189e+00,2.636189e+00
3.696227e+00,3.482143e+00,3,3,2.468861e+00,2.468861e+00
3.708696e+00,3.483195e+00,3,3,1.638367e+00,1.638367e+00
3.683521e+00,3.487753e+00,3,3,1.308424e+00,1.308423e+00
3.681922e+00,3.510603e+00,3,3,1.499527e+00,1.499527e+00
3.688502e+00,3.480554e+00,3,3,1.177837e+00,1.177837e+00
3.736827e+00,3.590589e+00,3,3,8.472224e-01,8.472224e-01
3.790565e+00,3.589715e+00,3,3,1.111874e+00,1.111873e+00
3.794605e+00,3.586114e+00,3,3,3.024757e+00,3.024755e+00
3.794999e+00,3.587658e+00,3,3,6.404152e+00,6.404150e+00
3.787287e+00,3.588128e+00,3,3,3.879767e+00,3.879768e+00
3.835061e+00,3.598756e+00,3,3,2.488073e+00,2.488073e+00
3.785709e+00,3.586857e+00,3,3,2.474610e+00,2.474610e+00
3.793110e+00,3.583416e+00,3,3,2.462520e+00,2.462520e+00
3.791521e+00,3.585485e+00,3,3,3.273766e+00,3.273765e+00
3.792262e+00,3.553305e+00,3,3,2.128115e+00,2.128116e+00
3.687348e+00,3.479294e+00,3,3,1.372840e+00,1.372840e+00
3.689128e+00,3.480576e+00,3,3,1.019340e+00,1.019339e+00
3.710586e+00,3.486861e+00,3,3,1.291427e+00,1.291427e+00
3.688490e+00,3.487148e+00,3,3,1.122847e+00,1.122847e+00
3.684179e+00,3.483675e+00,3,3,8.906360e-01,8.906359e-01
3.686768e+00,3.478915e+00,3,3,1.908737e+00,1.908737e+00
3.685558e+00,3.506024e+00,3,3,3.367062e+00,3.367061e+00
3.685764e+00,3.487183e+00,3,3,2.785949e+00,2.785949e+00
3.677206e+00,3.484956e+00,3,3,3.767122e+00,3.767121e+00
3.680932e+00,3.486153e+00,3,3,7.055469e+00,7.055470e+00
3.683280e+00,3.479460e+00,3,3,6.149421e+00,6.149421e+00
3.688619e+00,3.480825e+00,3,3,8.154454e+00,8.154453e+00
3.693347e+00,3.479382e+00,3,3,6.968053e+00,6.968054e+00
3.681055e+00,3.509202e+00,3,3,6.752393e+00,6.752393e+00
3.681825e+00,3.484467e+00,3,3,5.070212e+00,5.070215e+00
3.682669e+00,3.482272e+00,3,3,4.315196e+00,4.315196e+00
3.714861e+00,3.479806e+00,3,3,4.185394e+00,4.185394e+00
3.686813e+00,3.479286e+00,3,3,2.809427e+00,2.809428e+00
3.685974e+00,3.491605e+00,3,3,2.651844e+00,2.651843e+00
3.682651e+00,3.485055e+00,3,3,3.109754e+00,3.109753e+00
3.681739e+00,3.512039e+00,3,3,4.195332e+00,4.195332e+00
3.691779e+00,3.505709e+00,3,3,3.316977e+00,3.316978e+00
3.686345e+00,3.505738e+00,3,3,6.509702e+00,6.509847e+00
4.935722e+00,4.666208e+00,4,4,4.703765e+00,4.703766e+00
3.685656e+00,3.481092e+00,3,3,5.636955e+00,5.636955e+00
3.691171e+00,3.481789e+00,3,3,5.430749e+00,5.430750e+00
3.684903e+00,3.479359e+00,3,3,3.320933e+00,3.320933e+00
3.708352e+00,3.487472e+00,3,3,3.657562e+00,3.657561e+00
3.686321e+00,3.485084e+00,3,3,5.539689e+00,5.539688e+00
3.684821e+00,3.510150e+00,3,3,6.083959e+00,6.083968e+00
3.693041e+00,3.483230e+00,3,3,6.034668e+00,6.034680e+00
3.684024e+00,3.479119e+00,3,3,6.303631e+00,6.303680e+00
3.681980e+00,3.481216e+00,3,3,6.724687e+00,6.724440e+00
8.578133e+00,6.981578e+00,7,6,5.521227e+00,5.530043e+00
7.354572e+00,6.953208e+00,6,6,6.523966e+00,6.515804e+00
4.906265e+00,4.638702e+00,4,4,6.873727e+00,6.873806e+00
3.692262e+00,3.480079e+00,3,3,7.232455e+00,7.232871e+00
7.355657e+00,4.636663e+00,6,4,4.974623e+00,4.961276e+00
4.940036e+00,3.485958e+00,4,3,5.226757e+00,5.227292e+00
3.687428e+00,3.486697e+00,3,3,3.211760e+00,3.211798e+00
3.714482e+00,3.483297e+00,3,3,2.593122e+00,2.593121e+00
3.684190e+00,3.478570e+00,3,3,4.956568e+00,4.956565e+00
3.682736e+00,3.479702e+00,3,3,4.288620e+00,4.288621e+00
3.681293e+00,3.483810e+00,3,3,2.972799e+00,2.972800e+00
3.688878e+00,3.512442e+00,3,3,2.910543e+00,2.910544e+00
3.690554e+00,3.480105e+00,3,3,5.323566e+00,5.323080e+00
4.911683e+00,4.639007e+00,4,4,3.800284e+00,3.800285e+00
3.683440e+00,3.485318e+00,3,3,3.527421e+00,3.527444e+00
3.679969e+00,3.485050e+00,3,3,2.014509e+00,2.014510e+00
3.690646e+00,3.479302e+00,3,3,1.532552e+00,1.532552e+00
3.685310e+00,3.477745e+00,3,3,1.610091e+00,1.610090e+00
3.694602e+00,3.490406e+00,3,3,9.228754e-01,9.228754e-01
3.682472e+00,3.511515e+00,3,3,2.093515e+00,2.093514e+00
3.708331e+00,3.513163e+00,3,3,6.281803e+00,6.281800e+00
3.712525e+00,3.481505e+00,3,3,8.694862e+00,8.694899e+00
4.908713e+00,4.642682e+00,4,4,1.516299e+01,1.514925e+01
7.352022e+00,6.956960e+00,6,6,1.650787e+01,1.650502e+01
7.379489e+00,5.796275e+00,6,5,1.340435e+01,1.341757e+01
4.908245e+00,4.639415e+00,4,4,7.230196e+00,7.230198e+00
3.680957e+00,3.484614e+00,3,3,5.280200e+00,5.280200e+00
3.693142e+00,3.478863e+00,3,3,4.385274e+00,4.385273e+00
3.681450e+00,3.480431e+00,3,3,4.487674e+00,4.487673e+00
3.687555e+00,3.507997e+00,3,3,7.405902e+00,7.405907e+00
3.688124e+00,3.494369e+00,3,3,7.968609e+00,7.969651e+00
6.133395e+00,5.820441e+00,5,5,8.988689e+00,8.973344e+00
7.352970e+00,6.953782e+00,6,6,7.658340e+00,7.659039e+00
6.129644e+00,4.640514e+00,5,4,7.460334e+00,7.463071e+00
7.373661e+00,6.955447e+00,6,6,1.287743e+01,1.287266e+01
4.903241e+00,5.796657e+00,4,5,6.255206e+00,6.266264e+00
4.905043e+00,4.638404e+00,4,4,6.000990e+00,6.001200e+00
3.683170e+00,3.487958e+00,3,3,3.142335e+00,3.142344e+00
3.682955e+00,3.489541e+00,3,3,2.729577e+00,2.729577e+00
3.689740e+00,3.511854e+00,3,3,2.614599e+00,2.614599e+00
3.686378e+00,3.489971e+00,3,3,2.493856e+00,2.493855e+00
3.694251e+00,3.485801e+00,3,3,3.342561e+00,3.342560e+00
3.718413e+00,3.502212e+00,3,3,2.073159e+00,2.073159e+00
3.690547e+00,3.488718e+00,3,3,2.776812e+00,2.776811e+00
3.683065e+00,3.491287e+00,3,3,2.030324e+00,2.030324e+00
3.686128e+00,3.481923e+00,3,3,3.003127e+00,3.003126e+00
3.687317e+00,3.504324e+00,3,3,5.179120e+00,5.179119e+00
3.688568e+00,3.479025e+00,3,3,9.820808e+00,9.819690e+00
4.932979e+00,4.672905e+00,4,4,6.050881e+00,6.050989e+00
3.713982e+00,3.512594e+00,3,3,4.052534e+00,4.052632e+00
3.687741e+00,3.484161e+00,3,3,3.325520e+00,3.325543e+00
3.681551e+00,3.482754e+00,3,3,4.569673e+00,4.569694e+00
3.678378e+00,3.486425e+00,3,3,2.306430e+00,2.306436e+00
3.714703e+00,3.486647e+00,3,3,2.211195e+00,2.211194e+00
3.684363e+00,3.479965e+00,3,3,1.617141e+00,1.617141e+00
3.682339e+00,3.506029e+00,3,3,1.775676e+00,1.775675e+00
3.689702e+00,3.485308e+00,3,3,2.853577e+00,2.853575e+00
3.680243e+00,3.484302e+00,3,3,3.305863e+00,3.305862e+00
3.684753e+00,3.481519e+00,3,3,3.097319e+00,3.097319e+00
3.689425e+00,3.479397e+00,3,3,3.570088e+00,3.570087e+00
3.714999e+00,3.480634e+00,3,3,3.522204e+00,3.522207e+00
3.682113e+00,3.483283e+00,3,3,3.321794e+00,3.321761e+00
7.344344e+00,4.636866e+00,6,4,4.892920e+00,4.878847e+00
4.903409e+00,3.479360e+00,4,3,2.306900e+00,2.306989e+00
3.685147e+00,3.483337e+00,3,3,2.799719e+00,2.799718e+00
3.686321e+00,3.479983e+00,3,3,3.558301e+00,3.558300e+00
3.680732e+00,3.503994e+00,3,3,4.167696e+00,4.167695e+00
3.685031e+00,3.485932e+00,3,3,3.855786e+00,3.855786e+00
3.677997e+00,3.509695e+00,3,3,3.354423e+00,3.354423e+00
3.687349e+00,3.481642e+00,3,3,2.667023e+00,2.667023e+00
3.684199e+00,3.480837e+00,3,3,2.723555e+00,2.723554e+00
3.680762e+00,3.489173e+00,3,3,3.632854e+00,3.632853e+00
3.685787e+00,3.483566e+00,3,3,4.985992e+00,4.985993e+00
3.682609e+00,3.513273e+00,3,3,3.754074e+00,3.754085e+00
3.684101e+00,3.482929e+00,3,3,2.981566e+00,2.981569e+00
3.715491e+00,3.480146e+00,3,3,3.429917e+00,3.429917e+00
3.681260e+00,3.482318e+00,3,3,1.773222e+00,1.773223e+00
3.687267e+00,3.483659e+00,3,3,2.310445e+00,2.310447e+00
3.685269e+00,3.484801e+00,3,3,1.769403e+00,1.769404e+00
3.681844e+00,3.483753e+00,3,3,2.222336e+00,2.222335e+00
3.690965e+00,3.504186e+00,3,3,1.798044e+00,1.798044e+00
3.683703e+00,3.507657e+00,3,3,2.925571e+00,2.925570e+00
3.707686e+00,3.549716e+00,3,3,2.867887e+00,2.867887e+00
3.708894e+00,3.541983e+00,3,3,2.572568e+00,2.572568e+00
3.688689e+00,3.480857e+00,3,3,2.077559e+00,2.077559e+00
3.686746e+00,3.481783e+00,3,3,2.079005e+00,2.079002e+00
3.681002e+00,3.478694e+00,3,3,1.756995e+00,1.756995e+00
3.710847e+00,3.486222e+00,3,3,1.642100e+00,1.642100e+00
3.687383e+00,3.486818e+00,3,3,4.207816e+00,4.207692e+00
7.417482e+00,7.022493e+00,6,6,3.187179e+00,3.186047e+00
3.714032e+00,3.483411e+00,3,3,2.658732e+00,2.658720e+00
3.687073e+00,3.483919e+00,3,3,2.591596e+00,2.591595e+00
3.681511e+00,3.483776e+00,3,3,2.309567e+00,2.309569e+00
3.705042e+00,3.483618e+00,3,3,1.435713e+00,1.435713e+00
3.679212e+00,3.479104e+00,3,3,1.767386e+00,1.767386e+00
3.688468e+00,3.506386e+00,3,3,1.103547e+00,1.103547e+00
3.689566e+00,3.485853e+00,3,3,3.336382e+00,3.336380e+00
3.687207e+00,3.484689e+00,3,3,2.685376e+00,2.685376e+00
3.680765e+00,3.484961e+00,3,3,2.028989e+00,2.028989e+00
3.684148e+00,3.478515e+00,3,3,3.135567e+00,3.135565e+00
3.720744e+00,3.480372e+00,3,3,4.109252e+00,4.109262e+00
3.693302e+00,3.487904e+00,3,3,1.798459e+00,1.798460e+00
3.687031e+00,3.485498e+00,3,3,1.553122e+00,1.553122e+00
3.685480e+00,3.483537e+00,3,3,2.135773e+00,2.135773e+00
3.688555e+00,3.479998e+00,3,3,1.428018e+00,1.428018e+00
3.682102e+00,3.480612e+00,3,3,1.934787e+00,1.934786e+00
3.682043e+00,3.480710e+00,3,3,1.260185e+00,1.260185e+00
3.717309e+00,3.487293e+00,3,3,1.424758e+00,1.424758e+00
3.678345e+00,3.489818e+00,3,3,1.292300e+00,1.292300e+00
3.679256e+00,3.523313e+00,3,3,9.546574e-01,9.546572e-01
3.705383e+00,3.480219e+00,3,3,8.896162e-01,8.896160e-01
3.683985e+00,3.478786e+00,3,3,2.081078e+00,2.081076e+00
3.692913e+00,3.484935e+00,3,3,9.561507e-01,9.561507e-01
3.679434e+00,3.484723e+00,3,3,1.354896e+00,1.354896e+00
3.705095e+00,3.484393e+00,3,3,1.135734e+00,1.135733e+00
3.687383e+00,3.507674e+00,3,3,1.553032e+00,1.553031e+00
3.713516e+00,3.508196e+00,3,3,3.341175e+00,3.341173e+00
3.717097e+00,3.485789e+00,3,3,2.713586e+00,2.713586e+00
3.691880e+00,3.485948e+00,3,3,2.370907e+00,2.370907e+00
3.678257e+00,3.486684e+00,3,3,9.188416e+00,9.188150e+00
7.355172e+00,6.983561e+00,6,6,6.904343e+00,6.897515e+00
4.915202e+00,4.647890e+00,4,4,4.790216e+00,4.790216e+00
3.713157e+00,3.480221e+00,3,3,5.217198e+00,5.217197e+00
3.685188e+00,3.481335e+00,3,3,5.230823e+00,5.230823e+00
3.693026e+00,3.483651e+00,3,3,5.364297e+00,5.364297e+00
3.686125e+00,3.486031e+00,3,3,7.233877e+00,7.233904e+00
3.684963e+00,3.510334e+00,3,3,5.077922e+00,5.077926e+00
3.679675e+00,3.495294e+00,3,3,4.198243e+00,4.198242e+00
3.682951e+00,3.481873e+00,3,3,3.640930e+00,3.640930e+00
3.683535e+00,3.482556e+00,3,3,4.329281e+00,4.329281e+00
3.687108e+00,3.513939e+00,3,3,3.536917e+00,3.536917e+00
3.679259e+00,3.491604e+00,3,3,3.393125e+00,3.393124e+00
3.704731e+00,3.485049e+00,3,3,3.618699e+00,3.618698e+00
3.683580e+00,3.507261e+00,3,3,2.692856e+00,2.692856e+00
3.689336e+00,3.483845e+00,3,3,2.343506e+00,2.343506e+00
3.709719e+00,3.483090e+00,3,3,2.815578e+00,2.815577e+00
3.708491e+00,3.509366e+00,3,3,1.923835e+00,1.923835e+00
3.684914e+00,3.486195e+00,3,3,1.826420e+00,1.826420e+00
3.684643e+00,3.482881e+00,3,3,3.177283e+00,3.177282e+00
3.689783e+00,3.483373e+00,3,3,2.959612e+00,2.959612e+00
3.681992e+00,3.502669e+00,3,3,1.839261e+00,1.839262e+00
3.689620e+00,3.483594e+00,3,3,1.785615e+00,1.785615e+00
3.680716e+00,3.484956e+00,3,3,7.976561e-01,7.976558e-01
3.691425e+00,3.508966e+00,3,3,4.706168e-01,4.706168e-01
3.684643e+00,3.479891e+00,3,3,4.162991e-01,4.162990e-01
3.681317e+00,3.479533e+00,3,3,1.018298e+00,1.018298e+00
3.685027e+00,3.484266e+00,3,3,2.366419e+00,2.366418e+00
3.684827e+00,3.512756e+00,3,3,3.783975e+00,3.783974e+00
3.675436e+00,3.483629e+00,3,3,4.582415e+00,4.582414e+00
3.736674e+00,3.481746e+00,3,3,6.226779e+00,6.226784e+00
3.792327e+00,3.506386e+00,3,3,4.482309e+00,4.482312e+00
3.687591e+00,3.483831e+00,3,3,3.336196e+00,3.336196e+00
3.678888e+00,3.483535e+00,3,3,2.943437e+00,2.943437e+00
3.690161e+00,3.480229e+00,3,3,2.522391e+00,2.522391e+00
3.800216e+00,3.587349e+00,3,3,3.032511e+00,3.032511e+00
3.797903e+00,3.653269e+00,3,3,3.456886e+00,3.456884e+00
3.799785e+00,3.584365e+00,3,3,2.242254e+00,2.242254e+00
3.793216e+00,3.590577e+00,3,3,2.017916e+00,2.017915e+00
3.795864e+00,3.589249e+00,3,3,1.597608e+00,1.597608e+00
3.795536e+00,3.591596e+00,3,3,1.671926e+00,1.671926e+00
3.802909e+00,3.586204e+00,3,3,2.047242e+00,2.047242e+00
3.790293e+00,3.581566e+00,3,3,1.421585e+00,1.421586e+00
3.799150e+00,3.586554e+00,3,3,2.739543e+00,2.739542e+00
3.791526e+00,3.587088e+00,3,3,4.199642e+00,4.199644e+00
3.844034e+00,3.586537e+00,3,3,5.928770e+00,5.928805e+00
3.804671e+00,3.589688e+00,3,3,4.161643e+00,4.161646e+00
3.795547e+00,3.537119e+00,3,3,1.589852e+00,1.589853e+00
3.697342e+00,3.480746e+00,3,3,1.791703e+00,1.791703e+00
3.736228e+00,3.486083e+00,3,3,2.339039e+00,2.339039e+00
3.678643e+00,3.489174e+00,3,3,2.541469e+00,2.541472e+00
3.683853e+00,3.480764e+00,3,3,3.331810e+00,3.331809e+00
3.759593e+00,3.482844e+00,3,3,6.903008e+00,6.903011e+00
3.699021e+00,3.481339e+00,3,3,4.792142e+00,4.792145e+00
3.712585e+00,3.515245e+00,3,3,4.036393e+00,4.036393e+00
3.685191e+00,3.487779e+00,3,3,4.326546e+00,4.326545e+00
3.713401e+00,3.479334e+00,3,3,7.773648e+00,7.773710e+00
3.686259e+00,3.480249e+00,3,3,6.659506e+00,6.659585e+00
3.684362e+00,3.505849e+00,3,3,5.223939e+00,5.223984e+00
3.680299e+00,3.484211e+00,3,3,7.952374e+00,7.953061e+00
6.122884e+00,5.798165e+00,5,5,1.051842e+01,1.052054e+01
4.914676e+00,3.488724e+00,4,3,1.176301e+01,1.176422e+01
8.781771e+00,7.001828e+00,7,6,1.150883e+01,1.151742e+01
4.971928e+00,4.666214e+00,4,4,8.788686e+00,8.788687e+00
3.723299e+00,3.512507e+00,3,3,8.631488e+00,8.631488e+00
3.686331e+00,3.485706e+00,3,3,8.106698e+00,8.106698e+00
3.681683e+00,3.482985e+00,3,3,7.204660e+00,7.204660e+00
3.684300e+00,3.505640e+00,3,3,6.104625e+00,6.104625e+00
3.689056e+00,3.480787e+00,3,3,4.980099e+00,4.980099e+00
3.694385e+00,3.484807e+00,3,3,4.587683e+00,4.587683e+00
3.716420e+00,3.486051e+00,3,3,3.338082e+00,3.338082e+00
3.693906e+00,3.480267e+00,3,3,4.581268e+00,4.581266e+00
3.686191e+00,3.482142e+00,3,3,4.688991e+00,4.688996e+00
3.683855e+00,3.482419e+00,3,3,3.873939e+00,3.873981e+00
3.696672e+00,3.509509e+00,3,3,3.609327e+00,3.609442e+00
3.683141e+00,3.485112e+00,3,3,2.598881e+00,2.598980e+00
3.678285e+00,3.484652e+00,3,3,4.698141e+00,4.697950e+00
7.356280e+00,6.957883e+00,6,6,1.197597e+01,1.197333e+01
7.370095e+00,4.638583e+00,6,4,6.728040e+00,6.723885e+00
4.910676e+00,3.513325e+00,4,3,8.536181e+00,8.536179e+00
3.682365e+00,3.484076e+00,3,3,1.099212e+01,1.099296e+01
9.840955e+00,4.654068e+00,8,4,5.995136e+00,5.980364e+00
4.907745e+00,3.484694e+00,4,3,6.093524e+00,6.093686e+00
3.682653e+00,3.486952e+00,3,3,4.089704e+00,4.089706e+00
3.683542e+00,3.481000e+00,3,3,3.708844e+00,3.708844e+00
3.685962e+00,3.504467e+00,3,3,3.092194e+00,3.092193e+00
3.689602e+00,3.484335e+00,3,3,2.425441e+00,2.425440e+00
3.683680e+00,3.485394e+00,3,3,1.803063e+00,1.803063e+00
3.681589e+00,3.486905e+00,3,3,1.941692e+00,1.941692e+00
3.685115e+00,3.481668e+00,3,3,4.353152e+00,4.353165e+00
3.688264e+00,3.479022e+00,3,3,3.658480e+00,3.660020e+00
4.907930e+00,4.641094e+00,4,4,1.364080e+00,1.364080e+00
3.716356e+00,3.482942e+00,3,3,2.361011e+00,2.361010e+00
3.695303e+00,3.508518e+00,3,3,2.455755e+00,2.455755e+00
3.715190e+00,3.522434e+00,3,3,3.022535e+00,3.022535e+00
3.698651e+00,3.511821e+00,3,3,1.788576e+00,1.788577e+00
3.677601e+00,3.486029e+00,3,3,1.995499e+00,1.995498e+00
3.685049e+00,3.479790e+00,3,3,2.971568e+00,2.971568e+00
3.679659e+00,3.542824e+00,3,3,2.725308e+00,2.725308e+00
3.719730e+00,3.485555e+00,3,3,1.840622e+00,1.840622e+00
3.712273e+00,3.600149e+00,3,3,1.679198e+00,1.679198e+00
3.798275e+00,3.564182e+00,3,3,2.019618e+00,2.019617e+00
3.796134e+00,3.573177e+00,3,3,4.082909e+00,4.082906e+00
3.801021e+00,3.603106e+00,3,3,4.621446e+00,4.621446e+00
3.786642e+00,3.616437e+00,3,3,4.576738e+00,4.576738e+00
3.773874e+00,3.531611e+00,3,3,3.778982e+00,3.778982e+00
3.750201e+00,3.506656e+00,3,3,3.770301e+00,3.770301e+00
3.713272e+00,3.526454e+00,3,3,4.168633e+00,4.168632e+00
3.742518e+00,3.493748e+00,3,3,4.485210e+00,4.485210e+00
3.694701e+00,3.486283e+00,3,3,3.540991e+00,3.540992e+00
3.684746e+00,3.484316e+00,3,3,4.427200e+00,4.427199e+00
3.690330e+00,3.484191e+00,3,3,5.477882e+00,5.477882e+00
3.683954e+00,3.497156e+00,3,3,8.906170e+00,8.904962e+00
7.367653e+00,5.796826e+00,6,5,9.669510e+00,9.700501e+00
4.914655e+00,4.640825e+00,4,4,4.808811e+00,4.808814e+00
3.691546e+00,3.485473e+00,3,3,3.551482e+00,3.551482e+00
3.693065e+00,3.480858e+00,3,3,3.414315e+00,3.414314e+00
3.686408e+00,3.489896e+00,3,3,3.799390e+00,3.799390e+00
3.715847e+00,3.520002e+00,3,3,3.754078e+00,3.754078e+00
4.915857e+00,3.483416e+00,4,3,1.154891e+01,1.155655e+01
7.387262e+00,6.955935e+00,6,6,1.672569e+01,1.672799e+01
7.367386e+00,6.968151e+00,6,6,1.311130e+01,1.310815e+01
9.819097e+00,4.672347e+00,8,4,1.279651e+01,1.280256e+01
7.385419e+00,7.025786e+00,6,6,1.190215e+01,1.190647e+01
7.381159e+00,6.961495e+00,6,6,1.456208e+01,1.455846e+01
4.908569e+00,4.643644e+00,4,4,1.206187e+01,1.205999e+01
6.141540e+00,4.670727e+00,5,4,1.612955e+01,1.612379e+01
4.929457e+00,4.638602e+00,4,4,1.281998e+01,1.281999e+01
3.688963e+00,3.506843e+00,3,3,1.095365e+01,1.095365e+01
3.694746e+00,3.487293e+00,3,3,8.102391e+00,8.102393e+00
3.700290e+00,3.485488e+00,3,3,6.582274e+00,6.582275e+00
3.684066e+00,3.481298e+00,3,3,6.002305e+00,6.002305e+00
3.684065e+00,3.493953e+00,3,3,4.513115e+00,4.513116e+00
3.764174e+00,3.523164e+00,3,3,3.845873e+00,3.845873e+00
3.748339e+00,3.519583e+00,3,3,3.722838e+00,3.722838e+00
3.731736e+00,3.516573e+00,3,3,2.629667e+00,2.629667e+00
3.735149e+00,3.512696e+00,3,3,2.656381e+00,2.656380e+00
3.688793e+00,3.480387e+00,3,3,1.850317e+00,1.850317e+00
3.685319e+00,3.487823e+00,3,3,1.047555e+00,1.047555e+00
3.683756e+00,3.484916e+00,3,3,2.704134e+00,2.704133e+00
3.712346e+00,3.481310e+00,3,3,1.254604e+00,1.254604e+00
3.681356e+00,3.480257e+00,3,3,8.889712e-01,8.889709e-01
3.713667e+00,3.483240e+00,3,3,1.207745e+00,1.207745e+00
3.692692e+00,3.497016e+00,3,3,1.064289e+00,1.064289e+00
3.682462e+00,3.492598e+00,3,3,1.880616e+00,1.880615e+00
3.684946e+00,3.488590e+00,3,3,1.101737e+00,1.101738e+00
3.689240e+00,3.599035e+00,3,3,2.770470e+00,2.770468e+00
3.737242e+00,3.488721e+00,3,3,2.550560e+00,2.550560e+00
3.683117e+00,3.497870e+00,3,3,2.365976e+00,2.365976e+00
3.687495e+00,3.514870e+00,3,3,1.558908e+00,1.558908e+00
3.689797e+00,3.485250e+00,3,3,2.535408e+00,2.535407e+00
3.690730e+00,3.483326e+00,3,3,2.454961e+00,2.454961e+00
3.695695e+00,3.484131e+00,3,3,2.626964e+00,2.626963e+00
3.683782e+00,3.486693e+00,3,3,2.040742e+00,2.040742e+00
3.707352e+00,3.490247e+00,3,3,1.875050e+00,1.875050e+00
3.717523e+00,3.488392e+00,3,3,1.587148e+00,1.587148e+00
3.736641e+00,3.481959e+00,3,3,1.230955e+00,1.230955e+00
3.722465e+00,3.489406e+00,3,3,1.278793e+00,1.278793e+00
3.683037e+00,3.483499e+00,3,3,1.022407e+00,1.022407e+00
3.678144e+00,3.487543e+00,3,3,1.543585e+00,1.543584e+00
3.684482e+00,3.481973e+00,3,3,1.477633e+00,1.477633e+00
3.715034e+00,3.480870e+00,3,3,2.805497e+00,2.805496e+00
3.688018e+00,3.485739e+00,3,3,3.538421e+00,3.538421e+00
3.684514e+00,3.488705e+00,3,3,7.698572e+00,7.698569e+00
3.695211e+00,3.488748e+00,3,3,6.636430e+00,6.636435e+00
3.683712e+00,3.483508e+00,3,3,3.366050e+00,3.366051e+00
3.689095e+00,3.480602e+00,3,3,3.715297e+00,3.715296e+00
3.688003e+00,3.479042e+00,3,3,3.973241e+00,3.973241e+00
3.715137e+00,3.486358e+00,3,3,4.613007e+00,4.613006e+00
3.683965e+00,3.486984e+00,3,3,4.342410e+00,4.342410e+00
3.715313e+00,3.489378e+00,3,3,3.700611e+00,3.700610e+00
3.687579e+00,3.483063e+00,3,3,4.268945e+00,4.268943e+00
3.685372e+00,3.478182e+00,3,3,4.423437e+00,4.423437e+00
3.689222e+00,3.487646e+00,3,3,4.586933e+00,4.586932e+00
3.688275e+00,3.484460e+00,3,3,5.096225e+00,5.096225e+00
3.712926e+00,3.489330e+00,3,3,6.038832e+00,6.038838e+00
3.693665e+00,3.480749e+00,3,3,2.306173e+00,2.306175e+00
3.686952e+00,3.482840e+00,3,3,2.509675e+00,2.509675e+00
3.694368e+00,3.482341e+00,3,3,3.255081e+00,3.255081e+00
3.685153e+00,3.485392e+00,3,3,2.127946e+00,2.127947e+00
3.684539e+00,3.516715e+00,3,3,1.598678e+00,1.598677e+00
3.688615e+00,3.482728e+00,3,3,1.522938e+00,1.522938e+00
3.717086e+00,3.484748e+00,3,3,1.566273e+00,1.566273e+00
3.686000e+00,3.484781e+00,3,3,1.588308e+00,1.588307e+00
3.718584e+00,3.484296e+00,3,3,1.282278e+00,1.282278e+00
3.681575e+00,3.485183e+00,3,3,1.709831e+00,1.709831e+00
3.687716e+00,3.478725e+00,3,3,2.356897e+00,2.356895e+00
3.685785e+00,3.482013e+00,3,3,3.438205e+00,3.438204e+00
3.683672e+00,3.507997e+00,3,3,5.105882e+00,5.105879e+00
3.686659e+00,3.483426e+00,3,3,1.009198e+01,1.009215e+01
3.711904e+00,4.672238e+00,3,4,9.071002e+00,9.070577e+00
4.976656e+00,3.498694e+00,4,3,9.122450e+00,9.122925e+00
3.701884e+00,3.488397e+00,3,3,8.059125e+00,8.059227e+00
3.685210e+00,3.484557e+00,3,3,7.667674e+00,7.667812e+00
3.690708e+00,3.477599e+00,3,3,5.890774e+00,5.890788e+00
3.687676e+00,3.510327e+00,3,3,5.081142e+00,5.081144e+00
3.685456e+00,3.484254e+00,3,3,6.157650e+00,6.157749e+00
3.693102e+00,3.511261e+00,3,3,3.648162e+00,3.648169e+00
3.687083e+00,3.491784e+00,3,3,4.012717e+00,4.012716e+00
3.683260e+00,3.480818e+00,3,3,4.401239e+00,4.401238e+00
3.685104e+00,3.480929e+00,3,3,5.999107e+00,5.999177e+00
3.685257e+00,3.480728e+00,3,3,3.831817e+00,3.831761e+00
3.692568e+00,3.521777e+00,3,3,1.990552e+00,1.990552e+00
3.737624e+00,3.535208e+00,3,3,1.533872e+00,1.533872e+00
3.708137e+00,3.518728e+00,3,3,1.576811e+00,1.576810e+00
3.803176e+00,3.636590e+00,3,3,3.107624e+00,3.107622e+00
3.791989e+00,3.586557e+00,3,3,2.469162e+00,2.469162e+00
3.813382e+00,3.587105e+00,3,3,2.520327e+00,2.520327e+00
3.804083e+00,3.592513e+00,3,3,2.508417e+00,2.508417e+00
3.830226e+00,3.601615e+00,3,3,3.208301e+00,3.208300e+00
3.801677e+00,3.597226e+00,3,3,8.632316e+00,8.632107e+00
5.082376e+00,4.815272e+00,4,4,6.497508e+00,6.497511e+00
3.818633e+00,3.606433e+00,3,3,3.725296e+00,3.725297e+00
3.794571e+00,3.590631e+00,3,3,3.393167e+00,3.393166e+00
3.793563e+00,3.519814e+00,3,3,2.444499e+00,2.444498e+00
3.711354e+00,3.532976e+00,3,3,4.077829e+00,4.077827e+00
3.711587e+00,3.501416e+00,3,3,5.963876e+00,5.963873e+00
3.717261e+00,3.503073e+00,3,3,3.851657e+00,3.851658e+00
3.699726e+00,3.500697e+00,3,3,2.903419e+00,2.903419e+00
3.704870e+00,3.518780e+00,3,3,2.142724e+00,2.142723e+00
3.807653e+00,3.583710e+00,3,3,1.976376e+00,1.976376e+00
3.792191e+00,3.613279e+00,3,3,2.216800e+00,2.216798e+00
3.800666e+00,3.609142e+00,3,3,2.338784e+00,2.338783e+00
3.796030e+00,3.640328e+00,3,3,8.038378e-01,8.038380e-01
3.807848e+00,3.646210e+00,3,3,1.025675e+00,1.025675e+00
3.823672e+00,3.643335e+00,3,3,9.353343e-01,9.353341e-01
3.823506e+00,3.589571e+00,3,3,1.424047e+00,1.424046e+00
3.799844e+00,3.594513e+00,3,3,1.090306e+00,1.090306e+00
3.789296e+00,3.617611e+00,3,3,6.275622e+00,6.275617e+00
3.775480e+00,3.521081e+00,3,3,3.924268e+00,3.924270e+00
3.715459e+00,3.601760e+00,3,3,4.911938e+00,4.911941e+00
3.829951e+00,3.611821e+00,3,3,2.987617e+00,2.987618e+00
3.857292e+00,3.560907e+00,3,3,3.894830e+00,3.894827e+00
3.752826e+00,3.543053e+00,3,3,5.026864e+00,5.026863e+00
3.746024e+00,3.620594e+00,3,3,7.493912e+00,7.493952e+00
3.836430e+00,3.643759e+00,3,3,6.361314e+00,6.362732e+00
7.567901e+00,7.130521e+00,6,6,3.643108e+00,3.639319e+00
5.067874e+00,4.818005e+00,4,4,6.243747e+00,6.243572e+00
5.037890e+00,4.768156e+00,4,4,3.761127e+00,3.761128e+00
3.800132e+00,3.593440e+00,3,3,9.011503e+00,9.010203e+00
8.779534e+00,7.130817e+00,7,6,6.315722e+00,6.318776e+00
4.947812e+00,4.663133e+00,4,4,3.773140e+00,3.773141e+00
3.715206e+00,3.498104e+00,3,3,4.914312e+00,4.914311e+00
3.698586e+00,3.502788e+00,3,3,4.192922e+00,4.192923e+00
3.695465e+00,3.497563e+00,3,3,5.222406e+00,5.222406e+00
3.698638e+00,3.539302e+00,3,3,3.406828e+00,3.406828e+00
3.800555e+00,3.614805e+00,3,3,2.921190e+00,2.921189e+00
3.803759e+00,3.594258e+00,3,3,2.326068e+00,2.326068e+00
3.798597e+00,3.612959e+00,3,3,2.257396e+00,2.257395e+00
3.827354e+00,3.605980e+00,3,3,2.648310e+00,2.648309e+00
3.804114e+00,3.590854e+00,3,3,1.576956e+00,1.576957e+00
3.809231e+00,3.595846e+00,3,3,2.046848e+00,2.046847e+00
3.797110e+00,3.591139e+00,3,3,1.448918e+00,1.448918e+00
3.833036e+00,3.583145e+00,3,3,1.423209e+00,1.423208e+00
3.788445e+00,3.569541e+00,3,3,9.476562e-01,9.476558e-01
3.728725e+00,3.505458e+00,3,3,2.142607e+00,2.142605e+00
3.707410e+00,3.523996e+00,3,3,1.882697e+00,1.882696e+00
3.706553e+00,3.498680e+00,3,3,1.556191e+00,1.556191e+00
3.705243e+00,3.496488e+00,3,3,3.129242e+00,3.129240e+00
3.736304e+00,3.624705e+00,3,3,3.766259e+00,3.766258e+00
3.846449e+00,3.615797e+00,3,3,3.189997e+00,3.189997e+00
3.804799e+00,3.615074e+00,3,3,3.827248e+00,3.827247e+00
3.854300e+00,3.609765e+00,3,3,3.631623e+00,3.631623e+00
3.820409e+00,3.602098e+00,3,3,3.761470e+00,3.761471e+00
3.811759e+00,3.592253e+00,3,3,4.617822e+00,4.618160e+00
5.052906e+00,7.142580e+00,4,6,5.138446e+00,5.144333e+00
5.085614e+00,4.763813e+00,4,4,2.774775e+00,2.774775e+00
3.717683e+00,3.501148e+00,3,3,3.240882e+00,3.240880e+00
3.703210e+00,3.504549e+00,3,3,3.018051e+00,3.018051e+00
3.718888e+00,3.497433e+00,3,3,6.125261e+00,6.125167e+00
4.920835e+00,4.656648e+00,4,4,4.159384e+00,4.159447e+00
3.705316e+00,3.608459e+00,3,3,6.620801e+00,6.618053e+00
6.317802e+00,4.790360e+00,5,4,3.441918e+00,3.420865e+00
5.058047e+00,4.808526e+00,4,4,2.461978e+00,2.461977e+00
3.829198e+00,3.619652e+00,3,3,2.529576e+00,2.529575e+00
3.799588e+00,3.601710e+00,3,3,1.690591e+00,1.690590e+00
3.809424e+00,3.579794e+00,3,3,2.036742e+00,2.036742e+00
3.805124e+00,3.598145e+00,3,3,1.559496e+00,1.559496e+00
3.829172e+00,3.572837e+00,3,3,3.832666e+00,3.832666e+00
3.710932e+00,3.493183e+00,3,3,4.524415e+00,4.524430e+00
3.717189e+00,3.507426e+00,3,3,4.005165e+00,4.005168e+00
3.706669e+00,3.507768e+00,3,3,2.780146e+00,2.780149e+00
3.705243e+00,3.494158e+00,3,3,4.587536e+00,4.587538e+00
3.705041e+00,3.536140e+00,3,3,3.676150e+00,3.676151e+00
3.826950e+00,3.606830e+00,3,3,5.215791e+00,5.215792e+00
3.821101e+00,3.594267e+00,3,3,5.800993e+00,5.800994e+00
3.828099e+00,3.626596e+00,3,3,4.253186e+00,4.253187e+00
3.866692e+00,3.647706e+00,3,3,4.168061e+00,4.168060e+00
3.860985e+00,3.633099e+00,3,3,2.922177e+00,2.922178e+00
3.805202e+00,3.585791e+00,3,3,2.847135e+00,2.847135e+00

