2.194193e+00,4.196581e+03,4.194577e+03,2,1000,0.000000e+00,-1.196959e-16,0
3.233649e+00,5.177670e+02,5.177138e+02,3,162,1.480037e-01,1.480040e-01,1
3.211614e+00,3.428218e+00,3.390074e+00,3,0,2.735375e-01,2.735381e-01,1
3.203108e+00,3.424275e+00,3.391027e+00,3,0,5.775486e-01,5.775495e-01,1
3.181524e+00,3.363961e+00,3.330946e+00,3,0,5.324881e-01,5.324885e-01,1
3.211010e+00,6.643084e+00,6.595135e+00,3,1,2.501616e+00,2.501768e+00,1
3.172244e+00,4.069819e+00,4.035950e+00,3,0,3.489176e+00,3.489544e+00,1
3.177030e+00,7.000302e+00,6.967783e+00,3,1,4.579118e+00,4.583149e+00,1
3.206202e+00,8.695783e+00,8.661032e+00,3,2,2.251728e+00,2.251727e+00,1
3.185149e+00,3.395961e+00,3.362894e+00,3,0,1.996338e+00,1.996339e+00,1
3.195095e+00,3.443176e+00,3.411055e+00,3,0,1.651813e+00,1.651814e+00,1
3.181516e+00,3.445320e+00,3.413200e+00,3,0,1.911418e+00,1.911420e+00,1
3.220859e+00,3.358736e+00,3.325939e+00,3,0,3.170327e+00,3.170331e+00,1
3.198702e+00,3.376568e+00,3.344774e+00,3,0,4.326501e+00,4.326504e+00,1
3.209703e+00,3.400073e+00,3.368616e+00,3,0,3.965860e+00,3.965860e+00,1
3.215545e+00,6.618087e+00,6.586075e+00,3,1,5.539052e+00,5.539149e+00,1
3.221867e+00,9.287554e+00,9.253979e+00,3,2,4.325644e+00,4.326492e+00,1
3.229141e+00,1.290164e+01,1.286507e+01,3,3,3.786474e+00,3.788743e+00,1
3.220563e+00,7.135117e+00,7.101059e+00,3,1,3.617639e+00,3.633812e+00,1
3.230489e+00,6.657718e+00,6.623030e+00,3,1,3.447922e+00,3.460870e+00,1
3.214415e+00,9.768748e+00,9.734869e+00,3,2,3.608668e+00,3.630833e+00,1
3.231295e+00,6.579056e+00,6.546021e+00,3,1,3.007787e+00,3.009279e+00,1
3.217471e+00,6.990086e+00,6.956100e+00,3,1,2.708777e+00,2.715277e+00,1
3.227211e+00,1.215245e+01,1.211810e+01,3,3,2.361958e+00,2.478741e+00,1
3.227413e+00,7.665285e+00,7.630110e+00,3,1,2.331080e+00,2.373548e+00,1
3.223958e+00,4.134646e+00,4.099846e+00,3,0,2.254560e+00,2.254714e+00,1
3.219694e+00,6.177527e+00,6.141901e+00,3,1,1.866745e+00,1.866666e+00,1
3.221463e+00,3.478349e+00,3.443003e+00,3,0,1.339154e+00,1.338720e+00,1
3.218314e+00,3.432027e+00,3.399134e+00,3,0,6.754213e-01,6.754239e-01,1
3.212021e+00,3.456175e+00,3.424168e+00,3,0,5.788428e-01,5.788431e-01,1
3.419440e+00,3.439118e+00,3.404856e+00,3,0,1.149249e+00,1.149251e+00,1
3.224675e+00,3.410678e+00,3.371000e+00,3,0,1.355593e+00,1.355594e+00,1
3.221608e+00,3.364866e+00,3.330946e+00,3,0,1.169482e+00,1.169482e+00,1
3.221947e+00,3.327802e+00,3.295183e+00,3,0,1.807410e+00,1.807412e+00,1
3.212181e+00,3.336754e+00,3.303766e+00,3,0,1.478380e+00,1.478380e+00,1
3.224853e+00,3.416313e+00,3.383160e+00,3,0,1.091073e+00,1.091073e+00,1
3.216343e+00,3.440626e+00,3.408909e+00,3,0,7.992439e-01,7.992445e-01,1
3.217582e+00,3.450895e+00,3.417969e+00,3,0,6.656006e-01,6.656011e-01,1
3.227532e+00,6.770444e+00,6.736040e+00,3,1,1.692769e+00,1.693030e+00,1
3.229427e+00,6.175491e+00,6.143093e+00,3,1,1.868498e+00,1.868498e+00,1
3.227489e+00,1.575948e+01,1.572299e+01,3,4,4.201812e+00,4.316261e+00,1
3.221873e+00,1.785443e+01,1.781893e+01,3,5,5.751159e+00,5.804323e+00,1
3.224563e+00,2.161695e+01,2.158284e+01,3,7,3.643254e+00,3.643249e+00,1
3.224961e+00,1.237746e+01,1.234293e+01,3,3,5.501139e+00,5.510254e+00,1
3.226960e+00,1.110063e+01,1.106620e+01,3,3,4.395935e+00,4.395935e+00,1
3.215908e+00,3.445331e+00,3.412008e+00,3,0,3.555652e+00,3.555652e+00,1
3.220174e+00,3.334838e+00,3.299952e+00,3,0,3.184696e+00,3.184696e+00,1
3.206662e+00,3.456974e+00,3.422022e+00,3,0,2.643504e+00,2.643504e+00,1
3.211215e+00,3.286340e+00,3.255129e+00,3,0,2.123927e+00,2.123927e+00,1
3.221966e+00,3.388315e+00,3.355980e+00,3,0,1.353443e+00,1.353443e+00,1
3.205363e+00,3.396211e+00,3.363848e+00,3,0,1.214989e+00,1.214989e+00,1
3.214363e+00,3.242094e+00,3.211975e+00,3,0,1.931047e+00,1.931049e+00,1
3.206377e+00,3.353752e+00,3.324032e+00,3,0,1.408604e+00,1.408604e+00,1
3.222602e+00,6.611222e+00,6.581068e+00,3,1,1.200526e+00,1.201028e+00,1
3.228482e+00,1.580789e+01,1.577306e+01,3,4,1.587002e+00,1.611748e+00,1
3.220829e+00,6.553547e+00,6.520033e+00,3,1,2.178950e+00,2.207199e+00,1
4.278022e+00,6.031942e+00,5.998850e+00,4,1,1.184302e+00,1.184302e+00,1
3.226322e+00,3.499150e+00,3.463030e+00,3,0,1.825493e+00,1.825495e+00,1
3.218983e+00,3.454076e+00,3.420115e+00,3,0,2.574940e+00,2.574940e+00,1
3.219679e+00,3.480633e+00,3.447056e+00,3,0,3.881358e+00,3.881300e+00,1
3.208999e+00,3.418931e+00,3.386974e+00,3,0,1.759177e+00,1.759181e+00,1
3.231661e+00,1.812231e+01,1.808810e+01,3,5,3.799612e+00,3.871913e+00,1
3.235183e+00,5.754723e+01,5.749893e+01,3,16,7.152725e+00,7.716749e+00,0
3.243269e+00,4.368237e+01,4.364276e+01,3,15,3.884095e+00,3.888500e+00,1
3.236897e+00,2.686358e+01,2.680182e+01,3,5,5.336958e+00,6.908770e+00,0
4.302375e+00,2.404806e+01,2.401018e+01,4,8,2.310961e+00,2.310960e+00,1
3.229841e+00,3.563288e+00,3.526926e+00,3,0,2.477131e+00,2.477130e+00,1
3.215930e+00,3.478264e+00,3.444672e+00,3,0,1.938170e+00,1.938171e+00,1
3.218109e+00,3.468972e+00,3.435850e+00,3,0,1.521451e+00,1.521452e+00,1
3.209346e+00,3.427584e+00,3.393650e+00,3,0,1.165283e+00,1.165284e+00,1
3.224000e+00,3.455919e+00,3.422976e+00,3,0,1.739596e+00,1.739598e+00,1
3.229102e+00,3.482742e+00,3.449917e+00,3,0,1.775319e+00,1.775320e+00,1
3.229227e+00,3.451204e+00,3.418922e+00,3,0,1.799510e+00,1.799510e+00,1
3.224216e+00,6.621526e+00,6.587744e+00,3,1,2.026183e+00,2.027364e+00,1
3.223560e+00,7.228955e+00,7.193089e+00,3,1,2.951177e+00,2.980672e+00,1
3.220328e+00,7.088225e+00,7.054090e+00,3,1,3.962333e+00,4.012108e+00,1
3.230622e+00,1.230956e+01,1.226783e+01,3,3,2.385907e+00,2.430444e+00,1
3.229219e+00,1.049461e+01,1.045799e+01,3,2,2.376830e+00,2.392614e+00,1
3.225552e+00,4.193990e+00,4.158020e+00,3,0,1.754872e+00,1.771033e+00,1
3.221327e+00,6.115162e+00,6.081104e+00,3,1,8.692661e-01,8.692661e-01,1
3.224042e+00,6.777072e+00,6.743670e+00,3,1,2.989081e+00,2.989382e+00,1
3.223244e+00,5.952921e+00,5.918980e+00,3,1,2.211869e+00,2.211869e+00,1
3.220273e+00,3.482356e+00,3.447771e+00,3,0,1.979913e+00,1.979913e+00,1
3.224640e+00,6.789152e+00,6.755114e+00,3,1,1.907545e+00,1.936120e+00,1
3.224620e+00,9.648870e+00,9.614944e+00,3,2,2.746018e+00,2.746023e+00,1
3.229064e+00,1.543946e+01,1.540399e+01,3,4,4.925672e+00,4.938491e+00,1
3.235550e+00,1.921533e+01,1.917863e+01,3,5,7.371517e+00,7.460335e+00,1
3.229550e+00,6.480976e+01,6.475782e+01,3,19,1.074810e+01,2.633930e+01,0
3.237690e+00,6.136390e+01,6.131411e+01,3,18,8.738750e+00,2.097376e+01,0
3.240283e+00,8.512352e+01,8.507204e+01,3,27,6.239178e+00,9.938874e+00,0
3.230058e+00,3.339971e+01,3.336191e+01,3,11,4.812480e+00,4.831885e+00,1
3.219881e+00,1.212572e+01,1.208973e+01,3,3,3.371773e+00,3.375996e+00,1
3.237203e+00,4.488506e+01,4.484820e+01,3,14,4.771566e+00,4.883337e+00,1
3.225731e+00,3.137442e+01,3.133798e+01,3,10,3.545160e+00,3.593112e+00,1
3.230762e+00,4.369750e+01,4.366207e+01,3,14,4.578382e+00,4.696071e+00,1
6.425507e+00,5.776298e+01,5.772686e+01,6,20,5.027743e+00,5.104608e+00,1
4.310071e+00,3.104491e+01,3.100824e+01,4,10,2.153354e+00,2.225758e+00,1
3.230842e+00,6.236711e+00,6.199837e+00,3,1,1.868722e+00,1.868722e+00,1
3.221486e+00,3.601898e+00,3.566027e+00,3,0,2.663267e+00,2.663269e+00,1
3.225105e+00,6.664235e+00,6.629229e+00,3,1,2.892139e+00,2.892238e+00,1
3.225092e+00,6.114795e+00,6.078959e+00,3,1,2.181270e+00,2.181270e+00,1
3.216529e+00,3.442418e+00,3.408670e+00,3,0,2.513181e+00,2.513183e+00,1
3.212205e+00,3.259973e+00,3.229141e+00,3,0,1.481010e+00,1.481011e+00,1
3.219380e+00,3.471368e+00,3.438950e+00,3,0,1.351451e+00,1.351451e+00,1
3.222545e+00,3.479210e+00,3.444910e+00,3,0,1.117835e+00,1.117835e+00,1
3.222364e+00,3.457114e+00,3.423929e+00,3,0,1.168035e+00,1.168036e+00,1
3.223574e+00,6.773017e+00,6.740093e+00,3,1,1.623817e+00,1.624086e+00,1
3.228466e+00,9.398445e+00,9.364843e+00,3,2,1.769307e+00,1.773638e+00,1
3.226673e+00,7.754696e+00,7.719994e+00,3,1,1.140849e+00,1.143920e+00,1
3.228904e+00,1.339148e+01,1.335692e+01,3,3,1.145692e+00,1.199376e+00,1
3.220450e+00,4.142717e+00,4.107237e+00,3,0,1.055244e+00,1.077566e+00,1
3.225793e+00,4.139928e+00,4.107237e+00,3,0,8.892290e-01,8.892302e-01,1
3.220342e+00,6.117934e+00,6.084919e+00,3,1,6.223984e-01,6.223985e-01,1
3.222142e+00,3.427426e+00,3.392935e+00,3,0,1.095641e+00,1.095640e+00,1
3.220761e+00,3.453894e+00,3.416061e+00,3,0,5.823198e-01,5.823198e-01,1
3.223418e+00,3.450374e+00,3.418207e+00,3,0,6.708322e-01,6.708327e-01,1
3.216839e+00,3.419578e+00,3.386974e+00,3,0,1.729806e+00,1.729808e+00,1
3.219574e+00,3.458821e+00,3.423691e+00,3,0,1.261920e+00,1.261920e+00,1
3.213472e+00,9.842949e+00,9.809971e+00,3,2,4.055826e+00,4.056359e+00,1
3.225734e+00,1.203020e+01,1.199698e+01,3,3,2.812032e+00,2.855907e+00,1
3.223344e+00,4.170508e+00,4.134178e+00,3,0,2.727537e+00,2.922870e+00,1
3.224419e+00,1.079743e+01,1.076198e+01,3,2,3.397036e+00,3.511009e+00,1
3.223475e+00,8.722929e+00,8.689165e+00,3,2,3.069367e+00,3.069367e+00,1
3.221871e+00,6.640519e+00,6.607056e+00,3,1,3.383649e+00,3.384150e+00,1
3.234960e+00,2.897755e+01,2.892995e+01,3,6,5.972673e+00,1.327979e+01,0
3.227053e+00,3.423356e+01,3.419709e+01,3,11,3.876268e+00,3.879396e+00,1
3.222910e+00,9.422162e+00,9.385109e+00,3,2,2.947286e+00,2.947334e+00,1
3.228634e+00,1.762521e+01,1.758385e+01,3,5,2.568654e+00,2.568290e+00,1
4.280574e+00,1.084849e+01,1.081300e+01,4,3,1.535637e+00,1.535638e+00,1
3.218253e+00,3.488582e+00,3.455639e+00,3,0,1.689779e+00,1.689767e+00,1
3.218657e+00,3.451090e+00,3.417969e+00,3,0,1.059137e+00,1.059138e+00,1
3.219804e+00,3.453250e+00,3.419876e+00,3,0,1.391703e+00,1.391704e+00,1
3.216796e+00,3.413765e+00,3.380775e+00,3,0,6.224890e-01,6.224892e-01,1
3.215363e+00,3.431674e+00,3.399134e+00,3,0,5.061441e-01,5.061444e-01,1
3.216119e+00,3.462820e+00,3.429651e+00,3,0,5.185236e-01,5.185241e-01,1
3.227717e+00,6.848053e+00,6.813049e+00,3,1,1.126093e+00,1.135743e+00,1
3.224561e+00,9.774614e+00,9.739876e+00,3,2,1.162247e+00,1.162248e+00,1
3.219910e+00,3.294814e+00,3.261089e+00,3,0,9.840363e-01,9.840365e-01,1
3.209312e+00,3.400153e+00,3.367186e+00,3,0,1.072808e+00,1.072808e+00,1
3.221490e+00,3.326689e+00,3.294945e+00,3,0,9.085794e-01,9.085799e-01,1
3.210142e+00,3.460621e+00,3.429174e+00,3,0,1.695304e+00,1.695306e+00,1
3.224820e+00,6.730686e+00,6.696939e+00,3,1,2.891739e+00,2.893527e+00,1
3.218864e+00,9.909097e+00,9.874105e+00,3,2,3.265933e+00,3.313807e+00,1
4.280219e+00,1.329847e+01,1.326418e+01,4,3,2.575523e+00,2.659814e+00,1
3.228863e+00,1.586971e+01,1.583600e+01,3,4,2.289387e+00,2.384771e+00,1
3.227951e+00,1.306532e+01,1.302814e+01,3,3,2.113490e+00,2.261943e+00,1
3.229425e+00,9.285006e+00,9.252071e+00,3,2,1.516395e+00,1.641922e+00,1
3.211722e+00,4.099133e+00,4.065990e+00,3,0,1.344866e+00,1.355459e+00,1
3.225142e+00,5.955280e+00,5.923033e+00,3,1,2.351817e+00,2.351821e+00,1
3.210499e+00,3.418644e+00,3.385067e+00,3,0,3.350949e+00,3.350951e+00,1
3.219171e+00,3.353712e+00,3.323078e+00,3,0,2.045847e+00,2.045846e+00,1
3.228342e+00,3.501101e+00,3.468037e+00,3,0,1.936819e+00,1.936820e+00,1
3.225818e+00,3.459847e+00,3.426075e+00,3,0,1.737010e+00,1.737011e+00,1
3.212307e+00,3.435947e+00,3.401995e+00,3,0,1.592268e+00,1.592268e+00,1
3.217490e+00,3.328264e+00,3.295898e+00,3,0,1.309680e+00,1.309681e+00,1
3.224889e+00,6.816021e+00,6.783009e+00,3,1,1.471519e+00,1.471896e+00,1
3.222073e+00,6.184279e+00,6.150961e+00,3,1,2.408784e+00,2.408787e+00,1
3.220478e+00,3.339460e+00,3.304720e+00,3,0,2.316246e+00,2.316247e+00,1
3.218874e+00,3.460071e+00,3.426075e+00,3,0,2.453430e+00,2.453431e+00,1
3.208766e+00,3.494150e+00,3.462076e+00,3,0,2.787905e+00,2.787909e+00,1
3.220940e+00,3.415017e+00,3.382206e+00,3,0,1.273916e+00,1.273917e+00,1
3.208629e+00,3.410426e+00,3.377914e+00,3,0,1.018706e+00,1.018707e+00,1
3.216169e+00,3.428943e+00,3.396273e+00,3,0,1.067858e+00,1.067859e+00,1
3.230059e+00,3.459618e+00,3.426075e+00,3,0,4.854902e-01,4.854910e-01,1
3.222784e+00,3.395840e+00,3.364086e+00,3,0,4.890554e-01,4.890557e-01,1
3.224371e+00,3.430957e+00,3.398895e+00,3,0,8.369501e-01,8.369511e-01,1
3.214522e+00,3.457684e+00,3.424883e+00,3,0,7.129198e-01,7.129200e-01,1
3.213262e+00,6.736456e+00,6.703138e+00,3,1,1.917661e+00,1.918048e+00,1
3.228955e+00,6.209364e+00,6.175041e+00,3,1,1.424675e+00,1.424676e+00,1
3.226725e+00,3.602050e+00,3.566027e+00,3,0,1.006635e+00,1.006635e+00,1
3.226819e+00,6.982103e+00,6.946087e+00,3,1,8.967762e-01,8.977854e-01,1
3.229441e+00,6.204909e+00,6.170034e+00,3,1,9.131064e-01,9.131069e-01,1
3.226201e+00,3.482890e+00,3.448963e+00,3,0,9.391668e-01,9.391676e-01,1
3.219993e+00,3.453282e+00,3.419876e+00,3,0,5.924108e-01,5.924110e-01,1
3.222175e+00,3.441180e+00,3.407955e+00,3,0,6.653456e-01,6.653465e-01,1
3.427302e+00,3.479055e+00,3.446102e+00,3,0,5.440110e-01,5.440116e-01,1
3.219354e+00,3.475873e+00,3.442049e+00,3,0,4.697492e-01,4.697495e-01,1
3.218952e+00,3.433969e+00,3.401995e+00,3,0,1.266003e+00,1.266005e+00,1
3.232073e+00,3.451863e+00,3.418207e+00,3,0,7.992273e-01,7.992282e-01,1
3.213238e+00,6.801395e+00,6.767988e+00,3,1,1.265643e+00,1.266490e+00,1
3.219652e+00,7.211787e+00,7.178068e+00,3,1,2.042498e+00,2.053415e+00,1
3.229110e+00,7.736988e+00,7.702827e+00,3,1,1.751242e+00,1.791994e+00,1
3.229299e+00,7.803812e+00,7.762909e+00,3,1,1.985309e+00,2.002464e+00,1
3.223374e+00,9.891551e+00,9.856939e+00,3,2,1.392088e+00,1.435957e+00,1
3.219199e+00,1.030617e+01,1.027012e+01,3,2,1.392299e+00,1.412918e+00,1
3.156867e+00,4.191987e+00,4.152775e+00,3,0,1.591716e+00,1.624824e+00,1
3.130699e+00,9.949785e+00,9.917021e+00,3,2,3.495685e+00,3.511389e+00,1
3.132802e+00,1.480307e+01,1.476884e+01,3,4,4.628517e+00,4.631086e+00,1
3.161883e+00,1.089140e+01,1.085687e+01,3,3,4.100854e+00,4.100854e+00,1
3.123182e+00,3.381252e+00,3.347874e+00,3,0,3.335047e+00,3.335047e+00,1
3.147428e+00,6.604730e+00,6.568909e+00,3,1,3.085546e+00,3.085591e+00,1
3.125079e+00,6.094294e+00,6.061077e+00,3,1,2.095509e+00,2.095508e+00,1
3.156979e+00,3.402876e+00,3.368139e+00,3,0,2.070092e+00,2.070094e+00,1
3.146590e+00,9.059362e+00,9.027004e+00,3,2,2.035866e+00,2.035701e+00,1
4.157054e+00,8.454647e+00,8.419275e+00,4,2,1.588496e+00,1.588496e+00,1
3.136995e+00,1.007637e+01,1.004219e+01,3,2,1.398559e+00,1.405478e+00,1
3.131013e+00,1.602989e+01,1.599598e+01,3,4,2.810601e+00,2.956431e+00,1
6.253405e+00,2.683152e+01,2.679777e+01,6,8,5.875777e+00,5.936938e+00,1
6.237197e+00,3.340399e+01,3.336811e+01,6,11,6.171851e+00,6.181274e+00,1
5.193495e+00,1.664098e+01,1.660705e+01,5,5,6.476347e+00,6.481147e+00,1
4.170473e+00,9.369151e+00,9.335041e+00,4,2,7.602175e+00,7.633216e+00,1
5.367840e+00,6.139874e+01,6.136465e+01,5,20,1.077535e+01,1.093390e+01,1
3.232922e+00,8.054785e+01,8.050990e+01,3,28,6.982108e+00,7.011214e+00,1
3.223615e+00,2.701650e+01,2.697921e+01,3,8,8.566390e+00,8.636587e+00,1
3.244289e+00,3.670519e+01,3.667021e+01,3,12,6.584299e+00,6.603235e+00,1
3.223944e+00,5.182082e+01,5.178499e+01,3,17,6.051914e+00,6.150940e+00,1
3.229503e+00,3.062177e+01,3.058600e+01,3,10,4.245602e+00,4.264579e+00,1
3.230409e+00,5.212681e+01,5.207109e+01,3,14,5.193896e+00,6.494360e+00,0
3.225830e+00,4.484876e+01,4.481173e+01,3,15,3.530019e+00,3.553433e+00,1
4.290521e+00,5.989576e+01,5.985498e+01,4,20,4.528844e+00,4.718627e+00,1
4.284947e+00,5.870727e+01,5.867004e+01,4,21,1.487962e+00,1.488304e+00,1
3.217889e+00,4.101783e+00,4.064798e+00,3,0,1.789659e+00,1.829673e+00,1
3.220961e+00,6.030035e+00,5.996227e+00,3,1,3.357541e+00,3.357546e+00,1
3.213701e+00,3.502043e+00,3.468037e+00,3,0,2.535964e+00,2.535964e+00,1
3.234257e+00,1.838009e+01,1.834702e+01,3,5,4.041082e+00,4.047465e+00,1
3.225170e+00,1.790394e+01,1.786613e+01,3,5,3.584776e+00,3.591430e+00,1
3.231749e+00,2.133943e+01,2.130604e+01,3,6,6.182896e+00,6.235790e+00,1
4.290482e+00,2.865935e+01,2.862525e+01,4,9,3.170460e+00,3.170491e+00,1
3.224763e+00,9.332976e+00,9.297132e+00,3,2,2.632753e+00,2.632918e+00,1
3.219799e+00,5.923821e+00,5.890131e+00,3,1,2.062355e+00,2.062355e+00,1
3.222906e+00,3.378565e+00,3.340721e+00,3,0,2.073210e+00,2.073211e+00,1
3.234793e+00,6.689663e+00,6.655693e+00,3,1,2.218605e+00,2.218700e+00,1
3.232419e+00,1.245653e+01,1.242208e+01,3,3,3.363423e+00,3.372586e+00,1
3.224016e+00,8.702932e+00,8.669853e+00,3,2,1.506826e+00,1.506822e+00,1
3.218224e+00,3.462486e+00,3.427744e+00,3,0,1.004818e+00,1.004818e+00,1
3.229234e+00,3.437153e+00,3.403902e+00,3,0,1.144866e+00,1.144867e+00,1
3.223803e+00,3.501149e+00,3.467083e+00,3,0,1.098554e+00,1.098555e+00,1
3.226040e+00,3.471258e+00,3.437996e+00,3,0,8.548936e-01,8.548937e-01,1
3.222819e+00,3.509700e+00,3.475904e+00,3,0,1.390111e+00,1.390113e+00,1
3.215822e+00,3.464539e+00,3.432035e+00,3,0,2.045268e+00,2.045270e+00,1
3.222375e+00,6.638019e+00,6.603956e+00,3,1,3.124459e+00,3.124467e+00,1
3.228224e+00,2.481320e+01,2.477813e+01,3,7,6.813582e+00,6.880133e+00,1
3.219373e+00,2.934522e+01,2.931118e+01,3,9,8.852043e+00,9.025339e+00,1
3.235383e+00,3.166086e+01,3.162599e+01,3,10,6.013678e+00,6.042981e+00,1
3.231482e+00,2.634827e+01,2.631068e+01,3,8,7.441756e+00,7.499130e+00,1
3.228992e+00,3.437623e+01,3.433990e+01,3,11,5.365338e+00,5.378676e+00,1
3.232718e+00,9.745805e+00,9.711027e+00,3,2,4.259696e+00,4.263469e+00,1
3.229752e+00,5.228528e+01,5.225110e+01,3,17,4.734052e+00,4.760342e+00,1
3.235267e+00,3.249144e+01,3.245687e+01,3,11,2.567546e+00,2.567543e+00,1
3.220068e+00,3.254834e+00,3.221035e+00,3,0,1.975960e+00,1.975964e+00,1
3.216510e+00,3.265588e+00,3.234148e+00,3,0,1.521609e+00,1.521610e+00,1
3.210208e+00,3.239766e+00,3.211021e+00,3,0,1.423571e+00,1.423571e+00,1
3.212973e+00,3.258726e+00,3.229141e+00,3,0,1.350085e+00,1.350086e+00,1
3.210614e+00,3.217259e+00,3.188133e+00,3,0,2.090366e+00,2.090368e+00,1
3.209388e+00,3.212543e+00,3.184080e+00,3,0,7.172374e-01,7.172369e-01,1
3.221121e+00,9.522074e+00,9.492159e+00,3,2,2.868690e+00,2.873586e+00,1
3.135424e+00,2.074440e+01,2.070785e+01,3,6,6.331660e+00,6.404451e+00,1
3.123494e+00,2.107548e+01,2.104306e+01,3,7,3.700657e+00,3.705584e+00,1
3.124961e+00,5.629750e+00,5.598783e+00,3,1,2.640159e+00,2.640159e+00,1
3.152418e+00,3.181298e+00,3.149033e+00,3,0,2.165525e+00,2.165526e+00,1
3.126495e+00,3.155368e+00,3.127098e+00,3,0,1.840368e+00,1.840368e+00,1
3.121752e+00,3.174696e+00,3.144979e+00,3,0,1.725505e+00,1.725506e+00,1
3.186803e+00,1.227061e+01,1.223898e+01,3,3,2.906678e+00,2.910130e+00,1
3.179690e+00,1.863266e+01,1.859117e+01,3,5,2.246878e+00,2.249743e+00,1
3.132843e+00,6.639650e+00,6.602764e+00,3,1,1.616621e+00,1.616628e+00,1
3.133996e+00,5.987861e+00,5.954981e+00,3,1,1.799494e+00,1.799495e+00,1
3.136493e+00,1.258733e+01,1.255322e+01,3,3,3.086732e+00,3.118029e+00,1
3.143664e+00,4.120743e+00,4.087210e+00,3,0,5.005687e+00,5.084144e+00,1
3.142662e+00,3.581970e+01,3.578615e+01,3,11,9.121829e+00,9.307645e+00,1
3.134557e+00,5.399397e+01,5.394292e+01,3,16,1.115426e+01,1.763065e+01,0
3.132777e+00,3.822113e+01,3.817129e+01,3,10,1.007042e+01,1.820020e+01,0
3.163831e+00,8.164305e+01,8.159208e+01,3,26,1.057504e+01,1.113835e+01,0
3.212827e+00,6.184057e+01,6.180501e+01,3,21,8.922937e+00,9.060393e+00,1
3.218198e+00,3.654132e+01,3.649187e+01,3,9,9.392463e+00,1.087823e+01,0
3.239023e+00,2.069628e+01,2.066112e+01,3,6,9.381599e+00,9.519432e+00,1
3.227475e+00,4.244264e+01,4.239082e+01,3,11,7.732710e+00,1.466149e+01,0
3.242670e+00,6.288280e+01,6.284595e+01,3,21,6.666564e+00,6.734034e+00,1
3.235210e+00,3.424394e+01,3.420901e+01,3,11,5.132106e+00,5.149892e+00,1
3.234801e+00,2.843241e+01,2.838302e+01,3,6,4.672902e+00,9.549120e+00,0
3.228147e+00,1.133227e+01,1.128006e+01,3,0,4.695716e+00,2.015714e+01,0
6.413239e+00,1.149486e+01,1.144505e+01,6,0,6.045475e+00,4.450851e+01,0
6.411630e+00,1.127645e+01,1.122904e+01,6,0,1.130372e+01,9.292242e+01,0
6.421702e+00,6.880725e+01,6.875587e+01,6,20,1.277326e+01,7.759987e+01,0
6.418630e+00,2.261685e+01,2.256417e+01,6,4,1.451736e+01,6.092979e+01,0
6.429588e+00,4.710391e+01,4.705381e+01,6,13,1.278527e+01,3.845095e+01,0
4.279596e+00,5.869908e+01,5.864716e+01,4,17,1.298037e+01,3.768764e+01,0
5.342930e+00,1.132764e+01,1.127696e+01,5,0,1.601424e+01,5.720222e+01,0
4.301704e+00,1.456205e+02,1.455681e+02,4,48,1.494775e+01,3.361425e+01,0
5.362777e+00,7.398233e+01,7.393074e+01,5,23,1.242826e+01,2.777401e+01,0
4.301408e+00,1.027854e+02,1.027331e+02,4,33,1.070094e+01,1.938102e+01,0
3.223635e+00,1.129196e+01,1.124191e+01,3,0,9.413242e+00,4.002188e+00,0
3.226936e+00,6.738479e+01,6.733608e+01,3,21,8.011364e+00,1.450778e+01,0
3.230226e+00,4.693756e+01,4.688454e+01,3,13,7.180176e+00,2.093601e+01,0
3.222328e+00,1.138878e+01,1.133919e+01,3,0,7.274994e+00,3.164608e+01,0
4.303439e+00,7.555942e+01,7.552361e+01,4,26,4.136656e+00,4.173206e+00,1
3.231180e+00,2.114035e+01,2.110314e+01,3,6,3.550150e+00,3.555080e+00,1
3.225842e+00,2.269874e+01,2.265024e+01,3,4,3.816786e+00,1.116564e+01,0
5.354992e+00,2.317033e+01,2.313399e+01,5,7,2.696693e+00,2.703563e+00,1
3.233678e+00,2.126322e+01,2.122712e+01,3,6,2.275614e+00,2.283555e+00,1
4.286120e+00,1.379716e+01,1.376200e+01,4,4,1.864521e+00,1.863262e+00,1
3.212545e+00,3.469701e+00,3.435135e+00,3,0,1.189066e+00,1.188926e+00,1
3.206876e+00,3.344348e+00,3.313065e+00,3,0,7.330874e-01,7.330907e-01,1
3.217375e+00,3.448370e+00,3.415108e+00,3,0,5.693876e-01,5.693886e-01,1
3.205696e+00,3.420331e+00,3.386974e+00,3,0,8.128230e-01,8.128240e-01,1
3.216775e+00,3.410596e+00,3.380060e+00,3,0,1.091039e+00,1.091040e+00,1
3.207843e+00,3.408120e+00,3.369808e+00,3,0,7.585800e-01,7.585801e-01,1
3.226363e+00,3.425693e+00,3.393888e+00,3,0,8.034055e-01,8.034070e-01,1
3.217489e+00,6.649100e+00,6.613970e+00,3,1,2.166609e+00,2.171954e+00,1
3.227779e+00,1.026939e+01,1.023507e+01,3,2,4.826709e+00,4.869634e+00,1
3.224899e+00,2.851400e+01,2.847886e+01,3,8,6.547698e+00,6.616709e+00,1
3.218824e+00,1.832435e+01,1.829100e+01,3,5,5.512691e+00,5.651420e+00,1
3.244884e+00,3.296049e+01,3.292489e+01,3,10,5.911362e+00,6.020607e+00,1
3.227294e+00,2.308580e+01,2.305198e+01,3,7,5.769727e+00,5.832740e+00,1
3.230256e+00,1.503304e+01,1.499701e+01,3,4,5.107626e+00,5.132345e+00,1
3.230271e+00,2.316661e+01,2.313304e+01,3,7,4.067951e+00,4.069526e+00,1
3.218272e+00,3.246225e+01,3.242493e+01,3,10,4.005878e+00,4.007605e+00,1
3.183864e+00,3.181157e+01,3.176308e+01,3,7,7.184572e+00,1.518238e+01,0
7.387842e+00,4.184213e+01,4.178095e+01,7,11,9.369490e+00,3.352992e+01,0
6.342110e+00,1.142719e+01,1.137900e+01,6,0,1.107331e+01,5.421452e+01,0
4.242797e+00,1.350266e+02,1.349728e+02,4,44,9.071459e+00,1.913780e+01,0
5.365637e+00,7.512227e+01,7.508612e+01,5,27,6.955162e+00,7.128000e+00,1
4.286531e+00,4.212194e+01,4.208398e+01,4,14,5.142149e+00,5.222997e+00,1
3.229447e+00,2.069095e+01,2.065396e+01,3,6,4.147816e+00,4.299349e+00,1
3.236203e+00,5.245598e+01,5.240488e+01,3,14,5.395641e+00,9.852616e+00,0
3.219764e+00,1.121261e+01,1.115990e+01,3,0,5.355025e+00,1.337330e+01,0
3.238430e+00,6.370192e+01,6.366706e+01,3,22,4.030334e+00,4.118599e+00,1
4.291179e+00,3.607653e+01,3.603983e+01,4,12,3.963822e+00,3.988903e+00,1
6.408660e+00,1.242974e+01,1.239276e+01,6,3,4.764324e+00,4.747550e+00,1
6.416084e+00,2.582951e+01,2.579403e+01,6,8,5.218995e+00,5.213265e+00,1
4.282721e+00,1.456325e+01,1.452804e+01,4,4,6.317822e+00,6.317980e+00,1
3.218463e+00,6.245487e+00,6.211042e+00,3,1,4.943493e+00,4.943492e+00,1
3.244056e+00,1.853837e+01,1.850295e+01,3,5,6.595198e+00,6.596781e+00,1
3.219455e+00,1.289876e+01,1.286292e+01,3,3,6.557036e+00,6.561104e+00,1
3.226614e+00,2.653616e+01,2.649975e+01,3,8,5.497243e+00,5.499855e+00,1
3.225599e+00,2.630293e+01,2.626896e+01,3,8,4.533409e+00,4.539121e+00,1
3.224752e+00,3.351443e+01,3.347898e+01,3,10,4.668468e+00,4.706572e+00,1
3.192864e+00,5.956976e+01,5.953407e+01,3,20,4.639311e+00,4.712770e+00,1
5.285499e+00,2.239466e+01,2.234197e+01,5,7,3.473468e+00,3.472062e+00,1
6.341876e+00,2.348154e+01,2.343321e+01,6,7,3.414664e+00,3.426412e+00,1
3.190983e+00,2.573265e+01,2.569485e+01,3,8,2.251282e+00,2.253058e+00,1
3.189877e+00,9.644734e+00,9.609222e+00,3,2,1.832100e+00,1.848395e+00,1
3.161468e+00,6.797006e+00,6.762981e+00,3,1,1.131131e+00,1.134185e+00,1
3.150458e+00,5.902977e+00,5.867958e+00,3,1,7.298493e-01,7.298497e-01,1
3.210249e+00,3.427070e+00,3.394127e+00,3,0,4.261431e-01,4.261432e-01,1
3.174965e+00,3.468340e+00,3.436089e+00,3,0,8.372045e-01,8.372063e-01,1
3.183867e+00,3.395003e+00,3.362894e+00,3,0,4.820062e-01,4.820063e-01,1
3.155705e+00,3.433664e+00,3.400087e+00,3,0,4.462139e-01,4.462146e-01,1
3.144161e+00,3.457704e+00,3.424883e+00,3,0,2.803603e-01,2.803607e-01,1
3.149140e+00,3.277642e+00,3.245831e+00,3,0,3.034090e-01,3.034093e-01,1
3.202062e+00,3.419525e+00,3.387928e+00,3,0,2.670118e-01,2.670121e-01,1
3.148974e+00,3.468798e+00,3.437996e+00,3,0,6.526799e-01,6.526810e-01,1
3.154604e+00,3.380425e+00,3.348112e+00,3,0,5.020282e-01,5.020289e-01,1
3.173116e+00,3.510362e+00,3.475666e+00,3,0,5.137519e-01,5.137538e-01,1
3.233456e+00,3.363755e+00,3.331900e+00,3,0,1.045395e+00,1.045397e+00,1
3.177143e+00,3.411680e+00,3.380060e+00,3,0,5.741072e-01,5.741070e-01,1
3.235162e+00,3.396454e+00,3.364086e+00,3,0,8.142123e-01,8.142130e-01,1
3.225467e+00,3.483127e+00,3.446817e+00,3,0,8.280429e-01,8.280434e-01,1
3.220995e+00,3.500396e+00,3.465891e+00,3,0,1.397154e+00,1.397156e+00,1
3.203999e+00,3.519102e+00,3.484011e+00,3,0,1.066821e+00,1.066821e+00,1
3.149834e+00,3.436836e+00,3.404856e+00,3,0,7.028246e-01,7.028246e-01,1
3.157952e+00,3.438360e+00,3.405094e+00,3,0,5.117647e-01,5.117653e-01,1
3.176741e+00,3.388018e+00,3.356218e+00,3,0,6.908081e-01,6.908090e-01,1
3.199724e+00,3.420660e+00,3.388882e+00,3,0,6.371250e-01,6.371252e-01,1
3.144806e+00,3.395310e+00,3.363848e+00,3,0,5.139358e-01,5.139360e-01,1
3.150557e+00,3.367019e+00,3.334999e+00,3,0,9.031714e-01,9.031726e-01,1
3.176232e+00,3.448130e+00,3.412008e+00,3,0,6.888071e-01,6.888076e-01,1
3.189415e+00,6.768181e+00,6.735086e+00,3,1,1.025957e+00,1.026026e+00,1
3.196171e+00,7.607133e+00,7.573128e+00,3,1,1.815991e+00,1.895109e+00,1
3.181680e+00,4.052395e+00,4.016876e+00,3,0,1.589368e+00,1.609448e+00,1
3.177738e+00,5.999897e+00,5.965948e+00,3,1,1.406362e+00,1.406363e+00,1
3.175477e+00,3.399116e+00,3.366947e+00,3,0,3.216367e+00,3.216371e+00,1
3.179844e+00,3.360601e+00,3.329039e+00,3,0,3.904252e+00,3.904250e+00,1
3.170847e+00,3.316752e+00,3.285885e+00,3,0,2.221353e+00,2.221351e+00,1
3.205372e+00,3.406662e+00,3.376007e+00,3,0,1.660908e+00,1.660908e+00,1
3.154063e+00,3.387746e+00,3.355980e+00,3,0,1.279159e+00,1.279159e+00,1
3.180714e+00,3.420513e+00,3.386974e+00,3,0,8.539447e-01,8.539448e-01,1
3.157783e+00,3.386895e+00,3.355026e+00,3,0,7.552365e-01,7.552369e-01,1
3.231697e+00,3.454493e+00,3.422976e+00,3,0,1.085238e+00,1.085239e+00,1
3.179165e+00,3.352584e+00,3.320932e+00,3,0,1.038546e+00,1.038546e+00,1
3.179705e+00,3.349780e+00,3.318071e+00,3,0,5.170592e-01,5.170602e-01,1
3.152312e+00,3.375972e+00,3.343105e+00,3,0,1.407127e+00,1.407130e+00,1
3.194472e+00,3.317548e+00,3.285646e+00,3,0,7.812427e-01,7.812424e-01,1
3.160400e+00,3.327252e+00,3.294230e+00,3,0,6.898952e-01,6.898958e-01,1
3.172714e+00,3.312925e+00,3.282070e+00,3,0,9.654233e-01,9.654246e-01,1
3.198207e+00,3.322038e+00,3.289938e+00,3,0,7.903659e-01,7.903661e-01,1
3.142041e+00,3.299142e+00,3.267765e+00,3,0,9.278462e-01,9.278469e-01,1
3.172303e+00,3.313228e+00,3.281832e+00,3,0,1.181537e+00,1.181538e+00,1
3.172168e+00,3.312885e+00,3.282070e+00,3,0,9.326563e-01,9.326570e-01,1
3.194230e+00,3.293767e+00,3.262997e+00,3,0,9.693110e-01,9.693125e-01,1
3.149403e+00,3.291191e+00,3.260136e+00,3,0,1.209063e+00,1.209060e+00,1
3.174022e+00,3.295742e+00,3.264904e+00,3,0,1.485909e+00,1.485906e+00,1
3.168413e+00,3.381534e+00,3.349066e+00,3,0,2.228569e+00,2.228571e+00,1
3.179586e+00,3.390896e+00,3.358126e+00,3,0,1.542834e+00,1.542833e+00,1
3.180007e+00,3.354756e+00,3.321886e+00,3,0,1.482658e+00,1.482661e+00,1
3.191755e+00,3.375368e+00,3.343105e+00,3,0,1.434518e+00,1.434519e+00,1
3.179025e+00,3.371529e+00,3.339052e+00,3,0,1.553203e+00,1.553204e+00,1
3.222318e+00,3.341389e+00,3.310204e+00,3,0,1.283908e+00,1.283908e+00,1
3.179390e+00,1.233185e+01,1.229620e+01,3,3,2.186985e+00,2.206634e+00,1
4.250812e+00,1.601974e+01,1.598501e+01,4,4,1.655152e+00,1.680447e+00,1
3.199411e+00,4.192289e+00,4.160166e+00,3,0,1.546005e+00,1.570950e+00,1
3.214603e+00,1.319370e+01,1.314163e+01,3,3,1.510829e+00,1.544874e+00,1
3.223409e+00,7.561639e+00,7.526875e+00,3,1,1.365929e+00,1.541317e+00,1
3.215827e+00,1.025743e+01,1.022410e+01,3,2,9.769544e-01,1.031691e+00,1
3.254566e+00,7.729675e+00,7.695913e+00,3,1,1.186194e+00,1.219948e+00,1
3.228415e+00,9.584891e+00,9.551048e+00,3,2,1.335772e+00,1.335773e+00,1
3.218428e+00,3.500360e+00,3.467083e+00,3,0,9.193940e-01,9.193943e-01,1
3.211582e+00,3.433930e+00,3.400087e+00,3,0,1.723914e+00,1.723917e+00,1
3.233853e+00,3.538651e+00,3.504038e+00,3,0,1.214820e+00,1.214820e+00,1
3.230545e+00,3.593532e+00,3.557682e+00,3,0,1.112151e+00,1.112151e+00,1
3.198289e+00,3.526241e+00,3.492117e+00,3,0,9.950771e-01,9.950774e-01,1
3.219856e+00,3.413322e+00,3.381014e+00,3,0,7.781695e-01,7.781708e-01,1
3.208526e+00,3.494534e+00,3.460169e+00,3,0,5.708918e-01,5.708922e-01,1
3.210367e+00,3.433719e+00,3.401041e+00,3,0,1.134289e+00,1.134290e+00,1
3.224001e+00,3.415986e+00,3.385067e+00,3,0,9.785758e-01,9.785763e-01,1
3.213122e+00,3.478111e+00,3.445864e+00,3,0,9.957047e-01,9.957059e-01,1
3.222732e+00,3.318848e+00,3.286123e+00,3,0,9.312337e-01,9.312341e-01,1
3.214839e+00,3.468006e+00,3.432989e+00,3,0,7.241154e-01,7.241160e-01,1
3.223294e+00,3.453407e+00,3.419876e+00,3,0,8.698008e-01,8.698014e-01,1
3.227026e+00,3.463479e+00,3.429174e+00,3,0,6.747750e-01,6.747751e-01,1
3.229725e+00,6.783589e+00,6.749153e+00,3,1,2.849904e+00,2.850559e+00,1
4.299578e+00,2.516803e+01,2.513409e+01,4,7,6.330301e+00,6.362601e+00,1
3.233529e+00,1.964271e+01,1.960707e+01,3,6,4.754229e+00,4.761758e+00,1
3.230966e+00,6.807496e+00,6.773233e+00,3,1,3.391441e+00,3.391441e+00,1
3.221239e+00,6.162612e+00,6.128073e+00,3,1,2.486303e+00,2.486303e+00,1
3.225164e+00,3.434877e+00,3.396034e+00,3,0,2.691494e+00,2.691496e+00,1
3.221763e+00,3.511647e+00,3.476858e+00,3,0,2.126829e+00,2.126829e+00,1
3.218419e+00,3.460828e+00,3.427029e+00,3,0,2.053933e+00,2.053934e+00,1
3.223361e+00,3.470311e+00,3.436089e+00,3,0,2.472408e+00,2.472411e+00,1
3.211914e+00,3.470021e+00,3.437042e+00,3,0,2.817035e+00,2.817037e+00,1
3.224431e+00,3.524606e+00,3.490925e+00,3,0,2.576722e+00,2.576722e+00,1
3.216837e+00,9.826523e+00,9.793043e+00,3,2,2.745801e+00,2.746924e+00,1
3.227374e+00,1.295671e+01,1.292086e+01,3,3,3.658611e+00,3.673113e+00,1
3.230102e+00,9.326895e+00,9.292841e+00,3,2,2.697952e+00,2.701242e+00,1
3.227819e+00,5.964891e+00,5.930185e+00,3,1,1.827132e+00,1.827131e+00,1
3.216430e+00,3.459787e+00,3.424883e+00,3,0,1.081238e+00,1.081238e+00,1
3.219519e+00,3.482473e+00,3.449917e+00,3,0,7.213892e-01,7.213893e-01,1
3.224075e+00,3.507239e+00,3.472090e+00,3,0,5.653579e-01,5.653583e-01,1
3.226535e+00,3.518691e+00,3.484964e+00,3,0,7.758414e-01,7.758425e-01,1
3.228382e+00,3.465424e+00,3.432035e+00,3,0,5.482198e-01,5.482199e-01,1
3.220266e+00,3.461660e+00,3.429651e+00,3,0,9.182345e-01,9.182356e-01,1
3.214135e+00,3.471909e+00,3.438950e+00,3,0,9.757139e-01,9.757144e-01,1
3.230247e+00,6.749026e+00,6.715059e+00,3,1,9.064534e-01,9.068168e-01,1
3.225235e+00,7.735153e+00,7.699966e+00,3,1,1.168355e+00,1.171757e+00,1
3.224305e+00,6.115557e+00,6.081104e+00,3,1,6.508450e-01,6.508450e-01,1
3.227991e+00,3.552885e+00,3.518105e+00,3,0,5.279662e-01,5.279666e-01,1
3.220417e+00,3.590021e+00,3.556013e+00,3,0,2.820806e+00,2.820813e+00,1
3.221354e+00,3.415947e+00,3.381968e+00,3,0,2.934671e+00,2.934672e+00,1
3.217799e+00,3.476546e+00,3.442049e+00,3,0,1.426255e+00,1.426254e+00,1
3.223960e+00,3.485955e+00,3.453255e+00,3,0,1.407421e+00,1.407422e+00,1
3.219540e+00,3.481954e+00,3.448963e+00,3,0,1.232366e+00,1.232366e+00,1
3.221800e+00,6.912248e+00,6.877184e+00,3,1,1.320887e+00,1.321161e+00,1
3.226680e+00,5.928617e+00,5.895138e+00,3,1,6.746930e-01,6.746929e-01,1
3.218801e+00,3.456906e+00,3.423691e+00,3,0,5.664932e-01,5.664937e-01,1
3.223991e+00,3.316340e+00,3.282785e+00,3,0,1.078177e+00,1.078178e+00,1
3.218892e+00,3.561047e+00,3.522873e+00,3,0,1.343451e+00,1.343452e+00,1
3.215753e+00,3.479069e+00,3.446102e+00,3,0,1.653656e+00,1.653657e+00,1
3.215541e+00,3.472110e+00,3.438950e+00,3,0,1.076626e+00,1.076626e+00,1
3.216575e+00,3.470995e+00,3.436089e+00,3,0,1.034409e+00,1.034410e+00,1
3.216165e+00,3.453303e+00,3.420115e+00,3,0,1.552396e+00,1.552398e+00,1
3.228202e+00,6.811411e+00,6.778002e+00,3,1,2.302813e+00,2.305122e+00,1
3.224256e+00,9.687444e+00,9.654045e+00,3,2,2.553651e+00,2.554247e+00,1
3.222285e+00,7.245223e+00,7.210016e+00,3,1,3.561506e+00,3.577708e+00,1
3.215913e+00,6.856509e+00,6.821156e+00,3,1,3.362413e+00,3.363632e+00,1
3.233710e+00,1.847810e+01,1.844311e+01,3,5,5.297659e+00,5.316201e+00,1
4.300569e+00,2.446496e+01,2.443004e+01,4,8,2.343240e+00,2.343239e+00,1
3.225883e+00,3.509602e+00,3.475189e+00,3,0,1.947129e+00,1.947129e+00,1
3.231864e+00,1.597377e+01,1.593995e+01,3,4,2.858715e+00,2.867396e+00,1
3.223511e+00,1.398867e+01,1.395416e+01,3,4,1.398132e+00,1.398130e+00,1
3.213816e+00,3.488540e+00,3.454208e+00,3,0,1.151306e+00,1.151306e+00,1
3.220647e+00,3.322298e+00,3.291130e+00,3,0,9.152028e-01,9.152031e-01,1
3.222119e+00,3.499068e+00,3.467083e+00,3,0,6.047515e-01,6.047514e-01,1
3.226549e+00,3.482449e+00,3.449917e+00,3,0,1.293956e+00,1.293958e+00,1
3.220385e+00,3.513074e+00,3.477812e+00,3,0,9.615448e-01,9.615449e-01,1
3.218785e+00,3.523399e+00,3.489971e+00,3,0,5.406528e-01,5.406528e-01,1
3.218193e+00,3.505817e+00,3.473043e+00,3,0,1.286582e+00,1.286584e+00,1
3.225991e+00,3.489193e+00,3.456116e+00,3,0,8.903101e-01,8.903101e-01,1
3.215397e+00,3.480908e+00,3.447771e+00,3,0,4.809728e-01,4.809731e-01,1
3.214905e+00,3.464772e+00,3.432035e+00,3,0,5.197166e-01,5.197170e-01,1
3.218908e+00,3.383781e+00,3.345966e+00,3,0,6.734622e-01,6.734631e-01,1
3.222584e+00,6.754109e+00,6.719112e+00,3,1,1.009694e+00,1.010403e+00,1
3.212301e+00,7.215697e+00,7.182121e+00,3,1,2.101388e+00,2.102034e+00,1
3.231096e+00,6.794130e+00,6.758928e+00,3,1,1.561054e+00,1.577170e+00,1
3.227831e+00,1.327079e+01,1.323605e+01,3,3,2.818469e+00,2.930271e+00,1
3.226580e+00,1.210424e+01,1.206899e+01,3,3,1.238298e+00,1.238454e+00,1
3.232248e+00,6.174702e+00,6.140947e+00,3,1,9.871146e-01,9.871152e-01,1
3.224812e+00,3.430643e+00,3.398180e+00,3,0,6.630299e-01,6.630298e-01,1
3.218298e+00,3.457285e+00,3.423929e+00,3,0,6.060089e-01,6.060097e-01,1
3.219010e+00,3.468162e+00,3.436089e+00,3,0,1.699433e+00,1.699437e+00,1
3.219290e+00,3.408491e+00,3.375053e+00,3,0,1.693248e+00,1.693249e+00,1
3.218399e+00,3.389529e+00,3.351927e+00,3,0,2.594568e+00,2.594539e+00,1
3.212432e+00,3.432330e+00,3.399849e+00,3,0,2.664810e+00,2.664803e+00,1
3.218518e+00,3.459335e+00,3.425837e+00,3,0,3.056805e+00,3.056806e+00,1
3.227485e+00,9.892740e+00,9.858847e+00,3,2,5.002222e+00,5.010202e+00,1
3.224898e+00,4.175018e+00,4.138947e+00,3,0,5.598307e+00,5.604660e+00,1
3.225206e+00,1.783921e+01,1.780367e+01,3,5,4.181825e+00,4.192116e+00,1
3.226270e+00,7.273937e+00,7.239103e+00,3,1,3.756681e+00,3.767982e+00,1
3.224453e+00,9.722623e+00,9.689093e+00,3,2,5.273752e+00,5.276249e+00,1
3.226752e+00,1.491230e+01,1.487374e+01,3,4,3.584809e+00,3.588933e+00,1
3.226801e+00,9.762040e+00,9.726763e+00,3,2,2.972100e+00,2.975591e+00,1
3.216181e+00,8.769924e+00,8.729696e+00,3,2,3.001142e+00,3.001146e+00,1
3.227258e+00,3.547480e+00,3.513098e+00,3,0,3.240728e+00,3.240730e+00,1
3.231908e+00,6.833792e+00,6.798744e+00,3,1,3.545594e+00,3.560315e+00,1
3.227145e+00,5.970080e+00,5.936861e+00,3,1,2.616920e+00,2.616921e+00,1
3.215921e+00,3.425340e+00,3.392935e+00,3,0,2.511459e+00,2.511460e+00,1
3.229255e+00,9.736286e+00,9.701729e+00,3,2,3.220633e+00,3.225533e+00,1
3.222807e+00,1.283344e+01,1.279807e+01,3,3,3.533525e+00,3.545508e+00,1
3.222378e+00,1.138063e+01,1.134586e+01,3,3,2.237913e+00,2.237885e+00,1
3.222951e+00,3.447779e+00,3.415108e+00,3,0,2.151198e+00,2.150964e+00,1
3.220152e+00,3.465119e+00,3.432035e+00,3,0,1.265726e+00,1.265694e+00,1
3.220517e+00,3.469616e+00,3.436089e+00,3,0,1.227043e+00,1.227003e+00,1

