6.093750e-01,5.349420e-01,2,2,0.000000e+00,0.000000e+00
8.638980e-01,7.953740e-01,3,3,7.539545e-02,7.539544e-02
8.846850e-01,7.891540e-01,3,3,1.376321e-01,1.376320e-01
8.645720e-01,7.956980e-01,3,3,2.934707e-01,2.934706e-01
8.636590e-01,8.017890e-01,3,3,2.694861e-01,2.694861e-01
8.646180e-01,7.886350e-01,3,3,1.254802e+00,1.254801e+00
8.631180e-01,7.937040e-01,3,3,1.756505e+00,1.756504e+00
8.655550e-01,8.005510e-01,3,3,2.310508e+00,2.310508e+00
8.667370e-01,7.890620e-01,3,3,1.130837e+00,1.130837e+00
8.630410e-01,7.950060e-01,3,3,1.001612e+00,1.001612e+00
8.660000e-01,7.941510e-01,3,3,8.336068e-01,8.336068e-01
8.653100e-01,7.890730e-01,3,3,9.629342e-01,9.629340e-01
8.626580e-01,7.942540e-01,3,3,1.587834e+00,1.587833e+00
8.637690e-01,7.949750e-01,3,3,2.162954e+00,2.162953e+00
8.643810e-01,7.885910e-01,3,3,1.981320e+00,1.981320e+00
8.646010e-01,7.936000e-01,3,3,2.764890e+00,2.764889e+00
8.655020e-01,7.949900e-01,3,3,2.160226e+00,2.160226e+00
8.649690e-01,7.890070e-01,3,3,1.888243e+00,1.888242e+00
8.647740e-01,7.953860e-01,3,3,1.808789e+00,1.808789e+00
8.653910e-01,7.936570e-01,3,3,1.714912e+00,1.714912e+00
8.642350e-01,7.889590e-01,3,3,1.786460e+00,1.786460e+00
8.639200e-01,7.938290e-01,3,3,1.489483e+00,1.489483e+00
8.636650e-01,7.940560e-01,3,3,1.350344e+00,1.350343e+00
8.656420e-01,7.881650e-01,3,3,1.181708e+00,1.181708e+00
8.640070e-01,7.936430e-01,3,3,1.163048e+00,1.163048e+00
8.648940e-01,7.935800e-01,3,3,1.122189e+00,1.122189e+00
8.631310e-01,7.894860e-01,3,3,9.327395e-01,9.327395e-01
8.634970e-01,7.926850e-01,3,3,6.697031e-01,6.697031e-01
8.640440e-01,7.935660e-01,3,3,3.317620e-01,3.317618e-01
8.628100e-01,7.880780e-01,3,3,2.847486e-01,2.847486e-01
8.639800e-01,7.935990e-01,3,3,5.746734e-01,5.746733e-01
8.642160e-01,7.936450e-01,3,3,6.785120e-01,6.785118e-01
8.642110e-01,7.888390e-01,3,3,5.886633e-01,5.886632e-01
8.632680e-01,7.941480e-01,3,3,9.046022e-01,9.046020e-01
8.648810e-01,7.927670e-01,3,3,7.425771e-01,7.425771e-01
8.652400e-01,7.884240e-01,3,3,5.507321e-01,5.507322e-01
8.645010e-01,7.935850e-01,3,3,4.051342e-01,4.051341e-01
8.634190e-01,7.941440e-01,3,3,3.321687e-01,3.321687e-01
8.638620e-01,7.879260e-01,3,3,8.440177e-01,8.440175e-01
8.648190e-01,7.942390e-01,3,3,9.345924e-01,9.345924e-01
8.651510e-01,7.941400e-01,3,3,2.113311e+00,2.113310e+00
8.643830e-01,7.885740e-01,3,3,2.895594e+00,2.895593e+00
8.705720e-01,7.932260e-01,3,3,1.840142e+00,1.840143e+00
8.643880e-01,7.945880e-01,3,3,2.783683e+00,2.783682e+00
8.645250e-01,7.882200e-01,3,3,2.225772e+00,2.225772e+00
8.640920e-01,7.940910e-01,3,3,1.795047e+00,1.795047e+00
8.650010e-01,7.949360e-01,3,3,1.612535e+00,1.612535e+00
8.650860e-01,7.890990e-01,3,3,1.344273e+00,1.344273e+00
8.643120e-01,7.939260e-01,3,3,1.081679e+00,1.081679e+00
8.648580e-01,7.941160e-01,3,3,6.877546e-01,6.877546e-01
8.645040e-01,7.889130e-01,3,3,6.110293e-01,6.110292e-01
8.636150e-01,7.946360e-01,3,3,9.854031e-01,9.854028e-01
8.653660e-01,7.943650e-01,3,3,7.250155e-01,7.250155e-01
8.642160e-01,7.893720e-01,3,3,6.194853e-01,6.194853e-01
8.630430e-01,7.931910e-01,3,3,8.206624e-01,8.206622e-01
8.641440e-01,7.938600e-01,3,3,1.122914e+00,1.122914e+00
8.643790e-01,7.881130e-01,3,3,6.142229e-01,6.142230e-01
8.634720e-01,7.932220e-01,3,3,9.369085e-01,9.369084e-01
8.638610e-01,7.942490e-01,3,3,1.314886e+00,1.314886e+00
8.627810e-01,7.878590e-01,3,3,1.969159e+00,1.969158e+00
8.643920e-01,7.947190e-01,3,3,8.898526e-01,8.898524e-01
8.648690e-01,7.946080e-01,3,3,1.910652e+00,1.910651e+00
8.646580e-01,7.889010e-01,3,3,3.606268e+00,3.606266e+00
8.652280e-01,7.944560e-01,3,3,1.975417e+00,1.975418e+00
8.655780e-01,7.944520e-01,3,3,2.723683e+00,2.723682e+00
8.642250e-01,7.882460e-01,3,3,1.169084e+00,1.169084e+00
8.638440e-01,7.946370e-01,3,3,1.263230e+00,1.263229e+00
8.641630e-01,7.944330e-01,3,3,9.984229e-01,9.984228e-01
8.575620e-01,7.937380e-01,3,3,7.742218e-01,7.742218e-01
8.636940e-01,7.945630e-01,3,3,6.009269e-01,6.009268e-01
8.647620e-01,7.947950e-01,3,3,8.870310e-01,8.870309e-01
8.587860e-01,7.938160e-01,3,3,9.023889e-01,9.023888e-01
8.628220e-01,7.943010e-01,3,3,9.126757e-01,9.126756e-01
8.656130e-01,7.940020e-01,3,3,1.030194e+00,1.030194e+00
8.588740e-01,7.930960e-01,3,3,1.503318e+00,1.503318e+00
8.639230e-01,7.944460e-01,3,3,2.023180e+00,2.023180e+00
8.650240e-01,7.936680e-01,3,3,1.231910e+00,1.231910e+00
8.592630e-01,7.933510e-01,3,3,1.232612e+00,1.232612e+00
8.645550e-01,7.941310e-01,3,3,9.106059e-01,9.106059e-01
8.628640e-01,7.939480e-01,3,3,4.415008e-01,4.415008e-01
8.571900e-01,7.945320e-01,3,3,1.469211e+00,1.469210e+00
8.648450e-01,7.943210e-01,3,3,1.093927e+00,1.093927e+00
8.647740e-01,7.948270e-01,3,3,9.839060e-01,9.839060e-01
8.591240e-01,7.935720e-01,3,3,9.484037e-01,9.484035e-01
8.632300e-01,7.940490e-01,3,3,1.340376e+00,1.340375e+00
8.806790e-01,7.958400e-01,3,3,2.426739e+00,2.426739e+00
8.586220e-01,7.937150e-01,3,3,3.657854e+00,3.657853e+00
8.642470e-01,7.952740e-01,3,3,5.363844e+00,5.363843e+00
8.650560e-01,7.945120e-01,3,3,4.373634e+00,4.373634e+00
8.589920e-01,7.940400e-01,3,3,3.112641e+00,3.112642e+00
8.644320e-01,7.941920e-01,3,3,2.394087e+00,2.394087e+00
8.641010e-01,7.944760e-01,3,3,1.688656e+00,1.688656e+00
8.592830e-01,7.934850e-01,3,3,2.384602e+00,2.384601e+00
8.647370e-01,7.950180e-01,3,3,1.787173e+00,1.787173e+00
8.646550e-01,7.935370e-01,3,3,2.318071e+00,2.318071e+00
8.588010e-01,7.938260e-01,3,3,2.520931e+00,2.520932e+00
8.652920e-01,7.936740e-01,3,3,1.100126e+00,1.100127e+00
8.636120e-01,7.938130e-01,3,3,9.618320e-01,9.618319e-01
8.586670e-01,7.930870e-01,3,3,1.351688e+00,1.351688e+00
8.635040e-01,7.945030e-01,3,3,1.448054e+00,1.448054e+00
8.644930e-01,7.937810e-01,3,3,1.093162e+00,1.093162e+00
8.583080e-01,7.939360e-01,3,3,1.256484e+00,1.256483e+00
8.637610e-01,7.943120e-01,3,3,7.338232e-01,7.338232e-01
8.638670e-01,7.946750e-01,3,3,6.687876e-01,6.687875e-01
8.585430e-01,7.936910e-01,3,3,5.546592e-01,5.546592e-01
8.635510e-01,7.941700e-01,3,3,5.820472e-01,5.820471e-01
8.632470e-01,7.936560e-01,3,3,8.179784e-01,8.179782e-01
8.591300e-01,7.927190e-01,3,3,8.954412e-01,8.954411e-01
8.649110e-01,7.946900e-01,3,3,5.794090e-01,5.794091e-01
8.641200e-01,7.925680e-01,3,3,5.854888e-01,5.854887e-01
8.589290e-01,7.932470e-01,3,3,5.420893e-01,5.420892e-01
8.635280e-01,7.940500e-01,3,3,4.512420e-01,4.512419e-01
8.643670e-01,7.872990e-01,3,3,3.199590e-01,3.199590e-01
8.621440e-01,7.938850e-01,3,3,5.570476e-01,5.570474e-01
8.639310e-01,7.932180e-01,3,3,2.969425e-01,2.969425e-01
8.639400e-01,7.880220e-01,3,3,3.398680e-01,3.398680e-01
8.612060e-01,7.938710e-01,3,3,8.709419e-01,8.709415e-01
8.641410e-01,7.941640e-01,3,3,6.328207e-01,6.328207e-01
8.637970e-01,7.882420e-01,3,3,2.025278e+00,2.025277e+00
8.624350e-01,7.929880e-01,3,3,1.408769e+00,1.408769e+00
8.639310e-01,7.940090e-01,3,3,1.369022e+00,1.369022e+00
8.648440e-01,7.884210e-01,3,3,1.713030e+00,1.713030e+00
8.633420e-01,7.940630e-01,3,3,1.550057e+00,1.550057e+00
8.638680e-01,7.943300e-01,3,3,1.710002e+00,1.710002e+00
8.638240e-01,7.881950e-01,3,3,3.017659e+00,3.017658e+00
8.650300e-01,7.942390e-01,3,3,1.975120e+00,1.975120e+00
8.632780e-01,7.942820e-01,3,3,1.505443e+00,1.505444e+00
8.637530e-01,7.881890e-01,3,3,1.315035e+00,1.315035e+00
8.641210e-01,7.934850e-01,3,3,7.775207e-01,7.775204e-01
8.647110e-01,7.930010e-01,3,3,8.598513e-01,8.598510e-01
8.638330e-01,7.889960e-01,3,3,5.383564e-01,5.383563e-01
8.637310e-01,7.936170e-01,3,3,7.027548e-01,7.027546e-01
8.649990e-01,7.935590e-01,3,3,3.166074e-01,3.166073e-01
8.627530e-01,7.884190e-01,3,3,2.578552e-01,2.578552e-01
8.627570e-01,7.937100e-01,3,3,2.690208e-01,2.690207e-01
8.649790e-01,7.947580e-01,3,3,5.781329e-01,5.781326e-01
8.637040e-01,7.884040e-01,3,3,5.978219e-01,5.978218e-01
8.650640e-01,7.950410e-01,3,3,5.053834e-01,5.053834e-01
8.657710e-01,7.950630e-01,3,3,5.510604e-01,5.510603e-01
8.638520e-01,7.880930e-01,3,3,4.678502e-01,4.678502e-01
8.638530e-01,7.935540e-01,3,3,8.671481e-01,8.671477e-01
8.650510e-01,7.960820e-01,3,3,1.470053e+00,1.470052e+00
8.649810e-01,7.883730e-01,3,3,1.664422e+00,1.664422e+00
8.645560e-01,7.936300e-01,3,3,1.301451e+00,1.301451e+00
8.645660e-01,7.953640e-01,3,3,1.156650e+00,1.156650e+00
8.645670e-01,7.878000e-01,3,3,1.072100e+00,1.072100e+00
8.636260e-01,7.930490e-01,3,3,7.728983e-01,7.728986e-01
8.651360e-01,7.945030e-01,3,3,6.617629e-01,6.617624e-01
8.637800e-01,7.885400e-01,3,3,1.152295e+00,1.152294e+00
8.645950e-01,7.945580e-01,3,3,1.655924e+00,1.655924e+00
8.659190e-01,8.063150e-01,3,3,1.013204e+00,1.013204e+00
8.641210e-01,7.887240e-01,3,3,9.622535e-01,9.622535e-01
8.645360e-01,7.940400e-01,3,3,8.659567e-01,8.659566e-01
8.641580e-01,7.942380e-01,3,3,7.954315e-01,7.954314e-01
8.632540e-01,7.885340e-01,3,3,6.562090e-01,6.562090e-01
8.632740e-01,7.945370e-01,3,3,7.372112e-01,7.372110e-01
8.643920e-01,7.953400e-01,3,3,1.203657e+00,1.203656e+00
8.648060e-01,7.884160e-01,3,3,1.155230e+00,1.155230e+00
8.630680e-01,7.934270e-01,3,3,1.224534e+00,1.224534e+00
8.650620e-01,7.949210e-01,3,3,1.391972e+00,1.391972e+00
8.643370e-01,7.884570e-01,3,3,6.362730e-01,6.362729e-01
8.630470e-01,7.940830e-01,3,3,5.053670e-01,5.053669e-01
8.647920e-01,7.945330e-01,3,3,5.338890e-01,5.338889e-01
8.651680e-01,7.882120e-01,3,3,2.370515e-01,2.370514e-01
8.622220e-01,7.943020e-01,3,3,2.393576e-01,2.393575e-01
8.639230e-01,7.940740e-01,3,3,4.120253e-01,4.120253e-01
8.636270e-01,7.885990e-01,3,3,3.515092e-01,3.515092e-01
8.634350e-01,7.944300e-01,3,3,9.585719e-01,9.585714e-01
8.650050e-01,7.948150e-01,3,3,7.182278e-01,7.182277e-01
8.636740e-01,7.902520e-01,3,3,5.098746e-01,5.098746e-01
8.651550e-01,7.938700e-01,3,3,4.558847e-01,4.558847e-01
8.640810e-01,7.951300e-01,3,3,4.646784e-01,4.646783e-01
8.641730e-01,7.879990e-01,3,3,4.770056e-01,4.770055e-01
8.635620e-01,7.939950e-01,3,3,3.040839e-01,3.040839e-01
8.630200e-01,7.946180e-01,3,3,3.377664e-01,3.377663e-01
8.635380e-01,7.890600e-01,3,3,2.788534e-01,2.788533e-01
8.626420e-01,7.938380e-01,3,3,2.407059e-01,2.407058e-01
8.631580e-01,7.933820e-01,3,3,6.442230e-01,6.442227e-01
8.592650e-01,7.944090e-01,3,3,4.095452e-01,4.095451e-01
8.627530e-01,7.942680e-01,3,3,6.437721e-01,6.437719e-01
8.642360e-01,7.948320e-01,3,3,1.039902e+00,1.039901e+00
8.589080e-01,7.943700e-01,3,3,8.875855e-01,8.875853e-01
8.643530e-01,7.937040e-01,3,3,1.006186e+00,1.006185e+00
8.643550e-01,7.947670e-01,3,3,7.122620e-01,7.122620e-01
8.569680e-01,7.935710e-01,3,3,7.083473e-01,7.083472e-01
8.641480e-01,7.939470e-01,3,3,8.100302e-01,8.100300e-01
8.636820e-01,7.945820e-01,3,3,1.766688e+00,1.766687e+00
8.589860e-01,7.939160e-01,3,3,2.341985e+00,2.341984e+00
8.650610e-01,7.944230e-01,3,3,2.078283e+00,2.078283e+00
8.655540e-01,7.945740e-01,3,3,1.686164e+00,1.686164e+00
8.581390e-01,7.951980e-01,3,3,1.548802e+00,1.548802e+00
8.645500e-01,7.940710e-01,3,3,1.061556e+00,1.061556e+00
8.658050e-01,7.940490e-01,3,3,1.052392e+00,1.052391e+00
8.583890e-01,7.939370e-01,3,3,1.034730e+00,1.034731e+00
8.643590e-01,7.963010e-01,3,3,7.927306e-01,7.927305e-01
8.644320e-01,7.946100e-01,3,3,7.023906e-01,7.023906e-01
8.581120e-01,7.933620e-01,3,3,1.423105e+00,1.423104e+00
8.645110e-01,7.941560e-01,3,3,2.958255e+00,2.958256e+00
8.647290e-01,7.941870e-01,3,3,3.026537e+00,3.026555e+00
8.582810e-01,7.937180e-01,3,3,3.062268e+00,3.062270e+00
8.630760e-01,7.947370e-01,3,3,3.571487e+00,3.571487e+00
8.644820e-01,7.948660e-01,3,3,5.100197e+00,5.100195e+00
8.596180e-01,7.948150e-01,3,3,3.278300e+00,3.278301e+00
8.642300e-01,7.948310e-01,3,3,3.995907e+00,3.995906e+00
8.648460e-01,7.950590e-01,3,3,3.076641e+00,3.076641e+00
8.599540e-01,7.941330e-01,3,3,2.868580e+00,2.868580e+00
8.640460e-01,7.946660e-01,3,3,1.982004e+00,1.982004e+00
8.651200e-01,7.942500e-01,3,3,2.500428e+00,2.500428e+00
8.591020e-01,7.933680e-01,3,3,1.694900e+00,1.694901e+00
8.642970e-01,7.944460e-01,3,3,2.202419e+00,2.202419e+00
8.651200e-01,7.940780e-01,3,3,7.198395e-01,7.198397e-01
8.579670e-01,7.955890e-01,3,3,9.079751e-01,9.079748e-01
8.630490e-01,7.946350e-01,3,3,1.727905e+00,1.727904e+00
8.646910e-01,7.947820e-01,3,3,1.320268e+00,1.320268e+00
8.594100e-01,7.956130e-01,3,3,2.105952e+00,2.105951e+00
8.650660e-01,7.952030e-01,3,3,1.874714e+00,1.874714e+00
8.652280e-01,7.946190e-01,3,3,3.197580e+00,3.197579e+00
8.588970e-01,7.937660e-01,3,3,1.638093e+00,1.638094e+00
8.647990e-01,7.949890e-01,3,3,1.357662e+00,1.357662e+00
8.649220e-01,7.935740e-01,3,3,1.070695e+00,1.070695e+00
8.596260e-01,7.940530e-01,3,3,1.074448e+00,1.074447e+00
8.659560e-01,7.951040e-01,3,3,1.150461e+00,1.150461e+00
8.644730e-01,7.927670e-01,3,3,1.737571e+00,1.737571e+00
8.595900e-01,7.944420e-01,3,3,7.951804e-01,7.951808e-01
8.632890e-01,7.933260e-01,3,3,5.279798e-01,5.279797e-01
8.643350e-01,7.922520e-01,3,3,6.065543e-01,6.065542e-01
8.581930e-01,7.940860e-01,3,3,5.859223e-01,5.859222e-01
8.659180e-01,7.955550e-01,3,3,4.544746e-01,4.544746e-01
8.635880e-01,7.885070e-01,3,3,7.273237e-01,7.273235e-01
8.630460e-01,7.947010e-01,3,3,1.054653e+00,1.054653e+00
8.641660e-01,7.944530e-01,3,3,1.592878e+00,1.592877e+00
8.636190e-01,7.881640e-01,3,3,3.436945e+00,3.436943e+00
8.631530e-01,7.940120e-01,3,3,4.458252e+00,4.458252e+00
8.649520e-01,7.940410e-01,3,3,3.034823e+00,3.034823e+00
8.644940e-01,7.881480e-01,3,3,3.739701e+00,3.739700e+00
8.644560e-01,7.932950e-01,3,3,2.696262e+00,2.696262e+00
8.646090e-01,7.943420e-01,3,3,2.137313e+00,2.137313e+00
8.643080e-01,7.890740e-01,3,3,2.381990e+00,2.381990e+00
8.639250e-01,7.937110e-01,3,3,1.301140e+00,1.301140e+00
8.640540e-01,7.941780e-01,3,3,9.675367e-01,9.675361e-01
8.634010e-01,7.878190e-01,3,3,7.439905e-01,7.439905e-01
8.627250e-01,7.930630e-01,3,3,7.050904e-01,7.050904e-01
8.642480e-01,7.934560e-01,3,3,6.801899e-01,6.801899e-01
8.645530e-01,7.871740e-01,3,3,1.067872e+00,1.067872e+00
8.644170e-01,7.947480e-01,3,3,3.636401e-01,3.636402e-01
8.639800e-01,7.945370e-01,3,3,1.459904e+00,1.459903e+00
8.647260e-01,7.895340e-01,3,3,3.207473e+00,3.207472e+00
8.653130e-01,7.934740e-01,3,3,1.890641e+00,1.890642e+00
8.642810e-01,7.946540e-01,3,3,1.351988e+00,1.351988e+00
8.637000e-01,7.882640e-01,3,3,1.108379e+00,1.108379e+00
8.638370e-01,7.949980e-01,3,3,9.424709e-01,9.424709e-01
8.643120e-01,7.932970e-01,3,3,8.821413e-01,8.821412e-01
8.647650e-01,7.883090e-01,3,3,1.484896e+00,1.484895e+00
8.641160e-01,7.931760e-01,3,3,1.155477e+00,1.155477e+00
8.652050e-01,7.952210e-01,3,3,8.308275e-01,8.308275e-01
8.642830e-01,7.885490e-01,3,3,9.286501e-01,9.286500e-01
8.637670e-01,7.938100e-01,3,3,1.590914e+00,1.590913e+00
8.623270e-01,7.939360e-01,3,3,2.569067e+00,2.569066e+00
8.639080e-01,7.879060e-01,3,3,4.647755e+00,4.647753e+00
8.638340e-01,7.944260e-01,3,3,5.667842e+00,5.667841e+00
8.636310e-01,7.945510e-01,3,3,5.122846e+00,5.122846e+00
8.645590e-01,7.880880e-01,3,3,5.366623e+00,5.366623e+00
8.653650e-01,7.943120e-01,3,3,4.520514e+00,4.520514e+00
8.649210e-01,7.932810e-01,3,3,4.741373e+00,4.741373e+00
8.647110e-01,7.898240e-01,3,3,4.719997e+00,4.719996e+00
8.641470e-01,7.959930e-01,3,3,3.889055e+00,3.889055e+00
8.647930e-01,7.942990e-01,3,3,3.354371e+00,3.354371e+00
8.656500e-01,7.891400e-01,3,3,2.571330e+00,2.571330e+00
8.652210e-01,7.955130e-01,3,3,2.355249e+00,2.355249e+00
8.640560e-01,7.949390e-01,3,3,2.387999e+00,2.387999e+00
8.641660e-01,7.884070e-01,3,3,3.076475e+00,3.076478e+00
8.637430e-01,7.939620e-01,3,3,5.515769e+00,5.514907e+00
1.720444e+00,1.577418e+00,6,6,5.779056e+00,5.774943e+00
1.437380e+00,1.577985e+00,5,6,6.338930e+00,6.333055e+00
1.150453e+00,1.055119e+00,4,4,5.385154e+00,5.385154e+00
8.598720e-01,7.936560e-01,3,3,5.410946e+00,5.410948e+00
8.640520e-01,7.948460e-01,3,3,6.562613e+00,6.562613e+00
8.651280e-01,7.943020e-01,3,3,6.069971e+00,6.069971e+00
8.585580e-01,7.940180e-01,3,3,5.053625e+00,5.053626e+00
8.642110e-01,7.946880e-01,3,3,4.256742e+00,4.256742e+00
8.645660e-01,7.937360e-01,3,3,3.743721e+00,3.743721e+00
8.599110e-01,7.939250e-01,3,3,3.197473e+00,3.197473e+00
8.638970e-01,7.943260e-01,3,3,2.934418e+00,2.934418e+00
8.647540e-01,7.929080e-01,3,3,3.068115e+00,3.068115e+00
8.583560e-01,7.937190e-01,3,3,1.688217e+00,1.688218e+00
8.648540e-01,7.939310e-01,3,3,1.476138e+00,1.476138e+00
8.641040e-01,7.934170e-01,3,3,1.648484e+00,1.648484e+00
8.588570e-01,7.938230e-01,3,3,1.149411e+00,1.149411e+00
8.645530e-01,7.943610e-01,3,3,9.746521e-01,9.746522e-01
8.643230e-01,7.938270e-01,3,3,7.983474e-01,7.983472e-01
8.587040e-01,7.941100e-01,3,3,5.137608e-01,5.137609e-01
8.643680e-01,7.951340e-01,3,3,3.727217e-01,3.727215e-01
8.640790e-01,7.931910e-01,3,3,2.852823e-01,2.852822e-01
8.580010e-01,7.934610e-01,3,3,3.980860e-01,3.980859e-01
8.631080e-01,7.952350e-01,3,3,5.226316e-01,5.226315e-01
8.635060e-01,7.878240e-01,3,3,3.597099e-01,3.597099e-01
8.574480e-01,7.938850e-01,3,3,3.916197e-01,3.916195e-01
8.632280e-01,7.931350e-01,3,3,1.091919e+00,1.091919e+00
8.645480e-01,7.882470e-01,3,3,2.457323e+00,2.457322e+00
8.656030e-01,7.943090e-01,3,3,3.341935e+00,3.341934e+00
8.653320e-01,7.945320e-01,3,3,2.815515e+00,2.815515e+00
8.644540e-01,7.882980e-01,3,3,3.037638e+00,3.037638e+00
8.648460e-01,7.941200e-01,3,3,2.960966e+00,2.960965e+00
8.651170e-01,7.927310e-01,3,3,2.616533e+00,2.616533e+00
8.648080e-01,7.884390e-01,3,3,2.054233e+00,2.054233e+00
8.636440e-01,7.948520e-01,3,3,2.024359e+00,2.024359e+00
8.650340e-01,7.947430e-01,3,3,3.619191e+00,3.619190e+00
8.654290e-01,7.886960e-01,3,3,4.710444e+00,4.710443e+00
8.649310e-01,7.928630e-01,3,3,5.589759e+00,5.589759e+00
8.646210e-01,7.949090e-01,3,3,4.581102e+00,4.581104e+00
8.652510e-01,7.887010e-01,3,3,3.502569e+00,3.502570e+00
8.655770e-01,7.947660e-01,3,3,2.563124e+00,2.563125e+00
8.645700e-01,7.942770e-01,3,3,2.075944e+00,2.075944e+00
8.654660e-01,7.880200e-01,3,3,2.714942e+00,2.714941e+00
8.647710e-01,7.941680e-01,3,3,2.720042e+00,2.720042e+00
8.648040e-01,7.935630e-01,3,3,2.061630e+00,2.061630e+00
8.658450e-01,7.883450e-01,3,3,2.028900e+00,2.028901e+00
8.637560e-01,7.952700e-01,3,3,2.348377e+00,2.348421e+00
8.636560e-01,7.939790e-01,3,3,2.454774e+00,2.454776e+00
8.643900e-01,7.889130e-01,3,3,3.008110e+00,3.008109e+00
8.633680e-01,7.943600e-01,3,3,2.384947e+00,2.384947e+00
8.639760e-01,7.938100e-01,3,3,3.117955e+00,3.117954e+00
8.643480e-01,7.892430e-01,3,3,3.065566e+00,3.065566e+00
8.640170e-01,7.942490e-01,3,3,2.557292e+00,2.557292e+00
8.649590e-01,7.943430e-01,3,3,2.106663e+00,2.106663e+00
8.647070e-01,7.886820e-01,3,3,2.211412e+00,2.211412e+00
8.635740e-01,7.937350e-01,3,3,2.227023e+00,2.227023e+00
8.630780e-01,7.936850e-01,3,3,1.659078e+00,1.659078e+00
8.648600e-01,7.879920e-01,3,3,1.667724e+00,1.667723e+00
8.640220e-01,7.936910e-01,3,3,1.099130e+00,1.099130e+00
8.641570e-01,7.942770e-01,3,3,9.022113e-01,9.022113e-01
8.637430e-01,7.883800e-01,3,3,5.674390e-01,5.674390e-01
8.643250e-01,7.937060e-01,3,3,3.751871e-01,3.751871e-01
8.651280e-01,7.938400e-01,3,3,2.186422e-01,2.186422e-01
8.636160e-01,7.885800e-01,3,3,4.111152e-01,4.111150e-01
8.633230e-01,7.949280e-01,3,3,2.328079e-01,2.328079e-01
8.629730e-01,7.930470e-01,3,3,2.265187e-01,2.265186e-01
8.634160e-01,7.887330e-01,3,3,1.359835e-01,1.359834e-01
8.630390e-01,7.921820e-01,3,3,1.527804e-01,1.527804e-01
8.639670e-01,7.935960e-01,3,3,1.332161e-01,1.332161e-01
8.613550e-01,7.874900e-01,3,3,3.298570e-01,3.298569e-01
8.633080e-01,7.946390e-01,3,3,2.550311e-01,2.550311e-01
8.632480e-01,7.938840e-01,3,3,2.544629e-01,2.544628e-01
8.643670e-01,7.880000e-01,3,3,5.217731e-01,5.217729e-01
8.641670e-01,7.965410e-01,3,3,2.867224e-01,2.867224e-01
8.631790e-01,7.935730e-01,3,3,4.110207e-01,4.110206e-01
8.629370e-01,7.878380e-01,3,3,4.170100e-01,4.170100e-01
8.638100e-01,7.934360e-01,3,3,7.090291e-01,7.090289e-01
8.637580e-01,7.936810e-01,3,3,5.399893e-01,5.399893e-01
8.631670e-01,7.882570e-01,3,3,3.504812e-01,3.504812e-01
8.635480e-01,7.940410e-01,3,3,2.595418e-01,2.595417e-01
8.634200e-01,7.946630e-01,3,3,3.508181e-01,3.508180e-01
8.624460e-01,7.887190e-01,3,3,3.231019e-01,3.231019e-01
8.627940e-01,7.941670e-01,3,3,2.615448e-01,2.615447e-01
8.631860e-01,7.941510e-01,3,3,4.593716e-01,4.593715e-01
8.628280e-01,7.889200e-01,3,3,3.475158e-01,3.475157e-01
8.623200e-01,7.939470e-01,3,3,5.158213e-01,5.158212e-01
8.635510e-01,7.944160e-01,3,3,9.145396e-01,9.145393e-01
8.587880e-01,7.941290e-01,3,3,8.031674e-01,8.031672e-01
8.633730e-01,7.941120e-01,3,3,7.101309e-01,7.101308e-01
8.638440e-01,7.933990e-01,3,3,1.620586e+00,1.620586e+00
8.594460e-01,7.934510e-01,3,3,1.979796e+00,1.979796e+00
8.635610e-01,7.948000e-01,3,3,1.132997e+00,1.132997e+00
8.634130e-01,7.958080e-01,3,3,8.490297e-01,8.490297e-01
8.579910e-01,7.958310e-01,3,3,6.456044e-01,6.456044e-01
8.640490e-01,7.937040e-01,3,3,4.354735e-01,4.354735e-01
8.634440e-01,7.927740e-01,3,3,3.815785e-01,3.815785e-01
8.585180e-01,7.935170e-01,3,3,5.486857e-01,5.486856e-01
8.648910e-01,7.939030e-01,3,3,5.290712e-01,5.290711e-01
8.647900e-01,7.940930e-01,3,3,2.579665e-01,2.579664e-01
8.573000e-01,7.950310e-01,3,3,6.967598e-01,6.967596e-01
8.642810e-01,7.942780e-01,3,3,3.919490e-01,3.919491e-01
8.630480e-01,7.937600e-01,3,3,3.534010e-01,3.534010e-01
8.582120e-01,7.936020e-01,3,3,4.850318e-01,4.850316e-01
8.631980e-01,7.940510e-01,3,3,3.999567e-01,3.999567e-01
8.633150e-01,7.939920e-01,3,3,4.713089e-01,4.713089e-01
8.577070e-01,7.934040e-01,3,3,5.989256e-01,5.989254e-01
8.629180e-01,7.949130e-01,3,3,4.713876e-01,4.713875e-01
8.629480e-01,7.949700e-01,3,3,4.905612e-01,4.905610e-01
8.579770e-01,7.938640e-01,3,3,6.108603e-01,6.108601e-01
8.630130e-01,7.937820e-01,3,3,7.470375e-01,7.470373e-01
8.623700e-01,7.936220e-01,3,3,1.118033e+00,1.118033e+00
8.580790e-01,7.929220e-01,3,3,7.738547e-01,7.738547e-01
8.635440e-01,7.940450e-01,3,3,7.282347e-01,7.282344e-01
8.646380e-01,7.929100e-01,3,3,7.119240e-01,7.119240e-01
8.589350e-01,7.940300e-01,3,3,7.781483e-01,7.781482e-01
8.649020e-01,7.942850e-01,3,3,6.471715e-01,6.471715e-01
8.649710e-01,7.945880e-01,3,3,1.098068e+00,1.098067e+00
8.584830e-01,7.934620e-01,3,3,8.187841e-01,8.187841e-01
8.644640e-01,7.947610e-01,3,3,7.743098e-01,7.743097e-01
8.638980e-01,7.921560e-01,3,3,7.614110e-01,7.614109e-01
8.585650e-01,7.930390e-01,3,3,6.899914e-01,6.899913e-01
8.632320e-01,7.948090e-01,3,3,4.930596e-01,4.930596e-01
8.624720e-01,7.874290e-01,3,3,6.012258e-01,6.012257e-01
8.632780e-01,7.934560e-01,3,3,6.780122e-01,6.780121e-01
8.643670e-01,7.951360e-01,3,3,4.676081e-01,4.676081e-01
8.639900e-01,7.885680e-01,3,3,8.746392e-01,8.746389e-01
8.638830e-01,7.926750e-01,3,3,6.178420e-01,6.178420e-01
8.639650e-01,7.948920e-01,3,3,5.576305e-01,5.576305e-01
8.642470e-01,7.884320e-01,3,3,5.046116e-01,5.046116e-01
8.628300e-01,7.925120e-01,3,3,3.967175e-01,3.967173e-01
8.638830e-01,7.941430e-01,3,3,2.920719e-01,2.920719e-01
8.622870e-01,7.879870e-01,3,3,5.730694e-01,5.730693e-01
8.627880e-01,7.941540e-01,3,3,4.927671e-01,4.927670e-01
8.632560e-01,7.936800e-01,3,3,4.981755e-01,4.981754e-01
8.646750e-01,7.887740e-01,3,3,4.688683e-01,4.688682e-01
8.642280e-01,7.932090e-01,3,3,3.674338e-01,3.674338e-01
8.640400e-01,7.940660e-01,3,3,4.423480e-01,4.423479e-01
8.643620e-01,7.874740e-01,3,3,3.414488e-01,3.414488e-01
8.632790e-01,7.931050e-01,3,3,1.434873e+00,1.434872e+00
8.645590e-01,7.942460e-01,3,3,3.181126e+00,3.181124e+00
8.646460e-01,7.888390e-01,3,3,2.408614e+00,2.408615e+00
8.642100e-01,7.940070e-01,3,3,1.724162e+00,1.724163e+00
8.647430e-01,7.939320e-01,3,3,1.256671e+00,1.256671e+00
8.638600e-01,7.883440e-01,3,3,1.368063e+00,1.368063e+00
8.632260e-01,7.942070e-01,3,3,1.077320e+00,1.077320e+00
8.643360e-01,7.945220e-01,3,3,1.043494e+00,1.043494e+00
8.643430e-01,7.882650e-01,3,3,1.242604e+00,1.242604e+00
8.647900e-01,7.938970e-01,3,3,1.406409e+00,1.406409e+00
8.639450e-01,7.938110e-01,3,3,1.284407e+00,1.284407e+00
8.639020e-01,7.879020e-01,3,3,1.374070e+00,1.374070e+00
8.640050e-01,7.948070e-01,3,3,1.844400e+00,1.844399e+00
8.655350e-01,7.942140e-01,3,3,1.377107e+00,1.377108e+00
8.649370e-01,7.880980e-01,3,3,9.441333e-01,9.441334e-01
8.633530e-01,7.930960e-01,3,3,5.655942e-01,5.655943e-01
8.636850e-01,7.942230e-01,3,3,3.798159e-01,3.798159e-01
8.638950e-01,7.886810e-01,3,3,2.967605e-01,2.967604e-01
8.626650e-01,7.929700e-01,3,3,4.102474e-01,4.102472e-01
8.632980e-01,7.943680e-01,3,3,2.912585e-01,2.912585e-01
8.626590e-01,7.884410e-01,3,3,4.764578e-01,4.764577e-01
8.635630e-01,7.945340e-01,3,3,5.043371e-01,5.043371e-01
8.642340e-01,7.944680e-01,3,3,4.688270e-01,4.688269e-01
8.639640e-01,7.877620e-01,3,3,6.028402e-01,6.028400e-01
8.636860e-01,7.932360e-01,3,3,3.377127e-01,3.377127e-01
8.645770e-01,7.938650e-01,3,3,2.711839e-01,2.711838e-01
8.638790e-01,7.886280e-01,3,3,1.383306e+00,1.383306e+00
8.630570e-01,7.942360e-01,3,3,1.451329e+00,1.451329e+00
8.651060e-01,7.938920e-01,3,3,7.031839e-01,7.031841e-01
8.634570e-01,7.885600e-01,3,3,6.982511e-01,6.982511e-01
8.642940e-01,7.938560e-01,3,3,6.137516e-01,6.137515e-01
8.644400e-01,7.936610e-01,3,3,6.617285e-01,6.617284e-01
8.634330e-01,7.887940e-01,3,3,3.354983e-01,3.354983e-01
8.638190e-01,7.939270e-01,3,3,2.759661e-01,2.759661e-01
8.637460e-01,7.939500e-01,3,3,5.279966e-01,5.279965e-01
8.621280e-01,7.896410e-01,3,3,6.667663e-01,6.667662e-01
8.640990e-01,7.941800e-01,3,3,8.292178e-01,8.292177e-01
8.637170e-01,7.946370e-01,3,3,5.374542e-01,5.374542e-01
8.575210e-01,7.893690e-01,3,3,5.127800e-01,5.127799e-01
8.634970e-01,7.938880e-01,3,3,7.688165e-01,7.688162e-01
8.651170e-01,7.953170e-01,3,3,1.152271e+00,1.152271e+00
8.592840e-01,7.932760e-01,3,3,1.284036e+00,1.284036e+00
8.639140e-01,7.950520e-01,3,3,1.793355e+00,1.793354e+00
8.651710e-01,7.945150e-01,3,3,1.700294e+00,1.700293e+00
8.580880e-01,7.935020e-01,3,3,2.642651e+00,2.642665e+00
8.640190e-01,7.937020e-01,3,3,1.107416e+00,1.107417e+00
8.633710e-01,7.954290e-01,3,3,9.386903e-01,9.386903e-01
8.589100e-01,7.934380e-01,3,3,1.466584e+00,1.466583e+00
8.648190e-01,7.944080e-01,3,3,7.286371e-01,7.286373e-01
8.648380e-01,7.941890e-01,3,3,6.052259e-01,6.052259e-01
8.585770e-01,7.933720e-01,3,3,4.965911e-01,4.965910e-01
8.651310e-01,7.934790e-01,3,3,3.360130e-01,3.360130e-01
8.646070e-01,7.941830e-01,3,3,6.849909e-01,6.849906e-01
8.574890e-01,7.936420e-01,3,3,5.121156e-01,5.121155e-01
8.636200e-01,7.942280e-01,3,3,2.922550e-01,2.922550e-01
8.632730e-01,7.940450e-01,3,3,6.679345e-01,6.679343e-01
8.584650e-01,7.938690e-01,3,3,4.674127e-01,4.674127e-01
8.637730e-01,7.935400e-01,3,3,2.461262e-01,2.461262e-01
8.620490e-01,7.938330e-01,3,3,2.703545e-01,2.703545e-01
8.572200e-01,7.930650e-01,3,3,3.371024e-01,3.371023e-01
8.636100e-01,7.955180e-01,3,3,5.136953e-01,5.136952e-01
8.642590e-01,7.945510e-01,3,3,1.077991e+00,1.077990e+00
8.586780e-01,7.948140e-01,3,3,7.645050e-01,7.645045e-01
8.639120e-01,7.956940e-01,3,3,1.387647e+00,1.387647e+00
8.656820e-01,7.944250e-01,3,3,6.073496e-01,6.073499e-01
8.583880e-01,7.941790e-01,3,3,4.838976e-01,4.838976e-01
8.639590e-01,7.947470e-01,3,3,3.213725e-01,3.213726e-01
8.641960e-01,7.936610e-01,3,3,2.984320e-01,2.984320e-01
8.571920e-01,7.939420e-01,3,3,8.386706e-01,8.386702e-01
8.638790e-01,7.945560e-01,3,3,8.449806e-01,8.449804e-01
8.635420e-01,7.936560e-01,3,3,1.302749e+00,1.302749e+00
8.582400e-01,7.936470e-01,3,3,1.342942e+00,1.342942e+00
8.640830e-01,7.938320e-01,3,3,1.544383e+00,1.544383e+00
8.634890e-01,7.936910e-01,3,3,2.525370e+00,2.525369e+00
8.586720e-01,7.934940e-01,3,3,2.830332e+00,2.830331e+00
8.640130e-01,7.948770e-01,3,3,2.115056e+00,2.115056e+00
8.647710e-01,7.938670e-01,3,3,1.898372e+00,1.898372e+00
8.592820e-01,7.940970e-01,3,3,2.653305e+00,2.653304e+00
8.639790e-01,7.942590e-01,3,3,1.802900e+00,1.802900e+00
8.640330e-01,7.886210e-01,3,3,1.494907e+00,1.494907e+00
8.632380e-01,7.938750e-01,3,3,1.498995e+00,1.498995e+00
8.645570e-01,7.946910e-01,3,3,1.609108e+00,1.609108e+00
8.660160e-01,7.891700e-01,3,3,1.756702e+00,1.756701e+00
8.625810e-01,7.934080e-01,3,3,1.294859e+00,1.294859e+00
8.648940e-01,7.944860e-01,3,3,1.255283e+00,1.255283e+00
8.646980e-01,7.886770e-01,3,3,1.626537e+00,1.626537e+00
8.644760e-01,7.943290e-01,3,3,1.798403e+00,1.798403e+00
8.657310e-01,7.939910e-01,3,3,1.146720e+00,1.146720e+00
8.641990e-01,7.882060e-01,3,3,1.106796e+00,1.106796e+00
8.636420e-01,7.931300e-01,3,3,6.536678e-01,6.536681e-01
8.633070e-01,7.942250e-01,3,3,6.339582e-01,6.339582e-01

