4.423370e-01,3.989920e-01,2,2,0.000000e+00,0.000000e+00
6.305560e-01,6.196060e-01,3,3,5.812797e-02,5.812796e-02
6.634900e-01,5.747640e-01,3,3,2.060816e-01,2.060816e-01
6.621630e-01,5.814030e-01,3,3,1.405413e-01,1.405413e-01
6.305950e-01,6.049890e-01,3,3,2.582692e-01,2.582691e-01
6.314440e-01,6.050730e-01,3,3,2.818608e-01,2.818608e-01
6.747030e-01,5.749370e-01,3,3,4.713829e-01,4.713826e-01
6.626870e-01,6.054880e-01,3,3,6.231962e-01,6.231961e-01
6.322950e-01,6.061250e-01,3,3,9.500960e-01,9.500958e-01
6.538290e-01,5.899620e-01,3,3,7.704431e-01,7.704431e-01
6.635390e-01,6.008980e-01,3,3,8.191877e-01,8.191874e-01
6.620160e-01,6.055340e-01,3,3,8.327824e-01,8.327823e-01
6.319420e-01,6.122250e-01,3,3,2.888945e-01,2.888946e-01
6.628640e-01,5.749510e-01,3,3,2.500402e-01,2.500402e-01
6.604650e-01,5.758200e-01,3,3,5.318928e-01,5.318925e-01
6.615800e-01,6.059440e-01,3,3,1.439834e+00,1.439833e+00
6.319750e-01,6.072280e-01,3,3,1.458096e+00,1.458096e+00
6.370750e-01,5.743350e-01,3,3,1.529896e+00,1.529896e+00
6.625400e-01,5.748300e-01,3,3,2.414412e+00,2.414411e+00
6.371820e-01,6.049950e-01,3,3,1.877509e+00,1.877509e+00
6.321760e-01,6.064110e-01,3,3,1.840562e+00,1.840562e+00
6.515930e-01,5.871730e-01,3,3,1.627181e+00,1.627181e+00
6.384510e-01,5.749830e-01,3,3,1.554916e+00,1.554916e+00
6.613370e-01,6.040170e-01,3,3,1.263174e+00,1.263174e+00
6.324190e-01,6.054860e-01,3,3,1.306173e+00,1.306173e+00
6.356310e-01,5.756580e-01,3,3,1.073409e+00,1.073409e+00
6.626850e-01,5.744350e-01,3,3,1.082073e+00,1.082073e+00
6.619700e-01,6.046790e-01,3,3,2.005648e+00,2.005647e+00
6.321940e-01,6.047670e-01,3,3,7.912267e-01,7.912270e-01
6.316850e-01,6.035100e-01,3,3,8.084646e-01,8.084645e-01
6.363280e-01,5.741440e-01,3,3,4.894201e-01,4.894201e-01
6.604250e-01,5.796650e-01,3,3,5.844694e-01,5.844692e-01
6.298420e-01,6.043950e-01,3,3,3.518803e-01,3.518803e-01
6.307590e-01,6.035120e-01,3,3,7.120366e-01,7.120363e-01
6.873770e-01,5.757440e-01,3,3,3.073660e-01,3.073660e-01
6.620420e-01,5.929220e-01,3,3,2.936263e-01,2.936263e-01
6.430510e-01,6.057160e-01,3,3,7.884940e-01,7.884935e-01
6.329380e-01,6.049790e-01,3,3,4.510830e-01,4.510830e-01
6.377240e-01,5.749620e-01,3,3,3.491744e-01,3.491744e-01
6.603640e-01,5.916280e-01,3,3,3.140876e-01,3.140876e-01
6.446570e-01,6.062850e-01,3,3,2.392209e-01,2.392208e-01
6.317360e-01,6.041350e-01,3,3,2.182052e-01,2.182051e-01
6.539670e-01,5.919630e-01,3,3,2.810299e-01,2.810299e-01
6.544390e-01,6.087250e-01,3,3,4.060967e-01,4.060966e-01
6.324110e-01,5.803630e-01,3,3,5.974156e-01,5.974154e-01
6.320670e-01,6.046290e-01,3,3,1.068579e+00,1.068578e+00
6.375870e-01,5.744110e-01,3,3,1.459127e+00,1.459127e+00
6.632280e-01,5.749640e-01,3,3,1.153547e+00,1.153547e+00
6.369920e-01,6.051680e-01,3,3,2.265070e+00,2.265070e+00
6.323600e-01,6.052030e-01,3,3,3.367206e+00,3.367204e+00
6.634700e-01,5.747020e-01,3,3,2.355103e+00,2.355103e+00
6.372560e-01,5.750630e-01,3,3,2.304053e+00,2.304053e+00
6.628390e-01,5.810450e-01,3,3,2.459594e+00,2.459593e+00
6.326480e-01,6.066570e-01,3,3,2.009377e+00,2.009377e+00
6.630140e-01,5.756450e-01,3,3,1.845804e+00,1.845804e+00
6.645670e-01,5.748810e-01,3,3,1.554130e+00,1.554130e+00
6.618720e-01,6.046130e-01,3,3,9.284523e-01,9.284525e-01
6.324300e-01,5.796230e-01,3,3,8.359795e-01,8.359795e-01
6.615640e-01,5.753570e-01,3,3,3.332990e-01,3.332991e-01
6.619590e-01,5.747690e-01,3,3,2.626358e-01,2.626358e-01
6.627600e-01,6.057730e-01,3,3,1.408491e-01,1.408490e-01
6.308390e-01,6.047110e-01,3,3,3.135452e-01,3.135451e-01
6.628310e-01,5.748380e-01,3,3,2.096927e-01,2.096927e-01
6.610760e-01,5.747330e-01,3,3,3.031773e-01,3.031772e-01
6.371330e-01,6.050570e-01,3,3,3.756339e-01,3.756338e-01
6.316600e-01,6.056980e-01,3,3,3.228724e-01,3.228725e-01
6.510540e-01,5.750780e-01,3,3,6.603498e-01,6.603496e-01
6.623030e-01,5.751650e-01,3,3,4.364016e-01,4.364016e-01
6.628460e-01,5.795500e-01,3,3,4.896384e-01,4.896383e-01
6.316110e-01,6.042560e-01,3,3,5.244260e-01,5.244259e-01
6.366580e-01,5.750100e-01,3,3,6.566503e-01,6.566502e-01
6.639430e-01,5.737180e-01,3,3,6.030316e-01,6.030315e-01
6.619480e-01,6.052910e-01,3,3,1.037773e+00,1.037772e+00
6.324260e-01,5.798500e-01,3,3,2.000683e+00,2.000682e+00
6.317880e-01,6.293360e-01,3,3,2.847809e+00,2.847808e+00
6.621040e-01,5.745930e-01,3,3,3.032588e+00,3.032588e+00
6.626340e-01,5.798480e-01,3,3,2.274517e+00,2.274517e+00
6.312550e-01,6.057160e-01,3,3,2.852365e+00,2.852364e+00
6.322480e-01,5.804730e-01,3,3,1.628833e+00,1.628833e+00
6.630020e-01,5.753220e-01,3,3,1.329053e+00,1.329053e+00
6.618870e-01,6.057360e-01,3,3,1.211133e+00,1.211133e+00
6.320300e-01,5.808930e-01,3,3,9.335812e-01,9.335812e-01
6.321890e-01,6.045010e-01,3,3,9.370540e-01,9.370538e-01
6.371430e-01,5.747020e-01,3,3,4.514515e-01,4.514513e-01
6.622400e-01,5.915460e-01,3,3,4.398886e-01,4.398885e-01
6.454260e-01,6.050210e-01,3,3,4.216745e-01,4.216745e-01
6.317950e-01,6.041560e-01,3,3,4.467419e-01,4.467419e-01
6.613450e-01,5.738040e-01,3,3,4.068527e-01,4.068526e-01
6.623810e-01,5.927680e-01,3,3,3.491200e-01,3.491200e-01
6.451000e-01,5.799140e-01,3,3,9.257305e-01,9.257302e-01
6.318480e-01,6.051650e-01,3,3,1.780645e+00,1.780644e+00
6.622460e-01,5.753260e-01,3,3,1.426766e+00,1.426766e+00
6.621660e-01,5.752500e-01,3,3,9.062391e-01,9.062392e-01
6.575480e-01,6.069820e-01,3,3,7.971058e-01,7.971058e-01
6.325930e-01,5.803070e-01,3,3,7.720317e-01,7.720314e-01
6.630840e-01,5.749690e-01,3,3,9.600239e-01,9.600238e-01
6.369420e-01,5.746240e-01,3,3,2.311476e+00,2.311476e+00
6.621910e-01,5.794390e-01,3,3,1.749278e+00,1.749278e+00
6.318160e-01,6.055660e-01,3,3,1.076465e+00,1.076466e+00
6.382590e-01,5.753160e-01,3,3,9.773025e-01,9.773022e-01
6.636310e-01,5.750360e-01,3,3,9.151972e-01,9.151971e-01
6.615100e-01,6.056040e-01,3,3,9.354084e-01,9.354080e-01
6.325090e-01,5.808540e-01,3,3,2.202484e+00,2.202483e+00
6.490220e-01,5.872090e-01,3,3,2.841080e+00,2.841079e+00
6.376590e-01,5.747660e-01,3,3,3.557768e+00,3.557767e+00
6.628570e-01,6.049100e-01,3,3,3.660317e+00,3.660316e+00
6.321240e-01,6.069330e-01,3,3,2.738023e+00,2.738024e+00
6.491630e-01,5.873690e-01,3,3,2.168857e+00,2.168857e+00
6.634490e-01,5.746010e-01,3,3,2.062068e+00,2.062068e+00
6.375420e-01,6.048080e-01,3,3,1.318565e+00,1.318565e+00
6.325670e-01,6.043550e-01,3,3,2.375286e+00,2.375285e+00
6.363760e-01,5.888860e-01,3,3,2.300606e+00,2.300605e+00
6.629190e-01,5.750910e-01,3,3,1.510303e+00,1.510303e+00
6.626710e-01,6.062600e-01,3,3,2.179315e+00,2.179315e+00
6.323490e-01,6.308590e-01,3,3,2.302638e+00,2.302638e+00
6.371920e-01,5.749150e-01,3,3,1.156521e+00,1.156521e+00
6.615940e-01,5.751900e-01,3,3,8.679784e-01,8.679784e-01
6.629240e-01,6.060560e-01,3,3,7.889931e-01,7.889930e-01
6.321200e-01,6.067580e-01,3,3,8.352565e-01,8.352562e-01
6.491870e-01,5.878240e-01,3,3,9.570611e-01,9.570610e-01
6.383850e-01,5.743540e-01,3,3,8.118906e-01,8.118906e-01
6.624190e-01,5.808370e-01,3,3,8.403699e-01,8.403697e-01
6.317080e-01,6.061800e-01,3,3,8.496717e-01,8.496714e-01
6.317630e-01,6.051720e-01,3,3,3.405985e-01,3.405984e-01
6.646240e-01,5.753460e-01,3,3,6.049503e-01,6.049502e-01
6.382050e-01,6.063960e-01,3,3,7.398647e-01,7.398646e-01
6.330470e-01,6.050390e-01,3,3,3.377733e-01,3.377733e-01
6.309990e-01,6.060880e-01,3,3,3.622945e-01,3.622944e-01
6.359200e-01,5.746390e-01,3,3,3.970028e-01,3.970027e-01
6.865160e-01,6.352950e-01,3,3,6.220922e-01,6.220920e-01
6.802780e-01,5.997570e-01,3,3,4.095388e-01,4.095389e-01
6.560970e-01,5.914380e-01,3,3,5.694457e-01,5.694456e-01
6.561400e-01,5.916460e-01,3,3,5.710132e-01,5.710132e-01
6.560070e-01,5.968060e-01,3,3,5.602069e-01,5.602068e-01
6.508050e-01,5.971390e-01,3,3,2.795436e-01,2.795437e-01
6.552780e-01,5.920040e-01,3,3,2.138608e-01,2.138608e-01
6.557640e-01,5.914510e-01,3,3,3.526403e-01,3.526402e-01
6.582900e-01,5.973450e-01,3,3,1.877762e-01,1.877762e-01
6.496770e-01,5.961300e-01,3,3,1.197130e-01,1.197129e-01
6.537430e-01,5.910970e-01,3,3,2.402200e-01,2.402199e-01
6.552370e-01,5.918800e-01,3,3,3.841747e-01,3.841745e-01
6.553070e-01,5.979610e-01,3,3,5.508914e-01,5.508913e-01
6.502160e-01,5.969550e-01,3,3,1.976280e+00,1.976280e+00
6.560040e-01,5.925970e-01,3,3,1.065974e+00,1.065974e+00
6.560010e-01,5.917760e-01,3,3,1.167923e+00,1.167923e+00
6.562750e-01,5.973770e-01,3,3,1.055661e+00,1.055661e+00
6.507140e-01,5.983950e-01,3,3,7.445016e-01,7.445017e-01
6.558980e-01,5.917980e-01,3,3,1.139975e+00,1.139975e+00
6.558410e-01,5.970930e-01,3,3,1.869034e+00,1.869033e+00
6.509070e-01,5.969440e-01,3,3,3.494250e+00,3.494249e+00
6.512740e-01,5.982530e-01,3,3,1.931102e+00,1.931102e+00
6.564470e-01,5.921320e-01,3,3,1.405634e+00,1.405634e+00
6.558080e-01,5.970020e-01,3,3,1.321142e+00,1.321142e+00
6.502800e-01,5.977550e-01,3,3,1.049431e+00,1.049431e+00
6.518660e-01,5.966810e-01,3,3,1.440029e+00,1.440029e+00
6.566950e-01,5.915240e-01,3,3,6.915922e-01,6.915922e-01
6.557020e-01,5.968500e-01,3,3,8.606945e-01,8.606944e-01
6.494680e-01,5.966730e-01,3,3,1.034005e+00,1.034005e+00
6.506790e-01,5.977890e-01,3,3,8.440538e-01,8.440538e-01
6.566040e-01,5.913710e-01,3,3,3.943996e-01,3.943996e-01
6.549910e-01,5.968270e-01,3,3,6.198078e-01,6.198076e-01
6.502950e-01,5.978890e-01,3,3,6.212008e-01,6.212007e-01
6.500720e-01,5.964500e-01,3,3,4.990046e-01,4.990045e-01
6.560330e-01,5.918630e-01,3,3,5.766789e-01,5.766788e-01
6.562390e-01,5.974790e-01,3,3,4.892923e-01,4.892923e-01
6.503150e-01,5.965630e-01,3,3,4.522987e-01,4.522987e-01
6.556170e-01,5.918940e-01,3,3,4.728381e-01,4.728380e-01
6.556180e-01,5.911600e-01,3,3,2.513801e-01,2.513801e-01
6.554940e-01,5.990530e-01,3,3,5.201369e-01,5.201367e-01
6.509740e-01,5.973200e-01,3,3,7.759205e-01,7.759202e-01
6.552570e-01,5.924500e-01,3,3,9.329086e-01,9.329085e-01
6.547900e-01,5.918900e-01,3,3,7.246989e-01,7.246988e-01
6.549720e-01,5.966700e-01,3,3,9.543504e-01,9.543503e-01
6.512360e-01,5.975930e-01,3,3,8.304007e-01,8.304007e-01
6.559190e-01,5.921610e-01,3,3,9.109845e-01,9.109844e-01
6.550820e-01,5.914070e-01,3,3,8.103107e-01,8.103107e-01
6.550990e-01,5.962480e-01,3,3,4.925475e-01,4.925474e-01
6.510020e-01,5.971140e-01,3,3,7.511803e-01,7.511802e-01
6.563010e-01,5.918390e-01,3,3,1.002053e+00,1.002053e+00
6.555840e-01,5.911020e-01,3,3,1.944265e+00,1.944265e+00
6.560090e-01,5.968770e-01,3,3,1.173230e+00,1.173230e+00
6.510190e-01,5.966680e-01,3,3,1.367282e+00,1.367282e+00
6.560530e-01,5.911960e-01,3,3,9.855257e-01,9.855258e-01
6.555420e-01,5.906140e-01,3,3,8.173747e-01,8.173747e-01
6.557880e-01,5.970790e-01,3,3,9.440868e-01,9.440866e-01
6.504750e-01,5.979300e-01,3,3,1.013854e+00,1.013853e+00
6.557280e-01,5.908790e-01,3,3,1.055176e+00,1.055176e+00
6.560110e-01,5.920340e-01,3,3,1.342405e+00,1.342405e+00
6.567330e-01,5.972860e-01,3,3,1.357682e+00,1.357682e+00
6.507410e-01,5.973160e-01,3,3,1.531942e+00,1.531942e+00
6.563530e-01,5.913410e-01,3,3,1.253725e+00,1.253725e+00
6.555300e-01,5.955890e-01,3,3,1.743051e+00,1.743051e+00
6.508020e-01,5.973250e-01,3,3,6.714134e-01,6.714137e-01
6.498370e-01,5.963150e-01,3,3,6.817571e-01,6.817571e-01
6.565940e-01,5.917010e-01,3,3,4.629688e-01,4.629688e-01
6.549350e-01,5.973280e-01,3,3,2.776988e-01,2.776988e-01
6.499130e-01,5.966580e-01,3,3,8.296979e-02,8.296979e-02
6.482160e-01,5.966200e-01,3,3,1.347333e-01,1.347332e-01
6.540570e-01,5.911610e-01,3,3,1.329026e-01,1.329025e-01
6.547510e-01,5.963020e-01,3,3,9.594854e-02,9.594853e-02
6.486240e-01,5.969460e-01,3,3,6.276851e-01,6.276849e-01
6.504460e-01,5.967170e-01,3,3,1.197996e+00,1.197996e+00
6.558210e-01,5.918190e-01,3,3,5.243093e-01,5.243094e-01
6.562310e-01,5.978490e-01,3,3,5.210761e-01,5.210761e-01
6.506390e-01,5.968580e-01,3,3,4.831178e-01,4.831178e-01
6.501860e-01,5.959500e-01,3,3,4.658970e-01,4.658970e-01
6.558460e-01,5.919800e-01,3,3,7.032189e-01,7.032187e-01
6.556210e-01,5.974090e-01,3,3,4.165460e-01,4.165461e-01
6.510190e-01,5.974820e-01,3,3,5.102598e-01,5.102598e-01
6.552440e-01,5.922920e-01,3,3,7.463253e-01,7.463252e-01
6.562370e-01,5.913210e-01,3,3,2.378787e-01,2.378787e-01
6.555220e-01,5.971080e-01,3,3,4.710340e-01,4.710339e-01
6.500750e-01,5.973250e-01,3,3,3.622362e-01,3.622361e-01
6.550890e-01,5.916370e-01,3,3,2.900845e-01,2.900845e-01
6.552800e-01,5.913360e-01,3,3,7.445876e-01,7.445874e-01
6.556910e-01,5.973570e-01,3,3,7.038842e-01,7.038841e-01
6.518970e-01,5.966010e-01,3,3,5.360245e-01,5.360244e-01
6.554620e-01,5.914400e-01,3,3,5.391573e-01,5.391571e-01
6.558230e-01,5.909580e-01,3,3,7.408822e-01,7.408820e-01
6.559130e-01,5.974150e-01,3,3,4.496427e-01,4.496426e-01
6.502030e-01,5.973150e-01,3,3,3.885981e-01,3.885981e-01
6.558020e-01,5.913600e-01,3,3,3.333705e-01,3.333705e-01
6.563230e-01,5.918630e-01,3,3,4.160385e-01,4.160384e-01
6.553690e-01,5.970620e-01,3,3,5.367247e-01,5.367245e-01
6.502750e-01,5.969040e-01,3,3,8.416445e-01,8.416443e-01
6.563290e-01,5.911930e-01,3,3,1.226453e+00,1.226452e+00
6.557380e-01,5.908670e-01,3,3,1.031106e+00,1.031106e+00
6.548410e-01,5.975460e-01,3,3,8.613463e-01,8.613463e-01
6.506180e-01,5.966820e-01,3,3,7.773315e-01,7.773313e-01
6.573340e-01,5.916000e-01,3,3,4.078054e-01,4.078055e-01
6.551210e-01,5.910570e-01,3,3,3.756853e-01,3.756851e-01
6.548640e-01,5.967780e-01,3,3,3.049512e-01,3.049512e-01
6.507590e-01,5.971580e-01,3,3,4.214468e-01,4.214467e-01
6.560920e-01,5.916120e-01,3,3,2.596296e-01,2.596296e-01
6.542620e-01,5.917710e-01,3,3,2.790615e-01,2.790614e-01
6.540720e-01,5.970260e-01,3,3,1.533458e+00,1.533457e+00
6.503970e-01,5.969020e-01,3,3,2.299447e+00,2.299446e+00
6.560410e-01,5.916670e-01,3,3,2.043005e+00,2.043005e+00
6.560370e-01,5.954430e-01,3,3,2.417229e+00,2.417229e+00
6.508650e-01,5.987740e-01,3,3,2.467576e+00,2.467576e+00
6.506330e-01,5.976320e-01,3,3,2.597103e+00,2.597103e+00
6.563930e-01,5.919280e-01,3,3,3.197243e+00,3.197242e+00
6.562440e-01,5.977860e-01,3,3,2.458498e+00,2.458498e+00
6.513270e-01,5.968890e-01,3,3,2.193952e+00,2.193952e+00
6.504060e-01,5.966910e-01,3,3,2.002596e+00,2.002595e+00
6.548770e-01,5.931650e-01,3,3,1.845212e+00,1.845211e+00
6.565030e-01,5.972510e-01,3,3,1.817223e+00,1.817223e+00
6.510360e-01,5.972210e-01,3,3,7.386333e-01,7.386338e-01
6.498320e-01,5.969120e-01,3,3,1.875264e+00,1.875346e+00
6.574770e-01,5.910520e-01,3,3,1.091707e+00,1.091766e+00
6.561690e-01,5.969550e-01,3,3,6.048126e-01,6.048130e-01
6.495500e-01,5.968640e-01,3,3,1.085745e+00,1.085744e+00
6.506650e-01,5.980890e-01,3,3,6.700187e-01,6.700186e-01
6.559770e-01,5.913820e-01,3,3,1.342196e+00,1.342195e+00
6.559120e-01,5.975070e-01,3,3,2.444938e+00,2.444938e+00
6.512150e-01,5.978760e-01,3,3,2.134947e+00,2.134947e+00
6.550470e-01,5.921750e-01,3,3,3.272229e+00,3.272229e+00
6.561890e-01,5.914920e-01,3,3,2.839164e+00,2.839164e+00
6.576680e-01,5.975120e-01,3,3,2.533603e+00,2.533602e+00
6.510280e-01,5.978390e-01,3,3,2.857801e+00,2.857800e+00
6.554420e-01,5.919100e-01,3,3,2.255892e+00,2.255892e+00
6.560830e-01,5.920490e-01,3,3,1.913408e+00,1.913408e+00
6.561950e-01,5.969380e-01,3,3,1.585824e+00,1.585824e+00
6.509170e-01,5.962310e-01,3,3,1.335085e+00,1.335085e+00
6.553870e-01,5.915920e-01,3,3,1.457213e+00,1.457212e+00
6.561640e-01,5.913260e-01,3,3,1.201293e+00,1.201293e+00
6.558020e-01,5.968180e-01,3,3,1.542834e+00,1.542834e+00
6.503590e-01,5.966780e-01,3,3,8.863084e-01,8.863086e-01
6.564090e-01,5.920660e-01,3,3,6.889828e-01,6.889827e-01
6.564620e-01,5.916220e-01,3,3,4.300894e-01,4.300894e-01
6.554370e-01,5.986730e-01,3,3,3.981895e-01,3.981895e-01
6.509330e-01,5.964500e-01,3,3,4.351653e-01,4.351653e-01
6.554120e-01,5.915650e-01,3,3,3.148834e-01,3.148834e-01
6.577810e-01,5.919120e-01,3,3,4.842802e-01,4.842801e-01
6.559470e-01,5.973500e-01,3,3,4.125568e-01,4.125566e-01
6.502910e-01,5.968090e-01,3,3,5.147562e-01,5.147561e-01
6.557370e-01,5.914530e-01,3,3,8.635998e-01,8.635996e-01
6.551500e-01,5.919150e-01,3,3,1.736299e+00,1.736298e+00
6.551220e-01,5.977610e-01,3,3,3.171832e+00,3.171831e+00
6.507920e-01,5.963510e-01,3,3,2.228343e+00,2.228343e+00
6.570230e-01,5.926980e-01,3,3,2.006228e+00,2.006228e+00
6.570160e-01,5.965420e-01,3,3,1.749637e+00,1.749637e+00
6.513810e-01,5.986460e-01,3,3,1.644216e+00,1.644216e+00
6.510470e-01,5.977820e-01,3,3,1.414972e+00,1.414972e+00
6.562210e-01,5.914880e-01,3,3,2.322999e+00,2.322999e+00
6.551710e-01,5.965650e-01,3,3,1.340331e+00,1.340331e+00
6.501630e-01,6.042340e-01,3,3,7.462475e-01,7.462477e-01
6.510010e-01,5.980290e-01,3,3,8.197151e-01,8.197145e-01
6.569610e-01,5.913710e-01,3,3,4.231620e-01,4.231621e-01
6.557440e-01,5.962470e-01,3,3,2.447585e-01,2.447585e-01
6.497870e-01,5.986440e-01,3,3,2.665664e-01,2.665664e-01
6.502140e-01,5.967850e-01,3,3,2.610150e-01,2.610149e-01
6.550980e-01,5.916630e-01,3,3,5.566627e-01,5.566625e-01
6.549180e-01,6.240190e-01,3,3,2.383528e-01,2.383529e-01
6.505120e-01,5.979920e-01,3,3,1.106060e+00,1.106060e+00
6.568240e-01,5.918310e-01,3,3,2.229829e+00,2.229828e+00
6.554070e-01,5.916480e-01,3,3,1.744494e+00,1.744494e+00
6.561870e-01,5.977780e-01,3,3,1.490050e+00,1.490050e+00
6.511680e-01,5.967600e-01,3,3,1.294627e+00,1.294627e+00
6.554050e-01,5.914470e-01,3,3,1.283113e+00,1.283113e+00
6.560020e-01,5.917520e-01,3,3,9.104881e-01,9.104882e-01
6.558790e-01,5.976590e-01,3,3,9.048302e-01,9.048302e-01
6.497030e-01,5.972280e-01,3,3,1.387741e+00,1.387740e+00
6.567510e-01,5.916500e-01,3,3,2.354998e+00,2.354998e+00
6.547630e-01,5.912700e-01,3,3,1.643370e+00,1.643371e+00
6.563850e-01,5.971320e-01,3,3,7.141218e-01,7.141221e-01
6.505460e-01,5.979260e-01,3,3,6.234644e-01,6.234644e-01
6.577130e-01,5.922210e-01,3,3,9.564318e-01,9.564316e-01
6.567560e-01,5.916740e-01,3,3,1.357702e+00,1.357702e+00
6.555940e-01,5.974750e-01,3,3,1.986607e+00,1.986606e+00
6.513410e-01,5.976670e-01,3,3,3.262984e+00,3.262983e+00
6.564580e-01,5.922310e-01,3,3,3.157724e+00,3.157724e+00
6.567390e-01,5.916600e-01,3,3,2.783654e+00,2.783654e+00
6.566450e-01,5.970540e-01,3,3,3.019452e+00,3.019452e+00
6.510740e-01,5.981130e-01,3,3,2.492589e+00,2.492589e+00
6.568320e-01,5.921040e-01,3,3,2.159067e+00,2.159067e+00
6.571500e-01,5.959690e-01,3,3,2.315909e+00,2.315909e+00
6.511230e-01,5.976110e-01,3,3,2.125445e+00,2.125445e+00
6.512860e-01,5.970570e-01,3,3,2.141288e+00,2.141295e+00
6.562030e-01,5.917330e-01,3,3,1.402978e+00,1.402978e+00
6.564110e-01,5.962750e-01,3,3,1.099584e+00,1.099584e+00
6.517500e-01,5.972250e-01,3,3,1.296655e+00,1.296655e+00
6.506290e-01,5.970150e-01,3,3,1.557561e+00,1.557561e+00
6.553970e-01,5.913750e-01,3,3,1.828934e+00,1.828934e+00
6.551950e-01,5.966950e-01,3,3,2.215322e+00,2.215322e+00
6.505580e-01,5.966570e-01,3,3,4.013086e+00,4.013086e+00
6.496270e-01,5.966120e-01,3,3,5.155507e+00,5.155510e+00
6.557450e-01,5.918090e-01,3,3,4.539414e+00,4.539415e+00
6.554700e-01,5.973100e-01,3,3,4.494761e+00,4.494761e+00
6.508480e-01,5.979410e-01,3,3,3.581209e+00,3.581209e+00
6.513690e-01,5.971050e-01,3,3,3.192927e+00,3.192927e+00
6.568620e-01,5.921280e-01,3,3,2.916360e+00,2.916360e+00
6.566160e-01,5.973350e-01,3,3,2.621567e+00,2.621567e+00
6.507600e-01,5.973760e-01,3,3,2.325694e+00,2.325694e+00
6.560800e-01,5.923740e-01,3,3,1.621806e+00,1.621807e+00
6.557210e-01,5.915290e-01,3,3,9.788785e-01,9.788787e-01
6.555950e-01,5.977710e-01,3,3,4.957717e-01,4.957717e-01
6.495700e-01,5.984170e-01,3,3,4.150837e-01,4.150836e-01
6.557160e-01,5.917200e-01,3,3,2.700553e-01,2.700552e-01
6.557130e-01,5.923860e-01,3,3,2.893025e-01,2.893024e-01
6.547930e-01,5.969910e-01,3,3,2.632265e-01,2.632265e-01
6.498330e-01,5.968140e-01,3,3,4.077497e-01,4.077495e-01
6.562680e-01,5.918250e-01,3,3,3.342468e-01,3.342468e-01
6.581990e-01,5.918570e-01,3,3,3.078954e-01,3.078954e-01
6.561390e-01,5.973800e-01,3,3,4.643140e-01,4.643139e-01
6.499870e-01,5.966030e-01,3,3,4.210317e-01,4.210317e-01
6.548660e-01,5.922200e-01,3,3,6.173459e-01,6.173457e-01
6.557020e-01,5.912170e-01,3,3,6.293050e-01,6.293049e-01
6.551540e-01,5.976320e-01,3,3,7.170021e-01,7.170020e-01
6.501300e-01,5.968030e-01,3,3,1.426862e+00,1.426861e+00
6.560820e-01,5.917540e-01,3,3,1.362491e+00,1.362491e+00
6.560290e-01,5.918750e-01,3,3,1.064204e+00,1.064204e+00
6.553790e-01,5.971600e-01,3,3,1.154890e+00,1.154890e+00
6.505700e-01,5.975390e-01,3,3,1.444641e+00,1.444641e+00
6.555060e-01,5.915730e-01,3,3,6.148190e-01,6.148193e-01
6.554630e-01,5.915560e-01,3,3,1.159009e+00,1.159009e+00
6.551120e-01,5.966290e-01,3,3,2.263090e+00,2.263092e+00
6.504980e-01,5.938630e-01,3,3,2.944850e+00,2.944849e+00
6.639100e-01,5.752690e-01,3,3,2.973869e+00,2.973869e+00
6.629180e-01,6.054160e-01,3,3,4.151344e+00,4.151343e+00
6.586680e-01,6.058260e-01,3,3,3.435209e+00,3.435209e+00
6.324920e-01,6.057130e-01,3,3,4.007754e+00,4.007754e+00
6.379630e-01,6.006370e-01,3,3,3.355187e+00,3.355188e+00
6.627290e-01,5.804440e-01,3,3,2.899145e+00,2.899145e+00
6.576180e-01,5.811250e-01,3,3,2.420975e+00,2.420975e+00
6.583470e-01,5.928740e-01,3,3,2.493124e+00,2.493124e+00
6.501560e-01,5.994070e-01,3,3,2.563995e+00,2.564028e+00
6.370200e-01,6.055800e-01,3,3,4.240153e+00,4.240476e+00
6.444980e-01,5.941360e-01,3,3,5.464357e+00,5.464394e+00
6.579430e-01,5.806760e-01,3,3,3.872452e+00,3.872456e+00
6.634910e-01,5.753490e-01,3,3,4.043453e+00,4.043453e+00
6.625360e-01,6.054150e-01,3,3,3.799371e+00,3.799372e+00
6.327720e-01,6.070800e-01,3,3,3.164432e+00,3.164433e+00
6.322470e-01,6.051680e-01,3,3,2.552237e+00,2.552237e+00
6.634800e-01,5.749340e-01,3,3,2.078591e+00,2.078591e+00
6.629990e-01,5.800980e-01,3,3,2.419841e+00,2.419842e+00
6.822250e-01,6.054830e-01,3,3,3.821118e+00,3.821143e+00
6.334750e-01,5.988780e-01,3,3,2.934193e+00,2.934368e+00
6.560560e-01,5.918690e-01,3,3,2.273885e+00,2.274699e+00
6.555460e-01,5.965300e-01,3,3,2.587278e+00,2.587388e+00
6.512600e-01,5.973870e-01,3,3,2.790149e+00,2.790153e+00
6.509280e-01,5.962610e-01,3,3,2.661233e+00,2.661233e+00
6.566470e-01,5.923730e-01,3,3,4.012920e+00,4.012919e+00
6.562260e-01,5.983000e-01,3,3,4.452076e+00,4.452075e+00
6.513690e-01,5.980140e-01,3,3,3.397780e+00,3.397780e+00
6.566220e-01,5.925770e-01,3,3,3.139971e+00,3.139971e+00
6.572100e-01,5.921650e-01,3,3,2.791529e+00,2.791529e+00
6.553810e-01,5.979500e-01,3,3,2.574294e+00,2.574294e+00
6.510880e-01,5.973270e-01,3,3,2.153891e+00,2.153891e+00
6.555940e-01,5.922210e-01,3,3,2.160711e+00,2.160711e+00
6.557360e-01,5.915060e-01,3,3,2.448512e+00,2.448512e+00
6.558100e-01,5.969320e-01,3,3,2.373124e+00,2.373124e+00
6.508580e-01,5.971150e-01,3,3,1.678472e+00,1.678473e+00
6.552800e-01,5.916700e-01,3,3,2.060484e+00,2.060483e+00
6.553500e-01,5.914480e-01,3,3,1.545547e+00,1.545547e+00
6.549510e-01,5.966160e-01,3,3,1.126233e+00,1.126233e+00
6.510880e-01,5.969830e-01,3,3,1.081503e+00,1.081503e+00
6.565660e-01,5.917300e-01,3,3,1.102060e+00,1.102060e+00
6.564430e-01,5.916120e-01,3,3,1.000719e+00,1.000719e+00
6.563310e-01,5.978490e-01,3,3,6.802002e-01,6.802003e-01
6.494810e-01,5.971920e-01,3,3,6.172024e-01,6.172021e-01
6.548780e-01,5.915060e-01,3,3,3.771848e-01,3.771847e-01
6.558750e-01,5.909980e-01,3,3,2.035972e-01,2.035972e-01
6.539040e-01,5.962120e-01,3,3,2.696067e-01,2.696066e-01
6.502520e-01,5.967590e-01,3,3,9.734717e-02,9.734717e-02
6.557950e-01,5.912100e-01,3,3,1.157416e-01,1.157415e-01
6.548650e-01,5.916950e-01,3,3,1.056701e-01,1.056700e-01
6.541250e-01,5.967200e-01,3,3,1.518205e-01,1.518205e-01
6.490480e-01,5.967830e-01,3,3,2.516962e-01,2.516961e-01
6.542580e-01,5.908880e-01,3,3,1.247978e-01,1.247978e-01
6.538870e-01,5.918560e-01,3,3,1.766053e-01,1.766053e-01
6.502790e-01,5.978010e-01,3,3,7.183613e-01,7.183610e-01
6.502070e-01,5.963220e-01,3,3,1.176681e+00,1.176681e+00
6.552250e-01,5.921300e-01,3,3,7.664723e-01,7.664723e-01
6.569490e-01,5.970460e-01,3,3,8.859801e-01,8.859800e-01
6.509580e-01,5.973510e-01,3,3,9.128398e-01,9.128397e-01
6.504220e-01,5.961110e-01,3,3,7.834671e-01,7.834671e-01
6.555020e-01,5.914860e-01,3,3,8.097785e-01,8.097785e-01
6.560950e-01,5.971580e-01,3,3,6.822785e-01,6.822785e-01
6.514750e-01,5.966650e-01,3,3,6.358156e-01,6.358156e-01
6.501910e-01,5.962600e-01,3,3,4.958740e-01,4.958740e-01
6.572450e-01,5.917780e-01,3,3,4.719065e-01,4.719064e-01
6.565190e-01,5.966440e-01,3,3,4.365512e-01,4.365512e-01
6.512270e-01,5.970670e-01,3,3,4.431653e-01,4.431652e-01
6.497480e-01,5.966330e-01,3,3,9.460382e-01,9.460378e-01
6.565600e-01,5.916690e-01,3,3,4.441405e-01,4.441407e-01
6.542160e-01,5.973330e-01,3,3,2.118729e-01,2.118729e-01
6.495190e-01,5.967720e-01,3,3,3.983891e-01,3.983890e-01
6.503710e-01,5.931700e-01,3,3,6.620872e-01,6.620870e-01
6.561620e-01,5.917910e-01,3,3,1.998669e-01,1.998669e-01
6.553980e-01,5.959880e-01,3,3,1.985014e-01,1.985013e-01
6.498370e-01,5.970460e-01,3,3,2.598870e-01,2.598870e-01
6.540210e-01,5.919290e-01,3,3,9.085177e-01,9.085171e-01
6.556270e-01,5.918670e-01,3,3,1.285135e+00,1.285135e+00
6.568750e-01,5.969070e-01,3,3,5.858233e-01,5.858233e-01
6.511590e-01,5.974910e-01,3,3,6.712887e-01,6.712886e-01
6.558230e-01,5.926930e-01,3,3,7.326628e-01,7.326627e-01
6.561270e-01,5.914550e-01,3,3,7.439725e-01,7.439725e-01
6.556280e-01,5.969630e-01,3,3,5.838812e-01,5.838812e-01
6.500190e-01,5.983440e-01,3,3,7.570284e-01,7.570283e-01
6.549460e-01,5.924210e-01,3,3,1.142781e+00,1.142780e+00
6.565190e-01,5.917150e-01,3,3,9.245189e-01,9.245189e-01
6.553500e-01,5.958080e-01,3,3,1.109073e+00,1.109073e+00
6.504580e-01,5.974010e-01,3,3,1.011087e+00,1.011087e+00
6.565850e-01,5.913910e-01,3,3,1.688991e+00,1.688990e+00
6.554230e-01,5.919120e-01,3,3,1.364450e+00,1.364450e+00
6.551460e-01,5.974010e-01,3,3,7.318337e-01,7.318338e-01
6.496200e-01,5.979970e-01,3,3,6.455981e-01,6.455981e-01
6.559030e-01,5.921390e-01,3,3,1.003815e+00,1.003814e+00
6.556400e-01,5.925270e-01,3,3,7.614976e-01,7.614975e-01
6.559670e-01,5.971480e-01,3,3,6.155413e-01,6.155413e-01
6.510560e-01,5.974440e-01,3,3,7.490965e-01,7.490964e-01
6.563550e-01,5.917220e-01,3,3,7.318966e-01,7.318965e-01
6.564660e-01,5.915220e-01,3,3,4.291018e-01,4.291018e-01
6.555990e-01,5.962150e-01,3,3,4.886706e-01,4.886705e-01
6.505120e-01,5.967270e-01,3,3,6.435612e-01,6.435611e-01
6.557790e-01,5.907520e-01,3,3,6.977888e-01,6.977887e-01
6.561170e-01,5.966850e-01,3,3,8.178721e-01,8.178720e-01
6.507420e-01,5.974310e-01,3,3,7.039713e-01,7.039712e-01
6.511740e-01,5.957680e-01,3,3,5.452308e-01,5.452307e-01
6.559600e-01,5.923050e-01,3,3,1.202662e+00,1.202662e+00
6.556050e-01,5.965340e-01,3,3,1.106225e+00,1.106225e+00
6.507530e-01,5.975830e-01,3,3,1.122165e+00,1.122165e+00
6.504640e-01,5.970960e-01,3,3,4.192449e-01,4.192450e-01
6.558100e-01,5.909540e-01,3,3,6.711254e-01,6.711251e-01
6.555710e-01,5.974070e-01,3,3,5.381702e-01,5.381700e-01
6.496650e-01,5.971120e-01,3,3,4.783427e-01,4.783427e-01
6.501990e-01,5.968430e-01,3,3,6.008474e-01,6.008472e-01
6.557910e-01,5.923440e-01,3,3,8.331905e-01,8.331903e-01
6.547060e-01,5.970890e-01,3,3,5.822273e-01,5.822274e-01
6.501830e-01,5.983810e-01,3,3,3.358555e-01,3.358555e-01
6.506850e-01,5.965230e-01,3,3,4.123832e-01,4.123831e-01
6.556590e-01,5.918320e-01,3,3,5.218607e-01,5.218606e-01
6.560540e-01,5.973990e-01,3,3,4.215512e-01,4.215511e-01
6.507750e-01,5.981660e-01,3,3,4.767962e-01,4.767961e-01
6.551670e-01,5.927340e-01,3,3,5.244626e-01,5.244624e-01
6.551440e-01,5.919000e-01,3,3,2.213160e-01,2.213160e-01
6.557860e-01,5.967880e-01,3,3,1.522013e-01,1.522013e-01
6.505470e-01,5.965020e-01,3,3,2.198736e-01,2.198735e-01
6.556280e-01,5.922650e-01,3,3,2.294317e-01,2.294317e-01
6.540540e-01,5.914490e-01,3,3,7.807508e-01,7.807506e-01
6.552490e-01,5.973940e-01,3,3,7.724206e-01,7.724206e-01
6.504260e-01,5.972540e-01,3,3,1.100345e+00,1.100344e+00
6.558110e-01,5.926900e-01,3,3,9.912373e-01,9.912373e-01
6.561540e-01,5.907960e-01,3,3,9.592033e-01,9.592032e-01
6.548530e-01,5.964650e-01,3,3,7.497228e-01,7.497227e-01
6.503000e-01,5.968830e-01,3,3,7.424420e-01,7.424419e-01
6.557240e-01,5.914540e-01,3,3,4.483128e-01,4.483128e-01
6.557370e-01,5.914630e-01,3,3,4.591315e-01,4.591315e-01
6.550600e-01,5.967800e-01,3,3,2.366147e-01,2.366147e-01
6.506150e-01,5.970120e-01,3,3,2.513348e-01,2.513348e-01
6.555480e-01,5.918710e-01,3,3,1.172232e+00,1.172232e+00
6.558110e-01,5.919030e-01,3,3,2.539354e+00,2.539353e+00
6.561190e-01,5.964080e-01,3,3,2.256593e+00,2.256593e+00
6.508450e-01,5.973020e-01,3,3,2.035703e+00,2.035703e+00
6.549910e-01,5.918250e-01,3,3,1.792538e+00,1.792538e+00
6.561420e-01,5.914160e-01,3,3,1.909198e+00,1.909198e+00
6.550630e-01,5.976580e-01,3,3,1.396829e+00,1.396829e+00
6.510960e-01,5.966690e-01,3,3,1.340609e+00,1.340609e+00
6.557570e-01,5.917830e-01,3,3,7.969242e-01,7.969243e-01

