4.523180e-01,4.005760e-01,2,2,0.000000e+00,0.000000e+00
6.459340e-01,5.933680e-01,3,3,5.812797e-02,5.812796e-02
6.467330e-01,5.917580e-01,3,3,2.060816e-01,2.060816e-01
6.535730e-01,5.846840e-01,3,3,1.405413e-01,1.405413e-01
6.525540e-01,5.856760e-01,3,3,2.582692e-01,2.582691e-01
6.473550e-01,5.915770e-01,3,3,2.818608e-01,2.818608e-01
6.465490e-01,5.903220e-01,3,3,4.713829e-01,4.713826e-01
6.735520e-01,5.853340e-01,3,3,6.231962e-01,6.231961e-01
6.541570e-01,5.900370e-01,3,3,9.500960e-01,9.500958e-01
6.478940e-01,5.917910e-01,3,3,7.704431e-01,7.704431e-01
6.478510e-01,5.897080e-01,3,3,8.191877e-01,8.191874e-01
6.532370e-01,5.857250e-01,3,3,8.327824e-01,8.327823e-01
6.547120e-01,5.854050e-01,3,3,2.888945e-01,2.888946e-01
6.527270e-01,5.903650e-01,3,3,2.500402e-01,2.500402e-01
6.471950e-01,5.907710e-01,3,3,5.318928e-01,5.318925e-01
6.523660e-01,5.861990e-01,3,3,1.439834e+00,1.439833e+00
6.586030e-01,5.862790e-01,3,3,1.458096e+00,1.458096e+00
6.535300e-01,5.919330e-01,3,3,1.529896e+00,1.529896e+00
6.474040e-01,5.935970e-01,3,3,2.414412e+00,2.414411e+00
6.532830e-01,5.863240e-01,3,3,1.877509e+00,1.877509e+00
6.537050e-01,5.860050e-01,3,3,1.840562e+00,1.840562e+00
6.538680e-01,5.905360e-01,3,3,1.627181e+00,1.627181e+00
6.480660e-01,5.906810e-01,3,3,1.554916e+00,1.554916e+00
6.533820e-01,5.856850e-01,3,3,1.263174e+00,1.263174e+00
6.528010e-01,5.854770e-01,3,3,1.306173e+00,1.306173e+00
6.522020e-01,5.912740e-01,3,3,1.073409e+00,1.073409e+00
6.479490e-01,5.906700e-01,3,3,1.082073e+00,1.082073e+00
6.528690e-01,5.851210e-01,3,3,2.005648e+00,2.005647e+00
6.535410e-01,5.854320e-01,3,3,7.912267e-01,7.912270e-01
6.533010e-01,5.901870e-01,3,3,8.084646e-01,8.084645e-01
6.478120e-01,5.905030e-01,3,3,4.894201e-01,4.894201e-01
6.524030e-01,5.857690e-01,3,3,5.844694e-01,5.844692e-01
6.520640e-01,5.848120e-01,3,3,3.518803e-01,3.518803e-01
6.523170e-01,5.918340e-01,3,3,7.120366e-01,7.120363e-01
6.471850e-01,5.916960e-01,3,3,3.073660e-01,3.073660e-01
6.524880e-01,5.857930e-01,3,3,2.936263e-01,2.936263e-01
6.535150e-01,5.853800e-01,3,3,7.884940e-01,7.884935e-01
6.540340e-01,5.920730e-01,3,3,4.510830e-01,4.510830e-01
6.461150e-01,5.916100e-01,3,3,3.491744e-01,3.491744e-01
6.516370e-01,5.856930e-01,3,3,3.140876e-01,3.140876e-01
6.521850e-01,5.855280e-01,3,3,2.392209e-01,2.392208e-01
6.524420e-01,5.920350e-01,3,3,2.182052e-01,2.182051e-01
6.464040e-01,5.905800e-01,3,3,2.810299e-01,2.810299e-01
6.518940e-01,5.855780e-01,3,3,4.060967e-01,4.060966e-01
6.528790e-01,5.854750e-01,3,3,5.974156e-01,5.974154e-01
6.527700e-01,5.911250e-01,3,3,1.068579e+00,1.068578e+00
6.472610e-01,5.913860e-01,3,3,1.459127e+00,1.459127e+00
6.522760e-01,5.857700e-01,3,3,1.153547e+00,1.153547e+00
6.521170e-01,5.852530e-01,3,3,2.265070e+00,2.265070e+00
6.521220e-01,5.909460e-01,3,3,3.367206e+00,3.367204e+00
6.476970e-01,5.912110e-01,3,3,2.355103e+00,2.355103e+00
6.529000e-01,5.865680e-01,3,3,2.304053e+00,2.304053e+00
6.537880e-01,5.857590e-01,3,3,2.459594e+00,2.459593e+00
6.553400e-01,5.908180e-01,3,3,2.009377e+00,2.009377e+00
6.482570e-01,5.910820e-01,3,3,1.845804e+00,1.845804e+00
6.521030e-01,5.859630e-01,3,3,1.554130e+00,1.554130e+00
6.554020e-01,5.852800e-01,3,3,9.284523e-01,9.284525e-01
6.527210e-01,5.905170e-01,3,3,8.359795e-01,8.359795e-01
6.472180e-01,5.919810e-01,3,3,3.332990e-01,3.332991e-01
6.477940e-01,5.865710e-01,3,3,2.626358e-01,2.626358e-01
6.531860e-01,5.847390e-01,3,3,1.408491e-01,1.408490e-01
6.514190e-01,5.900750e-01,3,3,3.135452e-01,3.135451e-01
6.463010e-01,5.909750e-01,3,3,2.096927e-01,2.096927e-01
6.467850e-01,5.907510e-01,3,3,3.031773e-01,3.031772e-01
6.515460e-01,5.851320e-01,3,3,3.756339e-01,3.756338e-01
6.523870e-01,5.916990e-01,3,3,3.228724e-01,3.228725e-01
6.466710e-01,5.916620e-01,3,3,6.603498e-01,6.603496e-01
6.470780e-01,5.907650e-01,3,3,4.364016e-01,4.364016e-01
6.513490e-01,5.853200e-01,3,3,4.896384e-01,4.896383e-01
6.535230e-01,5.918270e-01,3,3,5.244260e-01,5.244259e-01
6.471260e-01,5.922110e-01,3,3,6.566503e-01,6.566502e-01
6.475720e-01,5.903120e-01,3,3,6.030316e-01,6.030315e-01
6.522960e-01,5.852880e-01,3,3,1.037773e+00,1.037772e+00
6.551340e-01,5.913310e-01,3,3,2.000683e+00,2.000682e+00
6.472870e-01,5.906760e-01,3,3,2.847809e+00,2.847808e+00
6.470780e-01,5.906450e-01,3,3,3.032588e+00,3.032588e+00
6.529370e-01,5.854570e-01,3,3,2.274517e+00,2.274517e+00
6.529160e-01,5.905360e-01,3,3,2.852365e+00,2.852364e+00
6.484570e-01,5.912640e-01,3,3,1.628833e+00,1.628833e+00
6.470520e-01,5.901780e-01,3,3,1.329053e+00,1.329053e+00
6.527770e-01,5.860670e-01,3,3,1.211133e+00,1.211133e+00
6.524030e-01,5.896010e-01,3,3,9.335812e-01,9.335812e-01
6.480270e-01,5.913210e-01,3,3,9.370540e-01,9.370538e-01
6.479660e-01,5.904710e-01,3,3,4.514515e-01,4.514513e-01
6.520740e-01,5.854780e-01,3,3,4.398886e-01,4.398885e-01
6.530570e-01,5.861510e-01,3,3,4.216745e-01,4.216745e-01
6.526180e-01,5.910540e-01,3,3,4.467419e-01,4.467419e-01
6.475540e-01,5.909190e-01,3,3,4.068527e-01,4.068526e-01
6.526870e-01,5.853110e-01,3,3,3.491200e-01,3.491200e-01
6.536100e-01,5.856530e-01,3,3,9.257305e-01,9.257302e-01
6.514910e-01,5.915810e-01,3,3,1.780645e+00,1.780644e+00
6.470150e-01,5.912940e-01,3,3,1.426766e+00,1.426766e+00
6.524150e-01,5.855690e-01,3,3,9.062391e-01,9.062392e-01
6.524060e-01,5.858710e-01,3,3,7.971058e-01,7.971058e-01
6.517730e-01,5.899460e-01,3,3,7.720317e-01,7.720314e-01
6.478820e-01,5.911370e-01,3,3,9.600239e-01,9.600238e-01
6.518130e-01,5.852190e-01,3,3,2.311476e+00,2.311476e+00
6.533820e-01,5.855690e-01,3,3,1.749278e+00,1.749278e+00
6.523330e-01,5.910270e-01,3,3,1.076465e+00,1.076466e+00
6.465920e-01,5.905190e-01,3,3,9.773025e-01,9.773022e-01
6.525680e-01,5.852620e-01,3,3,9.151972e-01,9.151971e-01
6.525430e-01,5.853170e-01,3,3,9.354084e-01,9.354080e-01
6.515570e-01,5.911450e-01,3,3,2.202484e+00,2.202483e+00
6.473060e-01,5.900110e-01,3,3,2.841080e+00,2.841079e+00
6.522950e-01,5.854020e-01,3,3,3.557768e+00,3.557767e+00
6.531070e-01,5.857210e-01,3,3,3.660317e+00,3.660316e+00
6.528800e-01,5.903490e-01,3,3,2.738023e+00,2.738024e+00
6.480610e-01,5.913370e-01,3,3,2.168857e+00,2.168857e+00
6.516010e-01,5.862300e-01,3,3,2.062068e+00,2.062068e+00
6.543480e-01,5.860390e-01,3,3,1.318565e+00,1.318565e+00
6.534580e-01,5.911410e-01,3,3,2.375286e+00,2.375285e+00
6.475980e-01,5.910580e-01,3,3,2.300606e+00,2.300605e+00
6.517500e-01,5.858120e-01,3,3,1.510303e+00,1.510303e+00
6.516830e-01,5.854210e-01,3,3,2.179315e+00,2.179315e+00
6.529450e-01,5.908660e-01,3,3,2.302638e+00,2.302638e+00
6.475210e-01,5.915100e-01,3,3,1.156521e+00,1.156521e+00
6.522190e-01,5.863180e-01,3,3,8.679784e-01,8.679784e-01
6.540580e-01,5.855040e-01,3,3,7.889931e-01,7.889930e-01
6.529080e-01,5.910220e-01,3,3,8.352565e-01,8.352562e-01
6.483650e-01,5.909980e-01,3,3,9.570611e-01,9.570610e-01
6.510610e-01,5.860790e-01,3,3,8.118906e-01,8.118906e-01
6.542780e-01,5.854520e-01,3,3,8.403699e-01,8.403697e-01
6.526570e-01,5.905130e-01,3,3,8.496717e-01,8.496714e-01
6.477990e-01,5.909050e-01,3,3,3.405985e-01,3.405984e-01
6.472350e-01,5.865060e-01,3,3,6.049503e-01,6.049502e-01
6.530710e-01,5.858690e-01,3,3,7.398647e-01,7.398646e-01
6.523390e-01,5.908390e-01,3,3,3.377733e-01,3.377733e-01
6.470200e-01,5.903360e-01,3,3,3.622945e-01,3.622944e-01
6.467550e-01,5.902940e-01,3,3,3.970028e-01,3.970027e-01
6.536040e-01,5.847760e-01,3,3,6.220922e-01,6.220920e-01
6.521430e-01,5.904490e-01,3,3,4.095388e-01,4.095389e-01
6.469950e-01,5.912270e-01,3,3,5.694457e-01,5.694456e-01
6.473960e-01,5.909550e-01,3,3,5.710132e-01,5.710132e-01
6.512690e-01,5.853520e-01,3,3,5.602069e-01,5.602068e-01
6.522050e-01,5.913320e-01,3,3,2.795436e-01,2.795437e-01
6.462900e-01,5.911770e-01,3,3,2.138608e-01,2.138608e-01
6.467650e-01,5.908880e-01,3,3,3.526403e-01,3.526402e-01
6.528350e-01,5.860020e-01,3,3,1.877762e-01,1.877762e-01
6.511750e-01,5.903070e-01,3,3,1.197130e-01,1.197129e-01
6.465660e-01,5.904580e-01,3,3,2.402200e-01,2.402199e-01
6.467770e-01,5.910470e-01,3,3,3.841747e-01,3.841745e-01
6.510910e-01,5.855240e-01,3,3,5.508914e-01,5.508913e-01
6.523320e-01,5.899600e-01,3,3,1.976280e+00,1.976280e+00
6.479940e-01,5.911890e-01,3,3,1.065974e+00,1.065974e+00
6.481550e-01,5.910910e-01,3,3,1.167923e+00,1.167923e+00
6.528060e-01,5.857080e-01,3,3,1.055661e+00,1.055661e+00
6.527480e-01,5.852740e-01,3,3,7.445016e-01,7.445017e-01
6.473080e-01,5.898930e-01,3,3,1.139975e+00,1.139975e+00
6.471330e-01,5.908690e-01,3,3,1.869034e+00,1.869033e+00
6.524980e-01,5.856730e-01,3,3,3.494250e+00,3.494249e+00
6.528760e-01,5.850470e-01,3,3,1.931102e+00,1.931102e+00
6.526730e-01,5.909870e-01,3,3,1.405634e+00,1.405634e+00
6.479680e-01,5.910250e-01,3,3,1.321142e+00,1.321142e+00
6.524330e-01,5.849560e-01,3,3,1.049431e+00,1.049431e+00
6.535510e-01,5.864990e-01,3,3,1.440029e+00,1.440029e+00
6.527580e-01,5.912310e-01,3,3,6.915922e-01,6.915922e-01
6.468130e-01,5.902380e-01,3,3,8.606945e-01,8.606944e-01
6.524250e-01,5.860620e-01,3,3,1.034005e+00,1.034005e+00
6.528890e-01,5.853120e-01,3,3,8.440538e-01,8.440538e-01
6.523810e-01,5.895930e-01,3,3,3.943996e-01,3.943996e-01
6.469890e-01,5.905050e-01,3,3,6.198078e-01,6.198076e-01
6.534360e-01,5.852600e-01,3,3,6.212008e-01,6.212007e-01
6.524270e-01,5.859080e-01,3,3,4.990046e-01,4.990045e-01
6.519470e-01,5.900110e-01,3,3,5.766789e-01,5.766788e-01
6.476400e-01,5.907650e-01,3,3,4.892923e-01,4.892923e-01
6.525040e-01,5.855490e-01,3,3,4.522987e-01,4.522987e-01
6.521370e-01,5.855400e-01,3,3,4.728381e-01,4.728380e-01
6.521180e-01,5.909340e-01,3,3,2.513801e-01,2.513801e-01
6.469970e-01,5.899890e-01,3,3,5.201369e-01,5.201367e-01
6.516000e-01,5.849680e-01,3,3,7.759205e-01,7.759202e-01
6.519230e-01,5.862580e-01,3,3,9.329086e-01,9.329085e-01
6.519510e-01,5.915690e-01,3,3,7.246989e-01,7.246988e-01
6.471060e-01,5.905760e-01,3,3,9.543504e-01,9.543503e-01
6.520820e-01,5.848910e-01,3,3,8.304007e-01,8.304007e-01
6.524480e-01,5.852860e-01,3,3,9.109845e-01,9.109844e-01
6.507060e-01,5.906010e-01,3,3,8.103107e-01,8.103107e-01
6.480070e-01,5.910520e-01,3,3,4.925475e-01,4.925474e-01
6.521140e-01,5.865490e-01,3,3,7.511803e-01,7.511802e-01
6.520740e-01,5.860190e-01,3,3,1.002053e+00,1.002053e+00
6.529350e-01,5.912900e-01,3,3,1.944265e+00,1.944265e+00
6.471980e-01,5.908250e-01,3,3,1.173230e+00,1.173230e+00
6.521070e-01,5.866700e-01,3,3,1.367282e+00,1.367282e+00
6.523700e-01,5.852380e-01,3,3,9.855257e-01,9.855258e-01
6.517640e-01,5.916110e-01,3,3,8.173747e-01,8.173747e-01
6.478390e-01,5.910680e-01,3,3,9.440868e-01,9.440866e-01
6.478060e-01,5.901040e-01,3,3,1.013854e+00,1.013853e+00
6.532100e-01,5.851950e-01,3,3,1.055176e+00,1.055176e+00
6.522210e-01,5.900940e-01,3,3,1.342405e+00,1.342405e+00
6.480930e-01,5.915100e-01,3,3,1.357682e+00,1.357682e+00
6.474850e-01,5.913970e-01,3,3,1.531942e+00,1.531942e+00
6.518680e-01,5.856990e-01,3,3,1.253725e+00,1.253725e+00
6.521410e-01,5.907770e-01,3,3,1.743051e+00,1.743051e+00
6.477760e-01,5.917580e-01,3,3,6.714134e-01,6.714137e-01
6.469310e-01,5.903890e-01,3,3,6.817571e-01,6.817571e-01
6.516430e-01,5.847810e-01,3,3,4.629688e-01,4.629688e-01
6.514850e-01,5.910580e-01,3,3,2.776988e-01,2.776988e-01
6.473670e-01,5.911530e-01,3,3,8.296979e-02,8.296979e-02
6.453570e-01,5.897670e-01,3,3,1.347333e-01,1.347332e-01
6.518560e-01,5.853790e-01,3,3,1.329026e-01,1.329025e-01
6.515890e-01,5.906420e-01,3,3,9.594854e-02,9.594853e-02
6.463980e-01,5.910920e-01,3,3,6.276851e-01,6.276849e-01
6.474790e-01,5.904740e-01,3,3,1.197996e+00,1.197996e+00
6.526570e-01,5.856110e-01,3,3,5.243093e-01,5.243094e-01
6.521440e-01,5.897110e-01,3,3,5.210761e-01,5.210761e-01
6.465300e-01,5.911700e-01,3,3,4.831178e-01,4.831178e-01
6.467900e-01,5.902720e-01,3,3,4.658970e-01,4.658970e-01
6.529440e-01,5.857230e-01,3,3,7.032189e-01,7.032187e-01
6.530490e-01,5.857450e-01,3,3,4.165460e-01,4.165461e-01
6.521990e-01,5.914180e-01,3,3,5.102598e-01,5.102598e-01
6.478640e-01,5.908600e-01,3,3,7.463253e-01,7.463252e-01
6.534790e-01,5.854150e-01,3,3,2.378787e-01,2.378787e-01
6.526600e-01,5.855080e-01,3,3,4.710340e-01,4.710339e-01
6.525230e-01,5.974260e-01,3,3,3.622362e-01,3.622361e-01
6.474170e-01,5.909740e-01,3,3,2.900845e-01,2.900845e-01
6.520740e-01,5.850560e-01,3,3,7.445876e-01,7.445874e-01
6.528420e-01,5.861080e-01,3,3,7.038842e-01,7.038841e-01
6.522360e-01,5.917260e-01,3,3,5.360245e-01,5.360244e-01
6.474380e-01,5.907060e-01,3,3,5.391573e-01,5.391571e-01
6.518600e-01,5.855880e-01,3,3,7.408822e-01,7.408820e-01
6.532860e-01,5.856930e-01,3,3,4.496427e-01,4.496426e-01
6.521870e-01,5.911050e-01,3,3,3.885981e-01,3.885981e-01
6.474890e-01,5.908840e-01,3,3,3.333705e-01,3.333705e-01
6.523870e-01,5.855150e-01,3,3,4.160385e-01,4.160384e-01
6.525900e-01,5.858280e-01,3,3,5.367247e-01,5.367245e-01
6.527380e-01,5.920450e-01,3,3,8.416445e-01,8.416443e-01
6.467230e-01,5.905910e-01,3,3,1.226453e+00,1.226452e+00
6.533740e-01,5.857690e-01,3,3,1.031106e+00,1.031106e+00
6.529490e-01,5.861060e-01,3,3,8.613463e-01,8.613463e-01
6.526210e-01,5.916220e-01,3,3,7.773315e-01,7.773313e-01
6.478700e-01,5.905940e-01,3,3,4.078054e-01,4.078055e-01
6.534250e-01,5.853420e-01,3,3,3.756853e-01,3.756851e-01
6.519840e-01,5.851400e-01,3,3,3.049512e-01,3.049512e-01
6.521050e-01,5.909640e-01,3,3,4.214468e-01,4.214467e-01
6.483630e-01,5.912170e-01,3,3,2.596296e-01,2.596296e-01
6.526510e-01,5.856340e-01,3,3,2.790615e-01,2.790614e-01
6.518660e-01,5.865220e-01,3,3,1.533458e+00,1.533457e+00
6.535090e-01,5.912220e-01,3,3,2.299447e+00,2.299446e+00
6.474470e-01,6.054540e-01,3,3,2.043005e+00,2.043005e+00
6.540870e-01,5.861720e-01,3,3,2.417229e+00,2.417229e+00
6.535580e-01,5.852010e-01,3,3,2.467576e+00,2.467576e+00
6.533500e-01,5.911970e-01,3,3,2.597103e+00,2.597103e+00
6.478170e-01,5.907620e-01,3,3,3.197243e+00,3.197242e+00
6.550810e-01,5.856510e-01,3,3,2.458498e+00,2.458498e+00
6.530270e-01,5.851940e-01,3,3,2.193952e+00,2.193952e+00
6.531690e-01,5.910330e-01,3,3,2.002596e+00,2.002595e+00
6.475470e-01,5.910950e-01,3,3,1.845212e+00,1.845211e+00
6.530200e-01,5.848860e-01,3,3,1.817223e+00,1.817223e+00
6.523320e-01,5.849720e-01,3,3,7.386333e-01,7.386338e-01
6.519460e-01,5.905960e-01,3,3,1.875264e+00,1.875346e+00
6.476950e-01,5.913400e-01,3,3,1.091707e+00,1.091766e+00
6.515030e-01,5.860840e-01,3,3,6.048126e-01,6.048130e-01
6.521970e-01,5.856760e-01,3,3,1.085745e+00,1.085744e+00
6.525510e-01,5.918380e-01,3,3,6.700187e-01,6.700186e-01
6.479170e-01,5.908160e-01,3,3,1.342196e+00,1.342195e+00
6.521570e-01,5.863040e-01,3,3,2.444938e+00,2.444938e+00
6.526590e-01,5.852060e-01,3,3,2.134947e+00,2.134947e+00
6.515630e-01,5.923590e-01,3,3,3.272229e+00,3.272229e+00
6.474480e-01,5.910270e-01,3,3,2.839164e+00,2.839164e+00
6.471910e-01,5.911010e-01,3,3,2.533603e+00,2.533602e+00
6.522320e-01,5.847530e-01,3,3,2.857801e+00,2.857800e+00
6.535160e-01,5.915120e-01,3,3,2.255892e+00,2.255892e+00
6.475960e-01,5.909320e-01,3,3,1.913408e+00,1.913408e+00
6.475300e-01,5.929600e-01,3,3,1.585824e+00,1.585824e+00
6.538730e-01,5.861830e-01,3,3,1.335085e+00,1.335085e+00
6.524540e-01,5.936570e-01,3,3,1.457213e+00,1.457212e+00
6.475380e-01,5.902680e-01,3,3,1.201293e+00,1.201293e+00
6.475800e-01,5.906550e-01,3,3,1.542834e+00,1.542834e+00
6.533220e-01,5.856350e-01,3,3,8.863084e-01,8.863086e-01
6.525190e-01,5.912200e-01,3,3,6.889828e-01,6.889827e-01
6.464460e-01,5.917620e-01,3,3,4.300894e-01,4.300894e-01
6.474980e-01,5.908770e-01,3,3,3.981895e-01,3.981895e-01
6.535940e-01,5.851890e-01,3,3,4.351653e-01,4.351653e-01
6.525150e-01,5.901150e-01,3,3,3.148834e-01,3.148834e-01
6.475950e-01,5.915470e-01,3,3,4.842802e-01,4.842801e-01
6.470150e-01,5.920070e-01,3,3,4.125568e-01,4.125566e-01
6.519120e-01,5.857860e-01,3,3,5.147562e-01,5.147561e-01
6.531830e-01,5.912120e-01,3,3,8.635998e-01,8.635996e-01
6.472620e-01,5.921500e-01,3,3,1.736299e+00,1.736298e+00
6.479640e-01,5.900560e-01,3,3,3.171832e+00,3.171831e+00
6.536700e-01,5.857490e-01,3,3,2.228343e+00,2.228343e+00
6.542690e-01,5.910360e-01,3,3,2.006228e+00,2.006228e+00
6.479210e-01,5.910520e-01,3,3,1.749637e+00,1.749637e+00
6.481200e-01,5.910980e-01,3,3,1.644216e+00,1.644216e+00
6.521680e-01,5.850040e-01,3,3,1.414972e+00,1.414972e+00
6.522890e-01,5.850250e-01,3,3,2.322999e+00,2.322999e+00
6.512000e-01,5.905180e-01,3,3,1.340331e+00,1.340331e+00
6.470150e-01,5.908990e-01,3,3,7.462475e-01,7.462477e-01
6.515640e-01,5.849230e-01,3,3,8.197151e-01,8.197145e-01
6.514270e-01,5.842820e-01,3,3,4.231620e-01,4.231621e-01
6.511770e-01,5.909420e-01,3,3,2.447585e-01,2.447585e-01
6.459640e-01,5.902960e-01,3,3,2.665664e-01,2.665664e-01
6.516740e-01,5.851520e-01,3,3,2.610150e-01,2.610149e-01
6.511030e-01,5.860270e-01,3,3,5.566627e-01,5.566625e-01
6.526830e-01,5.904500e-01,3,3,2.383528e-01,2.383529e-01
6.461270e-01,5.912460e-01,3,3,1.106060e+00,1.106060e+00
6.537630e-01,5.857730e-01,3,3,2.229829e+00,2.229828e+00
6.875720e-01,5.861050e-01,3,3,1.744494e+00,1.744494e+00
6.527870e-01,5.906670e-01,3,3,1.490050e+00,1.490050e+00
6.471760e-01,5.913330e-01,3,3,1.294627e+00,1.294627e+00
6.514200e-01,5.851970e-01,3,3,1.283113e+00,1.283113e+00
6.532450e-01,5.855390e-01,3,3,9.104881e-01,9.104882e-01
6.517270e-01,5.913060e-01,3,3,9.048302e-01,9.048302e-01
6.468160e-01,5.907480e-01,3,3,1.387741e+00,1.387740e+00
6.533840e-01,5.849790e-01,3,3,2.354998e+00,2.354998e+00
6.522980e-01,5.854190e-01,3,3,1.643370e+00,1.643371e+00
6.525950e-01,5.910800e-01,3,3,7.141218e-01,7.141221e-01
6.474440e-01,5.912430e-01,3,3,6.234644e-01,6.234644e-01
6.536710e-01,5.851850e-01,3,3,9.564318e-01,9.564316e-01
6.527260e-01,5.853100e-01,3,3,1.357702e+00,1.357702e+00
6.522040e-01,5.916090e-01,3,3,1.986607e+00,1.986606e+00
6.482640e-01,5.910390e-01,3,3,3.262984e+00,3.262983e+00
6.531730e-01,5.858700e-01,3,3,3.157724e+00,3.157724e+00
6.525870e-01,5.856250e-01,3,3,2.783654e+00,2.783654e+00
6.529570e-01,5.906610e-01,3,3,3.019452e+00,3.019452e+00
6.481610e-01,5.912890e-01,3,3,2.492589e+00,2.492589e+00
6.531210e-01,5.862890e-01,3,3,2.159067e+00,2.159067e+00
6.532720e-01,5.860770e-01,3,3,2.315909e+00,2.315909e+00
6.526500e-01,5.908890e-01,3,3,2.125445e+00,2.125445e+00
6.475630e-01,5.905350e-01,3,3,2.141288e+00,2.141295e+00
6.529510e-01,5.855930e-01,3,3,1.402978e+00,1.402978e+00
6.533180e-01,5.857450e-01,3,3,1.099584e+00,1.099584e+00
6.522150e-01,5.910770e-01,3,3,1.296655e+00,1.296655e+00
6.481430e-01,5.901690e-01,3,3,1.557561e+00,1.557561e+00
6.519270e-01,5.854860e-01,3,3,1.828934e+00,1.828934e+00
6.527060e-01,5.860650e-01,3,3,2.215322e+00,2.215322e+00
6.517170e-01,5.905550e-01,3,3,4.013086e+00,4.013086e+00
6.464370e-01,5.927900e-01,3,3,5.155507e+00,5.155510e+00
6.527890e-01,5.852770e-01,3,3,4.539414e+00,4.539415e+00
6.523030e-01,5.854460e-01,3,3,4.494761e+00,4.494761e+00
6.518670e-01,5.907270e-01,3,3,3.581209e+00,3.581209e+00
6.480730e-01,5.915830e-01,3,3,3.192927e+00,3.192927e+00
6.475760e-01,5.864450e-01,3,3,2.916360e+00,2.916360e+00
6.532950e-01,5.852850e-01,3,3,2.621567e+00,2.621567e+00
6.517260e-01,5.911760e-01,3,3,2.325694e+00,2.325694e+00
6.474960e-01,5.908700e-01,3,3,1.621806e+00,1.621807e+00
6.476730e-01,5.910740e-01,3,3,9.788785e-01,9.788787e-01
6.521380e-01,5.853860e-01,3,3,4.957717e-01,4.957717e-01
6.510480e-01,5.902430e-01,3,3,4.150837e-01,4.150836e-01
6.468010e-01,5.906680e-01,3,3,2.700553e-01,2.700552e-01
6.472650e-01,5.906280e-01,3,3,2.893025e-01,2.893024e-01
6.519650e-01,5.853730e-01,3,3,2.632265e-01,2.632265e-01
6.520920e-01,5.904680e-01,3,3,4.077497e-01,4.077495e-01
6.468340e-01,5.906680e-01,3,3,3.342468e-01,3.342468e-01
6.462300e-01,5.906280e-01,3,3,3.078954e-01,3.078954e-01
6.520940e-01,5.850380e-01,3,3,4.643140e-01,4.643139e-01
6.516150e-01,5.897620e-01,3,3,4.210317e-01,4.210317e-01
6.461910e-01,5.907900e-01,3,3,6.173459e-01,6.173457e-01
6.467790e-01,5.903890e-01,3,3,6.293050e-01,6.293049e-01
6.529020e-01,5.857920e-01,3,3,7.170021e-01,7.170020e-01
6.524660e-01,5.897500e-01,3,3,1.426862e+00,1.426861e+00
6.473660e-01,5.903830e-01,3,3,1.362491e+00,1.362491e+00
6.472800e-01,5.893240e-01,3,3,1.064204e+00,1.064204e+00
6.527000e-01,5.851660e-01,3,3,1.154890e+00,1.154890e+00
6.515460e-01,5.850390e-01,3,3,1.444641e+00,1.444641e+00
6.522830e-01,5.913740e-01,3,3,6.148190e-01,6.148193e-01
6.457950e-01,5.903290e-01,3,3,1.159009e+00,1.159009e+00
6.510730e-01,5.852690e-01,3,3,2.263090e+00,2.263092e+00
6.520860e-01,5.858650e-01,3,3,2.944850e+00,2.944849e+00
6.530500e-01,5.911870e-01,3,3,2.973869e+00,2.973869e+00
6.483930e-01,5.917200e-01,3,3,4.151344e+00,4.151343e+00
6.534110e-01,5.862790e-01,3,3,3.435209e+00,3.435209e+00
6.534670e-01,5.854340e-01,3,3,4.007754e+00,4.007754e+00
6.526990e-01,5.901650e-01,3,3,3.355187e+00,3.355188e+00
6.474570e-01,5.902390e-01,3,3,2.899145e+00,2.899145e+00
6.520860e-01,5.858830e-01,3,3,2.420975e+00,2.420975e+00
6.525190e-01,5.853260e-01,3,3,2.493124e+00,2.493124e+00
6.535120e-01,5.905080e-01,3,3,2.563995e+00,2.564028e+00
6.477140e-01,5.901910e-01,3,3,4.240153e+00,4.240476e+00
6.522760e-01,5.859510e-01,3,3,5.464357e+00,5.464394e+00
6.517340e-01,5.855650e-01,3,3,3.872452e+00,3.872456e+00
6.534180e-01,5.904470e-01,3,3,4.043453e+00,4.043453e+00
6.473570e-01,5.907540e-01,3,3,3.799371e+00,3.799372e+00
6.524040e-01,5.856920e-01,3,3,3.164432e+00,3.164433e+00
6.529690e-01,5.854480e-01,3,3,2.552237e+00,2.552237e+00
6.522320e-01,5.909540e-01,3,3,2.078591e+00,2.078591e+00
6.475760e-01,5.899240e-01,3,3,2.419841e+00,2.419842e+00
6.519520e-01,5.851640e-01,3,3,3.821118e+00,3.821143e+00
6.519580e-01,5.847440e-01,3,3,2.934193e+00,2.934368e+00
6.514130e-01,5.900940e-01,3,3,2.273885e+00,2.274699e+00
6.465380e-01,5.906360e-01,3,3,2.587278e+00,2.587388e+00
6.514840e-01,5.848400e-01,3,3,2.790149e+00,2.790153e+00
6.523600e-01,5.854720e-01,3,3,2.661233e+00,2.661233e+00
6.526820e-01,5.912430e-01,3,3,4.012920e+00,4.012919e+00
6.484240e-01,5.913670e-01,3,3,4.452076e+00,4.452075e+00
6.529110e-01,5.861020e-01,3,3,3.397780e+00,3.397780e+00
6.529160e-01,5.859730e-01,3,3,3.139971e+00,3.139971e+00
6.516450e-01,5.916200e-01,3,3,2.791529e+00,2.791529e+00
6.481960e-01,5.910790e-01,3,3,2.574294e+00,2.574294e+00
6.518030e-01,5.863800e-01,3,3,2.153891e+00,2.153891e+00
6.524400e-01,5.854360e-01,3,3,2.160711e+00,2.160711e+00
6.520650e-01,5.901950e-01,3,3,2.448512e+00,2.448512e+00
6.467250e-01,5.915230e-01,3,3,2.373124e+00,2.373124e+00
6.473700e-01,5.909300e-01,3,3,1.678472e+00,1.678473e+00
6.515980e-01,5.854020e-01,3,3,2.060484e+00,2.060483e+00
6.520810e-01,5.905530e-01,3,3,1.545547e+00,1.545547e+00
6.470300e-01,5.907160e-01,3,3,1.126233e+00,1.126233e+00
6.467570e-01,5.908040e-01,3,3,1.081503e+00,1.081503e+00
6.519240e-01,5.845440e-01,3,3,1.102060e+00,1.102060e+00
6.528280e-01,5.911080e-01,3,3,1.000719e+00,1.000719e+00
6.471410e-01,5.907980e-01,3,3,6.802002e-01,6.802003e-01
6.468540e-01,5.911210e-01,3,3,6.172024e-01,6.172021e-01
6.515130e-01,5.858070e-01,3,3,3.771848e-01,3.771847e-01
6.508930e-01,5.900430e-01,3,3,2.035972e-01,2.035972e-01
6.453260e-01,5.903390e-01,3,3,2.696067e-01,2.696066e-01
6.467830e-01,5.903030e-01,3,3,9.734717e-02,9.734717e-02
6.517180e-01,5.842420e-01,3,3,1.157416e-01,1.157415e-01
6.517250e-01,5.898350e-01,3,3,1.056701e-01,1.056700e-01
6.461330e-01,5.913330e-01,3,3,1.518205e-01,1.518205e-01
6.450250e-01,5.902480e-01,3,3,2.516962e-01,2.516961e-01
6.516050e-01,5.851280e-01,3,3,1.247978e-01,1.247978e-01
6.523830e-01,5.849420e-01,3,3,1.766053e-01,1.766053e-01
6.515240e-01,5.908480e-01,3,3,7.183613e-01,7.183610e-01
6.467460e-01,5.909820e-01,3,3,1.176681e+00,1.176681e+00
6.529610e-01,5.851910e-01,3,3,7.664723e-01,7.664723e-01
6.521990e-01,5.858130e-01,3,3,8.859801e-01,8.859800e-01
6.519060e-01,5.917980e-01,3,3,9.128398e-01,9.128397e-01
6.470820e-01,5.915930e-01,3,3,7.834671e-01,7.834671e-01
6.531140e-01,5.850890e-01,3,3,8.097785e-01,8.097785e-01
6.521270e-01,5.859280e-01,3,3,6.822785e-01,6.822785e-01
6.541820e-01,5.909980e-01,3,3,6.358156e-01,6.358156e-01
6.478220e-01,5.914860e-01,3,3,4.958740e-01,4.958740e-01
6.536150e-01,5.854430e-01,3,3,4.719065e-01,4.719064e-01
6.532780e-01,5.853990e-01,3,3,4.365512e-01,4.365512e-01
6.515460e-01,5.907120e-01,3,3,4.431653e-01,4.431652e-01
6.471130e-01,5.909340e-01,3,3,9.460382e-01,9.460378e-01
6.535310e-01,5.855220e-01,3,3,4.441405e-01,4.441407e-01
6.529420e-01,5.854560e-01,3,3,2.118729e-01,2.118729e-01
6.518510e-01,5.907720e-01,3,3,3.983891e-01,3.983890e-01
6.466270e-01,5.917020e-01,3,3,6.620872e-01,6.620870e-01
6.545340e-01,5.858130e-01,3,3,1.998669e-01,1.998669e-01
6.520100e-01,5.857740e-01,3,3,1.985014e-01,1.985013e-01
6.510880e-01,5.914260e-01,3,3,2.598870e-01,2.598870e-01
6.468580e-01,5.914440e-01,3,3,9.085177e-01,9.085171e-01
6.530690e-01,5.856280e-01,3,3,1.285135e+00,1.285135e+00
6.516970e-01,5.847980e-01,3,3,5.858233e-01,5.858233e-01
6.519280e-01,5.904300e-01,3,3,6.712887e-01,6.712886e-01
6.472940e-01,5.924880e-01,3,3,7.326628e-01,7.326627e-01
6.517830e-01,5.854990e-01,3,3,7.439725e-01,7.439725e-01
6.521900e-01,5.854710e-01,3,3,5.838812e-01,5.838812e-01
6.521050e-01,5.903140e-01,3,3,7.570284e-01,7.570283e-01
6.463930e-01,5.911390e-01,3,3,1.142781e+00,1.142780e+00
6.524810e-01,5.857660e-01,3,3,9.245189e-01,9.245189e-01
6.528250e-01,5.852350e-01,3,3,1.109073e+00,1.109073e+00
6.525720e-01,5.910790e-01,3,3,1.011087e+00,1.011087e+00
6.478670e-01,5.922570e-01,3,3,1.688991e+00,1.688990e+00
6.520890e-01,5.853440e-01,3,3,1.364450e+00,1.364450e+00
6.525930e-01,5.852920e-01,3,3,7.318337e-01,7.318338e-01
6.518310e-01,5.906990e-01,3,3,6.455981e-01,6.455981e-01
6.469170e-01,5.907180e-01,3,3,1.003815e+00,1.003814e+00
6.465940e-01,5.903690e-01,3,3,7.614976e-01,7.614975e-01
6.524860e-01,5.858600e-01,3,3,6.155413e-01,6.155413e-01
6.522870e-01,5.915820e-01,3,3,7.490965e-01,7.490964e-01
6.464820e-01,5.919080e-01,3,3,7.318966e-01,7.318965e-01
6.480000e-01,5.894840e-01,3,3,4.291018e-01,4.291018e-01
6.530350e-01,5.857880e-01,3,3,4.886706e-01,4.886705e-01
6.522810e-01,5.906920e-01,3,3,6.435612e-01,6.435611e-01
6.472920e-01,5.914790e-01,3,3,6.977888e-01,6.977887e-01
6.472790e-01,5.912890e-01,3,3,8.178721e-01,8.178720e-01
6.524040e-01,5.853230e-01,3,3,7.039713e-01,7.039712e-01
6.523490e-01,5.922850e-01,3,3,5.452308e-01,5.452307e-01
6.473600e-01,5.915190e-01,3,3,1.202662e+00,1.202662e+00
6.472580e-01,5.907230e-01,3,3,1.106225e+00,1.106225e+00
6.527910e-01,5.858270e-01,3,3,1.122165e+00,1.122165e+00
6.526850e-01,5.904310e-01,3,3,4.192449e-01,4.192450e-01
6.474700e-01,5.912290e-01,3,3,6.711254e-01,6.711251e-01
6.477040e-01,5.910150e-01,3,3,5.381702e-01,5.381700e-01
6.522000e-01,5.850940e-01,3,3,4.783427e-01,4.783427e-01
6.526390e-01,5.904950e-01,3,3,6.008474e-01,6.008472e-01
6.472830e-01,5.910520e-01,3,3,8.331905e-01,8.331903e-01
6.471090e-01,5.899000e-01,3,3,5.822273e-01,5.822274e-01
6.526960e-01,5.860380e-01,3,3,3.358555e-01,3.358555e-01
6.530360e-01,5.847810e-01,3,3,4.123832e-01,4.123831e-01
6.523240e-01,5.904890e-01,3,3,5.218607e-01,5.218606e-01
6.473660e-01,5.916330e-01,3,3,4.215512e-01,4.215511e-01
6.521520e-01,5.851280e-01,3,3,4.767962e-01,4.767961e-01
6.513720e-01,5.854440e-01,3,3,5.244626e-01,5.244624e-01
6.516720e-01,5.915600e-01,3,3,2.213160e-01,2.213160e-01
6.466280e-01,5.914930e-01,3,3,1.522013e-01,1.522013e-01
6.521420e-01,5.849150e-01,3,3,2.198736e-01,2.198735e-01
6.513950e-01,5.850160e-01,3,3,2.294317e-01,2.294317e-01
6.525740e-01,5.914010e-01,3,3,7.807508e-01,7.807506e-01
6.466830e-01,5.902270e-01,3,3,7.724206e-01,7.724206e-01
6.514200e-01,5.850660e-01,3,3,1.100345e+00,1.100344e+00
6.529330e-01,5.855910e-01,3,3,9.912373e-01,9.912373e-01
6.516710e-01,5.912310e-01,3,3,9.592033e-01,9.592032e-01
6.478120e-01,5.907320e-01,3,3,7.497228e-01,7.497227e-01
6.515630e-01,5.859120e-01,3,3,7.424420e-01,7.424419e-01
6.526680e-01,5.854870e-01,3,3,4.483128e-01,4.483128e-01
6.519980e-01,5.905550e-01,3,3,4.591315e-01,4.591315e-01
6.471340e-01,5.914810e-01,3,3,2.366147e-01,2.366147e-01
6.524420e-01,5.858010e-01,3,3,2.513348e-01,2.513348e-01
6.518870e-01,5.848610e-01,3,3,1.172232e+00,1.172232e+00
6.515790e-01,5.910250e-01,3,3,2.539354e+00,2.539353e+00
6.476520e-01,5.904380e-01,3,3,2.256593e+00,2.256593e+00
6.535350e-01,5.857720e-01,3,3,2.035703e+00,2.035703e+00
6.524600e-01,5.851980e-01,3,3,1.792538e+00,1.792538e+00
6.533090e-01,5.915260e-01,3,3,1.909198e+00,1.909198e+00
6.476570e-01,5.921350e-01,3,3,1.396829e+00,1.396829e+00
6.522500e-01,5.859920e-01,3,3,1.340609e+00,1.340609e+00
6.527760e-01,5.848660e-01,3,3,7.969242e-01,7.969243e-01

