1.328918e+01,2.568960e+00,6,20
6.070343e+00,1.783848e+00,3,22
7.909942e+00,1.411200e+00,4,18
9.613618e+00,1.235008e+00,5,16
5.668056e+00,1.305103e+00,3,18
1.250437e+01,1.179934e+00,7,16
5.289639e+00,1.272917e+00,3,18
5.146294e+00,1.101017e+00,3,16
1.171324e+01,1.091957e+00,7,16
9.650899e+00,1.183033e+00,6,18
4.781876e+00,1.409054e+00,3,22
4.697047e+00,1.116991e+00,3,18
4.802277e+00,1.113892e+00,3,18
4.914684e+00,1.008987e+00,3,16
6.232271e+00,8.919239e-01,4,14

