9.389242e+00,2.073050e+00,6,20
4.477323e+00,1.327038e+00,3,22
5.839840e+00,1.106977e+00,4,18
7.318404e+00,9.989738e-01,5,16
4.405229e+00,1.101971e+00,3,18
1.029825e+01,9.920597e-01,7,16
4.397987e+00,1.121044e+00,3,18
4.474847e+00,9.958744e-01,3,16
1.023333e+01,9.880066e-01,7,16
8.935015e+00,1.119852e+00,6,18
4.468643e+00,1.363993e+00,3,22
4.512462e+00,1.107931e+00,3,18
4.591165e+00,1.118183e+00,3,18
5.149821e+00,1.031160e+00,3,16
6.146395e+00,9.529591e-01,4,14

