1.463746e+00,1.338954e+00,2,2,0.000000e+00,0.000000e+00
2.175626e+00,2.036926e+00,3,3,7.551199e-02,7.551198e-02
2.181121e+00,2.018863e+00,3,3,1.395590e-01,1.395590e-01
2.172221e+00,2.014468e+00,3,3,2.946799e-01,2.946798e-01
2.177108e+00,2.008766e+00,3,3,2.716444e-01,2.716444e-01
2.174450e+00,2.008437e+00,3,3,1.276122e+00,1.276122e+00
2.175899e+00,2.007014e+00,3,3,1.779606e+00,1.779605e+00
2.178099e+00,2.008931e+00,3,3,2.335657e+00,2.335657e+00
2.180799e+00,2.007659e+00,3,3,1.148658e+00,1.148659e+00
2.175551e+00,2.008242e+00,3,3,1.018440e+00,1.018440e+00
2.176022e+00,2.005407e+00,3,3,8.424452e-01,8.424451e-01
2.176382e+00,2.007475e+00,3,3,9.746301e-01,9.746298e-01
2.175923e+00,2.006673e+00,3,3,1.616715e+00,1.616715e+00
2.175563e+00,2.007190e+00,3,3,2.206552e+00,2.206552e+00
2.177449e+00,2.007193e+00,3,3,2.022656e+00,2.022656e+00
2.176426e+00,2.005716e+00,3,3,2.825301e+00,2.825301e+00
2.177815e+00,2.007756e+00,3,3,2.206313e+00,2.206313e+00
2.175355e+00,2.009500e+00,3,3,1.931065e+00,1.931065e+00
2.175895e+00,2.007867e+00,3,3,1.844826e+00,1.844826e+00
2.174973e+00,2.004480e+00,3,3,1.758275e+00,1.758274e+00
2.175225e+00,2.005790e+00,3,3,1.840465e+00,1.840465e+00
2.179026e+00,2.010120e+00,3,3,1.533932e+00,1.533932e+00
2.175011e+00,2.007529e+00,3,3,1.381528e+00,1.381527e+00
2.176538e+00,2.005976e+00,3,3,1.204578e+00,1.204578e+00
2.176707e+00,2.004274e+00,3,3,1.188890e+00,1.188890e+00
2.172501e+00,2.005983e+00,3,3,1.149691e+00,1.149690e+00
2.179380e+00,2.008372e+00,3,3,9.518720e-01,9.518720e-01
2.173648e+00,2.009469e+00,3,3,6.794442e-01,6.794442e-01
2.174276e+00,2.006670e+00,3,3,3.430893e-01,3.430892e-01
2.172247e+00,2.004839e+00,3,3,2.960704e-01,2.960704e-01
2.179216e+00,2.006066e+00,3,3,5.895936e-01,5.895934e-01
2.178725e+00,2.006758e+00,3,3,6.941656e-01,6.941655e-01
2.173273e+00,2.008346e+00,3,3,5.984709e-01,5.984709e-01
2.173869e+00,2.005930e+00,3,3,9.215241e-01,9.215238e-01
2.174695e+00,2.005273e+00,3,3,7.538732e-01,7.538733e-01
2.172948e+00,2.004674e+00,3,3,5.559841e-01,5.559841e-01
2.178805e+00,2.006732e+00,3,3,4.066859e-01,4.066858e-01
2.174362e+00,2.008974e+00,3,3,3.376685e-01,3.376685e-01
2.175415e+00,2.008260e+00,3,3,8.606624e-01,8.606622e-01
2.173744e+00,2.007516e+00,3,3,9.504390e-01,9.504389e-01
2.174430e+00,2.004849e+00,3,3,2.139407e+00,2.139406e+00
2.182550e+00,2.007439e+00,3,3,2.927775e+00,2.927775e+00
2.177847e+00,2.008336e+00,3,3,1.852293e+00,1.852294e+00
2.173630e+00,2.003856e+00,3,3,2.797877e+00,2.797876e+00
2.176490e+00,2.005880e+00,3,3,2.235858e+00,2.235858e+00
2.175803e+00,2.007344e+00,3,3,1.808735e+00,1.808735e+00
2.181762e+00,2.005405e+00,3,3,1.619822e+00,1.619822e+00
2.175443e+00,2.007816e+00,3,3,1.344315e+00,1.344315e+00
2.175656e+00,2.004186e+00,3,3,1.080045e+00,1.080045e+00
2.175874e+00,2.009356e+00,3,3,6.876655e-01,6.876656e-01
2.173564e+00,2.004688e+00,3,3,6.177204e-01,6.177203e-01
2.177466e+00,2.006778e+00,3,3,9.829410e-01,9.829408e-01
2.175522e+00,2.005695e+00,3,3,7.169051e-01,7.169051e-01
2.173518e+00,2.012880e+00,3,3,6.110555e-01,6.110555e-01
2.172209e+00,2.005321e+00,3,3,8.078288e-01,8.078286e-01
2.174383e+00,2.006079e+00,3,3,1.109409e+00,1.109409e+00
2.180717e+00,2.003950e+00,3,3,5.988439e-01,5.988440e-01
2.171424e+00,2.005902e+00,3,3,9.244373e-01,9.244372e-01
2.174486e+00,2.008410e+00,3,3,1.306202e+00,1.306202e+00
2.173662e+00,2.005576e+00,3,3,1.969771e+00,1.969770e+00
2.174671e+00,2.006978e+00,3,3,8.942445e-01,8.942443e-01
2.178928e+00,2.007852e+00,3,3,1.939612e+00,1.939611e+00
2.175235e+00,2.008767e+00,3,3,3.653097e+00,3.653095e+00
2.176571e+00,2.007249e+00,3,3,1.983710e+00,1.983711e+00
2.176127e+00,2.007964e+00,3,3,2.724595e+00,2.724595e+00
2.176111e+00,2.007212e+00,3,3,1.182431e+00,1.182431e+00
2.179023e+00,2.008448e+00,3,3,1.263740e+00,1.263740e+00
2.174369e+00,2.004829e+00,3,3,9.845552e-01,9.845551e-01
2.174388e+00,2.004738e+00,3,3,7.762094e-01,7.762093e-01
2.174335e+00,2.005264e+00,3,3,5.908824e-01,5.908823e-01
2.175666e+00,2.007527e+00,3,3,8.817008e-01,8.817007e-01
2.180104e+00,2.009425e+00,3,3,9.003322e-01,9.003321e-01
2.173815e+00,2.009693e+00,3,3,9.129701e-01,9.129700e-01
2.174249e+00,2.007647e+00,3,3,1.029782e+00,1.029782e+00
2.173438e+00,2.006777e+00,3,3,1.502114e+00,1.502113e+00
2.173471e+00,2.006463e+00,3,3,2.017951e+00,2.017950e+00
2.181792e+00,2.005039e+00,3,3,1.214739e+00,1.214739e+00
2.175682e+00,2.008070e+00,3,3,1.209885e+00,1.209885e+00
2.176575e+00,2.005895e+00,3,3,8.937139e-01,8.937139e-01
2.173461e+00,2.008056e+00,3,3,4.433578e-01,4.433578e-01
2.172918e+00,2.006626e+00,3,3,1.527303e+00,1.527302e+00
2.181366e+00,2.005977e+00,3,3,1.130216e+00,1.130216e+00
2.175873e+00,2.006596e+00,3,3,1.011765e+00,1.011765e+00
2.176064e+00,2.006302e+00,3,3,9.739961e-01,9.739959e-01
2.176508e+00,2.006751e+00,3,3,1.400862e+00,1.400861e+00
2.173092e+00,2.008565e+00,3,3,2.512644e+00,2.512643e+00
2.177117e+00,2.010524e+00,3,3,3.760436e+00,3.760435e+00
2.176923e+00,2.008453e+00,3,3,5.483193e+00,5.483192e+00
2.178509e+00,2.009271e+00,3,3,4.457910e+00,4.457910e+00
2.176950e+00,2.007148e+00,3,3,3.182242e+00,3.182242e+00
2.175893e+00,2.008103e+00,3,3,2.454018e+00,2.454018e+00
2.174816e+00,2.013065e+00,3,3,1.719366e+00,1.719366e+00
2.175381e+00,2.007057e+00,3,3,2.433222e+00,2.433221e+00
2.177755e+00,2.005176e+00,3,3,1.807864e+00,1.807864e+00
2.173556e+00,2.005988e+00,3,3,2.327488e+00,2.327489e+00
2.173812e+00,2.006270e+00,3,3,2.510035e+00,2.510036e+00
2.177373e+00,2.006691e+00,3,3,1.084529e+00,1.084529e+00
2.175275e+00,2.008387e+00,3,3,9.374309e-01,9.374308e-01
2.175088e+00,2.006815e+00,3,3,1.319582e+00,1.319582e+00
2.174316e+00,2.004475e+00,3,3,1.415918e+00,1.415918e+00
2.174482e+00,2.005236e+00,3,3,1.066795e+00,1.066795e+00
2.173891e+00,2.006930e+00,3,3,1.238126e+00,1.238125e+00
2.178537e+00,2.010995e+00,3,3,7.215191e-01,7.215191e-01
2.173476e+00,2.007160e+00,3,3,6.568875e-01,6.568874e-01
2.172030e+00,2.004537e+00,3,3,5.438727e-01,5.438727e-01
2.173357e+00,2.005098e+00,3,3,5.784351e-01,5.784350e-01
2.171322e+00,2.007466e+00,3,3,8.079149e-01,8.079147e-01
2.177248e+00,2.008410e+00,3,3,8.817926e-01,8.817925e-01
2.174268e+00,2.004845e+00,3,3,5.668026e-01,5.668027e-01
2.174232e+00,2.006166e+00,3,3,5.720731e-01,5.720730e-01
2.170527e+00,2.006393e+00,3,3,5.279954e-01,5.279954e-01
2.174784e+00,2.005021e+00,3,3,4.517939e-01,4.517937e-01
2.177748e+00,2.008575e+00,3,3,3.135775e-01,3.135775e-01
2.171864e+00,2.003653e+00,3,3,5.541269e-01,5.541267e-01
2.172733e+00,2.007096e+00,3,3,2.932912e-01,2.932912e-01
2.172491e+00,2.004649e+00,3,3,3.389812e-01,3.389811e-01
2.170113e+00,2.004969e+00,3,3,8.799457e-01,8.799454e-01
2.178167e+00,2.006416e+00,3,3,6.417358e-01,6.417358e-01
2.172132e+00,2.007865e+00,3,3,2.071074e+00,2.071073e+00
2.177016e+00,2.006213e+00,3,3,1.435473e+00,1.435473e+00
2.176155e+00,2.006669e+00,3,3,1.390161e+00,1.390161e+00
2.174121e+00,2.009088e+00,3,3,1.731335e+00,1.731335e+00
2.178607e+00,2.005024e+00,3,3,1.563274e+00,1.563274e+00
2.173828e+00,2.008819e+00,3,3,1.722298e+00,1.722298e+00
2.174994e+00,2.007735e+00,3,3,3.041249e+00,3.041248e+00
2.185629e+00,2.006837e+00,3,3,1.973556e+00,1.973557e+00
2.183663e+00,2.005517e+00,3,3,1.500021e+00,1.500021e+00
2.180041e+00,2.007995e+00,3,3,1.307078e+00,1.307078e+00
2.174683e+00,2.007051e+00,3,3,7.837009e-01,7.837005e-01
2.174508e+00,2.008650e+00,3,3,8.577124e-01,8.577121e-01
2.172812e+00,2.006130e+00,3,3,5.381547e-01,5.381546e-01
2.174452e+00,2.005535e+00,3,3,7.102121e-01,7.102119e-01
2.181559e+00,2.004353e+00,3,3,3.163724e-01,3.163724e-01
2.175254e+00,2.007846e+00,3,3,2.572593e-01,2.572593e-01
2.173137e+00,2.007599e+00,3,3,2.640309e-01,2.640309e-01
2.171685e+00,2.003912e+00,3,3,5.737803e-01,5.737800e-01
2.173452e+00,2.007364e+00,3,3,5.918229e-01,5.918228e-01
2.177396e+00,2.006743e+00,3,3,5.015533e-01,5.015533e-01
2.174559e+00,2.005378e+00,3,3,5.463037e-01,5.463036e-01
2.173468e+00,2.003380e+00,3,3,4.626954e-01,4.626953e-01
2.172398e+00,2.003605e+00,3,3,8.631080e-01,8.631077e-01
2.172587e+00,2.006685e+00,3,3,1.472351e+00,1.472351e+00
2.179392e+00,2.005080e+00,3,3,1.662220e+00,1.662220e+00
2.174399e+00,2.005576e+00,3,3,1.301745e+00,1.301745e+00
2.175106e+00,2.004089e+00,3,3,1.159385e+00,1.159385e+00
2.174469e+00,2.005947e+00,3,3,1.072051e+00,1.072051e+00
2.173088e+00,2.006947e+00,3,3,7.684563e-01,7.684566e-01
2.175471e+00,2.003658e+00,3,3,6.784001e-01,6.783996e-01
2.180384e+00,2.005438e+00,3,3,1.196297e+00,1.196297e+00
2.173300e+00,2.008931e+00,3,3,1.709782e+00,1.709782e+00
2.174662e+00,2.008256e+00,3,3,1.043919e+00,1.043919e+00
2.174100e+00,2.006284e+00,3,3,9.875307e-01,9.875306e-01
2.174739e+00,2.006441e+00,3,3,8.865288e-01,8.865287e-01
2.179883e+00,2.007281e+00,3,3,8.128521e-01,8.128521e-01
2.180729e+00,2.005937e+00,3,3,6.697334e-01,6.697333e-01
2.172992e+00,2.007119e+00,3,3,7.530319e-01,7.530317e-01
2.173174e+00,2.005120e+00,3,3,1.230919e+00,1.230918e+00
2.173676e+00,2.007125e+00,3,3,1.183022e+00,1.183022e+00
2.178959e+00,2.007047e+00,3,3,1.252941e+00,1.252941e+00
2.173946e+00,2.006331e+00,3,3,1.423218e+00,1.423218e+00
2.185222e+00,2.007039e+00,3,3,6.507719e-01,6.507719e-01
2.174136e+00,2.006030e+00,3,3,5.206022e-01,5.206021e-01
2.174062e+00,2.004619e+00,3,3,5.456128e-01,5.456127e-01
2.178297e+00,2.007032e+00,3,3,2.479389e-01,2.479388e-01
2.173566e+00,2.004943e+00,3,3,2.496522e-01,2.496521e-01
2.172374e+00,2.003963e+00,3,3,4.269773e-01,4.269773e-01
2.172994e+00,2.002364e+00,3,3,3.636976e-01,3.636976e-01
2.173107e+00,2.006556e+00,3,3,9.785740e-01,9.785736e-01
2.179532e+00,2.006429e+00,3,3,7.268560e-01,7.268558e-01
2.171384e+00,2.006286e+00,3,3,5.136756e-01,5.136756e-01
2.173549e+00,2.007238e+00,3,3,4.576677e-01,4.576677e-01
2.170687e+00,2.005420e+00,3,3,4.659249e-01,4.659248e-01
2.173176e+00,2.006784e+00,3,3,4.789386e-01,4.789385e-01
2.177677e+00,2.007399e+00,3,3,3.020712e-01,3.020711e-01
2.172757e+00,2.004997e+00,3,3,3.394949e-01,3.394949e-01
2.172877e+00,2.006731e+00,3,3,2.773602e-01,2.773601e-01
2.172929e+00,2.003614e+00,3,3,2.395149e-01,2.395148e-01
2.170410e+00,2.005167e+00,3,3,6.457921e-01,6.457918e-01
2.179055e+00,2.005452e+00,3,3,4.074345e-01,4.074344e-01
2.171935e+00,2.005574e+00,3,3,6.452883e-01,6.452882e-01
2.183245e+00,2.006640e+00,3,3,1.041434e+00,1.041434e+00
2.174633e+00,2.005662e+00,3,3,8.929497e-01,8.929495e-01
2.171759e+00,2.005734e+00,3,3,1.012410e+00,1.012410e+00
2.179086e+00,2.007279e+00,3,3,7.096735e-01,7.096735e-01
2.174504e+00,2.004028e+00,3,3,7.097719e-01,7.097718e-01
2.173482e+00,2.006435e+00,3,3,8.114484e-01,8.114482e-01
2.172274e+00,2.005514e+00,3,3,1.782533e+00,1.782532e+00
2.173948e+00,2.006768e+00,3,3,2.360345e+00,2.360345e+00
2.179204e+00,2.009052e+00,3,3,2.091245e+00,2.091245e+00
2.176569e+00,2.007103e+00,3,3,1.700483e+00,1.700483e+00
2.177298e+00,2.004043e+00,3,3,1.573433e+00,1.573433e+00
2.178549e+00,2.008037e+00,3,3,1.068433e+00,1.068433e+00
2.174215e+00,2.008465e+00,3,3,1.055489e+00,1.055489e+00
2.180591e+00,2.009359e+00,3,3,1.037042e+00,1.037043e+00
2.175440e+00,2.001889e+00,3,3,7.956419e-01,7.956418e-01
2.174070e+00,1.999009e+00,3,3,7.031977e-01,7.031977e-01
2.174204e+00,2.000383e+00,3,3,1.431403e+00,1.431402e+00
2.173704e+00,2.004335e+00,3,3,2.982459e+00,2.982459e+00
2.185391e+00,2.000636e+00,3,3,3.031292e+00,3.031307e+00
2.179229e+00,2.008520e+00,3,3,3.054756e+00,3.054757e+00
2.178207e+00,2.006050e+00,3,3,3.560046e+00,3.560045e+00
2.174868e+00,2.007089e+00,3,3,5.094585e+00,5.094584e+00
2.178898e+00,2.008323e+00,3,3,3.266813e+00,3.266813e+00
2.176116e+00,2.005432e+00,3,3,3.985971e+00,3.985971e+00
2.183358e+00,2.010739e+00,3,3,3.077095e+00,3.077095e+00
2.174804e+00,2.003917e+00,3,3,2.875842e+00,2.875842e+00
2.176578e+00,2.007513e+00,3,3,1.974609e+00,1.974610e+00
2.176167e+00,2.015572e+00,3,3,2.489613e+00,2.489612e+00
2.175346e+00,2.012361e+00,3,3,1.671700e+00,1.671700e+00
2.172250e+00,2.010136e+00,3,3,2.163049e+00,2.163049e+00
2.176939e+00,2.006271e+00,3,3,7.060858e-01,7.060859e-01
2.172224e+00,2.006703e+00,3,3,9.278112e-01,9.278108e-01
2.172376e+00,2.006064e+00,3,3,1.801302e+00,1.801301e+00
2.174158e+00,2.003598e+00,3,3,1.390126e+00,1.390126e+00
2.178611e+00,2.000227e+00,3,3,2.192366e+00,2.192366e+00
2.174394e+00,2.004386e+00,3,3,1.943406e+00,1.943406e+00
2.174151e+00,2.008047e+00,3,3,3.271115e+00,3.271114e+00
2.176677e+00,2.006411e+00,3,3,1.690081e+00,1.690082e+00
2.175943e+00,2.005684e+00,3,3,1.412897e+00,1.412897e+00
2.179291e+00,2.006112e+00,3,3,1.101795e+00,1.101795e+00
2.175046e+00,2.007029e+00,3,3,1.109851e+00,1.109851e+00
2.175544e+00,2.006287e+00,3,3,1.180536e+00,1.180536e+00
2.173257e+00,2.005925e+00,3,3,1.770951e+00,1.770950e+00
2.176627e+00,2.003117e+00,3,3,7.989784e-01,7.989788e-01
2.178050e+00,2.004594e+00,3,3,5.277632e-01,5.277632e-01
2.170457e+00,2.004888e+00,3,3,5.981930e-01,5.981929e-01
2.172965e+00,2.006550e+00,3,3,5.715218e-01,5.715216e-01
2.171868e+00,2.005917e+00,3,3,4.452683e-01,4.452683e-01
2.173188e+00,2.007084e+00,3,3,7.191437e-01,7.191434e-01
2.176177e+00,2.006382e+00,3,3,1.052368e+00,1.052368e+00
2.172812e+00,2.006096e+00,3,3,1.601011e+00,1.601010e+00
2.174066e+00,2.003838e+00,3,3,3.478521e+00,3.478520e+00
2.173987e+00,2.007436e+00,3,3,4.513895e+00,4.513894e+00
2.178204e+00,2.005488e+00,3,3,3.065427e+00,3.065427e+00
2.189213e+00,2.007258e+00,3,3,3.784498e+00,3.784497e+00
2.180263e+00,2.006340e+00,3,3,2.730896e+00,2.730896e+00
2.177399e+00,2.005443e+00,3,3,2.168829e+00,2.168829e+00
2.175087e+00,2.005593e+00,3,3,2.418008e+00,2.418008e+00
2.175151e+00,2.005742e+00,3,3,1.306408e+00,1.306408e+00
2.181222e+00,2.003498e+00,3,3,9.994503e-01,9.994498e-01
2.173597e+00,2.004324e+00,3,3,7.696706e-01,7.696706e-01
2.174491e+00,2.003457e+00,3,3,7.205270e-01,7.205269e-01
2.171755e+00,2.004026e+00,3,3,6.833739e-01,6.833738e-01
2.173208e+00,2.005934e+00,3,3,1.060776e+00,1.060775e+00
2.182418e+00,2.007497e+00,3,3,3.632746e-01,3.632747e-01
2.181478e+00,2.007269e+00,3,3,1.456902e+00,1.456901e+00
2.176007e+00,2.006680e+00,3,3,3.221296e+00,3.221295e+00
2.176406e+00,2.005926e+00,3,3,1.879964e+00,1.879965e+00
2.177476e+00,2.006050e+00,3,3,1.342882e+00,1.342882e+00
2.180415e+00,2.005454e+00,3,3,1.100857e+00,1.100857e+00
2.175028e+00,2.007263e+00,3,3,9.350528e-01,9.350528e-01
2.173982e+00,2.007255e+00,3,3,8.765951e-01,8.765950e-01
2.173914e+00,2.007829e+00,3,3,1.483478e+00,1.483477e+00
2.176359e+00,2.005827e+00,3,3,1.146398e+00,1.146398e+00
2.180071e+00,2.003102e+00,3,3,8.245392e-01,8.245393e-01
2.173297e+00,2.004471e+00,3,3,9.175550e-01,9.175549e-01
2.173356e+00,2.002993e+00,3,3,1.572597e+00,1.572596e+00
2.176351e+00,2.005329e+00,3,3,2.547988e+00,2.547986e+00
2.174561e+00,1.999736e+00,3,3,4.638402e+00,4.638400e+00
2.176861e+00,1.998629e+00,3,3,5.660077e+00,5.660075e+00
2.178615e+00,2.002278e+00,3,3,5.111770e+00,5.111771e+00
2.176938e+00,2.008265e+00,3,3,5.361398e+00,5.361398e+00
2.176674e+00,2.015105e+00,3,3,4.518849e+00,4.518850e+00
2.185008e+00,2.003956e+00,3,3,4.751994e+00,4.751994e+00
2.189571e+00,2.008852e+00,3,3,4.746648e+00,4.746648e+00
2.189005e+00,2.007356e+00,3,3,3.913875e+00,3.913875e+00
2.184565e+00,2.008885e+00,3,3,3.373853e+00,3.373852e+00
2.185066e+00,2.006415e+00,3,3,2.596204e+00,2.596204e+00
2.174556e+00,2.006905e+00,3,3,2.364578e+00,2.364577e+00
2.179770e+00,2.007965e+00,3,3,2.377138e+00,2.377138e+00
2.172713e+00,2.008004e+00,3,3,3.044351e+00,3.044353e+00
2.174505e+00,2.005208e+00,3,3,5.471080e+00,5.469953e+00
4.334255e+00,4.000337e+00,6,6,5.713014e+00,5.711240e+00
3.617882e+00,3.333228e+00,5,5,6.257292e+00,6.256913e+00
2.896518e+00,2.674386e+00,4,4,5.303516e+00,5.303516e+00
2.175813e+00,2.006127e+00,3,3,5.338698e+00,5.338699e+00
2.177466e+00,2.005492e+00,3,3,6.515657e+00,6.515657e+00
2.176280e+00,2.008055e+00,3,3,6.035005e+00,6.035005e+00
2.181171e+00,2.008414e+00,3,3,5.027732e+00,5.027733e+00
2.175383e+00,2.004006e+00,3,3,4.242607e+00,4.242608e+00
2.176334e+00,2.007135e+00,3,3,3.761788e+00,3.761788e+00
2.175994e+00,2.004921e+00,3,3,3.222039e+00,3.222039e+00
2.174375e+00,2.004488e+00,3,3,2.958997e+00,2.958997e+00
2.179920e+00,2.008664e+00,3,3,3.072714e+00,3.072714e+00
2.174631e+00,2.006503e+00,3,3,1.689629e+00,1.689629e+00
2.174681e+00,2.006682e+00,3,3,1.466534e+00,1.466534e+00
2.175255e+00,2.005917e+00,3,3,1.622691e+00,1.622691e+00
2.174438e+00,2.007356e+00,3,3,1.121013e+00,1.121013e+00
2.177278e+00,2.007017e+00,3,3,9.460342e-01,9.460343e-01
2.186689e+00,2.007876e+00,3,3,7.684615e-01,7.684614e-01
2.182180e+00,2.003422e+00,3,3,4.885458e-01,4.885459e-01
2.182011e+00,2.003945e+00,3,3,3.703793e-01,3.703790e-01
2.181322e+00,2.008057e+00,3,3,2.797292e-01,2.797291e-01
2.186100e+00,2.007010e+00,3,3,3.974049e-01,3.974048e-01
2.181982e+00,2.005896e+00,3,3,5.354182e-01,5.354181e-01
2.182460e+00,2.002934e+00,3,3,3.592189e-01,3.592189e-01
2.180430e+00,2.003412e+00,3,3,4.040897e-01,4.040896e-01
2.174283e+00,2.004360e+00,3,3,1.113147e+00,1.113146e+00
2.178004e+00,2.007764e+00,3,3,2.515746e+00,2.515745e+00
2.173151e+00,2.008570e+00,3,3,3.426330e+00,3.426330e+00
2.178970e+00,2.005750e+00,3,3,2.879346e+00,2.879347e+00
2.175696e+00,2.008086e+00,3,3,3.110252e+00,3.110252e+00
2.176989e+00,2.006668e+00,3,3,3.024821e+00,3.024821e+00
2.179348e+00,2.005612e+00,3,3,2.671603e+00,2.671603e+00
2.175606e+00,2.004207e+00,3,3,2.112177e+00,2.112177e+00
2.175346e+00,2.006927e+00,3,3,2.070642e+00,2.070642e+00
2.173333e+00,2.007726e+00,3,3,3.677758e+00,3.677757e+00
2.176109e+00,2.006161e+00,3,3,4.748174e+00,4.748173e+00
2.179544e+00,2.007048e+00,3,3,5.601768e+00,5.601768e+00
2.176876e+00,2.004375e+00,3,3,4.561938e+00,4.561940e+00
2.175853e+00,2.006670e+00,3,3,3.478383e+00,3.478384e+00
2.175547e+00,2.006376e+00,3,3,2.544119e+00,2.544120e+00
2.178133e+00,2.007207e+00,3,3,2.076827e+00,2.076827e+00
2.181154e+00,2.003325e+00,3,3,2.759429e+00,2.759428e+00
2.173359e+00,2.005708e+00,3,3,2.751237e+00,2.751237e+00
2.174688e+00,2.005905e+00,3,3,2.069352e+00,2.069353e+00
2.177746e+00,2.002142e+00,3,3,2.024218e+00,2.024219e+00
2.173819e+00,2.002441e+00,3,3,2.326138e+00,2.326182e+00
2.178215e+00,2.003057e+00,3,3,2.414204e+00,2.414206e+00
2.173655e+00,2.006667e+00,3,3,2.956548e+00,2.956547e+00
2.174280e+00,2.006495e+00,3,3,2.350932e+00,2.350932e+00
2.173991e+00,2.006707e+00,3,3,3.067210e+00,3.067209e+00
2.174231e+00,2.005380e+00,3,3,3.023825e+00,3.023825e+00
2.179187e+00,2.005885e+00,3,3,2.527954e+00,2.527954e+00
2.176721e+00,2.006715e+00,3,3,2.091153e+00,2.091153e+00
2.174012e+00,2.004805e+00,3,3,2.201062e+00,2.201062e+00
2.173324e+00,2.003160e+00,3,3,2.211142e+00,2.211142e+00
2.173912e+00,2.006181e+00,3,3,1.630562e+00,1.630562e+00
2.173906e+00,2.003986e+00,3,3,1.629975e+00,1.629975e+00
2.174864e+00,2.008583e+00,3,3,1.065592e+00,1.065592e+00
2.173754e+00,2.006892e+00,3,3,8.781477e-01,8.781477e-01
2.173758e+00,2.005690e+00,3,3,5.657001e-01,5.657001e-01
2.172956e+00,2.005049e+00,3,3,3.837918e-01,3.837917e-01
2.171188e+00,2.001427e+00,3,3,2.168805e-01,2.168805e-01
2.176946e+00,2.006112e+00,3,3,4.077966e-01,4.077965e-01
2.176560e+00,2.004780e+00,3,3,2.298446e-01,2.298446e-01
2.170536e+00,2.003449e+00,3,3,2.219907e-01,2.219907e-01
2.171860e+00,2.003252e+00,3,3,1.341630e-01,1.341629e-01
2.169449e+00,2.004115e+00,3,3,1.470614e-01,1.470614e-01
2.176931e+00,2.004406e+00,3,3,1.317599e-01,1.317598e-01
2.170359e+00,2.003078e+00,3,3,3.249705e-01,3.249704e-01
2.173696e+00,2.003303e+00,3,3,2.494368e-01,2.494367e-01
2.173251e+00,2.004628e+00,3,3,2.719484e-01,2.719482e-01
2.169973e+00,2.003096e+00,3,3,5.469672e-01,5.469670e-01
2.176928e+00,2.006976e+00,3,3,2.990521e-01,2.990521e-01
2.174169e+00,2.003886e+00,3,3,4.258436e-01,4.258435e-01
2.170332e+00,2.007350e+00,3,3,4.302908e-01,4.302907e-01
2.171912e+00,2.005248e+00,3,3,7.247936e-01,7.247934e-01
2.172702e+00,2.002950e+00,3,3,5.522245e-01,5.522245e-01
2.176336e+00,2.004205e+00,3,3,3.638280e-01,3.638280e-01
2.172978e+00,2.005472e+00,3,3,2.660185e-01,2.660185e-01
2.174212e+00,2.002291e+00,3,3,3.563704e-01,3.563703e-01
2.170738e+00,2.005567e+00,3,3,3.281830e-01,3.281830e-01
2.170421e+00,2.004737e+00,3,3,2.648626e-01,2.648626e-01
2.173108e+00,2.011192e+00,3,3,4.637952e-01,4.637951e-01
2.178131e+00,2.004737e+00,3,3,3.516907e-01,3.516907e-01
2.171089e+00,2.003784e+00,3,3,5.227909e-01,5.227908e-01
2.170847e+00,2.003712e+00,3,3,9.246972e-01,9.246969e-01
2.173269e+00,2.008301e+00,3,3,8.107791e-01,8.107790e-01
2.172545e+00,2.006465e+00,3,3,7.181056e-01,7.181055e-01
2.176813e+00,2.005631e+00,3,3,1.643213e+00,1.643212e+00
2.176919e+00,2.006216e+00,3,3,1.993971e+00,1.993971e+00
2.175782e+00,2.005318e+00,3,3,1.134314e+00,1.134315e+00
2.175363e+00,2.002809e+00,3,3,8.482908e-01,8.482909e-01
2.173220e+00,2.005202e+00,3,3,6.537145e-01,6.537144e-01
2.178144e+00,2.006050e+00,3,3,4.364235e-01,4.364235e-01
2.171580e+00,2.007247e+00,3,3,3.864297e-01,3.864297e-01
2.172272e+00,2.002983e+00,3,3,5.548802e-01,5.548801e-01
2.172539e+00,2.005810e+00,3,3,5.307539e-01,5.307538e-01
2.173127e+00,2.006538e+00,3,3,2.639874e-01,2.639872e-01
2.178968e+00,2.004518e+00,3,3,7.176745e-01,7.176742e-01
2.175161e+00,2.004808e+00,3,3,3.984507e-01,3.984508e-01
2.172225e+00,2.003847e+00,3,3,3.519711e-01,3.519710e-01
2.171457e+00,2.006246e+00,3,3,4.923456e-01,4.923455e-01
2.172127e+00,2.006074e+00,3,3,4.030434e-01,4.030434e-01
2.176946e+00,2.004128e+00,3,3,4.731846e-01,4.731845e-01
2.173215e+00,2.007047e+00,3,3,6.026903e-01,6.026901e-01
2.173670e+00,2.006085e+00,3,3,4.755970e-01,4.755969e-01
2.171569e+00,2.007079e+00,3,3,4.945593e-01,4.945591e-01
2.172816e+00,2.003971e+00,3,3,6.169500e-01,6.169498e-01
2.175407e+00,2.004856e+00,3,3,7.574733e-01,7.574730e-01
2.171475e+00,2.007220e+00,3,3,1.135780e+00,1.135780e+00
2.174161e+00,2.002047e+00,3,3,7.866491e-01,7.866492e-01
2.172568e+00,2.004988e+00,3,3,7.565807e-01,7.565804e-01
2.182364e+00,2.004609e+00,3,3,7.321167e-01,7.321167e-01
2.185007e+00,2.007151e+00,3,3,7.926402e-01,7.926401e-01
2.181487e+00,2.008273e+00,3,3,6.555776e-01,6.555776e-01
2.181535e+00,2.001493e+00,3,3,1.115579e+00,1.115578e+00
2.181508e+00,2.004722e+00,3,3,8.292259e-01,8.292259e-01
2.181001e+00,2.003093e+00,3,3,7.751479e-01,7.751479e-01
2.178958e+00,2.004727e+00,3,3,7.596664e-01,7.596663e-01
2.172969e+00,2.006124e+00,3,3,6.878800e-01,6.878800e-01
2.171935e+00,2.005334e+00,3,3,4.928142e-01,4.928142e-01
2.173752e+00,2.005848e+00,3,3,6.019884e-01,6.019883e-01
2.171689e+00,2.007523e+00,3,3,6.788413e-01,6.788412e-01
2.172821e+00,2.004504e+00,3,3,4.668366e-01,4.668366e-01
2.174362e+00,2.009005e+00,3,3,8.782754e-01,8.782751e-01
2.177253e+00,2.005506e+00,3,3,6.180908e-01,6.180907e-01
2.173291e+00,2.007674e+00,3,3,5.652448e-01,5.652448e-01
2.174044e+00,2.006831e+00,3,3,5.058768e-01,5.058767e-01
2.174800e+00,2.003992e+00,3,3,3.970621e-01,3.970619e-01
2.172114e+00,2.004282e+00,3,3,2.920315e-01,2.920314e-01
2.171746e+00,2.008563e+00,3,3,5.797132e-01,5.797130e-01
2.174248e+00,2.003499e+00,3,3,4.997387e-01,4.997387e-01
2.173009e+00,2.004279e+00,3,3,5.083587e-01,5.083586e-01
2.173848e+00,2.003791e+00,3,3,4.753980e-01,4.753980e-01
2.177861e+00,2.005884e+00,3,3,3.696112e-01,3.696112e-01
2.173462e+00,2.007576e+00,3,3,4.437724e-01,4.437724e-01
2.172771e+00,2.004955e+00,3,3,3.442508e-01,3.442508e-01
2.175520e+00,2.005476e+00,3,3,1.454103e+00,1.454102e+00
2.175020e+00,2.008118e+00,3,3,3.218331e+00,3.218330e+00
2.180842e+00,2.004495e+00,3,3,2.417657e+00,2.417658e+00
2.175808e+00,2.007466e+00,3,3,1.723446e+00,1.723446e+00
2.177190e+00,2.009155e+00,3,3,1.264258e+00,1.264258e+00
2.173784e+00,2.007742e+00,3,3,1.366920e+00,1.366920e+00
2.173790e+00,2.007645e+00,3,3,1.080435e+00,1.080435e+00
2.179318e+00,2.005629e+00,3,3,1.043226e+00,1.043225e+00
2.173987e+00,2.004374e+00,3,3,1.256922e+00,1.256922e+00
2.174580e+00,2.004578e+00,3,3,1.434063e+00,1.434063e+00
2.173435e+00,2.005264e+00,3,3,1.312156e+00,1.312156e+00
2.179942e+00,2.006967e+00,3,3,1.397977e+00,1.397976e+00
2.182010e+00,2.006177e+00,3,3,1.862986e+00,1.862986e+00
2.179092e+00,2.005741e+00,3,3,1.373502e+00,1.373503e+00
2.175969e+00,2.005195e+00,3,3,9.297362e-01,9.297363e-01
2.175046e+00,2.007119e+00,3,3,5.499819e-01,5.499820e-01
2.172478e+00,2.007657e+00,3,3,3.668241e-01,3.668241e-01
2.176749e+00,2.006280e+00,3,3,2.877421e-01,2.877421e-01
2.172334e+00,2.012604e+00,3,3,3.947996e-01,3.947995e-01
2.172638e+00,2.004882e+00,3,3,2.789253e-01,2.789253e-01
2.171757e+00,2.004649e+00,3,3,4.675909e-01,4.675908e-01
2.172782e+00,2.004267e+00,3,3,4.970991e-01,4.970991e-01
2.178036e+00,2.005124e+00,3,3,4.618604e-01,4.618604e-01
2.171679e+00,2.003493e+00,3,3,5.953787e-01,5.953785e-01
2.175749e+00,2.005959e+00,3,3,3.315744e-01,3.315744e-01
2.172999e+00,2.011475e+00,3,3,2.690353e-01,2.690353e-01
2.171049e+00,2.007918e+00,3,3,1.439643e+00,1.439642e+00
2.178244e+00,2.006217e+00,3,3,1.497718e+00,1.497718e+00
2.176555e+00,2.004768e+00,3,3,7.278631e-01,7.278632e-01
2.171961e+00,2.005660e+00,3,3,7.180869e-01,7.180869e-01
2.173563e+00,2.007343e+00,3,3,6.287770e-01,6.287770e-01
2.170301e+00,2.006545e+00,3,3,6.738871e-01,6.738870e-01
2.176403e+00,2.007253e+00,3,3,3.442746e-01,3.442746e-01
2.175036e+00,2.006713e+00,3,3,2.890967e-01,2.890966e-01
2.172770e+00,2.004205e+00,3,3,5.501280e-01,5.501279e-01
2.180297e+00,2.005159e+00,3,3,6.853617e-01,6.853616e-01
2.179757e+00,2.004019e+00,3,3,8.436035e-01,8.436034e-01
2.173667e+00,2.011183e+00,3,3,5.492795e-01,5.492794e-01
2.172072e+00,2.005501e+00,3,3,5.277898e-01,5.277897e-01
2.172397e+00,2.005559e+00,3,3,7.921036e-01,7.921033e-01
2.174948e+00,2.016001e+00,3,3,1.174943e+00,1.174943e+00
2.173488e+00,2.003824e+00,3,3,1.302872e+00,1.302872e+00
2.172468e+00,2.003407e+00,3,3,1.817075e+00,1.817074e+00
2.179220e+00,2.008686e+00,3,3,1.715553e+00,1.715552e+00
2.175236e+00,2.007004e+00,3,3,2.668087e+00,2.668103e+00
2.183836e+00,2.008163e+00,3,3,1.115492e+00,1.115493e+00
2.181870e+00,2.006478e+00,3,3,9.496606e-01,9.496606e-01
2.173344e+00,2.003820e+00,3,3,1.501024e+00,1.501024e+00
2.180390e+00,2.004555e+00,3,3,7.347604e-01,7.347606e-01
2.174626e+00,2.005541e+00,3,3,6.038978e-01,6.038978e-01
2.172006e+00,2.008155e+00,3,3,4.902774e-01,4.902774e-01
2.172498e+00,2.006010e+00,3,3,3.288293e-01,3.288293e-01
2.169983e+00,2.006142e+00,3,3,6.713521e-01,6.713518e-01
2.176617e+00,2.007352e+00,3,3,4.977229e-01,4.977229e-01
2.172430e+00,2.004150e+00,3,3,2.836769e-01,2.836769e-01
2.170661e+00,2.004839e+00,3,3,6.883478e-01,6.883476e-01
2.172589e+00,2.005593e+00,3,3,4.772056e-01,4.772056e-01
2.171580e+00,2.004605e+00,3,3,2.511077e-01,2.511076e-01
2.175308e+00,2.004271e+00,3,3,2.738075e-01,2.738075e-01
2.173727e+00,2.006566e+00,3,3,3.426128e-01,3.426127e-01
2.171588e+00,2.005156e+00,3,3,5.175559e-01,5.175557e-01
2.172606e+00,2.002620e+00,3,3,1.085621e+00,1.085620e+00
2.175696e+00,2.005390e+00,3,3,7.889274e-01,7.889268e-01
2.177004e+00,2.001234e+00,3,3,1.428564e+00,1.428564e+00
2.174078e+00,2.006136e+00,3,3,6.237529e-01,6.237532e-01
2.176797e+00,2.005775e+00,3,3,4.968843e-01,4.968843e-01
2.205486e+00,2.031943e+00,3,3,3.323235e-01,3.323235e-01
2.174593e+00,2.008037e+00,3,3,3.053993e-01,3.053992e-01
2.180999e+00,2.004290e+00,3,3,8.580966e-01,8.580961e-01
2.176592e+00,2.006985e+00,3,3,8.560168e-01,8.560167e-01
2.175417e+00,2.005423e+00,3,3,1.314324e+00,1.314324e+00
2.174508e+00,2.006182e+00,3,3,1.348979e+00,1.348978e+00
2.175093e+00,2.007355e+00,3,3,1.548499e+00,1.548499e+00
2.179781e+00,2.006949e+00,3,3,2.537411e+00,2.537410e+00
2.179269e+00,2.004489e+00,3,3,2.841244e+00,2.841244e+00
2.177247e+00,2.005638e+00,3,3,2.122467e+00,2.122467e+00
2.174473e+00,2.003197e+00,3,3,1.906988e+00,1.906988e+00
2.175683e+00,2.002798e+00,3,3,2.680196e+00,2.680195e+00
2.182645e+00,2.007038e+00,3,3,1.820733e+00,1.820733e+00
2.175138e+00,2.008159e+00,3,3,1.509586e+00,1.509586e+00
2.177830e+00,2.004993e+00,3,3,1.527028e+00,1.527028e+00
2.174082e+00,2.006404e+00,3,3,1.650966e+00,1.650966e+00
2.174923e+00,2.002592e+00,3,3,1.808040e+00,1.808040e+00
2.178997e+00,2.001917e+00,3,3,1.332607e+00,1.332607e+00
2.174953e+00,2.003790e+00,3,3,1.278936e+00,1.278936e+00
2.173491e+00,2.007789e+00,3,3,1.640312e+00,1.640312e+00
2.176861e+00,2.003188e+00,3,3,1.799947e+00,1.799947e+00
2.173794e+00,2.008187e+00,3,3,1.140225e+00,1.140225e+00
2.175676e+00,2.001637e+00,3,3,1.096302e+00,1.096302e+00
2.171139e+00,2.007046e+00,3,3,6.438885e-01,6.438888e-01
2.170450e+00,2.003969e+00,3,3,6.245333e-01,6.245332e-01

