1.462181e+00,1.350648e+00,2,2,0.000000e+00,0.000000e+00
2.175975e+00,2.012651e+00,3,3,7.551199e-02,7.551198e-02
2.175112e+00,2.005187e+00,3,3,1.395590e-01,1.395590e-01
2.174065e+00,2.007018e+00,3,3,2.946799e-01,2.946798e-01
2.173109e+00,1.998636e+00,3,3,2.716444e-01,2.716444e-01
2.176636e+00,1.997817e+00,3,3,1.276122e+00,1.276122e+00
2.182847e+00,1.997485e+00,3,3,1.779606e+00,1.779605e+00
2.175982e+00,2.000366e+00,3,3,2.335657e+00,2.335657e+00
2.177371e+00,2.000120e+00,3,3,1.148658e+00,1.148659e+00
2.176689e+00,1.999195e+00,3,3,1.018440e+00,1.018440e+00
2.175822e+00,2.000699e+00,3,3,8.424452e-01,8.424451e-01
2.181902e+00,1.997766e+00,3,3,9.746301e-01,9.746298e-01
2.174393e+00,1.995032e+00,3,3,1.616715e+00,1.616715e+00
2.176583e+00,2.001235e+00,3,3,2.206552e+00,2.206552e+00
2.176036e+00,2.001060e+00,3,3,2.022656e+00,2.022656e+00
2.176719e+00,2.000340e+00,3,3,2.825301e+00,2.825301e+00
2.182499e+00,1.998728e+00,3,3,2.206313e+00,2.206313e+00
2.176747e+00,2.004098e+00,3,3,1.931065e+00,1.931065e+00
2.176975e+00,2.001416e+00,3,3,1.844826e+00,1.844826e+00
2.176831e+00,1.999890e+00,3,3,1.758275e+00,1.758274e+00
2.176044e+00,1.997830e+00,3,3,1.840465e+00,1.840465e+00
2.184097e+00,1.998403e+00,3,3,1.533932e+00,1.533932e+00
2.176467e+00,1.998853e+00,3,3,1.381528e+00,1.381527e+00
2.176733e+00,1.996787e+00,3,3,1.204578e+00,1.204578e+00
2.176376e+00,2.000577e+00,3,3,1.188890e+00,1.188890e+00
2.176098e+00,1.996888e+00,3,3,1.149691e+00,1.149690e+00
2.174676e+00,1.998727e+00,3,3,9.518720e-01,9.518720e-01
2.179996e+00,1.999706e+00,3,3,6.794442e-01,6.794442e-01
2.174281e+00,1.997015e+00,3,3,3.430893e-01,3.430892e-01
2.173921e+00,2.000089e+00,3,3,2.960704e-01,2.960704e-01
2.174236e+00,1.998249e+00,3,3,5.895936e-01,5.895934e-01
2.174725e+00,2.002080e+00,3,3,6.941656e-01,6.941655e-01
2.179502e+00,1.998324e+00,3,3,5.984709e-01,5.984709e-01
2.172852e+00,1.999798e+00,3,3,9.215241e-01,9.215238e-01
2.173870e+00,1.999021e+00,3,3,7.538732e-01,7.538733e-01
2.176190e+00,1.996916e+00,3,3,5.559841e-01,5.559841e-01
2.173795e+00,1.999114e+00,3,3,4.066859e-01,4.066858e-01
2.178369e+00,1.999405e+00,3,3,3.376685e-01,3.376685e-01
2.174176e+00,1.996646e+00,3,3,8.606624e-01,8.606622e-01
2.174782e+00,1.999229e+00,3,3,9.504390e-01,9.504389e-01
2.175013e+00,1.997086e+00,3,3,2.139407e+00,2.139406e+00
2.175122e+00,1.997975e+00,3,3,2.927775e+00,2.927775e+00
2.177170e+00,1.996828e+00,3,3,1.852293e+00,1.852294e+00
2.182351e+00,2.001141e+00,3,3,2.797877e+00,2.797876e+00
2.177326e+00,2.001846e+00,3,3,2.235858e+00,2.235858e+00
2.177957e+00,1.999836e+00,3,3,1.808735e+00,1.808735e+00
2.176070e+00,1.998009e+00,3,3,1.619822e+00,1.619822e+00
2.176194e+00,2.005460e+00,3,3,1.344315e+00,1.344315e+00
2.182980e+00,1.996451e+00,3,3,1.080045e+00,1.080045e+00
2.177527e+00,1.997885e+00,3,3,6.876655e-01,6.876656e-01
2.176838e+00,1.999769e+00,3,3,6.177204e-01,6.177203e-01
2.172310e+00,1.996896e+00,3,3,9.829410e-01,9.829408e-01
2.174583e+00,1.999330e+00,3,3,7.169051e-01,7.169051e-01
2.181221e+00,1.998277e+00,3,3,6.110555e-01,6.110555e-01
2.173608e+00,2.000104e+00,3,3,8.078288e-01,8.078286e-01
2.176313e+00,2.000964e+00,3,3,1.109409e+00,1.109409e+00
2.175408e+00,1.999673e+00,3,3,5.988439e-01,5.988440e-01
2.173965e+00,1.999504e+00,3,3,9.244373e-01,9.244372e-01
2.180345e+00,2.001413e+00,3,3,1.306202e+00,1.306202e+00
2.174487e+00,1.999145e+00,3,3,1.969771e+00,1.969770e+00
2.177816e+00,2.001743e+00,3,3,8.942445e-01,8.942443e-01
2.174902e+00,1.999841e+00,3,3,1.939612e+00,1.939611e+00
2.176515e+00,2.002268e+00,3,3,3.653097e+00,3.653095e+00
2.178021e+00,2.001892e+00,3,3,1.983710e+00,1.983711e+00
2.176400e+00,2.000065e+00,3,3,2.724595e+00,2.724595e+00
2.179052e+00,2.000251e+00,3,3,1.182431e+00,1.182431e+00
2.174773e+00,1.998946e+00,3,3,1.263740e+00,1.263740e+00
2.174529e+00,1.998341e+00,3,3,9.845552e-01,9.845551e-01
2.174854e+00,1.998621e+00,3,3,7.762094e-01,7.762093e-01
2.179586e+00,1.998526e+00,3,3,5.908824e-01,5.908823e-01
2.173208e+00,2.000779e+00,3,3,8.817008e-01,8.817007e-01
2.175896e+00,1.997967e+00,3,3,9.003322e-01,9.003321e-01
2.176955e+00,2.001663e+00,3,3,9.129701e-01,9.129700e-01
2.175349e+00,1.997502e+00,3,3,1.029782e+00,1.029782e+00
2.180208e+00,1.999546e+00,3,3,1.502114e+00,1.502113e+00
2.175534e+00,1.999932e+00,3,3,2.017951e+00,2.017950e+00
2.176217e+00,2.000720e+00,3,3,1.214739e+00,1.214739e+00
2.176081e+00,1.997833e+00,3,3,1.209885e+00,1.209885e+00
2.178014e+00,1.999590e+00,3,3,8.937139e-01,8.937139e-01
2.178981e+00,1.999243e+00,3,3,4.433578e-01,4.433578e-01
2.173512e+00,1.997317e+00,3,3,1.527303e+00,1.527302e+00
2.176447e+00,1.998032e+00,3,3,1.130216e+00,1.130216e+00
2.175535e+00,1.999447e+00,3,3,1.011765e+00,1.011765e+00
2.177188e+00,1.998750e+00,3,3,9.739961e-01,9.739959e-01
2.175479e+00,1.998738e+00,3,3,1.400862e+00,1.400861e+00
2.178651e+00,2.000159e+00,3,3,2.512644e+00,2.512643e+00
2.177771e+00,1.998596e+00,3,3,3.760436e+00,3.760435e+00
2.178048e+00,1.997781e+00,3,3,5.483193e+00,5.483192e+00
2.178080e+00,1.997779e+00,3,3,4.457910e+00,4.457910e+00
2.177179e+00,1.999943e+00,3,3,3.182242e+00,3.182242e+00
2.181891e+00,1.999775e+00,3,3,2.454018e+00,2.454018e+00
2.176452e+00,2.001819e+00,3,3,1.719366e+00,1.719366e+00
2.178330e+00,1.999441e+00,3,3,2.433222e+00,2.433221e+00
2.178150e+00,1.999379e+00,3,3,1.807864e+00,1.807864e+00
2.173624e+00,1.999369e+00,3,3,2.327488e+00,2.327489e+00
2.181313e+00,1.999528e+00,3,3,2.510035e+00,2.510036e+00
2.177180e+00,1.997036e+00,3,3,1.084529e+00,1.084529e+00
2.175157e+00,1.997707e+00,3,3,9.374309e-01,9.374308e-01
2.174263e+00,1.997670e+00,3,3,1.319582e+00,1.319582e+00
2.173135e+00,1.997492e+00,3,3,1.415918e+00,1.415918e+00
2.179545e+00,1.997992e+00,3,3,1.066795e+00,1.066795e+00
2.175945e+00,1.998990e+00,3,3,1.238126e+00,1.238125e+00
2.176323e+00,1.996878e+00,3,3,7.215191e-01,7.215191e-01
2.174904e+00,1.998802e+00,3,3,6.568875e-01,6.568874e-01
2.174322e+00,1.994925e+00,3,3,5.438727e-01,5.438727e-01
2.174316e+00,1.998161e+00,3,3,5.784351e-01,5.784350e-01
2.178709e+00,1.993586e+00,3,3,8.079149e-01,8.079147e-01
2.174143e+00,1.994818e+00,3,3,8.817926e-01,8.817925e-01
2.174817e+00,1.989421e+00,3,3,5.668026e-01,5.668027e-01
2.175053e+00,1.991221e+00,3,3,5.720731e-01,5.720730e-01
2.174521e+00,1.991334e+00,3,3,5.279954e-01,5.279954e-01
2.180052e+00,1.995015e+00,3,3,4.517939e-01,4.517937e-01
2.174872e+00,1.990950e+00,3,3,3.135775e-01,3.135775e-01
2.172162e+00,1.991265e+00,3,3,5.541269e-01,5.541267e-01
2.174007e+00,1.993813e+00,3,3,2.932912e-01,2.932912e-01
2.174493e+00,1.989596e+00,3,3,3.389812e-01,3.389811e-01
2.176039e+00,1.993032e+00,3,3,8.799457e-01,8.799454e-01
2.179340e+00,1.990377e+00,3,3,6.417358e-01,6.417358e-01
2.173709e+00,1.992426e+00,3,3,2.071074e+00,2.071073e+00
2.176241e+00,1.990482e+00,3,3,1.435473e+00,1.435473e+00
2.175236e+00,1.991061e+00,3,3,1.390161e+00,1.390161e+00
2.176838e+00,1.993719e+00,3,3,1.731335e+00,1.731335e+00
2.180240e+00,1.994045e+00,3,3,1.563274e+00,1.563274e+00
2.175676e+00,1.995886e+00,3,3,1.722298e+00,1.722298e+00
2.175568e+00,1.991651e+00,3,3,3.041249e+00,3.041248e+00
2.178524e+00,1.993347e+00,3,3,1.973556e+00,1.973557e+00
2.177405e+00,1.994187e+00,3,3,1.500021e+00,1.500021e+00
2.176141e+00,1.995036e+00,3,3,1.307078e+00,1.307078e+00
2.176355e+00,1.990902e+00,3,3,7.837009e-01,7.837005e-01
2.176832e+00,1.994321e+00,3,3,8.577124e-01,8.577121e-01
2.174104e+00,1.992001e+00,3,3,5.381547e-01,5.381546e-01
2.174095e+00,1.992500e+00,3,3,7.102121e-01,7.102119e-01
2.176650e+00,1.988916e+00,3,3,3.163724e-01,3.163724e-01
2.178460e+00,1.988094e+00,3,3,2.572593e-01,2.572593e-01
2.175115e+00,1.990321e+00,3,3,2.640309e-01,2.640309e-01
2.173087e+00,1.992364e+00,3,3,5.737803e-01,5.737800e-01
2.172831e+00,1.992872e+00,3,3,5.918229e-01,5.918228e-01
2.175903e+00,1.991862e+00,3,3,5.015533e-01,5.015533e-01
2.175557e+00,1.986673e+00,3,3,5.463037e-01,5.463036e-01
2.175152e+00,1.988641e+00,3,3,4.626954e-01,4.626953e-01
2.173350e+00,1.991619e+00,3,3,8.631080e-01,8.631077e-01
2.172847e+00,1.989779e+00,3,3,1.472351e+00,1.472351e+00
2.174410e+00,1.991572e+00,3,3,1.662220e+00,1.662220e+00
2.177078e+00,1.998741e+00,3,3,1.301745e+00,1.301745e+00
2.180915e+00,1.991288e+00,3,3,1.159385e+00,1.159385e+00
2.175924e+00,1.992331e+00,3,3,1.072051e+00,1.072051e+00
2.175704e+00,1.994919e+00,3,3,7.684563e-01,7.684566e-01
2.175755e+00,1.993163e+00,3,3,6.784001e-01,6.783996e-01
2.180060e+00,1.991922e+00,3,3,1.196297e+00,1.196297e+00
2.180497e+00,1.992736e+00,3,3,1.709782e+00,1.709782e+00
2.177121e+00,1.991183e+00,3,3,1.043919e+00,1.043919e+00
2.176524e+00,1.990744e+00,3,3,9.875307e-01,9.875306e-01
2.174757e+00,1.992122e+00,3,3,8.865288e-01,8.865287e-01
2.175683e+00,1.990356e+00,3,3,8.128521e-01,8.128521e-01
2.174877e+00,1.991486e+00,3,3,6.697334e-01,6.697333e-01
2.179512e+00,1.990224e+00,3,3,7.530319e-01,7.530317e-01
2.173786e+00,1.992659e+00,3,3,1.230919e+00,1.230918e+00
2.173948e+00,1.990943e+00,3,3,1.183022e+00,1.183022e+00
2.176744e+00,1.991230e+00,3,3,1.252941e+00,1.252941e+00
2.177681e+00,1.990696e+00,3,3,1.423218e+00,1.423218e+00
2.182092e+00,1.991169e+00,3,3,6.507719e-01,6.507719e-01
2.174016e+00,1.990289e+00,3,3,5.206022e-01,5.206021e-01
2.174050e+00,1.991610e+00,3,3,5.456128e-01,5.456127e-01
2.174266e+00,1.993979e+00,3,3,2.479389e-01,2.479388e-01
2.172464e+00,1.989385e+00,3,3,2.496522e-01,2.496521e-01
2.172318e+00,1.989108e+00,3,3,4.269773e-01,4.269773e-01
2.176813e+00,1.993413e+00,3,3,3.636976e-01,3.636976e-01
2.173152e+00,1.991729e+00,3,3,9.785740e-01,9.785736e-01
2.175724e+00,1.990458e+00,3,3,7.268560e-01,7.268558e-01
2.173914e+00,1.991950e+00,3,3,5.136756e-01,5.136756e-01
2.173191e+00,1.988428e+00,3,3,4.576677e-01,4.576677e-01
2.172923e+00,1.984610e+00,3,3,4.659249e-01,4.659248e-01
2.174907e+00,1.990974e+00,3,3,4.789386e-01,4.789385e-01
2.175014e+00,1.991272e+00,3,3,3.020712e-01,3.020711e-01
2.173975e+00,1.990594e+00,3,3,3.394949e-01,3.394949e-01
2.174032e+00,1.989848e+00,3,3,2.773602e-01,2.773601e-01
2.172353e+00,1.988529e+00,3,3,2.395149e-01,2.395148e-01
2.180835e+00,1.992004e+00,3,3,6.457921e-01,6.457918e-01
2.175855e+00,1.993272e+00,3,3,4.074345e-01,4.074344e-01
2.171531e+00,1.990483e+00,3,3,6.452883e-01,6.452882e-01
2.173374e+00,1.989426e+00,3,3,1.041434e+00,1.041434e+00
2.174328e+00,1.988134e+00,3,3,8.929497e-01,8.929495e-01
2.173915e+00,1.989624e+00,3,3,1.012410e+00,1.012410e+00
2.179180e+00,1.990816e+00,3,3,7.096735e-01,7.096735e-01
2.175392e+00,1.990554e+00,3,3,7.097719e-01,7.097718e-01
2.171664e+00,1.991620e+00,3,3,8.114484e-01,8.114482e-01
2.172905e+00,1.990818e+00,3,3,1.782533e+00,1.782532e+00
2.176289e+00,1.992418e+00,3,3,2.360345e+00,2.360345e+00
2.183273e+00,1.989505e+00,3,3,2.091245e+00,2.091245e+00
2.177216e+00,1.991658e+00,3,3,1.700483e+00,1.700483e+00
2.175917e+00,1.989133e+00,3,3,1.573433e+00,1.573433e+00
2.174852e+00,1.991658e+00,3,3,1.068433e+00,1.068433e+00
2.174559e+00,1.991933e+00,3,3,1.055489e+00,1.055489e+00
2.174932e+00,1.991565e+00,3,3,1.037042e+00,1.037043e+00
2.178019e+00,1.991071e+00,3,3,7.956419e-01,7.956418e-01
2.175395e+00,1.991417e+00,3,3,7.031977e-01,7.031977e-01
2.174470e+00,1.989634e+00,3,3,1.431403e+00,1.431402e+00
2.173453e+00,1.992548e+00,3,3,2.982459e+00,2.982459e+00
2.175816e+00,1.992177e+00,3,3,3.031292e+00,3.031307e+00
2.183247e+00,1.992060e+00,3,3,3.054756e+00,3.054757e+00
2.176674e+00,1.991585e+00,3,3,3.560046e+00,3.560045e+00
2.175890e+00,1.990712e+00,3,3,5.094585e+00,5.094584e+00
2.177697e+00,1.991955e+00,3,3,3.266813e+00,3.266813e+00
2.177740e+00,1.993401e+00,3,3,3.985971e+00,3.985971e+00
2.177762e+00,1.993309e+00,3,3,3.077095e+00,3.077095e+00
2.180598e+00,1.990659e+00,3,3,2.875842e+00,2.875842e+00
2.176790e+00,1.991622e+00,3,3,1.974609e+00,1.974610e+00
2.175435e+00,1.990568e+00,3,3,2.489613e+00,2.489612e+00
2.177088e+00,1.993048e+00,3,3,1.671700e+00,1.671700e+00
2.174293e+00,1.989821e+00,3,3,2.163049e+00,2.163049e+00
2.180949e+00,1.991224e+00,3,3,7.060858e-01,7.060859e-01
2.173947e+00,1.989293e+00,3,3,9.278112e-01,9.278108e-01
2.172600e+00,1.992112e+00,3,3,1.801302e+00,1.801301e+00
2.175772e+00,1.994297e+00,3,3,1.390126e+00,1.390126e+00
2.175352e+00,1.989440e+00,3,3,2.192366e+00,2.192366e+00
2.175588e+00,1.989938e+00,3,3,1.943406e+00,1.943406e+00
2.179083e+00,1.991569e+00,3,3,3.271115e+00,3.271114e+00
2.177598e+00,1.991314e+00,3,3,1.690081e+00,1.690082e+00
2.175086e+00,1.991558e+00,3,3,1.412897e+00,1.412897e+00
2.174555e+00,1.989377e+00,3,3,1.101795e+00,1.101795e+00
2.175561e+00,1.991478e+00,3,3,1.109851e+00,1.109851e+00
2.180788e+00,1.991174e+00,3,3,1.180536e+00,1.180536e+00
2.175216e+00,1.990432e+00,3,3,1.770951e+00,1.770950e+00
2.175530e+00,1.989971e+00,3,3,7.989784e-01,7.989788e-01
2.173158e+00,1.991387e+00,3,3,5.277632e-01,5.277632e-01
2.172299e+00,1.989259e+00,3,3,5.981930e-01,5.981929e-01
2.173616e+00,1.989666e+00,3,3,5.715218e-01,5.715216e-01
2.178449e+00,1.989171e+00,3,3,4.452683e-01,4.452683e-01
2.172944e+00,1.992789e+00,3,3,7.191437e-01,7.191434e-01
2.173953e+00,1.992448e+00,3,3,1.052368e+00,1.052368e+00
2.173391e+00,1.993099e+00,3,3,1.601011e+00,1.601010e+00
2.174976e+00,1.989973e+00,3,3,3.478521e+00,3.478520e+00
2.181022e+00,1.991136e+00,3,3,4.513895e+00,4.513894e+00
2.177934e+00,1.991605e+00,3,3,3.065427e+00,3.065427e+00
2.176986e+00,1.991924e+00,3,3,3.784498e+00,3.784497e+00
2.179978e+00,1.991476e+00,3,3,2.730896e+00,2.730896e+00
2.177737e+00,1.991728e+00,3,3,2.168829e+00,2.168829e+00
2.178642e+00,1.990912e+00,3,3,2.418008e+00,2.418008e+00
2.182069e+00,1.994269e+00,3,3,1.306408e+00,1.306408e+00
2.178301e+00,1.992517e+00,3,3,9.994503e-01,9.994498e-01
2.175604e+00,1.991383e+00,3,3,7.696706e-01,7.696706e-01
2.173869e+00,1.991945e+00,3,3,7.205270e-01,7.205269e-01
2.175155e+00,1.989677e+00,3,3,6.833739e-01,6.833738e-01
2.179259e+00,1.992694e+00,3,3,1.060776e+00,1.060775e+00
2.176812e+00,1.991441e+00,3,3,3.632746e-01,3.632747e-01
2.174830e+00,1.991459e+00,3,3,1.456902e+00,1.456901e+00
2.173212e+00,1.992455e+00,3,3,3.221296e+00,3.221295e+00
2.177651e+00,1.993989e+00,3,3,1.879964e+00,1.879965e+00
2.177602e+00,1.989976e+00,3,3,1.342882e+00,1.342882e+00
2.180792e+00,1.993628e+00,3,3,1.100857e+00,1.100857e+00
2.175292e+00,1.991511e+00,3,3,9.350528e-01,9.350528e-01
2.173789e+00,1.991799e+00,3,3,8.765951e-01,8.765950e-01
2.173769e+00,1.992508e+00,3,3,1.483478e+00,1.483477e+00
2.175688e+00,1.991171e+00,3,3,1.146398e+00,1.146398e+00
2.179311e+00,1.990868e+00,3,3,8.245392e-01,8.245393e-01
2.174719e+00,1.991949e+00,3,3,9.175550e-01,9.175549e-01
2.173455e+00,1.991021e+00,3,3,1.572597e+00,1.572596e+00
2.175041e+00,1.989942e+00,3,3,2.547988e+00,2.547986e+00
2.176579e+00,1.989224e+00,3,3,4.638402e+00,4.638400e+00
2.177846e+00,1.991828e+00,3,3,5.660077e+00,5.660075e+00
2.183578e+00,1.992029e+00,3,3,5.111770e+00,5.111771e+00
2.177259e+00,1.991008e+00,3,3,5.361398e+00,5.361398e+00
2.184506e+00,1.994510e+00,3,3,4.518849e+00,4.518850e+00
2.177127e+00,1.991851e+00,3,3,4.751994e+00,4.751994e+00
2.178522e+00,1.992229e+00,3,3,4.746648e+00,4.746648e+00
2.182884e+00,1.994353e+00,3,3,3.913875e+00,3.913875e+00
2.179233e+00,1.991054e+00,3,3,3.373853e+00,3.373852e+00
2.177415e+00,1.989525e+00,3,3,2.596204e+00,2.596204e+00
2.177418e+00,1.992544e+00,3,3,2.364578e+00,2.364577e+00
2.179208e+00,1.992004e+00,3,3,2.377138e+00,2.377138e+00
2.180010e+00,1.994635e+00,3,3,3.044351e+00,3.044353e+00
2.177722e+00,1.992155e+00,3,3,5.471080e+00,5.469953e+00
4.335550e+00,3.975214e+00,6,6,5.713014e+00,5.711240e+00
3.620250e+00,3.312578e+00,5,5,6.257292e+00,6.256913e+00
2.899559e+00,2.651482e+00,4,4,5.303516e+00,5.303516e+00
2.178622e+00,1.991425e+00,3,3,5.338698e+00,5.338699e+00
2.176692e+00,1.990934e+00,3,3,6.515657e+00,6.515657e+00
2.177094e+00,1.990322e+00,3,3,6.035005e+00,6.035005e+00
2.178799e+00,1.992530e+00,3,3,5.027732e+00,5.027733e+00
2.178607e+00,1.991102e+00,3,3,4.242607e+00,4.242608e+00
2.183088e+00,1.993055e+00,3,3,3.761788e+00,3.761788e+00
2.176972e+00,1.993113e+00,3,3,3.222039e+00,3.222039e+00
2.178757e+00,1.992404e+00,3,3,2.958997e+00,2.958997e+00
2.176930e+00,1.991397e+00,3,3,3.072714e+00,3.072714e+00
2.176763e+00,1.990924e+00,3,3,1.689629e+00,1.689629e+00
2.181777e+00,1.989730e+00,3,3,1.466534e+00,1.466534e+00
2.176822e+00,1.990618e+00,3,3,1.622691e+00,1.622691e+00
2.174614e+00,1.989263e+00,3,3,1.121013e+00,1.121013e+00
2.174892e+00,1.989640e+00,3,3,9.460342e-01,9.460343e-01
2.175216e+00,1.990849e+00,3,3,7.684615e-01,7.684614e-01
2.175969e+00,1.991920e+00,3,3,4.885458e-01,4.885459e-01
2.182187e+00,1.990850e+00,3,3,3.703793e-01,3.703790e-01
2.174097e+00,1.991651e+00,3,3,2.797292e-01,2.797291e-01
2.173532e+00,1.992121e+00,3,3,3.974049e-01,3.974048e-01
2.173890e+00,1.990977e+00,3,3,5.354182e-01,5.354181e-01
2.174330e+00,1.990948e+00,3,3,3.592189e-01,3.592189e-01
2.179487e+00,1.992299e+00,3,3,4.040897e-01,4.040896e-01
2.171096e+00,1.993744e+00,3,3,1.113147e+00,1.113146e+00
2.172660e+00,1.990324e+00,3,3,2.515746e+00,2.515745e+00
2.174947e+00,1.991885e+00,3,3,3.426330e+00,3.426330e+00
2.177849e+00,1.991864e+00,3,3,2.879346e+00,2.879347e+00
2.174774e+00,1.993021e+00,3,3,3.110252e+00,3.110252e+00
2.181526e+00,1.991785e+00,3,3,3.024821e+00,3.024821e+00
2.178110e+00,1.991890e+00,3,3,2.671603e+00,2.671603e+00
2.175888e+00,1.991442e+00,3,3,2.112177e+00,2.112177e+00
2.174954e+00,1.992122e+00,3,3,2.070642e+00,2.070642e+00
2.177409e+00,1.991717e+00,3,3,3.677758e+00,3.677757e+00
2.182464e+00,1.992951e+00,3,3,4.748174e+00,4.748173e+00
2.178671e+00,1.991766e+00,3,3,5.601768e+00,5.601768e+00
2.178013e+00,1.991403e+00,3,3,4.561938e+00,4.561940e+00
2.177408e+00,1.990829e+00,3,3,3.478383e+00,3.478384e+00
2.178188e+00,1.990340e+00,3,3,2.544119e+00,2.544120e+00
2.180821e+00,1.990285e+00,3,3,2.076827e+00,2.076827e+00
2.175654e+00,1.990830e+00,3,3,2.759429e+00,2.759428e+00
2.176717e+00,1.993224e+00,3,3,2.751237e+00,2.751237e+00
2.177964e+00,1.990692e+00,3,3,2.069352e+00,2.069353e+00
2.176046e+00,1.990244e+00,3,3,2.024218e+00,2.024219e+00
2.175471e+00,1.990203e+00,3,3,2.326138e+00,2.326182e+00
2.181791e+00,1.991845e+00,3,3,2.414204e+00,2.414206e+00
2.177731e+00,1.991504e+00,3,3,2.956548e+00,2.956547e+00
2.179168e+00,1.991679e+00,3,3,2.350932e+00,2.350932e+00
2.177277e+00,1.992235e+00,3,3,3.067210e+00,3.067209e+00
2.176951e+00,1.994393e+00,3,3,3.023825e+00,3.023825e+00
2.182115e+00,1.995522e+00,3,3,2.527954e+00,2.527954e+00
2.177605e+00,1.993287e+00,3,3,2.091153e+00,2.091153e+00
2.176619e+00,1.993017e+00,3,3,2.201062e+00,2.201062e+00
2.177759e+00,1.989866e+00,3,3,2.211142e+00,2.211142e+00
2.177121e+00,1.993907e+00,3,3,1.630562e+00,1.630562e+00
2.175488e+00,1.992096e+00,3,3,1.629975e+00,1.629975e+00
2.180171e+00,1.990860e+00,3,3,1.065592e+00,1.065592e+00
2.174788e+00,1.993376e+00,3,3,8.781477e-01,8.781477e-01
2.173417e+00,1.992999e+00,3,3,5.657001e-01,5.657001e-01
2.174632e+00,1.990820e+00,3,3,3.837918e-01,3.837917e-01
2.173661e+00,1.990623e+00,3,3,2.168805e-01,2.168805e-01
2.178800e+00,1.991317e+00,3,3,4.077966e-01,4.077965e-01
2.173951e+00,1.990756e+00,3,3,2.298446e-01,2.298446e-01
2.172165e+00,1.991170e+00,3,3,2.219907e-01,2.219907e-01
2.173809e+00,1.990264e+00,3,3,1.341630e-01,1.341629e-01
2.173894e+00,1.990611e+00,3,3,1.470614e-01,1.470614e-01
2.173293e+00,1.991938e+00,3,3,1.317599e-01,1.317598e-01
2.177554e+00,1.991226e+00,3,3,3.249705e-01,3.249704e-01
2.175461e+00,1.992025e+00,3,3,2.494368e-01,2.494367e-01
2.174442e+00,1.989208e+00,3,3,2.719484e-01,2.719482e-01
2.170601e+00,1.990267e+00,3,3,5.469672e-01,5.469670e-01
2.175586e+00,1.990911e+00,3,3,2.990521e-01,2.990521e-01
2.177043e+00,1.988520e+00,3,3,4.258436e-01,4.258435e-01
2.175575e+00,1.990486e+00,3,3,4.302908e-01,4.302907e-01
2.173876e+00,1.991227e+00,3,3,7.247936e-01,7.247934e-01
2.174175e+00,1.990054e+00,3,3,5.522245e-01,5.522245e-01
2.173962e+00,1.990835e+00,3,3,3.638280e-01,3.638280e-01
2.174150e+00,1.989611e+00,3,3,2.660185e-01,2.660185e-01
2.178112e+00,1.992299e+00,3,3,3.563704e-01,3.563703e-01
2.174768e+00,1.991293e+00,3,3,3.281830e-01,3.281830e-01
2.172000e+00,1.991936e+00,3,3,2.648626e-01,2.648626e-01
2.173563e+00,1.991676e+00,3,3,4.637952e-01,4.637951e-01
2.173313e+00,1.992257e+00,3,3,3.516907e-01,3.516907e-01
2.178177e+00,1.986598e+00,3,3,5.227909e-01,5.227908e-01
2.173393e+00,1.992213e+00,3,3,9.246972e-01,9.246969e-01
2.174813e+00,1.990107e+00,3,3,8.107791e-01,8.107790e-01
2.174736e+00,1.991239e+00,3,3,7.181056e-01,7.181055e-01
2.173784e+00,1.988814e+00,3,3,1.643213e+00,1.643212e+00
2.174786e+00,1.993289e+00,3,3,1.993971e+00,1.993971e+00
2.180606e+00,1.989866e+00,3,3,1.134314e+00,1.134315e+00
2.175330e+00,1.990920e+00,3,3,8.482908e-01,8.482909e-01
2.172677e+00,1.991414e+00,3,3,6.537145e-01,6.537144e-01
2.172993e+00,1.991750e+00,3,3,4.364235e-01,4.364235e-01
2.174579e+00,1.990604e+00,3,3,3.864297e-01,3.864297e-01
2.175131e+00,1.990223e+00,3,3,5.548802e-01,5.548801e-01
2.179652e+00,1.994402e+00,3,3,5.307539e-01,5.307538e-01
2.175203e+00,1.991297e+00,3,3,2.639874e-01,2.639872e-01
2.173955e+00,1.989161e+00,3,3,7.176745e-01,7.176742e-01
2.178814e+00,1.989469e+00,3,3,3.984507e-01,3.984508e-01
2.173481e+00,1.990997e+00,3,3,3.519711e-01,3.519710e-01
2.178463e+00,1.989119e+00,3,3,4.923456e-01,4.923455e-01
2.176179e+00,1.989408e+00,3,3,4.030434e-01,4.030434e-01
2.175860e+00,1.991272e+00,3,3,4.731846e-01,4.731845e-01
2.174556e+00,1.992289e+00,3,3,6.026903e-01,6.026901e-01
2.174828e+00,1.990819e+00,3,3,4.755970e-01,4.755969e-01
2.176690e+00,1.989654e+00,3,3,4.945593e-01,4.945591e-01
2.184556e+00,1.994088e+00,3,3,6.169500e-01,6.169498e-01
2.173791e+00,1.991135e+00,3,3,7.574733e-01,7.574730e-01
2.173576e+00,1.990507e+00,3,3,1.135780e+00,1.135780e+00
2.175597e+00,1.991932e+00,3,3,7.866491e-01,7.866492e-01
2.175841e+00,1.991462e+00,3,3,7.565807e-01,7.565804e-01
2.178554e+00,1.992446e+00,3,3,7.321167e-01,7.321167e-01
2.181340e+00,1.991060e+00,3,3,7.926402e-01,7.926401e-01
2.175162e+00,2.000034e+00,3,3,6.555776e-01,6.555776e-01
2.175481e+00,1.989639e+00,3,3,1.115579e+00,1.115578e+00
2.174411e+00,1.993105e+00,3,3,8.292259e-01,8.292259e-01
2.179899e+00,1.993831e+00,3,3,7.751479e-01,7.751479e-01
2.176459e+00,1.992390e+00,3,3,7.596664e-01,7.596663e-01
2.174960e+00,1.990771e+00,3,3,6.878800e-01,6.878800e-01
2.174006e+00,1.993146e+00,3,3,4.928142e-01,4.928142e-01
2.176864e+00,1.992163e+00,3,3,6.019884e-01,6.019883e-01
2.175791e+00,1.989954e+00,3,3,6.788413e-01,6.788412e-01
2.177934e+00,1.991966e+00,3,3,4.668366e-01,4.668366e-01
2.174308e+00,1.992940e+00,3,3,8.782754e-01,8.782751e-01
2.176184e+00,1.990098e+00,3,3,6.180908e-01,6.180907e-01
2.175709e+00,1.990338e+00,3,3,5.652448e-01,5.652448e-01
2.174127e+00,1.990325e+00,3,3,5.058768e-01,5.058767e-01
2.177742e+00,1.988625e+00,3,3,3.970621e-01,3.970619e-01
2.175146e+00,1.989600e+00,3,3,2.920315e-01,2.920314e-01
2.173003e+00,1.990222e+00,3,3,5.797132e-01,5.797130e-01
2.175259e+00,1.993395e+00,3,3,4.997387e-01,4.997387e-01
2.174754e+00,1.992927e+00,3,3,5.083587e-01,5.083586e-01
2.175179e+00,1.991401e+00,3,3,4.753980e-01,4.753980e-01
2.179932e+00,1.991483e+00,3,3,3.696112e-01,3.696112e-01
2.174146e+00,1.996994e+00,3,3,4.437724e-01,4.437724e-01
2.174691e+00,1.989299e+00,3,3,3.442508e-01,3.442508e-01
2.175830e+00,1.991883e+00,3,3,1.454103e+00,1.454102e+00
2.174610e+00,1.990993e+00,3,3,3.218331e+00,3.218330e+00
2.182339e+00,1.992161e+00,3,3,2.417657e+00,2.417658e+00
2.177347e+00,1.993758e+00,3,3,1.723446e+00,1.723446e+00
2.177110e+00,1.993162e+00,3,3,1.264258e+00,1.264258e+00
2.174575e+00,1.993236e+00,3,3,1.366920e+00,1.366920e+00
2.174238e+00,1.994567e+00,3,3,1.080435e+00,1.080435e+00
2.175607e+00,1.991567e+00,3,3,1.043226e+00,1.043225e+00
2.180039e+00,1.991643e+00,3,3,1.256922e+00,1.256922e+00
2.174979e+00,1.992246e+00,3,3,1.434063e+00,1.434063e+00
2.174509e+00,1.992929e+00,3,3,1.312156e+00,1.312156e+00
2.175368e+00,1.991342e+00,3,3,1.397977e+00,1.397976e+00
2.176235e+00,1.991690e+00,3,3,1.862986e+00,1.862986e+00
2.180887e+00,1.992587e+00,3,3,1.373502e+00,1.373503e+00
2.176546e+00,1.989892e+00,3,3,9.297362e-01,9.297363e-01
2.174158e+00,1.992212e+00,3,3,5.499819e-01,5.499820e-01
2.174417e+00,1.988955e+00,3,3,3.668241e-01,3.668241e-01
2.173477e+00,1.996420e+00,3,3,2.877421e-01,2.877421e-01
2.173337e+00,1.989501e+00,3,3,3.947996e-01,3.947995e-01
2.179272e+00,1.991705e+00,3,3,2.789253e-01,2.789253e-01
2.172502e+00,1.989634e+00,3,3,4.675909e-01,4.675908e-01
2.172689e+00,1.990432e+00,3,3,4.970991e-01,4.970991e-01
2.174450e+00,1.991530e+00,3,3,4.618604e-01,4.618604e-01
2.174917e+00,1.991534e+00,3,3,5.953787e-01,5.953785e-01
2.178843e+00,1.991312e+00,3,3,3.315744e-01,3.315744e-01
2.174072e+00,1.991799e+00,3,3,2.690353e-01,2.690353e-01
2.174202e+00,1.991690e+00,3,3,1.439643e+00,1.439642e+00
2.174493e+00,1.992071e+00,3,3,1.497718e+00,1.497718e+00
2.175867e+00,1.990575e+00,3,3,7.278631e-01,7.278632e-01
2.173692e+00,1.990888e+00,3,3,7.180869e-01,7.180869e-01
2.177414e+00,1.989227e+00,3,3,6.287770e-01,6.287770e-01
2.174116e+00,1.994378e+00,3,3,6.738871e-01,6.738870e-01
2.175163e+00,1.991847e+00,3,3,3.442746e-01,3.442746e-01
2.174626e+00,1.989529e+00,3,3,2.890967e-01,2.890966e-01
2.173140e+00,1.992144e+00,3,3,5.501280e-01,5.501279e-01
2.178052e+00,1.994877e+00,3,3,6.853617e-01,6.853616e-01
2.174768e+00,1.991480e+00,3,3,8.436035e-01,8.436034e-01
2.173004e+00,1.991404e+00,3,3,5.492795e-01,5.492794e-01
2.173368e+00,1.989584e+00,3,3,5.277898e-01,5.277897e-01
2.173784e+00,1.991684e+00,3,3,7.921036e-01,7.921033e-01
2.175797e+00,1.993156e+00,3,3,1.174943e+00,1.174943e+00
2.179275e+00,1.993607e+00,3,3,1.302872e+00,1.302872e+00
2.174331e+00,1.991350e+00,3,3,1.817075e+00,1.817074e+00
2.176525e+00,1.991289e+00,3,3,1.715553e+00,1.715552e+00
2.174079e+00,1.988892e+00,3,3,2.668087e+00,2.668103e+00
2.176390e+00,1.991065e+00,3,3,1.115492e+00,1.115493e+00
2.175359e+00,1.986350e+00,3,3,9.496606e-01,9.496606e-01
2.175457e+00,1.987975e+00,3,3,1.501024e+00,1.501024e+00
2.177255e+00,1.991664e+00,3,3,7.347604e-01,7.347606e-01
2.174474e+00,1.991331e+00,3,3,6.038978e-01,6.038978e-01
2.171966e+00,1.992156e+00,3,3,4.902774e-01,4.902774e-01
2.174163e+00,1.989487e+00,3,3,3.288293e-01,3.288293e-01
2.177471e+00,1.988628e+00,3,3,6.713521e-01,6.713518e-01
2.174876e+00,1.990098e+00,3,3,4.977229e-01,4.977229e-01
2.173581e+00,1.995649e+00,3,3,2.836769e-01,2.836769e-01
2.175128e+00,1.990584e+00,3,3,6.883478e-01,6.883476e-01
2.174034e+00,1.991005e+00,3,3,4.772056e-01,4.772056e-01
2.174161e+00,1.993338e+00,3,3,2.511077e-01,2.511076e-01
2.176858e+00,1.989474e+00,3,3,2.738075e-01,2.738075e-01
2.173573e+00,1.991752e+00,3,3,3.426128e-01,3.426127e-01
2.172381e+00,1.988885e+00,3,3,5.175559e-01,5.175557e-01
2.175313e+00,1.991819e+00,3,3,1.085621e+00,1.085620e+00
2.176492e+00,1.990587e+00,3,3,7.889274e-01,7.889268e-01
2.179975e+00,1.991850e+00,3,3,1.428564e+00,1.428564e+00
2.177005e+00,1.991580e+00,3,3,6.237529e-01,6.237532e-01
2.174691e+00,1.991133e+00,3,3,4.968843e-01,4.968843e-01
2.172001e+00,1.991168e+00,3,3,3.323235e-01,3.323235e-01
2.174393e+00,1.991119e+00,3,3,3.053993e-01,3.053992e-01
2.193077e+00,1.990391e+00,3,3,8.580966e-01,8.580961e-01
2.181698e+00,1.992186e+00,3,3,8.560168e-01,8.560167e-01
2.174302e+00,1.990176e+00,3,3,1.314324e+00,1.314324e+00
2.175286e+00,1.991387e+00,3,3,1.348979e+00,1.348978e+00
2.176184e+00,1.990799e+00,3,3,1.548499e+00,1.548499e+00
2.177243e+00,1.991018e+00,3,3,2.537411e+00,2.537410e+00
2.182100e+00,1.989962e+00,3,3,2.841244e+00,2.841244e+00
2.177193e+00,1.992328e+00,3,3,2.122467e+00,2.122467e+00
2.177419e+00,1.991932e+00,3,3,1.906988e+00,1.906988e+00
2.177084e+00,1.992041e+00,3,3,2.680196e+00,2.680195e+00
2.178123e+00,1.991667e+00,3,3,1.820733e+00,1.820733e+00
2.180789e+00,1.988104e+00,3,3,1.509586e+00,1.509586e+00
2.177644e+00,1.993869e+00,3,3,1.527028e+00,1.527028e+00
2.175760e+00,1.991812e+00,3,3,1.650966e+00,1.650966e+00
2.174131e+00,1.991950e+00,3,3,1.808040e+00,1.808040e+00
2.176268e+00,1.989354e+00,3,3,1.332607e+00,1.332607e+00
2.176459e+00,1.991388e+00,3,3,1.278936e+00,1.278936e+00
2.179345e+00,1.995187e+00,3,3,1.640312e+00,1.640312e+00
2.177498e+00,1.992046e+00,3,3,1.799947e+00,1.799947e+00
2.177419e+00,1.991194e+00,3,3,1.140225e+00,1.140225e+00
2.174578e+00,1.988490e+00,3,3,1.096302e+00,1.096302e+00
2.174354e+00,1.991516e+00,3,3,6.438885e-01,6.438888e-01
2.179348e+00,1.991701e+00,3,3,6.245333e-01,6.245332e-01

