5.977450e-01,2.264895e+01,2.232003e+01,2,70,0.000000e+00,9.750105e-22,1
8.225540e-01,3.311500e-01,3.180504e-01,3,0,1.204761e-01,1.204728e-01,1
1.090926e+00,3.308590e-01,3.211498e-01,4,0,2.107822e-01,2.099428e-01,1
1.365437e+00,5.504010e-01,5.431175e-01,5,1,4.741114e-01,4.740083e-01,1
2.721586e+00,5.397300e-01,5.300045e-01,10,1,4.378905e-01,4.246467e-01,1
1.905546e+00,2.068611e+00,2.059937e+00,7,8,1.595517e+00,1.582410e+00,1
1.902650e+00,1.551439e+00,1.542091e+00,7,6,2.238233e+00,2.225454e+00,1
1.904346e+00,1.530234e+00,1.520872e+00,7,5,2.916382e+00,2.903418e+00,1
1.092359e+00,3.364439e+00,3.355980e+00,4,14,1.449505e+00,1.440726e+00,1
1.903784e+00,1.184383e+00,1.173973e+00,7,4,1.294282e+00,1.291544e+00,1
1.903706e+00,1.584551e+00,1.574993e+00,7,6,1.006810e+00,1.004572e+00,1
1.902657e+00,7.427650e-01,7.340908e-01,7,2,9.638046e-01,9.609490e-01,1
1.902888e+00,9.436400e-01,9.348392e-01,7,3,1.494048e+00,1.484818e+00,1
1.916119e+00,5.157360e-01,5.061626e-01,7,1,2.211829e+00,2.205551e+00,1
1.902064e+00,1.143352e+00,1.134872e+00,7,4,1.811110e+00,1.806158e+00,1
1.902182e+00,1.556881e+00,1.546860e+00,7,6,2.662798e+00,2.656695e+00,1
1.091574e+00,2.441793e+00,2.431870e+00,4,10,2.119562e+00,2.114417e+00,1
1.904158e+00,1.860222e+00,1.850128e+00,7,6,1.781704e+00,1.786336e+00,1
1.902783e+00,1.181922e+00,1.171827e+00,7,3,1.775049e+00,1.788071e+00,1
1.634673e+00,2.667716e+00,2.659082e+00,6,9,1.911927e+00,1.911437e+00,1
1.902471e+00,2.051018e+00,2.043009e+00,7,8,1.980033e+00,1.971587e+00,1
1.902932e+00,1.763986e+00,1.754045e+00,7,7,1.763297e+00,1.761719e+00,1
1.632622e+00,2.084446e+00,2.076149e+00,6,7,1.522589e+00,1.518934e+00,1
1.094644e+00,2.232259e+00,2.224207e+00,4,7,1.528008e+00,1.519958e+00,1
1.896407e+00,9.923270e-01,9.832382e-01,7,3,1.480096e+00,1.475377e+00,1
1.901896e+00,9.322930e-01,9.238720e-01,7,3,1.377000e+00,1.371348e+00,1
1.090781e+00,2.375232e+00,2.366066e+00,4,10,1.154533e+00,1.144915e+00,1
1.901870e+00,1.562521e+00,1.554012e+00,7,6,8.192722e-01,8.150680e-01,1
2.720332e+00,1.589669e+00,1.580000e+00,10,6,4.802449e-01,4.726491e-01,1
2.171677e+00,3.257010e-01,3.170967e-01,8,0,3.520543e-01,3.496493e-01,1
1.089218e+00,7.643110e-01,7.550716e-01,4,2,5.924555e-01,5.909104e-01,1
2.719922e+00,2.213091e+00,2.203941e+00,10,9,7.659004e-01,7.636454e-01,1
1.900852e+00,9.345670e-01,9.260178e-01,7,3,6.282494e-01,6.234297e-01,1
1.901269e+00,7.285690e-01,7.200241e-01,7,2,1.041323e+00,1.033951e+00,1
1.901883e+00,7.185520e-01,7.109642e-01,7,2,7.773130e-01,7.721308e-01,1
1.905881e+00,7.364870e-01,7.271767e-01,7,2,5.588734e-01,5.571321e-01,1
1.901978e+00,1.176279e+00,1.166821e+00,7,4,5.120870e-01,5.111929e-01,1
1.093551e+00,1.183518e+00,1.175165e+00,4,4,5.190935e-01,5.152283e-01,1
1.903196e+00,1.356177e+00,1.347065e+00,7,5,1.244000e+00,1.233611e+00,1
1.897847e+00,7.220010e-01,7.140636e-01,7,2,1.204166e+00,1.197824e+00,1
1.903431e+00,1.733558e+00,1.724005e+00,7,7,2.689842e+00,2.670670e+00,1
1.902934e+00,1.099519e+00,1.091003e+00,7,4,4.009392e+00,3.984462e+00,1
1.903457e+00,1.514785e+00,1.505136e+00,7,6,2.560257e+00,2.554239e+00,1
1.902737e+00,1.487034e+00,1.477957e+00,7,5,3.698827e+00,3.681571e+00,1
1.905477e+00,1.923338e+00,1.912832e+00,7,6,3.088913e+00,3.084579e+00,1
1.905736e+00,2.951486e+00,2.941608e+00,7,10,2.281286e+00,2.278940e+00,1
1.906036e+00,2.216333e+00,2.206802e+00,7,8,1.971846e+00,1.964214e+00,1
1.902923e+00,7.114090e-01,7.016659e-01,7,2,1.579939e+00,1.574365e+00,1
1.904334e+00,9.236550e-01,9.150505e-01,7,3,1.153765e+00,1.149873e+00,1
1.903253e+00,1.986415e+00,1.978159e+00,7,8,5.541394e-01,5.530699e-01,1
1.904067e+00,7.578760e-01,7.479191e-01,7,2,5.939200e-01,5.898357e-01,1
1.360804e+00,1.417460e+00,1.408100e+00,5,5,9.431773e-01,9.425200e-01,1
1.905734e+00,7.471730e-01,7.388592e-01,7,2,7.354743e-01,7.341787e-01,1
2.718596e+00,1.193371e+00,1.184225e+00,10,4,6.130564e-01,6.128987e-01,1
2.172223e+00,1.107655e+00,1.098156e+00,8,3,7.779106e-01,7.749842e-01,1
1.903351e+00,9.358750e-01,9.279251e-01,7,2,1.145522e+00,1.151307e+00,1
1.900944e+00,1.337735e+00,1.328230e+00,7,4,5.907938e-01,5.904908e-01,1
1.091239e+00,1.416210e+00,1.407862e+00,4,5,7.909992e-01,7.891521e-01,1
1.900243e+00,5.307760e-01,5.228519e-01,7,1,1.151075e+00,1.146248e+00,1
1.903713e+00,9.544290e-01,9.458065e-01,7,3,1.921648e+00,1.913637e+00,1
1.362584e+00,3.518393e+00,3.509998e+00,5,15,5.952461e-01,5.923799e-01,1
1.904917e+00,9.328330e-01,9.231567e-01,7,3,1.842847e+00,1.833405e+00,1
1.903134e+00,1.129631e+00,1.120806e+00,7,4,4.087477e+00,4.060999e+00,1
1.901172e+00,2.143455e+00,2.134800e+00,7,9,1.890263e+00,1.885441e+00,1
1.904351e+00,1.155299e+00,1.146078e+00,7,4,2.781779e+00,2.777874e+00,1
2.175480e+00,3.041090e+00,3.031254e+00,8,13,1.017756e+00,1.015060e+00,1
1.902673e+00,1.801398e+00,1.789093e+00,7,7,1.222437e+00,1.221632e+00,1
2.173933e+00,7.651880e-01,7.569790e-01,8,2,9.288026e-01,9.287502e-01,1
1.092283e+00,1.417859e+00,1.408100e+00,4,5,7.525774e-01,7.488405e-01,1
2.446102e+00,1.395090e+00,1.386166e+00,9,5,5.447391e-01,5.438656e-01,1
1.091543e+00,5.597580e-01,5.507469e-01,4,1,8.948649e-01,8.944259e-01,1
1.913110e+00,5.560950e-01,5.469322e-01,7,1,9.702488e-01,9.699751e-01,1
1.366505e+00,3.296270e-01,3.199577e-01,5,0,1.056396e+00,1.056394e+00,1
1.094881e+00,1.410291e+00,1.402140e+00,4,5,1.255236e+00,1.252542e+00,1
1.914820e+00,1.377033e+00,1.368046e+00,7,4,1.839935e+00,1.836726e+00,1
1.905147e+00,1.522944e+00,1.514196e+00,7,4,2.489472e+00,2.509545e+00,1
1.902737e+00,2.214307e+00,2.205133e+00,7,7,1.601755e+00,1.654393e+00,1
1.900009e+00,4.061130e-01,3.969669e-01,7,0,1.491317e+00,1.527615e+00,1
1.089794e+00,1.090112e+00,1.080990e+00,4,3,1.171463e+00,1.170026e+00,1
1.899840e+00,5.434770e-01,5.350113e-01,7,1,4.617068e-01,4.602380e-01,1
1.905573e+00,1.392204e+00,1.384020e+00,7,5,1.912378e+00,1.904773e+00,1
1.896225e+00,9.485580e-01,9.400845e-01,7,3,1.402591e+00,1.400589e+00,1
1.901765e+00,3.256420e-01,3.168583e-01,7,0,1.082941e+00,1.080230e+00,1
1.903270e+00,1.180757e+00,1.171827e+00,7,4,9.359538e-01,9.341784e-01,1
1.360168e+00,2.616375e+00,2.606869e+00,5,11,1.618162e+00,1.616527e+00,1
1.903233e+00,1.925969e+00,1.916885e+00,7,8,3.353057e+00,3.321494e+00,1
2.175598e+00,1.855595e+00,1.846075e+00,8,7,5.237222e+00,5.231365e+00,1
1.906249e+00,3.215890e+00,3.206968e+00,7,12,7.881138e+00,7.870306e+00,1
1.905878e+00,3.698227e+00,3.688097e+00,7,15,6.187998e+00,6.161966e+00,1
2.715409e+00,2.824211e+00,2.814054e+00,10,12,4.132706e+00,4.128915e+00,1
1.905577e+00,1.676383e+00,1.667023e+00,7,7,2.906647e+00,2.898797e+00,1
1.901937e+00,4.993000e-01,4.899502e-01,7,1,1.916281e+00,1.902183e+00,1
1.902170e+00,7.024070e-01,6.930828e-01,7,2,2.884275e+00,2.876156e+00,1
1.901068e+00,7.041580e-01,6.949902e-01,7,2,2.030513e+00,2.021749e+00,1
1.901268e+00,7.068190e-01,6.971359e-01,7,2,2.816449e+00,2.781506e+00,1
1.902557e+00,1.301857e+00,1.292944e+00,7,5,3.268650e+00,3.234068e+00,1
1.902268e+00,2.117868e+00,2.110004e+00,7,9,1.222969e+00,1.215944e+00,1
1.902341e+00,1.576186e+00,1.567125e+00,7,6,9.905501e-01,9.848432e-01,1
1.901315e+00,1.135810e+00,1.126051e+00,7,4,1.465053e+00,1.456068e+00,1
1.902584e+00,7.135610e-01,7.052422e-01,7,2,1.492774e+00,1.486223e+00,1
2.449145e+00,2.172045e+00,2.163887e+00,9,9,1.053882e+00,1.051543e+00,1
1.903300e+00,1.373851e+00,1.366138e+00,7,5,1.281728e+00,1.281282e+00,1
2.717960e+00,1.195980e+00,1.187086e+00,10,4,5.478393e-01,5.444485e-01,1
1.916315e+00,1.174835e+00,1.167059e+00,7,4,4.866166e-01,4.843169e-01,1
1.903611e+00,9.573670e-01,9.477139e-01,7,3,3.916845e-01,3.891233e-01,1
1.901681e+00,5.372400e-01,5.288124e-01,7,1,6.544178e-01,6.541390e-01,1
1.900313e+00,7.609890e-01,7.519722e-01,7,2,8.494902e-01,8.479765e-01,1
1.901095e+00,7.513460e-01,7.419586e-01,7,2,8.314252e-01,8.292439e-01,1
3.256523e+00,1.385900e+00,1.376867e+00,12,5,5.637262e-01,5.613424e-01,1
1.090835e+00,7.665800e-01,7.567406e-01,4,2,5.853803e-01,5.834349e-01,1
1.903186e+00,5.424010e-01,5.331039e-01,7,1,5.836135e-01,5.832558e-01,1
1.900035e+00,5.418830e-01,5.319118e-01,7,1,6.010764e-01,6.000771e-01,1
1.902020e+00,5.415310e-01,5.331039e-01,7,1,4.216540e-01,4.199258e-01,1
1.901930e+00,7.687360e-01,7.607937e-01,7,2,6.596603e-01,6.585128e-01,1
2.172789e+00,9.681210e-01,9.589195e-01,8,3,3.109233e-01,3.106953e-01,1
1.358649e+00,7.595810e-01,7.510185e-01,5,2,3.169445e-01,3.161406e-01,1
1.901961e+00,9.660760e-01,9.579659e-01,7,3,8.255723e-01,8.197276e-01,1
1.903690e+00,7.512880e-01,7.410049e-01,7,2,5.630524e-01,5.613591e-01,1
1.903452e+00,1.169144e+00,1.161098e+00,7,4,2.046275e+00,2.034848e+00,1
1.905833e+00,2.066385e+00,2.056122e+00,7,7,1.632011e+00,1.639128e+00,1
1.095590e+00,2.978557e+00,2.967834e+00,4,11,1.722431e+00,1.712094e+00,1
1.899127e+00,7.355710e-01,7.259846e-01,7,2,2.369462e+00,2.364789e+00,1
1.903317e+00,5.342040e-01,5.240440e-01,7,1,2.086356e+00,2.083502e+00,1
1.905005e+00,7.472240e-01,7.381439e-01,7,2,2.155072e+00,2.153058e+00,1
1.906782e+00,5.324080e-01,5.240440e-01,7,1,3.621199e+00,3.619977e+00,1
1.897930e+00,1.385375e+00,1.377106e+00,7,5,2.501199e+00,2.500113e+00,1
1.901547e+00,7.587250e-01,7.491112e-01,7,2,1.720220e+00,1.720105e+00,1
2.718196e+00,5.499620e-01,5.409718e-01,10,1,1.294327e+00,1.279168e+00,1
1.091983e+00,1.617561e+00,1.604080e+00,4,6,7.642412e-01,7.610550e-01,1
2.719853e+00,1.604451e+00,1.595974e+00,10,6,8.127586e-01,8.007869e-01,1
2.174562e+00,5.400100e-01,5.300045e-01,8,1,6.145319e-01,6.144931e-01,1
8.154600e-01,1.195923e+00,1.188040e+00,3,4,7.642738e-01,7.611120e-01,1
1.634237e+00,1.407651e+00,1.399040e+00,6,5,4.134748e-01,4.131786e-01,1
2.714059e+00,5.402950e-01,5.311966e-01,10,1,3.540239e-01,3.518150e-01,1
1.090799e+00,3.258160e-01,3.168583e-01,4,0,3.486312e-01,3.478605e-01,1
1.091333e+00,5.558540e-01,5.481243e-01,4,1,8.613705e-01,8.579090e-01,1
1.090706e+00,9.810680e-01,9.729862e-01,4,3,9.833700e-01,9.788134e-01,1
1.904218e+00,7.573750e-01,7.491112e-01,7,2,8.041885e-01,8.039490e-01,1
2.717667e+00,5.452130e-01,5.369186e-01,10,1,8.956955e-01,8.947483e-01,1
1.902654e+00,5.589300e-01,5.500317e-01,7,1,6.851169e-01,6.843424e-01,1
1.900759e+00,7.494780e-01,7.398129e-01,7,2,9.900448e-01,9.861364e-01,1
1.896835e+00,1.157571e+00,1.148939e+00,7,4,1.579442e+00,1.570828e+00,1
1.903070e+00,1.144963e+00,1.136065e+00,7,4,1.997855e+00,1.990325e+00,1
2.720209e+00,2.359300e+00,2.351046e+00,10,10,1.737510e+00,1.735643e+00,1
1.903197e+00,9.173500e-01,9.081364e-01,7,3,1.511072e+00,1.507263e+00,1
1.902727e+00,7.185240e-01,7.090569e-01,7,2,1.354450e+00,1.352913e+00,1
1.901392e+00,7.377740e-01,7.290840e-01,7,2,1.028057e+00,1.024853e+00,1
1.633499e+00,1.380422e+00,1.371861e+00,6,5,9.928951e-01,9.928154e-01,1
1.091851e+00,1.614623e+00,1.605988e+00,4,6,1.315669e+00,1.314462e+00,1
1.901749e+00,5.222930e-01,5.140305e-01,7,1,1.708697e+00,1.701662e+00,1
1.900683e+00,9.368310e-01,9.288788e-01,7,3,8.899579e-01,8.869883e-01,1
1.900952e+00,7.471930e-01,7.376671e-01,7,2,9.827970e-01,9.819838e-01,1
1.089726e+00,1.191675e+00,1.183987e+00,4,4,7.616736e-01,7.555539e-01,1
1.901394e+00,7.550650e-01,7.469654e-01,7,2,6.415391e-01,6.386238e-01,1
2.171802e+00,7.408980e-01,7.319450e-01,8,2,5.195278e-01,5.181494e-01,1
2.711369e+00,7.536230e-01,7.450581e-01,10,2,7.788087e-01,7.788086e-01,1
8.215130e-01,7.671070e-01,7.579327e-01,3,2,1.514665e+00,1.511489e+00,1
1.902153e+00,7.545060e-01,7.450581e-01,7,2,1.277671e+00,1.274970e+00,1
3.258996e+00,1.175533e+00,1.167059e+00,12,4,1.440986e+00,1.433869e+00,1
1.903441e+00,1.590913e+00,1.581907e+00,7,6,1.599638e+00,1.595038e+00,1
1.900335e+00,1.777182e+00,1.769066e+00,7,7,7.105652e-01,7.104882e-01,1
1.634468e+00,7.642520e-01,7.550716e-01,6,2,5.563554e-01,5.561253e-01,1
1.089550e+00,7.619200e-01,7.529259e-01,4,2,5.025818e-01,4.999391e-01,1
2.722204e+00,7.554400e-01,7.481575e-01,10,2,2.441518e-01,2.428748e-01,1
1.360567e+00,5.457950e-01,5.369186e-01,5,1,2.670321e-01,2.667746e-01,1
1.089762e+00,5.491910e-01,5.419254e-01,4,1,4.624597e-01,4.618992e-01,1
2.175136e+00,5.376530e-01,5.300045e-01,8,1,3.438789e-01,3.431198e-01,1
1.093252e+00,2.030530e+00,2.022028e+00,4,8,1.278400e+00,1.274102e+00,1
1.630318e+00,1.781917e+00,1.773834e+00,6,7,1.141099e+00,1.138519e+00,1
1.636508e+00,9.817720e-01,9.732246e-01,6,3,7.617466e-01,7.610926e-01,1
1.901782e+00,7.561340e-01,7.472038e-01,7,2,6.586142e-01,6.582220e-01,1
1.901079e+00,3.218150e-01,3.118515e-01,7,0,6.079690e-01,6.076451e-01,1
1.900330e+00,3.213660e-01,3.120899e-01,7,0,5.803343e-01,5.801449e-01,1
2.724759e+00,7.652930e-01,7.572174e-01,10,2,4.907453e-01,4.902623e-01,1
1.084772e+00,5.308340e-01,5.221367e-01,4,1,6.105595e-01,6.101885e-01,1
2.717316e+00,5.566760e-01,5.488396e-01,10,1,4.778671e-01,4.751113e-01,1
1.902627e+00,3.157640e-01,3.070831e-01,7,0,4.024117e-01,4.021542e-01,1
1.086078e+00,1.826359e+00,1.817942e+00,4,7,8.798793e-01,8.763172e-01,1
2.659013e+00,1.769207e+00,1.761913e+00,10,7,8.167278e-01,8.165528e-01,1
1.060238e+00,5.620790e-01,5.540848e-01,4,1,1.123305e+00,1.123218e+00,1
1.895986e+00,9.431050e-01,9.341240e-01,7,3,1.509015e+00,1.506648e+00,1
1.899132e+00,2.232226e+00,2.223015e+00,7,9,1.421556e+00,1.419118e+00,1
1.898626e+00,1.123356e+00,1.114130e+00,7,4,1.583627e+00,1.576833e+00,1
1.877354e+00,1.131636e+00,1.123190e+00,7,4,1.109062e+00,1.106583e+00,1
1.898074e+00,9.522240e-01,9.438992e-01,7,3,9.233585e-01,9.208384e-01,1
1.872204e+00,3.061320e-01,2.970695e-01,7,0,1.105192e+00,1.100815e+00,1
1.899972e+00,1.914458e+00,1.904964e+00,7,8,2.181821e+00,2.153627e+00,1
1.872864e+00,1.090672e+00,1.081944e+00,7,4,2.935831e+00,2.906365e+00,1
1.875217e+00,1.508745e+00,1.499176e+00,7,6,2.471863e+00,2.457208e+00,1
1.873645e+00,1.288719e+00,1.279831e+00,7,5,1.800114e+00,1.797400e+00,1
1.900876e+00,1.453396e+00,1.446009e+00,7,6,1.723957e+00,1.719047e+00,1
1.897215e+00,6.940660e-01,6.847382e-01,7,2,9.947175e-01,9.895668e-01,1
2.686131e+00,1.745675e+00,1.737118e+00,10,7,1.228881e+00,1.228683e+00,1
1.875495e+00,7.649210e-01,7.560253e-01,7,2,1.211188e+00,1.209566e+00,1
1.895774e+00,7.629500e-01,7.538795e-01,7,2,8.986022e-01,8.984637e-01,1
2.717071e+00,7.401260e-01,7.319450e-01,10,2,7.771193e-01,7.746426e-01,1
2.715984e+00,2.155323e+00,2.147198e+00,10,7,1.636118e+00,1.701909e+00,1
1.844937e+00,3.437937e+00,3.430128e+00,7,12,3.370496e+00,3.477537e+00,1
1.849520e+00,1.809439e+00,1.800060e+00,7,6,3.297713e+00,3.262180e+00,1
1.882801e+00,1.355036e+00,1.347065e+00,7,5,3.360651e+00,3.320271e+00,1
1.889308e+00,1.074568e+00,1.065969e+00,7,4,4.156392e+00,4.122335e+00,1
1.899905e+00,1.953607e+00,1.944780e+00,7,7,6.423473e+00,6.389450e+00,1
1.927620e+00,2.732439e+00,2.724171e+00,7,12,3.797915e+00,3.783395e+00,1
1.886488e+00,1.676000e+00,1.667023e+00,7,7,4.546259e+00,4.520526e+00,1
2.694970e+00,2.779526e+00,2.771139e+00,10,13,3.459825e+00,3.451492e+00,1
1.873895e+00,1.268119e+00,1.258850e+00,7,5,3.183544e+00,3.173622e+00,1
1.898903e+00,1.066439e+00,1.056910e+00,7,4,1.854693e+00,1.848112e+00,1
1.873138e+00,3.072820e-01,2.989769e-01,7,0,2.672901e+00,2.667350e+00,1
1.865232e+00,8.919780e-01,8.828640e-01,7,3,1.705997e+00,1.703728e+00,1
1.899210e+00,9.400650e-01,9.310246e-01,7,3,2.102455e+00,2.095735e+00,1
1.897855e+00,1.965351e+00,1.956224e+00,7,8,6.516641e-01,6.513380e-01,1
1.346077e+00,3.245430e-01,3.168583e-01,5,0,1.281943e+00,1.281934e+00,1
1.087643e+00,2.237918e+00,2.229929e+00,4,7,2.767230e+00,2.796378e+00,1
1.899879e+00,5.834290e-01,5.748272e-01,7,1,1.782898e+00,1.777290e+00,1
1.883659e+00,1.635190e+00,1.626015e+00,7,6,2.995658e+00,2.984646e+00,1
1.899327e+00,8.719920e-01,8.630753e-01,7,2,2.757347e+00,2.752800e+00,1
1.915461e+00,2.340538e+00,2.332926e+00,7,10,3.976694e+00,3.933607e+00,1
1.871211e+00,3.036017e+00,3.026009e+00,7,14,2.053852e+00,2.047133e+00,1
2.165943e+00,2.211511e+00,2.202034e+00,8,9,1.609681e+00,1.604855e+00,1
1.899026e+00,1.288581e+00,1.280069e+00,7,5,1.145511e+00,1.139789e+00,1
1.875432e+00,7.242230e-01,7.150173e-01,7,2,1.085528e+00,1.080023e+00,1
1.881520e+00,6.925100e-01,6.840229e-01,7,2,1.101077e+00,1.098252e+00,1
1.900078e+00,3.347560e-01,3.249645e-01,7,0,1.917857e+00,1.908517e+00,1
1.874990e+00,1.136660e+00,1.127958e+00,7,4,8.089000e-01,8.063074e-01,1
1.611228e+00,1.171361e+00,1.162052e+00,6,4,6.878950e-01,6.877641e-01,1
1.084598e+00,3.170480e-01,3.087521e-01,4,0,8.942477e-01,8.942172e-01,1
8.218350e-01,3.167070e-01,3.080368e-01,3,0,9.402100e-01,9.392964e-01,1
1.322194e+00,5.616090e-01,5.528927e-01,5,1,6.675978e-01,6.669167e-01,1
1.096641e+00,1.387814e+00,1.379967e+00,4,5,8.262057e-01,8.190911e-01,1
1.847132e+00,3.092580e-01,3.006458e-01,7,0,1.119673e+00,1.115380e+00,1
1.873169e+00,1.158586e+00,1.150846e+00,7,4,1.622834e+00,1.614882e+00,1
1.874989e+00,2.291315e+00,2.283096e+00,7,10,3.657298e+00,3.612256e+00,1
1.898420e+00,8.744380e-01,8.659363e-01,7,3,5.091371e+00,5.033365e+00,1
1.902648e+00,2.699597e+00,2.677917e+00,7,12,3.331108e+00,3.315218e+00,1
1.928374e+00,1.364266e+00,1.355171e+00,7,5,4.164469e+00,4.142935e+00,1
3.258306e+00,3.821320e+00,3.812075e+00,12,15,2.897305e+00,2.896062e+00,1
1.874439e+00,1.600295e+00,1.590967e+00,7,5,2.031669e+00,2.023493e+00,1
1.874256e+00,2.071144e+00,2.063036e+00,7,7,2.348240e+00,2.368701e+00,1
1.900600e+00,1.535882e+00,1.526117e+00,7,5,1.090529e+00,1.082550e+00,1
1.876195e+00,2.177202e+00,2.168894e+00,7,9,1.055083e+00,1.047077e+00,1
3.215591e+00,2.013516e+00,2.003908e+00,12,8,7.428351e-01,7.399323e-01,1
1.639878e+00,7.706050e-01,7.619858e-01,6,2,7.139888e-01,7.115000e-01,1
1.872891e+00,1.374378e+00,1.365900e+00,7,5,6.853936e-01,6.814320e-01,1
1.883371e+00,3.225550e-01,3.020763e-01,7,0,1.064145e+00,1.059983e+00,1
1.345627e+00,1.571987e+00,1.564026e+00,5,6,4.097673e-01,4.092101e-01,1
1.328775e+00,1.832334e+00,1.822948e+00,5,6,1.482776e+00,1.492901e+00,1
1.849974e+00,2.263160e+00,2.254963e+00,7,7,3.659671e+00,3.713686e+00,1
1.923620e+00,2.880468e+00,2.871037e+00,7,10,2.061776e+00,2.065659e+00,1
3.240579e+00,1.066227e+00,1.045942e+00,12,3,1.478852e+00,1.466048e+00,1
2.955884e+00,3.179160e-01,3.099442e-01,11,0,1.120975e+00,1.120676e+00,1
1.085968e+00,5.650670e-01,5.548000e-01,4,1,9.466183e-01,9.438694e-01,1
2.161285e+00,5.432320e-01,5.338192e-01,8,1,9.449523e-01,9.427935e-01,1
1.087507e+00,2.028663e+00,2.019167e+00,4,8,1.772345e+00,1.764844e+00,1
1.896780e+00,9.369310e-01,9.281635e-01,7,3,1.443673e+00,1.440983e+00,1
2.715094e+00,1.371471e+00,1.364231e+00,10,5,1.165969e+00,1.165913e+00,1
7.968250e-01,3.183380e-01,3.101826e-01,3,0,1.276720e+00,1.276273e+00,1
1.323011e+00,2.627371e+00,2.617598e+00,5,11,1.855481e+00,1.849277e+00,1
1.901251e+00,1.876936e+00,1.868010e+00,7,8,3.090513e+00,3.060240e+00,1
1.875618e+00,1.514662e+00,1.506090e+00,7,6,5.940674e+00,5.883261e+00,1
1.876265e+00,1.965511e+00,1.956940e+00,7,7,7.434439e+00,7.449169e+00,1
1.888149e+00,2.387229e+00,2.377987e+00,7,9,6.455694e+00,6.452944e+00,1
1.873731e+00,1.902630e+00,1.893044e+00,7,7,6.860664e+00,6.880677e+00,1
1.876703e+00,2.489268e+00,2.480984e+00,7,9,5.532723e+00,5.540285e+00,1
1.883756e+00,1.064487e+00,1.055241e+00,7,3,5.444129e+00,5.428740e+00,1
1.900962e+00,1.256785e+00,1.249075e+00,7,4,5.250639e+00,5.249808e+00,1
1.877820e+00,3.095606e+00,3.086090e+00,7,12,4.162102e+00,4.166787e+00,1
1.898531e+00,1.073713e+00,1.065016e+00,7,3,3.400792e+00,3.441018e+00,1
1.869150e+00,1.543053e+00,1.535177e+00,7,5,2.446944e+00,2.468158e+00,1
1.900582e+00,2.392614e+00,2.383232e+00,7,8,2.253585e+00,2.288213e+00,1
1.898683e+00,1.347117e+00,1.338005e+00,7,4,2.417991e+00,2.502241e+00,1
1.901319e+00,1.923290e+00,1.913786e+00,7,6,3.297425e+00,3.544596e+00,1
1.877974e+00,6.173972e+00,6.160736e+00,7,21,6.583007e+00,9.009997e+00,0
1.876075e+00,1.892494e+00,1.880884e+00,7,4,7.263610e+00,9.100652e+00,0
1.863091e+00,4.763990e+00,4.752159e+00,7,17,8.196982e+00,8.505230e+00,0
1.902481e+00,3.534447e+00,3.525972e+00,7,14,7.136632e+00,7.186627e+00,1
1.901725e+00,3.373914e+00,3.365040e+00,7,13,6.958772e+00,6.988360e+00,1
1.876923e+00,2.426581e+00,2.418995e+00,7,9,8.309913e+00,8.397534e+00,1
1.591230e+00,3.496109e+00,3.486872e+00,6,14,7.535761e+00,7.539957e+00,1
1.850834e+00,2.148838e+00,2.140045e+00,7,8,6.118706e+00,6.137306e+00,1
1.866301e+00,1.613751e+00,1.604080e+00,7,6,4.749365e+00,4.746655e+00,1
1.899131e+00,6.907300e-01,6.830692e-01,7,2,3.874215e+00,3.859738e+00,1
1.900760e+00,1.052831e+00,1.044035e+00,7,4,3.077540e+00,3.057510e+00,1
1.876335e+00,6.982290e-01,6.902218e-01,7,2,2.827871e+00,2.815899e+00,1
1.899883e+00,9.884720e-01,9.787083e-01,7,3,3.127218e+00,3.121146e+00,1
1.901875e+00,1.143683e+00,1.135111e+00,7,4,1.514305e+00,1.507395e+00,1
1.898158e+00,6.974780e-01,6.890297e-01,7,2,1.297852e+00,1.292519e+00,1
1.900441e+00,7.377650e-01,7.288456e-01,7,2,1.519122e+00,1.514996e+00,1
1.924549e+00,7.496020e-01,7.421970e-01,7,2,9.349169e-01,9.340031e-01,1
1.887443e+00,7.532410e-01,7.450581e-01,7,2,9.087094e-01,9.086787e-01,1
1.910625e+00,7.663310e-01,7.581711e-01,7,2,7.024374e-01,7.009979e-01,1
1.085625e+00,9.433630e-01,9.341240e-01,4,3,6.154034e-01,6.130705e-01,1
1.086365e+00,7.710800e-01,7.631779e-01,4,2,6.247730e-01,6.230032e-01,1
3.239286e+00,7.633210e-01,7.550716e-01,12,2,5.932113e-01,5.913672e-01,1
1.085914e+00,7.717200e-01,7.622242e-01,4,2,6.503662e-01,6.495251e-01,1
1.897349e+00,5.526310e-01,5.440712e-01,7,1,6.542386e-01,6.529950e-01,1
2.423526e+00,1.390600e+00,1.380920e+00,9,5,5.053094e-01,5.048851e-01,1
1.898857e+00,7.614760e-01,7.529259e-01,7,2,5.547025e-01,5.546900e-01,1
8.242160e-01,9.808040e-01,9.720325e-01,3,3,1.749442e+00,1.747951e+00,1
1.907151e+00,3.002607e+00,2.994061e+00,7,13,3.944806e+00,3.940612e+00,1
2.183118e+00,2.488613e+00,2.480030e+00,8,9,5.134536e+00,5.146845e+00,1
1.901567e+00,2.624083e+00,2.615213e+00,7,10,4.089740e+00,4.053687e+00,1
1.908749e+00,9.899280e-01,9.810925e-01,7,3,4.439483e+00,4.391135e+00,1
1.902238e+00,1.825854e+00,1.816750e+00,7,8,4.119891e+00,4.088378e+00,1
1.902304e+00,1.447892e+00,1.439095e+00,7,6,3.486038e+00,3.471873e+00,1
1.092631e+00,2.544426e+00,2.535105e+00,4,11,2.461875e+00,2.438907e+00,1
1.903681e+00,6.082700e-01,5.998611e-01,7,1,2.316585e+00,2.298659e+00,1
2.176154e+00,3.619838e+00,3.611803e+00,8,13,4.600593e+00,4.631496e+00,1
2.175091e+00,1.301778e+00,1.294136e+00,8,4,6.299127e+00,6.454334e+00,1
2.178247e+00,4.625399e+00,4.616022e+00,8,18,7.425241e+00,7.674611e+00,1
1.906950e+00,5.364893e+00,5.355835e+00,7,22,5.897201e+00,5.913224e+00,1
1.905888e+00,2.634518e+00,2.624989e+00,7,11,4.338510e+00,4.324151e+00,1
1.904200e+00,1.467201e+00,1.457930e+00,7,6,2.992212e+00,2.985504e+00,1
1.090749e+00,1.888494e+00,1.880169e+00,4,8,2.264491e+00,2.249204e+00,1
1.903120e+00,7.100210e-01,7.021427e-01,7,2,3.228674e+00,3.207895e+00,1
1.897817e+00,7.167160e-01,7.081032e-01,7,2,3.265319e+00,3.245302e+00,1
1.901222e+00,7.263850e-01,7.178783e-01,7,2,2.391256e+00,2.384091e+00,1
1.901498e+00,5.279660e-01,5.199909e-01,7,1,2.470004e+00,2.467634e+00,1
1.903031e+00,3.166330e-01,3.080368e-01,7,0,2.901111e+00,2.890396e+00,1
1.903116e+00,9.588520e-01,9.498596e-01,7,3,3.026139e+00,3.015460e+00,1
1.904737e+00,2.105238e+00,2.097130e+00,7,7,3.722419e+00,3.714580e+00,1
1.361849e+00,4.931319e+00,4.922152e+00,5,18,2.985965e+00,2.973396e+00,1
2.179279e+00,4.170126e+00,4.162073e+00,8,15,3.800846e+00,3.795553e+00,1
1.903543e+00,1.170592e+00,1.162052e+00,7,3,3.633420e+00,3.634073e+00,1
2.177016e+00,1.435069e+00,1.425982e+00,8,4,2.976400e+00,3.009363e+00,1
1.904718e+00,2.416909e+00,2.408028e+00,7,8,2.341356e+00,2.353264e+00,1
1.903582e+00,2.178275e+00,2.169132e+00,7,7,2.479197e+00,2.504726e+00,1
1.901626e+00,1.169880e+00,1.160860e+00,7,3,2.415955e+00,2.435528e+00,1
1.901324e+00,1.136074e+00,1.127005e+00,7,3,1.557892e+00,1.557602e+00,1
1.899886e+00,1.154153e+00,1.146078e+00,7,3,1.545723e+00,1.564530e+00,1
1.901515e+00,1.182147e+00,1.173973e+00,7,3,9.668806e-01,9.664606e-01,1
1.634859e+00,1.773050e+00,1.764059e+00,6,6,9.277558e-01,9.273528e-01,1
1.899822e+00,5.370700e-01,5.300045e-01,7,1,6.706822e-01,6.692645e-01,1
1.900530e+00,7.544180e-01,7.472038e-01,7,2,5.251997e-01,5.245549e-01,1
2.710695e+00,5.403200e-01,5.321503e-01,10,1,4.296592e-01,4.238345e-01,1
1.358606e+00,5.511710e-01,5.419254e-01,5,1,5.680943e-01,5.680291e-01,1
1.899692e+00,5.453280e-01,5.359650e-01,7,1,2.500373e-01,2.495544e-01,1
1.364323e+00,5.434250e-01,5.350113e-01,5,1,2.312455e-01,2.310501e-01,1
3.257461e+00,5.384890e-01,5.300045e-01,12,1,2.009560e-01,2.001723e-01,1
1.090582e+00,3.308660e-01,3.221035e-01,4,0,2.135426e-01,2.135259e-01,1
8.195300e-01,3.247030e-01,3.159046e-01,3,0,2.325186e-01,2.324665e-01,1
1.089757e+00,3.243480e-01,3.159046e-01,4,0,4.560783e-01,4.560670e-01,1
8.217630e-01,1.192360e+00,1.183271e+00,3,4,2.821764e-01,2.780900e-01,1
1.364280e+00,1.613203e+00,1.603603e+00,5,6,3.900808e-01,3.897671e-01,1
1.900581e+00,3.214200e-01,3.139973e-01,7,0,7.181740e-01,7.176343e-01,1
2.170261e+00,7.592490e-01,7.512569e-01,8,2,4.545553e-01,4.525556e-01,1
1.363691e+00,3.247260e-01,3.170967e-01,5,0,5.821832e-01,5.821754e-01,1
1.090813e+00,3.245380e-01,3.170967e-01,4,0,6.204227e-01,6.203630e-01,1
8.213360e-01,9.812890e-01,9.729862e-01,3,3,8.270781e-01,8.208291e-01,1
1.901261e+00,7.521520e-01,7.441044e-01,7,2,6.498191e-01,6.496500e-01,1
2.172682e+00,5.408360e-01,5.321503e-01,8,1,4.067798e-01,4.064920e-01,1
2.443127e+00,3.296300e-01,3.209114e-01,9,0,2.767476e-01,2.643912e-01,1
1.632231e+00,3.312730e-01,3.228188e-01,6,0,3.998046e-01,3.997716e-01,1
2.188499e+00,3.306470e-01,3.221035e-01,8,0,3.255422e-01,3.226218e-01,1
1.091429e+00,3.259580e-01,3.168583e-01,4,0,2.535745e-01,2.534182e-01,1
1.091237e+00,3.307370e-01,3.221035e-01,4,0,6.287837e-01,6.287556e-01,1
1.091966e+00,3.243220e-01,3.159046e-01,4,0,3.917429e-01,3.917282e-01,1
8.147790e-01,3.311530e-01,3.228188e-01,3,0,6.864267e-01,6.863319e-01,1
1.090780e+00,3.307070e-01,3.218651e-01,4,0,1.432390e+00,1.432390e+00,1
1.091623e+00,1.193943e+00,1.186132e+00,4,4,1.066991e+00,1.066028e+00,1
1.901096e+00,5.354020e-01,5.271435e-01,7,1,8.870310e-01,8.858504e-01,1
1.902212e+00,7.456070e-01,7.371902e-01,7,2,1.866383e+00,1.861581e+00,1
1.901267e+00,7.412190e-01,7.328987e-01,7,2,2.384496e+00,2.379617e+00,1
1.900505e+00,1.168032e+00,1.160860e+00,7,4,1.063684e+00,1.061920e+00,1
1.901911e+00,7.537400e-01,7.448196e-01,7,2,7.146411e-01,7.144706e-01,1
1.090456e+00,1.412271e+00,1.402855e+00,4,5,7.067846e-01,7.020458e-01,1
1.902361e+00,5.373950e-01,5.278587e-01,7,1,3.245848e-01,3.235087e-01,1
1.901930e+00,5.338940e-01,5.259514e-01,7,1,2.611690e-01,2.595900e-01,1
1.901452e+00,7.495300e-01,7.400513e-01,7,2,5.090079e-01,5.073875e-01,1
1.900618e+00,5.345580e-01,5.261898e-01,7,1,4.574394e-01,4.556197e-01,1
1.092021e+00,1.406070e+00,1.396656e+00,4,5,4.405759e-01,4.378550e-01,1
1.903511e+00,9.681170e-01,9.591579e-01,7,3,1.017729e+00,1.014766e+00,1
1.901713e+00,1.171660e+00,1.163006e+00,7,4,7.061051e-01,7.059956e-01,1
2.989595e+00,5.474960e-01,5.390644e-01,11,1,6.449112e-01,6.445681e-01,1
1.091992e+00,7.664610e-01,7.569790e-01,4,2,6.923092e-01,6.912868e-01,1
3.258239e+00,9.778540e-01,9.701252e-01,12,3,5.367311e-01,5.233457e-01,1
1.628426e+00,5.435830e-01,5.350113e-01,6,1,5.997657e-01,5.992287e-01,1
1.904537e+00,9.751780e-01,9.660721e-01,7,3,8.694636e-01,8.687352e-01,1
1.090645e+00,1.408911e+00,1.399755e+00,4,5,5.708019e-01,5.647478e-01,1
1.630913e+00,1.174978e+00,1.167059e+00,6,4,7.175177e-01,7.172657e-01,1
1.091435e+00,3.304440e-01,3.221035e-01,4,0,8.583566e-01,8.583187e-01,1
2.720819e+00,3.243850e-01,3.149509e-01,10,0,9.821260e-01,9.776705e-01,1
1.090399e+00,1.198240e+00,1.191139e+00,4,4,1.343104e+00,1.340567e+00,1
1.900718e+00,5.340280e-01,5.247593e-01,7,1,7.284079e-01,7.262594e-01,1
1.091158e+00,2.047263e+00,2.038956e+00,4,8,6.430411e-01,6.383665e-01,1
1.901388e+00,7.450200e-01,7.359982e-01,7,2,6.672502e-01,6.645305e-01,1
1.901695e+00,3.172480e-01,3.092289e-01,7,0,7.164206e-01,7.137845e-01,1
1.909004e+00,7.428670e-01,7.340908e-01,7,2,4.537916e-01,4.509200e-01,1
1.849140e+00,1.172513e+00,1.164198e+00,7,4,1.367836e+00,1.365914e+00,1
1.613389e+00,1.363177e+00,1.353979e+00,6,5,9.290863e-01,9.276960e-01,1
1.924422e+00,9.485550e-01,9.410381e-01,7,3,8.839160e-01,8.826948e-01,1
1.875078e+00,7.539310e-01,7.460117e-01,7,2,8.333289e-01,8.322602e-01,1
1.888221e+00,1.794024e+00,1.783848e+00,7,6,7.747857e-01,7.729869e-01,1
1.898185e+00,7.845330e-01,7.750988e-01,7,2,5.534122e-01,5.504211e-01,1
1.867965e+00,7.373740e-01,7.290840e-01,7,2,8.006717e-01,7.995813e-01,1
1.890618e+00,9.715180e-01,9.639263e-01,7,3,9.112956e-01,9.102172e-01,1
3.214161e+00,7.645410e-01,7.550716e-01,12,2,7.910870e-01,7.876905e-01,1
1.099175e+00,9.799340e-01,9.710789e-01,4,3,9.214117e-01,9.192912e-01,1
1.639913e+00,1.358792e+00,1.350880e+00,6,5,6.605440e-01,6.522173e-01,1
1.084464e+00,1.962365e+00,1.954079e+00,4,8,6.201880e-01,6.099389e-01,1
1.897976e+00,7.022010e-01,6.949902e-01,7,2,4.888767e-01,4.860191e-01,1
1.874290e+00,1.602111e+00,1.593113e+00,7,6,3.997656e-01,3.969333e-01,1
1.375426e+00,3.193320e-01,3.099442e-01,5,0,3.292026e-01,3.291736e-01,1
8.226820e-01,7.399910e-01,7.319450e-01,3,2,5.416265e-01,5.404336e-01,1
2.160021e+00,5.272370e-01,5.187988e-01,8,1,3.397580e-01,3.386051e-01,1
2.478171e+00,5.260470e-01,5.168915e-01,9,1,4.682420e-01,4.675675e-01,1
1.873183e+00,1.188182e+00,1.178980e+00,7,4,4.184279e-01,4.152960e-01,1
2.158466e+00,1.172903e+00,1.163960e+00,8,4,4.859298e-01,4.829339e-01,1
3.260302e+00,3.218540e-01,3.128052e-01,12,0,6.334806e-01,6.313644e-01,1
2.954986e+00,3.323080e-01,3.240108e-01,11,0,5.038037e-01,4.976605e-01,1
1.347855e+00,2.203953e+00,2.194881e+00,5,9,1.629167e+00,1.626829e+00,1
1.900760e+00,2.252437e+00,2.243042e+00,7,10,4.013680e+00,3.963752e+00,1
1.898956e+00,2.015296e+00,2.006054e+00,7,9,2.966128e+00,2.935516e+00,1
1.898386e+00,1.495169e+00,1.486063e+00,7,6,2.231701e+00,2.224158e+00,1
1.085877e+00,1.997126e+00,1.989126e+00,4,8,1.776757e+00,1.772806e+00,1
1.346288e+00,9.817150e-01,9.720325e-01,5,3,1.928867e+00,1.928451e+00,1
1.888239e+00,1.390500e+00,1.377106e+00,7,5,1.470236e+00,1.468071e+00,1
1.873095e+00,7.511290e-01,7.419586e-01,7,2,1.242062e+00,1.238446e+00,1
1.875452e+00,9.418970e-01,9.338856e-01,7,3,1.178001e+00,1.175212e+00,1
1.867459e+00,5.091100e-01,5.002022e-01,7,1,1.199949e+00,1.194601e+00,1
1.349979e+00,1.956641e+00,1.947880e+00,5,8,9.573792e-01,9.474239e-01,1
1.362309e+00,1.705169e+00,1.695633e+00,5,7,1.284457e+00,1.283588e+00,1
1.899010e+00,2.994120e-01,2.911091e-01,7,0,2.162165e+00,2.143461e+00,1
1.899669e+00,6.950760e-01,6.859303e-01,7,2,1.556278e+00,1.543093e+00,1
1.880697e+00,7.289810e-01,7.200241e-01,7,2,8.172534e-01,8.092965e-01,1
1.897370e+00,1.172257e+00,1.162767e+00,7,4,4.541483e-01,4.521660e-01,1
1.867289e+00,9.650050e-01,9.560585e-01,7,3,4.185368e-01,4.185312e-01,1
1.615386e+00,5.617620e-01,5.528927e-01,6,1,4.441512e-01,4.440270e-01,1
2.951450e+00,5.265610e-01,5.190372e-01,11,1,6.368477e-01,6.358079e-01,1
1.084013e+00,3.379070e-01,3.280640e-01,4,0,4.335123e-01,4.324405e-01,1
1.090417e+00,7.414380e-01,7.338524e-01,4,2,5.275652e-01,5.267558e-01,1
1.873083e+00,5.229130e-01,5.137920e-01,7,1,6.080036e-01,6.078207e-01,1
2.633433e+00,5.437270e-01,5.340576e-01,10,1,6.167394e-01,6.165723e-01,1
7.990230e-01,1.489645e+00,1.481056e+00,3,4,1.013827e+00,1.018536e+00,1
1.898683e+00,1.269857e+00,1.262188e+00,7,4,5.516583e-01,5.503625e-01,1
3.242301e+00,3.176720e-01,3.087521e-01,12,0,4.486279e-01,4.486080e-01,1
1.089053e+00,1.804070e+00,1.794815e+00,4,7,1.736831e+00,1.732649e+00,1
1.882802e+00,1.145993e+00,1.136065e+00,7,4,2.084321e+00,2.082670e+00,1
2.192937e+00,9.666960e-01,9.570122e-01,8,3,9.371986e-01,9.330726e-01,1
1.088279e+00,5.304140e-01,5.218983e-01,4,1,9.770607e-01,9.761654e-01,1
3.242205e+00,5.567780e-01,5.481243e-01,12,1,8.631676e-01,8.600584e-01,1
2.696868e+00,6.841640e-01,6.749630e-01,10,1,8.795113e-01,8.850658e-01,1
2.745542e+00,5.748560e-01,5.669594e-01,10,1,4.204034e-01,4.185288e-01,1
2.691489e+00,3.164860e-01,3.089905e-01,10,0,3.471551e-01,3.338110e-01,1
3.244723e+00,9.819530e-01,9.729862e-01,12,3,5.718720e-01,5.615565e-01,1
1.882484e+00,3.432970e-01,3.340244e-01,7,0,7.191424e-01,7.121087e-01,1
1.878277e+00,9.436670e-01,9.348392e-01,7,3,8.954919e-01,8.930287e-01,1
3.239952e+00,1.201441e+00,1.194000e+00,12,4,5.797216e-01,5.745731e-01,1
1.087656e+00,1.613003e+00,1.604080e+00,4,6,4.463076e-01,4.422325e-01,1
1.902077e+00,5.244060e-01,5.159378e-01,7,1,7.218535e-01,7.158710e-01,1
1.900948e+00,5.266740e-01,5.180836e-01,7,1,1.066298e+00,1.060053e+00,1
1.900508e+00,5.230760e-01,5.147457e-01,7,1,1.195967e+00,1.190959e+00,1
1.900926e+00,3.175130e-01,3.089905e-01,7,0,1.821277e+00,1.815743e+00,1
1.897812e+00,1.172644e+00,1.163960e+00,7,4,1.734663e+00,1.730864e+00,1
1.905857e+00,2.394542e+00,2.385616e+00,7,8,2.809988e+00,2.815286e+00,1
1.639406e+00,3.119537e+00,3.110886e+00,6,12,1.074104e+00,1.072422e+00,1
1.903157e+00,1.163706e+00,1.153946e+00,7,4,9.260182e-01,9.233084e-01,1
1.903643e+00,1.154286e+00,1.146078e+00,7,4,1.612524e+00,1.604607e+00,1
1.902511e+00,1.346344e+00,1.337767e+00,7,5,7.751089e-01,7.701438e-01,1
1.914877e+00,7.495510e-01,7.410049e-01,7,2,7.794518e-01,7.784258e-01,1
1.902780e+00,3.234130e-01,3.139973e-01,7,0,5.477414e-01,5.471414e-01,1
1.901767e+00,5.438130e-01,5.359650e-01,7,1,2.878560e-01,2.874502e-01,1
1.902310e+00,5.427100e-01,5.340576e-01,7,1,6.943041e-01,6.932771e-01,1
3.259958e+00,7.586120e-01,7.510185e-01,12,2,6.600504e-01,6.591107e-01,1
1.360118e+00,3.431720e-01,3.349781e-01,5,0,4.140740e-01,4.140735e-01,1
8.158350e-01,1.738177e+00,1.729012e+00,3,5,1.047661e+00,1.050866e+00,1
1.903033e+00,1.317544e+00,1.304150e+00,7,4,5.661928e-01,5.647706e-01,1
2.173212e+00,9.691420e-01,9.601116e-01,8,3,3.100039e-01,3.092092e-01,1
8.144160e-01,5.500590e-01,5.369186e-01,3,1,3.152771e-01,3.148201e-01,1
1.634147e+00,5.451710e-01,5.369186e-01,6,1,4.658475e-01,4.657664e-01,1
8.202390e-01,3.248440e-01,3.168583e-01,3,0,7.502844e-01,7.491684e-01,1
1.358804e+00,9.810070e-01,9.720325e-01,5,3,1.291143e+00,1.288828e+00,1
1.092354e+00,2.468969e+00,2.460003e+00,4,10,1.233174e+00,1.226256e+00,1
1.898879e+00,7.315490e-01,7.231236e-01,7,2,2.016317e+00,2.000065e+00,1
1.903271e+00,1.557751e+00,1.549006e+00,7,6,8.623798e-01,8.592947e-01,1
1.633431e+00,9.692140e-01,9.601116e-01,6,3,6.798223e-01,6.794074e-01,1
1.632388e+00,7.618250e-01,7.526875e-01,6,2,4.037467e-01,4.028368e-01,1
1.899960e+00,3.214890e-01,3.120899e-01,7,0,4.102970e-01,4.098598e-01,1
1.902616e+00,1.388534e+00,1.379013e+00,7,5,9.484201e-01,9.432107e-01,1
1.901633e+00,7.270450e-01,7.181168e-01,7,2,1.128463e+00,1.124811e+00,1
1.901971e+00,7.417110e-01,7.331371e-01,7,2,1.452091e+00,1.445274e+00,1
1.901166e+00,7.334390e-01,7.238388e-01,7,2,1.384720e+00,1.378760e+00,1
1.900636e+00,5.253110e-01,5.159378e-01,7,1,1.627895e+00,1.622749e+00,1
1.899066e+00,2.387507e+00,2.380133e+00,7,10,2.603687e+00,2.577138e+00,1
1.904810e+00,8.950150e-01,8.850098e-01,7,3,2.993005e+00,2.967354e+00,1
1.905750e+00,1.298107e+00,1.288891e+00,7,5,2.022156e+00,2.014250e+00,1
2.720017e+00,1.502207e+00,1.493216e+00,10,6,1.698150e+00,1.684645e+00,1
1.633131e+00,1.925504e+00,1.915932e+00,6,8,2.466374e+00,2.464544e+00,1
1.091583e+00,2.768068e+00,2.758741e+00,4,12,1.413918e+00,1.398147e+00,1
1.906205e+00,7.082950e-01,6.990433e-01,7,2,1.050810e+00,1.038551e+00,1
1.907507e+00,1.519897e+00,1.512051e+00,7,6,1.217861e+00,1.214080e+00,1
1.901439e+00,1.530810e+00,1.522064e+00,7,6,1.470711e+00,1.466459e+00,1
2.712208e+00,1.599769e+00,1.591206e+00,10,6,1.889214e+00,1.888549e+00,1
1.093631e+00,2.256336e+00,2.246857e+00,4,9,9.465660e-01,9.409303e-01,1
1.902484e+00,5.127390e-01,5.049706e-01,7,1,9.771204e-01,9.697894e-01,1
1.901136e+00,5.222030e-01,5.140305e-01,7,1,1.413355e+00,1.405565e+00,1
1.901193e+00,5.194370e-01,5.109310e-01,7,1,1.689980e+00,1.683320e+00,1
1.899058e+00,1.371597e+00,1.363993e+00,7,5,1.089365e+00,1.087574e+00,1
1.907779e+00,5.416290e-01,5.331039e-01,7,1,1.084093e+00,1.082565e+00,1
3.255827e+00,1.175627e+00,1.166821e+00,12,4,6.611419e-01,6.458080e-01,1
1.633547e+00,7.609380e-01,7.531643e-01,6,2,5.733378e-01,5.699585e-01,1

