5.854540e-01,2.273523e+01,2.239704e+01,2,70,0.000000e+00,9.750105e-22,1
8.224510e-01,3.290070e-01,3.168583e-01,3,0,1.204761e-01,1.204728e-01,1
1.091788e+00,3.249720e-01,3.159046e-01,4,0,2.107822e-01,2.099428e-01,1
1.359931e+00,5.583080e-01,5.490780e-01,5,1,4.741114e-01,4.740083e-01,1
2.713044e+00,5.484140e-01,5.400181e-01,10,1,4.378905e-01,4.246467e-01,1
1.903247e+00,2.077188e+00,2.064943e+00,7,8,1.595517e+00,1.582410e+00,1
1.906294e+00,1.548623e+00,1.539946e+00,7,6,2.238233e+00,2.225454e+00,1
1.898657e+00,1.537242e+00,1.528025e+00,7,5,2.916382e+00,2.903418e+00,1
1.092297e+00,3.382658e+00,3.374100e+00,4,14,1.449505e+00,1.440726e+00,1
1.905001e+00,1.180658e+00,1.170635e+00,7,4,1.294282e+00,1.291544e+00,1
1.902553e+00,1.599377e+00,1.590967e+00,7,6,1.006810e+00,1.004572e+00,1
1.901017e+00,7.398280e-01,7.309914e-01,7,2,9.638046e-01,9.609490e-01,1
1.900116e+00,9.465420e-01,9.372234e-01,7,3,1.494048e+00,1.484818e+00,1
1.901176e+00,5.249780e-01,5.147457e-01,7,1,2.211829e+00,2.205551e+00,1
1.902365e+00,1.145861e+00,1.137018e+00,7,4,1.811110e+00,1.806158e+00,1
1.900803e+00,1.557826e+00,1.548767e+00,7,6,2.662798e+00,2.656695e+00,1
1.091166e+00,2.458550e+00,2.449989e+00,4,10,2.119562e+00,2.114417e+00,1
1.904140e+00,1.860889e+00,1.850843e+00,7,6,1.781704e+00,1.786336e+00,1
1.902076e+00,1.179342e+00,1.169920e+00,7,3,1.775049e+00,1.788071e+00,1
1.631309e+00,2.672191e+00,2.663136e+00,6,9,1.911927e+00,1.911437e+00,1
1.901367e+00,2.061847e+00,2.051830e+00,7,8,1.980033e+00,1.971587e+00,1
1.904538e+00,1.775832e+00,1.766205e+00,7,7,1.763297e+00,1.761719e+00,1
1.636388e+00,2.088125e+00,2.079964e+00,6,7,1.522589e+00,1.518934e+00,1
1.090634e+00,2.232504e+00,2.223015e+00,4,7,1.528008e+00,1.519958e+00,1
1.901360e+00,9.961380e-01,9.880066e-01,7,3,1.480096e+00,1.475377e+00,1
1.901518e+00,9.342800e-01,9.248257e-01,7,3,1.377000e+00,1.371348e+00,1
1.090463e+00,2.380883e+00,2.372980e+00,4,10,1.154533e+00,1.144915e+00,1
1.902504e+00,1.573883e+00,1.564741e+00,7,6,8.192722e-01,8.150680e-01,1
2.712551e+00,1.595738e+00,1.585960e+00,10,6,4.802449e-01,4.726491e-01,1
2.183260e+00,3.315490e-01,3.180504e-01,8,0,3.520543e-01,3.496493e-01,1
1.089884e+00,7.677750e-01,7.581711e-01,4,2,5.924555e-01,5.909104e-01,1
2.719692e+00,2.226618e+00,2.217054e+00,10,9,7.659004e-01,7.636454e-01,1
1.901028e+00,9.375460e-01,9.291172e-01,7,3,6.282494e-01,6.234297e-01,1
1.901790e+00,7.234210e-01,7.147789e-01,7,2,1.041323e+00,1.033951e+00,1
1.902640e+00,7.275480e-01,7.178783e-01,7,2,7.773130e-01,7.721308e-01,1
1.901207e+00,7.396630e-01,7.300377e-01,7,2,5.588734e-01,5.571321e-01,1
1.902450e+00,1.178808e+00,1.169920e+00,7,4,5.120870e-01,5.111929e-01,1
1.090703e+00,1.187315e+00,1.178026e+00,4,4,5.190935e-01,5.152283e-01,1
1.897059e+00,1.366003e+00,1.358032e+00,7,5,1.244000e+00,1.233611e+00,1
1.902549e+00,7.235150e-01,7.150173e-01,7,2,1.204166e+00,1.197824e+00,1
1.902922e+00,1.737546e+00,1.728058e+00,7,7,2.689842e+00,2.670670e+00,1
1.902655e+00,1.101404e+00,1.092196e+00,7,4,4.009392e+00,3.984462e+00,1
1.901918e+00,1.514228e+00,1.504898e+00,7,6,2.560257e+00,2.554239e+00,1
1.902036e+00,1.490990e+00,1.480818e+00,7,5,3.698827e+00,3.681571e+00,1
1.902401e+00,1.908488e+00,1.899958e+00,7,6,3.088913e+00,3.084579e+00,1
1.902875e+00,2.948222e+00,2.938986e+00,7,10,2.281286e+00,2.278940e+00,1
1.903325e+00,2.213951e+00,2.203703e+00,7,8,1.971846e+00,1.964214e+00,1
1.902377e+00,7.064370e-01,6.968975e-01,7,2,1.579939e+00,1.574365e+00,1
1.902211e+00,9.232030e-01,9.150505e-01,7,3,1.153765e+00,1.149873e+00,1
1.901592e+00,1.987056e+00,1.977921e+00,7,8,5.541394e-01,5.530699e-01,1
1.905279e+00,7.670170e-01,7.579327e-01,7,2,5.939200e-01,5.898357e-01,1
1.363748e+00,1.415675e+00,1.407146e+00,5,5,9.431773e-01,9.425200e-01,1
1.902464e+00,7.444180e-01,7.359982e-01,7,2,7.354743e-01,7.341787e-01,1
2.711276e+00,1.198713e+00,1.188993e+00,10,4,6.130564e-01,6.128987e-01,1
2.176113e+00,1.106819e+00,1.098156e+00,8,3,7.779106e-01,7.749842e-01,1
1.899851e+00,9.361560e-01,9.272099e-01,7,2,1.145522e+00,1.151307e+00,1
1.900066e+00,1.337076e+00,1.327991e+00,7,4,5.907938e-01,5.904908e-01,1
1.089790e+00,1.416030e+00,1.407146e+00,4,5,7.909992e-01,7.891521e-01,1
1.899611e+00,5.374040e-01,5.278587e-01,7,1,1.151075e+00,1.146248e+00,1
1.901527e+00,9.551910e-01,9.462833e-01,7,3,1.921648e+00,1.913637e+00,1
1.366430e+00,3.521272e+00,3.512144e+00,5,15,5.952461e-01,5.923799e-01,1
1.901212e+00,9.340420e-01,9.250641e-01,7,3,1.842847e+00,1.833405e+00,1
1.903752e+00,1.136750e+00,1.127005e+00,7,4,4.087477e+00,4.060999e+00,1
1.902124e+00,2.147338e+00,2.139091e+00,7,9,1.890263e+00,1.885441e+00,1
1.903194e+00,1.157199e+00,1.148939e+00,7,4,2.781779e+00,2.777874e+00,1
2.175749e+00,3.045532e+00,3.036022e+00,8,13,1.017756e+00,1.015060e+00,1
1.902232e+00,1.809137e+00,1.800060e+00,7,7,1.222437e+00,1.221632e+00,1
2.172622e+00,7.660690e-01,7.569790e-01,8,2,9.288026e-01,9.287502e-01,1
1.090773e+00,1.415230e+00,1.405716e+00,4,5,7.525774e-01,7.488405e-01,1
2.440457e+00,1.403093e+00,1.394033e+00,9,5,5.447391e-01,5.438656e-01,1
1.091172e+00,5.572100e-01,5.478859e-01,4,1,8.948649e-01,8.944259e-01,1
1.898219e+00,5.511030e-01,5.431175e-01,7,1,9.702488e-01,9.699751e-01,1
1.360533e+00,3.294090e-01,3.211498e-01,5,0,1.056396e+00,1.056394e+00,1
1.091177e+00,1.419214e+00,1.410007e+00,4,5,1.255236e+00,1.252542e+00,1
1.902688e+00,1.372426e+00,1.363993e+00,7,4,1.839935e+00,1.836726e+00,1
1.901832e+00,1.517558e+00,1.508951e+00,7,4,2.489472e+00,2.509545e+00,1
1.901581e+00,2.211104e+00,2.202988e+00,7,7,1.601755e+00,1.654393e+00,1
1.900271e+00,3.990520e-01,3.890991e-01,7,0,1.491317e+00,1.527615e+00,1
1.090701e+00,1.083452e+00,1.075029e+00,4,3,1.171463e+00,1.170026e+00,1
1.900285e+00,5.505840e-01,5.412102e-01,7,1,4.617068e-01,4.602380e-01,1
1.901151e+00,1.388187e+00,1.378059e+00,7,5,1.912378e+00,1.904773e+00,1
1.901430e+00,9.469370e-01,9.369850e-01,7,3,1.402591e+00,1.400589e+00,1
1.898977e+00,3.211820e-01,3.120899e-01,7,0,1.082941e+00,1.080230e+00,1
1.896851e+00,1.189679e+00,1.180172e+00,7,4,9.359538e-01,9.341784e-01,1
1.361519e+00,2.624885e+00,2.616167e+00,5,11,1.618162e+00,1.616527e+00,1
1.905992e+00,1.921885e+00,1.911879e+00,7,8,3.353057e+00,3.321494e+00,1
2.174627e+00,1.851540e+00,1.842976e+00,8,7,5.237222e+00,5.231365e+00,1
1.905771e+00,3.213604e+00,3.204107e+00,7,12,7.881138e+00,7.870306e+00,1
1.903565e+00,3.682486e+00,3.673077e+00,7,15,6.187998e+00,6.161966e+00,1
2.719305e+00,2.826027e+00,2.816916e+00,10,12,4.132706e+00,4.128915e+00,1
1.899099e+00,1.675147e+00,1.666069e+00,7,7,2.906647e+00,2.898797e+00,1
1.918914e+00,5.047010e-01,4.971027e-01,7,1,1.916281e+00,1.902183e+00,1
1.901965e+00,7.197320e-01,7.100105e-01,7,2,2.884275e+00,2.876156e+00,1
1.901984e+00,7.034800e-01,6.949902e-01,7,2,2.030513e+00,2.021749e+00,1
1.902809e+00,7.195380e-01,7.109642e-01,7,2,2.816449e+00,2.781506e+00,1
1.902599e+00,1.303604e+00,1.294136e+00,7,5,3.268650e+00,3.234068e+00,1
1.903433e+00,2.128566e+00,2.120018e+00,7,9,1.222969e+00,1.215944e+00,1
1.919367e+00,1.589870e+00,1.580954e+00,7,6,9.905501e-01,9.848432e-01,1
1.892896e+00,1.141315e+00,1.132965e+00,7,4,1.465053e+00,1.456068e+00,1
1.923535e+00,7.445640e-01,7.359982e-01,7,2,1.492774e+00,1.486223e+00,1
2.448848e+00,2.176065e+00,2.167940e+00,9,9,1.053882e+00,1.051543e+00,1
1.949354e+00,1.397477e+00,1.387835e+00,7,5,1.281728e+00,1.281282e+00,1
2.767446e+00,1.189363e+00,1.182079e+00,10,4,5.478393e-01,5.444485e-01,1
1.948579e+00,1.172427e+00,1.163006e+00,7,4,4.866166e-01,4.843169e-01,1
1.899570e+00,9.549330e-01,9.469986e-01,7,3,3.916845e-01,3.891233e-01,1
1.923254e+00,5.222140e-01,5.128384e-01,7,1,6.544178e-01,6.541390e-01,1
1.947076e+00,7.670820e-01,7.591248e-01,7,2,8.494902e-01,8.479765e-01,1
1.911474e+00,7.320450e-01,7.226467e-01,7,2,8.314252e-01,8.292439e-01,1
3.278564e+00,1.401042e+00,1.391888e+00,12,5,5.637262e-01,5.613424e-01,1
1.085069e+00,7.720660e-01,7.631779e-01,4,2,5.853803e-01,5.834349e-01,1
1.921257e+00,5.787920e-01,5.691051e-01,7,1,5.836135e-01,5.832558e-01,1
1.895352e+00,5.258340e-01,5.171299e-01,7,1,6.010764e-01,6.000771e-01,1
1.901339e+00,5.712040e-01,5.631447e-01,7,1,4.216540e-01,4.199258e-01,1
1.899738e+00,7.644590e-01,7.548332e-01,7,2,6.596603e-01,6.585128e-01,1
2.171677e+00,9.686190e-01,9.601116e-01,8,3,3.109233e-01,3.106953e-01,1
1.357689e+00,7.616740e-01,7.538795e-01,5,2,3.169445e-01,3.161406e-01,1
1.900022e+00,9.684970e-01,9.589195e-01,7,3,8.255723e-01,8.197276e-01,1
1.895985e+00,7.432680e-01,7.350445e-01,7,2,5.630524e-01,5.613591e-01,1
1.901235e+00,1.166740e+00,1.157999e+00,7,4,2.046275e+00,2.034848e+00,1
1.900945e+00,2.060201e+00,2.051830e+00,7,7,1.632011e+00,1.639128e+00,1
1.089746e+00,2.969951e+00,2.962112e+00,4,11,1.722431e+00,1.712094e+00,1
1.896355e+00,7.276040e-01,7.188320e-01,7,2,2.369462e+00,2.364789e+00,1
1.900283e+00,5.326650e-01,5.249977e-01,7,1,2.086356e+00,2.083502e+00,1
1.900333e+00,7.503580e-01,7.419586e-01,7,2,2.155072e+00,2.153058e+00,1
1.918348e+00,5.320760e-01,5.238056e-01,7,1,3.621199e+00,3.619977e+00,1
1.897465e+00,1.385735e+00,1.378059e+00,7,5,2.501199e+00,2.500113e+00,1
1.900184e+00,7.591670e-01,7.510185e-01,7,2,1.720220e+00,1.720105e+00,1
2.716201e+00,5.509440e-01,5.419254e-01,10,1,1.294327e+00,1.279168e+00,1
1.090336e+00,1.621575e+00,1.613140e+00,4,6,7.642412e-01,7.610550e-01,1
2.718670e+00,1.609172e+00,1.600981e+00,10,6,8.127586e-01,8.007869e-01,1
2.175053e+00,5.402210e-01,5.309582e-01,8,1,6.145319e-01,6.144931e-01,1
8.149720e-01,1.199987e+00,1.191854e+00,3,4,7.642738e-01,7.611120e-01,1
1.627858e+00,1.400301e+00,1.391172e+00,6,5,4.134748e-01,4.131786e-01,1
2.713541e+00,5.445020e-01,5.350113e-01,10,1,3.540239e-01,3.518150e-01,1
1.090818e+00,3.260770e-01,3.170967e-01,4,0,3.486312e-01,3.478605e-01,1
1.090053e+00,5.506880e-01,5.431175e-01,4,1,8.613705e-01,8.579090e-01,1
1.089814e+00,9.820090e-01,9.739399e-01,4,3,9.833700e-01,9.788134e-01,1
1.901214e+00,7.576540e-01,7.479191e-01,7,2,8.041885e-01,8.039490e-01,1
2.738395e+00,5.448480e-01,5.371571e-01,10,1,8.956955e-01,8.947483e-01,1
1.896402e+00,5.574870e-01,5.490780e-01,7,1,6.851169e-01,6.843424e-01,1
1.945219e+00,7.544900e-01,7.460117e-01,7,2,9.900448e-01,9.861364e-01,1
1.915868e+00,1.153947e+00,1.145124e+00,7,4,1.579442e+00,1.570828e+00,1
1.908659e+00,1.165802e+00,1.157999e+00,7,4,1.997855e+00,1.990325e+00,1
2.742690e+00,2.386837e+00,2.378941e+00,10,10,1.737510e+00,1.735643e+00,1
1.950583e+00,8.918270e-01,8.838177e-01,7,3,1.511072e+00,1.507263e+00,1
1.947829e+00,7.256710e-01,7.159710e-01,7,2,1.354450e+00,1.352913e+00,1
1.922303e+00,7.383530e-01,7.290840e-01,7,2,1.028057e+00,1.024853e+00,1
1.633139e+00,1.392552e+00,1.384020e+00,6,5,9.928951e-01,9.928154e-01,1
1.091970e+00,1.620067e+00,1.610041e+00,4,6,1.315669e+00,1.314462e+00,1
1.900022e+00,5.238180e-01,5.159378e-01,7,1,1.708697e+00,1.701662e+00,1
1.899705e+00,9.395270e-01,9.310246e-01,7,3,8.899579e-01,8.869883e-01,1
1.899809e+00,7.477710e-01,7.381439e-01,7,2,9.827970e-01,9.819838e-01,1
1.090545e+00,1.194617e+00,1.186132e+00,4,4,7.616736e-01,7.555539e-01,1
1.901450e+00,7.563250e-01,7.481575e-01,7,2,6.415391e-01,6.386238e-01,1
2.171568e+00,7.502810e-01,7.410049e-01,8,2,5.195278e-01,5.181494e-01,1
2.711886e+00,7.604110e-01,7.519722e-01,10,2,7.788087e-01,7.788086e-01,1
8.207450e-01,7.680070e-01,7.598400e-01,3,2,1.514665e+00,1.511489e+00,1
1.900780e+00,7.581820e-01,7.491112e-01,7,2,1.277671e+00,1.274970e+00,1
3.255331e+00,1.177702e+00,1.168966e+00,12,4,1.440986e+00,1.433869e+00,1
1.902303e+00,1.602384e+00,1.594067e+00,7,6,1.599638e+00,1.595038e+00,1
1.899949e+00,1.785500e+00,1.776934e+00,7,7,7.105652e-01,7.104882e-01,1
1.635209e+00,7.603480e-01,7.529259e-01,6,2,5.563554e-01,5.561253e-01,1
1.090280e+00,7.637150e-01,7.560253e-01,4,2,5.025818e-01,4.999391e-01,1
2.717417e+00,7.623890e-01,7.550716e-01,10,2,2.441518e-01,2.428748e-01,1
1.359635e+00,5.455520e-01,5.362034e-01,5,1,2.670321e-01,2.667746e-01,1
1.090026e+00,5.509630e-01,5.421638e-01,4,1,4.624597e-01,4.618992e-01,1
2.170926e+00,5.449170e-01,5.369186e-01,8,1,3.438789e-01,3.431198e-01,1
1.093226e+00,2.035686e+00,2.027035e+00,4,8,1.278400e+00,1.274102e+00,1
1.629211e+00,1.787808e+00,1.778841e+00,6,7,1.141099e+00,1.138519e+00,1
1.636022e+00,9.814520e-01,9.720325e-01,6,3,7.617466e-01,7.610926e-01,1
1.900343e+00,7.599880e-01,7.510185e-01,7,2,6.586142e-01,6.582220e-01,1
1.899853e+00,3.232540e-01,3.149509e-01,7,0,6.079690e-01,6.076451e-01,1
1.899512e+00,3.223810e-01,3.139973e-01,7,0,5.803343e-01,5.801449e-01,1
2.712855e+00,7.582590e-01,7.500648e-01,10,2,4.907453e-01,4.902623e-01,1
1.094146e+00,5.448880e-01,5.369186e-01,4,1,6.105595e-01,6.101885e-01,1
2.717398e+00,5.390050e-01,5.309582e-01,10,1,4.778671e-01,4.751113e-01,1
1.905511e+00,3.250970e-01,3.159046e-01,7,0,4.024117e-01,4.021542e-01,1
1.091463e+00,1.830879e+00,1.822948e+00,4,7,8.798793e-01,8.763172e-01,1
2.714114e+00,1.797432e+00,1.788855e+00,10,7,8.167278e-01,8.165528e-01,1
1.090818e+00,5.449500e-01,5.369186e-01,4,1,1.123305e+00,1.123218e+00,1
1.901466e+00,9.740640e-01,9.660721e-01,7,3,1.509015e+00,1.506648e+00,1
1.897254e+00,2.243310e+00,2.234936e+00,7,9,1.421556e+00,1.419118e+00,1
1.901781e+00,1.158683e+00,1.149178e+00,7,4,1.583627e+00,1.576833e+00,1
1.903667e+00,1.140211e+00,1.130104e+00,7,4,1.109062e+00,1.106583e+00,1
1.900803e+00,9.561440e-01,9.469986e-01,7,3,9.233585e-01,9.208384e-01,1
1.900695e+00,3.155500e-01,3.061295e-01,7,0,1.105192e+00,1.100815e+00,1
1.902604e+00,1.944315e+00,1.935959e+00,7,8,2.181821e+00,2.153627e+00,1
1.902450e+00,1.097000e+00,1.088142e+00,7,4,2.935831e+00,2.906365e+00,1
1.901299e+00,1.497420e+00,1.487732e+00,7,6,2.471863e+00,2.457208e+00,1
1.895865e+00,1.301288e+00,1.293898e+00,7,5,1.800114e+00,1.797400e+00,1
1.902627e+00,1.500546e+00,1.492023e+00,7,6,1.723957e+00,1.719047e+00,1
1.901391e+00,7.141660e-01,7.059574e-01,7,2,9.947175e-01,9.895668e-01,1
2.715673e+00,1.767980e+00,1.759052e+00,10,7,1.228881e+00,1.228683e+00,1
1.903130e+00,7.697080e-01,7.607937e-01,7,2,1.211188e+00,1.209566e+00,1
1.894507e+00,7.591000e-01,7.498264e-01,7,2,8.986022e-01,8.984637e-01,1
2.720165e+00,7.663440e-01,7.538795e-01,10,2,7.771193e-01,7.746426e-01,1
2.718578e+00,2.160267e+00,2.151012e+00,10,7,1.636118e+00,1.701909e+00,1
1.903456e+00,3.445719e+00,3.437996e+00,7,12,3.370496e+00,3.477537e+00,1
1.903599e+00,1.804377e+00,1.795053e+00,7,6,3.297713e+00,3.262180e+00,1
1.898502e+00,1.369219e+00,1.360893e+00,7,5,3.360651e+00,3.320271e+00,1
1.898220e+00,1.085551e+00,1.071692e+00,7,4,4.156392e+00,4.122335e+00,1
1.902025e+00,1.980143e+00,1.971006e+00,7,7,6.423473e+00,6.389450e+00,1
1.903918e+00,2.733431e+00,2.723932e+00,7,12,3.797915e+00,3.783395e+00,1
1.902560e+00,1.670684e+00,1.662016e+00,7,7,4.546259e+00,4.520526e+00,1
2.716228e+00,2.806511e+00,2.797127e+00,10,13,3.459825e+00,3.451492e+00,1
1.898755e+00,1.284016e+00,1.273870e+00,7,5,3.183544e+00,3.173622e+00,1
1.903966e+00,1.105835e+00,1.096010e+00,7,4,1.854693e+00,1.848112e+00,1
1.901752e+00,3.101780e-01,3.020763e-01,7,0,2.672901e+00,2.667350e+00,1
1.901283e+00,9.262860e-01,9.169579e-01,7,3,1.705997e+00,1.703728e+00,1
1.903338e+00,9.432140e-01,9.341240e-01,7,3,2.102455e+00,2.095735e+00,1
1.899602e+00,1.999694e+00,1.991034e+00,7,8,6.516641e-01,6.513380e-01,1
1.361228e+00,3.257730e-01,3.170967e-01,5,0,1.281943e+00,1.281934e+00,1
1.091320e+00,2.248796e+00,2.239943e+00,4,7,2.767230e+00,2.796378e+00,1
1.902826e+00,5.671600e-01,5.569458e-01,7,1,1.782898e+00,1.777290e+00,1
1.902487e+00,1.663381e+00,1.653910e+00,7,6,2.995658e+00,2.984646e+00,1
1.901313e+00,8.683680e-01,8.602142e-01,7,2,2.757347e+00,2.752800e+00,1
1.903699e+00,2.344579e+00,2.336264e+00,7,10,3.976694e+00,3.933607e+00,1
1.903707e+00,3.060707e+00,3.051996e+00,7,14,2.053852e+00,2.047133e+00,1
2.174497e+00,2.164665e+00,2.157211e+00,8,9,1.609681e+00,1.604855e+00,1
1.900586e+00,1.331033e+00,1.322031e+00,7,5,1.145511e+00,1.139789e+00,1
1.902807e+00,7.129340e-01,7.028580e-01,7,2,1.085528e+00,1.080023e+00,1
1.914085e+00,7.195520e-01,7.100105e-01,7,2,1.101077e+00,1.098252e+00,1
1.901598e+00,3.142560e-01,3.061295e-01,7,0,1.917857e+00,1.908517e+00,1
1.900380e+00,1.145957e+00,1.137018e+00,7,4,8.089000e-01,8.063074e-01,1
1.634001e+00,1.178196e+00,1.171112e+00,6,4,6.878950e-01,6.877641e-01,1
1.094310e+00,3.261560e-01,3.170967e-01,4,0,8.942477e-01,8.942172e-01,1
8.205090e-01,3.261110e-01,3.180504e-01,3,0,9.402100e-01,9.392964e-01,1
1.366209e+00,5.456010e-01,5.369186e-01,5,1,6.675978e-01,6.669167e-01,1
1.090783e+00,1.414016e+00,1.405954e+00,4,5,8.262057e-01,8.190911e-01,1
1.901643e+00,3.242160e-01,3.151894e-01,7,0,1.119673e+00,1.115380e+00,1
1.903786e+00,1.167529e+00,1.158953e+00,7,4,1.622834e+00,1.614882e+00,1
1.903188e+00,2.305468e+00,2.295732e+00,7,10,3.657298e+00,3.612256e+00,1
1.905669e+00,8.732610e-01,8.649826e-01,7,3,5.091371e+00,5.033365e+00,1
1.898756e+00,2.719391e+00,2.709866e+00,7,12,3.331108e+00,3.315218e+00,1
1.903257e+00,1.383215e+00,1.374960e+00,7,5,4.164469e+00,4.142935e+00,1
3.263167e+00,3.797543e+00,3.789186e+00,12,15,2.897305e+00,2.896062e+00,1
1.902523e+00,1.606140e+00,1.597166e+00,7,5,2.031669e+00,2.023493e+00,1
1.897182e+00,2.105466e+00,2.097130e+00,7,7,2.348240e+00,2.368701e+00,1
1.902401e+00,1.553116e+00,1.543045e+00,7,5,1.090529e+00,1.082550e+00,1
1.905473e+00,2.188310e+00,2.180099e+00,7,9,1.055083e+00,1.047077e+00,1
3.258940e+00,2.021075e+00,2.012014e+00,12,8,7.428351e-01,7.399323e-01,1
1.634528e+00,7.640900e-01,7.560253e-01,6,2,7.139888e-01,7.115000e-01,1
1.903407e+00,1.391425e+00,1.383066e+00,7,5,6.853936e-01,6.814320e-01,1
1.896720e+00,3.223180e-01,3.130436e-01,7,0,1.064145e+00,1.059983e+00,1
1.359966e+00,1.593696e+00,1.585007e+00,5,6,4.097673e-01,4.092101e-01,1
1.366404e+00,1.835141e+00,1.826048e+00,5,6,1.482776e+00,1.492901e+00,1
1.902789e+00,2.275075e+00,2.265930e+00,7,7,3.659671e+00,3.713686e+00,1
1.902852e+00,2.907903e+00,2.897739e+00,7,10,2.061776e+00,2.065659e+00,1
3.257979e+00,1.069960e+00,1.061201e+00,12,3,1.478852e+00,1.466048e+00,1
2.989732e+00,3.323870e-01,3.230572e-01,11,0,1.120975e+00,1.120676e+00,1
1.091223e+00,5.471500e-01,5.376339e-01,4,1,9.466183e-01,9.438694e-01,1
2.182290e+00,5.457120e-01,5.381107e-01,8,1,9.449523e-01,9.427935e-01,1
1.091685e+00,2.041428e+00,2.032042e+00,4,8,1.772345e+00,1.764844e+00,1
1.900870e+00,9.379790e-01,9.291172e-01,7,3,1.443673e+00,1.440983e+00,1
2.710669e+00,1.387576e+00,1.379013e+00,10,5,1.165969e+00,1.165913e+00,1
8.153610e-01,3.324540e-01,3.240108e-01,3,0,1.276720e+00,1.276273e+00,1
1.362265e+00,2.652238e+00,2.643108e+00,5,11,1.855481e+00,1.849277e+00,1
1.902271e+00,1.878220e+00,1.868725e+00,7,8,3.090513e+00,3.060240e+00,1
1.902114e+00,1.534659e+00,1.525879e+00,7,6,5.940674e+00,5.883261e+00,1
1.903470e+00,1.962665e+00,1.954079e+00,7,7,7.434439e+00,7.449169e+00,1
1.905407e+00,2.365250e+00,2.355814e+00,7,9,6.455694e+00,6.452944e+00,1
1.904180e+00,1.919296e+00,1.910925e+00,7,7,6.860664e+00,6.880677e+00,1
1.904317e+00,2.418266e+00,2.410173e+00,7,9,5.532723e+00,5.540285e+00,1
1.901939e+00,1.039164e+00,1.029968e+00,7,3,5.444129e+00,5.428740e+00,1
1.897159e+00,1.290036e+00,1.280785e+00,7,4,5.250639e+00,5.249808e+00,1
1.903412e+00,3.159006e+00,3.149986e+00,7,12,4.162102e+00,4.166787e+00,1
1.902028e+00,1.075279e+00,1.065969e+00,7,3,3.400792e+00,3.441018e+00,1
1.901622e+00,1.565508e+00,1.557112e+00,7,5,2.446944e+00,2.468158e+00,1
1.897819e+00,2.405075e+00,2.396107e+00,7,8,2.253585e+00,2.288213e+00,1
1.901465e+00,1.360602e+00,1.353025e+00,7,4,2.417991e+00,2.502241e+00,1
1.903869e+00,1.922705e+00,1.913071e+00,7,6,3.297425e+00,3.544596e+00,1
1.907007e+00,6.200071e+00,6.185055e+00,7,21,6.583007e+00,9.009997e+00,0
1.904337e+00,1.911373e+00,1.898289e+00,7,4,7.263610e+00,9.100652e+00,0
1.903437e+00,4.748423e+00,4.735947e+00,7,17,8.196982e+00,8.505230e+00,0
1.904627e+00,3.511029e+00,3.503084e+00,7,14,7.136632e+00,7.186627e+00,1
1.904355e+00,3.383807e+00,3.374815e+00,7,13,6.958772e+00,6.988360e+00,1
1.904175e+00,2.441853e+00,2.432108e+00,7,9,8.309913e+00,8.397534e+00,1
1.635943e+00,3.508535e+00,3.500938e+00,6,14,7.535761e+00,7.539957e+00,1
1.905499e+00,2.155373e+00,2.146244e+00,7,8,6.118706e+00,6.137306e+00,1
1.897382e+00,1.629617e+00,1.621246e+00,7,6,4.749365e+00,4.746655e+00,1
1.902057e+00,6.854590e-01,6.768703e-01,7,2,3.874215e+00,3.859738e+00,1
1.902685e+00,1.081568e+00,1.072884e+00,7,4,3.077540e+00,3.057510e+00,1
1.902387e+00,6.934980e-01,6.840229e-01,7,2,2.827871e+00,2.815899e+00,1
1.901576e+00,9.903460e-01,9.820461e-01,7,3,3.127218e+00,3.121146e+00,1
1.900591e+00,1.151454e+00,1.143932e+00,7,4,1.514305e+00,1.507395e+00,1
1.894471e+00,7.194650e-01,7.109642e-01,7,2,1.297852e+00,1.292519e+00,1
1.900240e+00,7.354350e-01,7.259846e-01,7,2,1.519122e+00,1.514996e+00,1
1.901924e+00,7.446760e-01,7.359982e-01,7,2,9.349169e-01,9.340031e-01,1
1.900576e+00,7.552210e-01,7.469654e-01,7,2,9.087094e-01,9.086787e-01,1
1.900836e+00,7.570310e-01,7.491112e-01,7,2,7.024374e-01,7.009979e-01,1
1.088614e+00,9.714570e-01,9.629726e-01,4,3,6.154034e-01,6.130705e-01,1
1.090054e+00,7.683600e-01,7.600784e-01,4,2,6.247730e-01,6.230032e-01,1
3.257067e+00,7.580730e-01,7.500648e-01,12,2,5.932113e-01,5.913672e-01,1
1.090635e+00,7.677430e-01,7.588863e-01,4,2,6.503662e-01,6.495251e-01,1
1.901829e+00,5.436910e-01,5.350113e-01,7,1,6.542386e-01,6.529950e-01,1
2.448248e+00,1.406480e+00,1.397133e+00,9,5,5.053094e-01,5.048851e-01,1
1.901399e+00,7.532110e-01,7.438660e-01,7,2,5.547025e-01,5.546900e-01,1
8.220010e-01,9.836720e-01,9.746552e-01,3,3,1.749442e+00,1.747951e+00,1
1.905153e+00,3.012318e+00,3.003120e+00,7,13,3.944806e+00,3.940612e+00,1
2.172263e+00,2.492116e+00,2.483130e+00,8,9,5.134536e+00,5.146845e+00,1
1.897342e+00,2.665178e+00,2.656221e+00,7,10,4.089740e+00,4.053687e+00,1
1.901551e+00,9.889140e-01,9.801388e-01,7,3,4.439483e+00,4.391135e+00,1
1.902736e+00,1.825507e+00,1.816034e+00,7,8,4.119891e+00,4.088378e+00,1
1.900823e+00,1.453801e+00,1.445055e+00,7,6,3.486038e+00,3.471873e+00,1
1.091617e+00,2.540223e+00,2.531052e+00,4,11,2.461875e+00,2.438907e+00,1
1.902099e+00,6.080750e-01,5.989075e-01,7,1,2.316585e+00,2.298659e+00,1
2.194478e+00,3.616804e+00,3.607035e+00,8,13,4.600593e+00,4.631496e+00,1
2.174728e+00,1.297430e+00,1.287937e+00,8,4,6.299127e+00,6.454334e+00,1
2.176907e+00,4.614219e+00,4.605055e+00,8,18,7.425241e+00,7.674611e+00,1
1.905663e+00,5.353794e+00,5.343914e+00,7,22,5.897201e+00,5.913224e+00,1
1.905090e+00,2.632192e+00,2.623081e+00,7,11,4.338510e+00,4.324151e+00,1
1.901610e+00,1.469788e+00,1.461029e+00,7,6,2.992212e+00,2.985504e+00,1
1.090669e+00,1.888879e+00,1.881123e+00,4,8,2.264491e+00,2.249204e+00,1
1.904025e+00,7.129810e-01,7.050037e-01,7,2,3.228674e+00,3.207895e+00,1
1.901095e+00,7.212120e-01,7.121563e-01,7,2,3.265319e+00,3.245302e+00,1
1.900019e+00,7.242990e-01,7.169247e-01,7,2,2.391256e+00,2.384091e+00,1
1.903028e+00,5.309570e-01,5.218983e-01,7,1,2.470004e+00,2.467634e+00,1
1.900070e+00,3.194410e-01,3.099442e-01,7,0,2.901111e+00,2.890396e+00,1
1.901284e+00,9.518320e-01,9.438992e-01,7,3,3.026139e+00,3.015460e+00,1
1.902539e+00,2.102260e+00,2.094030e+00,7,7,3.722419e+00,3.714580e+00,1
1.359810e+00,4.931238e+00,4.922152e+00,5,18,2.985965e+00,2.973396e+00,1
2.176798e+00,4.174531e+00,4.164934e+00,8,15,3.800846e+00,3.795553e+00,1
1.902415e+00,1.169733e+00,1.160860e+00,7,3,3.633420e+00,3.634073e+00,1
2.179727e+00,1.433708e+00,1.426220e+00,8,4,2.976400e+00,3.009363e+00,1
1.907114e+00,2.410074e+00,2.401829e+00,7,8,2.341356e+00,2.353264e+00,1
1.903654e+00,2.178896e+00,2.169847e+00,7,7,2.479197e+00,2.504726e+00,1
1.902607e+00,1.169284e+00,1.161098e+00,7,3,2.415955e+00,2.435528e+00,1
1.901235e+00,1.136670e+00,1.127958e+00,7,3,1.557892e+00,1.557602e+00,1
1.900847e+00,1.157023e+00,1.147985e+00,7,3,1.545723e+00,1.564530e+00,1
1.897202e+00,1.186992e+00,1.178026e+00,7,3,9.668806e-01,9.664606e-01,1
1.632618e+00,1.775349e+00,1.765966e+00,6,6,9.277558e-01,9.273528e-01,1
1.894810e+00,5.382420e-01,5.300045e-01,7,1,6.706822e-01,6.692645e-01,1
1.899974e+00,7.546150e-01,7.460117e-01,7,2,5.251997e-01,5.245549e-01,1
2.725758e+00,5.473560e-01,5.381107e-01,10,1,4.296592e-01,4.238345e-01,1
1.359931e+00,5.521490e-01,5.438328e-01,5,1,5.680943e-01,5.680291e-01,1
1.901054e+00,5.463000e-01,5.371571e-01,7,1,2.500373e-01,2.495544e-01,1
1.365454e+00,5.442550e-01,5.350113e-01,5,1,2.312455e-01,2.310501e-01,1
3.263703e+00,5.400270e-01,5.319118e-01,12,1,2.009560e-01,2.001723e-01,1
1.089624e+00,3.251780e-01,3.159046e-01,4,0,2.135426e-01,2.135259e-01,1
8.133400e-01,3.249810e-01,3.159046e-01,3,0,2.325186e-01,2.324665e-01,1
1.089928e+00,3.311220e-01,3.230572e-01,4,0,4.560783e-01,4.560670e-01,1
8.210660e-01,1.195649e+00,1.187086e+00,3,4,2.821764e-01,2.780900e-01,1
1.362134e+00,1.614844e+00,1.605988e+00,5,6,3.900808e-01,3.897671e-01,1
1.900726e+00,3.232320e-01,3.139973e-01,7,0,7.181740e-01,7.176343e-01,1
2.171084e+00,7.606940e-01,7.519722e-01,8,2,4.545553e-01,4.525556e-01,1
1.357751e+00,3.258320e-01,3.180504e-01,5,0,5.821832e-01,5.821754e-01,1
1.088607e+00,3.255440e-01,3.180504e-01,4,0,6.204227e-01,6.203630e-01,1
8.218680e-01,9.840230e-01,9.760857e-01,3,3,8.270781e-01,8.208291e-01,1
1.901098e+00,7.549720e-01,7.469654e-01,7,2,6.498191e-01,6.496500e-01,1
2.178158e+00,5.408980e-01,5.328655e-01,8,1,4.067798e-01,4.064920e-01,1
2.445031e+00,3.256810e-01,3.170967e-01,9,0,2.767476e-01,2.643912e-01,1
1.632940e+00,3.310720e-01,3.230572e-01,6,0,3.998046e-01,3.997716e-01,1
2.175153e+00,3.315130e-01,3.168583e-01,8,0,3.255422e-01,3.226218e-01,1
1.095750e+00,3.248560e-01,3.168583e-01,4,0,2.535745e-01,2.534182e-01,1
1.090729e+00,3.254920e-01,3.180504e-01,4,0,6.287837e-01,6.287556e-01,1
1.090771e+00,3.250700e-01,3.161430e-01,4,0,3.917429e-01,3.917282e-01,1
8.202900e-01,3.303050e-01,3.221035e-01,3,0,6.864267e-01,6.863319e-01,1
1.089998e+00,3.256390e-01,3.170967e-01,4,0,1.432390e+00,1.432390e+00,1
1.091393e+00,1.198001e+00,1.189232e+00,4,4,1.066991e+00,1.066028e+00,1
1.900263e+00,5.363370e-01,5.271435e-01,7,1,8.870310e-01,8.858504e-01,1
1.900747e+00,7.529300e-01,7.448196e-01,7,2,1.866383e+00,1.861581e+00,1
1.900405e+00,7.370610e-01,7.290840e-01,7,2,2.384496e+00,2.379617e+00,1
1.895064e+00,1.173522e+00,1.165152e+00,7,4,1.063684e+00,1.061920e+00,1
1.899457e+00,7.533950e-01,7.441044e-01,7,2,7.146411e-01,7.144706e-01,1
1.090237e+00,1.419643e+00,1.411200e+00,4,5,7.067846e-01,7.020458e-01,1
1.899333e+00,5.303130e-01,5.221367e-01,7,1,3.245848e-01,3.235087e-01,1
1.901915e+00,5.411430e-01,5.321503e-01,7,1,2.611690e-01,2.595900e-01,1
1.899792e+00,7.459250e-01,7.381439e-01,7,2,5.090079e-01,5.073875e-01,1
1.901179e+00,5.363340e-01,5.280972e-01,7,1,4.574394e-01,4.556197e-01,1
1.089993e+00,1.405690e+00,1.396179e+00,4,5,4.405759e-01,4.378550e-01,1
1.900345e+00,9.701750e-01,9.610653e-01,7,3,1.017729e+00,1.014766e+00,1
1.900147e+00,1.172235e+00,1.163006e+00,7,4,7.061051e-01,7.059956e-01,1
2.985327e+00,5.459280e-01,5.378723e-01,11,1,6.449112e-01,6.445681e-01,1
1.091465e+00,7.688310e-01,7.610321e-01,4,2,6.923092e-01,6.912868e-01,1
3.255580e+00,9.803110e-01,9.722710e-01,12,3,5.367311e-01,5.233457e-01,1
1.639182e+00,5.488250e-01,5.400181e-01,6,1,5.997657e-01,5.992287e-01,1
1.902433e+00,9.783290e-01,9.698868e-01,7,3,8.694636e-01,8.687352e-01,1
1.090497e+00,1.415719e+00,1.408100e+00,4,5,5.708019e-01,5.647478e-01,1
1.634712e+00,1.180724e+00,1.172066e+00,6,4,7.175177e-01,7.172657e-01,1
1.090840e+00,3.247030e-01,3.161430e-01,4,0,8.583566e-01,8.583187e-01,1
2.715775e+00,3.308860e-01,3.230572e-01,10,0,9.821260e-01,9.776705e-01,1
1.088811e+00,1.198897e+00,1.190901e+00,4,4,1.343104e+00,1.340567e+00,1
1.900749e+00,5.305510e-01,5.221367e-01,7,1,7.284079e-01,7.262594e-01,1
1.091025e+00,2.050381e+00,2.040863e+00,4,8,6.430411e-01,6.383665e-01,1
1.901462e+00,7.490860e-01,7.410049e-01,7,2,6.672502e-01,6.645305e-01,1
1.900361e+00,3.179000e-01,3.089905e-01,7,0,7.164206e-01,7.137845e-01,1
1.901831e+00,7.455320e-01,7.371902e-01,7,2,4.537916e-01,4.509200e-01,1
1.907590e+00,1.184063e+00,1.174927e+00,7,4,1.367836e+00,1.365914e+00,1
1.629407e+00,1.396491e+00,1.388073e+00,6,5,9.290863e-01,9.276960e-01,1
1.903968e+00,9.562160e-01,9.479523e-01,7,3,8.839160e-01,8.826948e-01,1
1.905816e+00,7.734800e-01,7.629395e-01,7,2,8.333289e-01,8.322602e-01,1
1.901004e+00,1.778559e+00,1.768589e+00,7,6,7.747857e-01,7.729869e-01,1
1.901449e+00,7.780090e-01,7.679462e-01,7,2,5.534122e-01,5.504211e-01,1
1.902449e+00,7.470930e-01,7.390976e-01,7,2,8.006717e-01,7.995813e-01,1
1.901699e+00,9.753110e-01,9.658337e-01,7,3,9.112956e-01,9.102172e-01,1
3.255592e+00,7.623050e-01,7.529259e-01,12,2,7.910870e-01,7.876905e-01,1
1.090264e+00,9.830400e-01,9.751320e-01,4,3,9.214117e-01,9.192912e-01,1
1.627903e+00,1.403459e+00,1.394033e+00,6,5,6.605440e-01,6.522173e-01,1
1.092331e+00,2.023110e+00,2.014875e+00,4,8,6.201880e-01,6.099389e-01,1
1.903347e+00,7.304230e-01,7.219315e-01,7,2,4.888767e-01,4.860191e-01,1
1.905379e+00,1.600726e+00,1.590967e+00,7,6,3.997656e-01,3.969333e-01,1
1.359220e+00,3.254720e-01,3.159046e-01,5,0,3.292026e-01,3.291736e-01,1
8.218870e-01,7.686550e-01,7.600784e-01,3,2,5.416265e-01,5.404336e-01,1
2.178110e+00,5.373010e-01,5.290508e-01,8,1,3.397580e-01,3.386051e-01,1
2.447948e+00,5.419650e-01,5.340576e-01,9,1,4.682420e-01,4.675675e-01,1
1.903084e+00,1.198002e+00,1.190186e+00,7,4,4.184279e-01,4.152960e-01,1
2.172308e+00,1.184024e+00,1.176119e+00,8,4,4.859298e-01,4.829339e-01,1
3.260720e+00,3.319840e-01,3.230572e-01,12,0,6.334806e-01,6.313644e-01,1
2.991048e+00,3.263190e-01,3.180504e-01,11,0,5.038037e-01,4.976605e-01,1
1.361060e+00,2.246602e+00,2.237082e+00,5,9,1.629167e+00,1.626829e+00,1
1.904000e+00,2.296192e+00,2.286196e+00,7,10,4.013680e+00,3.963752e+00,1
1.901992e+00,2.051110e+00,2.041817e+00,7,9,2.966128e+00,2.935516e+00,1
1.901675e+00,1.515932e+00,1.507998e+00,7,6,2.231701e+00,2.224158e+00,1
1.090912e+00,2.007692e+00,1.999140e+00,4,8,1.776757e+00,1.772806e+00,1
1.360134e+00,9.853010e-01,9.760857e-01,5,3,1.928867e+00,1.928451e+00,1
1.903993e+00,1.404383e+00,1.394987e+00,7,5,1.470236e+00,1.468071e+00,1
1.901262e+00,7.445140e-01,7.359982e-01,7,2,1.242062e+00,1.238446e+00,1
1.903974e+00,9.457000e-01,9.357929e-01,7,3,1.178001e+00,1.175212e+00,1
1.899358e+00,5.311550e-01,5.230904e-01,7,1,1.199949e+00,1.194601e+00,1
1.359517e+00,1.966964e+00,1.959085e+00,5,8,9.573792e-01,9.474239e-01,1
1.361834e+00,1.737012e+00,1.727104e+00,5,7,1.284457e+00,1.283588e+00,1
1.902395e+00,3.087900e-01,3.008842e-01,7,0,2.162165e+00,2.143461e+00,1
1.903201e+00,7.198870e-01,7.109642e-01,7,2,1.556278e+00,1.543093e+00,1
1.901806e+00,7.271450e-01,7.181168e-01,7,2,8.172534e-01,8.092965e-01,1
1.902916e+00,1.157977e+00,1.149178e+00,7,4,4.541483e-01,4.521660e-01,1
1.902411e+00,9.724320e-01,9.629726e-01,7,3,4.185368e-01,4.185312e-01,1
1.636901e+00,5.463430e-01,5.369186e-01,6,1,4.441512e-01,4.440270e-01,1
2.984852e+00,5.461530e-01,5.388260e-01,11,1,6.368477e-01,6.358079e-01,1
1.090942e+00,3.260150e-01,3.180504e-01,4,0,4.335123e-01,4.324405e-01,1
1.091022e+00,7.688670e-01,7.600784e-01,4,2,5.275652e-01,5.267558e-01,1
1.900541e+00,5.375380e-01,5.290508e-01,7,1,6.080036e-01,6.078207e-01,1
2.715325e+00,5.458770e-01,5.369186e-01,10,1,6.167394e-01,6.165723e-01,1
8.209830e-01,1.472894e+00,1.464844e+00,3,4,1.013827e+00,1.018536e+00,1
1.899733e+00,1.279225e+00,1.270056e+00,7,4,5.516583e-01,5.503625e-01,1
3.257425e+00,3.315280e-01,3.230572e-01,12,0,4.486279e-01,4.486080e-01,1
1.092524e+00,1.830555e+00,1.821041e+00,4,7,1.736831e+00,1.732649e+00,1
1.901496e+00,1.157798e+00,1.148939e+00,7,4,2.084321e+00,2.082670e+00,1
2.172789e+00,9.737900e-01,9.641647e-01,8,3,9.371986e-01,9.330726e-01,1
1.090359e+00,5.513030e-01,5.428791e-01,4,1,9.770607e-01,9.761654e-01,1
3.259973e+00,5.412860e-01,5.321503e-01,12,1,8.631676e-01,8.600584e-01,1
2.719042e+00,6.709180e-01,6.616116e-01,10,1,8.795113e-01,8.850658e-01,1
2.712284e+00,5.963270e-01,5.872250e-01,10,1,4.204034e-01,4.185288e-01,1
2.717497e+00,3.298830e-01,3.221035e-01,10,0,3.471551e-01,3.338110e-01,1
3.263295e+00,9.836860e-01,9.741783e-01,12,3,5.718720e-01,5.615565e-01,1
1.912691e+00,3.211370e-01,3.116131e-01,7,0,7.191424e-01,7.121087e-01,1
1.901311e+00,9.682380e-01,9.601116e-01,7,3,8.954919e-01,8.930287e-01,1
3.261276e+00,1.182733e+00,1.173973e+00,12,4,5.797216e-01,5.745731e-01,1
1.092294e+00,1.618281e+00,1.608849e+00,4,6,4.463076e-01,4.422325e-01,1
1.901083e+00,5.312410e-01,5.218983e-01,7,1,7.218535e-01,7.158710e-01,1
1.901905e+00,5.213040e-01,5.118847e-01,7,1,1.066298e+00,1.060053e+00,1
1.901845e+00,5.315560e-01,5.230904e-01,7,1,1.195967e+00,1.190959e+00,1
1.903331e+00,3.177460e-01,3.099442e-01,7,0,1.821277e+00,1.815743e+00,1
1.903206e+00,1.173989e+00,1.164913e+00,7,4,1.734663e+00,1.730864e+00,1
1.896361e+00,2.395509e+00,2.388000e+00,7,8,2.809988e+00,2.815286e+00,1
1.631394e+00,3.130227e+00,3.121853e+00,6,12,1.074104e+00,1.072422e+00,1
1.896162e+00,1.174601e+00,1.164913e+00,7,4,9.260182e-01,9.233084e-01,1
1.902660e+00,1.172397e+00,1.162052e+00,7,4,1.612524e+00,1.604607e+00,1
1.902006e+00,1.352288e+00,1.343012e+00,7,5,7.751089e-01,7.701438e-01,1
1.902133e+00,7.539400e-01,7.438660e-01,7,2,7.794518e-01,7.784258e-01,1
1.902127e+00,3.259410e-01,3.170967e-01,7,0,5.477414e-01,5.471414e-01,1
1.900793e+00,5.409840e-01,5.328655e-01,7,1,2.878560e-01,2.874502e-01,1
1.900639e+00,5.499700e-01,5.409718e-01,7,1,6.943041e-01,6.932771e-01,1
3.259171e+00,7.608940e-01,7.522106e-01,12,2,6.600504e-01,6.591107e-01,1
1.366156e+00,3.263280e-01,3.178120e-01,5,0,4.140740e-01,4.140735e-01,1
8.210950e-01,1.730952e+00,1.722097e+00,3,5,1.047661e+00,1.050866e+00,1
1.896613e+00,1.320773e+00,1.311779e+00,7,4,5.661928e-01,5.647706e-01,1
2.177261e+00,9.710180e-01,9.620190e-01,8,3,3.100039e-01,3.092092e-01,1
8.205880e-01,5.458310e-01,5.366802e-01,3,1,3.152771e-01,3.148201e-01,1
1.627493e+00,5.466600e-01,5.381107e-01,6,1,4.658475e-01,4.657664e-01,1
8.134420e-01,3.313520e-01,3.240108e-01,3,0,7.502844e-01,7.491684e-01,1
1.362589e+00,9.812570e-01,9.729862e-01,5,3,1.291143e+00,1.288828e+00,1
1.090013e+00,2.466388e+00,2.457857e+00,4,10,1.233174e+00,1.226256e+00,1
1.901485e+00,7.340470e-01,7.262230e-01,7,2,2.016317e+00,2.000065e+00,1
1.901489e+00,1.565778e+00,1.555920e+00,7,6,8.623798e-01,8.592947e-01,1
1.628163e+00,9.696810e-01,9.620190e-01,6,3,6.798223e-01,6.794074e-01,1
1.632290e+00,7.684080e-01,7.610321e-01,6,2,4.037467e-01,4.028368e-01,1
1.900048e+00,3.228210e-01,3.151894e-01,7,0,4.102970e-01,4.098598e-01,1
1.901696e+00,1.387758e+00,1.379013e+00,7,5,9.484201e-01,9.432107e-01,1
1.900760e+00,7.368910e-01,7.269382e-01,7,2,1.128463e+00,1.124811e+00,1
1.916140e+00,7.434120e-01,7.350445e-01,7,2,1.452091e+00,1.445274e+00,1
1.895765e+00,7.370400e-01,7.219315e-01,7,2,1.384720e+00,1.378760e+00,1
1.900966e+00,5.341630e-01,5.259514e-01,7,1,1.627895e+00,1.622749e+00,1
1.902868e+00,2.382156e+00,2.372742e+00,7,10,2.603687e+00,2.577138e+00,1
1.904628e+00,8.991240e-01,8.900166e-01,7,3,2.993005e+00,2.967354e+00,1
1.903715e+00,1.295990e+00,1.286983e+00,7,5,2.022156e+00,2.014250e+00,1
2.719446e+00,1.503878e+00,1.495123e+00,10,6,1.698150e+00,1.684645e+00,1
1.630651e+00,1.922063e+00,1.912594e+00,6,8,2.466374e+00,2.464544e+00,1
1.092720e+00,2.760961e+00,2.752066e+00,4,12,1.413918e+00,1.398147e+00,1
1.903811e+00,7.107070e-01,7.019043e-01,7,2,1.050810e+00,1.038551e+00,1
1.903460e+00,1.514737e+00,1.505852e+00,7,6,1.217861e+00,1.214080e+00,1
1.901521e+00,1.543147e+00,1.534939e+00,7,6,1.470711e+00,1.466459e+00,1
2.715831e+00,1.594802e+00,1.585960e+00,10,6,1.889214e+00,1.888549e+00,1
1.091515e+00,2.244011e+00,2.234936e+00,4,9,9.465660e-01,9.409303e-01,1
1.902310e+00,5.191400e-01,5.099773e-01,7,1,9.771204e-01,9.697894e-01,1
1.896134e+00,5.192090e-01,5.099773e-01,7,1,1.413355e+00,1.405565e+00,1
1.900746e+00,5.279350e-01,5.199909e-01,7,1,1.689980e+00,1.683320e+00,1
1.900856e+00,1.374362e+00,1.366854e+00,7,5,1.089365e+00,1.087574e+00,1
1.901246e+00,5.415950e-01,5.321503e-01,7,1,1.084093e+00,1.082565e+00,1
3.254622e+00,1.180298e+00,1.171827e+00,12,4,6.611419e-01,6.458080e-01,1
1.632484e+00,7.626410e-01,7.550716e-01,6,2,5.733378e-01,5.699585e-01,1

